VERTEX2 0 -0.00001677 0.00000037 -0.00000024
VERTEX2 1 -0.00001677 0.00000037 -0.00064224
VERTEX2 2 -0.00001677 0.00000037 -0.00118024
VERTEX2 3 0.01254996 -0.00111367 -0.00378132
VERTEX2 4 0.64325259 -0.01201960 -0.00784903
VERTEX2 5 0.69888694 -0.01256761 -0.09934691
VERTEX2 6 0.70940201 -0.02177897 -0.89720375
VERTEX2 7 0.70665969 -0.01321773 -1.51321374
VERTEX2 8 0.70931325 -0.00205002 -2.12721869
VERTEX2 9 0.72053909 0.00752229 -2.76577177
VERTEX2 10 0.73202617 0.00936390 2.90241482
VERTEX2 11 0.74207413 0.00293404 2.22763352
VERTEX2 12 0.74221529 -0.00812942 1.57767186
VERTEX2 13 0.74437757 -0.00140781 0.91768098
VERTEX2 14 0.76004443 0.00948768 0.30898186
VERTEX2 15 0.76871251 0.01003395 -0.21635886
VERTEX2 16 1.06909428 -0.05342740 -0.23510577
VERTEX2 17 1.67678755 -0.20679596 -0.26632632
VERTEX2 18 2.30686245 -0.37665591 -0.27643286
VERTEX2 19 2.94152908 -0.58161002 -0.32486462
VERTEX2 20 3.53613620 -0.77655506 -0.31895897
VERTEX2 21 4.14514509 -0.93345301 -0.20732292
VERTEX2 22 4.75471351 -1.07917630 -0.18980633
VERTEX2 23 5.38437685 -1.12674830 -0.08209357
VERTEX2 24 6.00638133 -1.20077131 -0.13883797
VERTEX2 25 6.63581446 -1.27191131 -0.13547956
VERTEX2 26 7.24318035 -1.37530646 -0.17533993
VERTEX2 27 7.85738514 -1.46911652 -0.15883267
VERTEX2 28 8.43762049 -1.56966954 -0.16258608
VERTEX2 29 8.81524690 -1.62790427 -0.13106284
VERTEX2 30 8.82460892 -1.63040391 -0.66152432
VERTEX2 31 8.92285370 -1.76225957 -0.93165267
VERTEX2 32 9.28669421 -2.27514338 -0.95123045
VERTEX2 33 9.64939213 -2.75871907 -0.90086592
VERTEX2 34 10.03953365 -3.22673771 -0.88019905
VERTEX2 35 10.43874199 -3.68622700 -0.84670645
VERTEX2 36 10.84396108 -4.14729760 -0.85599558
VERTEX2 37 11.10294356 -4.43862094 -0.84902986
VERTEX2 38 11.08135707 -4.40908789 -1.17202704
VERTEX2 39 11.07327674 -4.37171893 -1.34409585
VERTEX2 40 11.20597652 -4.91574418 -1.32759243
VERTEX2 41 11.34355455 -5.48486005 -1.36028718
VERTEX2 42 11.45494587 -6.02129746 -1.38299460
VERTEX2 43 11.55111329 -6.58989833 -1.42309223
VERTEX2 44 11.63101881 -7.15438581 -1.45965984
VERTEX2 45 11.68176203 -7.76824966 -1.51498654
VERTEX2 46 11.70878547 -8.38349840 -1.53423223
VERTEX2 47 11.72512322 -8.99829030 -1.57579924
VERTEX2 48 11.71815463 -9.61687495 -1.58227931
VERTEX2 49 11.70753651 -10.23130926 -1.63307464
VERTEX2 50 11.65061592 -10.82138424 -1.67675978
VERTEX2 51 11.59365725 -11.41142774 -1.70582357
VERTEX2 52 11.49552325 -11.98636013 -1.78260582
VERTEX2 53 11.39474425 -12.53548989 -1.77036209
VERTEX2 54 11.28154367 -13.03792596 -1.83261644
VERTEX2 55 11.29154361 -12.99142792 -1.82761780
VERTEX2 56 11.29143536 -12.99181987 -1.81640527
VERTEX2 57 11.14507231 -13.60730718 -1.82719727
VERTEX2 58 10.99656041 -14.21109147 -1.78036549
VERTEX2 59 10.86561388 -14.81499604 -1.80340362
VERTEX2 60 10.73439153 -15.41534659 -1.78151855
VERTEX2 61 10.59770448 -16.01616479 -1.83176688
VERTEX2 62 10.44957160 -16.56501527 -1.79232038
VERTEX2 63 10.29832426 -17.12308345 -1.82797092
VERTEX2 64 10.16287933 -17.67880824 -1.76373666
VERTEX2 65 10.02841922 -18.23215054 -1.81439859
VERTEX2 66 9.87564346 -18.81472812 -1.82182427
VERTEX2 67 9.71295698 -19.39588246 -1.82003206
VERTEX2 68 9.59684670 -19.86515279 -1.83808860
VERTEX2 69 9.59317353 -19.87684306 -1.99598994
VERTEX2 70 9.58873156 -19.88510740 -2.67664817
VERTEX2 71 9.59739243 -19.88474153 2.95784661
VERTEX2 72 9.61047503 -19.88708158 2.94573746
VERTEX2 73 9.62274664 -19.89042667 2.87779032
VERTEX2 74 9.63113335 -19.89644436 2.24889860
VERTEX2 75 10.23429791 -13.82220036 -0.63312810
VERTEX2 76 11.69135685 4.95057711 -2.72600752
VERTEX2 77 11.68536258 4.94697676 -2.49689388
VERTEX2 78 11.52108014 4.70762703 -2.16432544
VERTEX2 79 11.17863636 4.18638545 -2.17187348
VERTEX2 80 10.79480322 3.67988065 -2.24905037
VERTEX2 81 10.39448641 3.19614617 -2.27750298
VERTEX2 82 7.49377077 -20.14561993 2.98335295
VERTEX2 83 6.86352626 -20.04447016 2.96417738
VERTEX2 84 6.23855398 -19.90349695 2.89239758
VERTEX2 85 5.61881596 -19.74166251 2.90616950
VERTEX2 86 4.91685327 -19.55231179 2.82597994
VERTEX2 87 4.34614879 -19.34680845 2.78784679
VERTEX2 88 3.98922374 -19.21058900 2.75826520
VERTEX2 89 4.00314035 -19.21133228 -3.12868524
VERTEX2 90 3.40320015 -19.20890482 3.12363038
VERTEX2 91 2.79234839 -19.19896275 -3.11018950
VERTEX2 92 2.19758784 -19.18951213 3.05765849
VERTEX2 93 1.58000233 -19.08203111 2.95718126
VERTEX2 94 0.96227241 -18.93895043 2.91478312
VERTEX2 95 0.34791037 -18.84816741 3.05755239
VERTEX2 96 -0.25551946 -18.79382761 3.08172023
VERTEX2 97 -0.83824166 -18.72799980 3.01118927
VERTEX2 98 -1.41875921 -18.62474810 2.95324497
VERTEX2 99 -2.11561142 -18.49759082 3.00002949
VERTEX2 100 -2.67186840 -18.38769732 2.94823603
VERTEX2 101 -3.27851190 -18.32809278 3.05172008
VERTEX2 102 -3.88202636 -18.24620636 2.94506902
VERTEX2 103 -4.47968314 -18.13000179 3.04016690
VERTEX2 104 -5.09188606 -18.04959704 3.00720400
VERTEX2 105 -5.70462170 -17.98144213 3.05444426
VERTEX2 106 -6.30642574 -17.90781282 3.00015487
VERTEX2 107 -6.92320279 -17.80881339 2.99677818
VERTEX2 108 -7.37576037 -17.75730430 3.05833911
VERTEX2 109 -7.41915690 -17.74605119 2.61028683
VERTEX2 110 -7.43742376 -17.72695282 2.01950767
VERTEX2 111 -7.43720584 -17.64086777 1.51403337
VERTEX2 112 -7.41020646 -17.00720614 1.56832703
VERTEX2 113 -7.42482467 -16.39323678 1.61453790
VERTEX2 114 -7.45354944 -15.78800538 1.65056631
VERTEX2 115 -7.52026048 -15.16980770 1.71028081
VERTEX2 116 -7.63049283 -14.44092619 1.75383515
VERTEX2 117 -7.75953794 -13.84133653 1.84928332
VERTEX2 118 -7.76183038 -13.83049381 1.51430431
VERTEX2 119 -7.70417005 -13.32510538 1.46080533
VERTEX2 120 -7.64852281 -12.68154481 1.55075578
VERTEX2 121 -7.65524779 -12.07397776 1.61809455
VERTEX2 122 -7.68467226 -11.50049263 1.67443044
VERTEX2 123 -7.70717768 -11.33022328 1.66147238
VERTEX2 124 -7.62216922 -11.09919877 1.23831037
VERTEX2 125 -7.40423217 -10.51466929 1.22734101
VERTEX2 126 -7.26972502 -9.90781823 1.43389335
VERTEX2 127 -7.17048445 -9.28850265 1.43227307
VERTEX2 128 -7.09301464 -8.66541543 1.46868322
VERTEX2 129 -7.00494955 -8.04614107 1.43602980
VERTEX2 130 -6.93537786 -7.42922678 1.48872660
VERTEX2 131 -6.88711623 -6.81866745 1.57725197
VERTEX2 132 -6.86617338 -6.21843726 1.52772764
VERTEX2 133 -6.81665970 -5.66164537 1.49079380
VERTEX2 134 -6.75992843 -5.07606705 1.47252179
VERTEX2 135 -6.67571581 -4.51012999 1.44627392
VERTEX2 136 -6.59860079 -3.88823042 1.46597672
VERTEX2 137 -6.49939321 -3.26839489 1.42430938
VERTEX2 138 -6.42047092 -2.65156857 1.50495330
VERTEX2 139 -6.39997017 -2.01166985 1.57204792
VERTEX2 140 -6.42593313 -1.34910185 1.60434993
VERTEX2 141 -6.43213284 -0.72316908 1.55594555
VERTEX2 142 -6.43279284 -0.08761234 1.55211410
VERTEX2 143 -6.35386235 0.53616650 1.44152830
VERTEX2 144 -6.31578029 0.89291246 1.45902295
VERTEX2 145 -6.31523623 0.89455027 0.96052260
VERTEX2 146 -6.31660650 0.88757430 0.36718034
VERTEX2 147 -6.26633726 0.88407988 -0.11943756
VERTEX2 148 -5.83917841 0.82466226 -0.15510486
VERTEX2 149 -5.20304349 0.73133789 -0.12997382
VERTEX2 150 -4.57880611 0.66813529 -0.11580729
VERTEX2 151 -3.94913304 0.62181540 -0.03011744
VERTEX2 152 -3.33211535 0.58653828 -0.09146340
VERTEX2 153 -2.71560452 0.55355757 0.00157830
VERTEX2 154 -2.09866036 0.53149205 -0.06810980
VERTEX2 155 -1.47731102 0.49689680 -0.03468209
VERTEX2 156 -0.85467898 0.48131204 -0.00381130
VERTEX2 157 -0.29558795 0.46271392 -0.06790360
VERTEX2 158 -0.10677719 0.44943158 -0.04059047
VERTEX2 159 -0.10198978 0.44789776 0.94667855
VERTEX2 160 -0.09658530 0.45672180 1.98229436
VERTEX2 161 -0.11734491 0.40237922 2.70566748
VERTEX2 162 -0.08936158 0.40861565 -2.54256022
VERTEX2 163 -0.09236241 0.39387587 -1.54600145
VERTEX2 164 -0.15990297 0.47853438 -0.48530420
VERTEX2 165 0.01126940 0.46044621 -0.07743396
VERTEX2 166 0.69640120 0.41390188 -0.07511339
VERTEX2 167 1.30804672 0.35896220 -0.10459408
VERTEX2 168 1.89124502 0.30527341 -0.09261986
VERTEX2 169 2.48260201 0.22919536 -0.12948667
VERTEX2 170 3.06324649 0.15719363 -0.14992506
VERTEX2 171 3.62013694 0.05548101 -0.18796238
VERTEX2 172 4.24056140 -0.05575723 -0.17359393
VERTEX2 173 4.85419940 -0.17650421 -0.19709589
VERTEX2 174 5.46698164 -0.29177345 -0.15776846
VERTEX2 175 6.08469488 -0.38624572 -0.18179475
VERTEX2 176 6.68539840 -0.51037172 -0.17151824
VERTEX2 177 7.31022732 -0.61665607 -0.19848823
VERTEX2 178 7.93295386 -0.76574825 -0.23679813
VERTEX2 179 8.33448808 -0.85071754 -0.18319443
VERTEX2 180 8.38328486 -0.86402030 -0.62473236
VERTEX2 181 8.82267460 -1.18366559 -0.67625585
VERTEX2 182 9.22625868 -1.54307109 -0.85036060
VERTEX2 183 9.56991260 -1.96206370 -0.90779865
VERTEX2 184 9.87574485 -2.42881188 -1.05549394
VERTEX2 185 10.13129592 -2.91828679 -1.14902109
VERTEX2 186 10.32837653 -3.44071230 -1.21620052
VERTEX2 187 10.50229855 -3.94150703 -1.23944487
VERTEX2 188 10.68225609 -4.46206618 -1.24534682
VERTEX2 189 10.85522388 -4.98691750 -1.27246472
VERTEX2 190 11.03175057 -5.58851174 -1.30073746
VERTEX2 191 11.19865160 -6.18983093 -1.32438169
VERTEX2 192 11.34699922 -6.78429621 -1.35229375
VERTEX2 193 11.46524347 -7.32982442 -1.40753181
VERTEX2 194 11.56007445 -7.89586659 -1.43383630
VERTEX2 195 11.63577896 -8.45690720 -1.46197872
VERTEX2 196 11.69865039 -9.08273952 -1.50246443
VERTEX2 197 11.73296854 -9.70383853 -1.52970629
VERTEX2 198 11.75432549 -10.31352471 -1.58774102
VERTEX2 199 11.72338087 -10.91154301 -1.64903748
VERTEX2 200 11.67345718 -11.50871554 -1.67074708
VERTEX2 201 11.60022448 -12.10196820 -1.72725388
VERTEX2 202 11.53510695 -12.59834454 -1.70633766
VERTEX2 203 11.43201327 -13.32322293 -1.75832192
VERTEX2 204 11.31084270 -13.88623762 -1.86050594
VERTEX2 205 11.14243524 -14.43728914 -1.86967070
VERTEX2 206 10.98914880 -14.97351609 -1.86750143
VERTEX2 207 10.83026158 -15.52940178 -1.85131174
VERTEX2 208 10.65789913 -16.11782196 -1.86053591
VERTEX2 209 10.49082466 -16.73026361 -1.82081672
VERTEX2 210 10.32751628 -17.31843865 -1.82948380
VERTEX2 211 10.17819866 -17.91050118 -1.82704488
VERTEX2 212 10.00164652 -18.49203980 -1.87970457
VERTEX2 213 9.80672332 -19.07727817 -1.90031131
VERTEX2 214 9.60724891 -19.64899491 -1.90394814
VERTEX2 215 9.49311945 -19.96696112 -1.93956822
VERTEX2 216 9.50793318 -19.94168637 -2.43777518
VERTEX2 217 9.53995066 -19.93828217 -2.97945258
VERTEX2 218 9.55312850 -19.94334492 -3.03529963
VERTEX2 219 8.99236809 -19.89933443 3.07962732
VERTEX2 220 8.38884422 -19.85535023 3.03995619
VERTEX2 221 7.75031854 -19.79165246 3.09060561
VERTEX2 222 7.14921878 -19.75427044 3.06465891
VERTEX2 223 6.54584686 -19.72945303 -3.12294059
VERTEX2 224 5.95034125 -19.73333292 3.13354382
VERTEX2 225 5.35178342 -19.73055133 -3.10116639
VERTEX2 226 4.75394964 -19.72635575 3.13141242
VERTEX2 227 4.10885323 -19.79357448 -2.99531415
VERTEX2 228 3.58885325 -19.77679221 2.92591765
VERTEX2 229 3.16439982 -19.74359725 3.04560313
VERTEX2 230 2.87750421 -19.72659988 3.01661206
VERTEX2 231 3.08510720 -19.74599697 3.08652068
VERTEX2 232 2.77706625 -19.60516398 2.66090424
VERTEX2 233 2.21554695 -19.34082058 2.76336710
VERTEX2 234 1.64226771 -19.11064558 2.71936537
VERTEX2 235 1.39446905 -19.00182107 2.71453399
VERTEX2 236 1.06422170 -19.00095942 3.12039171
VERTEX2 237 0.44127539 -19.01216230 -3.09255056
VERTEX2 238 -0.17855419 -19.05732085 -3.12497805
VERTEX2 239 -0.78903979 -19.05140720 3.09070494
VERTEX2 240 -1.35111395 -18.93215732 2.87275501
VERTEX2 241 -1.88155608 -18.80065544 2.95777667
VERTEX2 242 -2.44887833 -18.73322596 2.99738434
VERTEX2 243 -3.04329975 -18.64805776 2.99711593
VERTEX2 244 -3.66301665 -18.59981547 3.06875420
VERTEX2 245 -4.27376240 -18.54858841 3.01478787
VERTEX2 246 -4.87140436 -18.46055368 2.94263773
VERTEX2 247 -5.46430697 -18.37774810 3.04815786
VERTEX2 248 -6.01499177 -18.35361297 3.07974833
VERTEX2 249 -5.96535144 -18.36133087 -3.01052216
VERTEX2 250 -5.96136204 -18.36122674 2.68570525
VERTEX2 251 -6.27996343 -18.02181216 2.26238218
VERTEX2 252 -6.63209358 -17.60225077 2.27092376
VERTEX2 253 -7.00028246 -17.15696457 2.25995698
VERTEX2 254 -7.36194889 -16.69953440 2.21878241
VERTEX2 255 -7.43399066 -16.60719360 2.30263730
VERTEX2 256 -7.43661216 -16.53000739 1.82664808
VERTEX2 257 -7.48617486 -16.07119345 1.69150260
VERTEX2 258 -7.56709611 -15.48216709 1.77192321
VERTEX2 259 -7.70338595 -14.88929519 1.81373212
VERTEX2 260 -7.83183915 -14.33811269 1.80672528
VERTEX2 261 -7.82953391 -14.30131885 1.49765822
VERTEX2 262 -7.76512958 -13.66653850 1.50280972
VERTEX2 263 -7.72072529 -13.06690306 1.51491176
VERTEX2 264 -7.70218500 -12.48323176 1.61056796
VERTEX2 265 -7.72753383 -11.90499293 1.62969345
VERTEX2 266 -7.67580015 -11.34197063 1.49939046
VERTEX2 267 -7.61971898 -10.60976118 1.46946115
VERTEX2 268 -7.48528503 -10.02098802 1.35881381
VERTEX2 269 -7.36266845 -9.42173241 1.38843914
VERTEX2 270 -7.28589175 -8.80468163 1.50267882
VERTEX2 271 -7.18631318 -8.18882836 1.39249865
VERTEX2 272 -7.09644673 -7.56832388 1.45800398
VERTEX2 273 -7.10131458 -6.95205064 1.67016000
VERTEX2 274 -7.16288319 -6.34979771 1.69421766
VERTEX2 275 -7.14654096 -5.75658225 1.52286130
VERTEX2 276 -7.13530140 -5.16438604 1.63750748
VERTEX2 277 -7.17666587 -4.61528506 1.61211170
VERTEX2 278 -7.12956504 -3.98283554 1.52328311
VERTEX2 279 -7.08583576 -3.35885655 1.46776438
VERTEX2 280 -7.01417761 -2.73986929 1.46971595
VERTEX2 281 -6.92035280 -2.11876167 1.36921362
VERTEX2 282 -6.79768454 -1.50366496 1.40908715
VERTEX2 283 -6.70689630 -0.87781712 1.40136201
VERTEX2 284 -6.59125916 -0.26062635 1.42889816
VERTEX2 285 -6.51674183 0.36699043 1.44685736
VERTEX2 286 -6.44147991 0.96728815 1.49747329
VERTEX2 287 -6.43932360 0.99820709 1.38879502
VERTEX2 288 -6.35287147 1.35888078 1.36778321
VERTEX2 289 -6.67266536 1.04688061 0.21494894
VERTEX2 290 -6.15935330 1.04036214 -0.01740141
VERTEX2 291 -5.46443287 1.03055128 -0.00824302
VERTEX2 292 -4.84935790 1.00681562 -0.06357642
VERTEX2 293 -4.22371659 0.95688415 -0.08713310
VERTEX2 294 -3.60107654 0.89957320 -0.08677355
VERTEX2 295 -2.97955646 0.81409956 -0.19969432
VERTEX2 296 -2.35860883 0.66275295 -0.24531807
VERTEX2 297 -1.73938235 0.50415915 -0.25707536
VERTEX2 298 -1.12863235 0.34399824 -0.25824322
VERTEX2 299 -0.55351016 0.18131788 -0.19748195
VERTEX2 300 0.02877124 0.09024636 -0.15556615
VERTEX2 301 0.58794194 -0.01472101 -0.21486295
VERTEX2 302 0.88887697 -0.08227945 -0.23580604
VERTEX2 303 0.87143394 -0.08006070 -0.23171235
VERTEX2 304 1.36552185 -0.19945128 -0.22205211
VERTEX2 305 1.96747801 -0.24943295 -0.03787345
VERTEX2 306 2.59412851 -0.26577138 -0.05617439
VERTEX2 307 3.23213194 -0.31961313 -0.09301488
VERTEX2 308 3.85762664 -0.38736530 -0.14877387
VERTEX2 309 4.49160647 -0.45249995 -0.05579363
VERTEX2 310 5.11827558 -0.48708135 -0.09162536
VERTEX2 311 5.39856949 -0.51497485 0.08351539
VERTEX2 312 5.39412519 -0.51730927 1.07298248
VERTEX2 313 5.39935168 -0.30607988 1.56944429
VERTEX2 314 5.38109148 0.32665963 1.60999852
VERTEX2 315 5.35326248 0.95890221 1.60635115
VERTEX2 316 5.31487167 1.60768417 1.65983679
VERTEX2 317 5.25372174 2.25235143 1.67181875
VERTEX2 318 5.15373351 2.89102268 1.76882518
VERTEX2 319 5.07234916 3.23798967 1.84257627
VERTEX2 320 19.51648182 -9.65856744 -1.64939381
VERTEX2 321 0.23115748 -7.02740236 0.93138614
VERTEX2 322 -1.57742719 -1.87004502 3.06050898
VERTEX2 323 -1.59480362 -1.88185403 -2.22444984
VERTEX2 324 -1.59807575 -1.88761318 -1.56059203
VERTEX2 325 -1.59797063 -1.88671175 -2.08492922
VERTEX2 326 1.08568191 3.58153071 -1.91993051
VERTEX2 327 1.06345326 3.55967315 -2.54084645
VERTEX2 328 0.49694408 3.21712819 -2.58624978
VERTEX2 329 -0.08180773 2.87374258 -2.64121172
VERTEX2 330 -0.67084776 2.56397504 -2.66022060
VERTEX2 331 -1.25779872 2.25572302 -2.67489637
VERTEX2 332 -1.85812330 1.96916629 -2.69371027
VERTEX2 333 -2.04195879 1.88321489 -2.62891733
VERTEX2 334 4.78203693 -0.10564975 -0.86140594
VERTEX2 335 4.81827341 -0.11714468 0.13301654
VERTEX2 336 4.86712836 -0.10077305 1.07723010
VERTEX2 337 4.87735028 -0.04086811 2.05940528
VERTEX2 338 4.87897863 -0.04204811 3.04967818
VERTEX2 339 4.89281042 -0.03357772 -2.18272035
VERTEX2 340 4.89357637 -0.03859111 -1.16211092
VERTEX2 341 5.01127302 -0.11042871 -0.52787658
VERTEX2 342 5.58772833 -0.42040817 -0.42556181
VERTEX2 343 6.23525841 -0.65196237 -0.29195577
VERTEX2 344 6.89241032 -0.86109535 -0.29956179
VERTEX2 345 7.19909878 -0.95202953 -0.32443449
VERTEX2 346 7.20644940 -0.95442899 -0.96955084
VERTEX2 347 7.20931172 -1.05029323 -1.52707251
VERTEX2 348 7.22949524 -1.64837985 -1.54337498
VERTEX2 349 7.22933514 -2.27084086 -1.58309580
VERTEX2 350 7.21953220 -3.06150385 -1.60230159
VERTEX2 351 7.20583691 -3.33661953 -1.63088454
VERTEX2 352 4.59627596 -25.88393440 -1.73713610
VERTEX2 353 4.60109220 -25.87515245 -2.40023216
VERTEX2 354 5.64524224 -25.00097054 -2.52614573
VERTEX2 355 5.65225817 -24.99593527 3.03614032
VERTEX2 356 -3.80521656 -3.23325638 0.94311599
VERTEX2 357 -3.78542618 -3.22139829 0.28987832
VERTEX2 358 -3.76250369 -3.21933565 -0.32397829
VERTEX2 359 6.76489505 -3.43007193 -0.04601507
VERTEX2 360 6.77180156 -3.43129630 -0.22265184
VERTEX2 361 6.79342705 -3.42528999 0.69582399
VERTEX2 362 6.88658033 -3.16031160 1.22847352
VERTEX2 363 6.99829466 -2.85818113 1.22152391
VERTEX2 364 6.92180329 -2.50392970 1.83577623
VERTEX2 365 6.85677754 -2.17767804 1.33697662
VERTEX2 366 6.99631731 -2.01820199 0.78101495
VERTEX2 367 7.47465859 -1.54963292 0.78223826
VERTEX2 368 7.93312788 -1.11209356 0.73402961
VERTEX2 369 7.94788214 -1.09433369 0.48140479
VERTEX2 370 7.96399728 -1.09181375 -0.10686443
VERTEX2 371 7.98043657 -1.10033149 -0.65225442
VERTEX2 372 8.41485480 -1.45563254 -0.67993870
VERTEX2 373 8.89325042 -1.82729482 -0.67799745
VERTEX2 374 9.34923262 -2.21052627 -0.73809406
VERTEX2 375 9.70937392 -2.53246090 -0.76887515
VERTEX2 376 9.72316743 -2.54094048 -0.07592532
VERTEX2 377 9.77624528 -2.50336515 0.61753812
VERTEX2 378 10.31486950 -2.10480529 0.67055435
VERTEX2 379 10.79750322 -1.67348687 0.75414301
VERTEX2 380 11.24019708 -1.20569134 0.87221062
VERTEX2 381 11.38846240 -1.02368664 1.02078101
VERTEX2 382 11.39100995 -1.01912076 2.06629605
VERTEX2 383 11.39270609 -1.02018965 3.05366275
VERTEX2 384 11.39370052 -1.01922776 -2.26523214
VERTEX2 385 11.39116011 -1.02344760 -1.23453650
VERTEX2 386 11.49431676 -1.15745132 -1.00939563
VERTEX2 387 11.94946364 -1.57845236 -0.67741554
VERTEX2 388 12.42594398 -1.94275694 -0.66729673
VERTEX2 389 12.87620810 -2.32412729 -0.74847338
VERTEX2 390 12.89847180 -2.34396795 -0.27139057
VERTEX2 391 12.75641902 -2.33990426 0.11028660
VERTEX2 392 12.74933004 -2.34018409 1.15392446
VERTEX2 393 12.74678775 -2.24261303 2.40809056
VERTEX2 394 12.71234821 -2.23071210 -2.88047887
VERTEX2 395 12.94395960 -2.08856246 -2.54275627
VERTEX2 396 12.96781522 -2.07041883 -2.54256093
VERTEX2 397 12.92362002 -2.07537205 -2.93699843
VERTEX2 398 12.93599591 -2.07031037 -2.73938542
VERTEX2 399 12.86207331 -2.12679339 -2.44037562
VERTEX2 400 12.38786121 -2.52818565 -2.38993211
VERTEX2 401 11.90978215 -2.94023412 -2.48311456
VERTEX2 402 11.34082403 -3.22977661 -2.75124548
VERTEX2 403 10.75417327 -3.46491310 -2.78600979
VERTEX2 404 10.19331731 -3.65485945 -2.86583844
VERTEX2 405 10.03391902 -3.69272184 -2.74626330
VERTEX2 406 -20.59707246 -6.75559145 2.75638117
VERTEX2 407 -20.95312198 -6.65657390 2.88572729
VERTEX2 408 -21.54414024 -6.49493379 2.84809781
VERTEX2 409 -21.82563035 -6.40106371 2.74893733
VERTEX2 410 9.27339616 -1.67637079 -2.58407884
VERTEX2 411 9.27690804 -1.67462956 3.11001964
VERTEX2 412 8.73696301 -1.55608225 2.90717692
VERTEX2 413 8.12998917 -1.38966302 2.82766956
VERTEX2 414 7.52433241 -1.21202662 2.93144522
VERTEX2 415 6.89535446 -1.06883658 2.93811809
VERTEX2 416 6.59280784 -1.01432626 2.88258819
VERTEX2 417 6.35343648 -0.83176416 2.45762891
VERTEX2 418 6.00800061 -0.54265213 2.41224984
VERTEX2 419 6.06122710 -0.56345566 2.84548769
VERTEX2 420 6.16499279 -0.58217038 3.06328207
VERTEX2 421 6.18462771 -0.57349907 -2.24792588
VERTEX2 422 6.19998486 -0.56776256 -1.00220142
VERTEX2 423 6.24635546 -0.60552992 -0.65420459
VERTEX2 424 6.28877481 -0.63868560 -0.65234831
VERTEX2 425 6.32099476 -0.64103953 -0.63912531
VERTEX2 426 6.36364969 -0.67338586 -0.64672556
VERTEX2 427 6.43282512 -0.72458308 -0.64209414
VERTEX2 428 7.01640227 -1.13900998 -0.64607113
VERTEX2 429 7.53347992 -1.54375926 -0.68500418
VERTEX2 430 7.80224589 -1.77070146 -0.73042319
VERTEX2 431 7.79095801 -1.76116166 -0.67782424
VERTEX2 432 7.79776839 -1.77012459 -1.30957673
VERTEX2 433 9.16228160 -5.70065920 -1.41026900
VERTEX2 434 9.12048367 -6.24027321 -1.63756788
VERTEX2 435 9.08219748 -6.88335852 -1.66517078
VERTEX2 436 8.99936321 -7.51777507 -1.67288657
VERTEX2 437 8.94240097 -8.16165217 -1.66382499
VERTEX2 438 8.88449615 -8.65197593 -1.69513085
VERTEX2 439 8.60264161 -10.11062996 -1.97753912
VERTEX2 440 8.58640900 -10.12791722 -2.62205846
VERTEX2 441 8.57273442 -10.13137542 3.03776533
VERTEX2 442 8.56347637 -10.12796781 2.40698935
VERTEX2 443 -0.79303065 1.93655537 2.77013870
VERTEX2 444 -0.81733970 1.95681895 2.17033269
VERTEX2 445 -0.81793109 1.95905788 1.50315100
VERTEX2 446 -0.81809204 1.96661391 1.70230892
VERTEX2 447 -0.83275822 1.98979768 2.32922532
VERTEX2 448 -1.28729542 2.43558165 2.34461845
VERTEX2 449 -1.76151874 2.87491344 2.44353032
VERTEX2 450 -2.25414394 3.28199158 2.45520200
VERTEX2 451 -2.62466575 3.56807661 2.49562863
VERTEX2 452 8.67369248 -9.44333136 1.67742316
VERTEX2 453 9.35418230 -6.24344686 0.47812133
VERTEX2 454 9.63644240 -6.22008516 0.05005839
VERTEX2 455 10.23007306 -6.19545348 0.02929954
VERTEX2 456 10.85702729 -6.19073874 -0.03551898
VERTEX2 457 11.20535523 -6.21289392 -0.12348588
VERTEX2 458 11.19908777 -6.20976872 -0.77042588
VERTEX2 459 11.19028401 -6.17379664 -1.37963944
VERTEX2 460 11.16860836 -6.57126402 -1.63724505
VERTEX2 461 11.09794938 -7.18670469 -1.72562536
VERTEX2 462 11.00870159 -7.69510158 -1.76602857
VERTEX2 463 11.02018722 -7.67284976 -0.92648740
VERTEX2 464 11.27730076 -7.74729190 -0.24896983
VERTEX2 465 11.86037542 -7.88313410 -0.24182586
VERTEX2 466 12.41265537 -8.03735252 -0.29814683
VERTEX2 467 12.98167322 -8.22252652 -0.34229720
VERTEX2 468 13.57297277 -8.43857435 -0.37928467
VERTEX2 469 14.14236928 -8.70162352 -0.46373530
VERTEX2 470 14.57519421 -8.91358715 -0.44612171
VERTEX2 471 14.57291440 -8.91231431 -0.64682027
VERTEX2 472 14.58938501 -8.93597447 -1.28095889
VERTEX2 473 14.59172537 -8.94851293 -1.92344449
VERTEX2 474 14.58144141 -8.96097779 -2.55695213
VERTEX2 475 14.56951589 -8.96229500 -3.13379758
VERTEX2 476 14.55679680 -8.96018752 2.49480141
VERTEX2 477 6.93617569 -17.58229415 -0.40229243
VERTEX2 478 -1.53694626 -22.51924417 1.46420324
VERTEX2 479 -1.53805980 -22.52306587 1.00853006
VERTEX2 480 -1.53356965 -22.50840671 1.56673083
VERTEX2 481 -1.54032181 -22.48984849 2.56320043
VERTEX2 482 -1.52309552 -22.49457899 2.89674705
VERTEX2 483 -1.50329587 -22.49923129 2.88988269
VERTEX2 484 -1.92730800 -22.39328966 2.92360979
VERTEX2 485 -2.52363711 -22.27513598 2.92004906
VERTEX2 486 -3.12835535 -22.13293052 2.92860221
VERTEX2 487 -3.73880622 -22.02309209 2.95580898
VERTEX2 488 -4.35111609 -21.91127371 2.99040598
VERTEX2 489 -4.81552622 -21.85553390 3.01927258
VERTEX2 490 -1.84428781 -21.74254178 -3.09972037
VERTEX2 491 11.40003259 -7.83970174 -1.95117054
VERTEX2 492 11.38039084 -8.09046118 -1.64811217
VERTEX2 493 11.31324259 -8.71481452 -1.70318063
VERTEX2 494 11.22048530 -9.34430470 -1.76415530
VERTEX2 495 11.14862611 -9.96249198 -1.65673915
VERTEX2 496 11.10207286 -10.58240179 -1.53880138
VERTEX2 497 11.09227456 -11.19645991 -1.62468860
VERTEX2 498 11.02131133 -11.81302434 -1.72636331
VERTEX2 499 10.88944522 -12.43177003 -1.74324569
VERTEX2 500 10.94455492 -12.99450624 -1.41414262
VERTEX2 501 11.01549611 -13.56660265 -1.48622693
VERTEX2 502 11.03593309 -14.25478154 -1.57068587
VERTEX2 503 11.02946270 -14.69449711 -1.58762551
VERTEX2 504 11.03713889 -14.67311240 -0.73066911
VERTEX2 505 11.27692807 -14.70152191 -0.10844465
VERTEX2 506 11.87001841 -14.78562605 -0.26088639
VERTEX2 507 12.45116269 -14.95773726 -0.33936278
VERTEX2 508 13.01971140 -15.17135450 -0.35258237
VERTEX2 509 13.64583115 -15.40961045 -0.40894393
VERTEX2 510 14.01204287 -15.57479373 -0.42302704
VERTEX2 511 14.01008904 -15.55483579 0.45148957
VERTEX2 512 14.03481835 -15.50345659 1.64851235
VERTEX2 513 14.03253136 -15.49656903 2.60397577
VERTEX2 514 13.97485833 -15.48007508 2.83020665
VERTEX2 515 13.37502106 -15.29841570 2.83129922
VERTEX2 516 12.80054871 -15.10403521 2.84719519
VERTEX2 517 12.21833370 -14.95491299 2.87539183
VERTEX2 518 11.60947677 -14.79582747 2.90001881
VERTEX2 519 11.07089886 -14.66485079 2.88458920
VERTEX2 520 10.88559276 -14.61549274 -2.99959670
VERTEX2 521 10.90055323 -14.59915797 -1.99444399
VERTEX2 522 10.83356825 -14.99430725 -1.72969412
VERTEX2 523 10.73980138 -15.61874792 -1.73604555
VERTEX2 524 10.63597402 -16.18541027 -1.77777845
VERTEX2 525 10.53225756 -16.72041664 -1.75392121
VERTEX2 526 10.41640365 -17.28224362 -1.81246032
VERTEX2 527 10.26926957 -17.85470181 -1.84699446
VERTEX2 528 10.08803917 -18.41511201 -1.92263645
VERTEX2 529 9.87825789 -19.00936711 -1.95020427
VERTEX2 530 9.63435235 -19.60095728 -1.97956946
VERTEX2 531 9.36883381 -20.16832343 -2.05861209
VERTEX2 532 9.27363700 -20.34956739 -2.00743669
VERTEX2 533 9.27407949 -20.35154698 -1.00349079
VERTEX2 534 9.27913262 -20.35481826 -0.33362796
VERTEX2 535 9.28400690 -20.35603984 -0.33299136
VERTEX2 536 9.64134794 -20.43642604 -0.20095680
VERTEX2 537 10.24290008 -20.57669242 -0.25798907
VERTEX2 538 10.79890177 -20.73755151 -0.28416023
VERTEX2 539 11.40405322 -20.93708099 -0.34787039
VERTEX2 540 11.98989298 -21.18045383 -0.43960168
VERTEX2 541 12.57565707 -21.39732092 -0.27749163
VERTEX2 542 13.20387884 -21.52826757 -0.22195120
VERTEX2 543 13.32260109 -21.55609835 -0.25195852
VERTEX2 544 13.33937789 -21.55413330 0.38410899
VERTEX2 545 13.36046283 -21.51455178 1.44865354
VERTEX2 546 13.37870504 -21.56029419 2.27445306
VERTEX2 547 13.38251348 -21.56002666 -2.98862410
VERTEX2 548 13.39185515 -21.55394370 -2.06710423
VERTEX2 549 13.39304784 -21.54560406 -1.26168702
VERTEX2 550 13.39212860 -21.53131222 -1.74195330
VERTEX2 551 13.39714203 -21.52103665 -2.36889703
VERTEX2 552 13.41002086 -21.51453787 -3.00194038
VERTEX2 553 13.27841399 -21.46508727 2.70284539
VERTEX2 554 12.69074860 -21.18642744 2.66692737
VERTEX2 555 12.11602442 -20.91650798 2.75527321
VERTEX2 556 11.51660329 -20.70230948 2.88978451
VERTEX2 557 10.91622643 -20.53291411 2.84822896
VERTEX2 558 10.34009907 -20.37711900 2.92891414
VERTEX2 559 10.34781947 -20.37971063 2.52119869
VERTEX2 560 10.33823663 -20.36975679 2.01940476
VERTEX2 561 10.31293507 -20.34521642 2.52386271
VERTEX2 562 10.14223104 -20.34511334 -3.11664172
VERTEX2 563 9.57785373 -20.26637414 2.97430969
VERTEX2 564 8.97873086 -20.17432387 3.02279850
VERTEX2 565 8.37185575 -20.09237592 2.96466950
VERTEX2 566 8.37889124 -20.09465808 -2.53858835
VERTEX2 567 8.36943002 -20.09545706 -1.70956084
VERTEX2 568 8.31861930 -20.64648682 -1.65636099
VERTEX2 569 8.26956300 -21.22977408 -1.70300716
VERTEX2 570 8.20057557 -21.81518322 -1.70349129
VERTEX2 571 8.15326937 -22.15229158 -1.75159404
VERTEX2 572 8.14997825 -22.15493464 -1.99589059
VERTEX2 573 8.12636776 -22.20937610 -1.72063224
VERTEX2 574 8.15380451 -22.24785345 -0.78510580
VERTEX2 575 8.23946276 -22.27310005 0.20111574
VERTEX2 576 8.25642882 -22.28505960 1.21740013
VERTEX2 577 8.25083186 -22.27226533 2.17878158
VERTEX2 578 8.24252609 -22.24797901 1.80930167
VERTEX2 579 8.09599766 -21.60562372 1.82151410
VERTEX2 580 7.91488594 -20.97662107 1.89345035
VERTEX2 581 7.70427835 -20.36507500 1.93290046
VERTEX2 582 7.46807889 -19.76002702 1.97242707
VERTEX2 583 7.33426708 -19.46234910 2.04805894
VERTEX2 584 7.33360893 -19.46114928 2.88080243
VERTEX2 585 6.78347804 -19.33376245 2.99528111
VERTEX2 586 6.22871913 -19.26758527 3.08970631
VERTEX2 587 5.64946486 -19.25921681 3.11238300
VERTEX2 588 5.05922375 -19.23512642 3.11423031
VERTEX2 589 4.52447652 -19.25821533 -3.09316717
VERTEX2 590 3.97866272 -19.30076228 -3.02400785
VERTEX2 591 3.44530974 -19.37798574 -3.02575883
VERTEX2 592 2.90306015 -19.45077124 -3.02834833
VERTEX2 593 2.73135109 -19.47211271 -2.82286784
VERTEX2 594 2.78621910 -19.41328373 -1.90792904
VERTEX2 595 2.66945745 -20.01971732 -1.67478431
VERTEX2 596 2.61334530 -20.64420598 -1.69774216
VERTEX2 597 2.51778176 -21.31891504 -1.73750631
VERTEX2 598 2.41288379 -21.91031937 -1.77965591
VERTEX2 599 2.32344863 -22.28316938 -1.84571989
VERTEX2 600 2.32354007 -22.29672667 -1.03878798
VERTEX2 601 2.36734350 -22.32403446 -0.02016701
VERTEX2 602 2.40925024 -22.30741421 0.99395031
VERTEX2 603 2.37665432 -22.07740161 1.76589967
VERTEX2 604 2.32041587 -21.46922702 1.52152415
VERTEX2 605 2.33392629 -20.81262233 1.60463065
VERTEX2 606 2.29711846 -20.15671445 1.64722584
VERTEX2 607 2.31119558 -19.57329000 1.56668782
VERTEX2 608 2.30012772 -19.19372194 1.61162563
VERTEX2 609 2.29752376 -19.17801244 1.94870743
VERTEX2 610 2.29171536 -19.17588233 2.88297371
VERTEX2 611 1.69245925 -19.02342632 2.88653320
VERTEX2 612 1.21625882 -18.88704789 2.88992086
VERTEX2 613 1.25658791 -18.89943006 -2.92997497
VERTEX2 614 1.26405350 -18.89381606 -1.89237771
VERTEX2 615 1.27473358 -19.38028024 -1.58800410
VERTEX2 616 1.27874953 -20.00308162 -1.63928681
VERTEX2 617 1.13760056 -20.60394716 -1.85611902
VERTEX2 618 0.96502183 -21.20812838 -1.84572127
VERTEX2 619 0.80107496 -21.77790594 -1.84678086
VERTEX2 620 0.61716887 -22.34457661 -1.94266807
VERTEX2 621 0.74978207 -22.00573283 -1.99395056
VERTEX2 622 0.87690988 -21.73662750 -2.06872348
VERTEX2 623 0.87912807 -21.73365815 -2.60532674
VERTEX2 624 0.84480899 -21.73317268 3.03580668
VERTEX2 625 0.79578309 -21.71314292 2.37783944
VERTEX2 626 0.76098711 -21.67287316 1.76034491
VERTEX2 627 0.83678044 -21.29334846 1.34987166
VERTEX2 628 1.02027956 -20.66022540 1.24900463
VERTEX2 629 1.19337704 -20.03951682 1.32015790
VERTEX2 630 1.31877014 -19.45041020 1.40503217
VERTEX2 631 1.39128211 -18.94039587 1.42502138
VERTEX2 632 1.39083814 -18.94294126 2.10060775
VERTEX2 633 1.30477541 -18.93668005 -3.09676026
VERTEX2 634 0.64877047 -18.97012927 -3.06946114
VERTEX2 635 0.00715630 -18.97789721 3.07859662
VERTEX2 636 -0.62230664 -18.94721396 3.06104442
VERTEX2 637 -1.24553407 -18.87113213 2.96146189
VERTEX2 638 -1.63039768 -18.79082391 2.93200820
VERTEX2 639 -2.23380019 -18.68652676 3.01243839
VERTEX2 640 -2.84133319 -18.57612921 2.94461567
VERTEX2 641 -3.43425294 -18.46419705 2.93633201
VERTEX2 642 -4.00257124 -18.32644562 2.89103200
VERTEX2 643 -4.48418918 -18.18794189 2.82339493
VERTEX2 644 -4.48111077 -18.18732401 -2.70489597
VERTEX2 645 -4.51862022 -18.32877107 -1.92673059
VERTEX2 646 -4.65615779 -18.92409615 -1.63216631
VERTEX2 647 -4.61711326 -19.56226502 -1.34360291
VERTEX2 648 -4.39972571 -20.18481474 -1.17755873
VERTEX2 649 -4.23051918 -20.78450944 -1.51507413
VERTEX2 650 -4.33590485 -21.41314231 -1.77235112
VERTEX2 651 -4.35453054 -21.55940716 -0.97275707
VERTEX2 652 -4.29410103 -21.58707822 0.05248638
VERTEX2 653 -4.24970967 -21.54772818 1.08318519
VERTEX2 654 -4.25672859 -21.25667749 1.59682553
VERTEX2 655 -4.26386255 -20.70891810 1.59200807
VERTEX2 656 -4.25967852 -20.11170997 1.57964034
VERTEX2 657 -4.36261072 -19.50388876 1.85667989
VERTEX2 658 -4.54700241 -18.89400952 1.84955442
VERTEX2 659 -4.65953283 -18.39808076 1.77843082
VERTEX2 660 -4.66298213 -18.38039656 2.37862442
VERTEX2 661 -4.83262669 -18.36081999 3.03216452
VERTEX2 662 -5.42619990 -18.29846097 3.10195237
VERTEX2 663 -6.01079387 -18.31025768 -3.08018915
VERTEX2 664 -6.01648810 -18.30878085 -2.55689529
VERTEX2 665 -6.03303108 -18.41045325 -1.72399014
VERTEX2 666 -6.10746229 -19.01586581 -1.68701328
VERTEX2 667 -6.16720628 -19.57928403 -1.68255893
VERTEX2 668 -6.23356416 -20.17007900 -1.65696773
VERTEX2 669 -6.28523449 -20.79285686 -1.68230789
VERTEX2 670 -6.38769817 -21.40709774 -1.74202732
VERTEX2 671 -6.43655478 -21.69653878 -1.68729007
VERTEX2 672 -6.33030987 -21.11371097 -1.77665096
VERTEX2 673 -6.26151354 -20.84440074 -1.90746427
VERTEX2 674 -6.24800379 -20.83034324 -2.55602199
VERTEX2 675 -6.22937415 -20.82655644 3.11886374
VERTEX2 676 -6.22469512 -20.82934750 2.49585806
VERTEX2 677 -6.21968839 -20.83635463 1.88034578
VERTEX2 678 -6.19080710 -20.61885048 1.43464799
VERTEX2 679 -6.12375733 -20.04456009 1.49733887
VERTEX2 680 -6.14844823 -19.59984180 1.84238907
VERTEX2 681 -6.29714415 -19.00787001 1.81500228
VERTEX2 682 -6.46520861 -18.40440703 1.86285745
VERTEX2 683 -6.55496542 -18.12470492 2.02222772
VERTEX2 684 -6.51266135 -18.16832749 3.10143445
VERTEX2 685 -6.90340306 -18.32114897 -2.73790716
VERTEX2 686 -7.33808737 -18.45111606 -2.88199023
VERTEX2 687 -7.92068656 -18.59538448 -2.91681447
VERTEX2 688 -8.50699466 -18.70948936 -2.92836076
VERTEX2 689 -9.05926004 -18.84220344 -2.90042006
VERTEX2 690 -9.59253195 -19.00766957 -2.82623922
VERTEX2 691 -9.98474734 -19.13618208 -2.85425308
VERTEX2 692 -9.96626675 -19.12806730 -2.32003258
VERTEX2 693 -9.94535912 -19.19507816 -1.27973282
VERTEX2 694 -9.92333418 -19.26193063 -0.44435875
VERTEX2 695 -9.90081741 -19.25564549 0.35560267
VERTEX2 696 -9.90088260 -19.25573082 1.38214637
VERTEX2 697 -9.91516050 -19.30202925 1.12959615
VERTEX2 698 -9.59023701 -19.09807893 0.47553024
VERTEX2 699 -9.03179469 -18.78990275 0.58988920
VERTEX2 700 -8.52339568 -18.43341076 0.64371610
VERTEX2 701 -8.09447883 -18.07639687 0.70319294
VERTEX2 702 -7.62311119 -17.76824484 0.58789456
VERTEX2 703 -7.11850710 -17.43900104 0.62207054
VERTEX2 704 -6.63613368 -17.06803539 0.64026225
VERTEX2 705 -6.11780859 -16.64362342 0.71044217
VERTEX2 706 -5.68383069 -16.32454568 0.44132273
VERTEX2 707 -5.65331346 -16.32298684 -0.07914732
VERTEX2 708 -5.64345708 -16.32872013 -0.71736717
VERTEX2 709 -5.68132237 -16.28770066 -1.04932471
VERTEX2 710 -5.68331953 -16.28234731 -1.61022608
VERTEX2 711 -5.67232247 -16.29232396 -2.20672546
VERTEX2 712 -5.65987373 -16.28284526 -2.76702182
VERTEX2 713 -6.14186167 -16.33385357 -3.05310979
VERTEX2 714 -6.70050375 -16.30774020 3.03185524
VERTEX2 715 -7.33099807 -16.26865302 3.13530161
VERTEX2 716 -7.96919345 -16.24445453 2.99706433
VERTEX2 717 -8.59356044 -16.17407678 3.08160187
VERTEX2 718 -9.35810914 -16.05233481 2.90592241
VERTEX2 719 -9.97701480 -15.93409730 2.98010558
VERTEX2 720 -10.59177123 -15.81860266 2.92059752
VERTEX2 721 -11.21135162 -15.69946129 2.98847221
VERTEX2 722 -11.22394542 -15.69760159 3.05525201
VERTEX2 723 -11.24368527 -15.71774593 -2.13764322
VERTEX2 724 -11.24403778 -15.76355420 -1.06844944
VERTEX2 725 -11.21334627 -15.78440815 -0.43390705
VERTEX2 726 -10.88415779 -15.78210762 0.02044847
VERTEX2 727 -10.24294981 -15.74709779 0.05128010
VERTEX2 728 -9.59900802 -15.72638586 0.05275803
VERTEX2 729 -8.95753452 -15.66913290 0.11050985
VERTEX2 730 -8.33063989 -15.57975821 0.14812904
VERTEX2 731 -7.68017655 -15.48230970 0.16042345
VERTEX2 732 -7.53913374 -15.45460257 0.60713273
VERTEX2 733 -7.53392407 -15.46317699 1.60329601
VERTEX2 734 -7.58930769 -14.91446717 1.68129456
VERTEX2 735 -7.64663908 -14.31939437 1.64916409
VERTEX2 736 -7.64686469 -14.31586600 2.24846498
VERTEX2 737 -7.63748704 -14.31713720 3.04890878
VERTEX2 738 -8.21342313 -14.27430968 3.06785685
VERTEX2 739 -8.81251968 -14.17721670 3.01008132
VERTEX2 740 -9.30621815 -14.13549986 3.07309447
VERTEX2 741 -9.27789315 -14.13534865 2.70382804
VERTEX2 742 -9.26766274 -14.14259541 2.05043469
VERTEX2 743 -9.26695770 -14.14586132 1.43305674
VERTEX2 744 -9.25862500 -14.12712653 0.89420450
VERTEX2 745 -9.23893451 -14.11698290 0.30126525
VERTEX2 746 -8.70561371 -14.13791101 -0.17284924
VERTEX2 747 -8.07026752 -14.25383923 -0.20772999
VERTEX2 748 -7.49905211 -14.39786795 -0.27594032
VERTEX2 749 -7.42089322 -14.41770846 0.15349153
VERTEX2 750 -7.41269168 -14.40272537 1.08099361
VERTEX2 751 -7.44552764 -14.13642719 1.72040565
VERTEX2 752 -7.50000330 -13.52895002 1.61696326
VERTEX2 753 -7.53476870 -12.90628327 1.68002809
VERTEX2 754 -7.54025721 -12.27339112 1.51749560
VERTEX2 755 -7.52001822 -11.64441030 1.60423521
VERTEX2 756 -7.48153269 -11.01406284 1.42816678
VERTEX2 757 -7.40637687 -10.37535305 1.54010803
VERTEX2 758 -7.42591483 -9.79918669 1.68222959
VERTEX2 759 -7.41490469 -9.25645285 1.56150239
VERTEX2 760 -7.45101786 -8.66357539 1.67308111
VERTEX2 761 -7.45237410 -8.64408650 1.85368657
VERTEX2 762 -7.52095236 -8.61317130 2.68846795
VERTEX2 763 -8.08778588 -8.50989240 2.98147005
VERTEX2 764 -8.50058406 -8.43838438 2.95403326
VERTEX2 765 -8.48983720 -8.43820025 -2.68864839
VERTEX2 766 -8.49437126 -8.45287059 -1.68830078
VERTEX2 767 -8.48730865 -8.47082969 -0.75702222
VERTEX2 768 -8.46248811 -8.47237907 -0.03432807
VERTEX2 769 -7.83019847 -8.38449111 0.12274256
VERTEX2 770 -7.18069393 -8.32616628 0.05577752
VERTEX2 771 -7.09534906 -8.31907973 0.61661163
VERTEX2 772 -7.09444928 -8.31624698 1.48466154
VERTEX2 773 -7.07103583 -7.74523391 1.57063828
VERTEX2 774 -7.08344168 -7.20554876 1.59288526
VERTEX2 775 -7.07955379 -7.22241896 2.43735589
VERTEX2 776 -7.28915147 -7.19693069 3.05439168
VERTEX2 777 -7.90347649 -7.15507033 3.11323148
VERTEX2 778 -8.51794157 -7.14427584 3.09206337
VERTEX2 779 -9.13046177 -7.12224565 3.11031704
VERTEX2 780 -9.33498421 -7.10423322 2.98026383
VERTEX2 781 -9.32684424 -7.10716681 2.40718144
VERTEX2 782 -9.45093129 -6.84064814 1.97744486
VERTEX2 783 -9.68212062 -6.27321610 1.97673012
VERTEX2 784 -9.77858399 -6.05114178 1.95542152
VERTEX2 785 -9.77914434 -6.03408498 1.40348055
VERTEX2 786 -9.77389223 -6.01699300 0.81517779
VERTEX2 787 -9.76288977 -6.00579638 0.32452586
VERTEX2 788 -9.74428273 -6.00712734 -0.30557612
VERTEX2 789 -9.73545863 -6.01411671 -0.85841987
VERTEX2 790 -9.43092036 -6.41165865 -0.92596575
VERTEX2 791 -9.02909618 -6.89634521 -0.82766092
VERTEX2 792 -8.79205341 -7.11028813 -0.12395241
VERTEX2 793 -8.17790470 -7.16759259 -0.07939912
VERTEX2 794 -7.53972948 -7.20193699 -0.00835309
VERTEX2 795 -7.56123890 -7.21746995 0.42140738
VERTEX2 796 -7.56379269 -7.21842823 1.08130646
VERTEX2 797 -7.48711376 -6.90940220 1.34175325
VERTEX2 798 -7.34743836 -6.28391444 1.39210184
VERTEX2 799 -7.25578543 -5.63866433 1.45807529
VERTEX2 800 -7.19733009 -4.99119552 1.53123604
VERTEX2 801 -7.20371605 -4.36458927 1.61780337
VERTEX2 802 -7.25307989 -3.74673683 1.67618024
VERTEX2 803 -7.23253476 -3.12399893 1.51145678
VERTEX2 804 -7.20905407 -2.50252212 1.56731147
VERTEX2 805 -7.23847443 -1.87755310 1.64354154
VERTEX2 806 -7.29482373 -1.28245272 1.68466619
VERTEX2 807 -7.32031767 -1.10265270 1.97310089
VERTEX2 808 -7.32336029 -1.10258724 2.92224921
VERTEX2 809 -7.91302613 -1.07090452 3.06716754
VERTEX2 810 -8.52738539 -0.94529567 2.92723811
VERTEX2 811 -9.12346956 -0.83155881 2.92411603
VERTEX2 812 -9.12331194 -0.83161388 -2.62677600
VERTEX2 813 -9.13471797 -0.85675815 -1.65076608
VERTEX2 814 -9.12872270 -0.86153360 -0.65919020
VERTEX2 815 -9.10628224 -0.86918290 0.25948501
VERTEX2 816 -9.09714377 -0.86423632 0.94068990
VERTEX2 817 -9.08520466 -0.85679724 0.27197354
VERTEX2 818 -8.86565392 -0.89121127 -0.21688675
VERTEX2 819 -8.27789032 -1.02068137 -0.20275960
VERTEX2 820 -7.68990220 -1.15372057 -0.24414052
VERTEX2 821 -7.15000061 -1.28512408 -0.22855512
VERTEX2 822 -7.12075126 -1.28969229 0.53360751
VERTEX2 823 -7.11939576 -1.27583504 1.45341353
VERTEX2 824 -7.05474472 -0.66222231 1.37441779
VERTEX2 825 -6.91142360 -0.04848797 1.34503132
VERTEX2 826 -6.85442886 0.57115608 1.50836369
VERTEX2 827 -6.79100742 1.18232872 1.45997424
VERTEX2 828 -6.73734251 1.79641706 1.49544285
VERTEX2 829 -6.67539038 2.40109459 1.45599097
VERTEX2 830 -6.59964892 3.01098764 1.44793263
VERTEX2 831 -6.50484700 3.58902014 1.40140475
VERTEX2 832 -6.41498996 4.14708921 1.39784582
VERTEX2 833 -6.37074380 4.40225550 1.53562531
VERTEX2 834 -6.37234945 4.40795842 2.59069696
VERTEX2 835 -6.38292708 4.40917824 -2.91451642
VERTEX2 836 -6.39398475 4.39984010 -1.97108790
VERTEX2 837 -6.39039496 4.38023353 -0.93432398
VERTEX2 838 -6.37670534 4.37170691 -0.07179535
VERTEX2 839 -6.37401353 4.37042222 -0.28992447
VERTEX2 840 -6.36124523 4.36042765 -0.85234730
VERTEX2 841 -6.35287011 4.34362914 -1.46919156
VERTEX2 842 -6.37893437 4.09654919 -1.70077068
VERTEX2 843 -6.45745745 3.53127644 -1.70378106
VERTEX2 844 -6.53329231 2.90419511 -1.71226983
VERTEX2 845 -6.62805206 2.27863485 -1.72755827
VERTEX2 846 -6.71524986 1.64904486 -1.72635091
VERTEX2 847 -6.82674960 1.02691376 -1.75361006
VERTEX2 848 -6.85798654 0.83105359 -1.27372844
VERTEX2 849 -6.85307747 0.82922425 -0.35153310
VERTEX2 850 -6.49875358 0.82482792 0.00168758
VERTEX2 851 -5.87229978 0.79706989 -0.09091134
VERTEX2 852 -5.24859675 0.73410527 -0.07656877
VERTEX2 853 -4.65616630 0.68978892 -0.10497115
VERTEX2 854 -4.07102100 0.61997698 -0.10339585
VERTEX2 855 -3.47842699 0.56674543 -0.10559307
VERTEX2 856 -2.81030775 0.47522013 -0.14666161
VERTEX2 857 -2.14335920 0.37967589 -0.15647646
VERTEX2 858 -1.48166127 0.25088244 -0.21118460
VERTEX2 859 -0.94946036 0.14125710 -0.21811052
VERTEX2 860 -0.92094212 0.15284360 0.63252013
VERTEX2 861 -0.90792106 0.24236693 1.54719913
VERTEX2 862 -0.86695466 0.88205564 1.48758176
VERTEX2 863 -0.80757142 1.50668182 1.45514196
VERTEX2 864 -0.71966466 2.09793067 1.45310641
VERTEX2 865 -0.67627040 2.68954527 1.51085476
VERTEX2 866 -0.62928988 3.26281449 1.50960008
VERTEX2 867 -0.62161756 3.41393903 1.69062875
VERTEX2 868 -0.61764188 3.40847235 2.71358865
VERTEX2 869 -0.59587407 3.40872409 -2.59203799
VERTEX2 870 -0.57334462 3.42062681 -1.59329067
VERTEX2 871 -0.55298939 3.40659693 -0.61957179
VERTEX2 872 -0.53607833 3.39419027 0.06551786
VERTEX2 873 -0.50817019 3.38464560 -0.50720602
VERTEX2 874 -0.48896443 3.36701982 -1.06695788
VERTEX2 875 -0.48577854 3.35942438 -1.65406502
VERTEX2 876 -0.60838842 2.81416384 -1.81193558
VERTEX2 877 -0.76274942 2.28316758 -1.89685495
VERTEX2 878 -0.81228394 2.09492442 -1.51381793
VERTEX2 879 -0.71899170 1.46771717 -1.46273864
VERTEX2 880 -0.68852632 1.03062423 -1.57536802
VERTEX2 881 -0.68839780 1.09257026 -1.56997711
VERTEX2 882 -0.74985829 0.46555830 -1.81640651
VERTEX2 883 -0.96764066 -0.11751282 -2.00701970
VERTEX2 884 -1.12497732 -0.43925846 -2.07388480
VERTEX2 885 -1.12546742 -0.42648043 -1.49205513
VERTEX2 886 -1.11682552 -0.43466507 -0.47344702
VERTEX2 887 -1.09893154 -0.44175464 0.53955230
VERTEX2 888 -1.08965913 -0.42253660 1.52499436
VERTEX2 889 -1.09312727 -0.41227868 2.42419708
VERTEX2 890 -1.41698112 -0.25415942 2.69856169
VERTEX2 891 -1.96205607 0.01868044 2.62853726
VERTEX2 892 -2.50580490 0.34615945 2.59308328
VERTEX2 893 -3.06948579 0.64973002 2.82952814
VERTEX2 894 -3.69327114 0.76452111 3.05001734
VERTEX2 895 -4.30535620 0.71671212 -2.93556330
VERTEX2 896 -4.32647407 0.71176512 -2.45777948
VERTEX2 897 -4.61066973 0.29610238 -2.18601541
VERTEX2 898 -4.96140089 -0.20652752 -2.17083344
VERTEX2 899 -5.24581505 -0.60822336 -2.23893355
VERTEX2 900 -5.65442164 -1.13803720 -2.24122575
VERTEX2 901 -6.02035918 -1.56909218 -2.30546581
VERTEX2 902 -6.43120949 -2.04714169 -2.28007774
VERTEX2 903 -6.73764519 -2.40869666 -2.32536668
VERTEX2 904 -6.73778430 -2.40895216 -1.62415971
VERTEX2 905 -6.72912986 -2.89301607 -1.56918861
VERTEX2 906 -6.70187542 -3.45043166 -1.50389081
VERTEX2 907 -6.65314041 -4.01094752 -1.51240450
VERTEX2 908 -6.61456461 -4.62520602 -1.48803210
VERTEX2 909 -6.56209300 -5.22952583 -1.50632009
VERTEX2 910 -6.58966799 -5.35146999 -1.87568529
VERTEX2 911 -6.75353518 -5.91321193 -1.81451558
VERTEX2 912 -6.87869209 -6.46779472 -1.80167073
VERTEX2 913 -6.99465092 -7.00055405 -1.79350897
VERTEX2 914 -7.12341968 -7.57390577 -1.81694906
VERTEX2 915 -7.24842199 -8.06830027 -1.85343350
VERTEX2 916 -7.18913138 -8.30197843 -1.30540576
VERTEX2 917 -7.05794041 -8.94074857 -1.55950201
VERTEX2 918 -7.08178518 -9.44621223 -1.63480231
VERTEX2 919 -7.11956899 -10.05730764 -1.67789895
VERTEX2 920 -7.18739800 -10.65836506 -1.69527496
VERTEX2 921 -7.26375976 -11.26054410 -1.74839017
VERTEX2 922 -7.36888431 -11.85249298 -1.77532306
VERTEX2 923 -7.49075066 -12.40702615 -1.83847524
VERTEX2 924 -7.62033523 -12.87812808 -1.82169635
VERTEX2 925 -7.62390071 -12.86025773 -1.31670219
VERTEX2 926 -7.47084206 -13.41095690 -1.30040579
VERTEX2 927 -7.31105228 -13.99023818 -1.32363435
VERTEX2 928 -7.16015820 -14.58470883 -1.33250623
VERTEX2 929 -7.01564396 -15.17621033 -1.33336041
VERTEX2 930 -6.87248321 -15.80255110 -1.41597636
VERTEX2 931 -6.79007875 -16.42224423 -1.49630165
VERTEX2 932 -6.74744716 -17.04122123 -1.55589169
VERTEX2 933 -6.74696561 -17.64401175 -1.62070204
VERTEX2 934 -6.76430759 -18.12168763 -1.63089781
VERTEX2 935 -6.76044957 -18.14027313 -0.94857126
VERTEX2 936 -6.76124931 -18.13998621 -0.00320032
VERTEX2 937 -6.22105420 -18.11843620 0.05973414
VERTEX2 938 -5.62729180 -18.13826839 -0.11360961
VERTEX2 939 -5.00606736 -18.20187420 -0.08585204
VERTEX2 940 -4.39575180 -18.28011501 -0.17163718
VERTEX2 941 -3.79397928 -18.39832486 -0.22527702
VERTEX2 942 -3.27889823 -18.51619236 -0.22081434
VERTEX2 943 -2.67341425 -18.65259276 -0.13258766
VERTEX2 944 -2.06227690 -18.73873851 -0.18939377
VERTEX2 945 -1.44507572 -18.86997941 -0.24498036
VERTEX2 946 -1.27535857 -18.91451578 -0.18115842
VERTEX2 947 -0.87561636 -18.85583411 0.14739495
VERTEX2 948 -0.30651715 -18.77124816 0.12835172
VERTEX2 949 0.29103976 -18.74127399 -0.02723670
VERTEX2 950 0.91373863 -18.78141126 -0.26673421
VERTEX2 951 1.50501194 -18.95572116 -0.33890101
VERTEX2 952 2.09590201 -19.13297392 -0.08819670
VERTEX2 953 2.71825356 -19.16867556 -0.00802816
VERTEX2 954 3.33673201 -19.16614567 -0.01510406
VERTEX2 955 3.91886574 -19.21546375 -0.17597553
VERTEX2 956 4.46103690 -19.29659828 -0.17828101
VERTEX2 957 4.98263964 -19.39459781 -0.26597892
VERTEX2 958 5.43609928 -19.50632557 -0.29269097
VERTEX2 959 5.84580459 -19.61929818 -0.35983690
VERTEX2 960 6.41872167 -19.77942204 -0.27794422
VERTEX2 961 6.98309884 -19.94913932 -0.30357973
VERTEX2 962 7.58920593 -20.07483593 -0.23668239
VERTEX2 963 8.19459415 -20.15255680 -0.04788160
VERTEX2 964 8.80917521 -20.19079888 -0.11052485
VERTEX2 965 9.41527907 -20.26496072 -0.11656790
VERTEX2 966 9.85568800 -20.32229381 -0.17558918
VERTEX2 967 9.88728128 -20.31582752 0.67764435
VERTEX2 968 9.89684266 -20.30676627 1.57419825
VERTEX2 969 9.89872713 -20.32834797 1.63361407
VERTEX2 970 9.90121126 -20.35564192 1.63185674
VERTEX2 971 9.88000011 -20.02177697 1.63196217
VERTEX2 972 9.84000544 -19.43466508 1.63754426
VERTEX2 973 9.91717002 -18.86034494 1.35209072
VERTEX2 974 10.05357936 -18.26616948 1.38359580
VERTEX2 975 10.16262070 -17.66802995 1.38789175
VERTEX2 976 10.26472121 -17.07423508 1.40003583
VERTEX2 977 10.39767278 -16.46432176 1.37330877
VERTEX2 978 10.51635728 -15.86029777 1.41875541
VERTEX2 979 10.62924421 -15.25990706 1.40592195
VERTEX2 980 10.72704183 -14.66274214 1.45197496
VERTEX2 981 10.81629267 -14.07618183 1.45808694
VERTEX2 982 10.87351190 -13.55672335 1.50218362
VERTEX2 983 10.92456599 -12.96290448 1.49839031
VERTEX2 984 10.95361844 -12.37189386 1.55533152
VERTEX2 985 10.96671814 -11.78018160 1.57524286
VERTEX2 986 10.95458353 -11.16525857 1.61122361
VERTEX2 987 10.94492105 -10.55178402 1.57419659
VERTEX2 988 10.95073886 -9.93842256 1.58761691
VERTEX2 989 10.93954842 -9.32949907 1.59517887
VERTEX2 990 10.93616708 -8.72382976 1.58434991
VERTEX2 991 10.92449107 -8.11481292 1.60916770
VERTEX2 992 10.92278274 -7.53365409 1.57660893
VERTEX2 993 10.91273872 -6.92324311 1.60943407
VERTEX2 994 10.89987846 -6.34370523 1.59959994
VERTEX2 995 10.87213034 -5.77881976 1.64728235
VERTEX2 996 10.81911998 -5.21123657 1.67491524
VERTEX2 997 10.77970080 -4.60539010 1.61101172
VERTEX2 998 10.76363513 -4.24471369 1.63326667
VERTEX2 999 10.82932321 -4.29821104 2.35193109
VERTEX2 1000 10.40533766 -3.96767454 2.50083912
VERTEX2 1001 10.00030761 -3.59685062 2.18040891
VERTEX2 1002 9.66181562 -3.15943166 2.27341093
VERTEX2 1003 9.33407480 -2.68972990 2.09353919
VERTEX2 1004 8.99834431 -2.15660292 2.15129833
VERTEX2 1005 8.64793571 -1.66505458 2.21320854
VERTEX2 1006 8.25530808 -1.18871485 2.28999972
VERTEX2 1007 7.84496069 -0.76254187 2.38122544
VERTEX2 1008 7.61074732 -0.54745281 2.54022012
VERTEX2 1009 7.50708028 -0.53133178 3.01119659
VERTEX2 1010 6.95082707 -0.47416120 3.06449563
VERTEX2 1011 6.33334999 -0.43110155 3.02127367
VERTEX2 1012 5.72875085 -0.36452299 3.06322720
VERTEX2 1013 5.09780630 -0.36309795 -3.10491960
VERTEX2 1014 4.48979791 -0.31159079 3.00309010
VERTEX2 1015 3.86972839 -0.26863180 3.08768157
VERTEX2 1016 3.10506845 -0.22642677 3.09453962
VERTEX2 1017 2.52187843 -0.20926189 3.03747956
VERTEX2 1018 1.96559919 -0.14395718 3.04488836
VERTEX2 1019 1.37275175 -0.11575270 3.10459432
VERTEX2 1020 0.75954641 -0.07602992 3.09082070
VERTEX2 1021 0.14053327 -0.04322989 3.05043636
VERTEX2 1022 0.08852851 -0.03865611 3.04341476
VERTEX2 1023 0.09760755 -0.03887273 3.13024545
VERTEX2 1024 -0.52700416 -0.02774562 -3.12636511
VERTEX2 1025 -1.15330746 -0.05486999 -3.10852419
VERTEX2 1026 -1.31195228 -0.05957930 -3.10107917
VERTEX2 1027 -1.29477747 -0.05125318 -2.18509182
VERTEX2 1028 -1.30820118 -0.21210254 -1.62198469
VERTEX2 1029 -1.33936532 -0.77261560 -1.64369004
VERTEX2 1030 -1.40635117 -1.39156823 -1.72340541
VERTEX2 1031 -1.52224393 -2.03526174 -1.77684286
VERTEX2 1032 -1.65675581 -2.68744979 -1.77285088
VERTEX2 1033 -1.80445154 -3.33834388 -1.81805341
VERTEX2 1034 -1.85170161 -3.51619616 -2.03190202
VERTEX2 1035 -1.85711586 -3.52072379 -2.65028402
VERTEX2 1036 -1.83230457 -3.53223625 3.06333194
VERTEX2 1037 -2.17836807 -3.39994191 2.82565742
VERTEX2 1038 -2.79677951 -3.27598526 2.91741332
VERTEX2 1039 -3.44195524 -3.10467677 2.88634989
VERTEX2 1040 -3.42433978 -3.10508159 -2.76547275
VERTEX2 1041 -3.40374396 -3.10773226 -1.74637230
VERTEX2 1042 -3.40541553 -3.14138818 -0.75494336
VERTEX2 1043 -3.37216281 -3.17147040 0.21809497
VERTEX2 1044 -3.38678372 -3.18912119 1.21540685
VERTEX2 1045 -3.39121363 -3.19927681 1.10187265
VERTEX2 1046 -3.40324331 -3.21598282 0.71709866
VERTEX2 1047 -3.42296915 -3.22495093 0.16228435
VERTEX2 1048 -3.05782084 -3.28833786 -0.15001484
VERTEX2 1049 -2.40937281 -3.37568970 -0.13242645
VERTEX2 1050 -1.75981496 -3.43489869 -0.05625039
VERTEX2 1051 -1.14826429 -3.49250828 -0.12992731
VERTEX2 1052 -0.56743461 -3.55427910 -0.07161555
VERTEX2 1053 -0.19346599 -3.59210505 -0.11897513
VERTEX2 1054 -0.21623534 -3.59067772 0.66191412
VERTEX2 1055 -0.21559001 -3.58595075 1.75276838
VERTEX2 1056 -0.21406890 -3.58777554 2.78328079
VERTEX2 1057 -0.22828068 -3.58788891 -2.49512477
VERTEX2 1058 -0.27900173 -3.15976996 -0.18296123
VERTEX2 1059 0.26581839 -3.28174534 -0.26031495
VERTEX2 1060 0.85972909 -3.44233381 -0.25227434
VERTEX2 1061 1.27183420 -3.56187792 -0.37173483
VERTEX2 1062 1.27893240 -3.56695339 -0.93275196
VERTEX2 1063 0.24042626 -1.05788330 -1.70483566
VERTEX2 1064 0.11954101 -1.34346380 -1.96784554
VERTEX2 1065 -0.07782213 -1.92698683 -1.84409244
VERTEX2 1066 -0.25416996 -2.49000216 -1.89861971
VERTEX2 1067 -0.25558211 -2.49909513 -1.46299704
VERTEX2 1068 -0.25527291 -2.49980684 -0.78618741
VERTEX2 1069 -0.25482972 -2.50007820 -0.61387544
VERTEX2 1070 -0.25222695 -2.50231573 -1.14948172
VERTEX2 1071 -0.08842106 -3.03267992 -1.27484712
VERTEX2 1072 0.05737697 -3.53703562 -1.34159451
VERTEX2 1073 -2.44519775 -5.61517451 3.01019995
VERTEX2 1074 -3.00395128 -5.51519843 2.97729710
VERTEX2 1075 -3.61028422 -5.40982445 2.99528494
VERTEX2 1076 -3.62860240 -5.40774745 -2.88283208
VERTEX2 1077 -3.63919917 -5.42611459 -2.07500550
VERTEX2 1078 -3.89711720 -6.02201141 -2.02937056
VERTEX2 1079 -4.14747426 -6.57519561 -1.96675549
VERTEX2 1080 -4.15044573 -6.58237548 -2.45321828
VERTEX2 1081 -4.58221970 -6.85655006 -2.57592633
VERTEX2 1082 -4.75067813 -6.96601433 -2.29453229
VERTEX2 1083 -4.74819469 -6.99090696 -1.25922131
VERTEX2 1084 -4.68074544 -7.02779136 -0.28940749
VERTEX2 1085 -4.70240221 -7.03282700 0.69435594
VERTEX2 1086 -4.34545377 -6.57045530 0.92506930
VERTEX2 1087 -3.96887065 -6.09046282 0.91315896
VERTEX2 1088 -3.61041527 -5.60615435 0.89658088
VERTEX2 1089 -3.55553686 -5.53852778 0.80047282
VERTEX2 1090 -3.54782603 -5.53182064 0.18394171
VERTEX2 1091 -3.01078274 -5.51369441 0.00634797
VERTEX2 1092 -2.39276232 -5.51496104 -0.00930753
VERTEX2 1093 -1.82632927 -5.53323030 -0.07482919
VERTEX2 1094 -1.80984031 -5.54984313 -0.48153478
VERTEX2 1095 -1.77624455 -5.58151232 -1.07464125
VERTEX2 1096 -1.77568357 -5.58454617 -1.64907545
VERTEX2 1097 -1.87100062 -5.90669135 -1.86636038
VERTEX2 1098 -2.07138109 -6.49635938 -1.92459220
VERTEX2 1099 -2.30956149 -7.06715127 -2.02360169
VERTEX2 1100 -2.32431925 -7.10021550 -1.66503521
VERTEX2 1101 -2.27675784 -7.37784449 -1.40299046
VERTEX2 1102 -2.28027051 -7.40336982 -1.80140428
VERTEX2 1103 -2.44792462 -8.02232525 -1.83772382
VERTEX2 1104 -2.62974877 -8.66649372 -1.86788558
VERTEX2 1105 -2.83015135 -9.29536546 -1.88815973
VERTEX2 1106 -2.99344486 -9.78097033 -1.91577610
VERTEX2 1107 -2.99307025 -9.80350460 -1.66321960
VERTEX2 1108 -3.00813804 -10.44850450 -1.65718964
VERTEX2 1109 -3.11246715 -11.10508788 -1.76329756
VERTEX2 1110 -3.23827418 -11.72354445 -1.81476735
VERTEX2 1111 -3.45723288 -12.25477029 -1.91819495
VERTEX2 1112 -3.54069830 -12.84055873 -1.57509072
VERTEX2 1113 -3.56042524 -13.49164668 -1.67265993
VERTEX2 1114 -3.62515235 -14.13200831 -1.65761288
VERTEX2 1115 -3.67503346 -14.74016194 -1.67579938
VERTEX2 1116 -3.72222388 -15.41046142 -1.64173163
VERTEX2 1117 -3.72979393 -15.53126222 -1.77211520
VERTEX2 1118 -7.34882544 -20.39222145 -2.48580783
VERTEX2 1119 -5.39007955 -20.07405079 2.90537840
VERTEX2 1120 -5.96504213 -19.88990301 2.83977635
VERTEX2 1121 -6.15965288 -19.82453799 2.71899400
VERTEX2 1122 -6.15356754 -19.83360637 2.16429056
VERTEX2 1123 -6.45862537 -19.36557499 2.17778168
VERTEX2 1124 -6.80128524 -18.93483721 2.27252390
VERTEX2 1125 -7.19876258 -18.46026023 2.28275837
VERTEX2 1126 -7.24034336 -18.41389407 2.61674286
VERTEX2 1127 11.32177243 -16.56145574 0.59287589
VERTEX2 1128 -3.89877011 -18.86226309 0.39122033
VERTEX2 1129 -3.88713337 -18.84986987 1.39892246
VERTEX2 1130 -3.80525814 -18.27573749 1.41077868
VERTEX2 1131 -3.49453483 -17.56824667 0.97531104
VERTEX2 1132 -3.13405582 -17.04101159 0.95384628
VERTEX2 1133 -2.77879375 -16.57822757 0.91333369
VERTEX2 1134 -2.61637540 -16.36841226 0.81431451
VERTEX2 1135 -2.60745755 -16.36317780 0.25417830
VERTEX2 1136 -2.82617380 -15.27615974 -1.61729553
VERTEX2 1137 -2.88198241 -15.57685382 -1.80386094
VERTEX2 1138 -3.04295262 -16.20807031 -1.82176485
VERTEX2 1139 -3.17338137 -16.72048159 -1.89861925
VERTEX2 1140 -2.64889364 -17.28896350 -0.07037203
VERTEX2 1141 -2.90192249 -16.60659903 -2.88387756
VERTEX2 1142 -3.29604308 -16.56952262 3.02818609
VERTEX2 1143 -3.92489032 -16.53181214 3.11336561
VERTEX2 1144 -4.53650277 -16.50402510 3.07889250
VERTEX2 1145 -5.15153672 -16.46156312 3.04993276
VERTEX2 1146 -5.76375463 -16.40452043 3.06623550
VERTEX2 1147 -6.38043829 -16.39524558 3.13508244
VERTEX2 1148 -6.95981411 -16.39117439 -3.13801000
VERTEX2 1149 -7.00343615 -16.39238533 -2.63962244
VERTEX2 1150 -7.09513271 -16.49322886 -1.83515896
VERTEX2 1151 -7.08961743 -16.52526996 -0.83293138
VERTEX2 1152 -7.07165813 -16.52574572 0.21842710
VERTEX2 1153 -7.06905874 -16.52467904 1.23039166
VERTEX2 1154 -7.12004227 -16.23138957 1.77602910
VERTEX2 1155 -7.24538733 -15.60779228 1.72763494
VERTEX2 1156 -7.33562359 -15.00373202 1.73857527
VERTEX2 1157 -7.45667800 -14.43301659 1.85077934
VERTEX2 1158 -7.57729689 -13.83162284 1.72331432
VERTEX2 1159 -7.62942718 -13.24736745 1.62886989
VERTEX2 1160 -7.64444302 -12.61752858 1.49229693
VERTEX2 1161 -7.53831043 -11.99208951 1.40286007
VERTEX2 1162 -7.44055879 -11.36655565 1.46129911
VERTEX2 1163 -7.37273721 -10.73749941 1.45565877
VERTEX2 1164 -7.31888787 -10.11079704 1.54095360
VERTEX2 1165 -7.30357070 -9.57375217 1.51810413
VERTEX2 1166 -7.30427692 -9.57016956 2.00700298
VERTEX2 1167 -7.26526883 -9.56103877 2.94363495
VERTEX2 1168 -7.21823657 -9.54278590 -2.43583248
VERTEX2 1169 -7.22174947 -9.58440770 -1.61359658
VERTEX2 1170 -7.23630472 -10.16068682 -1.60679565
VERTEX2 1171 -7.24095952 -10.78577040 -1.57494518
VERTEX2 1172 -7.24967538 -11.37486455 -1.63727779
VERTEX2 1173 -7.28376831 -11.98851482 -1.62804974
VERTEX2 1174 -7.33157136 -12.60726303 -1.69665769
VERTEX2 1175 -7.42082807 -13.21073416 -1.72996372
VERTEX2 1176 -7.52150855 -13.82086312 -1.77362473
VERTEX2 1177 -7.64393061 -14.41911328 -1.77154851
VERTEX2 1178 -7.77779627 -15.02133618 -1.81870612
VERTEX2 1179 -7.91793810 -15.61551144 -1.78928619
VERTEX2 1180 -7.97204401 -15.85947292 -1.79619675
VERTEX2 1181 -7.96967710 -15.84321475 -0.96844897
VERTEX2 1182 -7.92145636 -15.85578160 -0.25646492
VERTEX2 1183 -7.31558310 -16.00667864 -0.23110800
VERTEX2 1184 -6.68974751 -16.12434551 -0.16167750
VERTEX2 1185 -6.06079828 -16.23896009 -0.19411805
VERTEX2 1186 -5.43258010 -16.33765229 -0.12812556
VERTEX2 1187 -4.78193187 -16.42726850 -0.16542152
VERTEX2 1188 -4.15794332 -16.52117991 -0.14753005
VERTEX2 1189 -3.50994468 -16.63177504 -0.12603578
VERTEX2 1190 -3.19388864 -16.67262183 -0.11817487
VERTEX2 1191 -3.17909678 -16.67240602 0.80152734
VERTEX2 1192 -3.17404003 -16.60587060 1.59865445
VERTEX2 1193 -3.16398629 -16.02351829 1.46637197
VERTEX2 1194 -3.12120528 -15.47551307 1.50805170
VERTEX2 1195 -3.09012115 -14.87770478 1.55995749
VERTEX2 1196 -3.08058181 -14.27891049 1.38669708
VERTEX2 1197 -2.97547533 -13.68362963 1.39744097
VERTEX2 1198 -2.90195191 -13.07598479 1.65545556
VERTEX2 1199 -2.91328868 -12.48088805 1.43994686
VERTEX2 1200 -2.85212679 -11.87305530 1.50843393
VERTEX2 1201 -2.82193874 -11.27477158 1.56370761
VERTEX2 1202 -2.82548698 -10.67271823 1.58609098
VERTEX2 1203 -2.84858275 -10.10291242 1.49547670
VERTEX2 1204 -2.73143438 -9.53462680 1.34789137
VERTEX2 1205 -2.62004524 -8.99542201 1.37679025
VERTEX2 1206 -2.52978974 -8.42873142 1.43727183
VERTEX2 1207 -2.38857260 -7.84184839 1.35035387
VERTEX2 1208 -2.27056263 -7.24084150 1.41421816
VERTEX2 1209 -2.17671149 -6.64268269 1.41151822
VERTEX2 1210 -2.10382015 -6.04817588 1.43127075
VERTEX2 1211 -1.97324766 -5.44822923 1.36059557
VERTEX2 1212 -1.85463617 -4.84644917 1.41239051
VERTEX2 1213 -1.78246691 -4.22696109 1.48762896
VERTEX2 1214 -1.69739206 -3.49556530 1.26696137
VERTEX2 1215 -1.53428193 -2.92256524 1.32718246
VERTEX2 1216 -1.48221791 -2.36124424 1.54569487
VERTEX2 1217 -1.44726382 -1.76988947 1.52692662
VERTEX2 1218 -1.42950643 -1.18035079 1.47744147
VERTEX2 1219 -1.37521687 -0.53191140 1.50918887
VERTEX2 1220 -1.36561421 0.05456820 1.60122531
VERTEX2 1221 -1.36403169 0.04919655 1.15023207
VERTEX2 1222 -1.35679867 0.05622108 0.55351786
VERTEX2 1223 -1.34314697 0.05944421 -0.00554279
VERTEX2 1224 -0.76361989 -0.03367368 -0.18811578
VERTEX2 1225 -0.14822838 -0.14685060 -0.17435178
VERTEX2 1226 -0.04335797 -0.16543317 -0.19108278
VERTEX2 1227 -0.04335797 -0.16543317 -0.19174478
