1 19 166 0 0.41485034 0.00210152 5 
2 19 172 0 0.02820697 0.00187011 4 
3 25 172 0 0.50366199 0.00187630 4 
4 25 178 0 0.30831851 0.00235262 4 
5 32 178 0 0.01493521 0.00347920 4 
6 32 183 0 0.07055611 0.00201445 4 
7 44 189 0 0.52863102 0.00207955 4 
8 44 195 0 0.35755137 0.00216943 4 
9 50 195 0 0.00572854 0.00220567 4 
10 50 201 0 0.04110605 0.00190601 3 
11 50 203 0 0.06975183 0.00187390 3 
12 61 203 0 0.00745912 0.00190419 3 
13 61 209 0 0.37222863 0.00231624 4 
14 67 209 0 0.41032090 0.00232268 4 
15 206 210 2 4867.91945532 0.00000263 1 
16 197 213 2 2771.95145750 0.00000275 1 
17 67 220 0 0.66144083 0.00250132 4 
18 81 220 0 0.48035877 0.00285900 5 
19 81 226 0 0.05402805 0.00256942 4 
20 87 226 0 1.82553139 0.00294777 5 
21 87 231 0 0.34656585 0.00262141 4 
22 94 231 0 0.55778528 0.00256661 4 
23 226 231 0 1.44127402 0.00298670 5 
24 94 241 0 1.33132047 0.00269589 4 
25 101 241 0 0.50961029 0.00271653 4 
26 146 242 2 877.43954714 0.00000226 1 
27 101 247 0 1.66454674 0.00276340 4 
28 107 247 0 1.80094617 0.00278093 4 
29 107 254 0 1.18346605 0.00284486 4 
30 114 254 0 0.12939160 0.00286380 4 
31 107 256 0 0.93085039 0.00284926 4 
32 114 256 0 0.24629796 0.00285419 4 
33 107 258 0 1.37911724 0.00289868 4 
34 114 258 0 1.15747212 0.00292298 4 
35 157 259 2 1051.98095378 0.00000255 1 
36 121 266 0 0.00938596 0.00301675 4 
37 126 266 0 0.44864328 0.00354511 5 
38 126 272 0 1.03992836 0.00309169 4 
39 132 272 0 0.39070916 0.00364202 5 
40 132 278 0 0.58358145 0.00317495 4 
41 138 278 0 1.06458780 0.00373228 5 
42 138 284 0 0.02201259 0.00270734 3 
43 151 284 0 0.12777228 0.00329416 4 
44 151 291 0 0.60037557 0.00331572 4 
45 151 297 0 0.07972289 0.00284153 3 
46 157 297 0 1.04991834 0.00344572 4 
47 166 297 0 1.30507781 0.00338481 4 
48 19 305 0 0.16044642 0.00357174 4 
49 157 305 0 0.58687353 0.00360842 4 
50 163 305 0 7.56485476 0.00484634 6 
51 166 305 0 0.37495035 0.00359955 4 
52 172 305 0 0.01886255 0.00360702 4 
53 19 315 0 0.48455906 0.00310380 3 
54 25 315 0 0.02281386 0.00328706 3 
55 172 315 0 0.05679715 0.00373216 4 
56 172 328 0 0.12482725 0.00325816 3 
57 19 337 0 6.63404991 0.00466113 5 
58 25 337 0 0.96522419 0.00400150 4 
59 172 337 0 0.57611560 0.00334021 3 
60 19 342 0 0.00494520 0.00339062 3 
61 25 342 0 0.12855172 0.00406516 4 
62 172 342 0 0.01223902 0.00412551 4 
63 178 342 0 0.12442988 0.00418561 4 
64 25 367 0 0.11414782 0.00379250 3 
65 32 367 0 0.01267433 0.00598256 6 
66 178 367 0 0.00286807 0.00378394 3 
67 183 367 0 0.06698524 0.00379039 3 
68 25 374 0 0.56424690 0.00460483 4 
69 32 374 0 0.09892849 0.00534210 5 
70 178 374 0 0.03055075 0.00459954 4 
71 183 374 0 0.05309447 0.00458018 4 
72 32 382 0 4.14688582 0.00392884 3 
73 183 382 0 1.28811506 0.00466678 4 
74 32 387 0 2.72468715 0.00474178 4 
75 183 387 0 0.18197642 0.00473059 4 
76 189 414 0 7.69047346 0.00586923 5 
77 213 426 2 908.99872532 0.00000378 1 
78 44 437 0 0.00915802 0.00445989 3 
79 195 437 0 0.01161094 0.00441798 3 
80 44 454 0 0.65644164 0.00454418 3 
81 189 454 0 0.03962740 0.00543250 4 
82 365 465 2 722.27910262 0.00000305 1 
83 44 467 0 0.12345281 0.00641050 5 
84 50 467 0 0.00895575 0.01021247 9 
85 195 467 0 0.00230988 0.00466680 3 
86 195 484 0 0.09447226 0.00576095 4 
87 365 489 2 1060.13795604 0.00000331 1 
88 44 494 0 0.02880924 0.00577254 4 
89 50 494 0 0.00628832 0.00482708 3 
90 195 494 0 0.00818961 0.00683179 5 
91 201 494 0 0.00469852 0.00683100 5 
92 50 500 0 0.14406209 0.00694405 5 
93 201 500 0 0.05353930 0.00490346 3 
94 203 500 0 0.03252445 0.00487632 3 
95 61 508 0 0.99413579 0.00711381 5 
96 203 508 0 0.26947301 0.01227430 10 
97 209 508 0 0.03711473 0.00606151 4 
98 61 522 0 1.37942234 0.00613754 4 
99 203 522 0 0.12859200 0.00512744 3 
100 209 522 0 0.00542469 0.00513009 3 
101 126 527 2 2347.23525766 0.00000287 1 
102 61 528 0 0.47936102 0.00515774 3 
103 67 528 0 0.22419307 0.00627945 4 
104 81 528 0 0.23233822 0.00839252 6 
105 209 528 0 0.09444678 0.01062138 8 
106 220 528 0 0.13668760 0.00623595 4 
107 67 532 0 0.05459173 0.01181960 9 
108 81 532 0 0.11826401 0.00846838 6 
109 220 532 0 0.05648169 0.00634614 4 
110 67 556 0 0.98233216 0.00651105 4 
111 163 558 2 1111.79504207 0.00000312 1 
112 67 564 0 0.40168838 0.01234146 9 
113 81 564 0 0.02280941 0.00662930 4 
114 220 564 0 0.02684857 0.00667652 4 
115 67 567 0 2.67253169 0.00782546 5 
116 81 567 0 0.48923871 0.00902380 6 
117 220 567 0 0.21723258 0.00667397 4 
118 67 570 0 2.40706627 0.00911555 6 
119 81 570 0 0.15671702 0.00902869 6 
120 220 570 0 0.13379867 0.00676766 4 
121 81 575 0 2.76594993 0.00793812 5 
122 220 575 0 1.08612706 0.01036339 7 
123 81 588 0 0.01497138 0.00570254 3 
124 87 588 0 0.47937722 0.00819116 5 
125 226 588 0 0.43156268 0.00693391 4 
126 87 597 0 2.27648751 0.00958825 6 
127 94 597 0 0.38888315 0.00699799 4 
128 226 597 0 0.55079633 0.00832550 5 
129 87 604 0 0.47149562 0.00713342 4 
130 94 604 0 0.01542269 0.00840565 5 
131 304 608 2 2069.26489908 0.00000303 1 
132 94 616 0 0.01350372 0.01233711 8 
133 94 632 0 2.16969694 0.00880044 5 
134 94 637 0 4.44236402 0.01006998 6 
135 101 637 0 0.19098383 0.00752139 4 
136 101 642 0 0.11555601 0.00890639 5 
137 107 642 0 0.04025021 0.01408004 9 
138 101 645 0 6.69527511 0.00763285 4 
139 107 645 0 1.54205090 0.00753648 4 
140 198 653 2 727.92556141 0.00000383 1 
141 101 657 0 0.73548669 0.01669105 10 
142 101 663 0 0.04971914 0.01676326 10 
143 107 663 0 0.01781179 0.00915675 5 
144 114 663 0 0.00275957 0.00917342 5 
145 101 665 0 1.55112265 0.01350627 8 
146 107 665 0 0.47667103 0.00785337 4 
147 114 665 0 0.13329170 0.00649194 3 
148 107 680 0 1.48615866 0.00940194 5 
149 107 683 0 0.94462224 0.00803354 4 
150 114 683 0 0.32178225 0.00952108 5 
151 301 702 2 738.11918644 0.00000332 1 
152 107 704 0 0.34268109 0.01263075 7 
153 114 704 0 0.07528002 0.01565809 9 
154 412 707 2 1005.53434556 0.00000356 1 
155 374 708 2 167.99881650 0.00000523 1 
156 107 714 0 1.79639085 0.01134815 6 
157 114 714 0 0.02860377 0.01440853 8 
158 80 715 2 2483.15178193 0.00000473 1 
159 512 719 2 1419.21454153 0.00000404 1 
160 107 730 0 0.19656714 0.01017523 5 
161 114 730 0 0.03540690 0.00864404 4 
162 121 754 0 0.33113739 0.00878884 4 
163 126 754 0 0.07673382 0.01512770 8 
164 121 759 0 2.33625684 0.01198106 6 
165 126 759 0 0.22329988 0.01203662 6 
166 126 762 0 7.08482229 0.01042045 5 
167 132 762 0 2.00372045 0.01536759 8 
168 1 769 2 213.06157519 0.00000340 1 
169 132 778 0 0.06999780 0.00906560 4 
170 481 784 2 479.78589068 0.00000423 1 
171 132 792 0 1.26802734 0.00930528 4 
172 49 799 2 644.54578495 0.00000624 1 
173 132 800 0 3.35686460 0.00919945 4 
174 138 800 0 0.14494330 0.01257641 6 
175 709 800 2 557.21624134 0.00000351 6 
176 138 806 0 0.25140739 0.00754190 3 
177 347 818 2 30.48184681 0.00000344 1 
178 138 821 0 0.40674396 0.01111162 5 
179 13 821 2 1530.35925691 0.00000434 5 
180 138 823 0 6.54725682 0.00939415 4 
181 151 828 0 3.12108818 0.00952513 4 
182 68 835 2 1235.87118746 0.00000350 1 
183 834 846 2 275.17503120 0.00000433 1 
184 151 847 0 0.08724621 0.01146062 5 
185 590 850 2 2554.34626136 0.00000388 1 
186 151 855 0 0.11494457 0.01512511 7 
187 299 861 2 41.53187109 0.00000435 1 
188 18 865 2 541.06992214 0.00000490 1 
189 516 865 2 69.89532971 0.00000129 1 
190 377 866 2 2084.13474599 0.00000418 1 
191 506 870 2 814.68269888 0.00000405 1 
192 448 872 2 669.18883181 0.00000395 1 
193 855 877 2 106.33074699 0.00000386 1 
194 503 885 2 1972.37899680 0.00000410 1 
195 151 895 0 2.80701437 0.01762010 8 
196 151 897 0 0.06118057 0.02139813 10 
197 255 899 2 1512.24924305 0.00000420 1 
198 14 900 2 941.38810396 0.00000413 1 
199 138 903 0 0.08157811 0.01028278 4 
200 138 904 0 7.06392298 0.01405763 6 
201 132 907 0 0.71874717 0.01031357 4 
202 138 907 0 0.22077132 0.01225081 5 
203 132 911 0 0.23128175 0.01224160 5 
204 121 923 0 0.62636126 0.01441817 6 
205 126 923 0 0.07130653 0.01058085 4 
206 272 924 2 6416.71707478 0.00000445 1 
207 107 929 0 0.07225325 0.01256378 5 
208 114 929 0 0.00477553 0.01062066 4 
209 927 933 2 6462.50265846 0.00000406 1 
210 107 935 0 4.91438615 0.01655098 7 
211 114 935 0 1.40337639 0.01659292 7 
212 101 939 0 0.48567419 0.01073521 4 
213 107 939 0 0.21174614 0.01075157 4 
214 101 944 0 0.15377935 0.01278517 5 
215 94 947 0 0.23772432 0.01677518 7 
216 101 947 0 0.16826262 0.01483439 6 
217 621 951 2 367.75436346 0.00000436 1 
218 87 953 0 0.13504795 0.01090958 4 
219 94 953 0 0.06505521 0.01494776 6 
220 226 953 0 0.08268323 0.02301252 10 
221 323 957 2 1046.12807390 0.00000382 1 
222 869 957 2 600.43684534 0.00000159 1 
223 81 959 0 1.83528326 0.02443202 10 
224 87 959 0 1.29172246 0.01717368 7 
225 220 959 0 0.04883629 0.01104985 4 
226 226 959 0 0.12130941 0.01313749 5 
227 41 960 2 1272.67891469 0.00000435 1 
228 67 965 0 1.01368609 0.01320399 5 
229 81 965 0 0.31066014 0.01525625 6 
230 220 965 0 0.16483276 0.01935000 8 
231 65 968 2 751.74198535 0.00000405 1 
232 442 971 2 1126.11490596 0.00000442 1 
233 777 972 2 1437.66493755 0.00000413 1 
234 61 976 0 0.16803746 0.01748194 7 
235 67 976 0 0.05676300 0.00920445 3 
236 209 976 0 0.00780965 0.01131583 4 
237 50 982 0 0.38354811 0.01138805 4 
238 61 982 0 0.27147698 0.01136282 4 
239 201 982 0 0.22200943 0.01140337 4 
240 203 982 0 0.10573284 0.02192580 9 
241 854 983 2 670.31816735 0.00000452 1 
242 44 988 0 0.09550719 0.01150288 4 
243 50 988 0 0.05924873 0.01148819 4 
244 195 988 0 0.04319526 0.01573076 6 
245 201 988 0 0.02685916 0.01359531 5 
246 131 992 2 1199.88125653 0.00000441 1 
247 44 994 0 0.51683435 0.01792242 7 
248 189 994 0 0.29989154 0.02579592 10 
249 195 994 0 0.21957432 0.01374842 5 
250 774 997 2 2017.72677387 0.00000423 1 
251 489 1001 2 1749.74155484 0.00000568 1 
252 32 1003 0 0.23901034 0.01386232 5 
253 178 1003 0 0.03356851 0.02605930 10 
254 183 1003 0 0.01433170 0.01605720 6 
255 639 1003 2 2221.62919414 0.00000389 6 
256 799 1007 2 3997.59730389 0.00000602 1 
257 25 1008 0 1.23858172 0.01836612 7 
258 32 1008 0 0.53803958 0.01182840 4 
259 178 1008 0 0.34459610 0.01179909 4 
260 183 1008 0 0.22233868 0.01188754 4 
261 25 1010 0 0.60236133 0.01183197 4 
262 32 1010 0 0.30591807 0.01403721 5 
263 172 1010 0 0.10368354 0.01636186 6 
264 178 1010 0 0.19279072 0.02648189 10 
265 19 1016 0 0.44047719 0.02061269 8 
266 166 1016 0 0.20189646 0.01189656 4 
267 172 1016 0 0.07393216 0.01406557 5 
268 151 1029 0 0.03533130 0.01444721 5 
269 157 1029 0 0.02672450 0.01205758 4 
270 163 1029 0 3.39703566 0.01205135 4 
271 166 1029 0 0.49353449 0.01207220 4 
272 223 1036 2 1573.53469944 0.00000479 1 
273 897 1044 2 791.94501449 0.00000589 1 
274 987 1053 2 86.26710076 0.00000475 1 
275 403 1066 2 550.93211082 0.00000591 1 
276 1046 1071 2 30.05865940 0.00000562 1 
277 132 1084 0 4.21993706 0.01514845 5 
278 695 1087 2 1005.87003006 0.00000573 1 
279 74 1107 2 669.23048917 0.00000552 1 
280 864 1109 2 436.39121769 0.00000847 1 
281 923 1116 2 148.03912429 0.00000512 1 
282 101 1138 0 0.63021658 0.01583697 5 
283 107 1147 0 0.73708347 0.01337803 4 
284 114 1147 0 0.03971358 0.01089937 3 
285 503 1149 2 316.70925461 0.00000528 1 
286 697 1149 2 1397.42025095 0.00000486 1 
287 107 1150 0 7.45683387 0.01347753 4 
288 114 1150 0 1.00561260 0.01096913 3 
289 468 1150 2 2851.96160589 0.00000479 3 
290 697 1155 2 967.93579752 0.00000730 1 
291 114 1158 0 0.16899687 0.01105623 3 
292 121 1158 0 0.69099743 0.01358401 4 
293 121 1164 0 0.45182924 0.01636142 5 
294 126 1164 0 0.04418665 0.01386410 4 
295 392 1172 2 1888.26293445 0.00000586 1 
296 173 1172 2 1855.02048704 0.00000228 1 
297 810 1173 2 560.01729128 0.00000485 1 
298 114 1175 0 0.14266969 0.01400623 4 
299 121 1175 0 0.27324351 0.01396957 4 
300 923 1175 0 0.18719011 0.01390757 4 
301 929 1175 0 0.16073549 0.01377339 4 
302 1158 1175 0 0.00134797 0.01125976 3 
303 414 1182 2 3050.41368455 0.00000579 1 
304 101 1188 0 0.32950319 0.01414488 4 
305 939 1188 0 0.55418798 0.01413897 4 
306 1138 1188 0 0.03006025 0.01162997 3 
307 1147 1188 0 0.04063922 0.01154611 3 
308 1150 1188 0 1.83245351 0.01412939 4 
309 499 1195 2 135.07550720 0.00000548 1 
310 596 1205 2 527.92321022 0.00000525 1 
311 13 1209 2 605.53375523 0.00000503 1 
312 1050 1210 0 0.00345523 0.01436806 4 
313 1061 1210 0 0.57363906 0.01690091 5 
314 1075 1210 0 0.23107861 0.01684569 5 
315 1084 1210 0 3.13555510 0.01687716 5 
316 1088 1210 0 0.59156319 0.01424114 4 
317 1093 1210 0 0.13111230 0.01952775 6 
318 1098 1210 0 0.04730346 0.01423133 4 
319 91 1211 2 1924.61193780 0.00000834 1 
320 157 1217 0 0.32750279 0.01434596 4 
321 163 1217 0 0.19904338 0.01452264 4 
322 1029 1217 0 0.01250493 0.01176606 3 
323 1044 1217 0 3.98258990 0.01451956 4 
324 1050 1217 0 4.97161000 0.01722632 5 
325 391 1218 2 2170.34850237 0.00000546 1 
326 309 1219 2 3734.46097232 0.00000532 1 
327 380 1221 2 1915.91681167 0.00000537 1 
328 12 1223 2 1678.16072501 0.00000569 1 
329 163 297 0 0.27920255 0.01535177 4 
330 189 400 0 2.09679271 0.01470487 4 
331 1056 1217 0 9.66143264 0.01740565 5 
