VERTEX2 0 0.00004572 0.00000012 0.00000029
VERTEX2 1 0.00004571 0.00000012 -0.00064171
VERTEX2 2 0.00004571 0.00000012 -0.00117971
VERTEX2 3 0.01104756 -0.00097485 -0.00356171
VERTEX2 4 0.64105414 -0.01119982 -0.00744371
VERTEX2 5 0.69606182 -0.01171529 -0.09872571
VERTEX2 6 0.70031494 -0.01543461 -0.89599771
VERTEX2 7 0.69400220 0.00421387 -1.51153471
VERTEX2 8 0.69930905 0.02669464 -2.12506871
VERTEX2 9 0.71616031 0.04112367 -2.76313871
VERTEX2 10 0.72902682 0.04322106 2.90551559
VERTEX2 11 0.73400807 0.04005589 2.23095059
VERTEX2 12 0.73396599 0.04260775 1.58119904
VERTEX2 13 0.74018841 0.06215964 0.92142046
VERTEX2 14 0.76323432 0.07831348 0.31291793
VERTEX2 15 0.77531864 0.07912315 -0.21196102
VERTEX2 16 1.07012593 0.01849774 -0.23064293
VERTEX2 17 1.67182050 -0.12919758 -0.26188549
VERTEX2 18 2.29557488 -0.29297014 -0.27210136
VERTEX2 19 2.92284444 -0.49106586 -0.32074666
VERTEX2 20 3.51577866 -0.68184229 -0.31476842
VERTEX2 21 4.12399647 -0.83489956 -0.20311014
VERTEX2 22 4.73302774 -0.97688037 -0.18563788
VERTEX2 23 5.37164699 -1.02185387 -0.07810262
VERTEX2 24 6.00203380 -1.09370429 -0.13505655
VERTEX2 25 6.63573636 -1.16198377 -0.13219005
VERTEX2 26 7.24727494 -1.26319132 -0.17274553
VERTEX2 27 7.85827940 -1.35386666 -0.15734368
VERTEX2 28 8.43473517 -1.45195989 -0.16223909
VERTEX2 29 8.81708017 -1.51050354 -0.13135445
VERTEX2 30 8.82910252 -1.51372015 -0.66322756
VERTEX2 31 8.92956465 -1.64882279 -0.93142299
VERTEX2 32 9.29674652 -2.16308108 -0.94987227
VERTEX2 33 9.67868378 -2.66943146 -0.89929645
VERTEX2 34 10.08998364 -3.16001538 -0.87851045
VERTEX2 35 10.51137413 -3.64310055 -0.84455366
VERTEX2 36 10.93924140 -4.12755079 -0.85344616
VERTEX2 37 11.22070385 -4.44256027 -0.84610848
VERTEX2 38 11.21847461 -4.43951350 -1.16840821
VERTEX2 39 11.21601774 -4.42810671 -1.33987520
VERTEX2 40 11.35820855 -4.99707901 -1.32300635
VERTEX2 41 11.50564974 -5.59111112 -1.35540623
VERTEX2 42 11.62546361 -6.14819586 -1.37853490
VERTEX2 43 11.72915178 -6.73642503 -1.41918905
VERTEX2 44 11.81583447 -7.32351961 -1.45663501
VERTEX2 45 11.86812690 -7.94184683 -1.51223725
VERTEX2 46 11.89638766 -8.56221212 -1.53169738
VERTEX2 47 11.91375040 -9.18240736 -1.57344415
VERTEX2 48 11.90749252 -9.80699955 -1.58005115
VERTEX2 49 11.89746849 -10.42753465 -1.63094059
VERTEX2 50 11.84151178 -11.01566334 -1.67548381
VERTEX2 51 11.78359468 -11.61244882 -1.70473547
VERTEX2 52 11.68359697 -12.19579840 -1.78165541
VERTEX2 53 11.58077259 -12.75359619 -1.76947509
VERTEX2 54 11.46501119 -13.26558584 -1.83174187
VERTEX2 55 11.47167492 -13.23446213 -1.82662889
VERTEX2 56 11.47189129 -13.23365330 -1.81599459
VERTEX2 57 11.32548529 -13.84755164 -1.82732678
VERTEX2 58 11.17662448 -14.44971270 -1.78102949
VERTEX2 59 11.04507933 -15.05149905 -1.80453679
VERTEX2 60 10.91299704 -15.64964247 -1.78307951
VERTEX2 61 10.77518985 -16.24825448 -1.83373687
VERTEX2 62 10.62086827 -16.80996538 -1.79366680
VERTEX2 63 10.46483750 -17.37639710 -1.82889225
VERTEX2 64 10.32569578 -17.93705920 -1.76517033
VERTEX2 65 10.18672681 -18.49976300 -1.81635210
VERTEX2 66 10.03416314 -19.07076611 -1.82496977
VERTEX2 67 9.86972805 -19.64531901 -1.82417620
VERTEX2 68 9.75660331 -20.09436465 -1.84016139
VERTEX2 69 9.76075314 -20.08113605 -1.99527351
VERTEX2 70 9.76894430 -20.06570597 -2.66993622
VERTEX2 71 9.79055061 -20.06460233 2.97028870
VERTEX2 72 9.80078712 -20.06572786 2.96069865
VERTEX2 73 9.80550674 -20.06692652 2.89563491
VERTEX2 74 9.80638359 -20.06751367 2.27401259
VERTEX2 75 9.81457267 -20.07078067 1.92178273
VERTEX2 76 9.80301204 -20.05778689 2.61586425
VERTEX2 77 9.80017335 -20.05656594 2.84891700
VERTEX2 78 9.52143739 -20.06526721 -3.09700481
VERTEX2 79 8.90582635 -20.09970239 -3.10219824
VERTEX2 80 8.27665405 -20.09401925 3.10655121
VERTEX2 81 7.65528379 -20.06346839 3.08063355
VERTEX2 82 7.06200507 -20.01891073 3.02637494
VERTEX2 83 6.47477459 -19.96305590 3.00323203
VERTEX2 84 5.91200584 -19.87254923 2.92595597
VERTEX2 85 5.37524212 -19.76591539 2.93312034
VERTEX2 86 4.77207932 -19.64167642 2.84331558
VERTEX2 87 4.39167271 -19.53532749 2.79056807
VERTEX2 88 4.02704608 -19.39724933 2.76098190
VERTEX2 89 4.03467682 -19.39767631 -3.12587221
VERTEX2 90 3.42906673 -19.39667176 3.12651046
VERTEX2 91 2.81454747 -19.38835959 -3.10724901
VERTEX2 92 2.21614719 -19.38053744 3.06067806
VERTEX2 93 1.61196011 -19.27660379 2.95959520
VERTEX2 94 1.00260094 -19.13680942 2.91652980
VERTEX2 95 0.38250434 -19.04604407 3.05945771
VERTEX2 96 -0.22301027 -18.99264827 3.08379313
VERTEX2 97 -0.80783322 -18.92777786 3.01346158
VERTEX2 98 -1.39056584 -18.82546714 2.95572255
VERTEX2 99 -2.08968481 -18.69962618 3.00271856
VERTEX2 100 -2.64817349 -18.59081456 2.95115750
VERTEX2 101 -3.25385494 -18.53277081 3.05460172
VERTEX2 102 -3.86688208 -18.45031434 2.95002664
VERTEX2 103 -4.47221661 -18.33514330 3.04586820
VERTEX2 104 -5.08222547 -18.25814403 3.01208049
VERTEX2 105 -5.69255613 -18.19285330 3.05847426
VERTEX2 106 -6.29225308 -18.12155342 3.00342261
VERTEX2 107 -6.90751303 -18.02448658 2.99942435
VERTEX2 108 -7.36179898 -17.97431034 3.06106931
VERTEX2 109 -7.40706606 -17.96270035 2.61270964
VERTEX2 110 -7.42393873 -17.94513756 2.02154180
VERTEX2 111 -7.42389772 -17.86387547 1.51585371
VERTEX2 112 -7.39837779 -17.22954404 1.57034412
VERTEX2 113 -7.41531409 -16.61040621 1.61708804
VERTEX2 114 -7.44677907 -15.99954905 1.65357680
VERTEX2 115 -7.51754874 -15.36376385 1.71385294
VERTEX2 116 -7.63338098 -14.61743493 1.75795689
VERTEX2 117 -7.76641280 -14.01115926 1.85353732
VERTEX2 118 -7.76996239 -13.99502039 1.51897323
VERTEX2 119 -7.71381917 -13.48233694 1.46574429
VERTEX2 120 -7.66062221 -12.83152967 1.55600688
VERTEX2 121 -7.67047299 -12.21751544 1.62366060
VERTEX2 122 -7.70407231 -11.63795846 1.67995131
VERTEX2 123 -7.72857548 -11.46074862 1.66724095
VERTEX2 124 -7.64361576 -11.22541104 1.24441308
VERTEX2 125 -7.42835828 -10.63606074 1.23353483
VERTEX2 126 -7.29646021 -10.02076751 1.43991969
VERTEX2 127 -7.20050852 -9.39255165 1.43866541
VERTEX2 128 -7.12660946 -8.75297087 1.47546051
VERTEX2 129 -7.04208892 -8.11750760 1.44313803
VERTEX2 130 -6.97667119 -7.48352288 1.49610452
VERTEX2 131 -6.93340184 -6.86131865 1.58402778
VERTEX2 132 -6.91758638 -6.24796579 1.53382308
VERTEX2 133 -6.87215306 -5.68186305 1.49669652
VERTEX2 134 -6.81984300 -5.09211092 1.47829812
VERTEX2 135 -6.73975677 -4.52323842 1.45183219
VERTEX2 136 -6.66665834 -3.89392782 1.47152817
VERTEX2 137 -6.57136875 -3.26701891 1.42974490
VERTEX2 138 -6.49667752 -2.64124097 1.50999499
VERTEX2 139 -6.48066331 -2.00772788 1.57477736
VERTEX2 140 -6.50968033 -1.35601364 1.60538338
VERTEX2 141 -6.51649709 -0.71978611 1.55701079
VERTEX2 142 -6.51771301 -0.07390290 1.55321684
VERTEX2 143 -6.43806936 0.56049685 1.44268241
VERTEX2 144 -6.39925722 0.92781558 1.46022303
VERTEX2 145 -6.39535531 0.93967189 0.96182178
VERTEX2 146 -6.39466304 0.94321504 0.36859107
VERTEX2 147 -6.34210947 0.93964081 -0.11793527
VERTEX2 148 -5.91328714 0.88087788 -0.15358003
VERTEX2 149 -5.27547261 0.78880588 -0.12845896
VERTEX2 150 -4.64436423 0.72592774 -0.11427322
VERTEX2 151 -4.00780095 0.68012898 -0.02856472
VERTEX2 152 -3.38312027 0.64600046 -0.08941997
VERTEX2 153 -2.75881946 0.61450430 0.00409302
VERTEX2 154 -2.13842148 0.59483238 -0.06530417
VERTEX2 155 -1.51395485 0.56278634 -0.03169212
VERTEX2 156 -0.88758080 0.54996918 -0.00071511
VERTEX2 157 -0.32479070 0.53382268 -0.06476282
VERTEX2 158 -0.13242179 0.52085571 -0.03761071
VERTEX2 159 -0.12662700 0.51901393 0.94834359
VERTEX2 160 -0.12637820 0.51949371 1.98256840
VERTEX2 161 -0.14641049 0.46689333 2.70744352
VERTEX2 162 -0.11816068 0.47324495 -2.54003918
VERTEX2 163 -0.11923914 0.46785118 -1.54304877
VERTEX2 164 -0.19129349 0.55754953 -0.48066201
VERTEX2 165 -0.02358989 0.54060017 -0.07290329
VERTEX2 166 0.66769391 0.49640996 -0.07119619
VERTEX2 167 1.28172586 0.44454978 -0.10050628
VERTEX2 168 1.86724315 0.39385370 -0.08841697
VERTEX2 169 2.46034652 0.32089575 -0.12521624
VERTEX2 170 3.04466103 0.25127567 -0.14569622
VERTEX2 171 3.60492615 0.15168132 -0.18379431
VERTEX2 172 4.22753640 0.04319899 -0.16934212
VERTEX2 173 4.85555084 -0.07754111 -0.19216042
VERTEX2 174 5.47985277 -0.19187242 -0.15204246
VERTEX2 175 6.09542115 -0.28215335 -0.17677305
VERTEX2 176 6.69381265 -0.40242601 -0.16720919
VERTEX2 177 7.31633739 -0.50529558 -0.19492433
VERTEX2 178 7.93652263 -0.65117981 -0.23401685
VERTEX2 179 8.34163938 -0.73556128 -0.18083498
VERTEX2 180 8.39275001 -0.74938573 -0.62316454
VERTEX2 181 8.83062628 -1.06625840 -0.67514196
VERTEX2 182 9.23626859 -1.42679359 -0.84900361
VERTEX2 183 9.58213543 -1.84746693 -0.90623510
VERTEX2 184 9.92579816 -2.36566354 -1.05236250
VERTEX2 185 10.21249836 -2.90477338 -1.14471226
VERTEX2 186 10.43297936 -3.47285132 -1.21099766
VERTEX2 187 10.62869954 -4.01826596 -1.23362527
VERTEX2 188 10.83102278 -4.58325802 -1.23913165
VERTEX2 189 11.02572050 -5.15193186 -1.26604386
VERTEX2 190 11.20493519 -5.74826534 -1.29497162
VERTEX2 191 11.37518743 -6.34727159 -1.31953794
VERTEX2 192 11.52775682 -6.94606361 -1.34797986
VERTEX2 193 11.64950527 -7.49599700 -1.40380221
VERTEX2 194 11.74735272 -8.06643236 -1.43068497
VERTEX2 195 11.82557121 -8.63178031 -1.45944238
VERTEX2 196 11.88934752 -9.25645426 -1.50025364
VERTEX2 197 11.92443359 -9.87698637 -1.52777392
VERTEX2 198 11.94678832 -10.49487206 -1.58599428
VERTEX2 199 11.91596668 -11.10200977 -1.64745704
VERTEX2 200 11.86614720 -11.70388714 -1.66937633
VERTEX2 201 11.79265579 -12.30221171 -1.72608254
VERTEX2 202 11.72652694 -12.80525724 -1.70595745
VERTEX2 203 11.62126856 -13.53695355 -1.75873971
VERTEX2 204 11.49709133 -14.11020408 -1.86075511
VERTEX2 205 11.32546214 -14.66925152 -1.87019027
VERTEX2 206 11.16904374 -15.21329190 -1.86826708
VERTEX2 207 11.00680660 -15.77701406 -1.85230032
VERTEX2 208 10.83075856 -16.37334506 -1.86170374
VERTEX2 209 10.66592340 -16.97111740 -1.82345367
VERTEX2 210 10.50020659 -17.56067195 -1.83229366
VERTEX2 211 10.34845954 -18.15394713 -1.83000023
VERTEX2 212 10.16924368 -18.73690895 -1.88280099
VERTEX2 213 9.97144982 -19.32362495 -1.90351640
VERTEX2 214 9.76894090 -19.89681676 -1.90725085
VERTEX2 215 9.65278567 -20.21668243 -1.94295866
VERTEX2 216 9.66532882 -20.19544389 -2.44140777
VERTEX2 217 9.68691160 -20.19323479 -2.98337538
VERTEX2 218 9.69527597 -20.19648940 -3.03999076
VERTEX2 219 9.12656086 -20.14954790 3.07391810
VERTEX2 220 8.52906932 -20.10331864 3.03419528
VERTEX2 221 7.89246660 -20.03291461 3.08482563
VERTEX2 222 7.26980136 -19.98646892 3.05945724
VERTEX2 223 6.64686860 -19.95338196 -3.12714184
VERTEX2 224 6.03893163 -19.95088846 3.13018182
VERTEX2 225 5.42735618 -19.94205762 -3.10337804
VERTEX2 226 4.81672740 -19.93245120 3.13064306
VERTEX2 227 4.17585339 -19.99798184 -2.99601991
VERTEX2 228 3.65756803 -19.98011970 2.92541694
VERTEX2 229 3.22562425 -19.94286277 3.04557070
VERTEX2 230 2.94021811 -19.92574422 3.01671575
VERTEX2 231 3.12877213 -19.94330461 3.08790753
VERTEX2 232 2.81089139 -19.79875693 2.66146281
VERTEX2 233 2.24003053 -19.53127243 2.76346063
VERTEX2 234 1.67345819 -19.30481789 2.71968407
VERTEX2 235 1.43306742 -19.19956095 2.71503081
VERTEX2 236 1.10259088 -19.19917671 3.12135854
VERTEX2 237 0.47829557 -19.21183389 -3.09108997
VERTEX2 238 -0.13911076 -19.25811810 -3.12356617
VERTEX2 239 -0.75137470 -19.25339570 3.09222033
VERTEX2 240 -1.31389527 -19.13528517 2.87437531
VERTEX2 241 -1.84610553 -19.00421859 2.95993607
VERTEX2 242 -2.40253894 -18.94142167 3.00069167
VERTEX2 243 -2.98773784 -18.86077405 3.00074546
VERTEX2 244 -3.61437024 -18.81353347 3.07192344
VERTEX2 245 -4.23152061 -18.76312799 3.01758833
VERTEX2 246 -4.83605641 -18.67516783 2.94507673
VERTEX2 247 -5.44187953 -18.59097596 3.05088340
VERTEX2 248 -5.99537204 -18.56794262 3.08250096
VERTEX2 249 -5.94619206 -18.57544851 -3.00742684
VERTEX2 250 -5.94207308 -18.57533136 2.68869645
VERTEX2 251 -6.26281752 -18.23562466 2.26530286
VERTEX2 252 -6.61711621 -17.81590029 2.27382557
VERTEX2 253 -6.98753456 -17.37047249 2.26284363
VERTEX2 254 -7.35145538 -16.91282739 2.22165729
VERTEX2 255 -7.42440890 -16.81987837 2.30563404
VERTEX2 256 -7.42723134 -16.74343824 1.82956548
VERTEX2 257 -7.47824600 -16.28486709 1.69400893
VERTEX2 258 -7.56093823 -15.69538840 1.77450765
VERTEX2 259 -7.70228911 -15.09579659 1.81505881
VERTEX2 260 -7.83392042 -14.54048929 1.80662871
VERTEX2 261 -7.83184726 -14.50742246 1.49565289
VERTEX2 262 -7.76847384 -13.86044760 1.50258727
VERTEX2 263 -7.72610880 -13.24669124 1.51630195
VERTEX2 264 -7.71095986 -12.64593691 1.61363156
VERTEX2 265 -7.74227568 -12.04542305 1.63400978
VERTEX2 266 -7.69463238 -11.47148713 1.50508057
VERTEX2 267 -7.64366020 -10.72570143 1.47602058
VERTEX2 268 -7.51254931 -10.12689210 1.36629658
VERTEX2 269 -7.39247663 -9.50884799 1.39631814
VERTEX2 270 -7.32043275 -8.87948284 1.51045521
VERTEX2 271 -7.22653663 -8.26094583 1.39943588
VERTEX2 272 -7.14184061 -7.63770381 1.46415544
VERTEX2 273 -7.15165373 -7.00988675 1.67628936
VERTEX2 274 -7.21933450 -6.39479680 1.70026785
VERTEX2 275 -7.20729648 -5.79032393 1.52875913
VERTEX2 276 -7.20036431 -5.18666949 1.64320358
VERTEX2 277 -7.24682294 -4.62454509 1.61756422
VERTEX2 278 -7.20355664 -3.98892039 1.52872905
VERTEX2 279 -7.16368468 -3.35426235 1.47343140
VERTEX2 280 -7.09564919 -2.72553836 1.47551369
VERTEX2 281 -7.00536685 -2.09541312 1.37508403
VERTEX2 282 -6.88608310 -1.47229985 1.41494611
VERTEX2 283 -6.79940184 -0.84210111 1.40710463
VERTEX2 284 -6.68790050 -0.22287988 1.43424281
VERTEX2 285 -6.62051484 0.42166935 1.45405839
VERTEX2 286 -6.55290453 1.03829037 1.50629273
VERTEX2 287 -6.55010802 1.08491912 1.40035262
VERTEX2 288 -6.54558534 1.09291002 0.79363775
VERTEX2 289 -6.53547676 1.09815058 0.20201064
VERTEX2 290 -6.08358888 1.08773228 -0.02217448
VERTEX2 291 -5.48193638 1.07791385 -0.00807045
VERTEX2 292 -4.87082292 1.05617246 -0.06278261
VERTEX2 293 -4.25066706 1.00893888 -0.08587076
VERTEX2 294 -3.63395133 0.95469956 -0.08517438
VERTEX2 295 -3.01238029 0.87195532 -0.19762714
VERTEX2 296 -2.39477722 0.72450756 -0.24295360
VERTEX2 297 -1.77923572 0.57013658 -0.25454230
VERTEX2 298 -1.16899600 0.41322549 -0.25528329
VERTEX2 299 -0.59493786 0.25399327 -0.19413932
VERTEX2 300 -0.01049145 0.16586945 -0.15194719
VERTEX2 301 0.54995555 0.06395056 -0.21105971
VERTEX2 302 0.85075828 -0.00201511 -0.23188548
VERTEX2 303 0.83253098 0.00117216 -0.22767283
VERTEX2 304 1.33204313 -0.11638972 -0.21801025
VERTEX2 305 1.94402077 -0.16331320 -0.03392895
VERTEX2 306 2.57456308 -0.17565349 -0.05186431
VERTEX2 307 3.21462867 -0.22521546 -0.08844231
VERTEX2 308 3.84305287 -0.28974343 -0.14391517
VERTEX2 309 4.47882858 -0.35159476 -0.05087794
VERTEX2 310 5.10065122 -0.38270058 -0.08686648
VERTEX2 311 5.37589070 -0.40873036 0.08805801
VERTEX2 312 5.36736426 -0.41329691 1.07567966
VERTEX2 313 5.37213218 -0.19587410 1.57128036
VERTEX2 314 5.35294939 0.43171245 1.61100393
VERTEX2 315 5.32479649 1.05877898 1.60660302
VERTEX2 316 5.28435115 1.70191750 1.65773308
VERTEX2 317 5.22270113 2.34268954 1.66739632
VERTEX2 318 5.12346702 2.98058144 1.76150391
VERTEX2 319 5.04347508 3.33041281 1.83265835
VERTEX2 320 5.04318056 3.32951429 2.80120148
VERTEX2 321 5.01842641 3.31894858 -2.44223973
VERTEX2 322 5.01305065 3.30807414 -1.44596652
VERTEX2 323 5.02428889 3.29723995 -0.45346220
VERTEX2 324 5.03614822 3.29335163 0.20644041
VERTEX2 325 5.04996401 3.29442254 -0.32122218
VERTEX2 326 5.06768426 3.28112806 -0.91642274
VERTEX2 327 5.06940637 3.27315942 -1.53979365
VERTEX2 328 5.05528496 2.64337202 -1.58651387
VERTEX2 329 5.03463768 2.01248890 -1.64235164
VERTEX2 330 4.98211186 1.39817107 -1.66281927
VERTEX2 331 4.92858712 0.78255861 -1.67855882
VERTEX2 332 4.85063693 0.16994598 -1.69853616
VERTEX2 333 4.82939694 0.01648926 -1.63505630
VERTEX2 334 4.83808693 0.01815470 -0.84278371
VERTEX2 335 4.85160618 0.01419987 0.14749682
VERTEX2 336 4.86692251 0.01957919 1.08772066
VERTEX2 337 4.87376735 0.06197244 2.06567627
VERTEX2 338 4.87217650 0.06306956 3.05530282
VERTEX2 339 4.88485061 0.07092315 -2.17779396
VERTEX2 340 4.88514137 0.06886180 -1.15785068
VERTEX2 341 4.99981354 -0.00047046 -0.52403512
VERTEX2 342 5.57010825 -0.30411959 -0.42224673
VERTEX2 343 6.15054787 -0.50675623 -0.29050134
VERTEX2 344 6.74188113 -0.69110027 -0.29980625
VERTEX2 345 6.98259843 -0.76214511 -0.32654049
VERTEX2 346 6.97120826 -0.75841117 -0.97189341
VERTEX2 347 6.97357373 -0.84526160 -1.52885932
VERTEX2 348 6.99150964 -1.43431749 -1.54486348
VERTEX2 349 6.98943433 -2.05218648 -1.58439091
VERTEX2 350 6.97662445 -2.83861602 -1.60335082
VERTEX2 351 6.96255472 -3.11060912 -1.63164472
VERTEX2 352 6.96119704 -3.11709212 -1.91837411
VERTEX2 353 6.94855631 -3.13261161 -2.58138933
VERTEX2 354 6.93286361 -3.13711878 3.10063907
VERTEX2 355 6.91063020 -3.13634452 2.38223157
VERTEX2 356 6.90446394 -3.12546275 1.80912765
VERTEX2 357 6.90698897 -3.11033509 1.15841674
VERTEX2 358 6.90721463 -3.11004390 0.54522111
VERTEX2 359 6.89371229 -3.11583406 -0.06654578
VERTEX2 360 6.87722430 -3.11257542 -0.24164814
VERTEX2 361 6.86714205 -3.11520974 0.68093355
VERTEX2 362 6.95181499 -2.88496139 1.21665734
VERTEX2 363 7.05413553 -2.61748866 1.21100688
VERTEX2 364 6.98468399 -2.28096126 1.82766214
VERTEX2 365 6.92908107 -1.99146793 1.33226611
VERTEX2 366 7.03683633 -1.86949129 0.77999063
VERTEX2 367 7.48162366 -1.43540268 0.78278585
VERTEX2 368 7.93650304 -1.00044881 0.73467421
VERTEX2 369 7.95674766 -0.97602437 0.48290411
VERTEX2 370 7.98117333 -0.97213410 -0.10376155
VERTEX2 371 7.98692803 -0.97512426 -0.64914152
VERTEX2 372 8.41522574 -1.32367939 -0.67678209
VERTEX2 373 8.88723747 -1.68852590 -0.67476883
VERTEX2 374 9.36566643 -2.09163805 -0.73587531
VERTEX2 375 9.72822292 -2.41479154 -0.76698845
VERTEX2 376 9.74199142 -2.42322776 -0.07499060
VERTEX2 377 9.78324565 -2.39391847 0.61752244
VERTEX2 378 10.31058165 -2.00406556 0.67021063
VERTEX2 379 10.79184071 -1.57398192 0.75352664
VERTEX2 380 11.23366774 -1.10735555 0.87128552
VERTEX2 381 11.38356106 -0.92362756 1.01986556
VERTEX2 382 11.38795704 -0.91580148 2.06541372
VERTEX2 383 11.38261909 -0.91250584 3.05296095
VERTEX2 384 11.38129476 -0.91374954 -2.26582924
VERTEX2 385 11.37756816 -0.91997161 -1.23502044
VERTEX2 386 11.47920238 -1.05215517 -1.00983492
VERTEX2 387 11.93193448 -1.47147388 -0.67778658
VERTEX2 388 12.38649615 -1.82229402 -0.67023012
VERTEX2 389 12.81680164 -2.19208445 -0.75416143
VERTEX2 390 12.82218235 -2.19667572 -0.28240411
VERTEX2 391 12.62471536 -2.18878401 0.09461224
VERTEX2 392 12.55981602 -2.18997469 1.12842041
VERTEX2 393 12.55990632 -2.13081130 2.37100628
VERTEX2 394 12.48687552 -2.10212882 -2.92704185
VERTEX2 395 12.66799250 -2.00207264 -2.59300950
VERTEX2 396 12.63770471 -2.01886181 -2.59479528
VERTEX2 397 12.58892726 -2.03102058 -2.60755455
VERTEX2 398 12.56654371 -2.05052487 -2.41279193
VERTEX2 399 12.49053094 -2.16356219 -2.11708856
VERTEX2 400 12.14597129 -2.73136740 -2.06871912
VERTEX2 401 11.81170035 -3.28661865 -2.16217540
VERTEX2 402 11.34101735 -3.76015713 -2.43046052
VERTEX2 403 10.83162419 -4.18834376 -2.46518682
VERTEX2 404 10.32965115 -4.56577379 -2.54483376
VERTEX2 405 10.30621367 -4.58791002 -2.01219204
VERTEX2 406 10.30087649 -4.55050144 -1.03598350
VERTEX2 407 10.48492711 -4.79383739 -0.90865102
VERTEX2 408 10.81989460 -5.23563785 -0.94774909
VERTEX2 409 10.95284991 -5.43271814 -1.04857695
VERTEX2 410 10.94163051 -5.39295732 -1.67914080
VERTEX2 411 11.15958856 -4.81696969 -2.58113745
VERTEX2 412 10.59917044 -5.03644533 -2.78574605
VERTEX2 413 9.95287252 -5.25051276 -2.86652484
VERTEX2 414 9.30014690 -5.45310230 -2.76392235
VERTEX2 415 8.69136644 -5.68633946 -2.75659463
VERTEX2 416 8.40218506 -5.81240838 -2.81144468
VERTEX2 417 8.10651772 -5.79418570 3.04794851
VERTEX2 418 7.66455160 -5.74748825 3.00313854
VERTEX2 419 7.66482947 -5.74743215 -2.84837434
VERTEX2 420 7.71659292 -5.72489683 -2.63172001
VERTEX2 421 7.71760442 -5.72334990 -1.66184905
VERTEX2 422 7.71252504 -5.73036121 -0.41975414
VERTEX2 423 7.71481290 -5.73059828 -0.07312136
VERTEX2 424 7.71161969 -5.73073461 -0.07201593
VERTEX2 425 7.70170972 -5.73623775 -0.05953519
VERTEX2 426 7.69833917 -5.73640563 -0.06791156
VERTEX2 427 7.72749570 -5.73812474 -0.06405254
VERTEX2 428 8.38605752 -5.76384681 -0.06883599
VERTEX2 429 9.02694915 -5.81718778 -0.10888340
VERTEX2 430 9.36525607 -5.85963279 -0.15424448
VERTEX2 431 9.33986318 -5.85643660 -0.10158704
VERTEX2 432 9.34992322 -5.86004920 -0.73183486
VERTEX2 433 9.35192341 -5.86282615 -1.40671401
VERTEX2 434 9.31256296 -6.40141578 -1.63357165
VERTEX2 435 9.27751667 -7.04371561 -1.66090902
VERTEX2 436 9.19705070 -7.68365646 -1.66872685
VERTEX2 437 9.14262049 -8.33323276 -1.65978643
VERTEX2 438 9.08958891 -8.80447671 -1.68955776
VERTEX2 439 9.08732973 -8.81289570 -2.12393642
VERTEX2 440 9.09568743 -8.80634106 -2.76492341
VERTEX2 441 9.11748867 -8.80418270 2.89833095
VERTEX2 442 9.13101920 -8.81152830 2.27106293
VERTEX2 443 9.13155749 -8.82057834 1.70650675
VERTEX2 444 9.13370768 -8.80937306 1.11738642
VERTEX2 445 9.14212158 -8.80127720 0.46160875
VERTEX2 446 9.14579783 -8.79902464 0.66423231
VERTEX2 447 9.15798925 -8.77528634 1.29796281
VERTEX2 448 9.30690418 -8.15423601 1.31588025
VERTEX2 449 9.43944769 -7.51374687 1.41721373
VERTEX2 450 9.53183540 -6.87781682 1.43010948
VERTEX2 451 9.58391564 -6.40817483 1.47177316
VERTEX2 452 9.58441297 -6.40267481 1.09295304
VERTEX2 453 9.58077621 -6.40923078 0.46966267
VERTEX2 454 9.82981477 -6.39075814 0.04676504
VERTEX2 455 10.43097907 -6.36789461 0.02584036
VERTEX2 456 11.06546591 -6.36541525 -0.03915469
VERTEX2 457 11.42130627 -6.38937957 -0.12730475
VERTEX2 458 11.41687851 -6.38714548 -0.77419468
VERTEX2 459 11.40765478 -6.34883270 -1.38336687
VERTEX2 460 11.38472265 -6.74433748 -1.64078283
VERTEX2 461 11.31240894 -7.35733042 -1.72904035
VERTEX2 462 11.22205604 -7.86291419 -1.76934539
VERTEX2 463 11.23549465 -7.83709590 -0.93003432
VERTEX2 464 11.49347424 -7.91275082 -0.25271040
VERTEX2 465 12.06988784 -8.05053788 -0.24384221
VERTEX2 466 12.61699815 -8.20565941 -0.29819214
VERTEX2 467 13.18234442 -8.39095986 -0.34032869
VERTEX2 468 13.79577498 -8.61275467 -0.37553461
VERTEX2 469 14.38575874 -8.88155166 -0.45810576
VERTEX2 470 14.83860409 -9.09949485 -0.43888190
VERTEX2 471 14.84694827 -9.10407112 -0.63819536
VERTEX2 472 14.86406574 -9.12820062 -1.26976757
VERTEX2 473 14.86554146 -9.13562829 -1.90925484
VERTEX2 474 14.86369527 -9.13792329 -2.53950077
VERTEX2 475 14.86562718 -9.13766598 -3.11291334
VERTEX2 476 14.86764571 -9.13794699 2.51946697
VERTEX2 477 14.87208206 -9.14671254 1.96029916
VERTEX2 478 14.87281456 -9.15680694 1.33363314
VERTEX2 479 14.87163801 -9.15947790 0.87964098
VERTEX2 480 14.87177335 -9.15917152 1.44201991
VERTEX2 481 14.86823297 -9.14363826 2.44462651
VERTEX2 482 14.87232955 -9.14529648 2.78098075
VERTEX2 483 14.87861814 -9.14760111 2.77571137
VERTEX2 484 14.45273570 -8.98794974 2.81135011
VERTEX2 485 13.85232437 -8.79665928 2.80927553
VERTEX2 486 13.24940523 -8.58146558 2.81903583
VERTEX2 487 12.63746419 -8.39968586 2.84754306
VERTEX2 488 12.02320476 -8.21615940 2.88388589
VERTEX2 489 11.55781132 -8.10841910 2.91413973
VERTEX2 490 11.56773108 -8.10748781 -2.88428662
VERTEX2 491 11.57781994 -8.09427182 -1.94875947
VERTEX2 492 11.56050266 -8.32212032 -1.64600268
VERTEX2 493 11.49692195 -8.92381490 -1.70125552
VERTEX2 494 11.40773278 -9.53436012 -1.76231805
VERTEX2 495 11.33603829 -10.15700668 -1.65500974
VERTEX2 496 11.28978588 -10.78091595 -1.53713687
VERTEX2 497 11.28047353 -11.39829768 -1.62304405
VERTEX2 498 11.20958050 -12.01926608 -1.72470152
VERTEX2 499 11.07674844 -12.64526764 -1.74158519
VERTEX2 500 11.13249368 -13.20544034 -1.41336103
VERTEX2 501 11.20468296 -13.78311631 -1.48548638
VERTEX2 502 11.22596363 -14.47667045 -1.57000237
VERTEX2 503 11.21979366 -14.92156954 -1.58699903
VERTEX2 504 11.22580814 -14.90480925 -0.73073871
VERTEX2 505 11.46314170 -14.93293972 -0.10905111
VERTEX2 506 12.05436631 -15.01728194 -0.26163631
VERTEX2 507 12.63413356 -15.18961927 -0.34021888
VERTEX2 508 13.20154051 -15.40353358 -0.35351676
VERTEX2 509 13.81997045 -15.63983693 -0.40942500
VERTEX2 510 14.17549610 -15.80051406 -0.42332752
VERTEX2 511 14.17379197 -15.78310231 0.45203241
VERTEX2 512 14.19588265 -15.73709878 1.64936290
VERTEX2 513 14.19241010 -15.72670188 2.60486383
VERTEX2 514 14.12497136 -15.70743834 2.83115002
VERTEX2 515 13.51546453 -15.52363959 2.83226850
VERTEX2 516 12.93151995 -15.32685177 2.84818111
VERTEX2 517 12.33944318 -15.17595223 2.87639073
VERTEX2 518 11.74772240 -15.02192171 2.90075821
VERTEX2 519 11.22638015 -14.89551629 2.88507765
VERTEX2 520 11.05876077 -14.85100752 -2.99963654
VERTEX2 521 11.08124654 -14.82646065 -1.99592411
VERTEX2 522 11.01398140 -15.22195520 -1.73161902
VERTEX2 523 10.92016137 -15.83970980 -1.73878028
VERTEX2 524 10.81429587 -16.41118140 -1.78048300
VERTEX2 525 10.70840086 -16.94997235 -1.75696431
VERTEX2 526 10.59008675 -17.51540517 -1.81588293
VERTEX2 527 10.44013353 -18.09104834 -1.85078540
VERTEX2 528 10.25496401 -18.65696211 -1.92683875
VERTEX2 529 10.04036274 -19.25574640 -1.95522621
VERTEX2 530 9.79074777 -19.85171169 -1.98539541
VERTEX2 531 9.51881392 -20.42327967 -2.06530772
VERTEX2 532 9.42072427 -20.60688178 -2.01478380
VERTEX2 533 9.41707770 -20.58869593 -1.01585810
VERTEX2 534 9.41435423 -20.58685923 -0.34936040
VERTEX2 535 9.41509375 -20.58606360 -0.34990000
VERTEX2 536 9.76880250 -20.67163773 -0.21942051
VERTEX2 537 10.37191443 -20.82329489 -0.27764006
VERTEX2 538 10.92791912 -20.99536941 -0.30497955
VERTEX2 539 11.53142485 -21.20751853 -0.37000815
VERTEX2 540 12.11306212 -21.46348213 -0.46319507
VERTEX2 541 12.69528145 -21.69460459 -0.30125049
VERTEX2 542 13.32258746 -21.84081841 -0.24585944
VERTEX2 543 13.44407031 -21.87237836 -0.27543231
VERTEX2 544 13.46523723 -21.87039570 0.36183066
VERTEX2 545 13.48883811 -21.82832013 1.42846398
VERTEX2 546 13.50615659 -21.87447260 2.25582107
VERTEX2 547 13.51440200 -21.87397760 -3.00529149
VERTEX2 548 13.52768897 -21.86557922 -2.08203598
VERTEX2 549 13.52930080 -21.85510070 -1.27510910
VERTEX2 550 13.52826028 -21.83497945 -1.75470606
VERTEX2 551 13.53651738 -21.81849748 -2.38082962
VERTEX2 552 13.55468994 -21.80957819 -3.01303989
VERTEX2 553 13.41841008 -21.75660984 2.69308652
VERTEX2 554 12.82848287 -21.46966052 2.65771686
VERTEX2 555 12.25799062 -21.19455746 2.74653429
VERTEX2 556 11.66348519 -20.97553785 2.88161085
VERTEX2 557 11.06596308 -20.80169306 2.84039424
VERTEX2 558 10.49256491 -20.64182939 2.92144063
VERTEX2 559 10.50122340 -20.64480311 2.51451012
VERTEX2 560 10.49336110 -20.63609633 2.01361139
VERTEX2 561 10.46861335 -20.61182683 2.51887483
VERTEX2 562 10.29423884 -20.61087571 -3.12066693
VERTEX2 563 9.72720535 -20.52967491 2.97076488
VERTEX2 564 9.12551965 -20.43531789 3.01960489
VERTEX2 565 8.53531862 -20.36113164 2.96199985
VERTEX2 566 8.59596691 -20.38032810 -2.53775026
VERTEX2 567 8.50337569 -20.38672051 -1.74407147
VERTEX2 568 8.45006854 -20.89459384 -1.67993987
VERTEX2 569 8.39587380 -21.47000280 -1.71910337
VERTEX2 570 8.32422871 -22.05035561 -1.71436517
VERTEX2 571 8.27002092 -22.40485850 -1.76177709
VERTEX2 572 8.23585412 -22.42957963 -2.00487458
VERTEX2 573 8.20057055 -22.50854142 -1.72844020
VERTEX2 574 8.22017692 -22.53636060 -0.78865854
VERTEX2 575 8.37386710 -22.58743414 0.13034526
VERTEX2 576 8.36866471 -22.58323488 1.15801450
VERTEX2 577 8.36035375 -22.56086170 2.13012438
VERTEX2 578 8.35153327 -22.53036013 1.76601328
VERTEX2 579 8.23111856 -21.87907665 1.78109369
VERTEX2 580 8.07379494 -21.24006109 1.85632299
VERTEX2 581 7.88383081 -20.61707327 1.89880253
VERTEX2 582 7.66645768 -20.00317910 1.94205618
VERTEX2 583 7.53908696 -19.69621018 2.02156196
VERTEX2 584 7.53477093 -19.68772258 2.86581734
VERTEX2 585 6.95680568 -19.54585644 2.98438208
VERTEX2 586 6.36814429 -19.46912989 3.08221622
VERTEX2 587 5.75417835 -19.45550629 3.10788190
VERTEX2 588 5.12932668 -19.42707909 3.11260364
VERTEX2 589 4.59311499 -19.44905827 -3.09563457
VERTEX2 590 4.04614428 -19.49002566 -3.02728832
VERTEX2 591 3.50937130 -19.56572519 -3.02959080
VERTEX2 592 2.96365839 -19.63661697 -3.03272486
VERTEX2 593 2.78945341 -19.65747886 -2.82813419
VERTEX2 594 2.83817796 -19.60536177 -1.90493617
VERTEX2 595 2.72196680 -20.21766948 -1.67273166
VERTEX2 596 2.66648864 -20.84696099 -1.69626575
VERTEX2 597 2.57162638 -21.51897123 -1.73615686
VERTEX2 598 2.46633560 -22.11590290 -1.77836283
VERTEX2 599 2.37655946 -22.49184739 -1.84459210
VERTEX2 600 2.37667286 -22.50699660 -1.03819466
VERTEX2 601 2.41621084 -22.53160746 -0.02023894
VERTEX2 602 2.45157684 -22.51757003 0.99358564
VERTEX2 603 2.41818395 -22.28138895 1.76606462
VERTEX2 604 2.36108596 -21.66751904 1.52190121
VERTEX2 605 2.37386921 -21.00764603 1.60385375
VERTEX2 606 2.33680026 -20.34753729 1.64534172
VERTEX2 607 2.35229314 -19.74552512 1.56367734
VERTEX2 608 2.34216431 -19.35516332 1.60744004
VERTEX2 609 2.33803743 -19.32952236 1.94260032
VERTEX2 610 2.32396293 -19.32427610 2.87499890
VERTEX2 611 1.73500198 -19.16953268 2.87830606
VERTEX2 612 1.26900066 -19.03197508 2.88143635
VERTEX2 613 1.30966240 -19.04483349 -2.93729299
VERTEX2 614 1.31220868 -19.04293824 -1.89800012
VERTEX2 615 1.32029191 -19.53928737 -1.59293101
VERTEX2 616 1.32091296 -20.18639753 -1.64307857
VERTEX2 617 1.17798030 -20.78759962 -1.85953230
VERTEX2 618 1.00401756 -21.39137230 -1.84891813
VERTEX2 619 0.83886488 -21.96074877 -1.84980608
VERTEX2 620 0.65136749 -22.53437471 -1.94532631
VERTEX2 621 0.78262851 -22.20188367 -1.99625164
VERTEX2 622 0.90795450 -21.93833809 -2.07063659
VERTEX2 623 0.90783298 -21.93850477 -2.60644235
VERTEX2 624 0.87936626 -21.93808494 3.03560776
VERTEX2 625 0.83863059 -21.92145055 2.37857062
VERTEX2 626 0.81527232 -21.89446712 1.76156338
VERTEX2 627 0.88855737 -21.52603648 1.35150640
VERTEX2 628 1.06875923 -20.90259714 1.25094244
VERTEX2 629 1.24176510 -20.27850454 1.32222986
VERTEX2 630 1.36852939 -19.67450551 1.40746956
VERTEX2 631 1.44143761 -19.15116481 1.42755169
VERTEX2 632 1.44320246 -19.14085835 2.10338534
VERTEX2 633 1.35165641 -19.13447587 -3.09440404
VERTEX2 634 0.69068315 -19.16962393 -3.06718957
VERTEX2 635 0.04399197 -19.17881751 3.08076649
VERTEX2 636 -0.59125344 -19.14903070 3.06303152
VERTEX2 637 -1.21296083 -19.07389678 2.96357691
VERTEX2 638 -1.59732827 -18.99443797 2.93393459
VERTEX2 639 -2.20266111 -18.89093395 3.01452831
VERTEX2 640 -2.81214586 -18.78142205 2.94687350
VERTEX2 641 -3.40703347 -18.67043789 2.93874537
VERTEX2 642 -3.97744058 -18.53357381 2.89361948
VERTEX2 643 -4.45817006 -18.39647083 2.82616029
VERTEX2 644 -4.46174290 -18.39726456 -2.70024780
VERTEX2 645 -4.49858537 -18.53890393 -1.92325579
VERTEX2 646 -4.63664955 -19.14586158 -1.62821851
VERTEX2 647 -4.59514625 -19.78629419 -1.33957077
VERTEX2 648 -4.37511196 -20.40905491 -1.17343737
VERTEX2 649 -4.20418948 -21.00547538 -1.51121562
VERTEX2 650 -4.30706632 -21.63456332 -1.76848250
VERTEX2 651 -4.32513684 -21.78102151 -0.96887052
VERTEX2 652 -4.26252340 -21.80939944 0.05636863
VERTEX2 653 -4.21730779 -21.76900622 1.08708164
VERTEX2 654 -4.22554468 -21.47376431 1.60038843
VERTEX2 655 -4.23459653 -20.92178792 1.59543879
VERTEX2 656 -4.23235456 -20.32115171 1.58286276
VERTEX2 657 -4.33761661 -19.71073960 1.85958306
VERTEX2 658 -4.52600830 -19.09528745 1.85244897
VERTEX2 659 -4.63930427 -18.60347839 1.78133202
VERTEX2 660 -4.64201040 -18.58981599 2.38153729
VERTEX2 661 -4.81772080 -18.57009404 3.03507524
VERTEX2 662 -5.40837071 -18.50989104 3.10471747
VERTEX2 663 -5.99308168 -18.52319238 -3.07740283
VERTEX2 664 -5.99997852 -18.52141163 -2.55407818
VERTEX2 665 -6.01619780 -18.62283445 -1.72155790
VERTEX2 666 -6.08945355 -19.22937731 -1.68465857
VERTEX2 667 -6.14812054 -19.79381878 -1.68026573
VERTEX2 668 -6.21327703 -20.38303208 -1.65437963
VERTEX2 669 -6.26355202 -21.00397036 -1.67939731
VERTEX2 670 -6.36439500 -21.61718751 -1.73874484
VERTEX2 671 -6.41218580 -21.90552724 -1.68363059
VERTEX2 672 -6.30817919 -21.32111528 -1.77261089
VERTEX2 673 -6.24203614 -21.05768649 -1.90311759
VERTEX2 674 -6.23044800 -21.04552338 -2.55115121
VERTEX2 675 -6.20677155 -21.04057623 3.12352237
VERTEX2 676 -6.19838232 -21.04550332 2.50029456
VERTEX2 677 -6.19173746 -21.05469051 1.88455996
VERTEX2 678 -6.16361494 -20.83601746 1.43870233
VERTEX2 679 -6.09860572 -20.26050603 1.50132706
VERTEX2 680 -6.12496660 -19.81577732 1.84628650
VERTEX2 681 -6.27535424 -19.22603826 1.81882266
VERTEX2 682 -6.44580151 -18.62173988 1.86655169
VERTEX2 683 -6.53687457 -18.34125570 2.02577833
VERTEX2 684 -6.48643757 -18.39288096 3.10546990
VERTEX2 685 -6.88519894 -18.55090290 -2.73399650
VERTEX2 686 -7.32747147 -18.68527181 -2.87818977
VERTEX2 687 -7.91721120 -18.83412648 -2.91313610
VERTEX2 688 -8.51279854 -18.95302073 -2.92479596
VERTEX2 689 -9.07483158 -19.09082185 -2.89701725
VERTEX2 690 -9.60853658 -19.25857990 -2.82272352
VERTEX2 691 -10.00139179 -19.38892292 -2.85064327
VERTEX2 692 -9.98441546 -19.38139584 -2.31621354
VERTEX2 693 -9.96151814 -19.45375138 -1.27546375
VERTEX2 694 -9.93740905 -19.52584711 -0.43972882
VERTEX2 695 -9.91596964 -19.51975316 0.36052023
VERTEX2 696 -9.90865127 -19.51495694 1.38634013
VERTEX2 697 -9.92119659 -19.55622801 1.13349912
VERTEX2 698 -9.58951284 -19.34622705 0.47897559
VERTEX2 699 -9.03207263 -19.03543642 0.59295809
VERTEX2 700 -8.52366569 -18.67590857 0.64640858
VERTEX2 701 -8.09385196 -18.31555564 0.70546794
VERTEX2 702 -7.61982831 -18.00297367 0.59015290
VERTEX2 703 -7.11267331 -17.66911526 0.62424365
VERTEX2 704 -6.62339145 -17.28959190 0.64223360
VERTEX2 705 -6.10461447 -16.86294080 0.71248493
VERTEX2 706 -5.66588702 -16.53899090 0.44353297
VERTEX2 707 -5.62860412 -16.53699268 -0.07663645
VERTEX2 708 -5.61090108 -16.54726475 -0.71509348
VERTEX2 709 -5.64692407 -16.50838039 -1.04718495
VERTEX2 710 -5.65071480 -16.49853436 -1.60834235
VERTEX2 711 -5.63619063 -16.51166046 -2.20508160
VERTEX2 712 -5.62107476 -16.50010283 -2.76554071
VERTEX2 713 -6.10579560 -16.55129983 -3.05088158
VERTEX2 714 -6.68297426 -16.52422292 3.03458595
VERTEX2 715 -7.30390343 -16.48652710 3.13847643
VERTEX2 716 -7.93202319 -16.46379886 3.00078737
VERTEX2 717 -8.54804794 -16.39575325 3.08589839
VERTEX2 718 -9.30544501 -16.27701504 2.91099811
VERTEX2 719 -9.92318470 -16.16134606 2.98573932
VERTEX2 720 -10.53972569 -16.04851213 2.92632412
VERTEX2 721 -11.16118073 -15.93208752 2.99433730
VERTEX2 722 -11.18132293 -15.92921728 3.06083159
VERTEX2 723 -11.20128917 -15.94980392 -2.13329316
VERTEX2 724 -11.20143061 -15.98934483 -1.06526496
VERTEX2 725 -11.17829038 -16.00495853 -0.43140922
VERTEX2 726 -10.85577958 -16.00182316 0.02237913
VERTEX2 727 -10.22093212 -15.96564400 0.05291332
VERTEX2 728 -9.58344707 -15.94381661 0.05409205
VERTEX2 729 -8.94706461 -15.88608661 0.11167043
VERTEX2 730 -8.32515035 -15.79660025 0.14911571
VERTEX2 731 -7.69516557 -15.70262378 0.16086785
VERTEX2 732 -7.56748479 -15.67748699 0.60733501
VERTEX2 733 -7.56192414 -15.68663294 1.60364500
VERTEX2 734 -7.61721998 -15.14540022 1.68164386
VERTEX2 735 -7.67458805 -14.55787179 1.64947374
VERTEX2 736 -7.67431622 -14.56235598 2.24867589
VERTEX2 737 -7.66479368 -14.56364270 3.04925950
VERTEX2 738 -8.23980110 -14.52057102 3.06828564
VERTEX2 739 -8.83906760 -14.42313918 3.01063365
VERTEX2 740 -9.33993749 -14.38068738 3.07407248
VERTEX2 741 -9.31763788 -14.38053874 2.70550871
VERTEX2 742 -9.31792612 -14.38035059 2.05314721
VERTEX2 743 -9.32034983 -14.36943981 1.43674363
VERTEX2 744 -9.30888670 -14.34341921 0.89774769
VERTEX2 745 -9.28563886 -14.33134112 0.30465452
VERTEX2 746 -8.74048075 -14.35089371 -0.16989381
VERTEX2 747 -8.09338792 -14.46691695 -0.20499386
VERTEX2 748 -7.51491885 -14.61083068 -0.27316611
VERTEX2 749 -7.42990718 -14.63216167 0.15632852
VERTEX2 750 -7.41763098 -14.60959010 1.08394364
VERTEX2 751 -7.45250220 -14.33286301 1.72461557
VERTEX2 752 -7.51112614 -13.70306760 1.62145586
VERTEX2 753 -7.54956354 -13.05759026 1.68482216
VERTEX2 754 -7.55785365 -12.41017953 1.52290198
VERTEX2 755 -7.54044696 -11.77828061 1.60947918
VERTEX2 756 -7.50453292 -11.14415296 1.43322934
VERTEX2 757 -7.43158268 -10.50085103 1.54516187
VERTEX2 758 -7.45352331 -9.92248647 1.68736658
VERTEX2 759 -7.44457872 -9.37639244 1.56711704
VERTEX2 760 -7.48434538 -8.77178873 1.67829735
VERTEX2 761 -7.48718983 -8.73328004 1.85869630
VERTEX2 762 -7.56449020 -8.69894401 2.69487394
VERTEX2 763 -8.13929453 -8.59784531 2.98816326
VERTEX2 764 -8.55987457 -8.52779222 2.96091608
VERTEX2 765 -8.54936467 -8.52754268 -2.68209544
VERTEX2 766 -8.55092861 -8.53270209 -1.68066628
VERTEX2 767 -8.54603429 -8.54486854 -0.74877596
VERTEX2 768 -8.51916664 -8.54631810 -0.02559193
VERTEX2 769 -7.88452800 -8.45225616 0.13101584
VERTEX2 770 -7.23256977 -8.38806644 0.06364143
VERTEX2 771 -7.14434477 -8.38004534 0.62359670
VERTEX2 772 -7.14190145 -8.37210800 1.49038843
VERTEX2 773 -7.12150587 -7.79607888 1.57594802
VERTEX2 774 -7.13682922 -7.25172112 1.59783237
VERTEX2 775 -7.13541261 -7.25772925 2.44202569
VERTEX2 776 -7.34482785 -7.23318597 3.05888354
VERTEX2 777 -7.95838553 -7.19361617 3.11768357
VERTEX2 778 -8.56846514 -7.18529291 3.09658475
VERTEX2 779 -9.18247027 -7.16565824 3.11468024
VERTEX2 780 -9.38885915 -7.14834979 2.98443991
VERTEX2 781 -9.38414879 -7.15002307 2.41099229
VERTEX2 782 -9.51166487 -6.87857416 1.98140799
VERTEX2 783 -9.74711654 -6.30583356 1.98080276
VERTEX2 784 -9.84649409 -6.07944544 1.95947522
VERTEX2 785 -9.84742656 -6.05428701 1.40749631
VERTEX2 786 -9.83939480 -6.02776264 0.81916006
VERTEX2 787 -9.82117651 -6.00907669 0.32848215
VERTEX2 788 -9.79254665 -6.01099823 -0.30066794
VERTEX2 789 -9.78104796 -6.02000923 -0.85265952
VERTEX2 790 -9.47385712 -6.41566547 -0.91983873
VERTEX2 791 -9.06821676 -6.89799941 -0.82119092
VERTEX2 792 -8.82778938 -7.11199454 -0.11670853
VERTEX2 793 -8.20849787 -7.16454280 -0.07192705
VERTEX2 794 -7.57332878 -7.19344793 -0.00075397
VERTEX2 795 -7.60151413 -7.21418329 0.42856394
VERTEX2 796 -7.61305884 -7.21887999 1.08783595
VERTEX2 797 -7.53916291 -6.91214817 1.34793403
VERTEX2 798 -7.40431036 -6.28828641 1.39801776
VERTEX2 799 -7.31722138 -5.64615434 1.46367058
VERTEX2 800 -7.26293174 -5.00176170 1.53648593
VERTEX2 801 -7.27297606 -4.37330689 1.62239661
VERTEX2 802 -7.32567335 -3.75131682 1.68008075
VERTEX2 803 -7.30746887 -3.12619459 1.51538502
VERTEX2 804 -7.28633034 -2.50232912 1.57126328
VERTEX2 805 -7.31830479 -1.87522968 1.64752002
VERTEX2 806 -7.37689149 -1.28007656 1.68890345
VERTEX2 807 -7.40253292 -1.10461130 1.97695511
VERTEX2 808 -7.40291344 -1.10463989 2.92513549
VERTEX2 809 -7.99006929 -1.07494738 3.06974444
VERTEX2 810 -8.60611681 -0.95058980 2.92973878
VERTEX2 811 -9.20594159 -0.83757654 2.92656757
VERTEX2 812 -9.20938837 -0.83688741 -2.62448734
VERTEX2 813 -9.22000794 -0.86045611 -1.64869954
VERTEX2 814 -9.21393112 -0.86527330 -0.65598283
VERTEX2 815 -9.19057532 -0.87315385 0.26373181
VERTEX2 816 -9.17890624 -0.86678258 0.94512663
VERTEX2 817 -9.16459868 -0.85778897 0.27659376
VERTEX2 818 -8.94656700 -0.89094461 -0.21263782
VERTEX2 819 -8.35973708 -1.01771556 -0.19866654
VERTEX2 820 -7.77050046 -1.14863897 -0.24005769
VERTEX2 821 -7.22876570 -1.27864191 -0.22441523
VERTEX2 822 -7.18571729 -1.28519721 0.53733359
VERTEX2 823 -7.18534187 -1.28020452 1.45675360
VERTEX2 824 -7.12262386 -0.66763342 1.37742580
VERTEX2 825 -6.98036029 -0.05037633 1.34755401
VERTEX2 826 -6.92385620 0.57640362 1.51020266
VERTEX2 827 -6.86040022 1.19481688 1.46128953
VERTEX2 828 -6.80568808 1.82710321 1.49663251
VERTEX2 829 -6.74433545 2.42943956 1.45658879
VERTEX2 830 -6.66885775 3.03715329 1.44799917
VERTEX2 831 -6.57405450 3.61332094 1.40092434
VERTEX2 832 -6.48305476 4.17513959 1.39711103
VERTEX2 833 -6.43875733 4.42942392 1.53445186
VERTEX2 834 -6.43996113 4.43370775 2.58804782
VERTEX2 835 -6.44897665 4.43476655 -2.91825862
VERTEX2 836 -6.45976119 4.42572385 -1.97614465
VERTEX2 837 -6.45603724 4.40477072 -0.94083037
VERTEX2 838 -6.44379382 4.39703698 -0.07801139
VERTEX2 839 -6.44196110 4.39614869 -0.29601859
VERTEX2 840 -6.43103483 4.38749137 -0.85824077
VERTEX2 841 -6.42483457 4.37488489 -1.47537737
VERTEX2 842 -6.45189362 4.13226570 -1.70623724
VERTEX2 843 -6.53259679 3.57190328 -1.70879176
VERTEX2 844 -6.61069972 2.94956428 -1.71684049
VERTEX2 845 -6.70751308 2.32731768 -1.73144554
VERTEX2 846 -6.79640036 1.70085863 -1.72959258
VERTEX2 847 -6.90900352 1.08216038 -1.75619950
VERTEX2 848 -6.94053091 0.88793202 -1.27609445
VERTEX2 849 -6.94660539 0.89024814 -0.35449824
VERTEX2 850 -6.59081837 0.88509482 -0.00026932
VERTEX2 851 -5.96360683 0.85703517 -0.09229367
VERTEX2 852 -5.34033021 0.79419695 -0.07751571
VERTEX2 853 -4.74611754 0.75028435 -0.10511208
VERTEX2 854 -4.16032040 0.68139090 -0.10283998
VERTEX2 855 -3.56631133 0.62946765 -0.10441497
VERTEX2 856 -2.92741491 0.54451115 -0.14524799
VERTEX2 857 -2.28974736 0.45586254 -0.15496465
VERTEX2 858 -1.65906921 0.33550276 -0.20970325
VERTEX2 859 -1.15630114 0.23358596 -0.21679077
VERTEX2 860 -1.13694351 0.24147852 0.63291864
VERTEX2 861 -1.11894707 0.36399508 1.54633213
VERTEX2 862 -1.07655555 1.03609991 1.48636220
VERTEX2 863 -1.01426266 1.68779259 1.45414935
VERTEX2 864 -0.92323640 2.29903590 1.45218954
VERTEX2 865 -0.87814139 2.91161806 1.50999957
VERTEX2 866 -0.82984749 3.49868045 1.50904885
VERTEX2 867 -0.82136276 3.66398851 1.69050983
VERTEX2 868 -0.82823864 3.67277434 2.71523937
VERTEX2 869 -0.81493479 3.67293534 -2.58873314
VERTEX2 870 -0.79260677 3.68485105 -1.58838481
VERTEX2 871 -0.77469984 3.67265653 -0.61325744
VERTEX2 872 -0.75632949 3.65934836 0.07131581
VERTEX2 873 -0.72810377 3.64987254 -0.50182746
VERTEX2 874 -0.70724754 3.63092716 -1.06199077
VERTEX2 875 -0.70242888 3.61952132 -1.64888314
VERTEX2 876 -0.82290042 3.07020378 -1.80665258
VERTEX2 877 -0.97804164 2.52558483 -1.89186081
VERTEX2 878 -1.03032795 2.32280103 -1.50989540
VERTEX2 879 -0.93203294 1.67956692 -1.45940440
VERTEX2 880 -0.89888731 1.22618125 -1.57270086
VERTEX2 881 -0.89893069 1.27205630 -1.56784930
VERTEX2 882 -0.96033343 0.62918067 -1.81517362
VERTEX2 883 -1.18175911 0.03290439 -2.00663596
VERTEX2 884 -1.34434064 -0.30024293 -2.07418673
VERTEX2 885 -1.34420562 -0.30299120 -1.49206126
VERTEX2 886 -1.31898853 -0.32708221 -0.47306638
VERTEX2 887 -1.28239677 -0.34165649 0.53920888
VERTEX2 888 -1.27105309 -0.31819633 1.52429059
VERTEX2 889 -1.27132852 -0.31748705 2.42320881
VERTEX2 890 -1.57881777 -0.16695039 2.69744112
VERTEX2 891 -2.10767766 0.09871271 2.62734226
VERTEX2 892 -2.63322823 0.41640503 2.59199507
VERTEX2 893 -3.17785600 0.71072759 2.82862015
VERTEX2 894 -3.78207874 0.82274006 3.05000292
VERTEX2 895 -4.37343873 0.77654981 -2.93455070
VERTEX2 896 -4.38880495 0.77292621 -2.45562022
VERTEX2 897 -4.67461866 0.35208644 -2.18304057
VERTEX2 898 -5.02453284 -0.15176682 -2.16746072
VERTEX2 899 -5.30912812 -0.55634240 -2.23511302
VERTEX2 900 -5.72118196 -1.09511825 -2.23741092
VERTEX2 901 -6.09121896 -1.53457666 -2.30166809
VERTEX2 902 -6.50599333 -2.02115796 -2.27630746
VERTEX2 903 -6.82022153 -2.39550578 -2.32092995
VERTEX2 904 -6.82059817 -2.39607525 -1.61743450
VERTEX2 905 -6.80830211 -2.88399661 -1.56184736
VERTEX2 906 -6.77623726 -3.45007177 -1.49599653
VERTEX2 907 -6.72200637 -4.01924454 -1.50404949
VERTEX2 908 -6.67739190 -4.63789511 -1.47911027
VERTEX2 909 -6.61849813 -5.24676309 -1.49687552
VERTEX2 910 -6.64567250 -5.37236051 -1.86648257
VERTEX2 911 -6.80571280 -5.93929203 -1.80543870
VERTEX2 912 -6.92641421 -6.49825548 -1.79265136
VERTEX2 913 -7.03813732 -7.03531874 -1.78455767
VERTEX2 914 -7.16370038 -7.61860470 -1.80805500
VERTEX2 915 -7.28646335 -8.12282344 -1.84460919
VERTEX2 916 -7.22281877 -8.36479925 -1.29672236
VERTEX2 917 -7.08347900 -9.01658194 -1.55123525
VERTEX2 918 -7.10400772 -9.53746684 -1.62683702
VERTEX2 919 -7.13792892 -10.15943866 -1.67026625
VERTEX2 920 -7.20274837 -10.77190749 -1.68794702
VERTEX2 921 -7.27644455 -11.38561893 -1.74137844
VERTEX2 922 -7.38002332 -11.98890756 -1.76884345
VERTEX2 923 -7.50141296 -12.55535479 -1.83253610
VERTEX2 924 -7.63303103 -13.04517418 -1.81585382
VERTEX2 925 -7.63450203 -13.03791903 -1.31101128
VERTEX2 926 -7.47562520 -13.59778772 -1.29477271
VERTEX2 927 -7.31123810 -14.18215317 -1.31826243
VERTEX2 928 -7.15590947 -14.78198232 -1.32736725
VERTEX2 929 -7.00714750 -15.37899193 -1.32843237
VERTEX2 930 -6.86171166 -16.00526740 -1.41104893
VERTEX2 931 -6.77687742 -16.62703444 -1.49130173
VERTEX2 932 -6.73187136 -17.24963499 -1.55074830
VERTEX2 933 -6.72927541 -17.85780535 -1.61533401
VERTEX2 934 -6.74491062 -18.34348030 -1.62520799
VERTEX2 935 -6.74160862 -18.35891892 -0.94326370
VERTEX2 936 -6.74170066 -18.35888594 0.00169946
VERTEX2 937 -6.20029883 -18.33458597 0.06450875
VERTEX2 938 -5.60521690 -18.35156175 -0.10899226
VERTEX2 939 -4.98256569 -18.41234453 -0.08135929
VERTEX2 940 -4.36958080 -18.48818848 -0.16776655
VERTEX2 941 -3.76497737 -18.60457872 -0.22198667
VERTEX2 942 -3.24852736 -18.72112402 -0.21793210
VERTEX2 943 -2.64171698 -18.85619421 -0.13017599
VERTEX2 944 -2.03499837 -18.94116316 -0.18677991
VERTEX2 945 -1.42019297 -19.07119930 -0.24195736
VERTEX2 946 -1.25188577 -19.11490131 -0.17769432
VERTEX2 947 -0.84646960 -19.05426752 0.15040045
VERTEX2 948 -0.27701964 -18.96828258 0.13114655
VERTEX2 949 0.32206096 -18.93698904 -0.02467780
VERTEX2 950 0.94761911 -18.97617467 -0.26440397
VERTEX2 951 1.54396844 -19.15092277 -0.33671139
VERTEX2 952 2.13996599 -19.32873784 -0.08615763
VERTEX2 953 2.76501704 -19.36378054 -0.00606114
VERTEX2 954 3.38403523 -19.36050765 -0.01328552
VERTEX2 955 3.96773213 -19.40944221 -0.17433089
VERTEX2 956 4.51212849 -19.49056256 -0.17674056
VERTEX2 957 5.03660005 -19.58892576 -0.26454438
VERTEX2 958 5.50400095 -19.70501056 -0.29145212
VERTEX2 959 5.93642514 -19.82719969 -0.35874701
VERTEX2 960 6.52195606 -19.99344956 -0.27926607
VERTEX2 961 7.10022579 -20.17133327 -0.30622476
VERTEX2 962 7.71442149 -20.30386554 -0.24052046
VERTEX2 963 8.32887615 -20.38870964 -0.05371792
VERTEX2 964 8.94809527 -20.43433013 -0.11752032
VERTEX2 965 9.56293019 -20.51725044 -0.12432466
VERTEX2 966 10.00476730 -20.57838839 -0.18329799
VERTEX2 967 10.03594413 -20.57225508 0.67010649
VERTEX2 968 10.04255869 -20.56607177 1.56684052
VERTEX2 969 10.04485347 -20.59477574 1.62629962
VERTEX2 970 10.04721058 -20.62376958 1.62455973
VERTEX2 971 10.02852120 -20.29144014 1.62468129
VERTEX2 972 9.99287623 -19.70573188 1.63027748
VERTEX2 973 10.07511451 -19.12538653 1.34521517
VERTEX2 974 10.21703204 -18.52584822 1.37696680
VERTEX2 975 10.33119357 -17.92203169 1.38149451
VERTEX2 976 10.43867184 -17.31552309 1.39430402
VERTEX2 977 10.57688243 -16.69926037 1.36785887
VERTEX2 978 10.70043870 -16.08899910 1.41363449
VERTEX2 979 10.81791611 -15.48246514 1.40114991
VERTEX2 980 10.91782165 -14.88181961 1.44849004
VERTEX2 981 11.00836487 -14.29180515 1.45575945
VERTEX2 982 11.06619899 -13.76835991 1.50112379
VERTEX2 983 11.11766206 -13.17087983 1.49798121
VERTEX2 984 11.14661984 -12.57577968 1.55561103
VERTEX2 985 11.15925098 -11.98070840 1.57597345
VERTEX2 986 11.14618003 -11.36212195 1.61240111
VERTEX2 987 11.13532378 -10.74505586 1.57581018
VERTEX2 988 11.13976904 -10.12832276 1.58962138
VERTEX2 989 11.12745327 -9.52308272 1.59757871
VERTEX2 990 11.12248857 -8.91197184 1.58677596
VERTEX2 991 11.10912860 -8.29747659 1.61162086
VERTEX2 992 11.10587725 -7.71079078 1.57909265
VERTEX2 993 11.09411816 -7.09480884 1.61194812
VERTEX2 994 11.07957242 -6.50966517 1.60214476
VERTEX2 995 11.04930488 -5.92259949 1.64966811
VERTEX2 996 10.99141007 -5.32016268 1.67701899
VERTEX2 997 10.94812734 -4.67934871 1.61282182
VERTEX2 998 10.92936016 -4.28098353 1.63487080
VERTEX2 999 10.95727746 -4.30364809 2.35326101
VERTEX2 1000 10.49508002 -3.94340588 2.50212144
VERTEX2 1001 10.05671910 -3.54359835 2.18141408
VERTEX2 1002 9.69264994 -3.07479948 2.27428999
VERTEX2 1003 9.34556692 -2.57908234 2.09491696
VERTEX2 1004 9.00827334 -2.04403501 2.15328266
VERTEX2 1005 8.65626594 -1.55141110 2.21585252
VERTEX2 1006 8.26218411 -1.07502168 2.29338207
VERTEX2 1007 7.85126527 -0.65064418 2.38521044
VERTEX2 1008 7.61352387 -0.43378788 2.54475133
VERTEX2 1009 7.51679100 -0.41912805 3.01797636
VERTEX2 1010 6.95005415 -0.36326398 3.07057819
VERTEX2 1011 6.33834943 -0.32454375 3.02786952
VERTEX2 1012 5.73275807 -0.26220976 3.07016060
VERTEX2 1013 5.10047741 -0.26547716 -3.09762795
VERTEX2 1014 4.48367069 -0.21791271 3.01008960
VERTEX2 1015 3.85495280 -0.17893595 3.09442252
VERTEX2 1016 3.08168801 -0.14173667 3.10104130
VERTEX2 1017 2.49654060 -0.12868881 3.04355244
VERTEX2 1018 1.93877427 -0.06698271 3.05055010
VERTEX2 1019 1.34405169 -0.04244351 3.10977443
VERTEX2 1020 0.72905934 -0.00620987 3.09553411
VERTEX2 1021 0.10819201 0.02334072 3.05463140
VERTEX2 1022 0.05480605 0.02780019 3.04712262
VERTEX2 1023 0.06194350 0.02765210 3.13338730
VERTEX2 1024 -0.56474216 0.03642890 -3.12375421
VERTEX2 1025 -1.18815461 0.00767647 -3.10621970
VERTEX2 1026 -1.34394266 0.00268230 -3.09907684
VERTEX2 1027 -1.32023696 0.01423898 -2.18266510
VERTEX2 1028 -1.33297258 -0.14321082 -1.61929115
VERTEX2 1029 -1.36221276 -0.70056021 -1.64089886
VERTEX2 1030 -1.42660498 -1.31782671 -1.72074536
VERTEX2 1031 -1.53952194 -1.95889742 -1.77435967
VERTEX2 1032 -1.66909638 -2.59454232 -1.76948838
VERTEX2 1033 -1.81099444 -3.22917013 -1.81372897
VERTEX2 1034 -1.85313069 -3.39069592 -2.02625611
VERTEX2 1035 -1.85542751 -3.39265597 -2.64370151
VERTEX2 1036 -1.83322265 -3.40277433 3.07047741
VERTEX2 1037 -2.17691897 -3.27408940 2.83314375
VERTEX2 1038 -2.79187495 -3.15537058 2.92518277
VERTEX2 1039 -3.43435081 -2.98982633 2.89438665
VERTEX2 1040 -3.41147057 -2.99016205 -2.75672534
VERTEX2 1041 -3.38610451 -2.99318908 -1.73647645
VERTEX2 1042 -3.38728231 -3.02284087 -0.74537222
VERTEX2 1043 -3.35316146 -3.05315493 0.22622405
VERTEX2 1044 -3.36987700 -3.07364322 1.22206976
VERTEX2 1045 -3.37496067 -3.08550842 1.10811096
VERTEX2 1046 -3.38794203 -3.10377128 0.72268022
VERTEX2 1047 -3.40895012 -3.11346360 0.16703783
VERTEX2 1048 -3.04409977 -3.17504109 -0.14584674
VERTEX2 1049 -2.39595395 -3.25968376 -0.12860485
VERTEX2 1050 -1.74690087 -3.31642494 -0.05281085
VERTEX2 1051 -1.09206683 -3.37442344 -0.12761085
VERTEX2 1052 -0.46847275 -3.43797176 -0.07049376
VERTEX2 1053 -0.05178059 -3.47909565 -0.11908902
VERTEX2 1054 -0.03050001 -3.48046284 0.65816449
VERTEX2 1055 -0.02566714 -3.44653989 1.74415065
VERTEX2 1056 -0.02317493 -3.44958030 2.77221103
VERTEX2 1057 0.00559768 -3.44972373 -2.50807532
VERTEX2 1058 0.95993003 -3.81516045 2.00834589
VERTEX2 1059 0.72480356 -3.25954503 1.93078810
VERTEX2 1060 0.49525369 -2.64264499 1.93864556
VERTEX2 1061 0.33881230 -2.19637574 1.81971077
VERTEX2 1062 0.33889089 -2.14679907 1.25875297
VERTEX2 1063 1.52215298 0.09743896 0.63178405
VERTEX2 1064 1.81322019 0.20868436 0.36906172
VERTEX2 1065 2.36499347 0.46812570 0.49307123
VERTEX2 1066 2.88727763 0.72846146 0.43878728
VERTEX2 1067 2.88887949 0.72958548 0.87486235
VERTEX2 1068 2.88586337 0.72233446 1.55230315
VERTEX2 1069 5.09072576 -5.98011558 1.93132333
VERTEX2 1070 -1.46543435 -5.01278982 -2.56383219
VERTEX2 1071 -1.97529847 -5.26332261 -2.68915793
VERTEX2 1072 -2.46235507 -5.49170857 -2.75611282
VERTEX2 1073 -2.46355176 -5.49169741 3.01936677
VERTEX2 1074 -3.01868955 -5.39818533 2.98656727
VERTEX2 1075 -3.62155530 -5.29983832 3.00460993
VERTEX2 1076 -3.64085791 -5.29781890 -2.87335797
VERTEX2 1077 -3.65739500 -5.32695324 -2.06553517
VERTEX2 1078 -3.91413998 -5.93552668 -2.01991498
VERTEX2 1079 -4.16392181 -6.50131509 -1.95731226
VERTEX2 1080 -4.17121453 -6.51943261 -2.44380366
VERTEX2 1081 -4.60912672 -6.80342906 -2.56651460
VERTEX2 1082 -4.78552673 -6.92038872 -2.28513220
VERTEX2 1083 -4.78144477 -6.95712858 -1.25034259
VERTEX2 1084 -4.71435258 -6.99305448 -0.28072325
VERTEX2 1085 -4.72689763 -6.99611785 0.70308083
VERTEX2 1086 -4.36083479 -6.51253940 0.93378467
VERTEX2 1087 -3.97532101 -6.01143356 0.92182183
VERTEX2 1088 -3.60820815 -5.50556450 0.90514667
VERTEX2 1089 -3.54749020 -5.42939003 0.80941264
VERTEX2 1090 -3.53840579 -5.42133967 0.19292307
VERTEX2 1091 -3.00315795 -5.39828340 0.01535074
VERTEX2 1092 -2.38698598 -5.39376801 -0.00029916
VERTEX2 1093 -1.82117648 -5.40688018 -0.06593510
VERTEX2 1094 -1.80767518 -5.42023747 -0.47230874
VERTEX2 1095 -1.77692998 -5.44868384 -1.06499131
VERTEX2 1096 -1.77689362 -5.44890801 -1.63910724
VERTEX2 1097 -1.86852538 -5.77059812 -1.85629198
VERTEX2 1098 -2.06222140 -6.36069165 -1.91446059
VERTEX2 1099 -2.28854427 -6.91844328 -2.01315872
VERTEX2 1100 -2.29637262 -6.93663970 -1.65411401
VERTEX2 1101 -2.24880339 -7.19660098 -1.39166104
VERTEX2 1102 -2.24942261 -7.20183718 -1.78759005
VERTEX2 1103 -2.40224275 -7.80146964 -1.82258870
VERTEX2 1104 -2.56774513 -8.42667076 -1.85148931
VERTEX2 1105 -2.75048545 -9.03687852 -1.87056681
VERTEX2 1106 -2.89774945 -9.50325766 -1.89700013
VERTEX2 1107 -2.89752753 -9.50816330 -1.64268357
VERTEX2 1108 -2.89898563 -10.13800251 -1.63574105
VERTEX2 1109 -2.98685221 -10.78112009 -1.74075258
VERTEX2 1110 -3.09568979 -11.38675069 -1.79123595
VERTEX2 1111 -3.29636544 -11.90832237 -1.89357225
VERTEX2 1112 -3.36429394 -12.48750154 -1.54872191
VERTEX2 1113 -3.36662235 -13.13034065 -1.64512805
VERTEX2 1114 -3.41182522 -13.74832145 -1.62896679
VERTEX2 1115 -3.44284043 -14.33366304 -1.64602860
VERTEX2 1116 -3.46872596 -14.98411026 -1.61125295
VERTEX2 1117 -3.47175624 -15.08415465 -1.74079510
VERTEX2 1118 -3.46958991 -15.08080114 -2.35165574
VERTEX2 1119 -3.45660709 -15.07319329 -2.78619001
VERTEX2 1120 -4.02815286 -15.23850395 -2.85121230
VERTEX2 1121 -4.21773163 -15.29091041 -2.97134216
VERTEX2 1122 -3.83708608 -15.42629312 2.79075706
VERTEX2 1123 -4.37579883 -15.21999408 2.80637085
VERTEX2 1124 -4.92426445 -15.06866297 2.90359015
VERTEX2 1125 -5.54030867 -14.91667644 2.91580698
VERTEX2 1126 -5.61677413 -14.90132574 -3.02991141
VERTEX2 1127 -5.59188939 -14.91892226 -1.89353797
VERTEX2 1128 -5.59026286 -14.90959236 -0.91096257
VERTEX2 1129 -5.57828044 -14.91594103 0.09971290
VERTEX2 1130 -4.99397378 -14.83916755 0.11223687
VERTEX2 1131 -4.22259407 -14.94826616 -0.32197466
VERTEX2 1132 -3.61364161 -15.15361029 -0.34284232
VERTEX2 1133 -3.06878082 -15.37104624 -0.38277275
VERTEX2 1134 -2.81979035 -15.47153622 -0.48116136
VERTEX2 1135 -2.81379091 -15.47727290 -1.04002835
VERTEX2 1136 -2.81203619 -15.47354627 -1.60483925
VERTEX2 1137 -2.86357338 -15.77157200 -1.79045118
VERTEX2 1138 -3.01416121 -16.39409556 -1.80816162
VERTEX2 1139 -3.13097707 -16.88270534 -1.88142866
VERTEX2 1140 -3.12420895 -16.86644533 -2.36119121
VERTEX2 1141 -3.10580330 -16.84856970 -2.90948216
VERTEX2 1142 -3.46309926 -16.80550299 3.00873384
VERTEX2 1143 -4.05540417 -16.75759865 3.09847193
VERTEX2 1144 -4.63448971 -16.72181771 3.06790486
VERTEX2 1145 -5.21121067 -16.67476583 3.04250322
VERTEX2 1146 -5.78563462 -16.61604559 3.06232737
VERTEX2 1147 -6.37157219 -16.60464959 3.13479694
VERTEX2 1148 -6.94924740 -16.60051653 -3.13835853
VERTEX2 1149 -6.99119397 -16.60167773 -2.64011499
VERTEX2 1150 -7.08444039 -16.70472111 -1.83030749
VERTEX2 1151 -7.08124856 -16.72301047 -0.82603937
VERTEX2 1152 -7.05982224 -16.72340119 0.22757922
VERTEX2 1153 -7.04410991 -16.71632398 1.24082810
VERTEX2 1154 -7.10113715 -16.40699372 1.78658244
VERTEX2 1155 -7.23175416 -15.78616714 1.73740360
VERTEX2 1156 -7.32809558 -15.18129914 1.74718796
VERTEX2 1157 -7.45434157 -14.61006936 1.85795252
VERTEX2 1158 -7.57952236 -14.00798275 1.72896728
VERTEX2 1159 -7.63750994 -13.41025285 1.63476497
VERTEX2 1160 -7.65759114 -12.77622272 1.49783188
VERTEX2 1161 -7.55597416 -12.14752803 1.40823651
VERTEX2 1162 -7.46259863 -11.51841815 1.46641867
VERTEX2 1163 -7.39803772 -10.87796375 1.46101107
VERTEX2 1164 -7.34776121 -10.23930608 1.54648505
VERTEX2 1165 -7.33512296 -9.70095018 1.52336465
VERTEX2 1166 -7.33572843 -9.69797391 2.01166104
VERTEX2 1167 -7.28715491 -9.68639559 2.94708458
VERTEX2 1168 -7.23933288 -9.66762584 -2.43173161
VERTEX2 1169 -7.24327988 -9.71625224 -1.60889708
VERTEX2 1170 -7.25514682 -10.29964857 -1.60193903
VERTEX2 1171 -7.25664144 -10.93189220 -1.56993651
VERTEX2 1172 -7.26235012 -11.52816626 -1.63212223
VERTEX2 1173 -7.29347611 -12.14897582 -1.62277356
VERTEX2 1174 -7.33834722 -12.77489999 -1.69126213
VERTEX2 1175 -7.42509984 -13.38544309 -1.72447166
VERTEX2 1176 -7.52305262 -14.00331166 -1.76802349
VERTEX2 1177 -7.64292915 -14.60894420 -1.76588039
VERTEX2 1178 -7.77424127 -15.21841701 -1.81300321
VERTEX2 1179 -7.91190694 -15.81970610 -1.78358602
VERTEX2 1180 -7.96590906 -16.07035825 -1.79051309
VERTEX2 1181 -7.96470499 -16.06186121 -0.96281836
VERTEX2 1182 -7.90896631 -16.07609717 -0.25130152
VERTEX2 1183 -7.29529870 -16.22585260 -0.22607346
VERTEX2 1184 -6.66578133 -16.34106103 -0.15664730
VERTEX2 1185 -6.04117236 -16.45190260 -0.18902096
VERTEX2 1186 -5.41297810 -16.54741601 -0.12297512
VERTEX2 1187 -4.76243755 -16.63371489 -0.16021396
VERTEX2 1188 -4.13849913 -16.72440000 -0.14225968
VERTEX2 1189 -3.48454209 -16.83149175 -0.12078228
VERTEX2 1190 -3.16214532 -16.87122373 -0.11296895
VERTEX2 1191 -3.13596955 -16.87071473 0.80614883
VERTEX2 1192 -3.13011753 -16.78867112 1.60316251
VERTEX2 1193 -3.12262327 -16.18915258 1.47084348
VERTEX2 1194 -3.08049883 -15.61647943 1.51259416
VERTEX2 1195 -3.05094318 -14.99402060 1.56457790
VERTEX2 1196 -3.04382709 -14.37067969 1.39142457
VERTEX2 1197 -2.93937360 -13.75925078 1.40226943
VERTEX2 1198 -2.86738453 -13.13490320 1.66039867
VERTEX2 1199 -2.88225007 -12.52463198 1.44527688
VERTEX2 1200 -2.82314780 -11.90216977 1.51399309
VERTEX2 1201 -2.79577765 -11.28918764 1.56948353
VERTEX2 1202 -2.80308322 -10.67244785 1.59206616
VERTEX2 1203 -2.83035009 -10.08799803 1.50167619
VERTEX2 1204 -2.71422038 -9.50528070 1.35432633
VERTEX2 1205 -2.60377326 -8.95165343 1.38340281
VERTEX2 1206 -2.51532315 -8.37030989 1.44406174
VERTEX2 1207 -2.37520976 -7.76895738 1.35731594
VERTEX2 1208 -2.25901334 -7.15326236 1.42133072
VERTEX2 1209 -2.16752138 -6.54029100 1.41875439
VERTEX2 1210 -2.09747110 -5.93087899 1.43862449
VERTEX2 1211 -1.97050411 -5.32937211 1.36746796
VERTEX2 1212 -1.85528852 -4.72644702 1.41884350
VERTEX2 1213 -1.78729732 -4.11473928 1.49325646
VERTEX2 1214 -1.70624269 -3.39113605 1.27160418
VERTEX2 1215 -1.54657125 -2.82280666 1.33113525
VERTEX2 1216 -1.49690349 -2.26987064 1.54879566
VERTEX2 1217 -1.46365993 -1.68753188 1.52947511
VERTEX2 1218 -1.44760976 -1.10678944 1.47892717
VERTEX2 1219 -1.39481209 -0.46278712 1.50941504
VERTEX2 1220 -1.38555037 0.11938655 1.60002885
VERTEX2 1221 -1.38373439 0.11318030 1.14705563
VERTEX2 1222 -1.37631524 0.12034247 0.54948291
VERTEX2 1223 -1.36586068 0.12276595 -0.01039687
VERTEX2 1224 -0.79192916 0.02748059 -0.19343280
VERTEX2 1225 -0.17663173 -0.08927836 -0.17974895
VERTEX2 1226 -0.07133862 -0.10852874 -0.19655819
VERTEX2 1227 -0.07076601 -0.10877938 -0.19729596
