VERTEX2 0 0.00003821 -0.00000099 -0.00000051
VERTEX2 1 0.01055651 -0.00010319 -0.00005299
VERTEX2 2 0.02107501 -0.00020594 -0.00000142
VERTEX2 3 0.04285225 -0.00210650 -0.00169925
VERTEX2 4 0.68368751 -0.01132892 -0.00489379
VERTEX2 5 0.74950685 -0.01177360 -0.09536308
VERTEX2 6 0.76024621 -0.02109022 -0.89042739
VERTEX2 7 0.75505162 -0.00521325 -1.50418117
VERTEX2 8 0.76059796 0.01908411 -2.11593388
VERTEX2 9 0.78316057 0.03877230 -2.75216419
VERTEX2 10 0.80640551 0.04283333 2.91827904
VERTEX2 11 0.81255700 0.03903610 2.24545219
VERTEX2 12 0.81236258 0.04519586 1.59738804
VERTEX2 13 0.81961162 0.06933588 0.93931873
VERTEX2 14 0.84743664 0.08959946 0.33230791
VERTEX2 15 0.86201906 0.09086405 -0.19151770
VERTEX2 16 1.15184263 0.03743939 -0.21021023
VERTEX2 17 1.75024840 -0.09645328 -0.24146945
VERTEX2 18 2.37102852 -0.24586978 -0.25170680
VERTEX2 19 2.99316526 -0.42791266 -0.30043171
VERTEX2 20 3.59498788 -0.60839443 -0.29399869
VERTEX2 21 4.20756412 -0.74897677 -0.18238097
VERTEX2 22 4.82075225 -0.87847972 -0.16494976
VERTEX2 23 5.45404908 -0.90957147 -0.05774667
VERTEX2 24 6.07940457 -0.96763766 -0.11501335
VERTEX2 25 6.70800291 -1.02230194 -0.11245000
VERTEX2 26 7.31615213 -1.11050989 -0.15316804
VERTEX2 27 7.93119438 -1.18955987 -0.13754395
VERTEX2 28 8.51187832 -1.27662194 -0.14222004
VERTEX2 29 8.89094592 -1.32699075 -0.11138460
VERTEX2 30 8.89927526 -1.32904143 -0.64336490
VERTEX2 31 9.00247802 -1.46225874 -0.91162561
VERTEX2 32 9.37970242 -1.96955486 -0.93009824
VERTEX2 33 9.76120539 -2.45610198 -0.88007169
VERTEX2 34 10.17032739 -2.92639126 -0.85974721
VERTEX2 35 10.58868243 -3.38909851 -0.82620998
VERTEX2 36 11.00057177 -3.83886961 -0.83548320
VERTEX2 37 11.26278197 -4.12191528 -0.82849760
VERTEX2 38 11.23820313 -4.08970192 -1.15145746
VERTEX2 39 11.23330233 -4.06903526 -1.32260653
VERTEX2 40 11.38163210 -4.62619232 -1.30541205
VERTEX2 41 11.53577323 -5.20841895 -1.33738980
VERTEX2 42 11.66249448 -5.75493240 -1.36001727
VERTEX2 43 11.77432856 -6.33395931 -1.40004826
VERTEX2 44 11.87015736 -6.91429511 -1.43662216
VERTEX2 45 11.93509537 -7.53443635 -1.49173907
VERTEX2 46 11.97624098 -8.15710673 -1.51074546
VERTEX2 47 12.00672020 -8.77982904 -1.55201754
VERTEX2 48 12.01402962 -9.40360106 -1.55800924
VERTEX2 49 12.01811718 -10.01811054 -1.60829287
VERTEX2 50 11.97632351 -10.60451551 -1.65231394
VERTEX2 51 11.93281324 -11.19822638 -1.68082251
VERTEX2 52 11.84769855 -11.77925800 -1.75694205
VERTEX2 53 11.75962204 -12.33492374 -1.74406914
VERTEX2 54 11.65800712 -12.84508438 -1.80558307
VERTEX2 55 11.66383013 -12.81386384 -1.79948899
VERTEX2 56 11.66306198 -12.81710327 -1.78808760
VERTEX2 57 11.53480833 -13.43367805 -1.79936893
VERTEX2 58 11.40381872 -14.03848605 -1.75306003
VERTEX2 59 11.28929918 -14.64735937 -1.77667652
VERTEX2 60 11.17407278 -15.25253469 -1.75538215
VERTEX2 61 11.05242765 -15.86153076 -1.80614685
VERTEX2 62 10.91630893 -16.42230983 -1.76583391
VERTEX2 63 10.77880678 -16.98781952 -1.80092605
VERTEX2 64 10.65784533 -17.55007800 -1.73735741
VERTEX2 65 10.53740078 -18.11018258 -1.78869162
VERTEX2 66 10.39892723 -18.70015776 -1.79674707
VERTEX2 67 10.25062729 -19.28856591 -1.79512157
VERTEX2 68 10.15219100 -19.73427359 -1.81060656
VERTEX2 69 10.15629299 -19.71968216 -1.96516134
VERTEX2 70 10.16314382 -19.70577347 -2.63973941
VERTEX2 71 10.18719856 -19.70381209 3.00057984
VERTEX2 72 10.20189901 -19.70541160 2.99111207
VERTEX2 73 10.21148512 -19.70754212 2.92618478
VERTEX2 74 10.21398759 -19.70913391 2.30442832
VERTEX2 75 10.22305100 -19.71243477 1.95210814
VERTEX2 76 10.21315213 -19.70195295 2.64604138
VERTEX2 77 10.21113193 -19.70114872 2.87901977
VERTEX2 78 9.93153688 -19.71836492 -3.06700543
VERTEX2 79 9.31590536 -19.77158477 -3.07227012
VERTEX2 80 8.68580096 -19.78498464 3.13638139
VERTEX2 81 8.06293921 -19.77319048 3.11036020
VERTEX2 82 7.46354364 -19.74315753 3.05680039
VERTEX2 83 6.87292239 -19.70231785 3.03405051
VERTEX2 84 6.30039990 -19.62498136 2.95749975
VERTEX2 85 5.74137925 -19.52786496 2.96631031
VERTEX2 86 5.10541031 -19.41111676 2.87938380
VERTEX2 87 4.83619113 -19.36322244 2.81901296
VERTEX2 88 4.48152470 -19.24044919 2.78905607
VERTEX2 89 4.50077933 -19.24086834 -3.09882500
VERTEX2 90 3.90516989 -19.25656153 -3.13013814
VERTEX2 91 3.29837367 -19.26485819 -3.08125813
VERTEX2 92 2.70756762 -19.27286862 3.08602388
VERTEX2 93 2.09428966 -19.18330079 2.98542957
VERTEX2 94 1.47902393 -19.05832750 2.94296687
VERTEX2 95 0.87128465 -18.98474469 3.08561726
VERTEX2 96 0.27701274 -18.94679632 3.10976630
VERTEX2 97 -0.29728907 -18.89702658 3.03928074
VERTEX2 98 -0.87833402 -18.80948208 2.98142505
VERTEX2 99 -1.57619105 -18.70094168 3.02839542
VERTEX2 100 -2.13340262 -18.60625764 2.97686483
VERTEX2 101 -2.73387615 -18.56308527 3.08046665
VERTEX2 102 -3.34185409 -18.49618438 2.97480165
VERTEX2 103 -3.94749403 -18.39501540 3.07113859
VERTEX2 104 -4.55511735 -18.33250776 3.03780487
VERTEX2 105 -5.16233661 -18.28196960 3.08479677
VERTEX2 106 -5.75951294 -18.22560732 3.03041807
VERTEX2 107 -6.37397854 -18.14431479 3.02709228
VERTEX2 108 -6.82589328 -18.10695744 3.08920080
VERTEX2 109 -6.86869367 -18.09726703 2.64176406
VERTEX2 110 -6.88590929 -18.08036588 2.05173927
VERTEX2 111 -6.88840983 -17.99593319 1.54705844
VERTEX2 112 -6.88246917 -17.35759873 1.60201890
VERTEX2 113 -6.91730491 -16.73868660 1.64814856
VERTEX2 114 -6.96600361 -16.13068628 1.68425897
VERTEX2 115 -7.06096113 -15.48646259 1.74422268
VERTEX2 116 -7.20639579 -14.73060106 1.78775293
VERTEX2 117 -7.36501153 -14.11119330 1.88245031
VERTEX2 118 -7.37615817 -14.06772252 1.54706279
VERTEX2 119 -7.33623424 -13.54989657 1.49316400
VERTEX2 120 -7.30407852 -12.89198554 1.58241065
VERTEX2 121 -7.33391092 -12.26553134 1.64883448
VERTEX2 122 -7.38095555 -11.69126431 1.70513607
VERTEX2 123 -7.40886583 -11.52035485 1.69245452
VERTEX2 124 -7.32873124 -11.27987189 1.26969447
VERTEX2 125 -7.12821809 -10.68624266 1.25855114
VERTEX2 126 -7.01211165 -10.07323246 1.46483397
VERTEX2 127 -6.92898916 -9.43984300 1.46250736
VERTEX2 128 -6.86838011 -8.81330451 1.49837190
VERTEX2 129 -6.79665162 -8.18945785 1.46529178
VERTEX2 130 -6.74316078 -7.56959743 1.51767650
VERTEX2 131 -6.71060552 -6.95809024 1.60600963
VERTEX2 132 -6.70478812 -6.35979642 1.55645897
VERTEX2 133 -6.67162746 -5.80016780 1.51966926
VERTEX2 134 -6.63221408 -5.21159648 1.50150722
VERTEX2 135 -6.56476266 -4.64242607 1.47534684
VERTEX2 136 -6.50623266 -4.01712425 1.49508564
VERTEX2 137 -6.42568289 -3.39072644 1.45302391
VERTEX2 138 -6.36545082 -2.76632512 1.53296852
VERTEX2 139 -6.36367910 -2.14541524 1.59879353
VERTEX2 140 -6.40701259 -1.50176292 1.62984692
VERTEX2 141 -6.42870104 -0.86760697 1.58226017
VERTEX2 142 -6.44618350 -0.22094565 1.57808382
VERTEX2 143 -6.38216088 0.41641186 1.46708587
VERTEX2 144 -6.35220934 0.78572110 1.48424006
VERTEX2 145 -6.34910848 0.79596431 0.98547933
VERTEX2 146 -6.34884822 0.79748487 0.39184226
VERTEX2 147 -6.29249811 0.79497256 -0.09502142
VERTEX2 148 -5.85951790 0.74597430 -0.13085475
VERTEX2 149 -5.21957218 0.66883168 -0.10615777
VERTEX2 150 -4.58663345 0.62041797 -0.09241387
VERTEX2 151 -3.94839869 0.58892706 -0.00724251
VERTEX2 152 -3.32539725 0.56847585 -0.06804190
VERTEX2 153 -2.70281443 0.55067754 0.02550192
VERTEX2 154 -2.08426058 0.54459554 -0.04389365
VERTEX2 155 -1.46146089 0.52627513 -0.01030578
VERTEX2 156 -0.83696376 0.52714713 0.02062059
VERTEX2 157 -0.27185714 0.52337464 -0.04385612
VERTEX2 158 -0.07540136 0.51428816 -0.01640297
VERTEX2 159 -0.06812443 0.51215345 0.97075995
VERTEX2 160 -0.06267005 0.52155686 2.00626820
VERTEX2 161 -0.08102285 0.46946676 2.73400962
VERTEX2 162 -0.06171222 0.47437135 -2.51507499
VERTEX2 163 -0.06335128 0.46501910 -1.51963013
VERTEX2 164 -0.13866444 0.55470963 -0.45990343
VERTEX2 165 0.02941240 0.54124438 -0.05202984
VERTEX2 166 0.72153775 0.51153623 -0.05027046
VERTEX2 167 1.33527318 0.47280312 -0.07970859
VERTEX2 168 1.92047454 0.43454799 -0.06775487
VERTEX2 169 2.50876735 0.37480162 -0.10460805
VERTEX2 170 3.09226062 0.31807903 -0.12513024
VERTEX2 171 3.65629071 0.23028687 -0.16346022
VERTEX2 172 4.28418607 0.13455158 -0.14943056
VERTEX2 173 4.91259700 0.02627282 -0.17232351
VERTEX2 174 5.53708819 -0.07571756 -0.13225549
VERTEX2 175 6.15208597 -0.15387976 -0.15700609
VERTEX2 176 6.75094314 -0.26233276 -0.14743505
VERTEX2 177 7.37329841 -0.35294558 -0.17511534
VERTEX2 178 7.99472394 -0.48658234 -0.21414267
VERTEX2 179 8.39498536 -0.56201813 -0.16084547
VERTEX2 180 8.44171276 -0.57365440 -0.60294017
VERTEX2 181 8.88686922 -0.88325838 -0.65489188
VERTEX2 182 9.29953977 -1.23609638 -0.82909175
VERTEX2 183 9.65509737 -1.65249677 -0.88655731
VERTEX2 184 9.97592337 -2.12254569 -1.03395187
VERTEX2 185 10.24772010 -2.61956130 -1.12713657
VERTEX2 186 10.46177581 -3.15474128 -1.19392926
VERTEX2 187 10.65349572 -3.67174083 -1.21669136
VERTEX2 188 10.85186818 -4.20828835 -1.22208130
VERTEX2 189 11.04437868 -4.75210056 -1.24866976
VERTEX2 190 11.23625496 -5.35496534 -1.27725395
VERTEX2 191 11.41793957 -5.95751684 -1.30108670
VERTEX2 192 11.58079347 -6.55418438 -1.32914182
VERTEX2 193 11.71107273 -7.09671343 -1.38434118
VERTEX2 194 11.81850951 -7.66100831 -1.41056407
VERTEX2 195 11.90679470 -8.22130016 -1.43857666
VERTEX2 196 11.98355192 -8.83904375 -1.47930900
VERTEX2 197 12.03265338 -9.46122949 -1.50627469
VERTEX2 198 12.06924181 -10.08073795 -1.56396748
VERTEX2 199 12.05261635 -10.68917499 -1.62495660
VERTEX2 200 12.01717857 -11.29227824 -1.64648980
VERTEX2 201 11.95830224 -11.89171477 -1.70283884
VERTEX2 202 11.90483666 -12.39714582 -1.68125582
VERTEX2 203 11.81935834 -13.12835091 -1.73318042
VERTEX2 204 11.70947354 -13.70796909 -1.83443142
VERTEX2 205 11.55437742 -14.26920399 -1.84359857
VERTEX2 206 11.41401325 -14.81549862 -1.84147574
VERTEX2 207 11.26732054 -15.38733162 -1.82502547
VERTEX2 208 11.10917908 -15.98771073 -1.83395716
VERTEX2 209 10.96242515 -16.58982826 -1.79528161
VERTEX2 210 10.81100215 -17.19338245 -1.80359439
VERTEX2 211 10.67418418 -17.80038349 -1.80078807
VERTEX2 212 10.51068650 -18.39442584 -1.85311651
VERTEX2 213 10.33089755 -18.98625900 -1.87373749
VERTEX2 214 10.14770220 -19.55958164 -1.87751462
VERTEX2 215 10.04311803 -19.87699717 -1.91328112
VERTEX2 216 10.05880873 -19.84855911 -2.41185523
VERTEX2 217 10.09014239 -19.84441027 -2.95396413
VERTEX2 218 10.09995118 -19.84789675 -3.01026402
VERTEX2 219 9.53687270 -19.81755100 3.10412254
VERTEX2 220 8.93116600 -19.78793482 3.06406486
VERTEX2 221 8.28873912 -19.73756032 3.11540727
VERTEX2 222 7.66016681 -19.71122881 3.09063933
VERTEX2 223 7.04201086 -19.69861768 -3.09607806
VERTEX2 224 6.44446732 -19.71520944 -3.12241053
VERTEX2 225 5.84998952 -19.72518421 -3.07327611
VERTEX2 226 5.25631983 -19.73410381 -3.12299969
VERTEX2 227 4.61690233 -19.81909651 -2.96641931
VERTEX2 228 4.09915800 -19.81712024 2.95504754
VERTEX2 229 3.67489718 -19.79565675 3.07503239
VERTEX2 230 3.38973225 -19.78712689 3.04619343
VERTEX2 231 3.59983332 -19.80047870 3.11625356
VERTEX2 232 3.29937101 -19.67387614 2.68892034
VERTEX2 233 2.74043423 -19.42963951 2.79060425
VERTEX2 234 2.17085060 -19.21880227 2.74595154
VERTEX2 235 1.92972376 -19.12050396 2.74053075
VERTEX2 236 1.61152109 -19.12812592 -3.13851575
VERTEX2 237 0.99795419 -19.15415469 -3.06865277
VERTEX2 238 0.38580657 -19.21292510 -3.10104286
VERTEX2 239 -0.22452950 -19.22125167 3.11507217
VERTEX2 240 -0.79857142 -19.11384679 2.89899632
VERTEX2 241 -1.34266187 -18.99354569 2.98595092
VERTEX2 242 -1.90472115 -18.94245982 3.02580559
VERTEX2 243 -2.49521895 -18.87409624 3.02543961
VERTEX2 244 -3.10902003 -18.84308314 3.09706292
VERTEX2 245 -3.71431489 -18.80894399 3.04317543
VERTEX2 246 -4.30853364 -18.73799837 2.97119583
VERTEX2 247 -4.90456835 -18.67098354 3.07755566
VERTEX2 248 -5.44929630 -18.66269668 3.10910954
VERTEX2 249 -5.39924202 -18.66897374 -2.98055961
VERTEX2 250 -5.38799601 -18.66847574 2.71663243
VERTEX2 251 -5.71951241 -18.33604958 2.29381509
VERTEX2 252 -6.08941024 -17.92178245 2.30272807
VERTEX2 253 -6.46993962 -17.48995014 2.29192675
VERTEX2 254 -6.84448615 -17.04580721 2.25094977
VERTEX2 255 -6.91881006 -16.95660897 2.33480716
VERTEX2 256 -6.92393373 -16.87933894 1.85900166
VERTEX2 257 -6.99050903 -16.41466282 1.72658099
VERTEX2 258 -7.09336681 -15.81873225 1.80586927
VERTEX2 259 -7.26756235 -15.14750226 1.85051052
VERTEX2 260 -7.43398851 -14.52157204 1.84644030
VERTEX2 261 -7.43091099 -14.34368286 1.54542750
VERTEX2 262 -7.38653389 -13.55429251 1.55831930
VERTEX2 263 -7.37084691 -12.81549620 1.57790696
VERTEX2 264 -7.37573265 -12.38782257 1.66189580
VERTEX2 265 -7.40759591 -11.96950035 1.67138498
VERTEX2 266 -7.37865173 -11.50837017 1.53151477
VERTEX2 267 -7.34344216 -10.77308780 1.50103782
VERTEX2 268 -7.22430597 -10.17286657 1.38984810
VERTEX2 269 -7.11745689 -9.56399349 1.41923685
VERTEX2 270 -7.05818752 -8.95098604 1.53294568
VERTEX2 271 -6.97576060 -8.33703321 1.42244032
VERTEX2 272 -6.90305948 -7.71946894 1.48786813
VERTEX2 273 -6.92633416 -7.10021776 1.69961502
VERTEX2 274 -7.00586420 -6.49699851 1.72339844
VERTEX2 275 -7.00674288 -5.89987776 1.55167824
VERTEX2 276 -7.01250162 -5.30390165 1.66601862
VERTEX2 277 -7.06974636 -4.75280890 1.64036948
VERTEX2 278 -7.04008667 -4.12292690 1.55158914
VERTEX2 279 -7.01458348 -3.49858744 1.49631596
VERTEX2 280 -6.96107666 -2.87473583 1.49840916
VERTEX2 281 -6.88553259 -2.24865529 1.39802355
VERTEX2 282 -6.78106935 -1.62727276 1.43773342
VERTEX2 283 -6.70870267 -0.99477493 1.42951291
VERTEX2 284 -6.60966901 -0.36435659 1.45718348
VERTEX2 285 -6.55676840 0.28196041 1.47817975
VERTEX2 286 -6.50375036 0.90049304 1.53169507
VERTEX2 287 -6.50213456 0.94739634 1.42720657
VERTEX2 288 -6.50073170 0.94995788 0.81846421
VERTEX2 289 -6.50073516 0.94982426 0.22490870
VERTEX2 290 -6.06140624 0.94972334 -0.00019717
VERTEX2 291 -5.43582665 0.95414094 0.01337996
VERTEX2 292 -4.81579839 0.94553953 -0.04137680
VERTEX2 293 -4.18630508 0.91129521 -0.06451310
VERTEX2 294 -3.56486173 0.87010840 -0.06367233
VERTEX2 295 -2.94176805 0.80085167 -0.17592524
VERTEX2 296 -2.32994420 0.66842414 -0.22148926
VERTEX2 297 -1.71996859 0.52896398 -0.23328541
VERTEX2 298 -1.10130378 0.38378682 -0.23425755
VERTEX2 299 -0.52703076 0.23801046 -0.17307382
VERTEX2 300 0.05764843 0.16299473 -0.13088527
VERTEX2 301 0.61820996 0.07374785 -0.19004459
VERTEX2 302 0.91788537 0.01476774 -0.21093595
VERTEX2 303 0.89698038 0.01852388 -0.20678636
VERTEX2 304 1.39626808 -0.08759674 -0.19722156
VERTEX2 305 2.00849540 -0.12111909 -0.01333528
VERTEX2 306 2.62851721 -0.12059792 -0.03180406
VERTEX2 307 3.26368785 -0.15702139 -0.06877184
VERTEX2 308 3.88753236 -0.20874726 -0.12464599
VERTEX2 309 4.51862609 -0.25793346 -0.03204484
VERTEX2 310 5.14648258 -0.27718804 -0.06853434
VERTEX2 311 5.42739383 -0.29850737 0.10569771
VERTEX2 312 5.42671592 -0.29880607 1.09044520
VERTEX2 313 5.42840390 -0.08044818 1.58772476
VERTEX2 314 5.39980468 0.54647422 1.62824821
VERTEX2 315 5.36176169 1.17242218 1.62463656
VERTEX2 316 5.31086477 1.81729727 1.67588304
VERTEX2 317 5.23875340 2.45847768 1.68574071
VERTEX2 318 5.12919097 3.09443621 1.78018083
VERTEX2 319 5.04352780 3.44075409 1.85143721
VERTEX2 320 5.04554271 3.44738215 2.81968526
VERTEX2 321 5.03708593 3.44356990 -2.42405792
VERTEX2 322 5.03626959 3.44180529 -1.42809572
VERTEX2 323 5.04626652 3.43251592 -0.43592358
VERTEX2 324 5.04984190 3.43142439 0.22375401
VERTEX2 325 5.05438266 3.43185815 -0.30405506
VERTEX2 326 5.07413886 3.41755335 -0.89941378
VERTEX2 327 5.07881750 3.39730386 -1.52293953
VERTEX2 328 5.07441534 2.76090020 -1.56993040
VERTEX2 329 5.06420498 2.13311417 -1.62668930
VERTEX2 330 5.02116866 1.51610546 -1.64748637
VERTEX2 331 4.97694690 0.89779794 -1.66355171
VERTEX2 332 4.90842392 0.28371889 -1.68335248
VERTEX2 333 4.88950136 0.12968638 -1.61968395
VERTEX2 334 4.89912096 0.13174403 -0.82306516
VERTEX2 335 4.91002880 0.12881095 0.16670330
VERTEX2 336 4.92144800 0.13307893 1.10670999
VERTEX2 337 4.92605495 0.16565362 2.08567569
VERTEX2 338 4.92260373 0.16795635 3.07521402
VERTEX2 339 4.93382112 0.17521618 -2.15807865
VERTEX2 340 4.93399607 0.17398617 -1.13832037
VERTEX2 341 5.04822485 0.10792612 -0.50461921
VERTEX2 342 5.62651904 -0.18590321 -0.40253731
VERTEX2 343 6.20532608 -0.37571871 -0.27121585
VERTEX2 344 6.79423074 -0.54737333 -0.28083185
VERTEX2 345 7.03618957 -0.61386629 -0.30767609
VERTEX2 346 7.02485927 -0.61038488 -0.95331449
VERTEX2 347 7.02908536 -0.70249667 -1.51053262
VERTEX2 348 7.05801073 -1.29643835 -1.52663820
VERTEX2 349 7.06721573 -1.91962142 -1.56626650
VERTEX2 350 7.06857423 -2.71155667 -1.58531720
VERTEX2 351 7.05911467 -2.99122256 -1.61345271
VERTEX2 352 7.05494192 -3.01320585 -1.89905362
VERTEX2 353 7.03678039 -3.03645342 -2.55992383
VERTEX2 354 7.01902856 -3.04199160 3.12407755
VERTEX2 355 6.99871819 -3.04215902 2.40794012
VERTEX2 356 6.99850665 -3.04179241 1.83671830
VERTEX2 357 6.99890202 -3.03923802 1.18810905
VERTEX2 358 6.99618483 -3.04342580 0.57627906
VERTEX2 359 6.98455871 -3.04886077 -0.03413331
VERTEX2 360 6.97680548 -3.04759401 -0.20853038
VERTEX2 361 6.96823283 -3.05011988 0.71196176
VERTEX2 362 7.04908233 -2.80711675 1.24614698
VERTEX2 363 7.14692817 -2.52667660 1.23982724
VERTEX2 364 7.06396947 -2.17554041 1.85417336
VERTEX2 365 6.99709554 -1.87074686 1.35681349
VERTEX2 366 7.11152250 -1.73452205 0.80211427
VERTEX2 367 7.55580067 -1.28026885 0.80385581
VERTEX2 368 8.00408729 -0.83361134 0.75568720
VERTEX2 369 8.02413072 -0.80837819 0.50350148
VERTEX2 370 8.05058281 -0.80360939 -0.08396242
VERTEX2 371 8.05606135 -0.80632236 -0.62951954
VERTEX2 372 8.48925134 -1.14565644 -0.65696870
VERTEX2 373 8.96640632 -1.50000550 -0.65487134
VERTEX2 374 9.45104305 -1.89259564 -0.71585236
VERTEX2 375 9.82493280 -2.21205978 -0.74628022
VERTEX2 376 9.84681997 -2.22483351 -0.05232704
VERTEX2 377 9.90286516 -2.18315053 0.64215888
VERTEX2 378 10.42942946 -1.77362263 0.69529991
VERTEX2 379 10.89875583 -1.33336544 0.77904953
VERTEX2 380 11.32694303 -0.85826598 0.89731762
VERTEX2 381 11.46752596 -0.67663102 1.04611012
VERTEX2 382 11.46560771 -0.68017857 2.09058188
VERTEX2 383 11.46331739 -0.67884843 3.07687446
VERTEX2 384 11.45785879 -0.68427059 -2.24377893
VERTEX2 385 11.45385352 -0.69131808 -1.21354384
VERTEX2 386 11.56020849 -0.82364950 -0.98855618
VERTEX2 387 12.02404238 -1.23526971 -0.65674221
VERTEX2 388 12.52779718 -1.60668812 -0.64725627
VERTEX2 389 13.00633650 -1.99829688 -0.72902651
VERTEX2 390 13.05118029 -2.03684306 -0.25305152
VERTEX2 391 12.90349627 -2.03543033 0.12799154
VERTEX2 392 12.89117903 -2.03613001 1.17144549
VERTEX2 393 12.92905211 -1.73589382 2.04951794
VERTEX2 394 12.91344163 -1.72298563 3.04391463
VERTEX2 395 13.14517203 -1.67827709 -2.90154446
VERTEX2 396 13.13706988 -1.68004315 -2.90133699
VERTEX2 397 13.13301805 -1.67979619 -2.91166763
VERTEX2 398 13.12676659 -1.68254554 -2.71353585
VERTEX2 399 13.02675506 -1.76325593 -2.41393922
VERTEX2 400 12.53998242 -2.20095493 -2.36346274
VERTEX2 401 12.08845343 -2.61250584 -2.45598082
VERTEX2 402 11.54880025 -2.90646578 -2.72327363
VERTEX2 403 10.99195886 -3.14842442 -2.75751227
VERTEX2 404 10.45985559 -3.34627986 -2.83638227
VERTEX2 405 10.48124060 -3.33553288 -2.30270951
VERTEX2 406 10.48469972 -3.31233304 -1.32475356
VERTEX2 407 10.61104146 -3.64644838 -1.19694599
VERTEX2 408 10.82906468 -4.21772065 -1.23526000
VERTEX2 409 10.91740179 -4.49526604 -1.33529813
VERTEX2 410 10.91751320 -4.48509768 -1.96414699
VERTEX2 411 10.92811917 -4.46529595 -2.55566957
VERTEX2 412 10.42936973 -4.67676001 -2.76078419
VERTEX2 413 9.84760726 -4.88725223 -2.84209675
VERTEX2 414 9.26001629 -5.08697558 -2.74018559
VERTEX2 415 8.66225328 -5.33264609 -2.73260403
VERTEX2 416 8.38471961 -5.46175046 -2.78676207
VERTEX2 417 8.10126074 -5.45132330 3.07389208
VERTEX2 418 7.67149703 -5.41723007 3.02961603
VERTEX2 419 7.68302259 -5.41436193 -2.82089203
VERTEX2 420 7.74315525 -5.38619155 -2.60350991
VERTEX2 421 7.74717185 -5.37951054 -1.63258044
VERTEX2 422 7.73994312 -5.39010373 -0.39165736
VERTEX2 423 7.73796559 -5.38996040 -0.04544311
VERTEX2 424 7.73043588 -5.39005011 -0.04456870
VERTEX2 425 7.71649710 -5.39829733 -0.03232424
VERTEX2 426 7.71050675 -5.39874457 -0.04088685
VERTEX2 427 7.73707996 -5.39959366 -0.03721083
VERTEX2 428 8.39326804 -5.40807598 -0.04214952
VERTEX2 429 9.03294519 -5.44462201 -0.08233309
VERTEX2 430 9.37160872 -5.47795755 -0.12832126
VERTEX2 431 9.34548845 -5.47535466 -0.07629681
VERTEX2 432 9.35427149 -5.47826116 -0.70807855
VERTEX2 433 9.35812712 -5.48336150 -1.38545159
VERTEX2 434 9.33019146 -6.02543670 -1.61279837
VERTEX2 435 9.30855142 -6.67117044 -1.64048756
VERTEX2 436 9.24105940 -7.31521848 -1.64865456
VERTEX2 437 9.19990223 -7.96814879 -1.63992528
VERTEX2 438 9.15675677 -8.42624817 -1.67058465
VERTEX2 439 9.15689638 -8.42565904 -2.10677169
VERTEX2 440 9.15077370 -8.43072415 -2.75073152
VERTEX2 441 9.14158756 -8.43184874 2.90966917
VERTEX2 442 9.12551706 -8.42344725 2.27951706
VERTEX2 443 9.12563738 -8.42528905 1.71078605
VERTEX2 444 9.12707080 -8.41762787 1.11734411
VERTEX2 445 9.11401003 -8.43029429 0.45712472
VERTEX2 446 9.08637217 -8.44712318 0.65723910
VERTEX2 447 9.08803056 -8.44401878 1.28614059
VERTEX2 448 9.24747317 -7.81623195 1.30538796
VERTEX2 449 9.38861128 -7.17443141 1.40890292
VERTEX2 450 9.48896701 -6.53330031 1.42448213
VERTEX2 451 9.54521002 -6.05912341 1.46908824
VERTEX2 452 9.54562695 -6.05462496 1.09483491
VERTEX2 453 9.55078335 -6.04517989 0.47840298
VERTEX2 454 9.84878248 -6.02038559 0.06054652
VERTEX2 455 10.44634090 -5.98956038 0.04047874
VERTEX2 456 11.07764756 -5.97802880 -0.02356919
VERTEX2 457 11.43107045 -5.99636114 -0.11072170
VERTEX2 458 11.42594164 -5.99390101 -0.75530418
VERTEX2 459 11.41689322 -5.95934420 -1.36225058
VERTEX2 460 11.40208275 -6.35531530 -1.61867432
VERTEX2 461 11.34277170 -6.97037719 -1.70615565
VERTEX2 462 11.26346209 -7.47911222 -1.74572578
VERTEX2 463 11.27725568 -7.45095991 -0.90506653
VERTEX2 464 11.53205368 -7.51878487 -0.22664689
VERTEX2 465 12.11660802 -7.64132676 -0.21880316
VERTEX2 466 12.67612181 -7.78379086 -0.27434709
VERTEX2 467 13.25321176 -7.95653741 -0.31773748
VERTEX2 468 13.85907609 -8.16095213 -0.35315458
VERTEX2 469 14.44488742 -8.41282876 -0.43587942
VERTEX2 470 14.89247287 -8.61642588 -0.41675736
VERTEX2 471 14.89177862 -8.61606759 -0.61621275
VERTEX2 472 14.90668053 -8.63613537 -1.24804564
VERTEX2 473 14.90786360 -8.64148869 -1.88917161
VERTEX2 474 14.90516477 -8.64499666 -2.52103761
VERTEX2 475 14.90330081 -8.64526923 -3.09595884
VERTEX2 476 14.90116320 -8.64499689 2.53475861
VERTEX2 477 14.90616157 -8.65450960 1.97513930
VERTEX2 478 14.90697399 -8.66380560 1.34798034
VERTEX2 479 14.90688377 -8.66400731 0.89359632
VERTEX2 480 14.90810798 -8.66118656 1.45552496
VERTEX2 481 14.90595104 -8.65217905 2.45988078
VERTEX2 482 14.92394809 -8.65914542 2.79700397
VERTEX2 483 14.94428138 -8.66630673 2.79216754
VERTEX2 484 14.52985973 -8.51861957 2.82826809
VERTEX2 485 13.92944941 -8.33835048 2.82619592
VERTEX2 486 13.32602360 -8.13430021 2.83596534
VERTEX2 487 12.71430425 -7.96369261 2.86448851
VERTEX2 488 12.10023127 -7.79139079 2.90085409
VERTEX2 489 11.62915162 -7.69084154 2.93152129
VERTEX2 490 11.64040760 -7.68957912 -2.86584708
VERTEX2 491 11.64880110 -7.67812446 -1.92851149
VERTEX2 492 11.63586802 -7.91062331 -1.62494754
VERTEX2 493 11.58469687 -8.51782484 -1.67967790
VERTEX2 494 11.50840682 -9.13251743 -1.74029529
VERTEX2 495 11.45081598 -9.75732668 -1.63274469
VERTEX2 496 11.41917712 -10.38045689 -1.51467974
VERTEX2 497 11.42435069 -10.99699642 -1.60045588
VERTEX2 498 11.36829800 -11.61720793 -1.70202740
VERTEX2 499 11.25091203 -12.24269542 -1.71887803
VERTEX2 500 11.32025589 -12.80801219 -1.38971001
VERTEX2 501 11.40579631 -13.38095206 -1.46179162
VERTEX2 502 11.44350058 -14.07063455 -1.54627568
VERTEX2 503 11.44792234 -14.51732835 -1.56311321
VERTEX2 504 11.45273690 -14.50279347 -0.70516238
VERTEX2 505 11.69252461 -14.52506306 -0.08272062
VERTEX2 506 12.28700276 -14.59403625 -0.23507479
VERTEX2 507 12.87252933 -14.75136349 -0.31345576
VERTEX2 508 13.44687623 -14.95058028 -0.32657652
VERTEX2 509 14.05856579 -15.16559821 -0.38240129
VERTEX2 510 14.40256569 -15.30992362 -0.39635986
VERTEX2 511 14.39894579 -15.28110920 0.47850118
VERTEX2 512 14.42063128 -15.23276029 1.67501414
VERTEX2 513 14.41710850 -15.22301079 2.62859169
VERTEX2 514 14.35182724 -15.20605021 2.85535132
VERTEX2 515 13.74064337 -15.03867806 2.85671138
VERTEX2 516 13.15520841 -14.85804931 2.87281623
VERTEX2 517 12.56153781 -14.72306472 2.90116814
VERTEX2 518 11.96823360 -14.58506105 2.92561989
VERTEX2 519 11.45662967 -14.47473971 2.91016177
VERTEX2 520 11.30115226 -14.43768177 -2.97410642
VERTEX2 521 11.32072820 -14.41515416 -1.96899538
VERTEX2 522 11.26279574 -14.82311843 -1.70429616
VERTEX2 523 11.18811663 -15.43397118 -1.71086274
VERTEX2 524 11.09896029 -16.00822495 -1.75215766
VERTEX2 525 11.00917139 -16.55067107 -1.72799651
VERTEX2 526 10.90696399 -17.12788963 -1.78690555
VERTEX2 527 10.77346613 -17.71474189 -1.82190476
VERTEX2 528 10.60532066 -18.28827250 -1.89817458
VERTEX2 529 10.40836807 -18.89421893 -1.92629422
VERTEX2 530 10.17679461 -19.49760101 -1.95624903
VERTEX2 531 9.92262637 -20.07656225 -2.03598353
VERTEX2 532 9.83068033 -20.26172010 -1.98530535
VERTEX2 533 9.82786112 -20.24953950 -0.98499305
VERTEX2 534 9.82435209 -20.24733638 -0.31759108
VERTEX2 535 9.82222900 -20.24582432 -0.31781906
VERTEX2 536 10.18023740 -20.32046684 -0.18733893
VERTEX2 537 10.78965647 -20.45335842 -0.24553833
VERTEX2 538 11.35294095 -20.60830438 -0.27284203
VERTEX2 539 11.96517571 -20.80195186 -0.33781215
VERTEX2 540 12.55732562 -21.04039317 -0.43091686
VERTEX2 541 13.14913238 -21.25377210 -0.26885462
VERTEX2 542 13.78251519 -21.38022303 -0.21334716
VERTEX2 543 13.90423138 -21.40765337 -0.24319546
VERTEX2 544 13.92457295 -21.40508992 0.39330917
VERTEX2 545 13.94679290 -21.36242491 1.45861690
VERTEX2 546 13.96581270 -21.40881535 2.28575789
VERTEX2 547 13.97483724 -21.40800056 -2.97563539
VERTEX2 548 13.98819616 -21.39899419 -2.05263063
VERTEX2 549 13.98944866 -21.38893429 -1.24591665
VERTEX2 550 13.98787532 -21.36948980 -1.72564694
VERTEX2 551 13.99557831 -21.35293632 -2.35193657
VERTEX2 552 14.01388218 -21.34328877 -2.98431570
VERTEX2 553 13.87700102 -21.29456694 2.72165614
VERTEX2 554 13.27994642 -21.02497074 2.68622267
VERTEX2 555 12.69587687 -20.76418043 2.77511985
VERTEX2 556 12.08815567 -20.56038847 2.91024362
VERTEX2 557 11.48248108 -20.40292881 2.86900129
VERTEX2 558 10.90128659 -20.25876375 2.95001673
VERTEX2 559 10.90814309 -20.26090074 2.54286867
VERTEX2 560 10.90348968 -20.25503039 2.04229540
VERTEX2 561 10.88210444 -20.23522863 2.54787110
VERTEX2 562 10.70674211 -20.23940379 -3.09130360
VERTEX2 563 10.13769746 -20.17526868 3.00028370
VERTEX2 564 9.53371649 -20.09915552 3.04921409
VERTEX2 565 8.94237942 -20.04252215 2.99163217
VERTEX2 566 9.00421451 -20.06009167 -2.50800077
VERTEX2 567 8.91418055 -20.06897207 -1.71501505
VERTEX2 568 8.87624253 -20.57731369 -1.65153653
VERTEX2 569 8.83933401 -21.15241230 -1.69101837
VERTEX2 570 8.78506719 -21.73235952 -1.68653587
VERTEX2 571 8.74328153 -22.07043941 -1.73497812
VERTEX2 572 8.73057513 -22.08031391 -1.97960455
VERTEX2 573 8.70672922 -22.13777993 -1.70477275
VERTEX2 574 8.79248249 -22.26164635 -0.82967719
VERTEX2 575 8.84811428 -22.28057100 0.16246978
VERTEX2 576 8.84483132 -22.27809114 1.19063687
VERTEX2 577 8.83717261 -22.25937450 2.16346420
VERTEX2 578 8.82778824 -22.23055053 1.79893375
VERTEX2 579 8.68632566 -21.58492465 1.81378497
VERTEX2 580 8.50860375 -20.95273834 1.88875828
VERTEX2 581 8.29901416 -20.33757675 1.93099826
VERTEX2 582 8.06252949 -19.73232390 1.97401271
VERTEX2 583 7.92601442 -19.43088962 2.05326250
VERTEX2 584 7.92213753 -19.42382299 2.89675705
VERTEX2 585 7.34104504 -19.30015622 3.01504298
VERTEX2 586 6.75796329 -19.24191875 3.11244290
VERTEX2 587 6.15696423 -19.24601452 3.13780050
VERTEX2 588 5.54426642 -19.23571285 -3.14091462
VERTEX2 589 5.00404632 -19.27300739 -3.06565083
VERTEX2 590 4.46169802 -19.33002283 -2.99651495
VERTEX2 591 3.93877745 -19.42031104 -2.99857304
VERTEX2 592 3.40685798 -19.50631034 -3.00145511
VERTEX2 593 3.23805360 -19.53195391 -2.79624272
VERTEX2 594 3.28926977 -19.47378535 -1.87748064
VERTEX2 595 3.19111885 -20.08321631 -1.64456839
VERTEX2 596 3.15384714 -20.71219303 -1.66775031
VERTEX2 597 3.07841852 -21.39232854 -1.70776723
VERTEX2 598 2.99023604 -21.99315183 -1.74988155
VERTEX2 599 2.91117618 -22.37220025 -1.81602883
VERTEX2 600 2.91180622 -22.38980781 -1.00937163
VERTEX2 601 2.95850067 -22.41705765 0.00887925
VERTEX2 602 2.99875280 -22.39972106 1.02301703
VERTEX2 603 2.95903158 -22.16796032 1.79576633
VERTEX2 604 2.88438244 -21.55902951 1.55175277
VERTEX2 605 2.87774798 -20.91571621 1.63477170
VERTEX2 606 2.82186462 -20.26965976 1.67691370
VERTEX2 607 2.81883800 -19.67923618 1.59598856
VERTEX2 608 2.79639071 -19.29370593 1.64057920
VERTEX2 609 2.79229872 -19.27278157 1.97709433
VERTEX2 610 2.79067318 -19.27223564 2.91017555
VERTEX2 611 2.19863147 -19.13817262 2.91331266
VERTEX2 612 1.72965910 -19.01703466 2.91630174
VERTEX2 613 1.77194696 -19.02880234 -2.90273438
VERTEX2 614 1.78351300 -19.01958524 -1.86403503
VERTEX2 615 1.80798488 -19.50309799 -1.55922912
VERTEX2 616 1.83004646 -20.12299984 -1.61024581
VERTEX2 617 1.70709027 -20.72856567 -1.82700860
VERTEX2 618 1.55305926 -21.33752364 -1.81661750
VERTEX2 619 1.40657007 -21.91178175 -1.81773430
VERTEX2 620 1.23779250 -22.49087227 -1.91354057
VERTEX2 621 1.35864561 -22.15389828 -1.96472250
VERTEX2 622 1.47593557 -21.88585244 -2.03937032
VERTEX2 623 1.47663487 -21.88485860 -2.57571482
VERTEX2 624 1.45417228 -21.88519892 3.06484309
VERTEX2 625 1.41966512 -21.87224672 2.40627727
VERTEX2 626 1.39592690 -21.84629081 1.78821134
VERTEX2 627 1.45950900 -21.47535068 1.37736021
VERTEX2 628 1.62466607 -20.84274901 1.27653327
VERTEX2 629 1.78273463 -20.20969298 1.34756359
VERTEX2 630 1.89499100 -19.59775119 1.43253223
VERTEX2 631 1.95545290 -19.06525477 1.45257189
VERTEX2 632 1.95801841 -19.04764154 2.12828752
VERTEX2 633 1.86553938 -19.04350246 -3.06894484
VERTEX2 634 1.20550239 -19.09520351 -3.04159475
VERTEX2 635 0.55885504 -19.12069555 3.10654987
VERTEX2 636 -0.07770041 -19.10701656 3.08898157
VERTEX2 637 -0.70231434 -19.04766588 2.98973984
VERTEX2 638 -1.08233591 -18.97907729 2.96036874
VERTEX2 639 -1.68049518 -18.89206508 3.04095651
VERTEX2 640 -2.28309309 -18.79919523 2.97335193
VERTEX2 641 -2.87615858 -18.70395841 2.96535581
VERTEX2 642 -3.44627623 -18.58238513 2.92041703
VERTEX2 643 -3.92888075 -18.45848328 2.85318418
VERTEX2 644 -3.93146641 -18.45913840 -2.67321870
VERTEX2 645 -3.96302974 -18.59828789 -1.89623253
VERTEX2 646 -4.08369490 -19.20461241 -1.60104632
VERTEX2 647 -4.02484219 -19.83993914 -1.31238459
VERTEX2 648 -3.78830146 -20.45466441 -1.14626754
VERTEX2 649 -3.60164010 -21.04396412 -1.48410270
VERTEX2 650 -3.68630285 -21.66836083 -1.74168590
VERTEX2 651 -3.69969624 -21.80789063 -0.94275833
VERTEX2 652 -3.63876062 -21.83358697 0.08320074
VERTEX2 653 -3.59835061 -21.79547467 1.11413238
VERTEX2 654 -3.61434021 -21.50515096 1.62751707
VERTEX2 655 -3.63822349 -20.95819208 1.62259402
VERTEX2 656 -3.65255961 -20.36167668 1.61012701
VERTEX2 657 -3.77438643 -19.75673677 1.88697761
VERTEX2 658 -3.97904789 -19.14752265 1.87978022
VERTEX2 659 -4.10545466 -18.65956259 1.80860393
VERTEX2 660 -4.10843026 -18.64642727 2.40867723
VERTEX2 661 -4.27963141 -18.63189803 3.06207319
VERTEX2 662 -4.86669170 -18.58798116 3.13165874
VERTEX2 663 -5.44992112 -18.61666032 -3.05030325
VERTEX2 664 -5.45606020 -18.61525787 -2.52637167
VERTEX2 665 -5.46935776 -18.71640909 -1.69355297
VERTEX2 666 -5.52553980 -19.32562204 -1.65663214
VERTEX2 667 -5.56831469 -19.89239363 -1.65222757
VERTEX2 668 -5.61691343 -20.48673277 -1.62668551
VERTEX2 669 -5.64988020 -21.11269640 -1.65189827
VERTEX2 670 -5.73396330 -21.73178814 -1.71147664
VERTEX2 671 -5.77424987 -22.02461527 -1.65659894
VERTEX2 672 -5.68630013 -21.44084216 -1.74581286
VERTEX2 673 -5.62632061 -21.17165876 -1.87646951
VERTEX2 674 -5.61186445 -21.15564643 -2.52484396
VERTEX2 675 -5.58463618 -21.14919871 -3.13368214
VERTEX2 676 -5.57808110 -21.15282979 2.52660538
VERTEX2 677 -5.57257383 -21.16005302 1.91119915
VERTEX2 678 -5.55016440 -20.93937441 1.46559382
VERTEX2 679 -5.50060712 -20.36099437 1.52834100
VERTEX2 680 -5.53915011 -19.91550814 1.87349780
VERTEX2 681 -5.70634650 -19.32790151 1.84664608
VERTEX2 682 -5.89347426 -18.72923456 1.89500182
VERTEX2 683 -5.99235414 -18.45191851 2.05499438
VERTEX2 684 -5.94125471 -18.50119051 3.13579329
VERTEX2 685 -6.33254653 -18.67008751 -2.70320121
VERTEX2 686 -6.76820267 -18.81716435 -2.84709351
VERTEX2 687 -7.35092161 -18.98354040 -2.88178579
VERTEX2 688 -7.93814645 -19.11963613 -2.89322853
VERTEX2 689 -8.49091239 -19.27346262 -2.86520245
VERTEX2 690 -9.01398387 -19.45604185 -2.79061353
VERTEX2 691 -9.40488147 -19.59962771 -2.81871875
VERTEX2 692 -9.38961739 -19.59227104 -2.28470401
VERTEX2 693 -9.36632052 -19.65867397 -1.24504040
VERTEX2 694 -9.34198414 -19.72479255 -0.41017137
VERTEX2 695 -9.32697426 -19.72004905 0.38931645
VERTEX2 696 -9.32248315 -19.71692599 1.41414611
VERTEX2 697 -9.33255519 -19.75367116 1.16090866
VERTEX2 698 -9.00963174 -19.53637872 0.50567280
VERTEX2 699 -8.45649451 -19.20852059 0.61948447
VERTEX2 700 -7.95829957 -18.83536366 0.67347786
VERTEX2 701 -7.53992814 -18.46384591 0.73301124
VERTEX2 702 -7.07819321 -18.13987755 0.61816357
VERTEX2 703 -6.58416326 -17.79341282 0.65259103
VERTEX2 704 -6.10810282 -17.40084586 0.67084633
VERTEX2 705 -5.61352432 -16.96948228 0.74099161
VERTEX2 706 -5.18840176 -16.63635579 0.47159927
VERTEX2 707 -5.16245648 -16.63424432 -0.04877101
VERTEX2 708 -5.15246910 -16.63965829 -0.68742736
VERTEX2 709 -5.19378276 -16.59752876 -1.01959523
VERTEX2 710 -5.19884464 -16.58545542 -1.58085450
VERTEX2 711 -5.18947935 -16.59346775 -2.17774459
VERTEX2 712 -5.16865912 -16.57660958 -2.73831597
VERTEX2 713 -5.63937987 -16.63944593 -3.02373430
VERTEX2 714 -6.19257756 -16.62894330 3.06187864
VERTEX2 715 -6.81110719 -16.60872472 -3.11842111
VERTEX2 716 -7.43657318 -16.60296796 3.02597821
VERTEX2 717 -8.05044073 -16.55117866 3.11005756
VERTEX2 718 -8.80640094 -16.45191964 2.93390551
VERTEX2 719 -9.42052165 -16.35178540 3.00788807
VERTEX2 720 -10.03035559 -16.25414513 2.94822664
VERTEX2 721 -10.64913675 -16.15241976 3.01640033
VERTEX2 722 -10.66441554 -16.15059265 3.08305554
VERTEX2 723 -10.68798354 -16.17602814 -2.10865511
VERTEX2 724 -10.68693405 -16.22444955 -1.03828157
VERTEX2 725 -10.65904607 -16.24218060 -0.40301528
VERTEX2 726 -10.34025443 -16.23011626 0.05227174
VERTEX2 727 -9.71065405 -16.17569140 0.08356399
VERTEX2 728 -9.07787026 -16.13496006 0.08547967
VERTEX2 729 -8.45569561 -16.05909201 0.14358114
VERTEX2 730 -7.84927633 -15.95227757 0.18154434
VERTEX2 731 -7.21881120 -15.83606363 0.19433394
VERTEX2 732 -7.09194682 -15.80660712 0.64210632
VERTEX2 733 -7.09646388 -15.79975539 1.64093900
VERTEX2 734 -7.17472802 -15.24117894 1.71965445
VERTEX2 735 -7.25304244 -14.66504699 1.68815228
VERTEX2 736 -7.25256173 -14.66976277 2.28954560
VERTEX2 737 -7.25494611 -14.66955279 3.09266677
VERTEX2 738 -7.84454731 -14.65197596 3.11243618
VERTEX2 739 -8.45878288 -14.58082958 3.05550788
VERTEX2 740 -8.97211197 -14.56109995 3.11943405
VERTEX2 741 -8.96279593 -14.56061079 2.75167940
VERTEX2 742 -8.96584901 -14.55867430 2.10125982
VERTEX2 743 -8.96479328 -14.56253443 1.48671175
VERTEX2 744 -8.95273816 -14.53108061 0.94501902
VERTEX2 745 -8.92295377 -14.51382734 0.34901052
VERTEX2 746 -8.36967960 -14.50908574 -0.12803188
VERTEX2 747 -7.71130288 -14.59873975 -0.16435216
VERTEX2 748 -7.11700332 -14.72069068 -0.23369045
VERTEX2 749 -7.02073255 -14.74087713 0.19366312
VERTEX2 750 -7.00156419 -14.70244823 1.11723106
VERTEX2 751 -7.04699353 -14.41752652 1.75513558
VERTEX2 752 -7.12541485 -13.77990078 1.65080856
VERTEX2 753 -7.18351764 -13.12448177 1.71268093
VERTEX2 754 -7.21006289 -12.46583638 1.54900068
VERTEX2 755 -7.20933576 -11.83385848 1.63555682
VERTEX2 756 -7.19020415 -11.19930141 1.45921958
VERTEX2 757 -7.13425901 -10.55486508 1.57106094
VERTEX2 758 -7.17144667 -9.97695825 1.71307950
VERTEX2 759 -7.17688050 -9.43067986 1.59237288
VERTEX2 760 -7.23140085 -8.83510328 1.70379390
VERTEX2 761 -7.23375173 -8.81164182 1.88422087
VERTEX2 762 -7.30199031 -8.78335342 2.71894526
VERTEX2 763 -7.86679103 -8.69763688 3.01254603
VERTEX2 764 -8.27664112 -8.63941964 2.98551072
VERTEX2 765 -8.25089529 -8.63819587 -2.65810286
VERTEX2 766 -8.25147441 -8.64026983 -1.65758574
VERTEX2 767 -8.24266702 -8.66081062 -0.72713010
VERTEX2 768 -8.21407454 -8.66173152 -0.00383943
VERTEX2 769 -7.58438779 -8.55479622 0.15277614
VERTEX2 770 -6.93628446 -8.47717256 0.08544164
VERTEX2 771 -6.85068580 -8.46750600 0.64578520
VERTEX2 772 -6.85037400 -8.46642580 1.51313316
VERTEX2 773 -6.84322031 -7.89710911 1.59887563
VERTEX2 774 -6.87072294 -7.36016130 1.62091655
VERTEX2 775 -6.86755113 -7.37234112 2.46562081
VERTEX2 776 -7.07849787 -7.35269048 3.08285049
VERTEX2 777 -7.69423309 -7.32809511 -3.14139749
VERTEX2 778 -8.32606407 -7.33459288 3.12015780
VERTEX2 779 -8.95081792 -7.32954958 3.13785955
VERTEX2 780 -9.16776975 -7.31644992 3.00712806
VERTEX2 781 -9.17129430 -7.31527344 2.43273093
VERTEX2 782 -9.30530870 -7.04563172 2.00233746
VERTEX2 783 -9.55338808 -6.47750907 2.00130590
VERTEX2 784 -9.65784291 -6.25238783 1.97952159
VERTEX2 785 -9.65908480 -6.23051564 1.42647643
VERTEX2 786 -9.65129313 -6.20290849 0.83805495
VERTEX2 787 -9.63638734 -6.18701657 0.34816385
VERTEX2 788 -9.60772740 -6.18836431 -0.28003725
VERTEX2 789 -9.59354214 -6.19900848 -0.83117084
VERTEX2 790 -9.26973812 -6.59871848 -0.89806756
VERTEX2 791 -8.84566170 -7.08227158 -0.79907150
VERTEX2 792 -8.59253329 -7.29796488 -0.09367530
VERTEX2 793 -7.97176286 -7.33739387 -0.04857032
VERTEX2 794 -7.33782279 -7.35112819 0.02272007
VERTEX2 795 -7.36330362 -7.37079654 0.45226440
VERTEX2 796 -7.37361769 -7.37527232 1.11185536
VERTEX2 797 -7.30586091 -7.06084952 1.37212478
VERTEX2 798 -7.18511889 -6.42787704 1.42231433
VERTEX2 799 -7.11374174 -5.78204442 1.48738385
VERTEX2 800 -7.07489778 -5.13446970 1.55958683
VERTEX2 801 -7.09954353 -4.50762391 1.64551670
VERTEX2 802 -7.16663379 -3.88802119 1.70320913
VERTEX2 803 -7.16302997 -3.26398116 1.53851273
VERTEX2 804 -7.15646888 -2.64113643 1.59438136
VERTEX2 805 -7.20298511 -2.01604208 1.67061802
VERTEX2 806 -7.27531077 -1.42335540 1.71197374
VERTEX2 807 -7.30642136 -1.23989117 2.00024054
VERTEX2 808 -7.30360703 -1.23994711 2.94894843
VERTEX2 809 -7.88840572 -1.22395535 3.09375184
VERTEX2 810 -8.50130474 -1.11525261 2.95373391
VERTEX2 811 -9.09554462 -1.01784895 2.95056154
VERTEX2 812 -9.09074733 -1.01874263 -2.60049710
VERTEX2 813 -9.09852639 -1.03723914 -1.62470348
VERTEX2 814 -9.08771812 -1.04540947 -0.63199183
VERTEX2 815 -9.05662601 -1.05510879 0.28771219
VERTEX2 816 -9.05018300 -1.05137111 0.96710170
VERTEX2 817 -9.04868481 -1.05032756 0.29677314
VERTEX2 818 -8.83614063 -1.07828789 -0.19330034
VERTEX2 819 -8.25251143 -1.19286561 -0.17967748
VERTEX2 820 -7.66088153 -1.31269597 -0.22112240
VERTEX2 821 -7.12516216 -1.43033253 -0.20533819
VERTEX2 822 -7.08964152 -1.43507327 0.55492361
VERTEX2 823 -7.08971145 -1.43395050 1.47230270
VERTEX2 824 -7.03664987 -0.81657029 1.39318979
VERTEX2 825 -6.90467668 -0.19821064 1.36368214
VERTEX2 826 -6.85861857 0.42920193 1.52677008
VERTEX2 827 -6.80501331 1.05422772 1.47847289
VERTEX2 828 -6.76090323 1.69213786 1.51427602
VERTEX2 829 -6.70916825 2.30888435 1.47449217
VERTEX2 830 -6.64329343 2.93118259 1.46613826
VERTEX2 831 -6.55751765 3.52014937 1.41899361
VERTEX2 832 -6.47526088 4.09470556 1.41510291
VERTEX2 833 -6.43384791 4.36084223 1.55233537
VERTEX2 834 -6.43871146 4.37717867 2.60556349
VERTEX2 835 -6.44391403 4.37768712 -2.90053169
VERTEX2 836 -6.44450631 4.37712131 -1.95817462
VERTEX2 837 -6.44284325 4.36882414 -0.92258848
VERTEX2 838 -6.43729521 4.36547900 -0.06083253
VERTEX2 839 -6.43392129 4.36391372 -0.27890036
VERTEX2 840 -6.41740987 4.35127368 -0.84117408
VERTEX2 841 -6.40329535 4.32370409 -1.45785668
VERTEX2 842 -6.42818008 4.05885450 -1.68845168
VERTEX2 843 -6.50136735 3.47881975 -1.69085165
VERTEX2 844 -6.56993190 2.84136412 -1.69857752
VERTEX2 845 -6.65716904 2.20409156 -1.71299463
VERTEX2 846 -6.73627379 1.56032743 -1.71038073
VERTEX2 847 -6.83842045 0.93241928 -1.73631213
VERTEX2 848 -6.86612862 0.73688489 -1.25516907
VERTEX2 849 -6.86397994 0.73613613 -0.33163853
VERTEX2 850 -6.51282869 0.73888997 0.02190651
VERTEX2 851 -5.88937951 0.72425257 -0.07051342
VERTEX2 852 -5.26838373 0.67468568 -0.05603994
VERTEX2 853 -4.67718522 0.64320872 -0.08391162
VERTEX2 854 -4.09331133 0.58653189 -0.08186771
VERTEX2 855 -3.49697753 0.54652484 -0.08352630
VERTEX2 856 -2.84540415 0.47245236 -0.12479023
VERTEX2 857 -2.19491781 0.39431241 -0.13482803
VERTEX2 858 -1.54960498 0.28335027 -0.18983346
VERTEX2 859 -1.03231116 0.18836089 -0.19709889
VERTEX2 860 -1.01413418 0.19619136 0.65230330
VERTEX2 861 -1.00197936 0.29294808 1.56551359
VERTEX2 862 -0.97309530 0.94116171 1.50553178
VERTEX2 863 -0.92509529 1.57498250 1.47266653
VERTEX2 864 -0.84734772 2.17496000 1.47018079
VERTEX2 865 -0.81361576 2.78797820 1.52788138
VERTEX2 866 -0.77614087 3.37547294 1.52681254
VERTEX2 867 -0.77061860 3.54078916 1.70809411
VERTEX2 868 -0.78097352 3.55365061 2.73217239
VERTEX2 869 -0.77609589 3.55373345 -2.57236558
VERTEX2 870 -0.76032452 3.56247308 -1.57260625
VERTEX2 871 -0.75009572 3.55574017 -0.59861654
VERTEX2 872 -0.73582103 3.54573071 0.08683610
VERTEX2 873 -0.71228734 3.53824801 -0.48549372
VERTEX2 874 -0.69316791 3.52145537 -1.04489721
VERTEX2 875 -0.68822244 3.51028653 -1.63120479
VERTEX2 876 -0.79920117 2.95763515 -1.78890019
VERTEX2 877 -0.94238219 2.41874479 -1.87367727
VERTEX2 878 -0.98926473 2.22192678 -1.48980153
VERTEX2 879 -0.87801650 1.58366773 -1.43831506
VERTEX2 880 -0.83539852 1.13476101 -1.55052641
VERTEX2 881 -0.83655368 1.18501050 -1.54479115
VERTEX2 882 -0.88222419 0.54628063 -1.79075576
VERTEX2 883 -1.08604819 -0.04787704 -1.98103104
VERTEX2 884 -1.23629441 -0.37721706 -2.04766939
VERTEX2 885 -1.23626481 -0.37725291 -1.46645251
VERTEX2 886 -1.21883645 -0.39305061 -0.44922560
VERTEX2 887 -1.18756372 -0.40465996 0.56128501
VERTEX2 888 -1.17496058 -0.37712541 1.54458262
VERTEX2 889 -1.17768659 -0.36957593 2.44199673
VERTEX2 890 -1.49160243 -0.22298189 2.71604676
VERTEX2 891 -2.02888968 0.03492385 2.64585542
VERTEX2 892 -2.56420531 0.34557449 2.61044927
VERTEX2 893 -3.11795200 0.63220696 2.84702666
VERTEX2 894 -3.72560559 0.73377925 3.06840098
VERTEX2 895 -4.31504281 0.67723788 -2.91612332
VERTEX2 896 -4.33007443 0.67339910 -2.43715197
VERTEX2 897 -4.60856409 0.24649872 -2.16454537
VERTEX2 898 -4.94862013 -0.26330917 -2.14895499
VERTEX2 899 -5.22522961 -0.67260316 -2.21660535
VERTEX2 900 -5.62661280 -1.21838526 -2.21891315
VERTEX2 901 -5.98773575 -1.66394379 -2.28319257
VERTEX2 902 -6.39268447 -2.15744294 -2.25786411
VERTEX2 903 -6.69328469 -2.52942750 -2.30170551
VERTEX2 904 -6.69235200 -2.52815708 -1.59643058
VERTEX2 905 -6.66970714 -3.01175055 -1.54052479
VERTEX2 906 -6.62549656 -3.57335929 -1.47436669
VERTEX2 907 -6.55898088 -4.13794346 -1.48216628
VERTEX2 908 -6.50095364 -4.75206282 -1.45704963
VERTEX2 909 -6.42882881 -5.35619994 -1.47465222
VERTEX2 910 -6.45233608 -5.47790525 -1.84396574
VERTEX2 911 -6.59966671 -6.04862969 -1.78292684
VERTEX2 912 -6.70742757 -6.61226097 -1.77019415
VERTEX2 913 -6.80680684 -7.15389868 -1.76220121
VERTEX2 914 -6.91959827 -7.74153925 -1.78599742
VERTEX2 915 -7.03107942 -8.24740360 -1.82279948
VERTEX2 916 -6.96551337 -8.47630988 -1.27584641
VERTEX2 917 -6.81635367 -9.10830363 -1.53062311
VERTEX2 918 -6.82572548 -9.61287034 -1.60640339
VERTEX2 919 -6.84629943 -10.22055464 -1.64986205
VERTEX2 920 -6.89817975 -10.82825014 -1.66758492
VERTEX2 921 -6.95885408 -11.43737712 -1.72104766
VERTEX2 922 -7.04871683 -12.03586335 -1.74834867
VERTEX2 923 -7.15672258 -12.59759442 -1.81188208
VERTEX2 924 -7.27500437 -13.08517574 -1.79424688
VERTEX2 925 -7.27287926 -13.09427645 -1.28679373
VERTEX2 926 -7.09240493 -13.66896582 -1.26957591
VERTEX2 927 -6.90364713 -14.27179896 -1.29203695
VERTEX2 928 -6.72358339 -14.88917137 -1.30032065
VERTEX2 929 -6.55000130 -15.50337559 -1.30074848
VERTEX2 930 -6.38683284 -16.12761476 -1.38388028
VERTEX2 931 -6.28491899 -16.74709495 -1.46515951
VERTEX2 932 -6.22347010 -17.36817366 -1.52561997
VERTEX2 933 -6.20539539 -17.97549127 -1.59126922
VERTEX2 934 -6.20886949 -18.45122487 -1.60202873
VERTEX2 935 -6.20717081 -18.45826300 -0.92419445
VERTEX2 936 -6.21266984 -18.45642980 0.01868828
VERTEX2 937 -5.67094814 -18.42229858 0.08083140
VERTEX2 938 -5.07858119 -18.42887542 -0.09322357
VERTEX2 939 -4.45898665 -18.47881030 -0.06606157
VERTEX2 940 -3.84478892 -18.54449668 -0.15045270
VERTEX2 941 -3.23922771 -18.64943647 -0.20283188
VERTEX2 942 -2.72072291 -18.75533626 -0.19725363
VERTEX2 943 -2.11828174 -18.87514669 -0.10791139
VERTEX2 944 -1.50955790 -18.94462870 -0.16374847
VERTEX2 945 -0.90127683 -19.05824596 -0.21840548
VERTEX2 946 -0.74182237 -19.09562620 -0.15361953
VERTEX2 947 -0.34325090 -19.02589435 0.17525921
VERTEX2 948 0.21582772 -18.92697528 0.15637290
VERTEX2 949 0.80520376 -18.88104366 0.00101372
VERTEX2 950 1.42226613 -18.90361501 -0.23818588
VERTEX2 951 2.01340163 -19.06003323 -0.31010850
VERTEX2 952 2.60425971 -19.21923586 -0.05903535
VERTEX2 953 3.22017316 -19.23697681 0.02127679
VERTEX2 954 3.83671767 -19.21657763 0.01425058
VERTEX2 955 4.41885354 -19.24891297 -0.14651692
VERTEX2 956 4.96243549 -19.31417721 -0.14873444
VERTEX2 957 5.48626595 -19.39691574 -0.23631038
VERTEX2 958 5.94314143 -19.49555297 -0.26289628
VERTEX2 959 6.35727982 -19.59608238 -0.32977595
VERTEX2 960 6.94073219 -19.74271046 -0.24974376
VERTEX2 961 7.51670264 -19.90054568 -0.27673696
VERTEX2 962 8.12886970 -20.01286982 -0.21117477
VERTEX2 963 8.73932918 -20.07822381 -0.02464372
VERTEX2 964 9.35700566 -20.10509319 -0.08846257
VERTEX2 965 9.97066738 -20.16918795 -0.09532461
VERTEX2 966 10.40572915 -20.21648129 -0.15444800
VERTEX2 967 10.43064669 -20.21082812 0.69844684
VERTEX2 968 10.43619977 -20.20533109 1.59462604
VERTEX2 969 10.43943701 -20.23531099 1.65408021
VERTEX2 970 10.44239694 -20.26591581 1.65233743
VERTEX2 971 10.41487608 -19.93920002 1.65254880
VERTEX2 972 10.36328565 -19.35967322 1.65822969
VERTEX2 973 10.42991763 -18.77317762 1.37342809
VERTEX2 974 10.55594622 -18.16553220 1.40535962
VERTEX2 975 10.65377815 -17.55452763 1.41007044
VERTEX2 976 10.74468740 -16.94105308 1.42307893
VERTEX2 977 10.86365694 -16.32456123 1.39643501
VERTEX2 978 10.96840074 -15.71404414 1.44194035
VERTEX2 979 11.06737337 -15.10716767 1.42913635
VERTEX2 980 11.14975518 -14.50287561 1.47538460
VERTEX2 981 11.22368852 -13.90867355 1.48155605
VERTEX2 982 11.26744301 -13.37528310 1.52595187
VERTEX2 983 11.30341333 -12.77826769 1.52215055
VERTEX2 984 11.31738542 -12.18361001 1.57900366
VERTEX2 985 11.31561713 -11.58759039 1.59877804
VERTEX2 986 11.28784000 -10.96806785 1.63455454
VERTEX2 987 11.26270457 -10.34991540 1.59725806
VERTEX2 988 11.25335205 -9.73193321 1.61036785
VERTEX2 989 11.22822466 -9.12628286 1.61781698
VERTEX2 990 11.21097190 -8.51612613 1.60689342
VERTEX2 991 11.18534164 -7.90275522 1.63161740
VERTEX2 992 11.17042996 -7.31695001 1.59896500
VERTEX2 993 11.14651775 -6.70202695 1.63170012
VERTEX2 994 11.12050156 -6.11798345 1.62178099
VERTEX2 995 11.07960422 -5.54367451 1.66926293
VERTEX2 996 11.01147132 -4.95354030 1.69669007
VERTEX2 997 10.95732321 -4.32815946 1.63288367
VERTEX2 998 10.93124508 -3.93506677 1.65475718
VERTEX2 999 10.98165305 -3.97438556 2.37260973
VERTEX2 1000 10.54245055 -3.64536376 2.52147372
VERTEX2 1001 10.12420703 -3.27812434 2.20076388
VERTEX2 1002 9.77244912 -2.84238870 2.29357784
VERTEX2 1003 9.43570946 -2.38005527 2.11413017
VERTEX2 1004 9.09069887 -1.85629722 2.17223515
VERTEX2 1005 8.73165452 -1.37401426 2.23451072
VERTEX2 1006 8.33089403 -0.90810911 2.31170723
VERTEX2 1007 7.90878346 -0.48776487 2.40350267
VERTEX2 1008 7.66731258 -0.27556913 2.56318581
VERTEX2 1009 7.57243792 -0.26299788 3.03664306
VERTEX2 1010 7.00584554 -0.21807379 3.08929007
VERTEX2 1011 6.39277074 -0.19059556 3.04621621
VERTEX2 1012 5.78530579 -0.13914167 3.08816653
VERTEX2 1013 5.15279265 -0.15362790 -3.07999552
VERTEX2 1014 4.54222035 -0.11733973 3.02798050
VERTEX2 1015 3.91978218 -0.08989930 3.11253282
VERTEX2 1016 3.14875506 -0.06691621 3.11953855
VERTEX2 1017 2.56944448 -0.06450857 3.06270794
VERTEX2 1018 2.01613529 -0.01379370 3.07031479
VERTEX2 1019 1.42112623 -0.00083318 3.12997801
VERTEX2 1020 0.80554935 0.02316118 3.11615216
VERTEX2 1021 0.18428558 0.04009993 3.07569891
VERTEX2 1022 0.13074466 0.04344430 3.06861196
VERTEX2 1023 0.13808686 0.04345432 -3.12781838
VERTEX2 1024 -0.48839139 0.03865716 -3.10132467
VERTEX2 1025 -1.11587234 -0.00449716 -3.08357646
VERTEX2 1026 -1.27635143 -0.01329115 -3.07622521
VERTEX2 1027 -1.25755288 -0.00357671 -2.15905175
VERTEX2 1028 -1.26672814 -0.16370898 -1.59516275
VERTEX2 1029 -1.28323486 -0.73273937 -1.61674241
VERTEX2 1030 -1.33153165 -1.34604427 -1.69391987
VERTEX2 1031 -1.42318521 -1.96685058 -1.74464231
VERTEX2 1032 -1.52987220 -2.58841413 -1.73749425
VERTEX2 1033 -1.64712180 -3.20941770 -1.77934508
VERTEX2 1034 -1.67974978 -3.35502098 -1.98901683
VERTEX2 1035 -1.66468678 -3.34130350 -2.60088306
VERTEX2 1036 -1.62968487 -3.35537927 3.11856499
VERTEX2 1037 -1.97005238 -3.24577758 2.88456114
VERTEX2 1038 -2.57651307 -3.15961192 2.97928693
VERTEX2 1039 -3.21468045 -3.03019824 2.95093839
VERTEX2 1040 -3.18242211 -3.02877219 -2.69523851
VERTEX2 1041 -3.14973342 -3.03052781 -1.66724874
VERTEX2 1042 -3.14931026 -3.04356669 -0.66863846
VERTEX2 1043 -3.11982243 -3.06581154 0.31148511
VERTEX2 1044 -3.12142883 -3.06818967 1.31595915
VERTEX2 1045 -3.11877852 -3.05994056 1.20204270
VERTEX2 1046 -3.11903867 -3.06039501 0.81649355
VERTEX2 1047 -3.12389102 -3.06321540 0.26070562
VERTEX2 1048 -2.74798893 -3.09059323 -0.05234143
VERTEX2 1049 -2.08706815 -3.11365513 -0.03525963
VERTEX2 1050 -1.43286859 -3.10898842 0.04028822
VERTEX2 1051 -0.79367961 -3.10751324 -0.03329742
VERTEX2 1052 -0.18462275 -3.11335593 0.02511343
VERTEX2 1053 0.21620991 -3.11506813 -0.02214257
VERTEX2 1054 0.21819490 -3.11499918 0.75904438
VERTEX2 1055 0.21806528 -3.11851862 1.85058957
VERTEX2 1056 0.23030892 -3.13088714 2.88380713
VERTEX2 1057 0.24663440 -3.12913872 -2.39654367
VERTEX2 1058 0.40599965 -21.14163998 -0.49753102
VERTEX2 1059 0.91338784 -21.44150142 -0.57490627
VERTEX2 1060 1.45256555 -21.79293743 -0.56693357
VERTEX2 1061 1.83135234 -22.05036275 -0.68576517
VERTEX2 1062 1.84280094 -22.06591179 -1.24665601
VERTEX2 1063 -9.18211458 -38.02915057 2.89889695
VERTEX2 1064 -9.45573493 -37.87651737 2.63592648
VERTEX2 1065 -10.01791883 -37.61575937 2.75968717
VERTEX2 1066 -10.56215358 -37.37811300 2.70514690
VERTEX2 1067 -10.56958311 -37.37611694 3.14047889
VERTEX2 1068 -10.57004729 -37.37626215 -2.46627929
VERTEX2 1069 1.69993457 -29.72522842 -2.99498737
VERTEX2 1070 1.69354127 -29.72554727 2.75235764
VERTEX2 1071 1.20222185 -29.44976860 2.62688818
VERTEX2 1072 0.74174502 -29.18008185 2.55985745
VERTEX2 1073 -10.47838531 -21.05958494 2.75192963
VERTEX2 1074 -10.99061061 -20.82108880 2.71971726
VERTEX2 1075 -11.54757500 -20.56557195 2.73839605
VERTEX2 1076 -11.61766062 -20.53753120 -3.13168188
VERTEX2 1077 -11.62981981 -20.55002029 -2.30909670
VERTEX2 1078 -12.01450570 -21.05917430 -2.25873843
VERTEX2 1079 -12.37985218 -21.53131248 -2.19102730
VERTEX2 1080 -3.68209590 -6.78577372 -2.51125675
VERTEX2 1081 -4.15174772 -7.04472404 -2.62910270
VERTEX2 1082 -4.34736449 -7.15697246 -2.34099945
VERTEX2 1083 -4.34918946 -7.13123487 -1.28474451
VERTEX2 1084 -4.34072303 -7.13604373 -0.29349306
VERTEX2 1085 -4.28840996 -7.12446233 0.68429084
VERTEX2 1086 -3.90639656 -6.64498126 0.91310764
VERTEX2 1087 -3.50282415 -6.14863340 0.90014033
VERTEX2 1088 -3.11773197 -5.64816231 0.88278933
VERTEX2 1089 -3.05155759 -5.56895276 0.78480916
VERTEX2 1090 -3.03002390 -5.55086932 0.16444436
VERTEX2 1091 -2.44705082 -5.54357972 -0.01504828
VERTEX2 1092 -1.78272527 -5.56041109 -0.03203536
VERTEX2 1093 -1.16850939 -5.59539751 -0.09906278
VERTEX2 1094 4.93887667 -11.09400135 -0.34474194
VERTEX2 1095 4.97190014 -11.11754945 -0.93922591
VERTEX2 1096 4.97488715 -11.12657213 -1.51509589
VERTEX2 1097 4.92125878 -11.47225242 -1.73331581
VERTEX2 1098 4.79793311 -12.09700587 -1.79224174
VERTEX2 1099 4.64866353 -12.65421975 -1.89147024
VERTEX2 1100 4.64894999 -12.65329920 -1.53335045
VERTEX2 1101 4.72677760 -12.90255744 -1.27175247
VERTEX2 1102 4.72680847 -12.89784394 -1.67071884
VERTEX2 1103 4.64682253 -13.49996619 -1.70741382
VERTEX2 1104 4.55603235 -14.12873537 -1.73776453
VERTEX2 1105 4.44579213 -14.74286620 -1.75808876
VERTEX2 1106 4.35412921 -15.21005338 -1.78577738
VERTEX2 1107 4.35287701 -15.20166721 -1.53332612
VERTEX2 1108 4.41868505 -15.81544318 -1.52787032
VERTEX2 1109 4.40067699 -16.45208407 -1.63466695
VERTEX2 1110 4.35719056 -17.05380392 -1.68675045
VERTEX2 1111 4.21458123 -17.58268400 -1.79082949
VERTEX2 1112 4.20641448 -18.15353574 -1.44854496
VERTEX2 1113 4.26701504 -18.78090518 -1.54665555
VERTEX2 1114 4.28225377 -19.38794101 -1.53194445
VERTEX2 1115 4.30733954 -19.96109334 -1.55045617
VERTEX2 1116 4.34239632 -20.59902346 -1.51658581
VERTEX2 1117 4.34833297 -20.69259250 -1.64688564
VERTEX2 1118 4.34815242 -20.69295266 -2.25834891
VERTEX2 1119 4.35292878 -20.68946137 -2.69335945
VERTEX2 1120 3.79008131 -20.91043025 -2.75881660
VERTEX2 1121 3.59703201 -20.98338727 -2.87942754
VERTEX2 1122 18.04124649 -4.39115062 -1.09893685
VERTEX2 1123 18.30113292 -4.91954406 -1.08345888
VERTEX2 1124 18.61380400 -5.42593464 -0.98604484
VERTEX2 1125 18.97641049 -5.97846779 -0.97368198
VERTEX2 1126 19.03694591 -6.06363079 -0.63596380
VERTEX2 1127 7.21328437 -21.42471957 -0.80699174
VERTEX2 1128 7.20266830 -21.41651662 0.17579380
VERTEX2 1129 7.19523613 -21.42164722 1.18669349
VERTEX2 1130 7.39176774 -20.88745006 1.19924433
VERTEX2 1131 7.83392302 -20.27318140 0.76505785
VERTEX2 1132 8.28253585 -19.84524492 0.74420236
VERTEX2 1133 8.71020274 -19.47969057 0.70445363
VERTEX2 1134 8.89203038 -19.32543148 0.60637310
VERTEX2 1135 8.87332141 -19.33171442 0.04813183
VERTEX2 1136 4.61779694 -15.42247656 -0.15749071
VERTEX2 1137 4.88966991 -15.50511104 -0.34403652
VERTEX2 1138 5.47866374 -15.72789677 -0.36209450
VERTEX2 1139 5.94911284 -15.90498114 -0.43924307
VERTEX2 1140 -0.96489981 -23.25465391 1.75855024
VERTEX2 1141 -1.59267758 -20.03167025 1.23939711
VERTEX2 1142 -1.36142516 -19.74571319 0.86782679
VERTEX2 1143 -0.99836572 -19.26311243 0.95253155
VERTEX2 1144 -0.65201534 -18.78912916 0.91745544
VERTEX2 1145 -0.29101762 -18.31968347 0.88729513
VERTEX2 1146 0.07558564 -17.86706482 0.90234249
VERTEX2 1147 0.40995340 -17.38252422 0.96962947
VERTEX2 1148 0.74911235 -16.89087285 0.98017138
VERTEX2 1149 0.78182804 -16.83962849 1.47959010
VERTEX2 1150 0.83164699 -17.06371656 2.22617921
VERTEX2 1151 0.90107053 -17.10105677 -3.08436009
VERTEX2 1152 0.91232623 -17.08765160 -2.03642688
VERTEX2 1153 0.92345663 -17.04678338 -1.02812313
VERTEX2 1154 1.16201291 -17.18154793 -0.48387350
VERTEX2 1155 1.68075978 -17.45746123 -0.53394361
VERTEX2 1156 2.16705338 -17.74952099 -0.52466526
VERTEX2 1157 2.64300253 -17.99848450 -0.41461756
VERTEX2 1158 3.14168415 -18.26777982 -0.54443076
VERTEX2 1159 3.63542668 -18.61056771 -0.64324609
VERTEX2 1160 4.13117273 -19.00866436 -0.78512490
VERTEX2 1161 4.54052112 -19.49759317 -0.87944788
VERTEX2 1162 4.95310949 -19.98228042 -0.82554894
VERTEX2 1163 5.39056668 -20.45392246 -0.83481018
VERTEX2 1164 5.83403598 -20.91506554 -0.75371171
VERTEX2 1165 6.22607031 -21.28023922 -0.77397432
VERTEX2 1166 6.23581165 -21.28591162 -0.27948418
VERTEX2 1167 6.23878585 -21.28021022 0.66709408
VERTEX2 1168 6.24163346 -21.27192502 1.58012044
VERTEX2 1169 6.20249421 -21.23295298 2.41071232
VERTEX2 1170 5.76565013 -20.85183562 2.41982934
VERTEX2 1171 5.28483830 -20.44884886 2.45429263
VERTEX2 1172 4.83295185 -20.06661665 2.39488177
VERTEX2 1173 4.37068308 -19.64409931 2.40660697
VERTEX2 1174 3.91118545 -19.20765884 2.34098588
VERTEX2 1175 3.48588599 -18.74604711 2.31066467
VERTEX2 1176 3.05351166 -18.26573332 2.27155688
VERTEX2 1177 2.64178045 -17.77619928 2.27797819
VERTEX2 1178 2.23195437 -17.27634738 2.23562428
VERTEX2 1179 1.83005853 -16.77804757 2.26984729
VERTEX2 1180 1.64864030 -16.56204508 2.26716915
VERTEX2 1181 1.63798008 -16.55139048 3.10972739
VERTEX2 1182 1.61523124 -16.56974145 -2.44858837
VERTEX2 1183 1.15833596 -16.95757258 -2.41932361
VERTEX2 1184 0.71864666 -17.38101054 -2.34545730
VERTEX2 1185 0.28613363 -17.80605478 -2.37371489
VERTEX2 1186 -0.13572055 -18.24514952 -2.30312961
VERTEX2 1187 -0.56109117 -18.70932742 -2.33611006
VERTEX2 1188 -0.97277388 -19.15125449 -2.31397636
VERTEX2 1189 -1.36019473 -19.54796771 -2.28799716
VERTEX2 1190 -1.50552106 -19.71197742 -2.27574715
VERTEX2 1191 -1.44281604 -19.61246402 -1.33573293
VERTEX2 1192 -1.49105174 -19.57803926 -0.51961515
VERTEX2 1193 -1.06833396 -19.84044024 -0.64619911
VERTEX2 1194 -0.68689789 -20.10782558 -0.59985649
VERTEX2 1195 -0.25309494 -20.39270472 -0.54314914
VERTEX2 1196 0.19608878 -20.66200612 -0.71079689
VERTEX2 1197 0.58326050 -20.98383377 -0.69601172
VERTEX2 1198 1.00025569 -21.29139826 -0.43184451
VERTEX2 1199 1.46313591 -21.53730178 -0.64322364
VERTEX2 1200 1.89781386 -21.83722409 -0.57194149
VERTEX2 1201 2.34402408 -22.11153228 -0.51428937
VERTEX2 1202 2.81839904 -22.36625740 -0.48984028
VERTEX2 1203 3.27745514 -22.59162854 -0.57842550
VERTEX2 1204 3.65355872 -22.90789111 -0.72390168
VERTEX2 1205 4.00799059 -23.20506171 -0.69354293
VERTEX2 1206 4.40419645 -23.50643212 -0.63198948
VERTEX2 1207 4.80128357 -23.86135297 -0.71807922
VERTEX2 1208 5.22478859 -24.20822061 -0.65363042
VERTEX2 1209 5.65841240 -24.53597214 -0.65599572
VERTEX2 1210 6.09990997 -24.84660948 -0.63609200
VERTEX2 1211 6.53651805 -25.22108655 -0.70595372
VERTEX2 1212 6.98068125 -25.58663449 -0.65322867
VERTEX2 1213 7.46526721 -25.92475990 -0.57745485
VERTEX2 1214 8.04961923 -26.33210488 -0.79773100
VERTEX2 1215 8.45422016 -26.72511956 -0.73676915
VERTEX2 1216 8.89909113 -27.01972253 -0.51731733
VERTEX2 1217 9.37866366 -27.31402142 -0.53545862
VERTEX2 1218 9.86758328 -27.59441152 -0.58604628
VERTEX2 1219 10.39094885 -27.93374416 -0.55539920
VERTEX2 1220 10.88039820 -28.20697249 -0.46464110
VERTEX2 1221 10.85716890 -28.20204346 -0.91735485
VERTEX2 1222 10.85361779 -28.18941850 -1.51461188
VERTEX2 1223 10.85507017 -28.18407138 -2.07419216
VERTEX2 1224 10.50653141 -28.63423087 -2.25748382
VERTEX2 1225 10.11921319 -29.11101580 -2.24393095
VERTEX2 1226 10.05596832 -29.19015011 -2.26113661
VERTEX2 1227 10.05899204 -29.18609188 -2.26225859
