1 19 166 0 0.41485034 0.00211243 5 
2 19 172 0 0.02820697 0.00187008 4 
3 25 172 0 0.50366199 0.00187597 4 
4 25 178 0 0.30831851 0.00198723 4 
5 32 178 0 0.01493521 0.00198606 4 
6 32 183 0 0.07055611 0.00201832 4 
7 44 189 0 0.52863102 0.00207880 4 
8 44 195 0 0.35755137 0.00216984 4 
9 50 195 0 0.00572854 0.00235398 4 
10 50 201 0 0.04110605 0.00190524 3 
11 50 203 0 0.06975183 0.00190344 3 
12 61 203 0 0.00745912 0.00190815 3 
13 61 209 0 0.37222863 0.00232087 4 
14 67 209 0 0.41032090 0.00233066 4 
15 134 212 2 2382.95445440 0.00000267 1 
16 67 220 0 0.66144083 0.00250407 4 
17 81 220 0 0.48035877 0.00286463 5 
18 81 226 0 0.05402805 0.00257012 4 
19 87 226 0 1.82553139 0.00294406 5 
20 87 231 0 0.34656585 0.00262396 4 
21 94 231 0 0.55778528 0.00256889 4 
22 226 231 0 1.44127402 0.00299139 5 
23 94 241 0 1.33132047 0.00269713 4 
24 101 241 0 0.50961029 0.00271683 4 
25 101 247 0 1.66454674 0.00276607 4 
26 107 247 0 1.80094617 0.00278472 4 
27 107 254 0 1.18346605 0.00284599 4 
28 114 254 0 0.12939160 0.00286310 4 
29 107 256 0 0.93085039 0.00285700 4 
30 114 256 0 0.24629796 0.00285948 4 
31 107 258 0 1.37911724 0.00290243 4 
32 114 258 0 1.15747212 0.00292831 4 
33 121 266 0 0.00938596 0.00301756 4 
34 126 266 0 0.44864328 0.00355187 5 
35 126 272 0 1.03992836 0.00309382 4 
36 132 272 0 0.39070916 0.00365659 5 
37 132 278 0 0.58358145 0.00318376 4 
38 138 278 0 1.06458780 0.00373934 5 
39 138 284 0 0.02201259 0.00272125 3 
40 151 284 0 0.12777228 0.00329699 4 
41 151 291 0 0.60037557 0.00332073 4 
42 151 297 0 0.07972289 0.00285012 3 
43 157 297 0 1.04991834 0.00345332 4 
44 166 297 0 1.30507781 0.00339325 4 
45 19 305 0 0.16044642 0.00357456 4 
46 157 305 0 0.58687353 0.00360825 4 
47 163 305 0 7.56485476 0.00484517 6 
48 166 305 0 0.37495035 0.00361095 4 
49 172 305 0 0.01886255 0.00361403 4 
50 19 315 0 0.48455906 0.00310451 3 
51 25 315 0 0.02281386 0.00312230 3 
52 172 315 0 0.05679715 0.00374120 4 
53 172 328 0 0.12482725 0.00325744 3 
54 19 337 0 6.63404991 0.00466527 5 
55 25 337 0 0.96522419 0.00400439 4 
56 172 337 0 0.57611560 0.00334429 3 
57 19 342 0 0.00494520 0.00339017 3 
58 25 342 0 0.12855172 0.00409527 4 
59 172 342 0 0.01223902 0.00412581 4 
60 178 342 0 0.12442988 0.00418809 4 
61 25 367 0 0.11414782 0.00379392 3 
62 32 367 0 0.01267433 0.00597718 6 
63 178 367 0 0.00286807 0.00381769 3 
64 183 367 0 0.06698524 0.00378651 3 
65 25 374 0 0.56424690 0.00460814 4 
66 32 374 0 0.09892849 0.00534142 5 
67 178 374 0 0.03055075 0.00458788 4 
68 183 374 0 0.05309447 0.00457788 4 
69 32 382 0 4.14688582 0.00393375 3 
70 183 382 0 1.28811506 0.00466849 4 
71 32 387 0 2.72468715 0.00474345 4 
72 183 387 0 0.18197642 0.00473011 4 
73 189 414 0 7.69047346 0.00586183 5 
74 44 437 0 0.00915802 0.00438806 3 
75 195 437 0 0.01161094 0.00438018 3 
76 44 454 0 0.65644164 0.00452845 3 
77 189 454 0 0.03962740 0.00542371 4 
78 44 467 0 0.12345281 0.00642334 5 
79 50 467 0 0.00895575 0.01024106 9 
80 195 467 0 0.00230988 0.00464252 3 
81 195 484 0 0.09447226 0.00574730 4 
82 44 494 0 0.02880924 0.00577809 4 
83 50 494 0 0.00628832 0.00483354 3 
84 195 494 0 0.00818961 0.00683431 5 
85 201 494 0 0.00469852 0.00683601 5 
86 50 500 0 0.14406209 0.00695347 5 
87 201 500 0 0.05353930 0.00492373 3 
88 203 500 0 0.03252445 0.00489465 3 
89 61 508 0 0.99413579 0.00712349 5 
90 203 508 0 0.26947301 0.01225286 10 
91 209 508 0 0.03711473 0.00604069 4 
92 61 522 0 1.37942234 0.00614664 4 
93 203 522 0 0.12859200 0.00512867 3 
94 209 522 0 0.00542469 0.00510887 3 
95 61 528 0 0.47936102 0.00517511 3 
96 67 528 0 0.22419307 0.00629250 4 
97 81 528 0 0.23233822 0.00842101 6 
98 209 528 0 0.09444678 0.01062186 8 
99 220 528 0 0.13668760 0.00624544 4 
100 113 531 2 298.75496543 0.00000343 1 
101 67 532 0 0.05459173 0.01181019 9 
102 81 532 0 0.11826401 0.00848373 6 
103 220 532 0 0.05648169 0.00635256 4 
104 67 556 0 0.98233216 0.06122463 4 
105 67 564 0 0.40168838 0.14764722 9 
106 81 564 0 0.02280941 0.05825697 4 
107 220 564 0 0.02684857 0.05803415 4 
108 67 567 0 2.67253169 0.07719736 5 
109 81 567 0 0.48923871 0.09391277 6 
110 220 567 0 0.21723258 0.03544699 4 
111 67 570 0 2.40706627 0.01308218 6 
112 81 570 0 0.15671702 0.00905565 6 
113 220 570 0 0.13379867 0.00678547 4 
114 81 575 0 2.76594993 0.00795226 5 
115 220 575 0 1.08612706 0.01037978 7 
116 81 588 0 0.01497138 0.00570048 3 
117 87 588 0 0.47937722 0.00819528 5 
118 226 588 0 0.43156268 0.00693691 4 
119 135 595 2 882.48779508 0.00000311 1 
120 87 597 0 2.27648751 0.00958382 6 
121 94 597 0 0.38888315 0.00703127 4 
122 226 597 0 0.55079633 0.00833072 5 
123 87 604 0 0.47149562 0.00712759 4 
124 94 604 0 0.01542269 0.00843135 5 
125 435 612 2 1155.09194004 0.00000298 1 
126 94 616 0 0.01350372 0.01237674 8 
127 94 632 0 2.16969694 0.00879204 5 
128 94 637 0 4.44236402 0.01007616 6 
129 101 637 0 0.19098383 0.00753345 4 
130 101 642 0 0.11555601 0.00889076 5 
131 107 642 0 0.04025021 0.01410123 9 
132 101 645 0 6.69527511 0.00762514 4 
133 107 645 0 1.54205090 0.00752481 4 
134 501 647 2 5014.76841496 0.00000342 1 
135 101 657 0 0.73548669 0.01679546 10 
136 101 663 0 0.04971914 0.01675639 10 
137 107 663 0 0.01781179 0.00917291 5 
138 114 663 0 0.00275957 0.00918808 5 
139 101 665 0 1.55112265 0.01350456 8 
140 107 665 0 0.47667103 0.00781565 4 
141 114 665 0 0.13329170 0.00651119 3 
142 107 680 0 1.48615866 0.00940211 5 
143 107 683 0 0.94462224 0.00805339 4 
144 114 683 0 0.32178225 0.00955096 5 
145 315 694 2 2277.30787150 0.00000257 1 
146 409 703 2 369.80292930 0.00000331 1 
147 107 704 0 0.34268109 0.01266373 7 
148 114 704 0 0.07528002 0.01554701 9 
149 107 714 0 1.79639085 0.01144443 6 
150 114 714 0 0.02860377 0.01441866 8 
151 328 724 2 917.43432823 0.00000368 1 
152 107 730 0 0.19656714 0.01021033 5 
153 114 730 0 0.03540690 0.00858286 4 
154 545 739 2 483.19801032 0.00000367 1 
155 121 754 0 0.33113739 0.00879187 4 
156 126 754 0 0.07673382 0.01517426 8 
157 121 759 0 2.33625684 0.01201429 6 
158 126 759 0 0.22329988 0.01207698 6 
159 126 762 0 7.08482229 0.01043115 5 
160 132 762 0 2.00372045 0.01542882 8 
161 132 778 0 0.06999780 0.00907058 4 
162 53 780 2 1943.76635242 0.00000475 1 
163 132 792 0 1.26802734 0.00936280 4 
164 132 800 0 3.35686460 0.00924642 4 
165 138 800 0 0.14494330 0.01257990 6 
166 138 806 0 0.25140739 0.00755252 3 
167 138 821 0 0.40674396 0.01110897 5 
168 138 823 0 6.54725682 0.00941260 4 
169 151 828 0 3.12108818 0.00956299 4 
170 151 847 0 0.08724621 0.01149395 5 
171 151 855 0 0.11494457 0.01518369 7 
172 781 882 2 1344.49158810 0.00000420 1 
173 151 895 0 2.80701437 0.01772153 8 
174 151 897 0 0.06118057 0.02144353 10 
175 413 898 2 3369.79517858 0.00000408 1 
176 138 903 0 0.08157811 0.01026819 4 
177 138 904 0 7.06392298 0.01406442 6 
178 132 907 0 0.71874717 0.01035015 4 
179 138 907 0 0.22077132 0.01224705 5 
180 132 911 0 0.23128175 0.01226749 5 
181 121 923 0 0.62636126 0.01441326 6 
182 126 923 0 0.07130653 0.01051801 4 
183 107 929 0 0.07225325 0.01257375 5 
184 114 929 0 0.00477553 0.01063071 4 
185 107 935 0 4.91438615 0.01657572 7 
186 114 935 0 1.40337639 0.01659633 7 
187 101 939 0 0.48567419 0.01074137 4 
188 107 939 0 0.21174614 0.01078000 4 
189 101 944 0 0.15377935 0.01279040 5 
190 94 947 0 0.23772432 0.01680791 7 
191 101 947 0 0.16826262 0.01485457 6 
192 87 953 0 0.13504795 0.01093141 4 
193 94 953 0 0.06505521 0.01498552 6 
194 226 953 0 0.08268323 0.02303817 10 
195 791 954 2 1738.05105107 0.00000481 1 
196 81 959 0 1.83528326 0.02443743 10 
197 87 959 0 1.29172246 0.01724225 7 
198 220 959 0 0.04883629 0.01107614 4 
199 226 959 0 0.12130941 0.01310480 5 
200 67 965 0 1.01368609 0.01319593 5 
201 81 965 0 0.31066014 0.01524349 6 
202 220 965 0 0.16483276 0.01935925 8 
203 61 976 0 0.16803746 0.01748694 7 
204 67 976 0 0.05676300 0.00923447 3 
205 209 976 0 0.00780965 0.01128240 4 
206 50 982 0 0.38354811 0.01139337 4 
207 61 982 0 0.27147698 0.01139120 4 
208 201 982 0 0.22200943 0.01140375 4 
209 203 982 0 0.10573284 0.02200376 9 
210 44 988 0 0.09550719 0.01151168 4 
211 50 988 0 0.05924873 0.01153171 4 
212 195 988 0 0.04319526 0.01575798 6 
213 201 988 0 0.02685916 0.01362863 5 
214 44 994 0 0.51683435 0.01794259 7 
215 189 994 0 0.29989154 0.02582575 10 
216 195 994 0 0.21957432 0.01377952 5 
217 32 1003 0 0.23901034 0.01390310 5 
218 178 1003 0 0.03356851 0.02612805 10 
219 183 1003 0 0.01433170 0.01611780 6 
220 25 1008 0 1.23858172 0.01840151 7 
221 32 1008 0 0.53803958 0.01182078 4 
222 178 1008 0 0.34459610 0.01181586 4 
223 183 1008 0 0.22233868 0.01187017 4 
224 25 1010 0 0.60236133 0.01187293 4 
225 32 1010 0 0.30591807 0.01406901 5 
226 172 1010 0 0.10368354 0.01636324 6 
227 178 1010 0 0.19279072 0.02649306 10 
228 19 1016 0 0.44047719 0.02064512 8 
229 166 1016 0 0.20189646 0.01200695 4 
230 172 1016 0 0.07393216 0.01409316 5 
231 151 1029 0 0.03533130 0.01439850 5 
232 157 1029 0 0.02672450 0.01209118 4 
233 163 1029 0 3.39703566 0.01209227 4 
234 166 1029 0 0.49353449 0.01209362 4 
235 550 1051 2 371.79165991 0.00000529 1 
236 1036 1068 2 263.87453006 0.00000518 1 
237 31 1081 2 199.52816196 0.00000582 1 
238 279 1081 2 59.92243049 0.00000234 1 
239 982 1083 2 64.15379096 0.00000553 1 
240 132 1084 0 4.21993706 0.01514208 5 
241 793 1084 2 5432.43421228 0.00000483 5 
242 170 1092 2 1411.54980292 0.00000550 1 
243 643 1097 2 523.75153066 0.00000549 1 
244 728 1114 2 1473.89165703 0.00000548 1 
245 764 1125 2 371.28498564 0.00000605 1 
246 174 1133 2 216.35288594 0.00000522 1 
247 101 1138 0 0.63021658 0.01588554 5 
248 107 1147 0 0.73708347 0.01339970 4 
249 114 1147 0 0.03971358 0.01095796 3 
250 107 1150 0 7.45683387 0.01348392 4 
251 114 1150 0 1.00561260 0.01099242 3 
252 114 1158 0 0.16899687 0.01102929 3 
253 121 1158 0 0.69099743 0.01360411 4 
254 121 1164 0 0.45182924 0.01617120 5 
255 126 1164 0 0.04418665 0.01370704 4 
256 114 1175 0 0.14266969 0.01379107 4 
257 121 1175 0 0.27324351 0.01383811 4 
258 923 1175 0 0.18719011 0.01387720 4 
259 929 1175 0 0.16073549 0.01382338 4 
260 1158 1175 0 0.00134797 0.01124972 3 
261 101 1188 0 0.32950319 0.01397364 4 
262 939 1188 0 0.55418798 0.01393233 4 
263 1138 1188 0 0.03006025 0.01147671 3 
264 1147 1188 0 0.04063922 0.01140205 3 
265 1150 1188 0 1.83245351 0.01401064 4 
266 1050 1210 0 0.00345523 0.01420755 4 
267 1061 1210 0 0.57363906 0.01683699 5 
268 1075 1210 0 0.23107861 0.01692579 5 
269 1084 1210 0 3.13555510 0.01685035 5 
270 1088 1210 0 0.59156319 0.01421920 4 
271 1093 1210 0 0.13111230 0.01948912 6 
272 1098 1210 0 0.04730346 0.01422864 4 
273 157 1217 0 0.32750279 0.01438983 4 
274 163 1217 0 0.19904338 0.01452631 4 
275 1029 1217 0 0.01250493 0.01176683 3 
276 1044 1217 0 3.98258990 0.01448384 4 
277 1050 1217 0 4.97161000 0.01719047 5 
278 67 1223 2 1977.62143202 0.00000600 1 
279 163 297 0 0.27920255 0.01528245 4 
280 189 400 0 2.09679271 0.01491267 4 
281 1056 1217 0 9.66143264 0.01736915 5 
