VERTEX2 0 -0.00001493 -0.00000114 0.00000023
VERTEX2 1 -0.00001493 -0.00000114 -0.00064177
VERTEX2 2 -0.00001493 -0.00000114 -0.00117977
VERTEX2 3 0.01098693 -0.00097612 -0.00356177
VERTEX2 4 0.64099350 -0.01120112 -0.00744377
VERTEX2 5 0.69600119 -0.01171660 -0.09872577
VERTEX2 6 0.70025430 -0.01543592 -0.89599777
VERTEX2 7 0.69394157 0.00421256 -1.51153478
VERTEX2 8 0.69924842 0.02669334 -2.12506878
VERTEX2 9 0.71609968 0.04112236 -2.76313878
VERTEX2 10 0.72896620 0.04321975 2.90551553
VERTEX2 11 0.73318878 0.04053671 2.23123653
VERTEX2 12 0.73317150 0.04154517 1.58176252
VERTEX2 13 0.73873766 0.05907026 0.92226452
VERTEX2 14 0.75964317 0.07375048 0.31402552
VERTEX2 15 0.76855658 0.07435742 -0.21090248
VERTEX2 16 1.06247865 0.01415204 -0.22959448
VERTEX2 17 1.66363234 -0.13311458 -0.26082248
VERTEX2 18 2.28698651 -0.29647952 -0.27099948
VERTEX2 19 2.91428246 -0.49425322 -0.31957548
VERTEX2 20 3.50872295 -0.68471258 -0.31358383
VERTEX2 21 4.11849848 -0.83736546 -0.20191337
VERTEX2 22 4.72908423 -0.97891121 -0.18443374
VERTEX2 23 5.36930496 -1.02320702 -0.07689466
VERTEX2 24 6.00128833 -1.09444743 -0.13384685
VERTEX2 25 6.63658649 -1.16210287 -0.13098092
VERTEX2 26 7.24597512 -1.26254829 -0.17138816
VERTEX2 27 7.86228768 -1.35370850 -0.15543472
VERTEX2 28 8.44436770 -1.45211050 -0.15975889
VERTEX2 29 8.82382104 -1.50934923 -0.12885790
VERTEX2 30 8.83359336 -1.51193730 -0.66069363
VERTEX2 31 8.93579053 -1.64869152 -0.92885479
VERTEX2 32 9.30394768 -2.16161512 -0.94755199
VERTEX2 33 9.68489753 -2.66509981 -0.89704459
VERTEX2 34 10.09464490 -3.15241155 -0.87628544
VERTEX2 35 10.51424779 -3.63207888 -0.84231702
VERTEX2 36 10.94026077 -4.11305700 -0.85116066
VERTEX2 37 11.21966383 -4.42464846 -0.84375003
VERTEX2 38 11.21570551 -4.41928184 -1.16592260
VERTEX2 39 11.21378418 -4.41040137 -1.33727195
VERTEX2 40 11.35746390 -4.98146315 -1.32027546
VERTEX2 41 11.50649817 -5.57765633 -1.35250395
VERTEX2 42 11.62799020 -6.13742808 -1.37542412
VERTEX2 43 11.73350020 -6.72902604 -1.41581380
VERTEX2 44 11.82212284 -7.32002708 -1.45294992
VERTEX2 45 11.87696294 -7.93982216 -1.50839532
VERTEX2 46 11.90781019 -8.56164267 -1.52771722
VERTEX2 47 11.92781700 -9.18328780 -1.56932813
VERTEX2 48 11.92425338 -9.80932258 -1.57581640
VERTEX2 49 11.91697112 -10.43130086 -1.62658529
VERTEX2 50 11.86359333 -11.02084732 -1.67101800
VERTEX2 51 11.80825099 -11.61778982 -1.69981361
VERTEX2 52 11.71100282 -12.20173469 -1.77622712
VERTEX2 53 11.61107462 -12.76027370 -1.76359500
VERTEX2 54 11.49858845 -13.27196725 -1.82575322
VERTEX2 55 11.50526070 -13.23985957 -1.82054296
VERTEX2 56 11.50467924 -13.24214019 -1.81003633
VERTEX2 57 11.36114871 -13.85996833 -1.82149496
VERTEX2 58 11.21499538 -14.46604659 -1.77533119
VERTEX2 59 11.08616652 -15.07160160 -1.79896414
VERTEX2 60 10.95670033 -15.67349089 -1.77763051
VERTEX2 61 10.82141070 -16.27585939 -1.82841669
VERTEX2 62 10.67141242 -16.83588868 -1.78848516
VERTEX2 63 10.51966710 -17.40069715 -1.82390257
VERTEX2 64 10.38452537 -17.96014177 -1.76044417
VERTEX2 65 10.24987398 -18.51738597 -1.81179911
VERTEX2 66 10.09622566 -19.10444475 -1.81977869
VERTEX2 67 9.93081750 -19.69495775 -1.81829925
VERTEX2 68 9.82104271 -20.14275231 -1.83410069
VERTEX2 69 9.82416202 -20.13257686 -1.98907085
VERTEX2 70 9.83104194 -20.11940482 -2.66341405
VERTEX2 71 9.85447560 -20.11805018 2.97713009
VERTEX2 72 9.86727777 -20.11962638 2.96765238
VERTEX2 73 9.87480965 -20.12148577 2.90271403
VERTEX2 74 9.87504743 -20.12163301 2.28093243
VERTEX2 75 9.88186089 -20.12429661 1.92859487
VERTEX2 76 9.87025603 -20.11143034 2.62250453
VERTEX2 77 9.86608068 -20.10967908 2.85546977
VERTEX2 78 9.58473189 -20.12033936 -3.09056494
VERTEX2 79 8.96666538 -20.15901367 -3.09582731
VERTEX2 80 8.33490721 -20.15745200 3.11283523
VERTEX2 81 7.71089280 -20.13082184 3.08683147
VERTEX2 82 7.11226773 -20.08996836 3.03268410
VERTEX2 83 6.52460873 -20.03851175 3.00914195
VERTEX2 84 5.96297861 -19.95252048 2.93129976
VERTEX2 85 5.42106215 -19.84844227 2.93856693
VERTEX2 86 4.81268165 -19.72754483 2.84878689
VERTEX2 87 4.42220572 -19.62062710 2.79639520
VERTEX2 88 4.06438996 -19.48773278 2.76655952
VERTEX2 89 4.07507694 -19.48824630 -3.12093458
VERTEX2 90 3.47101442 -19.49107110 3.13111548
VERTEX2 91 2.85612294 -19.48626157 -3.10301448
VERTEX2 92 2.25731360 -19.48160546 3.06445432
VERTEX2 93 1.63679315 -19.37850007 2.96357467
VERTEX2 94 1.01649622 -19.23954215 2.92078732
VERTEX2 95 0.39527816 -19.15115860 3.06337985
VERTEX2 96 -0.21428487 -19.09943451 3.08744067
VERTEX2 97 -0.80348784 -19.03590921 3.01682823
VERTEX2 98 -1.39127878 -18.93442063 2.95884857
VERTEX2 99 -2.09558425 -18.80941715 3.00565171
VERTEX2 100 -2.65943257 -18.70097447 2.95391846
VERTEX2 101 -3.26965556 -18.64379592 3.05720063
VERTEX2 102 -3.88268032 -18.56294045 2.95129146
VERTEX2 103 -4.49105695 -18.44755971 3.04724937
VERTEX2 104 -5.10339020 -18.37071482 3.01358502
VERTEX2 105 -5.71591091 -18.30571546 3.06015222
VERTEX2 106 -6.31787515 -18.23479095 3.00530053
VERTEX2 107 -6.93565530 -18.13813397 3.00150284
VERTEX2 108 -7.39046415 -18.08883842 3.06310801
VERTEX2 109 -7.43627333 -18.07718787 2.61467124
VERTEX2 110 -7.45379318 -18.05902438 2.02340863
VERTEX2 111 -7.45390941 -17.97680300 1.51763127
VERTEX2 112 -7.42949630 -17.34151163 1.57207917
VERTEX2 113 -7.44734686 -16.71780019 1.61913579
VERTEX2 114 -7.47980247 -16.10885458 1.65547361
VERTEX2 115 -7.55203858 -15.46976101 1.71558124
VERTEX2 116 -7.66947791 -14.72030787 1.75953632
VERTEX2 117 -7.80401213 -14.11112591 1.85496196
VERTEX2 118 -7.80833060 -14.09176396 1.52013693
VERTEX2 119 -7.75226863 -13.57471573 1.46678970
VERTEX2 120 -7.69930543 -12.91956766 1.55694010
VERTEX2 121 -7.70969239 -12.30156558 1.62449497
VERTEX2 122 -7.74379691 -11.72054289 1.68071252
VERTEX2 123 -7.76861843 -11.54202092 1.66793540
VERTEX2 124 -7.68303176 -11.30439175 1.24495211
VERTEX2 125 -7.46731751 -10.71291353 1.23402462
VERTEX2 126 -7.33574233 -10.09824611 1.44059440
VERTEX2 127 -7.23935240 -9.46510938 1.43908425
VERTEX2 128 -7.16527672 -8.82779409 1.47558901
VERTEX2 129 -7.08040843 -8.19434069 1.44301503
VERTEX2 130 -7.01444583 -7.56279600 1.49576614
VERTEX2 131 -6.97026094 -6.93695447 1.58431350
VERTEX2 132 -6.95404239 -6.32057600 1.53476264
VERTEX2 133 -6.90823437 -5.75323642 1.49810183
VERTEX2 134 -6.85555393 -5.15695943 1.48008280
VERTEX2 135 -6.77541118 -4.58436834 1.45397981
VERTEX2 136 -6.70330748 -3.95286912 1.47355791
VERTEX2 137 -6.60882794 -3.32346611 1.43165491
VERTEX2 138 -6.53493832 -2.69514526 1.51177558
VERTEX2 139 -6.52047732 -2.06483516 1.57716927
VERTEX2 140 -6.55109108 -1.40979204 1.60777274
VERTEX2 141 -6.55936329 -0.77009814 1.55940512
VERTEX2 142 -6.56202828 -0.12071432 1.55562272
VERTEX2 143 -6.48336007 0.51761996 1.44510929
VERTEX2 144 -6.44502447 0.88875327 1.46267093
VERTEX2 145 -6.43988337 0.90450903 0.96431535
VERTEX2 146 -6.43846084 0.91189337 0.37113620
VERTEX2 147 -6.38371893 0.90831227 -0.11534767
VERTEX2 148 -5.95282458 0.85048276 -0.15097975
VERTEX2 149 -5.31286619 0.75998011 -0.12585781
VERTEX2 150 -4.67952309 0.69871277 -0.11168209
VERTEX2 151 -4.04066845 0.65458195 -0.02599741
VERTEX2 152 -3.41610365 0.62260935 -0.08680028
VERTEX2 153 -2.79185162 0.59330486 0.00671664
VERTEX2 154 -2.17128803 0.57580773 -0.06272868
VERTEX2 155 -1.54683074 0.54592698 -0.02920386
VERTEX2 156 -0.92012583 0.53522809 0.00163813
VERTEX2 157 -0.35704355 0.52087141 -0.06261393
VERTEX2 158 -0.16234242 0.50820498 -0.03511793
VERTEX2 159 -0.15665466 0.50641898 0.95221470
VERTEX2 160 -0.15126114 0.51533512 1.98789884
VERTEX2 161 -0.17362011 0.45603786 2.70871465
VERTEX2 162 -0.14773802 0.46189759 -2.53866584
VERTEX2 163 -0.14873875 0.45685353 -1.54158006
VERTEX2 164 -0.22426119 0.55065881 -0.47905966
VERTEX2 165 -0.05026359 0.53338042 -0.07127325
VERTEX2 166 0.64749362 0.49021737 -0.06957283
VERTEX2 167 1.26571611 0.43956122 -0.09898105
VERTEX2 168 1.85539569 0.38991184 -0.08701671
VERTEX2 169 2.45228016 0.31785552 -0.12397955
VERTEX2 170 3.04041878 0.24902199 -0.14464919
VERTEX2 171 3.59981149 0.15079141 -0.18274461
VERTEX2 172 4.22291868 0.04352720 -0.16849755
VERTEX2 173 4.84890356 -0.07659446 -0.19143695
VERTEX2 174 5.47109447 -0.19038814 -0.15142357
VERTEX2 175 6.08927102 -0.28081828 -0.17594788
VERTEX2 176 6.69045637 -0.40128366 -0.16616979
VERTEX2 177 7.31569025 -0.50409345 -0.19365499
VERTEX2 178 7.93883736 -0.64999699 -0.23250038
VERTEX2 179 8.34221533 -0.73353043 -0.17908127
VERTEX2 180 8.39231940 -0.74697710 -0.62096395
VERTEX2 181 8.83329862 -1.06515312 -0.67267547
VERTEX2 182 9.24023839 -1.42525589 -0.84661333
VERTEX2 183 9.58787301 -1.84632455 -0.90389636
VERTEX2 184 9.92693420 -2.35764438 -1.05039962
VERTEX2 185 10.21099493 -2.89242631 -1.14296745
VERTEX2 186 10.43063017 -3.45973393 -1.20935523
VERTEX2 187 10.62582847 -4.00512725 -1.23198080
VERTEX2 188 10.82757450 -4.57010817 -1.23739049
VERTEX2 189 11.02188892 -5.13917352 -1.26410458
VERTEX2 190 11.20549639 -5.74496627 -1.29267483
VERTEX2 191 11.37884535 -6.34995194 -1.31656149
VERTEX2 192 11.53328194 -6.94817141 -1.34474161
VERTEX2 193 11.65687546 -7.49759287 -1.40028785
VERTEX2 194 11.75679440 -8.06751276 -1.42691019
VERTEX2 195 11.83721393 -8.63239727 -1.45540373
VERTEX2 196 11.90380864 -9.25826001 -1.49613408
VERTEX2 197 11.94167406 -9.87996685 -1.52358642
VERTEX2 198 11.96681033 -10.49902365 -1.58174602
VERTEX2 199 11.93867009 -11.10728848 -1.64315882
VERTEX2 200 11.89151779 -11.71027737 -1.66504210
VERTEX2 201 11.82068415 -12.30968950 -1.72172082
VERTEX2 202 11.75662379 -12.81522635 -1.70136674
VERTEX2 203 11.65474701 -13.54961090 -1.75392131
VERTEX2 204 11.53292543 -14.12661110 -1.85573272
VERTEX2 205 11.36363119 -14.68905786 -1.86501991
VERTEX2 206 11.20953628 -15.23659872 -1.86296898
VERTEX2 207 11.04981105 -15.80390484 -1.84689295
VERTEX2 208 10.87654725 -16.40388360 -1.85621597
VERTEX2 209 10.71455330 -17.00543525 -1.81790511
VERTEX2 210 10.55100950 -17.60058555 -1.82650820
VERTEX2 211 10.40168013 -18.19952940 -1.82399576
VERTEX2 212 10.22478276 -18.78814635 -1.87656254
VERTEX2 213 10.03055950 -19.37710609 -1.89739436
VERTEX2 214 9.83147072 -19.95247804 -1.90125520
VERTEX2 215 9.71700740 -20.27390714 -1.93710735
VERTEX2 216 9.72940107 -20.25264899 -2.43590242
VERTEX2 217 9.75514011 -20.24987320 -2.97821634
VERTEX2 218 9.76397791 -20.25325674 -3.03430058
VERTEX2 219 9.19758354 -20.20948101 3.08030957
VERTEX2 220 8.58850406 -20.16562138 3.04039072
VERTEX2 221 7.95014939 -20.09960586 3.09087369
VERTEX2 222 7.32543258 -20.05738264 3.06533197
VERTEX2 223 6.70021512 -20.02845756 -3.12150446
VERTEX2 224 6.08687749 -20.02961472 3.13591338
VERTEX2 225 5.46991292 -20.02445715 -3.09755019
VERTEX2 226 4.85388855 -20.01857150 3.13656610
VERTEX2 227 4.20945493 -20.08829191 -2.98992302
VERTEX2 228 3.68616065 -20.07306671 2.93176915
VERTEX2 229 3.24098857 -20.03514896 3.05229835
VERTEX2 230 2.95067453 -20.01950115 3.02354120
VERTEX2 231 3.15551507 -20.03718414 3.09365147
VERTEX2 232 2.84603817 -19.89847496 2.66771982
VERTEX2 233 2.28218323 -19.63805297 2.77000596
VERTEX2 234 1.70649169 -19.41165860 2.72583514
VERTEX2 235 1.45738554 -19.30424768 2.72084025
VERTEX2 236 1.12389435 -19.30555756 3.12625022
VERTEX2 237 0.49680372 -19.32062099 -3.08655363
VERTEX2 238 -0.12249051 -19.36916654 -3.11929802
VERTEX2 239 -0.73811780 -19.36634749 3.09625461
VERTEX2 240 -1.30735031 -19.24857800 2.87816204
VERTEX2 241 -1.84664563 -19.11735699 2.96358728
VERTEX2 242 -2.42001024 -19.05216969 3.00310676
VERTEX2 243 -3.02013164 -18.96879137 3.00242458
VERTEX2 244 -3.64377055 -18.92291722 3.07376068
VERTEX2 245 -4.25814950 -18.87393973 3.01957192
VERTEX2 246 -4.86007099 -18.78765124 2.94721992
VERTEX2 247 -5.46343907 -18.70517502 3.05318577
VERTEX2 248 -6.01786520 -18.68351289 3.08457566
VERTEX2 249 -5.96920362 -18.69084112 -3.00569828
VERTEX2 250 -5.96573213 -18.69072362 2.69053223
VERTEX2 251 -6.28831248 -18.35031093 2.26718562
VERTEX2 252 -6.64442425 -17.93001705 2.27572530
VERTEX2 253 -7.01670518 -17.48404272 2.26476293
VERTEX2 254 -7.38250679 -17.02580891 2.22359968
VERTEX2 255 -7.45562959 -16.93301198 2.30747098
VERTEX2 256 -7.45862816 -16.85575611 1.83150048
VERTEX2 257 -7.51032426 -16.39595809 1.69594765
VERTEX2 258 -7.59407016 -15.80623023 1.77647032
VERTEX2 259 -7.73770965 -15.20203353 1.81710563
VERTEX2 260 -7.87160229 -14.64212123 1.80875985
VERTEX2 261 -7.86939954 -14.60562295 1.49738934
VERTEX2 262 -7.80657525 -13.95498239 1.50411295
VERTEX2 263 -7.76470242 -13.33772522 1.51762910
VERTEX2 264 -7.75006437 -12.73371093 1.61474279
VERTEX2 265 -7.78197464 -12.13039937 1.63495122
VERTEX2 266 -7.73439796 -11.55287114 1.50582921
VERTEX2 267 -7.68328167 -10.80373543 1.47643320
VERTEX2 268 -7.55112325 -10.20049362 1.36629152
VERTEX2 269 -7.43137434 -9.58673395 1.39617765
VERTEX2 270 -7.35935955 -8.96262260 1.51019922
VERTEX2 271 -7.26425952 -8.34014751 1.39970688
VERTEX2 272 -7.17877491 -7.71308945 1.46489220
VERTEX2 273 -7.18861597 -7.08313041 1.67702954
VERTEX2 274 -7.25638426 -6.46694246 1.70104551
VERTEX2 275 -7.24432864 -5.85993604 1.52964011
VERTEX2 276 -7.23745559 -5.25386014 1.64422026
VERTEX2 277 -7.28417277 -4.69042466 1.61873210
VERTEX2 278 -7.24094271 -4.05173232 1.53013242
VERTEX2 279 -7.20100995 -3.41722981 1.47491187
VERTEX2 280 -7.13321441 -2.78482933 1.47709454
VERTEX2 281 -7.04308445 -2.15078152 1.37680887
VERTEX2 282 -6.92381147 -1.52342679 1.41682012
VERTEX2 283 -6.83749627 -0.88932813 1.40913782
VERTEX2 284 -6.72625251 -0.26591106 1.43646158
VERTEX2 285 -6.65948913 0.38380088 1.45760712
VERTEX2 286 -6.59326024 1.00575144 1.51128207
VERTEX2 287 -6.59044109 1.05729110 1.40697533
VERTEX2 288 -6.58673104 1.06392965 0.79869433
VERTEX2 289 -6.58416180 1.06517956 0.20557800
VERTEX2 290 -6.14432307 1.05668950 -0.01931948
VERTEX2 291 -5.52212841 1.04922337 -0.00543417
VERTEX2 292 -4.90618223 1.02953617 -0.06012294
VERTEX2 293 -4.28164297 0.98426249 -0.08322626
VERTEX2 294 -3.66067350 0.93192317 -0.08258008
VERTEX2 295 -3.03904157 0.85141181 -0.19511277
VERTEX2 296 -2.42244533 0.70644717 -0.24054979
VERTEX2 297 -1.80803573 0.55453308 -0.25228016
VERTEX2 298 -1.19690286 0.39955854 -0.25299135
VERTEX2 299 -0.62223257 0.24219805 -0.19186160
VERTEX2 300 -0.03569094 0.15572809 -0.14972424
VERTEX2 301 0.52643256 0.05535746 -0.20893676
VERTEX2 302 0.82822439 -0.00998040 -0.22987786
VERTEX2 303 0.81065633 -0.00658019 -0.22577667
VERTEX2 304 1.31110423 -0.12290226 -0.21626185
VERTEX2 305 1.92602837 -0.16832714 -0.03244527
VERTEX2 306 2.55613090 -0.17987376 -0.05059467
VERTEX2 307 3.19598905 -0.22875990 -0.08738417
VERTEX2 308 3.82429467 -0.29275726 -0.14306565
VERTEX2 309 4.45991912 -0.35420591 -0.05024482
VERTEX2 310 5.08823781 -0.38520158 -0.08622839
VERTEX2 311 5.36995808 -0.41166538 0.08870024
VERTEX2 312 5.36734016 -0.41302099 1.07633943
VERTEX2 313 5.37202466 -0.19473731 1.57195118
VERTEX2 314 5.35269913 0.43332219 1.61170124
VERTEX2 315 5.32438363 1.06076559 1.60734388
VERTEX2 316 5.28472114 1.70578512 1.65848391
VERTEX2 317 5.22387431 2.34745983 1.66824577
VERTEX2 318 5.12559591 2.98453691 1.76257567
VERTEX2 319 5.04622232 3.33156450 1.83372780
VERTEX2 320 5.04826260 3.33786938 2.80160977
VERTEX2 321 5.04023731 3.33442312 -2.44252826
VERTEX2 322 5.03931956 3.33253292 -1.44694342
VERTEX2 323 5.04986666 3.32235143 -0.45514652
VERTEX2 324 5.05434705 3.32088502 0.20427498
VERTEX2 325 5.05571203 3.32099182 -0.32378430
VERTEX2 326 5.07108192 3.30940564 -0.91941788
VERTEX2 327 5.07443111 3.29350710 -1.54322821
VERTEX2 328 5.05735738 2.65567746 -1.58994247
VERTEX2 329 5.03464349 2.02912522 -1.64635700
VERTEX2 330 4.97958653 1.41401846 -1.66683497
VERTEX2 331 4.92351789 0.79762266 -1.68258593
VERTEX2 332 4.84299334 0.18434712 -1.70257609
VERTEX2 333 4.82099600 0.03000490 -1.63911062
VERTEX2 334 4.83436474 0.03269286 -0.84431186
VERTEX2 335 4.85154688 0.02760482 0.14667010
VERTEX2 336 4.86451980 0.03215620 1.08780717
VERTEX2 337 4.86946835 0.06294732 2.06677482
VERTEX2 338 4.86689395 0.06473147 3.05629491
VERTEX2 339 4.87873060 0.07207981 -2.17691895
VERTEX2 340 4.87894625 0.07047124 -1.15708619
VERTEX2 341 4.99262072 0.00185632 -0.52333876
VERTEX2 342 5.56604333 -0.30312562 -0.42123724
VERTEX2 343 6.14510419 -0.50475455 -0.28958584
VERTEX2 344 6.73492162 -0.68816102 -0.29895816
VERTEX2 345 6.97399895 -0.75852404 -0.32575908
VERTEX2 346 6.96101165 -0.75427549 -0.97128524
VERTEX2 347 6.96348517 -0.84311009 -1.52840440
VERTEX2 348 6.98165714 -1.43413661 -1.54446646
VERTEX2 349 6.97972182 -2.05406772 -1.58404711
VERTEX2 350 6.96698854 -2.84259277 -1.60304921
VERTEX2 351 6.95287213 -3.11676666 -1.63138293
VERTEX2 352 6.95100082 -3.12571561 -1.91817427
VERTEX2 353 6.93932955 -3.14005154 -2.58107134
VERTEX2 354 6.92577425 -3.14395157 3.10106521
VERTEX2 355 6.90580295 -3.14327038 2.38278249
VERTEX2 356 6.90011569 -3.13324691 1.80978467
VERTEX2 357 6.90271359 -3.11761752 1.15919165
VERTEX2 358 6.90375038 -3.11616886 0.54610775
VERTEX2 359 6.89222390 -3.12112620 -0.06554891
VERTEX2 360 6.87788483 -3.11830808 -0.24059317
VERTEX2 361 6.86996986 -3.12039097 0.68214533
VERTEX2 362 6.95469360 -2.88918342 1.21797504
VERTEX2 363 7.05701805 -2.62069803 1.21237242
VERTEX2 364 6.98719587 -2.28455170 1.82916069
VERTEX2 365 6.93123036 -1.99539784 1.33388539
VERTEX2 366 7.03985673 -1.87204159 0.78174229
VERTEX2 367 7.48516589 -1.43601270 0.78459609
VERTEX2 368 7.94097864 -0.99891121 0.73669982
VERTEX2 369 7.96085930 -0.97482676 0.48493738
VERTEX2 370 7.98530546 -0.97088201 -0.10170809
VERTEX2 371 7.99150316 -0.97408260 -0.64706965
VERTEX2 372 8.42094865 -1.32211597 -0.67470280
VERTEX2 373 8.89414003 -1.68632951 -0.67268124
VERTEX2 374 9.37383304 -2.08882389 -0.73377677
VERTEX2 375 9.73583569 -2.40970146 -0.76458927
VERTEX2 376 9.74988589 -2.41825694 -0.07172824
VERTEX2 377 9.80099578 -2.38174579 0.62164917
VERTEX2 378 10.33623832 -1.98234310 0.67463753
VERTEX2 379 10.81542120 -1.55063460 0.75819962
VERTEX2 380 11.25461054 -1.08280450 0.87624135
VERTEX2 381 11.40061667 -0.90209278 1.02478488
VERTEX2 382 11.40190170 -0.89974282 2.07020647
VERTEX2 383 11.40381212 -0.90093407 3.05748338
VERTEX2 384 11.40273432 -0.90195291 -2.26156209
VERTEX2 385 11.39799101 -0.90997584 -1.23103075
VERTEX2 386 11.50534200 -1.04842015 -1.00594413
VERTEX2 387 11.96600058 -1.47175799 -0.67401233
VERTEX2 388 12.47283400 -1.85893338 -0.66430865
VERTEX2 389 12.95368996 -2.26608727 -0.74584383
VERTEX2 390 13.00658221 -2.31314209 -0.26942701
VERTEX2 391 12.87209518 -2.30967160 0.11157396
VERTEX2 392 12.87271462 -2.30965319 1.15493221
VERTEX2 393 12.89240936 -2.15164009 2.03492534
VERTEX2 394 12.88663016 -2.14673357 3.02929989
VERTEX2 395 13.13095759 -2.10334520 -2.91615782
VERTEX2 396 13.13436536 -2.10255013 -2.91594992
VERTEX2 397 13.13612761 -2.10268524 -2.92665058
VERTEX2 398 13.13560952 -2.10290686 -2.72904203
VERTEX2 399 13.03901463 -2.17842739 -2.43006404
VERTEX2 400 12.54610030 -2.60802098 -2.37980291
VERTEX2 401 12.08409698 -3.01541657 -2.47278755
VERTEX2 402 11.53496089 -3.30267742 -2.74070842
VERTEX2 403 10.96916805 -3.53690284 -2.77536532
VERTEX2 404 10.42955878 -3.72646408 -2.85510640
VERTEX2 405 10.44555297 -3.71881281 -2.32268992
VERTEX2 406 10.44873925 -3.70010273 -1.34683207
VERTEX2 407 10.56818874 -4.03864929 -1.21968864
VERTEX2 408 10.77351727 -4.61648662 -1.25854701
VERTEX2 409 10.85589807 -4.89803492 -1.35918750
VERTEX2 410 10.85612467 -4.89167766 -1.98876895
VERTEX2 411 10.86635346 -4.87364845 -2.57969894
VERTEX2 412 10.37268540 -5.06945675 -2.78367858
VERTEX2 413 9.79697915 -5.26339684 -2.86411042
VERTEX2 414 9.21705598 -5.44691551 -2.76122620
VERTEX2 415 8.61208502 -5.68105252 -2.75357876
VERTEX2 416 8.32586814 -5.80697211 -2.80809265
VERTEX2 417 8.03714645 -5.79021779 3.05189536
VERTEX2 418 7.60228240 -5.74616323 3.00738890
VERTEX2 419 7.60707457 -5.74508819 -2.84355284
VERTEX2 420 7.66124622 -5.72119818 -2.62648250
VERTEX2 421 7.66205792 -5.71995439 -1.65638284
VERTEX2 422 7.65698051 -5.72704742 -0.41399132
VERTEX2 423 7.66341152 -5.72766947 -0.06725360
VERTEX2 424 7.66428591 -5.72816894 -0.06609014
VERTEX2 425 7.65614892 -5.73275091 -0.05355019
VERTEX2 426 7.65681313 -5.73322712 -0.06186736
VERTEX2 427 7.69001411 -5.73498163 -0.05794925
VERTEX2 428 8.35269887 -5.75694288 -0.06266485
VERTEX2 429 8.99798771 -5.80675523 -0.10263116
VERTEX2 430 9.34072480 -5.84760824 -0.14790598
VERTEX2 431 9.31948765 -5.84506996 -0.09516140
VERTEX2 432 9.33394926 -5.85015201 -0.72519495
VERTEX2 433 9.34233665 -5.86162968 -1.40071446
VERTEX2 434 9.30634910 -6.40412814 -1.62795730
VERTEX2 435 9.27526780 -7.05052898 -1.65560104
VERTEX2 436 9.19853358 -7.68996779 -1.66402776
VERTEX2 437 9.14744287 -8.33907499 -1.65570955
VERTEX2 438 9.09652392 -8.80697635 -1.68566314
VERTEX2 439 9.09491138 -8.81306828 -2.12041621
VERTEX2 440 9.10088568 -8.80836801 -2.76190885
VERTEX2 441 9.11578324 -8.80687460 2.90085791
VERTEX2 442 9.12167476 -8.81008855 2.27309544
VERTEX2 443 9.12173156 -8.81106803 1.70769101
VERTEX2 444 9.12475322 -8.79504803 1.11768982
VERTEX2 445 9.12947631 -8.79053121 0.46119555
VERTEX2 446 9.12711379 -8.79199902 0.66347644
VERTEX2 447 9.13862198 -8.76964089 1.29652071
VERTEX2 448 9.28819551 -8.14761226 1.31416072
VERTEX2 449 9.42072284 -7.51105013 1.41563377
VERTEX2 450 9.51449697 -6.87381380 1.42940344
VERTEX2 451 9.56715243 -6.40284878 1.47200096
VERTEX2 452 9.56730735 -6.40118429 1.09389101
VERTEX2 453 9.56403613 -6.40709912 0.47161691
VERTEX2 454 9.82284612 -6.38742060 0.04947952
VERTEX2 455 10.42113655 -6.36321610 0.02894476
VERTEX2 456 11.05296514 -6.35898819 -0.03560993
VERTEX2 457 11.40659117 -6.38161021 -0.12329067
VERTEX2 458 11.40199741 -6.37932491 -0.76908984
VERTEX2 459 11.39357654 -6.34518412 -1.37720559
VERTEX2 460 11.37281266 -6.74413147 -1.63415077
VERTEX2 461 11.30397799 -7.36109208 -1.72204322
VERTEX2 462 11.21639587 -7.87099295 -1.76200526
VERTEX2 463 11.22741881 -7.84940083 -0.92159667
VERTEX2 464 11.48284041 -7.92200202 -0.24336618
VERTEX2 465 12.06662865 -8.05492917 -0.23556979
VERTEX2 466 12.62020295 -8.20612458 -0.29115127
VERTEX2 467 13.19118792 -8.38791118 -0.33455300
VERTEX2 468 13.80620902 -8.60625546 -0.36984691
VERTEX2 469 14.39799569 -8.87180070 -0.45251565
VERTEX2 470 14.85232318 -9.08732593 -0.43337875
VERTEX2 471 14.86093185 -9.09198619 -0.63281356
VERTEX2 472 14.87821624 -9.11607589 -1.26461283
VERTEX2 473 14.87970181 -9.12335829 -1.90432946
VERTEX2 474 14.87814660 -9.12530960 -2.53480201
VERTEX2 475 14.88053229 -9.12498280 -3.10842536
VERTEX2 476 14.88294293 -9.12530955 2.52372243
VERTEX2 477 14.88740940 -9.13404302 1.96434758
VERTEX2 478 14.88816675 -9.14392980 1.33745579
VERTEX2 479 14.88715675 -9.14624528 0.88328408
VERTEX2 480 14.88745322 -9.14557609 1.44545652
VERTEX2 481 14.88382705 -9.12991780 2.44772028
VERTEX2 482 14.88821678 -9.13167963 2.78392416
VERTEX2 483 14.89481705 -9.13406851 2.77856975
VERTEX2 484 14.46878504 -8.97573894 2.81411942
VERTEX2 485 13.87019341 -8.78666405 2.81183363
VERTEX2 486 13.26892125 -8.57359031 2.82139174
VERTEX2 487 12.65898173 -8.39377732 2.84970090
VERTEX2 488 12.04674683 -8.21210135 2.88585456
VERTEX2 489 11.57653198 -8.10429072 2.91631627
VERTEX2 490 11.58123290 -8.10383595 -2.88167681
VERTEX2 491 11.58876597 -8.09390270 -1.94540938
VERTEX2 492 11.57205372 -8.32349083 -1.64230932
VERTEX2 493 11.51029333 -8.92723223 -1.69732201
VERTEX2 494 11.42315834 -9.53828069 -1.75820213
VERTEX2 495 11.35414347 -10.16147006 -1.65097948
VERTEX2 496 11.31052504 -10.78594711 -1.53320374
VERTEX2 497 11.30378161 -11.40393949 -1.61921016
VERTEX2 498 11.23538086 -12.02546484 -1.72097950
VERTEX2 499 11.10501995 -12.65197696 -1.73796667
VERTEX2 500 11.16316113 -13.21888510 -1.40898440
VERTEX2 501 11.23845108 -13.80107188 -1.48091409
VERTEX2 502 11.26294504 -14.49586695 -1.56539941
VERTEX2 503 11.25880852 -14.94211382 -1.58237024
VERTEX2 504 11.26413492 -14.92704825 -0.72581042
VERTEX2 505 11.50185630 -14.95405530 -0.10400324
VERTEX2 506 12.09367739 -15.03549685 -0.25654835
VERTEX2 507 12.67466400 -15.20504663 -0.33509129
VERTEX2 508 13.24358013 -15.41626691 -0.34835086
VERTEX2 509 13.86317622 -15.64936971 -0.40425762
VERTEX2 510 14.21950175 -15.80820120 -0.41815825
VERTEX2 511 14.21773797 -15.79108894 0.45721446
VERTEX2 512 14.23940573 -15.74535645 1.65457884
VERTEX2 513 14.23595716 -15.73520685 2.61009224
VERTEX2 514 14.16835046 -15.71627710 2.83638117
VERTEX2 515 13.55782393 -15.53566478 2.83750045
VERTEX2 516 12.97280152 -15.34193060 2.85341293
VERTEX2 517 12.37986509 -15.19412498 2.88162154
VERTEX2 518 11.78727041 -15.04318606 2.90598712
VERTEX2 519 11.26519420 -14.91950003 2.89030396
VERTEX2 520 11.09727342 -14.87585060 -2.99441631
VERTEX2 521 11.11940338 -14.85143877 -1.99071489
VERTEX2 522 11.05414754 -15.24757198 -1.72641332
VERTEX2 523 10.96295020 -15.86837326 -1.73371150
VERTEX2 524 10.85931877 -16.44300457 -1.77555007
VERTEX2 525 10.75559602 -16.98573597 -1.75182011
VERTEX2 526 10.63968645 -17.55516441 -1.81053097
VERTEX2 527 10.49220709 -18.13478199 -1.84526097
VERTEX2 528 10.31023990 -18.70185745 -1.92115339
VERTEX2 529 10.09774761 -19.30570655 -1.94934749
VERTEX2 530 9.85018181 -19.90684287 -1.97932816
VERTEX2 531 9.58012003 -20.48363221 -2.05903841
VERTEX2 532 9.48452213 -20.66533090 -2.00842034
VERTEX2 533 9.48346904 -20.66016202 -1.00732929
VERTEX2 534 9.48512171 -20.66123366 -0.33941367
VERTEX2 535 9.48768123 -20.66147000 -0.33946463
VERTEX2 536 9.84280298 -20.74367260 -0.20832727
VERTEX2 537 10.44814998 -20.88936349 -0.26593358
VERTEX2 538 11.00740856 -21.05582668 -0.29265814
VERTEX2 539 11.61519310 -21.26175455 -0.35697933
VERTEX2 540 12.20269621 -21.51188211 -0.44937249
VERTEX2 541 12.79027184 -21.73642466 -0.28646230
VERTEX2 542 13.42010882 -21.87408063 -0.23023465
VERTEX2 543 13.54038330 -21.90333743 -0.25940187
VERTEX2 544 13.55707894 -21.90149339 0.37896710
VERTEX2 545 13.57572182 -21.86680135 1.44752252
VERTEX2 546 13.59273736 -21.90956883 2.27415786
VERTEX2 547 13.60068436 -21.90895385 -2.98784792
VERTEX2 548 13.61495861 -21.89958770 -2.06540061
VERTEX2 549 13.61682569 -21.88585988 -1.25918685
VERTEX2 550 13.61524973 -21.86251950 -1.73922939
VERTEX2 551 13.62555290 -21.84117088 -2.36685958
VERTEX2 552 13.64819284 -21.82968506 -3.00057625
VERTEX2 553 13.51313343 -21.77911514 2.70419779
VERTEX2 554 12.92152738 -21.49919330 2.66829732
VERTEX2 555 12.34287560 -21.22804019 2.75668848
VERTEX2 556 11.74007751 -21.01323175 2.89127891
VERTEX2 557 11.13970023 -20.84505741 2.84981615
VERTEX2 558 10.56353828 -20.69046677 2.93058406
VERTEX2 559 10.57125722 -20.69304137 2.52317509
VERTEX2 560 10.56351864 -20.68470448 2.02172773
VERTEX2 561 10.53931229 -20.66133847 2.52644091
VERTEX2 562 10.36207702 -20.66176672 -3.11379616
VERTEX2 563 9.79235108 -20.58437520 2.97726481
VERTEX2 564 9.18796325 -20.49383903 3.02580949
VERTEX2 565 8.59737342 -20.42332580 2.96823188
VERTEX2 566 8.65797887 -20.44208803 -2.53134822
VERTEX2 567 8.56449636 -20.44912133 -1.73814636
VERTEX2 568 8.51411734 -20.95722377 -1.67404215
VERTEX2 569 8.46328714 -21.53276043 -1.71319811
VERTEX2 570 8.39504272 -22.11339308 -1.70845054
VERTEX2 571 8.34285975 -22.46876925 -1.75590934
VERTEX2 572 8.30899214 -22.49357954 -1.99907585
VERTEX2 573 8.27403254 -22.57304911 -1.72271727
VERTEX2 574 8.29449304 -22.60174029 -0.78319344
VERTEX2 575 8.44947041 -22.65218521 0.13745198
VERTEX2 576 8.44921467 -22.65197994 1.16513492
VERTEX2 577 8.44253626 -22.63437834 2.13725296
VERTEX2 578 8.43299215 -22.60223842 1.77309956
VERTEX2 579 8.30750598 -21.95053129 1.78814351
VERTEX2 580 8.14508968 -21.31112921 1.86331750
VERTEX2 581 7.95003738 -20.68778548 1.90573202
VERTEX2 582 7.72754534 -20.07357214 1.94890773
VERTEX2 583 7.59715617 -19.76543965 2.02832338
VERTEX2 584 7.59161003 -19.75471490 2.87231034
VERTEX2 585 7.00827530 -19.61557612 2.99077401
VERTEX2 586 6.41454547 -19.54205907 3.08851057
VERTEX2 587 5.79589596 -19.53221805 3.11409245
VERTEX2 588 5.16626370 -19.50748621 3.11873505
VERTEX2 589 4.62785127 -19.53306591 -3.08913940
VERTEX2 590 4.07861443 -19.57799857 -3.02044902
VERTEX2 591 3.53986921 -19.65771267 -3.02238146
VERTEX2 592 2.99208675 -19.73286769 -3.02514238
VERTEX2 593 2.81467590 -19.75541688 -2.81993500
VERTEX2 594 2.85802545 -19.70854839 -1.89965372
VERTEX2 595 2.74634352 -20.31452675 -1.66684406
VERTEX2 596 2.69515581 -20.93965875 -1.69014058
VERTEX2 597 2.60467846 -21.61530921 -1.73026189
VERTEX2 598 2.50280256 -22.21364354 -1.77241006
VERTEX2 599 2.41510640 -22.59085316 -1.83858027
VERTEX2 600 2.41532203 -22.60695245 -1.03199352
VERTEX2 601 2.45588300 -22.63185255 -0.01379331
VERTEX2 602 2.49133270 -22.61751486 1.00027961
VERTEX2 603 2.45651153 -22.38258518 1.77294104
VERTEX2 604 2.39531498 -21.77011346 1.52886164
VERTEX2 605 2.40346138 -21.12191575 1.61165967
VERTEX2 606 2.36206629 -20.47398559 1.65393533
VERTEX2 607 2.37227066 -19.88360254 1.57312620
VERTEX2 608 2.35848320 -19.49714393 1.61780815
VERTEX2 609 2.35457338 -19.47442182 1.95447127
VERTEX2 610 2.34485358 -19.47092889 2.88786095
VERTEX2 611 1.74732570 -19.32163426 2.89107615
VERTEX2 612 1.27267650 -19.18777988 2.89413889
VERTEX2 613 1.31400862 -19.20027768 -2.92528224
VERTEX2 614 1.32217601 -19.19407184 -1.88733158
VERTEX2 615 1.33543651 -19.68255344 -1.58282301
VERTEX2 616 1.34281879 -20.30736488 -1.63402631
VERTEX2 617 1.20522092 -20.91038019 -1.85096097
VERTEX2 618 1.03629916 -21.51616566 -1.84067841
VERTEX2 619 0.87569779 -22.08743895 -1.84189278
VERTEX2 620 0.69257980 -22.66308953 -1.93780496
VERTEX2 621 0.82113053 -22.33016338 -1.98908995
VERTEX2 622 0.94432443 -22.06625017 -2.06385008
VERTEX2 623 0.94388756 -22.06684347 -2.60042373
VERTEX2 624 0.91542552 -22.06658100 3.04073942
VERTEX2 625 0.87485971 -22.05024074 2.38279436
VERTEX2 626 0.84741574 -22.01879562 1.76531772
VERTEX2 627 0.91980640 -21.64720089 1.35488743
VERTEX2 628 1.09834228 -21.02071832 1.25407688
VERTEX2 629 1.26982385 -20.39359566 1.32511274
VERTEX2 630 1.39521880 -19.78640165 1.41007688
VERTEX2 631 1.46725769 -19.25728445 1.43010445
VERTEX2 632 1.46988228 -19.24172567 2.10578756
VERTEX2 633 1.37283163 -19.23521745 -3.09144410
VERTEX2 634 0.70658458 -19.27260897 -3.06411096
VERTEX2 635 0.05456012 -19.28387842 3.08398454
VERTEX2 636 -0.58607725 -19.25590373 3.06635443
VERTEX2 637 -1.21324001 -19.18223561 2.96701420
VERTEX2 638 -1.60356562 -19.10293544 2.93743107
VERTEX2 639 -2.21233543 -19.00081377 3.01774350
VERTEX2 640 -2.82531566 -18.89248567 2.94982921
VERTEX2 641 -3.42372680 -18.78246239 2.94148526
VERTEX2 642 -3.99794628 -18.64615900 2.89614254
VERTEX2 643 -4.48100080 -18.50952646 2.82883299
VERTEX2 644 -4.48367320 -18.51013407 -2.69758952
VERTEX2 645 -4.52006489 -18.65197038 -1.92012567
VERTEX2 646 -4.65612443 -19.25888825 -1.62461322
VERTEX2 647 -4.61220978 -19.89842681 -1.33561632
VERTEX2 648 -4.38855588 -20.52331480 -1.16935923
VERTEX2 649 -4.21426825 -21.12197537 -1.50698605
VERTEX2 650 -4.31444591 -21.75114789 -1.76436758
VERTEX2 651 -4.33186839 -21.89730396 -0.96500365
VERTEX2 652 -4.26957129 -21.92526039 0.05990245
VERTEX2 653 -4.22439568 -21.88462438 1.09028292
VERTEX2 654 -4.23359714 -21.58892501 1.60341912
VERTEX2 655 -4.24434658 -21.03648363 1.59839666
VERTEX2 656 -4.24389890 -20.43535134 1.58574591
VERTEX2 657 -4.35103274 -19.82469844 1.86234475
VERTEX2 658 -4.54164819 -19.20830474 1.85516545
VERTEX2 659 -4.65665321 -18.71540215 1.78399372
VERTEX2 660 -4.65967163 -18.70037030 2.38407707
VERTEX2 661 -4.83742438 -18.68087507 3.03748604
VERTEX2 662 -5.43020317 -18.62186378 3.10707711
VERTEX2 663 -6.01676041 -18.63654681 -3.07509378
VERTEX2 664 -6.02449556 -18.63456150 -2.55187654
VERTEX2 665 -6.04043825 -18.73591407 -1.71822790
VERTEX2 666 -6.11190355 -19.34417406 -1.68109353
VERTEX2 667 -6.16875402 -19.91028170 -1.67647742
VERTEX2 668 -6.23199804 -20.50384298 -1.65070169
VERTEX2 669 -6.28018926 -21.12915394 -1.67583876
VERTEX2 670 -6.37934379 -21.74667271 -1.73532374
VERTEX2 671 -6.42674657 -22.03909893 -1.68034868
VERTEX2 672 -6.32522051 -21.45825074 -1.76946986
VERTEX2 673 -6.25915253 -21.19150289 -1.90003254
VERTEX2 674 -6.24623139 -21.17785384 -2.54819709
VERTEX2 675 -6.22268961 -21.17286294 3.12634797
VERTEX2 676 -6.21650361 -21.17648047 2.50298852
VERTEX2 677 -6.21184972 -21.18290108 1.88712615
VERTEX2 678 -6.18387591 -20.96076056 1.44116904
VERTEX2 679 -6.11996431 -20.38171396 1.50373957
VERTEX2 680 -6.14764171 -19.93346950 1.84860680
VERTEX2 681 -6.29990919 -19.34212088 1.82109067
VERTEX2 682 -6.47228827 -18.73625590 1.86876327
VERTEX2 683 -6.56461388 -18.45403005 2.02791920
VERTEX2 684 -6.51220150 -18.50742517 3.10803413
VERTEX2 685 -6.91570190 -18.66861331 -2.73130544
VERTEX2 686 -7.36254809 -18.80579474 -2.87543689
VERTEX2 687 -7.95664837 -18.95768774 -2.91034921
VERTEX2 688 -8.55410522 -19.07863692 -2.92202743
VERTEX2 689 -9.11788599 -19.21847251 -2.89426526
VERTEX2 690 -9.65314834 -19.38828863 -2.81998680
VERTEX2 691 -10.04762509 -19.52033822 -2.84791897
VERTEX2 692 -10.03245116 -19.51356226 -2.31351781
VERTEX2 693 -10.00975571 -19.58462111 -1.27283121
VERTEX2 694 -9.98588387 -19.65539295 -0.43714440
VERTEX2 695 -9.96761786 -19.65015407 0.36270300
VERTEX2 696 -9.96179061 -19.64632203 1.38798932
VERTEX2 697 -9.97363584 -19.68550352 1.13493514
VERTEX2 698 -9.64381797 -19.47592050 0.48003092
VERTEX2 699 -9.08071031 -19.16167039 0.59401259
VERTEX2 700 -8.56788659 -18.79874937 0.64749604
VERTEX2 701 -8.13461594 -18.43519874 0.70662099
VERTEX2 702 -7.65582994 -18.11911120 0.59141608
VERTEX2 703 -7.14394346 -17.78170325 0.62563357
VERTEX2 704 -6.65338508 -17.40056228 0.64378747
VERTEX2 705 -6.14300844 -16.97925378 0.71403856
VERTEX2 706 -5.71329407 -16.66082768 0.44505970
VERTEX2 707 -5.68799282 -16.65944257 -0.07517698
VERTEX2 708 -5.67803360 -16.66518533 -0.71364666
VERTEX2 709 -5.71790043 -16.62233620 -1.04572443
VERTEX2 710 -5.72228408 -16.61104208 -1.60683238
VERTEX2 711 -5.71281181 -16.61958021 -2.20355554
VERTEX2 712 -5.69259101 -16.60405440 -2.76398567
VERTEX2 713 -6.16550518 -16.65490187 -3.04933220
VERTEX2 714 -6.71881054 -16.63026579 3.03633500
VERTEX2 715 -7.34445459 -16.59384025 3.13995339
VERTEX2 716 -7.97749470 -16.57233135 3.00193790
VERTEX2 717 -8.59771533 -16.50501472 3.08671472
VERTEX2 718 -9.35886195 -16.38706370 2.91137037
VERTEX2 719 -9.97476918 -16.27237525 2.98587168
VERTEX2 720 -10.58652534 -16.16060183 2.92670648
VERTEX2 721 -11.20322340 -16.04541482 2.99497078
VERTEX2 722 -11.21861550 -16.04323774 3.06171622
VERTEX2 723 -11.23766868 -16.06293424 -2.13132598
VERTEX2 724 -11.23772499 -16.10519347 -1.06225651
VERTEX2 725 -11.21059845 -16.12338368 -0.42828861
VERTEX2 726 -10.88513837 -16.11925226 0.02560748
VERTEX2 727 -10.24767395 -16.08103828 0.05620675
VERTEX2 728 -9.60744351 -16.05718213 0.05745849
VERTEX2 729 -8.97278013 -15.99767067 0.11538691
VERTEX2 730 -8.35295817 -15.90634251 0.15318200
VERTEX2 731 -7.70260766 -15.80543974 0.16568234
VERTEX2 732 -7.55819975 -15.77626201 0.61285963
VERTEX2 733 -7.55925167 -15.77456204 1.61056859
VERTEX2 734 -7.62007210 -15.21263504 1.68900823
VERTEX2 735 -7.68338025 -14.60439125 1.65728438
VERTEX2 736 -7.68460259 -14.58715344 2.25757910
VERTEX2 737 -7.67732810 -14.58806422 3.05930364
VERTEX2 738 -8.25487553 -14.55059792 3.07869211
VERTEX2 739 -8.85728866 -14.45905046 3.02143052
VERTEX2 740 -9.36073196 -14.42208334 3.08446590
VERTEX2 741 -9.34122820 -14.42175663 2.71523480
VERTEX2 742 -9.33989493 -14.42269686 2.06189389
VERTEX2 743 -9.34095799 -14.41811630 1.44455658
VERTEX2 744 -9.33276295 -14.39911836 0.90471684
VERTEX2 745 -9.31472392 -14.38959483 0.31071679
VERTEX2 746 -8.77194459 -14.40599506 -0.16457095
VERTEX2 747 -8.12573084 -14.51866295 -0.20000929
VERTEX2 748 -7.54753411 -14.65974613 -0.26851898
VERTEX2 749 -7.46331161 -14.68047234 0.16037029
VERTEX2 750 -7.45474782 -14.66458229 1.08687849
VERTEX2 751 -7.48960011 -14.39464987 1.72673963
VERTEX2 752 -7.54905481 -13.77178986 1.62320704
VERTEX2 753 -7.58833480 -13.13330582 1.68621511
VERTEX2 754 -7.59754824 -12.49297443 1.52385646
VERTEX2 755 -7.58045320 -11.86006953 1.61031570
VERTEX2 756 -7.54471370 -11.22458288 1.43391009
VERTEX2 757 -7.47170344 -10.57950971 1.54580218
VERTEX2 758 -7.49371167 -10.00049855 1.68801071
VERTEX2 759 -7.48471636 -9.45323995 1.56798468
VERTEX2 760 -7.52533839 -8.84245977 1.67940252
VERTEX2 761 -7.52815140 -8.80495605 1.85982714
VERTEX2 762 -7.60339733 -8.77155772 2.69418843
VERTEX2 763 -8.17561563 -8.67022919 2.98657443
VERTEX2 764 -8.59351638 -8.59978761 2.95877006
VERTEX2 765 -8.58304098 -8.59956744 -2.68487954
VERTEX2 766 -8.58509523 -8.60629020 -1.68439960
VERTEX2 767 -8.57966869 -8.61993910 -0.75339380
VERTEX2 768 -8.55270409 -8.62152563 -0.03091445
VERTEX2 769 -7.91746895 -8.53077384 0.12603893
VERTEX2 770 -7.26515232 -8.46976988 0.05895532
VERTEX2 771 -7.17683924 -8.46215143 0.61953070
VERTEX2 772 -7.17404652 -8.45320559 1.48720798
VERTEX2 773 -7.15178092 -7.87612246 1.57306625
VERTEX2 774 -7.16556608 -7.33060085 1.59521529
VERTEX2 775 -7.16440764 -7.33555270 2.44027443
VERTEX2 776 -7.37396520 -7.31060767 3.05780232
VERTEX2 777 -7.98762774 -7.27031350 3.11689234
VERTEX2 778 -8.60070124 -7.26121576 3.09599409
VERTEX2 779 -9.21193048 -7.24130821 3.11404782
VERTEX2 780 -9.41555539 -7.22409930 2.98375560
VERTEX2 781 -9.41164117 -7.22548821 2.41070243
VERTEX2 782 -9.53846083 -6.95540347 1.98140723
VERTEX2 783 -9.77340097 -6.38432265 1.98093192
VERTEX2 784 -9.87216879 -6.15946141 1.95973518
VERTEX2 785 -9.87299718 -6.13729515 1.40805889
VERTEX2 786 -9.86609829 -6.11445742 0.82003755
VERTEX2 787 -9.85092768 -6.09886495 0.32963522
VERTEX2 788 -9.82501296 -6.10057202 -0.29918181
VERTEX2 789 -9.81379100 -6.10933837 -0.85086921
VERTEX2 790 -9.50556517 -6.50505593 -0.91789520
VERTEX2 791 -9.09879243 -6.98712191 -0.81907135
VERTEX2 792 -8.86210868 -7.19696386 -0.11433819
VERTEX2 793 -8.24830046 -7.24786585 -0.06949310
VERTEX2 794 -7.61325948 -7.27505476 0.00157854
VERTEX2 795 -7.63968827 -7.29458371 0.43070778
VERTEX2 796 -7.64996753 -7.29878415 1.08971100
VERTEX2 797 -7.57584556 -6.98849381 1.34966782
VERTEX2 798 -7.44137899 -6.36096590 1.39965372
VERTEX2 799 -7.35489637 -5.71516300 1.46520381
VERTEX2 800 -7.30131999 -5.06711847 1.53791373
VERTEX2 801 -7.31231863 -4.43592692 1.62388317
VERTEX2 802 -7.36617737 -3.81127153 1.68162275
VERTEX2 803 -7.34887634 -3.18337557 1.51699367
VERTEX2 804 -7.32866787 -2.55674240 1.57292404
VERTEX2 805 -7.36183280 -1.92694825 1.64923461
VERTEX2 806 -7.42171241 -1.32915974 1.69066819
VERTEX2 807 -7.44901336 -1.14455626 1.97877396
VERTEX2 808 -7.45386212 -1.14445935 2.92708260
VERTEX2 809 -8.04553468 -1.11534649 3.07176099
VERTEX2 810 -8.66292416 -0.99186552 2.93161306
VERTEX2 811 -9.26190570 -0.88009831 2.92833600
VERTEX2 812 -9.26430425 -0.87963068 -2.62307041
VERTEX2 813 -9.27402499 -0.90130726 -1.64776089
VERTEX2 814 -9.26785216 -0.90619281 -0.65553409
VERTEX2 815 -9.24369458 -0.91433617 0.26373152
VERTEX2 816 -9.23494644 -0.90955139 0.94488141
VERTEX2 817 -9.22363504 -0.90243505 0.27611294
VERTEX2 818 -9.00150391 -0.93634067 -0.21277928
VERTEX2 819 -8.41065205 -1.06410449 -0.19865567
VERTEX2 820 -7.81737272 -1.19595557 -0.23988523
VERTEX2 821 -7.27158034 -1.32686175 -0.22408594
VERTEX2 822 -7.22384386 -1.33412216 0.53740838
VERTEX2 823 -7.22257976 -1.32061832 1.45662700
VERTEX2 824 -7.15873790 -0.69975794 1.37730310
VERTEX2 825 -7.01491512 -0.07756485 1.34764730
VERTEX2 826 -6.95773937 0.55325442 1.51060468
VERTEX2 827 -6.89375722 1.17580111 1.46196752
VERTEX2 828 -6.83947171 1.80576924 1.49751121
VERTEX2 829 -6.77868664 2.40951377 1.45777938
VERTEX2 830 -6.70395802 3.01857855 1.44947088
VERTEX2 831 -6.60999195 3.59597500 1.40268675
VERTEX2 832 -6.51996459 4.15905290 1.39912924
VERTEX2 833 -6.47603601 4.41445237 1.53679466
VERTEX2 834 -6.47801764 4.42146966 2.59148444
VERTEX2 835 -6.49135603 4.42300246 -2.91401183
VERTEX2 836 -6.50368233 4.41258690 -1.97092225
VERTEX2 837 -6.50029066 4.39409472 -0.93453132
VERTEX2 838 -6.48885628 4.38697457 -0.07231246
VERTEX2 839 -6.48862603 4.38686571 -0.29057122
VERTEX2 840 -6.47786296 4.37843332 -0.85320855
VERTEX2 841 -6.47029969 4.36323599 -1.47028237
VERTEX2 842 -6.49646318 4.11727755 -1.70110677
VERTEX2 843 -6.57471544 3.55333235 -1.70363904
VERTEX2 844 -6.64997751 2.92740766 -1.71166643
VERTEX2 845 -6.74378820 2.30199211 -1.72639933
VERTEX2 846 -6.82970294 1.67235984 -1.72468290
VERTEX2 847 -6.93953380 1.05055013 -1.75144494
VERTEX2 848 -6.97028335 0.85509164 -1.27104744
VERTEX2 849 -6.96964616 0.85486898 -0.34893306
VERTEX2 850 -6.61455136 0.85144817 0.00442870
VERTEX2 851 -5.98739542 0.82556911 -0.08809388
VERTEX2 852 -5.36311646 0.76450989 -0.07369735
VERTEX2 853 -4.76839928 0.72214652 -0.10163565
VERTEX2 854 -4.18131335 0.65448940 -0.09964467
VERTEX2 855 -3.58655410 0.60371901 -0.10145439
VERTEX2 856 -2.93353273 0.51825822 -0.14213748
VERTEX2 857 -2.28168135 0.42911658 -0.15167746
VERTEX2 858 -1.63622088 0.30756840 -0.20618378
VERTEX2 859 -1.11862070 0.20417386 -0.21303494
VERTEX2 860 -1.09333058 0.21460376 0.63779636
VERTEX2 861 -1.07791757 0.32373653 1.55262786
VERTEX2 862 -1.03990945 0.98284507 1.49300933
VERTEX2 863 -0.98284960 1.62651174 1.46052798
VERTEX2 864 -0.89616197 2.23610544 1.45841377
VERTEX2 865 -0.85514307 2.84694358 1.51603830
VERTEX2 866 -0.81066503 3.43225872 1.51491524
VERTEX2 867 -0.80324964 3.59566229 1.69612400
VERTEX2 868 -0.81049653 3.60481865 2.71991250
VERTEX2 869 -0.80055752 3.60495378 -2.58492482
VERTEX2 870 -0.78161957 3.61513872 -1.58546289
VERTEX2 871 -0.76700935 3.60524079 -0.61175670
VERTEX2 872 -0.74867480 3.59200681 0.07350890
VERTEX2 873 -0.72169393 3.58302234 -0.49905937
VERTEX2 874 -0.70044208 3.56382764 -1.05866525
VERTEX2 875 -0.69396568 3.54859089 -1.64517815
VERTEX2 876 -0.81404955 2.99186249 -1.80274230
VERTEX2 877 -0.96645622 2.44921251 -1.88739435
VERTEX2 878 -1.01718658 2.24881295 -1.50442968
VERTEX2 879 -0.91603217 1.60978502 -1.45339812
VERTEX2 880 -0.88048379 1.16015207 -1.56608346
VERTEX2 881 -0.88085234 1.20939541 -1.56073751
VERTEX2 882 -0.93752840 0.56923078 -1.80725352
VERTEX2 883 -1.15251713 -0.02376458 -1.99800529
VERTEX2 884 -1.31009570 -0.35376970 -2.06499564
VERTEX2 885 -1.31016257 -0.35187041 -1.48349497
VERTEX2 886 -1.29332875 -0.36765242 -0.46564476
VERTEX2 887 -1.26427283 -0.37897186 0.54550872
VERTEX2 888 -1.25312765 -0.35557279 1.52944056
VERTEX2 889 -1.25516200 -0.34968893 2.42736374
VERTEX2 890 -1.57029845 -0.19702096 2.70125941
VERTEX2 891 -2.10709265 0.07004318 2.63093668
VERTEX2 892 -2.64035464 0.38972612 2.59537792
VERTEX2 893 -3.19281839 0.68584038 2.83168358
VERTEX2 894 -3.80488363 0.79745545 3.05276781
VERTEX2 895 -4.40309541 0.74923639 -2.93211091
VERTEX2 896 -4.42163115 0.74482247 -2.45357568
VERTEX2 897 -4.70643433 0.32394423 -2.18127211
VERTEX2 898 -5.05812887 -0.18513261 -2.16568864
VERTEX2 899 -5.34436688 -0.59392777 -2.23331631
VERTEX2 900 -5.75762170 -1.13693289 -2.23561651
VERTEX2 901 -6.12905012 -1.58009933 -2.29989975
VERTEX2 902 -6.54507584 -2.07045142 -2.27458804
VERTEX2 903 -6.86090317 -2.44834279 -2.31928014
VERTEX2 904 -6.86159838 -2.44934954 -1.61610469
VERTEX2 905 -6.84846031 -2.94067968 -1.56060717
VERTEX2 906 -6.81535722 -3.51019934 -1.49486256
VERTEX2 907 -6.76000893 -4.08287392 -1.50302125
VERTEX2 908 -6.71458978 -4.70414149 -1.47823224
VERTEX2 909 -6.65493248 -5.31559144 -1.49614453
VERTEX2 910 -6.68258048 -5.44384361 -1.86601979
VERTEX2 911 -6.84306684 -6.01342305 -1.80513873
VERTEX2 912 -6.96457177 -6.57582265 -1.79251514
VERTEX2 913 -7.07712565 -7.11621060 -1.78457260
VERTEX2 914 -7.20365898 -7.70279763 -1.80821579
VERTEX2 915 -7.32752303 -8.21037069 -1.84491040
VERTEX2 916 -7.26372780 -8.45334666 -1.29732177
VERTEX2 917 -7.12554972 -9.10122216 -1.55169591
VERTEX2 918 -7.14611332 -9.61805731 -1.62719589
VERTEX2 919 -7.18016041 -10.24071115 -1.67047835
VERTEX2 920 -7.24503144 -10.85372244 -1.68802870
VERTEX2 921 -7.31870310 -11.46796227 -1.74132996
VERTEX2 922 -7.42151058 -12.07070717 -1.76849874
VERTEX2 923 -7.54186804 -12.63613286 -1.83191210
VERTEX2 924 -7.67390739 -13.12869652 -1.81525637
VERTEX2 925 -7.67490036 -13.12375906 -1.31048286
VERTEX2 926 -7.51518820 -13.68569735 -1.29426893
VERTEX2 927 -7.34865309 -14.27622357 -1.31756692
VERTEX2 928 -7.19118461 -14.88217391 -1.32649328
VERTEX2 929 -7.04023755 -15.48527926 -1.32738926
VERTEX2 930 -6.89286106 -16.11639143 -1.40997888
VERTEX2 931 -6.80657025 -16.74282193 -1.49021740
VERTEX2 932 -6.76040194 -17.36993434 -1.54966464
VERTEX2 933 -6.75696139 -17.98242909 -1.61426624
VERTEX2 934 -6.77156928 -18.46294811 -1.62409234
VERTEX2 935 -6.76881402 -18.47571890 -0.94187053
VERTEX2 936 -6.76684906 -18.47640888 0.00334153
VERTEX2 937 -6.22481265 -18.45132883 0.06623674
VERTEX2 938 -5.62873874 -18.46746707 -0.10714458
VERTEX2 939 -5.00475529 -18.52739402 -0.07940798
VERTEX2 940 -4.39322873 -18.60261799 -0.16526854
VERTEX2 941 -3.78884192 -18.71818568 -0.21892026
VERTEX2 942 -3.27058212 -18.83395230 -0.21442286
VERTEX2 943 -2.66186615 -18.96786460 -0.12609239
VERTEX2 944 -2.04917943 -19.05101584 -0.18274628
VERTEX2 945 -1.42871692 -19.17994190 -0.23786054
VERTEX2 946 -1.25479535 -19.22436876 -0.17352569
VERTEX2 947 -0.84699648 -19.16181301 0.15471620
VERTEX2 948 -0.27517092 -19.07313938 0.13558424
VERTEX2 949 0.32702846 -19.03920264 -0.02006401
VERTEX2 950 0.95654691 -19.07592353 -0.25956766
VERTEX2 951 1.55819729 -19.24923803 -0.33170305
VERTEX2 952 2.15956548 -19.42554630 -0.08089924
VERTEX2 953 2.78854197 -19.45769572 -0.00060388
VERTEX2 954 3.40821480 -19.45062265 -0.00757433
VERTEX2 955 3.99853803 -19.49682007 -0.16842219
VERTEX2 956 4.55016764 -19.57595364 -0.17073226
VERTEX2 957 5.08259766 -19.67289034 -0.25844480
VERTEX2 958 5.55041992 -19.78598932 -0.28519240
VERTEX2 959 5.98342896 -19.90537374 -0.35230641
VERTEX2 960 6.57230236 -20.06843949 -0.27244261
VERTEX2 961 7.15350568 -20.24280595 -0.29949766
VERTEX2 962 7.77051578 -20.37151955 -0.23390591
VERTEX2 963 8.38764539 -20.45249901 -0.04725855
VERTEX2 964 9.00933294 -20.49418651 -0.11117000
VERTEX2 965 9.62673459 -20.57338178 -0.11807358
VERTEX2 966 10.06959530 -20.63181314 -0.17708884
VERTEX2 967 10.10187467 -20.62525718 0.67617831
VERTEX2 968 10.10964741 -20.61790766 1.57277293
VERTEX2 969 10.11198901 -20.64516748 1.63219300
VERTEX2 970 10.11445323 -20.67268950 1.63041859
VERTEX2 971 10.09373895 -20.33901899 1.63050713
VERTEX2 972 10.05462189 -19.75207442 1.63607260
VERTEX2 973 10.13373417 -19.16967728 1.35096281
VERTEX2 974 10.27259051 -18.56773306 1.38268551
VERTEX2 975 10.38361052 -17.96167777 1.38718769
VERTEX2 976 10.48792927 -17.35297300 1.39997312
VERTEX2 977 10.62286754 -16.73472847 1.37351271
VERTEX2 978 10.74316714 -16.12254306 1.41927428
VERTEX2 979 10.85740709 -15.51409478 1.40677765
VERTEX2 980 10.95470006 -14.90848263 1.45343329
VERTEX2 981 11.04303246 -14.31319502 1.46006304
VERTEX2 982 11.09903256 -13.78389318 1.50468519
VERTEX2 983 11.14802280 -13.18589149 1.50148115
VERTEX2 984 11.17454731 -12.59000342 1.55901424
VERTEX2 985 11.18462485 -11.99291447 1.57941964
VERTEX2 986 11.16872801 -11.37181810 1.61585007
VERTEX2 987 11.15505328 -10.75224385 1.57922063
VERTEX2 988 11.15676979 -10.13324764 1.59295677
VERTEX2 989 11.14162191 -9.51911254 1.60057798
VERTEX2 990 11.13433350 -8.90829704 1.58977885
VERTEX2 991 11.11861813 -8.29395522 1.61459217
VERTEX2 992 11.11315531 -7.70755120 1.58199638
VERTEX2 993 11.09907528 -7.09168475 1.61474557
VERTEX2 994 11.08239779 -6.50656402 1.60480174
VERTEX2 995 11.05072884 -5.91646997 1.65217447
VERTEX2 996 10.99141238 -5.31145635 1.67940803
VERTEX2 997 10.94678482 -4.66776186 1.61511552
VERTEX2 998 10.92709146 -4.26627439 1.63709468
VERTEX2 999 10.95882127 -4.29192510 2.35528390
VERTEX2 1000 10.50019786 -3.93543161 2.50408310
VERTEX2 1001 10.06456343 -3.53909196 2.18333387
VERTEX2 1002 9.70060905 -3.07198334 2.27614152
VERTEX2 1003 9.35345183 -2.57776649 2.09670412
VERTEX2 1004 9.01446469 -2.04262405 2.15495150
VERTEX2 1005 8.66068748 -1.54964822 2.21738046
VERTEX2 1006 8.26459987 -1.07267348 2.29473985
VERTEX2 1007 7.85143155 -0.64741051 2.38636661
VERTEX2 1008 7.61534559 -0.43277306 2.54584061
VERTEX2 1009 7.51708625 -0.41801646 3.01861181
VERTEX2 1010 6.94981221 -0.36266603 3.07108121
VERTEX2 1011 6.33311791 -0.32376414 3.02787373
VERTEX2 1012 5.72255877 -0.26075666 3.06968818
VERTEX2 1013 5.08571399 -0.26356406 -3.09862797
VERTEX2 1014 4.47182262 -0.21558881 3.00916401
VERTEX2 1015 3.84597607 -0.17619091 3.09356182
VERTEX2 1016 3.07556449 -0.13843328 3.10023968
VERTEX2 1017 2.48954424 -0.12492274 3.04301838
VERTEX2 1018 1.93100071 -0.06285656 3.05025667
VERTEX2 1019 1.33542621 -0.03813597 3.10974529
VERTEX2 1020 0.71959390 -0.00186684 3.09574532
VERTEX2 1021 0.09787632 0.02756039 3.05509372
VERTEX2 1022 0.04368020 0.03206359 3.04781998
VERTEX2 1023 0.04996543 0.03194014 3.13435794
VERTEX2 1024 -0.57758301 0.04008766 -3.12254175
VERTEX2 1025 -1.20723684 0.00995701 -3.10501232
VERTEX2 1026 -1.36920621 0.00453947 -3.09787873
VERTEX2 1027 -1.35316349 0.01238549 -2.18150098
VERTEX2 1028 -1.36632677 -0.15250609 -1.61813742
VERTEX2 1029 -1.39551696 -0.71716588 -1.63973560
VERTEX2 1030 -1.45973999 -1.34073802 -1.72032420
VERTEX2 1031 -1.57329950 -1.98778410 -1.77465570
VERTEX2 1032 -1.70489703 -2.63464197 -1.77079616
VERTEX2 1033 -1.84962442 -3.28010381 -1.81616386
VERTEX2 1034 -1.89492263 -3.45203519 -2.03024716
VERTEX2 1035 -1.89763189 -3.45433204 -2.65012173
VERTEX2 1036 -1.85920210 -3.47219957 3.06168395
VERTEX2 1037 -2.20066744 -3.34092107 2.82342134
VERTEX2 1038 -2.81326325 -3.21645984 2.91474115
VERTEX2 1039 -3.45285458 -3.04449980 2.88331437
VERTEX2 1040 -3.42840576 -3.04514951 -2.76951449
VERTEX2 1041 -3.40113578 -3.04879593 -1.75210246
VERTEX2 1042 -3.40280800 -3.07846496 -0.76371600
VERTEX2 1043 -3.37157785 -3.10728302 0.20632109
VERTEX2 1044 -3.38412703 -3.12208682 1.20056895
VERTEX2 1045 -3.38637137 -3.12702816 1.08663543
VERTEX2 1046 -3.39590705 -3.13985140 0.70124508
VERTEX2 1047 -3.41458686 -3.14798843 0.14565588
VERTEX2 1048 -3.05335392 -3.21680633 -0.16721383
VERTEX2 1049 -2.40905240 -3.31459813 -0.14998806
VERTEX2 1050 -1.76292150 -3.38464254 -0.07424023
VERTEX2 1051 -1.10574991 -3.45788004 -0.15329001
VERTEX2 1052 -0.48438831 -3.53811709 -0.10029187
VERTEX2 1053 -0.06961754 -3.59191268 -0.15287917
VERTEX2 1054 -0.04649625 -3.59433181 0.60953538
VERTEX2 1055 -0.04013479 -3.56421731 1.66601196
VERTEX2 1056 -0.03338141 -3.57393735 2.67017674
VERTEX2 1057 -0.01126093 -3.57633102 -2.62217356
VERTEX2 1058 -0.01307982 -3.57847756 -1.70001077
VERTEX2 1059 -0.10986592 -4.15930062 -1.78075094
VERTEX2 1060 -0.24532505 -4.78767205 -1.77573015
VERTEX2 1061 -0.35160328 -5.23223979 -1.89823124
VERTEX2 1062 -0.35391670 -5.23583621 -2.46224787
VERTEX2 1063 -0.33407854 -5.22444890 -3.05975035
VERTEX2 1064 -0.62058194 -5.17095370 2.95834083
VERTEX2 1065 -1.21399923 -5.10393282 3.08045189
VERTEX2 1066 -1.78277890 -5.05176143 3.02448445
VERTEX2 1067 -1.77307342 -5.05124183 -2.82576224
VERTEX2 1068 -1.76130396 -5.04293578 -2.15261050
VERTEX2 1069 -1.76042152 -5.04053668 -1.98249701
VERTEX2 1070 -1.75835251 -5.03687713 -2.52191554
VERTEX2 1071 -2.22763806 -5.29272947 -2.64938200
VERTEX2 1072 -2.67518240 -5.52498171 -2.71827342
VERTEX2 1073 -2.64311989 -5.52412186 3.05329338
VERTEX2 1074 -3.17025475 -5.45315819 3.01871584
VERTEX2 1075 -3.74502802 -5.37772326 3.03507103
VERTEX2 1076 -3.77294948 -5.37555523 -2.84404222
VERTEX2 1077 -3.78465028 -5.39771712 -2.03872431
VERTEX2 1078 -4.02201211 -6.00403894 -1.99363561
VERTEX2 1079 -4.25370925 -6.56747243 -1.93154768
VERTEX2 1080 -4.25702083 -6.57633121 -2.41921487
VERTEX2 1081 -4.68684191 -6.86978622 -2.54246286
VERTEX2 1082 -4.85562303 -6.98769893 -2.26229520
VERTEX2 1083 -4.84984489 -7.03247833 -1.23653071
VERTEX2 1084 -4.77000708 -7.07399026 -0.27018357
VERTEX2 1085 -4.77311550 -7.07485765 0.71487570
VERTEX2 1086 -4.41244648 -6.58750499 0.94610405
VERTEX2 1087 -4.03267717 -6.08213184 0.93453636
VERTEX2 1088 -3.67180377 -5.57238114 0.91830272
VERTEX2 1089 -3.61742408 -5.50229780 0.82328516
VERTEX2 1090 -3.60859135 -5.49423657 0.20927631
VERTEX2 1091 -3.07136475 -5.46241904 0.03293924
VERTEX2 1092 -2.45267336 -5.44717263 0.01819906
VERTEX2 1093 -1.88032806 -5.45018432 -0.04692019
VERTEX2 1094 -1.86749636 -5.46238805 -0.45061837
VERTEX2 1095 -1.83706288 -5.48931876 -1.03984786
VERTEX2 1096 -1.83653497 -5.49180221 -1.61059206
VERTEX2 1097 -1.92020876 -5.82054134 -1.82575733
VERTEX2 1098 -2.09572027 -6.41480989 -1.88239966
VERTEX2 1099 -2.30352556 -6.97893466 -1.97804405
VERTEX2 1100 -2.31041317 -6.99648258 -1.61428429
VERTEX2 1101 -2.25160586 -7.25831140 -1.34779349
VERTEX2 1102 -2.25238353 -7.26794363 -1.74073824
VERTEX2 1103 -2.37857616 -7.87950351 -1.77410137
VERTEX2 1104 -2.51530570 -8.51749915 -1.80135679
VERTEX2 1105 -2.66918884 -9.14185902 -1.81879328
VERTEX2 1106 -2.79401618 -9.62115836 -1.84353967
VERTEX2 1107 -2.79331369 -9.62884380 -1.58668404
VERTEX2 1108 -2.76001975 -10.25492987 -1.57835164
VERTEX2 1109 -2.81108576 -10.90000690 -1.68165057
VERTEX2 1110 -2.88413174 -11.50926562 -1.73057000
VERTEX2 1111 -3.05302436 -12.04154435 -1.83115832
VERTEX2 1112 -3.08488759 -12.62175085 -1.48365077
VERTEX2 1113 -3.04595505 -13.26060661 -1.57828463
VERTEX2 1114 -3.05014945 -13.87786282 -1.56059356
VERTEX2 1115 -3.04148618 -14.45558904 -1.57665699
VERTEX2 1116 -3.02310496 -15.09830532 -1.54025385
VERTEX2 1117 -3.01947003 -15.19025406 -1.66784323
VERTEX2 1118 -3.01700125 -15.18552620 -2.27467773
VERTEX2 1119 -3.00888859 -15.17978132 -2.70603451
VERTEX2 1120 -3.57206405 -15.39243516 -2.76947587
VERTEX2 1121 -3.76342309 -15.46239613 -2.88784841
VERTEX2 1122 -3.76521664 -15.46179486 2.84542217
VERTEX2 1123 -4.32293891 -15.28214736 2.86253340
VERTEX2 1124 -4.88769486 -15.15952689 2.96150722
VERTEX2 1125 -5.52018719 -15.04138834 2.97521865
VERTEX2 1126 -5.60356028 -15.02914137 -2.96879794
VERTEX2 1127 -5.60660004 -15.02598698 -1.91300903
VERTEX2 1128 -5.60314065 -15.00815527 -0.92700484
VERTEX2 1129 -5.59260570 -15.01392810 0.08718311
VERTEX2 1130 -5.00382691 -14.94379868 0.10055973
VERTEX2 1131 -4.23223439 -15.06157964 -0.33198910
VERTEX2 1132 -3.62530170 -15.27264922 -0.35204595
VERTEX2 1133 -3.08280931 -15.49462409 -0.39115918
VERTEX2 1134 -2.83868238 -15.59552441 -0.48861962
VERTEX2 1135 -2.83674619 -15.59742293 -1.04560316
VERTEX2 1136 -2.83328737 -15.59015096 -1.60851335
VERTEX2 1137 -2.88509438 -15.88309800 -1.79303354
VERTEX2 1138 -3.03727449 -16.50729925 -1.80962846
VERTEX2 1139 -3.15596521 -17.00198459 -1.88275704
VERTEX2 1140 -3.14586727 -16.97777573 -2.36155654
VERTEX2 1141 -3.12410339 -16.95663114 -2.90876606
VERTEX2 1142 -3.48740641 -16.91293023 3.01023596
VERTEX2 1143 -4.08563065 -16.86557629 3.09972305
VERTEX2 1144 -4.66675895 -16.83059972 3.06918963
VERTEX2 1145 -5.24545037 -16.78433716 3.04380812
VERTEX2 1146 -5.82176772 -16.72638586 3.06363889
VERTEX2 1147 -6.40147939 -16.71557818 3.13644614
VERTEX2 1148 -6.98001543 -16.71235417 -3.13670718
VERTEX2 1149 -7.02279586 -16.71360438 -2.63845888
VERTEX2 1150 -7.11495159 -16.81574835 -1.82887830
VERTEX2 1151 -7.11288801 -16.82773210 -0.82504513
VERTEX2 1152 -7.09592829 -16.82804985 0.22808897
VERTEX2 1153 -7.08165664 -16.82162270 1.24088776
VERTEX2 1154 -7.14011331 -16.50526407 1.78690222
VERTEX2 1155 -7.27168311 -15.88135833 1.73753764
VERTEX2 1156 -7.36744536 -15.27612986 1.74754274
VERTEX2 1157 -7.49309252 -14.70555515 1.85863864
VERTEX2 1158 -7.61786858 -14.10394553 1.73006862
VERTEX2 1159 -7.67666242 -13.50227478 1.63594962
VERTEX2 1160 -7.69737859 -12.86385391 1.49913105
VERTEX2 1161 -7.59579629 -12.23303560 1.40938844
VERTEX2 1162 -7.50241335 -11.60195827 1.46747119
VERTEX2 1163 -7.43791975 -10.96002148 1.46200563
VERTEX2 1164 -7.38772170 -10.32010202 1.54744927
VERTEX2 1165 -7.37549125 -9.77993620 1.52466370
VERTEX2 1166 -7.37634175 -9.77575480 2.01371030
VERTEX2 1167 -7.32533933 -9.76344917 2.95050374
VERTEX2 1168 -7.28140491 -9.74605491 -2.42908093
VERTEX2 1169 -7.28541496 -9.79704092 -1.60694519
VERTEX2 1170 -7.29632618 -10.38260820 -1.60017767
VERTEX2 1171 -7.29687676 -11.01693759 -1.56836640
VERTEX2 1172 -7.30181669 -11.61532077 -1.63074403
VERTEX2 1173 -7.33235745 -12.23839937 -1.62156066
VERTEX2 1174 -7.37679512 -12.86666845 -1.69022391
VERTEX2 1175 -7.46342176 -13.47979201 -1.72358716
VERTEX2 1176 -7.56151501 -14.10056279 -1.76721856
VERTEX2 1177 -7.68172508 -14.70927203 -1.76513457
VERTEX2 1178 -7.81347631 -15.32189888 -1.81230564
VERTEX2 1179 -7.95166406 -15.92639398 -1.78292034
VERTEX2 1180 -8.00621083 -16.18017540 -1.78987152
VERTEX2 1181 -8.00540804 -16.17457018 -0.96228170
VERTEX2 1182 -7.94975023 -16.18875474 -0.25045831
VERTEX2 1183 -7.33612748 -16.33812607 -0.22512193
VERTEX2 1184 -6.70322010 -16.45335833 -0.15557406
VERTEX2 1185 -6.07521493 -16.56413317 -0.18783532
VERTEX2 1186 -5.44361678 -16.65942814 -0.12166571
VERTEX2 1187 -4.78967624 -16.74534092 -0.15878787
VERTEX2 1188 -4.16231995 -16.83563959 -0.14071837
VERTEX2 1189 -3.49605483 -16.94389614 -0.11907310
VERTEX2 1190 -3.16155308 -16.98458750 -0.11108829
VERTEX2 1191 -3.12644189 -16.98382257 0.80905983
VERTEX2 1192 -3.12083066 -16.90212478 1.60660453
VERTEX2 1193 -3.11460600 -16.30413906 1.47456196
VERTEX2 1194 -3.07389953 -15.73174359 1.51659999
VERTEX2 1195 -3.04600709 -15.11010987 1.56893603
VERTEX2 1196 -3.04074553 -14.48837268 1.39629455
VERTEX2 1197 -2.93820198 -13.87519325 1.40757292
VERTEX2 1198 -2.86861271 -13.25025043 1.66646058
VERTEX2 1199 -2.88648206 -12.63997449 1.45181766
VERTEX2 1200 -2.83028218 -12.01180823 1.52086643
VERTEX2 1201 -2.80626432 -11.39406653 1.57673047
VERTEX2 1202 -2.81739841 -10.77368349 1.59971094
VERTEX2 1203 -2.84865007 -10.18632106 1.50982653
VERTEX2 1204 -2.73540585 -9.59607530 1.36308841
VERTEX2 1205 -2.62801020 -9.03490983 1.39269557
VERTEX2 1206 -2.54350972 -8.44682429 1.45396576
VERTEX2 1207 -2.40717640 -7.83722119 1.36791473
VERTEX2 1208 -2.29570740 -7.21400823 1.43264261
VERTEX2 1209 -2.20968142 -6.59425816 1.43074591
VERTEX2 1210 -2.14572649 -5.97877604 1.45136319
VERTEX2 1211 -2.01966773 -5.36758561 1.37783798
VERTEX2 1212 -1.90444159 -4.75708380 1.42728684
VERTEX2 1213 -1.83668794 -4.14650972 1.50004850
VERTEX2 1214 -1.75363455 -3.42400317 1.27681116
VERTEX2 1215 -1.58787234 -2.83911706 1.33550141
VERTEX2 1216 -1.53674883 -2.28921711 1.55246136
VERTEX2 1217 -1.50144183 -1.71351704 1.53295047
VERTEX2 1218 -1.48734618 -1.12571820 1.48236807
VERTEX2 1219 -1.43647793 -0.47893226 1.51305486
VERTEX2 1220 -1.42923131 0.10577029 1.60389738
VERTEX2 1221 -1.42790996 0.10132034 1.15132975
VERTEX2 1222 -1.41829345 0.11068258 0.55424726
VERTEX2 1223 -1.40547168 0.11371932 -0.00516534
VERTEX2 1224 -0.83146939 0.02168919 -0.18807334
VERTEX2 1225 -0.21607307 -0.09146162 -0.17430934
VERTEX2 1226 -0.11120188 -0.11003974 -0.19104034
VERTEX2 1227 -0.11120188 -0.11003974 -0.19170234
