1 19 166 0 0.41485034 0.00211450 5 
2 19 172 0 0.02820697 0.00187165 4 
3 25 172 0 0.50366199 0.00187556 4 
4 25 178 0 0.30831851 0.00198317 4 
5 32 178 0 0.01493521 0.00198710 4 
6 66 179 2 839.70075818 0.00000203 1 
7 32 183 0 0.07055611 0.00201621 4 
8 44 189 0 0.52863102 0.00207776 4 
9 44 195 0 0.35755137 0.00217074 4 
10 50 195 0 0.00572854 0.00220126 4 
11 50 201 0 0.04110605 0.00190002 3 
12 50 203 0 0.06975183 0.00187508 3 
13 61 203 0 0.00745912 0.00190300 3 
14 61 209 0 0.37222863 0.00231180 4 
15 67 209 0 0.41032090 0.00232836 4 
16 67 220 0 0.66144083 0.00250012 4 
17 81 220 0 0.48035877 0.00285900 5 
18 81 226 0 0.05402805 0.00256985 4 
19 87 226 0 1.82553139 0.00293819 5 
20 87 231 0 0.34656585 0.00262763 4 
21 94 231 0 0.55778528 0.00256920 4 
22 226 231 0 1.44127402 0.00298726 5 
23 59 238 2 232.43387643 0.00000233 1 
24 94 241 0 1.33132047 0.00269398 4 
25 101 241 0 0.50961029 0.00271547 4 
26 101 247 0 1.66454674 0.00275872 4 
27 107 247 0 1.80094617 0.00278510 4 
28 107 254 0 1.18346605 0.00284265 4 
29 114 254 0 0.12939160 0.00286741 4 
30 107 256 0 0.93085039 0.00284675 4 
31 114 256 0 0.24629796 0.00285972 4 
32 107 258 0 1.37911724 0.00289567 4 
33 114 258 0 1.15747212 0.00293176 4 
34 121 266 0 0.00938596 0.00300988 4 
35 126 266 0 0.44864328 0.00354761 5 
36 126 272 0 1.03992836 0.00309987 4 
37 132 272 0 0.39070916 0.00364913 5 
38 132 278 0 0.58358145 0.00317663 4 
39 138 278 0 1.06458780 0.00372777 5 
40 138 284 0 0.02201259 0.00271412 3 
41 151 284 0 0.12777228 0.00329181 4 
42 151 291 0 0.60037557 0.00331963 4 
43 151 297 0 0.07972289 0.00285337 3 
44 157 297 0 1.04991834 0.00344987 4 
45 166 297 0 1.30507781 0.00338661 4 
46 19 305 0 0.16044642 0.00357458 4 
47 157 305 0 0.58687353 0.00360979 4 
48 163 305 0 7.56485476 0.00484973 6 
49 166 305 0 0.37495035 0.00360753 4 
50 172 305 0 0.01886255 0.00361108 4 
51 19 315 0 0.48455906 0.00310733 3 
52 25 315 0 0.02281386 0.00311650 3 
53 172 315 0 0.05679715 0.00373406 4 
54 172 328 0 0.12482725 0.00325972 3 
55 19 337 0 6.63404991 0.00466137 5 
56 25 337 0 0.96522419 0.00399758 4 
57 172 337 0 0.57611560 0.00334214 3 
58 19 342 0 0.00494520 0.00339040 3 
59 25 342 0 0.12855172 0.00406991 4 
60 172 342 0 0.01223902 0.00411815 4 
61 178 342 0 0.12442988 0.00417747 4 
62 25 367 0 0.11414782 0.00379701 3 
63 32 367 0 0.01267433 0.00596031 6 
64 178 367 0 0.00286807 0.00375526 3 
65 183 367 0 0.06698524 0.00376621 3 
66 25 374 0 0.56424690 0.00459594 4 
67 32 374 0 0.09892849 0.00532201 5 
68 178 374 0 0.03055075 0.00458411 4 
69 183 374 0 0.05309447 0.00457314 4 
70 230 377 2 723.78787924 0.00000325 1 
71 32 382 0 4.14688582 0.00392385 3 
72 183 382 0 1.28811506 0.00465943 4 
73 32 387 0 2.72468715 0.00473678 4 
74 183 387 0 0.18197642 0.00472616 4 
75 189 414 0 7.69047346 0.00586368 5 
76 44 437 0 0.00915802 0.00438720 3 
77 195 437 0 0.01161094 0.00437057 3 
78 44 454 0 0.65644164 0.00452582 3 
79 189 454 0 0.03962740 0.00542499 4 
80 44 467 0 0.12345281 0.00641988 5 
81 50 467 0 0.00895575 0.01026191 9 
82 195 467 0 0.00230988 0.00464323 3 
83 195 484 0 0.09447226 0.00573391 4 
84 44 494 0 0.02880924 0.00577099 4 
85 50 494 0 0.00628832 0.00484770 3 
86 195 494 0 0.00818961 0.00683172 5 
87 201 494 0 0.00469852 0.00683319 5 
88 234 499 2 2044.14692815 0.00000397 1 
89 50 500 0 0.14406209 0.00695146 5 
90 201 500 0 0.05353930 0.00489985 3 
91 203 500 0 0.03252445 0.00487532 3 
92 61 508 0 0.99413579 0.00711188 5 
93 203 508 0 0.26947301 0.01224791 10 
94 209 508 0 0.03711473 0.00605534 4 
95 61 522 0 1.37942234 0.00612811 4 
96 203 522 0 0.12859200 0.00510176 3 
97 209 522 0 0.00542469 0.00512861 3 
98 61 528 0 0.47936102 0.00516306 3 
99 67 528 0 0.22419307 0.00629556 4 
100 81 528 0 0.23233822 0.00841776 6 
101 209 528 0 0.09444678 0.01061849 8 
102 220 528 0 0.13668760 0.00625126 4 
103 67 532 0 0.05459173 0.01181764 9 
104 81 532 0 0.11826401 0.00847928 6 
105 220 532 0 0.05648169 0.00633662 4 
106 67 556 0 0.98233216 0.00649967 4 
107 67 564 0 0.40168838 0.01234718 9 
108 81 564 0 0.02280941 0.00663645 4 
109 220 564 0 0.02684857 0.00666644 4 
110 67 567 0 2.67253169 0.00781679 5 
111 81 567 0 0.48923871 0.00912037 6 
112 220 567 0 0.21723258 0.00665507 4 
113 67 570 0 2.40706627 0.00909341 6 
114 81 570 0 0.15671702 0.00902960 6 
115 220 570 0 0.13379867 0.00677364 4 
116 81 575 0 2.76594993 0.00792654 5 
117 220 575 0 1.08612706 0.01035379 7 
118 81 588 0 0.01497138 0.00567387 3 
119 87 588 0 0.47937722 0.00818843 5 
120 226 588 0 0.43156268 0.00691078 4 
121 246 596 2 50.55501404 0.00000364 1 
122 87 597 0 2.27648751 0.00955986 6 
123 94 597 0 0.38888315 0.00700774 4 
124 226 597 0 0.55079633 0.00832342 5 
125 87 604 0 0.47149562 0.00710632 4 
126 94 604 0 0.01542269 0.00840446 5 
127 94 616 0 0.01350372 0.01237980 8 
128 333 628 2 454.91849628 0.00000406 1 
129 94 632 0 2.16969694 0.00881038 5 
130 94 637 0 4.44236402 0.01008368 6 
131 101 637 0 0.19098383 0.00754506 4 
132 101 642 0 0.11555601 0.00890164 5 
133 107 642 0 0.04025021 0.01410832 9 
134 101 645 0 6.69527511 0.00763765 4 
135 107 645 0 1.54205090 0.00752384 4 
136 101 657 0 0.73548669 0.01668773 10 
137 101 663 0 0.04971914 0.01674661 10 
138 107 663 0 0.01781179 0.00916283 5 
139 114 663 0 0.00275957 0.00917939 5 
140 101 665 0 1.55112265 0.01349000 8 
141 107 665 0 0.47667103 0.00781252 4 
142 114 665 0 0.13329170 0.00650915 3 
143 152 665 2 3541.16350370 0.00000331 3 
144 44 666 2 1685.39317626 0.00000288 1 
145 107 680 0 1.48615866 0.00939679 5 
146 107 683 0 0.94462224 0.00804850 4 
147 114 683 0 0.32178225 0.00954658 5 
148 107 704 0 0.34268109 0.01264119 7 
149 114 704 0 0.07528002 0.01554896 9 
150 107 714 0 1.79639085 0.01135539 6 
151 114 714 0 0.02860377 0.01441457 8 
152 374 722 2 2765.19196003 0.00000456 1 
153 107 730 0 0.19656714 0.01019266 5 
154 114 730 0 0.03540690 0.00857477 4 
155 591 751 2 865.99444120 0.00000388 1 
156 121 754 0 0.33113739 0.00876650 4 
157 126 754 0 0.07673382 0.01515680 8 
158 121 759 0 2.33625684 0.01198361 6 
159 126 759 0 0.22329988 0.01206005 6 
160 126 762 0 7.08482229 0.01039810 5 
161 132 762 0 2.00372045 0.01538888 8 
162 132 778 0 0.06999780 0.00906156 4 
163 342 784 2 1890.25509019 0.00000446 1 
164 132 792 0 1.26802734 0.00931672 4 
165 132 800 0 3.35686460 0.00919766 4 
166 138 800 0 0.14494330 0.01259021 6 
167 138 806 0 0.25140739 0.00754982 3 
168 138 821 0 0.40674396 0.01109792 5 
169 138 823 0 6.54725682 0.00954812 4 
170 720 826 2 891.61486598 0.00000377 1 
171 151 828 0 3.12108818 0.00951084 4 
172 151 847 0 0.08724621 0.01149959 5 
173 151 855 0 0.11494457 0.01515880 7 
174 151 895 0 2.80701437 0.01763919 8 
175 151 897 0 0.06118057 0.02142405 10 
176 138 903 0 0.08157811 0.01026913 4 
177 138 904 0 7.06392298 0.01403637 6 
178 132 907 0 0.71874717 0.01030979 4 
179 138 907 0 0.22077132 0.01226039 5 
180 739 908 2 1649.86002088 0.00000417 1 
181 132 911 0 0.23128175 0.01225938 5 
182 545 916 2 598.48501724 0.00000374 1 
183 121 923 0 0.62636126 0.01438923 6 
184 126 923 0 0.07130653 0.01051951 4 
185 107 929 0 0.07225325 0.01258577 5 
186 114 929 0 0.00477553 0.01064038 4 
187 215 931 2 2584.22990151 0.00000452 1 
188 107 935 0 4.91438615 0.01653787 7 
189 114 935 0 1.40337639 0.01657054 7 
190 101 939 0 0.48567419 0.01073613 4 
191 107 939 0 0.21174614 0.01079026 4 
192 101 944 0 0.15377935 0.01281185 5 
193 94 947 0 0.23772432 0.01678378 7 
194 101 947 0 0.16826262 0.01487454 6 
195 87 953 0 0.13504795 0.01091252 4 
196 94 953 0 0.06505521 0.01495596 6 
197 226 953 0 0.08268323 0.02304724 10 
198 81 959 0 1.83528326 0.02443638 10 
199 87 959 0 1.29172246 0.01720048 7 
200 220 959 0 0.04883629 0.01108368 4 
201 226 959 0 0.12130941 0.01314771 5 
202 67 965 0 1.01368609 0.01323293 5 
203 81 965 0 0.31066014 0.01529305 6 
204 220 965 0 0.16483276 0.01939727 8 
205 427 968 2 1301.46929814 0.00000437 1 
206 61 976 0 0.16803746 0.01747154 7 
207 67 976 0 0.05676300 0.00922019 3 
208 209 976 0 0.00780965 0.01129517 4 
209 50 982 0 0.38354811 0.01139373 4 
210 61 982 0 0.27147698 0.01143796 4 
211 201 982 0 0.22200943 0.01144256 4 
212 203 982 0 0.10573284 0.02200558 9 
213 44 988 0 0.09550719 0.01154637 4 
214 50 988 0 0.05924873 0.01159355 4 
215 195 988 0 0.04319526 0.01579769 6 
216 201 988 0 0.02685916 0.01365650 5 
217 483 988 2 4044.45796801 0.00000422 5 
218 44 994 0 0.51683435 0.01797899 7 
219 189 994 0 0.29989154 0.02583585 10 
220 195 994 0 0.21957432 0.01381565 5 
221 32 1003 0 0.23901034 0.01389588 5 
222 178 1003 0 0.03356851 0.02607870 10 
223 183 1003 0 0.01433170 0.01611791 6 
224 25 1008 0 1.23858172 0.01841279 7 
225 32 1008 0 0.53803958 0.01186748 4 
226 178 1008 0 0.34459610 0.01186464 4 
227 183 1008 0 0.22233868 0.01192977 4 
228 25 1010 0 0.60236133 0.01186659 4 
229 32 1010 0 0.30591807 0.01408079 5 
230 172 1010 0 0.10368354 0.01635036 6 
231 178 1010 0 0.19279072 0.02648347 10 
232 19 1016 0 0.44047719 0.02069283 8 
233 166 1016 0 0.20189646 0.01191504 4 
234 172 1016 0 0.07393216 0.01411239 5 
235 151 1029 0 0.03533130 0.01438764 5 
236 157 1029 0 0.02672450 0.01210445 4 
237 163 1029 0 3.39703566 0.01211495 4 
238 166 1029 0 0.49353449 0.01210930 4 
239 300 1062 2 33.24859837 0.00000557 1 
240 132 1084 0 4.21993706 0.01505864 5 
241 825 1096 2 380.00544343 0.00000573 1 
242 1063 1099 2 454.11465848 0.00000577 1 
243 726 1113 2 716.35728093 0.00000549 1 
244 1081 1121 2 426.05974245 0.00000594 1 
245 101 1138 0 0.63021658 0.01578489 5 
246 107 1147 0 0.73708347 0.01342158 4 
247 114 1147 0 0.03971358 0.01096120 3 
248 1132 1147 2 291.59136564 0.00000462 3 
249 517 1149 2 874.63677104 0.00000571 1 
250 107 1150 0 7.45683387 0.01347690 4 
251 114 1150 0 1.00561260 0.01101464 3 
252 114 1158 0 0.16899687 0.01107175 3 
253 121 1158 0 0.69099743 0.01365192 4 
254 121 1164 0 0.45182924 0.01616496 5 
255 126 1164 0 0.04418665 0.01368846 4 
256 114 1175 0 0.14266969 0.01378451 4 
257 121 1175 0 0.27324351 0.01382766 4 
258 923 1175 0 0.18719011 0.01387005 4 
259 929 1175 0 0.16073549 0.01379987 4 
260 1158 1175 0 0.00134797 0.01125037 3 
261 101 1188 0 0.32950319 0.01392713 4 
262 939 1188 0 0.55418798 0.01401369 4 
263 1138 1188 0 0.03006025 0.01148511 3 
264 1147 1188 0 0.04063922 0.01139313 3 
265 1150 1188 0 1.83245351 0.01400845 4 
266 1050 1210 0 0.00345523 0.01408255 4 
267 1061 1210 0 0.57363906 0.01671151 5 
268 1075 1210 0 0.23107861 0.01670126 5 
269 1084 1210 0 3.13555510 0.01672230 5 
270 1088 1210 0 0.59156319 0.01412186 4 
271 1093 1210 0 0.13111230 0.01947493 6 
272 1098 1210 0 0.04730346 0.01425464 4 
273 157 1217 0 0.32750279 0.01424149 4 
274 163 1217 0 0.19904338 0.01449712 4 
275 1029 1217 0 0.01250493 0.01177543 3 
276 1044 1217 0 3.98258990 0.01450431 4 
277 1050 1217 0 4.97161000 0.01721443 5 
278 864 1225 2 935.16745852 0.00000589 1 
279 163 297 0 0.27920255 0.01519040 4 
280 189 400 0 2.09679271 0.01452397 4 
281 1056 1217 0 9.66143264 0.01721277 5 
