VERTEX2 0 0.00002032 -0.00000109 0.00000059
VERTEX2 1 0.00002031 -0.00000109 -0.00064141
VERTEX2 2 0.00002031 -0.00000109 -0.00117941
VERTEX2 3 0.01102217 -0.00097606 -0.00356141
VERTEX2 4 0.64102874 -0.01120084 -0.00744341
VERTEX2 5 0.69603643 -0.01171629 -0.09872541
VERTEX2 6 0.70028954 -0.01543561 -0.89599741
VERTEX2 7 0.69397680 0.00421287 -1.51153441
VERTEX2 8 0.69928364 0.02669364 -2.12506841
VERTEX2 9 0.71613489 0.04112267 -2.76313841
VERTEX2 10 0.72900141 0.04322007 2.90551590
VERTEX2 11 0.73322399 0.04053703 2.23123690
VERTEX2 12 0.73320671 0.04154548 1.58176290
VERTEX2 13 0.73877286 0.05907058 0.92226490
VERTEX2 14 0.75967837 0.07375080 0.31402590
VERTEX2 15 0.76859177 0.07435774 -0.21090210
VERTEX2 16 1.06251386 0.01415248 -0.22959410
VERTEX2 17 1.66366760 -0.13311391 -0.26082210
VERTEX2 18 2.28702183 -0.29647862 -0.27099910
VERTEX2 19 2.91431786 -0.49425209 -0.31957510
VERTEX2 20 3.50780085 -0.68426781 -0.31364346
VERTEX2 21 4.11672177 -0.83660435 -0.20206013
VERTEX2 22 4.72648640 -0.97791678 -0.18465993
VERTEX2 23 5.36628388 -1.02218727 -0.07723080
VERTEX2 24 5.99770536 -1.09343857 -0.13428992
VERTEX2 25 6.63244475 -1.16117711 -0.13153130
VERTEX2 26 7.24134800 -1.26178349 -0.17209026
VERTEX2 27 7.85720092 -1.35321252 -0.15628850
VERTEX2 28 8.43875055 -1.45194115 -0.16076724
VERTEX2 29 8.81772938 -1.50945976 -0.13003360
VERTEX2 30 8.82682740 -1.51188100 -0.66223885
VERTEX2 31 8.92760041 -1.64715234 -0.93065530
VERTEX2 32 9.29522799 -2.16161871 -0.94923170
VERTEX2 33 9.68006778 -2.67168939 -0.89850366
VERTEX2 34 10.09432215 -3.16553436 -0.87755578
VERTEX2 35 10.51873766 -3.65167903 -0.84341189
VERTEX2 36 10.94972553 -4.13907817 -0.85210839
VERTEX2 37 11.23431837 -4.45697802 -0.84456126
VERTEX2 38 11.23503402 -4.45792760 -1.16648642
VERTEX2 39 11.23423036 -4.45400655 -1.33763346
VERTEX2 40 11.37927241 -5.03004720 -1.32051235
VERTEX2 41 11.52975991 -5.63120164 -1.35264048
VERTEX2 42 11.65253227 -6.19573511 -1.37548690
VERTEX2 43 11.75918222 -6.79182875 -1.41582846
VERTEX2 44 11.84882367 -7.38711030 -1.45294599
VERTEX2 45 11.90365961 -8.00679744 -1.50846893
VERTEX2 46 11.93445825 -8.62850984 -1.52786326
VERTEX2 47 11.95437319 -9.25004596 -1.56954992
VERTEX2 48 11.95067360 -9.87596607 -1.57610901
VERTEX2 49 11.94321289 -10.49782735 -1.62695516
VERTEX2 50 11.88962926 -11.08723735 -1.67146427
VERTEX2 51 11.83390872 -11.68604008 -1.70050601
VERTEX2 52 11.73603841 -12.27164540 -1.77719565
VERTEX2 53 11.63533559 -12.83176039 -1.76481200
VERTEX2 54 11.52151570 -13.34617810 -1.82685425
VERTEX2 55 11.52762660 -13.31692837 -1.82154181
VERTEX2 56 11.52628712 -13.32212903 -1.81093285
VERTEX2 57 11.38141640 -13.94273290 -1.82228468
VERTEX2 58 11.23396980 -14.55162323 -1.77600239
VERTEX2 59 11.10400680 -15.15999876 -1.79951796
VERTEX2 60 10.97712882 -15.74778034 -1.77849283
VERTEX2 61 10.84437538 -16.33599521 -1.82958655
VERTEX2 62 10.69389363 -16.89432660 -1.78974669
VERTEX2 63 10.54160001 -17.45744533 -1.82524492
VERTEX2 64 10.40585797 -18.01507452 -1.76186028
VERTEX2 65 10.27056638 -18.57049459 -1.81327780
VERTEX2 66 10.11618524 -19.15576972 -1.82130433
VERTEX2 67 9.95040625 -19.74431578 -1.82012034
VERTEX2 68 9.83988700 -20.19161510 -1.83593647
VERTEX2 69 9.84311363 -20.18116025 -1.99092585
VERTEX2 70 9.85014741 -20.16775638 -2.66531214
VERTEX2 71 9.87359460 -20.16644596 2.97518990
VERTEX2 72 9.88634234 -20.16802993 2.96569736
VERTEX2 73 9.89379466 -20.16988518 2.90074240
VERTEX2 74 9.89388168 -20.16993099 2.27891986
VERTEX2 75 9.90057802 -20.17256441 1.92655476
VERTEX2 76 9.88883913 -20.15949704 2.62042036
VERTEX2 77 9.88455105 -20.15768874 2.85336336
VERTEX2 78 9.60318532 -20.16775327 -3.09269699
VERTEX2 79 8.98505148 -20.20509485 -3.09797266
VERTEX2 80 8.35329184 -20.20216327 3.11067560
VERTEX2 81 7.72931813 -20.17417053 3.08465982
VERTEX2 82 7.13037432 -20.13201630 3.03051680
VERTEX2 83 6.54242714 -20.07927900 3.00697596
VERTEX2 84 5.98061747 -19.99204694 2.92913214
VERTEX2 85 5.43858987 -19.88676557 2.93639424
VERTEX2 86 4.83016685 -19.76455588 2.84659757
VERTEX2 87 4.43702197 -19.65554264 2.79437295
VERTEX2 88 4.07936119 -19.52189646 2.76461813
VERTEX2 89 4.08959810 -19.52240945 -3.12269193
VERTEX2 90 3.48514954 -19.52421295 3.12944009
VERTEX2 91 2.86991838 -19.51840840 -3.10460739
VERTEX2 92 2.27078773 -19.51283091 3.06295020
VERTEX2 93 1.65023745 -19.40879497 2.96215113
VERTEX2 94 1.03000652 -19.26895572 2.91943260
VERTEX2 95 0.40870788 -19.17975237 3.06210593
VERTEX2 96 -0.20104446 -19.12728093 3.08622794
VERTEX2 97 -0.79038876 -19.06306398 3.01568258
VERTEX2 98 -1.37820619 -18.96092296 2.95776632
VERTEX2 99 -2.08251402 -18.83519923 3.00462726
VERTEX2 100 -2.64635807 -18.72620064 2.95295256
VERTEX2 101 -3.25672968 -18.66846468 3.05629705
VERTEX2 102 -3.87014572 -18.58716563 2.95046988
VERTEX2 103 -4.47865451 -18.47140239 3.04648502
VERTEX2 104 -5.09130864 -18.39418845 3.01284905
VERTEX2 105 -5.70420417 -18.32883789 3.05943367
VERTEX2 106 -6.30648221 -18.25757231 3.00458575
VERTEX2 107 -6.92443499 -18.16057138 3.00078041
VERTEX2 108 -7.38006480 -18.11089110 3.06236194
VERTEX2 109 -7.42641025 -18.09906688 2.61387610
VERTEX2 110 -7.44350331 -18.08131583 2.02254974
VERTEX2 111 -7.44354489 -18.00093094 1.51672145
VERTEX2 112 -7.41867923 -17.36752634 1.57114336
VERTEX2 113 -7.43595182 -16.74558826 1.61817105
VERTEX2 114 -7.46798681 -16.13205985 1.65495137
VERTEX2 115 -7.54014118 -15.49257593 1.71521046
VERTEX2 116 -7.65768869 -14.74256160 1.75929516
VERTEX2 117 -7.79246448 -14.13256750 1.85485148
VERTEX2 118 -7.79696611 -14.11239780 1.52025200
VERTEX2 119 -7.74116228 -13.59602878 1.46701548
VERTEX2 120 -7.68860281 -12.94143905 1.55726584
VERTEX2 121 -7.69938468 -12.32358105 1.62490079
VERTEX2 122 -7.73379575 -11.74208532 1.68114301
VERTEX2 123 -7.75877879 -11.56302028 1.66838779
VERTEX2 124 -7.67327277 -11.32525423 1.24547230
VERTEX2 125 -7.45788164 -10.73357504 1.23456455
VERTEX2 126 -7.32663848 -10.11860136 1.44116069
VERTEX2 127 -7.23063408 -9.48444779 1.43969738
VERTEX2 128 -7.15700388 -8.84600244 1.47624239
VERTEX2 129 -7.07259060 -8.21146755 1.44369968
VERTEX2 130 -7.00712666 -7.57873897 1.49647244
VERTEX2 131 -6.96348746 -6.95158089 1.58503089
VERTEX2 132 -6.94787887 -6.33370339 1.53547708
VERTEX2 133 -6.90285006 -5.76718408 1.49866365
VERTEX2 134 -6.85094106 -5.17173280 1.48045889
VERTEX2 135 -6.77098248 -4.59661895 1.45425122
VERTEX2 136 -6.69901438 -3.96458267 1.47389955
VERTEX2 137 -6.60468432 -3.33463227 1.43208689
VERTEX2 138 -6.53099902 -2.70576766 1.51232455
VERTEX2 139 -6.51684644 -2.07491975 1.57770763
VERTEX2 140 -6.54780643 -1.41940424 1.60830310
VERTEX2 141 -6.55639746 -0.77920544 1.55992911
VERTEX2 142 -6.55937716 -0.12930851 1.55614263
VERTEX2 143 -6.48094524 0.50964633 1.44562610
VERTEX2 144 -6.44273437 0.88137188 1.46318607
VERTEX2 145 -6.43739122 0.89777597 0.96482693
VERTEX2 146 -6.43585516 0.90577200 0.37164377
VERTEX2 147 -6.38054276 0.90218215 -0.11484397
VERTEX2 148 -5.94909196 0.84451184 -0.15047918
VERTEX2 149 -5.30856352 0.75428366 -0.12536211
VERTEX2 150 -4.67463845 0.69330313 -0.11119284
VERTEX2 151 -4.03519466 0.64947144 -0.02551743
VERTEX2 152 -3.41056981 0.61784035 -0.08612678
VERTEX2 153 -2.78673530 0.58915379 0.00733540
VERTEX2 154 -2.16651806 0.57222770 -0.06218052
VERTEX2 155 -1.54246679 0.54288624 -0.02873182
VERTEX2 156 -0.91605385 0.53266913 0.00201897
VERTEX2 157 -0.35328001 0.51868530 -0.06235381
VERTEX2 158 -0.15866687 0.50607564 -0.03485821
VERTEX2 159 -0.15307374 0.50432079 0.95247282
VERTEX2 160 -0.14768685 0.51323123 1.98815513
VERTEX2 161 -0.16986225 0.45436914 2.70903765
VERTEX2 162 -0.14405873 0.46022003 -2.53834443
VERTEX2 163 -0.14505274 0.45520123 -1.54126024
VERTEX2 164 -0.22095075 0.54943158 -0.47885468
VERTEX2 165 -0.04747988 0.53223968 -0.07106687
VERTEX2 166 0.64974881 0.48923542 -0.06936448
VERTEX2 167 1.26617403 0.43892279 -0.09871752
VERTEX2 168 1.85405174 0.38964148 -0.08670471
VERTEX2 169 2.44909389 0.31805489 -0.12362171
VERTEX2 170 3.03539356 0.24970655 -0.14425173
VERTEX2 171 3.59693915 0.15124247 -0.18254093
VERTEX2 172 4.22218403 0.04363417 -0.16847080
VERTEX2 173 4.85065120 -0.07690520 -0.19135807
VERTEX2 174 5.47534795 -0.19106706 -0.15129245
VERTEX2 175 6.09109117 -0.28116485 -0.17605272
VERTEX2 176 6.68997330 -0.40134244 -0.16649905
VERTEX2 177 7.31278246 -0.50407569 -0.19420472
VERTEX2 178 7.93365390 -0.64992948 -0.23326684
VERTEX2 179 8.33967026 -0.73435525 -0.17985072
VERTEX2 180 8.38801807 -0.74737836 -0.62205802
VERTEX2 181 8.82772465 -1.06543200 -0.67393351
VERTEX2 182 9.23344699 -1.42544098 -0.84807068
VERTEX2 183 9.57994628 -1.84648866 -0.90551407
VERTEX2 184 9.92739415 -2.37139662 -1.05121464
VERTEX2 185 10.21843575 -2.91923627 -1.14312506
VERTEX2 186 10.44336645 -3.49874070 -1.20894969
VERTEX2 187 10.64370678 -4.05605305 -1.23111074
VERTEX2 188 10.85089908 -4.63285612 -1.23611994
VERTEX2 189 11.05068538 -5.21357873 -1.26246482
VERTEX2 190 11.23432452 -5.81740341 -1.29139287
VERTEX2 191 11.40753507 -6.42055920 -1.31560686
VERTEX2 192 11.56172452 -7.01718252 -1.34409100
VERTEX2 193 11.68501538 -7.56525656 -1.39993502
VERTEX2 194 11.78456252 -8.13429523 -1.42681202
VERTEX2 195 11.86452050 -8.69860321 -1.45553536
VERTEX2 196 11.93089126 -9.32416346 -1.49633386
VERTEX2 197 11.96851123 -9.94566127 -1.52384522
VERTEX2 198 11.99337244 -10.56454719 -1.58205976
VERTEX2 199 11.96493103 -11.17282148 -1.64352051
VERTEX2 200 11.91744347 -11.77588109 -1.66544146
VERTEX2 201 11.84623649 -12.37544245 -1.72215327
VERTEX2 202 11.78204577 -12.88038750 -1.70198395
VERTEX2 203 11.67983121 -13.61408678 -1.75473783
VERTEX2 204 11.55775816 -14.18967818 -1.85666990
VERTEX2 205 11.38821705 -14.75081431 -1.86605222
VERTEX2 206 11.23383578 -15.29699225 -1.86409191
VERTEX2 207 11.07375399 -15.86289291 -1.84810465
VERTEX2 208 10.90004284 -16.46143198 -1.85750773
VERTEX2 209 10.73754884 -17.06147755 -1.81927926
VERTEX2 210 10.57385613 -17.65439588 -1.82775437
VERTEX2 211 10.42438529 -18.25120336 -1.82512521
VERTEX2 212 10.24755317 -18.83757223 -1.87756765
VERTEX2 213 10.05236411 -19.42769825 -1.89797030
VERTEX2 214 9.85255217 -20.00430353 -1.90142369
VERTEX2 215 9.73759118 -20.32702449 -1.93684180
VERTEX2 216 9.75251209 -20.30145305 -2.43630420
VERTEX2 217 9.77832743 -20.29868846 -2.97936951
VERTEX2 218 9.78486291 -20.30120006 -3.03575771
VERTEX2 219 9.21768517 -20.25631560 3.07849139
VERTEX2 220 8.60789717 -20.21103828 3.03831379
VERTEX2 221 7.96884303 -20.14353689 3.08876341
VERTEX2 222 7.34343285 -20.09987232 3.06319654
VERTEX2 223 6.71752391 -20.06950670 -3.12366173
VERTEX2 224 6.10350219 -20.06927100 3.13374276
VERTEX2 225 5.48584670 -20.06269736 -3.09972865
VERTEX2 226 4.86912761 -20.05539173 3.13438599
VERTEX2 227 4.22718604 -20.12308493 -2.99228310
VERTEX2 228 3.70590630 -20.10649465 2.92918542
VERTEX2 229 3.26334163 -20.06756021 3.04953810
VERTEX2 230 2.97522139 -20.05122009 3.02068876
VERTEX2 231 3.17135799 -20.06868971 3.09163102
VERTEX2 232 2.85726431 -19.92689330 2.66630766
VERTEX2 233 2.28949732 -19.66307238 2.76893251
VERTEX2 234 1.71032933 -19.43399271 2.72508501
VERTEX2 235 1.45966371 -19.32561589 2.72029778
VERTEX2 236 1.12655161 -19.32664145 3.12627884
VERTEX2 237 0.50015539 -19.34142140 -3.08624940
VERTEX2 238 -0.11812211 -19.38980327 -3.11873089
VERTEX2 239 -0.73260909 -19.38794885 3.09640063
VERTEX2 240 -1.29789511 -19.27167014 2.87760742
VERTEX2 241 -1.83297498 -19.14167793 2.96246328
VERTEX2 242 -2.39824287 -19.07728974 3.00228240
VERTEX2 243 -2.99099274 -18.99489444 3.00182417
VERTEX2 244 -3.60825822 -18.94942608 3.07331979
VERTEX2 245 -4.21664642 -18.90091964 3.01927027
VERTEX2 246 -4.81247947 -18.81561722 2.94707847
VERTEX2 247 -5.44583654 -18.72872143 3.05244269
VERTEX2 248 -6.00226402 -18.70663345 3.08384853
VERTEX2 249 -5.95547209 -18.71372146 -3.00640205
VERTEX2 250 -5.95463154 -18.71363409 2.68991611
VERTEX2 251 -6.27722445 -18.37291213 2.26660169
VERTEX2 252 -6.63320507 -17.95242830 2.27514384
VERTEX2 253 -7.00534046 -17.50627240 2.26417538
VERTEX2 254 -7.37095664 -17.04789875 2.22299624
VERTEX2 255 -7.44412890 -16.95492482 2.30687533
VERTEX2 256 -7.44706892 -16.87799859 1.83090984
VERTEX2 257 -7.49882248 -16.41820460 1.69550426
VERTEX2 258 -7.58233873 -15.82870356 1.77596694
VERTEX2 259 -7.72607569 -15.22349192 1.81674574
VERTEX2 260 -7.86014741 -14.66258296 1.80852575
VERTEX2 261 -7.85794539 -14.62623785 1.49737185
VERTEX2 262 -7.79532162 -13.97586712 1.50420834
VERTEX2 263 -7.75368680 -13.35877517 1.51782790
VERTEX2 264 -7.73933072 -12.75476849 1.61505066
VERTEX2 265 -7.77160617 -12.15118972 1.63534185
VERTEX2 266 -7.72442202 -11.57387916 1.50631025
VERTEX2 267 -7.67384791 -10.82379047 1.47698242
VERTEX2 268 -7.54212014 -10.22008131 1.36690387
VERTEX2 269 -7.42282605 -9.60577192 1.39681819
VERTEX2 270 -7.35128924 -8.98084143 1.51085671
VERTEX2 271 -7.25666824 -8.35765837 1.40036274
VERTEX2 272 -7.17166284 -7.72986244 1.46553200
VERTEX2 273 -7.18205821 -7.09905209 1.67769174
VERTEX2 274 -7.25049603 -6.48180786 1.70171389
VERTEX2 275 -7.23896175 -5.87401891 1.53030849
VERTEX2 276 -7.23261734 -5.26713660 1.64487796
VERTEX2 277 -7.27991761 -4.70266219 1.61937078
VERTEX2 278 -7.23720103 -4.06327943 1.53073905
VERTEX2 279 -7.19785967 -3.42571940 1.47547277
VERTEX2 280 -7.13019217 -2.79351702 1.47761881
VERTEX2 281 -7.04014652 -2.15947686 1.37730820
VERTEX2 282 -6.92089633 -1.53187532 1.41731415
VERTEX2 283 -6.83465094 -0.89781974 1.40964285
VERTEX2 284 -6.72344873 -0.27421734 1.43699451
VERTEX2 285 -6.65695646 0.37594624 1.45813526
VERTEX2 286 -6.59098189 0.99835115 1.51180739
VERTEX2 287 -6.58816936 1.05028119 1.40749774
VERTEX2 288 -6.58411881 1.05754908 0.79920713
VERTEX2 289 -6.58076231 1.05922576 0.20607691
VERTEX2 290 -6.14014761 1.05095161 -0.01882954
VERTEX2 291 -5.51719495 1.04379903 -0.00495090
VERTEX2 292 -4.90086542 1.02451821 -0.05964442
VERTEX2 293 -4.27603390 0.97964805 -0.08275996
VERTEX2 294 -3.65479862 0.92770113 -0.08213284
VERTEX2 295 -3.03300203 0.84757570 -0.19469847
VERTEX2 296 -2.41647309 0.70302285 -0.24017280
VERTEX2 297 -1.80215983 0.55150465 -0.25194595
VERTEX2 298 -1.18219133 0.39456981 -0.25280337
VERTEX2 299 -0.59874460 0.23498191 -0.19184480
VERTEX2 300 -0.00314361 0.14719718 -0.14986814
VERTEX2 301 0.55310574 0.04814979 -0.20899290
VERTEX2 302 0.84872740 -0.01575698 -0.22986782
VERTEX2 303 0.82490618 -0.01063539 -0.22570135
VERTEX2 304 1.31913165 -0.12519119 -0.21614289
VERTEX2 305 1.92897328 -0.16972345 -0.03230407
VERTEX2 306 2.55854574 -0.18114937 -0.05045543
VERTEX2 307 3.19785473 -0.22988256 -0.08724841
VERTEX2 308 3.82560320 -0.29371681 -0.14293495
VERTEX2 309 4.46066990 -0.35500682 -0.05012128
VERTEX2 310 5.08844710 -0.38587678 -0.08611257
VERTEX2 311 5.36960045 -0.41224907 0.08880483
VERTEX2 312 5.36675296 -0.41372981 1.07640073
VERTEX2 313 5.37143336 -0.19496160 1.57199253
VERTEX2 314 5.35204509 0.43359174 1.61173234
VERTEX2 315 5.32366629 1.06153434 1.60736412
VERTEX2 316 5.28399295 1.70653198 1.65857546
VERTEX2 317 5.22309031 2.34817963 1.66840313
VERTEX2 318 5.12471607 2.98521807 1.76281060
VERTEX2 319 5.04526659 3.33220259 1.83403704
VERTEX2 320 5.04729930 3.33849313 2.80217994
VERTEX2 321 5.03929532 3.33505063 -2.44167690
VERTEX2 322 5.03837525 3.33315321 -1.44582335
VERTEX2 323 5.04896564 3.32295140 -0.45375872
VERTEX2 324 5.05348863 3.32147742 0.20584527
VERTEX2 325 5.05489039 3.32158906 -0.32206155
VERTEX2 326 5.07031496 3.31000254 -0.91752838
VERTEX2 327 5.07369932 3.29408301 -1.54116580
VERTEX2 328 5.05794238 2.65620563 -1.58780970
VERTEX2 329 5.03655351 2.02890275 -1.64398947
VERTEX2 330 4.98290832 1.41298899 -1.66424977
VERTEX2 331 4.92838850 0.79577489 -1.67978620
VERTEX2 332 4.84951338 0.18162076 -1.69956127
VERTEX2 333 4.82788942 0.02656405 -1.63586053
VERTEX2 334 4.83463718 0.02777870 -0.84482416
VERTEX2 335 4.84950607 0.02337988 0.14623893
VERTEX2 336 4.86276126 0.02802337 1.08745630
VERTEX2 337 4.86838728 0.06293397 2.06649345
VERTEX2 338 4.86563740 0.06484227 3.05600971
VERTEX2 339 4.87719746 0.07201359 -2.17720897
VERTEX2 340 4.87741884 0.07036885 -1.15738045
VERTEX2 341 4.99087547 0.00183857 -0.52363504
VERTEX2 342 5.56399128 -0.30321049 -0.42153358
VERTEX2 343 6.14257931 -0.50486415 -0.28990325
VERTEX2 344 6.73192334 -0.68832497 -0.29929261
VERTEX2 345 6.97056056 -0.75864458 -0.32611130
VERTEX2 346 6.95716086 -0.75425532 -0.97168341
VERTEX2 347 6.95959246 -0.84287356 -1.52884353
VERTEX2 348 6.97748328 -1.43369084 -1.54492192
VERTEX2 349 6.97524958 -2.05341640 -1.58451854
VERTEX2 350 6.96212072 -2.84173558 -1.60353458
VERTEX2 351 6.94787739 -3.11571781 -1.63188202
VERTEX2 352 6.94602641 -3.12454708 -1.91869495
VERTEX2 353 6.93429345 -3.13894306 -2.58162822
VERTEX2 354 6.92042925 -3.14292309 3.10047507
VERTEX2 355 6.90006024 -3.14220865 2.38215411
VERTEX2 356 6.89419834 -3.13186229 1.80912416
VERTEX2 357 6.89682870 -3.11609988 1.15849535
VERTEX2 358 6.89783364 -3.11469836 0.54537728
VERTEX2 359 6.88604719 -3.11975676 -0.06631326
VERTEX2 360 6.87129614 -3.11684568 -0.24137529
VERTEX2 361 6.86306338 -3.11900397 0.68131511
VERTEX2 362 6.94799449 -2.88781521 1.21711304
VERTEX2 363 7.05056298 -2.61937305 1.21149627
VERTEX2 364 6.98097607 -2.28290093 1.82824656
VERTEX2 365 6.92522142 -1.99343578 1.33293763
VERTEX2 366 7.03389198 -1.87026231 0.78075741
VERTEX2 367 7.47951650 -1.43475715 0.78359476
VERTEX2 368 7.93551743 -0.99833119 0.73567601
VERTEX2 369 7.95523038 -0.97450058 0.48387851
VERTEX2 370 7.97914049 -0.97066983 -0.10283620
VERTEX2 371 7.98489075 -0.97365098 -0.64825768
VERTEX2 372 8.41359626 -1.32194171 -0.67590988
VERTEX2 373 8.88601048 -1.68647929 -0.67390525
VERTEX2 374 9.36488955 -2.08930693 -0.73501916
VERTEX2 375 9.72305093 -2.40774774 -0.76585982
VERTEX2 376 9.73241498 -2.41346391 -0.07307811
VERTEX2 377 9.77833839 -2.38072909 0.62020854
VERTEX2 378 10.31473001 -1.98175424 0.67308115
VERTEX2 379 10.79502938 -1.55047997 0.75652556
VERTEX2 380 11.23533894 -1.08312442 0.87444727
VERTEX2 381 11.38187509 -0.90243542 1.02286614
VERTEX2 382 11.38319109 -0.90003924 2.06785913
VERTEX2 383 11.38201527 -0.89932936 3.05475354
VERTEX2 384 11.38023283 -0.90101491 -2.26466666
VERTEX2 385 11.37547439 -0.90900725 -1.23453751
VERTEX2 386 11.48030849 -1.04520333 -1.00958633
VERTEX2 387 11.93683173 -1.46786835 -0.67781186
VERTEX2 388 12.39746694 -1.82285863 -0.67104724
VERTEX2 389 12.83283895 -2.19705041 -0.75592727
VERTEX2 390 12.84238420 -2.20538286 -0.28615829
VERTEX2 391 12.65575234 -2.19719516 0.08922931
VERTEX2 392 12.59966223 -2.19779691 1.11824056
VERTEX2 393 12.60056676 -2.13278282 2.35395326
VERTEX2 394 12.53411266 -2.10521782 -2.94863766
VERTEX2 395 12.72598781 -2.00461626 -2.61611381
VERTEX2 396 12.70369501 -2.01597718 -2.61868307
VERTEX2 397 12.66497072 -2.02463808 -2.63223810
VERTEX2 398 12.64872659 -2.03809226 -2.43865795
VERTEX2 399 12.57382287 -2.14352234 -2.14439977
VERTEX2 400 12.21763246 -2.69652627 -2.09694848
VERTEX2 401 11.87191035 -3.23625331 -2.19119994
VERTEX2 402 11.39402951 -3.69016719 -2.46058377
VERTEX2 403 10.87915986 -4.09733643 -2.49605004
VERTEX2 404 10.37341618 -4.45385808 -2.57651785
VERTEX2 405 10.35565955 -4.46957286 -2.04556097
VERTEX2 406 10.35146375 -4.43054848 -1.07224587
VERTEX2 407 10.52908623 -4.68370141 -0.94585448
VERTEX2 408 10.85276695 -5.14495886 -0.98521361
VERTEX2 409 10.98290861 -5.35426657 -1.08634040
VERTEX2 410 10.97472221 -5.32035229 -1.71757080
VERTEX2 411 11.14815635 -4.88265422 -2.57378130
VERTEX2 412 10.59726565 -5.10326522 -2.77866843
VERTEX2 413 9.96086499 -5.31927585 -2.85968978
VERTEX2 414 9.31804461 -5.52382175 -2.75736087
VERTEX2 415 8.70981823 -5.76174623 -2.74987556
VERTEX2 416 8.42018024 -5.89040937 -2.80456210
VERTEX2 417 8.12592359 -5.87436405 3.05511232
VERTEX2 418 7.68541747 -5.83114152 3.01044004
VERTEX2 419 7.68545800 -5.83113882 -2.84081368
VERTEX2 420 7.73570645 -5.80881494 -2.62396986
VERTEX2 421 7.73578662 -5.80872738 -1.65447310
VERTEX2 422 7.72973047 -5.81720864 -0.41286529
VERTEX2 423 7.73068744 -5.81730301 -0.06640627
VERTEX2 424 7.72612388 -5.81740398 -0.06539666
VERTEX2 425 7.71466314 -5.82386740 -0.05301388
VERTEX2 426 7.70990806 -5.82401760 -0.06148800
VERTEX2 427 7.73769171 -5.82547737 -0.05772545
VERTEX2 428 8.39731626 -5.84691369 -0.06249075
VERTEX2 429 9.03931766 -5.89610416 -0.10252811
VERTEX2 430 9.37853399 -5.93643390 -0.14788409
VERTEX2 431 9.35375990 -5.93347509 -0.09522107
VERTEX2 432 9.36380369 -5.93700987 -0.72545548
VERTEX2 433 9.36836711 -5.94326070 -1.40119158
VERTEX2 434 9.33239418 -6.48006424 -1.62853836
VERTEX2 435 9.30107295 -7.12071424 -1.65624511
VERTEX2 436 9.22428322 -7.75860338 -1.66444509
VERTEX2 437 9.17320990 -8.40633696 -1.65591253
VERTEX2 438 9.12216050 -8.87492920 -1.68584425
VERTEX2 439 9.12042991 -8.88146507 -2.12055247
VERTEX2 440 9.12692790 -8.87634819 -2.76198507
VERTEX2 441 9.14328573 -8.87470143 2.90083878
VERTEX2 442 9.15076976 -8.87876791 2.27313396
VERTEX2 443 9.15088698 -8.88072784 1.70778442
VERTEX2 444 9.15380017 -8.86528804 1.11784074
VERTEX2 445 9.15888495 -8.86041872 0.46140906
VERTEX2 446 9.15724984 -8.86143924 0.66371984
VERTEX2 447 9.16871596 -8.83915098 1.29682456
VERTEX2 448 9.31806300 -8.21756562 1.31449131
VERTEX2 449 9.45034858 -7.58150191 1.41600199
VERTEX2 450 9.54387155 -6.94486778 1.42980822
VERTEX2 451 9.59630086 -6.47457116 1.47244831
VERTEX2 452 9.59639053 -6.47363829 1.09441680
VERTEX2 453 9.59311173 -6.47957485 0.47225546
VERTEX2 454 9.85337804 -6.45962296 0.05020293
VERTEX2 455 10.45125915 -6.43497160 0.02963206
VERTEX2 456 11.08266761 -6.43027929 -0.03496420
VERTEX2 457 11.43584214 -6.45263272 -0.12268958
VERTEX2 458 11.43061146 -6.45003535 -0.76859228
VERTEX2 459 11.42197534 -6.41508978 -1.37680815
VERTEX2 460 11.40139873 -6.81332763 -1.63381270
VERTEX2 461 11.33282515 -7.42962769 -1.72174784
VERTEX2 462 11.24548627 -7.93890896 -1.76174746
VERTEX2 463 11.25671508 -7.91690290 -0.92145830
VERTEX2 464 11.51154782 -7.98929158 -0.24332798
VERTEX2 465 12.09477111 -8.12203967 -0.23556888
VERTEX2 466 12.64775550 -8.27304893 -0.29119276
VERTEX2 467 13.21812698 -8.45464027 -0.33463752
VERTEX2 468 13.83275834 -8.67287870 -0.36991312
VERTEX2 469 14.42413149 -8.93826066 -0.45256353
VERTEX2 470 14.87804376 -9.15360094 -0.43341159
VERTEX2 471 14.88623026 -9.15803306 -0.63282544
VERTEX2 472 14.90314415 -9.18160801 -1.26458559
VERTEX2 473 14.90449678 -9.18824085 -1.90426256
VERTEX2 474 14.90317318 -9.18989946 -2.53469568
VERTEX2 475 14.90544431 -9.18958767 -3.10828246
VERTEX2 476 14.90757064 -9.18987469 2.52390555
VERTEX2 477 14.91173937 -9.19802323 1.96456649
VERTEX2 478 14.91244851 -9.20726411 1.33771388
VERTEX2 479 14.91163812 -9.20912047 0.88357349
VERTEX2 480 14.91213660 -9.20799834 1.44578198
VERTEX2 481 14.90835387 -9.19169439 2.44810537
VERTEX2 482 14.91235164 -9.19329682 2.78433540
VERTEX2 483 14.91857390 -9.19552626 2.77899578
VERTEX2 484 14.49507976 -9.03846459 2.81445559
VERTEX2 485 13.89675363 -8.84972170 2.81213565
VERTEX2 486 13.29575994 -8.63697839 2.82165746
VERTEX2 487 12.68609172 -8.45744933 2.84992715
VERTEX2 488 12.07413490 -8.27603462 2.88603886
VERTEX2 489 11.60419097 -8.16839367 2.91645766
VERTEX2 490 11.60898132 -8.16793004 -2.88162493
VERTEX2 491 11.61624214 -8.15835647 -1.94551101
VERTEX2 492 11.59946052 -8.38860357 -1.64248044
VERTEX2 493 11.53753979 -8.99298604 -1.69753941
VERTEX2 494 11.45019187 -9.60465532 -1.75846711
VERTEX2 495 11.38100950 -10.22853468 -1.65121593
VERTEX2 496 11.33726541 -10.85376658 -1.53341627
VERTEX2 497 11.33045501 -11.47260544 -1.61940466
VERTEX2 498 11.26193098 -12.09480700 -1.72116106
VERTEX2 499 11.13142009 -12.72183311 -1.73814188
VERTEX2 500 11.18893835 -13.28346670 -1.40950490
VERTEX2 501 11.26349362 -13.86199669 -1.48162782
VERTEX2 502 11.28748690 -14.55661224 -1.56614141
VERTEX2 503 11.28302219 -15.00266408 -1.58313619
VERTEX2 504 11.28848111 -14.98726744 -0.72684918
VERTEX2 505 11.52609209 -15.01450700 -0.10515540
VERTEX2 506 12.11780017 -15.09661879 -0.25773453
VERTEX2 507 12.69854472 -15.26683659 -0.33630695
VERTEX2 508 13.26715535 -15.47872126 -0.34959233
VERTEX2 509 13.88479464 -15.71188500 -0.40560183
VERTEX2 510 14.23919135 -15.87039973 -0.41959872
VERTEX2 511 14.23718701 -15.85065907 0.45522977
VERTEX2 512 14.26009676 -15.80262335 1.65146210
VERTEX2 513 14.25576835 -15.78975320 2.60635754
VERTEX2 514 14.18653187 -15.77008135 2.83249680
VERTEX2 515 13.57503201 -15.58651430 2.83352810
VERTEX2 516 12.98907064 -15.38980944 2.84935509
VERTEX2 517 12.39509683 -15.23910517 2.87748183
VERTEX2 518 11.80787252 -15.08730259 2.90212300
VERTEX2 519 11.29094593 -14.96300651 2.88668450
VERTEX2 520 11.12811565 -14.92009655 -2.99753856
VERTEX2 521 11.14615156 -14.90030515 -1.99238177
VERTEX2 522 11.07885483 -15.30488973 -1.72765890
VERTEX2 523 10.98700697 -15.92489107 -1.73501701
VERTEX2 524 10.88277174 -16.49868812 -1.77691847
VERTEX2 525 10.77846152 -17.04057231 -1.75324571
VERTEX2 526 10.66190843 -17.60911958 -1.81201862
VERTEX2 527 10.51378103 -18.18777909 -1.84680615
VERTEX2 528 10.33121164 -18.75380729 -1.92276011
VERTEX2 529 10.11868444 -19.35464930 -1.95116591
VERTEX2 530 9.87108912 -19.95273216 -1.98135778
VERTEX2 531 9.60103667 -20.52642971 -2.06130000
VERTEX2 532 9.50319274 -20.71135882 -2.01080609
VERTEX2 533 9.49970037 -20.69424395 -1.01234031
VERTEX2 534 9.49881466 -20.69363943 -0.34614871
VERTEX2 535 9.50168264 -20.69360955 -0.34679369
VERTEX2 536 9.85786028 -20.77861931 -0.21645108
VERTEX2 537 10.46361417 -20.92904351 -0.27478924
VERTEX2 538 11.02226843 -21.10020265 -0.30224064
VERTEX2 539 11.62848776 -21.31144676 -0.36739067
VERTEX2 540 12.21285505 -21.56678459 -0.46070716
VERTEX2 541 12.79775145 -21.79728783 -0.29891369
VERTEX2 542 13.42759332 -21.94255772 -0.24364693
VERTEX2 543 13.54875627 -21.97374002 -0.27372446
VERTEX2 544 13.57175814 -21.97156026 0.36212771
VERTEX2 545 13.59884283 -21.92336700 1.42620514
VERTEX2 546 13.61612547 -21.96976282 2.25411216
VERTEX2 547 13.62436996 -21.96927636 -3.00630861
VERTEX2 548 13.63757379 -21.96093958 -2.08243288
VERTEX2 549 13.63914744 -21.95069378 -1.27496643
VERTEX2 550 13.63810980 -21.93076962 -1.75422281
VERTEX2 551 13.64628746 -21.91441237 -2.37992707
VERTEX2 552 13.66446323 -21.90546518 -3.01171704
VERTEX2 553 13.52831077 -21.85275381 2.69479571
VERTEX2 554 12.93809895 -21.56691507 2.65958448
VERTEX2 555 12.36057487 -21.29036224 2.74873077
VERTEX2 556 11.75783354 -21.07037319 2.88412655
VERTEX2 557 11.15815362 -20.89795175 2.84304892
VERTEX2 558 10.58253088 -20.73949727 2.92421887
VERTEX2 559 10.59010511 -20.74207220 2.51750926
VERTEX2 560 10.58318760 -20.73437634 2.01686258
VERTEX2 561 10.56026396 -20.71204302 2.52237070
VERTEX2 562 10.38187213 -20.71175388 -3.11690403
VERTEX2 563 9.81167634 -20.63265429 2.97463805
VERTEX2 564 9.20687223 -20.54061752 3.02353730
VERTEX2 565 8.61628343 -20.46880808 2.96593217
VERTEX2 566 8.67723470 -20.48783702 -2.53382200
VERTEX2 567 8.58328117 -20.49470109 -1.74001923
VERTEX2 568 8.53160064 -21.00323445 -1.67610462
VERTEX2 569 8.47951734 -21.57848676 -1.71527178
VERTEX2 570 8.41001945 -22.15883077 -1.71052262
VERTEX2 571 8.35711210 -22.51400843 -1.75797678
VERTEX2 572 8.32316918 -22.53876599 -2.00113645
VERTEX2 573 8.28806766 -22.61811433 -1.72477034
VERTEX2 574 8.30836085 -22.64669359 -0.78521987
VERTEX2 575 8.46287744 -22.69734683 0.13524026
VERTEX2 576 8.46228485 -22.69687157 1.16292233
VERTEX2 577 8.45558129 -22.67908550 2.13503969
VERTEX2 578 8.44606859 -22.64678995 1.77088583
VERTEX2 579 8.32198338 -21.99472743 1.78592780
VERTEX2 580 8.16093001 -21.35485848 1.86109771
VERTEX2 581 7.96719359 -20.73094882 1.90350666
VERTEX2 582 7.74598674 -20.11608765 1.94667510
VERTEX2 583 7.61620188 -19.80748183 2.02608205
VERTEX2 584 7.61056894 -19.79652919 2.87004315
VERTEX2 585 7.02701356 -19.65594660 2.98849672
VERTEX2 586 6.43289049 -19.58101192 3.08622327
VERTEX2 587 5.81369162 -19.56974813 3.11179633
VERTEX2 588 5.18354547 -19.54355020 3.11643037
VERTEX2 589 4.64593060 -19.56767729 -3.09193485
VERTEX2 590 4.09762963 -19.61081233 -3.02371749
VERTEX2 591 3.55987138 -19.68841135 -3.02604003
VERTEX2 592 3.00904302 -19.76199832 -3.02895111
VERTEX2 593 2.82889791 -19.78420253 -2.82399154
VERTEX2 594 2.85954797 -19.75143378 -1.89991314
VERTEX2 595 2.74702398 -20.36067071 -1.66742521
VERTEX2 596 2.69515246 -20.98643715 -1.69076884
VERTEX2 597 2.60736984 -21.64939788 -1.73130043
VERTEX2 598 2.50515224 -22.24678152 -1.77349310
VERTEX2 599 2.41734483 -22.62286488 -1.83971623
VERTEX2 600 2.41753878 -22.63867919 -1.03330063
VERTEX2 601 2.46053552 -22.66516482 -0.01534585
VERTEX2 602 2.49922643 -22.64959886 0.99848417
VERTEX2 603 2.46487240 -22.41476189 1.77099387
VERTEX2 604 2.40501285 -21.80215007 1.52686118
VERTEX2 605 2.41453025 -21.15554047 1.60950186
VERTEX2 606 2.37473151 -20.50923999 1.65163798
VERTEX2 607 2.38634226 -19.92044019 1.57068514
VERTEX2 608 2.37358668 -19.53561361 1.61523672
VERTEX2 609 2.37005818 -19.51477925 1.95168668
VERTEX2 610 2.36271104 -19.51211550 2.88463097
VERTEX2 611 1.76800422 -19.36152539 2.88772327
VERTEX2 612 1.29615323 -19.22677525 2.89066093
VERTEX2 613 1.33211505 -19.23778483 -2.92848243
VERTEX2 614 1.33875528 -19.23276768 -1.88999153
VERTEX2 615 1.35050552 -19.71796092 -1.58524421
VERTEX2 616 1.35613243 -20.33954105 -1.63627762
VERTEX2 617 1.21746355 -20.94074703 -1.85315683
VERTEX2 618 1.04754886 -21.54473271 -1.84283265
VERTEX2 619 0.88606280 -22.11423478 -1.84400292
VERTEX2 620 0.70210757 -22.68812568 -1.93985819
VERTEX2 621 0.83180736 -22.35421531 -1.99109366
VERTEX2 622 0.95604250 -22.08942680 -2.06580459
VERTEX2 623 0.95615066 -22.08928340 -2.60227818
VERTEX2 624 0.92680840 -22.08896026 3.03900127
VERTEX2 625 0.88488228 -22.07198979 2.38117656
VERTEX2 626 0.85620329 -22.03902540 1.76381489
VERTEX2 627 0.92944202 -21.66598054 1.35346623
VERTEX2 628 1.10922159 -21.03831465 1.25270049
VERTEX2 629 1.28085494 -20.41423567 1.32374845
VERTEX2 630 1.40651470 -19.81014206 1.40872955
VERTEX2 631 1.47887431 -19.28416092 1.42877518
VERTEX2 632 1.48101163 -19.27159030 2.10450837
VERTEX2 633 1.38428201 -19.26497901 -3.09262677
VERTEX2 634 0.71821950 -19.30160194 -3.06527509
VERTEX2 635 0.06643178 -19.31213876 3.08284091
VERTEX2 636 -0.57389067 -19.28347329 3.06522541
VERTEX2 637 -1.20064957 -19.20916363 2.96590040
VERTEX2 638 -1.59106670 -19.12942838 2.93636764
VERTEX2 639 -2.19997952 -19.02670235 3.01672971
VERTEX2 640 -2.81308307 -18.91779840 2.94885863
VERTEX2 641 -3.41160524 -18.80723759 2.94054822
VERTEX2 642 -3.98582001 -18.67044497 2.89523655
VERTEX2 643 -4.46712999 -18.53401491 2.82777114
VERTEX2 644 -4.47099364 -18.53487773 -2.69865524
VERTEX2 645 -4.50749605 -18.67613051 -1.92117012
VERTEX2 646 -4.64472473 -19.28536277 -1.62580329
VERTEX2 647 -4.60140866 -19.92756802 -1.33695439
VERTEX2 648 -4.37869938 -20.55234738 -1.17066973
VERTEX2 649 -4.20529657 -21.15078122 -1.50826355
VERTEX2 650 -4.30614111 -21.77912686 -1.76561875
VERTEX2 651 -4.32365857 -21.92456553 -0.96619741
VERTEX2 652 -4.26115755 -21.95270051 0.05878391
VERTEX2 653 -4.21528486 -21.91152976 1.08923361
VERTEX2 654 -4.22418809 -21.61521735 1.60241162
VERTEX2 655 -4.23437395 -21.06216836 1.59740833
VERTEX2 656 -4.23331036 -20.46043123 1.58477863
VERTEX2 657 -4.33991311 -19.84917169 1.86141493
VERTEX2 658 -4.52995003 -19.23265657 1.85425210
VERTEX2 659 -4.64449481 -18.73972171 1.78309836
VERTEX2 660 -4.64748385 -18.72476779 2.38322180
VERTEX2 661 -4.82543138 -18.70509731 3.03667373
VERTEX2 662 -5.41837530 -18.64559004 3.10628233
VERTEX2 663 -6.00517617 -18.65981804 -3.07587035
VERTEX2 664 -6.01190913 -18.65809205 -2.55251544
VERTEX2 665 -6.02808517 -18.76018647 -1.72021419
VERTEX2 666 -6.10113173 -19.37313988 -1.68328434
VERTEX2 667 -6.15916280 -19.93867239 -1.67861497
VERTEX2 668 -6.22361170 -20.53164604 -1.65278467
VERTEX2 669 -6.27305353 -21.15641427 -1.67786785
VERTEX2 670 -6.37336985 -21.77326434 -1.73729618
VERTEX2 671 -6.42126975 -22.06512866 -1.68226612
VERTEX2 672 -6.31853506 -21.48400548 -1.77132666
VERTEX2 673 -6.25184852 -21.21689141 -1.90182312
VERTEX2 674 -6.23847537 -21.20281294 -2.54983549
VERTEX2 675 -6.21441297 -21.19775105 3.12485267
VERTEX2 676 -6.20808678 -21.20146260 2.50163836
VERTEX2 677 -6.20349059 -21.20782310 1.88591966
VERTEX2 678 -6.17518903 -20.98524659 1.44007611
VERTEX2 679 -6.11058169 -20.40582202 1.50270550
VERTEX2 680 -6.13781066 -19.95716113 1.84767179
VERTEX2 681 -6.28954061 -19.36550269 1.82021877
VERTEX2 682 -6.46140607 -18.75933108 1.86795956
VERTEX2 683 -6.55353983 -18.47690173 2.02720057
VERTEX2 684 -6.50067746 -18.53084203 3.10717171
VERTEX2 685 -6.90535836 -18.69212215 -2.73223678
VERTEX2 686 -7.35329674 -18.82921295 -2.87641497
VERTEX2 687 -7.94845370 -18.98081042 -2.91136935
VERTEX2 688 -8.54688799 -19.10137813 -2.92309172
VERTEX2 689 -9.11171015 -19.24088292 -2.89537837
VERTEX2 690 -9.64810495 -19.41044426 -2.82115682
VERTEX2 691 -10.04369230 -19.54237397 -2.84914383
VERTEX2 692 -10.02953675 -19.53607488 -2.31486535
VERTEX2 693 -10.00651301 -19.60852894 -1.27440342
VERTEX2 694 -9.98230641 -19.68069101 -0.43889649
VERTEX2 695 -9.96381448 -19.67542061 0.36114348
VERTEX2 696 -9.95763932 -19.67137258 1.38667396
VERTEX2 697 -9.96930298 -19.70978080 1.13371435
VERTEX2 698 -9.63891569 -19.50038710 0.47897154
VERTEX2 699 -9.07519896 -19.18654155 0.59302305
VERTEX2 700 -8.56170640 -18.82387093 0.64656710
VERTEX2 701 -8.12776958 -18.46041482 0.70575187
VERTEX2 702 -7.64841345 -18.14451736 0.59061242
VERTEX2 703 -7.13596579 -17.80729411 0.62488393
VERTEX2 704 -6.64232027 -17.42442597 0.64308093
VERTEX2 705 -6.13158912 -17.00342927 0.71333785
VERTEX2 706 -5.70158979 -16.68525683 0.44436834
VERTEX2 707 -5.67623289 -16.68388603 -0.07585182
VERTEX2 708 -5.66627111 -16.68963905 -0.71429996
VERTEX2 709 -5.70612426 -16.64674852 -1.04636739
VERTEX2 710 -5.71051976 -16.63540340 -1.60745768
VERTEX2 711 -5.70106181 -16.64393921 -2.20416149
VERTEX2 712 -5.68076157 -16.62837154 -2.76457308
VERTEX2 713 -6.15365340 -16.67893352 -3.04990966
VERTEX2 714 -6.70690347 -16.65397698 3.03576595
VERTEX2 715 -7.33247791 -16.61719988 3.13951761
VERTEX2 716 -7.96546536 -16.59541818 3.00164311
VERTEX2 717 -8.58562366 -16.52792473 3.08654873
VERTEX2 718 -9.34671267 -16.40985501 2.91135521
VERTEX2 719 -9.96258164 -16.29516520 2.98598307
VERTEX2 720 -10.57431728 -16.18346716 2.92693990
VERTEX2 721 -11.18899560 -16.06893209 2.99506900
VERTEX2 722 -11.20242102 -16.06703915 3.06168019
VERTEX2 723 -11.22371033 -16.08904483 -2.13094370
VERTEX2 724 -11.22375127 -16.13480087 -1.06147164
VERTEX2 725 -11.19535033 -16.15380518 -0.42675587
VERTEX2 726 -10.86962358 -16.14919584 0.02772892
VERTEX2 727 -10.23475433 -16.10963934 0.05834323
VERTEX2 728 -9.59715933 -16.08437364 0.05959944
VERTEX2 729 -8.96192817 -16.02302797 0.11708283
VERTEX2 730 -8.34111254 -15.93007875 0.15442381
VERTEX2 731 -7.69536880 -15.82923817 0.16693366
VERTEX2 732 -7.55564621 -15.80082712 0.61413592
VERTEX2 733 -7.55577529 -15.80062336 1.61188590
VERTEX2 734 -7.61704304 -15.24277624 1.69032527
VERTEX2 735 -7.68089828 -14.63863471 1.65858831
VERTEX2 736 -7.68184330 -14.62556306 2.25884960
VERTEX2 737 -7.67787450 -14.62606136 3.06053159
VERTEX2 738 -8.25908284 -14.58926503 3.07989426
VERTEX2 739 -8.86479018 -14.49818636 3.02258984
VERTEX2 740 -9.36591830 -14.46197672 3.08556316
VERTEX2 741 -9.34405572 -14.46158775 2.71622878
VERTEX2 742 -9.34100961 -14.46370541 2.06273748
VERTEX2 743 -9.34190695 -14.45985949 1.44525843
VERTEX2 744 -9.33343976 -14.44019581 0.90529021
VERTEX2 745 -9.31364781 -14.42973432 0.31115039
VERTEX2 746 -8.76849133 -14.44597893 -0.16425625
VERTEX2 747 -8.11992485 -14.55884124 -0.19975314
VERTEX2 748 -7.53942276 -14.70031958 -0.26832629
VERTEX2 749 -7.45291946 -14.72159282 0.16044719
VERTEX2 750 -7.44391103 -14.70487896 1.08674461
VERTEX2 751 -7.47864399 -14.43544418 1.72646397
VERTEX2 752 -7.53828784 -13.80665545 1.62312686
VERTEX2 753 -7.57768911 -13.16209734 1.68633224
VERTEX2 754 -7.58688150 -12.51549059 1.52422571
VERTEX2 755 -7.57008347 -11.88236647 1.61071629
VERTEX2 756 -7.53466088 -11.24666754 1.43435828
VERTEX2 757 -7.46200712 -10.60147309 1.54627236
VERTEX2 758 -7.48438497 -10.02210215 1.68849326
VERTEX2 759 -7.47573644 -9.47452130 1.56846269
VERTEX2 760 -7.51666652 -8.86351155 1.67986405
VERTEX2 761 -7.51951530 -8.82575940 1.86026999
VERTEX2 762 -7.59574403 -8.79201463 2.69577101
VERTEX2 763 -8.17010089 -8.69153594 2.98869776
VERTEX2 764 -8.59017284 -8.62180406 2.96122114
VERTEX2 765 -8.57916797 -8.62154550 -2.68237556
VERTEX2 766 -8.58075488 -8.62677946 -1.68181732
VERTEX2 767 -8.57573779 -8.63930381 -0.75073885
VERTEX2 768 -8.54835879 -8.64084112 -0.02820117
VERTEX2 769 -7.91268493 -8.54820437 0.12877320
VERTEX2 770 -7.25991283 -8.48529176 0.06170274
VERTEX2 771 -7.17099910 -8.47737396 0.62230496
VERTEX2 772 -7.16777296 -8.46693380 1.49002027
VERTEX2 773 -7.14706310 -7.88830020 1.57589272
VERTEX2 774 -7.16241552 -7.34135885 1.59805577
VERTEX2 775 -7.16154799 -7.34501444 2.44316100
VERTEX2 776 -7.37085778 -7.32070170 3.06072902
VERTEX2 777 -7.98423419 -7.28216117 3.11984084
VERTEX2 778 -8.59685684 -7.27481064 3.09896714
VERTEX2 779 -9.21228178 -7.25639176 3.11741522
VERTEX2 780 -9.42031275 -7.23948999 2.98761644
VERTEX2 781 -9.41810617 -7.24025515 2.41502898
VERTEX2 782 -9.54871885 -6.96511150 1.98615890
VERTEX2 783 -9.78866983 -6.38917956 1.98590417
VERTEX2 784 -9.89109059 -6.15906125 1.96494334
VERTEX2 785 -9.89203520 -6.13678060 1.41264204
VERTEX2 786 -9.88506372 -6.11333710 0.82396501
VERTEX2 787 -9.86913595 -6.09684777 0.33298582
VERTEX2 788 -9.84179708 -6.09856290 -0.29652027
VERTEX2 789 -9.82977905 -6.10790175 -0.84883118
VERTEX2 790 -9.52030081 -6.50350391 -0.91615303
VERTEX2 791 -9.11218086 -6.98537599 -0.81764604
VERTEX2 792 -8.87042340 -7.19907170 -0.11349103
VERTEX2 793 -8.25368995 -7.24962053 -0.06889212
VERTEX2 794 -7.61272610 -7.27683752 0.00216280
VERTEX2 795 -7.63724720 -7.29496971 0.43126050
VERTEX2 796 -7.64385156 -7.29764853 1.09021881
VERTEX2 797 -7.57038792 -6.98973376 1.35016057
VERTEX2 798 -7.43649209 -6.36472240 1.40015720
VERTEX2 799 -7.35045999 -5.72196178 1.46573914
VERTEX2 800 -7.29723280 -5.07728520 1.53850201
VERTEX2 801 -7.30851452 -4.44625244 1.62444932
VERTEX2 802 -7.36261967 -3.82190238 1.68217407
VERTEX2 803 -7.34558159 -3.19407019 1.51753408
VERTEX2 804 -7.32562936 -2.56749091 1.57346173
VERTEX2 805 -7.35903691 -1.93793182 1.64977579
VERTEX2 806 -7.41913372 -1.34047618 1.69121816
VERTEX2 807 -7.44637959 -1.15695694 1.97933601
VERTEX2 808 -7.45101949 -1.15686847 2.92767624
VERTEX2 809 -8.04248592 -1.12815958 3.07236039
VERTEX2 810 -8.65958704 -1.00516729 2.93221428
VERTEX2 811 -9.25828598 -0.89386850 2.92893581
VERTEX2 812 -9.26030007 -0.89348089 -2.62247535
VERTEX2 813 -9.27039432 -0.91601537 -1.64717265
VERTEX2 814 -9.26356638 -0.92141548 -0.65495331
VERTEX2 815 -9.23890519 -0.92971498 0.26430635
VERTEX2 816 -9.23047970 -0.92509909 0.94545248
VERTEX2 817 -9.21953370 -0.91820233 0.27668054
VERTEX2 818 -8.99705032 -0.95203912 -0.21221215
VERTEX2 819 -8.40575148 -1.07958997 -0.19808590
VERTEX2 820 -7.81201757 -1.21122891 -0.23930971
VERTEX2 821 -7.26575544 -1.34195088 -0.22350227
VERTEX2 822 -7.21314878 -1.34992195 0.53799011
VERTEX2 823 -7.21237483 -1.34105944 1.45727817
VERTEX2 824 -7.14918059 -0.72449855 1.37798000
VERTEX2 825 -7.00640827 -0.10594189 1.34836113
VERTEX2 826 -6.94948153 0.52837377 1.51124928
VERTEX2 827 -6.88548284 1.15698726 1.46260506
VERTEX2 828 -6.83127509 1.79308783 1.49813117
VERTEX2 829 -6.77084831 2.39721709 1.45839839
VERTEX2 830 -6.69647513 3.00666472 1.45008769
VERTEX2 831 -6.60283215 3.58443597 1.40329980
VERTEX2 832 -6.51311668 4.14788714 1.39973760
VERTEX2 833 -6.46929376 4.40362328 1.53739622
VERTEX2 834 -6.47141426 4.41111809 2.59206312
VERTEX2 835 -6.48522217 4.41269753 -2.91344998
VERTEX2 836 -6.49759964 4.40222702 -1.97038040
VERTEX2 837 -6.49428110 4.38419507 -0.93401150
VERTEX2 838 -6.48332939 4.37738476 -0.07181096
VERTEX2 839 -6.48359961 4.37751518 -0.29007736
VERTEX2 840 -6.47328856 4.36944622 -0.85272738
VERTEX2 841 -6.46595944 4.35473905 -1.46981477
VERTEX2 842 -6.49197455 4.10911147 -1.70064616
VERTEX2 843 -6.56993892 3.54545876 -1.70318183
VERTEX2 844 -6.64489523 2.91983765 -1.71121133
VERTEX2 845 -6.73839448 2.29470300 -1.72594496
VERTEX2 846 -6.82399977 1.66536188 -1.72422790
VERTEX2 847 -6.93351500 1.04381264 -1.75098782
VERTEX2 848 -6.96414166 0.84854748 -1.27059245
VERTEX2 849 -6.96329480 0.84824714 -0.34848286
VERTEX2 850 -6.60790419 0.84498601 0.00487652
VERTEX2 851 -5.98044878 0.81938439 -0.08764810
VERTEX2 852 -5.35586603 0.75858557 -0.07325386
VERTEX2 853 -4.76084837 0.71647393 -0.10119493
VERTEX2 854 -4.17346006 0.64905252 -0.09920707
VERTEX2 855 -3.57839986 0.59852684 -0.10102031
VERTEX2 856 -2.92243770 0.51298364 -0.14175439
VERTEX2 857 -2.26765823 0.42371097 -0.15134368
VERTEX2 858 -1.61930145 0.30186155 -0.20590635
VERTEX2 859 -1.09884045 0.19805740 -0.21281015
VERTEX2 860 -1.07068507 0.20967034 0.63777807
VERTEX2 861 -1.05518289 0.31936092 1.55237829
VERTEX2 862 -1.01685928 0.97868427 1.49271830
VERTEX2 863 -0.95945351 1.62264179 1.46020712
VERTEX2 864 -0.87238823 2.23265676 1.45807304
VERTEX2 865 -0.83114096 2.84402451 1.51569729
VERTEX2 866 -0.78643754 3.42986225 1.51457293
VERTEX2 867 -0.77894097 3.59381792 1.69577941
VERTEX2 868 -0.78663531 3.60356112 2.71956347
VERTEX2 869 -0.77709037 3.60368395 -2.58527690
VERTEX2 870 -0.75820331 3.61383283 -1.58582108
VERTEX2 871 -0.74416118 3.60431301 -0.61211789
VERTEX2 872 -0.72637298 3.59146495 0.07314570
VERTEX2 873 -0.69992459 3.58264786 -0.49942402
VERTEX2 874 -0.67918542 3.56390451 -1.05903170
VERTEX2 875 -0.67298336 3.54930413 -1.64554751
VERTEX2 876 -0.79318748 2.99309359 -1.80311185
VERTEX2 877 -0.94569009 2.45093653 -1.88776244
VERTEX2 878 -0.99637939 2.25101228 -1.50479417
VERTEX2 879 -0.89556575 1.61255927 -1.45375935
VERTEX2 880 -0.86023255 1.16351087 -1.56644022
VERTEX2 881 -0.86058689 1.21332613 -1.56109071
VERTEX2 882 -0.91745911 0.57372253 -1.80759898
VERTEX2 883 -1.13361487 -0.02161680 -1.99830676
VERTEX2 884 -1.29248753 -0.35400960 -2.06525999
VERTEX2 885 -1.29246202 -0.35399769 -1.48367168
VERTEX2 886 -1.27590964 -0.36951801 -0.46564703
VERTEX2 887 -1.24835927 -0.38024453 0.54569423
VERTEX2 888 -1.23854695 -0.35961720 1.52981491
VERTEX2 889 -1.24019577 -0.35487762 2.42788008
VERTEX2 890 -1.55650675 -0.20188510 2.70182077
VERTEX2 891 -2.09452864 0.06528555 2.63151904
VERTEX2 892 -2.62883296 0.38502406 2.59597073
VERTEX2 893 -3.18247222 0.68120232 2.83227957
VERTEX2 894 -3.79646601 0.79268519 3.05335893
VERTEX2 895 -4.39706494 0.74384486 -2.93153193
VERTEX2 896 -4.41628363 0.73925762 -2.45300733
VERTEX2 897 -4.70073323 0.31846935 -2.18070705
VERTEX2 898 -5.05232395 -0.19104964 -2.16511588
VERTEX2 899 -5.33894032 -0.60099929 -2.23278159
VERTEX2 900 -5.75244632 -1.14514819 -2.23512307
VERTEX2 901 -6.12419101 -1.58928231 -2.29946075
VERTEX2 902 -6.54051288 -2.08060009 -2.27420801
VERTEX2 903 -6.85675175 -2.45938149 -2.31896716
VERTEX2 904 -6.85737339 -2.46028991 -1.61610718
VERTEX2 905 -6.84412081 -2.95258318 -1.56070406
VERTEX2 906 -6.81089716 -3.52311629 -1.49506577
VERTEX2 907 -6.75544614 -4.09689104 -1.50332599
VERTEX2 908 -6.70972396 -4.72327593 -1.47873084
VERTEX2 909 -6.65044845 -5.33400459 -1.49649821
VERTEX2 910 -6.67800042 -5.46157553 -1.86610962
VERTEX2 911 -6.83837461 -6.03050171 -1.80506889
VERTEX2 912 -6.96027320 -6.59594334 -1.79233004
VERTEX2 913 -7.07317219 -7.13944199 -1.78429154
VERTEX2 914 -7.19996543 -7.72913179 -1.80785470
VERTEX2 915 -7.32417485 -8.23966398 -1.84448525
VERTEX2 916 -7.25876906 -8.48829406 -1.29676161
VERTEX2 917 -7.11997461 -9.13594400 -1.55113945
VERTEX2 918 -7.13998988 -9.65116487 -1.62665806
VERTEX2 919 -7.17331776 -10.27210134 -1.66997562
VERTEX2 920 -7.23736680 -10.88309803 -1.68757620
VERTEX2 921 -7.31019435 -11.49521613 -1.74094955
VERTEX2 922 -7.41202938 -12.09551885 -1.76820546
VERTEX2 923 -7.53132118 -12.65820293 -1.83173217
VERTEX2 924 -7.66283358 -13.14954366 -1.81510912
VERTEX2 925 -7.66377667 -13.14484661 -1.31040726
VERTEX2 926 -7.50376414 -13.70719696 -1.29423310
VERTEX2 927 -7.33694031 -14.29812878 -1.31758100
VERTEX2 928 -7.17923287 -14.90442674 -1.32656582
VERTEX2 929 -7.02809482 -15.50785853 -1.32752961
VERTEX2 930 -6.88205410 -16.13335878 -1.41022556
VERTEX2 931 -6.79665860 -16.75403705 -1.49057242
VERTEX2 932 -6.75057432 -17.38347769 -1.55005454
VERTEX2 933 -6.74738648 -17.99832000 -1.61469154
VERTEX2 934 -6.76229136 -18.48117632 -1.62454981
VERTEX2 935 -6.75900791 -18.49647413 -0.94250168
VERTEX2 936 -6.75658202 -18.49732776 0.00256946
VERTEX2 937 -6.21442208 -18.47269694 0.06542549
VERTEX2 938 -5.61818194 -18.48936565 -0.10799974
VERTEX2 939 -4.99400268 -18.54989566 -0.08029376
VERTEX2 940 -4.38209656 -18.62570111 -0.16619493
VERTEX2 941 -3.77739815 -18.74189216 -0.21988599
VERTEX2 942 -3.25884607 -18.85823668 -0.21542553
VERTEX2 943 -2.64985881 -18.99283089 -0.12714022
VERTEX2 944 -2.03681943 -19.07666848 -0.18383708
VERTEX2 945 -1.41624885 -19.20629280 -0.23900821
VERTEX2 946 -1.24216534 -19.25097153 -0.17473232
VERTEX2 947 -0.83383291 -19.18882645 0.15341475
VERTEX2 948 -0.26123436 -19.10078911 0.13421853
VERTEX2 949 0.34165713 -19.06762921 -0.02151473
VERTEX2 950 0.97173803 -19.10528574 -0.26111871
VERTEX2 951 1.57362830 -19.27965976 -0.33332923
VERTEX2 952 2.17522038 -19.45707516 -0.08263028
VERTEX2 953 2.80474452 -19.49033131 -0.00241257
VERTEX2 954 3.42929574 -19.48481931 -0.00948755
VERTEX2 955 4.01896361 -19.53219052 -0.17039403
VERTEX2 956 4.56993231 -19.61240781 -0.17273633
VERTEX2 957 5.10168935 -19.71039100 -0.26047984
VERTEX2 958 5.56883192 -19.82439077 -0.28725013
VERTEX2 959 6.00114090 -19.94459572 -0.35438432
VERTEX2 960 6.59010230 -20.10904600 -0.27450391
VERTEX2 961 7.17137454 -20.28477924 -0.30154209
VERTEX2 962 7.78847848 -20.41487321 -0.23592635
VERTEX2 963 8.40574334 -20.49718331 -0.04924063
VERTEX2 964 9.02757027 -20.54016288 -0.11312175
VERTEX2 965 9.64508502 -20.62064030 -0.11999640
VERTEX2 966 10.08763592 -20.67983308 -0.17898419
VERTEX2 967 10.12080062 -20.67316228 0.67436588
VERTEX2 968 10.13036254 -20.66415944 1.57104824
VERTEX2 969 10.13271744 -20.69211846 1.63059043
VERTEX2 970 10.13511992 -20.72040791 1.62892440
VERTEX2 971 10.11491845 -20.38746877 1.62911797
VERTEX2 972 10.07657065 -19.80122752 1.63478331
VERTEX2 973 10.15618686 -19.22010973 1.34982664
VERTEX2 974 10.29532848 -18.61966227 1.38164150
VERTEX2 975 10.40665710 -18.01499255 1.38622498
VERTEX2 976 10.51125463 -17.40764146 1.39908694
VERTEX2 977 10.64663260 -16.79060527 1.37283046
VERTEX2 978 10.76726336 -16.17974285 1.41881041
VERTEX2 979 10.88171007 -15.57272903 1.40652966
VERTEX2 980 10.97912389 -14.96879838 1.45343318
VERTEX2 981 11.06744867 -14.37540826 1.46031151
VERTEX2 982 11.12337437 -13.84855518 1.50523895
VERTEX2 983 11.17236399 -13.25046066 1.50181700
VERTEX2 984 11.19900751 -12.65475966 1.55913197
VERTEX2 985 11.20934389 -12.05806138 1.57935653
VERTEX2 986 11.19387903 -11.43767806 1.61562362
VERTEX2 987 11.18073491 -10.81877805 1.57885182
VERTEX2 988 11.18305135 -10.20025659 1.59247752
VERTEX2 989 11.16823276 -9.58613864 1.60014505
VERTEX2 990 11.16124373 -8.97534383 1.58939604
VERTEX2 991 11.14580117 -8.36103971 1.61426331
VERTEX2 992 11.14056584 -7.77467581 1.58172659
VERTEX2 993 11.12669257 -7.15886934 1.61453741
VERTEX2 994 11.11017574 -6.57382385 1.60465690
VERTEX2 995 11.07793807 -5.97647957 1.65198335
VERTEX2 996 11.01773089 -5.36398965 1.67915849
VERTEX2 997 10.97244287 -4.71295119 1.61478630
VERTEX2 998 10.95239927 -4.30423352 1.63668309
VERTEX2 999 10.97610922 -4.32342220 2.35463538
VERTEX2 1000 10.50953900 -3.96029006 2.50333447
VERTEX2 1001 10.06655369 -3.55673374 2.18245835
VERTEX2 1002 9.69679276 -3.08151940 2.27518018
VERTEX2 1003 9.34433280 -2.57898842 2.09563988
VERTEX2 1004 9.00587122 -2.04301213 2.15387165
VERTEX2 1005 8.65269937 -1.54942080 2.21630049
VERTEX2 1006 8.25740622 -1.07204155 2.29367768
VERTEX2 1007 7.84522729 -0.64663925 2.38534182
VERTEX2 1008 7.61007251 -0.43234950 2.54487127
VERTEX2 1009 7.51294627 -0.41767349 3.01791834
VERTEX2 1010 6.94605969 -0.36206047 3.07045939
VERTEX2 1011 6.33011824 -0.32299883 3.02737829
VERTEX2 1012 5.72043792 -0.25995128 3.06930346
VERTEX2 1013 5.08403088 -0.26268842 -3.09890131
VERTEX2 1014 4.47087172 -0.21477173 3.00900197
VERTEX2 1015 3.84567183 -0.17548267 3.09347852
VERTEX2 1016 3.07584550 -0.13793994 3.10021121
VERTEX2 1017 2.49016484 -0.12444367 3.04302471
VERTEX2 1018 1.93200687 -0.06244398 3.05029311
VERTEX2 1019 1.33678196 -0.03778330 3.10981328
VERTEX2 1020 0.72130736 -0.00160234 3.09584060
VERTEX2 1021 0.09994150 0.02772313 3.05521598
VERTEX2 1022 0.04612115 0.03218854 3.04796734
VERTEX2 1023 0.05274834 0.03205943 3.13453447
VERTEX2 1024 -0.57446471 0.04006497 -3.12234098
VERTEX2 1025 -1.20381080 0.00979414 -3.10478952
VERTEX2 1026 -1.36546871 0.00434912 -3.09763482
VERTEX2 1027 -1.34939737 0.01221497 -2.18118025
VERTEX2 1028 -1.36255254 -0.15325818 -1.61776674
VERTEX2 1029 -1.39155092 -0.71851873 -1.63934459
VERTEX2 1030 -1.45542980 -1.33828280 -1.71977232
VERTEX2 1031 -1.56840219 -1.98211706 -1.77392531
VERTEX2 1032 -1.69926199 -2.62601590 -1.76987827
VERTEX2 1033 -1.84311010 -3.26870428 -1.81501695
VERTEX2 1034 -1.88755582 -3.43813393 -2.02877596
VERTEX2 1035 -1.89232249 -3.44215128 -2.64803919
VERTEX2 1036 -1.86217972 -3.45607696 3.06439434
VERTEX2 1037 -2.20278321 -3.32621628 2.82603077
VERTEX2 1038 -2.81466118 -3.20363414 2.91726840
VERTEX2 1039 -3.45358298 -3.03366117 2.88576504
VERTEX2 1040 -3.42825551 -3.03427485 -2.76727469
VERTEX2 1041 -3.39984209 -3.03801469 -1.75022207
VERTEX2 1042 -3.40155725 -3.06937509 -0.76218277
VERTEX2 1043 -3.36889467 -3.09943393 0.20750495
VERTEX2 1044 -3.38187992 -3.11478276 1.20141422
VERTEX2 1045 -3.38445312 -3.12046048 1.08737827
VERTEX2 1046 -3.39430423 -3.13372807 0.70182927
VERTEX2 1047 -3.41282251 -3.14180774 0.14603974
VERTEX2 1048 -3.05065576 -3.21067550 -0.16696972
VERTEX2 1049 -2.40546134 -3.30849299 -0.14982458
VERTEX2 1050 -1.75848954 -3.37857402 -0.07416315
VERTEX2 1051 -1.10489450 -3.45136919 -0.15323769
VERTEX2 1052 -0.48287485 -3.53164765 -0.10022241
VERTEX2 1053 -0.06744709 -3.58549567 -0.15279377
VERTEX2 1054 -0.04355501 -3.58799366 0.60970669
VERTEX2 1055 -0.03718925 -3.55778120 1.66673565
VERTEX2 1056 -0.03023183 -3.56779802 2.67116485
VERTEX2 1057 -0.00745636 -3.57024329 -2.62114383
VERTEX2 1058 -0.00871773 -3.57173796 -1.69894222
VERTEX2 1059 -0.10476355 -4.15208460 -1.77967418
VERTEX2 1060 -0.23939122 -4.78000465 -1.77464795
VERTEX2 1061 -0.34502876 -5.22407573 -1.89714367
VERTEX2 1062 -0.34834186 -5.22920852 -2.46089126
VERTEX2 1063 -0.32434019 -5.21540714 -3.05963657
VERTEX2 1064 -0.60391930 -5.16331940 2.95809115
VERTEX2 1065 -1.19083598 -5.09718292 3.07989328
VERTEX2 1066 -1.75323552 -5.04555810 3.02363496
VERTEX2 1067 -1.73815239 -5.04476130 -2.82715773
VERTEX2 1068 -1.72604533 -5.03625110 -2.15474507
VERTEX2 1069 -1.72589660 -5.03586367 -1.98454763
VERTEX2 1070 -1.72499052 -5.03428639 -2.52381862
VERTEX2 1071 -2.19708475 -5.29050907 -2.65120674
VERTEX2 1072 -2.64739294 -5.52315838 -2.72002892
VERTEX2 1073 -2.61760341 -5.52240953 3.05168053
VERTEX2 1074 -3.14657891 -5.45039018 3.01716304
VERTEX2 1075 -3.72319626 -5.37387435 3.03357171
VERTEX2 1076 -3.74120403 -5.37256896 -2.84578648
VERTEX2 1077 -3.75571581 -5.39985501 -2.04081649
VERTEX2 1078 -3.99625785 -6.01185717 -1.99585191
VERTEX2 1079 -4.23121117 -6.58075111 -1.93393450
VERTEX2 1080 -4.23709068 -6.59636709 -2.42201029
VERTEX2 1081 -4.66654884 -6.88833728 -2.54549134
VERTEX2 1082 -4.83370424 -7.00433824 -2.26478814
VERTEX2 1083 -4.82978607 -7.03492744 -1.23356068
VERTEX2 1084 -4.75718702 -7.07240486 -0.26756223
VERTEX2 1085 -4.76277633 -7.07388413 0.71591166
VERTEX2 1086 -4.40148463 -6.58419408 0.94653902
VERTEX2 1087 -4.02085676 -6.07673487 0.93454562
VERTEX2 1088 -3.65884721 -5.56488609 0.91786158
VERTEX2 1089 -3.60180463 -5.49143221 0.82245647
VERTEX2 1090 -3.59041777 -5.48106394 0.20751766
VERTEX2 1091 -3.05365060 -5.45000952 0.03070086
VERTEX2 1092 -2.43569654 -5.43588889 0.01559459
VERTEX2 1093 -1.86786904 -5.43993030 -0.04945019
VERTEX2 1094 -1.85674926 -5.45056388 -0.45354340
VERTEX2 1095 -1.82785295 -5.47629169 -1.04328890
VERTEX2 1096 -1.82912726 -5.47063340 -1.61452230
VERTEX2 1097 -1.91280531 -5.79474861 -1.82978558
VERTEX2 1098 -2.09050478 -6.38999165 -1.88652856
VERTEX2 1099 -2.29716924 -6.94364545 -1.98250212
VERTEX2 1100 -2.30112633 -6.95356087 -1.61992588
VERTEX2 1101 -2.24454827 -7.21197143 -1.35446665
VERTEX2 1102 -2.24485078 -7.21530181 -1.74868951
VERTEX2 1103 -2.37413017 -7.81890479 -1.78275371
VERTEX2 1104 -2.51451096 -8.44872769 -1.81072142
VERTEX2 1105 -2.67212358 -9.06451940 -1.82887455
VERTEX2 1106 -2.79966066 -9.53535219 -1.85436239
VERTEX2 1107 -2.79944788 -9.53807482 -1.59862935
VERTEX2 1108 -2.77350361 -10.15920912 -1.59103053
VERTEX2 1109 -2.83183084 -10.79731819 -1.69524770
VERTEX2 1110 -2.91198915 -11.39900582 -1.74501502
VERTEX2 1111 -3.08589653 -11.92142324 -1.84655675
VERTEX2 1112 -3.12598361 -12.49492124 -1.50052290
VERTEX2 1113 -3.09770283 -13.12905334 -1.59615115
VERTEX2 1114 -3.11245304 -13.74575953 -1.57884356
VERTEX2 1115 -3.11403683 -14.32927895 -1.59476502
VERTEX2 1116 -3.10684931 -14.97806251 -1.55824091
VERTEX2 1117 -3.10472517 -15.07600837 -1.68569013
VERTEX2 1118 -3.10270586 -15.07229953 -2.29222813
VERTEX2 1119 -3.09152622 -15.06466978 -2.72334866
VERTEX2 1120 -3.65271663 -15.26589228 -2.78668716
VERTEX2 1121 -3.83966199 -15.33064796 -2.90495487
VERTEX2 1122 -3.83360068 -15.33275889 2.82834725
VERTEX2 1123 -4.38056177 -15.14652034 2.84544985
VERTEX2 1124 -4.93606873 -15.01625522 2.94438607
VERTEX2 1125 -5.55959798 -14.88911691 2.95803921
VERTEX2 1126 -5.63848068 -14.87614738 -2.98515757
VERTEX2 1127 -5.63148305 -14.88365200 -1.92734805
VERTEX2 1128 -5.63142836 -14.88342642 -0.93949062
VERTEX2 1129 -5.61183622 -14.89443783 0.07663450
VERTEX2 1130 -5.02280079 -14.83126965 0.09052291
VERTEX2 1131 -4.24821758 -14.95868339 -0.34084363
VERTEX2 1132 -3.63628921 -15.17839425 -0.36026171
VERTEX2 1133 -3.08207388 -15.41167814 -0.39870675
VERTEX2 1134 -2.82119986 -15.52200728 -0.49540615
VERTEX2 1135 -2.80002833 -15.54284443 -1.05081604
VERTEX2 1136 -2.80674141 -15.55675063 -1.61215883
VERTEX2 1137 -2.86441751 -15.87706288 -1.79581996
VERTEX2 1138 -3.02408680 -16.52722684 -1.81183374
VERTEX2 1139 -3.14473673 -17.02539963 -1.88489319
VERTEX2 1140 -3.13602586 -17.00464011 -2.36354986
VERTEX2 1141 -3.11615367 -16.98540565 -2.91059831
VERTEX2 1142 -3.47851287 -16.94121040 3.00852455
VERTEX2 1143 -4.07600752 -16.89306070 3.09806808
VERTEX2 1144 -4.65651152 -16.85732385 3.06757327
VERTEX2 1145 -5.23449128 -16.81034307 3.04221837
VERTEX2 1146 -5.81000722 -16.75171206 3.06206378
VERTEX2 1147 -6.38931648 -16.74016745 3.13487350
VERTEX2 1148 -6.96786034 -16.73635524 -3.13896735
VERTEX2 1149 -7.01050279 -16.73753649 -2.64233046
VERTEX2 1150 -7.10287776 -16.83949539 -1.82933100
VERTEX2 1151 -7.10087283 -16.85118986 -0.82539676
VERTEX2 1152 -7.08442143 -16.85150716 0.22784557
VERTEX2 1153 -7.07048494 -16.84523698 1.24074549
VERTEX2 1154 -7.12895226 -16.52860236 1.78680631
VERTEX2 1155 -7.26053584 -15.90442515 1.73745924
VERTEX2 1156 -7.35630659 -15.29894840 1.74747895
VERTEX2 1157 -7.48199150 -14.72810226 1.85859154
VERTEX2 1158 -7.60681102 -14.12622710 1.73003760
VERTEX2 1159 -7.66580488 -13.52380343 1.63603710
VERTEX2 1160 -7.68675827 -12.88484916 1.49933269
VERTEX2 1161 -7.58548992 -12.25413670 1.40967884
VERTEX2 1162 -7.49246660 -11.62311352 1.46782986
VERTEX2 1163 -7.42836120 -10.98107574 1.46241464
VERTEX2 1164 -7.37857724 -10.34098124 1.54790380
VERTEX2 1165 -7.36657355 -9.80103632 1.52510117
VERTEX2 1166 -7.36734993 -9.79723306 2.01410968
VERTEX2 1167 -7.31558741 -9.78472426 2.95082504
VERTEX2 1168 -7.27099873 -9.76705619 -2.42883326
VERTEX2 1169 -7.27500919 -9.81820918 -1.60675663
VERTEX2 1170 -7.28578524 -10.40398994 -1.60000796
VERTEX2 1171 -7.28619485 -11.03854230 -1.56821897
VERTEX2 1172 -7.29101824 -11.63714257 -1.63062251
VERTEX2 1173 -7.32145878 -12.26041015 -1.62146505
VERTEX2 1174 -7.36581316 -12.88885067 -1.69015995
VERTEX2 1175 -7.45238111 -13.50209250 -1.72355527
VERTEX2 1176 -7.55034541 -14.12221336 -1.76723799
VERTEX2 1177 -7.67043424 -14.73026998 -1.76520186
VERTEX2 1178 -7.80208235 -15.34223686 -1.81242506
VERTEX2 1179 -7.94018996 -15.94606595 -1.78309083
VERTEX2 1180 -7.99463835 -16.19918828 -1.79009017
VERTEX2 1181 -7.99373438 -16.19286478 -0.96269449
VERTEX2 1182 -7.93805346 -16.20707959 -0.25103370
VERTEX2 1183 -7.32447505 -16.35678391 -0.22574973
VERTEX2 1184 -6.69156161 -16.47239703 -0.15626169
VERTEX2 1185 -6.06355161 -16.58358789 -0.18857975
VERTEX2 1186 -5.43192795 -16.67933759 -0.12247429
VERTEX2 1187 -4.77794883 -16.76576159 -0.15965830
VERTEX2 1188 -4.15057202 -16.85659117 -0.14165116
VERTEX2 1189 -3.48701722 -16.96497994 -0.11995244
VERTEX2 1190 -3.15512301 -17.00563534 -0.11191800
VERTEX2 1191 -3.12235183 -17.00494553 0.80840854
VERTEX2 1192 -3.11658063 -16.92167823 1.60610440
VERTEX2 1193 -3.11013961 -16.32197390 1.47411423
VERTEX2 1194 -3.06916098 -15.74802140 1.51619018
VERTEX2 1195 -3.04105138 -15.12475967 1.56855784
VERTEX2 1196 -3.03564927 -14.50130067 1.39594717
VERTEX2 1197 -2.93278791 -13.88682345 1.40724151
VERTEX2 1198 -2.86294518 -13.26042640 1.66614319
VERTEX2 1199 -2.88077815 -12.64833519 1.45150434
VERTEX2 1200 -2.82436216 -12.01865366 1.52054882
VERTEX2 1201 -2.80019456 -11.39926285 1.57640153
VERTEX2 1202 -2.81126529 -10.77708745 1.59936483
VERTEX2 1203 -2.84250987 -10.18784609 1.50945401
VERTEX2 1204 -2.72891406 -9.59636350 1.36267837
VERTEX2 1205 -2.62114648 -9.03396348 1.39224868
VERTEX2 1206 -2.53628987 -8.44450734 1.45347208
VERTEX2 1207 -2.39951045 -7.83376455 1.36736322
VERTEX2 1208 -2.28758597 -7.20928472 1.43202753
VERTEX2 1209 -2.20110042 -6.58815321 1.43006700
VERTEX2 1210 -2.13668548 -5.97118550 1.45061118
VERTEX2 1211 -2.01101490 -5.36166877 1.37732327
VERTEX2 1212 -1.89625746 -4.75265312 1.42696127
VERTEX2 1213 -1.82889348 -4.14273152 1.49988173
VERTEX2 1214 -1.74651581 -3.42088923 1.27679306
VERTEX2 1215 -1.58187277 -2.83838629 1.33555795
VERTEX2 1216 -1.53124472 -2.28899909 1.55257276
VERTEX2 1217 -1.49647357 -1.71345946 1.53306963
VERTEX2 1218 -1.48256994 -1.12289942 1.48247507
VERTEX2 1219 -1.43181039 -0.47360915 1.51313487
VERTEX2 1220 -1.42476046 0.11390759 1.60393224
VERTEX2 1221 -1.42460937 0.11339762 1.15128459
VERTEX2 1222 -1.41600770 0.12177115 0.55410456
VERTEX2 1223 -1.40706033 0.12388852 -0.00540151
VERTEX2 1224 -0.83624352 0.03223024 -0.18823988
VERTEX2 1225 -0.22401688 -0.08044705 -0.17442449
VERTEX2 1226 -0.11914783 -0.09903725 -0.19115549
VERTEX2 1227 -0.11914783 -0.09903725 -0.19181749
