VERTEX2 0 -0.00001700 -0.00000086 -0.00000134
VERTEX2 1 -0.00001700 -0.00000086 -0.00064334
VERTEX2 2 -0.00001700 -0.00000086 -0.00118134
VERTEX2 3 0.01098486 -0.00097586 -0.00356334
VERTEX2 4 0.64099142 -0.01120184 -0.00744534
VERTEX2 5 0.69599910 -0.01171741 -0.09872734
VERTEX2 6 0.70025221 -0.01543673 -0.89599934
VERTEX2 7 0.69393951 0.00421176 -1.51153634
VERTEX2 8 0.69924639 0.02669252 -2.12507034
VERTEX2 9 0.71609768 0.04112152 -2.76314034
VERTEX2 10 0.72896420 0.04321889 2.90551397
VERTEX2 11 0.73318678 0.04053584 2.23123497
VERTEX2 12 0.73316950 0.04154429 1.58176097
VERTEX2 13 0.73873568 0.05906938 0.92226297
VERTEX2 14 0.75964122 0.07374956 0.31402397
VERTEX2 15 0.76855463 0.07435649 -0.21090403
VERTEX2 16 1.06247661 0.01415065 -0.22959603
VERTEX2 17 1.66363006 -0.13311690 -0.26082403
VERTEX2 18 2.28698398 -0.29648281 -0.27100103
VERTEX2 19 2.91427963 -0.49425749 -0.31957703
VERTEX2 20 3.50826083 -0.68451032 -0.31368417
VERTEX2 21 4.11759518 -0.83705339 -0.20214539
VERTEX2 22 4.72774165 -0.97858513 -0.18477653
VERTEX2 23 5.36770077 -1.02301818 -0.07738100
VERTEX2 24 5.99934215 -1.09446713 -0.13446345
VERTEX2 25 6.63429061 -1.16241719 -0.13172069
VERTEX2 26 7.24365944 -1.26331050 -0.17228556
VERTEX2 27 7.85994687 -1.35502008 -0.15648334
VERTEX2 28 8.44197177 -1.45402961 -0.16095600
VERTEX2 29 8.82140644 -1.51172583 -0.13021211
VERTEX2 30 8.83118855 -1.51433121 -0.66239459
VERTEX2 31 8.93304560 -1.65111157 -0.93079383
VERTEX2 32 9.29978325 -2.16435191 -0.94933902
VERTEX2 33 9.68561211 -2.67567553 -0.89838886
VERTEX2 34 10.10112148 -3.17074515 -0.87723893
VERTEX2 35 10.52695853 -3.65805799 -0.84289457
VERTEX2 36 10.95949889 -4.14655429 -0.85140986
VERTEX2 37 11.24559962 -4.46563341 -0.84368439
VERTEX2 38 11.24733880 -4.46796368 -1.16529126
VERTEX2 39 11.24666393 -4.46465210 -1.33619006
VERTEX2 40 11.39281821 -5.04108712 -1.31889130
VERTEX2 41 11.54457497 -5.64261295 -1.35084691
VERTEX2 42 11.66860455 -6.20747634 -1.37353166
VERTEX2 43 11.77664254 -6.80382218 -1.41371367
VERTEX2 44 11.86774339 -7.39930613 -1.45068122
VERTEX2 45 11.92401738 -8.01864837 -1.50622620
VERTEX2 46 11.95625085 -8.64002638 -1.52564444
VERTEX2 47 11.97758903 -9.26123284 -1.56735955
VERTEX2 48 11.97531579 -9.88683279 -1.57394844
VERTEX2 49 11.96925539 -10.50837474 -1.62483057
VERTEX2 50 11.91700901 -11.09747803 -1.66937845
VERTEX2 51 11.86300162 -11.69364704 -1.69847954
VERTEX2 52 11.76703395 -12.27638818 -1.77524641
VERTEX2 53 11.66817268 -12.83358074 -1.76294128
VERTEX2 54 11.55620605 -13.34492850 -1.82508034
VERTEX2 55 11.56293701 -13.31242749 -1.81985251
VERTEX2 56 11.56248696 -13.31420226 -1.80932791
VERTEX2 57 11.41963130 -13.93169215 -1.82077589
VERTEX2 58 11.27415616 -14.53741519 -1.77460859
VERTEX2 59 11.14597699 -15.14266780 -1.79824562
VERTEX2 60 11.01715713 -15.74424696 -1.77692353
VERTEX2 61 10.88251875 -16.34628225 -1.82772985
VERTEX2 62 10.73315641 -16.90520934 -1.78789204
VERTEX2 63 10.58199326 -17.46893489 -1.82340266
VERTEX2 64 10.44735253 -18.02726199 -1.76004283
VERTEX2 65 10.31314361 -18.58340614 -1.81149706
VERTEX2 66 10.15990295 -19.16940292 -1.81957039
VERTEX2 67 9.99486280 -19.75888659 -1.81818712
VERTEX2 68 9.88518561 -20.20649077 -1.83400266
VERTEX2 69 9.88836378 -20.19612136 -1.98899126
VERTEX2 70 9.89532623 -20.18279040 -2.66337586
VERTEX2 71 9.91872969 -20.18143698 2.97712804
VERTEX2 72 9.93145990 -20.18299545 2.96763617
VERTEX2 73 9.93890321 -20.18483313 2.90268199
VERTEX2 74 9.93900742 -20.18489030 2.28086139
VERTEX2 75 9.94570839 -20.18751053 1.92849760
VERTEX2 76 9.93397274 -20.17449753 2.62236525
VERTEX2 77 9.92968244 -20.17269810 2.85530929
VERTEX2 78 9.64829777 -20.18331257 -3.09075009
VERTEX2 79 9.03019712 -20.22186404 -3.09602548
VERTEX2 80 8.39839754 -20.22016675 3.11262283
VERTEX2 81 7.77433853 -20.19339190 3.08660682
VERTEX2 82 7.17526247 -20.15237342 3.03244174
VERTEX2 83 6.58715858 -20.10073586 3.00888109
VERTEX2 84 6.02509421 -20.01453094 2.93101540
VERTEX2 85 5.48274985 -19.91021368 2.93825916
VERTEX2 86 4.87396984 -19.78906481 2.84844034
VERTEX2 87 4.48156722 -19.68120704 2.79609972
VERTEX2 88 4.12319624 -19.54798942 2.76626673
VERTEX2 89 4.13319886 -19.54847916 -3.12121195
VERTEX2 90 3.52848612 -19.55114344 3.13084620
VERTEX2 91 2.91295449 -19.54616745 -3.10327488
VERTEX2 92 2.31350997 -19.54135447 3.06420443
VERTEX2 93 1.69240866 -19.43799910 2.96333388
VERTEX2 94 1.07155350 -19.29876580 2.92055461
VERTEX2 95 0.45753431 -19.21097073 3.06280907
VERTEX2 96 -0.15592028 -19.15870543 3.08697035
VERTEX2 97 -0.74897808 -19.09461908 3.01647080
VERTEX2 98 -1.34044847 -18.99241762 2.95860295
VERTEX2 99 -2.04848321 -18.86676488 3.00550942
VERTEX2 100 -2.61603691 -18.75766260 2.95388406
VERTEX2 101 -3.23036734 -18.70023555 3.05727406
VERTEX2 102 -3.84439251 -18.61928846 2.95141494
VERTEX2 103 -4.45374299 -18.50379699 3.04742102
VERTEX2 104 -5.06697842 -18.42693795 3.01379341
VERTEX2 105 -5.68039673 -18.36196451 3.06040195
VERTEX2 106 -6.28323853 -18.29108158 3.00559012
VERTEX2 107 -6.90187418 -18.19446695 3.00182683
VERTEX2 108 -7.35748171 -18.14526454 3.06341101
VERTEX2 109 -7.40382002 -18.13349398 2.61493081
VERTEX2 110 -7.42105279 -18.11563604 2.02361171
VERTEX2 111 -7.42118106 -18.03489937 1.51778857
VERTEX2 112 -7.39697213 -17.40111594 1.57221307
VERTEX2 113 -7.41491336 -16.77885286 1.61924368
VERTEX2 114 -7.44761775 -16.16501945 1.65602720
VERTEX2 115 -7.52056146 -15.52436426 1.71631317
VERTEX2 116 -7.63906021 -14.77327614 1.76042936
VERTEX2 117 -7.77472973 -14.16230989 1.85602579
VERTEX2 118 -7.77951888 -14.14100509 1.52149473
VERTEX2 119 -7.72418190 -13.62306562 1.46830519
VERTEX2 120 -7.67231666 -12.96691418 1.55861088
VERTEX2 121 -7.68392152 -12.34768128 1.62630191
VERTEX2 122 -7.71923896 -11.76557795 1.68255104
VERTEX2 123 -7.74458773 -11.58581099 1.66980096
VERTEX2 124 -7.65936361 -11.34774039 1.24690693
VERTEX2 125 -7.44481853 -10.75557992 1.23600179
VERTEX2 126 -7.31444645 -10.14005211 1.44259424
VERTEX2 127 -7.21941868 -9.50493622 1.44115786
VERTEX2 128 -7.14681111 -8.86541704 1.47772001
VERTEX2 129 -7.06341521 -8.22985301 1.44518325
VERTEX2 130 -6.99899150 -7.59599135 1.49794913
VERTEX2 131 -6.95641516 -6.96756201 1.58648473
VERTEX2 132 -6.94190406 -6.34822008 1.53689256
VERTEX2 133 -6.89774497 -5.78074410 1.50010029
VERTEX2 134 -6.84677136 -5.18432682 1.48190685
VERTEX2 135 -6.76768784 -4.60836277 1.45570326
VERTEX2 136 -6.69673237 -3.97535590 1.47534014
VERTEX2 137 -6.60339942 -3.34447769 1.43349719
VERTEX2 138 -6.53074314 -2.71446687 1.51366423
VERTEX2 139 -6.51743222 -2.08315369 1.57901443
VERTEX2 140 -6.54927588 -1.42722454 1.60957879
VERTEX2 141 -6.55869566 -0.78658589 1.56117219
VERTEX2 142 -6.56249164 -0.13624291 1.55735544
VERTEX2 143 -6.48479091 0.50323482 1.44680119
VERTEX2 144 -6.44697556 0.87543695 1.46432924
VERTEX2 145 -6.44153171 0.89221494 0.96590067
VERTEX2 146 -6.43992596 0.90062145 0.37263895
VERTEX2 147 -6.38476954 0.89709703 -0.11391742
VERTEX2 148 -5.95345260 0.83986059 -0.14958678
VERTEX2 149 -5.31303252 0.75025069 -0.12450442
VERTEX2 150 -4.67922728 0.68985014 -0.11037037
VERTEX2 151 -4.03990876 0.64657557 -0.02473680
VERTEX2 152 -3.41479639 0.61544295 -0.08560169
VERTEX2 153 -2.78998272 0.58694183 0.00784270
VERTEX2 154 -2.16883622 0.57020685 -0.06168100
VERTEX2 155 -1.54382086 0.54103418 -0.02823058
VERTEX2 156 -0.91652212 0.53101513 0.00253075
VERTEX2 157 -0.35283283 0.51721402 -0.06182093
VERTEX2 158 -0.15825862 0.50471106 -0.03432633
VERTEX2 159 -0.15270911 0.50297304 0.95300075
VERTEX2 160 -0.14733485 0.51187328 1.98867883
VERTEX2 161 -0.16955958 0.45277089 2.70973543
VERTEX2 162 -0.14380259 0.45863022 -2.53765083
VERTEX2 163 -0.14479324 0.45361016 -1.54057068
VERTEX2 164 -0.22133571 0.54856266 -0.47854874
VERTEX2 165 -0.04786287 0.53142483 -0.07074772
VERTEX2 166 0.64938036 0.48865260 -0.06903961
VERTEX2 167 1.26593421 0.43854863 -0.09845978
VERTEX2 168 1.85394058 0.38942529 -0.08651282
VERTEX2 169 2.44910405 0.31795669 -0.12349993
VERTEX2 170 3.03552573 0.24968286 -0.14419891
VERTEX2 171 3.59717333 0.15124691 -0.18256044
VERTEX2 172 4.22251970 0.04362756 -0.16856031
VERTEX2 173 4.85147875 -0.07710346 -0.19146793
VERTEX2 174 5.47666153 -0.19146377 -0.15142106
VERTEX2 175 6.09286577 -0.28174746 -0.17619630
VERTEX2 176 6.69223941 -0.40214852 -0.16665486
VERTEX2 177 7.31551803 -0.50509714 -0.19437026
VERTEX2 178 7.93689515 -0.65121616 -0.23343968
VERTEX2 179 8.34033438 -0.73515924 -0.18014398
VERTEX2 180 8.39051641 -0.74868978 -0.62225499
VERTEX2 181 8.83108045 -1.06742021 -0.67408701
VERTEX2 182 9.23746708 -1.42803799 -0.84817766
VERTEX2 183 9.58435255 -1.84950883 -0.90558935
VERTEX2 184 9.93307436 -2.37634156 -1.05081742
VERTEX2 185 10.22541886 -2.92600184 -1.14231674
VERTEX2 186 10.45163263 -3.50725954 -1.20776187
VERTEX2 187 10.65339529 -4.06629060 -1.22958491
VERTEX2 188 10.86223910 -4.64475838 -1.23427546
VERTEX2 189 11.06384398 -5.22710655 -1.26029404
VERTEX2 190 11.24901006 -5.83079268 -1.28919977
VERTEX2 191 11.42374573 -6.43379022 -1.31340067
VERTEX2 192 11.57942883 -7.03022248 -1.34188094
VERTEX2 193 11.70406623 -7.57808668 -1.39773014
VERTEX2 194 11.80498875 -8.14680501 -1.42462264
VERTEX2 195 11.88629501 -8.71070855 -1.45337298
VERTEX2 196 11.95403996 -9.33589190 -1.49417714
VERTEX2 197 11.99302934 -9.95703085 -1.52169670
VERTEX2 198 12.01925390 -10.57556496 -1.57992278
VERTEX2 199 11.99217581 -11.18351617 -1.64139790
VERTEX2 200 11.94604672 -11.78625998 -1.66333468
VERTEX2 201 11.87620361 -12.38551403 -1.72006614
VERTEX2 202 11.81316335 -12.89037880 -1.69994164
VERTEX2 203 11.71262454 -13.62402552 -1.75274983
VERTEX2 204 11.59167436 -14.19990598 -1.85471436
VERTEX2 205 11.42319821 -14.76143944 -1.86412279
VERTEX2 206 11.26984258 -15.30797400 -1.86218828
VERTEX2 207 11.11080994 -15.87423520 -1.84622730
VERTEX2 208 10.93819252 -16.47315539 -1.85565518
VERTEX2 209 10.77678388 -17.07354911 -1.81745372
VERTEX2 210 10.61430410 -17.66610962 -1.82633886
VERTEX2 211 10.46580340 -18.26242939 -1.82410510
VERTEX2 212 10.28970641 -18.84835227 -1.87699036
VERTEX2 213 10.09500656 -19.43797620 -1.89780096
VERTEX2 214 9.89545024 -20.01400493 -1.90164276
VERTEX2 215 9.78061073 -20.33611907 -1.93747537
VERTEX2 216 9.79266319 -20.31546041 -2.43622244
VERTEX2 217 9.81851225 -20.31268039 -2.97847900
VERTEX2 218 9.82779925 -20.31623867 -3.03454025
VERTEX2 219 9.26166502 -20.27237809 3.08009556
VERTEX2 220 8.65283555 -20.22844209 3.04019358
VERTEX2 221 8.01382170 -20.16221777 3.09065555
VERTEX2 222 7.38845390 -20.11980174 3.06509627
VERTEX2 223 6.76258687 -20.09068756 -3.12175782
VERTEX2 224 6.14860397 -20.09167978 3.13564644
VERTEX2 225 5.53098676 -20.08634184 -3.09782926
VERTEX2 226 4.91430323 -20.08026827 3.13627683
VERTEX2 227 4.26958910 -20.14978651 -2.99021443
VERTEX2 228 3.74584957 -20.13432453 2.93147865
VERTEX2 229 3.29941367 -20.09589907 3.05202612
VERTEX2 230 3.00870053 -20.08012436 3.02326768
VERTEX2 231 3.21317309 -20.09783208 3.09337406
VERTEX2 232 2.90282405 -19.95863551 2.66749229
VERTEX2 233 2.33820518 -19.69774392 2.76979839
VERTEX2 234 1.76169161 -19.47092308 2.72564184
VERTEX2 235 1.51178926 -19.36311711 2.72065870
VERTEX2 236 1.17703418 -19.36436762 3.12610263
VERTEX2 237 0.54878723 -19.37937775 -3.08668825
VERTEX2 238 -0.07166958 -19.42793904 -3.11942226
VERTEX2 239 -0.68843808 -19.42505106 3.09614032
VERTEX2 240 -1.25871723 -19.30701809 2.87805890
VERTEX2 241 -1.79900015 -19.17551883 2.96348997
VERTEX2 242 -2.37435695 -19.11000123 3.00308044
VERTEX2 243 -2.97639919 -19.02626705 3.00244188
VERTEX2 244 -3.60183253 -18.98022109 3.07383305
VERTEX2 245 -4.21794512 -18.93109579 3.01969046
VERTEX2 246 -4.82163962 -18.84455547 2.94737533
VERTEX2 247 -5.42674009 -18.76186948 3.05337757
VERTEX2 248 -5.98178741 -18.74029241 3.08478712
VERTEX2 249 -5.93374832 -18.74751848 -3.00545750
VERTEX2 250 -5.93103248 -18.74740833 2.69088432
VERTEX2 251 -6.25405485 -18.40679471 2.26759192
VERTEX2 252 -6.61060298 -17.98636148 2.27614684
VERTEX2 253 -6.98333586 -17.54026090 2.26519868
VERTEX2 254 -7.34959052 -17.08190448 2.22404901
VERTEX2 255 -7.42285631 -16.98901291 2.30792647
VERTEX2 256 -7.42588703 -16.91185091 1.83197187
VERTEX2 257 -7.47808082 -16.45161341 1.69658626
VERTEX2 258 -7.56220032 -15.86207958 1.77705129
VERTEX2 259 -7.70694944 -15.25562390 1.81787212
VERTEX2 260 -7.84200840 -14.69346637 1.80969112
VERTEX2 261 -7.83977559 -14.65584524 1.49860568
VERTEX2 262 -7.77787935 -14.00415688 1.50547939
VERTEX2 263 -7.73698276 -13.38574792 1.51913470
VERTEX2 264 -7.72342106 -12.78042261 1.61639747
VERTEX2 265 -7.75661376 -12.17554160 1.63672141
VERTEX2 266 -7.71015967 -11.59690916 1.50772886
VERTEX2 267 -7.66083754 -10.84574177 1.47844837
VERTEX2 268 -7.53008852 -10.24138526 1.36840421
VERTEX2 269 -7.41179288 -9.62636896 1.39832616
VERTEX2 270 -7.34127663 -9.00049477 1.51235516
VERTEX2 271 -7.24765780 -8.37646989 1.40183195
VERTEX2 272 -7.16364309 -7.74781714 1.46696226
VERTEX2 273 -7.17509846 -7.11594850 1.67913664
VERTEX2 274 -7.24471500 -6.49749258 1.70315966
VERTEX2 275 -7.23417411 -5.88869150 1.53174727
VERTEX2 276 -7.22882713 -5.28077678 1.64630008
VERTEX2 277 -7.27716349 -4.71508257 1.62076881
VERTEX2 278 -7.23543437 -4.07475013 1.53209969
VERTEX2 279 -7.19698570 -3.43640837 1.47682903
VERTEX2 280 -7.13017559 -2.80345293 1.47896684
VERTEX2 281 -7.04097078 -2.16868206 1.37864111
VERTEX2 282 -6.92252865 -1.54038426 1.41862876
VERTEX2 283 -6.83710500 -0.90559649 1.41093600
VERTEX2 284 -6.72668219 -0.28129479 1.43826072
VERTEX2 285 -6.66097606 0.36941300 1.45936372
VERTEX2 286 -6.59572677 0.99235718 1.51299468
VERTEX2 287 -6.59295168 1.04476075 1.40863809
VERTEX2 288 -6.58873121 1.05235938 0.80022057
VERTEX2 289 -6.58526800 1.05409937 0.20696577
VERTEX2 290 -6.14480465 1.04623151 -0.01800323
VERTEX2 291 -5.52200988 1.03961754 -0.00416516
VERTEX2 292 -4.90552083 1.02081003 -0.05888116
VERTEX2 293 -4.28050409 0.97639958 -0.08201737
VERTEX2 294 -3.65907680 0.92489493 -0.08140954
VERTEX2 295 -3.03706196 0.84519271 -0.19399859
VERTEX2 296 -2.42026074 0.70102600 -0.23949314
VERTEX2 297 -1.80567164 0.54987755 -0.25128485
VERTEX2 298 -1.19458292 0.39566780 -0.25204400
VERTEX2 299 -0.62000684 0.23901383 -0.19097650
VERTEX2 300 -0.03338325 0.15315617 -0.14890530
VERTEX2 301 0.52876213 0.05334398 -0.20819191
VERTEX2 302 0.83045612 -0.01171005 -0.22920469
VERTEX2 303 0.81271348 -0.00821823 -0.22517358
VERTEX2 304 1.31306738 -0.12412946 -0.21573501
VERTEX2 305 1.92816562 -0.16914043 -0.03203667
VERTEX2 306 2.55795262 -0.18041867 -0.05021476
VERTEX2 307 3.19750465 -0.22903255 -0.08703438
VERTEX2 308 3.82550654 -0.29277303 -0.14274744
VERTEX2 309 4.46082358 -0.35398372 -0.04996154
VERTEX2 310 5.08882901 -0.38478092 -0.08597594
VERTEX2 311 5.37022675 -0.41114114 0.08891103
VERTEX2 312 5.36736483 -0.41262937 1.07638658
VERTEX2 313 5.37203939 -0.19424893 1.57192401
VERTEX2 314 5.35271366 0.43392445 1.61164123
VERTEX2 315 5.32441687 1.06148679 1.60725298
VERTEX2 316 5.28480891 1.70651992 1.65843887
VERTEX2 317 5.22398635 2.34820989 1.66824280
VERTEX2 318 5.12570392 2.98530343 1.76262199
VERTEX2 319 5.04630826 3.33234866 1.83382117
VERTEX2 320 5.04834104 3.33863390 2.80186850
VERTEX2 321 5.04025763 3.33516047 -2.44209131
VERTEX2 322 5.03932735 3.33324389 -1.44633613
VERTEX2 323 5.04984426 3.32310339 -0.45436959
VERTEX2 324 5.05426350 3.32166078 0.20516752
VERTEX2 325 5.05556237 3.32176372 -0.32279516
VERTEX2 326 5.07089867 3.31022639 -0.91832309
VERTEX2 327 5.07426099 3.29435011 -1.54202383
VERTEX2 328 5.05795247 2.65650752 -1.58869322
VERTEX2 329 5.03598779 2.02966656 -1.64505068
VERTEX2 330 4.98168639 1.41420433 -1.66547404
VERTEX2 331 4.92640822 0.79744853 -1.68116950
VERTEX2 332 4.84669090 0.18375862 -1.70110234
VERTEX2 333 4.82487488 0.02907514 -1.63757367
VERTEX2 334 4.81043908 0.02559911 -0.85350009
VERTEX2 335 4.83602895 0.01771602 0.13988240
VERTEX2 336 4.85995381 0.02591788 1.08327611
VERTEX2 337 4.86602800 0.06281889 2.06460358
VERTEX2 338 4.86377899 0.06438050 3.05455100
VERTEX2 339 4.87686748 0.07248008 -2.17820271
VERTEX2 340 4.87695674 0.07158360 -1.15792517
VERTEX2 341 4.99101263 0.00261178 -0.52390359
VERTEX2 342 5.56480537 -0.30291414 -0.42168711
VERTEX2 343 6.14362168 -0.50474976 -0.29005507
VERTEX2 344 6.73319770 -0.68838421 -0.29944284
VERTEX2 345 6.97208511 -0.75881703 -0.32625979
VERTEX2 346 6.95894694 -0.75451139 -0.97182738
VERTEX2 347 6.96137045 -0.84328791 -1.52898347
VERTEX2 348 6.97919254 -1.43426587 -1.54506077
VERTEX2 349 6.97688249 -2.05414183 -1.58465694
VERTEX2 350 6.96365870 -2.84260713 -1.60367341
VERTEX2 351 6.94937223 -3.11672628 -1.63202158
VERTEX2 352 6.94749955 -3.12565293 -1.91883565
VERTEX2 353 6.93578501 -3.14002214 -2.58177094
VERTEX2 354 6.92210158 -3.14394824 3.10033026
VERTEX2 355 6.90197873 -3.14324462 2.38200677
VERTEX2 356 6.89624133 -3.13311431 1.80897490
VERTEX2 357 6.89885588 -3.11746207 1.15834421
VERTEX2 358 6.89986783 -3.11605102 0.54522434
VERTEX2 359 6.88822781 -3.12104455 -0.06646819
VERTEX2 360 6.87373674 -3.11818249 -0.24153134
VERTEX2 361 6.86569184 -3.12029064 0.68115612
VERTEX2 362 6.95064048 -2.88917355 1.21695311
VERTEX2 363 7.05323392 -2.62080236 1.21133630
VERTEX2 364 6.98374326 -2.28451125 1.82808728
VERTEX2 365 6.92807329 -1.99522712 1.33277957
VERTEX2 366 7.03679233 -1.87203945 0.78060120
VERTEX2 367 7.48253913 -1.43656838 0.78344006
VERTEX2 368 7.93894486 -0.99990306 0.73552078
VERTEX2 369 7.95894096 -0.97573763 0.48372249
VERTEX2 370 7.98340556 -0.97182105 -0.10299492
VERTEX2 371 7.98952247 -0.97499047 -0.64842225
VERTEX2 372 8.41841311 -1.32353024 -0.67607781
VERTEX2 373 8.89102079 -1.68832327 -0.67407751
VERTEX2 374 9.37006715 -2.09140837 -0.73519791
VERTEX2 375 9.72979498 -2.41120056 -0.76608460
VERTEX2 376 9.74168445 -2.41846502 -0.07343734
VERTEX2 377 9.79193014 -2.38269626 0.61972070
VERTEX2 378 10.32702268 -1.98487252 0.67262136
VERTEX2 379 10.80636945 -1.55462010 0.75608233
VERTEX2 380 11.24602045 -1.08812144 0.87400742
VERTEX2 381 11.39211864 -0.90809573 1.02242416
VERTEX2 382 11.39337701 -0.90580442 2.06740937
VERTEX2 383 11.39101683 -0.90436142 3.05433799
VERTEX2 384 11.38856448 -0.90668384 -2.26505010
VERTEX2 385 11.38351647 -0.91515995 -1.23488620
VERTEX2 386 11.48764457 -1.05054476 -1.00992143
VERTEX2 387 11.94309577 -1.47255304 -0.67812653
VERTEX2 388 12.40717731 -1.83055287 -0.67163107
VERTEX2 389 12.84581575 -2.20810784 -0.75681725
VERTEX2 390 12.85874939 -2.21954302 -0.28771244
VERTEX2 391 12.67429543 -2.21116445 0.08708979
VERTEX2 392 12.61884614 -2.21158737 1.11406656
VERTEX2 393 12.61997112 -2.15058867 2.34675793
VERTEX2 394 12.55612666 -2.12350982 -2.95765871
VERTEX2 395 12.74833237 -2.02495876 -2.62567957
VERTEX2 396 12.72536261 -2.03657975 -2.62852240
VERTEX2 397 12.68733602 -2.04468732 -2.64235552
VERTEX2 398 12.66967995 -2.05900615 -2.44919218
VERTEX2 399 12.59201005 -2.16592394 -2.15543935
VERTEX2 400 12.22827463 -2.71753454 -2.10830441
VERTEX2 401 11.87462608 -3.25638715 -2.20280937
VERTEX2 402 11.38969115 -3.70668200 -2.47256023
VERTEX2 403 10.86833678 -4.10918837 -2.50828118
VERTEX2 404 10.35672748 -4.46078213 -2.58904143
VERTEX2 405 10.33681007 -4.47795925 -2.05868943
VERTEX2 406 10.33362959 -4.44408904 -1.08638543
VERTEX2 407 10.51057755 -4.70405673 -0.96030054
VERTEX2 408 10.83045505 -5.17431777 -0.99991173
VERTEX2 409 10.96024894 -5.39009184 -1.10131836
VERTEX2 410 10.95378053 -5.36136480 -1.73317363
VERTEX2 411 11.13973215 -4.90031775 -2.57032416
VERTEX2 412 10.59468548 -5.12086356 -2.77534597
VERTEX2 413 9.96432569 -5.33725865 -2.85648414
VERTEX2 414 9.32755638 -5.54222093 -2.75428663
VERTEX2 415 8.72096086 -5.78176762 -2.74680082
VERTEX2 416 8.43248216 -5.91100438 -2.80149026
VERTEX2 417 8.13991405 -5.89596674 3.05817480
VERTEX2 418 7.70107147 -5.85429692 3.01349439
VERTEX2 419 7.70231466 -5.85401473 -2.83777448
VERTEX2 420 7.75324766 -5.83120157 -2.62094065
VERTEX2 421 7.75303237 -5.83158933 -1.65146906
VERTEX2 422 7.74676187 -5.84042582 -0.40989479
VERTEX2 423 7.74951481 -5.84068272 -0.06344806
VERTEX2 424 7.74670256 -5.84095145 -0.06244512
VERTEX2 425 7.73579320 -5.84714634 -0.05006921
VERTEX2 426 7.73277061 -5.84744097 -0.05855013
VERTEX2 427 7.76229169 -5.84890440 -0.05479400
VERTEX2 428 8.42034087 -5.86836473 -0.05961153
VERTEX2 429 9.06085476 -5.91559593 -0.09970450
VERTEX2 430 9.39857247 -5.95478514 -0.14511638
VERTEX2 431 9.37218049 -5.95170784 -0.09250995
VERTEX2 432 9.38078313 -5.95471115 -0.72288240
VERTEX2 433 9.38480542 -5.96019214 -1.39876499
VERTEX2 434 9.35007531 -6.49722235 -1.62618365
VERTEX2 435 9.32018503 -7.13805748 -1.65393570
VERTEX2 436 9.24476998 -7.77634499 -1.66217452
VERTEX2 437 9.19508110 -8.42435295 -1.65367591
VERTEX2 438 9.14507987 -8.89299018 -1.68360734
VERTEX2 439 9.14336983 -8.89950718 -2.11831494
VERTEX2 440 9.14972802 -8.89447877 -2.75974650
VERTEX2 441 9.16580465 -8.89282544 2.90307853
VERTEX2 442 9.17302887 -8.89673205 2.27537484
VERTEX2 443 9.17314294 -8.89857355 1.71002600
VERTEX2 444 9.17602985 -8.88308140 1.12008297
VERTEX2 445 9.18100460 -8.87829744 0.46365215
VERTEX2 446 9.17920970 -8.87942197 0.66596341
VERTEX2 447 9.19060689 -8.85714531 1.29906876
VERTEX2 448 9.33855220 -8.23519415 1.31673482
VERTEX2 449 9.46940451 -7.59879405 1.41824361
VERTEX2 450 9.56149473 -6.96189409 1.43204736
VERTEX2 451 9.61287075 -6.49141415 1.47468414
VERTEX2 452 9.61296468 -6.49040721 1.09664651
VERTEX2 453 9.60967451 -6.49639592 0.47447644
VERTEX2 454 9.86961882 -6.47588762 0.05241734
VERTEX2 455 10.46755578 -6.44990808 0.03184413
VERTEX2 456 11.09906447 -6.44381845 -0.03275469
VERTEX2 457 11.45239945 -6.46539846 -0.12048277
VERTEX2 458 11.44725525 -6.46285789 -0.76639168
VERTEX2 459 11.43854974 -6.42796108 -1.37461353
VERTEX2 460 11.41884965 -6.82624055 -1.63162207
VERTEX2 461 11.35163262 -7.44268067 -1.71956057
VERTEX2 462 11.26541425 -7.95213662 -1.75956353
VERTEX2 463 11.27661758 -7.93006184 -0.91928503
VERTEX2 464 11.53171101 -8.00192578 -0.24116346
VERTEX2 465 12.11532669 -8.13343453 -0.23340755
VERTEX2 466 12.66874054 -8.28327577 -0.28903502
VERTEX2 467 13.23960462 -8.46366720 -0.33248338
VERTEX2 468 13.85508700 -8.68074674 -0.36777478
VERTEX2 469 14.44743990 -8.94507771 -0.45044046
VERTEX2 470 14.90223329 -9.15967182 -0.43130063
VERTEX2 471 14.91087639 -9.16432750 -0.63073135
VERTEX2 472 14.92825024 -9.18843559 -1.26252295
VERTEX2 473 14.92976958 -9.19580440 -1.90223184
VERTEX2 474 14.92816316 -9.19782915 -2.53269678
VERTEX2 475 14.93051500 -9.19750182 -3.10631304
VERTEX2 476 14.93291936 -9.19782251 2.52584258
VERTEX2 477 14.93743988 -9.20661546 1.96647472
VERTEX2 478 14.93822590 -9.21659622 1.33959054
VERTEX2 479 14.93718209 -9.21900373 0.88542485
VERTEX2 480 14.93743741 -9.21842324 1.44760422
VERTEX2 481 14.93379854 -9.20286138 2.44987948
VERTEX2 482 14.93820819 -9.20462014 2.78608841
VERTEX2 483 14.94482655 -9.20700244 2.78073687
VERTEX2 484 14.51846534 -9.04960374 2.81628934
VERTEX2 485 13.91966676 -8.86194731 2.81401783
VERTEX2 486 13.31816756 -8.65032849 2.82358690
VERTEX2 487 12.70801628 -8.47196519 2.85190377
VERTEX2 488 12.09556595 -8.29175006 2.88806152
VERTEX2 489 11.62523446 -8.18503769 2.91852448
VERTEX2 490 11.62967193 -8.18459833 -2.87946605
VERTEX2 491 11.63653308 -8.17550862 -1.94319493
VERTEX2 492 11.62024179 -8.40637461 -1.64009312
VERTEX2 493 11.55999718 -9.00795368 -1.69527305
VERTEX2 494 11.47437043 -9.61693956 -1.75631808
VERTEX2 495 11.40661318 -10.23959035 -1.64915983
VERTEX2 496 11.36418735 -10.86349964 -1.53145105
VERTEX2 497 11.35854704 -11.48088750 -1.61752125
VERTEX2 498 11.29127632 -12.10189601 -1.71935673
VERTEX2 499 11.16207480 -12.72797816 -1.73640059
VERTEX2 500 11.22106319 -13.29424868 -1.40752152
VERTEX2 501 11.29678238 -13.87274709 -1.47964105
VERTEX2 502 11.32216234 -14.56742756 -1.56415140
VERTEX2 503 11.31858546 -15.01359727 -1.58114358
VERTEX2 504 11.32397021 -14.99831275 -0.72482758
VERTEX2 505 11.56171961 -15.02508352 -0.10312073
VERTEX2 506 12.15366092 -15.10600545 -0.25569564
VERTEX2 507 12.73482936 -15.27506629 -0.33426408
VERTEX2 508 13.30395278 -15.48582352 -0.34754575
VERTEX2 509 13.92374946 -15.71842854 -0.40345481
VERTEX2 510 14.28021006 -15.87697604 -0.41735769
VERTEX2 511 14.27842455 -15.85978799 0.45800284
VERTEX2 512 14.30010925 -15.81392826 1.65534099
VERTEX2 513 14.29663201 -15.80371993 2.61084092
VERTEX2 514 14.22902918 -15.78484586 2.83712637
VERTEX2 515 13.61838537 -15.60468967 2.83824371
VERTEX2 516 13.03323355 -15.41139139 2.85415445
VERTEX2 517 12.44020781 -15.26402693 2.88236150
VERTEX2 518 11.84752115 -15.11352793 2.90672577
VERTEX2 519 11.32537419 -14.99022965 2.89104154
VERTEX2 520 11.15744002 -14.94670868 -2.99368082
VERTEX2 521 11.17961504 -14.92221092 -1.98998646
VERTEX2 522 11.11466142 -15.31831399 -1.72568687
VERTEX2 523 11.02403985 -15.93821283 -1.73306382
VERTEX2 524 10.92093907 -16.51195455 -1.77498174
VERTEX2 525 10.81769799 -17.05378945 -1.75132121
VERTEX2 526 10.70225747 -17.62231688 -1.81010452
VERTEX2 527 10.55525642 -18.20105152 -1.84489902
VERTEX2 528 10.37378250 -18.76726410 -1.92085767
VERTEX2 529 10.16231020 -19.36881431 -1.94920352
VERTEX2 530 9.91579325 -19.96766437 -1.97933639
VERTEX2 531 9.64679881 -20.54216874 -2.05921461
VERTEX2 532 9.54921924 -20.72753541 -2.00865998
VERTEX2 533 9.54672345 -20.71543815 -1.00891285
VERTEX2 534 9.54733641 -20.71582753 -0.34188705
VERTEX2 535 9.55069575 -20.71611072 -0.34224703
VERTEX2 536 9.90725146 -20.79957419 -0.21152544
VERTEX2 537 10.51376009 -20.94724314 -0.26951860
VERTEX2 538 11.07360116 -21.11574554 -0.29663066
VERTEX2 539 11.68146032 -21.32399461 -0.36139719
VERTEX2 540 12.26815614 -21.57643071 -0.45429000
VERTEX2 541 12.85519078 -21.80368454 -0.29198743
VERTEX2 542 13.48601035 -21.94483031 -0.23628631
VERTEX2 543 13.60757047 -21.97517012 -0.26595319
VERTEX2 544 13.62873521 -21.97298729 0.37105154
VERTEX2 545 13.65229046 -21.93008835 1.43723134
VERTEX2 546 13.66975729 -21.97540107 2.26425255
VERTEX2 547 13.67799332 -21.97484038 -2.99728072
VERTEX2 548 13.69152023 -21.96614279 -2.07440375
VERTEX2 549 13.69316194 -21.95489756 -1.26780759
VERTEX2 550 13.69193335 -21.93404823 -1.74761193
VERTEX2 551 13.70035325 -21.91694552 -2.37399129
VERTEX2 552 13.71866227 -21.90780681 -3.00645642
VERTEX2 553 13.58167018 -21.85559482 2.69943781
VERTEX2 554 12.98954762 -21.57218574 2.66397509
VERTEX2 555 12.41021772 -21.29785881 2.75284244
VERTEX2 556 11.80600294 -21.08011134 2.88793756
VERTEX2 557 11.20566642 -20.90992518 2.84671699
VERTEX2 558 10.62945734 -20.75353541 2.92773643
VERTEX2 559 10.63692156 -20.75604534 2.52076472
VERTEX2 560 10.62964664 -20.74810294 2.01981801
VERTEX2 561 10.60623946 -20.72542887 2.52502818
VERTEX2 562 10.42795350 -20.72561522 -3.11461004
VERTEX2 563 9.85758234 -20.64778281 2.97674983
VERTEX2 564 9.25257497 -20.55697285 3.02551373
VERTEX2 565 8.66182914 -20.48630970 2.96791372
VERTEX2 566 8.72265349 -20.50516574 -2.53180617
VERTEX2 567 8.62875729 -20.51221122 -1.73810138
VERTEX2 568 8.57806992 -21.02081709 -1.67419299
VERTEX2 569 8.52710338 -21.59614618 -1.71336491
VERTEX2 570 8.45873101 -22.17659037 -1.70861983
VERTEX2 571 8.40649880 -22.53187934 -1.75607907
VERTEX2 572 8.37263728 -22.55667637 -1.99924632
VERTEX2 573 8.33768897 -22.63608388 -1.72288843
VERTEX2 574 8.35807895 -22.66468617 -0.78336561
VERTEX2 575 8.51265100 -22.71502738 0.13726419
VERTEX2 576 8.51211975 -22.71460289 1.16494840
VERTEX2 577 8.50539149 -22.69686024 2.13706776
VERTEX2 578 8.49582021 -22.66460724 1.77291488
VERTEX2 579 8.37041971 -22.01281053 1.78795772
VERTEX2 580 8.20807750 -21.37328811 1.86312895
VERTEX2 581 8.01308644 -20.74979647 1.90553947
VERTEX2 582 7.79064498 -20.13541322 1.94870980
VERTEX2 583 7.66024753 -19.82710459 2.02811896
VERTEX2 584 7.65461227 -19.81620212 2.87208660
VERTEX2 585 7.07087147 -19.67683474 2.99054268
VERTEX2 586 6.47670178 -19.60312778 3.08827172
VERTEX2 587 5.85758891 -19.59313354 3.11384696
VERTEX2 588 5.22749790 -19.56823138 3.11848313
VERTEX2 589 4.68932418 -19.59372755 -3.08933715
VERTEX2 590 4.14026708 -19.63860216 -3.02059700
VERTEX2 591 3.60160148 -19.71828626 -3.02249000
VERTEX2 592 3.05392287 -19.79343275 -3.02521524
VERTEX2 593 2.87657597 -19.81597068 -2.81995128
VERTEX2 594 2.91899677 -19.77019001 -1.90070955
VERTEX2 595 2.80646405 -20.37725539 -1.66785522
VERTEX2 596 2.75456514 -21.00126253 -1.69097552
VERTEX2 597 2.66342012 -21.67599345 -1.73089274
VERTEX2 598 2.56112067 -22.27439130 -1.77304486
VERTEX2 599 2.47313729 -22.65170670 -1.83921810
VERTEX2 600 2.47334289 -22.66783373 -1.03264106
VERTEX2 601 2.51344545 -22.69248669 -0.01445028
VERTEX2 602 2.54835099 -22.67839415 0.99961295
VERTEX2 603 2.51367453 -22.44338812 1.77226305
VERTEX2 604 2.45286479 -21.83085068 1.52817595
VERTEX2 605 2.46150309 -21.18438819 1.61081042
VERTEX2 606 2.42083837 -20.53825453 1.65293886
VERTEX2 607 2.43165809 -19.94960206 1.57197590
VERTEX2 608 2.41840098 -19.56492262 1.61651690
VERTEX2 609 2.41485377 -19.54413885 1.95294943
VERTEX2 610 2.40701535 -19.54130844 2.88585723
VERTEX2 611 1.81158633 -19.39132574 2.88893893
VERTEX2 612 1.33904768 -19.25700966 2.89186534
VERTEX2 613 1.37450957 -19.26781963 -2.92730179
VERTEX2 614 1.38068296 -19.26314401 -1.88885706
VERTEX2 615 1.39297024 -19.74845877 -1.58412632
VERTEX2 616 1.39926618 -20.37017652 -1.63516865
VERTEX2 617 1.26097945 -20.97282017 -1.85206281
VERTEX2 618 1.09138543 -21.57825313 -1.84174930
VERTEX2 619 0.93017265 -22.14919058 -1.84293039
VERTEX2 620 0.74645109 -22.72452043 -1.93879920
VERTEX2 621 0.87533801 -22.39166709 -1.99004628
VERTEX2 622 0.99876670 -22.12788530 -2.06476845
VERTEX2 623 0.99819086 -22.12866547 -2.60126443
VERTEX2 624 0.96869380 -22.12837011 3.03998921
VERTEX2 625 0.92708106 -22.11157375 2.38213710
VERTEX2 626 0.89897507 -22.07932979 1.76474854
VERTEX2 627 0.97161139 -21.70751802 1.35438035
VERTEX2 628 1.15046375 -21.08095045 1.25360374
VERTEX2 629 1.32224267 -20.45372148 1.32466814
VERTEX2 630 1.44791574 -19.84632965 1.40965809
VERTEX2 631 1.52018930 -19.31691784 1.42970589
VERTEX2 632 1.52286853 -19.30107167 2.10544322
VERTEX2 633 1.42450745 -19.29444589 -3.09167117
VERTEX2 634 0.75713164 -19.33167839 -3.06430925
VERTEX2 635 0.10393441 -19.34277234 3.08382575
VERTEX2 636 -0.53793703 -19.31457772 3.06622995
VERTEX2 637 -1.16640676 -19.24061545 2.96693266
VERTEX2 638 -1.55858090 -19.16092810 2.93738713
VERTEX2 639 -2.16924707 -19.05850142 3.01773972
VERTEX2 640 -2.78411875 -18.94987874 2.94986390
VERTEX2 641 -3.38441704 -18.83957125 2.94155329
VERTEX2 642 -3.96047263 -18.70291620 2.89624566
VERTEX2 643 -4.44211264 -18.56691627 2.82877997
VERTEX2 644 -4.44613554 -18.56781786 -2.69764722
VERTEX2 645 -4.48241209 -18.70883974 -1.92014929
VERTEX2 646 -4.61899623 -19.31817526 -1.62477950
VERTEX2 647 -4.57500565 -19.96038565 -1.33592917
VERTEX2 648 -4.35159776 -20.58506195 -1.16964470
VERTEX2 649 -4.17753726 -21.18342954 -1.50724028
VERTEX2 650 -4.27772101 -21.81185925 -1.76459836
VERTEX2 651 -4.29508823 -21.95730717 -0.96518389
VERTEX2 652 -4.23222671 -21.98552844 0.05978330
VERTEX2 653 -4.18621651 -21.94415192 1.09022191
VERTEX2 654 -4.19540803 -21.64788735 1.60339632
VERTEX2 655 -4.20612653 -21.09488396 1.59839227
VERTEX2 656 -4.20564186 -20.49317522 1.58576268
VERTEX2 657 -4.31281736 -19.88210145 1.86240046
VERTEX2 658 -4.50360588 -19.26537921 1.85523886
VERTEX2 659 -4.61873841 -18.77218319 1.78408538
VERTEX2 660 -4.62181551 -18.75686732 2.38420948
VERTEX2 661 -4.80036918 -18.73730754 3.03766287
VERTEX2 662 -5.39395613 -18.67832029 3.10727277
VERTEX2 663 -5.98130157 -18.69313205 -3.07487758
VERTEX2 664 -5.98933787 -18.69106897 -2.55167056
VERTEX2 665 -6.00525244 -18.79240133 -1.71791357
VERTEX2 666 -6.07653717 -19.40066687 -1.68077620
VERTEX2 667 -6.13321673 -19.96677110 -1.67615653
VERTEX2 668 -6.19628012 -20.56033266 -1.65037626
VERTEX2 669 -6.24427879 -21.18563100 -1.67550786
VERTEX2 670 -6.34324129 -21.80317674 -1.73498606
VERTEX2 671 -6.39054782 -22.09561507 -1.68000392
VERTEX2 672 -6.28923264 -21.51473018 -1.76911839
VERTEX2 673 -6.22326546 -21.24797835 -1.89967428
VERTEX2 674 -6.21046114 -21.23444314 -2.54782361
VERTEX2 675 -6.18718848 -21.22950075 3.12673576
VERTEX2 676 -6.18124025 -21.23297729 2.50339132
VERTEX2 677 -6.17670963 -21.23922463 1.88754405
VERTEX2 678 -6.14882839 -21.01705785 1.44159795
VERTEX2 679 -6.08517365 -20.43796536 1.50417322
VERTEX2 680 -6.11305585 -19.98966585 1.84904727
VERTEX2 681 -6.26560808 -19.39834043 1.82153051
VERTEX2 682 -6.43828176 -18.79250103 1.86920150
VERTEX2 683 -6.53075494 -18.51025173 2.02835489
VERTEX2 684 -6.47792073 -18.56403999 3.10830655
VERTEX2 685 -6.88239413 -18.72576714 -2.73110833
VERTEX2 686 -7.33016039 -18.86335527 -2.87529016
VERTEX2 687 -7.92513409 -19.01561416 -2.91024718
VERTEX2 688 -8.52342493 -19.13684703 -2.92197176
VERTEX2 689 -9.08807821 -19.27697701 -2.89426038
VERTEX2 690 -9.62426469 -19.44712820 -2.82004067
VERTEX2 691 -10.01968398 -19.57949036 -2.84802914
VERTEX2 692 -10.00550571 -19.57316220 -2.31375394
VERTEX2 693 -9.98244119 -19.64546696 -1.27329926
VERTEX2 694 -9.95819622 -19.71748031 -0.43779815
VERTEX2 695 -9.93969129 -19.71218426 0.36223729
VERTEX2 696 -9.93347848 -19.70810158 1.38776198
VERTEX2 697 -9.94506909 -19.74641901 1.13479996
VERTEX2 698 -9.61486843 -19.53663852 0.48005295
VERTEX2 699 -9.05145493 -19.22215769 0.59410226
VERTEX2 700 -8.53831184 -18.85889765 0.64764404
VERTEX2 701 -8.10472090 -18.49493109 0.70682626
VERTEX2 702 -7.62566272 -18.17848653 0.59168370
VERTEX2 703 -7.11353495 -17.84068169 0.62595229
VERTEX2 704 -6.62025360 -17.45724544 0.64414617
VERTEX2 705 -6.10995611 -17.03568970 0.71439806
VERTEX2 706 -5.68028059 -16.71704953 0.44542012
VERTEX2 707 -5.65494173 -16.71565316 -0.07481534
VERTEX2 708 -5.64501515 -16.72137217 -0.71328411
VERTEX2 709 -5.68494518 -16.67848681 -1.04536140
VERTEX2 710 -5.68937348 -16.66709245 -1.60646831
VERTEX2 711 -5.67994663 -16.67558347 -2.20319053
VERTEX2 712 -5.65964777 -16.65998573 -2.76361867
VERTEX2 713 -6.13250110 -16.71099874 -3.04896386
VERTEX2 714 -6.68579136 -16.68656300 3.03670489
VERTEX2 715 -7.31252273 -16.65037407 3.14032190
VERTEX2 716 -7.94668226 -16.62912838 3.00229905
VERTEX2 717 -8.56792127 -16.56199819 3.08706364
VERTEX2 718 -9.33003225 -16.44428178 2.91169670
VERTEX2 719 -9.94684129 -16.32970943 2.98617338
VERTEX2 720 -10.55950041 -16.21803656 2.92697894
VERTEX2 721 -11.17709156 -16.10293314 2.99520751
VERTEX2 722 -11.19341240 -16.10062721 3.06191717
VERTEX2 723 -11.21385199 -16.12175884 -2.13128539
VERTEX2 724 -11.21391323 -16.16566789 -1.06237649
VERTEX2 725 -11.18644563 -16.18408686 -0.42799882
VERTEX2 726 -10.86076460 -16.17986247 0.02621604
VERTEX2 727 -10.22312604 -16.14126894 0.05697190
VERTEX2 728 -9.58271088 -16.11693553 0.05837231
VERTEX2 729 -8.94483732 -16.05629762 0.11602976
VERTEX2 730 -8.32157420 -15.96382779 0.15355047
VERTEX2 731 -7.67425933 -15.86340419 0.16578133
VERTEX2 732 -7.53309493 -15.83487952 0.61241138
VERTEX2 733 -7.53208338 -15.83652891 1.60906220
VERTEX2 734 -7.59154737 -15.28013561 1.68719246
VERTEX2 735 -7.65328039 -14.67741060 1.65517804
VERTEX2 736 -7.65407214 -14.66589019 2.25476386
VERTEX2 737 -7.64820323 -14.66665266 3.05558087
VERTEX2 738 -8.22744152 -14.62715524 3.07466666
VERTEX2 739 -8.83080342 -14.53325381 3.01706167
VERTEX2 740 -9.33386837 -14.49397985 3.08034666
VERTEX2 741 -9.31380951 -14.49372259 2.71152895
VERTEX2 742 -9.31401107 -14.49359971 2.05879499
VERTEX2 743 -9.31588797 -14.48537376 1.44203585
VERTEX2 744 -9.30612394 -14.46289098 0.90271844
VERTEX2 745 -9.28604322 -14.45233479 0.30928020
VERTEX2 746 -8.74290547 -14.46940248 -0.16554657
VERTEX2 747 -8.09692894 -14.58249500 -0.20077179
VERTEX2 748 -7.51921602 -14.72377464 -0.26906616
VERTEX2 749 -7.43543502 -14.74443488 0.16021059
VERTEX2 750 -7.42512357 -14.72530279 1.08742825
VERTEX2 751 -7.46060039 -14.45163578 1.72780338
VERTEX2 752 -7.52104620 -13.82505716 1.62450251
VERTEX2 753 -7.56136077 -13.18281050 1.68772920
VERTEX2 754 -7.57158095 -12.53864542 1.52563367
VERTEX2 755 -7.55563551 -11.90532638 1.61211060
VERTEX2 756 -7.52105041 -11.26935641 1.43573562
VERTEX2 757 -7.44921582 -10.62378981 1.54764638
VERTEX2 758 -7.47235296 -10.04431311 1.68986941
VERTEX2 759 -7.46440475 -9.49650961 1.56987202
VERTEX2 760 -7.50625698 -8.88426816 1.68127308
VERTEX2 761 -7.50925636 -8.84523568 1.86167885
VERTEX2 762 -7.58616002 -8.81131666 2.69709469
VERTEX2 763 -8.16096371 -8.71154960 2.98994645
VERTEX2 764 -8.58143636 -8.64229377 2.96242217
VERTEX2 765 -8.57076888 -8.64203132 -2.68129585
VERTEX2 766 -8.57239371 -8.64741272 -1.68091756
VERTEX2 767 -8.56739345 -8.65986499 -0.75000687
VERTEX2 768 -8.54034431 -8.66136529 -0.02760310
VERTEX2 769 -7.90505695 -8.56839773 0.12931101
VERTEX2 770 -7.25265063 -8.50516771 0.06218924
VERTEX2 771 -7.16407538 -8.49723785 0.62268172
VERTEX2 772 -7.16089434 -8.48693079 1.49024038
VERTEX2 773 -7.14032595 -7.90834700 1.57605904
VERTEX2 774 -7.15577947 -7.36144160 1.59817361
VERTEX2 775 -7.15492080 -7.36506048 2.44311993
VERTEX2 776 -7.36455464 -7.34070330 3.06056521
VERTEX2 777 -7.97824997 -7.30204491 3.11962441
VERTEX2 778 -8.59119867 -7.29456002 3.09870160
VERTEX2 779 -9.20730598 -7.27618750 3.11682022
VERTEX2 780 -9.41575789 -7.25916028 2.98660808
VERTEX2 781 -9.41275010 -7.26021750 2.41321629
VERTEX2 782 -9.54111378 -6.98858337 1.98367372
VERTEX2 783 -9.77810540 -6.41601465 1.98308324
VERTEX2 784 -9.87820292 -6.18942555 1.96176884
VERTEX2 785 -9.87918109 -6.16457811 1.40981982
VERTEX2 786 -9.87149206 -6.13897060 0.82151356
VERTEX2 787 -9.85453401 -6.12149451 0.33086057
VERTEX2 788 -9.82793855 -6.12321629 -0.29825937
VERTEX2 789 -9.81750248 -6.13135492 -0.85022163
VERTEX2 790 -9.50996911 -6.52554742 -0.91738205
VERTEX2 791 -9.10385995 -7.00615881 -0.81870815
VERTEX2 792 -8.86386328 -7.21872941 -0.11415561
VERTEX2 793 -8.24820289 -7.26952833 -0.06937807
VERTEX2 794 -7.60822486 -7.29693394 0.00185901
VERTEX2 795 -7.63241929 -7.31480828 0.43130276
VERTEX2 796 -7.63910113 -7.31751732 1.09075035
VERTEX2 797 -7.56544305 -7.00797786 1.35095207
VERTEX2 798 -7.43176085 -6.38126430 1.40111962
VERTEX2 799 -7.34617551 -5.73671490 1.46687423
VERTEX2 800 -7.29358668 -5.09021121 1.53980881
VERTEX2 801 -7.30572930 -4.45859788 1.62576293
VERTEX2 802 -7.36073221 -3.83369255 1.68349246
VERTEX2 803 -7.34453304 -3.20526497 1.51885601
VERTEX2 804 -7.32541748 -2.57809164 1.57478462
VERTEX2 805 -7.35971470 -1.94796558 1.65109791
VERTEX2 806 -7.42068587 -1.34995861 1.69253807
VERTEX2 807 -7.44835769 -1.16522981 1.98063450
VERTEX2 808 -7.45314086 -1.16514368 2.92891903
VERTEX2 809 -8.04480745 -1.13711272 3.07359082
VERTEX2 810 -8.66239166 -1.01475867 2.93343717
VERTEX2 811 -9.26154367 -0.90408189 2.93015630
VERTEX2 812 -9.26391408 -0.90362453 -2.62126284
VERTEX2 813 -9.27350929 -0.92512765 -1.64597066
VERTEX2 814 -9.26738051 -0.92996036 -0.65376158
VERTEX2 815 -9.24320509 -0.93806208 0.26548770
VERTEX2 816 -9.23432991 -0.93318810 0.94662558
VERTEX2 817 -9.22289355 -0.92596589 0.27784553
VERTEX2 818 -9.00066544 -0.95949143 -0.21105611
VERTEX2 819 -8.40956713 -1.08623462 -0.19693725
VERTEX2 820 -7.81603595 -1.21706353 -0.23817239
VERTEX2 821 -7.26999749 -1.34703299 -0.22237897
VERTEX2 822 -7.22168950 -1.35429935 0.53897923
VERTEX2 823 -7.22032405 -1.33959944 1.45804150
VERTEX2 824 -7.15722163 -0.71748485 1.37869586
VERTEX2 825 -7.01397618 -0.09389653 1.34902163
VERTEX2 826 -6.95754195 0.53816153 1.51195796
VERTEX2 827 -6.89426353 1.16196048 1.46330559
VERTEX2 828 -6.84070080 1.79316078 1.49883636
VERTEX2 829 -6.78070280 2.39706765 1.45910231
VERTEX2 830 -6.70676483 3.00631528 1.45079203
VERTEX2 831 -6.61354305 3.58392377 1.40400632
VERTEX2 832 -6.52424066 4.14720811 1.40044763
VERTEX2 833 -6.48063261 4.40275512 1.53811171
VERTEX2 834 -6.48263288 4.40980315 2.59279701
VERTEX2 835 -6.49585684 4.41130503 -2.91270255
VERTEX2 836 -6.50806032 4.40096542 -1.96961696
VERTEX2 837 -6.50465307 4.38252477 -0.93323047
VERTEX2 838 -6.49315063 4.37538283 -0.07101531
VERTEX2 839 -6.49284554 4.37523865 -0.28927562
VERTEX2 840 -6.48202817 4.36678622 -0.85191554
VERTEX2 841 -6.47444872 4.35160567 -1.46899217
VERTEX2 842 -6.50028520 4.10569711 -1.69981839
VERTEX2 843 -6.57779474 3.54173769 -1.70235215
VERTEX2 844 -6.65223599 2.91580088 -1.71038139
VERTEX2 845 -6.74522479 2.29035237 -1.72511648
VERTEX2 846 -6.83031486 1.66069618 -1.72340254
VERTEX2 847 -6.93932872 1.03883583 -1.75016750
VERTEX2 848 -6.96982405 0.84336582 -1.26977128
VERTEX2 849 -6.96913066 0.84312321 -0.34765922
VERTEX2 850 -6.61396253 0.84015445 0.00570147
VERTEX2 851 -5.98670578 0.81507192 -0.08682185
VERTEX2 852 -5.36228284 0.75480161 -0.07242602
VERTEX2 853 -4.76744474 0.71319065 -0.10036508
VERTEX2 854 -4.18020709 0.64627310 -0.09837488
VERTEX2 855 -3.58531673 0.59625340 -0.10018542
VERTEX2 856 -2.93171898 0.51159576 -0.14086411
VERTEX2 857 -2.27929051 0.42325655 -0.15040247
VERTEX2 858 -1.63325158 0.30248863 -0.20490974
VERTEX2 859 -1.11510843 0.19969501 -0.21176382
VERTEX2 860 -1.08901096 0.21049576 0.63904987
VERTEX2 861 -1.07360730 0.32051548 1.55386795
VERTEX2 862 -1.03634901 0.98042292 1.49424851
VERTEX2 863 -0.97999722 1.62492340 1.46176794
VERTEX2 864 -0.89393635 2.23540566 1.45965579
VERTEX2 865 -0.85360531 2.84704809 1.51728452
VERTEX2 866 -0.80978132 3.43317272 1.51616663
VERTEX2 867 -0.80253467 3.59733403 1.69738361
VERTEX2 868 -0.80994633 3.60667965 2.72120668
VERTEX2 869 -0.79938195 3.60684299 -2.58360371
VERTEX2 870 -0.77965536 3.61748680 -1.58411672
VERTEX2 871 -0.76498127 3.60757464 -0.61037990
VERTEX2 872 -0.74660194 3.59434691 0.07490556
VERTEX2 873 -0.71930866 3.58530047 -0.49764771
VERTEX2 874 -0.69808120 3.56618251 -1.05723803
VERTEX2 875 -0.69176095 3.55137580 -1.64373483
VERTEX2 876 -0.81085085 2.99527811 -1.80129351
VERTEX2 877 -0.96222851 2.45321903 -1.88594191
VERTEX2 878 -1.01245409 2.25357358 -1.50297133
VERTEX2 879 -0.91043292 1.61531287 -1.45193816
VERTEX2 880 -0.87426588 1.16640609 -1.56462334
VERTEX2 881 -0.87471158 1.21636084 -1.55927713
VERTEX2 882 -0.93035809 0.57688761 -1.80579538
VERTEX2 883 -1.14524070 -0.01841105 -1.99651630
VERTEX2 884 -1.30326957 -0.35059959 -2.06348149
VERTEX2 885 -1.30324949 -0.35047903 -1.48192209
VERTEX2 886 -1.28618472 -0.36642767 -0.46395960
VERTEX2 887 -1.25773133 -0.37745402 0.54731464
VERTEX2 888 -1.24768339 -0.35624705 1.53137475
VERTEX2 889 -1.24928378 -0.35167386 2.42939151
VERTEX2 890 -1.56510030 -0.19950184 2.70331478
VERTEX2 891 -2.10281031 0.06653893 2.63300334
VERTEX2 892 -2.63694677 0.38513319 2.59744802
VERTEX2 893 -3.19033125 0.68015406 2.83374884
VERTEX2 894 -3.80358378 0.79058553 3.05482111
VERTEX2 895 -4.40313558 0.74094883 -2.93007800
VERTEX2 896 -4.42246670 0.73630518 -2.45151130
VERTEX2 897 -4.70656517 0.31465449 -2.17917974
VERTEX2 898 -5.05744788 -0.19523139 -2.16348292
VERTEX2 899 -5.34343369 -0.60552832 -2.23102305
VERTEX2 900 -5.75617540 -1.15034538 -2.23324286
VERTEX2 901 -6.12734588 -1.59527746 -2.29743175
VERTEX2 902 -6.54297220 -2.08753481 -2.27202846
VERTEX2 903 -6.85861699 -2.46712795 -2.31662365
VERTEX2 904 -6.85968330 -2.46864654 -1.61288855
VERTEX2 905 -6.84508781 -2.96108115 -1.55721498
VERTEX2 906 -6.81018915 -3.53156038 -1.49127787
VERTEX2 907 -6.75289564 -4.10495927 -1.49925722
VERTEX2 908 -6.70535605 -4.72377425 -1.47416201
VERTEX2 909 -6.64348126 -5.33269826 -1.49176937
VERTEX2 910 -6.67117141 -5.46387258 -1.86191790
VERTEX2 911 -6.83036549 -6.03711456 -1.80118723
VERTEX2 912 -6.95000068 -6.60037018 -1.78864684
VERTEX2 913 -7.06077504 -7.14150505 -1.78077013
VERTEX2 914 -7.18544218 -7.72891482 -1.80446385
VERTEX2 915 -7.30775020 -8.23744760 -1.84119442
VERTEX2 916 -7.24375298 -8.47764851 -1.29367237
VERTEX2 917 -7.10394234 -9.12280941 -1.54805916
VERTEX2 918 -7.12297524 -9.64336600 -1.62393161
VERTEX2 919 -7.15548880 -10.26983696 -1.66755061
VERTEX2 920 -7.21927898 -10.88698725 -1.68540764
VERTEX2 921 -7.29211800 -11.50541029 -1.73902488
VERTEX2 922 -7.39455862 -12.11261530 -1.76648163
VERTEX2 923 -7.51499353 -12.68268848 -1.83019342
VERTEX2 924 -7.64658478 -13.17700295 -1.81361330
VERTEX2 925 -7.64726745 -13.17357983 -1.30901916
VERTEX2 926 -7.48634703 -13.73672647 -1.29287999
VERTEX2 927 -7.31861091 -14.32846601 -1.31625155
VERTEX2 928 -7.15999150 -14.93567191 -1.32524794
VERTEX2 929 -7.00795081 -15.54005940 -1.32621202
VERTEX2 930 -6.85993768 -16.17108716 -1.40889034
VERTEX2 931 -6.77304624 -16.79774244 -1.48920875
VERTEX2 932 -6.72633818 -17.42528904 -1.54872428
VERTEX2 933 -6.72244527 -18.03844125 -1.61338655
VERTEX2 934 -6.73673616 -18.51972177 -1.62326083
VERTEX2 935 -6.73395511 -18.53256526 -0.94125511
VERTEX2 936 -6.73196480 -18.53326276 0.00380541
VERTEX2 937 -6.18956712 -18.50788435 0.06665303
VERTEX2 938 -5.59317265 -18.52374670 -0.10678942
VERTEX2 939 -4.96891143 -18.58343614 -0.07910227
VERTEX2 940 -4.35650208 -18.65866796 -0.16503642
VERTEX2 941 -3.75111521 -18.77436848 -0.21875107
VERTEX2 942 -3.23180922 -18.89034172 -0.21430651
VERTEX2 943 -2.62205801 -19.02449647 -0.12603230
VERTEX2 944 -2.00847868 -19.10782120 -0.18273238
VERTEX2 945 -1.38563653 -19.23732192 -0.23789037
VERTEX2 946 -1.20925679 -19.28239019 -0.17359808
VERTEX2 947 -0.79985937 -19.21967638 0.15458856
VERTEX2 948 -0.22648794 -19.13093012 0.13541562
VERTEX2 949 0.37749443 -19.09708830 -0.02027807
VERTEX2 950 1.00902464 -19.13415507 -0.25982585
VERTEX2 951 1.61293589 -19.30836342 -0.33198943
VERTEX2 952 2.21657458 -19.48559783 -0.08121750
VERTEX2 953 2.84752577 -19.51814273 -0.00093787
VERTEX2 954 3.47226118 -19.51166162 -0.00795737
VERTEX2 955 4.06212285 -19.55809217 -0.16879436
VERTEX2 956 4.61335867 -19.63741998 -0.17109207
VERTEX2 957 5.14542975 -19.73453305 -0.25878523
VERTEX2 958 5.61296520 -19.84777872 -0.28551113
VERTEX2 959 6.04577112 -19.96731568 -0.35259661
VERTEX2 960 6.63503960 -20.13070687 -0.27268257
VERTEX2 961 7.21663838 -20.30537505 -0.29969458
VERTEX2 962 7.83400267 -20.43432399 -0.23405012
VERTEX2 963 8.45145606 -20.51547052 -0.04732686
VERTEX2 964 9.07340203 -20.55725453 -0.11118281
VERTEX2 965 9.69109491 -20.63653020 -0.11803659
VERTEX2 966 10.13472373 -20.69505486 -0.17698859
VERTEX2 967 10.16752205 -20.68838780 0.67648499
VERTEX2 968 10.17534350 -20.68098721 1.57329716
VERTEX2 969 10.17775834 -20.70891675 1.63278130
VERTEX2 970 10.18029765 -20.73709508 1.63106349
VERTEX2 971 10.15941999 -20.40409874 1.63120963
VERTEX2 972 10.11996378 -19.81784663 1.63683490
VERTEX2 973 10.19859414 -19.23591007 1.35182610
VERTEX2 974 10.33686425 -18.63429949 1.38361589
VERTEX2 975 10.44726679 -18.02863515 1.38818358
VERTEX2 976 10.55092949 -17.42033251 1.40103762
VERTEX2 977 10.68520800 -16.80286045 1.37479084
VERTEX2 978 10.80473658 -16.19162602 1.42078601
VERTEX2 979 10.91807723 -15.58427225 1.40852480
VERTEX2 980 11.01437601 -14.98009294 1.45545565
VERTEX2 981 11.10158978 -14.38651256 1.46236595
VERTEX2 982 11.15650945 -13.85965376 1.50733697
VERTEX2 983 11.20426846 -13.26144980 1.50396794
VERTEX2 984 11.22965479 -12.66571406 1.56134371
VERTEX2 985 11.23869677 -12.06903937 1.58162693
VERTEX2 986 11.22185579 -11.44877371 1.61795745
VERTEX2 987 11.20730056 -10.82999602 1.58125297
VERTEX2 988 11.20816284 -10.21155409 1.59494428
VERTEX2 989 11.19176226 -9.59777055 1.60253981
VERTEX2 990 11.18323965 -8.98729869 1.59171110
VERTEX2 991 11.16630335 -8.37329951 1.61649077
VERTEX2 992 11.15969186 -7.78722858 1.58385638
VERTEX2 993 11.14442910 -7.17169198 1.61656354
VERTEX2 994 11.12665531 -6.58689363 1.60657494
VERTEX2 995 11.09315606 -5.98818768 1.65376951
VERTEX2 996 11.03167139 -5.37434869 1.68081636
VERTEX2 997 10.98515708 -4.72193733 1.61630424
VERTEX2 998 10.96440196 -4.31180818 1.63807107
VERTEX2 999 10.98677530 -4.32987379 2.35565079
VERTEX2 1000 10.51844752 -3.96612766 2.50418486
VERTEX2 1001 10.07378686 -3.56173706 2.18309315
VERTEX2 1002 9.70260333 -3.08533689 2.27566981
VERTEX2 1003 9.34883824 -2.58149803 2.09596033
VERTEX2 1004 9.00994742 -2.04506121 2.15413645
VERTEX2 1005 8.65641190 -1.55110187 2.21651425
VERTEX2 1006 8.26083880 -1.07346351 2.29384449
VERTEX2 1007 7.84848504 -0.64791616 2.38546621
VERTEX2 1008 7.61324237 -0.43357225 2.54494976
VERTEX2 1009 7.51545824 -0.41879355 3.01787799
VERTEX2 1010 6.94831737 -0.36300375 3.07039121
VERTEX2 1011 6.33197671 -0.32378597 3.02732134
VERTEX2 1012 5.72182795 -0.26056650 3.06926286
VERTEX2 1013 5.08514418 -0.26319025 -3.09891561
VERTEX2 1014 4.47155903 -0.21514565 3.00902424
VERTEX2 1015 3.84595708 -0.17575758 3.09353679
VERTEX2 1016 3.07574604 -0.13810961 3.10030622
VERTEX2 1017 2.49023550 -0.12468785 3.04316219
VERTEX2 1018 1.93227165 -0.06280051 3.05046816
VERTEX2 1019 1.33722188 -0.03826677 3.11002877
VERTEX2 1020 0.72192564 -0.00224570 3.09609209
VERTEX2 1021 0.10073517 0.02689816 3.05550425
VERTEX2 1022 0.04711099 0.03133189 3.04828996
VERTEX2 1023 0.05391331 0.03120183 3.13489700
VERTEX2 1024 -0.57313064 0.03896038 -3.12194399
VERTEX2 1025 -1.20231529 0.00842872 -3.10435982
VERTEX2 1026 -1.36381569 0.00291848 -3.09717337
VERTEX2 1027 -1.34776426 0.01078524 -2.18060320
VERTEX2 1028 -1.36085379 -0.15507667 -1.61711367
VERTEX2 1029 -1.38949624 -0.72074575 -1.63865959
VERTEX2 1030 -1.45308480 -1.34204584 -1.71907424
VERTEX2 1031 -1.56583280 -1.98739471 -1.77321698
VERTEX2 1032 -1.69649403 -2.63279727 -1.76916281
VERTEX2 1033 -1.84016388 -3.27698378 -1.81429635
VERTEX2 1034 -1.88484362 -3.44780369 -2.02804926
VERTEX2 1035 -1.89014806 -3.45227614 -2.64729733
VERTEX2 1036 -1.85904174 -3.46661907 3.06514541
VERTEX2 1037 -2.19886740 -3.33737452 2.82678425
VERTEX2 1038 -2.81015929 -3.21546069 2.91801936
VERTEX2 1039 -3.44845762 -3.04624584 2.88650908
VERTEX2 1040 -3.42267648 -3.04685162 -2.76654692
VERTEX2 1041 -3.39361450 -3.05065592 -1.74952273
VERTEX2 1042 -3.39539959 -3.08366254 -0.76151686
VERTEX2 1043 -3.36162555 -3.11470624 0.20813434
VERTEX2 1044 -3.37523222 -3.13080246 1.20201987
VERTEX2 1045 -3.37841851 -3.13784442 1.08799273
VERTEX2 1046 -3.38898805 -3.15209772 0.70245710
VERTEX2 1047 -3.40781775 -3.16032736 0.14668398
VERTEX2 1048 -3.04486728 -3.22912771 -0.16630897
VERTEX2 1049 -2.39893643 -3.32670279 -0.14914864
VERTEX2 1050 -1.75131322 -3.39649448 -0.07346425
VERTEX2 1051 -1.09536304 -3.46918527 -0.15260828
VERTEX2 1052 -0.47096729 -3.54945868 -0.09965395
VERTEX2 1053 -0.05318189 -3.60341345 -0.15228083
VERTEX2 1054 -0.02638131 -3.60620961 0.60990044
VERTEX2 1055 -0.02027016 -3.57734949 1.66526325
VERTEX2 1056 -0.01112560 -3.59073208 2.66894481
VERTEX2 1057 0.01431442 -3.59353519 -2.62345617
VERTEX2 1058 0.01246061 -3.59571702 -1.70133524
VERTEX2 1059 -0.08530591 -4.17838888 -1.78209723
VERTEX2 1060 -0.22185399 -4.80839287 -1.77710538
VERTEX2 1061 -0.32908360 -5.25454267 -1.89965177
VERTEX2 1062 -0.33255822 -5.25989971 -2.46388151
VERTEX2 1063 -0.31129087 -5.24774139 -3.06161110
VERTEX2 1064 -0.59148882 -5.19494548 2.95632346
VERTEX2 1065 -1.17889436 -5.12763416 3.07829340
VERTEX2 1066 -1.74178444 -5.07499356 3.02218667
VERTEX2 1067 -1.72708053 -5.07423479 -2.82832049
VERTEX2 1068 -1.71454464 -5.06543943 -2.15551646
VERTEX2 1069 -1.71394804 -5.06383512 -1.98513359
VERTEX2 1070 -1.71249188 -5.06128024 -2.52408029
VERTEX2 1071 -2.18437465 -5.31716541 -2.65129173
VERTEX2 1072 -2.63444616 -5.54958806 -2.71995126
VERTEX2 1073 -2.60510516 -5.54884360 3.05209278
VERTEX2 1074 -3.13474737 -5.47690195 3.01773233
VERTEX2 1075 -3.71203918 -5.40056820 3.03429750
VERTEX2 1076 -3.73027835 -5.39924532 -2.84471292
VERTEX2 1077 -3.74317900 -5.42360941 -2.03899479
VERTEX2 1078 -3.98154923 -6.03327014 -1.99385921
VERTEX2 1079 -4.21426502 -6.59987839 -1.93175846
VERTEX2 1080 -4.21896015 -6.61243727 -2.41939754
VERTEX2 1081 -4.64614055 -6.90440862 -2.54267093
VERTEX2 1082 -4.81576586 -7.02280945 -2.26208989
VERTEX2 1083 -4.81140329 -7.05620973 -1.23192131
VERTEX2 1084 -4.74010190 -7.09289520 -0.26662714
VERTEX2 1085 -4.74588777 -7.09443033 0.71686591
VERTEX2 1086 -4.38680254 -6.60696638 0.94751043
VERTEX2 1087 -4.00839100 -6.10166481 0.93554005
VERTEX2 1088 -3.64860659 -5.59210753 0.91889009
VERTEX2 1089 -3.59327813 -5.52071562 0.82352966
VERTEX2 1090 -3.58350419 -5.51179679 0.20870222
VERTEX2 1091 -3.04634768 -5.48021593 0.03195578
VERTEX2 1092 -2.42784618 -5.46548182 0.01691173
VERTEX2 1093 -1.85933871 -5.46892844 -0.04805326
VERTEX2 1094 -1.84694740 -5.48074177 -0.45190994
VERTEX2 1095 -1.81687321 -5.50742598 -1.04134685
VERTEX2 1096 -1.81702240 -5.50688260 -1.61228896
VERTEX2 1097 -1.90011424 -5.83115336 -1.82756926
VERTEX2 1098 -2.07703371 -6.42702557 -1.88429642
VERTEX2 1099 -2.28418026 -6.98652608 -1.98021152
VERTEX2 1100 -2.28939565 -6.99970384 -1.61687747
VERTEX2 1101 -2.23159997 -7.25998573 -1.35076250
VERTEX2 1102 -2.23213168 -7.26624759 -1.74417415
VERTEX2 1103 -2.35942800 -7.87355613 -1.77779840
VERTEX2 1104 -2.49746493 -8.50720551 -1.80532568
VERTEX2 1105 -2.65263560 -9.12701371 -1.82304170
VERTEX2 1106 -2.77832164 -9.60178118 -1.84808191
VERTEX2 1107 -2.77787193 -9.60700689 -1.59167298
VERTEX2 1108 -2.74759910 -10.23057323 -1.58363762
VERTEX2 1109 -2.80156478 -10.87204319 -1.68731618
VERTEX2 1110 -2.87742157 -11.47737621 -1.73659181
VERTEX2 1111 -3.04803149 -12.00448722 -1.83758618
VERTEX2 1112 -3.08323944 -12.58123548 -1.49071824
VERTEX2 1113 -3.04872357 -13.21769719 -1.58578857
VERTEX2 1114 -3.05729035 -13.83190854 -1.56848348
VERTEX2 1115 -3.05306522 -14.41268255 -1.58439185
VERTEX2 1116 -3.03947255 -15.05855296 -1.54783643
VERTEX2 1117 -3.03643103 -15.15359320 -1.67524467
VERTEX2 1118 -3.03459446 -15.15013296 -2.28169688
VERTEX2 1119 -3.02608576 -15.14419520 -2.71275340
VERTEX2 1120 -3.58931299 -15.35271517 -2.77604437
VERTEX2 1121 -3.77976570 -15.42094653 -2.89425429
VERTEX2 1122 -3.77827228 -15.42144163 2.83933910
VERTEX2 1123 -4.32927654 -15.24053756 2.85613323
VERTEX2 1124 -4.88816262 -15.11573450 2.95471088
VERTEX2 1125 -5.51496921 -14.99461442 2.96806265
VERTEX2 1126 -5.59598653 -14.98213142 -2.97566783
VERTEX2 1127 -5.59051698 -14.98789478 -1.91918064
VERTEX2 1128 -5.59027862 -14.98673420 -0.93254615
VERTEX2 1129 -5.57266976 -14.99648177 0.08231385
VERTEX2 1130 -4.98565158 -14.93010070 0.09589721
VERTEX2 1131 -4.21239734 -15.05296749 -0.33610454
VERTEX2 1132 -3.60145751 -15.26903224 -0.35583953
VERTEX2 1133 -3.05422713 -15.49602331 -0.39457369
VERTEX2 1134 -2.80108621 -15.60175569 -0.49161614
VERTEX2 1135 -2.78928073 -15.61330324 -1.04774493
VERTEX2 1136 -2.79057816 -15.61599578 -1.60979960
VERTEX2 1137 -2.84503912 -15.92217614 -1.79385051
VERTEX2 1138 -3.00042036 -16.55894985 -1.81012690
VERTEX2 1139 -3.11964262 -17.05474802 -1.88317939
VERTEX2 1140 -3.11000671 -17.03167043 -2.36181907
VERTEX2 1141 -3.08901205 -17.01127946 -2.90884959
VERTEX2 1142 -3.45250753 -16.96754485 3.01028374
VERTEX2 1143 -4.05100495 -16.92025102 3.09984346
VERTEX2 1144 -4.63243400 -16.88537657 3.06937180
VERTEX2 1145 -5.21140805 -16.83924763 3.04404803
VERTEX2 1146 -5.78799036 -16.78145963 3.06393163
VERTEX2 1147 -6.36805315 -16.77086513 3.13679402
VERTEX2 1148 -6.94671214 -16.76783850 -3.13636079
VERTEX2 1149 -6.98961225 -16.76910651 -2.63811598
VERTEX2 1150 -7.08203485 -16.87163810 -1.82836708
VERTEX2 1151 -7.08014239 -16.88265754 -0.82437086
VERTEX2 1152 -7.06318516 -16.88296351 0.22893768
VERTEX2 1153 -7.04853414 -16.87634752 1.24190033
VERTEX2 1154 -7.10747866 -16.55915925 1.78799270
VERTEX2 1155 -7.23990033 -15.93455777 1.73866044
VERTEX2 1156 -7.33647388 -15.32858500 1.74869520
VERTEX2 1157 -7.46295926 -14.75731559 1.85982846
VERTEX2 1158 -7.58862218 -14.15500847 1.73129864
VERTEX2 1159 -7.64865225 -13.55122210 1.63735903
VERTEX2 1160 -7.67064590 -12.91105290 1.50070646
VERTEX2 1161 -7.57031016 -12.27960015 1.41108513
VERTEX2 1162 -7.47823989 -11.64780556 1.46925359
VERTEX2 1163 -7.41512934 -11.00488453 1.46384320
VERTEX2 1164 -7.36635016 -10.36384954 1.54932540
VERTEX2 1165 -7.35510773 -9.82450342 1.52652553
VERTEX2 1166 -7.35574390 -9.82142020 2.01553921
VERTEX2 1167 -7.30355358 -9.80872886 2.95225983
VERTEX2 1168 -7.25868054 -9.79087322 -2.42739141
VERTEX2 1169 -7.26266556 -9.84262519 -1.60530506
VERTEX2 1170 -7.27258161 -10.42903716 -1.59855547
VERTEX2 1171 -7.27204575 -11.06421650 -1.56676747
VERTEX2 1172 -7.27598359 -11.66344739 -1.62917396
VERTEX2 1173 -7.30552548 -12.28735917 -1.62002107
VERTEX2 1174 -7.34898749 -12.91645226 -1.68872327
VERTEX2 1175 -7.43472290 -13.53036096 -1.72212750
VERTEX2 1176 -7.53196667 -14.15176366 -1.76582088
VERTEX2 1177 -7.65139756 -14.76110998 -1.76379580
VERTEX2 1178 -7.78240571 -15.37437324 -1.81103228
VERTEX2 1179 -7.91990554 -15.97949709 -1.78171232
VERTEX2 1180 -7.97423977 -16.23380080 -1.78872560
VERTEX2 1181 -7.97350916 -16.22868883 -0.96138603
VERTEX2 1182 -7.91735131 -16.24294992 -0.24977493
VERTEX2 1183 -7.30317239 -16.39203386 -0.22450279
VERTEX2 1184 -6.66975911 -16.50697659 -0.15502379
VERTEX2 1185 -6.04126201 -16.61750475 -0.18734652
VERTEX2 1186 -5.40919539 -16.71257809 -0.12124220
VERTEX2 1187 -4.75480601 -16.79829332 -0.15842342
VERTEX2 1188 -4.12699975 -16.88844657 -0.14041000
VERTEX2 1189 -3.46344995 -16.99598141 -0.11871598
VERTEX2 1190 -3.13163924 -17.03620856 -0.11068637
VERTEX2 1191 -3.09897564 -17.03548107 0.80962249
VERTEX2 1192 -3.09329334 -16.95202326 1.60730286
VERTEX2 1193 -3.08757435 -16.35211988 1.47530621
VERTEX2 1194 -3.04727207 -15.77793432 1.51737636
VERTEX2 1195 -3.01989932 -15.15445135 1.56973778
VERTEX2 1196 -3.01523696 -14.53079344 1.39711894
VERTEX2 1197 -2.91307383 -13.91602419 1.40840689
VERTEX2 1198 -2.84394771 -13.28936530 1.66729809
VERTEX2 1199 -2.86249876 -12.67709677 1.45264903
VERTEX2 1200 -2.80679364 -12.04716640 1.52168530
VERTEX2 1201 -2.78332851 -11.42755693 1.57752964
VERTEX2 1202 -2.79511028 -10.80519613 1.60048481
VERTEX2 1203 -2.82703045 -10.21578785 1.51056439
VERTEX2 1204 -2.71406542 -9.62400818 1.36377771
VERTEX2 1205 -2.60688953 -9.06131855 1.39333882
VERTEX2 1206 -2.52265609 -8.47159055 1.45455204
VERTEX2 1207 -2.38650640 -7.86053272 1.36843198
VERTEX2 1208 -2.27522542 -7.23575802 1.43308514
VERTEX2 1209 -2.18937849 -6.61435322 1.43111431
VERTEX2 1210 -2.12559679 -5.99713040 1.45164748
VERTEX2 1211 -2.00079105 -5.38538926 1.37849137
VERTEX2 1212 -1.88696797 -4.77393599 1.42821260
VERTEX2 1213 -1.82065372 -4.16058595 1.50117806
VERTEX2 1214 -1.73973567 -3.43529772 1.27808242
VERTEX2 1215 -1.57614747 -2.85152152 1.33679777
VERTEX2 1216 -1.52640871 -2.29853540 1.55369982
VERTEX2 1217 -1.49263241 -1.71895896 1.53408384
VERTEX2 1218 -1.47921432 -1.12880780 1.48341484
VERTEX2 1219 -1.42893402 -0.47972732 1.51401284
VERTEX2 1220 -1.42228363 0.10733745 1.60475084
VERTEX2 1221 -1.42173924 0.10550888 1.15199784
VERTEX2 1222 -1.41176691 0.11523068 0.55469084
VERTEX2 1223 -1.39993465 0.11803850 -0.00493616
VERTEX2 1224 -0.82591128 0.02613992 -0.18784416
VERTEX2 1225 -0.21048905 -0.08686984 -0.17408016
VERTEX2 1226 -0.10561360 -0.10542393 -0.19081116
VERTEX2 1227 -0.10561360 -0.10542393 -0.19147316
