1 19 166 0 0.41485034 0.00210679 5 
2 19 172 0 0.02820697 0.00186678 4 
3 25 172 0 0.50366199 0.00188182 4 
4 25 178 0 0.30831851 0.00201979 4 
5 32 178 0 0.01493521 0.00199006 4 
6 32 183 0 0.07055611 0.00201257 4 
7 44 189 0 0.52863102 0.00208339 4 
8 44 195 0 0.35755137 0.00217286 4 
9 50 195 0 0.00572854 0.00219537 4 
10 50 201 0 0.04110605 0.00190637 3 
11 50 203 0 0.06975183 0.00188066 3 
12 61 203 0 0.00745912 0.00189991 3 
13 61 209 0 0.37222863 0.00231645 4 
14 67 209 0 0.41032090 0.00232909 4 
15 67 220 0 0.66144083 0.00250369 4 
16 81 220 0 0.48035877 0.00285603 5 
17 81 226 0 0.05402805 0.00256277 4 
18 87 226 0 1.82553139 0.00294367 5 
19 87 231 0 0.34656585 0.00262691 4 
20 94 231 0 0.55778528 0.00256456 4 
21 226 231 0 1.44127402 0.00298370 5 
22 94 241 0 1.33132047 0.00269118 4 
23 101 241 0 0.50961029 0.00271876 4 
24 101 247 0 1.66454674 0.00276224 4 
25 107 247 0 1.80094617 0.00278338 4 
26 107 254 0 1.18346605 0.00284244 4 
27 114 254 0 0.12939160 0.00286158 4 
28 107 256 0 0.93085039 0.00285231 4 
29 114 256 0 0.24629796 0.00285826 4 
30 107 258 0 1.37911724 0.00290133 4 
31 114 258 0 1.15747212 0.00292412 4 
32 121 266 0 0.00938596 0.00301037 4 
33 126 266 0 0.44864328 0.00354251 5 
34 126 272 0 1.03992836 0.00309322 4 
35 132 272 0 0.39070916 0.00364481 5 
36 132 278 0 0.58358145 0.00317592 4 
37 138 278 0 1.06458780 0.00373487 5 
38 138 284 0 0.02201259 0.00270859 3 
39 151 284 0 0.12777228 0.00328578 4 
40 151 291 0 0.60037557 0.00331898 4 
41 151 297 0 0.07972289 0.00285093 3 
42 157 297 0 1.04991834 0.00344212 4 
43 166 297 0 1.30507781 0.00338822 4 
44 19 305 0 0.16044642 0.00357319 4 
45 157 305 0 0.58687353 0.00360501 4 
46 163 305 0 7.56485476 0.00483882 6 
47 166 305 0 0.37495035 0.00360427 4 
48 172 305 0 0.01886255 0.00360700 4 
49 19 315 0 0.48455906 0.00310397 3 
50 25 315 0 0.02281386 0.00310505 3 
51 172 315 0 0.05679715 0.00373036 4 
52 172 328 0 0.12482725 0.00325427 3 
53 19 337 0 6.63404991 0.00465645 5 
54 25 337 0 0.96522419 0.00399753 4 
55 172 337 0 0.57611560 0.00334127 3 
56 19 342 0 0.00494520 0.00338430 3 
57 25 342 0 0.12855172 0.00406372 4 
58 172 342 0 0.01223902 0.00411967 4 
59 178 342 0 0.12442988 0.00417397 4 
60 25 367 0 0.11414782 0.00379187 3 
61 32 367 0 0.01267433 0.00596467 6 
62 178 367 0 0.00286807 0.00377391 3 
63 183 367 0 0.06698524 0.00378451 3 
64 25 374 0 0.56424690 0.00459740 4 
65 32 374 0 0.09892849 0.00532881 5 
66 178 374 0 0.03055075 0.00460655 4 
67 183 374 0 0.05309447 0.00457769 4 
68 32 382 0 4.14688582 0.00392992 3 
69 183 382 0 1.28811506 0.00466194 4 
70 32 387 0 2.72468715 0.00473775 4 
71 183 387 0 0.18197642 0.00472293 4 
72 189 414 0 7.69047346 0.00586477 5 
73 44 437 0 0.00915802 0.00438283 3 
74 195 437 0 0.01161094 0.00437605 3 
75 44 454 0 0.65644164 0.00452053 3 
76 189 454 0 0.03962740 0.00542175 4 
77 44 467 0 0.12345281 0.00641101 5 
78 50 467 0 0.00895575 0.01022815 9 
79 195 467 0 0.00230988 0.00464357 3 
80 195 484 0 0.09447226 0.00573552 4 
81 0 485 2 455.34016241 0.00000325 1 
82 44 494 0 0.02880924 0.00605422 4 
83 50 494 0 0.00628832 0.00482680 3 
84 195 494 0 0.00818961 0.00682376 5 
85 201 494 0 0.00469852 0.00682536 5 
86 50 500 0 0.14406209 0.00694337 5 
87 201 500 0 0.05353930 0.00490870 3 
88 203 500 0 0.03252445 0.00487929 3 
89 61 508 0 0.99413579 0.00711835 5 
90 203 508 0 0.26947301 0.01224169 10 
91 209 508 0 0.03711473 0.00607462 4 
92 107 513 2 3709.09820230 0.00000320 1 
93 61 522 0 1.37942234 0.00614224 4 
94 203 522 0 0.12859200 0.00512395 3 
95 209 522 0 0.00542469 0.00513789 3 
96 61 528 0 0.47936102 0.00511568 3 
97 67 528 0 0.22419307 0.00626304 4 
98 81 528 0 0.23233822 0.00839494 6 
99 209 528 0 0.09444678 0.01061284 8 
100 220 528 0 0.13668760 0.00639187 4 
101 67 532 0 0.05459173 0.01177196 9 
102 81 532 0 0.11826401 0.00846728 6 
103 220 532 0 0.05648169 0.00632697 4 
104 67 556 0 0.98233216 0.00647699 4 
105 67 564 0 0.40168838 0.01229453 9 
106 81 564 0 0.02280941 0.00663154 4 
107 220 564 0 0.02684857 0.00664155 4 
108 67 567 0 2.67253169 0.00778994 5 
109 81 567 0 0.48923871 0.00900029 6 
110 220 567 0 0.21723258 0.00664249 4 
111 67 570 0 2.40706627 0.00907258 6 
112 81 570 0 0.15671702 0.00900383 6 
113 220 570 0 0.13379867 0.00671776 4 
114 81 575 0 2.76594993 0.00790069 5 
115 220 575 0 1.08612706 0.01032381 7 
116 81 588 0 0.01497138 0.00566021 3 
117 87 588 0 0.47937722 0.00815234 5 
118 226 588 0 0.43156268 0.00690269 4 
119 87 597 0 2.27648751 0.00953559 6 
120 94 597 0 0.38888315 0.00813361 4 
121 226 597 0 0.55079633 0.00832590 5 
122 87 604 0 0.47149562 0.00709893 4 
123 94 604 0 0.01542269 0.00838741 5 
124 462 610 2 544.03887428 0.00000322 1 
125 94 616 0 0.01350372 0.01232228 8 
126 94 632 0 2.16969694 0.00877455 5 
127 400 635 2 1919.47667034 0.00000358 1 
128 94 637 0 4.44236402 0.01006225 6 
129 101 637 0 0.19098383 0.00753881 4 
130 101 642 0 0.11555601 0.00888253 5 
131 107 642 0 0.04025021 0.01405099 9 
132 329 642 2 1360.40330637 0.00000312 9 
133 101 645 0 6.69527511 0.00762313 4 
134 107 645 0 1.54205090 0.00859787 4 
135 72 654 2 167.48266605 0.00000370 1 
136 101 657 0 0.73548669 0.01665866 10 
137 101 663 0 0.04971914 0.01667980 10 
138 107 663 0 0.01781179 0.00913160 5 
139 114 663 0 0.00275957 0.00914878 5 
140 101 665 0 1.55112265 0.01345843 8 
141 107 665 0 0.47667103 0.00779449 4 
142 114 665 0 0.13329170 0.00651730 3 
143 107 680 0 1.48615866 0.00935287 5 
144 107 683 0 0.94462224 0.00804574 4 
145 114 683 0 0.32178225 0.00952417 5 
146 413 690 2 585.46072445 0.00000282 1 
147 107 704 0 0.34268109 0.01272197 7 
148 114 704 0 0.07528002 0.01548128 9 
149 107 714 0 1.79639085 0.01129682 6 
150 114 714 0 0.02860377 0.01433967 8 
151 107 730 0 0.19656714 0.01015109 5 
152 114 730 0 0.03540690 0.00855651 4 
153 333 738 2 813.58398445 0.00000291 1 
154 121 754 0 0.33113739 0.00877407 4 
155 126 754 0 0.07673382 0.01508251 8 
156 408 755 2 1685.32048860 0.00000431 1 
157 121 759 0 2.33625684 0.01192733 6 
158 126 759 0 0.22329988 0.01197897 6 
159 242 759 2 3474.59598382 0.00000358 6 
160 126 762 0 7.08482229 0.01035435 5 
161 132 762 0 2.00372045 0.01529418 8 
162 132 778 0 0.06999780 0.00900344 4 
163 643 787 2 354.33155795 0.00000437 1 
164 132 792 0 1.26802734 0.00931574 4 
165 309 792 2 1094.40113574 0.00000345 4 
166 132 800 0 3.35686460 0.00914978 4 
167 138 800 0 0.14494330 0.01248832 6 
168 138 806 0 0.25140739 0.00751462 3 
169 506 820 2 530.83343590 0.00000315 1 
170 138 821 0 0.40674396 0.01105360 5 
171 138 823 0 6.54725682 0.00933678 4 
172 151 828 0 3.12108818 0.00946568 4 
173 151 847 0 0.08724621 0.01139994 5 
174 151 855 0 0.11494457 0.01505337 7 
175 640 878 2 767.71861536 0.00000412 1 
176 529 883 2 299.03412000 0.00000437 1 
177 151 895 0 2.80701437 0.01762140 8 
178 655 896 2 3461.51626061 0.00000327 1 
179 151 897 0 0.06118057 0.02127936 10 
180 138 903 0 0.08157811 0.01023332 4 
181 138 904 0 7.06392298 0.01400980 6 
182 132 907 0 0.71874717 0.01029124 4 
183 138 907 0 0.22077132 0.01222968 5 
184 132 911 0 0.23128175 0.01226773 5 
185 121 923 0 0.62636126 0.01431620 6 
186 126 923 0 0.07130653 0.01047519 4 
187 107 929 0 0.07225325 0.01255327 5 
188 114 929 0 0.00477553 0.01060076 4 
189 107 935 0 4.91438615 0.01650104 7 
190 114 935 0 1.40337639 0.01653551 7 
191 101 939 0 0.48567419 0.01070933 4 
192 107 939 0 0.21174614 0.01073179 4 
193 522 940 2 4473.10359588 0.00000453 1 
194 101 944 0 0.15377935 0.01273417 5 
195 94 947 0 0.23772432 0.01675235 7 
196 101 947 0 0.16826262 0.01481353 6 
197 87 953 0 0.13504795 0.01088521 4 
198 94 953 0 0.06505521 0.01492086 6 
199 226 953 0 0.08268323 0.02298507 10 
200 81 959 0 1.83528326 0.02433342 10 
201 87 959 0 1.29172246 0.01710942 7 
202 220 959 0 0.04883629 0.01105704 4 
203 226 959 0 0.12130941 0.01316267 5 
204 67 965 0 1.01368609 0.01316064 5 
205 81 965 0 0.31066014 0.01520889 6 
206 220 965 0 0.16483276 0.01932624 8 
207 61 976 0 0.16803746 0.01742056 7 
208 67 976 0 0.05676300 0.00921683 3 
209 209 976 0 0.00780965 0.01127621 4 
210 50 982 0 0.38354811 0.01135938 4 
211 61 982 0 0.27147698 0.01136644 4 
212 201 982 0 0.22200943 0.01136642 4 
213 203 982 0 0.10573284 0.02185448 9 
214 52 982 2 3021.30463465 0.00000457 9 
215 44 988 0 0.09550719 0.01146662 4 
216 50 988 0 0.05924873 0.01149470 4 
217 195 988 0 0.04319526 0.01570215 6 
218 201 988 0 0.02685916 0.01356932 5 
219 44 994 0 0.51683435 0.01785484 7 
220 189 994 0 0.29989154 0.02567850 10 
221 195 994 0 0.21957432 0.01371584 5 
222 32 1003 0 0.23901034 0.01386463 5 
223 178 1003 0 0.03356851 0.02596402 10 
224 183 1003 0 0.01433170 0.01603895 6 
225 25 1008 0 1.23858172 0.01831723 7 
226 32 1008 0 0.53803958 0.01180980 4 
227 178 1008 0 0.34459610 0.01179589 4 
228 183 1008 0 0.22233868 0.01183977 4 
229 25 1010 0 0.60236133 0.01181611 4 
230 32 1010 0 0.30591807 0.01400760 5 
231 172 1010 0 0.10368354 0.01636657 6 
232 178 1010 0 0.19279072 0.02637170 10 
233 19 1016 0 0.44047719 0.02115761 8 
234 166 1016 0 0.20189646 0.01197966 4 
235 172 1016 0 0.07393216 0.01408905 5 
236 151 1029 0 0.03533130 0.01436926 5 
237 157 1029 0 0.02672450 0.01205701 4 
238 163 1029 0 3.39703566 0.01202594 4 
239 166 1029 0 0.49353449 0.01198604 4 
240 890 1073 2 235.38942310 0.00000549 1 
241 132 1084 0 4.21993706 0.01499793 5 
242 677 1104 2 732.84208925 0.00000626 1 
243 443 1134 2 348.99324027 0.00000697 1 
244 101 1138 0 0.63021658 0.01570901 5 
245 22 1139 2 3175.59331842 0.00000525 1 
246 107 1147 0 0.73708347 0.01320596 4 
247 114 1147 0 0.03971358 0.01079707 3 
248 107 1150 0 7.45683387 0.01330327 4 
249 114 1150 0 1.00561260 0.01085337 3 
250 114 1158 0 0.16899687 0.01090670 3 
251 121 1158 0 0.69099743 0.01350947 4 
252 701 1160 2 5056.20731596 0.00000620 1 
253 121 1164 0 0.45182924 0.01599285 5 
254 126 1164 0 0.04418665 0.01352520 4 
255 114 1175 0 0.14266969 0.01363419 4 
256 121 1175 0 0.27324351 0.01368310 4 
257 923 1175 0 0.18719011 0.01370487 4 
258 929 1175 0 0.16073549 0.01369054 4 
259 1158 1175 0 0.00134797 0.01110487 3 
260 463 1185 2 514.10242836 0.00000617 1 
261 101 1188 0 0.32950319 0.01380943 4 
262 939 1188 0 0.55418798 0.01383726 4 
263 1138 1188 0 0.03006025 0.01189966 3 
264 1147 1188 0 0.04063922 0.01132469 3 
265 1150 1188 0 1.83245351 0.01390647 4 
266 1035 1203 2 425.70238128 0.00000602 1 
267 1050 1210 0 0.00345523 0.01409245 4 
268 1061 1210 0 0.57363906 0.01672646 5 
269 1075 1210 0 0.23107861 0.01670290 5 
270 1084 1210 0 3.13555510 0.01672431 5 
271 1088 1210 0 0.59156319 0.01411568 4 
272 1093 1210 0 0.13111230 0.01936993 6 
273 1098 1210 0 0.04730346 0.01408481 4 
274 157 1217 0 0.32750279 0.01420348 4 
275 163 1217 0 0.19904338 0.01441361 4 
276 1029 1217 0 0.01250493 0.01165292 3 
277 1044 1217 0 3.98258990 0.01434441 4 
278 1050 1217 0 4.97161000 0.01703305 5 
279 163 297 0 0.27920255 0.01511011 4 
280 189 400 0 2.09679271 0.01455602 4 
281 1056 1217 0 9.66143264 0.01720330 5 
