1 19 166 0.00296186 10 
2 19 172 0.00311367 10 
3 25 172 0.00317927 10 
4 25 178 0.00329267 10 
5 32 178 0.00329987 10 
6 32 183 0.00338619 10 
7 44 189 0.00350992 10 
8 44 195 0.00361824 10 
9 50 195 0.00361768 10 
10 50 201 0.00371889 10 
11 50 203 0.00416886 10 
12 61 203 0.00375693 10 
13 61 209 0.00387411 10 
14 67 209 0.00387767 10 
15 67 220 0.00407666 10 
16 81 220 0.00406462 10 
17 81 226 0.00418354 10 
18 87 226 0.00417578 10 
19 87 231 0.00427274 10 
20 94 231 0.00426823 10 
21 226 231 0.00426870 10 
22 94 241 0.00448185 10 
23 101 241 0.00446905 10 
24 101 247 0.00458293 10 
25 107 247 0.00458761 10 
26 107 254 0.00471141 10 
27 114 254 0.00471446 10 
28 107 256 0.00477267 10 
29 114 256 0.00477636 10 
30 107 258 0.00482529 10 
31 114 258 0.00481728 10 
32 121 266 0.00498239 10 
33 126 266 0.00500274 10 
34 126 272 0.00513580 10 
35 132 272 0.00514693 10 
36 132 278 0.00526008 10 
37 138 278 0.00525611 10 
38 138 284 0.00539703 10 
39 151 284 0.00540122 10 
40 151 291 0.00553082 10 
41 151 297 0.00564222 10 
42 157 297 0.00564109 10 
43 163 297 0.00565944 10 
44 166 297 0.00565907 10 
45 19 305 0.00593682 10 
46 157 305 0.00594379 10 
47 163 305 0.00599124 10 
48 166 305 0.00598112 10 
49 172 305 0.00601309 10 
50 19 315 0.00539445 9 
51 25 315 0.00605787 10 
52 172 315 0.00622384 10 
53 172 328 0.00627359 10 
54 19 337 0.00516408 8 
55 25 337 0.00651154 10 
56 172 337 0.00668005 10 
57 19 342 0.00659209 10 
58 25 342 0.00664105 10 
59 172 342 0.00340452 5 
60 178 342 0.00666046 10 
61 25 367 0.00347889 5 
62 32 367 0.00419958 6 
63 178 367 0.00421523 6 
64 183 367 0.00494954 7 
65 25 374 0.00725190 10 
66 32 374 0.00730333 10 
67 178 374 0.00523996 7 
68 183 374 0.00654085 9 
69 32 382 0.00593761 8 
70 183 382 0.00750752 10 
71 32 387 0.00755352 10 
72 183 387 0.00448855 6 
73 189 400 0.00788439 10 
74 189 414 0.00815614 10 
75 44 437 0.00861851 10 
76 195 437 0.00880703 10 
77 44 454 0.00890087 10 
78 189 454 0.00914290 10 
79 44 467 0.00918093 10 
80 50 467 0.00944011 10 
81 195 467 0.00944250 10 
82 195 484 0.00954655 10 
83 44 494 0.00673931 7 
84 50 494 0.00977360 10 
85 195 494 0.01000583 10 
86 201 494 0.01005293 10 
87 50 500 0.00992059 10 
88 201 500 0.01017289 10 
89 203 500 0.01019732 10 
90 61 508 0.01013105 10 
91 203 508 0.01036736 10 
92 209 508 0.01041215 10 
93 61 522 0.01039893 10 
94 203 522 0.01064743 10 
95 209 522 0.01066374 10 
96 61 528 0.01053703 10 
97 67 528 0.01083508 10 
98 81 528 0.01085790 10 
99 209 528 0.01085821 10 
100 220 528 0.01086011 10 
101 67 532 0.00845749 8 
102 81 532 0.01069250 10 
103 220 532 0.01096612 10 
104 67 556 0.01116384 10 
105 67 564 0.01130862 10 
106 81 564 0.01158641 10 
107 220 564 0.01151206 10 
108 67 567 0.01139172 10 
109 81 567 0.01168365 10 
110 220 567 0.01169162 10 
111 67 570 0.01147661 10 
112 81 570 0.01175810 10 
113 220 570 0.01174678 10 
114 81 575 0.01188928 10 
115 220 575 0.01187172 10 
116 81 588 0.01185492 10 
117 87 588 0.01217208 10 
118 226 588 0.01220159 10 
119 87 597 0.01210290 10 
120 94 597 0.01239385 10 
121 226 597 0.01242231 10 
122 87 604 0.01226240 10 
123 94 604 0.01256069 10 
124 94 616 0.00989494 8 
125 94 632 0.01280793 10 
126 94 637 0.01291152 10 
127 101 637 0.01322997 10 
128 101 642 0.01300554 10 
129 107 642 0.01331665 10 
130 101 645 0.01307227 10 
131 107 645 0.01341355 10 
132 101 657 0.01331759 10 
133 101 663 0.01199379 9 
134 107 663 0.01345228 10 
135 114 663 0.01395949 10 
136 101 665 0.01368553 10 
137 107 665 0.01400613 10 
138 114 665 0.01402579 10 
139 107 680 0.01399256 10 
140 107 683 0.01407107 10 
141 114 683 0.01439851 10 
142 107 704 0.01446930 10 
143 114 704 0.01480269 10 
144 107 714 0.01465591 10 
145 114 714 0.01498637 10 
146 107 730 0.01183628 8 
147 114 730 0.01495560 10 
148 121 754 0.01537107 10 
149 126 754 0.01579932 10 
150 121 759 0.01553253 10 
151 126 759 0.01591915 10 
152 126 762 0.01560201 10 
153 132 762 0.01603363 10 
154 132 778 0.01594398 10 
155 132 792 0.01618289 10 
156 132 800 0.01637749 10 
157 138 800 0.01679502 10 
158 138 806 0.01651963 10 
159 138 821 0.01680335 10 
160 138 823 0.01673434 10 
161 151 828 0.01694447 10 
162 151 847 0.01732761 10 
163 151 855 0.01745522 10 
164 151 895 0.01826698 10 
165 151 897 0.01857452 10 
166 138 903 0.01839810 10 
167 138 904 0.01886937 10 
168 132 907 0.01851563 10 
169 138 907 0.01895477 10 
170 132 911 0.01857542 10 
171 121 923 0.01887486 10 
172 126 923 0.01935331 10 
173 107 929 0.01907948 10 
174 114 929 0.01955012 10 
175 107 935 0.01919664 10 
176 114 935 0.01968351 10 
177 101 939 0.01915835 10 
178 107 939 0.01916596 10 
179 101 944 0.01940099 10 
180 94 947 0.01965438 10 
181 101 947 0.01990619 10 
182 87 953 0.01963665 10 
183 94 953 0.02114866 10 
184 226 953 0.02012226 10 
185 81 959 0.01983780 10 
186 87 959 0.02029035 10 
187 220 959 0.02037759 10 
188 226 959 0.02033372 10 
189 67 965 0.02001197 10 
190 81 965 0.02050541 10 
191 220 965 0.02049731 10 
192 61 976 0.02025201 10 
193 67 976 0.02080085 10 
194 209 976 0.02075313 10 
195 50 982 0.02047099 10 
196 61 982 0.02093176 10 
197 201 982 0.02098240 10 
198 203 982 0.02100624 10 
199 44 988 0.02065737 10 
200 50 988 0.02114627 10 
201 195 988 0.02116303 10 
202 201 988 0.01684843 8 
203 44 994 0.02081545 10 
204 189 994 0.02141475 10 
205 195 994 0.02143859 10 
206 32 1003 0.02111140 10 
207 178 1003 0.02162116 10 
208 183 1003 0.02164334 10 
209 25 1008 0.02140309 10 
210 32 1008 0.02182503 10 
211 178 1008 0.02182732 10 
212 183 1008 0.02192228 10 
213 25 1010 0.02144438 10 
214 32 1010 0.02186410 10 
215 172 1010 0.02199461 10 
216 178 1010 0.02197875 10 
217 19 1016 0.02150060 10 
218 166 1016 0.02189126 10 
219 172 1016 0.01960147 9 
220 151 1029 0.02194197 10 
221 157 1029 0.02229644 10 
222 163 1029 0.02221497 10 
223 166 1029 0.02217967 10 
224 132 1084 0.02307368 10 
225 101 1138 0.02400083 10 
226 107 1147 0.02416268 10 
227 114 1147 0.02475144 10 
228 107 1150 0.02422680 10 
229 114 1150 0.02485623 10 
230 114 1158 0.02445767 10 
231 121 1158 0.02507041 10 
232 121 1164 0.02462147 10 
233 126 1164 0.02524909 10 
234 114 1175 0.02490501 10 
235 121 1175 0.02548738 10 
236 923 1175 0.02550688 10 
237 929 1175 0.02554163 10 
238 1158 1175 0.01784771 7 
239 101 1188 0.02518437 10 
240 939 1188 0.02576013 10 
241 1138 1188 0.02582848 10 
242 1147 1188 0.02591812 10 
243 1150 1188 0.02632036 10 
244 1050 1210 0.02569323 10 
245 1061 1210 0.02632569 10 
246 1075 1210 0.02631941 10 
247 1084 1210 0.02631452 10 
248 1088 1210 0.02633117 10 
249 1093 1210 0.02636433 10 
250 1098 1210 0.02638270 10 
251 157 1217 0.02590653 10 
252 163 1217 0.02687800 10 
253 1029 1217 0.02676798 10 
254 1044 1217 0.02685128 10 
255 1050 1217 0.02685269 10 
256 1056 1217 0.02687394 10 
