1 6 21 0.00012547 4 
2 3 45 0.00028048 5 
3 19 166 0.00302789 10 
4 19 172 0.00318321 10 
5 25 172 0.00322476 10 
6 25 178 0.00333430 10 
7 32 178 0.00333775 10 
8 32 183 0.00342322 10 
9 35 188 0.00353320 10 
10 46 188 0.00353218 10 
11 44 189 0.00357518 10 
12 149 191 0.00366898 10 
13 44 195 0.00373001 10 
14 50 195 0.00372218 10 
15 50 201 0.00385568 10 
16 50 203 0.00389161 10 
17 61 203 0.00389635 10 
18 61 209 0.00399848 10 
19 67 209 0.00399336 10 
20 67 220 0.00420204 10 
21 81 220 0.00420785 10 
22 81 226 0.00431932 10 
23 87 226 0.00433214 10 
24 87 231 0.00444017 10 
25 94 231 0.00444698 10 
26 226 231 0.00444425 10 
27 35 238 0.00467417 10 
28 94 241 0.00477660 10 
29 101 241 0.00475823 10 
30 101 247 0.00488775 10 
31 107 247 0.00487658 10 
32 70 247 0.00495285 10 
33 212 251 0.00505366 10 
34 107 254 0.00515146 10 
35 114 254 0.00513712 10 
36 107 256 0.00520150 10 
37 114 256 0.00523036 10 
38 107 258 0.00526426 10 
39 114 258 0.00527746 10 
40 121 266 0.00543052 10 
41 126 266 0.00543665 10 
42 154 269 0.00558202 10 
43 126 272 0.00562975 10 
44 132 272 0.00565870 10 
45 132 278 0.00574992 10 
46 138 278 0.00577756 10 
47 138 284 0.00586714 10 
48 151 284 0.00591587 10 
49 210 284 0.00601060 10 
50 151 291 0.00613736 10 
51 151 297 0.00625984 10 
52 157 297 0.00627053 10 
53 163 297 0.00625594 10 
54 166 297 0.00624758 10 
55 19 305 0.00652672 10 
56 157 305 0.00651288 10 
57 163 305 0.00652676 10 
58 166 305 0.00653417 10 
59 172 305 0.00657410 10 
60 19 315 0.00592142 9 
61 25 315 0.00661771 10 
62 172 315 0.00677098 10 
63 172 328 0.00613684 9 
64 19 337 0.00557895 8 
65 25 337 0.00705131 10 
66 172 337 0.00722975 10 
67 19 342 0.00710294 10 
68 25 342 0.00716715 10 
69 172 342 0.00369538 5 
70 178 342 0.00721953 10 
71 25 367 0.00376829 5 
72 32 367 0.00608523 8 
73 178 367 0.00376919 5 
74 183 367 0.00534017 7 
75 124 370 0.00778275 10 
76 25 374 0.00791361 10 
77 32 374 0.00811530 10 
78 178 374 0.00567328 7 
79 183 374 0.00710898 9 
80 362 375 0.00472942 6 
81 32 382 0.00644752 8 
82 183 382 0.00816116 10 
83 9 384 0.00844306 10 
84 32 387 0.00851843 10 
85 183 387 0.00853339 10 
86 190 387 0.00769391 9 
87 135 397 0.00774125 9 
88 189 400 0.00878556 10 
89 189 414 0.00904764 10 
90 304 414 0.00941251 10 
91 329 415 0.00943811 10 
92 269 428 0.00955527 10 
93 44 437 0.00776687 8 
94 195 437 0.00677310 7 
95 232 447 0.01005350 10 
96 154 449 0.01011519 10 
97 44 454 0.01017568 10 
98 189 454 0.00814105 8 
99 362 454 0.00720150 7 
100 5 460 0.01053852 10 
101 44 467 0.00738759 7 
102 50 467 0.00738641 7 
103 195 467 0.00418433 4 
104 75 472 0.01101789 10 
105 422 482 0.00660133 6 
106 195 484 0.00559146 5 
107 217 486 0.01015220 9 
108 242 487 0.01140160 10 
109 44 494 0.00570208 5 
110 50 494 0.00806742 7 
111 195 494 0.00690175 6 
112 201 494 0.00807422 7 
113 50 500 0.00937696 8 
114 201 500 0.00937746 8 
115 203 500 0.00817614 7 
116 61 508 0.01199985 10 
117 203 508 0.01219910 10 
118 209 508 0.00954570 8 
119 136 514 0.01235378 10 
120 150 519 0.01246841 10 
121 61 522 0.01255109 10 
122 203 522 0.01289027 10 
123 209 522 0.01283172 10 
124 73 523 0.01016581 8 
125 48 527 0.01020319 8 
126 61 528 0.01021602 8 
127 67 528 0.01290387 10 
128 81 528 0.01331445 10 
129 209 528 0.01348481 10 
130 220 528 0.01338853 10 
131 67 532 0.00781179 6 
132 81 532 0.01320291 10 
133 220 532 0.01340111 10 
134 67 556 0.01368621 10 
135 67 564 0.01384049 10 
136 81 564 0.01265849 9 
137 220 564 0.01377408 10 
138 134 566 0.01254549 9 
139 67 567 0.01405562 10 
140 81 567 0.01435202 10 
141 220 567 0.01439800 10 
142 67 570 0.01445419 10 
143 81 570 0.01445081 10 
144 220 570 0.01447109 10 
145 59 572 0.01448295 10 
146 81 575 0.01454310 10 
147 220 575 0.01455480 10 
148 149 576 0.01474230 10 
149 81 588 0.01467011 10 
150 87 588 0.01520713 10 
151 226 588 0.01521680 10 
152 566 589 0.01550050 10 
153 577 590 0.01551340 10 
154 333 592 0.01592712 10 
155 420 596 0.01567975 10 
156 87 597 0.01566117 10 
157 94 597 0.01631545 10 
158 226 597 0.01632424 10 
159 148 600 0.01595752 10 
160 87 604 0.01574621 10 
161 94 604 0.01607245 10 
162 542 615 0.01622746 10 
163 94 616 0.01658270 10 
164 340 623 0.01669527 10 
165 620 624 0.01701354 10 
166 9 629 0.01707070 10 
167 94 632 0.01714054 10 
168 94 637 0.01723406 10 
169 101 637 0.01744185 10 
170 380 637 0.01792741 10 
171 269 639 0.01814140 10 
172 101 642 0.01823722 10 
173 107 642 0.01798686 10 
174 264 644 0.01768815 10 
175 101 645 0.01805937 10 
176 107 645 0.01812887 10 
177 433 647 0.01845091 10 
178 641 653 0.01824019 10 
179 181 654 0.01854812 10 
180 553 655 0.01924449 10 
181 101 657 0.01942135 10 
182 101 663 0.01331576 7 
183 107 663 0.01947370 10 
184 114 663 0.01944199 10 
185 101 665 0.01920539 10 
186 107 665 0.01957915 10 
187 114 665 0.01961082 10 
188 392 668 0.01968616 10 
189 499 677 0.02024301 10 
190 107 680 0.02139128 10 
191 107 683 0.02110041 10 
192 114 683 0.02081100 10 
193 677 688 0.01632135 8 
194 681 689 0.02045350 10 
195 380 696 0.02116619 10 
196 107 704 0.02134017 10 
197 114 704 0.02169711 10 
198 414 706 0.02141349 10 
199 524 709 0.02263882 10 
200 85 709 0.02275280 10 
201 606 709 0.02259291 10 
202 107 711 0.02265879 10 
203 107 714 0.02235035 10 
204 114 714 0.02271928 10 
205 369 720 0.02250769 10 
206 282 728 0.02287049 10 
207 107 730 0.02281833 10 
208 114 730 0.02324211 10 
209 270 735 0.02336060 10 
210 536 740 0.02343576 10 
211 642 742 0.02397463 10 
212 35 743 0.02334678 10 
213 717 747 0.01453176 6 
214 121 754 0.02406338 10 
215 126 754 0.02435754 10 
216 377 755 0.02446445 10 
217 76 755 0.02537796 10 
218 572 756 0.02483550 10 
219 99 756 0.02488245 10 
220 121 759 0.02505524 10 
221 126 759 0.02508253 10 
222 241 759 0.02521286 10 
223 126 762 0.02486260 10 
224 132 762 0.02549427 10 
225 550 766 0.02506524 10 
226 187 776 0.02620783 10 
227 132 778 0.01573177 6 
228 491 784 0.02716175 10 
229 417 789 0.02678694 10 
230 132 792 0.02659801 10 
231 45 792 0.02778542 10 
232 470 794 0.02758674 10 
233 132 800 0.02764103 10 
234 138 800 0.02780510 10 
235 138 806 0.02750792 10 
236 269 816 0.02779294 10 
237 138 821 0.02216101 8 
238 138 823 0.02775259 10 
239 136 826 0.02833231 10 
240 680 827 0.02820553 10 
241 151 828 0.02855748 10 
242 539 839 0.02837475 10 
243 589 845 0.02860878 10 
244 151 847 0.02924564 10 
245 151 855 0.02879622 10 
246 723 863 0.02919735 10 
247 595 875 0.02941446 10 
248 53 879 0.02938830 10 
249 217 882 0.03006085 10 
250 217 884 0.03009639 10 
251 764 887 0.03015612 10 
252 118 888 0.03059845 10 
253 678 890 0.03018142 10 
254 770 894 0.03052389 10 
255 151 895 0.03038746 10 
256 809 896 0.03109652 10 
257 151 897 0.03107898 10 
258 138 903 0.03073752 10 
259 210 903 0.03071419 10 
260 470 903 0.03173850 10 
261 138 904 0.03129368 10 
262 294 904 0.02828689 9 
263 48 906 0.03162994 10 
264 132 907 0.03205965 10 
265 138 907 0.03207615 10 
266 298 910 0.03202519 10 
267 132 911 0.03205941 10 
268 20 912 0.02239659 7 
269 160 913 0.03150479 10 
270 698 914 0.03231148 10 
271 696 915 0.03230806 10 
272 777 916 0.03275815 10 
273 253 919 0.03235653 10 
274 112 920 0.03298421 10 
275 121 923 0.03244121 10 
276 126 923 0.03292691 10 
277 107 929 0.03258515 10 
278 114 929 0.03302654 10 
279 164 931 0.03329892 10 
280 107 935 0.03289507 10 
281 114 935 0.03336161 10 
282 108 935 0.03337854 10 
283 101 939 0.03299846 10 
284 107 939 0.01672814 5 
285 101 944 0.03311227 10 
286 814 946 0.03376582 10 
287 94 947 0.03433163 10 
288 101 947 0.03403473 10 
289 431 949 0.03398182 10 
290 87 953 0.03469205 10 
291 94 953 0.03470469 10 
292 226 953 0.03491878 10 
293 846 954 0.03492027 10 
294 61 955 0.03464825 10 
295 81 959 0.03492647 10 
296 87 959 0.03492046 10 
297 220 959 0.03523664 10 
298 226 959 0.03526606 10 
299 67 965 0.03524199 10 
300 81 965 0.03527794 10 
301 220 965 0.03527110 10 
302 660 966 0.03541601 10 
303 398 970 0.02430359 7 
304 216 975 0.03550392 10 
305 61 976 0.03530506 10 
306 67 976 0.03578981 10 
307 209 976 0.03573259 10 
308 735 980 0.03667554 10 
309 50 982 0.03726038 10 
310 61 982 0.03725146 10 
311 201 982 0.03710210 10 
312 203 982 0.03709563 10 
313 467 983 0.03706108 10 
314 641 984 0.03684741 10 
315 390 987 0.03652430 10 
316 96 987 0.03761851 10 
317 44 988 0.03777144 10 
318 50 988 0.03770027 10 
319 195 988 0.03772907 10 
320 201 988 0.01913624 5 
321 495 988 0.01482270 4 
322 883 989 0.03704503 10 
323 605 989 0.03820380 10 
324 9 989 0.03865875 10 
325 211 990 0.03871364 10 
326 944 992 0.03797822 10 
327 497 993 0.02335343 6 
328 44 994 0.03853460 10 
329 189 994 0.03914349 10 
330 195 994 0.03914897 10 
331 853 1002 0.03912674 10 
332 32 1003 0.04026100 10 
333 178 1003 0.04021073 10 
334 183 1003 0.04021581 10 
335 25 1008 0.04004912 10 
336 32 1008 0.04090827 10 
337 178 1008 0.04090438 10 
338 183 1008 0.04090499 10 
339 504 1009 0.04140137 10 
340 25 1010 0.04143504 10 
341 32 1010 0.04142603 10 
342 172 1010 0.04185634 10 
343 178 1010 0.04146417 10 
344 210 1011 0.04094731 10 
345 963 1012 0.04144740 10 
346 19 1016 0.04101286 10 
347 166 1016 0.04260282 10 
348 172 1016 0.04257594 10 
349 260 1020 0.04240362 10 
350 57 1022 0.04274249 10 
351 902 1026 0.04352539 10 
352 556 1027 0.04433248 10 
353 151 1029 0.04428458 10 
354 157 1029 0.04415399 10 
355 163 1029 0.04415960 10 
356 166 1029 0.04415956 10 
357 182 1029 0.04446251 10 
358 973 1031 0.04463322 10 
359 179 1033 0.04396361 10 
360 579 1036 0.04486620 10 
361 104 1042 0.04584546 10 
362 651 1046 0.04575698 10 
363 8 1046 0.04577291 10 
364 952 1047 0.04664059 10 
365 766 1048 0.04591309 10 
366 322 1051 0.04169425 9 
367 767 1054 0.04694116 10 
368 65 1056 0.04632475 10 
369 846 1056 0.04215119 9 
370 181 1059 0.04205039 9 
371 228 1062 0.04701219 10 
372 183 1063 0.15201134 10 
373 698 1063 0.20663687 10 
374 397 1070 0.19737971 10 
375 332 1071 0.21225253 10 
376 226 1073 0.20385854 10 
377 200 1074 0.20168810 10 
378 997 1075 0.20979281 10 
379 72 1081 0.05001375 10 
380 1012 1082 0.04449011 9 
381 132 1084 0.04904734 10 
382 332 1086 0.05049263 10 
383 1056 1090 0.05066954 10 
384 762 1090 0.05234963 10 
385 531 1103 0.05194250 10 
386 259 1103 0.05173228 10 
387 1094 1111 0.05125009 10 
388 74 1116 0.05132922 10 
389 952 1119 0.05111676 10 
390 827 1119 0.05242880 10 
391 678 1120 0.05279526 10 
392 404 1120 0.05244255 10 
393 706 1122 0.05383410 10 
394 234 1126 0.05431555 10 
395 1091 1127 0.05486927 10 
396 390 1130 0.05312961 10 
397 127 1133 0.05429352 10 
398 493 1135 0.05585633 10 
399 101 1138 0.05528321 10 
400 1014 1138 0.05654591 10 
401 262 1138 0.05621419 10 
402 48 1141 0.05563789 10 
403 42 1143 0.05624392 10 
404 992 1143 0.05607897 10 
405 531 1145 0.05557141 10 
406 107 1147 0.05565608 10 
407 114 1147 0.05625696 10 
408 107 1150 0.05571044 10 
409 114 1150 0.05632502 10 
410 47 1151 0.05766247 10 
411 114 1158 0.05692505 10 
412 121 1158 0.05778363 10 
413 1032 1161 0.05797325 10 
414 967 1161 0.05931393 10 
415 563 1163 0.05924177 10 
416 121 1164 0.05983718 10 
417 126 1164 0.05865431 10 
418 250 1166 0.05878085 10 
419 636 1168 0.05888874 10 
420 204 1174 0.06053558 10 
421 114 1175 0.06016987 10 
422 121 1175 0.05892308 10 
423 923 1175 0.05912415 10 
424 929 1175 0.05965618 10 
425 1158 1175 0.06158200 10 
426 109 1183 0.06147173 10 
427 132 1185 0.06104615 10 
428 813 1185 0.06199531 10 
429 97 1186 0.06172717 10 
430 101 1188 0.06205718 10 
431 939 1188 0.06299945 10 
432 1138 1188 0.06307795 10 
433 1147 1188 0.06329705 10 
434 1150 1188 0.06234892 10 
435 1092 1188 0.06451564 10 
436 941 1192 0.06372392 10 
437 57 1208 0.06430272 10 
438 1050 1210 0.06590824 10 
439 1061 1210 0.06676471 10 
440 1075 1210 0.06667739 10 
441 1084 1210 0.06726079 10 
442 1088 1210 0.06725807 10 
443 1093 1210 0.06621961 10 
444 1098 1210 0.06557341 10 
445 639 1213 0.06488320 10 
446 501 1214 0.06638677 10 
447 157 1217 0.06570994 10 
448 163 1217 0.06651802 10 
449 1029 1217 0.06702441 10 
450 1044 1217 0.06767498 10 
451 1050 1217 0.06584073 10 
452 1056 1217 0.06590534 10 
453 1154 1217 0.06594516 10 
454 686 1219 0.06612846 10 
455 468 1221 0.06709025 10 
456 223 1225 0.06773471 10 
