1 19 166 0 0.41485034 0.00212411 5 
2 19 172 0 0.02820697 0.00186212 4 
3 25 172 0 0.50366199 0.00187648 4 
4 25 178 0 0.30831851 0.00197002 4 
5 32 178 0 0.01493521 0.00198684 4 
6 32 183 0 0.07055611 0.00200602 4 
7 44 189 0 0.52863102 0.00207371 4 
8 44 195 0 0.35755137 0.00216313 4 
9 50 195 0 0.00572854 0.00218817 4 
10 50 201 0 0.04110605 0.00190059 3 
11 50 203 0 0.06975183 0.00187448 3 
12 61 203 0 0.00745912 0.00189474 3 
13 61 209 0 0.37222863 0.00230772 4 
14 67 209 0 0.41032090 0.00232110 4 
15 67 220 0 0.66144083 0.00248986 4 
16 81 220 0 0.48035877 0.00285599 5 
17 81 226 0 0.05402805 0.00255759 4 
18 87 226 0 1.82553139 0.00293654 5 
19 87 231 0 0.34656585 0.00262172 4 
20 94 231 0 0.55778528 0.00255553 4 
21 226 231 0 1.44127402 0.00297982 5 
22 94 241 0 1.33132047 0.00268498 4 
23 101 241 0 0.50961029 0.00271198 4 
24 101 247 0 1.66454674 0.00275460 4 
25 107 247 0 1.80094617 0.00277602 4 
26 107 254 0 1.18346605 0.00283425 4 
27 114 254 0 0.12939160 0.00285798 4 
28 107 256 0 0.93085039 0.00284267 4 
29 114 256 0 0.24629796 0.00285315 4 
30 107 258 0 1.37911724 0.00289401 4 
31 114 258 0 1.15747212 0.00292077 4 
32 121 266 0 0.00938596 0.00299822 4 
33 126 266 0 0.44864328 0.00353915 5 
34 126 272 0 1.03992836 0.00309064 4 
35 132 272 0 0.39070916 0.00364179 5 
36 132 278 0 0.58358145 0.00316940 4 
37 138 278 0 1.06458780 0.00372586 5 
38 138 284 0 0.02201259 0.00270212 3 
39 151 284 0 0.12777228 0.00328826 4 
40 151 291 0 0.60037557 0.00331009 4 
41 151 297 0 0.07972289 0.00283564 3 
42 157 297 0 1.04991834 0.00343853 4 
43 166 297 0 1.30507781 0.00337984 4 
44 19 305 0 0.16044642 0.00355871 4 
45 157 305 0 0.58687353 0.00359886 4 
46 163 305 0 7.56485476 0.00483641 6 
47 166 305 0 0.37495035 0.00359149 4 
48 172 305 0 0.01886255 0.00359750 4 
49 19 315 0 0.48455906 0.00308887 3 
50 25 315 0 0.02281386 0.00310624 3 
51 172 315 0 0.05679715 0.00372466 4 
52 172 328 0 0.12482725 0.00324837 3 
53 19 337 0 6.63404991 0.00465057 5 
54 25 337 0 0.96522419 0.00398542 4 
55 172 337 0 0.57611560 0.00333399 3 
56 19 342 0 0.00494520 0.00337411 3 
57 25 342 0 0.12855172 0.00405611 4 
58 172 342 0 0.01223902 0.00410747 4 
59 178 342 0 0.12442988 0.00416935 4 
60 25 367 0 0.11414782 0.00378562 3 
61 32 367 0 0.01267433 0.00594963 6 
62 178 367 0 0.00286807 0.00378612 3 
63 183 367 0 0.06698524 0.00377243 3 
64 25 374 0 0.56424690 0.00459476 4 
65 32 374 0 0.09892849 0.00532871 5 
66 178 374 0 0.03055075 0.00458628 4 
67 183 374 0 0.05309447 0.00456648 4 
68 32 382 0 4.14688582 0.00392141 3 
69 183 382 0 1.28811506 0.00465841 4 
70 32 387 0 2.72468715 0.00473600 4 
71 183 387 0 0.18197642 0.00472115 4 
72 189 414 0 7.69047346 0.00585724 5 
73 44 437 0 0.00915802 0.00437617 3 
74 195 437 0 0.01161094 0.00436696 3 
75 44 454 0 0.65644164 0.00451295 3 
76 189 454 0 0.03962740 0.00543049 4 
77 44 467 0 0.12345281 0.00640885 5 
78 50 467 0 0.00895575 0.01024574 9 
79 195 467 0 0.00230988 0.00463131 3 
80 195 484 0 0.09447226 0.00573571 4 
81 44 494 0 0.02880924 0.00576202 4 
82 50 494 0 0.00628832 0.00481143 3 
83 195 494 0 0.00818961 0.00681492 5 
84 201 494 0 0.00469852 0.00682439 5 
85 50 500 0 0.14406209 0.00694406 5 
86 201 500 0 0.05353930 0.00490516 3 
87 203 500 0 0.03252445 0.00487136 3 
88 61 508 0 0.99413579 0.00710566 5 
89 203 508 0 0.26947301 0.01221929 10 
90 209 508 0 0.03711473 0.00604966 4 
91 61 522 0 1.37942234 0.00615217 4 
92 203 522 0 0.12859200 0.00507342 3 
93 209 522 0 0.00542469 0.00511993 3 
94 61 528 0 0.47936102 0.00515041 3 
95 67 528 0 0.22419307 0.00627998 4 
96 81 528 0 0.23233822 0.00840080 6 
97 209 528 0 0.09444678 0.01060783 8 
98 220 528 0 0.13668760 0.00622642 4 
99 67 532 0 0.05459173 0.01178126 9 
100 81 532 0 0.11826401 0.00846968 6 
101 220 532 0 0.05648169 0.00633061 4 
102 67 556 0 0.98233216 0.00648916 4 
103 67 564 0 0.40168838 0.01241374 9 
104 81 564 0 0.02280941 0.00664664 4 
105 220 564 0 0.02684857 0.00663795 4 
106 67 567 0 2.67253169 0.00779958 5 
107 81 567 0 0.48923871 0.00900714 6 
108 220 567 0 0.21723258 0.00664700 4 
109 67 570 0 2.40706627 0.00908486 6 
110 81 570 0 0.15671702 0.00901706 6 
111 220 570 0 0.13379867 0.00673646 4 
112 81 575 0 2.76594993 0.00791901 5 
113 220 575 0 1.08612706 0.01032788 7 
114 81 588 0 0.01497138 0.00566256 3 
115 87 588 0 0.47937722 0.00816194 5 
116 226 588 0 0.43156268 0.00690430 4 
117 87 597 0 2.27648751 0.00953690 6 
118 94 597 0 0.38888315 0.00699126 4 
119 226 597 0 0.55079633 0.00828439 5 
120 87 604 0 0.47149562 0.00709040 4 
121 94 604 0 0.01542269 0.00839073 5 
122 404 614 2 284.45705797 0.00000314 1 
123 94 616 0 0.01350372 0.01230651 8 
124 94 632 0 2.16969694 0.00876276 5 
125 94 637 0 4.44236402 0.01003650 6 
126 101 637 0 0.19098383 0.00750030 4 
127 101 642 0 0.11555601 0.00886470 5 
128 107 642 0 0.04025021 0.01405388 9 
129 101 645 0 6.69527511 0.00759453 4 
130 107 645 0 1.54205090 0.00748704 4 
131 101 657 0 0.73548669 0.01664235 10 
132 101 663 0 0.04971914 0.01669045 10 
133 107 663 0 0.01781179 0.00913267 5 
134 114 663 0 0.00275957 0.00912744 5 
135 101 665 0 1.55112265 0.01342434 8 
136 107 665 0 0.47667103 0.00778443 4 
137 114 665 0 0.13329170 0.00647703 3 
138 107 680 0 1.48615866 0.00934751 5 
139 107 683 0 0.94462224 0.00800014 4 
140 114 683 0 0.32178225 0.00952806 5 
141 107 704 0 0.34268109 0.01258732 7 
142 114 704 0 0.07528002 0.01558934 9 
143 107 714 0 1.79639085 0.01131213 6 
144 114 714 0 0.02860377 0.01435278 8 
145 107 730 0 0.19656714 0.01015978 5 
146 114 730 0 0.03540690 0.00856820 4 
147 121 754 0 0.33113739 0.00876375 4 
148 126 754 0 0.07673382 0.01513390 8 
149 121 759 0 2.33625684 0.01194953 6 
150 126 759 0 0.22329988 0.01200318 6 
151 126 762 0 7.08482229 0.01036322 5 
152 132 762 0 2.00372045 0.01532524 8 
153 132 778 0 0.06999780 0.00900867 4 
154 132 792 0 1.26802734 0.00940191 4 
155 132 800 0 3.35686460 0.00919278 4 
156 138 800 0 0.14494330 0.01256557 6 
157 138 806 0 0.25140739 0.00753462 3 
158 138 821 0 0.40674396 0.01107055 5 
159 138 823 0 6.54725682 0.00937403 4 
160 151 828 0 3.12108818 0.00950138 4 
161 151 847 0 0.08724621 0.01145173 5 
162 151 855 0 0.11494457 0.01512290 7 
163 230 870 2 1051.07070210 0.00000398 1 
164 151 895 0 2.80701437 0.01762504 8 
165 151 897 0 0.06118057 0.02136291 10 
166 138 903 0 0.08157811 0.01023931 4 
167 138 904 0 7.06392298 0.01400395 6 
168 132 907 0 0.71874717 0.01031513 4 
169 138 907 0 0.22077132 0.01219663 5 
170 132 911 0 0.23128175 0.01217986 5 
171 131 913 2 2404.96528615 0.00000411 1 
172 121 923 0 0.62636126 0.01443409 6 
173 126 923 0 0.07130653 0.01050970 4 
174 107 929 0 0.07225325 0.01254444 5 
175 114 929 0 0.00477553 0.01063009 4 
176 107 935 0 4.91438615 0.01649971 7 
177 114 935 0 1.40337639 0.01654798 7 
178 101 939 0 0.48567419 0.01072974 4 
179 107 939 0 0.21174614 0.01071907 4 
180 101 944 0 0.15377935 0.01274876 5 
181 94 947 0 0.23772432 0.01674677 7 
182 101 947 0 0.16826262 0.01482150 6 
183 490 951 2 577.49750228 0.00000429 1 
184 87 953 0 0.13504795 0.01089102 4 
185 94 953 0 0.06505521 0.01492949 6 
186 226 953 0 0.08268323 0.02294612 10 
187 81 959 0 1.83528326 0.02432767 10 
188 87 959 0 1.29172246 0.01712002 7 
189 220 959 0 0.04883629 0.01102818 4 
190 226 959 0 0.12130941 0.01301364 5 
191 67 965 0 1.01368609 0.01317652 5 
192 81 965 0 0.31066014 0.01523337 6 
193 220 965 0 0.16483276 0.01929342 8 
194 61 976 0 0.16803746 0.01741080 7 
195 67 976 0 0.05676300 0.00920963 3 
196 209 976 0 0.00780965 0.01122027 4 
197 50 982 0 0.38354811 0.01137592 4 
198 61 982 0 0.27147698 0.01138183 4 
199 201 982 0 0.22200943 0.01130312 4 
200 203 982 0 0.10573284 0.02179638 9 
201 44 988 0 0.09550719 0.01145878 4 
202 50 988 0 0.05924873 0.01150187 4 
203 195 988 0 0.04319526 0.01572443 6 
204 201 988 0 0.02685916 0.01354179 5 
205 44 994 0 0.51683435 0.01785982 7 
206 189 994 0 0.29989154 0.02566214 10 
207 195 994 0 0.21957432 0.01365231 5 
208 32 1003 0 0.23901034 0.01387180 5 
209 178 1003 0 0.03356851 0.02601561 10 
210 183 1003 0 0.01433170 0.01606940 6 
211 25 1008 0 1.23858172 0.01834131 7 
212 32 1008 0 0.53803958 0.01181264 4 
213 178 1008 0 0.34459610 0.01172798 4 
214 183 1008 0 0.22233868 0.01178619 4 
215 25 1010 0 0.60236133 0.01256594 4 
216 32 1010 0 0.30591807 0.01397503 5 
217 172 1010 0 0.10368354 0.01627384 6 
218 178 1010 0 0.19279072 0.02636799 10 
219 19 1016 0 0.44047719 0.02057138 8 
220 166 1016 0 0.20189646 0.01198044 4 
221 172 1016 0 0.07393216 0.01408771 5 
222 151 1029 0 0.03533130 0.01437581 5 
223 157 1029 0 0.02672450 0.01207720 4 
224 163 1029 0 3.39703566 0.01206956 4 
225 166 1029 0 0.49353449 0.01200905 4 
226 132 1084 0 4.21993706 0.01518607 5 
227 446 1115 2 360.26131761 0.00000504 1 
228 101 1138 0 0.63021658 0.01584534 5 
229 107 1147 0 0.73708347 0.01337984 4 
230 114 1147 0 0.03971358 0.01094838 3 
231 107 1150 0 7.45683387 0.01346178 4 
232 114 1150 0 1.00561260 0.01100951 3 
233 114 1158 0 0.16899687 0.01103709 3 
234 121 1158 0 0.69099743 0.01367745 4 
235 121 1164 0 0.45182924 0.01614559 5 
236 126 1164 0 0.04418665 0.01367452 4 
237 114 1175 0 0.14266969 0.01379002 4 
238 121 1175 0 0.27324351 0.01385058 4 
239 923 1175 0 0.18719011 0.01384486 4 
240 929 1175 0 0.16073549 0.01371508 4 
241 1158 1175 0 0.00134797 0.01112451 3 
242 101 1188 0 0.32950319 0.01393668 4 
243 939 1188 0 0.55418798 0.01396881 4 
244 1138 1188 0 0.03006025 0.01148534 3 
245 1147 1188 0 0.04063922 0.01127108 3 
246 1150 1188 0 1.83245351 0.01384227 4 
247 1050 1210 0 0.00345523 0.01419901 4 
248 1061 1210 0 0.57363906 0.01683725 5 
249 1075 1210 0 0.23107861 0.01685211 5 
250 1084 1210 0 3.13555510 0.01689344 5 
251 1088 1210 0 0.59156319 0.01426315 4 
252 1093 1210 0 0.13111230 0.01952081 6 
253 1098 1210 0 0.04730346 0.01423985 4 
254 157 1217 0 0.32750279 0.01435707 4 
255 163 1217 0 0.19904338 0.01451956 4 
256 1029 1217 0 0.01250493 0.01165943 3 
257 1044 1217 0 3.98258990 0.01437099 4 
258 1050 1217 0 4.97161000 0.01702840 5 
259 163 297 0 0.27920255 0.01529595 4 
260 189 400 0 2.09679271 0.01455369 4 
261 1056 1217 0 9.66143264 0.01726476 5 
