VERTEX2 0 0.00006789 0.00000015 0.00000186
VERTEX2 1 0.00006789 0.00000015 -0.00064014
VERTEX2 2 0.00095588 0.00011785 -0.00119706
VERTEX2 3 0.01246689 -0.00090241 -0.00359827
VERTEX2 4 0.64329731 -0.01097538 -0.00751161
VERTEX2 5 0.69699213 -0.01147977 -0.09877446
VERTEX2 6 0.69693232 -0.01142682 -0.89599461
VERTEX2 7 0.68674502 0.02027137 -1.51111095
VERTEX2 8 0.69122643 0.03928551 -2.12344085
VERTEX2 9 0.69974233 0.04659333 -2.76026982
VERTEX2 10 0.69447275 0.04570518 2.90986734
VERTEX2 11 0.68448758 0.05197177 2.23718240
VERTEX2 12 0.68441871 0.05492897 1.58924935
VERTEX2 13 0.68864221 0.06857177 0.93130744
VERTEX2 14 0.69767369 0.07502448 0.32453065
VERTEX2 15 0.68793339 0.07424535 -0.19907998
VERTEX2 16 0.96406846 0.02105008 -0.21718175
VERTEX2 17 1.54873814 -0.11463583 -0.24779695
VERTEX2 18 2.15600615 -0.26551172 -0.25737718
VERTEX2 19 2.76815794 -0.44958729 -0.30529767
VERTEX2 20 3.35602404 -0.62972774 -0.29900631
VERTEX2 21 3.95722092 -0.77191540 -0.18686210
VERTEX2 22 4.56913396 -0.90533199 -0.16951243
VERTEX2 23 5.20568356 -0.94072392 -0.06230526
VERTEX2 24 5.83747328 -1.00296824 -0.11975168
VERTEX2 25 6.47855842 -1.06259380 -0.11720516
VERTEX2 26 7.08002273 -1.15263600 -0.15836668
VERTEX2 27 7.68839734 -1.23392176 -0.14317216
VERTEX2 28 8.26228671 -1.32316198 -0.14827361
VERTEX2 29 8.65245427 -1.37725921 -0.11717935
VERTEX2 30 8.67080639 -1.38188990 -0.64859314
VERTEX2 31 8.77409489 -1.51658274 -0.91648516
VERTEX2 32 9.14995242 -2.02603176 -0.93476436
VERTEX2 33 9.53195592 -2.51715686 -0.88427966
VERTEX2 34 9.94238599 -2.99226803 -0.86355643
VERTEX2 35 10.36249157 -3.45979794 -0.82964217
VERTEX2 36 10.78897404 -3.92862049 -0.83855399
VERTEX2 37 11.06653460 -4.23014603 -0.83122136
VERTEX2 38 11.05530211 -4.21534476 -1.15335905
VERTEX2 39 11.04947650 -4.19059296 -1.32473433
VERTEX2 40 11.19656474 -4.74409538 -1.30777060
VERTEX2 41 11.34933023 -5.32253799 -1.34004885
VERTEX2 42 11.47332069 -5.86024061 -1.36318445
VERTEX2 43 11.58228885 -6.42946010 -1.40380545
VERTEX2 44 11.67475239 -6.99795879 -1.44117540
VERTEX2 45 11.73710779 -7.61856692 -1.49670077
VERTEX2 46 11.77538689 -8.24143158 -1.51610193
VERTEX2 47 11.80264457 -8.85661143 -1.55738752
VERTEX2 48 11.80681270 -9.47621362 -1.56358956
VERTEX2 49 11.80742378 -10.09177148 -1.61406541
VERTEX2 50 11.76240764 -10.67574138 -1.65860760
VERTEX2 51 11.71445602 -11.27101908 -1.68752373
VERTEX2 52 11.62447539 -11.85417549 -1.76405174
VERTEX2 53 11.53146951 -12.41200594 -1.75150578
VERTEX2 54 11.42717574 -12.91574926 -1.81390870
VERTEX2 55 11.43443763 -12.87859033 -1.80857934
VERTEX2 56 11.43703067 -12.86802317 -1.79828472
VERTEX2 57 11.30319487 -13.47886652 -1.80993015
VERTEX2 58 11.16657181 -14.07786769 -1.76399099
VERTEX2 59 11.04578669 -14.68077333 -1.78769322
VERTEX2 60 10.92429486 -15.27998352 -1.76644676
VERTEX2 61 10.79434372 -15.90287700 -1.81611524
VERTEX2 62 10.65333428 -16.46209174 -1.77575420
VERTEX2 63 10.51093910 -17.02604200 -1.81084226
VERTEX2 64 10.38504720 -17.58522268 -1.74714180
VERTEX2 65 10.25977747 -18.14221427 -1.79836372
VERTEX2 66 10.11634917 -18.72879409 -1.80633596
VERTEX2 67 9.96258197 -19.31421962 -1.80517883
VERTEX2 68 9.85960804 -19.75865235 -1.82109801
VERTEX2 69 9.86384689 -19.74418439 -1.97622297
VERTEX2 70 9.87192803 -19.72823716 -2.65091793
VERTEX2 71 9.88990966 -19.72697881 2.98926780
VERTEX2 72 9.89621580 -19.72725958 2.97966489
VERTEX2 73 9.90300623 -19.72884875 2.91479782
VERTEX2 74 9.90548268 -19.73046326 2.29319617
VERTEX2 75 9.91280095 -19.73322087 1.94097872
VERTEX2 76 9.90437123 -19.72408264 2.63508021
VERTEX2 77 9.90400632 -19.72391229 2.86822971
VERTEX2 78 9.62394293 -19.73817347 -3.07760565
VERTEX2 79 9.01266804 -19.78518448 -3.08275486
VERTEX2 80 8.38832217 -19.79260973 3.12597942
VERTEX2 81 7.77204430 -19.77519227 3.09998867
VERTEX2 82 7.17946164 -19.74167346 3.04577258
VERTEX2 83 6.59732719 -19.69742662 3.02224210
VERTEX2 84 6.03921646 -19.61832134 2.94451748
VERTEX2 85 5.49920807 -19.52068880 2.95200514
VERTEX2 86 4.89011762 -19.40566130 2.86282663
VERTEX2 87 4.54658489 -19.32329137 2.80772742
VERTEX2 88 4.19559433 -19.19751489 2.77797036
VERTEX2 89 4.21888295 -19.19827368 -3.11055239
VERTEX2 90 3.62612130 -19.20724288 3.14102123
VERTEX2 91 3.01586993 -19.20886029 -3.09321461
VERTEX2 92 2.42168073 -19.21038605 3.07410408
VERTEX2 93 1.79907233 -19.11339501 2.97343279
VERTEX2 94 1.18103040 -18.98158326 2.93045591
VERTEX2 95 0.56626308 -18.90045324 3.07278732
VERTEX2 96 -0.03215359 -18.85552278 3.09680553
VERTEX2 97 -0.61010649 -18.79883595 3.02610845
VERTEX2 98 -1.18670106 -18.70491545 2.96800204
VERTEX2 99 -1.88117782 -18.58816833 3.01489384
VERTEX2 100 -2.43494540 -18.48689594 2.96323563
VERTEX2 101 -3.03419675 -18.43632171 3.06661213
VERTEX2 102 -3.64593239 -18.36143989 2.96133331
VERTEX2 103 -4.25341545 -18.25248349 3.05791310
VERTEX2 104 -4.86428664 -18.18234539 3.02469188
VERTEX2 105 -5.47324106 -18.12526850 3.07039354
VERTEX2 106 -6.07168089 -18.06163852 3.01466862
VERTEX2 107 -6.67863055 -17.97322091 3.01044027
VERTEX2 108 -7.12877083 -17.92849428 3.07202580
VERTEX2 109 -7.17661459 -17.91677569 2.62330792
VERTEX2 110 -7.19409767 -17.89895777 2.03169319
VERTEX2 111 -7.19486477 -17.81981243 1.52560956
VERTEX2 112 -7.17575968 -17.18756000 1.57990826
VERTEX2 113 -7.19852615 -16.56703103 1.62680940
VERTEX2 114 -7.23587435 -15.95499591 1.66346075
VERTEX2 115 -7.31148566 -15.32602625 1.72305800
VERTEX2 116 -7.43211151 -14.58738880 1.76655300
VERTEX2 117 -7.56797394 -13.98963660 1.86149351
VERTEX2 118 -7.56989745 -13.98095829 1.52584107
VERTEX2 119 -7.51712170 -13.47071538 1.47202425
VERTEX2 120 -7.46753365 -12.82283062 1.56171511
VERTEX2 121 -7.48012662 -12.21348439 1.62887217
VERTEX2 122 -7.51619946 -11.63851013 1.68502111
VERTEX2 123 -7.54085879 -11.46622940 1.67218573
VERTEX2 124 -7.45768593 -11.23241621 1.24895240
VERTEX2 125 -7.24542390 -10.64387669 1.23795553
VERTEX2 126 -7.11700218 -10.03358276 1.44444985
VERTEX2 127 -7.02353939 -9.40759595 1.44256706
VERTEX2 128 -6.95192842 -8.77793345 1.47869905
VERTEX2 129 -6.86940505 -8.15189471 1.44576986
VERTEX2 130 -6.80602123 -7.53339359 1.49863797
VERTEX2 131 -6.76427278 -6.92017468 1.58720308
VERTEX2 132 -6.74989729 -6.31684466 1.53766825
VERTEX2 133 -6.70626732 -5.75643797 1.50092085
VERTEX2 134 -6.65587497 -5.16720402 1.48279190
VERTEX2 135 -6.57776040 -4.59805934 1.45666118
VERTEX2 136 -6.50760248 -3.97246178 1.47641425
VERTEX2 137 -6.41536488 -3.34907094 1.43473797
VERTEX2 138 -6.34357985 -2.72780930 1.51521886
VERTEX2 139 -6.33057652 -2.10845200 1.58064381
VERTEX2 140 -6.36214615 -1.46401583 1.61133486
VERTEX2 141 -6.37176359 -0.83431755 1.56311110
VERTEX2 142 -6.37596203 -0.19476743 1.55951029
VERTEX2 143 -6.29939499 0.44157697 1.44959679
VERTEX2 144 -6.26275924 0.81034882 1.46768575
VERTEX2 145 4.12870175 -25.09099126 2.35202688
VERTEX2 146 6.02125311 -26.39976581 1.29578924
VERTEX2 147 6.06472852 -26.34935290 0.80705600
VERTEX2 148 6.38010972 -26.03208324 0.77035993
VERTEX2 149 6.84863444 -25.56862879 0.79447849
VERTEX2 150 7.29188535 -25.09118477 0.80801795
VERTEX2 151 7.71905005 -24.60164655 0.89438687
VERTEX2 152 8.13166638 -24.10927076 0.82746978
VERTEX2 153 8.54507140 -23.61780714 0.91442141
VERTEX2 154 8.95044771 -23.12385651 0.83832026
VERTEX2 155 9.37059284 -22.63849776 0.86571210
VERTEX2 156 9.78071635 -22.14046406 0.89026986
VERTEX2 157 10.15697733 -21.69727944 0.81882055
VERTEX2 158 10.28589242 -21.55997317 0.84839444
VERTEX2 159 11.84476788 -18.77272677 2.79515484
VERTEX2 160 11.83148356 -18.76902165 -2.44741655
VERTEX2 161 -0.29349694 0.44037051 2.70811863
VERTEX2 162 -0.26975784 0.44575249 -2.53208337
VERTEX2 163 -0.26853172 0.45224336 -1.52764529
VERTEX2 164 -0.34505168 0.54453204 -0.46436433
VERTEX2 165 -0.17731428 0.53034842 -0.05678869
VERTEX2 166 0.51077916 0.49818691 -0.05597494
VERTEX2 167 1.12064009 0.45661118 -0.08515717
VERTEX2 168 1.70193903 0.41579852 -0.07298213
VERTEX2 169 2.29072511 0.35312472 -0.10973128
VERTEX2 170 2.88517666 0.29227987 -0.12965980
VERTEX2 171 3.44075323 0.20321911 -0.16804603
VERTEX2 172 4.06014975 0.10586981 -0.15407408
VERTEX2 173 4.69171158 -0.00630324 -0.17690190
VERTEX2 174 5.31434000 -0.11104735 -0.13687022
VERTEX2 175 5.92748646 -0.19197169 -0.16164626
VERTEX2 176 6.52450724 -0.30307577 -0.15209127
VERTEX2 177 7.14500612 -0.39649610 -0.17977891
VERTEX2 178 7.76883979 -0.53380908 -0.21879086
VERTEX2 179 8.16911726 -0.61111425 -0.16537138
VERTEX2 180 8.21593314 -0.62299261 -0.60724213
VERTEX2 181 8.66241178 -0.93622654 -0.65923164
VERTEX2 182 9.07571377 -1.29253299 -0.83349726
VERTEX2 183 9.42841857 -1.70854187 -0.89139709
VERTEX2 184 9.76195443 -2.19820938 -1.03997145
VERTEX2 185 10.04141412 -2.71159413 -1.13437860
VERTEX2 186 10.26021112 -3.25540411 -1.19963380
VERTEX2 187 10.45346342 -3.77174952 -1.22170626
VERTEX2 188 10.65401343 -4.30768995 -1.22674246
VERTEX2 189 10.84639042 -4.84365726 -1.25342097
VERTEX2 190 11.03819507 -5.44999676 -1.28135520
VERTEX2 191 11.22040224 -6.05625553 -1.30466255
VERTEX2 192 11.38375137 -6.65547997 -1.33232145
VERTEX2 193 11.51295034 -7.19343982 -1.38789098
VERTEX2 194 11.61905203 -7.75047566 -1.41462026
VERTEX2 195 11.70577535 -8.30129162 -1.44331137
VERTEX2 196 11.78088745 -8.91888489 -1.48347048
VERTEX2 197 11.82777171 -9.53102214 -1.51047400
VERTEX2 198 11.86230374 -10.13996606 -1.56827000
VERTEX2 199 11.84470825 -10.73715378 -1.62943839
VERTEX2 200 11.80382414 -11.34872114 -1.65190493
VERTEX2 201 11.73839149 -11.95818296 -1.70911593
VERTEX2 202 11.68106025 -12.46083643 -1.68884644
VERTEX2 203 11.58930184 -13.18918277 -1.74154356
VERTEX2 204 11.47559962 -13.76240686 -1.84344868
VERTEX2 205 11.31454474 -14.32198147 -1.85280512
VERTEX2 206 11.16841230 -14.86634914 -1.85081169
VERTEX2 207 11.01686424 -15.43049125 -1.83478279
VERTEX2 208 10.85216660 -16.02745362 -1.84413818
VERTEX2 209 10.69835456 -16.62788659 -1.80542546
VERTEX2 210 10.54121922 -17.22950591 -1.81393070
VERTEX2 211 10.39934087 -17.83160869 -1.81126285
VERTEX2 212 10.23226848 -18.41515972 -1.86406167
VERTEX2 213 10.04683849 -19.00263461 -1.88480251
VERTEX2 214 9.85648645 -19.57657876 -1.88858730
VERTEX2 215 9.74751126 -19.89547820 -1.92436468
VERTEX2 216 9.76221049 -19.86951708 -2.42296554
VERTEX2 217 9.79365279 -19.86570883 -2.96507762
VERTEX2 218 9.80615453 -19.87030790 -3.02109270
VERTEX2 219 9.24425438 -19.83419975 3.09362361
VERTEX2 220 8.63963281 -19.79859530 3.05379495
VERTEX2 221 8.01123132 -19.74216657 3.10418085
VERTEX2 222 7.39662065 -19.70888765 3.07852083
VERTEX2 223 6.78158744 -19.68861413 -3.10847947
VERTEX2 224 6.17867016 -19.69766433 -3.13441613
VERTEX2 225 5.57203876 -19.70045588 -3.08489794
VERTEX2 226 4.96631998 -19.70240192 -3.13420065
VERTEX2 227 4.32457163 -19.78038837 -2.97770402
VERTEX2 228 3.80541033 -19.77248753 2.94363051
VERTEX2 229 3.37792454 -19.74539243 3.06352619
VERTEX2 230 3.09168600 -19.73350602 3.03460267
VERTEX2 231 3.30054001 -19.74921957 3.10457288
VERTEX2 232 2.99949727 -19.61805235 2.67751950
VERTEX2 233 2.44167858 -19.36630494 2.77935592
VERTEX2 234 1.86850402 -19.14688986 2.73519293
VERTEX2 235 1.62275054 -19.04361270 2.73021141
VERTEX2 236 1.29580459 -19.04797804 3.13564725
VERTEX2 237 0.67490632 -19.06867765 -3.07713601
VERTEX2 238 0.06212392 -19.12248528 -3.10985716
VERTEX2 239 -0.54754018 -19.12538847 3.10572759
VERTEX2 240 -1.11231648 -19.01400515 2.88769736
VERTEX2 241 -1.64757218 -18.88905639 2.97318201
VERTEX2 242 -2.21161547 -18.83111983 3.01269786
VERTEX2 243 -2.80305219 -18.75546713 3.01201327
VERTEX2 244 -3.41897796 -18.71663734 3.08324884
VERTEX2 245 -4.02599512 -18.67454330 3.02895518
VERTEX2 246 -4.62040801 -18.59559975 2.95651949
VERTEX2 247 -5.21652722 -18.52030306 3.06238158
VERTEX2 248 -5.77253807 -18.50363693 3.09368582
VERTEX2 249 -5.72547315 -18.51029297 -2.99671989
VERTEX2 250 -5.71288623 -18.50995598 2.69978758
VERTEX2 251 -6.03510072 -18.17577160 2.27598460
VERTEX2 252 -6.39211111 -17.76137847 2.28440377
VERTEX2 253 -6.76547876 -17.32137428 2.27334299
VERTEX2 254 -7.13257102 -16.86895800 2.23210236
VERTEX2 255 -7.20572562 -16.77773831 2.31624325
VERTEX2 256 -7.20942068 -16.69976002 1.83982904
VERTEX2 257 -7.26412873 -16.24249963 1.70366064
VERTEX2 258 -7.35252616 -15.65304833 1.78436996
VERTEX2 259 -7.49704408 -15.05986205 1.82432082
VERTEX2 260 -7.63126212 -14.51082940 1.81540561
VERTEX2 261 -7.62934776 -14.47526452 1.50355795
VERTEX2 262 -7.56936908 -13.82445043 1.51008078
VERTEX2 263 -7.53080298 -13.21977308 1.52323607
VERTEX2 264 -7.51894674 -12.63338008 1.61975033
VERTEX2 265 -7.55212912 -12.04425066 1.63952352
VERTEX2 266 -7.50756921 -11.47749691 1.50996198
VERTEX2 267 -7.45912256 -10.74119700 1.48022641
VERTEX2 268 -7.32914351 -10.14218457 1.36949487
VERTEX2 269 -7.21224602 -9.53433607 1.39939735
VERTEX2 270 -7.14272887 -8.91699466 1.51346888
VERTEX2 271 -7.05036037 -8.30092378 1.40306964
VERTEX2 272 -6.96757339 -7.68018527 1.46835862
VERTEX2 273 -6.97880413 -7.06248291 1.68110395
VERTEX2 274 -7.04697314 -6.46079774 1.70563809
VERTEX2 275 -7.03798897 -5.86279322 1.53386785
VERTEX2 276 -7.03392411 -5.26280344 1.64817288
VERTEX2 277 -7.08259580 -4.70503684 1.62243113
VERTEX2 278 -7.04236965 -4.07267402 1.53348427
VERTEX2 279 -7.00620453 -3.44433336 1.47844950
VERTEX2 280 -6.94231672 -2.82204069 1.48075083
VERTEX2 281 -6.85658250 -2.19840132 1.38056258
VERTEX2 282 -6.74231794 -1.58181418 1.42062236
VERTEX2 283 -6.65868003 -0.94670732 1.41336046
VERTEX2 284 -6.54996954 -0.31896663 1.44093378
VERTEX2 285 -6.48734195 0.32614495 1.46104930
VERTEX2 286 -6.42412562 0.94764069 1.51360007
VERTEX2 287 -6.42122447 1.00311647 1.40820483
VERTEX2 288 -6.42051946 1.00430932 0.79716010
VERTEX2 289 -6.43325944 0.99738420 0.20143317
VERTEX2 290 -6.01632219 0.98768945 -0.02477427
VERTEX2 291 -5.41689219 0.97743976 -0.01173359
VERTEX2 292 -4.83229090 0.95745474 -0.06347068
VERTEX2 293 -4.24110283 0.91501030 -0.08396231
VERTEX2 294 -3.65384656 0.86744336 -0.08098135
VERTEX2 295 -3.06821064 0.79484752 -0.19078093
VERTEX2 296 -2.49134840 0.66402372 -0.23396543
VERTEX2 297 -1.91664620 0.52808589 -0.24373497
VERTEX2 298 -1.31272411 0.38106790 -0.24346822
VERTEX2 299 -0.74532926 0.23207193 -0.18126873
VERTEX2 300 -0.16526809 0.15343294 -0.13814909
VERTEX2 301 0.39319990 0.06109237 -0.19671817
VERTEX2 302 0.69268634 0.00031913 -0.21691638
VERTEX2 303 0.67172302 0.00481174 -0.21208516
VERTEX2 304 1.17041760 -0.10327587 -0.20188372
VERTEX2 305 1.78575667 -0.13889583 -0.01716944
VERTEX2 306 2.41156688 -0.14082009 -0.03549978
VERTEX2 307 3.04773768 -0.17980619 -0.07247486
VERTEX2 308 3.67260126 -0.23408768 -0.12834638
VERTEX2 309 4.30471598 -0.28585194 -0.03573106
VERTEX2 310 4.92905246 -0.30759728 -0.07189215
VERTEX2 311 5.20675221 -0.32966942 0.10279876
VERTEX2 312 5.20675800 -0.32959733 1.09087522
VERTEX2 313 5.20828086 -0.11213502 1.58669023
VERTEX2 314 5.17990161 0.51454298 1.62653896
VERTEX2 315 5.14249701 1.14042449 1.62228200
VERTEX2 316 5.09172523 1.79789690 1.67334480
VERTEX2 317 5.01942222 2.45200720 1.68300421
VERTEX2 318 4.90898291 3.10143815 1.77717916
VERTEX2 319 4.82094513 3.46161157 1.84816622
VERTEX2 320 4.82539766 3.47605484 2.81547837
VERTEX2 321 4.81214928 3.47016746 -2.42926228
VERTEX2 322 4.80724631 3.45992633 -1.43548169
VERTEX2 323 4.82245046 3.44554823 -0.44547599
VERTEX2 324 4.82911063 3.44343192 0.21273282
VERTEX2 325 4.82889983 3.44342070 -0.31633800
VERTEX2 326 4.85544056 3.42369074 -0.91023720
VERTEX2 327 4.86277316 3.39023469 -1.53225054
VERTEX2 328 4.85286064 2.74044308 -1.57823696
VERTEX2 329 4.83746360 2.11137851 -1.63465688
VERTEX2 330 4.78947552 1.49343349 -1.65514260
VERTEX2 331 4.74048344 0.87419037 -1.67090388
VERTEX2 332 4.66691428 0.25782929 -1.69090742
VERTEX2 333 4.64643842 0.10107398 -1.62745741
VERTEX2 334 4.66900008 0.10612750 -0.82985822
VERTEX2 335 4.68763075 0.10089480 0.16106041
VERTEX2 336 4.70053123 0.10563021 1.10213571
VERTEX2 337 4.70472222 0.13433574 2.08104552
VERTEX2 338 4.70538056 0.13386844 3.07064452
VERTEX2 339 4.71583193 0.14056347 -2.16244859
VERTEX2 340 4.71608511 0.13887714 -1.14249674
VERTEX2 341 4.82814160 0.07344542 -0.50883934
VERTEX2 342 5.40338388 -0.22179836 -0.40678289
VERTEX2 343 5.98773481 -0.41602989 -0.27391341
VERTEX2 344 6.57983241 -0.59036541 -0.28296150
VERTEX2 345 6.81944594 -0.65680482 -0.30941820
VERTEX2 346 6.80601796 -0.65266230 -0.95405285
VERTEX2 347 6.81040162 -0.74971318 -1.51050724
VERTEX2 348 6.83932010 -1.34854198 -1.52627006
VERTEX2 349 6.84855352 -1.97683698 -1.56551783
VERTEX2 350 6.85006544 -2.77396659 -1.58417693
VERTEX2 351 6.84080760 -3.05705754 -1.61215290
VERTEX2 352 6.83734742 -3.07538695 -1.89837697
VERTEX2 353 6.81946923 -3.09828168 -2.56030432
VERTEX2 354 6.79798573 -3.10495785 3.12273091
VERTEX2 355 6.77204495 -3.10486003 2.40547898
VERTEX2 356 6.76518541 -3.09338954 1.83279368
VERTEX2 357 6.76665199 -3.08318345 1.18254533
VERTEX2 358 6.76820451 -3.08087181 0.56831825
VERTEX2 359 6.75546779 -3.08667392 -0.04448041
VERTEX2 360 6.73751807 -3.08352966 -0.22012739
VERTEX2 361 6.72767138 -3.08631350 0.70099091
VERTEX2 362 6.80863584 -2.85167370 1.23578369
VERTEX2 363 6.90787766 -2.57623699 1.23022088
VERTEX2 364 6.82773145 -2.22281305 1.84615576
VERTEX2 365 6.76248368 -1.91382219 1.34970761
VERTEX2 366 6.87837311 -1.77783800 0.79625826
VERTEX2 367 7.32594374 -1.32561346 0.79852225
VERTEX2 368 7.77457302 -0.88333963 0.75065693
VERTEX2 369 7.79301270 -0.86035451 0.49894203
VERTEX2 370 7.81706711 -0.85612608 -0.08759292
VERTEX2 371 7.82429715 -0.85972389 -0.63285130
VERTEX2 372 8.25527868 -1.19893139 -0.66049304
VERTEX2 373 8.73376735 -1.55639031 -0.65894399
VERTEX2 374 9.21903703 -1.95219610 -0.72058957
VERTEX2 375 9.58641482 -2.26951078 -0.75155274
VERTEX2 376 9.60100809 -2.27814214 -0.05912237
VERTEX2 377 9.64652239 -2.24473402 0.63382861
VERTEX2 378 10.17194735 -1.84279010 0.68667100
VERTEX2 379 10.64116129 -1.40987306 0.77008579
VERTEX2 380 11.07630669 -0.93500289 0.88811810
VERTEX2 381 11.22174795 -0.75053270 1.03664877
VERTEX2 382 11.22443861 -0.74552956 2.08202799
VERTEX2 383 11.22446653 -0.74556369 3.06931412
VERTEX2 384 11.22310660 -0.74688420 -2.24972335
VERTEX2 385 11.21855664 -0.75479038 -1.21918281
VERTEX2 386 11.32624347 -0.89032893 -0.99409190
VERTEX2 387 11.79607419 -1.31180022 -0.66124164
VERTEX2 388 12.31481709 -1.69896806 -0.65080132
VERTEX2 389 12.80870157 -2.10710470 -0.73142040
VERTEX2 390 12.87069210 -2.16068977 -0.25326375
VERTEX2 391 12.73036829 -2.15938437 0.12923127
VERTEX2 392 12.71593265 -2.16022187 1.17278347
VERTEX2 393 12.75859946 -1.83166061 2.04349907
VERTEX2 394 12.74269009 -1.81834300 3.03795196
VERTEX2 395 12.97621914 -1.77471903 -2.90748526
VERTEX2 396 12.96970497 -1.77600426 -2.90726565
VERTEX2 397 12.95922638 -1.77530021 -2.91795453
VERTEX2 398 12.95092541 -1.77888673 -2.72032763
VERTEX2 399 12.85068310 -1.85864213 -2.42131570
VERTEX2 400 12.35196399 -2.30044670 -2.37089588
VERTEX2 401 11.88707687 -2.71779452 -2.46417988
VERTEX2 402 11.33295642 -3.01386790 -2.73251437
VERTEX2 403 10.76150251 -3.25607530 -2.76745398
VERTEX2 404 10.21579655 -3.45277622 -2.84751293
VERTEX2 405 10.22414552 -3.44871027 -2.31574515
VERTEX2 406 10.22611335 -3.43664941 -1.34098644
VERTEX2 407 10.34850954 -3.77755177 -1.21417794
VERTEX2 408 10.55777681 -4.35736662 -1.25329560
VERTEX2 409 10.64050204 -4.63444717 -1.35350064
VERTEX2 410 10.64086473 -4.62209822 -1.98271726
VERTEX2 411 10.65611388 -4.59484519 -2.57388127
VERTEX2 412 10.17007331 -4.79062351 -2.77796511
VERTEX2 413 9.60165983 -4.98534808 -2.85845481
VERTEX2 414 9.02788112 -5.16998730 -2.75568703
VERTEX2 415 8.42010364 -5.40785634 -2.74860805
VERTEX2 416 8.13182411 -5.53610900 -2.80370823
VERTEX2 417 7.83093746 -5.51975925 3.05564961
VERTEX2 418 7.38291625 -5.47558586 3.01085337
VERTEX2 419 7.38250847 -5.47568475 -2.84063507
VERTEX2 420 7.43628495 -5.45176653 -2.62396963
VERTEX2 421 7.44464970 -5.43841390 -1.65495040
VERTEX2 422 7.44709465 -5.43501244 -0.41396380
VERTEX2 423 7.44562006 -5.43487616 -0.06681595
VERTEX2 424 7.44291009 -5.43461003 -0.06531650
VERTEX2 425 7.44535554 -5.43322779 -0.05221994
VERTEX2 426 7.44893379 -5.43326720 -0.05982877
VERTEX2 427 7.49187416 -5.43543718 -0.05501021
VERTEX2 428 8.16473561 -5.45492608 -0.05887036
VERTEX2 429 8.81960682 -5.50216837 -0.09797239
VERTEX2 430 9.17114480 -5.54216681 -0.14240323
VERTEX2 431 9.15846960 -5.54071210 -0.08880421
VERTEX2 432 9.17747291 -5.54723888 -0.71673328
VERTEX2 433 9.18330843 -5.55508241 -1.39184866
VERTEX2 434 9.15235384 -6.09323975 -1.61887301
VERTEX2 435 9.12683163 -6.74305303 -1.64619398
VERTEX2 436 9.05525225 -7.39009275 -1.65373265
VERTEX2 437 9.01026416 -8.04651044 -1.64452051
VERTEX2 438 8.96321123 -8.52754034 -1.67462116
VERTEX2 439 8.96039571 -8.53869351 -2.10982693
VERTEX2 440 8.96144919 -8.53790125 -2.75192565
VERTEX2 441 8.97127258 -8.53684282 2.91025237
VERTEX2 442 8.97532277 -8.53901904 2.28188911
VERTEX2 443 8.97566214 -8.54390729 1.71593364
VERTEX2 444 8.97768222 -8.53278607 1.12536396
VERTEX2 445 8.98636645 -8.52429227 0.46959125
VERTEX2 446 8.98935574 -8.52243024 0.67221724
VERTEX2 447 9.00360928 -8.49407301 1.30602399
VERTEX2 448 9.14866932 -7.86609407 1.32395745
VERTEX2 449 9.27619087 -7.22388852 1.42580556
VERTEX2 450 9.36344943 -6.58570616 1.43966148
VERTEX2 451 9.41125838 -6.11417806 1.48234876
VERTEX2 452 9.41140105 -6.11244990 1.10440407
VERTEX2 453 9.40808057 -6.11860750 0.48236853
VERTEX2 454 9.66597008 -6.09620911 0.06040895
VERTEX2 455 10.26693984 -6.06526293 0.03987795
VERTEX2 456 10.90161963 -6.05401397 -0.02467799
VERTEX2 457 11.25829048 -6.07289812 -0.11236361
VERTEX2 458 11.25542782 -6.07150794 -0.75817384
VERTEX2 459 11.24560300 -6.03346320 -1.36628795
VERTEX2 460 11.22928383 -6.42915414 -1.62322368
VERTEX2 461 11.16738656 -7.04354766 -1.71109943
VERTEX2 462 11.08577888 -7.55129945 -1.75103842
VERTEX2 463 11.09745630 -7.52778951 -0.91055582
VERTEX2 464 11.35039154 -7.59664437 -0.23227301
VERTEX2 465 11.93247527 -7.72228073 -0.22446520
VERTEX2 466 12.48446571 -7.86636160 -0.28004159
VERTEX2 467 13.05414041 -8.04066406 -0.32344554
VERTEX2 468 13.66608405 -8.24996652 -0.35940872
VERTEX2 469 14.25484779 -8.50649952 -0.44283034
VERTEX2 470 14.70537102 -8.71471867 -0.42437132
VERTEX2 471 14.70794922 -8.71608615 -0.62475021
VERTEX2 472 14.72029768 -8.73301610 -1.25830442
VERTEX2 473 14.72015374 -8.73232842 -1.90066051
VERTEX2 474 14.71837947 -8.73457068 -2.53027289
VERTEX2 475 14.72434976 -8.73373008 -3.10309350
VERTEX2 476 14.73136779 -8.73464977 2.52994143
VERTEX2 477 14.73831808 -8.74801812 1.97135408
VERTEX2 478 14.73949358 -8.76198698 1.34531856
VERTEX2 479 14.73778351 -8.76600223 0.89182592
VERTEX2 480 14.73735804 -8.76696910 1.45477967
VERTEX2 481 14.73470194 -8.75590585 2.45834815
VERTEX2 482 14.74400155 -8.75952268 2.79512340
VERTEX2 483 14.75547289 -8.76364522 2.79009160
VERTEX2 484 14.33249449 -8.61202224 2.82597771
VERTEX2 485 13.72823909 -8.42921423 2.82396730
VERTEX2 486 13.12113537 -8.22254910 2.83379164
VERTEX2 487 12.51265721 -8.05124152 2.86209282
VERTEX2 488 11.90185816 -7.87809925 2.89824397
VERTEX2 489 11.43413892 -7.77689255 2.92870684
VERTEX2 490 11.44303477 -7.77592336 -2.86928375
VERTEX2 491 11.45233487 -7.76334135 -1.93301179
VERTEX2 492 11.43856312 -7.99202705 -1.62991787
VERTEX2 493 11.38457156 -8.59529092 -1.68494671
VERTEX2 494 11.30535974 -9.20602770 -1.74585550
VERTEX2 495 11.24465979 -9.82892113 -1.63843590
VERTEX2 496 11.20942792 -10.45320748 -1.52050312
VERTEX2 497 11.21104273 -11.07115724 -1.60640160
VERTEX2 498 11.15120615 -11.69236827 -1.70809961
VERTEX2 499 11.03147447 -12.30956181 -1.72519604
VERTEX2 500 11.09644956 -12.86790144 -1.39649181
VERTEX2 501 11.17852137 -13.44361609 -1.46858890
VERTEX2 502 11.21178891 -14.13550539 -1.55310200
VERTEX2 503 11.21327143 -14.57900474 -1.57011055
VERTEX2 504 11.22042854 -14.55794408 -0.71403099
VERTEX2 505 11.46469620 -14.58281721 -0.09229189
VERTEX2 506 12.06277630 -14.65786958 -0.24487692
VERTEX2 507 12.64080000 -14.81858877 -0.32400411
VERTEX2 508 13.20571446 -15.02091731 -0.33721494
VERTEX2 509 13.83166291 -15.24827188 -0.39386608
VERTEX2 510 14.18640246 -15.40190933 -0.40831418
VERTEX2 511 14.18374104 -15.37833877 0.46598987
VERTEX2 512 14.20577980 -15.33086591 1.66122633
VERTEX2 513 14.19942217 -15.31256070 2.61549595
VERTEX2 514 14.13221009 -15.29414448 2.84118449
VERTEX2 515 13.52118715 -15.11671659 2.84192450
VERTEX2 516 12.93575180 -14.92585037 2.85743783
VERTEX2 517 12.34247342 -14.78062569 2.88522886
VERTEX2 518 11.74958585 -14.63201961 2.90917321
VERTEX2 519 11.22731322 -14.51014654 2.89307705
VERTEX2 520 11.05973688 -14.46710658 -2.99253373
VERTEX2 521 11.07891923 -14.44565669 -1.98072005
VERTEX2 522 11.01437108 -14.86872053 -1.71430671
VERTEX2 523 10.93245269 -15.49110591 -1.72100611
VERTEX2 524 10.83787133 -16.06768170 -1.76219990
VERTEX2 525 10.74349172 -16.60841200 -1.73835374
VERTEX2 526 10.63760708 -17.17565764 -1.79705532
VERTEX2 527 10.49926552 -17.75443329 -1.83205791
VERTEX2 528 10.32659271 -18.32027284 -1.90827856
VERTEX2 529 10.12417024 -18.92173960 -1.93638779
VERTEX2 530 9.88719144 -19.52053545 -1.96631782
VERTEX2 531 9.62789868 -20.09491195 -2.04600885
VERTEX2 532 9.53352252 -20.28021858 -1.99519996
VERTEX2 533 9.52699921 -20.25113687 -0.99334146
VERTEX2 534 9.52018323 -20.24679088 -0.32581358
VERTEX2 535 9.51828661 -20.24484494 -0.32599617
VERTEX2 536 9.87312615 -20.32170171 -0.19491625
VERTEX2 537 10.47897149 -20.45817609 -0.25262756
VERTEX2 538 11.03813082 -20.61585728 -0.27949891
VERTEX2 539 11.65114011 -20.81390721 -0.34409702
VERTEX2 540 12.24332142 -21.05634037 -0.43683408
VERTEX2 541 12.83567300 -21.27354812 -0.27437765
VERTEX2 542 13.47126708 -21.40377665 -0.21857167
VERTEX2 543 13.59552984 -21.43245578 -0.24814351
VERTEX2 544 13.62094586 -21.42937643 0.38911030
VERTEX2 545 13.64699481 -21.37984447 1.45567914
VERTEX2 546 13.66384535 -21.42120391 2.28301283
VERTEX2 547 13.67631046 -21.42009515 -2.97812042
VERTEX2 548 13.69498419 -21.40754334 -2.05491357
VERTEX2 549 13.69535485 -21.40500220 -1.24730470
VERTEX2 550 13.69433340 -21.39215052 -1.72647567
VERTEX2 551 13.69865805 -21.38290121 -2.35206929
VERTEX2 552 13.70623556 -21.37891243 -2.98357201
VERTEX2 553 13.56970345 -21.33042984 2.72086199
VERTEX2 554 12.97309547 -21.06040625 2.68481589
VERTEX2 555 12.39254942 -20.80024465 2.77291779
VERTEX2 556 11.78845360 -20.59623882 2.90717013
VERTEX2 557 11.18623916 -20.43766593 2.86550304
VERTEX2 558 10.60849446 -20.29218005 2.94606126
VERTEX2 559 10.61671791 -20.29478543 2.53828879
VERTEX2 560 10.60850074 -20.28621328 2.03642540
VERTEX2 561 10.58566048 -20.26479837 2.54078099
VERTEX2 562 10.41070743 -20.26773305 -3.09988388
VERTEX2 563 9.84228216 -20.19856761 2.99095118
VERTEX2 564 9.23902548 -20.11663497 3.03932081
VERTEX2 565 8.64793770 -20.05439877 2.98211779
VERTEX2 566 8.70722884 -20.07177989 -2.51525411
VERTEX2 567 8.61949887 -20.07965848 -1.72519131
VERTEX2 568 8.57881527 -20.57899389 -1.65847878
VERTEX2 569 8.53641347 -21.16068889 -1.69684965
VERTEX2 570 8.47662180 -21.74828814 -1.69166461
VERTEX2 571 8.42981924 -22.10800201 -1.73736996
VERTEX2 572 8.40023225 -22.13055278 -1.98051738
VERTEX2 573 8.36855383 -22.20639111 -1.70412877
VERTEX2 574 8.39044019 -22.23592785 -0.76533606
VERTEX2 575 8.54008081 -22.28160553 0.15610245
VERTEX2 576 8.54108644 -22.28237209 1.18447259
VERTEX2 577 8.53531208 -22.26799362 2.15685343
VERTEX2 578 8.52607610 -22.23898301 1.79282526
VERTEX2 579 8.38850480 -21.59251340 1.80794908
VERTEX2 580 8.21455969 -20.95799669 1.88224926
VERTEX2 581 8.00913992 -20.34063483 1.92388549
VERTEX2 582 7.77586614 -19.72914437 1.96644439
VERTEX2 583 7.64016835 -19.42299412 2.04523010
VERTEX2 584 7.63495256 -19.41329706 2.88736218
VERTEX2 585 7.06356343 -19.28557792 3.00518999
VERTEX2 586 6.48415896 -19.22188582 3.10234261
VERTEX2 587 5.88175955 -19.22026720 3.12743634
VERTEX2 588 5.26219765 -19.20376867 3.13141805
VERTEX2 589 4.73913548 -19.23529599 -3.07722360
VERTEX2 590 4.20550989 -19.28540118 -3.00927603
VERTEX2 591 3.68215166 -19.36888568 -3.01181604
VERTEX2 592 3.13429213 -19.44996335 -3.01456058
VERTEX2 593 2.95616307 -19.47451443 -2.80932663
VERTEX2 594 2.99716171 -19.42929413 -1.88937974
VERTEX2 595 2.89157961 -20.03700229 -1.65656250
VERTEX2 596 2.84674770 -20.66082152 -1.67970069
VERTEX2 597 2.76325355 -21.33585863 -1.71963276
VERTEX2 598 2.66788195 -21.93443106 -1.76177838
VERTEX2 599 2.58438495 -22.31173959 -1.82794614
VERTEX2 600 2.58475431 -22.32703111 -1.02135040
VERTEX2 601 2.62997341 -22.35415288 -0.00341879
VERTEX2 602 2.66915344 -22.33784675 1.01040082
VERTEX2 603 2.63230391 -22.10532136 1.78290654
VERTEX2 604 2.56540118 -21.49525250 1.53877739
VERTEX2 605 2.56735746 -20.84494393 1.62133143
VERTEX2 606 2.51981422 -20.19577058 1.66339784
VERTEX2 607 2.52463900 -19.60322733 1.58237942
VERTEX2 608 2.50727645 -19.21509486 1.62687599
VERTEX2 609 2.50296775 -19.19133344 1.96323688
VERTEX2 610 2.49716842 -19.18930627 2.89599613
VERTEX2 611 1.90394715 -19.04616724 2.89907230
VERTEX2 612 1.43367466 -18.91756733 2.90199759
VERTEX2 613 1.47277032 -18.92905279 -2.91717331
VERTEX2 614 1.48126527 -18.92248628 -1.87899908
VERTEX2 615 1.49863495 -19.41127606 -1.57440244
VERTEX2 616 1.51132646 -20.03642620 -1.62555136
VERTEX2 617 1.37905554 -20.63616467 -1.84288340
VERTEX2 618 1.21521530 -21.23967382 -1.83282731
VERTEX2 619 1.05936181 -21.80863938 -1.83422050
VERTEX2 620 0.88107500 -22.38373348 -1.92971063
VERTEX2 621 1.00508035 -22.05458589 -1.98042766
VERTEX2 622 1.12378953 -21.79437872 -2.05459558
VERTEX2 623 1.12402920 -21.79405106 -2.59083750
VERTEX2 624 1.10226867 -21.79405868 3.05028573
VERTEX2 625 1.06910701 -21.78106631 2.39229657
VERTEX2 626 1.04682028 -21.75601342 1.77477860
VERTEX2 627 1.11619762 -21.38216112 1.36372363
VERTEX2 628 1.29059072 -20.75244374 1.26224086
VERTEX2 629 1.45826965 -20.12245415 1.33270480
VERTEX2 630 1.57994971 -19.51396281 1.41714494
VERTEX2 631 1.64777908 -18.99006955 1.43719854
VERTEX2 632 1.64942475 -18.97987014 2.11295527
VERTEX2 633 1.56518214 -18.97479765 -3.08403907
VERTEX2 634 0.90612417 -19.01770204 -3.05656130
VERTEX2 635 0.26182801 -19.03467522 3.09163985
VERTEX2 636 -0.37940115 -19.01255934 3.07476027
VERTEX2 637 -1.00615200 -18.94524024 2.97621900
VERTEX2 638 -1.38850282 -18.87136874 2.94677139
VERTEX2 639 -1.98979952 -18.77667550 3.02719708
VERTEX2 640 -2.59529410 -18.67597666 2.95935874
VERTEX2 641 -3.18618211 -18.57353982 2.95105138
VERTEX2 642 -3.75274727 -18.44510946 2.90571564
VERTEX2 643 -4.23477471 -18.31375256 2.83845153
VERTEX2 644 -4.23538732 -18.31391568 -2.68738653
VERTEX2 645 -4.27034082 -18.45686565 -1.91132290
VERTEX2 646 -4.39934806 -19.05795099 -1.61603372
VERTEX2 647 -4.35014399 -19.69113494 -1.32727516
VERTEX2 648 -4.12345099 -20.30710311 -1.16108689
VERTEX2 649 -3.94596384 -20.89776230 -1.49884053
VERTEX2 650 -4.03971627 -21.51985499 -1.75634847
VERTEX2 651 -4.05631292 -21.66909604 -0.95632122
VERTEX2 652 -3.99649274 -21.69528671 0.06952869
VERTEX2 653 -3.95539447 -21.65756459 1.10083121
VERTEX2 654 -3.96757365 -21.36663364 1.61426695
VERTEX2 655 -3.98433760 -20.81902644 1.60935752
VERTEX2 656 -3.99061944 -20.22271008 1.59680652
VERTEX2 657 -4.10306935 -19.62211327 1.87336167
VERTEX2 658 -4.30113308 -19.00676621 1.86645571
VERTEX2 659 -4.42205846 -18.51449490 1.79557630
VERTEX2 660 -4.42340732 -18.50815928 2.39495420
VERTEX2 661 -4.59528575 -18.49124887 3.04757463
VERTEX2 662 -5.18268932 -18.43908118 3.11681290
VERTEX2 663 -5.76406391 -18.45965486 -3.06575847
VERTEX2 664 -5.77196258 -18.45770499 -2.54215624
VERTEX2 665 -5.78703710 -18.56047073 -1.70605959
VERTEX2 666 -5.85283897 -19.18170272 -1.66818723
VERTEX2 667 -5.90283124 -19.75110972 -1.66258605
VERTEX2 668 -5.95850050 -20.34454512 -1.63627167
VERTEX2 669 -5.99840961 -20.96899912 -1.66080805
VERTEX2 670 -6.08910665 -21.58786968 -1.71958910
VERTEX2 671 -6.13131045 -21.87459031 -1.66322725
VERTEX2 672 -6.03993218 -21.28586761 -1.75094824
VERTEX2 673 -5.97946386 -21.01982757 -1.88029358
VERTEX2 674 -5.97678613 -21.01691338 -2.52706282
VERTEX2 675 -5.94136106 -21.00860994 -3.13759490
VERTEX2 676 -5.92805775 -21.01602543 2.52028348
VERTEX2 677 -5.92110259 -21.02524260 1.90248514
VERTEX2 678 -5.89588597 -20.79722639 1.45503796
VERTEX2 679 -5.83909627 -20.21199087 1.51687422
VERTEX2 680 -5.87266379 -19.76071345 1.86057899
VERTEX2 681 -6.03175820 -19.17056748 1.83235087
VERTEX2 682 -6.21062359 -18.56626419 1.87930513
VERTEX2 683 -6.30579281 -18.28510792 2.03758947
VERTEX2 684 -6.25587412 -18.33488292 3.11952673
VERTEX2 685 -6.65083973 -18.49787586 -2.71958092
VERTEX2 686 -7.09380598 -18.63932397 -2.86354443
VERTEX2 687 -7.68428054 -18.79737112 -2.89829275
VERTEX2 688 -8.27889354 -18.92480118 -2.90978785
VERTEX2 689 -8.84103520 -19.07150817 -2.88209564
VERTEX2 690 -9.37422783 -19.24779261 -2.80788998
VERTEX2 691 -9.76708387 -19.38458159 -2.83588653
VERTEX2 692 -9.75188036 -19.37757231 -2.30162906
VERTEX2 693 -9.72883160 -19.44691791 -1.26122879
VERTEX2 694 -9.70464326 -19.51599864 -0.42577180
VERTEX2 695 -9.68532429 -19.51021743 0.37423930
VERTEX2 696 -9.68152120 -19.50765841 1.39849318
VERTEX2 697 -9.69182746 -19.54305390 1.14502811
VERTEX2 698 -9.36626128 -19.33135878 0.48939331
VERTEX2 699 -8.80881061 -19.01294952 0.60301582
VERTEX2 700 -8.30107024 -18.64624296 0.65614932
VERTEX2 701 -7.87207355 -18.27946739 0.71489311
VERTEX2 702 -7.39789002 -17.96036845 0.59923157
VERTEX2 703 -6.89063380 -17.61985358 0.63303257
VERTEX2 704 -6.40178426 -17.23380941 0.65074615
VERTEX2 705 -5.89148210 -16.80634147 0.72123708
VERTEX2 706 -5.46100787 -16.48236664 0.45263338
VERTEX2 707 -5.43751268 -16.48089630 -0.06682626
VERTEX2 708 -5.42883473 -16.48579051 -0.70423484
VERTEX2 709 -5.46809702 -16.44437054 -1.03636952
VERTEX2 710 -5.47151288 -16.43574449 -1.59757717
VERTEX2 711 -5.46104434 -16.44500639 -2.19440758
VERTEX2 712 -5.44389497 -16.43159593 -2.75496868
VERTEX2 713 -5.91832731 -16.48703955 -3.04039412
VERTEX2 714 -6.47330358 -16.46743232 3.04519505
VERTEX2 715 -7.08985689 -16.43690115 -3.13429387
VERTEX2 716 -7.71257996 -16.42139644 3.01092233
VERTEX2 717 -8.32287808 -16.36074645 3.09574103
VERTEX2 718 -9.08378456 -16.24952171 2.92041365
VERTEX2 719 -9.69959334 -16.14037852 2.99494561
VERTEX2 720 -10.31121408 -16.03413341 2.93582575
VERTEX2 721 -10.92783347 -15.92454367 3.00415301
VERTEX2 722 -10.94195116 -15.92268058 3.07096141
VERTEX2 723 -10.95740424 -15.93896727 -2.12179885
VERTEX2 724 -10.95705648 -15.98178466 -1.05289155
VERTEX2 725 -10.92855224 -16.00051048 -0.41852190
VERTEX2 726 -10.60536325 -15.99328153 0.03546498
VERTEX2 727 -9.97393873 -15.94918072 0.06603715
VERTEX2 728 -9.34337477 -15.91947697 0.06733202
VERTEX2 729 -8.71893735 -15.85447775 0.12482018
VERTEX2 730 -8.10925890 -15.75852147 0.16217346
VERTEX2 731 -7.45652868 -15.65064845 0.17438432
VERTEX2 732 -7.31769806 -15.62132699 0.62106779
VERTEX2 733 -7.31688400 -15.62262865 1.61828519
VERTEX2 734 -7.38150459 -15.06687820 1.69657372
VERTEX2 735 -7.44892216 -14.46483655 1.66470057
VERTEX2 736 -7.44981537 -14.45344377 2.26463054
VERTEX2 737 -7.44028495 -14.45457425 3.06548694
VERTEX2 738 -8.01648246 -14.42118545 3.08457357
VERTEX2 739 -8.61703206 -14.33398128 3.02695721
VERTEX2 740 -9.11701394 -14.30005150 3.09021975
VERTEX2 741 -9.09388978 -14.29952714 2.72136563
VERTEX2 742 -9.08984254 -14.30229591 2.06857793
VERTEX2 743 -9.08954057 -14.30359701 1.45157658
VERTEX2 744 -9.08332634 -14.28889839 0.91204389
VERTEX2 745 -9.06653401 -14.27987167 0.31837354
VERTEX2 746 -8.51482897 -14.29265407 -0.15731396
VERTEX2 747 -7.87157190 -14.40000607 -0.19295492
VERTEX2 748 -7.29608643 -14.53614543 -0.26167930
VERTEX2 749 -7.21803520 -14.55479478 0.16641693
VERTEX2 750 -7.21366091 -14.54654927 1.09225180
VERTEX2 751 -7.24899807 -14.28430927 1.73160998
VERTEX2 752 -7.31089351 -13.66936559 1.62784082
VERTEX2 753 -7.35279841 -13.03970898 1.69066123
VERTEX2 754 -7.36491111 -12.40831439 1.52805914
VERTEX2 755 -7.35105374 -11.77700586 1.61437276
VERTEX2 756 -7.31869819 -11.14359059 1.43753113
VERTEX2 757 -7.24938912 -10.50413994 1.54959228
VERTEX2 758 -7.27419869 -9.92869709 1.69193171
VERTEX2 759 -7.26821286 -9.38642693 1.57168571
VERTEX2 760 -7.30995533 -8.79225697 1.68239754
VERTEX2 761 -7.31137553 -8.77431442 1.86278669
VERTEX2 762 -7.38279942 -8.74298684 2.69988206
VERTEX2 763 -7.95132026 -8.64639597 2.99328953
VERTEX2 764 -8.36554001 -8.57984012 2.96609379
VERTEX2 765 -8.35050451 -8.57940711 -2.67678653
VERTEX2 766 -8.35506208 -8.59481798 -1.67516699
VERTEX2 767 -8.34495827 -8.61952333 -0.74309110
VERTEX2 768 -8.31258909 -8.62108185 -0.01976268
VERTEX2 769 -7.67528598 -8.52326695 0.13761536
VERTEX2 770 -7.02630620 -8.45539480 0.07032445
VERTEX2 771 -6.94148158 -8.44710960 0.63092276
VERTEX2 772 -6.94071437 -8.44456852 1.49863520
VERTEX2 773 -6.92530247 -7.87351126 1.58449715
VERTEX2 774 -6.94547461 -7.32565105 1.60636163
VERTEX2 775 -6.94493925 -7.32783182 2.45049083
VERTEX2 776 -7.15769070 -7.30475607 3.06628910
VERTEX2 777 -7.77487291 -7.26971967 3.12462260
VERTEX2 778 -8.39143317 -7.26555754 3.10300589
VERTEX2 779 -9.00048871 -7.25059306 3.12095380
VERTEX2 780 -9.20122446 -7.23509887 2.99051563
VERTEX2 781 -9.19186728 -7.23836817 2.41710822
VERTEX2 782 -9.31909460 -6.97171267 1.98755927
VERTEX2 783 -9.55779270 -6.40118918 1.98698268
VERTEX2 784 -9.65825452 -6.17613516 1.96568373
VERTEX2 785 -9.65929475 -6.15210436 1.41377059
VERTEX2 786 -9.65179845 -6.12677459 0.82550259
VERTEX2 787 -9.63459870 -6.10890673 0.33488447
VERTEX2 788 -9.60652631 -6.11060982 -0.29419278
VERTEX2 789 -9.59480952 -6.11966948 -0.84611773
VERTEX2 790 -9.28474671 -6.51373199 -0.91326271
VERTEX2 791 -8.87568210 -6.99377881 -0.81457466
VERTEX2 792 -8.64147530 -7.19953482 -0.10970467
VERTEX2 793 -8.02435385 -7.24762123 -0.06471367
VERTEX2 794 -7.38957484 -7.27197850 0.00632925
VERTEX2 795 -7.41863095 -7.29367998 0.43540051
VERTEX2 796 -7.43116290 -7.29888520 1.09432436
VERTEX2 797 -7.35956981 -6.99301104 1.35423468
VERTEX2 798 -7.22935463 -6.36952778 1.40397408
VERTEX2 799 -7.14661555 -5.72737189 1.46923777
VERTEX2 800 -7.09649622 -5.08311801 1.54139901
VERTEX2 801 -7.10995266 -4.45532897 1.62750211
VERTEX2 802 -7.16614775 -3.83372509 1.68534363
VERTEX2 803 -7.15158879 -3.20943242 1.52081433
VERTEX2 804 -7.13419480 -2.58639757 1.57680258
VERTEX2 805 -7.16995891 -1.95981363 1.65314851
VERTEX2 806 -7.23219984 -1.36498611 1.69459296
VERTEX2 807 -7.26012307 -1.18116690 1.98319651
VERTEX2 808 -7.26492710 -1.18109046 2.93276365
VERTEX2 809 -7.85666948 -1.15536967 3.07782690
VERTEX2 810 -8.48085359 -1.03410850 2.93822142
VERTEX2 811 -9.08651576 -0.92489976 2.93538132
VERTEX2 812 -9.09511830 -0.92322532 -2.61532981
VERTEX2 813 -9.10537116 -0.94655294 -1.63907170
VERTEX2 814 -9.10356327 -0.94794217 -0.64587341
VERTEX2 815 -9.08061516 -0.95542509 0.27392348
VERTEX2 816 -9.07063971 -0.94984076 0.95546129
VERTEX2 817 -9.05801603 -0.94171673 0.28706642
VERTEX2 818 -8.83625552 -0.97306337 -0.20154315
VERTEX2 819 -8.24487660 -1.09386797 -0.18730291
VERTEX2 820 -7.65102644 -1.21865283 -0.22842027
VERTEX2 821 -7.10470738 -1.34296373 -0.21252189
VERTEX2 822 -7.10117340 -1.34344402 0.55378081
VERTEX2 823 -7.09401077 -1.29016394 1.31331109
VERTEX2 824 -6.94027628 -0.67030993 1.23189490
VERTEX2 825 -6.70597661 -0.06583635 1.20022047
VERTEX2 826 -6.55492857 0.56472468 1.36044298
VERTEX2 827 -6.39656844 1.18519047 1.30947936
VERTEX2 828 -6.24534208 1.81474656 1.34264147
VERTEX2 829 -6.09251524 2.39921342 1.30195663
VERTEX2 830 -5.92452915 2.98680943 1.29277569
VERTEX2 831 -5.74199108 3.54031358 1.24507396
VERTEX2 832 -5.56509679 4.08011570 1.24069552
VERTEX2 833 -5.48203806 4.32340025 1.37730875
VERTEX2 834 -5.48225569 4.32514685 2.42838361
VERTEX2 835 -5.48718469 4.32652619 -3.07977169
VERTEX2 836 -5.49768532 4.32027148 -2.13989344
VERTEX2 837 -5.49741037 4.29687372 -1.10760503
VERTEX2 838 -5.48704317 4.28759652 -0.24832436
VERTEX2 839 -5.48012929 4.28263355 -0.46774633
VERTEX2 840 -5.46683327 4.26772770 -1.03232688
VERTEX2 841 -5.46170242 4.25005843 -1.65148909
VERTEX2 842 -5.52833583 4.02392139 -1.88349585
VERTEX2 843 -5.70309852 3.49485071 -1.88685410
VERTEX2 844 -5.88587517 2.90694663 -1.89561282
VERTEX2 845 -6.08663758 2.32348447 -1.91114322
VERTEX2 846 -6.28066473 1.73694038 -1.91047911
VERTEX2 847 -6.49658804 1.16291719 -1.93837609
VERTEX2 848 -6.54219674 1.03473673 -1.45903075
VERTEX2 849 -6.53432455 1.02998304 -0.53734786
VERTEX2 850 -6.14895627 0.95348213 -0.18436513
VERTEX2 851 -5.50219990 0.80464940 -0.27731517
VERTEX2 852 -4.86834465 0.62049301 -0.26345464
VERTEX2 853 -4.25858038 0.46014321 -0.29209993
VERTEX2 854 -3.66388983 0.27525281 -0.29093760
VERTEX2 855 -3.05253833 0.10445783 -0.29347059
VERTEX2 856 -2.42745169 -0.10330502 -0.33262100
VERTEX2 857 -1.81109611 -0.31116105 -0.34071203
VERTEX2 858 -1.20738791 -0.54813757 -0.39367819
VERTEX2 859 -0.73108613 -0.74041190 -0.39932069
VERTEX2 860 -0.71496550 -0.73701779 0.45681870
VERTEX2 861 -0.67516757 -0.61751562 1.37649056
VERTEX2 862 -0.51877264 0.04042715 1.31805038
VERTEX2 863 -0.34665549 0.67974010 1.28666604
VERTEX2 864 -0.15129826 1.28070593 1.28528465
VERTEX2 865 -0.00205306 1.89205535 1.34370221
VERTEX2 866 0.14588678 2.47761931 1.34324971
VERTEX2 867 0.18483068 2.65429966 1.52540830
VERTEX2 868 0.16951044 2.68290460 2.55356676
VERTEX2 869 0.16225849 2.68388102 -2.74540550
VERTEX2 870 0.17524931 2.68841846 -1.73994080
VERTEX2 871 0.17106378 2.69231032 -0.76045865
VERTEX2 872 0.17094303 2.69245804 -0.07123920
VERTEX2 873 0.17808406 2.68889183 -0.64049060
VERTEX2 874 0.17565739 2.69183633 -1.19499584
VERTEX2 875 0.17166400 2.70664836 -1.77665223
VERTEX2 876 -0.01604515 2.18602554 -1.93162172
VERTEX2 877 -0.23248017 1.68095472 -2.01390873
VERTEX2 878 -0.30281803 1.50243941 -1.62685417
VERTEX2 879 -0.28243095 0.88240898 -1.57347138
VERTEX2 880 -0.30053314 0.45644964 -1.68347934
VERTEX2 881 -0.29262830 0.52812537 -1.67594257
VERTEX2 882 -0.41980129 -0.08141547 -1.91892455
VERTEX2 883 -0.69737568 -0.63829437 -2.10629733
VERTEX2 884 -0.88657638 -0.94305725 -2.17076134
VERTEX2 885 -0.88500354 -0.91382278 -1.58279869
VERTEX2 886 -0.89744554 -0.89961422 -0.55333254
VERTEX2 887 -0.90564933 -0.89556489 0.46944480
VERTEX2 888 -0.88853043 -0.86541559 1.46456827
VERTEX2 889 -0.89934041 -0.82587488 2.37241394
VERTEX2 890 -1.23900227 -0.63739853 2.65037514
VERTEX2 891 -1.79437604 -0.32439188 2.58284628
VERTEX2 892 -2.34351459 0.04218937 2.54991646
VERTEX2 893 -2.91458315 0.38304690 2.79014145
VERTEX2 894 -3.55391155 0.52828994 3.01514602
VERTEX2 895 -4.18068323 0.50272007 -2.96512333
VERTEX2 896 -4.19763237 0.49926962 -2.48493831
VERTEX2 897 -4.50216481 0.07739568 -2.21143604
VERTEX2 898 -4.85205619 -0.39420461 -2.19411419
VERTEX2 899 -5.13269745 -0.76951401 -2.25975838
VERTEX2 900 -5.54425940 -1.27759365 -2.26016746
VERTEX2 901 -5.91052282 -1.69060964 -2.32217192
VERTEX2 902 -6.32588202 -2.15489064 -2.29436226
VERTEX2 903 -6.63668924 -2.50996077 -2.33636009
VERTEX2 904 -6.63423713 -2.50675192 -1.62776334
VERTEX2 905 -6.62779231 -2.98343395 -1.57033390
VERTEX2 906 -6.60190409 -3.53833345 -1.50253598
VERTEX2 907 -6.55322765 -4.09603149 -1.50882072
VERTEX2 908 -6.51046860 -4.71309817 -1.48309002
VERTEX2 909 -6.45304887 -5.32161212 -1.50010200
VERTEX2 910 -6.47983435 -5.44365699 -1.86842249
VERTEX2 911 -6.63894990 -6.00598026 -1.80665901
VERTEX2 912 -6.75834664 -6.55578810 -1.79330598
VERTEX2 913 -6.86854955 -7.08393312 -1.78464816
VERTEX2 914 -6.99227582 -7.65850377 -1.80755208
VERTEX2 915 -7.11271140 -8.15428719 -1.84348846
VERTEX2 916 -7.05100003 -8.38766149 -1.29425678
VERTEX2 917 -6.91235063 -9.02840565 -1.54816253
VERTEX2 918 -6.93094489 -9.53954514 -1.62330758
VERTEX2 919 -6.96240154 -10.15665706 -1.66623791
VERTEX2 920 -7.02455215 -10.76489019 -1.68337094
VERTEX2 921 -7.09521891 -11.37463067 -1.73618691
VERTEX2 922 -7.19511807 -11.97575372 -1.76271767
VERTEX2 923 -7.31303347 -12.54308429 -1.82563407
VERTEX2 924 -7.43984605 -13.02783085 -1.80896889
VERTEX2 925 -7.44298967 -13.01301864 -1.30417003
VERTEX2 926 -7.28243227 -13.56446436 -1.28794579
VERTEX2 927 -7.11484590 -14.14443725 -1.31123494
VERTEX2 928 -6.95603913 -14.73982145 -1.32015381
VERTEX2 929 -6.80368791 -15.33356864 -1.32053662
VERTEX2 930 -6.65122945 -15.96481853 -1.40276854
VERTEX2 931 -6.55990304 -16.59091387 -1.48268334
VERTEX2 932 -6.50854458 -17.21735291 -1.54185232
VERTEX2 933 -6.49984121 -17.82880952 -1.60620513
VERTEX2 934 -6.51025666 -18.30317598 -1.61545110
VERTEX2 935 -6.50956050 -18.30613545 -0.93077053
VERTEX2 936 -6.50199582 -18.30869475 0.01565752
VERTEX2 937 -5.96519245 -18.27752962 0.07804694
VERTEX2 938 -5.37320317 -18.28693635 -0.09591810
VERTEX2 939 -4.75395442 -18.34001766 -0.06835059
VERTEX2 940 -4.14760469 -18.40829828 -0.15438736
VERTEX2 941 -3.54717294 -18.51686445 -0.20816714
VERTEX2 942 -3.03246033 -18.62643394 -0.20375755
VERTEX2 943 -2.42718553 -18.75337429 -0.11549163
VERTEX2 944 -1.81941883 -18.82980562 -0.17217175
VERTEX2 945 -1.21241226 -18.94994226 -0.22718879
VERTEX2 946 -1.05183984 -18.98919090 -0.16274130
VERTEX2 947 -0.65425771 -18.92395615 0.16543896
VERTEX2 948 -0.09772506 -18.83158326 0.14626043
VERTEX2 949 0.49790979 -18.79158000 -0.00982178
VERTEX2 950 1.12147365 -18.82152324 -0.24982837
VERTEX2 951 1.71872334 -18.98732241 -0.32232746
VERTEX2 952 2.31326098 -19.15578366 -0.07172937
VERTEX2 953 2.93314290 -19.18185403 0.00842065
VERTEX2 954 3.56489481 -19.17034323 0.00114678
VERTEX2 955 4.15669347 -19.21114480 -0.15939326
VERTEX2 956 4.69573718 -19.28223301 -0.16117118
VERTEX2 957 5.21250962 -19.36991910 -0.24831388
VERTEX2 958 5.66078871 -19.47161953 -0.27447466
VERTEX2 959 6.06776176 -19.57618692 -0.34086372
VERTEX2 960 6.64986873 -19.72966217 -0.26089825
VERTEX2 961 7.22449267 -19.89432681 -0.28792066
VERTEX2 962 7.83527142 -20.01378427 -0.22236424
VERTEX2 963 8.44630763 -20.08618057 -0.03585643
VERTEX2 964 9.06254369 -20.11983291 -0.09992270
VERTEX2 965 9.67429690 -20.19074706 -0.10700112
VERTEX2 966 10.10072429 -20.24228544 -0.16634202
VERTEX2 967 10.12494343 -20.23709435 0.68628487
VERTEX2 968 10.12824086 -20.23389640 1.58218118
VERTEX2 969 10.12991477 -20.25148606 1.64123719
VERTEX2 970 10.13201654 -20.26924120 1.63914122
VERTEX2 971 10.10909228 -19.94298945 1.63953762
VERTEX2 972 10.06576204 -19.36370386 1.64544522
VERTEX2 973 10.13938690 -18.78527158 1.36095336
VERTEX2 974 10.27273998 -18.18527578 1.39315524
VERTEX2 975 10.37785966 -17.58261786 1.39818378
VERTEX2 976 10.47593554 -16.97766365 1.41157788
VERTEX2 977 10.60242119 -16.36256172 1.38554107
VERTEX2 978 10.71422519 -15.75368425 1.43171021
VERTEX2 979 10.81981966 -15.14872726 1.41957344
VERTEX2 980 10.90844420 -14.54692656 1.46659595
VERTEX2 981 10.98809238 -13.95574632 1.47355031
VERTEX2 982 11.03641511 -13.43126916 1.51853237
VERTEX2 983 11.07692133 -12.83690581 1.51517903
VERTEX2 984 11.09523414 -12.24503293 1.57254825
VERTEX2 985 11.09729914 -11.65221936 1.59280226
VERTEX2 986 11.07334825 -11.03580821 1.62907656
VERTEX2 987 11.05172039 -10.42088700 1.59228714
VERTEX2 988 11.04549495 -9.80253905 1.60555697
VERTEX2 989 11.02223242 -9.19319266 1.61279741
VERTEX2 990 11.00681542 -8.58304598 1.60171653
VERTEX2 991 10.98364892 -7.97281453 1.62647262
VERTEX2 992 10.97106678 -7.39050434 1.59379398
VERTEX2 993 10.94958335 -6.77874688 1.62643645
VERTEX2 994 10.92596991 -6.19771821 1.61636472
VERTEX2 995 10.88872649 -5.62988560 1.66390635
VERTEX2 996 10.82444413 -5.04706248 1.69127063
VERTEX2 997 10.77371458 -4.42568267 1.62708545
VERTEX2 998 10.75050245 -4.04635090 1.64914247
VERTEX2 999 10.78724596 -4.07530203 2.36808217
VERTEX2 1000 10.33445393 -3.73395646 2.51707286
VERTEX2 1001 9.90487458 -3.35462278 2.19645806
VERTEX2 1002 9.54648164 -2.90827062 2.28928498
VERTEX2 1003 9.20431811 -2.43593771 2.10978528
VERTEX2 1004 8.85727459 -1.90469689 2.16790012
VERTEX2 1005 8.49882008 -1.41936820 2.23037863
VERTEX2 1006 8.09797060 -0.94994658 2.30775473
VERTEX2 1007 7.68032791 -0.53172414 2.39936182
VERTEX2 1008 7.44228003 -0.32104428 2.55879188
VERTEX2 1009 7.34658500 -0.30799512 3.03177716
VERTEX2 1010 6.78023698 -0.26089557 3.08428406
VERTEX2 1011 6.16557312 -0.23096647 3.04091022
VERTEX2 1012 5.55732378 -0.17690443 3.08251953
VERTEX2 1013 4.92209102 -0.18856109 -3.08609013
VERTEX2 1014 4.31039366 -0.14914951 3.02131499
VERTEX2 1015 3.68668893 -0.11819091 3.10534692
VERTEX2 1016 2.92490433 -0.09054540 3.11216944
VERTEX2 1017 2.34069384 -0.08406242 3.05466963
VERTEX2 1018 1.78339974 -0.02870634 3.06165490
VERTEX2 1019 1.18950542 -0.01084627 3.12086241
VERTEX2 1020 0.57522922 0.01847125 3.10660377
VERTEX2 1021 -0.04288268 0.04061977 3.06621178
VERTEX2 1022 -0.09291493 0.04421687 3.05917904
VERTEX2 1023 -0.08294230 0.04413531 -3.13718815
VERTEX2 1024 -0.70693356 0.04457448 -3.11067859
VERTEX2 1025 -1.33309873 0.00674538 -3.09295532
VERTEX2 1026 -1.48153561 -0.00002260 -3.08559050
VERTEX2 1027 -1.45130198 0.01527096 -2.16697046
VERTEX2 1028 -1.46235671 -0.15531519 -1.60219836
VERTEX2 1029 -1.48198935 -0.72654770 -1.62325316
VERTEX2 1030 -1.53544295 -1.34778648 -1.70210864
VERTEX2 1031 -1.63644834 -1.99331211 -1.75480339
VERTEX2 1032 -1.75435795 -2.63836895 -1.74932984
VERTEX2 1033 -1.88444890 -3.28248545 -1.79311098
VERTEX2 1034 -1.92590019 -3.45603851 -2.00532694
VERTEX2 1035 -1.92488722 -3.45517275 -2.62132986
VERTEX2 1036 -1.89126490 -3.46957251 3.09418587
VERTEX2 1037 -2.23162742 -3.35115562 2.85769568
VERTEX2 1038 -2.84216296 -3.24883888 2.95041689
VERTEX2 1039 -3.48147176 -3.10126318 2.92021945
VERTEX2 1040 -3.46186257 -3.10103233 -2.72964263
VERTEX2 1041 -3.43927495 -3.10308723 -1.70738197
VERTEX2 1042 -3.43963991 -3.13920901 -0.71436457
VERTEX2 1043 -3.40286544 -3.16982788 0.26006578
VERTEX2 1044 -3.41968731 -3.19195109 1.25879466
VERTEX2 1045 -3.42546447 -3.20694490 1.14558278
VERTEX2 1046 -3.43907302 -3.22770569 0.76130593
VERTEX2 1047 -3.45988530 -3.23830322 0.20711554
VERTEX2 1048 -3.09054538 -3.28556124 -0.10472351
VERTEX2 1049 -2.43731564 -3.34385855 -0.08684192
VERTEX2 1050 -1.78447431 -3.37372628 -0.01031868
VERTEX2 1051 -1.11560896 -3.40577478 -0.08268151
VERTEX2 1052 -0.47858085 -3.44302996 -0.02319847
VERTEX2 1053 -0.04924491 -3.46546961 -0.06942335
VERTEX2 1054 2.05057496 -3.30773415 0.88781385
VERTEX2 1055 2.05049738 -3.30702223 1.98313290
VERTEX2 1056 2.07966301 -3.32953224 3.01991133
VERTEX2 1057 2.13445269 -3.31585924 -2.25444031
VERTEX2 1058 6.74900426 -18.14001095 -0.05374883
VERTEX2 1059 7.33517409 -18.19273897 -0.13127825
VERTEX2 1060 7.97201578 -18.27840523 -0.12345274
VERTEX2 1061 8.42354237 -18.34813319 -0.24247634
VERTEX2 1062 13.97723876 -25.41538469 -1.62861393
VERTEX2 1063 -10.77593424 -15.60620339 0.59351394
VERTEX2 1064 -10.48317264 -15.50681886 0.33068250
VERTEX2 1065 -9.91684756 -15.26614070 0.45456334
VERTEX2 1066 -9.37975608 -15.02333394 0.40013698
VERTEX2 1067 -9.35753032 -15.00894337 0.83822290
VERTEX2 1068 -8.88373075 -13.53561651 1.75617296
VERTEX2 1069 12.70389942 -16.14248953 -2.29042712
VERTEX2 1070 12.71004922 -16.13673298 -2.82772957
VERTEX2 1071 12.11189342 -16.25285068 -2.95262689
VERTEX2 1072 11.54113446 -16.35318738 -3.01914663
VERTEX2 1073 11.36462755 -12.26577956 0.24650912
VERTEX2 1074 11.86588151 -12.16329617 0.21314605
VERTEX2 1075 12.41349362 -12.04870707 0.23065430
VERTEX2 1076 12.42666941 -12.04524839 0.64218733
VERTEX2 1077 12.42824386 -12.03394773 1.46100643
VERTEX2 1078 12.44077038 -11.37815924 1.51059254
VERTEX2 1079 12.46030203 -10.75864046 1.57729433
VERTEX2 1080 -3.81101236 -6.82906785 -2.54618339
VERTEX2 1081 -4.28286870 -7.06761158 -2.66242742
VERTEX2 1082 -4.47519663 -7.16950910 -2.37216960
VERTEX2 1083 -4.47717162 -7.12200249 -1.30957300
VERTEX2 1084 -4.50101934 -7.10776268 -0.31380329
VERTEX2 1085 -4.63083055 -7.13911164 0.73109448
VERTEX2 1086 -4.27883324 -6.64569791 0.96597183
VERTEX2 1087 -3.91007752 -6.13290552 0.95673124
VERTEX2 1088 -3.56113970 -5.61484292 0.94278685
VERTEX2 1089 -3.50921654 -5.54443262 0.84750065
VERTEX2 1090 -3.49769650 -5.53339456 0.23337027
VERTEX2 1091 -2.96302027 -5.48849684 0.05694367
VERTEX2 1092 -2.34678145 -5.45813050 0.04211576
VERTEX2 1093 -1.78022736 -5.44705970 -0.02262751
VERTEX2 1094 -1.76812299 -5.45803282 -0.42737713
VERTEX2 1095 -1.73797628 -5.48349782 -1.01796970
VERTEX2 1096 -1.73871438 -5.48058912 -1.59003673
VERTEX2 1097 -1.81379615 -5.80341159 -1.80598443
VERTEX2 1098 -1.97686749 -6.39969187 -1.86321505
VERTEX2 1099 -2.17173239 -6.95961420 -1.96023372
VERTEX2 1100 -2.17634353 -6.97197800 -1.59747671
VERTEX2 1101 -2.11532770 -7.22394083 -1.33183556
VERTEX2 1102 -2.11546878 -7.22589171 -1.72583492
VERTEX2 1103 -2.22973162 -7.82478046 -1.75943413
VERTEX2 1104 -2.35417270 -8.45024537 -1.78692590
VERTEX2 1105 -2.49568634 -9.06236256 -1.80459575
VERTEX2 1106 -2.61017573 -9.52901999 -1.82957987
VERTEX2 1107 -2.61082570 -9.52309920 -1.57281261
VERTEX2 1108 -2.56951705 -10.13485288 -1.56455321
VERTEX2 1109 -2.60999192 -10.75815367 -1.66802655
VERTEX2 1110 -2.67218227 -11.34584814 -1.71711550
VERTEX2 1111 -2.82722884 -11.85822078 -1.81789024
VERTEX2 1112 -2.85012424 -12.41743115 -1.47114181
VERTEX2 1113 -2.80407806 -13.03588710 -1.56631823
VERTEX2 1114 -2.80050796 -13.63244350 -1.54912080
VERTEX2 1115 -2.78524777 -14.19547495 -1.56515570
VERTEX2 1116 -2.75960372 -14.82351427 -1.52875281
VERTEX2 1117 -2.75564770 -14.90111172 -1.65634700
VERTEX2 1118 -2.74523040 -14.88063126 -2.26317977
VERTEX2 1119 -2.72398428 -14.86520456 -2.69453954
VERTEX2 1120 -3.27180169 -15.07880624 -2.75795378
VERTEX2 1121 -3.44439294 -15.14407822 -2.87627491
VERTEX2 1122 -3.43917267 -15.14572851 2.85706840
VERTEX2 1123 -3.99332794 -14.97393175 2.87401509
VERTEX2 1124 -4.55282749 -14.85880707 2.97282449
VERTEX2 1125 -5.18796789 -14.74800946 2.98576652
VERTEX2 1126 -5.27728465 -14.73588428 -2.95893391
VERTEX2 1127 -5.27544228 -14.73776710 -1.90429141
VERTEX2 1128 -5.27740227 -14.74837523 -0.91936064
VERTEX2 1129 -5.26897968 -14.75291388 0.09373675
VERTEX2 1130 -4.70618113 -14.68283078 0.10724377
VERTEX2 1131 -3.95391301 -14.79418742 -0.32486080
VERTEX2 1132 -3.36023680 -14.99724354 -0.34461349
VERTEX2 1133 -2.82917717 -15.21110966 -0.38333067
VERTEX2 1134 -2.59337491 -15.30662863 -0.48033643
VERTEX2 1135 -2.59147697 -15.30846432 -1.03639277
VERTEX2 1136 -2.59860651 -15.32378640 -1.59836608
VERTEX2 1137 -2.65208270 -15.64429364 -1.78270818
VERTEX2 1138 -2.80485920 -16.29750532 -1.79912922
VERTEX2 1139 -2.92020950 -16.80312391 -1.87217223
VERTEX2 1140 -2.91137608 -16.78129184 -2.35063962
VERTEX2 1141 -2.88686750 -16.75697060 -2.89837849
VERTEX2 1142 -3.24963984 -16.71707428 3.02023314
VERTEX2 1143 -3.84709112 -16.67558958 3.10950594
VERTEX2 1144 -4.42722562 -16.64617931 3.07879267
VERTEX2 1145 -5.00510998 -16.60537524 3.05324569
VERTEX2 1146 -5.58081104 -16.55278157 3.07292769
VERTEX2 1147 -6.15909633 -16.54718733 -3.13760205
VERTEX2 1148 -6.73515318 -16.54891801 -3.12760406
VERTEX2 1149 -6.77509943 -16.55045954 -2.62943179
VERTEX2 1150 -6.86809004 -16.65550250 -1.81924406
VERTEX2 1151 -6.86483061 -16.67306632 -0.81615303
VERTEX2 1152 -6.84641361 -16.67323975 0.23618527
VERTEX2 1153 -6.83314514 -16.66714271 1.24823557
VERTEX2 1154 -6.89289071 -16.35645036 1.79389496
VERTEX2 1155 -7.02760373 -15.73959906 1.74435435
VERTEX2 1156 -7.12654498 -15.14132637 1.75419268
VERTEX2 1157 -7.25469615 -14.57770229 1.86507238
VERTEX2 1158 -7.38212652 -13.98307562 1.73626308
VERTEX2 1159 -7.44261943 -13.39251371 1.64155720
VERTEX2 1160 -7.46550942 -12.76363819 1.50419124
VERTEX2 1161 -7.36678199 -12.13732582 1.41404403
VERTEX2 1162 -7.27599085 -11.51110978 1.47184012
VERTEX2 1163 -7.21380911 -10.87524811 1.46618977
VERTEX2 1164 -7.16521981 -10.24195637 1.55178302
VERTEX2 1165 -7.15551838 -9.69584562 1.52934470
VERTEX2 1166 -7.15794853 -9.68409037 2.01916229
VERTEX2 1167 -7.11537860 -9.67353988 2.95743341
VERTEX2 1168 -7.07829396 -9.65852849 -2.42074796
VERTEX2 1169 -7.08149313 -9.70430124 -1.59871142
VERTEX2 1170 -7.08806723 -10.28074088 -1.59179555
VERTEX2 1171 -7.08404638 -10.90559498 -1.55977771
VERTEX2 1172 -7.08456097 -11.50013057 -1.62254018
VERTEX2 1173 -7.11028951 -12.12187698 -1.61371067
VERTEX2 1174 -7.15013638 -12.74770550 -1.68278007
VERTEX2 1175 -7.23245411 -13.35947422 -1.71648596
VERTEX2 1176 -7.32636861 -13.98076311 -1.75976382
VERTEX2 1177 -7.44229560 -14.59038589 -1.75733523
VERTEX2 1178 -7.56786868 -15.19645502 -1.80426465
VERTEX2 1179 -7.69971241 -15.79454779 -1.77463114
VERTEX2 1180 -7.75062322 -16.04124479 -1.78134400
VERTEX2 1181 -7.74882759 -16.02745886 -0.95281571
VERTEX2 1182 -7.69722921 -16.04006815 -0.24017851
VERTEX2 1183 -7.08597384 -16.18187154 -0.21460962
VERTEX2 1184 -6.45538756 -16.28947432 -0.14483299
VERTEX2 1185 -5.82968119 -16.39256199 -0.17690907
VERTEX2 1186 -5.20036716 -16.48012190 -0.11056446
VERTEX2 1187 -4.54865543 -16.55799826 -0.14754972
VERTEX2 1188 -3.92690466 -16.64009194 -0.12928165
VERTEX2 1189 -3.23247226 -16.74489328 -0.10751230
VERTEX2 1190 -2.87057102 -16.78470310 -0.09939940
VERTEX2 1191 -2.80939632 -16.78263999 0.82122348
VERTEX2 1192 -2.80501584 -16.70561619 1.61920429
VERTEX2 1193 -2.80526939 -16.11388958 1.48741713
VERTEX2 1194 -2.77124228 -15.54586302 1.52973794
VERTEX2 1195 -2.75056389 -14.92943896 1.58243715
VERTEX2 1196 -2.75253150 -14.31412956 1.41034041
VERTEX2 1197 -2.65854506 -13.70563330 1.42207533
VERTEX2 1198 -2.59771981 -13.08707228 1.68176761
VERTEX2 1199 -2.62353092 -12.48742781 1.46796206
VERTEX2 1200 -2.57767223 -11.87391712 1.53799974
VERTEX2 1201 -2.56371734 -11.27239769 1.59488513
VERTEX2 1202 -2.58461387 -10.66996175 1.61887552
VERTEX2 1203 -2.62500936 -10.10168777 1.53019992
VERTEX2 1204 -2.52524169 -9.52306303 1.38485628
VERTEX2 1205 -2.43158637 -8.97353180 1.41562931
VERTEX2 1206 -2.36151187 -8.39867393 1.47820414
VERTEX2 1207 -2.24163949 -7.79941647 1.39359697
VERTEX2 1208 -2.14740080 -7.18811523 1.45977275
VERTEX2 1209 -2.07895715 -6.58175502 1.45922231
VERTEX2 1210 -2.03282835 -5.98108490 1.48129097
VERTEX2 1211 -1.93145567 -5.37446476 1.40901528
VERTEX2 1212 -1.84121335 -4.76706356 1.45932028
VERTEX2 1213 -1.79789419 -4.15312634 1.53262499
VERTEX2 1214 -1.74519007 -3.42693355 1.30955587
VERTEX2 1215 -1.60693798 -2.85242013 1.36803325
VERTEX2 1216 -1.57759299 -2.29809108 1.58430888
VERTEX2 1217 -1.56491983 -1.71504578 1.56403284
VERTEX2 1218 -1.56897999 -1.12594463 1.51338970
VERTEX2 1219 -1.53817546 -0.47564881 1.54398770
VERTEX2 1220 -1.54912261 0.11135156 1.63472570
VERTEX2 1221 -1.54852366 0.10954013 1.18197270
VERTEX2 1222 -1.53884718 0.11955643 0.58466570
VERTEX2 1223 -1.52710438 0.12271761 0.02503870
VERTEX2 1224 -0.95058463 0.04806401 -0.15786930
VERTEX2 1225 -0.33205192 -0.04645055 -0.14410530
VERTEX2 1226 -0.22666751 -0.06185315 -0.16083630
VERTEX2 1227 -0.22666751 -0.06185315 -0.16149830
