VERTEX2 0 0.00003252 -0.00000066 -0.00000203
VERTEX2 1 0.00003250 -0.00000066 -0.00064404
VERTEX2 2 0.00003248 -0.00000066 -0.00118204
VERTEX2 3 0.01103432 -0.00097567 -0.00356404
VERTEX2 4 0.64104085 -0.01120209 -0.00744604
VERTEX2 5 0.69604852 -0.01171769 -0.09872804
VERTEX2 6 0.70030162 -0.01543702 -0.89600004
VERTEX2 7 0.69398893 0.00421147 -1.51153704
VERTEX2 8 0.69929583 0.02669221 -2.12507105
VERTEX2 9 0.71614711 0.04112118 -2.76314105
VERTEX2 10 0.72901361 0.04321854 2.90551326
VERTEX2 11 0.73323618 0.04053549 2.23123425
VERTEX2 12 0.73321890 0.04154393 1.58176025
VERTEX2 13 0.73878509 0.05906899 0.92226225
VERTEX2 14 0.75969062 0.07374914 0.31402325
VERTEX2 15 0.76860401 0.07435606 -0.21090476
VERTEX2 16 1.06252593 0.01415002 -0.22959676
VERTEX2 17 1.66367927 -0.13311796 -0.26082476
VERTEX2 18 2.28703305 -0.29648432 -0.27100176
VERTEX2 19 2.91432855 -0.49425946 -0.31957776
VERTEX2 20 3.50365130 -0.68613068 -0.31485868
VERTEX2 21 4.10452298 -0.84036969 -0.20442151
VERTEX2 22 4.70482067 -0.98404385 -0.18782731
VERTEX2 23 5.32531924 -1.03184978 -0.08100685
VERTEX2 24 5.94006565 -1.10650881 -0.13841932
VERTEX2 25 6.55770686 -1.17795632 -0.13579916
VERTEX2 26 7.15491381 -1.28029797 -0.17704608
VERTEX2 27 7.75862899 -1.37403960 -0.16182945
VERTEX2 28 8.32849727 -1.47499605 -0.16681322
VERTEX2 29 8.69562519 -1.53337985 -0.13656704
VERTEX2 30 8.69623498 -1.53353988 -0.66984517
VERTEX2 31 8.80145454 -1.67721237 -0.93896382
VERTEX2 32 9.16952358 -2.20353705 -0.95791750
VERTEX2 33 9.54090151 -2.70917857 -0.90607269
VERTEX2 34 9.94010346 -3.19653855 -0.88388906
VERTEX2 35 10.34920826 -3.67513097 -0.84828517
VERTEX2 36 10.76525857 -4.15425964 -0.85542928
VERTEX2 37 11.03702393 -4.46149638 -0.84619793
VERTEX2 38 11.03109766 -4.45346837 -1.16517668
VERTEX2 39 11.03348792 -4.46382783 -1.33397990
VERTEX2 40 11.18126643 -5.05305497 -1.31490915
VERTEX2 41 11.33559433 -5.66742915 -1.34486359
VERTEX2 42 11.46360308 -6.24703343 -1.36539657
VERTEX2 43 11.57675814 -6.86073223 -1.40313676
VERTEX2 44 11.67429206 -7.47549202 -1.43747100
VERTEX2 45 11.74185763 -8.09664213 -1.49173451
VERTEX2 46 11.78596767 -8.71790038 -1.51013648
VERTEX2 47 11.81975290 -9.33814901 -1.55097655
VERTEX2 48 11.83057472 -9.96096208 -1.55692274
VERTEX2 49 11.83792164 -10.57945567 -1.60729266
VERTEX2 50 11.79914228 -11.16172877 -1.65150944
VERTEX2 51 11.75831640 -11.76096382 -1.67975990
VERTEX2 52 11.67628223 -12.34329917 -1.75579376
VERTEX2 53 11.59122844 -12.89951543 -1.74300520
VERTEX2 54 11.49270513 -13.40786051 -1.80477685
VERTEX2 55 11.49961903 -13.37066476 -1.79920636
VERTEX2 56 11.50092275 -13.36512913 -1.78833310
VERTEX2 57 11.37541332 -13.97996766 -1.79961085
VERTEX2 58 11.24720491 -14.58264042 -1.75344973
VERTEX2 59 11.13574412 -15.18598996 -1.77727236
VERTEX2 60 11.02346722 -15.78549694 -1.75631371
VERTEX2 61 10.90534941 -16.38497969 -1.80769034
VERTEX2 62 10.77212977 -16.93790493 -1.76753250
VERTEX2 63 10.63747878 -17.49585408 -1.80293657
VERTEX2 64 10.51877652 -18.05044244 -1.73971976
VERTEX2 65 10.40040298 -18.60343785 -1.79157887
VERTEX2 66 10.26412824 -19.18603405 -1.80030389
VERTEX2 67 10.11624447 -19.77174683 -1.79987512
VERTEX2 68 10.01577575 -20.21733534 -1.81578177
VERTEX2 69 10.01993214 -20.20286425 -1.97090043
VERTEX2 70 10.02860313 -20.18553232 -2.64569235
VERTEX2 71 10.05656665 -20.18341854 2.99444500
VERTEX2 72 10.07355191 -20.18527157 2.98486972
VERTEX2 73 10.08485639 -20.18786001 2.91981966
VERTEX2 74 10.08679952 -20.18911196 2.29766337
VERTEX2 75 10.09661081 -20.19276235 1.94510808
VERTEX2 76 10.08532790 -20.18065701 2.63859711
VERTEX2 77 10.08399270 -20.18010691 2.87139865
VERTEX2 78 9.80754058 -20.19495471 -3.07484812
VERTEX2 79 9.19506007 -20.24280812 -3.08020154
VERTEX2 80 8.56803821 -20.25089258 3.12836095
VERTEX2 81 7.94825389 -20.23390834 3.10227853
VERTEX2 82 7.37868679 -20.20836321 3.04655780
VERTEX2 83 6.82100706 -20.17152970 3.02145879
VERTEX2 84 6.28943155 -20.10024018 2.94212703
VERTEX2 85 5.77567427 -20.01001319 2.94828356
VERTEX2 86 5.18365778 -19.89859936 2.85834897
VERTEX2 87 4.74833595 -19.77314833 2.81027655
VERTEX2 88 4.39294014 -19.64621655 2.77998771
VERTEX2 89 4.41560604 -19.64689488 -3.10783616
VERTEX2 90 3.82637728 -19.65602367 -3.13929780
VERTEX2 91 3.22620794 -19.65753643 -3.09055554
VERTEX2 92 2.64228092 -19.65883879 3.07661847
VERTEX2 93 2.03117972 -19.56322780 2.97546457
VERTEX2 94 1.41802393 -19.43172112 2.93250354
VERTEX2 95 0.81196721 -19.34853465 3.07417612
VERTEX2 96 0.22241569 -19.30084832 3.09770655
VERTEX2 97 -0.34912304 -19.24141711 3.02668185
VERTEX2 98 -0.92490103 -19.14418082 2.96850515
VERTEX2 99 -1.61763312 -19.02308634 3.01530377
VERTEX2 100 -2.17139325 -18.91888057 2.96372547
VERTEX2 101 -2.76433468 -18.86557008 3.06715731
VERTEX2 102 -3.37607965 -18.78967352 2.96185160
VERTEX2 103 -3.98457633 -18.67940508 3.05826318
VERTEX2 104 -4.59300860 -18.60801530 3.02455679
VERTEX2 105 -5.20071551 -18.54841717 3.07117544
VERTEX2 106 -5.79780627 -18.48284732 3.01631910
VERTEX2 107 -6.41179184 -18.39156517 3.01241962
VERTEX2 108 -6.86452615 -18.34750176 3.07427336
VERTEX2 109 -6.90760414 -18.33706130 2.62625895
VERTEX2 110 -6.92375184 -18.32070187 2.03554494
VERTEX2 111 -6.92484795 -18.23898724 1.53025114
VERTEX2 112 -6.90836745 -17.60421211 1.58497794
VERTEX2 113 -6.93412886 -16.98175252 1.63232278
VERTEX2 114 -6.97474982 -16.36802877 1.66942706
VERTEX2 115 -7.05398223 -15.72564846 1.73005566
VERTEX2 116 -7.17914884 -14.97576765 1.77467740
VERTEX2 117 -7.32022531 -14.36971713 1.87095206
VERTEX2 118 -7.32450137 -14.35179751 1.53717042
VERTEX2 119 -7.27466506 -13.81916817 1.48473566
VERTEX2 120 -7.23058313 -13.15028567 1.57594734
VERTEX2 121 -7.25104254 -12.52447382 1.64467077
VERTEX2 122 -7.29622252 -11.94398615 1.70190477
VERTEX2 123 -7.32453821 -11.76713390 1.69010936
VERTEX2 124 -7.24243378 -11.52222082 1.26781802
VERTEX2 125 -7.03779006 -10.92033622 1.25793537
VERTEX2 126 -6.91972526 -10.29846447 1.46547414
VERTEX2 127 -6.83466916 -9.65095464 1.46512090
VERTEX2 128 -6.77339155 -9.00243973 1.50306446
VERTEX2 129 -6.70207731 -8.35673389 1.47212645
VERTEX2 130 -6.65118902 -7.71563646 1.52672471
VERTEX2 131 -6.62357989 -7.08317945 1.61736552
VERTEX2 132 -6.62529386 -6.46370400 1.56988194
VERTEX2 133 -6.59791722 -5.89406327 1.53362361
VERTEX2 134 -6.56500670 -5.29487160 1.51597072
VERTEX2 135 -6.50377087 -4.71303358 1.49030484
VERTEX2 136 -6.45315920 -4.07545091 1.51032539
VERTEX2 137 -6.38093475 -3.43834590 1.46847232
VERTEX2 138 -6.33044551 -2.80266059 1.54783966
VERTEX2 139 -6.33822579 -2.17440777 1.61178979
VERTEX2 140 -6.39076531 -1.52366891 1.64107479
VERTEX2 141 -6.41974008 -0.88711450 1.59137406
VERTEX2 142 -6.44258247 -0.24055769 1.58640038
VERTEX2 143 -6.38320146 0.39879662 1.47446692
VERTEX2 144 -6.35570480 0.76962598 1.49085635
VERTEX2 145 -6.35070367 0.78653054 0.98995694
VERTEX2 146 -6.34950987 0.79367072 0.39390248
VERTEX2 147 -6.28399328 0.79087330 -0.09508314
VERTEX2 148 -5.84129412 0.74054433 -0.13192756
VERTEX2 149 -5.18901885 0.66089948 -0.10798998
VERTEX2 150 -4.54397622 0.61005131 -0.09497011
VERTEX2 151 -3.89379089 0.57596599 -0.01060512
VERTEX2 152 -3.27573389 0.55541989 -0.07194703
VERTEX2 153 -2.65774534 0.53718030 0.02083181
VERTEX2 154 -2.04296708 0.53010047 -0.04946810
VERTEX2 155 -1.42498543 0.51030356 -0.01674876
VERTEX2 156 -0.80393156 0.50903605 0.01316598
VERTEX2 157 -0.24641299 0.50256705 -0.05234648
VERTEX2 158 -0.06922492 0.49291852 -0.03591610
VERTEX2 159 -0.07903004 0.49614265 0.90999733
VERTEX2 160 -0.07984509 0.49542205 1.90221460
VERTEX2 161 -0.08305953 0.48631161 2.83719839
VERTEX2 162 -0.07549870 0.48939881 -2.45364069
VERTEX2 163 -0.07679816 0.47928638 -1.49837822
VERTEX2 164 -0.11858611 0.53086392 -0.51216568
VERTEX2 165 0.03039287 0.51136171 -0.08046859
VERTEX2 166 0.70926072 0.46720930 -0.06676629
VERTEX2 167 1.31078255 0.41939074 -0.09700313
VERTEX2 168 1.88377661 0.37207049 -0.08583398
VERTEX2 169 2.46420560 0.30244466 -0.12362334
VERTEX2 170 3.03586041 0.23550112 -0.14508605
VERTEX2 171 3.58319647 0.13873876 -0.18422188
VERTEX2 172 4.19415390 0.03214504 -0.17094174
VERTEX2 173 4.81101171 -0.09034335 -0.19477477
VERTEX2 174 5.42360614 -0.20700325 -0.15552330
VERTEX2 175 6.02536512 -0.30006893 -0.18091975
VERTEX2 176 6.61298398 -0.42334252 -0.17184753
VERTEX2 177 7.22267298 -0.52976971 -0.19988020
VERTEX2 178 7.83381802 -0.67963454 -0.23910516
VERTEX2 179 8.21809719 -0.76241607 -0.18648833
VERTEX2 180 8.25280326 -0.77203141 -0.62982868
VERTEX2 181 8.69066898 -1.09579780 -0.68218426
VERTEX2 182 9.09704405 -1.46467061 -0.85676800
VERTEX2 183 9.44756726 -1.90155368 -0.91442139
VERTEX2 184 9.75490525 -2.39671450 -1.05799857
VERTEX2 185 10.02156637 -2.93271298 -1.14709405
VERTEX2 186 10.23590003 -3.52595571 -1.20938517
VERTEX2 187 10.43038680 -4.10113758 -1.22753075
VERTEX2 188 10.63310932 -4.69448713 -1.22789915
VERTEX2 189 10.83175179 -5.29319173 -1.24861864
VERTEX2 190 11.02641055 -5.89965120 -1.27694801
VERTEX2 191 11.21081047 -6.50540312 -1.30061440
VERTEX2 192 11.37611895 -7.10463173 -1.32857304
VERTEX2 193 11.50968663 -7.65562494 -1.38386644
VERTEX2 194 11.61982051 -8.22777099 -1.41019687
VERTEX2 195 11.71035776 -8.79589568 -1.43831416
VERTEX2 196 11.79129868 -9.42291224 -1.47806107
VERTEX2 197 11.84370088 -10.04320859 -1.50477287
VERTEX2 198 11.88371464 -10.65974309 -1.56237417
VERTEX2 199 11.87091279 -11.26060782 -1.62344735
VERTEX2 200 11.83957077 -11.85448837 -1.64521295
VERTEX2 201 11.78522853 -12.44271194 -1.70197086
VERTEX2 202 11.73570618 -12.94278232 -1.68097793
VERTEX2 203 11.65721964 -13.67195169 -1.73323737
VERTEX2 204 11.55090136 -14.24655656 -1.83480612
VERTEX2 205 11.39882477 -14.80291356 -1.84404342
VERTEX2 206 11.26099115 -15.34509760 -1.84207105
VERTEX2 207 11.11800086 -15.90729444 -1.82619062
VERTEX2 208 10.96245208 -16.50218390 -1.83582900
VERTEX2 209 10.81745297 -17.09947564 -1.79794272
VERTEX2 210 10.66839636 -17.68974144 -1.80687698
VERTEX2 211 10.53319941 -18.28363022 -1.80471152
VERTEX2 212 10.37049956 -18.86736841 -1.85772079
VERTEX2 213 10.18946031 -19.45486018 -1.87866328
VERTEX2 214 10.00335522 -20.02866683 -1.88265178
VERTEX2 215 9.89682430 -20.34686972 -1.91866470
VERTEX2 216 9.91174535 -20.32020149 -2.41822151
VERTEX2 217 9.94783112 -20.31567286 -2.96134431
VERTEX2 218 9.96618596 -20.32235054 -3.01756744
VERTEX2 219 9.41027049 -20.28858552 3.09680695
VERTEX2 220 8.81186992 -20.25524137 3.05674822
VERTEX2 221 8.18491160 -20.19813548 3.10662952
VERTEX2 222 7.57370230 -20.16390124 3.08065303
VERTEX2 223 6.96320242 -20.14240192 -3.10652410
VERTEX2 224 6.36724814 -20.14988832 -3.13246389
VERTEX2 225 5.76701641 -20.15119848 -3.08279413
VERTEX2 226 5.16755880 -20.15181000 -3.13179585
VERTEX2 227 4.53376335 -20.23323283 -2.97542209
VERTEX2 228 4.02346854 -20.22736549 2.94577417
VERTEX2 229 3.55967356 -20.18760251 3.06682470
VERTEX2 230 3.28883945 -20.17858350 3.03743986
VERTEX2 231 3.51809967 -20.19529052 3.10683802
VERTEX2 232 3.20622583 -20.05969515 2.68038180
VERTEX2 233 2.64092617 -19.80500245 2.78193187
VERTEX2 234 2.06700892 -19.58501650 2.73716545
VERTEX2 235 1.81937428 -19.48109366 2.73163325
VERTEX2 236 1.50290737 -19.48527886 3.13721493
VERTEX2 237 0.89630066 -19.50474536 -3.07593364
VERTEX2 238 0.29998133 -19.55619900 -3.10893485
VERTEX2 239 -0.29640317 -19.55791190 3.10651089
VERTEX2 240 -0.85662137 -19.44622616 2.88871569
VERTEX2 241 -1.38777125 -19.32127214 2.97433102
VERTEX2 242 -1.95600575 -19.25943709 3.01204422
VERTEX2 243 -2.54939995 -19.17996106 3.01067494
VERTEX2 244 -3.16134413 -19.13865259 3.08197388
VERTEX2 245 -3.76341979 -19.09505045 3.02828052
VERTEX2 246 -4.35414980 -19.01520964 2.95664064
VERTEX2 247 -4.94549149 -18.94010464 3.06359348
VERTEX2 248 -5.49399698 -18.92421673 3.09588117
VERTEX2 249 -5.44021944 -18.93166886 -2.99354191
VERTEX2 250 -5.43276573 -18.93142984 2.70079595
VERTEX2 251 -5.76010777 -18.59269223 2.27739688
VERTEX2 252 -6.11966180 -18.17657808 2.28683083
VERTEX2 253 -6.49609543 -17.73518749 2.27679434
VERTEX2 254 -6.86680397 -17.28158453 2.23659557
VERTEX2 255 -6.93670240 -17.19523374 2.32145380
VERTEX2 256 -6.94036278 -17.12296882 1.84109225
VERTEX2 257 -7.01045008 -16.62025266 1.72089028
VERTEX2 258 -7.09856485 -16.05522847 1.79278524
VERTEX2 259 -7.24669510 -15.46232392 1.83362883
VERTEX2 260 -7.38482810 -14.91375809 1.82564603
VERTEX2 261 -7.38283658 -14.86771476 1.51489962
VERTEX2 262 -7.32743629 -14.20467692 1.52219007
VERTEX2 263 -7.29347202 -13.57716916 1.53646789
VERTEX2 264 -7.28749461 -12.96621252 1.63468268
VERTEX2 265 -7.32879925 -12.36187093 1.65602992
VERTEX2 266 -7.29037732 -11.77331231 1.52852319
VERTEX2 267 -7.25298204 -11.02099417 1.49971467
VERTEX2 268 -7.13068102 -10.40533473 1.39013885
VERTEX2 269 -7.02211682 -9.78131205 1.42111539
VERTEX2 270 -6.96306882 -9.15122443 1.53641533
VERTEX2 271 -6.88132829 -8.52045787 1.42746562
VERTEX2 272 -6.81061665 -7.88625327 1.49442738
VERTEX2 273 -6.83874329 -7.25118749 1.70773512
VERTEX2 274 -6.92533926 -6.63321254 1.73264737
VERTEX2 275 -6.93212252 -6.02017729 1.56237071
VERTEX2 276 -6.94479796 -5.40848006 1.67798175
VERTEX2 277 -7.01063365 -4.84241687 1.65341291
VERTEX2 278 -6.98907361 -4.19655602 1.56575819
VERTEX2 279 -6.97094119 -3.55856580 1.50974401
VERTEX2 280 -6.92379512 -2.92386601 1.51128357
VERTEX2 281 -6.85383515 -2.28575538 1.41033111
VERTEX2 282 -6.75383091 -1.65203981 1.44983839
VERTEX2 283 -6.68696053 -1.01421153 1.44177311
VERTEX2 284 -6.59438578 -0.38506333 1.46878882
VERTEX2 285 -6.54820351 0.26311268 1.48851770
VERTEX2 286 -6.50084459 0.88348484 1.54072404
VERTEX2 287 -6.49963246 0.93094128 1.43475024
VERTEX2 288 -6.49482630 0.94017526 0.82213319
VERTEX2 289 -6.48219966 0.94724802 0.22474915
VERTEX2 290 -6.02723612 0.94712208 -0.00230914
VERTEX2 291 -5.39060709 0.95011312 0.01023644
VERTEX2 292 -4.78001290 0.94013559 -0.04487377
VERTEX2 293 -4.16039721 0.90465876 -0.06837239
VERTEX2 294 -3.54422901 0.86187910 -0.06810221
VERTEX2 295 -2.92692360 0.79093536 -0.18109895
VERTEX2 296 -2.31355906 0.65567792 -0.22694105
VERTEX2 297 -1.70229052 0.51324172 -0.23904733
VERTEX2 298 -1.09748383 0.36782293 -0.24077076
VERTEX2 299 -0.52889726 0.21909006 -0.18073290
VERTEX2 300 0.04914956 0.14000655 -0.13962741
VERTEX2 301 0.60320980 0.04642662 -0.19986404
VERTEX2 302 0.89700382 -0.01451072 -0.22175959
VERTEX2 303 0.87104002 -0.00966814 -0.21860103
VERTEX2 304 1.36391541 -0.12086772 -0.21001593
VERTEX2 305 1.96924303 -0.16220534 -0.02736650
VERTEX2 306 2.58856431 -0.17075013 -0.04633004
VERTEX2 307 3.21829911 -0.21654819 -0.08393508
VERTEX2 308 3.83674936 -0.27777312 -0.14043182
VERTEX2 309 4.46244634 -0.33698945 -0.04845720
VERTEX2 310 5.08028666 -0.36672082 -0.08518257
VERTEX2 311 5.35202430 -0.39201301 0.08883898
VERTEX2 312 5.33861217 -0.39923412 1.07525337
VERTEX2 313 5.34325102 -0.18895325 1.56959410
VERTEX2 314 5.32510374 0.43147066 1.60855583
VERTEX2 315 5.29855522 1.05145037 1.60343452
VERTEX2 316 5.26193934 1.69553147 1.65311550
VERTEX2 317 5.20512002 2.33613298 1.66155992
VERTEX2 318 5.11184247 2.97192617 1.75437755
VERTEX2 319 5.03602803 3.31697817 1.82409818
VERTEX2 320 5.03897657 3.32573312 2.78720518
VERTEX2 321 5.03932015 3.32581896 -2.46205494
VERTEX2 322 5.04026398 3.32753954 -1.47137953
VERTEX2 323 5.05578922 3.31175672 -0.48447499
VERTEX2 324 5.06923018 3.30686982 0.17153001
VERTEX2 325 5.08049820 3.30733587 -0.35940892
VERTEX2 326 5.10172671 3.29008654 -0.95817946
VERTEX2 327 5.10484467 3.27181221 -1.58523875
VERTEX2 328 5.06146282 2.63529075 -1.63334668
VERTEX2 329 5.01295410 2.00287236 -1.69932271
VERTEX2 330 4.92662218 1.38648528 -1.72884195
VERTEX2 331 4.83368283 0.77004109 -1.75366660
VERTEX2 332 4.71118027 0.16114559 -1.78292282
VERTEX2 333 4.67671029 0.00728124 -1.72962483
VERTEX2 334 4.71132128 0.01564307 -0.71639869
VERTEX2 335 4.77261065 0.00492771 0.23892416
VERTEX2 336 4.81700471 0.02447865 1.14615609
VERTEX2 337 4.81986571 0.04990045 2.08993145
VERTEX2 338 4.81604532 0.05246163 3.07306880
VERTEX2 339 4.82514554 0.05830002 -2.16694047
VERTEX2 340 4.82557710 0.05581933 -1.15370541
VERTEX2 341 4.93785136 -0.01142523 -0.52419528
VERTEX2 342 5.50907035 -0.31598010 -0.42398479
VERTEX2 343 6.08307731 -0.51766443 -0.29249229
VERTEX2 344 6.66778865 -0.70138636 -0.30198948
VERTEX2 345 6.90206163 -0.77111499 -0.32891914
VERTEX2 346 6.88460121 -0.76533656 -0.97478049
VERTEX2 347 6.88673883 -0.85334440 -1.53218908
VERTEX2 348 6.90246382 -1.44359666 -1.54836029
VERTEX2 349 6.89791339 -2.06283468 -1.58804119
VERTEX2 350 6.88171015 -2.85067917 -1.60712236
VERTEX2 351 6.86646137 -3.12435298 -1.63553035
VERTEX2 352 6.86448768 -3.13359813 -1.92244013
VERTEX2 353 6.85120785 -3.14976666 -2.58554478
VERTEX2 354 6.83348965 -3.15477398 3.09639636
VERTEX2 355 6.80883941 -3.15377725 2.37788681
VERTEX2 356 6.80176549 -3.14116688 1.80470922
VERTEX2 357 6.80442275 -3.12566307 1.15391582
VERTEX2 358 6.80421524 -3.12598518 0.54063708
VERTEX2 359 6.78894126 -3.13245012 -0.07121830
VERTEX2 360 6.76994016 -3.12860147 -0.24636454
VERTEX2 361 6.75783290 -3.13169830 0.67608461
VERTEX2 362 6.84356290 -2.90196377 1.21173154
VERTEX2 363 6.94711057 -2.63515454 1.20604660
VERTEX2 364 6.87904410 -2.29702427 1.82260151
VERTEX2 365 6.82465315 -2.00601868 1.32711341
VERTEX2 366 6.93232934 -1.88537663 0.77472827
VERTEX2 367 7.37841558 -1.45443137 0.77747270
VERTEX2 368 7.83715310 -1.02066485 0.72935736
VERTEX2 369 7.85670545 -0.99734101 0.47707488
VERTEX2 370 7.87855312 -0.99400829 -0.11111461
VERTEX2 371 7.88318115 -0.99646425 -0.65777171
VERTEX2 372 8.30742993 -1.34785980 -0.68555755
VERTEX2 373 8.77515186 -1.71598990 -0.68365942
VERTEX2 374 9.24896161 -2.12247614 -0.74491858
VERTEX2 375 9.58587784 -2.42772849 -0.78154980
VERTEX2 376 9.57567892 -2.42113120 -0.10445142
VERTEX2 377 9.62367012 -2.38911410 0.57311872
VERTEX2 378 10.17307941 -2.01751343 0.61987904
VERTEX2 379 10.67278231 -1.61287962 0.69674803
VERTEX2 380 11.13921083 -1.17169667 0.80755964
VERTEX2 381 11.29876652 -0.99957484 0.94843340
VERTEX2 382 11.30420854 -0.99140757 1.96962777
VERTEX2 383 11.29660758 -0.98580128 2.97702988
VERTEX2 384 11.29923605 -0.98356207 -2.32234788
VERTEX2 385 11.29871022 -0.98406687 -1.27081953
VERTEX2 386 11.39258464 -1.11573418 -1.03801107
VERTEX2 387 11.83062047 -1.54471168 -0.69699270
VERTEX2 388 12.31127186 -1.92901036 -0.69836634
VERTEX2 389 12.76130929 -2.33652187 -0.79257943
VERTEX2 390 12.79546652 -2.36949271 -0.33991097
VERTEX2 391 12.64760184 -2.35504313 0.02034024
VERTEX2 392 12.63482606 -2.35416259 1.01824001
VERTEX2 393 12.64106893 -2.30238140 2.21698089
VERTEX2 394 12.61700955 -2.28801659 -3.11514555
VERTEX2 395 12.84832194 -2.21259361 -2.79693364
VERTEX2 396 12.84758547 -2.21215153 -2.80763023
VERTEX2 397 12.83834612 -2.21240901 -2.82941833
VERTEX2 398 12.83739035 -2.21295638 -2.64744615
VERTEX2 399 12.75118654 -2.29254692 -2.36684546
VERTEX2 400 12.29007156 -2.74731993 -2.32852042
VERTEX2 401 11.83466819 -3.19015665 -2.42472615
VERTEX2 402 11.27570956 -3.51606151 -2.69684169
VERTEX2 403 10.69308238 -3.78639889 -2.73421067
VERTEX2 404 10.13211889 -4.00868860 -2.81682461
VERTEX2 405 10.12242468 -4.01377123 -2.29021228
VERTEX2 406 10.12602873 -3.98820979 -1.32401863
VERTEX2 407 10.24378974 -4.30026093 -1.19996099
VERTEX2 408 10.45028567 -4.85053219 -1.24133766
VERTEX2 409 10.53022816 -5.10814354 -1.34475274
VERTEX2 410 10.53068115 -5.08994960 -1.98100378
VERTEX2 411 10.53604844 -5.08038003 -2.57829326
VERTEX2 412 10.00951081 -5.28900815 -2.78581712
VERTEX2 413 9.39813598 -5.49225911 -2.86901674
VERTEX2 414 8.78035025 -5.68308308 -2.76901971
VERTEX2 415 7.89560615 -6.01408626 -2.76728204
VERTEX2 416 7.33665425 -6.24920131 -2.82814337
VERTEX2 417 6.76126994 -6.20340902 3.01999561
VERTEX2 418 6.04731571 -6.10906026 2.96876272
VERTEX2 419 5.75755436 -6.16091863 -2.89494534
VERTEX2 420 5.53663945 -6.24382322 -2.68710432
VERTEX2 421 5.40700037 -6.42024630 -1.74074957
VERTEX2 422 5.24453624 -6.60478310 -0.52814608
VERTEX2 423 4.98399986 -6.54777955 -0.19212718
VERTEX2 424 4.71396504 -6.49819693 -0.19704875
VERTEX2 425 5.08155921 -6.34793242 -0.17242722
VERTEX2 426 5.39981087 -6.39457908 -0.16891732
VERTEX2 427 5.75264378 -6.44941493 -0.15368904
VERTEX2 428 6.74053641 -6.56338844 -0.14808220
VERTEX2 429 7.70007528 -6.70672096 -0.17811612
VERTEX2 430 8.34833365 -6.82883069 -0.21415675
VERTEX2 431 8.63867861 -6.88157456 -0.15243260
VERTEX2 432 8.89156503 -6.98386706 -0.76179855
VERTEX2 433 8.92291880 -7.02921860 -1.41612003
VERTEX2 434 8.90611428 -7.34889658 -1.63304110
VERTEX2 435 8.89771253 -7.78160195 -1.65415874
VERTEX2 436 8.86341992 -8.19180008 -1.65666658
VERTEX2 437 8.84765794 -8.62623343 -1.64314521
VERTEX2 438 8.80359495 -9.09113504 -1.67304756
VERTEX2 439 8.80389345 -9.08990492 -2.10779322
VERTEX2 440 8.82617361 -9.07171358 -2.74935842
VERTEX2 441 8.86715374 -9.06693269 2.91334478
VERTEX2 442 8.89330396 -9.08056929 2.28551456
VERTEX2 443 8.89342357 -9.08223253 1.72007575
VERTEX2 444 8.89721182 -9.06056649 1.13003498
VERTEX2 445 8.91573414 -9.04219620 0.47346850
VERTEX2 446 8.93259324 -9.03153961 0.67579916
VERTEX2 447 8.94948953 -8.99758242 1.30880364
VERTEX2 448 9.09407558 -8.36722697 1.32657768
VERTEX2 449 9.22104683 -7.72322328 1.42828915
VERTEX2 450 9.30854636 -7.08037543 1.44234468
VERTEX2 451 9.35611448 -6.60507917 1.48530193
VERTEX2 452 9.35648810 -6.60020941 1.10776841
VERTEX2 453 9.35965405 -6.59426488 0.48621324
VERTEX2 454 9.64422430 -6.56838068 0.06467744
VERTEX2 455 10.24432177 -6.53501345 0.04423125
VERTEX2 456 10.87829887 -6.52113282 -0.02022340
VERTEX2 457 11.23458894 -6.53844329 -0.10779815
VERTEX2 458 11.23232586 -6.53735611 -0.75334419
VERTEX2 459 11.22386493 -6.50525175 -1.36120284
VERTEX2 460 11.20948797 -6.90575550 -1.61800002
VERTEX2 461 11.15063527 -7.52485638 -1.70579061
VERTEX2 462 11.07128869 -8.03705705 -1.74566625
VERTEX2 463 11.08186529 -8.01546761 -0.90497854
VERTEX2 464 11.34094987 -8.08448919 -0.22653042
VERTEX2 465 11.92936249 -8.20811866 -0.21865710
VERTEX2 466 12.48789028 -8.35058756 -0.27415263
VERTEX2 467 13.06435530 -8.52340781 -0.31746887
VERTEX2 468 13.68280992 -8.73116226 -0.35275603
VERTEX2 469 14.27887318 -8.98649926 -0.43541627
VERTEX2 470 14.73665812 -9.19416316 -0.41627059
VERTEX2 471 14.74520576 -9.19860302 -0.61569440
VERTEX2 472 14.76291312 -9.22241092 -1.24747947
VERTEX2 473 14.76456716 -9.22986374 -1.88718137
VERTEX2 474 14.76278297 -9.23218536 -2.51763972
VERTEX2 475 14.76478614 -9.23187483 -3.09124977
VERTEX2 476 14.76689415 -9.23212294 2.54091116
VERTEX2 477 14.77155279 -9.24085825 1.98155075
VERTEX2 478 14.77250376 -9.25097927 1.35467383
VERTEX2 479 14.77138522 -9.25367114 0.90051624
VERTEX2 480 14.77151583 -9.25335865 1.46270322
VERTEX2 481 14.76766568 -9.23794582 2.46497738
VERTEX2 482 14.77189190 -9.23955778 2.80119356
VERTEX2 483 14.77833642 -9.24177397 2.79584781
VERTEX2 484 14.34943516 -9.09076866 2.83140566
VERTEX2 485 13.74825862 -8.91203182 2.82916119
VERTEX2 486 13.14383105 -8.70933472 2.83877438
VERTEX2 487 12.53153971 -8.54012142 2.86715423
VERTEX2 488 11.91690270 -8.36912647 2.90339346
VERTEX2 489 11.44580505 -8.26965290 2.93394999
VERTEX2 490 11.45277926 -8.26885428 -2.86384964
VERTEX2 491 11.46274403 -8.25521380 -1.92726454
VERTEX2 492 11.45044170 -8.48077791 -1.62402003
VERTEX2 493 11.40015929 -9.08121707 -1.67894151
VERTEX2 494 11.32486826 -9.68939903 -1.73973332
VERTEX2 495 11.26994684 -10.30785373 -1.63191171
VERTEX2 496 11.24050620 -10.92881693 -1.51370182
VERTEX2 497 11.24784842 -11.54506306 -1.59946068
VERTEX2 498 11.19422472 -12.16172376 -1.70114422
VERTEX2 499 11.08006762 -12.78076694 -1.71819586
VERTEX2 500 11.15166395 -13.34952406 -1.38949875
VERTEX2 501 11.23747125 -13.92247021 -1.46216018
VERTEX2 502 11.27509579 -14.61187860 -1.54725721
VERTEX2 503 11.27915886 -15.05278163 -1.56485267
VERTEX2 504 11.28492127 -15.03537710 -0.70360484
VERTEX2 505 11.53342225 -15.05813333 -0.08070606
VERTEX2 506 12.13272254 -15.12619876 -0.23386881
VERTEX2 507 12.72185660 -15.28342950 -0.31304197
VERTEX2 508 13.29893221 -15.48299158 -0.32693092
VERTEX2 509 13.92435700 -15.70281627 -0.38329779
VERTEX2 510 14.28452907 -15.85429395 -0.39764719
VERTEX2 511 14.28205271 -15.83436247 0.47793138
VERTEX2 512 14.30190474 -15.78997262 1.67806408
VERTEX2 513 14.29732721 -15.77749573 2.63404072
VERTEX2 514 14.23040695 -15.76048060 2.85979458
VERTEX2 515 13.61741132 -15.59433185 2.86048992
VERTEX2 516 13.02948472 -15.41422677 2.87597967
VERTEX2 517 12.43520416 -15.27997115 2.90377478
VERTEX2 518 11.84124951 -15.14233487 2.92774078
VERTEX2 519 11.31857274 -15.03023286 2.91167790
VERTEX2 520 11.15084056 -14.99042477 -2.97356463
VERTEX2 521 11.17366930 -14.96414623 -1.96954643
VERTEX2 522 11.11768672 -15.35595652 -1.70572279
VERTEX2 523 11.04228741 -15.97600204 -1.71297360
VERTEX2 524 10.95370121 -16.54826701 -1.75486648
VERTEX2 525 10.86444490 -17.08764557 -1.73124093
VERTEX2 526 10.76400003 -17.65316250 -1.79021450
VERTEX2 527 10.63336046 -18.22655805 -1.82533438
VERTEX2 528 10.46944241 -18.78482515 -1.90183583
VERTEX2 529 10.27253354 -19.38543456 -1.93040650
VERTEX2 530 10.04129991 -19.98259106 -1.96084965
VERTEX2 531 9.78779800 -20.55455462 -2.04114780
VERTEX2 532 9.69828425 -20.73271663 -1.99102854
VERTEX2 533 9.69609746 -20.72291283 -0.99193838
VERTEX2 534 9.69703967 -20.72349518 -0.32544946
VERTEX2 535 9.70025541 -20.72372911 -0.32602424
VERTEX2 536 10.05774841 -20.80134600 -0.19556741
VERTEX2 537 10.66616768 -20.93931878 -0.25378482
VERTEX2 538 11.22831969 -21.09899147 -0.28110280
VERTEX2 539 11.83912254 -21.29780303 -0.34608031
VERTEX2 540 12.42953323 -21.54129131 -0.43918446
VERTEX2 541 13.01976814 -21.75969235 -0.27710578
VERTEX2 542 13.65214720 -21.89143346 -0.22158573
VERTEX2 543 13.77373895 -21.91989237 -0.25142485
VERTEX2 544 13.79335814 -21.91758155 0.38529976
VERTEX2 545 13.81441039 -21.87790032 1.45138140
VERTEX2 546 13.83335981 -21.92509457 2.27815666
VERTEX2 547 13.83978599 -21.92457763 -2.98359288
VERTEX2 548 13.85061761 -21.91741703 -2.06090917
VERTEX2 549 13.85170035 -21.90942561 -1.25451803
VERTEX2 550 13.85037994 -21.89108460 -1.73455369
VERTEX2 551 13.85721819 -21.87674834 -2.36115409
VERTEX2 552 13.87325045 -21.86849270 -2.99386838
VERTEX2 553 13.73535508 -21.81792179 2.71172822
VERTEX2 554 13.13969382 -21.54187463 2.67608205
VERTEX2 555 12.55697396 -21.27463555 2.76473844
VERTEX2 556 11.94991012 -21.06408859 2.89959684
VERTEX2 557 11.35007077 -20.90115973 2.85853329
VERTEX2 558 10.77454413 -20.75186137 2.93973990
VERTEX2 559 10.78387193 -20.75487390 2.53307905
VERTEX2 560 10.77626949 -20.74659239 2.03247080
VERTEX2 561 10.75145105 -20.72315935 2.53801021
VERTEX2 562 10.57679431 -20.72555547 -3.10131044
VERTEX2 563 10.00876420 -20.65541760 2.99028091
VERTEX2 564 9.40588041 -20.57290465 3.03924516
VERTEX2 565 8.79984602 -20.51219315 2.97588508
VERTEX2 566 8.84970215 -20.52760720 -2.53653043
VERTEX2 567 8.79350807 -20.53232248 -1.71578954
VERTEX2 568 8.74772094 -21.05909177 -1.65633758
VERTEX2 569 8.70632239 -21.63641015 -1.69622629
VERTEX2 570 8.64997815 -22.21287902 -1.69091397
VERTEX2 571 8.60410364 -22.57408153 -1.74366245
VERTEX2 572 8.60020645 -22.57740762 -1.99418363
VERTEX2 573 8.57027169 -22.64663568 -1.72572377
VERTEX2 574 8.61212256 -22.70676079 -0.80291783
VERTEX2 575 8.70780784 -22.73735378 0.17152184
VERTEX2 576 8.71817987 -22.74507477 1.19487937
VERTEX2 577 8.71108339 -22.72786978 2.16290309
VERTEX2 578 8.70016540 -22.69423982 1.79679197
VERTEX2 579 8.55949676 -22.04119421 1.81083321
VERTEX2 580 8.38296032 -21.40251703 1.88496781
VERTEX2 581 8.17504648 -20.78166698 1.92648531
VERTEX2 582 7.94075660 -20.17131182 1.96884244
VERTEX2 583 7.80484110 -19.86642386 2.04742533
VERTEX2 584 7.80037185 -19.85815359 2.88896494
VERTEX2 585 7.23511527 -19.73259786 3.00658162
VERTEX2 586 6.66232640 -19.67031691 3.10353634
VERTEX2 587 6.06683622 -19.66933234 3.12846025
VERTEX2 588 5.45990722 -19.65371854 3.13249753
VERTEX2 589 4.93136721 -19.68602941 -3.07946148
VERTEX2 590 4.39265667 -19.73524649 -3.01478499
VERTEX2 591 3.86638502 -19.81611629 -3.02025874
VERTEX2 592 3.33035825 -19.89071311 -3.02650297
VERTEX2 593 3.16164894 -19.91215674 -2.82613701
VERTEX2 594 3.17302781 -19.89967800 -1.86578468
VERTEX2 595 3.08331097 -20.50238300 -1.63859367
VERTEX2 596 3.05048860 -21.12083415 -1.66562713
VERTEX2 597 2.97788847 -21.78951471 -1.70957886
VERTEX2 598 2.88888487 -22.38878858 -1.75236103
VERTEX2 599 2.80922286 -22.76616257 -1.81920666
VERTEX2 600 2.80974541 -22.78228843 -1.01431702
VERTEX2 601 2.85549566 -22.80932162 0.00195921
VERTEX2 602 2.89657984 -22.79199169 1.01409006
VERTEX2 603 2.85868830 -22.55838662 1.78512286
VERTEX2 604 2.79044326 -21.94737853 1.54018887
VERTEX2 605 2.79166341 -21.29706008 1.62185015
VERTEX2 606 2.74398364 -20.64816706 1.66310159
VERTEX2 607 2.74913456 -20.05557142 1.58121808
VERTEX2 608 2.73229444 -19.66754692 1.62491440
VERTEX2 609 2.72815018 -19.64438396 1.95996611
VERTEX2 610 2.72573653 -19.64354423 2.88998722
VERTEX2 611 2.13589370 -19.49731058 2.89230614
VERTEX2 612 1.66886197 -19.36609321 2.89448214
VERTEX2 613 1.71009709 -19.37855271 -2.92628702
VERTEX2 614 1.72285669 -19.36891499 -1.89095054
VERTEX2 615 1.73425854 -19.85050416 -1.58752097
VERTEX2 616 1.73875746 -20.46835997 -1.63943044
VERTEX2 617 1.59513352 -21.06881984 -1.86043916
VERTEX2 618 1.41667751 -21.67459712 -1.85275989
VERTEX2 619 1.24559342 -22.24599217 -1.85634346
VERTEX2 620 1.04958615 -22.82341302 -1.95486337
VERTEX2 621 1.17892455 -22.50210248 -2.00866735
VERTEX2 622 1.29979342 -22.25432799 -2.08615755
VERTEX2 623 1.28125649 -22.27812544 -2.62829079
VERTEX2 624 1.18306842 -22.27415950 3.00655045
VERTEX2 625 1.07943152 -22.22786821 2.34216586
VERTEX2 626 1.01857425 -22.15169980 1.71852391
VERTEX2 627 1.10694741 -21.78487693 1.30315637
VERTEX2 628 1.31197761 -21.17484185 1.19909132
VERTEX2 629 1.51219648 -20.56412499 1.26681450
VERTEX2 630 1.66905451 -19.96768431 1.34814939
VERTEX2 631 1.77185197 -19.44238829 1.36479245
VERTEX2 632 1.77517566 -19.42855670 2.03132491
VERTEX2 633 1.72215703 -19.42019010 -3.12418615
VERTEX2 634 1.06999521 -19.44442606 -3.08711616
VERTEX2 635 0.43680536 -19.44948141 3.07228487
VERTEX2 636 -0.17639885 -19.42405876 3.06321254
VERTEX2 637 -0.76588138 -19.36136245 2.97327129
VERTEX2 638 -1.14052619 -19.28921123 2.94320676
VERTEX2 639 -1.73690892 -19.19638352 3.02272447
VERTEX2 640 -2.33687205 -19.09716823 2.95376898
VERTEX2 641 -2.92164159 -18.99559681 2.94427109
VERTEX2 642 -3.47843489 -18.86835120 2.89745514
VERTEX2 643 -3.96690113 -18.72974106 2.81243832
VERTEX2 644 -3.95863619 -18.72848699 -2.76195162
VERTEX2 645 -4.01849697 -18.89063955 -1.87250683
VERTEX2 646 -4.12838190 -19.51252371 -1.57983750
VERTEX2 647 -4.05702552 -20.15089231 -1.29351870
VERTEX2 648 -3.81206014 -20.75715764 -1.12918033
VERTEX2 649 -3.61752418 -21.34080818 -1.46916365
VERTEX2 650 -3.69564357 -21.97739902 -1.72851568
VERTEX2 651 -3.70815322 -22.12705039 -0.93307831
VERTEX2 652 -3.67346657 -22.14138113 0.08733873
VERTEX2 653 -3.64566290 -22.11497771 1.11295031
VERTEX2 654 -3.66197849 -21.81772960 1.62317144
VERTEX2 655 -3.68469349 -21.26410313 1.61678360
VERTEX2 656 -3.69648139 -20.66205869 1.60266811
VERTEX2 657 -3.81633954 -20.04765180 1.87681227
VERTEX2 658 -4.01524195 -19.43558216 1.86906484
VERTEX2 659 -4.13667327 -18.94568100 1.79725662
VERTEX2 660 -4.13961545 -18.93194749 2.39591870
VERTEX2 661 -4.31517238 -18.91482408 3.04781148
VERTEX2 662 -4.90615028 -18.86218422 3.11676607
VERTEX2 663 -5.49031118 -18.88252218 -3.06608229
VERTEX2 664 -5.49649274 -18.88101061 -2.54810446
VERTEX2 665 -5.51066617 -18.97651956 -1.69958398
VERTEX2 666 -5.56984279 -19.58290720 -1.66146386
VERTEX2 667 -5.61479150 -20.14715157 -1.65595696
VERTEX2 668 -5.66498927 -20.73895843 -1.62929486
VERTEX2 669 -5.69897742 -21.36265938 -1.65358108
VERTEX2 670 -5.78321075 -21.97863007 -1.71220575
VERTEX2 671 -5.82318688 -22.26839534 -1.65640647
VERTEX2 672 -5.73449673 -21.68152951 -1.74459818
VERTEX2 673 -5.67394319 -21.40850620 -1.87414114
VERTEX2 674 -5.65406004 -21.38632808 -2.52029008
VERTEX2 675 -5.61621755 -21.37713900 -3.12698862
VERTEX2 676 -5.59890187 -21.38651876 2.53481201
VERTEX2 677 -5.58900184 -21.39922122 1.92090236
VERTEX2 678 -5.56823593 -21.17349117 1.47657568
VERTEX2 679 -5.52412780 -20.58986207 1.54010280
VERTEX2 680 -5.56776499 -20.14291947 1.88650650
VERTEX2 681 -5.74107697 -19.56882915 1.85353714
VERTEX2 682 -5.93184111 -18.97937468 1.89537046
VERTEX2 683 -6.02904739 -18.70851395 2.04730439
VERTEX2 684 -5.98169307 -18.75500032 3.12577611
VERTEX2 685 -6.38317461 -18.92371685 -2.71381964
VERTEX2 686 -6.82827401 -19.06896162 -2.85809448
VERTEX2 687 -7.42026727 -19.23137189 -2.89312532
VERTEX2 688 -8.01608929 -19.36278181 -2.90492088
VERTEX2 689 -8.57791646 -19.51245171 -2.87727906
VERTEX2 690 -9.11077351 -19.69159640 -2.80313329
VERTEX2 691 -9.50351548 -19.83051392 -2.83118876
VERTEX2 692 -9.48917341 -19.82382111 -2.29706157
VERTEX2 693 -9.46645819 -19.89119501 -1.25717750
VERTEX2 694 -9.44262765 -19.95842607 -0.42212985
VERTEX2 695 -9.42377081 -19.95271011 0.37768853
VERTEX2 696 -9.41740916 -19.94838528 1.40294226
VERTEX2 697 -9.42810141 -19.98575851 1.14983466
VERTEX2 698 -9.10083740 -19.77088538 0.49491113
VERTEX2 699 -8.54183483 -19.44792740 0.60888601
VERTEX2 700 -8.03387648 -19.07698686 0.66236108
VERTEX2 701 -7.60548019 -18.70652512 0.72147261
VERTEX2 702 -7.13082018 -18.38292062 0.60625015
VERTEX2 703 -6.62336976 -18.03750725 0.64045000
VERTEX2 704 -6.13540988 -17.64673400 0.65857010
VERTEX2 705 -5.63097334 -17.21775650 0.72915085
VERTEX2 706 -5.20627305 -16.89305706 0.46033106
VERTEX2 707 -5.18149929 -16.89132776 -0.06050301
VERTEX2 708 -5.17141650 -16.89695797 -0.70025945
VERTEX2 709 -5.21070756 -16.85583140 -1.03226082
VERTEX2 710 -5.21462598 -16.84609276 -1.59410351
VERTEX2 711 -5.20450684 -16.85499065 -2.19180349
VERTEX2 712 -5.18582621 -16.84030806 -2.75304507
VERTEX2 713 -5.65753795 -16.89629316 -3.03827485
VERTEX2 714 -6.20989659 -16.87785955 3.04762146
VERTEX2 715 -6.83679474 -16.84871000 -3.13182860
VERTEX2 716 -7.47106429 -16.83465391 3.01344543
VERTEX2 717 -8.09264301 -16.77467272 3.09829933
VERTEX2 718 -8.85552117 -16.66587493 2.92302309
VERTEX2 719 -9.47295429 -16.55859215 2.99756202
VERTEX2 720 -10.08622955 -16.45419130 2.93841619
VERTEX2 721 -10.70447866 -16.34645112 3.00668417
VERTEX2 722 -10.72034493 -16.34439581 3.07343140
VERTEX2 723 -10.74215879 -16.36747568 -2.11935961
VERTEX2 724 -10.74166194 -16.41422733 -1.04999551
VERTEX2 725 -10.71247097 -16.43328186 -0.41544169
VERTEX2 726 -10.38707474 -16.42501719 0.03888287
VERTEX2 727 -9.75033610 -16.37856190 0.06968830
VERTEX2 728 -9.11055282 -16.34628837 0.07114538
VERTEX2 729 -8.47400009 -16.27775038 0.12887900
VERTEX2 730 -7.85267423 -16.17757789 0.16648374
VERTEX2 731 -7.20381828 -16.06822859 0.17887522
VERTEX2 732 -7.06015117 -16.03723145 0.62583879
VERTEX2 733 -7.05932532 -16.03853780 1.62313054
VERTEX2 734 -7.12672864 -15.48124069 1.70144551
VERTEX2 735 -7.19714021 -14.87764756 1.66960770
VERTEX2 736 -7.19825484 -14.86426621 2.26962956
VERTEX2 737 -7.19005888 -14.86519402 3.07101495
VERTEX2 738 -7.76727536 -14.83468474 3.09028306
VERTEX2 739 -8.36967034 -14.75043559 3.03288062
VERTEX2 740 -8.87074889 -14.71921166 3.09637692
VERTEX2 741 -8.84799128 -14.71855115 2.72791037
VERTEX2 742 -8.84730678 -14.71902302 2.07568553
VERTEX2 743 -8.84964873 -14.70950365 1.45941017
VERTEX2 744 -8.83916549 -14.68416214 0.92053590
VERTEX2 745 -8.81640932 -14.67167104 0.32757875
VERTEX2 746 -8.27042493 -14.67876883 -0.14684905
VERTEX2 747 -7.62009949 -14.78001971 -0.18188792
VERTEX2 748 -7.03766056 -14.91075376 -0.24999172
VERTEX2 749 -6.95139610 -14.93028613 0.17962998
VERTEX2 750 -6.94011874 -14.90834227 1.10749000
VERTEX2 751 -6.98128911 -14.63387767 1.74832620
VERTEX2 752 -7.05465022 -14.00698438 1.64523905
VERTEX2 753 -7.10829170 -13.36392679 1.70867433
VERTEX2 754 -7.13194526 -12.71820419 1.54683855
VERTEX2 755 -7.12929196 -12.08227140 1.63339913
VERTEX2 756 -7.10912923 -11.44351993 1.45523083
VERTEX2 757 -7.05038691 -10.79489519 1.56600540
VERTEX2 758 -7.08588299 -10.21046012 1.70554169
VERTEX2 759 -7.08876986 -9.65736261 1.58024118
VERTEX2 760 -7.13987928 -9.03955619 1.67114014
VERTEX2 761 -7.14260406 -8.99512221 1.82839931
VERTEX2 762 -7.20492202 -8.96876475 2.76224204
VERTEX2 763 -7.78160887 -8.90676792 3.05316501
VERTEX2 764 -8.20218602 -8.86443729 3.02443205
VERTEX2 765 -8.18707880 -8.86316409 -2.62235739
VERTEX2 766 -8.18684118 -8.86221752 -1.62654420
VERTEX2 767 -8.18271681 -8.87110088 -0.69988788
VERTEX2 768 -8.15162308 -8.87130436 0.01912532
VERTEX2 769 -7.51636075 -8.74757804 0.17449009
VERTEX2 770 -6.86266956 -8.65402825 0.10602952
VERTEX2 771 -6.76973306 -8.64161093 0.66366014
VERTEX2 772 -6.76517338 -8.62441522 1.52712725
VERTEX2 773 -6.76581485 -8.03927974 1.61157596
VERTEX2 774 -6.80091139 -7.48733181 1.63248880
VERTEX2 775 -6.80124460 -7.48611486 2.47352076
VERTEX2 776 -7.00801127 -7.46843344 3.08796971
VERTEX2 777 -7.61864555 -7.44646542 -3.13742113
VERTEX2 778 -8.22737754 -7.45467596 3.12368138
VERTEX2 779 -8.82473228 -7.45109793 3.13942791
VERTEX2 780 -9.01546664 -7.43978972 3.00630024
VERTEX2 781 -9.00016379 -7.44495008 2.42724765
VERTEX2 782 -9.13473123 -7.16966551 1.99309731
VERTEX2 783 -9.37906003 -6.59224782 1.99031776
VERTEX2 784 -9.48347298 -6.36004944 1.96675151
VERTEX2 785 -9.48517256 -6.31999804 1.40959781
VERTEX2 786 -9.47139303 -6.27453796 0.81584448
VERTEX2 787 -9.43713750 -6.23981035 0.32039619
VERTEX2 788 -9.39355844 -6.24318749 -0.31445217
VERTEX2 789 -9.38023105 -6.25395949 -0.87161279
VERTEX2 790 -9.08207018 -6.65231115 -0.94128931
VERTEX2 791 -8.68769541 -7.14058917 -0.84535628
VERTEX2 792 -8.45195962 -7.36051686 -0.14750098
VERTEX2 793 -7.87015173 -7.42760181 -0.09670452
VERTEX2 794 -7.26233826 -7.46967063 -0.01919020
VERTEX2 795 -7.29823602 -7.49512613 0.42128494
VERTEX2 796 -7.32435528 -7.50571873 1.09544237
VERTEX2 797 -7.25011763 -7.18503505 1.36420961
VERTEX2 798 -7.12387107 -6.54442154 1.42026703
VERTEX2 799 -7.05048567 -5.88348258 1.49197992
VERTEX2 800 -7.01469213 -5.21927716 1.57084897
VERTEX2 801 -7.04731882 -4.58391458 1.65710352
VERTEX2 802 -7.12315919 -3.95569644 1.71507859
VERTEX2 803 -7.12750363 -3.32323569 1.55067314
VERTEX2 804 -7.12902227 -2.69203865 1.60675607
VERTEX2 805 -7.18452827 -2.05842092 1.68318286
VERTEX2 806 -7.26598591 -1.45714816 1.72469197
VERTEX2 807 -7.30410819 -1.24803940 2.00990735
VERTEX2 808 -7.30747055 -1.24810357 2.95192590
VERTEX2 809 -7.89875115 -1.23267396 3.09440009
VERTEX2 810 -8.52161837 -1.12149401 2.95218517
VERTEX2 811 -9.12532471 -1.02052313 2.94736806
VERTEX2 812 -9.13106603 -1.01948448 -2.60844199
VERTEX2 813 -9.13033999 -1.01827201 -1.63870790
VERTEX2 814 -9.13621432 -1.01362184 -0.65213875
VERTEX2 815 -9.11881917 -1.01937883 0.26182185
VERTEX2 816 -9.09761244 -1.00791915 0.93879317
VERTEX2 817 -9.07310657 -0.99280625 0.26595915
VERTEX2 818 -8.85403521 -1.02837116 -0.22628282
VERTEX2 819 -8.26896644 -1.16208363 -0.21385305
VERTEX2 820 -7.68193840 -1.30083100 -0.25692521
VERTEX2 821 -7.14310276 -1.43887158 -0.24296675
VERTEX2 822 -7.15689673 -1.43626553 0.49099066
VERTEX2 823 -7.15021712 -1.39366445 1.37742965
VERTEX2 824 -7.04359999 -0.78519724 1.30911008
VERTEX2 825 -6.86842041 -0.19199255 1.28913223
VERTEX2 826 -6.78016266 0.43177851 1.46401506
VERTEX2 827 -6.69294140 1.04742575 1.42470660
VERTEX2 828 -6.62064915 1.67414492 1.46900146
VERTEX2 829 -6.54418924 2.27342275 1.43055308
VERTEX2 830 -6.45458113 2.87718761 1.42337187
VERTEX2 831 -6.34745912 3.44785840 1.37772158
VERTEX2 832 -6.24519431 4.00453037 1.37513325
VERTEX2 833 -6.19623869 4.25437331 1.51400864
VERTEX2 834 -6.20014189 4.26947252 2.57268410
VERTEX2 835 -6.24214168 4.27510366 -2.92984322
VERTEX2 836 -6.27152516 4.25107604 -1.98318920
VERTEX2 837 -6.26936119 4.23838529 -0.94286481
VERTEX2 838 -6.27917083 4.24461596 -0.07736593
VERTEX2 839 -6.30289566 4.25609394 -0.29424038
VERTEX2 840 -6.31056701 4.26215588 -0.85459588
VERTEX2 841 -6.30917910 4.25935961 -1.46922394
VERTEX2 842 -6.33548885 4.01144452 -1.69858777
VERTEX2 843 -6.41374365 3.44463560 -1.70007836
VERTEX2 844 -6.48832030 2.81633405 -1.70697002
VERTEX2 845 -6.58091603 2.18761510 -1.72046827
VERTEX2 846 -6.66473607 1.55500921 -1.71746123
VERTEX2 847 -6.77196758 0.92893097 -1.74278744
VERTEX2 848 -6.80060122 0.73595020 -1.26130521
VERTEX2 849 -6.80296295 0.73681237 -0.33739726
VERTEX2 850 -6.45041986 0.73751403 0.01680760
VERTEX2 851 -5.82573643 0.71957497 -0.07518802
VERTEX2 852 -5.20362586 0.66690800 -0.06034441
VERTEX2 853 -4.61127492 0.63273446 -0.08783309
VERTEX2 854 -4.02629916 0.57355944 -0.08542004
VERTEX2 855 -3.43383492 0.53153922 -0.08681599
VERTEX2 856 -2.77748161 0.45543195 -0.12770888
VERTEX2 857 -2.12224090 0.37547606 -0.13745397
VERTEX2 858 -1.47307314 0.26280590 -0.19217609
VERTEX2 859 -0.95200116 0.16631243 -0.19923550
VERTEX2 860 -0.92654236 0.17722985 0.65195242
VERTEX2 861 -0.91266072 0.28669671 1.56720411
VERTEX2 862 -0.88412020 0.94707738 1.50735629
VERTEX2 863 -0.83612922 1.59237528 1.47465508
VERTEX2 864 -0.75783558 2.20414781 1.47233161
VERTEX2 865 -0.72518071 2.81634389 1.52973534
VERTEX2 866 -0.68857657 3.40311379 1.52840922
VERTEX2 867 -0.68333362 3.56737954 1.70937698
VERTEX2 868 -0.69059311 3.57630522 2.73349212
VERTEX2 869 -0.68012732 3.57659828 -2.57103283
VERTEX2 870 -0.66091609 3.58728224 -1.57121314
VERTEX2 871 -0.64581817 3.57736688 -0.59725424
VERTEX2 872 -0.62657503 3.56389428 0.08789040
VERTEX2 873 -0.59816950 3.55488331 -0.48485894
VERTEX2 874 -0.57596643 3.53539031 -1.04467094
VERTEX2 875 -0.56920083 3.52006994 -1.63139235
VERTEX2 876 -0.68129407 2.96283302 -1.78919199
VERTEX2 877 -0.82592212 2.41939957 -1.87406772
VERTEX2 878 -0.87372873 2.21932112 -1.49134299
VERTEX2 879 -0.76416363 1.58202343 -1.44053883
VERTEX2 880 -0.72282829 1.13340074 -1.55346415
VERTEX2 881 -0.72383033 1.18334893 -1.54833688
VERTEX2 882 -0.77240650 0.54333272 -1.79510293
VERTEX2 883 -0.98070667 -0.05385028 -1.98606261
VERTEX2 884 -1.13494165 -0.38706385 -2.05325224
VERTEX2 885 -1.13490065 -0.38730224 -1.47179386
VERTEX2 886 -1.11777801 -0.40297490 -0.45296302
VERTEX2 887 -1.08980158 -0.41345273 0.55921091
VERTEX2 888 -1.08048198 -0.39314215 1.54404484
VERTEX2 889 -1.08195839 -0.38910077 2.44250554
VERTEX2 890 -1.39861347 -0.24160881 2.71619753
VERTEX2 891 -1.93831957 0.01684655 2.64566079
VERTEX2 892 -2.47511322 0.32792370 2.60988410
VERTEX2 893 -3.03092677 0.61544542 2.84593551
VERTEX2 894 -3.64405496 0.71815761 3.06676434
VERTEX2 895 -4.24169336 0.66146727 -2.91837522
VERTEX2 896 -4.24925750 0.65953987 -2.43983996
VERTEX2 897 -4.52177926 0.24444265 -2.16751610
VERTEX2 898 -4.86826071 -0.28057697 -2.15243253
VERTEX2 899 -5.15229594 -0.70346800 -2.22093679
VERTEX2 900 -5.55744059 -1.25965580 -2.22436336
VERTEX2 901 -5.92064506 -1.70980465 -2.29024392
VERTEX2 902 -6.32736338 -2.20695486 -2.26677546
VERTEX2 903 -6.63773076 -2.58916035 -2.31363204
VERTEX2 904 -6.64439958 -2.59835434 -1.62294133
VERTEX2 905 -6.62761910 -3.07809155 -1.56061954
VERTEX2 906 -6.58531905 -3.64434456 -1.48852183
VERTEX2 907 -6.51626242 -4.22288742 -1.49163835
VERTEX2 908 -6.45397638 -4.87336878 -1.46481854
VERTEX2 909 -6.37533242 -5.51772605 -1.48121053
VERTEX2 910 -6.39769363 -5.63153787 -1.84853266
VERTEX2 911 -6.53513023 -6.18120869 -1.78658337
VERTEX2 912 -6.64364273 -6.74350368 -1.77353772
VERTEX2 913 -6.74359613 -7.28393897 -1.76529236
VERTEX2 914 -6.85605611 -7.87060531 -1.78876188
VERTEX2 915 -6.96739771 -8.37691513 -1.82540148
VERTEX2 916 -6.89303426 -8.63858336 -1.27781287
VERTEX2 917 -6.73629361 -9.30094547 -1.53243292
VERTEX2 918 -6.74549540 -9.82407456 -1.60827140
VERTEX2 919 -6.76571227 -10.45236150 -1.65203118
VERTEX2 920 -6.81723151 -11.06896152 -1.67018132
VERTEX2 921 -6.87784113 -11.68614518 -1.72427368
VERTEX2 922 -6.96798398 -12.28989077 -1.75232285
VERTEX2 923 -7.07662486 -12.85468451 -1.81679313
VERTEX2 924 -7.19859699 -13.34222398 -1.80093945
VERTEX2 925 -7.19851762 -13.34238762 -1.29780341
VERTEX2 926 -7.02883491 -13.90830907 -1.28246570
VERTEX2 927 -6.85242520 -14.50278196 -1.30671484
VERTEX2 928 -6.68570009 -15.11243879 -1.31663924
VERTEX2 929 -6.52626187 -15.71924845 -1.31859637
VERTEX2 930 -6.36111949 -16.37289057 -1.40664195
VERTEX2 931 -6.26484107 -17.00905831 -1.49278869
VERTEX2 932 -6.21363794 -17.63602455 -1.55834955
VERTEX2 933 -6.20888587 -18.23739425 -1.62950655
VERTEX2 934 -6.22567657 -18.70006576 -1.64552566
VERTEX2 935 -6.22071124 -18.72689505 -0.97941026
VERTEX2 936 -6.24404802 -18.71803553 -0.01124398
VERTEX2 937 -5.69588489 -18.69782304 0.05827442
VERTEX2 938 -5.09967293 -18.71531224 -0.10734292
VERTEX2 939 -4.48054649 -18.77115813 -0.07390063
VERTEX2 940 -3.87220199 -18.84150222 -0.15949326
VERTEX2 941 -3.27221113 -18.95155406 -0.21296718
VERTEX2 942 -2.75905381 -19.06215784 -0.20836655
VERTEX2 943 -2.15512962 -19.19006973 -0.11998147
VERTEX2 944 -1.54581751 -19.26787321 -0.17666128
VERTEX2 945 -0.93885868 -19.39131351 -0.23201821
VERTEX2 946 -0.77743383 -19.43163462 -0.16791621
VERTEX2 947 -0.39160846 -19.37060756 0.16004429
VERTEX2 948 0.16049020 -19.28202714 0.14184398
VERTEX2 949 0.74325228 -19.24566840 -0.01260842
VERTEX2 950 1.35429913 -19.27700560 -0.25072082
VERTEX2 951 1.94081025 -19.44079668 -0.32176546
VERTEX2 952 2.52737391 -19.60691840 -0.06947312
VERTEX2 953 3.13792372 -19.63136288 0.01197403
VERTEX2 954 3.74239393 -19.61618982 0.00565478
VERTEX2 955 4.31282513 -19.65252714 -0.15433390
VERTEX2 956 4.84487261 -19.72034914 -0.15594177
VERTEX2 957 5.36041568 -19.80602772 -0.24286836
VERTEX2 958 5.81929722 -19.91044444 -0.26897286
VERTEX2 959 6.25419219 -20.02556641 -0.33536512
VERTEX2 960 6.83898466 -20.17909262 -0.25549651
VERTEX2 961 7.41745835 -20.34432079 -0.28263220
VERTEX2 962 8.02639284 -20.46315525 -0.21693860
VERTEX2 963 8.63095284 -20.53440359 -0.02977682
VERTEX2 964 9.23545544 -20.56686261 -0.09341800
VERTEX2 965 9.83927884 -20.63605559 -0.10004841
VERTEX2 966 10.27473904 -20.68564644 -0.15873363
VERTEX2 967 10.29704573 -20.68067238 0.69561446
VERTEX2 968 10.29769734 -20.68001106 1.59330086
VERTEX2 969 10.30100910 -20.71102232 1.65304391
VERTEX2 970 10.30412700 -20.74259188 1.65155542
VERTEX2 971 10.27657630 -20.41352857 1.65191584
VERTEX2 972 10.22487706 -19.83163246 1.65773073
VERTEX2 973 10.29036545 -19.25344868 1.37298767
VERTEX2 974 10.41425097 -18.65508445 1.40491750
VERTEX2 975 10.51042941 -18.05293301 1.40959302
VERTEX2 976 10.59982237 -17.44820185 1.42253103
VERTEX2 977 10.71627403 -16.83946962 1.39667875
VERTEX2 978 10.81822001 -16.23612132 1.44288756
VERTEX2 979 10.91397390 -15.63609462 1.43062601
VERTEX2 980 10.99283586 -15.03718173 1.47727415
VERTEX2 981 11.06296718 -14.44729692 1.48362918
VERTEX2 982 11.10306921 -13.91942456 1.52757756
VERTEX2 983 11.13639393 -13.32663529 1.52412236
VERTEX2 984 11.14766984 -12.73493399 1.58123764
VERTEX2 985 11.14279312 -12.14122550 1.60112745
VERTEX2 986 11.11155876 -11.52217739 1.63687272
VERTEX2 987 11.08297700 -10.90456236 1.59939507
VERTEX2 988 11.07031811 -10.28812143 1.61219961
VERTEX2 989 11.04180398 -9.67577407 1.61918168
VERTEX2 990 11.02159294 -9.06683841 1.60760953
VERTEX2 991 10.99327968 -8.45378776 1.63150497
VERTEX2 992 10.97637478 -7.86882303 1.59782573
VERTEX2 993 10.95079168 -7.25373568 1.62936088
VERTEX2 994 10.92391899 -6.66895118 1.61809848
VERTEX2 995 10.88408567 -6.04638268 1.66299640
VERTEX2 996 10.81694110 -5.41116774 1.68802419
VERTEX2 997 10.76649077 -4.73517078 1.62155740
VERTEX2 998 10.74314413 -4.29973900 1.64165009
VERTEX2 999 10.78585916 -4.33418581 2.35450197
VERTEX2 1000 10.34082243 -3.98435768 2.50110418
VERTEX2 1001 9.91574199 -3.59163520 2.17771018
VERTEX2 1002 9.55661193 -3.12090702 2.26890793
VERTEX2 1003 9.21354036 -2.62006259 2.08782194
VERTEX2 1004 8.87927808 -2.08051230 2.14447008
VERTEX2 1005 8.53112101 -1.58332433 2.20536214
VERTEX2 1006 8.14205738 -1.10207439 2.28123922
VERTEX2 1007 7.73700442 -0.67281446 2.37145409
VERTEX2 1008 7.50737093 -0.45746821 2.52946404
VERTEX2 1009 7.41784285 -0.44229026 3.00483016
VERTEX2 1010 6.87055880 -0.38295370 3.05976031
VERTEX2 1011 6.26772044 -0.33820808 3.01828810
VERTEX2 1012 5.67106632 -0.27100281 3.06183668
VERTEX2 1013 5.04708294 -0.26910932 -3.10447562
VERTEX2 1014 4.44632910 -0.21882292 3.00558083
VERTEX2 1015 3.83330484 -0.17831377 3.09191282
VERTEX2 1016 3.07540229 -0.14039426 3.10025927
VERTEX2 1017 2.50031688 -0.12680363 3.04488884
VERTEX2 1018 1.95192010 -0.06655411 3.05382599
VERTEX2 1019 1.36714204 -0.04401339 3.11521541
VERTEX2 1020 0.76191265 -0.01130462 3.10297953
VERTEX2 1021 0.15092123 0.01357193 3.06420771
VERTEX2 1022 0.10734441 0.01682595 3.05869603
VERTEX2 1023 0.12482381 0.01669663 -3.13590602
VERTEX2 1024 -0.49148469 0.01710110 -3.10777629
VERTEX2 1025 -1.10894067 -0.02125423 -3.08841726
VERTEX2 1026 -1.25913998 -0.02871809 -3.07948759
VERTEX2 1027 -1.23153466 -0.01445481 -2.15662209
VERTEX2 1028 -1.24019952 -0.17223265 -1.58895569
VERTEX2 1029 -1.25233067 -0.73048718 -1.60874089
VERTEX2 1030 -1.29651058 -1.35763694 -1.69144501
VERTEX2 1031 -1.39044794 -2.00804122 -1.74786099
VERTEX2 1032 -1.50365029 -2.65790620 -1.74597712
VERTEX2 1033 -1.63117010 -3.30591013 -1.79352287
VERTEX2 1034 -1.67203615 -3.47678590 -2.01053435
VERTEX2 1035 -1.66407401 -3.47001031 -2.63544569
VERTEX2 1036 -1.60811131 -3.49519125 3.07173082
VERTEX2 1037 -1.92249728 -3.37808792 2.83003018
VERTEX2 1038 -2.50599081 -3.26384457 2.91861891
VERTEX2 1039 -3.11659389 -3.10240450 2.88477669
VERTEX2 1040 -3.06299580 -3.10391137 -2.77395242
VERTEX2 1041 -3.00696914 -3.11190649 -1.76520720
VERTEX2 1042 -3.00947284 -3.14622713 -0.78530440
VERTEX2 1043 -2.96092938 -3.19337882 0.17645131
VERTEX2 1044 -2.96386548 -3.19683705 1.16208547
VERTEX2 1045 -2.94166238 -3.15163524 1.06384423
VERTEX2 1046 -2.92677112 -3.13177782 0.70270686
VERTEX2 1047 -2.94801794 -3.14110863 0.17770043
VERTEX2 1048 -2.63595911 -3.18967236 -0.11357865
VERTEX2 1049 -2.03459611 -3.24483368 -0.08360334
VERTEX2 1050 -1.42849654 -3.26662190 0.00615240
VERTEX2 1051 -0.77544316 -3.28528781 -0.06982336
VERTEX2 1052 -0.15348723 -3.31205225 -0.01388331
VERTEX2 1053 0.26056781 -3.32914718 -0.06365208
VERTEX2 1054 0.27770001 -3.32931777 0.71024860
VERTEX2 1055 0.28175259 -3.28534006 1.79174299
VERTEX2 1056 0.27698272 -3.27969835 2.81546206
VERTEX2 1057 0.31209570 -3.27842852 -2.47428941
VERTEX2 1058 0.33780892 -3.23707051 -1.54980078
VERTEX2 1059 0.33031378 -3.77215970 -1.63005972
VERTEX2 1060 0.29449236 -4.35977094 -1.62464679
VERTEX2 1061 0.26111371 -4.76119740 -1.74665991
VERTEX2 1062 0.26921071 -4.74299326 -2.29887829
VERTEX2 1063 0.36692594 -4.66227008 -2.88390109
VERTEX2 1064 0.25568730 -4.66126275 -3.14118447
VERTEX2 1065 -0.16479675 -4.69363821 -3.01306433
VERTEX2 1066 -0.56016873 -4.73500869 -3.06389466
VERTEX2 1067 -0.39566226 -4.69209608 -2.62128838
VERTEX2 1068 -0.33085530 -4.62169829 -1.93472503
VERTEX2 1069 -0.33425341 -4.64788033 -1.75760872
VERTEX2 1070 -0.33378688 -4.64614726 -2.28501500
VERTEX2 1071 -0.65825514 -4.94707752 -2.40645960
VERTEX2 1072 -0.96304061 -5.22143646 -2.47025057
VERTEX2 1073 -0.78812346 -5.17116332 -2.97144662
VERTEX2 1074 -1.82236437 -5.30289632 -3.03198433
VERTEX2 1075 -2.90086339 -5.41743292 -3.04213194
VERTEX2 1076 -3.05035094 -5.43465622 -2.65479173
VERTEX2 1077 -3.05997278 -5.46541325 -1.87617705
VERTEX2 1078 -3.20069867 -6.09571101 -1.84018092
VERTEX2 1079 -3.34800959 -6.68440440 -1.78707080
VERTEX2 1080 -3.34861865 -6.68705326 -2.29129912
VERTEX2 1081 -3.79286696 -7.07675460 -2.42399400
VERTEX2 1082 -4.00313759 -7.26228070 -2.15551413
VERTEX2 1083 -4.01519947 -7.21273066 -1.14930107
VERTEX2 1084 -4.08617076 -7.18204965 -0.20640881
VERTEX2 1085 -4.08101174 -7.18066282 0.79684920
VERTEX2 1086 -3.74640415 -6.63934996 1.03508974
VERTEX2 1087 -3.39774214 -6.07575851 1.02822507
VERTEX2 1088 -3.07112824 -5.50663933 1.01666261
VERTEX2 1089 -3.02131376 -5.42743889 0.92152305
VERTEX2 1090 -3.01101354 -5.41599670 0.30701259
VERTEX2 1091 -2.48076980 -5.33185410 0.13049540
VERTEX2 1092 -1.86824711 -5.25627783 0.11562293
VERTEX2 1093 -1.30383373 -5.20362319 0.05082977
VERTEX2 1094 -1.28784258 -5.21612470 -0.35568101
VERTEX2 1095 -1.25287925 -5.24162062 -0.94854014
VERTEX2 1096 -1.25269629 -5.24220224 -1.52282686
VERTEX2 1097 -1.30632727 -5.57215424 -1.74012102
VERTEX2 1098 -1.43020609 -6.18054303 -1.79837722
VERTEX2 1099 -1.59677013 -6.77976358 -1.89743897
VERTEX2 1100 -1.60847099 -6.81846817 -1.53894236
VERTEX2 1101 -1.53060765 -7.07462640 -1.27690078
VERTEX2 1102 -1.53081271 -7.09565405 -1.67531609
VERTEX2 1103 -1.62053882 -7.72991711 -1.71154139
VERTEX2 1104 -1.72125330 -8.39128412 -1.74151089
VERTEX2 1105 -1.84232913 -9.04083536 -1.76150054
VERTEX2 1106 -1.94403223 -9.54419602 -1.78875270
VERTEX2 1107 -1.94213987 -9.55706766 -1.53564834
VERTEX2 1108 -1.87793119 -10.18770819 -1.52960297
VERTEX2 1109 -1.89963003 -10.84655097 -1.63554072
VERTEX2 1110 -1.94707541 -11.47208864 -1.68672556
VERTEX2 1111 -2.09895291 -12.03075188 -1.78970708
VERTEX2 1112 -2.10832422 -12.62320639 -1.44559938
VERTEX2 1113 -2.04618502 -13.26736442 -1.54234289
VERTEX2 1114 -2.02953886 -13.89422439 -1.52634132
VERTEX2 1115 -2.00192159 -14.48629563 -1.54344020
VERTEX2 1116 -1.96325231 -15.14253606 -1.50797728
VERTEX2 1117 -1.95568272 -15.24825528 -1.63666708
VERTEX2 1118 -1.96780096 -15.27319179 -2.24578412
VERTEX2 1119 -1.99396163 -15.29286718 -2.67892900
VERTEX2 1120 -2.59186791 -15.53740372 -2.74334018
VERTEX2 1121 -2.82223270 -15.62856020 -2.86278775
VERTEX2 1122 -2.85653463 -15.61812260 2.86837125
VERTEX2 1123 -3.45129528 -15.44264668 2.88452456
VERTEX2 1124 -4.05481726 -15.32640773 2.98229818
VERTEX2 1125 -4.72667714 -15.21644781 2.99491970
VERTEX2 1126 -4.85064150 -15.20079461 -2.95011098
VERTEX2 1127 -4.86310697 -15.18828821 -1.89677993
VERTEX2 1128 -4.86566418 -15.20266687 -0.91308006
VERTEX2 1129 -4.87927286 -15.19550549 0.09875841
VERTEX2 1130 -4.33800612 -15.12538462 0.11160569
VERTEX2 1131 -3.60538358 -15.23103258 -0.32179708
VERTEX2 1132 -3.02904528 -15.42669972 -0.34217023
VERTEX2 1133 -2.51453665 -15.63292056 -0.38150278
VERTEX2 1134 -2.29544042 -15.72131742 -0.47918339
VERTEX2 1135 -2.30269018 -15.71442136 -1.03662690
VERTEX2 1136 -2.31495175 -15.74072844 -1.60000254
VERTEX2 1137 -2.36937679 -16.06241610 -1.78471247
VERTEX2 1138 -2.52494529 -16.71762417 -1.80134357
VERTEX2 1139 -2.64275970 -17.22798555 -1.87530451
VERTEX2 1140 -2.63843210 -17.21742348 -2.35595854
VERTEX2 1141 -2.62485446 -17.20411034 -2.90530971
VERTEX2 1142 -2.98582227 -17.16225045 3.01209929
VERTEX2 1143 -3.58163287 -17.11690438 3.10062526
VERTEX2 1144 -4.16048510 -17.08324902 3.06918523
VERTEX2 1145 -4.73658647 -17.03784433 3.04286286
VERTEX2 1146 -5.30995259 -16.98028882 3.06173651
VERTEX2 1147 -5.88810935 -16.96907345 3.13341741
VERTEX2 1148 -6.47296200 -16.97056538 3.12649705
VERTEX2 1149 -6.52232898 -16.97155687 -2.69583668
VERTEX2 1150 -6.60267570 -17.06010706 -1.78164806
VERTEX2 1151 -6.60014641 -17.07148967 -0.78463152
VERTEX2 1152 -6.56579210 -17.07070279 0.26118782
VERTEX2 1153 -6.53603606 -17.05607961 1.26707835
VERTEX2 1154 -6.60277843 -16.74026408 1.80971046
VERTEX2 1155 -6.74794571 -16.11848279 1.75900038
VERTEX2 1156 -6.85626309 -15.51349811 1.76783919
VERTEX2 1157 -6.99297283 -14.94470224 1.87754976
VERTEX2 1158 -7.12858410 -14.34442380 1.74757987
VERTEX2 1159 -7.19797303 -13.74087652 1.65412659
VERTEX2 1160 -7.23016184 -13.09949073 1.51803100
VERTEX2 1161 -7.13960126 -12.46227054 1.42900829
VERTEX2 1162 -7.05777213 -11.82495228 1.48780264
VERTEX2 1163 -7.00572338 -11.17755046 1.48303179
VERTEX2 1164 -6.96847107 -10.53254195 1.56926354
VERTEX2 1165 -6.96768591 -9.99505265 1.54602900
VERTEX2 1166 -6.96753309 -9.99580223 2.03415876
VERTEX2 1167 -6.91039841 -9.98081014 2.96978460
VERTEX2 1168 -6.86128252 -9.96029400 -2.41094401
VERTEX2 1169 -6.86450043 -10.01356636 -1.59008561
VERTEX2 1170 -6.86513182 -10.60174474 -1.58378363
VERTEX2 1171 -6.85477043 -11.23867710 -1.55248858
VERTEX2 1172 -6.84977315 -11.83966111 -1.61543360
VERTEX2 1173 -6.87038357 -12.46530170 -1.60679562
VERTEX2 1174 -6.90518558 -13.09612750 -1.67608434
VERTEX2 1175 -6.98283223 -13.71168271 -1.71005800
VERTEX2 1176 -7.07291946 -14.33682519 -1.75392196
VERTEX2 1177 -7.18552987 -14.95010194 -1.75206308
VERTEX2 1178 -7.30981513 -15.56741247 -1.79947502
VERTEX2 1179 -7.44082278 -16.17661503 -1.77033079
VERTEX2 1180 -7.49276579 -16.43404654 -1.77751525
VERTEX2 1181 -7.49250255 -16.43221188 -0.95011027
VERTEX2 1182 -7.43534312 -16.44604860 -0.23856216
VERTEX2 1183 -6.81871430 -16.58854372 -0.21346012
VERTEX2 1184 -6.18339216 -16.69672488 -0.14414764
VERTEX2 1185 -5.55306345 -16.80064219 -0.17662139
VERTEX2 1186 -4.91941161 -16.88913838 -0.11066188
VERTEX2 1187 -4.26359641 -16.96812262 -0.14797465
VERTEX2 1188 -3.63429632 -17.05190970 -0.13008236
VERTEX2 1189 -2.81664490 -17.17383852 -0.10801642
VERTEX2 1190 -2.32935902 -17.22722275 -0.09969468
VERTEX2 1191 -2.13761498 -17.22074552 0.82163624
VERTEX2 1192 -2.13141532 -17.11254722 1.62045183
VERTEX2 1193 -2.12702667 -16.49762648 1.48947209
VERTEX2 1194 -2.08753439 -15.89895487 1.53285915
VERTEX2 1195 -2.06218518 -15.25546325 1.58707078
VERTEX2 1196 -2.06132769 -14.61812544 1.41738005
VERTEX2 1197 -1.95954459 -13.96494933 1.43130056
VERTEX2 1198 -1.89530606 -13.30905517 1.69500858
VERTEX2 1199 -1.92416078 -12.69175068 1.48552217
VERTEX2 1200 -1.88076613 -12.03751960 1.55906239
VERTEX2 1201 -1.87345843 -11.40309127 1.61980354
VERTEX2 1202 -1.90462878 -10.77695167 1.64782295
VERTEX2 1203 -1.95765714 -10.19130818 1.56417481
VERTEX2 1204 -1.86576121 -9.56079596 1.42489717
VERTEX2 1205 -1.78335724 -8.96029056 1.46092647
VERTEX2 1206 -1.73109475 -8.34202715 1.52950170
VERTEX2 1207 -1.62945788 -7.68855197 1.45167638
VERTEX2 1208 -1.56105352 -7.03048123 1.52477303
VERTEX2 1209 -1.52462467 -6.38487516 1.53079194
VERTEX2 1210 -1.51561793 -5.75211153 1.56001925
VERTEX2 1211 -1.46269306 -5.16699741 1.48246877
VERTEX2 1212 -1.41739195 -4.58276367 1.52781048
VERTEX2 1213 -1.41438406 -3.99859973 1.59606505
VERTEX2 1214 -1.40547640 -3.30140570 1.36669287
VERTEX2 1215 -1.30240585 -2.74277657 1.42055018
VERTEX2 1216 -1.30072589 -2.21881144 1.63088258
VERTEX2 1217 -1.31272897 -1.66807439 1.60655850
VERTEX2 1218 -1.34207967 -1.07850084 1.55588950
VERTEX2 1219 -1.33893208 -0.42748343 1.58648750
VERTEX2 1220 -1.37480923 0.15852178 1.67722550
VERTEX2 1221 -1.37413386 0.15673742 1.22447250
VERTEX2 1222 -1.36489169 0.16715581 0.62716550
VERTEX2 1223 -1.35329380 0.17081305 0.06753850
VERTEX2 1224 -0.77412283 0.12072146 -0.11536950
VERTEX2 1225 -0.15213300 0.05257185 -0.10160550
VERTEX2 1226 -0.04618934 0.04166063 -0.11833650
VERTEX2 1227 -0.04618934 0.04166063 -0.11899850
