1 19 166 0.00294764 10 
2 19 172 0.00312079 10 
3 25 172 0.00317767 10 
4 25 178 0.00329006 10 
5 32 178 0.00329423 10 
6 32 183 0.00338910 10 
7 44 189 0.00350266 10 
8 44 195 0.00361547 10 
9 50 195 0.00360865 10 
10 50 201 0.00372047 10 
11 50 203 0.00376965 10 
12 61 203 0.00376456 10 
13 61 209 0.00388187 10 
14 67 209 0.00387569 10 
15 67 220 0.00407853 10 
16 81 220 0.00407012 10 
17 81 226 0.00418539 10 
18 87 226 0.00417519 10 
19 87 231 0.00427568 10 
20 94 231 0.00426809 10 
21 226 231 0.00426391 10 
22 94 241 0.00447073 10 
23 101 241 0.00447512 10 
24 101 247 0.00457950 10 
25 107 247 0.00459024 10 
26 107 254 0.00471182 10 
27 114 254 0.00472665 10 
28 107 256 0.00477027 10 
29 114 256 0.00477350 10 
30 107 258 0.00481329 10 
31 114 258 0.00481008 10 
32 121 266 0.00497839 10 
33 126 266 0.00499958 10 
34 126 272 0.00513811 10 
35 132 272 0.00514518 10 
36 132 278 0.00525913 10 
37 138 278 0.00529478 10 
38 138 284 0.17246181 10 
39 151 284 0.02466136 10 
40 31 286 0.00555507 10 
41 151 291 0.00563639 10 
42 151 297 0.00575060 10 
43 157 297 0.00577893 10 
44 163 297 0.00579381 10 
45 166 297 0.00580321 10 
46 19 305 0.00596376 10 
47 157 305 0.00598391 10 
48 163 305 0.00601952 10 
49 166 305 0.00600351 10 
50 172 305 0.00597641 10 
51 19 315 0.00541510 9 
52 25 315 0.00607761 10 
53 172 315 0.00625579 10 
54 210 320 0.00623701 10 
55 172 328 0.00643935 10 
56 19 337 0.00525236 8 
57 25 337 0.00663944 10 
58 172 337 0.00681832 10 
59 19 342 0.00671311 10 
60 25 342 0.00677422 10 
61 172 342 0.00348606 5 
62 178 342 0.00680178 10 
63 25 367 0.00428981 6 
64 32 367 0.00431915 6 
65 178 367 0.00434635 6 
66 183 367 0.00507243 7 
67 25 374 0.00742586 10 
68 32 374 0.00750044 10 
69 178 374 0.00538636 7 
70 183 374 0.00670752 9 
71 32 382 0.00606895 8 
72 183 382 0.00767466 10 
73 32 387 0.00771335 10 
74 183 387 0.00458025 6 
75 189 400 0.00804490 10 
76 118 404 0.00820322 10 
77 189 414 0.00841864 10 
78 44 437 0.00884194 10 
79 195 437 0.00904883 10 
80 77 453 0.00918684 10 
81 44 454 0.00924075 10 
82 189 454 0.00732074 8 
83 44 467 0.00655517 7 
84 50 467 0.00656884 7 
85 195 467 0.00275380 3 
86 467 481 0.00379903 4 
87 195 484 0.00482190 5 
88 44 494 0.00491903 5 
89 50 494 0.00594123 6 
90 195 494 0.00492389 5 
91 201 494 0.00595324 6 
92 50 500 0.00820634 8 
93 201 500 0.00807012 8 
94 203 500 0.00604484 6 
95 61 508 0.01041677 10 
96 203 508 0.01057508 10 
97 209 508 0.00824074 8 
98 61 522 0.01063925 10 
99 203 522 0.01093781 10 
100 209 522 0.00977103 9 
101 61 528 0.00853378 8 
102 67 528 0.01078867 10 
103 81 528 0.01109111 10 
104 209 528 0.01108866 10 
105 220 528 0.01108806 10 
106 67 532 0.00643916 6 
107 81 532 0.01094186 10 
108 220 532 0.01112813 10 
109 67 556 0.01138535 10 
110 67 564 0.01153059 10 
111 81 564 0.00941697 8 
112 220 564 0.01149428 10 
113 67 567 0.01164220 10 
114 81 567 0.01192470 10 
115 220 567 0.01192972 10 
116 352 567 0.01078982 9 
117 67 570 0.01183779 10 
118 81 570 0.01213663 10 
119 220 570 0.01213322 10 
120 81 575 0.01224753 10 
121 220 575 0.01225246 10 
122 237 581 0.01243856 10 
123 81 588 0.01232594 10 
124 87 588 0.01264468 10 
125 226 588 0.01265029 10 
126 87 597 0.01254857 10 
127 94 597 0.01282957 10 
128 226 597 0.01283925 10 
129 87 604 0.01267647 10 
130 94 604 0.01298795 10 
131 94 616 0.01021836 8 
132 94 632 0.01323305 10 
133 94 637 0.01336063 10 
134 101 637 0.01360961 10 
135 101 642 0.01202244 9 
136 107 642 0.01351082 10 
137 101 645 0.01356832 10 
138 107 645 0.01391192 10 
139 101 657 0.01380795 10 
140 101 663 0.01104321 8 
141 107 663 0.01384638 10 
142 114 663 0.01108529 8 
143 101 665 0.01400278 10 
144 107 665 0.01435366 10 
145 114 665 0.01434693 10 
146 107 680 0.01429106 10 
147 107 683 0.01436903 10 
148 114 683 0.01471306 10 
149 219 689 0.01456031 10 
150 107 704 0.01486479 10 
151 114 704 0.01521876 10 
152 107 714 0.01508805 10 
153 114 714 0.01535516 10 
154 374 717 0.01521863 10 
155 387 718 0.01541995 10 
156 107 730 0.01236135 8 
157 114 730 0.01551157 10 
158 121 754 0.01611115 10 
159 126 754 0.01648548 10 
160 121 759 0.01620898 10 
161 126 759 0.01659325 10 
162 126 762 0.01628813 10 
163 132 762 0.01671660 10 
164 132 778 0.00981483 6 
165 132 792 0.01687118 10 
166 132 800 0.01724325 10 
167 138 800 0.01744801 10 
168 138 806 0.01704656 10 
169 138 821 0.01381389 8 
170 138 823 0.01738461 10 
171 151 828 0.01762033 10 
172 776 841 0.01595920 9 
173 151 847 0.01787491 10 
174 151 855 0.01255844 7 
175 360 882 0.01492171 8 
176 151 895 0.01908008 10 
177 151 897 0.01747791 9 
178 138 903 0.01923694 10 
179 138 904 0.01927514 10 
180 132 907 0.01936521 10 
181 138 907 0.01979327 10 
182 132 911 0.01941895 10 
183 121 923 0.01965669 10 
184 126 923 0.02019196 10 
185 107 929 0.01992006 10 
186 114 929 0.02038854 10 
187 107 935 0.02004726 10 
188 114 935 0.02050124 10 
189 101 939 0.01796663 9 
190 107 939 0.01594426 8 
191 101 944 0.01806685 9 
192 94 947 0.02043192 10 
193 101 947 0.02089956 10 
194 87 953 0.02057283 10 
195 94 953 0.02104100 10 
196 226 953 0.02103141 10 
197 764 955 0.02126634 10 
198 81 959 0.02088120 10 
199 87 959 0.02145161 10 
200 220 959 0.02149273 10 
201 226 959 0.02146191 10 
202 284 963 0.02113101 10 
203 67 965 0.02128963 10 
204 81 965 0.02173697 10 
205 220 965 0.02175322 10 
206 61 976 0.02160307 10 
207 67 976 0.02208513 10 
208 209 976 0.02213810 10 
209 273 979 0.02181139 10 
210 50 982 0.02232708 10 
211 61 982 0.02276250 10 
212 201 982 0.02267904 10 
213 203 982 0.01376610 6 
214 44 988 0.02248395 10 
215 50 988 0.01385424 6 
216 195 988 0.01563883 7 
217 201 988 0.01105426 5 
218 44 994 0.02263539 10 
219 189 994 0.02325524 10 
220 195 994 0.02319309 10 
221 32 1003 0.02292274 10 
222 178 1003 0.02353856 10 
223 183 1003 0.01879162 8 
224 25 1008 0.02315974 10 
225 32 1008 0.02368631 10 
226 178 1008 0.02366809 10 
227 183 1008 0.02370463 10 
228 25 1010 0.02321803 10 
229 32 1010 0.02375843 10 
230 172 1010 0.02404674 10 
231 178 1010 0.02396853 10 
232 80 1011 0.02345962 10 
233 19 1016 0.02375209 10 
234 166 1016 0.02413584 10 
235 172 1016 0.01913662 8 
236 151 1026 0.02359530 10 
237 151 1029 0.02377520 10 
238 157 1029 0.02455420 10 
239 163 1029 0.02457524 10 
240 166 1029 0.01486479 6 
241 1003 1049 0.02426288 10 
242 683 1062 0.02192451 9 
243 464 1080 0.02522232 10 
244 132 1084 0.02540400 10 
245 779 1094 0.02555298 10 
246 69 1103 0.02598412 10 
247 588 1129 0.02669807 10 
248 48 1129 0.02738625 10 
249 101 1138 0.02710904 10 
250 107 1147 0.02785206 10 
251 114 1147 0.02789985 10 
252 107 1150 0.02735132 10 
253 114 1150 0.02796122 10 
254 425 1151 0.02820566 10 
255 114 1158 0.02759581 10 
256 121 1158 0.02811210 10 
257 121 1164 0.02766030 10 
258 126 1164 0.02824917 10 
259 114 1175 0.02788501 10 
260 121 1175 0.02846673 10 
261 923 1175 0.02875566 10 
262 929 1175 0.02887485 10 
263 1158 1175 0.02014735 7 
264 101 1188 0.02875096 10 
265 939 1188 0.02918871 10 
266 1138 1188 0.02925877 10 
267 1147 1188 0.02945537 10 
268 1150 1188 0.02926365 10 
269 1050 1210 0.03072232 10 
270 1061 1210 0.02995912 10 
271 1075 1210 0.03000244 10 
272 1084 1210 0.03021208 10 
273 1088 1210 0.03006261 10 
274 1093 1210 0.03004429 10 
275 1098 1210 0.02984999 10 
276 157 1217 0.02969975 10 
277 163 1217 0.02108107 7 
278 1029 1217 0.02645115 9 
279 1044 1217 0.02965921 10 
280 1050 1217 0.03030044 10 
281 1056 1217 0.03032219 10 
