1 43 47 0.00008497 2 
2 143 154 0.00059263 3 
3 19 166 0.00292769 10 
4 19 172 0.02072505 10 
5 25 172 0.00326146 10 
6 25 178 0.00323647 10 
7 32 178 0.00323967 10 
8 32 183 0.00333623 10 
9 44 189 0.00348202 10 
10 44 195 0.00358482 10 
11 50 195 0.00360235 10 
12 50 201 0.00371984 10 
13 50 203 0.00476741 10 
14 61 203 0.00379593 10 
15 61 209 0.00390978 10 
16 67 209 0.00390864 10 
17 173 214 0.00402339 10 
18 67 220 0.00414842 10 
19 81 220 0.00415718 10 
20 81 226 0.00428716 10 
21 87 226 0.00428035 10 
22 87 231 0.00437876 10 
23 94 231 0.00439096 10 
24 226 231 0.00438576 10 
25 94 241 0.00450052 10 
26 101 241 0.00461358 10 
27 101 247 0.00462343 10 
28 107 247 0.00473180 10 
29 192 252 0.00480355 10 
30 107 254 0.00485587 10 
31 114 254 0.00498656 10 
32 107 256 0.00491743 10 
33 114 256 0.00505189 10 
34 107 258 0.00495538 10 
35 114 258 0.00511849 10 
36 121 266 0.00535208 10 
37 126 266 0.00517257 10 
38 51 268 0.00526893 10 
39 126 272 0.00535528 10 
40 132 272 0.00551383 10 
41 224 276 0.00551289 10 
42 132 278 0.00557046 10 
43 138 278 0.00571641 10 
44 138 284 0.00395499 7 
45 151 284 0.00568056 10 
46 151 291 0.00578276 10 
47 151 297 0.00532500 9 
48 157 297 0.00593654 10 
49 163 297 0.00596989 10 
50 166 297 0.00613223 10 
51 19 305 0.00619313 10 
52 157 305 0.00631177 10 
53 163 305 0.00622339 10 
54 166 305 0.00636367 10 
55 172 305 0.00571079 9 
56 19 315 0.00573329 9 
57 25 315 0.00644487 10 
58 172 315 0.00590628 9 
59 172 328 0.00613766 9 
60 19 337 0.00683171 10 
61 25 337 0.00689257 10 
62 172 337 0.00707058 10 
63 235 341 0.00710946 10 
64 19 342 0.00719719 10 
65 25 342 0.00727288 10 
66 172 342 0.00354651 5 
67 178 342 0.00646258 9 
68 25 367 0.00378065 5 
69 32 367 0.00773451 10 
70 178 367 0.00474800 6 
71 183 367 0.00769953 10 
72 25 374 0.00780602 10 
73 32 374 0.00781696 10 
74 178 374 0.00544606 7 
75 183 374 0.00544546 7 
76 32 382 0.00636014 8 
77 183 382 0.00803912 10 
78 32 387 0.00812094 10 
79 183 387 0.00579963 7 
80 189 400 0.00840747 10 
81 189 414 0.00872836 10 
82 44 437 0.00917122 10 
83 195 437 0.00940282 10 
84 346 450 0.00942904 10 
85 44 454 0.00948778 10 
86 189 454 0.00758641 8 
87 44 467 0.00679825 7 
88 50 467 0.00779649 8 
89 195 467 0.00284376 3 
90 245 470 0.00998152 10 
91 195 484 0.00504200 5 
92 44 494 0.00619658 6 
93 50 494 0.00935651 9 
94 195 494 0.00725606 7 
95 201 494 0.00943133 9 
96 50 500 0.01067587 10 
97 201 500 0.01098272 10 
98 203 500 0.00874459 8 
99 61 508 0.01089046 10 
100 203 508 0.01108116 10 
101 209 508 0.00975335 9 
102 65 514 0.00758347 7 
103 61 522 0.01113817 10 
104 203 522 0.01138902 10 
105 209 522 0.01566693 10 
106 61 528 0.01131485 10 
107 67 528 0.01156172 10 
108 81 528 0.01166342 10 
109 209 528 0.01166068 10 
110 220 528 0.01169993 10 
111 492 528 0.01161480 10 
112 67 532 0.00796252 7 
113 81 532 0.01153361 10 
114 220 532 0.01174546 10 
115 67 556 0.01203856 10 
116 19 559 0.00959307 8 
117 89 563 0.01222607 10 
118 67 564 0.01226397 10 
119 81 564 0.01246624 10 
120 220 564 0.01431046 10 
121 67 567 0.01233694 10 
122 81 567 0.01262645 10 
123 220 567 0.01263218 10 
124 67 570 0.01243458 10 
125 81 570 0.01271013 10 
126 220 570 0.01279426 10 
127 81 575 0.01282868 10 
128 220 575 0.01282721 10 
129 81 588 0.01281831 10 
130 87 588 0.01312094 10 
131 226 588 0.01315854 10 
132 42 594 0.01339935 10 
133 113 596 0.01330442 10 
134 87 597 0.01686232 10 
135 94 597 0.01489317 10 
136 226 597 0.01368620 10 
137 87 604 0.01354130 10 
138 94 604 0.01382010 10 
139 328 608 0.01366836 10 
140 182 609 0.01394317 10 
141 283 613 0.01402328 10 
142 94 616 0.01115929 8 
143 150 631 0.01443521 10 
144 94 632 0.01446404 10 
145 430 633 0.01494840 10 
146 94 637 0.01471114 10 
147 101 637 0.01527870 10 
148 101 642 0.01492343 10 
149 107 642 0.01495423 10 
150 101 645 0.01500608 10 
151 107 645 0.01535163 10 
152 207 651 0.01543498 10 
153 101 657 0.01674065 10 
154 101 663 0.01085900 7 
155 107 663 0.01567669 10 
156 114 663 0.01613423 10 
157 101 665 0.01582059 10 
158 107 665 0.01619999 10 
159 114 665 0.01618935 10 
160 55 675 0.01614663 10 
161 107 680 0.01626590 10 
162 340 680 0.01673694 10 
163 107 683 0.01647110 10 
164 114 683 0.01683104 10 
165 674 699 0.01674046 10 
166 107 704 0.01691254 10 
167 114 704 0.01721910 10 
168 107 714 0.01707364 10 
169 114 714 0.01740345 10 
170 379 722 0.01769211 10 
171 107 730 0.01787750 10 
172 114 730 0.01823057 10 
173 121 754 0.01855176 10 
174 126 754 0.01890532 10 
175 121 759 0.01859319 10 
176 126 759 0.01905112 10 
177 126 762 0.01869930 10 
178 132 762 0.01912813 10 
179 470 768 0.01886576 10 
180 132 778 0.01513198 8 
181 631 785 0.01932153 10 
182 766 791 0.00956545 5 
183 132 792 0.01990946 10 
184 487 792 0.02002581 10 
185 132 800 0.01979543 10 
186 138 800 0.02028288 10 
187 138 806 0.01999769 10 
188 31 815 0.02223671 10 
189 138 821 0.02056954 10 
190 138 823 0.02121286 10 
191 151 828 0.02065485 10 
192 213 831 0.02099534 10 
193 177 833 0.02129849 10 
194 239 842 0.02119220 10 
195 151 847 0.02141891 10 
196 151 855 0.02156761 10 
197 41 871 0.02226753 10 
198 4 876 0.02245310 10 
199 257 887 0.02286449 10 
200 861 892 0.02380055 9 
201 151 895 0.02385430 10 
202 676 896 0.02297191 10 
203 151 897 0.02297860 10 
204 138 903 0.02332696 10 
205 138 904 0.02378297 10 
206 132 907 0.02342285 10 
207 138 907 0.02391961 10 
208 132 911 0.02349944 10 
209 342 912 0.02356549 10 
210 267 919 0.01903472 8 
211 121 923 0.02429819 10 
212 126 923 0.02476655 10 
213 107 929 0.02449003 10 
214 114 929 0.02886908 10 
215 699 931 0.01705483 7 
216 107 935 0.02460014 10 
217 114 935 0.02510357 10 
218 101 939 0.02477872 10 
219 107 939 0.02507679 10 
220 101 944 0.02476446 10 
221 94 947 0.02493396 10 
222 101 947 0.02542034 10 
223 87 953 0.02518337 10 
224 94 953 0.02560571 10 
225 226 953 0.02565113 10 
226 81 959 0.02546213 10 
227 87 959 0.02590398 10 
228 220 959 0.02593106 10 
229 226 959 0.03034931 10 
230 67 965 0.02565561 10 
231 81 965 0.02613263 10 
232 220 965 0.02614193 10 
233 61 976 0.02616246 10 
234 67 976 0.02663131 10 
235 209 976 0.02666009 10 
236 50 982 0.02631833 10 
237 61 982 0.02682421 10 
238 201 982 0.02700570 10 
239 203 982 0.02422643 9 
240 226 987 0.02658904 10 
241 585 987 0.02710202 10 
242 44 988 0.02934557 10 
243 50 988 0.01918280 7 
244 195 988 0.02401732 9 
245 201 988 0.01871929 7 
246 237 990 0.02712990 10 
247 44 994 0.02719933 10 
248 189 994 0.02768163 10 
249 195 994 0.02771248 10 
250 911 997 0.02730462 10 
251 687 998 0.02738829 10 
252 32 1003 0.02790818 10 
253 178 1003 0.02808739 10 
254 183 1003 0.02822855 10 
255 25 1008 0.02798256 10 
256 32 1008 0.02848445 10 
257 178 1008 0.02846007 10 
258 183 1008 0.02891950 10 
259 25 1010 0.02799911 10 
260 32 1010 0.02857695 10 
261 172 1010 0.02866754 10 
262 178 1010 0.02864340 10 
263 680 1010 0.02857007 10 
264 244 1015 0.02846544 10 
265 19 1016 0.02837792 10 
266 166 1016 0.02910287 10 
267 172 1016 0.02324912 8 
268 151 1029 0.02922720 10 
269 157 1029 0.02956625 10 
270 163 1029 0.02935703 10 
271 166 1029 0.02935949 10 
272 637 1051 0.02973609 10 
273 86 1055 0.03025882 10 
274 965 1058 0.02993334 10 
275 914 1061 0.03023194 10 
276 599 1064 0.03020362 10 
277 273 1065 0.03128165 10 
278 677 1071 0.03066838 10 
279 132 1084 0.03118520 10 
280 18 1105 0.03118036 10 
281 381 1111 0.03151489 10 
282 503 1130 0.03206451 10 
283 451 1131 0.03263011 10 
284 101 1138 0.03272323 10 
285 107 1147 0.03301041 10 
286 114 1147 0.03299465 10 
287 344 1148 0.03330980 10 
288 107 1150 0.03333807 10 
289 114 1150 0.03334806 10 
290 114 1158 0.03346504 10 
291 121 1158 0.03355866 10 
292 379 1158 0.03388800 10 
293 831 1158 0.03383134 10 
294 366 1162 0.03372557 10 
295 121 1164 0.03409983 10 
296 126 1164 0.03394316 10 
297 573 1173 0.03407691 10 
298 114 1175 0.03411681 10 
299 121 1175 0.03450517 10 
300 923 1175 0.03430762 10 
301 929 1175 0.03444431 10 
302 1158 1175 0.03435706 10 
303 101 1188 0.03463344 10 
304 939 1188 0.03461331 10 
305 1138 1188 0.03458305 10 
306 1147 1188 0.03510258 10 
307 1150 1188 0.03475096 10 
308 409 1190 0.03756191 10 
309 854 1195 0.03579074 10 
310 1183 1197 0.03585544 10 
311 523 1200 0.03542075 10 
312 1086 1203 0.04041642 10 
313 121 1204 0.03595132 10 
314 853 1205 0.03606678 10 
315 1050 1210 0.03640917 10 
316 1061 1210 0.03659470 10 
317 1075 1210 0.03708802 10 
318 1084 1210 0.03709120 10 
319 1088 1210 0.03703867 10 
320 1093 1210 0.03679540 10 
321 1098 1210 0.04146650 10 
322 211 1215 0.03711324 10 
323 890 1216 0.03770222 10 
324 157 1217 0.03756689 10 
325 163 1217 0.03743984 10 
326 1029 1217 0.03810817 10 
327 1044 1217 0.03774317 10 
328 1050 1217 0.03777738 10 
329 1056 1217 0.03770826 10 
330 820 1219 0.03784820 10 
331 610 1227 0.03844224 10 
