1 60 144 2 441.41395365 0.00000327 1 
2 19 166 0 0.41485034 0.00212223 5 
3 19 172 0 0.02820697 0.00186610 4 
4 25 172 0 0.50366199 0.00189139 4 
5 25 178 0 0.30831851 0.00200077 4 
6 32 178 0 0.01493521 0.00199381 4 
7 32 183 0 0.07055611 0.00201218 4 
8 44 189 0 0.52863102 0.00208494 4 
9 44 195 0 0.35755137 0.00216960 4 
10 50 195 0 0.00572854 0.00220234 4 
11 50 201 0 0.04110605 0.00190789 3 
12 50 203 0 0.06975183 0.00188247 3 
13 61 203 0 0.00745912 0.00190240 3 
14 61 209 0 0.37222863 0.00231629 4 
15 67 209 0 0.41032090 0.00232834 4 
16 67 220 0 0.66144083 0.00250150 4 
17 81 220 0 0.48035877 0.00286251 5 
18 81 226 0 0.05402805 0.00256946 4 
19 87 226 0 1.82553139 0.00294481 5 
20 87 231 0 0.34656585 0.00262811 4 
21 94 231 0 0.55778528 0.00256748 4 
22 226 231 0 1.44127402 0.00299133 5 
23 94 241 0 1.33132047 0.00269130 4 
24 101 241 0 0.50961029 0.00272456 4 
25 101 247 0 1.66454674 0.00276347 4 
26 107 247 0 1.80094617 0.00278937 4 
27 107 254 0 1.18346605 0.00284787 4 
28 114 254 0 0.12939160 0.00287048 4 
29 107 256 0 0.93085039 0.00299232 4 
30 114 256 0 0.24629796 0.00286525 4 
31 107 258 0 1.37911724 0.00290180 4 
32 114 258 0 1.15747212 0.00293032 4 
33 121 266 0 0.00938596 0.00300764 4 
34 126 266 0 0.44864328 0.00355579 5 
35 126 272 0 1.03992836 0.00310043 4 
36 132 272 0 0.39070916 0.00364861 5 
37 132 278 0 0.58358145 0.00317977 4 
38 138 278 0 1.06458780 0.00373518 5 
39 138 284 0 0.02201259 0.00270894 3 
40 151 284 0 0.12777228 0.00328885 4 
41 151 291 0 0.60037557 0.00332051 4 
42 151 297 0 0.07972289 0.00285642 3 
43 157 297 0 1.04991834 0.00345024 4 
44 166 297 0 1.30507781 0.00339515 4 
45 19 305 0 0.16044642 0.00357419 4 
46 157 305 0 0.58687353 0.00361200 4 
47 163 305 0 7.56485476 0.00484927 6 
48 166 305 0 0.37495035 0.00360765 4 
49 172 305 0 0.01886255 0.00361383 4 
50 19 315 0 0.48455906 0.00310676 3 
51 25 315 0 0.02281386 0.00311494 3 
52 172 315 0 0.05679715 0.00373416 4 
53 172 328 0 0.12482725 0.00325770 3 
54 19 337 0 6.63404991 0.00466513 5 
55 25 337 0 0.96522419 0.00400205 4 
56 172 337 0 0.57611560 0.00334618 3 
57 19 342 0 0.00494520 0.00338927 3 
58 25 342 0 0.12855172 0.00407191 4 
59 172 342 0 0.01223902 0.00412081 4 
60 178 342 0 0.12442988 0.00418203 4 
61 213 362 2 487.15546982 0.00000357 1 
62 25 367 0 0.11414782 0.00378832 3 
63 32 367 0 0.01267433 0.00595592 6 
64 178 367 0 0.00286807 0.00375602 3 
65 183 367 0 0.06698524 0.00378494 3 
66 25 374 0 0.56424690 0.00459019 4 
67 32 374 0 0.09892849 0.00532063 5 
68 178 374 0 0.03055075 0.00458175 4 
69 183 374 0 0.05309447 0.00476958 4 
70 24 374 2 11507.49485627 0.00000324 4 
71 32 382 0 4.14688582 0.00392562 3 
72 183 382 0 1.28811506 0.00466341 4 
73 32 387 0 2.72468715 0.00473862 4 
74 183 387 0 0.18197642 0.00473543 4 
75 52 394 2 703.36031825 0.00000348 1 
76 189 414 0 7.69047346 0.00585494 5 
77 113 434 2 387.50327543 0.00000385 1 
78 44 437 0 0.00915802 0.00438204 3 
79 195 437 0 0.01161094 0.00436846 3 
80 44 454 0 0.65644164 0.00451449 3 
81 189 454 0 0.03962740 0.00542636 4 
82 44 467 0 0.12345281 0.00641646 5 
83 50 467 0 0.00895575 0.01023484 9 
84 195 467 0 0.00230988 0.00463702 3 
85 136 477 2 522.76023875 0.00000360 1 
86 195 484 0 0.09447226 0.00573682 4 
87 44 494 0 0.02880924 0.00577701 4 
88 50 494 0 0.00628832 0.00481971 3 
89 195 494 0 0.00818961 0.00685432 5 
90 201 494 0 0.00469852 0.00683204 5 
91 50 500 0 0.14406209 0.00696457 5 
92 201 500 0 0.05353930 0.00490413 3 
93 203 500 0 0.03252445 0.00488256 3 
94 61 508 0 0.99413579 0.00711702 5 
95 203 508 0 0.26947301 0.01224356 10 
96 209 508 0 0.03711473 0.00604996 4 
97 61 522 0 1.37942234 0.00613812 4 
98 203 522 0 0.12859200 0.00508773 3 
99 209 522 0 0.00542469 0.00511391 3 
100 61 528 0 0.47936102 0.00511858 3 
101 67 528 0 0.22419307 0.00626218 4 
102 81 528 0 0.23233822 0.00839292 6 
103 209 528 0 0.09444678 0.01063189 8 
104 220 528 0 0.13668760 0.00622709 4 
105 67 532 0 0.05459173 0.01179968 9 
106 81 532 0 0.11826401 0.00847905 6 
107 220 532 0 0.05648169 0.00634986 4 
108 67 556 0 0.98233216 0.00649882 4 
109 67 564 0 0.40168838 0.01234334 9 
110 81 564 0 0.02280941 0.00663681 4 
111 220 564 0 0.02684857 0.00665353 4 
112 67 567 0 2.67253169 0.00780906 5 
113 81 567 0 0.48923871 0.00913108 6 
114 220 567 0 0.21723258 0.00665403 4 
115 67 570 0 2.40706627 0.00909374 6 
116 81 570 0 0.15671702 0.00902269 6 
117 220 570 0 0.13379867 0.00674648 4 
118 81 575 0 2.76594993 0.00791875 5 
119 220 575 0 1.08612706 0.01035408 7 
120 508 579 2 1386.65836165 0.00000257 1 
121 81 588 0 0.01497138 0.00569991 3 
122 87 588 0 0.47937722 0.00817779 5 
123 226 588 0 0.43156268 0.00691172 4 
124 87 597 0 2.27648751 0.00957828 6 
125 94 597 0 0.38888315 0.00700280 4 
126 226 597 0 0.55079633 0.00831598 5 
127 87 604 0 0.47149562 0.00710646 4 
128 94 604 0 0.01542269 0.00841192 5 
129 94 616 0 0.01350372 0.01233921 8 
130 94 632 0 2.16969694 0.00879439 5 
131 94 637 0 4.44236402 0.01006215 6 
132 101 637 0 0.19098383 0.00752708 4 
133 101 642 0 0.11555601 0.00889778 5 
134 107 642 0 0.04025021 0.01409674 9 
135 101 645 0 6.69527511 0.00762084 4 
136 107 645 0 1.54205090 0.00752095 4 
137 101 657 0 0.73548669 0.01676408 10 
138 101 663 0 0.04971914 0.01673737 10 
139 107 663 0 0.01781179 0.00914201 5 
140 114 663 0 0.00275957 0.00915496 5 
141 101 665 0 1.55112265 0.01347802 8 
142 107 665 0 0.47667103 0.00780217 4 
143 114 665 0 0.13329170 0.00649254 3 
144 107 680 0 1.48615866 0.00937099 5 
145 107 683 0 0.94462224 0.00802493 4 
146 114 683 0 0.32178225 0.00952057 5 
147 107 704 0 0.34268109 0.01261702 7 
148 114 704 0 0.07528002 0.01552220 9 
149 107 714 0 1.79639085 0.01132630 6 
150 114 714 0 0.02860377 0.01439002 8 
151 619 726 2 376.08373328 0.00000373 1 
152 107 730 0 0.19656714 0.01014237 5 
153 114 730 0 0.03540690 0.00855480 4 
154 121 754 0 0.33113739 0.00873779 4 
155 126 754 0 0.07673382 0.01513674 8 
156 121 759 0 2.33625684 0.01194183 6 
157 126 759 0 0.22329988 0.01212366 6 
158 126 762 0 7.08482229 0.01036349 5 
159 132 762 0 2.00372045 0.01535942 8 
160 666 763 2 2478.38363978 0.00000380 1 
161 132 778 0 0.06999780 0.00902898 4 
162 572 783 2 1034.38741286 0.00000395 1 
163 132 792 0 1.26802734 0.00928728 4 
164 132 800 0 3.35686460 0.00916256 4 
165 138 800 0 0.14494330 0.01256202 6 
166 138 806 0 0.25140739 0.00750820 3 
167 138 821 0 0.40674396 0.01106144 5 
168 138 823 0 6.54725682 0.00938656 4 
169 191 827 2 2142.24802286 0.00000369 1 
170 151 828 0 3.12108818 0.00948341 4 
171 131 835 2 557.38863458 0.00000371 1 
172 23 837 2 158.97089201 0.00000349 1 
173 151 847 0 0.08724621 0.01142819 5 
174 151 855 0 0.11494457 0.01508768 7 
175 24 862 2 5148.43315118 0.00000437 1 
176 151 895 0 2.80701437 0.01758145 8 
177 151 897 0 0.06118057 0.02139521 10 
178 138 903 0 0.08157811 0.01019309 4 
179 738 903 2 1295.10744863 0.00000506 4 
180 138 904 0 7.06392298 0.01398086 6 
181 132 907 0 0.71874717 0.01027336 4 
182 138 907 0 0.22077132 0.01217274 5 
183 132 911 0 0.23128175 0.01218718 5 
184 121 923 0 0.62636126 0.01435337 6 
185 126 923 0 0.07130653 0.01043811 4 
186 107 929 0 0.07225325 0.01250141 5 
187 114 929 0 0.00477553 0.01056503 4 
188 107 935 0 4.91438615 0.01647799 7 
189 114 935 0 1.40337639 0.01650094 7 
190 101 939 0 0.48567419 0.01066059 4 
191 107 939 0 0.21174614 0.01068677 4 
192 101 944 0 0.15377935 0.01270016 5 
193 94 947 0 0.23772432 0.01672590 7 
194 101 947 0 0.16826262 0.01477039 6 
195 87 953 0 0.13504795 0.01085549 4 
196 94 953 0 0.06505521 0.01487350 6 
197 226 953 0 0.08268323 0.02293307 10 
198 81 959 0 1.83528326 0.02432439 10 
199 87 959 0 1.29172246 0.01710219 7 
200 220 959 0 0.04883629 0.01100158 4 
201 226 959 0 0.12130941 0.01302187 5 
202 67 965 0 1.01368609 0.01312115 5 
203 81 965 0 0.31066014 0.01518635 6 
204 220 965 0 0.16483276 0.01925686 8 
205 787 975 2 1806.73729672 0.00000408 1 
206 61 976 0 0.16803746 0.01736389 7 
207 67 976 0 0.05676300 0.00914818 3 
208 209 976 0 0.00780965 0.01118809 4 
209 50 982 0 0.38354811 0.01132387 4 
210 61 982 0 0.27147698 0.01129634 4 
211 201 982 0 0.22200943 0.01293405 4 
212 203 982 0 0.10573284 0.02182755 9 
213 107 982 2 7814.55541432 0.00000458 9 
214 44 988 0 0.09550719 0.01143342 4 
215 50 988 0 0.05924873 0.01143441 4 
216 195 988 0 0.04319526 0.01564053 6 
217 201 988 0 0.02685916 0.01351897 5 
218 44 994 0 0.51683435 0.01782971 7 
219 189 994 0 0.29989154 0.02562309 10 
220 195 994 0 0.21957432 0.01363965 5 
221 32 1003 0 0.23901034 0.01377408 5 
222 178 1003 0 0.03356851 0.02600770 10 
223 183 1003 0 0.01433170 0.01596898 6 
224 460 1005 2 1296.49279971 0.00000562 1 
225 25 1008 0 1.23858172 0.01829798 7 
226 32 1008 0 0.53803958 0.01174642 4 
227 178 1008 0 0.34459610 0.01174286 4 
228 183 1008 0 0.22233868 0.01177838 4 
229 25 1010 0 0.60236133 0.01175199 4 
230 32 1010 0 0.30591807 0.01394578 5 
231 172 1010 0 0.10368354 0.01621722 6 
232 178 1010 0 0.19279072 0.02631555 10 
233 19 1016 0 0.44047719 0.02047262 8 
234 166 1016 0 0.20189646 0.01178089 4 
235 172 1016 0 0.07393216 0.01403439 5 
236 151 1029 0 0.03533130 0.01427092 5 
237 157 1029 0 0.02672450 0.01196399 4 
238 163 1029 0 3.39703566 0.01197031 4 
239 166 1029 0 0.49353449 0.01198365 4 
240 364 1081 2 203.28969006 0.00000521 1 
241 132 1084 0 4.21993706 0.01499039 5 
242 827 1098 2 479.27489949 0.00000609 1 
243 101 1138 0 0.63021658 0.01572555 5 
244 811 1140 2 1816.94100346 0.00000574 1 
245 107 1147 0 0.73708347 0.01325723 4 
246 114 1147 0 0.03971358 0.01080362 3 
247 107 1150 0 7.45683387 0.01330680 4 
248 114 1150 0 1.00561260 0.01087091 3 
249 114 1158 0 0.16899687 0.01091868 3 
250 121 1158 0 0.69099743 0.01343802 4 
251 701 1162 2 1995.25540830 0.00000615 1 
252 121 1164 0 0.45182924 0.01597501 5 
253 126 1164 0 0.04418665 0.01350121 4 
254 114 1175 0 0.14266969 0.01373353 4 
255 121 1175 0 0.27324351 0.01363670 4 
256 923 1175 0 0.18719011 0.01371530 4 
257 929 1175 0 0.16073549 0.01370419 4 
258 1158 1175 0 0.00134797 0.01116602 3 
259 101 1188 0 0.32950319 0.01393304 4 
260 939 1188 0 0.55418798 0.01391128 4 
261 1138 1188 0 0.03006025 0.01133632 3 
262 1147 1188 0 0.04063922 0.01125613 3 
263 1150 1188 0 1.83245351 0.01381482 4 
264 9 1191 2 1495.91753079 0.00000595 1 
265 157 1196 2 1039.78287219 0.00000540 1 
266 1050 1210 0 0.00345523 0.01420212 4 
267 1061 1210 0 0.57363906 0.01679424 5 
268 1075 1210 0 0.23107861 0.01666712 5 
269 1084 1210 0 3.13555510 0.01671419 5 
270 1088 1210 0 0.59156319 0.01407327 4 
271 1093 1210 0 0.13111230 0.01937218 6 
272 1098 1210 0 0.04730346 0.01408597 4 
273 157 1217 0 0.32750279 0.01432584 4 
274 163 1217 0 0.19904338 0.01431596 4 
275 1029 1217 0 0.01250493 0.01164353 3 
276 1044 1217 0 3.98258990 0.01433736 4 
277 1050 1217 0 4.97161000 0.01701053 5 
278 633 1220 2 3015.08022281 0.00000617 1 
279 163 297 0 0.27920255 0.01520678 4 
280 189 400 0 2.09679271 0.01453897 4 
281 1056 1217 0 9.66143264 0.01721812 5 
