1 24 79 0.08733336 6 
2 108 120 0.05500789 4 
3 19 166 0.16057101 10 
4 19 172 0.10720904 7 
5 25 172 0.16255284 10 
6 25 178 0.06455973 10 
7 32 178 0.01689032 10 
8 32 183 0.00325715 10 
9 44 189 0.00342277 10 
10 44 195 0.00351153 10 
11 50 195 0.00359207 10 
12 50 201 0.00359795 10 
13 50 203 0.00362342 10 
14 61 203 0.00366221 10 
15 61 209 0.00376996 10 
16 67 209 0.00386879 10 
17 67 220 0.00397544 10 
18 81 220 0.00415869 10 
19 81 226 0.00425760 10 
20 87 226 0.00435984 10 
21 87 231 0.00427900 10 
22 94 231 0.00438889 10 
23 226 231 0.00440104 10 
24 94 241 0.00448533 10 
25 101 241 0.00460223 10 
26 101 247 0.00460114 10 
27 107 247 0.00472280 10 
28 107 254 0.00475909 10 
29 114 254 0.00486535 10 
30 107 256 0.00480145 10 
31 114 256 0.00492925 10 
32 107 258 0.00483189 10 
33 114 258 0.00496583 10 
34 121 266 0.00500970 10 
35 126 266 0.00515904 10 
36 126 272 0.00515451 10 
37 132 272 0.00527900 10 
38 132 278 0.00527521 10 
39 138 278 0.00539850 10 
40 138 284 0.00538821 10 
41 151 284 0.00551925 10 
42 171 288 0.00551976 10 
43 151 291 0.00558901 10 
44 151 297 0.00570040 10 
45 157 297 0.00584051 10 
46 163 297 0.00585827 10 
47 166 297 0.00586019 10 
48 32 297 0.00597780 10 
49 19 305 0.00616585 10 
50 157 305 0.00618411 10 
51 163 305 0.00619347 10 
52 166 305 0.00618913 10 
53 172 305 0.00618726 10 
54 85 309 0.00633346 10 
55 19 315 0.00646648 10 
56 25 315 0.00646429 10 
57 172 315 0.00633262 10 
58 172 328 0.00590192 9 
59 19 337 0.00538959 8 
60 25 337 0.00680943 10 
61 172 337 0.00697111 10 
62 19 342 0.00618148 9 
63 25 342 0.00548219 8 
64 172 342 0.00342029 5 
65 178 342 0.00694547 10 
66 25 367 0.00439489 6 
67 32 367 0.00439525 6 
68 178 367 0.00290911 4 
69 183 367 0.00517860 7 
70 25 374 0.00605158 8 
71 32 374 0.00529201 7 
72 178 374 0.00374101 5 
73 183 374 0.00527944 7 
74 138 381 0.00385824 5 
75 32 382 0.00624146 8 
76 183 382 0.00789618 10 
77 32 387 0.00794593 10 
78 183 387 0.00473393 6 
79 361 391 0.00315508 4 
80 189 400 0.00737977 9 
81 189 414 0.00854295 10 
82 387 436 0.00892519 10 
83 44 437 0.00926034 10 
84 195 437 0.00925877 10 
85 439 449 0.00267115 3 
86 44 454 0.00743769 8 
87 189 454 0.00554787 6 
88 300 455 0.00655464 7 
89 100 466 0.00974814 10 
90 115 466 0.00893674 9 
91 44 467 0.00679161 7 
92 50 467 0.00681016 7 
93 195 467 0.00385207 4 
94 97 470 0.00998775 10 
95 201 472 0.00498536 5 
96 195 484 0.00508702 5 
97 236 490 0.01056271 10 
98 44 494 0.00632869 6 
99 50 494 0.00632980 6 
100 195 494 0.00525389 5 
101 201 494 0.00528030 5 
102 50 500 0.00641219 6 
103 201 500 0.00641135 6 
104 203 500 0.00534218 5 
105 61 508 0.01104752 10 
106 203 508 0.01012407 9 
107 209 508 0.00985914 9 
108 61 522 0.01128700 10 
109 203 522 0.01034685 9 
110 209 522 0.00668556 6 
111 103 527 0.01156286 10 
112 61 528 0.00925011 8 
113 67 528 0.01041204 9 
114 81 528 0.00925497 8 
115 209 528 0.00928243 8 
116 220 528 0.00926961 8 
117 322 529 0.00820790 7 
118 67 532 0.00700943 6 
119 81 532 0.01062545 9 
120 220 532 0.00825780 7 
121 255 533 0.01217014 10 
122 356 533 0.01248045 10 
123 67 556 0.01269228 10 
124 446 561 0.00894333 7 
125 67 564 0.01296973 10 
126 81 564 0.01057549 8 
127 220 564 0.01161298 9 
128 67 567 0.01306273 10 
129 81 567 0.01335028 10 
130 220 567 0.01335562 10 
131 67 570 0.01314022 10 
132 81 570 0.01342432 10 
133 220 570 0.01344829 10 
134 541 573 0.01323769 10 
135 81 575 0.01332750 10 
136 220 575 0.01360081 10 
137 57 580 0.01366925 10 
138 81 588 0.01381953 10 
139 87 588 0.01412057 10 
140 226 588 0.01415600 10 
141 5 589 0.01425836 10 
142 493 590 0.01446057 10 
143 87 597 0.01459245 10 
144 94 597 0.01471217 10 
145 226 597 0.01461278 10 
146 87 604 0.01473593 10 
147 94 604 0.01472979 10 
148 156 606 0.01514188 10 
149 536 614 0.01478607 10 
150 94 616 0.01491271 10 
151 94 632 0.01529259 10 
152 94 637 0.01534838 10 
153 101 637 0.01573487 10 
154 101 642 0.01549898 10 
155 107 642 0.01583898 10 
156 101 645 0.01559585 10 
157 107 645 0.01591074 10 
158 52 652 0.01580834 10 
159 101 657 0.01603264 10 
160 188 657 0.01674728 10 
161 6 662 0.01645038 10 
162 101 663 0.01682818 10 
163 107 663 0.01685259 10 
164 114 663 0.01690330 10 
165 371 664 0.01728535 10 
166 309 664 0.01723573 10 
167 101 665 0.01726704 10 
168 107 665 0.01759944 10 
169 114 665 0.01759363 10 
170 160 668 0.01726175 10 
171 385 679 0.01746151 10 
172 107 680 0.01785581 10 
173 107 683 0.01751765 10 
174 114 683 0.01794528 10 
175 131 693 0.01776800 10 
176 318 699 0.01807561 10 
177 311 701 0.01810829 10 
178 107 704 0.01817061 10 
179 114 704 0.01855181 10 
180 679 704 0.01857850 10 
181 50 709 0.01840007 10 
182 107 714 0.01850233 10 
183 114 714 0.01886298 10 
184 620 718 0.01895004 10 
185 346 723 0.01986963 10 
186 107 730 0.01963910 10 
187 114 730 0.02003068 10 
188 121 754 0.02018966 10 
189 126 754 0.02068536 10 
190 121 759 0.02040578 10 
191 126 759 0.02121982 10 
192 126 762 0.02044919 10 
193 132 762 0.02119964 10 
194 206 762 0.02143625 10 
195 132 778 0.02138630 10 
196 426 784 0.02172780 10 
197 615 786 0.02716333 10 
198 132 792 0.02152277 10 
199 105 794 0.02184580 10 
200 132 800 0.02195901 10 
201 138 800 0.02235847 10 
202 138 806 0.02210713 10 
203 310 815 0.02223240 10 
204 138 821 0.02235732 10 
205 138 823 0.02239386 10 
206 151 828 0.02270626 10 
207 808 833 0.02278838 10 
208 497 833 0.02365638 10 
209 264 839 0.02355790 10 
210 577 840 0.02430793 10 
211 146 842 0.02439443 10 
212 151 847 0.02419098 10 
213 151 855 0.02421720 10 
214 471 888 0.02532241 10 
215 367 892 0.02538437 10 
216 866 894 0.01765360 7 
217 151 895 0.02551276 10 
218 151 897 0.02582536 10 
219 138 903 0.02573616 10 
220 138 904 0.02619690 10 
221 132 907 0.02594959 10 
222 138 907 0.02639120 10 
223 480 909 0.02596707 10 
224 675 910 0.02648586 10 
225 132 911 0.02653400 10 
226 70 912 0.02670279 10 
227 579 917 0.02679840 10 
228 121 923 0.02780011 10 
229 126 923 0.02818481 10 
230 414 926 0.02815846 10 
231 107 929 0.02772230 10 
232 114 929 0.02831112 10 
233 107 935 0.02808109 10 
234 114 935 0.02846320 10 
235 101 939 0.02848478 10 
236 107 939 0.02849710 10 
237 101 944 0.02234511 8 
238 94 947 0.02830587 10 
239 101 947 0.02868908 10 
240 58 947 0.02864112 10 
241 33 950 0.02865223 10 
242 87 953 0.02874835 10 
243 94 953 0.02926214 10 
244 226 953 0.02922874 10 
245 759 954 0.02932002 10 
246 81 959 0.02889331 10 
247 87 959 0.02933771 10 
248 220 959 0.02947751 10 
249 226 959 0.02955307 10 
250 67 965 0.02915211 10 
251 81 965 0.02964972 10 
252 220 965 0.02963218 10 
253 533 975 0.01735993 6 
254 47 975 0.02629505 9 
255 61 976 0.02947408 10 
256 67 976 0.02995790 10 
257 209 976 0.02985027 10 
258 480 979 0.01748166 6 
259 50 982 0.02972485 10 
260 61 982 0.02407373 8 
261 201 982 0.02963941 10 
262 203 982 0.01823229 6 
263 765 982 0.03002190 10 
264 545 983 0.02707551 9 
265 44 988 0.03021471 10 
266 50 988 0.01835984 6 
267 195 988 0.02400123 8 
268 201 988 0.01495180 5 
269 432 990 0.01495269 5 
270 44 994 0.03058814 10 
271 189 994 0.03132470 10 
272 195 994 0.03134964 10 
273 666 1001 0.03104994 10 
274 32 1003 0.03109696 10 
275 178 1003 0.03148718 10 
276 183 1003 0.02196823 7 
277 564 1007 0.03158828 10 
278 25 1008 0.03181910 10 
279 32 1008 0.03215313 10 
280 178 1008 0.03216785 10 
281 183 1008 0.03215124 10 
282 25 1010 0.03169629 10 
283 32 1010 0.03218898 10 
284 172 1010 0.03219432 10 
285 178 1010 0.03224923 10 
286 549 1013 0.03174175 10 
287 19 1016 0.03182916 10 
288 166 1016 0.03244329 10 
289 172 1016 0.02907470 9 
290 151 1029 0.03219072 10 
291 157 1029 0.02928549 9 
292 163 1029 0.03203258 10 
293 166 1029 0.02597036 8 
294 590 1037 0.03258880 10 
295 706 1046 0.03320145 10 
296 297 1054 0.01940778 6 
297 360 1055 0.02309683 7 
298 323 1056 0.02640053 8 
299 591 1062 0.03346863 10 
300 182 1067 0.03025775 9 
301 599 1078 0.03393569 10 
302 183 1081 0.03381429 10 
303 132 1084 0.03408127 10 
304 120 1084 0.03465553 10 
305 248 1102 0.03475788 10 
306 482 1128 0.03510648 10 
307 348 1130 0.03518547 10 
308 101 1138 0.03592874 10 
309 957 1138 0.03641679 10 
310 107 1147 0.03630287 10 
311 114 1147 0.03682914 10 
312 107 1150 0.03619255 10 
313 114 1150 0.03647356 10 
314 147 1150 0.03671485 10 
315 1034 1151 0.03677382 10 
316 114 1158 0.03628202 10 
317 121 1158 0.03739661 10 
318 330 1159 0.03765234 10 
319 1140 1160 0.03669151 10 
320 420 1161 0.03703382 10 
321 121 1164 0.03674670 10 
322 126 1164 0.03737858 10 
323 306 1164 0.03774776 10 
324 128 1165 0.02571548 7 
325 113 1166 0.03727710 10 
326 819 1168 0.02999799 8 
327 114 1175 0.03791904 10 
328 121 1175 0.03973765 10 
329 923 1175 0.03870345 10 
330 929 1175 0.03860668 10 
331 1158 1175 0.02269349 6 
332 1007 1177 0.03824887 10 
333 1132 1184 0.03861923 10 
334 993 1186 0.03892661 10 
335 101 1188 0.03943128 10 
336 939 1188 0.04014805 10 
337 1138 1188 0.04014635 10 
338 1147 1188 0.03653472 9 
339 1150 1188 0.03980778 10 
340 1182 1193 0.03177955 8 
341 1104 1198 0.04014507 10 
342 1050 1210 0.04065009 10 
343 1061 1210 0.04207371 10 
344 1075 1210 0.04207811 10 
345 1084 1210 0.04235265 10 
346 1088 1210 0.04237002 10 
347 1093 1210 0.04237785 10 
348 1098 1210 0.04240880 10 
349 1106 1216 0.04181414 10 
350 157 1217 0.04148431 10 
351 163 1217 0.04149719 10 
352 1029 1217 0.03719235 9 
353 1044 1217 0.04158252 10 
354 1050 1217 0.04282079 10 
355 1056 1217 0.04282281 10 
356 618 1223 0.04230889 10 
