1 104 123 2 708.51761561 0.00000325 1 
2 19 166 0 0.41485034 0.00210544 5 
3 19 172 0 0.02820697 0.00187245 4 
4 25 172 0 0.50366199 0.00188059 4 
5 25 178 0 0.30831851 0.00197963 4 
6 32 178 0 0.01493521 0.00198711 4 
7 32 183 0 0.07055611 0.00201501 4 
8 44 189 0 0.52863102 0.00207924 4 
9 44 195 0 0.35755137 0.00217519 4 
10 50 195 0 0.00572854 0.00219595 4 
11 50 201 0 0.04110605 0.00190075 3 
12 50 203 0 0.06975183 0.00187877 3 
13 61 203 0 0.00745912 0.00190465 3 
14 61 209 0 0.37222863 0.00231215 4 
15 67 209 0 0.41032090 0.00233172 4 
16 194 213 2 2320.49381565 0.00000269 1 
17 180 216 2 846.52768934 0.00000258 1 
18 67 220 0 0.66144083 0.00250640 4 
19 81 220 0 0.48035877 0.00286591 5 
20 81 226 0 0.05402805 0.00257083 4 
21 87 226 0 1.82553139 0.00293991 5 
22 87 231 0 0.34656585 0.00262589 4 
23 94 231 0 0.55778528 0.00257187 4 
24 226 231 0 1.44127402 0.00299091 5 
25 94 241 0 1.33132047 0.00269453 4 
26 101 241 0 0.50961029 0.00271543 4 
27 101 247 0 1.66454674 0.00276081 4 
28 107 247 0 1.80094617 0.00278654 4 
29 141 250 2 145.34330670 0.00000251 1 
30 107 254 0 1.18346605 0.00283945 4 
31 114 254 0 0.12939160 0.00286678 4 
32 107 256 0 0.93085039 0.00284807 4 
33 114 256 0 0.24629796 0.00289023 4 
34 107 258 0 1.37911724 0.00289906 4 
35 114 258 0 1.15747212 0.00293059 4 
36 121 266 0 0.00938596 0.00301400 4 
37 126 266 0 0.44864328 0.00355315 5 
38 126 272 0 1.03992836 0.00310061 4 
39 132 272 0 0.39070916 0.00365330 5 
40 199 276 2 1674.75609379 0.00000240 1 
41 132 278 0 0.58358145 0.00320993 4 
42 138 278 0 1.06458780 0.00373236 5 
43 138 284 0 0.02201259 0.00272180 3 
44 151 284 0 0.12777228 0.00329207 4 
45 151 291 0 0.60037557 0.00331786 4 
46 151 297 0 0.07972289 0.00285253 3 
47 157 297 0 1.04991834 0.00344994 4 
48 166 297 0 1.30507781 0.00339132 4 
49 19 305 0 0.16044642 0.00357336 4 
50 157 305 0 0.58687353 0.00360899 4 
51 163 305 0 7.56485476 0.00484360 6 
52 166 305 0 0.37495035 0.00361076 4 
53 172 305 0 0.01886255 0.00361445 4 
54 19 315 0 0.48455906 0.00310767 3 
55 25 315 0 0.02281386 0.00312062 3 
56 172 315 0 0.05679715 0.00373759 4 
57 118 318 2 3137.38256944 0.00000252 1 
58 172 328 0 0.12482725 0.00326147 3 
59 19 337 0 6.63404991 0.00466262 5 
60 25 337 0 0.96522419 0.00400015 4 
61 172 337 0 0.57611560 0.00334215 3 
62 19 342 0 0.00494520 0.00338663 3 
63 25 342 0 0.12855172 0.00406888 4 
64 172 342 0 0.01223902 0.00411783 4 
65 178 342 0 0.12442988 0.00417974 4 
66 227 363 2 1387.48670774 0.00000340 1 
67 25 367 0 0.11414782 0.00379055 3 
68 32 367 0 0.01267433 0.00595517 6 
69 178 367 0 0.00286807 0.00374964 3 
70 183 367 0 0.06698524 0.00378193 3 
71 25 374 0 0.56424690 0.00459338 4 
72 32 374 0 0.09892849 0.00532296 5 
73 178 374 0 0.03055075 0.00458281 4 
74 183 374 0 0.05309447 0.00457251 4 
75 173 379 2 1424.85360469 0.00000298 1 
76 32 382 0 4.14688582 0.00392518 3 
77 183 382 0 1.28811506 0.00466025 4 
78 32 387 0 2.72468715 0.00473715 4 
79 183 387 0 0.18197642 0.00472497 4 
80 335 408 2 423.86492555 0.00000291 1 
81 228 409 2 415.22437953 0.00000286 1 
82 189 414 0 7.69047346 0.00586452 5 
83 295 424 2 613.03657294 0.00000324 1 
84 272 431 2 241.71883295 0.00000287 1 
85 44 437 0 0.00915802 0.00438427 3 
86 195 437 0 0.01161094 0.00438199 3 
87 282 449 2 495.80172386 0.00000334 1 
88 44 454 0 0.65644164 0.00452190 3 
89 189 454 0 0.03962740 0.00542243 4 
90 44 467 0 0.12345281 0.00642262 5 
91 50 467 0 0.00895575 0.01023569 9 
92 195 467 0 0.00230988 0.00463458 3 
93 179 480 2 421.91415832 0.00000324 1 
94 195 484 0 0.09447226 0.00573465 4 
95 7 491 2 503.22120513 0.00000325 1 
96 44 494 0 0.02880924 0.00576850 4 
97 50 494 0 0.00628832 0.00485112 3 
98 195 494 0 0.00818961 0.00682479 5 
99 201 494 0 0.00469852 0.00682767 5 
100 50 500 0 0.14406209 0.00693857 5 
101 201 500 0 0.05353930 0.00489820 3 
102 203 500 0 0.03252445 0.00487409 3 
103 61 508 0 0.99413579 0.00711371 5 
104 203 508 0 0.26947301 0.01224257 10 
105 209 508 0 0.03711473 0.00605433 4 
106 429 511 2 1669.69606612 0.00000441 1 
107 61 522 0 1.37942234 0.00610797 4 
108 203 522 0 0.12859200 0.00509624 3 
109 209 522 0 0.00542469 0.00512553 3 
110 85 527 2 1166.73357289 0.00000299 1 
111 61 528 0 0.47936102 0.00512260 3 
112 67 528 0 0.22419307 0.00626296 4 
113 81 528 0 0.23233822 0.00839068 6 
114 209 528 0 0.09444678 0.01063159 8 
115 220 528 0 0.13668760 0.00622603 4 
116 67 532 0 0.05459173 0.01180201 9 
117 81 532 0 0.11826401 0.00849268 6 
118 220 532 0 0.05648169 0.00633797 4 
119 258 540 2 825.38252922 0.00000337 1 
120 392 546 2 2611.43165217 0.00000333 1 
121 67 556 0 0.98233216 0.00651235 4 
122 284 556 2 1242.97725588 0.00000289 4 
123 67 564 0 0.40168838 0.01234264 9 
124 81 564 0 0.02280941 0.00663441 4 
125 220 564 0 0.02684857 0.00667416 4 
126 67 567 0 2.67253169 0.00781570 5 
127 81 567 0 0.48923871 0.00902620 6 
128 220 567 0 0.21723258 0.00666255 4 
129 67 570 0 2.40706627 0.00910587 6 
130 81 570 0 0.15671702 0.00903773 6 
131 220 570 0 0.13379867 0.00674962 4 
132 174 570 2 2121.82583439 0.00000296 4 
133 240 574 2 1568.19886577 0.00000278 1 
134 81 575 0 2.76594993 0.00801381 5 
135 220 575 0 1.08612706 0.01036308 7 
136 8 575 2 1295.87851013 0.00000237 7 
137 17 579 2 1639.65776327 0.00000266 1 
138 533 584 2 870.56252698 0.00000296 1 
139 81 588 0 0.01497138 0.00567670 3 
140 87 588 0 0.47937722 0.00819323 5 
141 226 588 0 0.43156268 0.00692398 4 
142 87 597 0 2.27648751 0.00957776 6 
143 94 597 0 0.38888315 0.00702063 4 
144 226 597 0 0.55079633 0.00831669 5 
145 87 604 0 0.47149562 0.00711545 4 
146 94 604 0 0.01542269 0.00841543 5 
147 240 605 2 4250.61677744 0.00000313 1 
148 94 616 0 0.01350372 0.01234954 8 
149 461 619 2 502.35202271 0.00000361 1 
150 308 619 2 2308.04085565 0.00000107 1 
151 421 621 2 982.55482168 0.00000304 1 
152 11 621 2 997.16532093 0.00000189 1 
153 572 627 2 373.27398520 0.00000334 1 
154 94 632 0 2.16969694 0.00880326 5 
155 94 637 0 4.44236402 0.01007253 6 
156 101 637 0 0.19098383 0.00753685 4 
157 101 642 0 0.11555601 0.00889688 5 
158 107 642 0 0.04025021 0.01410839 9 
159 101 645 0 6.69527511 0.00764532 4 
160 107 645 0 1.54205090 0.00752622 4 
161 109 647 2 1530.33638870 0.00000384 1 
162 101 657 0 0.73548669 0.01671056 10 
163 443 658 2 3013.98275142 0.00000416 10 
164 367 659 2 1207.27715412 0.00000289 10 
165 101 663 0 0.04971914 0.01675388 10 
166 107 663 0 0.01781179 0.00916510 5 
167 114 663 0 0.00275957 0.00917529 5 
168 581 663 2 4263.76615860 0.00000332 5 
169 218 664 2 5942.94861608 0.00000338 1 
170 101 665 0 1.55112265 0.01348608 8 
171 107 665 0 0.47667103 0.00780823 4 
172 114 665 0 0.13329170 0.00651452 3 
173 536 668 2 458.77624155 0.00000283 1 
174 508 675 2 2319.90976758 0.00000325 1 
175 161 676 2 1929.34850965 0.00000285 1 
176 107 680 0 1.48615866 0.00938951 5 
177 107 683 0 0.94462224 0.00803856 4 
178 114 683 0 0.32178225 0.00954683 5 
179 5 684 2 1612.22379744 0.00000347 1 
180 327 684 2 1276.43889771 0.00000106 1 
181 608 699 2 85.67751985 0.00000342 1 
182 57 699 2 807.13263133 0.00000170 1 
183 107 704 0 0.34268109 0.01260843 7 
184 114 704 0 0.07528002 0.01553402 9 
185 329 705 2 1238.29276137 0.00000339 1 
186 292 712 2 1064.24308800 0.00000363 1 
187 107 714 0 1.79639085 0.01133449 6 
188 114 714 0 0.02860377 0.01438297 8 
189 295 718 2 4400.42085521 0.00000414 1 
190 107 730 0 0.19656714 0.01013188 5 
191 114 730 0 0.03540690 0.00854784 4 
192 681 751 2 126.74748111 0.00000343 1 
193 121 754 0 0.33113739 0.00874533 4 
194 126 754 0 0.07673382 0.06581767 8 
195 121 759 0 2.33625684 0.10039630 6 
196 126 759 0 0.22329988 0.09537522 6 
197 532 759 2 5416.93430649 0.00000423 6 
198 126 762 0 7.08482229 0.07761705 5 
199 132 762 0 2.00372045 0.05076309 8 
200 132 778 0 0.06999780 0.00910305 4 
201 71 780 2 1652.55289554 0.00000488 1 
202 759 787 2 106.84954754 0.00000384 1 
203 132 792 0 1.26802734 0.00930781 4 
204 508 799 2 2458.83862653 0.00000419 1 
205 132 800 0 3.35686460 0.00917927 4 
206 138 800 0 0.14494330 0.01255334 6 
207 138 806 0 0.25140739 0.00753036 3 
208 138 821 0 0.40674396 0.01107257 5 
209 138 823 0 6.54725682 0.00938680 4 
210 630 823 2 4465.08915837 0.00000463 4 
211 151 828 0 3.12108818 0.00948951 4 
212 60 831 2 2156.22308209 0.00000384 1 
213 199 845 2 1414.74541008 0.00000316 1 
214 151 847 0 0.08724621 0.01145720 5 
215 755 847 2 2846.89035108 0.00000424 5 
216 396 850 2 894.86220892 0.00000347 1 
217 151 855 0 0.11494457 0.01508998 7 
218 533 877 2 922.04243393 0.00000434 1 
219 826 880 2 482.51499556 0.00000321 1 
220 703 889 2 460.81674561 0.00000483 1 
221 151 895 0 2.80701437 0.01759169 8 
222 151 897 0 0.06118057 0.02133489 10 
223 138 903 0 0.08157811 0.01058802 4 
224 138 904 0 7.06392298 0.01398999 6 
225 132 907 0 0.71874717 0.01028121 4 
226 138 907 0 0.22077132 0.01228140 5 
227 575 910 2 1859.77793825 0.00000386 1 
228 132 911 0 0.23128175 0.01219576 5 
229 497 918 2 1261.18194741 0.00000460 1 
230 121 923 0 0.62636126 0.01431901 6 
231 126 923 0 0.07130653 0.01048932 4 
232 331 925 2 1552.00024729 0.00000451 1 
233 410 928 2 997.86484205 0.00000445 1 
234 107 929 0 0.07225325 0.01251730 5 
235 114 929 0 0.00477553 0.01059554 4 
236 272 929 2 6396.40775549 0.00000465 4 
237 410 932 2 1578.55448122 0.00000410 1 
238 107 935 0 4.91438615 0.01649894 7 
239 114 935 0 1.40337639 0.01650934 7 
240 101 939 0 0.48567419 0.01067407 4 
241 107 939 0 0.21174614 0.01070041 4 
242 101 944 0 0.15377935 0.01271273 5 
243 94 947 0 0.23772432 0.01671695 7 
244 101 947 0 0.16826262 0.01477167 6 
245 398 950 2 1219.75999796 0.00000462 1 
246 87 953 0 0.13504795 0.01085299 4 
247 94 953 0 0.06505521 0.01488574 6 
248 226 953 0 0.08268323 0.02293119 10 
249 81 959 0 1.83528326 0.02432891 10 
250 87 959 0 1.29172246 0.01707003 7 
251 220 959 0 0.04883629 0.01100774 4 
252 226 959 0 0.12130941 0.01303987 5 
253 83 964 2 4658.72840813 0.00000433 1 
254 67 965 0 1.01368609 0.01313550 5 
255 81 965 0 0.31066014 0.01517354 6 
256 220 965 0 0.16483276 0.01927433 8 
257 61 976 0 0.16803746 0.01737574 7 
258 67 976 0 0.05676300 0.00915139 3 
259 209 976 0 0.00780965 0.01120040 4 
260 297 976 2 3580.31244426 0.00000485 4 
261 307 976 2 2701.96731306 0.00000175 4 
262 50 982 0 0.38354811 0.01129714 4 
263 61 982 0 0.27147698 0.01130870 4 
264 201 982 0 0.22200943 0.01132884 4 
265 203 982 0 0.10573284 0.02182319 9 
266 115 987 2 8207.20576245 0.00000418 1 
267 44 988 0 0.09550719 0.01142117 4 
268 50 988 0 0.05924873 0.01145959 4 
269 195 988 0 0.04319526 0.01564648 6 
270 201 988 0 0.02685916 0.01353733 5 
271 44 994 0 0.51683435 0.01786128 7 
272 189 994 0 0.29989154 0.02568758 10 
273 195 994 0 0.21957432 0.01366526 5 
274 32 1003 0 0.23901034 0.01378889 5 
275 178 1003 0 0.03356851 0.02596385 10 
276 183 1003 0 0.01433170 0.01597778 6 
277 347 1007 2 1673.68428817 0.00000634 1 
278 25 1008 0 1.23858172 0.01829312 7 
279 32 1008 0 0.53803958 0.01174478 4 
280 178 1008 0 0.34459610 0.01175486 4 
281 183 1008 0 0.22233868 0.01179575 4 
282 25 1010 0 0.60236133 0.01176719 4 
283 32 1010 0 0.30591807 0.01396960 5 
284 172 1010 0 0.10368354 0.01625228 6 
285 178 1010 0 0.19279072 0.02640414 10 
286 19 1016 0 0.44047719 0.02052438 8 
287 166 1016 0 0.20189646 0.01180427 4 
288 172 1016 0 0.07393216 0.01403120 5 
289 783 1023 2 741.64868874 0.00000583 1 
290 790 1025 2 680.83916138 0.00000589 1 
291 151 1029 0 0.03533130 0.01428816 5 
292 157 1029 0 0.02672450 0.01199112 4 
293 163 1029 0 3.39703566 0.01199397 4 
294 166 1029 0 0.49353449 0.01203470 4 
295 1014 1030 2 1912.05773470 0.00000597 1 
296 447 1032 2 1562.67305074 0.00000525 1 
297 244 1053 2 441.25212922 0.00000565 1 
298 591 1056 2 351.36903094 0.00000583 1 
299 582 1058 2 217.57395139 0.00000582 1 
300 883 1063 2 83.54125506 0.00000548 1 
301 1049 1064 2 277.01255865 0.00000519 1 
302 481 1068 2 169.06573493 0.00000607 1 
303 87 1069 2 699.72133628 0.00000553 1 
304 916 1072 2 167.70265372 0.00000571 1 
305 81 1077 2 472.70359447 0.00000558 1 
306 132 1084 0 4.21993706 0.01504223 5 
307 1036 1087 2 2423.16990629 0.00000592 1 
308 234 1089 2 777.41402780 0.00000603 1 
309 799 1098 2 597.99747594 0.00000490 1 
310 202 1122 2 352.94948905 0.00000626 1 
311 790 1135 2 205.38498974 0.00000529 1 
312 101 1138 0 0.63021658 0.01576387 5 
313 107 1147 0 0.73708347 0.01326754 4 
314 114 1147 0 0.03971358 0.01083577 3 
315 30 1148 2 4814.62595459 0.00000613 1 
316 107 1150 0 7.45683387 0.01332557 4 
317 114 1150 0 1.00561260 0.01086768 3 
318 646 1155 2 2272.66554817 0.00000593 1 
319 114 1158 0 0.16899687 0.01090190 3 
320 121 1158 0 0.69099743 0.01347260 4 
321 299 1158 2 2360.92901151 0.00000525 4 
322 121 1164 0 0.45182924 0.01603514 5 
323 126 1164 0 0.04418665 0.01355409 4 
324 114 1175 0 0.14266969 0.01364785 4 
325 121 1175 0 0.27324351 0.01368121 4 
326 923 1175 0 0.18719011 0.01369820 4 
327 929 1175 0 0.16073549 0.01367164 4 
328 1158 1175 0 0.00134797 0.01111154 3 
329 101 1188 0 0.32950319 0.01382438 4 
330 939 1188 0 0.55418798 0.01383571 4 
331 1138 1188 0 0.03006025 0.01139594 3 
332 1147 1188 0 0.04063922 0.01129697 3 
333 1150 1188 0 1.83245351 0.01385510 4 
334 652 1190 2 3744.56254051 0.00000646 1 
335 751 1194 2 525.76069137 0.00000527 1 
336 722 1202 2 899.29666667 0.00000636 1 
337 125 1202 2 1110.56068341 0.00000178 1 
338 198 1203 2 2716.15970586 0.00000520 1 
339 927 1204 2 258.09569267 0.00000481 1 
340 1050 1210 0 0.00345523 0.01405812 4 
341 1061 1210 0 0.57363906 0.01677106 5 
342 1075 1210 0 0.23107861 0.01670293 5 
343 1084 1210 0 3.13555510 0.01674755 5 
344 1088 1210 0 0.59156319 0.01410197 4 
345 1093 1210 0 0.13111230 0.01939824 6 
346 1098 1210 0 0.04730346 0.01411903 4 
347 713 1214 2 1442.03762613 0.00000591 1 
348 157 1217 0 0.32750279 0.01426645 4 
349 163 1217 0 0.19904338 0.01434198 4 
350 1029 1217 0 0.01250493 0.01164050 3 
351 1044 1217 0 3.98258990 0.01439552 4 
352 1050 1217 0 4.97161000 0.01708892 5 
353 163 297 0 0.27920255 0.01522536 4 
354 189 400 0 2.09679271 0.01456982 4 
355 723 1133 1 14.49443005 0.00000466 4 
356 1056 1217 0 9.66143264 0.01720547 5 
