1 54 161 0.00267396 10 
2 19 166 0.00299198 10 
3 19 172 0.00309159 10 
4 25 172 0.00318919 10 
5 25 178 0.00330811 10 
6 32 178 0.00330331 10 
7 32 183 0.00339413 10 
8 44 189 0.00350128 10 
9 44 195 0.00361525 10 
10 50 195 0.00361463 10 
11 50 201 0.00372387 10 
12 50 203 0.00419419 10 
13 61 203 0.00378058 10 
14 61 209 0.00389319 10 
15 67 209 0.00388665 10 
16 67 220 0.00408298 10 
17 81 220 0.00407901 10 
18 81 226 0.00420171 10 
19 87 226 0.00419473 10 
20 87 231 0.00429965 10 
21 94 231 0.00429781 10 
22 226 231 0.00429507 10 
23 94 241 0.00449492 10 
24 101 241 0.00449037 10 
25 101 247 0.00461641 10 
26 107 247 0.00460373 10 
27 107 254 0.00474487 10 
28 114 254 0.00474514 10 
29 107 256 0.00481269 10 
30 114 256 0.00479987 10 
31 107 258 0.00484578 10 
32 114 258 0.00484603 10 
33 121 266 0.00501108 10 
34 126 266 0.00504710 10 
35 126 272 0.00515926 10 
36 132 272 0.00516925 10 
37 132 278 0.00528310 10 
38 138 278 0.00528798 10 
39 138 284 0.00540107 10 
40 151 284 0.00542150 10 
41 151 291 0.00556039 10 
42 151 297 0.00566376 10 
43 157 297 0.00567637 10 
44 163 297 0.00577497 10 
45 166 297 0.00578245 10 
46 19 305 0.00604312 10 
47 157 305 0.00607786 10 
48 163 305 0.00606964 10 
49 166 305 0.00606859 10 
50 172 305 0.00608152 10 
51 97 314 0.00631996 10 
52 19 315 0.00640750 10 
53 25 315 0.00641605 10 
54 172 315 0.00644007 10 
55 172 328 0.00669966 10 
56 19 337 0.00688125 10 
57 25 337 0.00688531 10 
58 172 337 0.00691045 10 
59 19 342 0.00699696 10 
60 25 342 0.00700547 10 
61 172 342 0.00353233 5 
62 178 342 0.00689884 10 
63 25 367 0.00434362 6 
64 32 367 0.00434294 6 
65 178 367 0.00435615 6 
66 183 367 0.00510667 7 
67 25 374 0.00751532 10 
68 32 374 0.00770169 10 
69 178 374 0.00540061 7 
70 183 374 0.00756413 10 
71 32 382 0.00609602 8 
72 183 382 0.00769237 10 
73 32 387 0.00776248 10 
74 183 387 0.00461341 6 
75 189 400 0.00808340 10 
76 189 414 0.00835313 10 
77 44 437 0.00877812 10 
78 195 437 0.00899300 10 
79 44 454 0.00911973 10 
80 189 454 0.00934736 10 
81 44 467 0.00936233 10 
82 50 467 0.00961472 10 
83 195 467 0.00962509 10 
84 195 484 0.00972725 10 
85 44 494 0.00684764 7 
86 50 494 0.00993476 10 
87 195 494 0.01017412 10 
88 201 494 0.01016309 10 
89 50 500 0.01006129 10 
90 201 500 0.01029470 10 
91 203 500 0.01029826 10 
92 367 504 0.01018850 10 
93 61 508 0.01033315 10 
94 203 508 0.01057070 10 
95 209 508 0.01061698 10 
96 61 522 0.01064455 10 
97 203 522 0.01088560 10 
98 209 522 0.01090773 10 
99 61 528 0.01076395 10 
100 67 528 0.01105370 10 
101 81 528 0.01108179 10 
102 209 528 0.01107843 10 
103 220 528 0.01107219 10 
104 67 532 0.00973188 9 
105 81 532 0.01091158 10 
106 220 532 0.01118336 10 
107 67 556 0.01138830 10 
108 67 564 0.01153255 10 
109 81 564 0.01181389 10 
110 220 564 0.01174304 10 
111 67 567 0.01162168 10 
112 81 567 0.01189376 10 
113 220 567 0.01193439 10 
114 67 570 0.01170933 10 
115 81 570 0.01199957 10 
116 220 570 0.01201506 10 
117 81 575 0.01211279 10 
118 220 575 0.01211353 10 
119 81 588 0.01206800 10 
120 87 588 0.01245504 10 
121 226 588 0.01260091 10 
122 87 597 0.01233681 10 
123 94 597 0.01264106 10 
124 226 597 0.01262857 10 
125 87 604 0.01247033 10 
126 94 604 0.01277612 10 
127 94 616 0.01005441 8 
128 94 632 0.01302951 10 
129 94 637 0.01312346 10 
130 101 637 0.01348285 10 
131 101 642 0.01326049 10 
132 107 642 0.01365866 10 
133 101 645 0.01341487 10 
134 107 645 0.01374274 10 
135 101 657 0.01374238 10 
136 101 663 0.01367864 10 
137 107 663 0.01377655 10 
138 114 663 0.01412664 10 
139 101 665 0.01384284 10 
140 107 665 0.01418914 10 
141 114 665 0.01418886 10 
142 107 680 0.01414346 10 
143 56 682 0.01424017 10 
144 107 683 0.01424665 10 
145 114 683 0.01461341 10 
146 107 704 0.01466604 10 
147 114 704 0.01499752 10 
148 107 714 0.01483380 10 
149 114 714 0.01519147 10 
150 107 730 0.01050769 7 
151 114 730 0.01517910 10 
152 121 754 0.01565216 10 
153 126 754 0.01606057 10 
154 121 759 0.01579184 10 
155 126 759 0.01618554 10 
156 126 762 0.01703235 10 
157 132 762 0.01627383 10 
158 132 778 0.01619106 10 
159 132 792 0.01643374 10 
160 132 800 0.01661556 10 
161 138 800 0.01702570 10 
162 138 806 0.01674692 10 
163 138 821 0.01702611 10 
164 138 823 0.01696201 10 
165 151 828 0.01720546 10 
166 151 847 0.01754935 10 
167 151 855 0.01769296 10 
168 151 895 0.01850565 10 
169 151 897 0.01880948 10 
170 138 903 0.01864181 10 
171 138 904 0.01908773 10 
172 132 907 0.01872892 10 
173 138 907 0.01917502 10 
174 132 911 0.01882843 10 
175 121 923 0.01908768 10 
176 126 923 0.01959444 10 
177 107 929 0.01928981 10 
178 114 929 0.01974931 10 
179 107 935 0.01938077 10 
180 114 935 0.01986263 10 
181 101 939 0.01935495 10 
182 107 939 0.01936291 10 
183 101 944 0.01959401 10 
184 94 947 0.01967347 10 
185 101 947 0.02012265 10 
186 184 947 0.02028154 10 
187 87 953 0.01991349 10 
188 94 953 0.02040184 10 
189 226 953 0.02039473 10 
190 81 959 0.02008007 10 
191 87 959 0.02055251 10 
192 220 959 0.02063287 10 
193 226 959 0.02060524 10 
194 67 965 0.02033524 10 
195 81 965 0.02086027 10 
196 220 965 0.02081639 10 
197 61 976 0.02059608 10 
198 67 976 0.02106133 10 
199 209 976 0.02117347 10 
200 50 982 0.02091751 10 
201 61 982 0.02139795 10 
202 201 982 0.02146345 10 
203 203 982 0.02138891 10 
204 700 985 0.02107968 10 
205 44 988 0.02132031 10 
206 50 988 0.02177386 10 
207 195 988 0.02190981 10 
208 201 988 0.01309006 6 
209 591 990 0.02145007 10 
210 44 994 0.02158679 10 
211 189 994 0.02211530 10 
212 195 994 0.02233102 10 
213 32 1003 0.02194935 10 
214 178 1003 0.02232381 10 
215 183 1003 0.02230038 10 
216 25 1008 0.02190663 10 
217 32 1008 0.02244288 10 
218 178 1008 0.02244200 10 
219 183 1008 0.02245972 10 
220 25 1010 0.02203340 10 
221 32 1010 0.02253861 10 
222 172 1010 0.02251472 10 
223 178 1010 0.02214701 10 
224 19 1016 0.02232879 10 
225 166 1016 0.02280522 10 
226 172 1016 0.02045995 9 
227 964 1024 0.02270143 10 
228 151 1029 0.02276143 10 
229 157 1029 0.02342087 10 
230 163 1029 0.02346160 10 
231 166 1029 0.02348746 10 
232 183 1041 0.02321813 10 
233 909 1041 0.02402940 10 
234 132 1084 0.02425973 10 
235 101 1138 0.02580455 10 
236 107 1147 0.02548991 10 
237 114 1147 0.02608730 10 
238 107 1150 0.02561751 10 
239 114 1150 0.02619193 10 
240 114 1158 0.02579304 10 
241 121 1158 0.02635170 10 
242 121 1164 0.02598306 10 
243 126 1164 0.02654751 10 
244 114 1175 0.02619998 10 
245 121 1175 0.02682381 10 
246 923 1175 0.02683910 10 
247 929 1175 0.02696229 10 
248 1158 1175 0.02689039 10 
249 101 1188 0.02655167 10 
250 939 1188 0.02716039 10 
251 1138 1188 0.02727842 10 
252 1147 1188 0.02706593 10 
253 1150 1188 0.02668871 10 
254 1050 1210 0.02705688 10 
255 1061 1210 0.02767151 10 
256 1075 1210 0.02767257 10 
257 1084 1210 0.02768306 10 
258 1088 1210 0.02771820 10 
259 1093 1210 0.02771954 10 
260 1098 1210 0.02770488 10 
261 157 1217 0.02729143 10 
262 163 1217 0.02806379 10 
263 1029 1217 0.02807977 10 
264 1044 1217 0.02909082 10 
265 1050 1217 0.02817436 10 
266 1056 1217 0.02814444 10 
