1 20 54 2 856.58933330 0.00000323 1 
2 19 166 0 0.41485034 0.00212191 5 
3 19 172 0 0.02820697 0.00186797 4 
4 25 172 0 0.50366199 0.00188139 4 
5 25 178 0 0.30831851 0.00197371 4 
6 32 178 0 0.01493521 0.00199054 4 
7 32 183 0 0.07055611 0.00201255 4 
8 44 189 0 0.52863102 0.00208229 4 
9 44 195 0 0.35755137 0.00216761 4 
10 50 195 0 0.00572854 0.00220432 4 
11 50 201 0 0.04110605 0.00190504 3 
12 50 203 0 0.06975183 0.00187407 3 
13 61 203 0 0.00745912 0.00190383 3 
14 61 209 0 0.37222863 0.00231663 4 
15 67 209 0 0.41032090 0.00232437 4 
16 67 220 0 0.66144083 0.00249663 4 
17 81 220 0 0.48035877 0.00285760 5 
18 81 226 0 0.05402805 0.00256870 4 
19 87 226 0 1.82553139 0.00294349 5 
20 87 231 0 0.34656585 0.00261906 4 
21 94 231 0 0.55778528 0.00256671 4 
22 226 231 0 1.44127402 0.00298669 5 
23 94 241 0 1.33132047 0.00269141 4 
24 101 241 0 0.50961029 0.00272032 4 
25 101 247 0 1.66454674 0.00276285 4 
26 107 247 0 1.80094617 0.00278206 4 
27 107 254 0 1.18346605 0.00284523 4 
28 114 254 0 0.12939160 0.00286708 4 
29 107 256 0 0.93085039 0.00285645 4 
30 114 256 0 0.24629796 0.00285844 4 
31 107 258 0 1.37911724 0.00290235 4 
32 114 258 0 1.15747212 0.00292550 4 
33 121 266 0 0.00938596 0.00300781 4 
34 126 266 0 0.44864328 0.00355272 5 
35 126 272 0 1.03992836 0.00310056 4 
36 132 272 0 0.39070916 0.00364566 5 
37 132 278 0 0.58358145 0.00317695 4 
38 138 278 0 1.06458780 0.00373576 5 
39 138 284 0 0.02201259 0.00270991 3 
40 151 284 0 0.12777228 0.00329670 4 
41 151 291 0 0.60037557 0.00331974 4 
42 151 297 0 0.07972289 0.00284864 3 
43 157 297 0 1.04991834 0.00345382 4 
44 166 297 0 1.30507781 0.00338848 4 
45 19 305 0 0.16044642 0.00356837 4 
46 157 305 0 0.58687353 0.00360943 4 
47 163 305 0 7.56485476 0.00484590 6 
48 166 305 0 0.37495035 0.00360157 4 
49 172 305 0 0.01886255 0.00361232 4 
50 19 315 0 0.48455906 0.00310073 3 
51 25 315 0 0.02281386 0.00311836 3 
52 172 315 0 0.05679715 0.00373205 4 
53 172 328 0 0.12482725 0.00328269 3 
54 19 337 0 6.63404991 0.00465866 5 
55 25 337 0 0.96522419 0.00399859 4 
56 172 337 0 0.57611560 0.00334208 3 
57 19 342 0 0.00494520 0.00338648 3 
58 25 342 0 0.12855172 0.00406713 4 
59 172 342 0 0.01223902 0.00411898 4 
60 178 342 0 0.12442988 0.00417641 4 
61 25 367 0 0.11414782 0.00379123 3 
62 32 367 0 0.01267433 0.00595617 6 
63 178 367 0 0.00286807 0.00377872 3 
64 183 367 0 0.06698524 0.00377146 3 
65 25 374 0 0.56424690 0.00459700 4 
66 32 374 0 0.09892849 0.00531998 5 
67 178 374 0 0.03055075 0.00486676 4 
68 183 374 0 0.05309447 0.00483717 4 
69 32 382 0 4.14688582 0.00393507 3 
70 183 382 0 1.28811506 0.00466011 4 
71 32 387 0 2.72468715 0.00474134 4 
72 183 387 0 0.18197642 0.00474730 4 
73 189 414 0 7.69047346 0.00585935 5 
74 44 437 0 0.00915802 0.00440325 3 
75 195 437 0 0.01161094 0.00435809 3 
76 44 454 0 0.65644164 0.00452193 3 
77 189 454 0 0.03962740 0.00542091 4 
78 44 467 0 0.12345281 0.00641372 5 
79 50 467 0 0.00895575 0.01023014 9 
80 195 467 0 0.00230988 0.00463782 3 
81 195 484 0 0.09447226 0.00573586 4 
82 44 494 0 0.02880924 0.00581621 4 
83 50 494 0 0.00628832 0.00483022 3 
84 195 494 0 0.00818961 0.00682595 5 
85 201 494 0 0.00469852 0.00683089 5 
86 50 500 0 0.14406209 0.00693192 5 
87 201 500 0 0.05353930 0.00491495 3 
88 203 500 0 0.03252445 0.00488669 3 
89 61 508 0 0.99413579 0.00712151 5 
90 203 508 0 0.26947301 0.01230086 10 
91 209 508 0 0.03711473 0.00605443 4 
92 61 522 0 1.37942234 0.00614431 4 
93 203 522 0 0.12859200 0.00512542 3 
94 209 522 0 0.00542469 0.00515418 3 
95 61 528 0 0.47936102 0.00535950 3 
96 67 528 0 0.22419307 0.00628432 4 
97 81 528 0 0.23233822 0.00841477 6 
98 209 528 0 0.09444678 0.01061523 8 
99 220 528 0 0.13668760 0.00623615 4 
100 67 532 0 0.05459173 0.01181172 9 
101 81 532 0 0.11826401 0.00847600 6 
102 220 532 0 0.05648169 0.00634821 4 
103 67 556 0 0.98233216 0.00649239 4 
104 67 564 0 0.40168838 0.01232962 9 
105 81 564 0 0.02280941 0.00663323 4 
106 220 564 0 0.02684857 0.00665367 4 
107 67 567 0 2.67253169 0.00780731 5 
108 81 567 0 0.48923871 0.00902420 6 
109 220 567 0 0.21723258 0.00665299 4 
110 67 570 0 2.40706627 0.00909091 6 
111 81 570 0 0.15671702 0.00903344 6 
112 220 570 0 0.13379867 0.00673981 4 
113 81 575 0 2.76594993 0.00792741 5 
114 220 575 0 1.08612706 0.01035783 7 
115 81 588 0 0.01497138 0.00567218 3 
116 87 588 0 0.47937722 0.00817807 5 
117 226 588 0 0.43156268 0.00693578 4 
118 87 597 0 2.27648751 0.00956245 6 
119 94 597 0 0.38888315 0.00700011 4 
120 226 597 0 0.55079633 0.00831208 5 
121 87 604 0 0.47149562 0.00711205 4 
122 94 604 0 0.01542269 0.00840385 5 
123 94 616 0 0.01350372 0.01234301 8 
124 94 632 0 2.16969694 0.00879413 5 
125 94 637 0 4.44236402 0.01006883 6 
126 101 637 0 0.19098383 0.00750417 4 
127 194 641 2 1966.75794425 0.00000424 1 
128 101 642 0 0.11555601 0.00888022 5 
129 107 642 0 0.04025021 0.01409456 9 
130 101 645 0 6.69527511 0.00762027 4 
131 107 645 0 1.54205090 0.00752141 4 
132 101 657 0 0.73548669 0.01668376 10 
133 101 663 0 0.04971914 0.01671067 10 
134 107 663 0 0.01781179 0.00913871 5 
135 114 663 0 0.00275957 0.00914630 5 
136 101 665 0 1.55112265 0.01345721 8 
137 107 665 0 0.47667103 0.00780281 4 
138 114 665 0 0.13329170 0.00648044 3 
139 107 680 0 1.48615866 0.00936848 5 
140 107 683 0 0.94462224 0.00801370 4 
141 114 683 0 0.32178225 0.00951735 5 
142 107 704 0 0.34268109 0.01264539 7 
143 114 704 0 0.07528002 0.01552865 9 
144 107 714 0 1.79639085 0.01136187 6 
145 114 714 0 0.02860377 0.01438276 8 
146 107 730 0 0.19656714 0.01015178 5 
147 114 730 0 0.03540690 0.00856631 4 
148 121 754 0 0.33113739 0.00874042 4 
149 126 754 0 0.07673382 0.01513084 8 
150 514 755 2 3536.71470763 0.00000425 1 
151 121 759 0 2.33625684 0.01196801 6 
152 126 759 0 0.22329988 0.01208362 6 
153 126 762 0 7.08482229 0.01037376 5 
154 132 762 0 2.00372045 0.01534921 8 
155 132 778 0 0.06999780 0.00902717 4 
156 132 792 0 1.26802734 0.00933560 4 
157 132 800 0 3.35686460 0.00917592 4 
158 138 800 0 0.14494330 0.01256384 6 
159 138 806 0 0.25140739 0.00752023 3 
160 138 821 0 0.40674396 0.01107721 5 
161 138 823 0 6.54725682 0.00938369 4 
162 151 828 0 3.12108818 0.00948624 4 
163 151 847 0 0.08724621 0.01145333 5 
164 151 855 0 0.11494457 0.01513346 7 
165 151 895 0 2.80701437 0.01765667 8 
166 151 897 0 0.06118057 0.02138618 10 
167 138 903 0 0.08157811 0.01022966 4 
168 138 904 0 7.06392298 0.01401437 6 
169 132 907 0 0.71874717 0.01029495 4 
170 138 907 0 0.22077132 0.01220097 5 
171 132 911 0 0.23128175 0.01222908 5 
172 121 923 0 0.62636126 0.01435797 6 
173 126 923 0 0.07130653 0.01048137 4 
174 107 929 0 0.07225325 0.01253596 5 
175 114 929 0 0.00477553 0.01056813 4 
176 107 935 0 4.91438615 0.01651571 7 
177 114 935 0 1.40337639 0.01654317 7 
178 101 939 0 0.48567419 0.01070174 4 
179 107 939 0 0.21174614 0.01080809 4 
180 101 944 0 0.15377935 0.01273630 5 
181 94 947 0 0.23772432 0.01681308 7 
182 101 947 0 0.16826262 0.01480374 6 
183 87 953 0 0.13504795 0.01089152 4 
184 94 953 0 0.06505521 0.01492920 6 
185 226 953 0 0.08268323 0.02296985 10 
186 81 959 0 1.83528326 0.02436252 10 
187 87 959 0 1.29172246 0.01709610 7 
188 220 959 0 0.04883629 0.01104038 4 
189 226 959 0 0.12130941 0.01305423 5 
190 67 965 0 1.01368609 0.01316622 5 
191 81 965 0 0.31066014 0.01522220 6 
192 220 965 0 0.16483276 0.01928123 8 
193 61 976 0 0.16803746 0.01739859 7 
194 67 976 0 0.05676300 0.00915237 3 
195 209 976 0 0.00780965 0.01127245 4 
196 50 982 0 0.38354811 0.01134190 4 
197 61 982 0 0.27147698 0.01131882 4 
198 201 982 0 0.22200943 0.01134056 4 
199 203 982 0 0.10573284 0.02184843 9 
200 44 988 0 0.09550719 0.01144324 4 
201 50 988 0 0.05924873 0.01144195 4 
202 195 988 0 0.04319526 0.01565892 6 
203 201 988 0 0.02685916 0.01355125 5 
204 44 994 0 0.51683435 0.01786119 7 
205 189 994 0 0.29989154 0.02568750 10 
206 195 994 0 0.21957432 0.01367496 5 
207 32 1003 0 0.23901034 0.01383136 5 
208 178 1003 0 0.03356851 0.02600161 10 
209 183 1003 0 0.01433170 0.01602323 6 
210 25 1008 0 1.23858172 0.01832090 7 
211 32 1008 0 0.53803958 0.01176187 4 
212 178 1008 0 0.34459610 0.01174609 4 
213 183 1008 0 0.22233868 0.01180890 4 
214 25 1010 0 0.60236133 0.01178428 4 
215 32 1010 0 0.30591807 0.01401388 5 
216 172 1010 0 0.10368354 0.01628730 6 
217 178 1010 0 0.19279072 0.02639954 10 
218 5 1014 2 421.17470742 0.00000536 1 
219 19 1016 0 0.44047719 0.02053566 8 
220 166 1016 0 0.20189646 0.01184531 4 
221 172 1016 0 0.07393216 0.01401570 5 
222 151 1029 0 0.03533130 0.01430533 5 
223 157 1029 0 0.02672450 0.01199932 4 
224 163 1029 0 3.39703566 0.01200880 4 
225 166 1029 0 0.49353449 0.01200829 4 
226 132 1084 0 4.21993706 0.01504458 5 
227 711 1127 2 144.84807751 0.00000585 1 
228 101 1138 0 0.63021658 0.01575147 5 
229 107 1147 0 0.73708347 0.01328335 4 
230 114 1147 0 0.03971358 0.01083889 3 
231 107 1150 0 7.45683387 0.01333336 4 
232 114 1150 0 1.00561260 0.01088398 3 
233 114 1158 0 0.16899687 0.01092133 3 
234 121 1158 0 0.69099743 0.01347466 4 
235 121 1164 0 0.45182924 0.01603581 5 
236 126 1164 0 0.04418665 0.01354153 4 
237 114 1175 0 0.14266969 0.01369559 4 
238 121 1175 0 0.27324351 0.01368664 4 
239 923 1175 0 0.18719011 0.01371936 4 
240 929 1175 0 0.16073549 0.01371520 4 
241 1158 1175 0 0.00134797 0.01114316 3 
242 101 1188 0 0.32950319 0.01386594 4 
243 939 1188 0 0.55418798 0.01382374 4 
244 1138 1188 0 0.03006025 0.01137953 3 
245 1147 1188 0 0.04063922 0.01132204 3 
246 1150 1188 0 1.83245351 0.01385811 4 
247 1050 1210 0 0.00345523 0.01407813 4 
248 1061 1210 0 0.57363906 0.01671258 5 
249 1075 1210 0 0.23107861 0.01672521 5 
250 1084 1210 0 3.13555510 0.01673576 5 
251 1088 1210 0 0.59156319 0.01413205 4 
252 1093 1210 0 0.13111230 0.01939277 6 
253 1098 1210 0 0.04730346 0.01412365 4 
254 157 1217 0 0.32750279 0.01423042 4 
255 163 1217 0 0.19904338 0.01440005 4 
256 1029 1217 0 0.01250493 0.01166669 3 
257 1044 1217 0 3.98258990 0.01437891 4 
258 1050 1217 0 4.97161000 0.01707131 5 
259 163 297 0 0.27920255 0.01529636 4 
260 189 400 0 2.09679271 0.01477407 4 
261 1056 1217 0 9.66143264 0.01743945 5 
