VERTEX2 0 0.00002975 -0.00000061 -0.00000202
VERTEX2 1 0.00002976 -0.00000061 -0.00064402
VERTEX2 2 0.00002976 -0.00000062 -0.00118203
VERTEX2 3 0.01103162 -0.00097562 -0.00356403
VERTEX2 4 0.64103818 -0.01120204 -0.00744603
VERTEX2 5 0.69604588 -0.01171764 -0.09872803
VERTEX2 6 0.70029899 -0.01543698 -0.89600003
VERTEX2 7 0.69398630 0.00421151 -1.51153703
VERTEX2 8 0.69929320 0.02669227 -2.12507103
VERTEX2 9 0.71614449 0.04112126 -2.76314103
VERTEX2 10 0.72901102 0.04321862 2.90551328
VERTEX2 11 0.73323361 0.04053557 2.23123428
VERTEX2 12 0.73321632 0.04154401 1.58176028
VERTEX2 13 0.73878252 0.05906909 0.92226228
VERTEX2 14 0.75968807 0.07374926 0.31402328
VERTEX2 15 0.76860148 0.07435618 -0.21090472
VERTEX2 16 1.06252342 0.01415014 -0.22959672
VERTEX2 17 1.66367679 -0.13311782 -0.26082472
VERTEX2 18 2.28703060 -0.29648416 -0.27100172
VERTEX2 19 2.91432612 -0.49425928 -0.31957772
VERTEX2 20 3.50863054 -0.68509647 -0.31385615
VERTEX2 21 4.11795618 -0.83827881 -0.20238386
VERTEX2 22 4.72778081 -0.98038227 -0.18508243
VERTEX2 23 5.36593978 -1.02541567 -0.07760745
VERTEX2 24 5.99624261 -1.09737982 -0.13460454
VERTEX2 25 6.62978944 -1.16579188 -0.13175566
VERTEX2 26 7.23811916 -1.26646676 -0.17243703
VERTEX2 27 7.85337676 -1.35804851 -0.15675040
VERTEX2 28 8.43432806 -1.45697280 -0.16134005
VERTEX2 29 8.81270982 -1.51463111 -0.13072230
VERTEX2 30 8.82131347 -1.51692719 -0.66318287
VERTEX2 31 8.92195058 -1.65228597 -0.93177271
VERTEX2 32 9.28897566 -2.16718836 -0.95045849
VERTEX2 33 9.67082845 -2.67340577 -0.89832028
VERTEX2 34 10.08317180 -3.16367228 -0.87607910
VERTEX2 35 10.50648900 -3.64604570 -0.84064200
VERTEX2 36 10.93712209 -4.12927000 -0.84815729
VERTEX2 37 11.22109898 -4.44351168 -0.83944250
VERTEX2 38 11.21929335 -4.44108888 -1.15930020
VERTEX2 39 11.21644600 -4.42866490 -1.32879592
VERTEX2 40 11.36488815 -4.99501419 -1.31044599
VERTEX2 41 11.51982306 -5.58647537 -1.34133563
VERTEX2 42 11.64753184 -6.14138614 -1.36297101
VERTEX2 43 11.76050923 -6.72794684 -1.40204815
VERTEX2 44 11.85742560 -7.31389557 -1.43790303
VERTEX2 45 11.92141535 -7.93162381 -1.49374585
VERTEX2 46 11.96124440 -8.55179471 -1.51343487
VERTEX2 47 11.99002347 -9.17197791 -1.55542536
VERTEX2 48 11.99509910 -9.79693440 -1.56226435
VERTEX2 49 11.99618908 -10.41789283 -1.61341144
VERTEX2 50 11.95060194 -11.00713809 -1.65821374
VERTEX2 51 11.90321221 -11.60327946 -1.68747392
VERTEX2 52 11.81362894 -12.18663164 -1.76440907
VERTEX2 53 11.72078996 -12.74445916 -1.75224572
VERTEX2 54 11.61427771 -13.25668231 -1.81453492
VERTEX2 55 11.62074922 -13.22369428 -1.80944080
VERTEX2 56 11.62038211 -13.22521832 -1.79905177
VERTEX2 57 11.48380737 -13.84388607 -1.81062859
VERTEX2 58 11.34441238 -14.45082065 -1.76459092
VERTEX2 59 11.22225130 -15.05699013 -1.78834452
VERTEX2 60 11.09933739 -15.65949565 -1.76713055
VERTEX2 61 10.97052681 -16.26255835 -1.81804100
VERTEX2 62 10.82626478 -16.82163555 -1.77838247
VERTEX2 63 10.68015060 -17.38574175 -1.81404135
VERTEX2 64 10.55052072 -17.94463997 -1.75083971
VERTEX2 65 10.42125384 -18.50189872 -1.80246870
VERTEX2 66 10.27315493 -19.08981104 -1.81074398
VERTEX2 67 10.11324352 -19.68192422 -1.80963575
VERTEX2 68 10.00756062 -20.12977352 -1.82541835
VERTEX2 69 10.01082532 -20.11878792 -1.98037706
VERTEX2 70 10.01773978 -20.10526860 -2.65483317
VERTEX2 71 10.04111913 -20.10371646 2.98562762
VERTEX2 72 10.05409581 -20.10518217 2.97617469
VERTEX2 73 10.06171453 -20.10699415 2.91126142
VERTEX2 74 10.06168060 -20.10695861 2.28942429
VERTEX2 75 10.06839941 -20.10951956 1.93709140
VERTEX2 76 10.05639492 -20.09643726 2.63092444
VERTEX2 77 10.05210783 -20.09468187 2.86390878
VERTEX2 78 9.77101577 -20.10770130 -3.08212746
VERTEX2 79 9.15362948 -20.15152578 -3.08736620
VERTEX2 80 8.52212383 -20.15526801 3.12131987
VERTEX2 81 7.89813348 -20.13390077 3.09534282
VERTEX2 82 7.30851163 -20.10403531 3.04026000
VERTEX2 83 6.73125819 -20.06294716 3.01564853
VERTEX2 84 6.18229429 -19.98686958 2.93673166
VERTEX2 85 5.65243766 -19.89173476 2.94315236
VERTEX2 86 5.04478636 -19.77541144 2.85338417
VERTEX2 87 4.59711294 -19.64492412 2.80536319
VERTEX2 88 4.23685159 -19.51473133 2.77536842
VERTEX2 89 4.24546738 -19.51508532 -3.11189069
VERTEX2 90 3.64093478 -19.52331007 3.14007734
VERTEX2 91 3.02582108 -19.52386908 -3.09417027
VERTEX2 92 2.42699144 -19.52433127 3.07315479
VERTEX2 93 1.80531149 -19.42623397 2.97207202
VERTEX2 94 1.18320653 -19.29199132 2.92910090
VERTEX2 95 0.55888429 -19.20543816 3.07092968
VERTEX2 96 -0.05016768 -19.15543225 3.09455015
VERTEX2 97 -0.64069767 -19.09334268 3.02358754
VERTEX2 98 -1.23398381 -18.99248017 2.96542963
VERTEX2 99 -1.94415489 -18.86774020 3.01219269
VERTEX2 100 -2.51498013 -18.75964320 2.96053596
VERTEX2 101 -3.12728742 -18.70392994 3.06384089
VERTEX2 102 -3.74414916 -18.62591206 2.95849455
VERTEX2 103 -4.35697504 -18.51332778 3.05482730
VERTEX2 104 -4.97064253 -18.43977737 3.02102221
VERTEX2 105 -5.58385962 -18.37803915 3.06750417
VERTEX2 106 -6.18631393 -18.31021425 3.01248241
VERTEX2 107 -6.80513336 -18.21639651 3.00840083
VERTEX2 108 -7.25920225 -18.17037417 3.07016201
VERTEX2 109 -7.30358754 -18.15942164 2.62197244
VERTEX2 110 -7.32011960 -18.14252914 2.03104592
VERTEX2 111 -7.32084501 -18.06144575 1.52556029
VERTEX2 112 -7.30148708 -17.42746229 1.58018935
VERTEX2 113 -7.32432199 -16.80549718 1.62743309
VERTEX2 114 -7.36198162 -16.19215876 1.66443360
VERTEX2 115 -7.43942174 -15.55066464 1.72457325
VERTEX2 116 -7.56274315 -14.79998326 1.76859585
VERTEX2 117 -7.70225010 -14.19081253 1.86409978
VERTEX2 118 -7.70707631 -14.17010845 1.52914520
VERTEX2 119 -7.65460424 -13.64587197 1.47589630
VERTEX2 120 -7.60654029 -12.98428255 1.56613294
VERTEX2 121 -7.62212080 -12.36189442 1.63381143
VERTEX2 122 -7.66158132 -11.78049298 1.69077647
VERTEX2 123 -7.68823470 -11.60182752 1.67871713
VERTEX2 124 -7.60490594 -11.36222965 1.25587352
VERTEX2 125 -7.39509334 -10.76704931 1.24567624
VERTEX2 126 -7.27050815 -10.14933103 1.45272528
VERTEX2 127 -7.18023757 -9.51033601 1.45200281
VERTEX2 128 -7.11312859 -8.86828721 1.48939934
VERTEX2 129 -7.03577134 -8.22977393 1.45776078
VERTEX2 130 -6.97816949 -7.59403214 1.51148451
VERTEX2 131 -6.94319645 -6.96474420 1.60102945
VERTEX2 132 -6.93697346 -6.34559112 1.55235800
VERTEX2 133 -6.89853482 -5.78066915 1.51597502
VERTEX2 134 -6.85385792 -5.18609932 1.49828958
VERTEX2 135 -6.78130778 -4.60771856 1.47267831
VERTEX2 136 -6.71815066 -3.97438545 1.49284594
VERTEX2 137 -6.63352164 -3.34087929 1.45125288
VERTEX2 138 -6.57079486 -2.70962966 1.53099403
VERTEX2 139 -6.56770930 -2.08290414 1.59520102
VERTEX2 140 -6.60901117 -1.43338242 1.62474642
VERTEX2 141 -6.62724120 -0.79822656 1.57533594
VERTEX2 142 -6.63937298 -0.15311387 1.57064745
VERTEX2 143 -6.56971822 0.48432019 1.45908687
VERTEX2 144 -6.53651087 0.85366969 1.47580050
VERTEX2 145 -6.53112373 0.87092618 0.97560621
VERTEX2 146 -6.52990112 0.87765533 0.38034957
VERTEX2 147 -6.45768559 0.87358989 -0.10794075
VERTEX2 148 -6.00890024 0.81669656 -0.14444623
VERTEX2 149 -5.35090535 0.72794304 -0.12017483
VERTEX2 150 -4.69976485 0.66857369 -0.10682533
VERTEX2 151 -4.04327723 0.62629063 -0.02207860
VERTEX2 152 -3.41671118 0.59698006 -0.08320416
VERTEX2 153 -2.79029124 0.57014867 0.00989197
VERTEX2 154 -2.16744487 0.55488254 -0.06000337
VERTEX2 155 -1.54097131 0.52691900 -0.02683304
VERTEX2 156 -0.91205072 0.51798238 0.00361455
VERTEX2 157 -0.34646744 0.50496033 -0.06123029
VERTEX2 158 -0.16650178 0.49353729 -0.04485192
VERTEX2 159 -0.17363248 0.49593376 0.90086685
VERTEX2 160 -0.17361986 0.49639035 1.89288031
VERTEX2 161 -0.17667661 0.48798045 2.82767158
VERTEX2 162 -0.16658232 0.49181938 -2.46337175
VERTEX2 163 -0.16796330 0.48184255 -1.50830617
VERTEX2 164 -0.22045213 0.54790597 -0.51890242
VERTEX2 165 -0.04935744 0.52472833 -0.08556879
VERTEX2 166 0.65441626 0.47757010 -0.07119176
VERTEX2 167 1.27208291 0.42828222 -0.10010800
VERTEX2 168 1.86109289 0.38014569 -0.08780685
VERTEX2 169 2.45553929 0.31008132 -0.12456370
VERTEX2 170 3.04142860 0.24327790 -0.14517498
VERTEX2 171 3.59979509 0.14673962 -0.18358005
VERTEX2 172 4.22209499 0.04131965 -0.16976478
VERTEX2 173 4.84965321 -0.07987475 -0.19254923
VERTEX2 174 5.47346951 -0.19462986 -0.15236249
VERTEX2 175 6.08836426 -0.28526238 -0.17702532
VERTEX2 176 6.68636716 -0.40585783 -0.16738172
VERTEX2 177 7.30832732 -0.50900222 -0.19499452
VERTEX2 178 7.92832200 -0.65515574 -0.23395908
VERTEX2 179 8.33079365 -0.73912933 -0.18074072
VERTEX2 180 8.38080152 -0.75264852 -0.62299450
VERTEX2 181 8.82055552 -1.07113953 -0.67491076
VERTEX2 182 9.22608546 -1.43151381 -0.84910406
VERTEX2 183 9.57288166 -1.85390942 -0.90656220
VERTEX2 184 9.90551365 -2.36203163 -1.04879868
VERTEX2 185 10.18771078 -2.89544315 -1.13734332
VERTEX2 186 10.40975769 -3.46508182 -1.19977034
VERTEX2 187 10.60983981 -4.01301392 -1.21863127
VERTEX2 188 10.81867800 -4.57970434 -1.22028256
VERTEX2 189 11.02241539 -5.15037271 -1.24295829
VERTEX2 190 11.21728023 -5.74991572 -1.27292118
VERTEX2 191 11.40104723 -6.34924793 -1.29811149
VERTEX2 192 11.56510479 -6.94283124 -1.32751261
VERTEX2 193 11.69701945 -7.48899655 -1.38423498
VERTEX2 194 11.80505104 -8.05764795 -1.41182896
VERTEX2 195 11.89300029 -8.62311044 -1.44112734
VERTEX2 196 11.96808507 -9.24633138 -1.48215736
VERTEX2 197 12.01428603 -9.86602689 -1.50988441
VERTEX2 198 12.04758546 -10.48333904 -1.56831704
VERTEX2 199 12.02737122 -11.09115151 -1.62998696
VERTEX2 200 11.98791735 -11.69416785 -1.65209037
VERTEX2 201 11.92456665 -12.29425347 -1.70898322
VERTEX2 202 11.86706368 -12.79928272 -1.68919530
VERTEX2 203 11.77406954 -13.53396035 -1.74237290
VERTEX2 204 11.65922415 -14.11057093 -1.84461968
VERTEX2 205 11.49659153 -14.67326195 -1.85425983
VERTEX2 206 11.34874587 -15.22084189 -1.85253295
VERTEX2 207 11.19521194 -15.78832466 -1.83673499
VERTEX2 208 11.02823217 -16.38869497 -1.84627857
VERTEX2 209 10.87226293 -16.99063553 -1.80810110
VERTEX2 210 10.71550827 -17.58410394 -1.81696743
VERTEX2 211 10.57277561 -18.18116150 -1.81470908
VERTEX2 212 10.40236612 -18.76817901 -1.86758623
VERTEX2 213 10.21343981 -19.35898562 -1.88837771
VERTEX2 214 10.01956780 -19.93619498 -1.89219497
VERTEX2 215 9.90799829 -20.25875502 -1.92801080
VERTEX2 216 9.91948341 -20.23864379 -2.42715641
VERTEX2 217 9.94481244 -20.23569243 -2.96984409
VERTEX2 218 9.95456283 -20.23933184 -3.02586251
VERTEX2 219 9.38849496 -20.20039992 3.08875370
VERTEX2 220 8.77991806 -20.16174762 3.04887846
VERTEX2 221 8.13691287 -20.09939655 3.09922751
VERTEX2 222 7.50880797 -20.06083649 3.07365281
VERTEX2 223 6.88096701 -20.03562404 -3.11311115
VERTEX2 224 6.26661903 -20.04057723 -3.13872523
VERTEX2 225 5.64830000 -20.03935353 -3.08875385
VERTEX2 226 5.03084440 -20.03760544 -3.13749092
VERTEX2 227 4.38570781 -20.11679269 -2.98072620
VERTEX2 228 3.86598493 -20.10809055 2.94090085
VERTEX2 229 3.39379121 -20.06535799 3.06217870
VERTEX2 230 3.11334562 -20.05455049 3.03294202
VERTEX2 231 3.33277501 -20.07159105 3.10248716
VERTEX2 232 3.01505570 -19.93219074 2.67663166
VERTEX2 233 2.44417137 -19.67372020 2.77846534
VERTEX2 234 1.86303722 -19.44991351 2.73387357
VERTEX2 235 1.60895965 -19.34256423 2.72847382
VERTEX2 236 1.27572903 -19.34612497 3.13426423
VERTEX2 237 0.65188093 -19.36523871 -3.07882605
VERTEX2 238 0.03726520 -19.41735679 -3.11182744
VERTEX2 239 -0.57575237 -19.41827681 3.10355712
VERTEX2 240 -1.14778511 -19.30345852 2.88559618
VERTEX2 241 -1.68984867 -19.17507957 2.97100809
VERTEX2 242 -2.27091416 -19.10995161 3.00876775
VERTEX2 243 -2.87687892 -19.02685492 3.00740654
VERTEX2 244 -3.50202713 -18.98264130 3.07867625
VERTEX2 245 -4.11724667 -18.93608051 3.02491486
VERTEX2 246 -4.72047677 -18.85255880 2.95316237
VERTEX2 247 -5.32434938 -18.77379389 3.05995547
VERTEX2 248 -5.87798128 -18.75586850 3.09216766
VERTEX2 249 -5.82899623 -18.76285925 -2.99735560
VERTEX2 250 -5.82687244 -18.76274962 2.69679685
VERTEX2 251 -6.15402184 -18.42174273 2.27322267
VERTEX2 252 -6.51275280 -18.00340632 2.28255674
VERTEX2 253 -6.88820193 -17.55972501 2.27240139
VERTEX2 254 -7.25773076 -17.10389358 2.23205929
VERTEX2 255 -7.32777876 -17.01655056 2.31684295
VERTEX2 256 -7.33105467 -16.94526689 1.83633451
VERTEX2 257 -7.39903025 -16.44262893 1.71606639
VERTEX2 258 -7.48481648 -15.87740010 1.78786621
VERTEX2 259 -7.63201792 -15.28088578 1.82814882
VERTEX2 260 -7.76899385 -14.72856292 1.81956770
VERTEX2 261 -7.76694220 -14.68708731 1.50780150
VERTEX2 262 -7.70853774 -14.02971626 1.51441508
VERTEX2 263 -7.67108176 -13.40696900 1.52792888
VERTEX2 264 -7.66102689 -12.79935423 1.62515961
VERTEX2 265 -7.69762779 -12.19581684 1.64557908
VERTEX2 266 -7.65436214 -11.61221166 1.51683528
VERTEX2 267 -7.61029445 -10.86123172 1.48775900
VERTEX2 268 -7.48320469 -10.25233298 1.37776042
VERTEX2 269 -7.36926927 -9.63431980 1.40829311
VERTEX2 270 -7.30385712 -9.00732375 1.52296497
VERTEX2 271 -7.21561236 -8.38110503 1.41325706
VERTEX2 272 -7.13776056 -7.75089411 1.47944146
VERTEX2 273 -7.15551752 -7.11992185 1.69218685
VERTEX2 274 -7.23107860 -6.50629516 1.71673523
VERTEX2 275 -7.22746212 -5.89708001 1.54602411
VERTEX2 276 -7.22945772 -5.28918234 1.66129612
VERTEX2 277 -7.28472069 -4.72726752 1.63646987
VERTEX2 278 -7.25165791 -4.08494912 1.54857188
VERTEX2 279 -7.22111601 -3.45252422 1.49247692
VERTEX2 280 -7.16167168 -2.82229500 1.49404558
VERTEX2 281 -7.07932092 -2.18782842 1.39325293
VERTEX2 282 -6.96693970 -1.55663063 1.43301610
VERTEX2 283 -6.88796382 -0.92257877 1.42529579
VERTEX2 284 -6.78355575 -0.29617974 1.45277982
VERTEX2 285 -6.72685004 0.34831663 1.47290071
VERTEX2 286 -6.66969761 0.96506253 1.52555084
VERTEX2 287 -6.66789133 1.00926756 1.42007555
VERTEX2 288 -6.66256191 1.01915725 0.80852279
VERTEX2 289 -6.64487797 1.02878139 0.21218428
VERTEX2 290 -6.18150481 1.02276228 -0.01424806
VERTEX2 291 -5.53645090 1.01793740 -0.00127162
VERTEX2 292 -4.91884590 1.00066985 -0.05601571
VERTEX2 293 -4.29245926 0.95774718 -0.07916390
VERTEX2 294 -3.66958679 0.90769670 -0.07855399
VERTEX2 295 -3.04584619 0.82936994 -0.19112402
VERTEX2 296 -2.42672440 0.68632684 -0.23658668
VERTEX2 297 -1.80974438 0.53628305 -0.24833529
VERTEX2 298 -1.19965454 0.38575385 -0.24909902
VERTEX2 299 -0.62659565 0.23269202 -0.18811350
VERTEX2 300 -0.03817581 0.14962442 -0.14622125
VERTEX2 301 0.52483880 0.05245998 -0.20578316
VERTEX2 302 0.82592699 -0.01131810 -0.22711411
VERTEX2 303 0.80698459 -0.00668601 -0.22339586
VERTEX2 304 1.30645064 -0.12043946 -0.21434972
VERTEX2 305 1.92550662 -0.16344416 -0.03123323
VERTEX2 306 2.55534481 -0.17432166 -0.04981845
VERTEX2 307 3.19509726 -0.22280424 -0.08705005
VERTEX2 308 3.82334561 -0.28668469 -0.14317963
VERTEX2 309 4.45889716 -0.34830190 -0.05082748
VERTEX2 310 5.08699948 -0.37975408 -0.08723618
VERTEX2 311 5.36867778 -0.40651923 0.08718827
VERTEX2 312 5.36584056 -0.40798841 1.07476616
VERTEX2 313 5.37081078 -0.19173984 1.56978552
VERTEX2 314 5.35288686 0.43410704 1.60910618
VERTEX2 315 5.32627119 1.05935835 1.60434482
VERTEX2 316 5.28905635 1.70364791 1.65404087
VERTEX2 317 5.23162434 2.34443709 1.66249931
VERTEX2 318 5.13771694 2.98037910 1.75533356
VERTEX2 319 5.06152310 3.32558808 1.82507025
VERTEX2 320 5.06453746 3.33456766 2.78823162
VERTEX2 321 5.06497595 3.33469285 -2.46097010
VERTEX2 322 5.06601973 3.33660963 -1.47023876
VERTEX2 323 5.08144859 3.32096175 -0.48327857
VERTEX2 324 5.09482942 3.31611510 0.17276501
VERTEX2 325 5.10612024 3.31659617 -0.35814152
VERTEX2 326 5.12726098 3.29946323 -0.95687679
VERTEX2 327 5.13036388 3.28142441 -1.58389956
VERTEX2 328 5.08785083 2.64508531 -1.63199228
VERTEX2 329 5.04027500 2.01247778 -1.69792494
VERTEX2 330 4.95488735 1.39595503 -1.72740907
VERTEX2 331 4.86291712 0.77937985 -1.75220421
VERTEX2 332 4.74140885 0.17039117 -1.78143599
VERTEX2 333 4.70720588 0.01661387 -1.72811272
VERTEX2 334 4.74347180 0.02543797 -0.71479169
VERTEX2 335 4.80660580 0.01448779 0.24062042
VERTEX2 336 4.85240476 0.03474460 1.14793744
VERTEX2 337 4.85521160 0.06010256 2.09180218
VERTEX2 338 4.85451423 0.06056461 3.07510244
VERTEX2 339 4.86864285 0.06967371 -2.16473431
VERTEX2 340 4.86891651 0.06809302 -1.15133313
VERTEX2 341 4.98480873 -0.00093224 -0.52172147
VERTEX2 342 5.56063030 -0.30587345 -0.42148064
VERTEX2 343 6.13901254 -0.50742703 -0.28986593
VERTEX2 344 6.72813969 -0.69080193 -0.29926737
VERTEX2 345 6.96655542 -0.76105072 -0.32609851
VERTEX2 346 6.95297062 -0.75660061 -0.97170603
VERTEX2 347 6.95540115 -0.84526175 -1.52889087
VERTEX2 348 6.97325276 -1.43612492 -1.54497797
VERTEX2 349 6.97097069 -2.05590530 -1.58458304
VERTEX2 350 6.95776880 -2.84428138 -1.60360638
VERTEX2 351 6.94349971 -3.11833214 -1.63196077
VERTEX2 352 6.94162606 -3.12726592 -1.91878682
VERTEX2 353 6.92979419 -3.14178022 -2.58175249
VERTEX2 354 6.91577215 -3.14580323 3.10031675
VERTEX2 355 6.89526085 -3.14508056 2.38195448
VERTEX2 356 6.88936207 -3.13466412 1.80890092
VERTEX2 357 6.89198173 -3.11898763 1.15824554
VERTEX2 358 6.89289675 -3.11771468 0.54509858
VERTEX2 359 6.88095609 -3.12283484 -0.06662599
VERTEX2 360 6.86600597 -3.11987943 -0.24170287
VERTEX2 361 6.85765842 -3.12206400 0.68093115
VERTEX2 362 6.94263055 -2.89103304 1.21670639
VERTEX2 363 7.04524771 -2.62278340 1.21108182
VERTEX2 364 6.97579675 -2.28628305 1.82780758
VERTEX2 365 6.92016700 -1.99679689 1.33247831
VERTEX2 366 7.02876768 -1.87381568 0.78027060
VERTEX2 367 7.47443376 -1.43868427 0.78309761
VERTEX2 368 7.93255811 -1.00062982 0.73507967
VERTEX2 369 7.95350561 -0.97534504 0.48293653
VERTEX2 370 7.97784697 -0.97147958 -0.10502856
VERTEX2 371 7.98393185 -0.97464812 -0.65147376
VERTEX2 372 8.41132858 -1.32402832 -0.67917296
VERTEX2 373 8.88240663 -1.68983239 -0.67719962
VERTEX2 374 9.35975127 -2.09388650 -0.73838152
VERTEX2 375 9.69758739 -2.39585788 -0.77493965
VERTEX2 376 9.68655641 -2.38882934 -0.09764138
VERTEX2 377 9.73670002 -2.35491803 0.58012711
VERTEX2 378 10.28580647 -1.97776992 0.62695631
VERTEX2 379 10.78494819 -1.56760995 0.70389128
VERTEX2 380 11.25048198 -1.12084332 0.81476660
VERTEX2 381 11.41103466 -0.94513495 0.95570517
VERTEX2 382 11.41837481 -0.93400852 1.97710463
VERTEX2 383 11.41059218 -0.92835707 2.98459735
VERTEX2 384 11.41541539 -0.92422888 -2.31469193
VERTEX2 385 11.41653025 -0.92219350 -1.26306987
VERTEX2 386 11.51079852 -1.05226250 -1.03023047
VERTEX2 387 11.95184784 -1.47734271 -0.68918980
VERTEX2 388 12.43173622 -1.85388251 -0.69042155
VERTEX2 389 12.88068531 -2.25288832 -0.78452595
VERTEX2 390 12.90996970 -2.28050500 -0.33165999
VERTEX2 391 12.76694507 -2.26773318 0.02878694
VERTEX2 392 12.75972482 -2.26732770 1.02711628
VERTEX2 393 12.76779373 -2.19784113 2.22638298
VERTEX2 394 12.74106415 -2.18219934 -3.10532555
VERTEX2 395 12.98270543 -2.10081492 -2.78695325
VERTEX2 396 12.99327350 -2.09586203 -2.79756215
VERTEX2 397 12.99140022 -2.09594028 -2.81926232
VERTEX2 398 13.00282794 -2.08976022 -2.63716802
VERTEX2 399 12.92959766 -2.15899674 -2.35642037
VERTEX2 400 12.48493043 -2.60640639 -2.31797866
VERTEX2 401 12.05112807 -3.03807522 -2.41280815
VERTEX2 402 11.51849682 -3.35760729 -2.68311143
VERTEX2 403 10.96365980 -3.62461436 -2.71929239
VERTEX2 404 10.43093508 -3.84511716 -2.80062803
VERTEX2 405 10.44445646 -3.83775305 -2.27143620
VERTEX2 406 10.44873599 -3.80223620 -1.30094950
VERTEX2 407 10.57531639 -4.11458411 -1.17554892
VERTEX2 408 10.79753275 -4.66245487 -1.21586616
VERTEX2 409 10.88485555 -4.91965965 -1.31813214
VERTEX2 410 10.88476779 -4.89458594 -1.95185837
VERTEX2 411 10.89842923 -4.86841328 -2.54673727
VERTEX2 412 10.40381405 -5.08284294 -2.75289673
VERTEX2 413 9.82527855 -5.29667842 -2.83500970
VERTEX2 414 9.24040858 -5.49944616 -2.73388774
VERTEX2 415 8.64233612 -5.74960761 -2.72659568
VERTEX2 416 8.36022898 -5.88284328 -2.78149082
VERTEX2 417 8.06897636 -5.87365147 3.07781522
VERTEX2 418 7.63069653 -5.84057638 3.03295583
VERTEX2 419 7.63499811 -5.83949450 -2.81865063
VERTEX2 420 7.68922093 -5.81394526 -2.60206195
VERTEX2 421 7.69212528 -5.80909607 -1.63324453
VERTEX2 422 7.68940578 -5.81308117 -0.39252153
VERTEX2 423 7.69349443 -5.81338939 -0.04637337
VERTEX2 424 7.69220192 -5.81360882 -0.04553471
VERTEX2 425 7.68532937 -5.81766563 -0.03332747
VERTEX2 426 7.68390907 -5.81789710 -0.04197511
VERTEX2 427 7.71504705 -5.81892212 -0.03838431
VERTEX2 428 8.37607078 -5.82760395 -0.04344687
VERTEX2 429 9.01999608 -5.86461351 -0.08380353
VERTEX2 430 9.36100260 -5.89869013 -0.12948247
VERTEX2 431 9.33727543 -5.89629763 -0.07714560
VERTEX2 432 9.34836004 -5.89997422 -0.70817436
VERTEX2 433 9.35337103 -5.90659938 -1.38475187
VERTEX2 434 9.32626979 -6.44373417 -1.61255078
VERTEX2 435 9.30524864 -7.08464601 -1.64057691
VERTEX2 436 9.23853563 -7.72342743 -1.64908751
VERTEX2 437 9.19747788 -8.37168070 -1.64086793
VERTEX2 438 9.15345222 -8.84158505 -1.67068209
VERTEX2 439 9.15172844 -8.84852153 -2.10525584
VERTEX2 440 9.15851143 -8.84300630 -2.74659909
VERTEX2 441 9.17587238 -8.84098314 2.91631955
VERTEX2 442 9.18456353 -8.84552366 2.28870948
VERTEX2 443 9.18476681 -8.84819934 1.72347504
VERTEX2 444 9.18736404 -8.83315285 1.13364030
VERTEX2 445 9.19262555 -8.82794919 0.47729413
VERTEX2 446 9.19137487 -8.82876125 0.67973806
VERTEX2 447 9.20245011 -8.80635935 1.31294291
VERTEX2 448 9.34170287 -8.18291392 1.33072878
VERTEX2 449 9.46359906 -7.54527600 1.43237464
VERTEX2 450 9.54665909 -6.90775288 1.44630679
VERTEX2 451 9.59129119 -6.43724112 1.48908037
VERTEX2 452 9.59132445 -6.43688209 1.11122138
VERTEX2 453 9.58812582 -6.44291166 0.48921436
VERTEX2 454 9.84895450 -6.41846514 0.06733270
VERTEX2 455 10.44623772 -6.38356671 0.04662859
VERTEX2 456 11.07737225 -6.36813077 -0.01811318
VERTEX2 457 11.43074355 -6.38451874 -0.10599087
VERTEX2 458 11.42531587 -6.38193318 -0.75222877
VERTEX2 459 11.41611787 -6.34714907 -1.36074784
VERTEX2 460 11.40194035 -6.74565538 -1.61794029
VERTEX2 461 11.34315675 -7.36293123 -1.70601696
VERTEX2 462 11.26384369 -7.87348175 -1.74614611
VERTEX2 463 11.27470355 -7.85136451 -0.90625759
VERTEX2 464 11.53041137 -7.91981524 -0.22847826
VERTEX2 465 12.11531797 -8.04382891 -0.22084936
VERTEX2 466 12.67023761 -8.18661384 -0.27661519
VERTEX2 467 13.24296549 -8.35979221 -0.32019838
VERTEX2 468 13.86110256 -8.56929738 -0.35549966
VERTEX2 469 14.45667524 -8.82633708 -0.43817693
VERTEX2 470 14.91408325 -9.03534030 -0.41904739
VERTEX2 471 14.92278369 -9.03989027 -0.61849365
VERTEX2 472 14.94039867 -9.06371311 -1.25032052
VERTEX2 473 14.94197769 -9.07092598 -1.89006468
VERTEX2 474 14.94049653 -9.07283941 -2.52056478
VERTEX2 475 14.94293091 -9.07247080 -3.09421370
VERTEX2 476 14.94537936 -9.07276750 2.53790444
VERTEX2 477 14.94995498 -9.08140996 1.97850582
VERTEX2 478 14.95084704 -9.09122878 1.35158725
VERTEX2 479 14.94989992 -9.09348630 0.89739641
VERTEX2 480 14.95021713 -9.09274284 1.45954527
VERTEX2 481 14.94635764 -9.07708479 2.46175705
VERTEX2 482 14.95080147 -9.07879638 2.79794541
VERTEX2 483 14.95747862 -9.08110581 2.79258383
VERTEX2 484 14.52931274 -8.92877530 2.82812593
VERTEX2 485 13.92824120 -8.74812183 2.82580274
VERTEX2 486 13.32414965 -8.54348650 2.83532379
VERTEX2 487 12.71187757 -8.37220619 2.86359525
VERTEX2 488 12.09728927 -8.19907162 2.89971140
VERTEX2 489 11.62575354 -8.09780664 2.93013656
VERTEX2 490 11.63063913 -8.09726625 -2.86793542
VERTEX2 491 11.63816179 -8.08706055 -1.93181213
VERTEX2 492 11.62458669 -8.31664209 -1.62877437
VERTEX2 493 11.57102989 -8.92093776 -1.68382795
VERTEX2 494 11.49218408 -9.53287613 -1.74474985
VERTEX2 495 11.43168826 -10.15580694 -1.63776260
VERTEX2 496 11.39639367 -10.77966389 -1.52024190
VERTEX2 497 11.39764654 -11.39651690 -1.60649652
VERTEX2 498 11.33721086 -12.01765440 -1.70853929
VERTEX2 499 11.21476269 -12.64468263 -1.72576582
VERTEX2 500 11.27968735 -13.20974720 -1.39715856
VERTEX2 501 11.36132101 -13.78702008 -1.47004434
VERTEX2 502 11.39331389 -14.48106051 -1.55534610
VERTEX2 503 11.39364636 -14.92663565 -1.57310792
VERTEX2 504 11.39745156 -14.91547632 -0.71243561
VERTEX2 505 11.63967219 -14.93979593 -0.08995521
VERTEX2 506 12.23232649 -15.01286724 -0.24330238
VERTEX2 507 12.81492431 -15.17452041 -0.32261698
VERTEX2 508 13.38555886 -15.37828827 -0.33661218
VERTEX2 509 14.00777137 -15.60385984 -0.39298651
VERTEX2 510 14.36554701 -15.75845421 -0.40733922
VERTEX2 511 14.36339763 -15.73965099 0.46822772
VERTEX2 512 14.38287023 -15.69721050 1.66834252
VERTEX2 513 14.37865630 -15.68536662 2.62430402
VERTEX2 514 14.31069094 -15.66737620 2.85005096
VERTEX2 515 13.69812932 -15.49500977 2.85073687
VERTEX2 516 13.11083818 -15.30890088 2.86621199
VERTEX2 517 12.51660344 -15.16862041 2.89398739
VERTEX2 518 11.92273994 -15.02494629 2.91792911
VERTEX2 519 11.39987640 -14.90748754 2.90183879
VERTEX2 520 11.23129158 -14.86572459 -2.98345888
VERTEX2 521 11.25297741 -14.84126394 -1.97955396
VERTEX2 522 11.19279936 -15.23406446 -1.71577108
VERTEX2 523 11.10801056 -15.85455550 -1.72341504
VERTEX2 524 11.01023888 -16.42900411 -1.76554849
VERTEX2 525 10.91210941 -16.97116120 -1.74199182
VERTEX2 526 10.80201104 -17.54003712 -1.80085935
VERTEX2 527 10.66048810 -18.11932854 -1.83570216
VERTEX2 528 10.48429075 -18.68665322 -1.91172045
VERTEX2 529 10.27843177 -19.28944902 -1.94023631
VERTEX2 530 10.03738199 -19.88993619 -1.97052503
VERTEX2 531 9.77351728 -20.46634416 -2.05054848
VERTEX2 532 9.67767419 -20.65227464 -2.00013566
VERTEX2 533 9.67540565 -20.64167366 -1.00096712
VERTEX2 534 9.67627605 -20.64222157 -0.33442364
VERTEX2 535 9.67966215 -20.64251392 -0.33497885
VERTEX2 536 10.03672837 -20.72337857 -0.20449910
VERTEX2 537 10.64417055 -20.86680256 -0.26269979
VERTEX2 538 11.20510117 -21.03150690 -0.29000486
VERTEX2 539 11.81429891 -21.23576228 -0.35497186
VERTEX2 540 12.40263544 -21.48448780 -0.44806851
VERTEX2 541 12.99105597 -21.70813232 -0.28598524
VERTEX2 542 13.62253918 -21.84550242 -0.23046467
VERTEX2 543 13.74413886 -21.87510321 -0.26030394
VERTEX2 544 13.76437757 -21.87290189 0.37641998
VERTEX2 545 13.78628471 -21.83248450 1.44250025
VERTEX2 546 13.80457097 -21.87921086 2.26927380
VERTEX2 547 13.81157685 -21.87870621 -2.99247768
VERTEX2 548 13.82324939 -21.87113318 -2.06979608
VERTEX2 549 13.82453386 -21.86217843 -1.26340696
VERTEX2 550 13.82331971 -21.84293977 -1.74344377
VERTEX2 551 13.83074363 -21.82771867 -2.37004540
VERTEX2 552 13.84762377 -21.81921456 -3.00276106
VERTEX2 553 13.71032103 -21.76746886 2.70283577
VERTEX2 554 13.11721686 -21.48611742 2.66719294
VERTEX2 555 12.53697706 -21.21369432 2.75585663
VERTEX2 556 11.93198192 -20.99777503 2.89072679
VERTEX2 557 11.33159620 -20.82942338 2.84978708
VERTEX2 558 10.75529599 -20.67495355 2.93109828
VERTEX2 559 10.76324231 -20.67759300 2.52461837
VERTEX2 560 10.75667893 -20.67025393 2.02421637
VERTEX2 561 10.73406146 -20.64854358 2.52995681
VERTEX2 562 10.55499780 -20.64962390 -3.10914500
VERTEX2 563 9.98431002 -20.57500614 2.98253195
VERTEX2 564 9.37897521 -20.48781272 3.03153612
VERTEX2 565 8.77071137 -20.42230518 2.96799993
VERTEX2 566 8.81892271 -20.43764662 -2.54494062
VERTEX2 567 8.75913806 -20.44214130 -1.72476684
VERTEX2 568 8.70866618 -20.96717854 -1.66532287
VERTEX2 569 8.66209471 -21.54276179 -1.70520891
VERTEX2 570 8.60060695 -22.11744503 -1.69988418
VERTEX2 571 8.55128331 -22.47929673 -1.75247669
VERTEX2 572 8.54426938 -22.48482507 -2.00277897
VERTEX2 573 8.51280303 -22.55585517 -1.73408361
VERTEX2 574 8.55303188 -22.61465569 -0.81072836
VERTEX2 575 8.64470883 -22.64472045 0.16429609
VERTEX2 576 8.64707485 -22.64650736 1.18834666
VERTEX2 577 8.63934701 -22.62742939 2.15702701
VERTEX2 578 8.62840703 -22.59305522 1.79122771
VERTEX2 579 8.49081696 -21.94026192 1.80539176
VERTEX2 580 8.31702195 -21.30079175 1.87960912
VERTEX2 581 8.11145232 -20.67820957 1.92115352
VERTEX2 582 7.87915887 -20.06537571 1.96348698
VERTEX2 583 7.74372547 -19.75761608 2.04201720
VERTEX2 584 7.73759834 -19.74613035 2.88340207
VERTEX2 585 7.15903279 -19.61459771 3.00093787
VERTEX2 586 6.57162943 -19.54765789 3.09779838
VERTEX2 587 5.96056622 -19.54337001 3.12262978
VERTEX2 588 5.33825619 -19.52398348 3.12656706
VERTEX2 589 4.80057209 -19.55356343 -3.08531617
VERTEX2 590 4.25263262 -19.60028546 -3.02056668
VERTEX2 591 3.71702881 -19.67929482 -3.02597722
VERTEX2 592 3.17168260 -19.75188970 -3.03215929
VERTEX2 593 2.99392930 -19.77333909 -2.83170532
VERTEX2 594 3.00112378 -19.76568862 -1.87112651
VERTEX2 595 2.90753159 -20.36987391 -1.64381603
VERTEX2 596 2.87107090 -20.98932149 -1.67074459
VERTEX2 597 2.79444336 -21.65927526 -1.71456034
VERTEX2 598 2.70191327 -22.25891727 -1.75729662
VERTEX2 599 2.61990740 -22.63731999 -1.82407490
VERTEX2 600 2.62032900 -22.65252080 -1.01898738
VERTEX2 601 2.65824333 -22.67513089 -0.00245941
VERTEX2 602 2.69101717 -22.66144789 1.00992009
VERTEX2 603 2.65370249 -22.42553819 1.78111026
VERTEX2 604 2.58729608 -21.81258836 1.53621103
VERTEX2 605 2.59069558 -21.16335500 1.61796247
VERTEX2 606 2.54516175 -20.51470690 1.65926904
VERTEX2 607 2.55223895 -19.92327106 1.57741724
VERTEX2 608 2.53676143 -19.53586392 1.62112614
VERTEX2 609 2.53261345 -19.51216317 1.95619667
VERTEX2 610 2.52256507 -19.50857434 2.88625683
VERTEX2 611 1.92502336 -19.35821314 2.88857822
VERTEX2 612 1.45041025 -19.22306006 2.89074982
VERTEX2 613 1.48367071 -19.23324128 -2.93002594
VERTEX2 614 1.49021732 -19.22834013 -1.89470044
VERTEX2 615 1.49958084 -19.71084087 -1.59124215
VERTEX2 616 1.50138025 -20.32972598 -1.64310568
VERTEX2 617 1.35540120 -20.92973486 -1.86409468
VERTEX2 618 1.17453559 -21.53506620 -1.85639355
VERTEX2 619 1.00118949 -22.10605960 -1.85994788
VERTEX2 620 0.80287252 -22.68308069 -1.95842331
VERTEX2 621 0.93310709 -22.36272906 -2.01219099
VERTEX2 622 1.05449226 -22.11603950 -2.08964688
VERTEX2 623 1.03507981 -22.14078501 -2.63170831
VERTEX2 624 0.93406995 -22.13636394 3.00321707
VERTEX2 625 0.82802684 -22.08857773 2.33891846
VERTEX2 626 0.76603690 -22.01047803 1.71535594
VERTEX2 627 0.85550649 -21.64401900 1.30003806
VERTEX2 628 1.06219848 -21.03491413 1.19599343
VERTEX2 629 1.26407883 -20.42508881 1.26372678
VERTEX2 630 1.42262228 -19.82925431 1.34506303
VERTEX2 631 1.52696204 -19.30423037 1.36170027
VERTEX2 632 1.53031091 -19.29048120 2.02821645
VERTEX2 633 1.46651652 -19.28065991 -3.12706350
VERTEX2 634 0.80152988 -19.30385412 -3.08999055
VERTEX2 635 0.15591853 -19.30756410 3.06934562
VERTEX2 636 -0.46892479 -19.28023795 3.06016614
VERTEX2 637 -1.06897251 -19.21503636 2.97003590
VERTEX2 638 -1.45718678 -19.13932602 2.94000369
VERTEX2 639 -2.06783248 -19.04307324 3.01950226
VERTEX2 640 -2.68186350 -18.94031694 2.95047337
VERTEX2 641 -3.28052737 -18.83508775 2.94086223
VERTEX2 642 -3.85009117 -18.70365481 2.89387298
VERTEX2 643 -4.33987848 -18.56279792 2.80885916
VERTEX2 644 -4.33387721 -18.56196399 -2.76552133
VERTEX2 645 -4.39493995 -18.72535408 -1.87605791
VERTEX2 646 -4.50679220 -19.34641099 -1.58333032
VERTEX2 647 -4.43745155 -19.98556576 -1.29697063
VERTEX2 648 -4.19389225 -20.59401494 -1.13261186
VERTEX2 649 -4.00083457 -21.17951799 -1.47258526
VERTEX2 650 -4.08093472 -21.81558396 -1.73194489
VERTEX2 651 -4.09393612 -21.96505185 -0.93653098
VERTEX2 652 -4.05616949 -21.98081059 0.08385555
VERTEX2 653 -4.02645275 -21.95279847 1.10943797
VERTEX2 654 -4.04166889 -21.65585684 1.61965463
VERTEX2 655 -4.06229787 -21.10247473 1.61327367
VERTEX2 656 -4.07181934 -20.50064021 1.59917496
VERTEX2 657 -4.18921155 -19.88663619 1.87336180
VERTEX2 658 -4.38639934 -19.27352317 1.86559559
VERTEX2 659 -4.50629874 -18.78320079 1.79375105
VERTEX2 660 -4.50916034 -18.76960990 2.39233111
VERTEX2 661 -4.69020298 -18.75130391 3.04413204
VERTEX2 662 -5.28656335 -18.69606206 3.11304301
VERTEX2 663 -5.87657657 -18.71446042 -3.06985476
VERTEX2 664 -5.88431735 -18.71251617 -2.55193845
VERTEX2 665 -5.89891488 -18.80831727 -1.70350868
VERTEX2 666 -5.96057639 -19.41434365 -1.66542267
VERTEX2 667 -6.00784629 -19.97823601 -1.65994091
VERTEX2 668 -6.06049960 -20.56968074 -1.63329747
VERTEX2 669 -6.09709320 -21.19300380 -1.65759455
VERTEX2 670 -6.18391840 -21.80860530 -1.71622231
VERTEX2 671 -6.22508541 -22.09819593 -1.66042211
VERTEX2 672 -6.13414245 -21.51169773 -1.74862141
VERTEX2 673 -6.07255683 -21.23912003 -1.87817688
VERTEX2 674 -6.05360048 -21.21814923 -2.52435332
VERTEX2 675 -6.01818136 -21.20970560 -3.13107859
VERTEX2 676 -6.00314699 -21.21793433 2.53069527
VERTEX2 677 -5.99450592 -21.22912759 1.91676005
VERTEX2 678 -5.97280557 -21.00334452 1.47240757
VERTEX2 679 -5.92634922 -20.41971394 1.53591300
VERTEX2 680 -5.96823259 -19.97194967 1.88227253
VERTEX2 681 -6.13931351 -19.39694880 1.84921554
VERTEX2 682 -6.32775748 -18.80644619 1.89094678
VERTEX2 683 -6.42392385 -18.53480141 2.04274974
VERTEX2 684 -6.37660841 -18.58167462 3.12122680
VERTEX2 685 -6.77898016 -18.74862301 -2.71836761
VERTEX2 686 -7.22484029 -18.89188445 -2.86264258
VERTEX2 687 -7.81765508 -19.05163983 -2.89767456
VERTEX2 688 -8.41414250 -19.18036912 -2.90947220
VERTEX2 689 -8.97673197 -19.32751691 -2.88183347
VERTEX2 690 -9.51050445 -19.50428021 -2.80769206
VERTEX2 691 -9.90398660 -19.64145142 -2.83575224
VERTEX2 692 -9.88975195 -19.63488782 -2.30163553
VERTEX2 693 -9.86724119 -19.70268030 -1.26177003
VERTEX2 694 -9.84361141 -19.77033188 -0.42673737
VERTEX2 695 -9.82482578 -19.76473203 0.37306662
VERTEX2 696 -9.81860688 -19.76054690 1.39830204
VERTEX2 697 -9.82956630 -19.79819148 1.14518726
VERTEX2 698 -9.50146371 -19.58495045 0.49025236
VERTEX2 699 -8.94110563 -19.26469936 0.60422311
VERTEX2 700 -8.43158048 -18.89626247 0.65769530
VERTEX2 701 -8.00162504 -18.52795945 0.71680458
VERTEX2 702 -7.52561427 -18.20669306 0.60158044
VERTEX2 703 -7.01671007 -17.86377302 0.63577963
VERTEX2 704 -6.52709135 -17.47542813 0.65389981
VERTEX2 705 -6.02062576 -17.04877615 0.72450486
VERTEX2 706 -5.59439317 -16.72602611 0.45571952
VERTEX2 707 -5.56965612 -16.72441350 -0.06506493
VERTEX2 708 -5.55969600 -16.73003412 -0.70476363
VERTEX2 709 -5.59889229 -16.68863582 -1.03672699
VERTEX2 710 -5.60282027 -16.67874935 -1.59851726
VERTEX2 711 -5.59283399 -16.68760853 -2.19616234
VERTEX2 712 -5.57406009 -16.67298388 -2.75735153
VERTEX2 713 -6.04604549 -16.72693742 -3.04254544
VERTEX2 714 -6.59837640 -16.70613835 3.04338241
VERTEX2 715 -7.22521623 -16.67427801 -3.13612383
VERTEX2 716 -7.85946282 -16.65744563 3.00909488
VERTEX2 717 -8.48089460 -16.59469876 3.09390185
VERTEX2 718 -9.24344922 -16.48244729 2.91857608
VERTEX2 719 -9.86059373 -16.37233417 2.99307683
VERTEX2 720 -10.47358472 -16.26510020 2.93389756
VERTEX2 721 -11.09153367 -16.15448174 3.00213476
VERTEX2 722 -11.10754312 -16.15233357 3.06885134
VERTEX2 723 -11.12890374 -16.17472727 -2.12405739
VERTEX2 724 -11.12863391 -16.22035932 -1.05480824
VERTEX2 725 -11.10004685 -16.23921681 -0.42032635
VERTEX2 726 -10.77458320 -16.23252831 0.03393771
VERTEX2 727 -10.13753795 -16.18916606 0.06470942
VERTEX2 728 -9.49753988 -16.16002478 0.06613149
VERTEX2 729 -8.86052808 -16.09461550 0.12382250
VERTEX2 730 -8.23852423 -15.99750827 0.16138293
VERTEX2 731 -7.59083913 -15.89178679 0.17364205
VERTEX2 732 -7.44875706 -15.86191148 0.62033610
VERTEX2 733 -7.44791912 -15.86325459 1.61711402
VERTEX2 734 -7.51192801 -15.30641445 1.69527450
VERTEX2 735 -7.57858647 -14.70325580 1.66329072
VERTEX2 736 -7.57954590 -14.69077354 2.26295968
VERTEX2 737 -7.57283122 -14.69158611 3.06389744
VERTEX2 738 -8.15137154 -14.65692242 3.08301952
VERTEX2 739 -8.75458736 -14.56814389 3.02545674
VERTEX2 740 -9.25696729 -14.53312918 3.08878758
VERTEX2 741 -9.23585057 -14.53267933 2.72004834
VERTEX2 742 -9.23581704 -14.53271836 2.06742634
VERTEX2 743 -9.23794362 -14.52375387 1.45077088
VERTEX2 744 -9.22784268 -14.49992734 0.91155155
VERTEX2 745 -9.20665242 -14.48854669 0.31822444
VERTEX2 746 -8.66237740 -14.50074694 -0.15651505
VERTEX2 747 -8.01451365 -14.60809400 -0.19170373
VERTEX2 748 -7.43474157 -14.74427009 -0.25996298
VERTEX2 749 -7.35002168 -14.76434498 0.16938031
VERTEX2 750 -7.33926691 -14.74394347 1.09673353
VERTEX2 751 -7.37739938 -14.46974941 1.73719667
VERTEX2 752 -7.44377381 -13.84283326 1.63393560
VERTEX2 753 -7.49016135 -13.20001910 1.69720306
VERTEX2 754 -7.50645822 -12.55495030 1.53516093
VERTEX2 755 -7.49706976 -11.92095606 1.62178757
VERTEX2 756 -7.47023545 -11.28473697 1.44363633
VERTEX2 757 -7.40492809 -10.63995701 1.55437037
VERTEX2 758 -7.43417856 -10.05602266 1.69380986
VERTEX2 759 -7.43108583 -9.50462338 1.56836023
VERTEX2 760 -7.47480427 -8.89135475 1.65878065
VERTEX2 761 -7.47675891 -8.85209684 1.81550036
VERTEX2 762 -7.54147567 -8.82367371 2.74778504
VERTEX2 763 -8.11839227 -8.75330381 3.03858646
VERTEX2 764 -8.53950621 -8.70476396 3.00977166
VERTEX2 765 -8.52601251 -8.70382894 -2.63722521
VERTEX2 766 -8.52640461 -8.70540975 -1.64172071
VERTEX2 767 -8.52180499 -8.71572801 -0.71535257
VERTEX2 768 -8.49214514 -8.71638306 0.00343180
VERTEX2 769 -7.85683409 -8.60305309 0.15870097
VERTEX2 770 -7.20347750 -8.52015043 0.09016585
VERTEX2 771 -7.11207934 -8.50941322 0.64763951
VERTEX2 772 -7.10795249 -8.49479612 1.51088165
VERTEX2 773 -7.09917511 -7.91202794 1.59524955
VERTEX2 774 -7.12520316 -7.36178552 1.61608648
VERTEX2 775 -7.12506503 -7.36234961 2.45687059
VERTEX2 776 -7.33274581 -7.34111716 3.07112268
VERTEX2 777 -7.94428825 -7.30889908 3.12882558
VERTEX2 778 -8.55454757 -7.30689452 3.10665109
VERTEX2 779 -9.15189007 -7.29315653 3.12238365
VERTEX2 780 -9.34252111 -7.27859248 2.98923837
VERTEX2 781 -9.32733369 -7.28400472 2.41015174
VERTEX2 782 -9.45707944 -7.00667075 1.97597256
VERTEX2 783 -9.69140265 -6.42538406 1.97317814
VERTEX2 784 -9.79172802 -6.19164970 1.94959602
VERTEX2 785 -9.79273180 -6.15189200 1.39240545
VERTEX2 786 -9.77827909 -6.10700822 0.79861336
VERTEX2 787 -9.74366460 -6.07310673 0.30313088
VERTEX2 788 -9.70026933 -6.07722513 -0.33175816
VERTEX2 789 -9.68706429 -6.08828177 -0.88895559
VERTEX2 790 -9.39576641 -6.49188458 -0.95864874
VERTEX2 791 -9.00984328 -6.98706553 -0.86273228
VERTEX2 792 -8.77788985 -7.21113381 -0.16491555
VERTEX2 793 -8.19520242 -7.28872209 -0.11411170
VERTEX2 794 -7.58617661 -7.34165086 -0.03658205
VERTEX2 795 -7.62254432 -7.36650173 0.40391853
VERTEX2 796 -7.64817542 -7.37637690 1.07810912
VERTEX2 797 -7.56888749 -7.05916449 1.34690096
VERTEX2 798 -7.43194305 -6.42306819 1.40298332
VERTEX2 799 -7.34735668 -5.76594313 1.47472945
VERTEX2 800 -7.30019765 -5.10502605 1.55363938
VERTEX2 801 -7.32165922 -4.47051027 1.63990862
VERTEX2 802 -7.38635039 -3.84264851 1.69791010
VERTEX2 803 -7.37966498 -3.21134829 1.53355295
VERTEX2 804 -7.37021192 -2.58133924 1.58968802
VERTEX2 805 -7.41461547 -1.94831008 1.66618209
VERTEX2 806 -7.48548990 -1.34735330 1.70776577
VERTEX2 807 -7.51986674 -1.13886940 1.99300130
VERTEX2 808 -7.52294714 -1.13888143 2.93506587
VERTEX2 809 -8.11356961 -1.11354735 3.07755162
VERTEX2 810 -8.73399916 -0.99203557 2.93534379
VERTEX2 811 -9.33545412 -0.88104764 2.93052896
VERTEX2 812 -9.34068292 -0.88001371 -2.62527447
VERTEX2 813 -9.34035812 -0.87972938 -1.65553193
VERTEX2 814 -9.34539245 -0.87559962 -0.66895420
VERTEX2 815 -9.32747134 -0.88187322 0.24501434
VERTEX2 816 -9.30636867 -0.87092314 0.92199192
VERTEX2 817 -9.28195583 -0.85642689 0.24916445
VERTEX2 818 -9.06303859 -0.89575988 -0.24306970
VERTEX2 819 -8.47976932 -1.03945329 -0.23063318
VERTEX2 820 -7.89461757 -1.18821628 -0.27369511
VERTEX2 821 -7.35761945 -1.33546708 -0.25972400
VERTEX2 822 -7.36572168 -1.33377873 0.47430840
VERTEX2 823 -7.35872823 -1.29342193 1.36083851
VERTEX2 824 -7.24124578 -0.68786725 1.29282465
VERTEX2 825 -7.05499216 -0.09634833 1.27318900
VERTEX2 826 -6.95605868 0.52421813 1.44859117
VERTEX2 827 -6.85862791 1.13678643 1.40977109
VERTEX2 828 -6.77626559 1.76018677 1.45460832
VERTEX2 829 -6.69108137 2.35837430 1.41621990
VERTEX2 830 -6.59271020 2.96091177 1.40910156
VERTEX2 831 -6.47732329 3.53020157 1.36352561
VERTEX2 832 -6.36704062 4.08556595 1.36101154
VERTEX2 833 -6.31449334 4.33493255 1.49998617
VERTEX2 834 -6.31800053 4.34932301 2.55898652
VERTEX2 835 -6.35759098 4.35518075 -2.94329741
VERTEX2 836 -6.38596271 4.33260682 -1.99635349
VERTEX2 837 -6.38387852 4.31932350 -0.95571182
VERTEX2 838 -6.39186944 4.32454096 -0.08994731
VERTEX2 839 -6.41348908 4.33533659 -0.30670849
VERTEX2 840 -6.41957260 4.34026603 -0.86687741
VERTEX2 841 -6.41770678 4.33638297 -1.48130545
VERTEX2 842 -6.44698257 4.08889521 -1.71055708
VERTEX2 843 -6.53190676 3.52321702 -1.71197919
VERTEX2 844 -6.61383549 2.89595725 -1.71880837
VERTEX2 845 -6.71373380 2.26855163 -1.73225014
VERTEX2 846 -6.80487341 1.63711960 -1.72919456
VERTEX2 847 -6.91929592 1.01256922 -1.75447698
VERTEX2 848 -6.95015232 0.82012155 -1.27296788
VERTEX2 849 -6.95230749 0.82093766 -0.34901460
VERTEX2 850 -6.59950418 0.81754327 0.00521233
VERTEX2 851 -5.97479989 0.79235890 -0.08676949
VERTEX2 852 -5.35308024 0.73247391 -0.07191437
VERTEX2 853 -4.76089917 0.69143825 -0.09939171
VERTEX2 854 -4.17638971 0.62548451 -0.09696826
VERTEX2 855 -3.58418814 0.57661122 -0.09835427
VERTEX2 856 -2.92882209 0.49292106 -0.13929534
VERTEX2 857 -2.27461476 0.40536401 -0.14908429
VERTEX2 858 -1.62684035 0.28513540 -0.20385262
VERTEX2 859 -1.10696327 0.18255572 -0.21095296
VERTEX2 860 -1.08165896 0.19305597 0.64009387
VERTEX2 861 -1.06655052 0.30186069 1.55519434
VERTEX2 862 -1.03011287 0.96136662 1.49530081
VERTEX2 863 -0.97439212 1.60555393 1.46255586
VERTEX2 864 -0.88877301 2.21584914 1.46019076
VERTEX2 865 -0.84872377 2.82712163 1.51754736
VERTEX2 866 -0.80501041 3.41292029 1.51617891
VERTEX2 867 -0.79778097 3.57663116 1.69708724
VERTEX2 868 -0.80475285 3.58541465 2.72102651
VERTEX2 869 -0.79442920 3.58557174 -2.58366648
VERTEX2 870 -0.77538152 3.59584926 -1.58401832
VERTEX2 871 -0.76029331 3.58565962 -0.61022640
VERTEX2 872 -0.74110134 3.57184695 0.07479688
VERTEX2 873 -0.71280512 3.56246001 -0.49805581
VERTEX2 874 -0.69071404 3.54254149 -1.05796934
VERTEX2 875 -0.68401379 3.52680256 -1.64479579
VERTEX2 876 -0.80366632 2.97066409 -1.80265141
VERTEX2 877 -0.95572284 2.42877864 -1.88757632
VERTEX2 878 -1.00634310 2.22891512 -1.50493287
VERTEX2 879 -0.90539503 1.58977627 -1.45417494
VERTEX2 880 -0.87015269 1.14020445 -1.56715095
VERTEX2 881 -0.87046879 1.18972359 -1.56206573
VERTEX2 882 -0.92787336 0.54998801 -1.80889508
VERTEX2 883 -1.14454747 -0.04469590 -1.99991266
VERTEX2 884 -1.30357876 -0.37615042 -2.06714897
VERTEX2 885 -1.30352087 -0.37681470 -1.48579524
VERTEX2 886 -1.28648149 -0.39285775 -0.46713548
VERTEX2 887 -1.25863771 -0.40374017 0.54486866
VERTEX2 888 -1.24921813 -0.38396596 1.52953743
VERTEX2 889 -1.25052402 -0.38023355 2.42784698
VERTEX2 890 -1.56494274 -0.22814361 2.70147008
VERTEX2 891 -2.10074637 0.03819201 2.63088417
VERTEX2 892 -2.63282251 0.35710630 2.59506016
VERTEX2 893 -3.18426684 0.65278731 2.83104123
VERTEX2 894 -3.79587263 0.76461285 3.05179965
VERTEX2 895 -4.39447168 0.71684003 -2.93342135
VERTEX2 896 -4.40843865 0.71352498 -2.45549430
VERTEX2 897 -4.69124522 0.29722671 -2.18360857
VERTEX2 898 -5.04671145 -0.21916105 -2.16914740
VERTEX2 899 -5.33788970 -0.63493700 -2.23820041
VERTEX2 900 -5.75484074 -1.18261041 -2.24195269
VERTEX2 901 -6.12912968 -1.62711731 -2.30805135
VERTEX2 902 -6.54846222 -2.11773333 -2.28463339
VERTEX2 903 -6.86849807 -2.49556419 -2.33142101
VERTEX2 904 -6.87476820 -2.50390209 -1.64077080
VERTEX2 905 -6.86783345 -2.98023394 -1.57843611
VERTEX2 906 -6.83747157 -3.54221111 -1.50621045
VERTEX2 907 -6.78083290 -4.11542407 -1.50910894
VERTEX2 908 -6.73187153 -4.75822692 -1.48200238
VERTEX2 909 -6.66650645 -5.39448784 -1.49801487
VERTEX2 910 -6.69090214 -5.50802496 -1.86460546
VERTEX2 911 -6.83904692 -6.05716222 -1.80212721
VERTEX2 912 -6.95517406 -6.61379692 -1.78848616
VERTEX2 913 -7.06216904 -7.14892819 -1.77966183
VERTEX2 914 -7.18197175 -7.73025731 -1.80254487
VERTEX2 915 -7.29916779 -8.23130694 -1.83859459
VERTEX2 916 -7.22826094 -8.49364766 -1.28970685
VERTEX2 917 -7.07918179 -9.15732827 -1.54350547
VERTEX2 918 -7.09389409 -9.67834164 -1.61875796
VERTEX2 919 -7.12029425 -10.30441409 -1.66198493
VERTEX2 920 -7.17742557 -10.91829773 -1.67964527
VERTEX2 921 -7.24331797 -11.53272369 -1.73323089
VERTEX2 922 -7.33816962 -12.13329204 -1.76081465
VERTEX2 923 -7.45080481 -12.69466193 -1.82480225
VERTEX2 924 -7.57348972 -13.17124719 -1.80859079
VERTEX2 925 -7.57368019 -13.17017751 -1.30466448
VERTEX2 926 -7.40704657 -13.73719315 -1.28902334
VERTEX2 927 -7.23363361 -14.33268932 -1.31302750
VERTEX2 928 -7.06992561 -14.94285721 -1.32277255
VERTEX2 929 -6.91343216 -15.54992365 -1.32460959
VERTEX2 930 -6.75087300 -16.20563398 -1.41227928
VERTEX2 931 -6.65723532 -16.84133750 -1.49813197
VERTEX2 932 -6.60844401 -17.46607254 -1.56348206
VERTEX2 933 -6.60565715 -18.06334976 -1.63449297
VERTEX2 934 -6.62378917 -18.52094298 -1.65042363
VERTEX2 935 -6.61885103 -18.54836982 -0.98404742
VERTEX2 936 -6.64100223 -18.53984648 -0.01570422
VERTEX2 937 -6.09101555 -18.52199144 0.05386403
VERTEX2 938 -5.49320818 -18.54212398 -0.11169708
VERTEX2 939 -4.87272115 -18.60076770 -0.07821555
VERTEX2 940 -4.25606724 -18.67422059 -0.16352456
VERTEX2 941 -3.64879296 -18.78755729 -0.21677296
VERTEX2 942 -3.12878287 -18.90126342 -0.21199854
VERTEX2 943 -2.51796404 -19.03234263 -0.12345513
VERTEX2 944 -1.90043507 -19.11281526 -0.18002793
VERTEX2 945 -1.27626323 -19.24118059 -0.23532461
VERTEX2 946 -1.09837700 -19.28617673 -0.17116966
VERTEX2 947 -0.69061898 -19.22284963 0.15685599
VERTEX2 948 -0.11446495 -19.13191606 0.13870139
VERTEX2 949 0.49141962 -19.09551181 -0.01573899
VERTEX2 950 1.12395069 -19.12924984 -0.25390418
VERTEX2 951 1.72736442 -19.29892455 -0.32505122
VERTEX2 952 2.33073633 -19.47102196 -0.07298062
VERTEX2 953 2.96292038 -19.49789659 0.00825295
VERTEX2 954 3.58567918 -19.48418373 0.00186231
VERTEX2 955 4.17217978 -19.52324955 -0.15834913
VERTEX2 956 4.71848612 -19.59454581 -0.16021202
VERTEX2 957 5.24708086 -19.68407255 -0.24753949
VERTEX2 958 5.71715654 -19.79270125 -0.27408353
VERTEX2 959 6.16199089 -19.91219932 -0.34103355
VERTEX2 960 6.75721162 -20.07145860 -0.26150366
VERTEX2 961 7.34572054 -20.24275879 -0.28896597
VERTEX2 962 7.96622187 -20.36729589 -0.22366416
VERTEX2 963 8.58364065 -20.44368433 -0.03702095
VERTEX2 964 9.20203842 -20.48080520 -0.10108944
VERTEX2 965 9.81884578 -20.55567506 -0.10812457
VERTEX2 966 10.26444576 -20.60998580 -0.16710162
VERTEX2 967 10.29803742 -20.60281187 0.68634773
VERTEX2 968 10.30602615 -20.59510327 1.58309956
VERTEX2 969 10.30882091 -20.62411507 1.64255213
VERTEX2 970 10.31175228 -20.65336708 1.64080437
VERTEX2 971 10.28773349 -20.32170446 1.64092176
VERTEX2 972 10.24273295 -19.73698569 1.64652129
VERTEX2 973 10.31568580 -19.15516266 1.36147507
VERTEX2 974 10.44806097 -18.55302961 1.39323874
VERTEX2 975 10.55256626 -17.94720425 1.39778650
VERTEX2 976 10.65032509 -17.33883552 1.41062501
VERTEX2 977 10.77886914 -16.72155157 1.38452220
VERTEX2 978 10.89255267 -16.11081238 1.43068798
VERTEX2 979 10.99984345 -15.50393423 1.41858676
VERTEX2 980 11.08972928 -14.89981935 1.46561529
VERTEX2 981 11.17031105 -14.30556506 1.47251018
VERTEX2 982 11.21898774 -13.77580782 1.51721877
VERTEX2 983 11.26103335 -13.17757729 1.51411338
VERTEX2 984 11.28055655 -12.58219502 1.57177622
VERTEX2 985 11.28355480 -11.98614306 1.59232703
VERTEX2 986 11.26026339 -11.36682678 1.62891576
VERTEX2 987 11.23907240 -10.74888274 1.59245742
VERTEX2 988 11.23311471 -10.13102817 1.60637461
VERTEX2 989 11.20984384 -9.51893256 1.61417086
VERTEX2 990 11.19431739 -8.90994593 1.60353105
VERTEX2 991 11.17019536 -8.29738718 1.62847340
VERTEX2 992 11.15657803 -7.71250111 1.59597684
VERTEX2 993 11.13383453 -7.09806971 1.62877827
VERTEX2 994 11.10887314 -6.51426258 1.61884783
VERTEX2 995 11.06889642 -5.92561234 1.66494561
VERTEX2 996 11.00184306 -5.32213631 1.69094561
VERTEX2 997 10.94974150 -4.67970634 1.62532094
VERTEX2 998 10.92595560 -4.27908472 1.64606767
VERTEX2 999 10.95537220 -4.30254703 2.36075878
VERTEX2 1000 10.49178885 -3.94654699 2.50798129
VERTEX2 1001 10.05209717 -3.54995776 2.18513067
VERTEX2 1002 9.68581604 -3.08190567 2.27650073
VERTEX2 1003 9.33713872 -2.58623542 2.09537263
VERTEX2 1004 8.99884661 -2.05314872 2.15207195
VERTEX2 1005 8.64585976 -1.56032133 2.21287699
VERTEX2 1006 8.25025544 -1.08137412 2.28851772
VERTEX2 1007 7.83690326 -0.65200449 2.37834517
VERTEX2 1008 7.59923721 -0.43270295 2.53582821
VERTEX2 1009 7.50103233 -0.41689444 3.01050864
VERTEX2 1010 6.94377090 -0.36098980 3.06497779
VERTEX2 1011 6.32881633 -0.31995169 3.02306526
VERTEX2 1012 5.72127485 -0.25587414 3.06607747
VERTEX2 1013 5.08335092 -0.25801144 -3.10096751
VERTEX2 1014 4.47114086 -0.21032209 3.00812684
VERTEX2 1015 3.84634350 -0.17204500 3.09353685
VERTEX2 1016 3.07638382 -0.13687914 3.10096904
VERTEX2 1017 2.49029878 -0.12371047 3.04492999
VERTEX2 1018 1.93145950 -0.06261680 3.05324515
VERTEX2 1019 1.33576689 -0.03958934 3.11393036
VERTEX2 1020 0.71973355 -0.00580651 3.10103285
VERTEX2 1021 0.09785119 0.02042318 3.06154777
VERTEX2 1022 0.04357012 0.02459080 3.05536747
VERTEX2 1023 0.04991950 0.02452516 -3.14000979
VERTEX2 1024 -0.57758190 0.02722659 -3.11258622
VERTEX2 1025 -1.20670374 -0.00907145 -3.09393364
VERTEX2 1026 -1.36840070 -0.01625779 -3.08569849
VERTEX2 1027 -1.35176973 -0.00781916 -2.16534213
VERTEX2 1028 -1.36219308 -0.17135904 -1.59932614
VERTEX2 1029 -1.38070748 -0.73494621 -1.61978916
VERTEX2 1030 -1.43250845 -1.36536699 -1.70368389
VERTEX2 1031 -1.53548481 -2.01885776 -1.76120758
VERTEX2 1032 -1.65859552 -2.67158667 -1.76031601
VERTEX2 1033 -1.79676479 -3.32222346 -1.80890144
VERTEX2 1034 -1.84153505 -3.49723482 -2.02730643
VERTEX2 1035 -1.83990749 -3.49597389 -2.65469548
VERTEX2 1036 -1.79042437 -3.51946104 3.05014798
VERTEX2 1037 -2.10868136 -3.39313644 2.80698139
VERTEX2 1038 -2.69694999 -3.26401034 2.89440322
VERTEX2 1039 -3.31062715 -3.08600577 2.85951564
VERTEX2 1040 -3.26529376 -3.08848426 -2.80186398
VERTEX2 1041 -3.21717980 -3.09682193 -1.79718850
VERTEX2 1042 -3.22113852 -3.13384642 -0.82123645
VERTEX2 1043 -3.17732899 -3.17971200 0.13664692
VERTEX2 1044 -3.18509054 -3.18778705 1.11831444
VERTEX2 1045 -3.15961360 -3.14153491 1.01410536
VERTEX2 1046 -3.14478245 -3.12392672 0.64373239
VERTEX2 1047 -3.17720537 -3.13601845 0.10708895
VERTEX2 1048 -2.88747565 -3.20212457 -0.19248537
VERTEX2 1049 -2.31079216 -3.30088716 -0.16750343
VERTEX2 1050 -1.72730801 -3.37066333 -0.08334754
VERTEX2 1051 -1.04490320 -3.44881180 -0.17172448
VERTEX2 1052 -0.39783657 -3.54064400 -0.12808463
VERTEX2 1053 0.04105929 -3.60847768 -0.19005078
VERTEX2 1054 0.08686740 -3.61554974 0.54846931
VERTEX2 1055 0.11981389 -3.50051329 1.58115833
VERTEX2 1056 0.09633377 -3.45444006 2.55881848
VERTEX2 1057 0.19011067 -3.47481146 -2.70987715
VERTEX2 1058 0.18354550 -3.48141611 -1.76572909
VERTEX2 1059 0.03935015 -4.10772517 -1.84009203
VERTEX2 1060 -0.14334137 -4.77681197 -1.82973889
VERTEX2 1061 -0.28577696 -5.26294332 -1.94587019
VERTEX2 1062 -0.29086172 -5.26999075 -2.50684247
VERTEX2 1063 -0.26805116 -5.25817518 -3.10115564
VERTEX2 1064 -0.54007244 -5.19572114 2.91890634
VERTEX2 1065 -1.11897006 -5.10755834 3.04253886
VERTEX2 1066 -1.67412118 -5.03575543 2.98787781
VERTEX2 1067 -1.65491927 -5.03537597 -2.85993070
VERTEX2 1068 -1.64200797 -5.02686717 -2.18343852
VERTEX2 1069 -1.64303499 -5.02944245 -2.01127935
VERTEX2 1070 -1.64329239 -5.02987925 -2.54715815
VERTEX2 1071 -2.11985549 -5.27454927 -2.67275029
VERTEX2 1072 -2.57359459 -5.49693800 -2.73997600
VERTEX2 1073 -2.53979482 -5.49671220 3.03496769
VERTEX2 1074 -3.06251180 -5.41677674 3.00193933
VERTEX2 1075 -3.63293515 -5.33241200 3.01978237
VERTEX2 1076 -3.62910821 -5.33321260 -2.86162167
VERTEX2 1077 -3.64798911 -5.36726166 -2.05907610
VERTEX2 1078 -3.90333120 -5.98696868 -2.01567400
VERTEX2 1079 -4.15327004 -6.56248482 -1.95544145
VERTEX2 1080 -4.16388799 -6.58885654 -2.44604897
VERTEX2 1081 -4.59399118 -6.86764145 -2.57141488
VERTEX2 1082 -4.76325311 -6.97897474 -2.29345567
VERTEX2 1083 -4.75843028 -7.02676975 -1.26305952
VERTEX2 1084 -4.67742861 -7.07169722 -0.29750098
VERTEX2 1085 -4.70752946 -7.07880588 0.70079588
VERTEX2 1086 -4.33296095 -6.58339104 0.93698516
VERTEX2 1087 -3.94154192 -6.06808684 0.92861693
VERTEX2 1088 -3.56968743 -5.54515876 0.91542797
VERTEX2 1089 -3.51138878 -5.47043277 0.82072216
VERTEX2 1090 -3.50089704 -5.46090147 0.20715398
VERTEX2 1091 -2.97485399 -5.43025227 0.03110201
VERTEX2 1092 -2.36814703 -5.41560176 0.01654929
VERTEX2 1093 -1.81184785 -5.41858231 -0.04791709
VERTEX2 1094 -1.79862214 -5.43118522 -0.45158644
VERTEX2 1095 -1.76764072 -5.45865209 -1.04080026
VERTEX2 1096 -1.76787194 -5.45775028 -1.61152535
VERTEX2 1097 -1.85034523 -5.78074833 -1.82668728
VERTEX2 1098 -2.02621504 -6.37534956 -1.88332825
VERTEX2 1099 -2.23346077 -6.93736505 -1.97928695
VERTEX2 1100 -2.23951462 -6.95272124 -1.61605068
VERTEX2 1101 -2.18045632 -7.21751908 -1.35001357
VERTEX2 1102 -2.18127750 -7.22742694 -1.74353966
VERTEX2 1103 -2.30862372 -7.83786970 -1.77721632
VERTEX2 1104 -2.44672453 -8.47461630 -1.80480870
VERTEX2 1105 -2.60206743 -9.09736656 -1.82260160
VERTEX2 1106 -2.72814249 -9.57496162 -1.84773078
VERTEX2 1107 -2.72731348 -9.58443597 -1.59147239
VERTEX2 1108 -2.69655575 -10.21209209 -1.58353117
VERTEX2 1109 -2.75056152 -10.85717579 -1.68734345
VERTEX2 1110 -2.82668158 -11.46592937 -1.73674967
VERTEX2 1111 -2.99800638 -11.99551530 -1.83790521
VERTEX2 1112 -3.03347125 -12.57596976 -1.49131520
VERTEX2 1113 -2.99894895 -13.21656100 -1.58656812
VERTEX2 1114 -3.00788560 -13.83462962 -1.56942661
VERTEX2 1115 -3.00403780 -14.41934740 -1.58550943
VERTEX2 1116 -2.99091096 -15.06921935 -1.54914608
VERTEX2 1117 -2.98786142 -15.16829896 -1.67679018
VERTEX2 1118 -2.98684078 -15.16638002 -2.28378664
VERTEX2 1119 -2.97764714 -15.15999427 -2.71525454
VERTEX2 1120 -3.53925296 -15.36653445 -2.77876844
VERTEX2 1121 -3.72776216 -15.43351460 -2.89723324
VERTEX2 1122 -3.72174039 -15.43556098 2.83582008
VERTEX2 1123 -4.26995452 -15.25331935 2.85284702
VERTEX2 1124 -4.82598774 -15.12713355 2.95170231
VERTEX2 1125 -5.44989386 -15.00450743 2.96529905
VERTEX2 1126 -5.52828814 -14.99219857 -2.97801387
VERTEX2 1127 -5.52245465 -14.99836915 -1.92063331
VERTEX2 1128 -5.52173205 -14.99480812 -0.93315177
VERTEX2 1129 -5.50275953 -15.00531752 0.08257051
VERTEX2 1130 -4.91262071 -14.93836775 0.09639541
VERTEX2 1131 -4.13671427 -15.06109637 -0.33515615
VERTEX2 1132 -3.52347224 -15.27718548 -0.35466220
VERTEX2 1133 -2.97405764 -15.50420441 -0.39316731
VERTEX2 1134 -2.71889578 -15.61033201 -0.48995978
VERTEX2 1135 -2.70651691 -15.62239660 -1.04561100
VERTEX2 1136 -2.70654314 -15.62243142 -1.60718287
VERTEX2 1137 -2.75977368 -15.92645258 -1.79094856
VERTEX2 1138 -2.91260849 -16.56127420 -1.80701877
VERTEX2 1139 -3.03344760 -17.07149708 -1.88086405
VERTEX2 1140 -3.02927856 -17.06147930 -2.36129792
VERTEX2 1141 -3.01600206 -17.04859599 -2.91040809
VERTEX2 1142 -3.37688631 -17.00488718 3.00718620
VERTEX2 1143 -3.97262459 -16.95662488 3.09582656
VERTEX2 1144 -4.55147617 -16.92020371 3.06448887
VERTEX2 1145 -5.12751425 -16.87210316 3.03826627
VERTEX2 1146 -5.70075417 -16.81192007 3.05723566
VERTEX2 1147 -6.27904414 -16.79812014 3.12902079
VERTEX2 1148 -6.86405216 -16.79699309 3.12204654
VERTEX2 1149 -6.91355505 -16.79776321 -2.70040577
VERTEX2 1150 -6.99381532 -16.88538860 -1.78642338
VERTEX2 1151 -6.99113257 -16.89770834 -0.79000363
VERTEX2 1152 -6.96391126 -16.89724895 0.25519058
VERTEX2 1153 -6.94080186 -16.88608097 1.26048059
VERTEX2 1154 -7.00533251 -16.57084870 1.80273152
VERTEX2 1155 -7.14628967 -15.94898623 1.75181879
VERTEX2 1156 -7.25034586 -15.34452486 1.76045204
VERTEX2 1157 -7.38293769 -14.77558551 1.86989012
VERTEX2 1158 -7.51405413 -14.17523648 1.73960810
VERTEX2 1159 -7.57878940 -13.57199886 1.64562257
VERTEX2 1160 -7.60574641 -12.93160275 1.50892926
VERTEX2 1161 -7.51000640 -12.29756188 1.41933775
VERTEX2 1162 -7.42259611 -11.66333321 1.47758731
VERTEX2 1163 -7.36439438 -11.01851892 1.47229845
VERTEX2 1164 -7.32062388 -10.37585148 1.55791697
VERTEX2 1165 -7.31380629 -9.83704720 1.53487546
VERTEX2 1166 -7.31404453 -9.83597909 2.02341931
VERTEX2 1167 -7.25881986 -9.82209954 2.95974722
VERTEX2 1168 -7.21122219 -9.80275658 -2.42030536
VERTEX2 1169 -7.21486413 -9.85493921 -1.59882629
VERTEX2 1170 -7.22071934 -10.44189892 -1.59232844
VERTEX2 1171 -7.21591958 -11.07767669 -1.56081965
VERTEX2 1172 -7.21602696 -11.67749349 -1.62353241
VERTEX2 1173 -7.24176966 -12.30187310 -1.61467507
VERTEX2 1174 -7.28159203 -12.93140123 -1.68371195
VERTEX2 1175 -7.36394009 -13.54553714 -1.71744217
VERTEX2 1176 -7.45834035 -14.16804952 -1.76115513
VERTEX2 1177 -7.57501213 -14.77856002 -1.75915527
VERTEX2 1178 -7.70326949 -15.39304518 -1.80641492
VERTEX2 1179 -7.83807524 -15.99940179 -1.77712146
VERTEX2 1180 -7.89136038 -16.25454721 -1.78416476
VERTEX2 1181 -7.89083097 -16.25076369 -0.95628651
VERTEX2 1182 -7.83388280 -16.26492051 -0.24432500
VERTEX2 1183 -7.21816326 -16.41085852 -0.21908116
VERTEX2 1184 -6.58342841 -16.52252283 -0.14962081
VERTEX2 1185 -5.95363591 -16.62980564 -0.18196450
VERTEX2 1186 -5.32037702 -16.72160948 -0.11587083
VERTEX2 1187 -4.66485564 -16.80392953 -0.15306447
VERTEX2 1188 -4.03588677 -16.89084476 -0.13506167
VERTEX2 1189 -3.37313955 -16.99449947 -0.11344236
VERTEX2 1190 -3.04239738 -17.03280378 -0.10548947
VERTEX2 1191 -3.01058900 -17.03193457 0.81453952
VERTEX2 1192 -3.00515799 -16.94588098 1.61197498
VERTEX2 1193 -3.00226019 -16.34332542 1.47987960
VERTEX2 1194 -2.96444881 -15.76637531 1.52186467
VERTEX2 1195 -2.93980888 -15.14016015 1.57413757
VERTEX2 1196 -2.93791682 -14.51383689 1.40140664
VERTEX2 1197 -2.83803693 -13.89613951 1.41260956
VERTEX2 1198 -2.77131954 -13.26662053 1.67136487
VERTEX2 1199 -2.79248559 -12.65172874 1.45658581
VERTEX2 1200 -2.73908618 -12.01897283 1.52552041
VERTEX2 1201 -2.71794675 -11.39661025 1.58126309
VERTEX2 1202 -2.73214871 -10.77157934 1.60412071
VERTEX2 1203 -2.76640157 -10.17953579 1.51408637
VERTEX2 1204 -2.65510684 -9.58484422 1.36717132
VERTEX2 1205 -2.54942131 -9.01927570 1.39662735
VERTEX2 1206 -2.46681716 -8.42667419 1.45772436
VERTEX2 1207 -2.33212698 -7.81269507 1.37147683
VERTEX2 1208 -2.22236404 -7.18501147 1.43600351
VERTEX2 1209 -2.13803438 -6.56072242 1.43391670
VERTEX2 1210 -2.07576849 -5.94062459 1.45432541
VERTEX2 1211 -1.94622974 -5.32993817 1.38443988
VERTEX2 1212 -1.83022215 -4.72241995 1.43775512
VERTEX2 1213 -1.76464553 -4.12457496 1.51492444
VERTEX2 1214 -1.68611371 -3.41543741 1.29792676
VERTEX2 1215 -1.52685744 -2.82432855 1.36165488
VERTEX2 1216 -1.48673359 -2.29280412 1.58571047
VERTEX2 1217 -1.46614195 -1.74092244 1.57145407
VERTEX2 1218 -1.47478218 -1.15068200 1.52078507
VERTEX2 1219 -1.44878762 -0.50017615 1.55138307
VERTEX2 1220 -1.46407551 0.08672721 1.64212107
VERTEX2 1221 -1.46346318 0.08492025 1.18936807
VERTEX2 1222 -1.45386104 0.09500785 0.59206107
VERTEX2 1223 -1.44214194 0.09825578 0.03243407
VERTEX2 1224 -0.86508587 0.02786775 -0.15047393
VERTEX2 1225 -0.24587111 -0.06206999 -0.13670993
VERTEX2 1226 -0.14037567 -0.07669282 -0.15344093
VERTEX2 1227 -0.14037567 -0.07669282 -0.15410293
