VERTEX2 0 0.00002077 0.00000030 0.00000030
VERTEX2 1 0.00002076 0.00000030 -0.00064170
VERTEX2 2 0.00002076 0.00000030 -0.00117970
VERTEX2 3 0.02028776 -0.00179463 -0.00331078
VERTEX2 4 0.66050873 -0.01149042 -0.00697570
VERTEX2 5 0.72580612 -0.01206637 -0.09800532
VERTEX2 6 0.72713794 -0.01323349 -0.89341740
VERTEX2 7 0.71443940 0.02588287 -1.50706821
VERTEX2 8 0.72486613 0.07105010 -2.11871729
VERTEX2 9 0.75528961 0.09746097 -2.75485468
VERTEX2 10 0.76957565 0.09991307 2.91563182
VERTEX2 11 0.76550925 0.10242740 2.24332552
VERTEX2 12 0.76499059 0.11989161 1.59577054
VERTEX2 13 0.77473409 0.15217913 0.93821222
VERTEX2 14 0.80211138 0.17207422 0.33174632
VERTEX2 15 0.81457316 0.17314772 -0.19176653
VERTEX2 16 1.10935495 0.11876802 -0.20984792
VERTEX2 17 1.71264218 -0.01582555 -0.24049224
VERTEX2 18 2.33833870 -0.16559885 -0.25015114
VERTEX2 19 2.97473314 -0.35117961 -0.29779780
VERTEX2 20 3.56381561 -0.52648819 -0.29188966
VERTEX2 21 4.16968420 -0.66510279 -0.17995702
VERTEX2 22 4.77955240 -0.79312552 -0.16201896
VERTEX2 23 5.41460078 -0.82342564 -0.05384467
VERTEX2 24 6.04044657 -0.87934017 -0.11106196
VERTEX2 25 6.66950353 -0.93180916 -0.10843357
VERTEX2 26 7.27432585 -1.01768484 -0.14899676
VERTEX2 27 7.88577741 -1.09431742 -0.13318187
VERTEX2 28 8.46548356 -1.17911842 -0.13761289
VERTEX2 29 8.84166989 -1.22737703 -0.10682307
VERTEX2 30 8.84723246 -1.22871877 -0.63890342
VERTEX2 31 8.94998261 -1.36014494 -0.90727491
VERTEX2 32 9.32834924 -1.86452539 -0.92581322
VERTEX2 33 9.69452517 -2.32821524 -0.87597863
VERTEX2 34 10.08673107 -2.77600070 -0.85578304
VERTEX2 35 10.48749991 -3.21633750 -0.82232841
VERTEX2 36 10.89158100 -3.65484743 -0.83136787
VERTEX2 37 11.14551784 -3.92695038 -0.82412080
VERTEX2 38 11.12193510 -3.89639295 -1.14501002
VERTEX2 39 11.11290750 -3.85974390 -1.31539284
VERTEX2 40 11.26067606 -4.39857282 -1.29769011
VERTEX2 41 11.41669952 -4.97041830 -1.32931812
VERTEX2 42 11.54552530 -5.50673727 -1.35158967
VERTEX2 43 11.66026507 -6.07570965 -1.39123550
VERTEX2 44 11.75665254 -6.62925211 -1.42821052
VERTEX2 45 11.82527082 -7.24083926 -1.48350948
VERTEX2 46 11.87011461 -7.85735656 -1.50276094
VERTEX2 47 11.90425819 -8.47437592 -1.54422389
VERTEX2 48 11.91518568 -9.09727278 -1.55050368
VERTEX2 49 11.92245566 -9.71634607 -1.60096911
VERTEX2 50 11.88320037 -10.30607835 -1.64502995
VERTEX2 51 11.84062570 -10.91446104 -1.67347710
VERTEX2 52 11.75928832 -11.49414255 -1.75069273
VERTEX2 53 11.67396795 -12.05164968 -1.73817538
VERTEX2 54 11.57491658 -12.56270165 -1.79999518
VERTEX2 55 11.58137021 -12.52703613 -1.79448300
VERTEX2 56 11.58153124 -12.52633094 -1.78366933
VERTEX2 57 11.45461728 -13.14455239 -1.79479645
VERTEX2 58 11.32498582 -13.75124380 -1.74825293
VERTEX2 59 11.21284790 -14.35682469 -1.77149985
VERTEX2 60 11.10066086 -14.95700532 -1.74986316
VERTEX2 61 10.98287141 -15.55794784 -1.80030956
VERTEX2 62 10.84844237 -16.11961680 -1.75960839
VERTEX2 63 10.71285233 -16.68581681 -1.79419896
VERTEX2 64 10.59553049 -17.24173221 -1.73080518
VERTEX2 65 10.47860563 -17.79535584 -1.78222080
VERTEX2 66 10.34281475 -18.38348714 -1.79021665
VERTEX2 67 10.19603863 -18.97739542 -1.78967453
VERTEX2 68 10.09901039 -19.42678976 -1.80507780
VERTEX2 69 10.10365548 -19.40992088 -1.95967479
VERTEX2 70 10.11259108 -19.39150853 -2.63318065
VERTEX2 71 10.12382735 -19.39052337 3.00919723
VERTEX2 72 10.12860367 -19.39027601 2.99966426
VERTEX2 73 10.13333330 -19.39128346 2.93445315
VERTEX2 74 10.13359157 -19.39143478 2.31195063
VERTEX2 75 10.15113909 -19.39768918 1.95873758
VERTEX2 76 10.14341640 -19.38960663 2.65122811
VERTEX2 77 10.14951733 -19.39191173 2.88347905
VERTEX2 78 9.87592740 -19.40992254 -3.06291593
VERTEX2 79 9.26023384 -19.46550080 -3.06835751
VERTEX2 80 8.62963661 -19.48119076 3.14010407
VERTEX2 81 8.00602872 -19.47152140 3.11392258
VERTEX2 82 7.41302354 -19.44702223 3.05972192
VERTEX2 83 6.83073899 -19.41172758 3.03615287
VERTEX2 84 6.27368283 -19.34165743 2.95829365
VERTEX2 85 5.73599277 -19.25325858 2.96556340
VERTEX2 86 5.12501175 -19.14760287 2.87579238
VERTEX2 87 4.75243194 -19.05898304 2.82182694
VERTEX2 88 4.39337380 -18.93586819 2.79193023
VERTEX2 89 4.40735112 -18.93615716 -3.09574115
VERTEX2 90 3.80675382 -18.95394925 -3.12695415
VERTEX2 91 3.20061731 -18.96400569 -3.07839657
VERTEX2 92 2.61039008 -18.97354797 3.08854041
VERTEX2 93 1.99443889 -18.88599331 2.98720181
VERTEX2 94 1.37566446 -18.76235418 2.94414767
VERTEX2 95 0.75027173 -18.68720863 3.08732122
VERTEX2 96 0.13866981 -18.64900728 3.11191812
VERTEX2 97 -0.44209224 -18.59910417 3.04073106
VERTEX2 98 -1.01880449 -18.51300414 2.98212112
VERTEX2 99 -1.71238486 -18.40556099 3.02834290
VERTEX2 100 -2.26543739 -18.31152042 2.97600811
VERTEX2 101 -2.86792003 -18.26787653 3.07868308
VERTEX2 102 -3.48268604 -18.20014873 2.97290364
VERTEX2 103 -4.08206899 -18.09985858 3.06806191
VERTEX2 104 -4.68857147 -18.03686650 3.03379159
VERTEX2 105 -5.30355560 -17.98465236 3.08050978
VERTEX2 106 -5.90790301 -17.92636243 3.02575626
VERTEX2 107 -6.52560775 -17.84324238 3.02181786
VERTEX2 108 -6.98062041 -17.80328584 3.08272640
VERTEX2 109 -7.02541553 -17.79280068 2.63294107
VERTEX2 110 -7.04111143 -17.77710448 2.04145625
VERTEX2 111 -7.04265843 -17.69788656 1.53604015
VERTEX2 112 -7.03069920 -17.06574325 1.59061318
VERTEX2 113 -7.06064595 -16.44501194 1.63774780
VERTEX2 114 -7.10524100 -15.83265605 1.67459367
VERTEX2 115 -7.18770583 -15.20594178 1.73410973
VERTEX2 116 -7.31631490 -14.47001525 1.77752064
VERTEX2 117 -7.45847009 -13.87504276 1.87236272
VERTEX2 118 -7.46018013 -13.86763174 1.53655082
VERTEX2 119 -7.41302987 -13.35844751 1.48263367
VERTEX2 120 -7.37018893 -12.70676549 1.57219103
VERTEX2 121 -7.38934744 -12.09415765 1.63921370
VERTEX2 122 -7.43118810 -11.51652811 1.69542815
VERTEX2 123 -7.45793935 -11.34228734 1.68266216
VERTEX2 124 -7.37737446 -11.10833105 1.25919892
VERTEX2 125 -7.17088638 -10.51837565 1.24816177
VERTEX2 126 -7.04860466 -9.90920357 1.45466533
VERTEX2 127 -6.96133340 -9.28367635 1.45290148
VERTEX2 128 -6.89598106 -8.65504935 1.48918755
VERTEX2 129 -6.81979247 -8.02984242 1.45644110
VERTEX2 130 -6.76211804 -7.40753673 1.50907242
VERTEX2 131 -6.72571693 -6.79220442 1.59756023
VERTEX2 132 -6.71655454 -6.18805479 1.54803265
VERTEX2 133 -6.67954754 -5.62490132 1.51083683
VERTEX2 134 -6.63594559 -5.03277960 1.49217698
VERTEX2 135 -6.56406501 -4.46162226 1.46540316
VERTEX2 136 -6.49938128 -3.83600493 1.48553350
VERTEX2 137 -6.41279857 -3.21253394 1.44434654
VERTEX2 138 -6.34679526 -2.59189048 1.52551684
VERTEX2 139 -6.34148883 -1.96619959 1.59000531
VERTEX2 140 -6.38076604 -1.31566768 1.61972893
VERTEX2 141 -6.39653533 -0.67280310 1.57173334
VERTEX2 142 -6.40702180 -0.02014257 1.56830720
VERTEX2 143 -6.33576770 0.62293733 1.45779064
VERTEX2 144 -6.30171546 0.99823738 1.47536000
VERTEX2 145 13.86476986 -2.90322296 -1.94310951
VERTEX2 146 14.51176075 0.32737312 -3.01923095
VERTEX2 147 14.45816505 0.34478830 2.77564209
VERTEX2 148 14.05282258 0.50892650 2.73915501
VERTEX2 149 13.45330984 0.75749532 2.76348623
VERTEX2 150 12.85364976 0.97623452 2.77693265
VERTEX2 151 12.24488400 1.18003266 2.86183315
VERTEX2 152 11.66440086 1.36202152 2.79462187
VERTEX2 153 11.05289359 1.55387025 2.88004641
VERTEX2 154 10.44264350 1.73824156 2.80248937
VERTEX2 155 9.83041354 1.94191481 2.82854675
VERTEX2 156 9.21081425 2.13229866 2.85203547
VERTEX2 157 3.02676860 -14.80038269 1.55114394
VERTEX2 158 3.03099841 -14.60752132 1.58024930
VERTEX2 159 0.97169158 -0.35007702 -2.91243365
VERTEX2 160 0.96047794 -0.35363599 -1.87036155
VERTEX2 161 -0.05038623 0.52529079 2.71538261
VERTEX2 162 -0.03247014 0.52949017 -2.52564613
VERTEX2 163 -0.03314810 0.52579095 -1.52245682
VERTEX2 164 -0.11374613 0.62201444 -0.45889567
VERTEX2 165 0.04412559 0.60948664 -0.05116673
VERTEX2 166 0.72593422 0.58037832 -0.04944572
VERTEX2 167 1.33390199 0.54260247 -0.07850980
VERTEX2 168 1.91331749 0.50550212 -0.06620321
VERTEX2 169 2.50060721 0.44671277 -0.10279572
VERTEX2 170 3.07905360 0.39114932 -0.12309558
VERTEX2 171 3.63384528 0.30561426 -0.16102701
VERTEX2 172 4.25643626 0.21153744 -0.14614797
VERTEX2 173 4.88918946 0.10402100 -0.16862097
VERTEX2 174 5.51364679 0.00421473 -0.12839362
VERTEX2 175 6.12839238 -0.07168777 -0.15298025
VERTEX2 176 6.71889229 -0.17611299 -0.14334330
VERTEX2 177 7.33281415 -0.26285649 -0.17096136
VERTEX2 178 7.94602014 -0.39201081 -0.20992689
VERTEX2 179 8.34277938 -0.46497623 -0.15646357
VERTEX2 180 8.37875066 -0.47377925 -0.59927715
VERTEX2 181 8.82437271 -0.78103801 -0.65106192
VERTEX2 182 9.24044040 -1.13378802 -0.82498235
VERTEX2 183 9.59897763 -1.54984623 -0.88223435
VERTEX2 184 9.89940474 -1.98896194 -1.02907392
VERTEX2 185 10.15629570 -2.45712199 -1.12167135
VERTEX2 186 10.36137938 -2.96724724 -1.18782302
VERTEX2 187 10.54519281 -3.45961803 -1.20981444
VERTEX2 188 10.73601045 -3.97124178 -1.21433658
VERTEX2 189 10.92157468 -4.48676500 -1.24051823
VERTEX2 190 11.11506263 -5.07988274 -1.26918060
VERTEX2 191 11.29847861 -5.67290926 -1.29303921
VERTEX2 192 11.46330541 -6.26047067 -1.32106791
VERTEX2 193 11.59693661 -6.80097832 -1.37633116
VERTEX2 194 11.70800915 -7.36445685 -1.40255003
VERTEX2 195 11.80096865 -7.92906264 -1.43045410
VERTEX2 196 11.88244514 -8.55230928 -1.47104318
VERTEX2 197 11.93527002 -9.17269982 -1.49831864
VERTEX2 198 11.97497715 -9.78562686 -1.55635467
VERTEX2 199 11.96162967 -10.39049333 -1.61758855
VERTEX2 200 11.92933371 -10.99112127 -1.63925612
VERTEX2 201 11.87338861 -11.59168984 -1.69564898
VERTEX2 202 11.82242898 -12.09331010 -1.67476822
VERTEX2 203 11.73934985 -12.82512087 -1.72668754
VERTEX2 204 11.63351433 -13.40178106 -1.82839710
VERTEX2 205 11.47990251 -13.96611241 -1.83756738
VERTEX2 206 11.34116690 -14.51497011 -1.83536605
VERTEX2 207 11.19738805 -15.08377517 -1.81909638
VERTEX2 208 11.04191310 -15.68269211 -1.82818487
VERTEX2 209 10.89782667 -16.28270092 -1.78957117
VERTEX2 210 10.75184369 -16.87908147 -1.79770104
VERTEX2 211 10.62014648 -17.47768574 -1.79527031
VERTEX2 212 10.46058505 -18.06736770 -1.84788424
VERTEX2 213 10.28259202 -18.66170519 -1.86839535
VERTEX2 214 10.09949545 -19.24284683 -1.87190431
VERTEX2 215 9.99412581 -19.56795642 -1.90735251
VERTEX2 216 10.01018746 -19.53845131 -2.40629152
VERTEX2 217 10.04009594 -19.53433879 -2.94957558
VERTEX2 218 10.04919181 -19.53752838 -3.00614696
VERTEX2 219 9.48465050 -19.50959994 3.10818610
VERTEX2 220 8.87747418 -19.48257186 3.06807436
VERTEX2 221 8.23917450 -19.43456503 3.11859876
VERTEX2 222 7.62170309 -19.40977561 3.09280631
VERTEX2 223 7.00409611 -19.39796688 -3.09431928
VERTEX2 224 6.39928382 -19.41533324 -3.12034425
VERTEX2 225 5.79057106 -19.42642329 -3.07089548
VERTEX2 226 5.18272050 -19.43661233 -3.12024534
VERTEX2 227 4.54163422 -19.52342785 -2.96374615
VERTEX2 228 4.02113445 -19.52249225 2.95761325
VERTEX2 229 3.58711078 -19.49952710 3.07764762
VERTEX2 230 3.29958430 -19.49155595 3.04872837
VERTEX2 231 3.50763341 -19.50425428 3.11869327
VERTEX2 232 3.19004909 -19.37121624 2.69387881
VERTEX2 233 2.61556445 -19.12362361 2.79672884
VERTEX2 234 2.03029371 -18.91105955 2.75305020
VERTEX2 235 1.77449785 -18.80885248 2.74851129
VERTEX2 236 1.45032514 -18.81899366 -3.12981278
VERTEX2 237 0.83216416 -18.85013893 -3.05961994
VERTEX2 238 0.22223455 -18.91431317 -3.09289138
VERTEX2 239 -0.38104355 -18.92683111 3.12187271
VERTEX2 240 -0.93760117 -18.82562040 2.90215911
VERTEX2 241 -1.46632251 -18.70953372 2.98649013
VERTEX2 242 -2.03046889 -18.65793483 3.02512891
VERTEX2 243 -2.62658413 -18.58805139 3.02411621
VERTEX2 244 -3.24485652 -18.55569123 3.09515331
VERTEX2 245 -3.85410338 -18.51995819 3.04075283
VERTEX2 246 -4.45208024 -18.44690394 2.96825469
VERTEX2 247 -5.05143789 -18.37759249 3.07411264
VERTEX2 248 -5.60354937 -18.36755718 3.10541753
VERTEX2 249 -5.55211648 -18.37420164 -2.98498280
VERTEX2 250 -5.54541801 -18.37391187 2.71078650
VERTEX2 251 -5.87267186 -18.04192627 2.28753618
VERTEX2 252 -6.23745907 -17.62874136 2.29603773
VERTEX2 253 -6.61814250 -17.19151689 2.28475915
VERTEX2 254 -6.99239811 -16.74190258 2.24323112
VERTEX2 255 -7.06620073 -16.65192714 2.32707426
VERTEX2 256 -7.07062866 -16.57612048 1.85100428
VERTEX2 257 -7.13038727 -16.11984577 1.71497824
VERTEX2 258 -7.22534130 -15.53176782 1.79565871
VERTEX2 259 -7.37564894 -14.94347261 1.83588774
VERTEX2 260 -7.51505958 -14.40090140 1.82713841
VERTEX2 261 -7.51386430 -14.37272362 1.51458793
VERTEX2 262 -7.46143112 -13.72756094 1.52086293
VERTEX2 263 -7.42908498 -13.11687281 1.53399855
VERTEX2 264 -7.42326799 -12.52102135 1.63074969
VERTEX2 265 -7.46343059 -11.92790272 1.65026747
VERTEX2 266 -7.42449106 -11.35701932 1.52033815
VERTEX2 267 -7.38334637 -10.61598111 1.49056194
VERTEX2 268 -7.25983244 -10.01669349 1.38007835
VERTEX2 269 -7.14866283 -9.40741908 1.40981300
VERTEX2 270 -7.08500989 -8.79029222 1.52375223
VERTEX2 271 -6.99837663 -8.17374653 1.41328868
VERTEX2 272 -6.92137992 -7.55287121 1.47858319
VERTEX2 273 -6.93881775 -6.93130094 1.69079606
VERTEX2 274 -7.01271087 -6.33061912 1.71457226
VERTEX2 275 -7.00840029 -5.73707445 1.54282384
VERTEX2 276 -7.00934644 -5.13776787 1.65766508
VERTEX2 277 -7.06331257 -4.57835285 1.63226815
VERTEX2 278 -7.02890890 -3.94268265 1.54376277
VERTEX2 279 -6.99848771 -3.31269928 1.48865332
VERTEX2 280 -6.94013184 -2.68787812 1.49092712
VERTEX2 281 -6.85979647 -2.06103500 1.39075396
VERTEX2 282 -6.75066010 -1.44035340 1.43086985
VERTEX2 283 -6.67369937 -0.80923340 1.42347525
VERTEX2 284 -6.57199676 -0.18834214 1.45110284
VERTEX2 285 -6.51592685 0.44124577 1.47096263
VERTEX2 286 -6.45933569 1.04301756 1.52331234
VERTEX2 287 -6.45803291 1.07270870 1.41750934
VERTEX2 288 -6.46110754 1.06690672 0.80553161
VERTEX2 289 -6.45764776 1.06870116 0.20877172
VERTEX2 290 -6.00434114 1.06089857 -0.01798406
VERTEX2 291 -5.36928170 1.05310217 -0.00521732
VERTEX2 292 -4.75047879 1.03466053 -0.05755256
VERTEX2 293 -4.12404171 0.99210918 -0.07852225
VERTEX2 294 -3.51260839 0.94492057 -0.07546236
VERTEX2 295 -2.90174010 0.87165211 -0.18509027
VERTEX2 296 -2.29786577 0.73745291 -0.22807252
VERTEX2 297 -1.69604949 0.59799504 -0.23760012
VERTEX2 298 -1.08100398 0.45187763 -0.23706798
VERTEX2 299 -0.50868218 0.30512027 -0.17499428
VERTEX2 300 0.07490761 0.22934223 -0.13196908
VERTEX2 301 0.63102083 0.14024775 -0.19024128
VERTEX2 302 0.92625521 0.08209550 -0.21031859
VERTEX2 303 0.90088980 0.08683427 -0.20537094
VERTEX2 304 1.39585096 -0.01759150 -0.19500498
VERTEX2 305 2.00394045 -0.04943593 -0.00999033
VERTEX2 306 2.62826644 -0.04686873 -0.02812791
VERTEX2 307 3.26322432 -0.08108310 -0.06490251
VERTEX2 308 3.88699969 -0.13051450 -0.12056549
VERTEX2 309 4.51801443 -0.17724880 -0.02772133
VERTEX2 310 5.14101804 -0.19394972 -0.06368280
VERTEX2 311 5.41740245 -0.21363377 0.11127705
VERTEX2 312 5.40969811 -0.21798836 1.09902508
VERTEX2 313 5.40939442 -0.00015007 1.59468657
VERTEX2 314 5.37554192 0.62713081 1.63443943
VERTEX2 315 5.33271176 1.25367103 1.63006729
VERTEX2 316 5.27872998 1.89387479 1.68138000
VERTEX2 317 5.20365471 2.53024647 1.69130160
VERTEX2 318 5.09137135 3.16117020 1.78581945
VERTEX2 319 5.00451948 3.50430509 1.85713398
VERTEX2 320 5.00667301 3.51153842 2.82558367
VERTEX2 321 5.00312832 3.50990044 -2.41794403
VERTEX2 322 5.00413904 3.51202106 -1.42240114
VERTEX2 323 5.01195986 3.50485559 -0.43064760
VERTEX2 324 5.01441138 3.50412760 0.22874631
VERTEX2 325 5.01561727 3.50425227 -0.29933508
VERTEX2 326 5.03276530 3.49196695 -0.89510054
VERTEX2 327 5.03624260 3.47726073 -1.51905001
VERTEX2 328 5.03477179 2.84123788 -1.56583270
VERTEX2 329 5.02714501 2.21457580 -1.62224654
VERTEX2 330 4.98692076 1.59854515 -1.64272212
VERTEX2 331 4.94571779 0.98120022 -1.65846901
VERTEX2 332 4.87999926 0.36636084 -1.67845332
VERTEX2 333 4.86175143 0.21172252 -1.61498096
VERTEX2 334 4.85455909 0.20963688 -0.82151272
VERTEX2 335 4.87364916 0.20444524 0.16936802
VERTEX2 336 4.88980144 0.21051844 1.11040339
VERTEX2 337 4.89449384 0.24458498 2.08925613
VERTEX2 338 4.89210907 0.24615732 3.07889201
VERTEX2 339 4.90142362 0.25222838 -2.15467417
VERTEX2 340 4.90169776 0.25049560 -1.13447897
VERTEX2 341 5.01727625 0.18424988 -0.50050525
VERTEX2 342 5.59492530 -0.10559018 -0.39847339
VERTEX2 343 6.19125228 -0.29845241 -0.26538313
VERTEX2 344 6.79804854 -0.47149710 -0.27358780
VERTEX2 345 7.05182969 -0.53931522 -0.29938024
VERTEX2 346 7.05187417 -0.53933866 -0.94226413
VERTEX2 347 7.05773605 -0.64161112 -1.49701600
VERTEX2 348 7.09568010 -1.24516449 -1.51211177
VERTEX2 349 7.11463726 -1.87792433 -1.55070889
VERTEX2 350 7.12887807 -2.67434579 -1.56879980
VERTEX2 351 7.12410515 -2.95647238 -1.59621471
VERTEX2 352 7.12278878 -2.96410783 -1.88222769
VERTEX2 353 7.11219130 -2.97813993 -2.54380679
VERTEX2 354 7.09251043 -2.98460657 3.13865829
VERTEX2 355 7.06003089 -2.98442423 2.42052408
VERTEX2 356 7.04678516 -2.96301738 1.84764172
VERTEX2 357 7.04997093 -2.93791221 1.19678574
VERTEX2 358 7.05092609 -2.93645174 0.58264793
VERTEX2 359 7.02708458 -2.94771805 -0.03046145
VERTEX2 360 6.98278716 -2.94059059 -0.20626171
VERTEX2 361 6.95702441 -2.94823500 0.71444383
VERTEX2 362 7.03825778 -2.70149152 1.24889495
VERTEX2 363 7.13620103 -2.41756403 1.24265692
VERTEX2 364 7.04939916 -2.05620763 1.85772393
VERTEX2 365 6.98085679 -1.75017779 1.36057692
VERTEX2 366 7.08300818 -1.62755288 0.80635704
VERTEX2 367 7.51168484 -1.18482340 0.80827362
VERTEX2 368 7.95601584 -0.73799527 0.76053439
VERTEX2 369 7.97456678 -0.71439295 0.50901771
VERTEX2 370 7.99566307 -0.71047491 -0.07815930
VERTEX2 371 7.99945511 -0.71233912 -0.62408379
VERTEX2 372 8.43399858 -1.04804496 -0.65191849
VERTEX2 373 8.91264302 -1.39914093 -0.65009841
VERTEX2 374 9.39851435 -1.78819703 -0.71144051
VERTEX2 375 9.77678327 -2.10863537 -0.74173301
VERTEX2 376 9.79401212 -2.11857887 -0.04724166
VERTEX2 377 9.83978211 -2.08414705 0.64777319
VERTEX2 378 10.35794002 -1.67636144 0.70106693
VERTEX2 379 10.81920380 -1.23848696 0.78496836
VERTEX2 380 11.23974862 -0.76570399 0.90337102
VERTEX2 381 11.38037069 -0.58164199 1.05172465
VERTEX2 382 11.38138603 -0.57964831 2.09649072
VERTEX2 383 11.38469383 -0.58157975 3.08268850
VERTEX2 384 11.38758417 -0.57865475 -2.23753690
VERTEX2 385 11.38640714 -0.58070445 -1.20827182
VERTEX2 386 11.49296021 -0.71182754 -0.98362811
VERTEX2 387 11.95911152 -1.12107325 -0.65225211
VERTEX2 388 12.45626179 -1.48438966 -0.64255353
VERTEX2 389 12.92881857 -1.86763948 -0.72406702
VERTEX2 390 12.96637762 -1.89959051 -0.24760397
VERTEX2 391 12.80961161 -1.89893072 0.13344671
VERTEX2 392 12.78842050 -1.90024624 1.17692053
VERTEX2 393 12.84149974 -1.46911650 2.06224458
VERTEX2 394 12.81860879 -1.45066117 3.05656311
VERTEX2 395 13.04173761 -1.40463329 -2.88893871
VERTEX2 396 13.02597548 -1.40832533 -2.88875421
VERTEX2 397 13.00530167 -1.40731875 -2.89947907
VERTEX2 398 12.99072060 -1.41393742 -2.70199186
VERTEX2 399 12.88968666 -1.49736840 -2.40306470
VERTEX2 400 12.40250897 -1.94422594 -2.35276472
VERTEX2 401 11.94657000 -2.36910121 -2.44529102
VERTEX2 402 11.40086045 -2.67436434 -2.71262977
VERTEX2 403 10.84052542 -2.92542173 -2.74708528
VERTEX2 404 10.30554788 -3.13090731 -2.82663439
VERTEX2 405 10.31981116 -3.12358464 -2.29480269
VERTEX2 406 10.32299487 -3.10119407 -1.31993731
VERTEX2 407 10.44957238 -3.43143249 -1.19310370
VERTEX2 408 10.66673266 -3.99451396 -1.23234860
VERTEX2 409 10.75348846 -4.26450280 -1.33342306
VERTEX2 410 10.75365384 -4.24868733 -1.96457090
VERTEX2 411 10.76591532 -4.22584214 -2.55699529
VERTEX2 412 10.27875370 -4.43163584 -2.76138308
VERTEX2 413 9.70896760 -4.63738024 -2.84211182
VERTEX2 414 9.13354582 -4.83291763 -2.73958875
VERTEX2 415 8.53860192 -5.07787219 -2.73175831
VERTEX2 416 8.26017401 -5.20763657 -2.78606372
VERTEX2 417 7.97403973 -5.19728739 3.07432570
VERTEX2 418 7.54088893 -5.16306041 3.03004788
VERTEX2 419 7.55007270 -5.16077279 -2.82046346
VERTEX2 420 7.61296966 -5.13127252 -2.60276641
VERTEX2 421 7.61874105 -5.12162579 -1.63239548
VERTEX2 422 7.61274651 -5.13043598 -0.38995756
VERTEX2 423 7.61050716 -5.13027912 -0.04320360
VERTEX2 424 7.60279798 -5.13030369 -0.04203166
VERTEX2 425 7.59003100 -5.13790371 -0.02948253
VERTEX2 426 7.58214835 -5.13802609 -0.03779138
VERTEX2 427 7.60714168 -5.13874701 -0.03400131
VERTEX2 428 8.26203158 -5.14450700 -0.03886230
VERTEX2 429 8.89998344 -5.17828078 -0.07900084
VERTEX2 430 9.24387465 -5.21106273 -0.12435389
VERTEX2 431 9.22287130 -5.20905278 -0.07168840
VERTEX2 432 9.23487638 -5.21295996 -0.70164314
VERTEX2 433 9.24072742 -5.22058367 -1.37708231
VERTEX2 434 9.21753293 -5.76560835 -1.60404407
VERTEX2 435 9.20192727 -6.41440708 -1.63149526
VERTEX2 436 9.14101671 -7.05619285 -1.63952699
VERTEX2 437 9.10624639 -7.70743760 -1.63084466
VERTEX2 438 9.06662507 -8.18174362 -1.66044236
VERTEX2 439 9.06405023 -8.19260863 -2.09445959
VERTEX2 440 9.06873180 -8.18874603 -2.73494827
VERTEX2 441 9.08562861 -8.18658301 2.92878808
VERTEX2 442 9.09617019 -8.19191302 2.30200348
VERTEX2 443 9.09679164 -8.19878111 1.73749903
VERTEX2 444 9.09854846 -8.18780726 1.14843400
VERTEX2 445 9.10273020 -8.18356066 0.49188914
VERTEX2 446 9.10014640 -8.18527640 0.69414540
VERTEX2 447 9.11058209 -8.16338494 1.32714200
VERTEX2 448 9.24085651 -7.53809089 1.34476663
VERTEX2 449 9.35313920 -6.90185505 1.44600686
VERTEX2 450 9.42704409 -6.26618326 1.45958120
VERTEX2 451 9.46587359 -5.79121940 1.50157991
VERTEX2 452 9.46612707 -5.78705430 1.12237840
VERTEX2 453 9.46558028 -5.78810444 0.49854334
VERTEX2 454 9.74011321 -5.75972205 0.07480666
VERTEX2 455 10.33262463 -5.72070572 0.05432055
VERTEX2 456 10.95917481 -5.70061970 -0.01017878
VERTEX2 457 11.30834507 -5.71405786 -0.09779950
VERTEX2 458 11.29985902 -5.71011448 -0.74346053
VERTEX2 459 11.28914657 -5.67099503 -1.35191284
VERTEX2 460 11.27861749 -6.06623828 -1.60889767
VERTEX2 461 11.22579021 -6.68059253 -1.69682322
VERTEX2 462 11.15172993 -7.18836896 -1.73681753
VERTEX2 463 11.16405260 -7.16265384 -0.89651155
VERTEX2 464 11.42154969 -7.22887580 -0.21837412
VERTEX2 465 12.00905382 -7.34711772 -0.21062228
VERTEX2 466 12.56662856 -7.48439487 -0.26626450
VERTEX2 467 13.14219834 -7.65180640 -0.30973790
VERTEX2 468 13.75085847 -7.85080412 -0.34536450
VERTEX2 469 14.33989222 -8.09796532 -0.42831106
VERTEX2 470 14.79474168 -8.30046290 -0.40947116
VERTEX2 471 14.79912998 -8.30270622 -0.60931972
VERTEX2 472 14.81492144 -8.32366520 -1.24188792
VERTEX2 473 14.81527339 -8.32522586 -1.88262762
VERTEX2 474 14.81352612 -8.32752426 -2.51411153
VERTEX2 475 14.81016246 -8.32804200 -3.08867717
VERTEX2 476 14.81144249 -8.32818798 2.54312669
VERTEX2 477 14.81359328 -8.33220708 1.98344581
VERTEX2 478 14.81449128 -8.34158318 1.35605351
VERTEX2 479 14.81372909 -8.34342198 0.90148331
VERTEX2 480 14.81454005 -8.34151137 1.46325604
VERTEX2 481 14.81262934 -8.33377471 2.46715102
VERTEX2 482 14.82917175 -8.34004199 2.80407246
VERTEX2 483 14.84796513 -8.34658149 2.79912285
VERTEX2 484 14.43092985 -8.20129295 2.83509809
VERTEX2 485 13.83305067 -8.02611527 2.83275191
VERTEX2 486 13.23193259 -7.82710512 2.84225063
VERTEX2 487 12.62295496 -7.66127009 2.87049929
VERTEX2 488 12.01165058 -7.49359049 2.90659265
VERTEX2 489 11.53413212 -7.39454078 2.93751378
VERTEX2 490 11.53324487 -7.39464032 -2.85951878
VERTEX2 491 11.53824444 -7.38771474 -1.92160188
VERTEX2 492 11.52690501 -7.61877581 -1.61775257
VERTEX2 493 11.47979080 -8.22697080 -1.67225692
VERTEX2 494 11.40769097 -8.84307849 -1.73262705
VERTEX2 495 11.35383521 -9.46640522 -1.62466226
VERTEX2 496 11.32629083 -10.08892206 -1.50687708
VERTEX2 497 11.33527794 -10.70231008 -1.59266235
VERTEX2 498 11.28323719 -11.32180958 -1.69417251
VERTEX2 499 11.16979069 -11.94966661 -1.71111660
VERTEX2 500 11.24242980 -12.51121974 -1.38204459
VERTEX2 501 11.33192888 -13.08629900 -1.45256945
VERTEX2 502 11.37512535 -13.78023964 -1.53537931
VERTEX2 503 11.38408302 -14.22015742 -1.55219276
VERTEX2 504 11.38965683 -14.20277417 -0.69702950
VERTEX2 505 11.62398710 -14.22250905 -0.07584577
VERTEX2 506 12.21651604 -14.28695990 -0.22832533
VERTEX2 507 12.80030728 -14.43944231 -0.30682620
VERTEX2 508 13.37503321 -14.63439327 -0.31983266
VERTEX2 509 13.99032697 -14.84614126 -0.37509910
VERTEX2 510 14.34840192 -14.99345755 -0.38847997
VERTEX2 511 14.34658321 -14.97992420 0.48940766
VERTEX2 512 14.37103941 -14.92389117 1.68469503
VERTEX2 513 14.36529032 -14.90850956 2.63921920
VERTEX2 514 14.29834317 -14.89185170 2.86526114
VERTEX2 515 13.68396914 -14.72891246 2.86624630
VERTEX2 516 13.09450973 -14.55203056 2.88204138
VERTEX2 517 12.49894519 -14.42125948 2.91014857
VERTEX2 518 11.90359875 -14.28728276 2.93443375
VERTEX2 519 11.37960675 -14.17855575 2.91868960
VERTEX2 520 11.21666719 -14.14111638 -2.96614952
VERTEX2 521 11.24177068 -14.11179660 -1.96279229
VERTEX2 522 11.18623310 -14.52172394 -1.69830893
VERTEX2 523 11.11311166 -15.14284628 -1.70553586
VERTEX2 524 11.02635159 -15.71799785 -1.74732027
VERTEX2 525 10.93861711 -16.26126330 -1.72355939
VERTEX2 526 10.83953522 -16.83150780 -1.78225553
VERTEX2 527 10.70939454 -17.41255693 -1.81698722
VERTEX2 528 10.54471375 -17.98167366 -1.89289640
VERTEX2 529 10.34914931 -18.59019385 -1.92079599
VERTEX2 530 10.12130512 -19.19132256 -1.95085814
VERTEX2 531 9.87055359 -19.76929986 -2.03072496
VERTEX2 532 9.78022465 -19.95347079 -1.98015941
VERTEX2 533 9.77436386 -19.92900013 -0.97880529
VERTEX2 534 9.76226213 -19.92154088 -0.31102427
VERTEX2 535 9.75124754 -19.91707472 -0.31111756
VERTEX2 536 10.09695959 -19.98669710 -0.17996497
VERTEX2 537 10.69459567 -20.11233725 -0.23758188
VERTEX2 538 11.24649737 -20.25939734 -0.26433591
VERTEX2 539 11.84789339 -20.44398139 -0.32871044
VERTEX2 540 12.43678727 -20.67455129 -0.42194543
VERTEX2 541 13.03882877 -20.88515129 -0.25947373
VERTEX2 542 13.68324297 -21.00720740 -0.20366053
VERTEX2 543 13.80688686 -21.03381410 -0.23295945
VERTEX2 544 13.82933810 -21.03073887 0.40504401
VERTEX2 545 13.85108232 -20.98764545 1.47363909
VERTEX2 546 13.86997315 -21.03179054 2.30070542
VERTEX2 547 13.87501890 -21.03127672 -2.96075522
VERTEX2 548 13.88575675 -21.02381545 -2.03780519
VERTEX2 549 13.88684604 -21.01387289 -1.23109691
VERTEX2 550 13.88497738 -20.99437939 -1.71083131
VERTEX2 551 13.89229225 -20.97803978 -2.33730411
VERTEX2 552 13.91495252 -20.96566528 -2.96972948
VERTEX2 553 13.78451523 -20.92138937 2.73621045
VERTEX2 554 13.19311644 -20.66464788 2.70061030
VERTEX2 555 12.61488608 -20.41638778 2.78931809
VERTEX2 556 12.01412815 -20.22443168 2.92422717
VERTEX2 557 11.40026493 -20.07436999 2.88281083
VERTEX2 558 10.81096510 -19.93717142 2.96361793
VERTEX2 559 10.81898732 -19.93956508 2.55495899
VERTEX2 560 10.81162183 -19.93196492 2.05208034
VERTEX2 561 10.79591684 -19.91768458 2.55600094
VERTEX2 562 10.63200088 -19.92290749 -3.08515994
VERTEX2 563 10.07365715 -19.86329600 3.00540128
VERTEX2 564 9.48111647 -19.79182878 3.05349106
VERTEX2 565 8.88927909 -19.73781121 2.99585181
VERTEX2 566 8.95197783 -19.75535321 -2.50414807
VERTEX2 567 8.86154549 -19.76467927 -1.70999441
VERTEX2 568 8.82522771 -20.27369783 -1.64690962
VERTEX2 569 8.79031968 -20.85321929 -1.68698817
VERTEX2 570 8.73785601 -21.43567050 -1.68231494
VERTEX2 571 8.69482457 -21.79473422 -1.73062555
VERTEX2 572 8.66685515 -21.81637848 -1.97508068
VERTEX2 573 8.63422734 -21.89566967 -1.69916214
VERTEX2 574 8.65736217 -21.92659550 -0.76117364
VERTEX2 575 8.80884897 -21.97159764 0.16799240
VERTEX2 576 8.81019284 -21.97259965 1.19526233
VERTEX2 577 8.80362359 -21.95673551 2.16698779
VERTEX2 578 8.79440002 -21.92873932 1.80242351
VERTEX2 579 8.65086945 -21.28443117 1.81725596
VERTEX2 580 8.47118332 -20.65367206 1.89220796
VERTEX2 581 8.25974180 -20.04002603 1.93442752
VERTEX2 582 8.01893600 -19.42939274 1.97724392
VERTEX2 583 7.87884937 -19.12260106 2.05629018
VERTEX2 584 7.87204508 -19.11028984 2.89918642
VERTEX2 585 7.29063737 -18.98770156 3.01728003
VERTEX2 586 6.70492292 -18.93073668 3.11473077
VERTEX2 587 6.09657785 -18.93667029 3.14026702
VERTEX2 588 5.47495580 -18.92850315 -3.13813619
VERTEX2 589 4.95404113 -18.96745540 -3.06353759
VERTEX2 590 4.40042336 -19.02745784 -2.99442606
VERTEX2 591 3.85779037 -19.12261368 -2.99602670
VERTEX2 592 3.31762251 -19.21149878 -2.99883590
VERTEX2 593 3.14666306 -19.23790228 -2.79371331
VERTEX2 594 3.19277652 -19.18524063 -1.87322383
VERTEX2 595 3.09713380 -19.79519040 -1.64043474
VERTEX2 596 3.06249629 -20.42084956 -1.66361275
VERTEX2 597 2.99001982 -21.09807568 -1.70360714
VERTEX2 598 2.90271158 -21.70370670 -1.74484913
VERTEX2 599 2.82541677 -22.08327135 -1.81110131
VERTEX2 600 2.82607184 -22.09930820 -1.00477929
VERTEX2 601 2.86937078 -22.12432483 0.01172152
VERTEX2 602 2.91407394 -22.10495292 1.02457191
VERTEX2 603 2.87337619 -21.86949042 1.79643379
VERTEX2 604 2.79798012 -21.25668354 1.55203980
VERTEX2 605 2.79147951 -20.60755001 1.63429761
VERTEX2 606 2.73579492 -19.96042899 1.67610002
VERTEX2 607 2.73322697 -19.36899289 1.59480780
VERTEX2 608 2.71117012 -18.98239743 1.63905510
VERTEX2 609 2.70690344 -18.96038402 1.97500865
VERTEX2 610 2.70446742 -18.95956792 2.90691606
VERTEX2 611 2.11210675 -18.82336575 2.90973938
VERTEX2 612 1.64318054 -18.70065927 2.91257483
VERTEX2 613 1.68522258 -18.71253035 -2.90678549
VERTEX2 614 1.68862042 -18.70983643 -1.86719219
VERTEX2 615 1.71185684 -19.20313399 -1.56199889
VERTEX2 616 1.73225722 -19.83290415 -1.61274730
VERTEX2 617 1.60774276 -20.44103706 -1.83006653
VERTEX2 618 1.45182576 -21.05185126 -1.82009296
VERTEX2 619 1.30325799 -21.62789636 -1.82165206
VERTEX2 620 1.13218097 -22.20823912 -1.91802751
VERTEX2 621 1.25403531 -21.87355556 -1.96957854
VERTEX2 622 1.37219944 -21.60724122 -2.04459859
VERTEX2 623 1.37319168 -21.60584423 -2.58170372
VERTEX2 624 1.34687832 -21.60610227 3.06000260
VERTEX2 625 1.30814881 -21.59137211 2.40261235
VERTEX2 626 1.28141789 -21.56195469 1.78566370
VERTEX2 627 1.34621408 -21.18925570 1.37563867
VERTEX2 628 1.51178782 -20.55931684 1.27508257
VERTEX2 629 1.67013181 -19.92885962 1.34636669
VERTEX2 630 1.78263925 -19.31939352 1.43159302
VERTEX2 631 1.84426914 -18.78105304 1.45168494
VERTEX2 632 1.84830145 -18.75353195 2.12754002
VERTEX2 633 1.75970338 -18.74949000 -3.06931641
VERTEX2 634 1.09421709 -18.80191270 -3.04189993
VERTEX2 635 0.44258910 -18.82793074 3.10627462
VERTEX2 636 -0.19818623 -18.81451245 3.08868961
VERTEX2 637 -0.82611139 -18.75520133 2.98938240
VERTEX2 638 -1.20992251 -18.68604385 2.95939420
VERTEX2 639 -1.81245688 -18.59837663 3.03926365
VERTEX2 640 -2.41936786 -18.50438648 2.97091578
VERTEX2 641 -3.01463985 -18.40786971 2.96241007
VERTEX2 642 -3.59017558 -18.28409669 2.91691765
VERTEX2 643 -4.08957230 -18.15309302 2.84937160
VERTEX2 644 -4.02942493 -18.14458672 -2.84563043
VERTEX2 645 -4.10719241 -18.30739469 -1.89761967
VERTEX2 646 -4.22735732 -18.90508580 -1.60120668
VERTEX2 647 -4.16979971 -19.52986380 -1.31129139
VERTEX2 648 -3.93562197 -20.13680030 -1.14439084
VERTEX2 649 -3.75036452 -20.71828332 -1.48117121
VERTEX2 650 -3.83316007 -21.34066116 -1.73774172
VERTEX2 651 -3.84579955 -21.47789397 -0.93661620
VERTEX2 652 -3.78847897 -21.50162461 0.09018712
VERTEX2 653 -3.74629618 -21.46136608 1.11813509
VERTEX2 654 -3.76292775 -21.17877300 1.62967720
VERTEX2 655 -3.78738127 -20.63900489 1.62400449
VERTEX2 656 -3.80146845 -20.05460630 1.61033266
VERTEX2 657 -3.91960161 -19.46473111 1.88527194
VERTEX2 658 -4.12299385 -18.85517739 1.87757962
VERTEX2 659 -4.24795939 -18.36842548 1.80609438
VERTEX2 660 -4.25056693 -18.35677087 2.40547694
VERTEX2 661 -4.42599643 -18.34133116 3.05857376
VERTEX2 662 -5.01721007 -18.29508739 3.12803074
VERTEX2 663 -5.60079137 -18.32199943 -3.05428712
VERTEX2 664 -5.60648694 -18.32067915 -2.53110756
VERTEX2 665 -5.62019916 -18.42157404 -1.69713302
VERTEX2 666 -5.67860201 -19.03159305 -1.65997333
VERTEX2 667 -5.72330379 -19.59925529 -1.65534889
VERTEX2 668 -5.77379144 -20.19447086 -1.62958115
VERTEX2 669 -5.80853676 -20.82127768 -1.65474402
VERTEX2 670 -5.89440046 -21.44091327 -1.71427531
VERTEX2 671 -5.93559362 -21.73440076 -1.65935451
VERTEX2 672 -5.84607650 -21.15162987 -1.74851538
VERTEX2 673 -5.78548227 -20.88296329 -1.87910495
VERTEX2 674 -5.77262070 -20.86879465 -2.52733171
VERTEX2 675 -5.74927287 -20.86333387 -3.13603172
VERTEX2 676 -5.74349530 -20.86655532 2.52373321
VERTEX2 677 -5.73913301 -20.87232426 1.90781112
VERTEX2 678 -5.71569445 -20.64900110 1.46180727
VERTEX2 679 -5.66369975 -20.06810775 1.52435313
VERTEX2 680 -5.70067364 -19.61983155 1.86917887
VERTEX2 681 -5.86461090 -19.03384050 1.84144423
VERTEX2 682 -6.04879422 -18.43365274 1.88887941
VERTEX2 683 -6.14724734 -18.15192730 2.04787315
VERTEX2 684 -6.09978871 -18.19832901 3.12889809
VERTEX2 685 -6.49617316 -18.36618804 -2.70994188
VERTEX2 686 -6.93684227 -18.51165525 -2.85374369
VERTEX2 687 -7.52472867 -18.67529544 -2.88836640
VERTEX2 688 -8.11694232 -18.80846451 -2.89974684
VERTEX2 689 -8.67477694 -18.95979823 -2.87165949
VERTEX2 690 -9.20302859 -19.14036384 -2.79700547
VERTEX2 691 -9.59305231 -19.28097011 -2.82498123
VERTEX2 692 -9.57829595 -19.27397171 -2.29085653
VERTEX2 693 -9.55349702 -19.34601227 -1.25068942
VERTEX2 694 -9.52752627 -19.41777394 -0.41542076
VERTEX2 695 -9.50827616 -19.41179731 0.38440548
VERTEX2 696 -9.50149065 -19.40711508 1.40966423
VERTEX2 697 -9.51215588 -19.44536766 1.15659790
VERTEX2 698 -9.19002940 -19.23066527 0.50145094
VERTEX2 699 -8.63721343 -18.90624046 0.61530696
VERTEX2 700 -8.13508427 -18.53436037 0.66866285
VERTEX2 701 -7.71198853 -18.16358821 0.72764388
VERTEX2 702 -7.24295006 -17.83939500 0.61226066
VERTEX2 703 -6.74121280 -17.49325384 0.64631137
VERTEX2 704 -6.25877083 -17.10202132 0.66428052
VERTEX2 705 -5.75734170 -16.67021510 0.73470495
VERTEX2 706 -5.33463632 -16.34304271 0.46598250
VERTEX2 707 -5.31262793 -16.34137507 -0.05381617
VERTEX2 708 -5.30365638 -16.34628593 -0.69155941
VERTEX2 709 -5.34527065 -16.30350189 -1.02329161
VERTEX2 710 -5.35026149 -16.29147105 -1.58380123
VERTEX2 711 -5.34149956 -16.29900696 -2.17987196
VERTEX2 712 -5.32502700 -16.28575114 -2.74182419
VERTEX2 713 -5.79269307 -16.34691638 -3.02802650
VERTEX2 714 -6.34038718 -16.33466403 3.05688868
VERTEX2 715 -6.96546929 -16.31135543 -3.12268250
VERTEX2 716 -7.59977267 -16.30312667 3.02251076
VERTEX2 717 -8.22175626 -16.24881788 3.10728795
VERTEX2 718 -8.98541579 -16.14694883 2.93191327
VERTEX2 719 -9.60359638 -16.04521862 3.00636841
VERTEX2 720 -10.21757837 -15.94628277 2.94713870
VERTEX2 721 -10.83653642 -15.84400594 3.01531599
VERTEX2 722 -10.85224250 -15.84210987 3.08197476
VERTEX2 723 -10.87468974 -15.86625708 -2.11145850
VERTEX2 724 -10.87386789 -15.90966991 -1.04119597
VERTEX2 725 -10.84860771 -15.92583190 -0.40600743
VERTEX2 726 -10.52775575 -15.91463094 0.04837446
VERTEX2 727 -9.89582945 -15.86240194 0.07921676
VERTEX2 728 -9.25376631 -15.82420573 0.08022189
VERTEX2 729 -8.61563900 -15.74997107 0.13747651
VERTEX2 730 -7.99334727 -15.64447809 0.17464693
VERTEX2 731 -7.35861554 -15.53222680 0.18704250
VERTEX2 732 -7.22302208 -15.50180757 0.63427814
VERTEX2 733 -7.22182637 -15.50366024 1.63208780
VERTEX2 734 -7.29391013 -14.95137173 1.71053531
VERTEX2 735 -7.36928716 -14.35623256 1.67815659
VERTEX2 736 -7.36977079 -14.35100567 2.27684747
VERTEX2 737 -7.37100938 -14.35090177 3.07652498
VERTEX2 738 -7.95856885 -14.32348153 3.09523492
VERTEX2 739 -8.57066500 -14.24143385 3.03720186
VERTEX2 740 -9.08195796 -14.21209206 3.10003373
VERTEX2 741 -9.06208242 -14.21144832 2.73093153
VERTEX2 742 -9.06057698 -14.21246705 2.07829102
VERTEX2 743 -9.06116211 -14.21013356 1.46162191
VERTEX2 744 -9.05450598 -14.19393760 0.92238857
VERTEX2 745 -9.03906519 -14.18542719 0.32904129
VERTEX2 746 -8.49764255 -14.19193985 -0.14567454
VERTEX2 747 -7.83015075 -14.29508535 -0.18152162
VERTEX2 748 -7.23089346 -14.42934797 -0.25049152
VERTEX2 749 -7.12276212 -14.45395920 0.17667580
VERTEX2 750 -7.10876927 -14.42700865 1.10168522
VERTEX2 751 -7.14615802 -14.16594621 1.74061147
VERTEX2 752 -7.21205182 -13.55110466 1.63677350
VERTEX2 753 -7.25805381 -12.91930269 1.69960176
VERTEX2 754 -7.27457783 -12.28394988 1.53791538
VERTEX2 755 -7.26663535 -11.65461133 1.62448354
VERTEX2 756 -7.24029029 -11.02315550 1.44821403
VERTEX2 757 -7.17720400 -10.38181871 1.56012625
VERTEX2 758 -7.20751505 -9.80724601 1.70236370
VERTEX2 759 -7.20663958 -9.26491342 1.58215625
VERTEX2 760 -7.25441577 -8.67413874 1.69314839
VERTEX2 761 -7.25656694 -8.65007967 1.87347304
VERTEX2 762 -7.32839406 -8.61936037 2.70757043
VERTEX2 763 -7.89625089 -8.52729843 2.99973123
VERTEX2 764 -8.30944934 -8.46359761 2.97175157
VERTEX2 765 -8.29799831 -8.46321311 -2.67234597
VERTEX2 766 -8.30076937 -8.47271473 -1.67253163
VERTEX2 767 -8.29420130 -8.48867734 -0.74144480
VERTEX2 768 -8.26747904 -8.48992883 -0.01890149
VERTEX2 769 -7.63420040 -8.39180446 0.13809136
VERTEX2 770 -6.98335833 -8.32314673 0.07105094
VERTEX2 771 -6.89582764 -8.31452906 0.63172140
VERTEX2 772 -6.89398024 -8.30835585 1.49953515
VERTEX2 773 -6.87891436 -7.73398768 1.58543833
VERTEX2 774 -6.89935007 -7.19159911 1.60762572
VERTEX2 775 -6.89746596 -7.19923185 2.45281040
VERTEX2 776 -7.10740563 -7.17692348 3.07042592
VERTEX2 777 -7.72177953 -7.14449830 3.12954420
VERTEX2 778 -8.33531607 -7.14328769 3.10866380
VERTEX2 779 -8.93038805 -7.13131274 3.12665355
VERTEX2 780 -9.11807564 -7.11779700 2.99628382
VERTEX2 781 -9.09794176 -7.12471030 2.42303171
VERTEX2 782 -9.22731334 -6.85746956 1.99357709
VERTEX2 783 -9.46833033 -6.28974606 1.99306448
VERTEX2 784 -9.56857319 -6.06865926 1.97175438
VERTEX2 785 -9.56996033 -6.04074230 1.42059489
VERTEX2 786 -9.56187742 -6.01269207 0.83311863
VERTEX2 787 -9.54439387 -5.99423654 0.34319434
VERTEX2 788 -9.52402314 -5.99530151 -0.28534091
VERTEX2 789 -9.51946188 -5.99877008 -0.83767068
VERTEX2 790 -9.20961535 -6.38653206 -0.90496147
VERTEX2 791 -8.80087730 -6.85931773 -0.80637076
VERTEX2 792 -8.56334404 -7.06476012 -0.10195524
VERTEX2 793 -7.95207614 -7.10806435 -0.05716873
VERTEX2 794 -7.32572569 -7.12764731 0.01395564
VERTEX2 795 -7.36309003 -7.15604578 0.44317397
VERTEX2 796 -7.38541015 -7.16557548 1.10231237
VERTEX2 797 -7.31859981 -6.86921383 1.36214890
VERTEX2 798 -7.19391782 -6.24757102 1.41234333
VERTEX2 799 -7.11693038 -5.60757971 1.47807365
VERTEX2 800 -7.07261468 -4.96370096 1.55112560
VERTEX2 801 -7.09134932 -4.34308685 1.63688982
VERTEX2 802 -7.15236166 -3.72813803 1.69433368
VERTEX2 803 -7.14320822 -3.10491914 1.52950135
VERTEX2 804 -7.13102773 -2.48292467 1.58526262
VERTEX2 805 -7.17269936 -1.84679774 1.66204928
VERTEX2 806 -7.24128693 -1.24277642 1.70390712
VERTEX2 807 -7.27217314 -1.05105816 1.99242721
VERTEX2 808 -7.26557193 -1.05118538 2.94176671
VERTEX2 809 -7.84671638 -1.03076862 3.08679644
VERTEX2 810 -8.45899106 -0.91783819 2.94686478
VERTEX2 811 -9.05695656 -0.81566886 2.94380741
VERTEX2 812 -9.06103179 -0.81492230 -2.60667103
VERTEX2 813 -9.07019527 -0.83629509 -1.63009914
VERTEX2 814 -9.06818916 -0.83781039 -0.63693000
VERTEX2 815 -9.04921660 -0.84379228 0.28319643
VERTEX2 816 -9.04370609 -0.84062526 0.96497675
VERTEX2 817 -9.04037298 -0.83839959 0.29656674
VERTEX2 818 -8.82747855 -0.86644138 -0.19203953
VERTEX2 819 -8.24357620 -0.98020072 -0.17777963
VERTEX2 820 -7.65712393 -1.09786761 -0.21885724
VERTEX2 821 -7.11805629 -1.21534128 -0.20290335
VERTEX2 822 -7.11227494 -1.21607560 0.56325860
VERTEX2 823 -7.10685174 -1.17021430 1.32609526
VERTEX2 824 -6.96161360 -0.55247321 1.24671489
VERTEX2 825 -6.73694055 0.05250232 1.21691729
VERTEX2 826 -6.59588101 0.68818527 1.37933273
VERTEX2 827 -6.44848512 1.31554653 1.33022197
VERTEX2 828 -6.30961914 1.95217641 1.36518061
VERTEX2 829 -6.16782649 2.55070613 1.32574436
VERTEX2 830 -6.01152679 3.15265291 1.31771050
VERTEX2 831 -5.83945911 3.72321557 1.27111911
VERTEX2 832 -5.67330503 4.28014776 1.26773072
VERTEX2 833 -5.59306110 4.53803014 1.40560997
VERTEX2 834 -5.59571491 4.55641645 2.46101357
VERTEX2 835 -5.61121233 4.56029304 -3.04394521
VERTEX2 836 -5.61943554 4.55499038 -2.10020987
VERTEX2 837 -5.61902715 4.54760811 -1.06311345
VERTEX2 838 -5.61379478 4.54334524 -0.20052308
VERTEX2 839 -5.61756548 4.54578676 -0.41862526
VERTEX2 840 -5.61720792 4.54545841 -0.98188138
VERTEX2 841 -5.61782492 4.54735526 -1.59962681
VERTEX2 842 -5.67064960 4.32702167 -1.83083354
VERTEX2 843 -5.81584439 3.79785965 -1.83361029
VERTEX2 844 -5.96659607 3.20703905 -1.84187708
VERTEX2 845 -6.13528363 2.61892957 -1.85684278
VERTEX2 846 -6.29631536 2.02748251 -1.85528266
VERTEX2 847 -6.47929689 1.44678667 -1.88221418
VERTEX2 848 -6.51725110 1.31773769 -1.40093799
VERTEX2 849 -6.51900753 1.31867768 -0.47738572
VERTEX2 850 -6.14830176 1.26809818 -0.12350943
VERTEX2 851 -5.51220828 1.16230677 -0.21590940
VERTEX2 852 -4.88209179 1.02095407 -0.20149437
VERTEX2 853 -4.27728115 0.90179768 -0.22959773
VERTEX2 854 -3.68637775 0.75860076 -0.22767544
VERTEX2 855 -3.09297790 0.63306572 -0.22952068
VERTEX2 856 -2.49532634 0.47596964 -0.26793071
VERTEX2 857 -1.89888533 0.31694440 -0.27537388
VERTEX2 858 -1.30191127 0.12653240 -0.32730780
VERTEX2 859 -0.82221862 -0.03083538 -0.33159077
VERTEX2 860 -0.80466832 -0.02584409 0.52915283
VERTEX2 861 -0.77216350 0.10226422 1.45456211
VERTEX2 862 -0.66694281 0.77875997 1.39769422
VERTEX2 863 -0.54543348 1.43768572 1.36775682
VERTEX2 864 -0.39821604 2.05900440 1.36798630
VERTEX2 865 -0.29945342 2.68721746 1.42760385
VERTEX2 866 -0.20049874 3.28967543 1.42818367
VERTEX2 867 -0.17582680 3.47582541 1.61178933
VERTEX2 868 -0.20092083 3.51427639 2.64364066
VERTEX2 869 -0.21366420 3.51487257 -2.65343502
VERTEX2 870 -0.20184615 3.52027959 -1.64602405
VERTEX2 871 -0.21386691 3.52947986 -0.66467039
VERTEX2 872 -0.22138850 3.53554681 0.02588324
VERTEX2 873 -0.22127234 3.53551917 -0.54231227
VERTEX2 874 -0.21993648 3.53424276 -1.09764238
VERTEX2 875 -0.22129476 3.53789850 -1.67972564
VERTEX2 876 -0.36056473 2.98993709 -1.83526374
VERTEX2 877 -0.53082270 2.45515782 -1.91805982
VERTEX2 878 -0.58700868 2.25933657 -1.53186070
VERTEX2 879 -0.50639611 1.63177266 -1.47895894
VERTEX2 880 -0.48358634 1.19359747 -1.58949784
VERTEX2 881 -0.48277386 1.24516150 -1.58273981
VERTEX2 882 -0.55510054 0.60573821 -1.82690207
VERTEX2 883 -0.78736536 0.00654086 -2.01535225
VERTEX2 884 -0.95767132 -0.33357471 -2.08046160
VERTEX2 885 -0.95776537 -0.33058991 -1.49440671
VERTEX2 886 -0.95953027 -0.32884461 -0.46817918
VERTEX2 887 -0.96145022 -0.32805265 0.55135344
VERTEX2 888 -0.95659414 -0.31759597 1.54209397
VERTEX2 889 -0.96258267 -0.30079707 2.44308814
VERTEX2 890 -1.31039591 -0.13921494 2.71808878
VERTEX2 891 -1.88247638 0.13294373 2.64834923
VERTEX2 892 -2.44530358 0.45627893 2.61340377
VERTEX2 893 -3.02865589 0.75474397 2.85055619
VERTEX2 894 -3.67682301 0.86086177 3.07265547
VERTEX2 895 -4.30493038 0.79851802 -2.91094958
VERTEX2 896 -4.32766908 0.79260215 -2.43520069
VERTEX2 897 -4.61501417 0.34965442 -2.16495089
VERTEX2 898 -4.94481108 -0.14156621 -2.15000041
VERTEX2 899 -5.21093688 -0.53268816 -2.21825969
VERTEX2 900 -5.60332634 -1.06112400 -2.22098247
VERTEX2 901 -5.96270329 -1.50113971 -2.28570028
VERTEX2 902 -6.36648348 -1.98883843 -2.26070115
VERTEX2 903 -6.66655191 -2.35734327 -2.30603107
VERTEX2 904 -6.66639799 -2.35720145 -1.60533420
VERTEX2 905 -6.64847140 -2.84197545 -1.55023454
VERTEX2 906 -6.61026707 -3.40441743 -1.48486499
VERTEX2 907 -6.55027967 -3.96952239 -1.49332358
VERTEX2 908 -6.49869232 -4.58864472 -1.46875719
VERTEX2 909 -6.43313076 -5.19796851 -1.48690626
VERTEX2 910 -6.45889064 -5.32317141 -1.85721804
VERTEX2 911 -6.61315040 -5.89059371 -1.79661449
VERTEX2 912 -6.73084089 -6.45993477 -1.78394070
VERTEX2 913 -6.83765869 -6.99713658 -1.77543778
VERTEX2 914 -6.95767884 -7.58080365 -1.79851624
VERTEX2 915 -7.07542117 -8.08548440 -1.83464578
VERTEX2 916 -7.01061665 -8.32193023 -1.28537187
VERTEX2 917 -6.86549478 -8.96142743 -1.53869789
VERTEX2 918 -6.87857688 -9.46472259 -1.61329110
VERTEX2 919 -6.90286029 -10.07396699 -1.65573259
VERTEX2 920 -6.95687220 -10.67372990 -1.67249408
VERTEX2 921 -7.01906961 -11.27769060 -1.72532491
VERTEX2 922 -7.10961665 -11.87001918 -1.75207587
VERTEX2 923 -7.21751396 -12.42483261 -1.81506877
VERTEX2 924 -7.33972239 -12.91488990 -1.79786867
VERTEX2 925 -7.34282551 -12.90102758 -1.29291245
VERTEX2 926 -7.17553792 -13.45175090 -1.27663330
VERTEX2 927 -7.00217092 -14.02688460 -1.29984115
VERTEX2 928 -6.83731161 -14.61745417 -1.30868685
VERTEX2 929 -6.67887767 -15.20522338 -1.30950915
VERTEX2 930 -6.52107378 -15.82821021 -1.39206393
VERTEX2 931 -6.42406059 -16.44659745 -1.47230330
VERTEX2 932 -6.36655307 -17.07108840 -1.53161485
VERTEX2 933 -6.35184214 -17.68134910 -1.59609596
VERTEX2 934 -6.35751533 -18.15980409 -1.60582603
VERTEX2 935 -6.35474141 -18.17159183 -0.92318327
VERTEX2 936 -6.35155315 -18.17264497 0.02234176
VERTEX2 937 -5.80855276 -18.13705144 0.08529482
VERTEX2 938 -5.21633420 -18.14184846 -0.08766873
VERTEX2 939 -4.59527233 -18.18937834 -0.05960836
VERTEX2 940 -3.98418931 -18.25212366 -0.14498920
VERTEX2 941 -3.37962620 -18.35489787 -0.19820263
VERTEX2 942 -2.86123479 -18.45934495 -0.19331340
VERTEX2 943 -2.25390607 -18.57948794 -0.10447008
VERTEX2 944 -1.64354650 -18.64882279 -0.16065426
VERTEX2 945 -1.02960733 -18.76255704 -0.21525420
VERTEX2 946 -0.86201084 -18.80135232 -0.15071208
VERTEX2 947 -0.46248241 -18.73063885 0.17783901
VERTEX2 948 0.09936131 -18.63016907 0.15893146
VERTEX2 949 0.69274788 -18.58285439 0.00358353
VERTEX2 950 1.31521412 -18.60450133 -0.23555922
VERTEX2 951 1.91341663 -18.76178626 -0.30742060
VERTEX2 952 2.51142701 -18.92187150 -0.05619931
VERTEX2 953 3.13165432 -18.93853700 0.02442234
VERTEX2 954 3.74875430 -18.91630945 0.01759746
VERTEX2 955 4.33199292 -18.94691322 -0.14289260
VERTEX2 956 4.87748772 -19.01068816 -0.14492041
VERTEX2 957 5.40387197 -19.09214519 -0.23226555
VERTEX2 958 5.86488288 -19.19030482 -0.25863849
VERTEX2 959 6.28942132 -19.29440442 -0.32529560
VERTEX2 960 6.87405599 -19.43927253 -0.24511527
VERTEX2 961 7.45148246 -19.59565585 -0.27165548
VERTEX2 962 8.06984938 -19.70750356 -0.20574469
VERTEX2 963 8.68584817 -19.77144932 -0.01859889
VERTEX2 964 9.30438737 -19.79584757 -0.08211852
VERTEX2 965 9.92064304 -19.85744143 -0.08863830
VERTEX2 966 10.36067093 -19.90220225 -0.14694715
VERTEX2 967 10.39063528 -19.89514241 0.70854345
VERTEX2 968 10.40345764 -19.88223476 1.60415110
VERTEX2 969 10.40688305 -19.91139848 1.66328038
VERTEX2 970 10.41065945 -19.94050178 1.66124687
VERTEX2 971 10.38008639 -19.61217423 1.66133550
VERTEX2 972 10.32331948 -19.03125620 1.66689886
VERTEX2 973 10.38438167 -18.45006157 1.38118198
VERTEX2 974 10.50479722 -17.84681576 1.41253852
VERTEX2 975 10.59755528 -17.24064309 1.41671337
VERTEX2 976 10.68376043 -16.63211329 1.42918598
VERTEX2 977 10.80134327 -16.00755066 1.40258703
VERTEX2 978 10.90446933 -15.38956094 1.44823121
VERTEX2 979 11.00066356 -14.78335815 1.43535651
VERTEX2 980 11.08035081 -14.18065613 1.48161271
VERTEX2 981 11.15166334 -13.58857443 1.48787256
VERTEX2 982 11.19220837 -13.07409324 1.53235581
VERTEX2 983 11.22508332 -12.47518211 1.52843996
VERTEX2 984 11.23598351 -11.87932345 1.58521550
VERTEX2 985 11.23088765 -11.28292177 1.60494418
VERTEX2 986 11.19971552 -10.66355882 1.64070252
VERTEX2 987 11.17194453 -10.05348203 1.60394837
VERTEX2 988 11.15941933 -9.44320830 1.61761231
VERTEX2 989 11.13094688 -8.83385549 1.62504697
VERTEX2 990 11.11045012 -8.22724147 1.61415488
VERTEX2 991 11.08164164 -7.61786377 1.63898140
VERTEX2 992 11.06353817 -7.03569730 1.60650390
VERTEX2 993 11.03631954 -6.42494021 1.63949278
VERTEX2 994 11.00704057 -5.84534608 1.62989614
VERTEX2 995 10.96376440 -5.28402955 1.67749894
VERTEX2 996 10.89373223 -4.70938623 1.70500287
VERTEX2 997 10.83708953 -4.10194503 1.64081654
VERTEX2 998 10.81014612 -3.73555931 1.66291705
VERTEX2 999 10.87340138 -3.78410989 2.38018717
VERTEX2 1000 10.45199220 -3.47356642 2.52861471
VERTEX2 1001 10.05007160 -3.12579184 2.20730752
VERTEX2 1002 9.71086138 -2.71096028 2.29971459
VERTEX2 1003 9.38550855 -2.26965038 2.11978740
VERTEX2 1004 9.03795570 -1.74770946 2.17777971
VERTEX2 1005 8.67654858 -1.26720996 2.23991242
VERTEX2 1006 8.27232055 -0.80144743 2.31695322
VERTEX2 1007 7.85314302 -0.38818055 2.40829476
VERTEX2 1008 7.61632804 -0.18206495 2.56746446
VERTEX2 1009 7.52561841 -0.17048102 3.04056746
VERTEX2 1010 6.96282888 -0.12853235 3.09309932
VERTEX2 1011 6.35373887 -0.10367400 3.04983131
VERTEX2 1012 5.75267607 -0.05512726 3.09145293
VERTEX2 1013 5.12202042 -0.07167963 -3.07746412
VERTEX2 1014 4.51383861 -0.03772425 3.03038251
VERTEX2 1015 3.89359964 -0.01252971 3.11478242
VERTEX2 1016 3.12867597 0.00773364 3.12141922
VERTEX2 1017 2.55236135 0.00874628 3.06436749
VERTEX2 1018 2.00256489 0.05795739 3.07175599
VERTEX2 1019 1.41649501 0.06961061 3.13140490
VERTEX2 1020 0.80994513 0.09210689 3.11754670
VERTEX2 1021 0.19764860 0.10765699 3.07703859
VERTEX2 1022 0.15039452 0.11054190 3.06964564
VERTEX2 1023 0.16364849 0.11056571 -3.12714074
VERTEX2 1024 -0.45697353 0.10510103 -3.10098411
VERTEX2 1025 -1.07898836 0.06179642 -3.08358754
VERTEX2 1026 -1.23393492 0.05328324 -3.07658581
VERTEX2 1027 -1.21313837 0.06399937 -2.16068735
VERTEX2 1028 -1.22290251 -0.10222145 -1.59765706
VERTEX2 1029 -1.24035681 -0.66509394 -1.61942545
VERTEX2 1030 -1.29147870 -1.28903510 -1.70064523
VERTEX2 1031 -1.39166315 -1.93677721 -1.75560598
VERTEX2 1032 -1.50987720 -2.58387907 -1.75242957
VERTEX2 1033 -1.64123348 -3.22742131 -1.79846385
VERTEX2 1034 -1.68222310 -3.39515313 -2.01348155
VERTEX2 1035 -1.67531874 -3.38928866 -2.63550131
VERTEX2 1036 -1.62848799 -3.41029299 3.07421777
VERTEX2 1037 -1.95391451 -3.28981766 2.83431316
VERTEX2 1038 -2.54890269 -3.17559160 2.92438750
VERTEX2 1039 -3.17686377 -3.01324590 2.89193498
VERTEX2 1040 -3.13739103 -3.01401449 -2.76385523
VERTEX2 1041 -3.09458890 -3.01963303 -1.75294374
VERTEX2 1042 -3.09624286 -3.04759544 -0.77047581
VERTEX2 1043 -3.05729233 -3.08422727 0.19351883
VERTEX2 1044 -3.06280681 -3.09069318 1.18177606
VERTEX2 1045 -3.05922314 -3.08318326 1.06790975
VERTEX2 1046 -3.06295976 -3.08801764 0.68278302
VERTEX2 1047 -3.07962423 -3.09491259 0.12758149
VERTEX2 1048 -2.72498553 -3.16895718 -0.18504607
VERTEX2 1049 -2.08734158 -3.27681976 -0.16771164
VERTEX2 1050 -1.44641760 -3.35703451 -0.09194553
VERTEX2 1051 -0.79760449 -3.44065866 -0.17120584
VERTEX2 1052 -0.18193904 -3.53100529 -0.11816308
VERTEX2 1053 0.22762151 -3.59140528 -0.17072640
VERTEX2 1054 0.24582814 -3.59362962 0.59184617
VERTEX2 1055 0.25641004 -3.54747896 1.64679160
VERTEX2 1056 0.25558806 -3.54558499 2.65095650
VERTEX2 1057 0.27577232 -3.54815009 -2.63904030
VERTEX2 1058 0.27670960 -3.54708905 -1.71337564
VERTEX2 1059 0.17250173 -4.12632516 -1.79319049
VERTEX2 1060 0.02904132 -4.75284699 -1.78790843
VERTEX2 1061 -0.08275675 -5.19609455 -1.91006968
VERTEX2 1062 -0.08855637 -5.20479319 -2.47422283
VERTEX2 1063 -0.06862976 -5.19367171 -3.07187231
VERTEX2 1064 -0.34778896 -5.13816378 2.94589812
VERTEX2 1065 -0.93440088 -5.06498089 3.06772043
VERTEX2 1066 -1.49547564 -5.00643264 3.01173364
VERTEX2 1067 -1.47924249 -5.00575948 -2.83854835
VERTEX2 1068 -1.46468849 -4.99576207 -2.16543533
VERTEX2 1069 -1.46322439 -4.99191838 -1.99490417
VERTEX2 1070 -1.46254277 -4.99076138 -2.53344339
VERTEX2 1071 -1.93483415 -5.24106724 -2.66037214
VERTEX2 1072 -2.38505571 -5.46831653 -2.72877050
VERTEX2 1073 -2.35831633 -5.46786246 3.04414205
VERTEX2 1074 -2.89125649 -5.39083525 3.01020507
VERTEX2 1075 -3.47180466 -5.30924798 3.02720551
VERTEX2 1076 -3.49180776 -5.30760902 -2.85145840
VERTEX2 1077 -3.49939373 -5.32183924 -2.04509913
VERTEX2 1078 -3.73763233 -5.91992797 -1.99977727
VERTEX2 1079 -3.96924322 -6.47462925 -1.93743100
VERTEX2 1080 -3.96944924 -6.47515471 -2.42373576
VERTEX2 1081 -4.38607355 -6.75750413 -2.54646924
VERTEX2 1082 -4.54434120 -6.86719437 -2.26511856
VERTEX2 1083 -4.53778936 -6.91951752 -1.24198578
VERTEX2 1084 -4.47513540 -6.95239661 -0.27259898
VERTEX2 1085 -4.48846864 -6.95575376 0.71083018
VERTEX2 1086 -4.13698232 -6.48517916 0.94146453
VERTEX2 1087 -3.76446753 -5.99458381 0.92971516
VERTEX2 1088 -3.41048601 -5.49997919 0.91331942
VERTEX2 1089 -3.35606015 -5.43056272 0.81753524
VERTEX2 1090 -3.34682139 -5.42222984 0.20178680
VERTEX2 1091 -2.80523738 -5.39436706 0.02457182
VERTEX2 1092 -2.18910369 -5.38490454 0.00886155
VERTEX2 1093 -1.62269202 -5.39346642 -0.05679339
VERTEX2 1094 -1.60635158 -5.40933894 -0.46358854
VERTEX2 1095 -1.57308925 -5.43957250 -1.05621608
VERTEX2 1096 -1.57226990 -5.44361348 -1.63027707
VERTEX2 1097 -1.66201114 -5.76962993 -1.84743456
VERTEX2 1098 -1.85151427 -6.36495790 -1.90558918
VERTEX2 1099 -2.08309459 -6.95174473 -2.00454965
VERTEX2 1100 -2.10196283 -6.99646834 -1.64591158
VERTEX2 1101 -2.04666540 -7.28546552 -1.38379660
VERTEX2 1102 -2.05027858 -7.31685975 -1.78179780
VERTEX2 1103 -2.20683183 -7.94430382 -1.81789762
VERTEX2 1104 -2.37694767 -8.59722821 -1.84785051
VERTEX2 1105 -2.56595145 -9.23513886 -1.86792823
VERTEX2 1106 -2.72074175 -9.72901788 -1.89535213
VERTEX2 1107 -2.71954715 -9.75753915 -1.64251157
VERTEX2 1108 -2.72151397 -10.40542768 -1.63672313
VERTEX2 1109 -2.81321487 -11.06794544 -1.74308953
VERTEX2 1110 -2.92622867 -11.68708614 -1.79467401
VERTEX2 1111 -3.13446731 -12.22336982 -1.89844207
VERTEX2 1112 -3.20726361 -12.81926631 -1.55571731
VERTEX2 1113 -3.21443746 -13.47580065 -1.65317406
VERTEX2 1114 -3.26589172 -14.10743575 -1.63789824
VERTEX2 1115 -3.30312735 -14.70642870 -1.65583601
VERTEX2 1116 -3.33665910 -15.37088243 -1.62136457
VERTEX2 1117 -3.34088592 -15.47655808 -1.75120660
VERTEX2 1118 -3.19453095 -15.24493220 -2.23628841
VERTEX2 1119 -2.47657212 -14.68848076 -2.63224897
VERTEX2 1120 -3.03164603 -14.94645835 -2.69779551
VERTEX2 1121 -3.22670309 -15.03391030 -2.81850874
VERTEX2 1122 -3.23087459 -15.03282097 2.91021665
VERTEX2 1123 -3.80168295 -14.88943918 2.92537602
VERTEX2 1124 -4.37689579 -14.80233486 3.02202942
VERTEX2 1125 -5.01963596 -14.72262760 3.03373207
VERTEX2 1126 -5.11388234 -14.71430136 -2.91305314
VERTEX2 1127 -5.11506908 -14.71324336 -1.86372215
VERTEX2 1128 -5.11486661 -14.71128596 -0.88345386
VERTEX2 1129 -5.12465120 -14.70649998 0.12491071
VERTEX2 1130 -4.57091155 -14.61939390 0.13684479
VERTEX2 1131 -3.82505222 -14.70661065 -0.29850746
VERTEX2 1132 -3.23681157 -14.89022390 -0.31991881
VERTEX2 1133 -2.71139220 -15.08655011 -0.36037767
VERTEX2 1134 -2.47650269 -15.17534471 -0.45898545
VERTEX2 1135 -2.47966335 -15.17240161 -1.01828979
VERTEX2 1136 -2.48205296 -15.17778037 -1.58344674
VERTEX2 1137 -2.52864781 -15.48457086 -1.76934726
VERTEX2 1138 -2.67003867 -16.12585983 -1.78689389
VERTEX2 1139 -2.77841996 -16.62699590 -1.86036901
VERTEX2 1140 -2.77062236 -16.60708260 -2.33988127
VERTEX2 1141 -2.75356170 -16.58978676 -2.88790227
VERTEX2 1142 -3.12256640 -16.55328391 3.03048375
VERTEX2 1143 -3.71995414 -16.51811169 3.11988600
VERTEX2 1144 -4.29998601 -16.49489141 3.08927753
VERTEX2 1145 -4.87781885 -16.46032616 3.06382380
VERTEX2 1146 -5.45352544 -16.41401712 3.08358620
VERTEX2 1147 -6.02450157 -16.41473032 -3.12661858
VERTEX2 1148 -6.60441776 -16.42397597 -3.11679360
VERTEX2 1149 -6.64921658 -16.42618813 -2.61902711
VERTEX2 1150 -6.73282467 -16.52246624 -1.80972234
VERTEX2 1151 -6.73014313 -16.53631590 -0.80734767
VERTEX2 1152 -6.71221072 -16.53632872 0.24531087
VERTEX2 1153 -6.69658705 -16.52895676 1.25808629
VERTEX2 1154 -6.76030312 -16.21438582 1.80408988
VERTEX2 1155 -6.90054300 -15.59995961 1.75449511
VERTEX2 1156 -7.00485335 -15.00488132 1.76442863
VERTEX2 1157 -7.13786763 -14.44517007 1.87545119
VERTEX2 1158 -7.27017876 -13.85632186 1.74684310
VERTEX2 1159 -7.33658249 -13.26452921 1.65217494
VERTEX2 1160 -7.36567216 -12.63315837 1.51490562
VERTEX2 1161 -7.27359979 -12.00882776 1.42481939
VERTEX2 1162 -7.19014586 -11.38364423 1.48255146
VERTEX2 1163 -7.13525188 -10.74881282 1.47681997
VERTEX2 1164 -7.09431400 -10.11663194 1.56201359
VERTEX2 1165 -7.09025127 -9.57115219 1.53928703
VERTEX2 1166 -7.09377430 -9.55491425 2.02930596
VERTEX2 1167 -7.04675758 -9.54276506 2.96713804
VERTEX2 1168 -7.00666940 -9.52610918 -2.41208347
VERTEX2 1169 -7.00946231 -9.57179938 -1.58966366
VERTEX2 1170 -7.01068219 -10.15115628 -1.58297648
VERTEX2 1171 -7.00093775 -10.77888396 -1.55121230
VERTEX2 1172 -6.99612584 -11.37081578 -1.61360220
VERTEX2 1173 -7.01659791 -11.99380679 -1.60444832
VERTEX2 1174 -7.05111109 -12.62141645 -1.67321000
VERTEX2 1175 -7.12819689 -13.23593338 -1.70660305
VERTEX2 1176 -7.21337293 -13.84646446 -1.75069262
VERTEX2 1177 -7.32118786 -14.44866991 -1.74912114
VERTEX2 1178 -7.44056409 -15.05461354 -1.79690496
VERTEX2 1179 -7.56673004 -15.65224183 -1.76817159
VERTEX2 1180 -7.61617321 -15.90029798 -1.77497173
VERTEX2 1181 -7.61467896 -15.88828293 -0.94679046
VERTEX2 1182 -7.55323896 -15.90295465 -0.23445487
VERTEX2 1183 -6.93178225 -16.04344411 -0.20897766
VERTEX2 1184 -6.30103873 -16.14783077 -0.13895119
VERTEX2 1185 -5.68120531 -16.24644285 -0.17043227
VERTEX2 1186 -5.05795671 -16.32927288 -0.10342242
VERTEX2 1187 -4.40901032 -16.40266130 -0.13990811
VERTEX2 1188 -3.78645854 -16.48044165 -0.12120707
VERTEX2 1189 -3.11382191 -16.57630540 -0.10037412
VERTEX2 1190 -2.77420523 -16.61119855 -0.09317911
VERTEX2 1191 -2.74730697 -16.61013952 0.82587477
VERTEX2 1192 -2.74362954 -16.53899500 1.62270571
VERTEX2 1193 -2.74763838 -15.95432427 1.48988375
VERTEX2 1194 -2.71708592 -15.39560827 1.53121715
VERTEX2 1195 -2.69940876 -14.78745859 1.58278291
VERTEX2 1196 -2.70342126 -14.17894720 1.40911706
VERTEX2 1197 -2.61173180 -13.57987113 1.41959448
VERTEX2 1198 -2.55179000 -12.96880242 1.67716967
VERTEX2 1199 -2.57642988 -12.37129302 1.46122680
VERTEX2 1200 -2.52798000 -11.75695300 1.52922225
VERTEX2 1201 -2.51024000 -11.15261769 1.58400643
VERTEX2 1202 -2.52631589 -10.54500389 1.60592170
VERTEX2 1203 -2.56119820 -9.96989247 1.51476498
VERTEX2 1204 -2.45430917 -9.39452229 1.36656848
VERTEX2 1205 -2.35226182 -8.84839949 1.39496738
VERTEX2 1206 -2.27299629 -8.28481257 1.45512997
VERTEX2 1207 -2.14330785 -7.70010383 1.36787473
VERTEX2 1208 -2.03668533 -7.10174922 1.43141483
VERTEX2 1209 -1.95432141 -6.50740467 1.42838076
VERTEX2 1210 -1.89244034 -5.91678023 1.44776000
VERTEX2 1211 -1.76806090 -5.30796193 1.37895009
VERTEX2 1212 -1.65713490 -4.69830994 1.43270499
VERTEX2 1213 -1.59631673 -4.08773541 1.50966349
VERTEX2 1214 -1.52600609 -3.37234485 1.29181104
VERTEX2 1215 -1.37631627 -2.80035531 1.35471095
VERTEX2 1216 -1.33881845 -2.25181595 1.57697800
VERTEX2 1217 -1.32052236 -1.67309926 1.56074654
VERTEX2 1218 -1.32160299 -1.09572775 1.51054601
VERTEX2 1219 -1.28804040 -0.45683914 1.54168909
VERTEX2 1220 -1.29697258 0.11105483 1.63247700
VERTEX2 1221 -1.29044732 0.09118053 1.17976136
VERTEX2 1222 -1.28217283 0.09970696 0.58250151
VERTEX2 1223 -1.26169532 0.10516980 0.02234201
VERTEX2 1224 -0.67617459 0.02787520 -0.16131136
VERTEX2 1225 -0.04887687 -0.07002676 -0.14810554
VERTEX2 1226 0.06071458 -0.08648921 -0.16538195
VERTEX2 1227 0.05678236 -0.08593187 -0.16633202
