1 41 102 2 526.53297097 0.00000370 1 
2 19 166 0 0.41485034 0.00210166 5 
3 19 172 0 0.02820697 0.00186393 4 
4 25 172 0 0.50366199 0.00187102 4 
5 25 178 0 0.30831851 0.00197776 4 
6 32 178 0 0.01493521 0.00198240 4 
7 32 183 0 0.07055611 0.00201045 4 
8 169 184 2 6028.45159947 0.00000238 1 
9 44 189 0 0.52863102 0.00207201 4 
10 154 189 2 362.79620555 0.00000211 4 
11 44 195 0 0.35755137 0.00216484 4 
12 50 195 0 0.00572854 0.00219798 4 
13 90 197 2 722.55582900 0.00000283 1 
14 50 201 0 0.04110605 0.00189848 3 
15 50 203 0 0.06975183 0.00187185 3 
16 61 203 0 0.00745912 0.00189994 3 
17 61 209 0 0.37222863 0.00230590 4 
18 67 209 0 0.41032090 0.00232434 4 
19 13 215 2 552.84422243 0.00000295 1 
20 67 220 0 0.66144083 0.00249927 4 
21 81 220 0 0.48035877 0.00285536 5 
22 81 226 0 0.05402805 0.00256336 4 
23 87 226 0 1.82553139 0.00293089 5 
24 139 230 2 23.48692916 0.00000286 1 
25 87 231 0 0.34656585 0.00261881 4 
26 94 231 0 0.55778528 0.00256362 4 
27 226 231 0 1.44127402 0.00298323 5 
28 94 241 0 1.33132047 0.00268706 4 
29 101 241 0 0.50961029 0.00271313 4 
30 101 247 0 1.66454674 0.00275522 4 
31 107 247 0 1.80094617 0.00278222 4 
32 107 254 0 1.18346605 0.00283847 4 
33 114 254 0 0.12939160 0.00285698 4 
34 107 256 0 0.93085039 0.00284999 4 
35 114 256 0 0.24629796 0.00285558 4 
36 107 258 0 1.37911724 0.00289540 4 
37 114 258 0 1.15747212 0.00292348 4 
38 250 262 2 1596.67281045 0.00000249 1 
39 121 266 0 0.00938596 0.00300313 4 
40 126 266 0 0.44864328 0.00354015 5 
41 126 272 0 1.03992836 0.00308634 4 
42 132 272 0 0.39070916 0.00364134 5 
43 132 278 0 0.58358145 0.00317199 4 
44 138 278 0 1.06458780 0.00372897 5 
45 138 284 0 0.02201259 0.00270960 3 
46 151 284 0 0.12777228 0.00328753 4 
47 151 291 0 0.60037557 0.00330986 4 
48 151 297 0 0.07972289 0.00284297 3 
49 157 297 0 1.04991834 0.00344638 4 
50 166 297 0 1.30507781 0.00340986 4 
51 19 305 0 0.16044642 0.00356903 4 
52 157 305 0 0.58687353 0.00360137 4 
53 163 305 0 7.56485476 0.00483440 6 
54 166 305 0 0.37495035 0.00359930 4 
55 172 305 0 0.01886255 0.00360483 4 
56 35 308 2 1950.92467861 0.00000247 1 
57 19 315 0 0.48455906 0.00309965 3 
58 25 315 0 0.02281386 0.00311592 3 
59 172 315 0 0.05679715 0.00372663 4 
60 172 328 0 0.12482725 0.00325343 3 
61 142 329 2 360.50959770 0.00000249 1 
62 19 337 0 6.63404991 0.00465391 5 
63 25 337 0 0.96522419 0.00399171 4 
64 172 337 0 0.57611560 0.00333450 3 
65 159 338 2 1464.18913658 0.00000236 1 
66 50 339 2 1302.45053209 0.00000231 1 
67 19 342 0 0.00494520 0.00337842 3 
68 25 342 0 0.12855172 0.00406194 4 
69 172 342 0 0.01223902 0.00410968 4 
70 178 342 0 0.12442988 0.00416932 4 
71 186 348 2 2704.76538274 0.00000289 1 
72 337 351 2 409.89614458 0.00000264 1 
73 231 366 2 459.43006700 0.00000300 1 
74 25 367 0 0.11414782 0.00378565 3 
75 32 367 0 0.01267433 0.00594499 6 
76 178 367 0 0.00286807 0.00375876 3 
77 183 367 0 0.06698524 0.00374435 3 
78 93 371 2 1964.70531532 0.00000273 1 
79 25 374 0 0.56424690 0.00459127 4 
80 32 374 0 0.09892849 0.00532805 5 
81 178 374 0 0.03055075 0.00460234 4 
82 183 374 0 0.05309447 0.00456886 4 
83 28 375 2 2762.69066161 0.00000291 1 
84 32 382 0 4.14688582 0.00392602 3 
85 183 382 0 1.28811506 0.00466202 4 
86 343 385 2 3816.03005191 0.00000296 1 
87 32 387 0 2.72468715 0.00473806 4 
88 183 387 0 0.18197642 0.00486600 4 
89 161 391 2 445.60315125 0.00000374 1 
90 265 391 2 1139.01212130 0.00000150 1 
91 126 393 2 2669.40911573 0.00000254 1 
92 189 414 0 7.69047346 0.00586417 5 
93 139 416 2 869.09640384 0.00000372 1 
94 296 419 2 3916.08788766 0.00000367 1 
95 298 420 2 1289.34965637 0.00000295 1 
96 21 423 2 2115.54386849 0.00000264 1 
97 61 423 2 381.60005155 0.00000156 1 
98 33 425 2 524.23827993 0.00000288 1 
99 382 436 2 157.85520548 0.00000305 1 
100 44 437 0 0.00915802 0.00441283 3 
101 195 437 0 0.01161094 0.00437170 3 
102 2 447 2 477.58026748 0.00000328 1 
103 158 448 2 393.91487782 0.00000286 1 
104 29 448 2 739.55061286 0.00000160 1 
105 44 454 0 0.65644164 0.00452174 3 
106 189 454 0 0.03962740 0.00543288 4 
107 279 463 2 28.68835000 0.00000315 1 
108 443 463 2 1544.71118133 0.00000202 1 
109 44 467 0 0.12345281 0.00641615 5 
110 50 467 0 0.00895575 0.01023568 9 
111 195 467 0 0.00230988 0.00465586 3 
112 195 484 0 0.09447226 0.00574223 4 
113 183 490 2 1298.12958031 0.00000323 1 
114 305 491 2 1099.36907406 0.00000240 1 
115 44 494 0 0.02880924 0.00576923 4 
116 50 494 0 0.00628832 0.00482489 3 
117 195 494 0 0.00818961 0.00682504 5 
118 201 494 0 0.00469852 0.00683271 5 
119 134 496 2 1151.24473228 0.00000361 1 
120 50 500 0 0.14406209 0.00693848 5 
121 201 500 0 0.05353930 0.00490210 3 
122 203 500 0 0.03252445 0.00488032 3 
123 188 502 2 3746.24105957 0.00000316 1 
124 61 508 0 0.99413579 0.00711698 5 
125 203 508 0 0.26947301 0.01223702 10 
126 209 508 0 0.03711473 0.00605482 4 
127 296 515 2 1273.77441943 0.00000301 1 
128 19 517 2 880.49387077 0.00000305 1 
129 61 522 0 1.37942234 0.00613516 4 
130 203 522 0 0.12859200 0.00512037 3 
131 209 522 0 0.00542469 0.00514262 3 
132 309 526 2 847.45958731 0.00000261 1 
133 61 528 0 0.47936102 0.00512930 3 
134 67 528 0 0.22419307 0.00628646 4 
135 81 528 0 0.23233822 0.00840231 6 
136 209 528 0 0.09444678 0.01062990 8 
137 220 528 0 0.13668760 0.00624875 4 
138 68 529 2 4339.49145601 0.00000296 1 
139 67 532 0 0.05459173 0.01180287 9 
140 81 532 0 0.11826401 0.00848744 6 
141 220 532 0 0.05648169 0.00634273 4 
142 106 543 2 1083.67143786 0.00000331 1 
143 67 556 0 0.98233216 0.00651455 4 
144 277 563 2 297.03752677 0.00000258 1 
145 67 564 0 0.40168838 0.01232835 9 
146 81 564 0 0.02280941 0.00663809 4 
147 220 564 0 0.02684857 0.00666126 4 
148 370 566 2 818.26389123 0.00000317 1 
149 67 567 0 2.67253169 0.00780379 5 
150 81 567 0 0.48923871 0.00900732 6 
151 220 567 0 0.21723258 0.00665350 4 
152 346 567 2 1050.70824378 0.00000286 4 
153 67 570 0 2.40706627 0.00909746 6 
154 81 570 0 0.15671702 0.00903443 6 
155 220 570 0 0.13379867 0.00674592 4 
156 81 575 0 2.76594993 0.00793519 5 
157 220 575 0 1.08612706 0.01035253 7 
158 81 588 0 0.01497138 0.00570914 3 
159 87 588 0 0.47937722 0.00818069 5 
160 226 588 0 0.43156268 0.00691923 4 
161 121 591 2 784.81870429 0.00000311 1 
162 434 594 2 726.73665103 0.00000274 1 
163 87 597 0 2.27648751 0.00955534 6 
164 94 597 0 0.38888315 0.00699788 4 
165 226 597 0 0.55079633 0.00830265 5 
166 145 600 2 2310.62646820 0.00000296 1 
167 87 604 0 0.47149562 0.00710932 4 
168 94 604 0 0.01542269 0.00840211 5 
169 195 609 2 1828.41044263 0.00000346 1 
170 298 613 2 396.31376640 0.00000250 1 
171 94 616 0 0.01350372 0.01232427 8 
172 398 624 2 1443.18405606 0.00000380 1 
173 94 632 0 2.16969694 0.00882126 5 
174 406 632 2 892.82124459 0.00000327 5 
175 464 635 2 1345.54518135 0.00000277 1 
176 94 637 0 4.44236402 0.01006192 6 
177 101 637 0 0.19098383 0.00751520 4 
178 71 638 2 1068.66039341 0.00000435 1 
179 101 642 0 0.11555601 0.00889801 5 
180 107 642 0 0.04025021 0.01408892 9 
181 235 643 2 1977.75161698 0.00000378 1 
182 378 643 2 3725.87964913 0.00000135 1 
183 101 645 0 6.69527511 0.00761882 4 
184 107 645 0 1.54205090 0.00751396 4 
185 133 654 2 1872.02036710 0.00000392 1 
186 101 657 0 0.73548669 0.01667175 10 
187 228 657 2 2041.09410042 0.00000348 10 
188 49 661 2 2327.75197938 0.00000359 10 
189 101 663 0 0.04971914 0.01673081 10 
190 107 663 0 0.01781179 0.00914326 5 
191 114 663 0 0.00275957 0.00916232 5 
192 101 665 0 1.55112265 0.01345499 8 
193 107 665 0 0.47667103 0.00780597 4 
194 114 665 0 0.13329170 0.00649983 3 
195 107 680 0 1.48615866 0.00937152 5 
196 46 682 2 1092.40514014 0.00000345 1 
197 497 682 2 3710.35463596 0.00000129 1 
198 107 683 0 0.94462224 0.00803099 4 
199 114 683 0 0.32178225 0.00952444 5 
200 667 693 2 665.75159957 0.00000307 1 
201 14 694 2 613.62069706 0.00000279 1 
202 287 698 2 739.33876127 0.00000307 1 
203 74 698 2 395.17801984 0.00000110 1 
204 46 698 2 841.77346603 0.00000126 1 
205 647 702 2 786.71021054 0.00000291 1 
206 384 702 2 412.96204179 0.00000143 1 
207 107 704 0 0.34268109 0.01260906 7 
208 114 704 0 0.07528002 0.01553081 9 
209 618 711 2 19.87905519 0.00000278 1 
210 107 714 0 1.79639085 0.01133704 6 
211 114 714 0 0.02860377 0.01436844 8 
212 478 714 2 2629.58865480 0.00000404 8 
213 46 720 2 918.52453990 0.00000370 1 
214 650 721 2 1705.52101773 0.00000345 1 
215 508 725 2 869.53690576 0.00000348 1 
216 107 730 0 0.19656714 0.01013949 5 
217 114 730 0 0.03540690 0.00855298 4 
218 185 739 2 604.91170966 0.00000319 1 
219 559 740 2 238.40608256 0.00000300 1 
220 678 741 2 1249.27942891 0.00000247 1 
221 159 745 2 437.10311591 0.00000327 1 
222 121 754 0 0.33113739 0.00875522 4 
223 126 754 0 0.07673382 0.01513987 8 
224 121 759 0 2.33625684 0.01196173 6 
225 126 759 0 0.22329988 0.01203218 6 
226 466 759 2 5948.10615839 0.00000384 6 
227 126 762 0 7.08482229 0.01039657 5 
228 132 762 0 2.00372045 0.01533729 8 
229 70 763 2 1256.51921848 0.00000380 1 
230 161 767 2 1196.31489822 0.00000350 1 
231 742 772 2 708.20760347 0.00000299 1 
232 132 778 0 0.06999780 0.00902960 4 
233 269 784 2 1229.19513055 0.00000426 1 
234 132 792 0 1.26802734 0.00928000 4 
235 336 797 2 399.16913125 0.00000336 1 
236 556 797 2 2868.62749750 0.00000140 1 
237 132 800 0 3.35686460 0.00917969 4 
238 138 800 0 0.14494330 0.01254060 6 
239 108 802 2 2808.65275908 0.00000388 1 
240 138 806 0 0.25140739 0.00752040 3 
241 344 810 2 76.06545352 0.00000366 1 
242 138 821 0 0.40674396 0.01107624 5 
243 138 823 0 6.54725682 0.00940036 4 
244 116 823 2 541.97062836 0.00000371 4 
245 705 826 2 985.87037479 0.00000368 1 
246 151 828 0 3.12108818 0.00948937 4 
247 542 829 2 1144.45413589 0.00000414 1 
248 116 837 2 3697.21306082 0.00000378 1 
249 468 840 2 844.86437287 0.00000313 1 
250 741 846 2 103.35492686 0.00000302 1 
251 151 847 0 0.08724621 0.01144394 5 
252 197 850 2 272.17507791 0.00000379 1 
253 230 851 2 1635.87584508 0.00000321 1 
254 151 855 0 0.11494457 0.01510767 7 
255 288 862 2 3573.47464649 0.00000392 1 
256 338 865 2 1298.48475900 0.00000444 1 
257 257 867 2 993.54232101 0.00000333 1 
258 544 882 2 375.21530412 0.00000401 1 
259 312 884 2 167.09122164 0.00000326 1 
260 93 886 2 334.81361409 0.00000377 1 
261 788 887 2 94.11803991 0.00000325 1 
262 458 888 2 510.33920334 0.00000368 1 
263 323 891 2 329.22686146 0.00000399 1 
264 151 895 0 2.80701437 0.01758859 8 
265 151 897 0 0.06118057 0.02131758 10 
266 138 903 0 0.08157811 0.01021368 4 
267 138 904 0 7.06392298 0.01397281 6 
268 21 905 2 712.74707102 0.00000366 1 
269 132 907 0 0.71874717 0.01032446 4 
270 138 907 0 0.22077132 0.01217508 5 
271 664 909 2 2467.50491331 0.00000450 1 
272 132 911 0 0.23128175 0.01219310 5 
273 651 914 2 300.20027286 0.00000399 1 
274 148 915 2 2701.30683417 0.00000340 1 
275 911 915 2 5223.54586186 0.00000127 1 
276 121 923 0 0.62636126 0.01432651 6 
277 126 923 0 0.07130653 0.01046594 4 
278 289 924 2 3129.31994299 0.00000481 1 
279 523 928 2 1581.31864238 0.00000342 1 
280 107 929 0 0.07225325 0.01250864 5 
281 114 929 0 0.00477553 0.01057151 4 
282 723 932 2 1359.69562947 0.00000342 1 
283 593 933 2 2050.41585659 0.00000373 1 
284 402 933 2 842.56615513 0.00000120 1 
285 107 935 0 4.91438615 0.01651948 7 
286 114 935 0 1.40337639 0.01652251 7 
287 98 937 2 3193.62780512 0.00000438 1 
288 307 937 2 997.41971528 0.00000109 1 
289 101 939 0 0.48567419 0.01068400 4 
290 107 939 0 0.21174614 0.01070637 4 
291 872 942 2 354.30504560 0.00000372 1 
292 101 944 0 0.15377935 0.01270843 5 
293 647 945 2 705.23546775 0.00000470 1 
294 507 946 2 3615.08093984 0.00000314 1 
295 94 947 0 0.23772432 0.01673857 7 
296 101 947 0 0.16826262 0.01477764 6 
297 87 953 0 0.13504795 0.01086314 4 
298 94 953 0 0.06505521 0.01488332 6 
299 226 953 0 0.08268323 0.02292491 10 
300 699 953 2 357.38796262 0.00000387 10 
301 81 959 0 1.83528326 0.02430836 10 
302 87 959 0 1.29172246 0.01711040 7 
303 220 959 0 0.04883629 0.01102603 4 
304 226 959 0 0.12130941 0.01304674 5 
305 264 962 2 2932.03431984 0.00000449 1 
306 67 965 0 1.01368609 0.01311488 5 
307 81 965 0 0.31066014 0.01516106 6 
308 220 965 0 0.16483276 0.01923840 8 
309 132 965 2 9920.21625021 0.00000465 8 
310 572 971 2 988.15036021 0.00000393 1 
311 61 976 0 0.16803746 0.01734936 7 
312 67 976 0 0.05676300 0.00915148 3 
313 209 976 0 0.00780965 0.01120871 4 
314 517 980 2 2086.23936546 0.00000807 1 
315 738 981 2 1446.66438109 0.00000791 1 
316 50 982 0 0.38354811 0.06228421 4 
317 61 982 0 0.27147698 0.06470701 4 
318 201 982 0 0.22200943 0.06337892 4 
319 203 982 0 0.10573284 0.15084748 9 
320 150 983 2 1964.92355939 0.00000573 1 
321 445 984 2 1269.26960236 0.00000452 1 
322 98 986 2 2668.21750594 0.00000506 1 
323 912 987 2 2604.51821127 0.00000440 1 
324 44 988 0 0.09550719 0.06357307 4 
325 50 988 0 0.05924873 0.06269835 4 
326 195 988 0 0.04319526 0.09937195 6 
327 201 988 0 0.02685916 0.08196423 5 
328 44 994 0 0.51683435 0.12043854 7 
329 189 994 0 0.29989154 0.18721860 10 
330 195 994 0 0.21957432 0.08726995 5 
331 795 994 2 71.22809610 0.00000668 5 
332 518 995 2 2407.32410526 0.00000654 1 
333 32 1003 0 0.23901034 0.08051175 5 
334 178 1003 0 0.03356851 0.18508189 10 
335 183 1003 0 0.01433170 0.10245224 6 
336 997 1003 2 1847.57232003 0.00000599 6 
337 985 1004 2 1826.85984417 0.00000506 1 
338 25 1008 0 1.23858172 0.11847286 7 
339 32 1008 0 0.53803958 0.06388730 4 
340 178 1008 0 0.34459610 0.06368165 4 
341 183 1008 0 0.22233868 0.06365777 4 
342 25 1010 0 0.60236133 0.06452903 4 
343 32 1010 0 0.30591807 0.08179074 5 
344 172 1010 0 0.10368354 0.10251167 6 
345 178 1010 0 0.19279072 0.02726087 10 
346 251 1010 2 1375.76757638 0.00000567 10 
347 825 1015 2 1409.69168850 0.00000584 1 
348 19 1016 0 0.44047719 0.02085085 8 
349 166 1016 0 0.20189646 0.01204645 4 
350 172 1016 0 0.07393216 0.01422940 5 
351 980 1017 2 1293.14106770 0.00000636 1 
352 456 1026 2 641.08407384 0.00000544 1 
353 151 1029 0 0.03533130 0.01463377 5 
354 157 1029 0 0.02672450 0.01226678 4 
355 163 1029 0 3.39703566 0.01223390 4 
356 166 1029 0 0.49353449 0.01223625 4 
357 775 1032 2 117.68200069 0.00000589 1 
358 885 1032 2 191.42377563 0.00000186 1 
359 145 1036 2 1591.57493491 0.00000642 1 
360 593 1041 2 472.23140704 0.00000573 1 
361 676 1044 2 2177.08964860 0.00000619 1 
362 79 1050 2 461.53367801 0.00000581 1 
363 417 1051 2 52.89969012 0.00000548 1 
364 72 1054 2 713.19946199 0.00000595 1 
365 460 1056 2 20.67407411 0.00000606 1 
366 371 1061 2 278.43818859 0.00000591 1 
367 280 1061 2 823.25550431 0.00000219 1 
368 532 1062 2 427.83973817 0.00000540 1 
369 840 1062 2 206.87588385 0.00000198 1 
370 313 1062 2 354.14882979 0.00000197 1 
371 777 1069 2 240.71124480 0.00000605 1 
372 756 1071 2 93.35355379 0.00000559 1 
373 747 1074 2 180.23565348 0.00000586 1 
374 778 1076 2 306.36830153 0.00000525 1 
375 818 1077 2 207.82735870 0.00000529 1 
376 111 1081 2 100.66469829 0.00000529 1 
377 286 1082 2 126.65070585 0.00000522 1 
378 132 1084 0 4.21993706 0.01533131 5 
379 229 1084 2 1831.36160194 0.00000580 5 
380 338 1098 2 662.41756398 0.00000621 1 
381 13 1100 2 783.20848517 0.00000590 1 
382 370 1100 2 418.46955831 0.00000215 1 
383 334 1107 2 216.20047804 0.00000544 1 
384 677 1115 2 326.09522968 0.00000551 1 
385 231 1121 2 173.34811753 0.00000571 1 
386 242 1122 2 652.57588416 0.00000625 1 
387 343 1128 2 166.04698731 0.00000585 1 
388 101 1138 0 0.63021658 0.01613811 5 
389 476 1138 2 1896.85572234 0.00000544 5 
390 1008 1139 2 2544.36028364 0.00000585 1 
391 351 1140 2 715.07893903 0.00000533 1 
392 387 1141 2 757.35700774 0.00000539 1 
393 545 1145 2 740.29605771 0.00000587 1 
394 517 1145 2 268.23450673 0.00000237 1 
395 671 1146 2 719.90182844 0.00000579 1 
396 107 1147 0 0.73708347 0.01358850 4 
397 114 1147 0 0.03971358 0.01109130 3 
398 107 1150 0 7.45683387 0.01366657 4 
399 114 1150 0 1.00561260 0.01109729 3 
400 81 1150 2 4901.00858101 0.00000494 3 
401 508 1151 2 2422.40427845 0.00000189 1 
402 474 1154 2 804.52124961 0.00000591 1 
403 993 1156 2 653.65173658 0.00000569 1 
404 359 1156 2 998.84816448 0.00000276 1 
405 609 1157 2 1182.37588824 0.00000540 1 
406 114 1158 0 0.16899687 0.01124969 3 
407 121 1158 0 0.69099743 0.01369516 4 
408 1091 1161 2 949.35419391 0.00000694 1 
409 121 1164 0 0.45182924 0.01632330 5 
410 126 1164 0 0.04418665 0.01380415 4 
411 61 1168 2 1582.04336811 0.00000587 1 
412 375 1169 2 1474.48074949 0.00000545 1 
413 1071 1170 2 221.31348553 0.00000620 1 
414 318 1174 2 560.43562701 0.00000533 1 
415 114 1175 0 0.14266969 0.01400004 4 
416 121 1175 0 0.27324351 0.01394827 4 
417 923 1175 0 0.18719011 0.01393475 4 
418 929 1175 0 0.16073549 0.01391879 4 
419 1158 1175 0 0.00134797 0.01138066 3 
420 507 1175 2 3486.65808929 0.00000512 3 
421 268 1177 2 2242.68355908 0.00000547 1 
422 658 1181 2 408.89676699 0.00000647 1 
423 101 1188 0 0.32950319 0.01416164 4 
424 939 1188 0 0.55418798 0.01403862 4 
425 1138 1188 0 0.03006025 0.01161958 3 
426 1147 1188 0 0.04063922 0.01152763 3 
427 1150 1188 0 1.83245351 0.01409628 4 
428 1128 1191 2 1341.40828810 0.00000599 1 
429 1158 1195 2 1492.30484725 0.00000643 1 
430 617 1203 2 754.16149494 0.00000597 1 
431 140 1204 2 2006.97138392 0.00000609 1 
432 855 1205 2 444.93261399 0.00000610 1 
433 452 1208 2 161.42415591 0.00000557 1 
434 1020 1208 2 724.46914460 0.00000234 1 
435 1050 1210 0 0.00345523 0.01453027 4 
436 1061 1210 0 0.57363906 0.01699028 5 
437 1075 1210 0 0.23107861 0.01699476 5 
438 1084 1210 0 3.13555510 0.01697856 5 
439 1088 1210 0 0.59156319 0.01435357 4 
440 1093 1210 0 0.13111230 0.01962120 6 
441 1098 1210 0 0.04730346 0.01438586 4 
442 910 1212 2 1111.84463079 0.00000592 1 
443 157 1217 0 0.32750279 0.01455890 4 
444 163 1217 0 0.19904338 0.01459681 4 
445 1029 1217 0 0.01250493 0.01190894 3 
446 1044 1217 0 3.98258990 0.01463525 4 
447 1050 1217 0 4.97161000 0.01730839 5 
448 401 1221 2 451.38786741 0.00000582 1 
449 1009 1225 2 530.01413281 0.00000631 1 
450 1109 1225 2 909.34943611 0.00000205 1 
451 3 1226 2 658.54647656 0.00000546 1 
452 163 297 0 0.27920255 0.01552659 4 
453 189 400 0 2.09679271 0.01682841 4 
454 686 927 0 11.22120585 0.02027436 6 
455 1065 1151 1 13.61153422 0.00000504 6 
456 1056 1217 0 9.64599636 0.01758563 5 
