VERTEX2 0 0.00001021 -0.00000007 0.00000049
VERTEX2 1 0.00001022 -0.00000007 -0.00064151
VERTEX2 2 0.00001023 -0.00000007 -0.00117951
VERTEX2 3 0.00783246 -0.00069300 -0.00368049
VERTEX2 4 0.63345184 -0.01103931 -0.00773802
VERTEX2 5 0.68405706 -0.01152888 -0.09922673
VERTEX2 6 0.68709961 -0.01419146 -0.89705915
VERTEX2 7 0.68115558 0.00437541 -1.51305015
VERTEX2 8 0.68567005 0.02337504 -2.12703796
VERTEX2 9 0.69869269 0.03448315 -2.76557588
VERTEX2 10 0.70683744 0.03579156 2.90262414
VERTEX2 11 0.70909755 0.03434676 2.22785685
VERTEX2 12 0.70911706 0.03279748 1.57790888
VERTEX2 13 0.71357069 0.04663825 0.91793046
VERTEX2 14 0.73128425 0.05896556 0.30875507
VERTEX2 15 0.74002267 0.05951439 -0.21662436
VERTEX2 16 1.03267470 -0.00214950 -0.23552159
VERTEX2 17 1.63195316 -0.15260837 -0.26696782
VERTEX2 18 2.25326578 -0.31939658 -0.27736208
VERTEX2 19 2.87816167 -0.52066039 -0.32618064
VERTEX2 20 3.45940249 -0.71077157 -0.32035355
VERTEX2 21 4.05609508 -0.86403986 -0.20890708
VERTEX2 22 4.66657166 -1.00954499 -0.19100763
VERTEX2 23 5.30916646 -1.05775919 -0.08299139
VERTEX2 24 5.94293750 -1.13261276 -0.13956671
VERTEX2 25 6.58016076 -1.20364964 -0.13639525
VERTEX2 26 7.19017383 -1.30761463 -0.17671677
VERTEX2 27 7.80716600 -1.40225990 -0.16068024
VERTEX2 28 8.38990295 -1.50393910 -0.16492213
VERTEX2 29 8.76852730 -1.56290441 -0.13402839
VERTEX2 30 8.77321746 -1.56417138 -0.66595852
VERTEX2 31 8.87039385 -1.69563405 -0.93418522
VERTEX2 32 9.23317604 -2.20718596 -0.95263630
VERTEX2 33 9.59574369 -2.69083013 -0.90209802
VERTEX2 34 9.98663116 -3.15999023 -0.88155360
VERTEX2 35 10.38692483 -3.62193118 -0.84780718
VERTEX2 36 10.79516838 -4.08701150 -0.85698609
VERTEX2 37 11.05732133 -4.38231697 -0.84992342
VERTEX2 38 11.03849912 -4.35652022 -1.17273620
VERTEX2 39 11.03062634 -4.31999234 -1.34467511
VERTEX2 40 11.16362687 -4.86488905 -1.32810473
VERTEX2 41 11.30155507 -5.43481169 -1.36076047
VERTEX2 42 11.41134193 -5.96083420 -1.38451336
VERTEX2 43 11.50558743 -6.51791885 -1.42576662
VERTEX2 44 11.58337423 -7.07389778 -1.46375105
VERTEX2 45 11.63193337 -7.70604445 -1.51831893
VERTEX2 46 11.65661587 -8.34034426 -1.53679333
VERTEX2 47 11.67028947 -8.95389781 -1.57884650
VERTEX2 48 11.66036332 -9.57203777 -1.58571541
VERTEX2 49 11.64657298 -10.18614975 -1.63686413
VERTEX2 50 11.58759993 -10.76506832 -1.68162765
VERTEX2 51 11.52659041 -11.36044416 -1.71048544
VERTEX2 52 11.42401801 -11.94145756 -1.78700642
VERTEX2 53 11.31898987 -12.49686354 -1.77450216
VERTEX2 54 11.20154432 -13.00606234 -1.83643902
VERTEX2 55 11.20880152 -12.97290961 -1.83102979
VERTEX2 56 11.20860294 -12.97366040 -1.82032106
VERTEX2 57 11.05951206 -13.58871496 -1.83160293
VERTEX2 58 10.90803723 -14.19196576 -1.78527792
VERTEX2 59 10.77388206 -14.79513863 -1.80878338
VERTEX2 60 10.63920357 -15.39464714 -1.78734886
VERTEX2 61 10.49879103 -15.99451949 -1.83805648
VERTEX2 62 10.34443322 -16.55082705 -1.79796564
VERTEX2 63 10.18839534 -17.11185970 -1.83325630
VERTEX2 64 10.04897910 -17.66787593 -1.76969739
VERTEX2 65 9.91014291 -18.22167266 -1.82098676
VERTEX2 66 9.75222158 -18.80495319 -1.82894335
VERTEX2 67 9.58263622 -19.39141711 -1.82748164
VERTEX2 68 9.46866837 -19.83583778 -1.84310203
VERTEX2 69 9.47310029 -19.82182316 -1.99740380
VERTEX2 70 9.48044786 -19.80800204 -2.67024263
VERTEX2 71 9.49201336 -19.80742217 2.97054959
VERTEX2 72 9.49923873 -19.80811683 2.96150158
VERTEX2 73 9.50590324 -19.80980664 2.89627184
VERTEX2 74 9.50421462 -19.80863830 2.27377645
VERTEX2 75 9.51662882 -19.81360118 1.92091596
VERTEX2 76 9.50759752 -19.80341647 2.61397710
VERTEX2 77 9.50889747 -19.80394675 2.84651647
VERTEX2 78 9.23458911 -19.81185615 -3.10001744
VERTEX2 79 8.62330967 -19.84424706 -3.10555503
VERTEX2 80 7.99483448 -19.83676685 3.10307783
VERTEX2 81 7.37449630 -19.80440345 3.07703467
VERTEX2 82 6.78121259 -19.75769825 3.02285099
VERTEX2 83 6.19887687 -19.70054622 2.99931126
VERTEX2 84 5.64239434 -19.60928998 2.92151565
VERTEX2 85 5.10534902 -19.50017736 2.92887421
VERTEX2 86 4.50136217 -19.37306694 2.83935108
VERTEX2 87 4.13409483 -19.27145054 2.78595247
VERTEX2 88 3.78140193 -19.13620534 2.75608742
VERTEX2 89 3.79692999 -19.13707144 -3.13153680
VERTEX2 90 3.19755442 -19.13341418 3.12045003
VERTEX2 91 2.58932668 -19.12224656 -3.11381756
VERTEX2 92 1.99712789 -19.11131498 3.05348293
VERTEX2 93 1.38430970 -19.00261441 2.95244473
VERTEX2 94 0.76460823 -18.85712659 2.90987378
VERTEX2 95 0.14977476 -18.76223265 3.05261303
VERTEX2 96 -0.45313072 -18.70397576 3.07682423
VERTEX2 97 -1.03567998 -18.63436499 3.00641304
VERTEX2 98 -1.61709490 -18.52718887 2.94865745
VERTEX2 99 -2.31883812 -18.39469769 2.99530702
VERTEX2 100 -2.88047633 -18.28028353 2.94343480
VERTEX2 101 -3.48806066 -18.21646378 3.04660299
VERTEX2 102 -4.10264770 -18.12814348 2.94115731
VERTEX2 103 -4.70732877 -18.00659176 3.03706461
VERTEX2 104 -5.31590402 -17.92344175 3.00339783
VERTEX2 105 -5.92464291 -17.85210172 3.05000024
VERTEX2 106 -6.52297535 -17.77500549 2.99522012
VERTEX2 107 -7.13585676 -17.67254058 2.99099758
VERTEX2 108 -7.58998660 -17.61838948 3.05221972
VERTEX2 109 -7.63554434 -17.60627213 2.60371926
VERTEX2 110 -7.65127041 -17.58960090 2.01237611
VERTEX2 111 -7.65051037 -17.51156707 1.50654356
VERTEX2 112 -7.61973922 -16.87926393 1.56138242
VERTEX2 113 -7.63141291 -16.25729299 1.60878598
VERTEX2 114 -7.65815517 -15.64332004 1.64590231
VERTEX2 115 -7.72544868 -15.01143254 1.70660447
VERTEX2 116 -7.83816790 -14.26707024 1.75095068
VERTEX2 117 -7.96590403 -13.67011629 1.84605303
VERTEX2 118 -7.96709395 -13.66412792 1.51069453
VERTEX2 119 -7.90931804 -13.16991318 1.45691116
VERTEX2 120 -7.85286933 -12.53712407 1.54648087
VERTEX2 121 -7.85766937 -11.93834503 1.61339020
VERTEX2 122 -7.88496408 -11.36641298 1.66945058
VERTEX2 123 -7.90659544 -11.19666528 1.65652598
VERTEX2 124 -7.82214880 -10.97058820 1.23297956
VERTEX2 125 -7.60291396 -10.39127033 1.22184350
VERTEX2 126 -7.46618215 -9.78851253 1.42807972
VERTEX2 127 -7.36524199 -9.17758970 1.42620715
VERTEX2 128 -7.28559514 -8.56225129 1.46228777
VERTEX2 129 -7.19533565 -7.95099950 1.42923837
VERTEX2 130 -7.12311483 -7.34149422 1.48145395
VERTEX2 131 -7.07173965 -6.73752159 1.56936931
VERTEX2 132 -7.04716445 -6.14267191 1.51916819
VERTEX2 133 -6.99305955 -5.58976579 1.48250147
VERTEX2 134 -6.93139596 -5.00319161 1.46425883
VERTEX2 135 -6.84271251 -4.43692941 1.43789306
VERTEX2 136 -6.76071006 -3.81425830 1.45743007
VERTEX2 137 -6.65657924 -3.19402234 1.41550264
VERTEX2 138 -6.57276223 -2.57575419 1.49569687
VERTEX2 139 -6.54936468 -1.97377882 1.56030601
VERTEX2 140 -6.56890695 -1.32979174 1.59118164
VERTEX2 141 -6.56685132 -0.69614992 1.54325181
VERTEX2 142 -6.55937020 -0.05295482 1.53985379
VERTEX2 143 -6.47058061 0.58239742 1.42976182
VERTEX2 144 -6.42666610 0.95113165 1.44768787
VERTEX2 145 -6.42140620 0.96647324 0.95012659
VERTEX2 146 -6.41953461 0.97551031 0.35763778
VERTEX2 147 -6.36771363 0.97141535 -0.12824676
VERTEX2 148 -5.94056784 0.90850982 -0.16359229
VERTEX2 149 -5.30149978 0.80983071 -0.13811631
VERTEX2 150 -4.66870745 0.74071344 -0.12359007
VERTEX2 151 -4.03318180 0.68926819 -0.03762477
VERTEX2 152 -3.40495274 0.64849525 -0.09814763
VERTEX2 153 -2.77716269 0.61057190 -0.00420645
VERTEX2 154 -2.15351337 0.58485210 -0.07310466
VERTEX2 155 -1.53174664 0.54744865 -0.03935115
VERTEX2 156 -0.90837977 0.52927200 -0.00818009
VERTEX2 157 -0.34863703 0.50848391 -0.07194919
VERTEX2 158 -0.14671540 0.49346745 -0.04403711
VERTEX2 159 -0.14185407 0.49189903 0.94499974
VERTEX2 160 -0.13681240 0.50010395 1.98091114
VERTEX2 161 -0.16416007 0.43008522 2.69215306
VERTEX2 162 -0.14257568 0.43461226 -2.55217992
VERTEX2 163 -0.14211526 0.43676374 -1.55216976
VERTEX2 164 -0.22565882 0.54267635 -0.48684467
VERTEX2 165 -0.05666892 0.52454714 -0.07919858
VERTEX2 166 0.63582317 0.47602872 -0.07755348
VERTEX2 167 1.24576677 0.42166577 -0.10625270
VERTEX2 168 1.82714363 0.36892486 -0.09363749
VERTEX2 169 2.41519356 0.29445012 -0.12995334
VERTEX2 170 3.00087191 0.22261072 -0.15051915
VERTEX2 171 3.56134568 0.12089231 -0.18875505
VERTEX2 172 4.18548788 0.00970192 -0.17464820
VERTEX2 173 4.81104316 -0.11363714 -0.19712156
VERTEX2 174 5.43301707 -0.23036456 -0.15666355
VERTEX2 175 6.04666626 -0.32290818 -0.18109775
VERTEX2 176 6.64265576 -0.44504060 -0.17126538
VERTEX2 177 7.26313045 -0.54979355 -0.19873199
VERTEX2 178 7.88065412 -0.69716255 -0.23759574
VERTEX2 179 8.28354188 -0.78265887 -0.18419650
VERTEX2 180 8.33319254 -0.79625747 -0.62611854
VERTEX2 181 8.77076170 -1.11516561 -0.67786385
VERTEX2 182 9.17380231 -1.47526338 -0.85185958
VERTEX2 183 9.51689655 -1.89487623 -0.90920557
VERTEX2 184 9.83635492 -2.38104770 -1.05662473
VERTEX2 185 10.09734328 -2.87877187 -1.14951754
VERTEX2 186 10.29268931 -3.39177707 -1.21684894
VERTEX2 187 10.46236336 -3.87558294 -1.24035632
VERTEX2 188 10.63807497 -4.37915996 -1.24662037
VERTEX2 189 10.80904916 -4.89330376 -1.27415264
VERTEX2 190 10.98587185 -5.49830036 -1.30289140
VERTEX2 191 11.15236948 -6.10233346 -1.32694773
VERTEX2 192 11.29997796 -6.69931953 -1.35530328
VERTEX2 193 11.41721921 -7.24707232 -1.41104078
VERTEX2 194 11.51058854 -7.81489594 -1.43785194
VERTEX2 195 11.58449670 -8.37728988 -1.46654503
VERTEX2 196 11.64448555 -9.00298213 -1.50727967
VERTEX2 197 11.67580746 -9.62377128 -1.53476402
VERTEX2 198 11.69454038 -10.24378204 -1.59271739
VERTEX2 199 11.66024489 -10.85150902 -1.65395645
VERTEX2 200 11.60713983 -11.45343805 -1.67570981
VERTEX2 201 11.53055831 -12.05112739 -1.73228264
VERTEX2 202 11.46193381 -12.55405281 -1.71165063
VERTEX2 203 11.35385771 -13.28527226 -1.76394883
VERTEX2 204 11.22698937 -13.85917690 -1.86560364
VERTEX2 205 11.05323908 -14.41754102 -1.87478334
VERTEX2 206 10.89479556 -14.96126996 -1.87264203
VERTEX2 207 10.73061363 -15.52470580 -1.85649328
VERTEX2 208 10.55270417 -16.12063692 -1.86576924
VERTEX2 209 10.38601384 -16.71833295 -1.82743103
VERTEX2 210 10.21798718 -17.30820786 -1.83629914
VERTEX2 211 10.06387880 -17.90201207 -1.83405288
VERTEX2 212 9.88235173 -18.48509804 -1.88692803
VERTEX2 213 9.68223003 -19.07168467 -1.90773305
VERTEX2 214 9.47740821 -19.64462126 -1.91157308
VERTEX2 215 9.35979918 -19.96447697 -1.94740595
VERTEX2 216 9.37188556 -19.94421993 -2.44601293
VERTEX2 217 9.40079167 -19.94139359 -2.98809756
VERTEX2 218 9.41342981 -19.94637590 -3.04409388
VERTEX2 219 8.85100147 -19.89745246 3.07061857
VERTEX2 220 8.24582806 -19.84808436 3.03076860
VERTEX2 221 7.61453815 -19.77651848 3.08119675
VERTEX2 222 6.99668619 -19.72861428 3.05559796
VERTEX2 223 6.37823034 -19.69382903 -3.13130881
VERTEX2 224 5.77145740 -19.68888364 3.12604280
VERTEX2 225 5.16109697 -19.67761478 -3.10749503
VERTEX2 226 4.55169356 -19.66558970 3.12654095
VERTEX2 227 3.90432522 -19.72921867 -2.99986248
VERTEX2 228 3.37911519 -19.70872328 2.92193267
VERTEX2 229 2.93351110 -19.66565730 3.04270621
VERTEX2 230 2.65122828 -19.64821065 3.01368898
VERTEX2 231 2.87156865 -19.66945783 3.08327846
VERTEX2 232 2.56850123 -19.52974978 2.65634707
VERTEX2 233 2.01177278 -19.26453206 2.75820473
VERTEX2 234 1.44326286 -19.03284313 2.71369849
VERTEX2 235 1.19950955 -18.92415397 2.70841048
VERTEX2 236 0.86851654 -18.92139220 3.11433777
VERTEX2 237 0.24373845 -18.92909797 -3.09824688
VERTEX2 238 -0.37379080 -18.97039173 -3.13080628
VERTEX2 239 -0.98680509 -18.96066548 3.08493680
VERTEX2 240 -1.55165706 -18.83722909 2.86710226
VERTEX2 241 -2.08642695 -18.70092158 2.95271397
VERTEX2 242 -2.66627183 -18.62810152 2.99184799
VERTEX2 243 -3.25863567 -18.53937763 2.99134654
VERTEX2 244 -3.87576009 -18.48736156 3.06280832
VERTEX2 245 -4.48394115 -18.43239068 3.00873199
VERTEX2 246 -5.07920946 -18.34071421 2.93651446
VERTEX2 247 -5.67624584 -18.25280838 3.04260808
VERTEX2 248 -6.22813008 -18.22512239 3.07392657
VERTEX2 249 -6.17809366 -18.23319813 -3.01645855
VERTEX2 250 -6.17141846 -18.23311888 2.67937383
VERTEX2 251 -6.49051836 -17.88889969 2.25656541
VERTEX2 252 -6.84188090 -17.46597163 2.26534028
VERTEX2 253 -7.20924889 -17.01737502 2.25457637
VERTEX2 254 -7.56995981 -16.55689950 2.21357903
VERTEX2 255 -7.64207992 -16.46346601 2.29747905
VERTEX2 256 -7.64427923 -16.38727996 1.82163153
VERTEX2 257 -7.69229025 -15.92510745 1.68619533
VERTEX2 258 -7.76996638 -15.33876980 1.76672161
VERTEX2 259 -7.90608269 -14.74662728 1.80736891
VERTEX2 260 -8.03269646 -14.19876948 1.79894924
VERTEX2 261 -8.03165990 -14.18449303 1.48744772
VERTEX2 262 -7.96595581 -13.55729434 1.49401534
VERTEX2 263 -7.91982418 -12.95400128 1.50728281
VERTEX2 264 -7.90028050 -12.36277406 1.60402627
VERTEX2 265 -7.92589412 -11.77136643 1.62396310
VERTEX2 266 -7.87416154 -11.21219196 1.49409078
VERTEX2 267 -7.81619252 -10.48236170 1.46421276
VERTEX2 268 -7.68140928 -9.90035979 1.35352299
VERTEX2 269 -7.55698110 -9.30099497 1.38280330
VERTEX2 270 -7.47844809 -8.69125892 1.49660232
VERTEX2 271 -7.37719417 -8.08343565 1.38589621
VERTEX2 272 -7.28510289 -7.47054527 1.45090378
VERTEX2 273 -7.28710030 -6.85906002 1.66269100
VERTEX2 274 -7.34560576 -6.25797125 1.68637773
VERTEX2 275 -7.32622834 -5.67070405 1.51436640
VERTEX2 276 -7.31153830 -5.08402650 1.62830043
VERTEX2 277 -7.34908469 -4.53659265 1.60217743
VERTEX2 278 -7.29665123 -3.90480731 1.51388859
VERTEX2 279 -7.24942753 -3.29223234 1.45658625
VERTEX2 280 -7.16997229 -2.66120492 1.45909519
VERTEX2 281 -7.06946952 -2.03508294 1.35949067
VERTEX2 282 -6.94065388 -1.41607862 1.40011010
VERTEX2 283 -6.84473915 -0.78973711 1.39299382
VERTEX2 284 -6.72467770 -0.17441900 1.42090518
VERTEX2 285 -6.64914926 0.46091699 1.44231253
VERTEX2 286 -6.57480995 1.06853262 1.49628694
VERTEX2 287 -6.57151260 1.11573015 1.39269208
VERTEX2 288 -6.56808243 1.12164860 0.78662322
VERTEX2 289 -6.56437145 1.12344808 0.19454470
VERTEX2 290 -6.12705567 1.11054794 -0.03064048
VERTEX2 291 -5.50728117 1.09679548 -0.01698119
VERTEX2 292 -4.89302605 1.06952346 -0.07158392
VERTEX2 293 -4.27001523 1.01662459 -0.09457188
VERTEX2 294 -3.65052340 0.95677721 -0.09378263
VERTEX2 295 -3.03018420 0.86880308 -0.20609644
VERTEX2 296 -2.41444612 0.71632298 -0.25130368
VERTEX2 297 -1.80331830 0.55777818 -0.26261146
VERTEX2 298 -1.18959463 0.39540654 -0.26283000
VERTEX2 299 -0.61938428 0.23339676 -0.20136444
VERTEX2 300 -0.03617360 0.14193276 -0.15891934
VERTEX2 301 0.52239497 0.03705813 -0.21783315
VERTEX2 302 0.82082139 -0.03028405 -0.23850659
VERTEX2 303 0.80046253 -0.02592394 -0.23414284
VERTEX2 304 1.29710468 -0.14561565 -0.22437371
VERTEX2 305 1.90941653 -0.19563323 -0.04021242
VERTEX2 306 2.54076819 -0.21206160 -0.05774791
VERTEX2 307 3.18154859 -0.26557785 -0.09390326
VERTEX2 308 3.81199342 -0.33368626 -0.14919984
VERTEX2 309 4.44401008 -0.39854980 -0.05603332
VERTEX2 310 5.06149434 -0.43244722 -0.09204411
VERTEX2 311 5.33221260 -0.45941839 0.08284273
VERTEX2 312 5.32215446 -0.46474879 1.07032851
VERTEX2 313 5.32828513 -0.24188120 1.56544362
VERTEX2 314 5.31307230 0.38898659 1.60511297
VERTEX2 315 5.28888022 1.01926542 1.60068755
VERTEX2 316 5.25319683 1.66438357 1.65146469
VERTEX2 317 5.19652695 2.30654112 1.66087095
VERTEX2 318 5.10255744 2.94479280 1.75475663
VERTEX2 319 5.02524532 3.29522010 1.82586317
VERTEX2 320 5.02762986 3.30239279 2.79358627
VERTEX2 321 5.01727489 3.29805247 -2.45072198
VERTEX2 322 5.01648378 3.29644916 -1.45529917
VERTEX2 323 5.02402468 3.28907050 -0.46366771
VERTEX2 324 5.03358822 3.28582944 0.19629148
VERTEX2 325 5.04125340 3.28634730 -0.33131985
VERTEX2 326 5.05968155 3.27222531 -0.92646382
VERTEX2 327 5.06285147 3.25663089 -1.54976923
VERTEX2 328 5.04195017 2.62072632 -1.59629676
VERTEX2 329 5.01601124 1.99926857 -1.65284398
VERTEX2 330 4.95700262 1.38523798 -1.67329998
VERTEX2 331 4.89698824 0.76992241 -1.68902728
VERTEX2 332 4.81257617 0.15785374 -1.70899158
VERTEX2 333 4.78968555 0.00431806 -1.64549724
VERTEX2 334 4.78376447 0.00274775 -0.85568377
VERTEX2 335 4.80617507 -0.00419766 0.13594063
VERTEX2 336 4.82455972 0.00202097 1.07767462
VERTEX2 337 4.82845606 0.02493636 2.05917020
VERTEX2 338 4.83211328 0.02231229 3.05058246
VERTEX2 339 4.84210611 0.02843559 -2.18156961
VERTEX2 340 4.84238754 0.02639336 -1.16193444
VERTEX2 341 4.95268268 -0.04093243 -0.52830111
VERTEX2 342 5.52125519 -0.34714708 -0.42623745
VERTEX2 343 6.10213798 -0.55465138 -0.29175408
VERTEX2 344 6.69193528 -0.74126053 -0.29849967
VERTEX2 345 6.91934669 -0.80813428 -0.32504614
VERTEX2 346 6.89487275 -0.80015426 -0.96991623
VERTEX2 347 6.89742652 -0.88807668 -1.52699068
VERTEX2 348 6.91575798 -1.47812996 -1.54298818
VERTEX2 349 6.91405016 -2.10261375 -1.58248346
VERTEX2 350 6.90137549 -2.89590241 -1.60134285
VERTEX2 351 6.88733708 -3.17542721 -1.62950996
VERTEX2 352 6.88531901 -3.18516671 -1.91645606
VERTEX2 353 6.87300479 -3.20034271 -2.57961309
VERTEX2 354 6.85845961 -3.20454734 3.10228261
VERTEX2 355 6.83762808 -3.20387405 2.38372147
VERTEX2 356 6.83200007 -3.19397485 1.81049092
VERTEX2 357 6.83445759 -3.17912742 1.15964150
VERTEX2 358 6.83488852 -3.17854034 0.54631313
VERTEX2 359 6.82236896 -3.18392435 -0.06558763
VERTEX2 360 6.80626902 -3.18075538 -0.24098201
VERTEX2 361 6.79881331 -3.18270582 0.68081192
VERTEX2 362 6.88531748 -2.94754735 1.21603738
VERTEX2 363 6.98966417 -2.67527275 1.21017243
VERTEX2 364 6.91958964 -2.33413010 1.82628382
VERTEX2 365 6.86353456 -2.03997212 1.33042692
VERTEX2 366 6.97463631 -1.91465099 0.77764553
VERTEX2 367 7.42260568 -1.47908077 0.78004425
VERTEX2 368 7.88108244 -1.04265812 0.73220246
VERTEX2 369 7.90306836 -1.01626246 0.48052927
VERTEX2 370 7.92060587 -1.01352265 -0.10601409
VERTEX2 371 7.92224423 -1.01440954 -0.65246790
VERTEX2 372 8.35053834 -1.36504574 -0.67999499
VERTEX2 373 8.82269489 -1.73210730 -0.67789508
VERTEX2 374 9.30097200 -2.13727790 -0.73892492
VERTEX2 375 9.65546969 -2.45479148 -0.76952143
VERTEX2 376 9.67195815 -2.46494477 -0.07665148
VERTEX2 377 9.72240438 -2.42927996 0.61674421
VERTEX2 378 10.25882040 -2.03329700 0.66975082
VERTEX2 379 10.74109047 -1.60322313 0.75335177
VERTEX2 380 11.18330844 -1.13690366 0.87144519
VERTEX2 381 11.33068228 -0.95630630 1.02004753
VERTEX2 382 11.33212185 -0.95370939 2.06567068
VERTEX2 383 11.33017141 -0.95251406 3.05231179
VERTEX2 384 11.32592901 -0.95652515 -2.26735548
VERTEX2 385 11.32065720 -0.96533276 -1.23591302
VERTEX2 386 11.42781467 -1.10492596 -1.01080038
VERTEX2 387 11.88703449 -1.53105947 -0.67883869
VERTEX2 388 12.37420212 -1.90725317 -0.66889136
VERTEX2 389 12.83629712 -2.30254319 -0.75012601
VERTEX2 390 12.87274350 -2.33522746 -0.27313820
VERTEX2 391 12.71690146 -2.33059243 0.10837338
VERTEX2 392 12.70455135 -2.33105127 1.15185425
VERTEX2 393 12.76320577 -1.93970650 2.03202168
VERTEX2 394 12.74597719 -1.92493115 3.02517968
VERTEX2 395 12.98023422 -1.88424113 -2.92082892
VERTEX2 396 12.97400895 -1.88529728 -2.92092571
VERTEX2 397 12.96309619 -1.88441259 -2.93193658
VERTEX2 398 12.95544194 -1.88759268 -2.73476509
VERTEX2 399 12.85788752 -1.96294320 -2.43609033
VERTEX2 400 12.36199723 -2.38920795 -2.38599093
VERTEX2 401 11.89355610 -2.79715890 -2.47813235
VERTEX2 402 11.34402965 -3.08114687 -2.74497791
VERTEX2 403 10.78027095 -3.31169482 -2.77930656
VERTEX2 404 10.24298524 -3.49803843 -2.85868852
VERTEX2 405 10.26195783 -3.48903531 -2.32554178
VERTEX2 406 10.26552468 -3.46839739 -1.34846149
VERTEX2 407 10.38155769 -3.79902679 -1.22193774
VERTEX2 408 10.58265086 -4.36922932 -1.26131233
VERTEX2 409 10.66187875 -4.64284975 -1.36252847
VERTEX2 410 10.66242571 -4.62913052 -1.99399319
VERTEX2 411 10.67390258 -4.60918528 -2.58671792
VERTEX2 412 10.17347571 -4.80324532 -2.79167291
VERTEX2 413 9.59018452 -4.99409771 -2.87285535
VERTEX2 414 9.00143739 -5.17417518 -2.77080554
VERTEX2 415 8.39311597 -5.40122929 -2.76367772
VERTEX2 416 8.10638697 -5.52353877 -2.81870952
VERTEX2 417 7.80692372 -5.50269734 3.04015083
VERTEX2 418 7.36216131 -5.45215249 2.99572683
VERTEX2 419 7.36008574 -5.45260488 -2.85506027
VERTEX2 420 7.41339424 -5.42981880 -2.63807448
VERTEX2 421 7.41786207 -5.42292269 -1.66888247
VERTEX2 422 7.41634095 -5.42499711 -0.42766984
VERTEX2 423 7.41736075 -5.42511240 -0.08134936
VERTEX2 424 7.41885276 -5.42568789 -0.08029379
VERTEX2 425 7.41089007 -5.43002341 -0.06786432
VERTEX2 426 7.41353294 -5.43059640 -0.07605984
VERTEX2 427 7.44868765 -5.43295357 -0.07202170
VERTEX2 428 8.11301898 -5.46425034 -0.07662135
VERTEX2 429 8.75949472 -5.52315763 -0.11646852
VERTEX2 430 9.10349096 -5.56897052 -0.16162579
VERTEX2 431 9.08414141 -5.56638672 -0.10876214
VERTEX2 432 9.09988788 -5.57215962 -0.73850464
VERTEX2 433 9.10810277 -5.58371779 -1.41371655
VERTEX2 434 9.06526020 -6.12400590 -1.64080432
VERTEX2 435 9.02665214 -6.76860814 -1.66809594
VERTEX2 436 8.94275465 -7.40862419 -1.67595295
VERTEX2 437 8.88516739 -8.05807747 -1.66714595
VERTEX2 438 8.82878159 -8.52699461 -1.69728281
VERTEX2 439 8.82678606 -8.53419714 -2.13241007
VERTEX2 440 8.83364344 -8.52892194 -2.77441121
VERTEX2 441 8.85125719 -8.52736098 2.88785977
VERTEX2 442 8.86020226 -8.53235846 2.25959651
VERTEX2 443 8.86034947 -8.53550855 1.69373810
VERTEX2 444 8.86384194 -8.51828794 1.10362619
VERTEX2 445 8.86831058 -8.51413711 0.44701067
VERTEX2 446 8.85928801 -8.51953336 0.64953783
VERTEX2 447 8.87006049 -8.49932349 1.28305017
VERTEX2 448 9.02776534 -7.87879656 1.30086651
VERTEX2 449 9.16934900 -7.24193897 1.40232502
VERTEX2 450 9.27204995 -6.60403792 1.41609144
VERTEX2 451 9.33128187 -6.13192710 1.45869264
VERTEX2 452 9.33164890 -6.12840530 1.08058950
VERTEX2 453 9.32934675 -6.13243797 0.45859814
VERTEX2 454 9.59749400 -6.11556174 0.03667512
VERTEX2 455 10.19656703 -6.09778396 0.01542028
VERTEX2 456 10.82786949 -6.10072533 -0.05001861
VERTEX2 457 11.18293752 -6.12827520 -0.13880407
VERTEX2 458 11.17213085 -6.12267427 -0.78720284
VERTEX2 459 11.16061925 -6.07182830 -1.39759306
VERTEX2 460 11.13295796 -6.45338470 -1.65590509
VERTEX2 461 11.05039341 -7.07259786 -1.74315302
VERTEX2 462 10.95151793 -7.58412898 -1.78253767
VERTEX2 463 10.96193640 -7.56467084 -0.94030337
VERTEX2 464 11.21513249 -7.64207622 -0.26049388
VERTEX2 465 11.80204599 -7.78762844 -0.25153236
VERTEX2 466 12.35978502 -7.95077691 -0.30575418
VERTEX2 467 12.93729828 -8.14521612 -0.34771562
VERTEX2 468 13.54121958 -8.36834507 -0.38314579
VERTEX2 469 14.12370615 -8.63880722 -0.46628251
VERTEX2 470 14.56922242 -8.85755651 -0.44757041
VERTEX2 471 14.57181416 -8.85900921 -0.64759708
VERTEX2 472 14.58398573 -8.87652546 -1.28049752
VERTEX2 473 14.58383955 -8.87576872 -1.92132446
VERTEX2 474 14.58460190 -8.87483081 -2.55289412
VERTEX2 475 14.58535514 -8.87473870 -3.12701414
VERTEX2 476 14.58467484 -8.87462673 2.50458570
VERTEX2 477 14.58968755 -8.88490785 1.94494090
VERTEX2 478 14.59030729 -8.89574438 1.31775420
VERTEX2 479 14.58914867 -8.89826231 0.86452524
VERTEX2 480 14.58939709 -8.89772413 1.42778311
VERTEX2 481 14.58749291 -8.88867621 2.43186503
VERTEX2 482 14.60195310 -8.89474513 2.76886617
VERTEX2 483 14.61864347 -8.90120935 2.76396139
VERTEX2 484 14.20511058 -8.74062274 2.79998451
VERTEX2 485 13.61031251 -8.54312940 2.79783608
VERTEX2 486 13.01292075 -8.32162731 2.80755358
VERTEX2 487 12.40672982 -8.13342898 2.83604910
VERTEX2 488 11.79822840 -7.94344668 2.87241330
VERTEX2 489 11.33109980 -7.82952380 2.90309901
VERTEX2 490 11.33952186 -7.82882075 -2.89442567
VERTEX2 491 11.34660327 -7.81971732 -1.95750380
VERTEX2 492 11.32664198 -8.05416305 -1.65387970
VERTEX2 493 11.25704094 -8.66237096 -1.70853068
VERTEX2 494 11.16196335 -9.27782121 -1.76902701
VERTEX2 495 11.08621809 -9.90064356 -1.66167488
VERTEX2 496 11.03594763 -10.52506800 -1.54377267
VERTEX2 497 11.02298358 -11.14371327 -1.62972866
VERTEX2 498 10.94876153 -11.76179299 -1.73145210
VERTEX2 499 10.81297288 -12.38348354 -1.74842655
VERTEX2 500 10.86547944 -12.95010115 -1.41946985
VERTEX2 501 10.93465888 -13.53126216 -1.49161356
VERTEX2 502 10.95199197 -14.22762268 -1.57616794
VERTEX2 503 10.94309492 -14.67071295 -1.59307416
VERTEX2 504 10.94969812 -14.65262404 -0.73578919
VERTEX2 505 11.18596337 -14.68182093 -0.11368172
VERTEX2 506 11.77575857 -14.76866853 -0.26615019
VERTEX2 507 12.35351484 -14.94317334 -0.34464118
VERTEX2 508 12.92275134 -15.16041452 -0.35777283
VERTEX2 509 13.53970245 -15.39915343 -0.41355633
VERTEX2 510 13.89410129 -15.56108200 -0.42734512
VERTEX2 511 13.89243550 -15.54339900 0.44858882
VERTEX2 512 13.91439849 -15.49800575 1.64705140
VERTEX2 513 13.91084268 -15.48729313 2.60321077
VERTEX2 514 13.84301523 -15.46779333 2.82967714
VERTEX2 515 13.23340176 -15.28297195 2.83090850
VERTEX2 516 12.64901704 -15.08534516 2.84716430
VERTEX2 517 12.05609179 -14.93377294 2.87571376
VERTEX2 518 11.46380704 -14.77885823 2.89978272
VERTEX2 519 10.94569379 -14.65253080 2.88377963
VERTEX2 520 10.78129038 -14.60864410 -3.00161381
VERTEX2 521 10.80941267 -14.57811774 -1.99994554
VERTEX2 522 10.74151988 -14.96842405 -1.73619811
VERTEX2 523 10.64604729 -15.58001524 -1.74410032
VERTEX2 524 10.53690867 -16.15419703 -1.78546095
VERTEX2 525 10.42817499 -16.69652929 -1.76134108
VERTEX2 526 10.30726480 -17.26542443 -1.81967292
VERTEX2 527 10.15584291 -17.84205019 -1.85444548
VERTEX2 528 9.97056008 -18.40470575 -1.93043898
VERTEX2 529 9.75496411 -19.00106703 -1.95826831
VERTEX2 530 9.50325108 -19.59753026 -1.98825111
VERTEX2 531 9.22943507 -20.16935806 -2.06797393
VERTEX2 532 9.13048421 -20.35343768 -2.01727373
VERTEX2 533 9.12874536 -20.34462200 -1.01646949
VERTEX2 534 9.12621356 -20.34291719 -0.34874339
VERTEX2 535 9.12426368 -20.34149789 -0.34885911
VERTEX2 536 9.47408364 -20.42590858 -0.21780767
VERTEX2 537 10.07351420 -20.57611426 -0.27549346
VERTEX2 538 10.62663000 -20.74645235 -0.30229670
VERTEX2 539 11.22787871 -20.95657144 -0.36670658
VERTEX2 540 11.80844452 -21.21038315 -0.45919646
VERTEX2 541 12.38926462 -21.43883990 -0.29640085
VERTEX2 542 13.01318441 -21.58161575 -0.24027206
VERTEX2 543 13.13043424 -21.61138325 -0.26958964
VERTEX2 544 13.14497911 -21.60992944 0.36793032
VERTEX2 545 13.16893274 -21.56664531 1.43360926
VERTEX2 546 13.18758570 -21.61561925 2.26062862
VERTEX2 547 13.20277065 -21.61460760 -3.00095990
VERTEX2 548 13.22072118 -21.60313927 -2.07813877
VERTEX2 549 13.22233736 -21.59237733 -1.27155902
VERTEX2 550 13.22129105 -21.57337827 -1.75136812
VERTEX2 551 13.23057258 -21.55469486 -2.37776795
VERTEX2 552 13.25396213 -21.54312603 -3.01026665
VERTEX2 553 13.12357808 -21.49287736 2.69561309
VERTEX2 554 12.53854641 -21.21001142 2.66014950
VERTEX2 555 11.96628967 -20.93625985 2.74902031
VERTEX2 556 11.36928327 -20.71847315 2.88412042
VERTEX2 557 10.76871882 -20.54567808 2.84311414
VERTEX2 558 10.19222869 -20.38691809 2.92436944
VERTEX2 559 10.19878606 -20.38914372 2.51780856
VERTEX2 560 10.19244687 -20.38138303 2.01516155
VERTEX2 561 10.16827324 -20.35772010 2.51867987
VERTEX2 562 9.99830725 -20.35676639 -3.12297363
VERTEX2 563 9.43532943 -20.27462083 2.96737620
VERTEX2 564 8.83439913 -20.17872783 3.01603045
VERTEX2 565 8.20968324 -20.09745618 2.95825249
VERTEX2 566 8.29063592 -20.12532803 -2.58195095
VERTEX2 567 8.21959399 -20.12855456 -1.74747698
VERTEX2 568 8.16482113 -20.63500455 -1.68279665
VERTEX2 569 8.10863932 -21.21053441 -1.72182596
VERTEX2 570 8.03501592 -21.79123516 -1.71698103
VERTEX2 571 7.98053549 -22.14091903 -1.76400606
VERTEX2 572 7.94525757 -22.16631317 -2.00653475
VERTEX2 573 7.90817193 -22.24890915 -1.72990955
VERTEX2 574 7.92880046 -22.27826236 -0.78953031
VERTEX2 575 8.08860641 -22.33186372 0.12563347
VERTEX2 576 8.09078674 -22.33363740 1.15351772
VERTEX2 577 8.08485885 -22.31744838 2.12582420
VERTEX2 578 8.07604601 -22.28647681 1.76176116
VERTEX2 579 7.95830160 -21.63431520 1.77686595
VERTEX2 580 7.80355144 -20.99423701 1.85212045
VERTEX2 581 7.61604748 -20.37002779 1.89462175
VERTEX2 582 7.40105622 -19.75478356 1.93789534
VERTEX2 583 7.27476190 -19.44681491 2.01742153
VERTEX2 584 7.27022829 -19.43780870 2.86173786
VERTEX2 585 6.69209649 -19.29339740 2.98032440
VERTEX2 586 6.10299640 -19.21417655 3.07818007
VERTEX2 587 5.48834836 -19.19804658 3.10386521
VERTEX2 588 4.86287000 -19.16706436 3.10860630
VERTEX2 589 4.32632227 -19.18716223 -3.09970458
VERTEX2 590 3.77877307 -19.22619197 -3.03144642
VERTEX2 591 3.24114250 -19.29975591 -3.03374339
VERTEX2 592 2.70745671 -19.36664235 -3.03708472
VERTEX2 593 2.54661914 -19.38528592 -2.83284413
VERTEX2 594 2.59208996 -19.33749519 -1.91495541
VERTEX2 595 2.46994060 -19.94517965 -1.68088221
VERTEX2 596 2.40929897 -20.56982464 -1.70318296
VERTEX2 597 2.30901516 -21.24535418 -1.74219137
VERTEX2 598 2.20004971 -21.84217566 -1.78400795
VERTEX2 599 2.10803966 -22.21810851 -1.84982987
VERTEX2 600 2.10807795 -22.23388026 -1.04213400
VERTEX2 601 2.15344109 -22.26238796 -0.02412306
VERTEX2 602 2.19304373 -22.24685909 0.98978134
VERTEX2 603 2.16111777 -22.01451095 1.76234856
VERTEX2 604 2.10686240 -21.40405306 1.51824846
VERTEX2 605 2.12244612 -20.76386746 1.60111059
VERTEX2 606 2.08908931 -20.12459843 1.64349442
VERTEX2 607 2.10585450 -19.54216858 1.56285145
VERTEX2 608 2.09651001 -19.16424719 1.60771773
VERTEX2 609 2.09454656 -19.15210081 1.94468362
VERTEX2 610 2.08924473 -19.15013659 2.87733574
VERTEX2 611 1.49862080 -18.99563139 2.88037105
VERTEX2 612 1.03045749 -18.85797098 2.88326919
VERTEX2 613 1.06878836 -18.87001551 -2.93596190
VERTEX2 614 1.08235808 -18.85992622 -1.89764648
VERTEX2 615 1.09061023 -19.34315838 -1.59300481
VERTEX2 616 1.09181418 -19.96258834 -1.64413408
VERTEX2 617 0.94558336 -20.58148000 -1.86094589
VERTEX2 618 0.76852258 -21.19743372 -1.85046675
VERTEX2 619 0.60384264 -21.76169010 -1.85191179
VERTEX2 620 0.41662595 -22.33017423 -1.94809611
VERTEX2 621 0.55058221 -21.99354479 -1.99963581
VERTEX2 622 0.67881247 -21.72619806 -2.07466662
VERTEX2 623 0.68118672 -21.72305889 -2.61179587
VERTEX2 624 0.65277135 -21.72246350 3.02872569
VERTEX2 625 0.60580745 -21.70289467 2.37109137
VERTEX2 626 0.57335755 -21.66483384 1.75391158
VERTEX2 627 0.65097345 -21.28887234 1.34367961
VERTEX2 628 0.83760890 -20.65977422 1.24296615
VERTEX2 629 1.01711042 -20.02986086 1.31407204
VERTEX2 630 1.15008815 -19.41891396 1.39908761
VERTEX2 631 1.22860390 -18.88500175 1.41914576
VERTEX2 632 1.23236858 -18.86408228 2.09490769
VERTEX2 633 1.14030026 -18.85688613 -3.10213281
VERTEX2 634 0.47794167 -18.88719141 -3.07477223
VERTEX2 635 -0.16977217 -18.89169601 3.07334439
VERTEX2 636 -0.81415819 -18.85683859 3.05566524
VERTEX2 637 -1.44424854 -18.77615422 2.95625013
VERTEX2 638 -1.82485228 -18.69457477 2.92660739
VERTEX2 639 -2.43164755 -18.58582581 3.00698237
VERTEX2 640 -3.04261524 -18.47086255 2.93914241
VERTEX2 641 -3.63902531 -18.35441507 2.93087586
VERTEX2 642 -4.21117065 -18.21199616 2.88562816
VERTEX2 643 -4.69069785 -18.07123860 2.81844715
VERTEX2 644 -4.69345762 -18.07183517 -2.70794957
VERTEX2 645 -4.73080395 -18.21210232 -1.93117066
VERTEX2 646 -4.87438993 -18.82162355 -1.63596725
VERTEX2 647 -4.83736475 -19.46673862 -1.34729586
VERTEX2 648 -4.62122908 -20.09243037 -1.18091264
VERTEX2 649 -4.45414597 -20.69081222 -1.51841328
VERTEX2 650 -4.56025379 -21.31342271 -1.77571743
VERTEX2 651 -4.57842857 -21.45285270 -0.97718375
VERTEX2 652 -4.51645816 -21.48155448 0.04827662
VERTEX2 653 -4.46748091 -21.43851053 1.07916045
VERTEX2 654 -4.47344879 -21.13878000 1.59258496
VERTEX2 655 -4.47810890 -20.58677222 1.58785547
VERTEX2 656 -4.47121374 -19.98616411 1.57550893
VERTEX2 657 -4.57180941 -19.37538065 1.85260965
VERTEX2 658 -4.75547475 -18.75865373 1.84560710
VERTEX2 659 -4.86519412 -18.26744875 1.77445207
VERTEX2 660 -4.86752604 -18.25523386 2.37457124
VERTEX2 661 -5.04602467 -18.23395478 3.02801028
VERTEX2 662 -5.63791883 -18.16965559 3.09726944
VERTEX2 663 -6.22508933 -18.17888062 -3.08527413
VERTEX2 664 -6.23285382 -18.17680298 -2.56157163
VERTEX2 665 -6.24963525 -18.27757505 -1.72577617
VERTEX2 666 -6.32471978 -18.87809033 -1.68805283
VERTEX2 667 -6.38467579 -19.43664246 -1.68289168
VERTEX2 668 -6.45063283 -20.02256795 -1.65673062
VERTEX2 669 -6.50169332 -20.64055073 -1.68150079
VERTEX2 670 -6.60280601 -21.24999734 -1.74061257
VERTEX2 671 -6.65043570 -21.53463558 -1.68528147
VERTEX2 672 -6.54628279 -20.95606220 -1.77453387
VERTEX2 673 -6.47924706 -20.69124399 -1.90523508
VERTEX2 674 -6.46652069 -20.67794341 -2.55371309
VERTEX2 675 -6.44173607 -20.67283048 3.12053872
VERTEX2 676 -6.43335078 -20.67778946 2.49687884
VERTEX2 677 -6.42620995 -20.68772704 1.88058830
VERTEX2 678 -6.39772740 -20.47306122 1.43415130
VERTEX2 679 -6.33101753 -19.90398494 1.49637649
VERTEX2 680 -6.35502494 -19.46432118 1.84065326
VERTEX2 681 -6.50146535 -18.87680045 1.81265548
VERTEX2 682 -6.66750520 -18.27447343 1.85981500
VERTEX2 683 -6.75401119 -18.00234339 2.01779326
VERTEX2 684 -6.68101550 -18.07868453 3.09270280
VERTEX2 685 -7.01294860 -18.20571791 -2.74878096
VERTEX2 686 -7.38480119 -18.31302850 -2.89419091
VERTEX2 687 -7.98154077 -18.45304876 -2.92913618
VERTEX2 688 -8.58176463 -18.56218600 -2.94080442
VERTEX2 689 -9.14803764 -18.69079370 -2.91299081
VERTEX2 690 -9.68546456 -18.84972109 -2.83861313
VERTEX2 691 -10.08111944 -18.97370779 -2.86642484
VERTEX2 692 -10.06322413 -18.96610675 -2.33175481
VERTEX2 693 -10.04674251 -19.02110337 -1.29068068
VERTEX2 694 -10.02988225 -19.07410847 -0.45416473
VERTEX2 695 -10.02046115 -19.07156997 0.34836405
VERTEX2 696 -10.01718715 -19.06951703 1.37708533
VERTEX2 697 -10.02565930 -19.09657998 1.12531718
VERTEX2 698 -9.69706529 -18.89177311 0.47259613
VERTEX2 699 -9.14862986 -18.59001748 0.58786905
VERTEX2 700 -8.65947957 -18.24768197 0.64116665
VERTEX2 701 -8.24732410 -17.90558723 0.70004540
VERTEX2 702 -7.79325561 -17.60962421 0.58449727
VERTEX2 703 -7.31060482 -17.29539361 0.61805462
VERTEX2 704 -6.84340610 -16.93701488 0.63548084
VERTEX2 705 -6.33100447 -16.52108465 0.70534864
VERTEX2 706 -5.90633774 -16.21202775 0.43612572
VERTEX2 707 -5.89133686 -16.21135457 -0.08454930
VERTEX2 708 -5.88763738 -16.21351288 -0.72356192
VERTEX2 709 -5.92982102 -16.16730511 -1.05589785
VERTEX2 710 -5.93422381 -16.15562101 -1.61743088
VERTEX2 711 -5.92867980 -16.16073237 -2.21463602
VERTEX2 712 -5.91291786 -16.14891173 -2.77459942
VERTEX2 713 -6.37245912 -16.19423425 -3.05974009
VERTEX2 714 -6.90714926 -16.16587099 3.02599502
VERTEX2 715 -7.53284297 -16.12286328 3.12968211
VERTEX2 716 -8.16604981 -16.09474925 2.99174609
VERTEX2 717 -8.78610200 -16.02096664 3.07660159
VERTEX2 718 -9.54664074 -15.89509528 2.90135809
VERTEX2 719 -10.16204730 -15.77402866 2.97594980
VERTEX2 720 -10.77334097 -15.65597759 2.91687733
VERTEX2 721 -11.38097493 -15.53660645 2.98497993
VERTEX2 722 -11.39093348 -15.53510637 3.05178609
VERTEX2 723 -11.41234585 -15.55680348 -2.14100070
VERTEX2 724 -11.41287509 -15.60457236 -1.07175404
VERTEX2 725 -11.38230426 -15.62549171 -0.43717200
VERTEX2 726 -11.05969082 -15.62430006 0.01768354
VERTEX2 727 -10.42496713 -15.59145816 0.04876187
VERTEX2 728 -9.78753830 -15.57262372 0.05047452
VERTEX2 729 -9.15253526 -15.51745479 0.10848921
VERTEX2 730 -8.53205484 -15.43030364 0.14636074
VERTEX2 731 -7.88223187 -15.33339264 0.15959511
VERTEX2 732 -7.73816299 -15.30515367 0.60825805
VERTEX2 733 -7.74589529 -15.29253293 1.60879341
VERTEX2 734 -7.80721847 -14.71708855 1.68804893
VERTEX2 735 -7.87140878 -14.09538697 1.65706618
VERTEX2 736 -7.87358989 -14.06480883 2.25915649
VERTEX2 737 -7.87084508 -14.06513924 3.06316848
VERTEX2 738 -8.45221446 -14.02916545 3.08332151
VERTEX2 739 -9.06017027 -13.93950459 3.02622354
VERTEX2 740 -9.56435260 -13.90484156 3.08943190
VERTEX2 741 -9.55463947 -13.90462982 2.72021153
VERTEX2 742 -9.53984032 -13.91476908 2.06539797
VERTEX2 743 -9.53704553 -13.92680882 1.44639905
VERTEX2 744 -9.53397032 -13.91961937 0.90507451
VERTEX2 745 -9.51861813 -13.91152036 0.30947527
VERTEX2 746 -8.96535211 -13.92956674 -0.16733131
VERTEX2 747 -8.30675556 -14.04711667 -0.20344986
VERTEX2 748 -7.72189043 -14.19278912 -0.27261818
VERTEX2 749 -7.63025047 -14.21577459 0.15508636
VERTEX2 750 -7.63058447 -14.21634513 1.07941478
VERTEX2 751 -7.66073306 -13.96862326 1.71769349
VERTEX2 752 -7.71260964 -13.36751114 1.61346547
VERTEX2 753 -7.74446019 -12.75092310 1.67582838
VERTEX2 754 -7.74683186 -12.13273176 1.51270673
VERTEX2 755 -7.72317916 -11.49739004 1.59986973
VERTEX2 756 -7.68109858 -10.85963240 1.42484618
VERTEX2 757 -7.60469347 -10.23007164 1.53640358
VERTEX2 758 -7.62161737 -9.66364553 1.67808623
VERTEX2 759 -7.60852462 -9.13133839 1.55647312
VERTEX2 760 -7.64108527 -8.55098078 1.66792334
VERTEX2 761 -7.64154917 -8.54416691 1.84838381
VERTEX2 762 -7.71088431 -8.51236268 2.68068052
VERTEX2 763 -8.27848185 -8.40472552 2.97333991
VERTEX2 764 -8.69627118 -8.32908262 2.94573890
VERTEX2 765 -8.68672491 -8.32900844 -2.69817377
VERTEX2 766 -8.69262519 -8.34747519 -1.69808261
VERTEX2 767 -8.68322373 -8.37210320 -0.76743787
VERTEX2 768 -8.66080925 -8.37374108 -0.04521380
VERTEX2 769 -8.03138233 -8.29353489 0.11167150
VERTEX2 770 -7.38473942 -8.24300546 0.04457177
VERTEX2 771 -7.30277013 -8.23713130 0.60512346
VERTEX2 772 -7.30431855 -8.24188659 1.47277291
VERTEX2 773 -7.27414086 -7.67413634 1.55887240
VERTEX2 774 -7.28004727 -7.13749818 1.58123607
VERTEX2 775 -7.27702477 -7.15129078 2.42700008
VERTEX2 776 -7.48517758 -7.12377370 3.04366714
VERTEX2 777 -8.09766960 -7.07530530 3.10235809
VERTEX2 778 -8.70435384 -7.05767877 3.08099989
VERTEX2 779 -9.31204126 -7.02919290 3.09860719
VERTEX2 780 -9.51170811 -7.00926751 2.96775222
VERTEX2 781 -9.49898138 -7.01406105 2.39311280
VERTEX2 782 -9.61701565 -6.75060281 1.96254598
VERTEX2 783 -9.83750750 -6.18387607 1.96146251
VERTEX2 784 -9.92818679 -5.96589781 1.93963662
VERTEX2 785 -9.92846568 -5.94901303 1.38555643
VERTEX2 786 -9.92260250 -5.93113452 0.79501033
VERTEX2 787 -9.90970625 -5.91855755 0.30238133
VERTEX2 788 -9.88351362 -5.92102591 -0.32909032
VERTEX2 789 -9.88101152 -5.92311442 -0.88034866
VERTEX2 790 -9.59050960 -6.31991780 -0.94715699
VERTEX2 791 -9.20443314 -6.80597053 -0.84808413
VERTEX2 792 -8.97779442 -7.01901562 -0.14253552
VERTEX2 793 -8.37212842 -7.08685846 -0.09719335
VERTEX2 794 -7.74195533 -7.13196887 -0.02532007
VERTEX2 795 -7.77850928 -7.15754772 0.40533614
VERTEX2 796 -7.77176236 -7.15483828 1.06743600
VERTEX2 797 -7.69077753 -6.84724219 1.32900776
VERTEX2 798 -7.54120810 -6.21548468 1.38035673
VERTEX2 799 -7.44077923 -5.56506407 1.44735549
VERTEX2 800 -7.37452706 -4.91220605 1.52157882
VERTEX2 801 -7.37582569 -4.28864111 1.60790819
VERTEX2 802 -7.41985695 -3.66995001 1.66594093
VERTEX2 803 -7.39324464 -3.04211297 1.50130875
VERTEX2 804 -7.36373954 -2.41564083 1.55719812
VERTEX2 805 -7.38758108 -1.78419667 1.63342577
VERTEX2 806 -7.43863547 -1.18379918 1.67474658
VERTEX2 807 -7.46537026 -0.98047254 1.96283662
VERTEX2 808 -7.47439438 -0.98011410 2.91113621
VERTEX2 809 -8.06989151 -0.94057501 3.05587615
VERTEX2 810 -8.69191423 -0.80507371 2.91585236
VERTEX2 811 -9.28583807 -0.68520529 2.91258371
VERTEX2 812 -9.28452490 -0.68551962 -2.63879357
VERTEX2 813 -9.30105975 -0.72072022 -1.66347533
VERTEX2 814 -9.28655155 -0.73261217 -0.67123134
VERTEX2 815 -9.25699462 -0.74312094 0.24807430
VERTEX2 816 -9.25476686 -0.74192147 0.92925919
VERTEX2 817 -9.25046442 -0.73927701 0.26052384
VERTEX2 818 -9.02597610 -0.77722860 -0.22830450
VERTEX2 819 -8.43160845 -0.91583293 -0.21405832
VERTEX2 820 -7.83481939 -1.05853540 -0.25513174
VERTEX2 821 -7.28534911 -1.19954811 -0.23915811
VERTEX2 822 -7.22968833 -1.20884396 0.52350777
VERTEX2 823 -7.22993823 -1.20983885 1.44423466
VERTEX2 824 -7.16026273 -0.60354519 1.36477651
VERTEX2 825 -7.01230267 0.00270405 1.33498179
VERTEX2 826 -6.94796181 0.62681559 1.49754277
VERTEX2 827 -6.87607304 1.24597322 1.44894269
VERTEX2 828 -6.81376775 1.87265206 1.48452617
VERTEX2 829 -6.74517132 2.47322052 1.44463307
VERTEX2 830 -6.66228063 3.08109210 1.43629455
VERTEX2 831 -6.56054584 3.65720810 1.38949056
VERTEX2 832 -6.46293727 4.21904633 1.38592601
VERTEX2 833 -6.41559488 4.47391317 1.52358892
VERTEX2 834 -6.41701261 4.47918858 2.57827106
VERTEX2 835 -6.42596676 4.48033048 -2.92723171
VERTEX2 836 -6.43618487 4.47191706 -1.98415100
VERTEX2 837 -6.43280030 4.45196098 -0.94777038
VERTEX2 838 -6.42246128 4.44533600 -0.08663810
VERTEX2 839 -6.42287874 4.44554490 -0.30534873
VERTEX2 840 -6.41349374 4.43797039 -0.86873750
VERTEX2 841 -6.40447147 4.41910195 -1.48439460
VERTEX2 842 -6.43414818 4.17281654 -1.71441219
VERTEX2 843 -6.51975353 3.60940880 -1.71642604
VERTEX2 844 -6.60282466 2.98382511 -1.72394697
VERTEX2 845 -6.70410843 2.35910724 -1.73818465
VERTEX2 846 -6.79724056 1.72994786 -1.73600138
VERTEX2 847 -6.91393035 1.11277038 -1.76266258
VERTEX2 848 -6.94690565 0.91735809 -1.28192190
VERTEX2 849 -6.94272974 0.91576509 -0.35921788
VERTEX2 850 -6.58401304 0.90860480 -0.00556814
VERTEX2 851 -5.95699824 0.87670690 -0.09799902
VERTEX2 852 -5.33899372 0.81037508 -0.08389588
VERTEX2 853 -4.75021519 0.76267295 -0.11215384
VERTEX2 854 -4.16958375 0.68982478 -0.11048561
VERTEX2 855 -3.58093675 0.63341564 -0.11263515
VERTEX2 856 -2.94082873 0.54257294 -0.15345685
VERTEX2 857 -2.30194194 0.44803953 -0.16313895
VERTEX2 858 -1.66994300 0.32170098 -0.21781346
VERTEX2 859 -1.16559827 0.21496612 -0.22482450
VERTEX2 860 -1.14851738 0.22177683 0.62526829
VERTEX2 861 -1.13100939 0.33530592 1.53916669
VERTEX2 862 -1.08431489 0.99901637 1.47930284
VERTEX2 863 -1.01912904 1.63975581 1.44705572
VERTEX2 864 -0.92506830 2.24553791 1.44513255
VERTEX2 865 -0.87652058 2.85389806 1.50293868
VERTEX2 866 -0.82535516 3.43107339 1.50198602
VERTEX2 867 -0.81629428 3.58698579 1.68342938
VERTEX2 868 -0.82493680 3.59824688 2.70755329
VERTEX2 869 -0.82364310 3.59817239 -2.59691887
VERTEX2 870 -0.81273453 3.60386707 -1.59707706
VERTEX2 871 -0.80244303 3.59672590 -0.62303922
VERTEX2 872 -0.78804160 3.58609259 0.06244643
VERTEX2 873 -0.76417422 3.57785946 -0.50957451
VERTEX2 874 -0.74583225 3.56095368 -1.06864765
VERTEX2 875 -0.74086055 3.54895507 -1.65461163
VERTEX2 876 -0.86578024 2.99564477 -1.81189859
VERTEX2 877 -1.02265465 2.45647419 -1.89630051
VERTEX2 878 -1.07462124 2.25865470 -1.51289105
VERTEX2 879 -0.97940683 1.62185160 -1.46161176
VERTEX2 880 -0.94779902 1.17489400 -1.57401526
VERTEX2 881 -0.94777322 1.22694171 -1.56844049
VERTEX2 882 -1.00923817 0.58982403 -1.81458121
VERTEX2 883 -1.23068715 -0.00573538 -2.00582563
VERTEX2 884 -1.39350658 -0.33953353 -2.07317789
VERTEX2 885 -1.39353664 -0.33810727 -1.49222866
VERTEX2 886 -1.37901257 -0.35196282 -0.47646640
VERTEX2 887 -1.34757552 -0.36459883 0.53562362
VERTEX2 888 -1.33227567 -0.33340624 1.51677272
VERTEX2 889 -1.33341024 -0.33004095 2.41413653
VERTEX2 890 -1.63063600 -0.18097785 2.68780815
VERTEX2 891 -2.14827402 0.08594293 2.61738071
VERTEX2 892 -2.67104471 0.40957712 2.58169717
VERTEX2 893 -3.21264716 0.70998458 2.81785689
VERTEX2 894 -3.81304014 0.82838675 3.03881629
VERTEX2 895 -4.40006859 0.78945987 -2.94619707
VERTEX2 896 -4.41789186 0.78547828 -2.46799940
VERTEX2 897 -4.71083392 0.36540208 -2.19595966
VERTEX2 898 -5.06514394 -0.12919434 -2.18075811
VERTEX2 899 -5.35277776 -0.52560318 -2.24876330
VERTEX2 900 -5.77075373 -1.05487281 -2.25129387
VERTEX2 901 -6.14578414 -1.48650251 -2.31574042
VERTEX2 902 -6.56654838 -1.96453386 -2.29048014
VERTEX2 903 -6.88477556 -2.33189089 -2.33514578
VERTEX2 904 -6.88464383 -2.33177456 -1.63172237
VERTEX2 905 -6.87980823 -2.81424192 -1.57613193
VERTEX2 906 -6.85736056 -3.37219548 -1.51082964
VERTEX2 907 -6.81349075 -3.93260831 -1.51928664
VERTEX2 908 -6.77914190 -4.54554743 -1.49469348
VERTEX2 909 -6.73072986 -5.14868809 -1.51276917
VERTEX2 910 -6.75814418 -5.26619442 -1.88272985
VERTEX2 911 -6.92762567 -5.82781674 -1.82127983
VERTEX2 912 -7.05681709 -6.38438379 -1.80800754
VERTEX2 913 -7.17587577 -6.91612076 -1.79977451
VERTEX2 914 -7.30936634 -7.49389926 -1.82313011
VERTEX2 915 -7.43756679 -7.98950098 -1.85939761
VERTEX2 916 -7.38048181 -8.21999240 -1.31109896
VERTEX2 917 -7.25325545 -8.85536027 -1.56505841
VERTEX2 918 -7.27922312 -9.35420492 -1.64027960
VERTEX2 919 -7.31940847 -9.95842163 -1.68332475
VERTEX2 920 -7.38914205 -10.55194075 -1.70067402
VERTEX2 921 -7.46726037 -11.14636836 -1.75378404
VERTEX2 922 -7.57315182 -11.72824871 -1.78079781
VERTEX2 923 -7.69510689 -12.27198617 -1.84407086
VERTEX2 924 -7.82841168 -12.74541320 -1.82767895
VERTEX2 925 -7.83158798 -12.72897788 -1.32253746
VERTEX2 926 -7.68162402 -13.28169463 -1.30616608
VERTEX2 927 -7.52506755 -13.86304233 -1.32930653
VERTEX2 928 -7.37346806 -14.46209303 -1.33784908
VERTEX2 929 -7.23022011 -15.04845707 -1.33870300
VERTEX2 930 -7.08916355 -15.67741245 -1.42132017
VERTEX2 931 -7.00919629 -16.29779576 -1.50171178
VERTEX2 932 -6.96908864 -16.91605344 -1.56143298
VERTEX2 933 -6.97095346 -17.51993264 -1.62638190
VERTEX2 934 -6.98972605 -17.98894180 -1.63633674
VERTEX2 935 -6.98751853 -17.99978760 -0.95441118
VERTEX2 936 -6.98431342 -18.00095881 -0.00961732
VERTEX2 937 -6.44262299 -17.98309960 0.05316702
VERTEX2 938 -5.84613328 -18.00768089 -0.12030625
VERTEX2 939 -5.22131279 -18.07668504 -0.09259467
VERTEX2 940 -4.60836622 -18.15947850 -0.17843206
VERTEX2 941 -4.00427395 -18.28241387 -0.23212136
VERTEX2 942 -3.48690306 -18.40453638 -0.22770461
VERTEX2 943 -2.88329916 -18.54521773 -0.13907369
VERTEX2 944 -2.27419471 -18.63541999 -0.19548365
VERTEX2 945 -1.66051499 -18.77049594 -0.25054555
VERTEX2 946 -1.49073649 -18.81614838 -0.18601631
VERTEX2 947 -1.08558594 -18.75910885 0.14240529
VERTEX2 948 -0.51748014 -18.67798380 0.12330457
VERTEX2 949 0.07984035 -18.65150385 -0.03231666
VERTEX2 950 0.70317512 -18.69537244 -0.27180247
VERTEX2 951 1.29662223 -18.87410832 -0.34392894
VERTEX2 952 1.88971967 -19.05579136 -0.09312187
VERTEX2 953 2.51264808 -19.09510681 -0.01283806
VERTEX2 954 3.13386175 -19.09534451 -0.01953478
VERTEX2 955 3.71825304 -19.14727992 -0.17993743
VERTEX2 956 4.26299965 -19.23101212 -0.18194879
VERTEX2 957 4.78756368 -19.33165202 -0.26931640
VERTEX2 958 5.24526033 -19.44636980 -0.29574208
VERTEX2 959 5.66515111 -19.56520576 -0.36249174
VERTEX2 960 6.25111443 -19.73381540 -0.28246235
VERTEX2 961 6.82931520 -19.91353226 -0.30939254
VERTEX2 962 7.44392414 -20.04801017 -0.24367129
VERTEX2 963 8.05184891 -20.13373913 -0.05676835
VERTEX2 964 8.66507033 -20.18063281 -0.12052457
VERTEX2 965 9.27372597 -20.26444063 -0.12730052
VERTEX2 966 9.71486678 -20.32690887 -0.18631992
VERTEX2 967 9.74412974 -20.32124412 0.66694105
VERTEX2 968 9.74793084 -20.31770226 1.56351895
VERTEX2 969 9.75046849 -20.35083717 1.62292527
VERTEX2 970 9.75292075 -20.38429425 1.62113843
VERTEX2 971 9.73558569 -20.05635224 1.62121048
VERTEX2 972 9.70149953 -19.46565186 1.62687648
VERTEX2 973 9.78604489 -18.88173001 1.34190286
VERTEX2 974 9.93047434 -18.27936326 1.37369464
VERTEX2 975 10.04704101 -17.67235307 1.37824581
VERTEX2 976 10.15688899 -17.06256201 1.39106426
VERTEX2 977 10.29677755 -16.44591615 1.36471984
VERTEX2 978 10.42195094 -15.83501869 1.41057023
VERTEX2 979 10.54099045 -15.22773436 1.39812856
VERTEX2 980 10.64304524 -14.62285819 1.44481062
VERTEX2 981 10.73439053 -14.04169316 1.45162937
VERTEX2 982 10.79409435 -13.51506365 1.49614154
VERTEX2 983 10.84774203 -12.91799874 1.49249782
VERTEX2 984 10.87919297 -12.32549355 1.54968880
VERTEX2 985 10.89481315 -11.73280296 1.56942929
VERTEX2 986 10.88557282 -11.11375054 1.60509823
VERTEX2 987 10.87892882 -10.48977949 1.56777430
VERTEX2 988 10.88840519 -9.87064476 1.58156896
VERTEX2 989 10.88052685 -9.25906880 1.58909291
VERTEX2 990 10.88049376 -8.65084677 1.57820577
VERTEX2 991 10.87217244 -8.03908152 1.60294261
VERTEX2 992 10.87376239 -7.45530311 1.57027915
VERTEX2 993 10.86718381 -6.84205535 1.60297624
VERTEX2 994 10.85809366 -6.26204938 1.59356370
VERTEX2 995 10.83483627 -5.71384891 1.64149719
VERTEX2 996 10.78514893 -5.14706173 1.66913896
VERTEX2 997 10.74923452 -4.54213030 1.60524007
VERTEX2 998 10.73548331 -4.19042097 1.62797420
VERTEX2 999 10.78970879 -4.23496375 2.34842565
VERTEX2 1000 10.35424086 -3.89407014 2.49807225
VERTEX2 1001 9.94296617 -3.51775328 2.17824527
VERTEX2 1002 9.60355686 -3.07984026 2.27155816
VERTEX2 1003 9.28032571 -2.61750842 2.09257136
VERTEX2 1004 8.94692588 -2.08676263 2.15092879
VERTEX2 1005 8.59687825 -1.59576695 2.21307646
VERTEX2 1006 8.20425464 -1.11970664 2.29009547
VERTEX2 1007 7.79400149 -0.69425596 2.38131671
VERTEX2 1008 7.55965731 -0.47922184 2.54028502
VERTEX2 1009 7.45736335 -0.46335250 3.01154294
VERTEX2 1010 6.89704867 -0.40656426 3.06450668
VERTEX2 1011 6.28424152 -0.36499882 3.02113779
VERTEX2 1012 5.67867463 -0.29951884 3.06272415
VERTEX2 1013 5.04385871 -0.29903137 -3.10594793
VERTEX2 1014 4.43432850 -0.24800854 3.00135190
VERTEX2 1015 3.81250979 -0.20511396 3.08526737
VERTEX2 1016 3.04327055 -0.16327828 3.09196233
VERTEX2 1017 2.46024783 -0.14575569 3.03442477
VERTEX2 1018 1.90776802 -0.08000705 3.04152957
VERTEX2 1019 1.31713155 -0.05085248 3.10083251
VERTEX2 1020 0.70654773 -0.00998741 3.08662663
VERTEX2 1021 0.08925729 0.02417365 3.04565368
VERTEX2 1022 0.03983050 0.02874092 3.03807524
VERTEX2 1023 0.04988980 0.02843940 3.12425946
VERTEX2 1024 -0.57392017 0.04212094 -3.13300165
VERTEX2 1025 -1.20114705 0.01794064 -3.11587342
VERTEX2 1026 -1.36024252 0.01428920 -3.10914428
VERTEX2 1027 -1.34697945 0.02059744 -2.19231640
VERTEX2 1028 -1.36249771 -0.15045337 -1.62865538
VERTEX2 1029 -1.39802985 -0.72110039 -1.65012677
VERTEX2 1030 -1.46828335 -1.33729105 -1.73072546
VERTEX2 1031 -1.58781611 -1.97708016 -1.78503811
VERTEX2 1032 -1.72527221 -2.61674970 -1.78113389
VERTEX2 1033 -1.87822815 -3.26208783 -1.82542978
VERTEX2 1034 -1.92586864 -3.43609441 -2.03801667
VERTEX2 1035 -1.94231260 -3.44961232 -2.65510213
VERTEX2 1036 -1.92851182 -3.45608732 3.05943755
VERTEX2 1037 -2.28108729 -3.31975400 2.82221698
VERTEX2 1038 -2.90676513 -3.19214831 2.91431885
VERTEX2 1039 -3.55889968 -3.01691611 2.88355321
VERTEX2 1040 -3.54949141 -3.01715312 -2.76747877
VERTEX2 1041 -3.28952082 -3.07387873 -1.91833494
VERTEX2 1042 -3.29498745 -3.09821839 -0.92603480
VERTEX2 1043 -3.27331689 -3.12586039 0.04788379
VERTEX2 1044 -3.28783465 -3.13832506 1.04604010
VERTEX2 1045 -3.28945006 -3.14078713 0.93400955
VERTEX2 1046 -3.29692456 -3.14815744 0.55157166
VERTEX2 1047 -3.30537556 -3.15039452 -0.00028124
VERTEX2 1048 -2.94396786 -3.27587229 -0.31048931
VERTEX2 1049 -2.30617495 -3.46898284 -0.29166510
VERTEX2 1050 -1.66226729 -3.63326503 -0.21411974
VERTEX2 1051 -1.02731932 -3.79622663 -0.29251853
VERTEX2 1052 -0.42902785 -3.95965369 -0.23870485
VERTEX2 1053 -0.03162172 -4.06823196 -0.29052568
VERTEX2 1054 -0.01664963 -4.07189116 0.47563540
VERTEX2 1055 -0.00582779 -4.04072125 1.54483428
VERTEX2 1056 -0.00726285 -4.03736229 2.55771368
VERTEX2 1057 0.00250701 -4.03949885 -2.73114352
VERTEX2 1058 -0.01090040 -4.05220336 -1.80580231
VERTEX2 1059 -0.17184157 -4.63002196 -1.88564679
VERTEX2 1060 -0.37640314 -5.25150364 -1.87981542
VERTEX2 1061 -0.53243365 -5.69360020 -2.00127815
VERTEX2 1062 -0.60096353 -5.77759945 -2.57028398
VERTEX2 1063 -0.68195712 -5.81272931 3.10836390
VERTEX2 1064 -1.00930806 -5.71256202 2.83934408
VERTEX2 1065 -1.64728629 -5.56612197 2.95800475
VERTEX2 1066 -2.16846156 -5.45163313 2.90388891
VERTEX2 1067 -2.11679832 -5.45491851 -2.94292055
VERTEX2 1068 -2.06092149 -5.42435592 -2.26507030
VERTEX2 1069 -2.04145202 -5.38517027 -2.09224972
VERTEX2 1070 -2.01865252 -5.35307822 -2.62655279
VERTEX2 1071 -2.47879959 -5.54428592 -2.75123304
VERTEX2 1072 -2.91070194 -5.71467067 -2.81725545
VERTEX2 1073 -2.85037577 -5.71886788 2.96006511
VERTEX2 1074 -3.34583644 -5.60309459 2.92824766
VERTEX2 1075 -3.88109216 -5.48113230 2.94763644
VERTEX2 1076 -3.88700562 -5.48030626 -2.92880854
VERTEX2 1077 -3.88579637 -5.47863389 -2.11774961
VERTEX2 1078 -4.16229453 -6.05046995 -2.07111105
VERTEX2 1079 -4.42866569 -6.58016623 -2.00747717
VERTEX2 1080 -4.42591311 -6.57417733 -2.49172229
VERTEX2 1081 -4.85252547 -6.82268928 -2.61333138
VERTEX2 1082 -5.00262839 -6.91259681 -2.33023725
VERTEX2 1083 -5.00054604 -6.94333355 -1.29149489
VERTEX2 1084 -4.89277321 -7.00687192 -0.32064467
VERTEX2 1085 -4.92120778 -7.01239279 0.65789881
VERTEX2 1086 -4.56394253 -6.58396692 0.88676488
VERTEX2 1087 -4.18565350 -6.13919680 0.87366639
VERTEX2 1088 -3.82462490 -5.69074030 0.85595063
VERTEX2 1089 -3.76883419 -5.62743870 0.75981512
VERTEX2 1090 -3.76251434 -5.62238008 0.14320732
VERTEX2 1091 -3.22427115 -5.62629604 -0.03440201
VERTEX2 1092 -2.60281374 -5.65289681 -0.04998997
VERTEX2 1093 -2.03239537 -5.69471278 -0.11554620
VERTEX2 1094 -2.01824022 -5.71018352 -0.52170856
VERTEX2 1095 -1.98754957 -5.74153275 -1.11411888
VERTEX2 1096 -1.98713513 -5.74441606 -1.68796927
VERTEX2 1097 -2.09518667 -6.06369559 -1.90499689
VERTEX2 1098 -2.31826219 -6.64608623 -1.96305044
VERTEX2 1099 -2.57174136 -7.19526461 -2.06173850
VERTEX2 1100 -2.58150718 -7.21509536 -1.70268360
VERTEX2 1101 -2.54443376 -7.49283680 -1.43946124
VERTEX2 1102 -2.54775034 -7.51193661 -1.83643673
VERTEX2 1103 -2.73391279 -8.11692451 -1.87201110
VERTEX2 1104 -2.93447546 -8.74667980 -1.90148168
VERTEX2 1105 -3.15227636 -9.36032686 -1.92112071
VERTEX2 1106 -3.32792706 -9.83191476 -1.94812607
VERTEX2 1107 -3.32817483 -9.85056277 -1.69466007
VERTEX2 1108 -3.36308443 -10.48716684 -1.68832049
VERTEX2 1109 -3.48647659 -11.13294834 -1.79404587
VERTEX2 1110 -3.62932684 -11.74042807 -1.84538612
VERTEX2 1111 -3.86098494 -12.25741922 -1.94868496
VERTEX2 1112 -3.96216519 -12.84087177 -1.60527958
VERTEX2 1113 -4.00134554 -13.49193084 -1.70266040
VERTEX2 1114 -4.08315557 -14.11535409 -1.68734407
VERTEX2 1115 -4.14927520 -14.70703929 -1.70526473
VERTEX2 1116 -4.21453387 -15.36133421 -1.67072589
VERTEX2 1117 -4.22420607 -15.46755685 -1.80054808
VERTEX2 1118 -4.22607577 -15.47019015 -2.41197646
VERTEX2 1119 -4.21808907 -15.46605655 -2.84695872
VERTEX2 1120 -4.80209621 -15.59742276 -2.91243344
VERTEX2 1121 -4.99794924 -15.63875339 -3.03307597
VERTEX2 1122 1.58127130 -11.41344019 -1.51299415
VERTEX2 1123 1.60651929 -12.00511556 -1.49786832
VERTEX2 1124 1.68718768 -12.58411539 -1.40122659
VERTEX2 1125 1.79415494 -13.22547449 -1.38950776
VERTEX2 1126 1.81294526 -13.31721989 -1.05291116
VERTEX2 1127 -5.73470854 -14.56034007 -1.89301290
VERTEX2 1128 -5.73521307 -14.56319755 -0.91327129
VERTEX2 1129 -5.72811305 -14.56696099 0.09504396
VERTEX2 1130 -5.15407795 -14.49451041 0.10698349
VERTEX2 1131 -4.39207887 -14.60694731 -0.32834359
VERTEX2 1132 -3.79129743 -14.81430011 -0.34974694
VERTEX2 1133 -3.25415154 -15.03340593 -0.39020458
VERTEX2 1134 -3.01195160 -15.13335959 -0.48916691
VERTEX2 1135 -3.00758005 -15.13762082 -1.04918883
VERTEX2 1136 -3.01043666 -15.14353701 -1.61516412
VERTEX2 1137 -3.06671079 -15.44960038 -1.80142745
VERTEX2 1138 -3.22774557 -16.08602568 -1.81929131
VERTEX2 1139 -3.35016456 -16.57615383 -1.89246225
VERTEX2 1140 -3.33996305 -16.55235940 -2.37157734
VERTEX2 1141 -3.31810610 -16.53154203 -2.91861050
VERTEX2 1142 -3.68029138 -16.48446380 3.00025252
VERTEX2 1143 -4.27759628 -16.43145055 3.08963638
VERTEX2 1144 -4.85804178 -16.39089339 3.05899158
VERTEX2 1145 -5.43582409 -16.33902497 3.03348215
VERTEX2 1146 -6.01378045 -16.27549395 3.05284520
VERTEX2 1147 -6.59048420 -16.25873462 3.12578826
VERTEX2 1148 -7.16916319 -16.24926943 3.13594985
VERTEX2 1149 -7.21217276 -16.25006639 -2.64868915
VERTEX2 1150 -7.29697426 -16.34083190 -1.85184994
VERTEX2 1151 -7.80153986 -14.05950061 -0.72949187
VERTEX2 1152 -7.75573115 -14.05610067 0.30377745
VERTEX2 1153 -7.72996497 -14.04218059 1.29764524
VERTEX2 1154 -7.79778738 -13.76330741 1.83316137
VERTEX2 1155 -7.94896909 -13.17716513 1.77916234
VERTEX2 1156 -8.06274447 -12.60658605 1.78501269
VERTEX2 1157 -8.20038669 -12.07452928 1.89067995
VERTEX2 1158 -7.78379772 -13.68097604 1.72326525
VERTEX2 1159 -7.83565699 -13.09513771 1.62803548
VERTEX2 1160 -7.84939773 -12.47078207 1.49014131
VERTEX2 1161 -7.74174174 -11.84844284 1.39955612
VERTEX2 1162 -7.64266294 -11.23138154 1.45688805
VERTEX2 1163 -7.57145414 -10.60474874 1.45084438
VERTEX2 1164 -7.51397159 -9.98082032 1.53573278
VERTEX2 1165 -7.49535802 -9.43939107 1.51268906
VERTEX2 1166 -7.49641728 -9.43382315 2.00116303
VERTEX2 1167 -7.44415360 -9.42193523 2.93687663
VERTEX2 1168 -7.39874170 -9.40469731 -2.44374692
VERTEX2 1169 -7.40271182 -9.44759275 -1.62152549
VERTEX2 1170 -7.42228459 -10.02722542 -1.61428340
VERTEX2 1171 -7.43195732 -10.64999240 -1.58204351
VERTEX2 1172 -7.44514105 -11.23683060 -1.64394016
VERTEX2 1173 -7.48357959 -11.84840628 -1.63428994
VERTEX2 1174 -7.53549596 -12.46522677 -1.70239778
VERTEX2 1175 -7.62909053 -13.07032378 -1.73546017
VERTEX2 1176 -7.73296428 -13.67619440 -1.77951584
VERTEX2 1177 -7.85869322 -14.27046128 -1.77777432
VERTEX2 1178 -7.99696214 -14.87370575 -1.82526355
VERTEX2 1179 -8.14169030 -15.46888004 -1.79615187
VERTEX2 1180 -8.19795196 -15.71438868 -1.80334650
VERTEX2 1181 -8.19566655 -15.69954288 -0.97676305
VERTEX2 1182 -8.14208256 -15.71401390 -0.26435810
VERTEX2 1183 -7.53203586 -15.87085156 -0.23888572
VERTEX2 1184 -6.90142151 -15.99396200 -0.16923968
VERTEX2 1185 -6.27555752 -16.11251837 -0.20145766
VERTEX2 1186 -5.64554189 -16.21568829 -0.13529191
VERTEX2 1187 -4.99278232 -16.30978622 -0.17246691
VERTEX2 1188 -4.36685091 -16.40796539 -0.15449509
VERTEX2 1189 -3.77020098 -16.51453223 -0.13310460
VERTEX2 1190 -3.50552440 -16.55074319 -0.12534468
VERTEX2 1191 -3.54268567 -16.55100741 0.79395884
VERTEX2 1192 -3.53817168 -16.49617386 1.59011556
VERTEX2 1193 -3.52563157 -15.92084918 1.45728412
VERTEX2 1194 -3.48002798 -15.37585856 1.49846389
VERTEX2 1195 -3.44556268 -14.77970015 1.54971262
VERTEX2 1196 -3.43230677 -14.18551441 1.37540202
VERTEX2 1197 -3.32696399 -13.61204228 1.38525513
VERTEX2 1198 -3.25113674 -13.02304696 1.64163646
VERTEX2 1199 -3.25689822 -12.43744778 1.42436922
VERTEX2 1200 -3.19049267 -11.84405998 1.49117292
VERTEX2 1201 -3.15329934 -11.25710383 1.54463577
VERTEX2 1202 -3.14811108 -10.66266604 1.56515899
VERTEX2 1203 -3.16158058 -10.09818948 1.47224711
VERTEX2 1204 -3.03877588 -9.55643180 1.32190173
VERTEX2 1205 -2.92220636 -9.05010997 1.34840159
VERTEX2 1206 -2.82121179 -8.50458369 1.40608885
VERTEX2 1207 -2.66955853 -7.94366459 1.31608915
VERTEX2 1208 -2.53766390 -7.36680002 1.37687981
VERTEX2 1209 -2.42617842 -6.78437783 1.37156472
VERTEX2 1210 -2.33357236 -6.20356135 1.38848297
VERTEX2 1211 -2.16849585 -5.57767177 1.32297744
VERTEX2 1212 -2.01920969 -4.94877590 1.37979749
VERTEX2 1213 -1.92168600 -4.30500399 1.45928224
VERTEX2 1214 -1.81035019 -3.54925868 1.24430572
VERTEX2 1215 -1.62426598 -2.95058466 1.30882842
VERTEX2 1216 -1.55797379 -2.36378407 1.53321541
VERTEX2 1217 -1.51270169 -1.74751039 1.51855939
VERTEX2 1218 -1.48996028 -1.17157772 1.46827631
VERTEX2 1219 -1.43017654 -0.53628864 1.49930177
VERTEX2 1220 -1.41457563 0.03645537 1.59057269
VERTEX2 1221 -1.40893238 0.01651081 1.13876450
VERTEX2 1222 -1.40050351 0.02451098 0.54249056
VERTEX2 1223 -1.38188707 0.02869303 -0.01614862
VERTEX2 1224 -0.79665166 -0.07220539 -0.19844280
VERTEX2 1225 -0.16999044 -0.19468498 -0.18419315
VERTEX2 1226 -0.06593951 -0.21418498 -0.20098941
VERTEX2 1227 -0.06593951 -0.21418498 -0.20165141
