1 19 166 0.00296182 10 
2 19 172 0.00312050 10 
3 25 172 0.00317562 10 
4 25 178 0.00329366 10 
5 32 178 0.00329931 10 
6 32 183 0.00339073 10 
7 44 189 0.00351004 10 
8 44 195 0.00362014 10 
9 50 195 0.00361366 10 
10 50 201 0.00371732 10 
11 50 203 0.00377083 10 
12 61 203 0.00375772 10 
13 61 209 0.00387196 10 
14 67 209 0.00387476 10 
15 67 220 0.00407854 10 
16 81 220 0.00406350 10 
17 81 226 0.00417853 10 
18 87 226 0.00416937 10 
19 87 231 0.00426911 10 
20 94 231 0.00426754 10 
21 226 231 0.00426352 10 
22 94 241 0.00448434 10 
23 101 241 0.00447601 10 
24 101 247 0.00458379 10 
25 107 247 0.00458647 10 
26 107 254 0.00471156 10 
27 114 254 0.00471595 10 
28 107 256 0.00476532 10 
29 114 256 0.00477327 10 
30 107 258 0.00481273 10 
31 114 258 0.00480613 10 
32 121 266 0.00498032 10 
33 126 266 0.00500086 10 
34 126 272 0.00516684 10 
35 132 272 0.00514270 10 
36 132 278 0.00525773 10 
37 138 278 0.00526814 10 
38 138 284 0.00539812 10 
39 151 284 0.00539837 10 
40 151 291 0.00553095 10 
41 151 297 0.00564726 10 
42 157 297 0.00564482 10 
43 163 297 0.00566350 10 
44 166 297 0.00566217 10 
45 19 305 0.00593369 10 
46 157 305 0.00594411 10 
47 163 305 0.00599133 10 
48 166 305 0.00597680 10 
49 172 305 0.00601221 10 
50 19 315 0.00538758 9 
51 25 315 0.00605264 10 
52 172 315 0.00622034 10 
53 172 328 0.00627248 10 
54 19 337 0.00515801 8 
55 25 337 0.00650620 10 
56 172 337 0.00667974 10 
57 19 342 0.00658177 10 
58 25 342 0.00663451 10 
59 172 342 0.00340730 5 
60 178 342 0.00665254 10 
61 25 367 0.00347717 5 
62 32 367 0.00420358 6 
63 178 367 0.00420696 6 
64 183 367 0.00494474 7 
65 25 374 0.00724658 10 
66 32 374 0.00730153 10 
67 178 374 0.00523202 7 
68 183 374 0.00653442 9 
69 32 382 0.00592645 8 
70 183 382 0.00750699 10 
71 32 387 0.00755338 10 
72 183 387 0.00448682 6 
73 189 400 0.00788333 10 
74 189 414 0.00814718 10 
75 44 437 0.00862878 10 
76 195 437 0.00880750 10 
77 44 454 0.00890019 10 
78 189 454 0.00914045 10 
79 44 467 0.00917481 10 
80 50 467 0.00942538 10 
81 195 467 0.00943428 10 
82 195 484 0.00957854 10 
83 44 494 0.00673399 7 
84 50 494 0.00976051 10 
85 195 494 0.00999249 10 
86 201 494 0.01004266 10 
87 50 500 0.00990836 10 
88 201 500 0.01016573 10 
89 203 500 0.01018263 10 
90 61 508 0.01010709 10 
91 203 508 0.01035152 10 
92 209 508 0.01039603 10 
93 61 522 0.01038975 10 
94 203 522 0.01063016 10 
95 209 522 0.01066007 10 
96 61 528 0.01058711 10 
97 67 528 0.01082640 10 
98 81 528 0.01084553 10 
99 209 528 0.01084135 10 
100 220 528 0.01084358 10 
101 67 532 0.00844434 8 
102 81 532 0.01068057 10 
103 220 532 0.01094774 10 
104 67 556 0.01118148 10 
105 67 564 0.01130026 10 
106 81 564 0.01157390 10 
107 220 564 0.01150023 10 
108 67 567 0.01138044 10 
109 81 567 0.01167644 10 
110 220 567 0.01168302 10 
111 67 570 0.01146706 10 
112 81 570 0.01175554 10 
113 220 570 0.01173633 10 
114 81 575 0.01187104 10 
115 220 575 0.01186402 10 
116 81 588 0.01184881 10 
117 87 588 0.01216049 10 
118 226 588 0.01218973 10 
119 87 597 0.01209384 10 
120 94 597 0.01237742 10 
121 226 597 0.01243056 10 
122 87 604 0.01224750 10 
123 94 604 0.01255351 10 
124 94 616 0.00988921 8 
125 94 632 0.01279708 10 
126 94 637 0.01289269 10 
127 101 637 0.01322025 10 
128 101 642 0.01472049 10 
129 107 642 0.01332176 10 
130 101 645 0.01306806 10 
131 107 645 0.01339549 10 
132 101 657 0.01329960 10 
133 101 663 0.01197508 9 
134 107 663 0.01342917 10 
135 114 663 0.01395328 10 
136 101 665 0.01367048 10 
137 107 665 0.01399915 10 
138 114 665 0.01400489 10 
139 107 680 0.01397587 10 
140 107 683 0.01406276 10 
141 114 683 0.01438681 10 
142 107 704 0.01447106 10 
143 114 704 0.01479031 10 
144 107 714 0.01463062 10 
145 114 714 0.01496040 10 
146 107 730 0.01182079 8 
147 114 730 0.01493258 10 
148 121 754 0.01533144 10 
149 126 754 0.01576307 10 
150 121 759 0.01550874 10 
151 126 759 0.01589809 10 
152 126 762 0.01558133 10 
153 132 762 0.01600432 10 
154 132 778 0.01591553 10 
155 132 792 0.01613811 10 
156 132 800 0.01634759 10 
157 138 800 0.01676430 10 
158 138 806 0.01648495 10 
159 138 821 0.01677140 10 
160 138 823 0.01669858 10 
161 151 828 0.01690975 10 
162 151 847 0.01729088 10 
163 151 855 0.01741142 10 
164 151 895 0.01823638 10 
165 151 897 0.01853454 10 
166 138 903 0.01836286 10 
167 138 904 0.01880625 10 
168 132 907 0.01849181 10 
169 138 907 0.01890747 10 
170 132 911 0.01855288 10 
171 121 923 0.01885874 10 
172 126 923 0.01927642 10 
173 107 929 0.01905629 10 
174 114 929 0.01950630 10 
175 107 935 0.01916737 10 
176 114 935 0.01964721 10 
177 101 939 0.01913238 10 
178 107 939 0.01914070 10 
179 101 944 0.01936584 10 
180 94 947 0.01944030 10 
181 101 947 0.01990222 10 
182 87 953 0.01960338 10 
183 94 953 0.02006844 10 
184 226 953 0.02008718 10 
185 81 959 0.01980975 10 
186 87 959 0.02055634 10 
187 220 959 0.02032045 10 
188 226 959 0.02029783 10 
189 67 965 0.01997035 10 
190 81 965 0.02048871 10 
191 220 965 0.02045976 10 
192 61 976 0.02023408 10 
193 67 976 0.02074027 10 
194 209 976 0.02071123 10 
195 50 982 0.02042324 10 
196 61 982 0.02087527 10 
197 201 982 0.02094280 10 
198 203 982 0.02096191 10 
199 44 988 0.02065170 10 
200 50 988 0.02117005 10 
201 195 988 0.02115722 10 
202 201 988 0.01683792 8 
203 44 994 0.02078159 10 
204 189 994 0.02137124 10 
205 195 994 0.02142961 10 
206 32 1003 0.02111827 10 
207 178 1003 0.02161521 10 
208 183 1003 0.02163104 10 
209 25 1008 0.02134253 10 
210 32 1008 0.02176364 10 
211 178 1008 0.02178525 10 
212 183 1008 0.02187929 10 
213 25 1010 0.02141682 10 
214 32 1010 0.02182073 10 
215 172 1010 0.02195747 10 
216 178 1010 0.02195850 10 
217 19 1016 0.02146070 10 
218 166 1016 0.02183149 10 
219 172 1016 0.01956722 9 
220 151 1029 0.02196348 10 
221 157 1029 0.02213821 10 
222 163 1029 0.02216837 10 
223 166 1029 0.02216558 10 
224 132 1084 0.02308147 10 
225 101 1138 0.02395631 10 
226 107 1147 0.02418712 10 
227 114 1147 0.02472740 10 
228 107 1150 0.02420874 10 
229 114 1150 0.02482900 10 
230 114 1158 0.02441713 10 
231 121 1158 0.02504050 10 
232 121 1164 0.02459194 10 
233 126 1164 0.02522112 10 
234 114 1175 0.02493004 10 
235 121 1175 0.02543771 10 
236 923 1175 0.02547214 10 
237 929 1175 0.02542887 10 
238 1158 1175 0.01777011 7 
239 101 1188 0.02511650 10 
240 939 1188 0.02570460 10 
241 1138 1188 0.02575816 10 
242 1147 1188 0.02586796 10 
243 1150 1188 0.02583342 10 
244 1050 1210 0.02568250 10 
245 1061 1210 0.02629259 10 
246 1075 1210 0.02629957 10 
247 1084 1210 0.02630630 10 
248 1088 1210 0.02630103 10 
249 1093 1210 0.02637655 10 
250 1098 1210 0.02640191 10 
251 157 1217 0.02583623 10 
252 163 1217 0.02673337 10 
253 1029 1217 0.02668484 10 
254 1044 1217 0.02675629 10 
255 1050 1217 0.02681462 10 
256 1056 1217 0.02678627 10 
