1 95 132 2 185.53400096 0.00000324 1 
2 79 143 2 225.20252292 0.00000253 1 
3 19 166 0 0.41485034 0.00210863 5 
4 19 172 0 0.02820697 0.00186283 4 
5 25 172 0 0.50366199 0.00187641 4 
6 25 178 0 0.30831851 0.00197037 4 
7 32 178 0 0.01493521 0.00198398 4 
8 32 183 0 0.07055611 0.00200995 4 
9 44 189 0 0.52863102 0.00207628 4 
10 44 195 0 0.35755137 0.00216278 4 
11 50 195 0 0.00572854 0.00219811 4 
12 106 197 2 333.51229127 0.00000292 1 
13 50 201 0 0.04110605 0.00189847 3 
14 50 203 0 0.06975183 0.00187262 3 
15 61 203 0 0.00745912 0.00189847 3 
16 61 209 0 0.37222863 0.00231025 4 
17 67 209 0 0.41032090 0.00232119 4 
18 67 220 0 0.66144083 0.00249558 4 
19 81 220 0 0.48035877 0.00285938 5 
20 81 226 0 0.05402805 0.00256678 4 
21 87 226 0 1.82553139 0.00293922 5 
22 87 231 0 0.34656585 0.00261744 4 
23 94 231 0 0.55778528 0.00256449 4 
24 226 231 0 1.44127402 0.00298260 5 
25 94 241 0 1.33132047 0.00268565 4 
26 101 241 0 0.50961029 0.00270458 4 
27 101 247 0 1.66454674 0.00275822 4 
28 107 247 0 1.80094617 0.00277617 4 
29 107 254 0 1.18346605 0.00283621 4 
30 114 254 0 0.12939160 0.00285610 4 
31 107 256 0 0.93085039 0.00284611 4 
32 114 256 0 0.24629796 0.00285873 4 
33 107 258 0 1.37911724 0.00289477 4 
34 114 258 0 1.15747212 0.00291829 4 
35 121 266 0 0.00938596 0.00300269 4 
36 126 266 0 0.44864328 0.00354650 5 
37 126 272 0 1.03992836 0.00311989 4 
38 132 272 0 0.39070916 0.00365205 5 
39 110 273 2 2048.44832922 0.00000258 1 
40 132 278 0 0.58358145 0.00318263 4 
41 138 278 0 1.06458780 0.00372916 5 
42 138 284 0 0.02201259 0.00270577 3 
43 151 284 0 0.12777228 0.00328019 4 
44 151 291 0 0.60037557 0.00330738 4 
45 151 297 0 0.07972289 0.00283814 3 
46 157 297 0 1.04991834 0.00344534 4 
47 166 297 0 1.30507781 0.00338206 4 
48 19 305 0 0.16044642 0.00356546 4 
49 157 305 0 0.58687353 0.00359495 4 
50 163 305 0 7.56485476 0.00484163 6 
51 166 305 0 0.37495035 0.00359989 4 
52 172 305 0 0.01886255 0.00359638 4 
53 19 315 0 0.48455906 0.00309176 3 
54 25 315 0 0.02281386 0.00310778 3 
55 172 315 0 0.05679715 0.00372673 4 
56 172 328 0 0.12482725 0.00324902 3 
57 19 337 0 6.63404991 0.00464888 5 
58 25 337 0 0.96522419 0.00398560 4 
59 172 337 0 0.57611560 0.00332621 3 
60 19 342 0 0.00494520 0.00337630 3 
61 25 342 0 0.12855172 0.00405519 4 
62 172 342 0 0.01223902 0.00411446 4 
63 178 342 0 0.12442988 0.00417425 4 
64 242 355 2 593.70025547 0.00000330 1 
65 25 367 0 0.11414782 0.00379344 3 
66 32 367 0 0.01267433 0.00594360 6 
67 178 367 0 0.00286807 0.00377659 3 
68 183 367 0 0.06698524 0.00377296 3 
69 25 374 0 0.56424690 0.00459537 4 
70 32 374 0 0.09892849 0.00533984 5 
71 178 374 0 0.03055075 0.00459588 4 
72 183 374 0 0.05309447 0.00456810 4 
73 32 382 0 4.14688582 0.00392284 3 
74 183 382 0 1.28811506 0.00466032 4 
75 32 387 0 2.72468715 0.00473906 4 
76 183 387 0 0.18197642 0.00473880 4 
77 189 414 0 7.69047346 0.00586624 5 
78 44 437 0 0.00915802 0.00439186 3 
79 195 437 0 0.01161094 0.00438289 3 
80 94 440 2 1042.22970829 0.00000326 1 
81 151 451 2 3024.27354655 0.00000302 1 
82 44 454 0 0.65644164 0.00452092 3 
83 189 454 0 0.03962740 0.00542006 4 
84 44 467 0 0.12345281 0.00640707 5 
85 50 467 0 0.00895575 0.01023551 9 
86 195 467 0 0.00230988 0.00464813 3 
87 352 470 2 887.05956414 0.00000301 1 
88 195 484 0 0.09447226 0.00574245 4 
89 353 490 2 187.30684674 0.00000282 1 
90 148 490 2 1843.16706331 0.00000159 1 
91 44 494 0 0.02880924 0.00576213 4 
92 50 494 0 0.00628832 0.00483558 3 
93 195 494 0 0.00818961 0.00684673 5 
94 201 494 0 0.00469852 0.00683895 5 
95 50 500 0 0.14406209 0.00695067 5 
96 201 500 0 0.05353930 0.00492372 3 
97 203 500 0 0.03252445 0.00490429 3 
98 61 508 0 0.99413579 0.00711662 5 
99 203 508 0 0.26947301 0.01225510 10 
100 209 508 0 0.03711473 0.00604964 4 
101 61 522 0 1.37942234 0.00613772 4 
102 203 522 0 0.12859200 0.00509315 3 
103 209 522 0 0.00542469 0.00512306 3 
104 291 522 2 2987.62517631 0.00000249 3 
105 61 528 0 0.47936102 0.00515596 3 
106 67 528 0 0.22419307 0.00628465 4 
107 81 528 0 0.23233822 0.00844034 6 
108 209 528 0 0.09444678 0.01059890 8 
109 220 528 0 0.13668760 0.00622923 4 
110 67 532 0 0.05459173 0.01179496 9 
111 81 532 0 0.11826401 0.00846676 6 
112 220 532 0 0.05648169 0.00634099 4 
113 67 556 0 0.98233216 0.00649124 4 
114 541 556 2 2508.57099533 0.00000255 4 
115 412 557 2 976.84689658 0.00000282 1 
116 536 558 2 2975.46381037 0.00000263 1 
117 553 562 2 1957.48373381 0.00000216 1 
118 67 564 0 0.40168838 0.01233042 9 
119 81 564 0 0.02280941 0.00663459 4 
120 220 564 0 0.02684857 0.00673721 4 
121 67 567 0 2.67253169 0.00780694 5 
122 81 567 0 0.48923871 0.00901039 6 
123 220 567 0 0.21723258 0.00664944 4 
124 67 570 0 2.40706627 0.00910014 6 
125 81 570 0 0.15671702 0.00902624 6 
126 220 570 0 0.13379867 0.00674022 4 
127 81 575 0 2.76594993 0.00792166 5 
128 220 575 0 1.08612706 0.01034846 7 
129 157 582 2 2542.05070840 0.00000328 1 
130 81 588 0 0.01497138 0.00567593 3 
131 87 588 0 0.47937722 0.00819521 5 
132 226 588 0 0.43156268 0.00692205 4 
133 484 588 2 7298.13089000 0.00000323 4 
134 87 597 0 2.27648751 0.00956041 6 
135 94 597 0 0.38888315 0.00700597 4 
136 226 597 0 0.55079633 0.00831442 5 
137 87 604 0 0.47149562 0.00711059 4 
138 94 604 0 0.01542269 0.00840309 5 
139 131 607 2 767.19411984 0.00000230 1 
140 94 616 0 0.01350372 0.01233889 8 
141 94 632 0 2.16969694 0.00881486 5 
142 227 636 2 4734.21178817 0.00000318 1 
143 94 637 0 4.44236402 0.01006324 6 
144 101 637 0 0.19098383 0.00751557 4 
145 101 642 0 0.11555601 0.00889865 5 
146 107 642 0 0.04025021 0.01409336 9 
147 101 645 0 6.69527511 0.00763338 4 
148 107 645 0 1.54205090 0.00751887 4 
149 590 645 2 3112.88932382 0.00000332 4 
150 547 649 2 662.40965726 0.00000303 1 
151 584 656 2 759.26229611 0.00000320 1 
152 101 657 0 0.73548669 0.01669486 10 
153 481 659 2 2060.28816871 0.00000348 10 
154 101 663 0 0.04971914 0.01670918 10 
155 107 663 0 0.01781179 0.00913785 5 
156 114 663 0 0.00275957 0.00918956 5 
157 101 665 0 1.55112265 0.01348609 8 
158 107 665 0 0.47667103 0.00780650 4 
159 114 665 0 0.13329170 0.00648884 3 
160 435 667 2 2707.05658360 0.00000316 1 
161 337 677 2 174.82864606 0.00000233 1 
162 107 680 0 1.48615866 0.00937681 5 
163 139 681 2 981.60726302 0.00000257 1 
164 107 683 0 0.94462224 0.00803144 4 
165 114 683 0 0.32178225 0.00953015 5 
166 613 687 2 340.76603299 0.00000293 1 
167 107 704 0 0.34268109 0.01261779 7 
168 114 704 0 0.07528002 0.01551980 9 
169 254 711 2 1783.55454133 0.00000276 1 
170 107 714 0 1.79639085 0.01133931 6 
171 114 714 0 0.02860377 0.01438546 8 
172 91 727 2 660.84208635 0.00000350 1 
173 107 730 0 0.19656714 0.01014955 5 
174 114 730 0 0.03540690 0.00856325 4 
175 321 730 2 1393.80434902 0.00000376 4 
176 121 754 0 0.33113739 0.00875114 4 
177 126 754 0 0.07673382 0.01514234 8 
178 121 759 0 2.33625684 0.01195474 6 
179 126 759 0 0.22329988 0.01204486 6 
180 126 762 0 7.08482229 0.01040600 5 
181 132 762 0 2.00372045 0.01534131 8 
182 132 778 0 0.06999780 0.00904853 4 
183 555 790 2 754.50354311 0.00000458 1 
184 132 792 0 1.26802734 0.00931781 4 
185 308 793 2 1481.23146682 0.00000325 1 
186 531 793 2 4806.85329005 0.00000192 1 
187 222 793 2 1809.09298098 0.00000129 1 
188 132 800 0 3.35686460 0.00917748 4 
189 138 800 0 0.14494330 0.01255025 6 
190 138 806 0 0.25140739 0.00752780 3 
191 138 821 0 0.40674396 0.01108513 5 
192 138 823 0 6.54725682 0.00938473 4 
193 151 828 0 3.12108818 0.00950639 4 
194 197 845 2 988.92855359 0.00000323 1 
195 151 847 0 0.08724621 0.01147487 5 
196 279 851 2 774.08853369 0.00000356 1 
197 151 855 0 0.11494457 0.01512521 7 
198 525 864 2 588.85680638 0.00000370 1 
199 485 866 2 394.67932140 0.00000306 1 
200 150 866 2 1446.10606745 0.00000142 1 
201 398 870 2 342.76230729 0.00000307 1 
202 615 881 2 830.63578331 0.00000330 1 
203 755 892 2 327.74370917 0.00000382 1 
204 341 893 2 576.34008985 0.00000324 1 
205 214 893 2 54.72056826 0.00000157 1 
206 151 895 0 2.80701437 0.01762743 8 
207 151 897 0 0.06118057 0.02137626 10 
208 138 903 0 0.08157811 0.01023907 4 
209 138 904 0 7.06392298 0.01400553 6 
210 132 907 0 0.71874717 0.01031497 4 
211 138 907 0 0.22077132 0.01220807 5 
212 132 911 0 0.23128175 0.01223360 5 
213 849 913 2 3044.87964349 0.00000368 1 
214 121 923 0 0.62636126 0.01436642 6 
215 126 923 0 0.07130653 0.01050622 4 
216 107 929 0 0.07225325 0.01255063 5 
217 114 929 0 0.00477553 0.01059339 4 
218 107 935 0 4.91438615 0.01651161 7 
219 114 935 0 1.40337639 0.01654493 7 
220 101 939 0 0.48567419 0.01072337 4 
221 107 939 0 0.21174614 0.01073892 4 
222 289 940 2 1016.27117209 0.00000381 1 
223 101 944 0 0.15377935 0.01277468 5 
224 94 947 0 0.23772432 0.01676742 7 
225 101 947 0 0.16826262 0.01480916 6 
226 87 953 0 0.13504795 0.01089520 4 
227 94 953 0 0.06505521 0.01492867 6 
228 226 953 0 0.08268323 0.02296591 10 
229 609 953 2 12092.20151277 0.00000433 10 
230 81 959 0 1.83528326 0.02437818 10 
231 87 959 0 1.29172246 0.01710743 7 
232 220 959 0 0.04883629 0.01106370 4 
233 226 959 0 0.12130941 0.01308035 5 
234 270 960 2 206.24436854 0.00000362 1 
235 67 965 0 1.01368609 0.01317013 5 
236 81 965 0 0.31066014 0.01523143 6 
237 220 965 0 0.16483276 0.01934752 8 
238 278 970 2 492.82566593 0.00000321 1 
239 61 976 0 0.16803746 0.01756229 7 
240 67 976 0 0.05676300 0.00921713 3 
241 209 976 0 0.00780965 0.01128241 4 
242 50 982 0 0.38354811 0.01137699 4 
243 61 982 0 0.27147698 0.01138439 4 
244 201 982 0 0.22200943 0.01138886 4 
245 203 982 0 0.10573284 0.02191180 9 
246 44 988 0 0.09550719 0.01151105 4 
247 50 988 0 0.05924873 0.01149738 4 
248 195 988 0 0.04319526 0.01575104 6 
249 201 988 0 0.02685916 0.01360166 5 
250 44 994 0 0.51683435 0.01791098 7 
251 189 994 0 0.29989154 0.02575931 10 
252 195 994 0 0.21957432 0.01375478 5 
253 987 1000 2 1246.26500059 0.00000431 1 
254 32 1003 0 0.23901034 0.01389081 5 
255 178 1003 0 0.03356851 0.02605413 10 
256 183 1003 0 0.01433170 0.01608859 6 
257 195 1003 2 6926.45774151 0.00001051 6 
258 25 1008 0 1.23858172 0.01839406 7 
259 32 1008 0 0.53803958 0.01182856 4 
260 178 1008 0 0.34459610 0.01182960 4 
261 183 1008 0 0.22233868 0.01187979 4 
262 25 1010 0 0.60236133 0.01185998 4 
263 32 1010 0 0.30591807 0.01406662 5 
264 172 1010 0 0.10368354 0.01634813 6 
265 178 1010 0 0.19279072 0.02693063 10 
266 152 1015 2 2121.86200239 0.00000526 1 
267 19 1016 0 0.44047719 0.02062846 8 
268 166 1016 0 0.20189646 0.01192523 4 
269 172 1016 0 0.07393216 0.01412305 5 
270 399 1018 2 1150.60965071 0.00000472 1 
271 682 1020 2 718.42946165 0.00000465 1 
272 255 1026 2 2038.58152683 0.00000595 1 
273 151 1029 0 0.03533130 0.01440253 5 
274 157 1029 0 0.02672450 0.01206990 4 
275 163 1029 0 3.39703566 0.01213197 4 
276 166 1029 0 0.49353449 0.01201547 4 
277 894 1050 2 579.80651699 0.00000548 1 
278 393 1059 2 547.69712686 0.00000560 1 
279 786 1060 2 173.33672403 0.00000538 1 
280 769 1069 2 475.26110995 0.00000556 1 
281 132 1084 0 4.21993706 0.01507525 5 
282 91 1094 2 1053.69723353 0.00000519 1 
283 669 1095 2 821.90058914 0.00000533 1 
284 1012 1117 2 578.03106578 0.00000554 1 
285 116 1122 2 396.31471892 0.00000578 1 
286 756 1127 2 250.60771106 0.00000524 1 
287 101 1138 0 0.63021658 0.01573798 5 
288 1070 1141 2 757.79080271 0.00000560 1 
289 423 1142 2 374.20474877 0.00000501 1 
290 1023 1145 2 492.83564936 0.00000528 1 
291 1061 1146 2 256.01354871 0.00000592 1 
292 107 1147 0 0.73708347 0.01327647 4 
293 114 1147 0 0.03971358 0.01084222 3 
294 107 1150 0 7.45683387 0.01333248 4 
295 114 1150 0 1.00561260 0.01088682 3 
296 114 1158 0 0.16899687 0.01089787 3 
297 121 1158 0 0.69099743 0.01347209 4 
298 121 1164 0 0.45182924 0.01604786 5 
299 126 1164 0 0.04418665 0.01353487 4 
300 114 1175 0 0.14266969 0.01365991 4 
301 121 1175 0 0.27324351 0.01367566 4 
302 923 1175 0 0.18719011 0.01374681 4 
303 929 1175 0 0.16073549 0.01370577 4 
304 1158 1175 0 0.00134797 0.01117824 3 
305 574 1184 2 1136.17886925 0.00000560 1 
306 518 1186 2 878.51980993 0.00000529 1 
307 101 1188 0 0.32950319 0.01382409 4 
308 939 1188 0 0.55418798 0.01381656 4 
309 1138 1188 0 0.03006025 0.01137402 3 
310 1147 1188 0 0.04063922 0.01129729 3 
311 1150 1188 0 1.83245351 0.01384721 4 
312 885 1196 2 340.75996098 0.00000529 1 
313 889 1201 2 501.44292925 0.00000558 1 
314 449 1201 2 309.04861360 0.00000216 1 
315 1050 1210 0 0.00345523 0.01405719 4 
316 1061 1210 0 0.57363906 0.01670658 5 
317 1075 1210 0 0.23107861 0.01670083 5 
318 1084 1210 0 3.13555510 0.01671941 5 
319 1088 1210 0 0.59156319 0.01410694 4 
320 1093 1210 0 0.13111230 0.01936359 6 
321 1098 1210 0 0.04730346 0.01409426 4 
322 157 1217 0 0.32750279 0.01422330 4 
323 163 1217 0 0.19904338 0.01437648 4 
324 1029 1217 0 0.01250493 0.01165395 3 
325 1044 1217 0 3.98258990 0.01437326 4 
326 1050 1217 0 4.97161000 0.01706956 5 
327 1157 1218 2 3894.93530343 0.00000545 1 
328 828 1226 2 1319.61139752 0.00000619 1 
329 163 297 0 0.27920255 0.01534049 4 
330 189 400 0 2.09679271 0.01479493 4 
331 1056 1217 0 9.66143264 0.01735377 5 
