1 19 166 0 0.41485034 0.00211873 5 
2 19 172 0 0.02820697 0.00186193 4 
3 25 172 0 0.50366199 0.00187560 4 
4 25 178 0 0.30831851 0.00196926 4 
5 32 178 0 0.01493521 0.00198747 4 
6 32 183 0 0.07055611 0.00200819 4 
7 44 189 0 0.52863102 0.00207391 4 
8 44 195 0 0.35755137 0.00215945 4 
9 50 195 0 0.00572854 0.00219611 4 
10 50 201 0 0.04110605 0.00189667 3 
11 50 203 0 0.06975183 0.00186923 3 
12 61 203 0 0.00745912 0.00189765 3 
13 61 209 0 0.37222863 0.00230683 4 
14 67 209 0 0.41032090 0.00231764 4 
15 67 220 0 0.66144083 0.00249052 4 
16 81 220 0 0.48035877 0.00284940 5 
17 81 226 0 0.05402805 0.00255747 4 
18 87 226 0 1.82553139 0.00293219 5 
19 87 231 0 0.34656585 0.00261177 4 
20 94 231 0 0.55778528 0.00255628 4 
21 226 231 0 1.44127402 0.00297798 5 
22 94 241 0 1.33132047 0.00268387 4 
23 101 241 0 0.50961029 0.00270289 4 
24 101 247 0 1.66454674 0.00275500 4 
25 107 247 0 1.80094617 0.00277296 4 
26 107 254 0 1.18346605 0.00283703 4 
27 114 254 0 0.12939160 0.00285049 4 
28 107 256 0 0.93085039 0.00284380 4 
29 114 256 0 0.24629796 0.00284593 4 
30 107 258 0 1.37911724 0.00289316 4 
31 114 258 0 1.15747212 0.00291434 4 
32 121 266 0 0.00938596 0.00299665 4 
33 126 266 0 0.44864328 0.00353552 5 
34 126 272 0 1.03992836 0.00307698 4 
35 132 272 0 0.39070916 0.00363759 5 
36 132 278 0 0.58358145 0.00316673 4 
37 138 278 0 1.06458780 0.00372993 5 
38 138 284 0 0.02201259 0.00270634 3 
39 151 284 0 0.12777228 0.00328060 4 
40 0 289 2 926.25444747 0.00000221 1 
41 151 291 0 0.60037557 0.00330114 4 
42 151 297 0 0.07972289 0.00283745 3 
43 157 297 0 1.04991834 0.00343573 4 
44 166 297 0 1.30507781 0.00337478 4 
45 19 305 0 0.16044642 0.00355762 4 
46 157 305 0 0.58687353 0.00359195 4 
47 163 305 0 7.56485476 0.00482772 6 
48 166 305 0 0.37495035 0.00359012 4 
49 172 305 0 0.01886255 0.00359344 4 
50 19 315 0 0.48455906 0.00309079 3 
51 25 315 0 0.02281386 0.00310375 3 
52 172 315 0 0.05679715 0.00371955 4 
53 172 328 0 0.12482725 0.00324606 3 
54 19 337 0 6.63404991 0.00464263 5 
55 25 337 0 0.96522419 0.00398365 4 
56 172 337 0 0.57611560 0.00332915 3 
57 19 342 0 0.00494520 0.00337194 3 
58 25 342 0 0.12855172 0.00405485 4 
59 172 342 0 0.01223902 0.00410134 4 
60 178 342 0 0.12442988 0.00415720 4 
61 25 367 0 0.11414782 0.00377799 3 
62 32 367 0 0.01267433 0.00592389 6 
63 178 367 0 0.00286807 0.00375764 3 
64 183 367 0 0.06698524 0.00373972 3 
65 25 374 0 0.56424690 0.00458255 4 
66 32 374 0 0.09892849 0.00531286 5 
67 178 374 0 0.03055075 0.00459890 4 
68 183 374 0 0.05309447 0.00458001 4 
69 32 382 0 4.14688582 0.00392026 3 
70 183 382 0 1.28811506 0.00465071 4 
71 32 387 0 2.72468715 0.00472966 4 
72 183 387 0 0.18197642 0.00471423 4 
73 189 414 0 7.69047346 0.00584439 5 
74 44 437 0 0.00915802 0.00437914 3 
75 195 437 0 0.01161094 0.00437175 3 
76 44 454 0 0.65644164 0.00451546 3 
77 189 454 0 0.03962740 0.00541824 4 
78 44 467 0 0.12345281 0.00640827 5 
79 50 467 0 0.00895575 0.01021516 9 
80 195 467 0 0.00230988 0.00462913 3 
81 195 484 0 0.09447226 0.00572997 4 
82 44 494 0 0.02880924 0.00577944 4 
83 50 494 0 0.00628832 0.00481485 3 
84 195 494 0 0.00818961 0.00681758 5 
85 201 494 0 0.00469852 0.00681555 5 
86 50 500 0 0.14406209 0.00693434 5 
87 201 500 0 0.05353930 0.00490003 3 
88 203 500 0 0.03252445 0.00487704 3 
89 61 508 0 0.99413579 0.00711164 5 
90 203 508 0 0.26947301 0.01223772 10 
91 209 508 0 0.03711473 0.00604404 4 
92 61 522 0 1.37942234 0.00613222 4 
93 203 522 0 0.12859200 0.00511359 3 
94 209 522 0 0.00542469 0.00513300 3 
95 61 528 0 0.47936102 0.00515248 3 
96 67 528 0 0.22419307 0.00628594 4 
97 81 528 0 0.23233822 0.00840669 6 
98 209 528 0 0.09444678 0.01060205 8 
99 220 528 0 0.13668760 0.00623000 4 
100 67 532 0 0.05459173 0.01178524 9 
101 81 532 0 0.11826401 0.00846194 6 
102 220 532 0 0.05648169 0.00635218 4 
103 67 556 0 0.98233216 0.00648179 4 
104 67 564 0 0.40168838 0.01230258 9 
105 81 564 0 0.02280941 0.00662966 4 
106 220 564 0 0.02684857 0.00664427 4 
107 67 567 0 2.67253169 0.00780072 5 
108 81 567 0 0.48923871 0.00900148 6 
109 220 567 0 0.21723258 0.00664309 4 
110 67 570 0 2.40706627 0.00907584 6 
111 81 570 0 0.15671702 0.00901353 6 
112 220 570 0 0.13379867 0.00672896 4 
113 81 575 0 2.76594993 0.00790733 5 
114 220 575 0 1.08612706 0.01033196 7 
115 81 588 0 0.01497138 0.00565933 3 
116 87 588 0 0.47937722 0.00816816 5 
117 226 588 0 0.43156268 0.00690193 4 
118 87 597 0 2.27648751 0.00954300 6 
119 94 597 0 0.38888315 0.00698218 4 
120 226 597 0 0.55079633 0.00829264 5 
121 87 604 0 0.47149562 0.00709668 4 
122 94 604 0 0.01542269 0.00839588 5 
123 94 616 0 0.01350372 0.01230869 8 
124 94 632 0 2.16969694 0.00880737 5 
125 390 632 2 1754.35521769 0.00000304 5 
126 94 637 0 4.44236402 0.01004741 6 
127 101 637 0 0.19098383 0.00749569 4 
128 101 642 0 0.11555601 0.00891362 5 
129 107 642 0 0.04025021 0.01409886 9 
130 101 645 0 6.69527511 0.00762877 4 
131 107 645 0 1.54205090 0.00870374 4 
132 101 657 0 0.73548669 0.01666311 10 
133 101 663 0 0.04971914 0.01670413 10 
134 107 663 0 0.01781179 0.00913474 5 
135 114 663 0 0.00275957 0.00915459 5 
136 101 665 0 1.55112265 0.01345957 8 
137 107 665 0 0.47667103 0.00780722 4 
138 114 665 0 0.13329170 0.00650076 3 
139 107 680 0 1.48615866 0.00935094 5 
140 107 683 0 0.94462224 0.00800175 4 
141 114 683 0 0.32178225 0.00950974 5 
142 107 704 0 0.34268109 0.01259303 7 
143 114 704 0 0.07528002 0.01548785 9 
144 107 714 0 1.79639085 0.01130354 6 
145 114 714 0 0.02860377 0.01439914 8 
146 107 730 0 0.19656714 0.01017459 5 
147 114 730 0 0.03540690 0.00856146 4 
148 121 754 0 0.33113739 0.00871780 4 
149 126 754 0 0.07673382 0.01516221 8 
150 121 759 0 2.33625684 0.01195146 6 
151 126 759 0 0.22329988 0.01200457 6 
152 126 762 0 7.08482229 0.01035712 5 
153 132 762 0 2.00372045 0.01531404 8 
154 132 778 0 0.06999780 0.00901234 4 
155 132 792 0 1.26802734 0.00926365 4 
156 132 800 0 3.35686460 0.00915742 4 
157 138 800 0 0.14494330 0.01251308 6 
158 138 806 0 0.25140739 0.00750495 3 
159 138 821 0 0.40674396 0.01104412 5 
160 138 823 0 6.54725682 0.00934719 4 
161 151 828 0 3.12108818 0.00946268 4 
162 151 847 0 0.08724621 0.01141461 5 
163 151 855 0 0.11494457 0.01507423 7 
164 151 895 0 2.80701437 0.01754562 8 
165 151 897 0 0.06118057 0.02129916 10 
166 138 903 0 0.08157811 0.01018173 4 
167 138 904 0 7.06392298 0.01396205 6 
168 132 907 0 0.71874717 0.01026289 4 
169 138 907 0 0.22077132 0.01217064 5 
170 132 911 0 0.23128175 0.01218060 5 
171 121 923 0 0.62636126 0.01477598 6 
172 126 923 0 0.07130653 0.01044153 4 
173 107 929 0 0.07225325 0.01252236 5 
174 114 929 0 0.00477553 0.01076012 4 
175 107 935 0 4.91438615 0.01651057 7 
176 114 935 0 1.40337639 0.01654008 7 
177 101 939 0 0.48567419 0.01072296 4 
178 107 939 0 0.21174614 0.01074390 4 
179 101 944 0 0.15377935 0.01275918 5 
180 643 944 2 3449.12724832 0.00000426 5 
181 378 945 2 2212.87583028 0.00000339 1 
182 94 947 0 0.23772432 0.01673075 7 
183 101 947 0 0.16826262 0.01480105 6 
184 87 953 0 0.13504795 0.01084186 4 
185 94 953 0 0.06505521 0.01487113 6 
186 226 953 0 0.08268323 0.02287536 10 
187 81 959 0 1.83528326 0.02429026 10 
188 87 959 0 1.29172246 0.01705530 7 
189 220 959 0 0.04883629 0.01099142 4 
190 226 959 0 0.12130941 0.01303212 5 
191 257 961 2 1812.73918869 0.00000449 1 
192 67 965 0 1.01368609 0.01311422 5 
193 81 965 0 0.31066014 0.01514146 6 
194 220 965 0 0.16483276 0.01922304 8 
195 61 976 0 0.16803746 0.01734804 7 
196 67 976 0 0.05676300 0.00914400 3 
197 209 976 0 0.00780965 0.01119993 4 
198 50 982 0 0.38354811 0.01129028 4 
199 61 982 0 0.27147698 0.01130233 4 
200 201 982 0 0.22200943 0.01133323 4 
201 203 982 0 0.10573284 0.02176643 9 
202 44 988 0 0.09550719 0.01141709 4 
203 50 988 0 0.05924873 0.01145361 4 
204 195 988 0 0.04319526 0.01563615 6 
205 201 988 0 0.02685916 0.01351649 5 
206 44 994 0 0.51683435 0.01786291 7 
207 189 994 0 0.29989154 0.02569308 10 
208 195 994 0 0.21957432 0.01372747 5 
209 32 1003 0 0.23901034 0.01380072 5 
210 178 1003 0 0.03356851 0.02593312 10 
211 183 1003 0 0.01433170 0.01598314 6 
212 25 1008 0 1.23858172 0.01833377 7 
213 32 1008 0 0.53803958 0.01173114 4 
214 178 1008 0 0.34459610 0.01173115 4 
215 183 1008 0 0.22233868 0.01177407 4 
216 25 1010 0 0.60236133 0.01177453 4 
217 32 1010 0 0.30591807 0.01400281 5 
218 172 1010 0 0.10368354 0.01626217 6 
219 178 1010 0 0.19279072 0.02637741 10 
220 377 1013 2 1125.42454450 0.00000467 4 
221 19 1016 0 0.44047719 0.02049644 8 
222 166 1016 0 0.20189646 0.01183869 4 
223 172 1016 0 0.07393216 0.01401957 5 
224 151 1029 0 0.03533130 0.01427134 5 
225 157 1029 0 0.02672450 0.01198243 4 
226 163 1029 0 3.39703566 0.01199651 4 
227 166 1029 0 0.49353449 0.01198739 4 
228 1015 1041 2 2076.28791125 0.00000534 1 
229 18 1055 2 548.10039349 0.00000536 1 
230 132 1084 0 4.21993706 0.01511748 5 
231 807 1130 2 262.92211667 0.00000543 1 
232 101 1138 0 0.63021658 0.01575004 5 
233 107 1147 0 0.73708347 0.01326041 4 
234 114 1147 0 0.03971358 0.01080815 3 
235 107 1150 0 7.45683387 0.01333027 4 
236 114 1150 0 1.00561260 0.01087816 3 
237 650 1155 2 86.36660509 0.00000558 1 
238 114 1158 0 0.16899687 0.01088980 3 
239 121 1158 0 0.69099743 0.01344067 4 
240 121 1164 0 0.45182924 0.01601252 5 
241 126 1164 0 0.04418665 0.01353475 4 
242 114 1175 0 0.14266969 0.01367079 4 
243 121 1175 0 0.27324351 0.01368791 4 
244 923 1175 0 0.18719011 0.01371758 4 
245 929 1175 0 0.16073549 0.01371367 4 
246 1158 1175 0 0.00134797 0.01116920 3 
247 101 1188 0 0.32950319 0.01381747 4 
248 939 1188 0 0.55418798 0.01383332 4 
249 1138 1188 0 0.03006025 0.01143508 3 
250 1147 1188 0 0.04063922 0.01126941 3 
251 1150 1188 0 1.83245351 0.01383902 4 
252 1050 1210 0 0.00345523 0.01407163 4 
253 1061 1210 0 0.57363906 0.01673116 5 
254 1075 1210 0 0.23107861 0.01670395 5 
255 1084 1210 0 3.13555510 0.01671557 5 
256 1088 1210 0 0.59156319 0.01410825 4 
257 1093 1210 0 0.13111230 0.01935021 6 
258 1098 1210 0 0.04730346 0.01411834 4 
259 157 1217 0 0.32750279 0.01427498 4 
260 163 1217 0 0.19904338 0.01436665 4 
261 1029 1217 0 0.01250493 0.01164911 3 
262 1044 1217 0 3.98258990 0.01436586 4 
263 1050 1217 0 4.97161000 0.01705473 5 
264 163 297 0 0.27920255 0.01523753 4 
265 189 400 0 2.09679271 0.01455215 4 
266 1056 1217 0 9.66143264 0.01724372 5 
