1 19 166 0.00296594 10 
2 19 172 0.00311480 10 
3 25 172 0.00317951 10 
4 25 178 0.00329377 10 
5 32 178 0.00329706 10 
6 32 183 0.00338591 10 
7 44 189 0.00350492 10 
8 44 195 0.00361367 10 
9 50 195 0.00360814 10 
10 50 201 0.00371184 10 
11 50 203 0.00376572 10 
12 61 203 0.00375380 10 
13 61 209 0.00386533 10 
14 67 209 0.00386869 10 
15 82 213 0.00393354 10 
16 90 215 0.00396834 10 
17 67 220 0.00406426 10 
18 81 220 0.00410687 10 
19 81 226 0.00420205 10 
20 87 226 0.00422856 10 
21 87 231 0.00432879 10 
22 94 231 0.00434601 10 
23 226 231 0.00435103 10 
24 94 241 0.00454500 10 
25 101 241 0.00456016 10 
26 101 247 0.00467840 10 
27 107 247 0.00469526 10 
28 107 254 0.00483379 10 
29 114 254 0.00482986 10 
30 107 256 0.00488090 10 
31 114 256 0.00490206 10 
32 107 258 0.00493145 10 
33 114 258 0.00493768 10 
34 121 266 0.00517036 10 
35 126 266 0.00513476 10 
36 126 272 0.00524939 10 
37 132 272 0.00526555 10 
38 132 278 0.00537664 10 
39 138 278 0.00537822 10 
40 121 281 0.00549544 10 
41 138 284 0.00552432 10 
42 151 284 0.00553309 10 
43 151 291 0.00567389 10 
44 6 295 0.00594093 10 
45 151 297 0.00599775 10 
46 157 297 0.00602020 10 
47 163 297 0.00606102 10 
48 166 297 0.00603926 10 
49 19 305 0.00618675 10 
50 157 305 0.00621072 10 
51 163 305 0.00622805 10 
52 166 305 0.00621717 10 
53 172 305 0.00624882 10 
54 19 315 0.00645342 10 
55 25 315 0.00646390 10 
56 172 315 0.00649653 10 
57 172 328 0.00673842 10 
58 19 337 0.00687594 10 
59 25 337 0.00675689 10 
60 172 337 0.00692165 10 
61 19 342 0.00682255 10 
62 25 342 0.00687547 10 
63 172 342 0.00354387 5 
64 178 342 0.00691140 10 
65 25 367 0.00436291 6 
66 32 367 0.00435326 6 
67 178 367 0.00437062 6 
68 183 367 0.00513115 7 
69 25 374 0.00749827 10 
70 32 374 0.00756148 10 
71 178 374 0.00543076 7 
72 183 374 0.00676487 9 
73 32 382 0.00612489 8 
74 183 382 0.00775017 10 
75 32 387 0.00778906 10 
76 183 387 0.00463315 6 
77 189 400 0.00811684 10 
78 189 414 0.00838449 10 
79 44 437 0.00886562 10 
80 195 437 0.00906461 10 
81 44 454 0.00916041 10 
82 189 454 0.00940276 10 
83 44 467 0.00942796 10 
84 50 467 0.00966708 10 
85 195 467 0.00969040 10 
86 195 484 0.00978705 10 
87 44 494 0.00691744 7 
88 50 494 0.01001693 10 
89 195 494 0.01025000 10 
90 201 494 0.01029304 10 
91 50 500 0.01016817 10 
92 201 500 0.01042015 10 
93 203 500 0.01043654 10 
94 61 508 0.01033989 10 
95 203 508 0.01055484 10 
96 209 508 0.01065640 10 
97 61 522 0.01058821 10 
98 203 522 0.01084435 10 
99 209 522 0.01086036 10 
100 61 528 0.01073502 10 
101 67 528 0.01099411 10 
102 81 528 0.01104599 10 
103 209 528 0.01106388 10 
104 220 528 0.01105271 10 
105 67 532 0.01081108 10 
106 81 532 0.01092101 10 
107 220 532 0.01117120 10 
108 67 556 0.01136839 10 
109 67 564 0.01152183 10 
110 81 564 0.01178069 10 
111 220 564 0.01172343 10 
112 67 567 0.01157811 10 
113 81 567 0.01186215 10 
114 220 567 0.01192440 10 
115 262 567 0.01201504 10 
116 67 570 0.01178128 10 
117 81 570 0.01206369 10 
118 220 570 0.01208502 10 
119 81 575 0.01220929 10 
120 220 575 0.01219825 10 
121 81 588 0.01219424 10 
122 87 588 0.01245610 10 
123 226 588 0.01246732 10 
124 87 597 0.01236986 10 
125 94 597 0.01275540 10 
126 226 597 0.01273673 10 
127 87 604 0.01257982 10 
128 94 604 0.01289136 10 
129 94 616 0.01411404 8 
130 94 632 0.01313685 10 
131 94 637 0.01323312 10 
132 101 637 0.01351612 10 
133 101 642 0.01331001 10 
134 107 642 0.01368945 10 
135 101 645 0.01341189 10 
136 107 645 0.01375984 10 
137 101 657 0.01363938 10 
138 101 663 0.01227762 9 
139 107 663 0.01377482 10 
140 114 663 0.01412590 10 
141 101 665 0.01385461 10 
142 107 665 0.02146916 10 
143 114 665 0.01418607 10 
144 107 680 0.01411671 10 
145 107 683 0.01417272 10 
146 114 683 0.01452519 10 
147 107 704 0.01455461 10 
148 114 704 0.01491507 10 
149 107 714 0.01476631 10 
150 114 714 0.01511027 10 
151 107 730 0.01193237 8 
152 114 730 0.01505807 10 
153 121 754 0.01553363 10 
154 126 754 0.01601265 10 
155 121 759 0.01577608 10 
156 126 759 0.01615295 10 
157 126 762 0.01584202 10 
158 132 762 0.01627543 10 
159 132 778 0.01618385 10 
160 132 792 0.01646622 10 
161 132 800 0.01661552 10 
162 138 800 0.01699152 10 
163 138 806 0.01670678 10 
164 138 821 0.01701453 10 
165 138 823 0.01693518 10 
166 151 828 0.01710720 10 
167 151 847 0.01748676 10 
168 151 855 0.01761378 10 
169 151 895 0.01847669 10 
170 151 897 0.01875917 10 
171 138 903 0.01853587 10 
172 138 904 0.01898561 10 
173 132 907 0.01957010 10 
174 138 907 0.01909907 10 
175 132 911 0.01872302 10 
176 121 923 0.01899030 10 
177 126 923 0.01943204 10 
178 107 929 0.01918003 10 
179 114 929 0.01962202 10 
180 48 931 0.01936681 10 
181 107 935 0.01945200 10 
182 114 935 0.01996809 10 
183 101 939 0.01954794 10 
184 107 939 0.01788104 9 
185 101 944 0.01959597 10 
186 94 947 0.01977159 10 
187 101 947 0.02023162 10 
188 87 953 0.01997890 10 
189 94 953 0.02044071 10 
190 226 953 0.02050109 10 
191 81 959 0.02014515 10 
192 87 959 0.02063613 10 
193 220 959 0.02071938 10 
194 226 959 0.02068581 10 
195 67 965 0.02035288 10 
196 81 965 0.02120907 10 
197 220 965 0.02084609 10 
198 61 976 0.02066519 10 
199 67 976 0.02113946 10 
200 209 976 0.02108356 10 
201 50 982 0.02089343 10 
202 61 982 0.02131677 10 
203 201 982 0.02132146 10 
204 203 982 0.02134608 10 
205 44 988 0.02101993 10 
206 50 988 0.02148499 10 
207 195 988 0.02152547 10 
208 201 988 0.10949525 8 
209 44 994 0.17654704 10 
210 189 994 0.18922514 10 
211 195 994 0.18318802 10 
212 32 1003 0.17125468 10 
213 178 1003 0.18035842 10 
214 183 1003 0.18280861 10 
215 25 1008 0.17193599 10 
216 32 1008 0.18580377 10 
217 178 1008 0.18492295 10 
218 183 1008 0.18732543 10 
219 25 1010 0.17277507 10 
220 32 1010 0.04298132 10 
221 172 1010 0.02246486 10 
222 178 1010 0.02245436 10 
223 19 1016 0.02193937 10 
224 166 1016 0.02265301 10 
225 172 1016 0.02026213 9 
226 151 1029 0.02242128 10 
227 157 1029 0.02291918 10 
228 163 1029 0.02292672 10 
229 166 1029 0.02405950 10 
230 1000 1062 0.02296422 10 
231 132 1084 0.02353373 10 
232 33 1115 0.02414581 10 
233 84 1122 0.02441335 10 
234 101 1138 0.02476138 10 
235 841 1138 0.02549774 10 
236 107 1147 0.02569085 10 
237 114 1147 0.02568983 10 
238 107 1150 0.02578771 10 
239 114 1150 0.02577132 10 
240 114 1158 0.02594829 10 
241 121 1158 0.02603875 10 
242 121 1164 0.02617699 10 
243 126 1164 0.02620688 10 
244 114 1175 0.02641328 10 
245 121 1175 0.02637592 10 
246 923 1175 0.02640918 10 
247 929 1175 0.02646635 10 
248 1158 1175 0.02646095 10 
249 101 1188 0.02678937 10 
250 939 1188 0.02671100 10 
251 1138 1188 0.02672646 10 
252 1147 1188 0.02680480 10 
253 1150 1188 0.02680374 10 
254 1050 1210 0.02737124 10 
255 1061 1210 0.02735534 10 
256 1075 1210 0.02736290 10 
257 1084 1210 0.02742395 10 
258 1088 1210 0.02739712 10 
259 1093 1210 0.02740633 10 
260 1098 1210 0.02740629 10 
261 157 1217 0.02719472 10 
262 163 1217 0.02776863 10 
263 1029 1217 0.02775867 10 
264 1044 1217 0.02774856 10 
265 1050 1217 0.02777685 10 
266 1056 1217 0.02785181 10 
