VERTEX2 0 0.00000010 0.00000031 0.00000076
VERTEX2 1 0.40971189 0.13898826 1.63959404
VERTEX2 2 1.15994188 0.01957660 -0.09202047
VERTEX2 3 1.86449052 -0.04524212 -0.11240620
VERTEX2 4 2.56270044 -0.13579863 -0.19094341
VERTEX2 5 3.27551969 -0.24439440 -0.18804739
VERTEX2 6 3.94872421 -0.27621622 -0.07891480
VERTEX2 7 4.63170423 -0.34115124 0.01178040
VERTEX2 8 5.33194808 -0.30040177 0.04204468
VERTEX2 9 5.99563327 -0.28170955 0.01649343
VERTEX2 10 6.64877006 -0.27226125 -0.02258476
VERTEX2 11 7.31688328 -0.25923877 0.01061372
VERTEX2 12 7.96509344 -0.29655268 -0.04454470
VERTEX2 13 8.58701549 -0.28721953 -0.01006344
VERTEX2 14 9.04744301 -0.82430559 -0.78756739
VERTEX2 15 9.52563683 -1.29148905 -0.76694264
VERTEX2 16 10.03854247 -1.73002640 -0.75411725
VERTEX2 17 10.55393500 -2.18438570 -0.71744324
VERTEX2 18 11.05910968 -2.66190433 -0.71097039
VERTEX2 19 11.36253257 -3.17227295 -1.20135734
VERTEX2 20 11.61846837 -3.75327841 -1.18643446
VERTEX2 21 11.86423885 -4.35518582 -1.21428443
VERTEX2 22 12.13139347 -5.01215623 -1.26555235
VERTEX2 23 12.32559619 -5.62353303 -1.29629575
VERTEX2 24 12.49041083 -6.27553548 -1.35634392
VERTEX2 25 12.63774803 -7.00256699 -1.37295878
VERTEX2 26 12.78802378 -7.67803280 -1.43405717
VERTEX2 27 12.87153623 -8.32266815 -1.42788086
VERTEX2 28 12.95869348 -8.99458816 -1.51079378
VERTEX2 29 12.98668092 -9.66273578 -1.51625680
VERTEX2 30 12.99022713 -10.20740382 -1.60349895
VERTEX2 31 12.95455022 -10.85772813 -1.60652879
VERTEX2 32 12.93802250 -11.51639442 -1.68090652
VERTEX2 33 12.86232980 -12.32087166 -1.69721694
VERTEX2 34 12.77350283 -13.00814773 -1.64614300
VERTEX2 35 12.72056824 -13.65581187 -1.68169756
VERTEX2 36 12.67128294 -14.32892087 -1.67919372
VERTEX2 37 12.57024426 -14.99072638 -1.71110129
VERTEX2 38 12.49723979 -15.61188488 -1.70757101
VERTEX2 39 12.39678667 -16.25110425 -1.66819677
VERTEX2 40 12.34316824 -16.86655603 -1.68625683
VERTEX2 41 12.27192832 -17.53239624 -1.70129714
VERTEX2 42 12.16545194 -18.23952457 -1.73353416
VERTEX2 43 12.13032108 -18.82580028 -1.75582403
VERTEX2 44 11.38062732 -18.80498265 -2.99700270
VERTEX2 45 10.70204286 -18.86332252 -3.10868988
VERTEX2 46 10.06320777 -18.88220165 -3.12775114
VERTEX2 47 9.37245992 -18.87367247 3.08789974
VERTEX2 48 8.72272049 -18.79256485 3.08805826
VERTEX2 49 8.07040582 -18.73730983 3.01400525
VERTEX2 50 7.38360165 -18.63068964 3.02086026
VERTEX2 51 6.61702149 -18.46049315 2.92993532
VERTEX2 52 6.03518405 -18.30206995 2.91285969
VERTEX2 53 5.26424785 -18.38074049 -3.02238930
VERTEX2 54 4.60020799 -18.45447302 -2.98493917
VERTEX2 55 3.91890202 -18.53359757 3.14052058
VERTEX2 56 3.30146018 -18.52172973 3.08088467
VERTEX2 57 2.57155264 -18.48355091 3.13481628
VERTEX2 58 1.90652720 -18.50237712 -3.10529117
VERTEX2 59 1.21026051 -18.52751944 -3.11791965
VERTEX2 60 0.57814311 -18.53787008 3.06835353
VERTEX2 61 -0.10656565 -18.47742734 3.10245577
VERTEX2 62 -0.69358009 -18.42484323 3.04423587
VERTEX2 63 -1.36631041 -18.41552899 -3.11384398
VERTEX2 64 -2.00670262 -18.38784692 3.05510162
VERTEX2 65 -2.68968389 -18.34438561 3.13290618
VERTEX2 66 -3.36619220 -18.32488668 3.11305632
VERTEX2 67 -4.02129017 -18.30978239 -3.12454651
VERTEX2 68 -4.71994974 -18.28954987 3.12348394
VERTEX2 69 -5.36187448 -18.27613660 -3.12245955
VERTEX2 70 -5.51775907 -17.68240073 1.66854946
VERTEX2 71 -5.58890456 -17.03952685 1.73790743
VERTEX2 72 -5.70136695 -16.35885466 1.76489564
VERTEX2 73 -5.83631503 -15.65443991 1.83755733
VERTEX2 74 -6.08898205 -14.95599710 1.85976655
VERTEX2 75 -6.25629437 -14.17017935 1.57201063
VERTEX2 76 -6.30820945 -13.49482871 1.63422339
VERTEX2 77 -6.34751038 -12.85176005 1.75160762
VERTEX2 78 -6.44615464 -12.35129102 1.77273052
VERTEX2 79 -6.39492600 -11.78066004 1.33748862
VERTEX2 80 -6.24305489 -11.13093080 1.40037235
VERTEX2 81 -6.19364228 -10.39710245 1.54295836
VERTEX2 82 -6.14355490 -9.72642855 1.60939610
VERTEX2 83 -6.14640884 -9.07567016 1.55975126
VERTEX2 84 -6.14800940 -8.35797533 1.63361450
VERTEX2 85 -6.17622831 -7.70654753 1.69182077
VERTEX2 86 -6.25505619 -7.02045980 1.64724601
VERTEX2 87 -6.22054156 -6.45543996 1.62300795
VERTEX2 88 -6.26955688 -5.76077560 1.57565869
VERTEX2 89 -6.24616348 -5.13363891 1.54793151
VERTEX2 90 -6.24603616 -4.44113695 1.54215719
VERTEX2 91 -6.21061117 -3.77217605 1.54890434
VERTEX2 92 -6.20936534 -3.12072392 1.65188007
VERTEX2 93 -6.28691600 -2.43502225 1.72183181
VERTEX2 94 -6.31101165 -1.77281766 1.67633259
VERTEX2 95 -6.38871542 -1.12495583 1.68722995
VERTEX2 96 -6.35171482 -0.43388041 1.55895603
VERTEX2 97 -6.32464394 0.12729515 1.57910637
VERTEX2 98 -5.76897341 0.05563633 0.01882153
VERTEX2 99 -5.10680624 0.06735341 0.06068509
VERTEX2 100 -4.39270683 0.12666980 0.03757979
VERTEX2 101 -3.73133041 0.15599452 0.10032353
VERTEX2 102 -3.04470257 0.19931180 0.07779557
VERTEX2 103 -2.35075903 0.27605822 0.08804895
VERTEX2 104 -1.68146661 0.29950640 0.08257539
VERTEX2 105 -1.01381854 0.37204163 0.12321933
VERTEX2 106 -0.47296365 0.44032479 0.07304550
VERTEX2 107 -0.40349799 0.50818319 1.03203024
VERTEX2 108 -0.34246324 0.55478092 1.55900621
VERTEX2 109 -0.39185115 0.55105390 2.10521578
VERTEX2 110 -0.44349269 0.50168228 2.64008953
VERTEX2 111 -0.44684071 0.45610505 -3.07342316
VERTEX2 112 -0.43482150 0.41047056 -2.53626072
VERTEX2 113 -0.42907651 0.41854268 -1.97523509
VERTEX2 114 -0.33362411 0.42139493 -1.43272661
VERTEX2 115 -0.32883306 0.46039974 -0.89458016
VERTEX2 116 -0.41673528 0.46912803 -0.33320229
VERTEX2 117 0.38730068 0.56625091 0.02854219
VERTEX2 118 1.15846539 0.57841387 0.05302492
VERTEX2 119 1.82212382 0.56804210 -0.00443229
VERTEX2 120 2.46379922 0.60012255 0.01788872
VERTEX2 121 3.17020412 0.56788382 -0.04639963
VERTEX2 122 3.86289521 0.54139966 -0.01991835
VERTEX2 123 4.53769952 0.52965480 -0.04686536
VERTEX2 124 5.17289324 0.49513841 -0.02270474
VERTEX2 125 5.82700861 0.50009662 -0.04908209
VERTEX2 126 6.50280360 0.47945202 -0.01745644
VERTEX2 127 7.20227306 0.45691314 -0.08277146
VERTEX2 128 7.87481797 0.41375051 -0.05563333
VERTEX2 129 8.52273707 0.07830337 -0.53029279
VERTEX2 130 9.02244842 -0.28012391 -0.72433419
VERTEX2 131 9.51790528 -0.71206417 -0.78685176
VERTEX2 132 9.91170659 -1.22423642 -0.94593842
VERTEX2 133 10.28837274 -1.82529495 -1.05774538
VERTEX2 134 10.60826362 -2.38299033 -1.07911416
VERTEX2 135 10.90773929 -2.95061062 -1.07162234
VERTEX2 136 11.22925456 -3.57921439 -1.11328565
VERTEX2 137 11.50238565 -4.19794191 -1.15540234
VERTEX2 138 11.80930736 -4.75165158 -1.18618520
VERTEX2 139 12.07798532 -5.38421482 -1.21352293
VERTEX2 140 12.29585020 -5.98939999 -1.26184983
VERTEX2 141 12.47536275 -6.59133631 -1.29132173
VERTEX2 142 12.65017354 -7.25718474 -1.31984839
VERTEX2 143 12.81419698 -7.88914738 -1.37447991
VERTEX2 144 12.94764824 -8.54911282 -1.39423162
VERTEX2 145 13.03314334 -9.21867150 -1.50608714
VERTEX2 146 13.07376035 -9.84184556 -1.50398821
VERTEX2 147 13.09695054 -10.56380776 -1.58521604
VERTEX2 148 13.10545905 -11.17037205 -1.57457917
VERTEX2 149 13.12919268 -11.84609638 -1.62123570
VERTEX2 150 13.07451203 -12.52890817 -1.72320772
VERTEX2 151 12.96115473 -13.12690881 -1.74980517
VERTEX2 152 12.86444680 -13.81158204 -1.75442770
VERTEX2 153 12.75929995 -14.37044517 -1.73234596
VERTEX2 154 12.65496889 -15.03589330 -1.74697786
VERTEX2 155 12.53733104 -15.73981442 -1.71871056
VERTEX2 156 12.46437130 -16.38187687 -1.69837701
VERTEX2 157 12.35434691 -17.02234475 -1.76293341
VERTEX2 158 12.20927993 -17.66764598 -1.78501881
VERTEX2 159 12.06775234 -18.33991352 -1.79274305
VERTEX2 160 11.95488588 -18.86780161 -1.83883266
VERTEX2 161 11.22812496 -18.77176423 -3.09998187
VERTEX2 162 10.56223637 -18.77189550 3.12992886
VERTEX2 163 9.91150679 -18.78233145 -3.08924462
VERTEX2 164 9.22585957 -18.80455984 -3.06770201
VERTEX2 165 8.58069631 -18.87826713 -3.02600993
VERTEX2 166 7.91576038 -18.94175494 -3.03979717
VERTEX2 167 7.24156742 -18.97396412 -3.06990256
VERTEX2 168 6.55171369 -19.05555378 -2.91973907
VERTEX2 169 5.92805994 -19.05932580 3.01464022
VERTEX2 170 5.32857185 -19.01323755 3.13771445
VERTEX2 171 4.86455335 -18.86656945 2.77403331
VERTEX2 172 4.22497010 -18.64446421 2.88024623
VERTEX2 173 3.54722554 -18.49997038 2.84256250
VERTEX2 174 3.02301508 -18.48870252 -3.03267287
VERTEX2 175 2.49490075 -18.58616704 -2.95017324
VERTEX2 176 2.02666350 -18.64916165 -2.90461328
VERTEX2 177 1.34664236 -18.78308564 -3.03641299
VERTEX2 178 0.73293585 -18.78132207 3.03660016
VERTEX2 179 0.08207035 -18.69516668 3.07066037
VERTEX2 180 -0.52694586 -18.70785617 -3.13212945
VERTEX2 181 -1.17971643 -18.71872961 -3.10129913
VERTEX2 182 -1.85625851 -18.74713415 -3.03681085
VERTEX2 183 -2.50909158 -18.79983276 3.13873278
VERTEX2 184 -3.19033214 -18.77167466 3.07952937
VERTEX2 185 -3.86760089 -18.77939479 -3.05289019
VERTEX2 186 -4.25327659 -18.63460205 2.43242970
VERTEX2 187 -4.72591113 -18.14534227 2.37788249
VERTEX2 188 -5.15489134 -17.71996864 2.35669641
VERTEX2 189 -5.59151224 -17.26811334 2.31970806
VERTEX2 190 -5.69432533 -16.78194162 1.79177900
VERTEX2 191 -5.84406436 -16.11014185 1.87570827
VERTEX2 192 -6.07978191 -15.48132745 1.93548796
VERTEX2 193 -6.28040565 -15.00107868 1.92763544
VERTEX2 194 -6.25224414 -14.32692529 1.62877926
VERTEX2 195 -6.28966470 -13.64367833 1.65537306
VERTEX2 196 -6.35907274 -13.09710586 1.75447511
VERTEX2 197 -6.45418463 -12.52010742 1.66663292
VERTEX2 198 -6.49967815 -11.89328449 1.64297600
VERTEX2 199 -6.47203310 -11.09519224 1.44317147
VERTEX2 200 -6.37008288 -10.44059860 1.52067988
VERTEX2 201 -6.35389966 -9.75532922 1.61456028
VERTEX2 202 -6.33244908 -9.07384711 1.51242462
VERTEX2 203 -6.33260980 -8.38825353 1.58767352
VERTEX2 204 -6.41281235 -7.73302794 1.79304907
VERTEX2 205 -6.56390749 -7.05100986 1.80321460
VERTEX2 206 -6.60438548 -6.43863742 1.64754977
VERTEX2 207 -6.67728201 -5.77787325 1.76579212
VERTEX2 208 -6.74599885 -5.15588933 1.58619954
VERTEX2 209 -6.77857009 -4.46771480 1.66838602
VERTEX2 210 -6.76904650 -3.78194927 1.58155907
VERTEX2 211 -6.79835215 -3.12133954 1.57439311
VERTEX2 212 -6.71748245 -2.43418303 1.50641478
VERTEX2 213 -6.69462808 -1.77021626 1.56567084
VERTEX2 214 -6.63503349 -1.08499593 1.54862928
VERTEX2 215 -6.63116427 -0.43649427 1.60290597
VERTEX2 216 -6.64646453 0.22087755 1.63915114
VERTEX2 217 -5.97399782 0.29393724 0.09803966
VERTEX2 218 -5.28229476 0.36755725 0.10144058
VERTEX2 219 -4.59401751 0.40880133 0.04182512
VERTEX2 220 -3.89249136 0.42106215 0.03783133
VERTEX2 221 -3.25319500 0.41569672 -0.05462507
VERTEX2 222 -2.56746697 0.31666310 -0.12429802
VERTEX2 223 -1.87315228 0.23257119 -0.11912898
VERTEX2 224 -1.18976661 0.19285837 -0.13464082
VERTEX2 225 -0.55059626 0.06454969 -0.05154969
VERTEX2 226 -0.07063796 0.05675417 -0.00481700
VERTEX2 227 0.63069893 0.03017682 -0.08290465
VERTEX2 228 1.15293227 0.01119167 -0.09248985
VERTEX2 229 1.61626876 0.04051082 0.08843737
VERTEX2 230 2.39107002 0.14819341 0.10076793
VERTEX2 231 3.04833638 0.17419906 0.05866490
VERTEX2 232 3.63447571 0.21598441 -0.00833360
VERTEX2 233 4.28241430 0.25461246 0.09719563
VERTEX2 234 4.94878745 0.30832535 0.04021945
VERTEX2 235 5.01708059 0.38730752 1.47364104
VERTEX2 236 4.90540990 0.99302965 1.77570200
VERTEX2 237 4.78655855 1.64719226 1.77870323
VERTEX2 238 4.63798684 2.32698615 1.82015859
VERTEX2 239 4.50761623 3.00155593 1.84784787
VERTEX2 240 4.28874635 3.62055430 1.94777882
VERTEX2 241 4.12457504 3.84547745 3.04081788
VERTEX2 242 4.11824556 3.79845177 -2.69385291
VERTEX2 243 4.15842067 3.74403879 -2.16396136
VERTEX2 244 4.20563951 3.73927367 -1.62355961
VERTEX2 245 4.25486785 3.73922095 -1.06820877
VERTEX2 246 4.31833068 3.77865498 -0.52441948
VERTEX2 247 4.33544229 3.82699354 -0.02687185
VERTEX2 248 4.33474656 3.20954997 -1.45926296
VERTEX2 249 4.39889116 2.57155799 -1.51678143
VERTEX2 250 4.42301433 1.92593425 -1.53389568
VERTEX2 251 4.44612297 1.23754430 -1.54095026
VERTEX2 252 4.44726032 0.56502408 -1.56618858
VERTEX2 253 4.53409775 0.55237051 -0.56305913
VERTEX2 254 4.53077296 0.58807920 -0.04344666
VERTEX2 255 4.56565633 0.61150119 0.50878246
VERTEX2 256 4.56997396 0.64089176 1.08022982
VERTEX2 257 4.49317598 0.64772055 1.61737149
VERTEX2 258 4.44798016 0.63750166 2.19540114
VERTEX2 259 4.49369359 0.60366803 2.72267625
VERTEX2 260 4.43237089 0.54878309 -3.01550652
VERTEX2 261 4.46698777 0.49927601 -2.45173326
VERTEX2 262 4.50313908 0.49086557 -1.92158713
VERTEX2 263 4.54083555 0.48079988 -1.36046526
VERTEX2 264 4.54005358 0.50713343 -0.84272374
VERTEX2 265 4.84864320 0.47731573 -0.31503694
VERTEX2 266 5.51502277 0.34271020 -0.21009078
VERTEX2 267 6.18419703 0.18879627 -0.28781956
VERTEX2 268 6.77399538 0.03468585 -0.26196603
VERTEX2 269 6.75672102 -0.63411966 -1.47845250
VERTEX2 270 6.81505701 -1.25287997 -1.52615429
VERTEX2 271 6.88671715 -1.99206677 -1.56359764
VERTEX2 272 6.85129056 -2.06291547 1.68508978
VERTEX2 273 7.02520265 -2.09033408 0.40773654
VERTEX2 274 6.93712594 -2.03782597 0.96934066
VERTEX2 275 7.00794104 -1.50563613 1.36210175
VERTEX2 276 6.97641717 -1.46022444 1.94121046
VERTEX2 277 6.80041796 -0.96556927 1.60259015
VERTEX2 278 7.22594736 -0.44067162 0.93307078
VERTEX2 279 7.62927083 0.12572882 0.89746165
VERTEX2 280 8.25016643 -0.23494871 -0.51246253
VERTEX2 281 8.80991474 -0.57927196 -0.54883027
VERTEX2 282 9.40082837 -0.92483877 -0.58084433
VERTEX2 283 9.62112490 -0.98334317 0.33386720
VERTEX2 284 10.07410408 -0.54443369 0.80015247
VERTEX2 285 10.53347391 -0.00811289 0.90346141
VERTEX2 286 10.93023796 0.51210465 1.02407242
VERTEX2 287 10.92232239 0.68516292 2.03736964
VERTEX2 288 10.86550185 0.64094060 3.06862934
VERTEX2 289 10.90930799 0.53897897 -2.19874046
VERTEX2 290 10.94834529 0.52639677 -1.69036991
VERTEX2 291 11.00132212 0.52428547 -1.12350207
VERTEX2 292 11.31881127 0.41776362 -0.56087064
VERTEX2 293 11.87455044 0.06845033 -0.51411785
VERTEX2 294 12.46759189 -0.24413731 -0.59309904
VERTEX2 295 12.72060105 -0.43836619 0.13687878
VERTEX2 296 12.67061440 -0.38415061 0.65238169
VERTEX2 297 12.61887129 -0.37689233 1.21348844
VERTEX2 298 12.56887718 -0.35377853 1.77797147
VERTEX2 299 12.56147801 -0.38160155 2.31788722
VERTEX2 300 12.49882676 -0.42733320 2.87209622
VERTEX2 301 12.54062318 -0.46326207 -2.85268835
VERTEX2 302 12.38298331 -0.85182560 -2.24475004
VERTEX2 303 11.97825548 -1.38202859 -2.30412830
VERTEX2 304 11.41263243 -1.73970600 -2.58545014
VERTEX2 305 10.87394665 -2.09503053 -2.61522730
VERTEX2 306 10.40269839 -2.37039701 -2.68986808
VERTEX2 307 10.44902249 -2.39097187 -1.64805204
VERTEX2 308 10.49868846 -2.36164753 -1.14327107
VERTEX2 309 10.78155757 -2.90117271 -1.08231890
VERTEX2 310 11.05978904 -3.47475480 -1.19533573
VERTEX2 311 10.43087766 -3.74006964 -2.63494709
VERTEX2 312 9.85826846 -4.00222690 -2.70973608
VERTEX2 313 9.28417877 -4.31837154 -2.63781730
VERTEX2 314 8.68746813 -4.66013659 -2.56569744
VERTEX2 315 8.06516673 -4.64048952 -3.10705018
VERTEX2 316 7.97579373 -4.67212057 -2.55016503
VERTEX2 317 8.09827110 -4.70116868 -2.03855872
VERTEX2 318 8.14849620 -4.69485838 -1.26228659
VERTEX2 319 8.15292981 -4.64890645 -0.70804692
VERTEX2 320 8.15965176 -4.60039272 -0.17315825
VERTEX2 321 8.79884192 -4.58351580 -0.01896974
VERTEX2 322 9.50219092 -4.60267750 -0.04811058
VERTEX2 323 9.77123646 -4.91786818 -1.55660146
VERTEX2 324 9.77996169 -5.59818889 -1.52491122
VERTEX2 325 9.77047307 -6.24827428 -1.59135016
VERTEX2 326 9.77665332 -6.89251720 -1.53002117
VERTEX2 327 9.77949539 -7.47678861 -1.57727267
VERTEX2 328 9.90850927 -6.96652824 1.44506597
VERTEX2 329 9.97478560 -6.31577969 1.52939766
VERTEX2 330 9.98587654 -5.60919184 1.56647228
VERTEX2 331 9.96868719 -4.92390716 1.64411847
VERTEX2 332 10.55045967 -4.87162735 0.18961960
VERTEX2 333 11.16136024 -4.74936343 0.16321031
VERTEX2 334 11.87905102 -4.67768975 0.06571449
VERTEX2 335 11.86395848 -5.26032217 -1.47623113
VERTEX2 336 11.88868495 -5.89743142 -1.56419688
VERTEX2 337 11.95384392 -6.32314024 -0.59030141
VERTEX2 338 12.59012570 -6.31071659 -0.06445523
VERTEX2 339 13.20710235 -6.38673311 -0.12450347
VERTEX2 340 13.85006427 -6.49607414 -0.17610288
VERTEX2 341 14.49146787 -6.63622075 -0.20824678
VERTEX2 342 15.17347603 -6.83066956 -0.27349401
VERTEX2 343 15.65489168 -6.97568690 -0.25463208
VERTEX2 344 15.23489115 -6.90219565 2.99930466
VERTEX2 345 14.54996672 -6.83504345 2.99974570
VERTEX2 346 13.91451190 -6.68211921 3.01296581
VERTEX2 347 13.22336954 -6.57681114 3.04162128
VERTEX2 348 12.58331933 -6.52765923 3.08776370
VERTEX2 349 12.25679549 -6.59741129 -2.24144478
VERTEX2 350 12.30428246 -6.64722870 -1.74326530
VERTEX2 351 12.35004596 -7.19859829 -1.56743768
VERTEX2 352 12.33358660 -7.91073783 -1.61841482
VERTEX2 353 12.37825268 -8.54562687 -1.54029945
VERTEX2 354 12.38148514 -9.21745940 -1.42029758
VERTEX2 355 12.43676359 -9.87244787 -1.51840663
VERTEX2 356 12.44642413 -10.55356549 -1.62620672
VERTEX2 357 12.44877126 -11.26611229 -1.39745105
VERTEX2 358 12.62814098 -11.85713484 -1.32754716
VERTEX2 359 12.76089451 -12.46947084 -1.40572302
VERTEX2 360 12.85027909 -13.16190766 -1.46116884
VERTEX2 361 12.95722577 -13.32675491 -0.39877923
VERTEX2 362 13.54621854 -13.24041715 -0.00010744
VERTEX2 363 14.25124234 -13.31859684 -0.16763859
VERTEX2 364 14.93939360 -13.46883650 -0.21459009
VERTEX2 365 15.57504605 -13.57232206 -0.25723287
VERTEX2 366 15.96611674 -13.59226170 1.20785856
VERTEX2 367 15.82332948 -13.63148958 2.78085894
VERTEX2 368 15.20446940 -13.52586634 2.94738519
VERTEX2 369 14.57419076 -13.38815316 3.00988906
VERTEX2 370 13.90929907 -13.35825673 3.03921973
VERTEX2 371 13.25266219 -13.28486662 3.07968390
VERTEX2 372 12.61708143 -13.22427178 3.02040259
VERTEX2 373 12.60909449 -13.25419964 -2.72929527
VERTEX2 374 12.66990652 -13.30989337 -2.20072319
VERTEX2 375 12.71294998 -13.34457758 -1.64791121
VERTEX2 376 12.70114813 -13.92902512 -1.59605866
VERTEX2 377 12.68725144 -14.61090072 -1.63411959
VERTEX2 378 12.66701646 -15.21815594 -1.65990449
VERTEX2 379 12.59346808 -15.81880208 -1.67428350
VERTEX2 380 12.51743382 -16.44722695 -1.71213364
VERTEX2 381 12.40186185 -17.11094815 -1.81217251
VERTEX2 382 12.26529866 -17.75460086 -1.81864358
VERTEX2 383 12.06195214 -18.39178069 -1.85383101
VERTEX2 384 11.86908345 -19.01676217 -1.92416566
VERTEX2 385 11.90269249 -19.15669115 -0.87993698
VERTEX2 386 11.92369439 -19.10738896 -0.37044645
VERTEX2 387 12.49431414 -19.13997306 -0.12377656
VERTEX2 388 13.14225005 -19.25220386 -0.16086870
VERTEX2 389 13.79932872 -19.38025412 -0.19944761
VERTEX2 390 14.47271720 -19.54732827 -0.30733642
VERTEX2 391 15.09020636 -19.73614482 -0.13221905
VERTEX2 392 15.79110064 -19.79425040 -0.07309248
VERTEX2 393 15.98430861 -19.71124779 0.71481432
VERTEX2 394 15.94193548 -19.69738536 1.24908361
VERTEX2 395 15.89645789 -19.68791260 1.82995334
VERTEX2 396 15.87585766 -19.74667958 2.35811241
VERTEX2 397 15.87574431 -19.79891847 2.93879477
VERTEX2 398 15.85919511 -19.85021311 -2.82768636
VERTEX2 399 15.90761403 -19.90829857 -2.31559091
VERTEX2 400 15.95034256 -19.92464449 -1.74722615
VERTEX2 401 16.00914816 -19.94476536 -1.24907497
VERTEX2 402 15.36316328 -19.67147559 2.82260316
VERTEX2 403 14.75742266 -19.40905274 2.84978417
VERTEX2 404 14.07536069 -19.24208605 2.98075495
VERTEX2 405 13.42577172 -19.10265895 2.98828054
VERTEX2 406 12.76350593 -19.01834212 3.06006862
VERTEX2 407 12.18363909 -19.04307216 3.09898988
VERTEX2 408 11.52335846 -19.02103102 3.13431536
VERTEX2 409 10.83956295 -18.96989528 3.08428900
VERTEX2 410 10.84359613 -19.05520852 -2.18767339
VERTEX2 411 10.88850072 -19.08761129 -1.65370552
VERTEX2 412 10.90030243 -19.71652331 -1.53391800
VERTEX2 413 10.92160746 -20.37408546 -1.56361235
VERTEX2 414 10.92134638 -21.06674096 -1.58424171
VERTEX2 415 10.97542837 -21.25857939 -0.32970528
VERTEX2 416 10.99215965 -21.20957989 0.19751055
VERTEX2 417 11.00030262 -21.10833246 0.75395397
VERTEX2 418 10.95100777 -21.10257858 1.33816569
VERTEX2 419 10.90220238 -21.09574143 1.86011686
VERTEX2 420 10.67212380 -20.50492372 1.92757356
VERTEX2 421 10.40749464 -19.89748740 1.99890240
VERTEX2 422 10.16488688 -19.26605373 2.03818500
VERTEX2 423 9.86986625 -18.65190334 2.08865473
VERTEX2 424 9.78590489 -18.56746004 2.71781546
VERTEX2 425 9.16042090 -18.51984112 3.06779739
VERTEX2 426 8.50466710 -18.47430204 -3.07738275
VERTEX2 427 7.83657291 -18.50719663 -3.11327139
VERTEX2 428 7.18323813 -18.52882491 -3.01436164
VERTEX2 429 6.53379231 -18.60764634 -3.00122252
VERTEX2 430 5.86679653 -18.74414977 -2.92862199
VERTEX2 431 5.22110443 -18.86324563 -2.93709051
VERTEX2 432 4.71607796 -18.97124296 -2.83473752
VERTEX2 433 4.79651751 -19.04256994 -1.76023248
VERTEX2 434 4.77157781 -19.64137190 -1.53599427
VERTEX2 435 4.78724498 -20.24113612 -1.58544808
VERTEX2 436 4.76933199 -20.90696320 -1.60848198
VERTEX2 437 4.72609452 -21.54574011 -1.70483446
VERTEX2 438 4.81288928 -21.65379774 -0.93501581
VERTEX2 439 4.88075265 -21.61161608 -0.37837004
VERTEX2 440 4.89771432 -21.56362433 0.12029058
VERTEX2 441 4.86896992 -21.50684614 0.68157699
VERTEX2 442 4.82437575 -21.50234530 1.21294252
VERTEX2 443 4.76894030 -21.45060706 1.73999333
VERTEX2 444 4.61149704 -20.76036706 1.63204512
VERTEX2 445 4.55488175 -20.07417046 1.69917416
VERTEX2 446 4.42287983 -19.46987345 1.78636207
VERTEX2 447 4.35868247 -18.83993452 1.70761836
VERTEX2 448 4.25122349 -18.55570250 2.81039522
VERTEX2 449 3.60215164 -18.51967690 2.95327632
VERTEX2 450 3.25679955 -18.51666713 -2.28936820
VERTEX2 451 3.31246161 -18.55270229 -1.75463739
VERTEX2 452 3.36293607 -19.15819362 -1.53014276
VERTEX2 453 3.36049009 -19.85294415 -1.79023048
VERTEX2 454 3.20752125 -20.47603145 -1.79290121
VERTEX2 455 3.06688008 -21.10113306 -1.78730799
VERTEX2 456 2.93430500 -21.72839900 -1.80516535
VERTEX2 457 2.95062702 -21.72730406 -1.89204181
VERTEX2 458 3.14255443 -20.86392988 1.54709124
VERTEX2 459 3.19272429 -20.17190701 1.47876405
VERTEX2 460 3.22840396 -19.52542368 1.54235453
VERTEX2 461 3.22708588 -18.87592497 1.60313876
VERTEX2 462 3.15404500 -18.52875293 2.64209530
VERTEX2 463 3.08044358 -18.56144499 -2.99159186
VERTEX2 464 2.41550514 -18.65304583 -2.97426426
VERTEX2 465 1.72757083 -18.72691835 -3.07675210
VERTEX2 466 1.08509255 -18.76634678 3.13159001
VERTEX2 467 0.57697536 -18.72801367 3.05588202
VERTEX2 468 -0.07402006 -18.65891355 3.10175205
VERTEX2 469 -0.75637169 -18.61980124 3.05530831
VERTEX2 470 -1.42123972 -18.57924197 3.06744689
VERTEX2 471 -2.07798792 -18.48249715 3.00846478
VERTEX2 472 -2.65539881 -18.40014094 2.92231687
VERTEX2 473 -2.62267186 -18.47977977 -2.35797548
VERTEX2 474 -2.59194342 -18.52429868 -1.79667091
VERTEX2 475 -2.58744649 -19.18737287 -1.38838255
VERTEX2 476 -2.39654866 -19.87052959 -1.13428787
VERTEX2 477 -2.03770736 -20.41534945 -0.97792157
VERTEX2 478 -1.84407854 -21.07597406 -1.48496359
VERTEX2 479 -1.83698053 -21.70645195 -1.32688596
VERTEX2 480 -1.78833082 -21.66159468 -0.79465076
VERTEX2 481 -1.77354084 -21.61686248 -0.24290781
VERTEX2 482 -1.76450784 -21.57112990 0.28580258
VERTEX2 483 -1.80695033 -21.51377837 0.86635303
VERTEX2 484 -1.84310060 -21.49701925 1.37469688
VERTEX2 485 -1.97864170 -20.89016892 1.72951800
VERTEX2 486 -2.07192487 -20.25676838 1.70774080
VERTEX2 487 -2.25145106 -19.64211639 1.98879263
VERTEX2 488 -2.52364107 -19.02582084 2.00396021
VERTEX2 489 -2.73356192 -18.52478405 1.93034252
VERTEX2 490 -2.79045658 -18.57431622 2.42519657
VERTEX2 491 -2.79730127 -18.58847408 2.98199190
VERTEX2 492 -3.39374078 -18.64983927 -3.09710792
VERTEX2 493 -4.06855801 -18.75429860 -2.96820234
VERTEX2 494 -4.13593319 -18.80056137 -2.17662824
VERTEX2 495 -4.09055030 -18.81266057 -1.64738233
VERTEX2 496 -4.09634280 -19.40480623 -1.54070041
VERTEX2 497 -4.06721232 -19.99901828 -1.54389068
VERTEX2 498 -4.04417812 -20.67252220 -1.53821169
VERTEX2 499 -4.01512404 -21.31970771 -1.59667683
VERTEX2 500 -4.04407662 -22.02109557 -1.60506263
VERTEX2 501 -3.95758929 -21.28586027 -1.79729557
VERTEX2 502 -3.87877078 -20.50695271 1.66309115
VERTEX2 503 -3.99376548 -19.88112224 2.03128645
VERTEX2 504 -4.26784090 -19.32335554 2.00810724
VERTEX2 505 -4.56138819 -18.73701488 2.06645825
VERTEX2 506 -4.69337181 -18.64837969 -3.10238555
VERTEX2 507 -4.92347005 -18.80288077 -2.57757624
VERTEX2 508 -5.47613312 -19.06241213 -2.74606591
VERTEX2 509 -6.06466376 -19.27753083 -2.76320594
VERTEX2 510 -6.70230914 -19.47677520 -2.73366304
VERTEX2 511 -7.22866320 -19.73547603 -2.69810317
VERTEX2 512 -7.81846774 -19.99491026 -2.65056289
VERTEX2 513 -7.98761303 -20.13651825 -2.17475557
VERTEX2 514 -7.88538817 -20.14202513 -1.65622900
VERTEX2 515 -7.83051578 -20.14163628 -1.11225656
VERTEX2 516 -7.77961522 -20.09486966 -0.59745507
VERTEX2 517 -7.77141634 -20.04583626 -0.06160647
VERTEX2 518 -7.81111835 -19.99031752 0.46911922
VERTEX2 519 -7.84303770 -19.93156122 1.03159256
VERTEX2 520 -7.88982662 -19.92692822 1.56574067
VERTEX2 521 -7.31577896 -19.61076047 0.60187476
VERTEX2 522 -6.76158006 -19.17691620 0.71051748
VERTEX2 523 -6.26715940 -18.77797871 0.81323175
VERTEX2 524 -5.78811263 -18.36573068 0.64085382
VERTEX2 525 -5.28979670 -18.00764952 0.66599850
VERTEX2 526 -4.78077604 -17.57718484 0.73535016
VERTEX2 527 -4.27862715 -17.08333745 0.77680536
VERTEX2 528 -3.83801640 -16.71832056 0.50405715
VERTEX2 529 -4.63221559 -16.85940433 -3.00016927
VERTEX2 530 -5.24928895 -16.82483364 -3.13154995
VERTEX2 531 -5.90849466 -16.88276939 -3.06040898
VERTEX2 532 -6.57076099 -16.85273115 3.12622801
VERTEX2 533 -7.21863410 -16.82387982 3.08085752
VERTEX2 534 -7.99026000 -16.72089948 3.12359888
VERTEX2 535 -8.63834343 -16.71627155 3.09444056
VERTEX2 536 -9.27935183 -16.70386164 -3.10899624
VERTEX2 537 -9.47467465 -16.76050398 -2.62210336
VERTEX2 538 -9.43053498 -16.77482475 -2.05595100
VERTEX2 539 -9.38159657 -16.79052060 -1.47591805
VERTEX2 540 -9.32962192 -16.75397542 -0.95762984
VERTEX2 541 -9.24599461 -16.66401823 0.02834672
VERTEX2 542 -8.64566536 -16.60662775 0.17590551
VERTEX2 543 -7.95258862 -16.50154710 0.11165088
VERTEX2 544 -7.26631983 -16.39525456 0.18335684
VERTEX2 545 -6.59588289 -16.24683124 0.24711106
VERTEX2 546 -5.94850332 -16.11029640 0.24313325
VERTEX2 547 -5.81100638 -15.98883743 1.31172213
VERTEX2 548 -5.97960412 -15.40667683 1.74025826
VERTEX2 549 -6.10504411 -14.91310555 2.31407634
VERTEX2 550 -6.09932613 -14.96173005 2.88318834
VERTEX2 551 -6.67318940 -14.94047650 3.08582250
VERTEX2 552 -7.32467465 -14.81645264 3.12154217
VERTEX2 553 -7.37687199 -14.72607252 0.10097130
VERTEX2 554 -6.73527467 -14.74823186 -0.03562593
VERTEX2 555 -6.06357219 -14.80607722 -0.12645491
VERTEX2 556 -5.84871758 -14.81747976 0.37539402
VERTEX2 557 -5.87492908 -14.79609986 0.94019501
VERTEX2 558 -5.91682779 -14.87150418 1.43921612
VERTEX2 559 -6.04969841 -14.31049586 1.71646286
VERTEX2 560 -6.14501406 -13.71196526 1.75414640
VERTEX2 561 -6.22392786 -13.07652788 1.63703069
VERTEX2 562 -6.25343022 -12.47277672 1.73375412
VERTEX2 563 -6.28505051 -11.77170096 1.58407904
VERTEX2 564 -6.30958345 -11.11154009 1.69056910
VERTEX2 565 -6.41122975 -10.49607401 1.68273348
VERTEX2 566 -6.45707483 -9.79434727 1.73542552
VERTEX2 567 -6.59140466 -9.43174189 2.81508106
VERTEX2 568 -7.19911689 -9.50615839 -3.02799090
VERTEX2 569 -7.53445181 -9.59151731 -2.01034532
VERTEX2 570 -7.50411907 -9.57595186 -1.49620021
VERTEX2 571 -7.46167664 -9.54315056 -0.96253886
VERTEX2 572 -7.41552794 -9.50349109 -0.44718539
VERTEX2 573 -7.42526834 -9.51460167 0.11615767
VERTEX2 574 -6.80661565 -9.31247209 0.29669403
VERTEX2 575 -6.16562901 -9.15554098 0.25471158
VERTEX2 576 -6.31529969 -8.51425787 1.73509211
VERTEX2 577 -6.39825326 -8.01198992 1.91871409
VERTEX2 578 -6.45786269 -8.04589261 2.49691381
VERTEX2 579 -6.49402211 -8.08530216 3.01748153
VERTEX2 580 -7.08668714 -8.11098268 -3.07184905
VERTEX2 581 -7.74705320 -8.18613088 -3.07226925
VERTEX2 582 -8.39810623 -8.23583604 -3.03858216
VERTEX2 583 -8.79722530 -7.89652843 2.14495901
VERTEX2 584 -9.15585193 -7.36068379 2.11028114
VERTEX2 585 -8.66289885 -7.65226016 -0.62149350
VERTEX2 586 -8.10820593 -8.04495109 -0.51939829
VERTEX2 587 -7.64602968 -8.01974428 0.14374683
VERTEX2 588 -6.94946712 -7.90749900 0.17913793
VERTEX2 589 -6.80928745 -7.83398909 1.16785927
VERTEX2 590 -6.75263065 -7.17710070 1.49676519
VERTEX2 591 -6.72938430 -6.51346852 1.58137190
VERTEX2 592 -6.74019470 -5.82387954 1.63689297
VERTEX2 593 -6.78662785 -5.15497847 1.75835639
VERTEX2 594 -6.93908309 -4.49408043 1.81495532
VERTEX2 595 -6.98483434 -3.79930052 1.65583896
VERTEX2 596 -7.03781945 -3.15689348 1.73662883
VERTEX2 597 -7.16542275 -2.47064390 1.79762760
VERTEX2 598 -7.32900722 -1.87183230 1.84503246
VERTEX2 599 -7.39621341 -1.91241754 2.39186191
VERTEX2 600 -7.41037673 -1.96039049 2.96949139
VERTEX2 601 -8.00928752 -2.04866487 -3.13677874
VERTEX2 602 -8.70371895 -1.99420540 3.07248010
VERTEX2 603 -9.15212223 -2.05247134 -2.50736187
VERTEX2 604 -9.10390515 -2.06252404 -1.99322541
VERTEX2 605 -9.05451988 -2.08064069 -1.47638531
VERTEX2 606 -9.00371206 -2.08282129 -0.95186943
VERTEX2 607 -8.95719326 -1.98688703 0.07141049
VERTEX2 608 -8.99202369 -1.93136369 0.63715000
VERTEX2 609 -8.37839054 -2.06757324 -0.15044393
VERTEX2 610 -7.69757665 -2.11212309 -0.10330477
VERTEX2 611 -7.05667350 -2.13941393 -0.10203633
VERTEX2 612 -7.01168999 -2.08200346 0.91578623
VERTEX2 613 -7.09259466 -2.05685559 1.42105682
VERTEX2 614 -7.06415033 -1.49779083 1.47338019
VERTEX2 615 -6.96398045 -0.79667172 1.50620535
VERTEX2 616 -6.95576542 -0.14745864 1.59793688
VERTEX2 617 -6.97271387 0.53216234 1.61831888
VERTEX2 618 -7.00979468 1.17910412 1.61051262
VERTEX2 619 -7.03535947 1.84557345 1.60269897
VERTEX2 620 -7.03804797 2.49028437 1.55115142
VERTEX2 621 -7.02464704 3.15729542 1.56808354
VERTEX2 622 -7.07864821 3.54167830 2.53539363
VERTEX2 623 -7.09338473 3.49659037 3.06020829
VERTEX2 624 -7.11280675 3.44739823 -2.67713632
VERTEX2 625 -7.08258720 3.43579484 -2.11736855
VERTEX2 626 -6.98758889 3.42426104 -1.58470230
VERTEX2 627 -6.93679344 3.40693145 -1.03185194
VERTEX2 628 -6.87146516 3.39325021 -0.48261032
VERTEX2 629 -6.85876769 3.44370609 0.03055475
VERTEX2 630 -6.91310672 2.88247234 -1.59205672
VERTEX2 631 -6.93046931 2.27029329 -1.55784815
VERTEX2 632 -6.94027025 1.57343230 -1.59906747
VERTEX2 633 -6.96477923 0.88255077 -1.58603645
VERTEX2 634 -6.99517946 0.23391103 -1.63276728
VERTEX2 635 -6.95651432 -0.04721440 -0.57969142
VERTEX2 636 -6.89247641 0.00848202 -0.06262214
VERTEX2 637 -6.32936498 0.05805899 -0.00113995
VERTEX2 638 -5.61166976 0.11440841 0.00224480
VERTEX2 639 -4.92416754 0.15449673 0.02865607
VERTEX2 640 -4.29586564 0.13347206 -0.00827915
VERTEX2 641 -3.67521168 0.11607975 0.02612913
VERTEX2 642 -2.97738854 0.08890374 -0.03282579
VERTEX2 643 -2.31812878 0.06469260 -0.03744065
VERTEX2 644 -1.66029201 0.00612933 -0.07646323
VERTEX2 645 -1.19933320 0.06020784 0.88850314
VERTEX2 646 -1.25555306 0.09619747 1.42226975
VERTEX2 647 -1.29678863 0.72512597 1.61260122
VERTEX2 648 -1.33665248 1.40511866 1.58846854
VERTEX2 649 -1.33340953 2.07275823 1.60784075
VERTEX2 650 -1.38070465 2.70730999 1.63505031
VERTEX2 651 -1.42471628 3.29098032 1.67822817
VERTEX2 652 -1.49400921 3.27926675 2.76378849
VERTEX2 653 -1.50897300 3.23120720 -2.97959497
VERTEX2 654 -1.47265993 3.16676393 -1.91651531
VERTEX2 655 -1.42202611 3.16213666 -1.34344960
VERTEX2 656 -1.32266135 3.20972767 -0.86134258
VERTEX2 657 -1.25662630 3.24976919 -0.29432274
VERTEX2 658 -1.39447044 2.66653176 -1.63514907
VERTEX2 659 -1.45869298 2.04223629 -1.72785444
VERTEX2 660 -1.24718270 1.24711097 -1.29157479
VERTEX2 661 -1.05937729 0.55853297 -1.53504338
VERTEX2 662 -1.11836895 -0.10741394 -1.77465137
VERTEX2 663 -1.27006780 -0.71941089 -1.86982018
VERTEX2 664 -1.24044110 -0.73179433 -1.34557865
VERTEX2 665 -1.21003524 -0.68276637 -0.29950517
VERTEX2 666 -1.16833427 -0.64029737 0.24778155
VERTEX2 667 -1.34002391 -0.57142909 0.76110377
VERTEX2 668 -1.38517226 -0.54435420 1.29319977
VERTEX2 669 -1.35998697 -0.52884765 1.83364086
VERTEX2 670 -1.37521084 -0.57118456 2.33705952
VERTEX2 671 -1.91341893 -0.40596666 2.80294012
VERTEX2 672 -2.49510427 -0.16411767 2.71176747
VERTEX2 673 -3.10736361 0.13425212 2.76963962
VERTEX2 674 -3.79424448 0.22075924 3.07534963
VERTEX2 675 -4.43692682 0.12652799 -2.83227789
VERTEX2 676 -4.53625683 0.01843908 -2.04629754
VERTEX2 677 -4.86355212 -0.57590223 -2.08923597
VERTEX2 678 -5.17485934 -1.18524633 -2.09517311
VERTEX2 679 -5.45431088 -1.60519854 -2.13694449
VERTEX2 680 -5.82318658 -2.17171563 -2.16961823
VERTEX2 681 -6.19527137 -2.70051434 -2.17067688
VERTEX2 682 -6.53249071 -3.22798477 -2.19417935
VERTEX2 683 -6.42565486 -3.83673116 -1.44302271
VERTEX2 684 -6.32176774 -4.51353591 -1.36076248
VERTEX2 685 -6.17276299 -5.17017745 -1.38637856
VERTEX2 686 -6.02330263 -5.81055701 -1.35775670
VERTEX2 687 -5.98951953 -6.46446034 -1.75960366
VERTEX2 688 -6.08418324 -7.06389765 -1.67670713
VERTEX2 689 -6.14058350 -7.67882704 -1.66965492
VERTEX2 690 -6.20395823 -8.28243563 -1.67715439
VERTEX2 691 -6.29652412 -8.91206913 -1.69995347
VERTEX2 692 -6.06499671 -9.63685168 -1.28781520
VERTEX2 693 -6.03412388 -10.28790807 -1.52975374
VERTEX2 694 -6.00935067 -10.96787214 -1.55656254
VERTEX2 695 -5.98080897 -11.59509693 -1.58807649
VERTEX2 696 -6.00230017 -12.22934659 -1.64642954
VERTEX2 697 -6.07898419 -12.88358914 -1.66721336
VERTEX2 698 -6.20274657 -13.47037871 -1.68114250
VERTEX2 699 -6.04265682 -14.02813576 -1.20286685
VERTEX2 700 -5.80296095 -14.56386270 -1.20493040
VERTEX2 701 -5.57584792 -15.19457169 -1.22716757
VERTEX2 702 -5.34606973 -15.80057022 -1.22896460
VERTEX2 703 -5.13370219 -16.38226164 -1.28192105
VERTEX2 704 -4.97875260 -17.00467877 -1.37610295
VERTEX2 705 -4.89587077 -17.65304155 -1.42371271
VERTEX2 706 -4.81349634 -18.28207734 -1.48122744
VERTEX2 707 -4.68060290 -18.59783245 0.03008776
VERTEX2 708 -4.08395572 -18.50193329 0.16957331
VERTEX2 709 -3.43368280 -18.49812780 -0.00120326
VERTEX2 710 -2.74987029 -18.47414502 0.00803828
VERTEX2 711 -2.10706902 -18.50293273 -0.06629025
VERTEX2 712 -1.42512825 -18.61233744 -0.07460150
VERTEX2 713 -0.76943925 -18.67912806 -0.07526284
VERTEX2 714 -0.08759786 -18.65629327 -0.03629392
VERTEX2 715 0.57804196 -18.71056766 -0.08339229
VERTEX2 716 1.10708806 -18.61603379 0.25442850
VERTEX2 717 1.68536626 -18.50003654 0.28386454
VERTEX2 718 2.30338202 -18.39207342 0.12699094
VERTEX2 719 2.97202921 -18.35105402 -0.10268456
VERTEX2 720 3.99392196 -18.49692430 -0.15466713
VERTEX2 721 4.31675746 -18.49816203 0.04326439
VERTEX2 722 4.97345515 -18.43322026 0.09678009
VERTEX2 723 5.66054561 -18.40804382 -0.01775343
VERTEX2 724 6.31991502 -18.45862690 -0.07457445
VERTEX2 725 7.00263002 -18.50458109 -0.12248292
VERTEX2 726 7.65584181 -18.62188114 -0.17526026
VERTEX2 727 8.29001444 -18.73963593 -0.24777045
VERTEX2 728 8.90829910 -18.85630688 -0.16493553
VERTEX2 729 9.55194595 -18.98671344 -0.18757633
VERTEX2 730 10.22351048 -19.05049572 -0.13968267
VERTEX2 731 10.90831328 -19.04708632 0.06733725
VERTEX2 732 11.58885678 -19.00346290 -0.00589729
VERTEX2 733 12.24199420 -19.00501284 -0.02445284
VERTEX2 734 12.36468392 -18.92337443 1.46210101
VERTEX2 735 12.31742900 -18.60963857 1.71346993
VERTEX2 736 12.21054420 -18.06306941 1.74672905
VERTEX2 737 12.26370389 -17.37632139 1.46214961
VERTEX2 738 12.36246175 -16.72866287 1.53240622
VERTEX2 739 12.42199042 -16.08166634 1.54894107
VERTEX2 740 12.43026406 -15.38251053 1.51748084
VERTEX2 741 12.49841702 -14.70287215 1.55917682
VERTEX2 742 12.53425069 -14.01053663 1.55482757
VERTEX2 743 12.53291666 -13.34865130 1.59487734
VERTEX2 744 12.52136829 -12.66112564 1.59953649
VERTEX2 745 12.50874672 -12.32494285 1.63160699
VERTEX2 746 12.48721505 -11.78017741 1.63861824
VERTEX2 747 12.45868936 -11.10809495 1.68347658
VERTEX2 748 12.39483374 -10.44625634 1.70348851
VERTEX2 749 12.27561387 -9.79186366 1.77333422
VERTEX2 750 12.15826167 -9.12884969 1.74241591
VERTEX2 751 12.07848613 -8.45100624 1.74583479
VERTEX2 752 11.96686452 -7.79552047 1.76672291
VERTEX2 753 11.87414748 -7.16387444 1.76340722
VERTEX2 754 11.73546024 -6.48615877 1.77746032
VERTEX2 755 11.61633433 -5.83448492 1.75787928
VERTEX2 756 11.49491230 -5.19426914 1.77214625
VERTEX2 757 11.39263841 -4.57374007 1.78492233
VERTEX2 758 11.27627032 -3.93596011 1.83820764
VERTEX2 759 11.11591278 -3.33837529 1.79786396
VERTEX2 760 10.99817370 -2.67588204 1.81195311
VERTEX2 761 10.36831348 -2.35317167 2.65855975
VERTEX2 762 9.83925854 -1.94278113 2.37425105
VERTEX2 763 9.37944915 -1.49104462 2.46007293
VERTEX2 764 8.93269224 -1.01698150 2.29359802
VERTEX2 765 8.47062641 -0.52562752 2.35993150
VERTEX2 766 7.99859376 -0.06434448 2.45511539
VERTEX2 767 7.52221085 0.28907544 2.53532975
VERTEX2 768 7.09543618 0.51048779 3.12471313
VERTEX2 769 6.11660004 0.44146135 -3.01116213
VERTEX2 770 5.78390108 0.44552959 -3.08618368
VERTEX2 771 5.12719238 0.41870357 -3.05538337
VERTEX2 772 4.51583278 0.35438352 -2.93860569
VERTEX2 773 3.82915982 0.32234035 -3.07940368
VERTEX2 774 3.03287267 0.24442905 -3.05011720
VERTEX2 775 2.38569903 0.16740165 -2.98632918
VERTEX2 776 1.80657358 0.08848299 -3.11261868
VERTEX2 777 1.13552425 0.08013497 -2.99788331
VERTEX2 778 0.53677061 0.00976795 -3.06908008
VERTEX2 779 -0.18645180 -0.05785501 -3.06754601
VERTEX2 780 -0.69179571 -0.08312938 -3.03462758
VERTEX2 781 -1.31569368 -0.15961091 -2.93268337
VERTEX2 782 -1.82057357 -0.26107864 -2.95173934
VERTEX2 783 -1.71880971 -0.30619396 -1.91111106
VERTEX2 784 -1.62141190 -0.89669446 -1.52709815
VERTEX2 785 -1.60951277 -1.54079985 -1.56632901
VERTEX2 786 -1.61430202 -2.18165252 -1.57516939
VERTEX2 787 -1.57845158 -2.88647293 -1.61304744
VERTEX2 788 -1.59824481 -3.56110379 -1.67891961
VERTEX2 789 -2.35087734 -3.53585179 -3.09466654
VERTEX2 790 -3.05839420 -3.54026664 3.10798395
VERTEX2 791 -3.39319280 -3.58057167 -2.61426414
VERTEX2 792 -3.34970116 -3.67049707 -2.06326312
VERTEX2 793 -3.31324337 -3.72250462 -1.47143229
VERTEX2 794 -3.26319754 -3.72917985 -0.93478122
VERTEX2 795 -3.21042749 -3.71736505 -0.43997851
VERTEX2 796 -3.19945079 -3.68034816 0.12801913
VERTEX2 797 -3.24844476 -3.62302725 0.68460797
VERTEX2 798 -3.28595579 -3.56059237 1.21736338
VERTEX2 799 -2.76774554 -3.64693234 0.05899603
VERTEX2 800 -2.06651616 -3.59809845 0.08623851
VERTEX2 801 -1.41590490 -3.56183958 0.14264938
VERTEX2 802 -0.74198744 -3.50237457 0.07701024
VERTEX2 803 -0.07383228 -3.43862314 0.06970070
VERTEX2 804 -0.02411479 -3.36412520 1.06464432
VERTEX2 805 -0.07175615 -3.35112326 1.56488035
VERTEX2 806 -0.11708086 -3.35584253 2.09521867
VERTEX2 807 -0.16852180 -3.39380921 2.61170831
VERTEX2 808 -0.16417029 -3.43950228 -3.11058321
VERTEX2 809 -0.11476624 -3.47876134 -2.56445242
VERTEX2 810 -0.01425895 -3.53568896 -2.05969822
VERTEX2 811 -0.01164739 -4.18341510 -1.65703737
VERTEX2 812 -0.13028650 -4.83109135 -1.63815493
VERTEX2 813 -0.46631888 -5.03643384 -3.13754568
VERTEX2 814 -1.06237992 -5.08115582 -3.03408192
VERTEX2 815 -1.64334413 -5.11937068 -3.09473870
VERTEX2 816 -1.57907493 -5.17717910 -2.05508127
VERTEX2 817 -2.11002863 -5.57078818 -2.50229956
VERTEX2 818 -2.78180865 -5.73942690 -3.07948159
VERTEX2 819 -3.46031795 -5.72656115 -3.06062273
VERTEX2 820 -3.60870293 -5.79713252 -2.51059191
VERTEX2 821 -3.63974205 -6.39509261 -1.84633132
VERTEX2 822 -3.79435342 -6.96465440 -1.77692280
VERTEX2 823 -4.26561310 -7.40480548 -2.30508618
VERTEX2 824 -4.27176560 -7.49998471 -1.81404418
VERTEX2 825 -4.22239478 -7.49751438 -1.31869514
VERTEX2 826 -4.16241975 -7.44847503 -0.77262682
VERTEX2 827 -4.14037976 -7.39725731 -0.25194103
VERTEX2 828 -4.16180548 -7.32931947 0.28901969
VERTEX2 829 -4.18251294 -7.25406956 0.81062002
VERTEX2 830 -3.89325084 -6.68333873 1.07853183
VERTEX2 831 -3.57739682 -6.10967908 1.09476027
VERTEX2 832 -3.32160167 -5.63589983 1.04190980
VERTEX2 833 -2.64996371 -5.62805945 0.15865005
VERTEX2 834 -1.94936150 -5.50525959 0.14882038
VERTEX2 835 -1.59018467 -5.81716275 -1.64747170
VERTEX2 836 -1.67472392 -6.50121485 -1.69743456
VERTEX2 837 -1.75018608 -7.11715178 -1.81616030
VERTEX2 838 -1.71177528 -7.85208305 -1.61463965
VERTEX2 839 -1.74847629 -8.53444355 -1.65749114
VERTEX2 840 -1.83178597 -9.19981372 -1.66468384
VERTEX2 841 -1.74379223 -9.82791574 -1.39246378
VERTEX2 842 -1.68833434 -10.50786028 -1.53250235
VERTEX2 843 -1.69113708 -11.17646519 -1.57763886
VERTEX2 844 -1.79741732 -11.84310372 -1.68675002
VERTEX2 845 -1.75747397 -12.49953294 -1.35157104
VERTEX2 846 -1.64099636 -13.12578234 -1.45014891
VERTEX2 847 -1.59460265 -13.77540438 -1.43518198
VERTEX2 848 -1.51156560 -14.41444655 -1.44627925
VERTEX2 849 -1.43634176 -14.98340810 -1.44147138
VERTEX2 850 -2.06470803 -15.22338310 -2.64474169
VERTEX2 851 -2.84046292 -15.14629554 3.05814172
VERTEX2 852 -3.47508370 -15.15403360 3.13425031
VERTEX2 853 -4.02040611 -15.14034322 -3.13271481
VERTEX2 854 -3.93983479 -15.26872061 -2.12538179
VERTEX2 855 -3.89321934 -15.23404641 -1.56218711
VERTEX2 856 -3.84439220 -15.24673930 -1.02175359
VERTEX2 857 -3.81333229 -15.20819777 -0.47515943
VERTEX2 858 -3.79645445 -15.11413256 0.04623303
VERTEX2 859 -3.20690589 -15.01989187 0.14279258
VERTEX2 860 -2.47903855 -15.06639904 -0.27264667
VERTEX2 861 -1.83685732 -15.26015814 -0.32161751
VERTEX2 862 -1.27422736 -15.45038403 -0.35752275
VERTEX2 863 -1.32576919 -16.03082580 -1.74561016
VERTEX2 864 -1.38733857 -16.68459305 -1.73121214
VERTEX2 865 -1.79332470 -16.89530425 3.07477823
VERTEX2 866 -2.40081763 -16.92631179 -3.10350224
VERTEX2 867 -3.02070664 -16.90367535 -3.14154470
VERTEX2 868 -3.71962104 -16.84822215 3.12959615
VERTEX2 869 -4.31579967 -16.84030166 -3.08661184
VERTEX2 870 -4.95409234 -16.88554340 -3.08041714
VERTEX2 871 -5.39644977 -16.96072317 -2.27395843
VERTEX2 872 -5.30965773 -16.97442780 -1.75924863
VERTEX2 873 -5.24422842 -16.97591578 -1.17189750
VERTEX2 874 -5.20776112 -16.93123371 -0.61614017
VERTEX2 875 -5.15884521 -16.86222981 -0.06897415
VERTEX2 876 -5.18483560 -16.83221387 0.47056037
VERTEX2 877 -5.21068960 -16.79831046 1.01032858
VERTEX2 878 -5.24942564 -16.75985541 1.54834124
VERTEX2 879 -5.45947301 -16.19081189 1.90401617
VERTEX2 880 -5.62098815 -15.56323250 1.84994492
VERTEX2 881 -5.79077975 -14.98559786 1.95834518
VERTEX2 882 -6.02738384 -14.34910687 1.84421822
VERTEX2 883 -6.19506837 -13.59417130 1.72463795
VERTEX2 884 -6.20957467 -12.88559791 1.55783193
VERTEX2 885 -6.14313287 -12.29411815 1.57799476
VERTEX2 886 -6.15519568 -11.61715272 1.61802759
VERTEX2 887 -6.17670970 -10.90824578 1.66895232
VERTEX2 888 -6.22646035 -10.28353750 1.67262571
VERTEX2 889 -6.29875255 -10.39579625 2.66280505
VERTEX2 890 -6.32479561 -10.45322624 -3.01445247
VERTEX2 891 -6.29094047 -10.37616946 -2.49407294
VERTEX2 892 -6.24991835 -10.46843589 -1.91100123
VERTEX2 893 -6.13701572 -11.06210255 -1.46462530
VERTEX2 894 -6.03872155 -11.67553541 -1.43694474
VERTEX2 895 -5.94573872 -12.40772009 -1.50330239
VERTEX2 896 -5.90709528 -13.01168924 -1.50507720
VERTEX2 897 -5.94393117 -13.69208040 -1.59236518
VERTEX2 898 -5.98073397 -14.31381019 -1.56374728
VERTEX2 899 -6.04796029 -14.96174210 -1.64338267
VERTEX2 900 -6.15968306 -15.57839973 -1.64004617
VERTEX2 901 -6.21211937 -16.20593895 -1.67005918
VERTEX2 902 -6.16903718 -16.65603081 -1.22993013
VERTEX2 903 -6.10282450 -16.58726494 -0.70834873
VERTEX2 904 -6.05962666 -16.52258108 -0.19505521
VERTEX2 905 -5.46581039 -16.61818647 -0.13892843
VERTEX2 906 -4.85984769 -16.68639814 -0.05134694
VERTEX2 907 -4.13206603 -16.75813147 -0.08555950
VERTEX2 908 -3.47188868 -16.73829763 -0.03348478
VERTEX2 909 -2.75514425 -16.79021953 -0.01340421
VERTEX2 910 -2.04803081 -16.81889663 -0.04311929
VERTEX2 911 -1.39839301 -16.80408039 -0.01228354
VERTEX2 912 -1.38084887 -16.77790541 0.50737780
VERTEX2 913 -1.49028416 -16.70316037 1.52197337
VERTEX2 914 -1.52383057 -16.13177452 1.60525566
VERTEX2 915 -1.50511517 -15.47259719 1.62946039
VERTEX2 916 -1.57921416 -14.79584279 1.68610271
VERTEX2 917 -1.58072655 -13.83713761 1.53167893
VERTEX2 918 -1.63474078 -14.48321659 1.70557862
VERTEX2 919 -1.54084243 -13.45931081 1.53573436
VERTEX2 920 -1.59965347 -12.82791283 1.75975719
VERTEX2 921 -1.63813715 -12.11682010 1.61068198
VERTEX2 922 -1.66741376 -11.46289730 1.67076977
VERTEX2 923 -1.76864046 -10.78492462 1.72109483
VERTEX2 924 -1.86173006 -10.15651073 1.78032557
VERTEX2 925 -1.84599450 -9.57894158 1.50166350
VERTEX2 926 -1.81322599 -9.09962920 1.52394220
VERTEX2 927 -1.78692719 -8.45020205 1.58706727
VERTEX2 928 -1.73384360 -7.81363844 1.49843686
VERTEX2 929 -1.71794357 -7.16415239 1.58972295
VERTEX2 930 -1.69440599 -5.85894892 1.50053983
VERTEX2 931 -1.68822141 -6.53248018 1.60172168
VERTEX2 932 -1.67552351 -5.53332359 1.52406469
VERTEX2 933 -1.64901840 -4.86815361 1.59063143
VERTEX2 934 -1.68082759 -4.19145747 1.65495191
VERTEX2 935 -1.65987234 -3.41612601 1.43070628
VERTEX2 936 -1.58543382 -2.79830680 1.49996114
VERTEX2 937 -1.59045647 -2.22442457 1.61403812
VERTEX2 938 -1.65480201 -1.62368651 1.68619907
VERTEX2 939 -1.64800007 -0.97861266 1.64355692
VERTEX2 940 -1.68416355 -0.28046926 1.71791221
VERTEX2 941 -1.24428722 -0.09024651 -0.00229274
VERTEX2 942 -0.74467219 -0.09585307 -0.00632072
