1 5 121 0 0.00451800 0.00455989 -0.00004190 -0.00918809 0.00000000 0.00000000 0.00000000 0.00000000
2 6 122 0 0.02390843 0.02390913 -0.00000070 -0.00002910 0.00000000 0.00000000 0.00000000 0.00000000
3 7 124 0 0.00611589 0.00611729 -0.00000140 -0.00022841 0.00000000 0.00000000 0.00000000 0.00000000
4 8 125 0 0.00060743 0.00060715 0.00000028 0.00046237 0.00000000 0.00000000 0.00000000 0.00000000
5 9 126 0 0.00097454 0.00097462 -0.00000008 -0.00007728 0.00000000 0.00000000 0.00000000 0.00000000
6 10 127 0 0.00075047 0.00075046 0.00000001 0.00000815 0.00000000 0.00000000 0.00000000 0.00000000
7 11 128 0 0.01556621 0.01556646 -0.00000025 -0.00001581 0.00000000 0.00000000 0.00000000 0.00000000
8 12 129 0 0.01647050 0.01645895 0.00001155 0.00070168 0.00000000 0.00000000 0.00000000 0.00000000
9 13 130 0 0.03365102 0.03365390 -0.00000288 -0.00008564 0.00000000 0.00000000 0.00000000 0.00000000
10 13 131 0 0.02456832 0.02456858 -0.00000026 -0.00001078 0.00000000 0.00000000 0.00000000 0.00000000
11 14 132 0 0.02628390 0.02628709 -0.00000319 -0.00012127 0.00000000 0.00000000 0.00000000 0.00000000
12 15 133 0 0.00326697 0.00326210 0.00000487 0.00149208 0.00000000 0.00000000 0.00000000 0.00000000
13 16 134 0 0.00016786 0.00016767 0.00000019 0.00116032 0.00000000 0.00000000 0.00000000 0.00000000
14 17 135 0 0.00018646 0.00018646 -0.00000000 -0.00000672 0.00000000 0.00000000 0.00000000 0.00000000
15 18 136 0 0.03259553 0.03259644 -0.00000091 -0.00002800 0.00000000 0.00000000 0.00000000 0.00000000
16 20 137 0 0.00028096 0.00028257 -0.00000161 -0.00569702 0.00000000 0.00000000 0.00000000 0.00000000
17 21 138 0 0.01474662 0.01474606 0.00000057 0.00003842 0.00000000 0.00000000 0.00000000 0.00000000
18 22 139 0 0.02787267 0.02787279 -0.00000012 -0.00000417 0.00000000 0.00000000 0.00000000 0.00000000
19 22 140 0 0.00088831 0.00089354 -0.00000523 -0.00584902 0.00000000 0.00000000 0.00000000 0.00000000
20 23 141 0 0.00223281 0.00223278 0.00000003 0.00001278 0.00000000 0.00000000 0.00000000 0.00000000
21 24 142 0 0.00068255 0.00068232 0.00000023 0.00034090 0.00000000 0.00000000 0.00000000 0.00000000
22 25 143 0 0.00008780 0.00008778 0.00000002 0.00018387 0.00000000 0.00000000 0.00000000 0.00000000
23 26 144 0 0.00032672 0.00032671 0.00000001 0.00002438 0.00000000 0.00000000 0.00000000 0.00000000
24 27 145 0 0.04354369 0.04354935 -0.00000567 -0.00013012 0.00000000 0.00000000 0.00000000 0.00000000
25 28 146 0 0.01619345 0.01619373 -0.00000027 -0.00001684 0.00000000 0.00000000 0.00000000 0.00000000
26 29 147 0 0.01595374 0.01595570 -0.00000196 -0.00012304 0.00000000 0.00000000 0.00000000 0.00000000
27 30 148 0 0.04822764 0.04822639 0.00000125 0.00002594 0.00000000 0.00000000 0.00000000 0.00000000
28 32 149 0 0.00066542 0.00066387 0.00000155 0.00233729 0.00000000 0.00000000 0.00000000 0.00000000
29 33 150 0 0.00000521 0.00000529 -0.00000009 -0.01659042 0.00000000 0.00000000 0.00000000 0.00000000
30 33 151 0 0.02236181 0.02236202 -0.00000020 -0.00000897 0.00000000 0.00000000 0.00000000 0.00000000
31 34 152 0 0.01559318 0.01560239 -0.00000921 -0.00059041 0.00000000 0.00000000 0.00000000 0.00000000
32 35 153 0 0.00000566 0.00000573 -0.00000007 -0.01271780 0.00000000 0.00000000 0.00000000 0.00000000
33 36 154 0 0.01528674 0.01528681 -0.00000006 -0.00000399 0.00000000 0.00000000 0.00000000 0.00000000
34 37 155 0 0.00000503 0.00000504 -0.00000001 -0.00174190 0.00000000 0.00000000 0.00000000 0.00000000
35 38 156 0 0.00161355 0.00161351 0.00000004 0.00002422 0.00000000 0.00000000 0.00000000 0.00000000
36 39 157 0 0.00375411 0.00375380 0.00000031 0.00008205 0.00000000 0.00000000 0.00000000 0.00000000
37 40 158 0 0.01722736 0.01722557 0.00000180 0.00010421 0.00000000 0.00000000 0.00000000 0.00000000
38 41 159 0 0.01846398 0.01846370 0.00000028 0.00001496 0.00000000 0.00000000 0.00000000 0.00000000
39 42 160 0 0.02107564 0.02107740 -0.00000176 -0.00008366 0.00000000 0.00000000 0.00000000 0.00000000
40 43 161 0 0.01932151 0.01932337 -0.00000186 -0.00009609 0.00000000 0.00000000 0.00000000 0.00000000
41 44 162 0 0.00041558 0.00041879 -0.00000320 -0.00765070 0.00000000 0.00000000 0.00000000 0.00000000
42 45 163 0 0.00001363 0.00001371 -0.00000008 -0.00583909 0.00000000 0.00000000 0.00000000 0.00000000
43 46 164 0 0.02099132 0.02099206 -0.00000073 -0.00003487 0.00000000 0.00000000 0.00000000 0.00000000
44 47 165 0 0.00374146 0.00374439 -0.00000293 -0.00078380 0.00000000 0.00000000 0.00000000 0.00000000
45 48 166 0 0.01528845 0.01531057 -0.00002211 -0.00144433 0.00000000 0.00000000 0.00000000 0.00000000
46 49 167 0 0.01581760 0.01581572 0.00000188 0.00011891 0.00000000 0.00000000 0.00000000 0.00000000
47 50 168 0 0.00051416 0.00051375 0.00000041 0.00079851 0.00000000 0.00000000 0.00000000 0.00000000
48 51 169 0 0.00180878 0.00180846 0.00000032 0.00017870 0.00000000 0.00000000 0.00000000 0.00000000
49 52 170 0 0.00057421 0.00057449 -0.00000028 -0.00049211 0.00000000 0.00000000 0.00000000 0.00000000
50 53 171 0 0.01490208 0.01489624 0.00000584 0.00039203 0.00000000 0.00000000 0.00000000 0.00000000
51 54 172 0 0.00001028 0.00001028 0.00000000 0.00044523 0.00000000 0.00000000 0.00000000 0.00000000
52 55 173 0 0.04711372 0.04711669 -0.00000297 -0.00006301 0.00000000 0.00000000 0.00000000 0.00000000
53 55 174 0 0.07461194 0.07461939 -0.00000745 -0.00009982 0.00000000 0.00000000 0.00000000 0.00000000
54 56 175 0 0.08206789 0.08183030 0.00023759 0.00290344 0.00000000 0.00000000 0.00000000 0.00000000
55 57 176 0 0.01657957 0.01658377 -0.00000420 -0.00025348 0.00000000 0.00000000 0.00000000 0.00000000
56 58 177 0 0.03726989 0.03727533 -0.00000544 -0.00014597 0.00000000 0.00000000 0.00000000 0.00000000
57 59 178 0 0.01593632 0.01590036 0.00003596 0.00226136 0.00000000 0.00000000 0.00000000 0.00000000
58 60 179 0 0.01597614 0.01597625 -0.00000011 -0.00000695 0.00000000 0.00000000 0.00000000 0.00000000
59 61 180 0 0.01477321 0.01477827 -0.00000506 -0.00034244 0.00000000 0.00000000 0.00000000 0.00000000
60 62 181 0 0.01685484 0.01685088 0.00000395 0.00023469 0.00000000 0.00000000 0.00000000 0.00000000
61 63 182 0 0.02927317 0.02930277 -0.00002960 -0.00101011 0.00000000 0.00000000 0.00000000 0.00000000
62 64 183 0 0.01521232 0.01520214 0.00001019 0.00067019 0.00000000 0.00000000 0.00000000 0.00000000
63 65 184 0 0.00054678 0.00054749 -0.00000071 -0.00130035 0.00000000 0.00000000 0.00000000 0.00000000
64 66 185 0 0.03014488 0.03014580 -0.00000091 -0.00003032 0.00000000 0.00000000 0.00000000 0.00000000
65 66 186 0 0.00056755 0.00057038 -0.00000283 -0.00495752 0.00000000 0.00000000 0.00000000 0.00000000
66 67 187 0 0.01473374 0.01473363 0.00000011 0.00000722 0.00000000 0.00000000 0.00000000 0.00000000
67 68 188 0 0.00071356 0.00071359 -0.00000003 -0.00004264 0.00000000 0.00000000 0.00000000 0.00000000
68 70 189 0 0.00031484 0.00031499 -0.00000015 -0.00048703 0.00000000 0.00000000 0.00000000 0.00000000
69 70 190 0 0.00064508 0.00064509 -0.00000000 -0.00000770 0.00000000 0.00000000 0.00000000 0.00000000
70 71 191 0 0.00027125 0.00027125 0.00000000 0.00000702 0.00000000 0.00000000 0.00000000 0.00000000
71 72 192 0 0.00053998 0.00053999 -0.00000000 -0.00000902 0.00000000 0.00000000 0.00000000 0.00000000
72 73 193 0 0.01521893 0.01522447 -0.00000554 -0.00036377 0.00000000 0.00000000 0.00000000 0.00000000
73 74 194 0 0.00042167 0.00042113 0.00000054 0.00127321 0.00000000 0.00000000 0.00000000 0.00000000
74 75 195 0 0.03268808 0.03269336 -0.00000528 -0.00016146 0.00000000 0.00000000 0.00000000 0.00000000
75 76 196 0 0.02071898 0.02072018 -0.00000120 -0.00005792 0.00000000 0.00000000 0.00000000 0.00000000
76 76 197 0 0.11125007 0.11146481 -0.00021474 -0.00192656 0.00000000 0.00000000 0.00000000 0.00000000
77 77 198 0 0.06002438 0.06005870 -0.00003432 -0.00057150 0.00000000 0.00000000 0.00000000 0.00000000
78 79 199 0 0.04499983 0.04500030 -0.00000048 -0.00001057 0.00000000 0.00000000 0.00000000 0.00000000
79 80 200 0 0.02470238 0.02470068 0.00000170 0.00006869 0.00000000 0.00000000 0.00000000 0.00000000
80 81 201 0 0.01547844 0.01547845 -0.00000002 -0.00000099 0.00000000 0.00000000 0.00000000 0.00000000
81 82 202 0 0.00250739 0.00250480 0.00000258 0.00103051 0.00000000 0.00000000 0.00000000 0.00000000
82 83 203 0 0.01638697 0.01639298 -0.00000601 -0.00036679 0.00000000 0.00000000 0.00000000 0.00000000
83 84 204 0 0.00142385 0.00142349 0.00000036 0.00025633 0.00000000 0.00000000 0.00000000 0.00000000
84 85 205 0 0.00209184 0.00209135 0.00000049 0.00023480 0.00000000 0.00000000 0.00000000 0.00000000
85 86 206 0 0.01548123 0.01545522 0.00002601 0.00168321 0.00000000 0.00000000 0.00000000 0.00000000
86 87 207 0 0.03535452 0.03532719 0.00002732 0.00077343 0.00000000 0.00000000 0.00000000 0.00000000
87 88 208 0 0.01394128 0.01392088 0.00002040 0.00146540 0.00000000 0.00000000 0.00000000 0.00000000
88 89 209 0 0.00093004 0.00093148 -0.00000145 -0.00155289 0.00000000 0.00000000 0.00000000 0.00000000
89 90 210 0 0.06717962 0.06720613 -0.00002651 -0.00039446 0.00000000 0.00000000 0.00000000 0.00000000
90 91 211 0 0.02427437 0.02408062 0.00019375 0.00804585 0.00000000 0.00000000 0.00000000 0.00000000
91 92 212 0 0.00012534 0.00012645 -0.00000111 -0.00878903 0.00000000 0.00000000 0.00000000 0.00000000
92 93 213 0 0.00093057 0.00093064 -0.00000007 -0.00007149 0.00000000 0.00000000 0.00000000 0.00000000
93 94 214 0 0.03048686 0.03050214 -0.00001528 -0.00050103 0.00000000 0.00000000 0.00000000 0.00000000
94 95 215 0 0.00062750 0.00062815 -0.00000064 -0.00102427 0.00000000 0.00000000 0.00000000 0.00000000
95 96 216 0 0.03371160 0.03370487 0.00000674 0.00019985 0.00000000 0.00000000 0.00000000 0.00000000
96 96 217 0 0.00937091 0.00937648 -0.00000557 -0.00059415 0.00000000 0.00000000 0.00000000 0.00000000
97 98 218 0 0.01138909 0.01139192 -0.00000283 -0.00024825 0.00000000 0.00000000 0.00000000 0.00000000
98 99 219 0 0.03091661 0.03092298 -0.00000637 -0.00020587 0.00000000 0.00000000 0.00000000 0.00000000
99 100 220 0 0.00146246 0.00146430 -0.00000183 -0.00125274 0.00000000 0.00000000 0.00000000 0.00000000
100 101 221 0 0.00253275 0.00253197 0.00000078 0.00030938 0.00000000 0.00000000 0.00000000 0.00000000
101 102 222 0 0.01606934 0.01605979 0.00000955 0.00059489 0.00000000 0.00000000 0.00000000 0.00000000
102 103 223 0 0.00012659 0.00012742 -0.00000083 -0.00652217 0.00000000 0.00000000 0.00000000 0.00000000
103 104 224 0 0.00014723 0.00014721 0.00000001 0.00009187 0.00000000 0.00000000 0.00000000 0.00000000
104 0 225 0 0.01530072 0.01536257 -0.00006186 -0.00402640 0.00000000 0.00000000 0.00000000 0.00000000
105 105 225 0 0.01903686 0.01898970 0.00004716 0.00248332 0.00000000 0.00000000 0.00000000 0.00000000
106 0 226 0 0.07458462 0.07459785 -0.00001322 -0.00017728 0.00000000 0.00000000 0.00000000 0.00000000
107 105 226 0 0.04429418 0.04429458 -0.00000040 -0.00000893 0.00000000 0.00000000 0.00000000 0.00000000
108 0 227 0 0.01080393 0.01080411 -0.00000018 -0.00001662 0.00000000 0.00000000 0.00000000 0.00000000
109 117 227 0 0.00270052 0.00270181 -0.00000129 -0.00047904 0.00000000 0.00000000 0.00000000 0.00000000
110 117 228 0 0.04887840 0.04887792 0.00000048 0.00000981 0.00000000 0.00000000 0.00000000 0.00000000
111 2 228 0 0.00679329 0.00679068 0.00000261 0.00038432 0.00000000 0.00000000 0.00000000 0.00000000
112 118 229 0 0.06981150 0.06980884 0.00000266 0.00003814 0.00000000 0.00000000 0.00000000 0.00000000
113 2 229 0 0.05318157 0.05318771 -0.00000613 -0.00011534 0.00000000 0.00000000 0.00000000 0.00000000
114 119 230 0 0.07407360 0.07407520 -0.00000160 -0.00002154 0.00000000 0.00000000 0.00000000 0.00000000
115 3 230 0 0.01799803 0.01799622 0.00000181 0.00010049 0.00000000 0.00000000 0.00000000 0.00000000
116 120 231 0 0.04453030 0.04452905 0.00000126 0.00002822 0.00000000 0.00000000 0.00000000 0.00000000
117 4 231 0 0.01007783 0.01006923 0.00000860 0.00085430 0.00000000 0.00000000 0.00000000 0.00000000
118 121 232 0 0.07452947 0.07453198 -0.00000250 -0.00003361 0.00000000 0.00000000 0.00000000 0.00000000
119 5 232 0 0.02283163 0.02283162 0.00000001 0.00000045 0.00000000 0.00000000 0.00000000 0.00000000
120 122 233 0 0.04197299 0.04197734 -0.00000435 -0.00010366 0.00000000 0.00000000 0.00000000 0.00000000
121 6 233 0 0.00818199 0.00819109 -0.00000911 -0.00111189 0.00000000 0.00000000 0.00000000 0.00000000
122 123 234 0 0.01343913 0.01343860 0.00000053 0.00003944 0.00000000 0.00000000 0.00000000 0.00000000
123 7 234 0 0.00508167 0.00508096 0.00000071 0.00013945 0.00000000 0.00000000 0.00000000 0.00000000
124 123 235 0 0.03189120 0.03189639 -0.00000518 -0.00016246 0.00000000 0.00000000 0.00000000 0.00000000
125 7 235 0 0.00695393 0.00695179 0.00000215 0.00030892 0.00000000 0.00000000 0.00000000 0.00000000
126 123 236 0 0.01956052 0.01956264 -0.00000212 -0.00010842 0.00000000 0.00000000 0.00000000 0.00000000
127 122 251 0 0.00409820 0.00409685 0.00000135 0.00033027 0.00000000 0.00000000 0.00000000 0.00000000
128 122 252 0 0.01882258 0.01882453 -0.00000196 -0.00010400 0.00000000 0.00000000 0.00000000 0.00000000
129 6 252 0 0.00437183 0.00437107 0.00000076 0.00017403 0.00000000 0.00000000 0.00000000 0.00000000
130 122 253 0 0.02449463 0.02449533 -0.00000070 -0.00002854 0.00000000 0.00000000 0.00000000 0.00000000
131 7 253 0 0.00530283 0.00530444 -0.00000161 -0.00030288 0.00000000 0.00000000 0.00000000 0.00000000
132 122 254 0 0.02863442 0.02863368 0.00000074 0.00002591 0.00000000 0.00000000 0.00000000 0.00000000
133 7 254 0 0.00511808 0.00511781 0.00000027 0.00005200 0.00000000 0.00000000 0.00000000 0.00000000
134 122 255 0 0.03087411 0.03087657 -0.00000247 -0.00007988 0.00000000 0.00000000 0.00000000 0.00000000
135 7 255 0 0.01072182 0.01071940 0.00000243 0.00022623 0.00000000 0.00000000 0.00000000 0.00000000
136 122 256 0 0.02571646 0.02571756 -0.00000110 -0.00004295 0.00000000 0.00000000 0.00000000 0.00000000
137 7 256 0 0.00979001 0.00979014 -0.00000012 -0.00001265 0.00000000 0.00000000 0.00000000 0.00000000
138 122 257 0 0.00219550 0.00219581 -0.00000031 -0.00013974 0.00000000 0.00000000 0.00000000 0.00000000
139 7 257 0 0.00174410 0.00174417 -0.00000007 -0.00003979 0.00000000 0.00000000 0.00000000 0.00000000
140 122 258 0 0.02317913 0.02317965 -0.00000053 -0.00002267 0.00000000 0.00000000 0.00000000 0.00000000
141 122 259 0 0.04363395 0.04363365 0.00000030 0.00000685 0.00000000 0.00000000 0.00000000 0.00000000
142 7 259 0 0.00389207 0.00389138 0.00000069 0.00017684 0.00000000 0.00000000 0.00000000 0.00000000
143 122 263 0 0.04562568 0.04562607 -0.00000038 -0.00000838 0.00000000 0.00000000 0.00000000 0.00000000
144 6 263 0 0.00498300 0.00498273 0.00000026 0.00005303 0.00000000 0.00000000 0.00000000 0.00000000
145 122 264 0 0.03524528 0.03524495 0.00000032 0.00000922 0.00000000 0.00000000 0.00000000 0.00000000
146 6 264 0 0.00919349 0.00919382 -0.00000033 -0.00003546 0.00000000 0.00000000 0.00000000 0.00000000
147 122 265 0 0.05879685 0.05879966 -0.00000281 -0.00004771 0.00000000 0.00000000 0.00000000 0.00000000
148 7 265 0 0.03964142 0.03964383 -0.00000241 -0.00006082 0.00000000 0.00000000 0.00000000 0.00000000
149 124 266 0 0.04550480 0.04550293 0.00000187 0.00004118 0.00000000 0.00000000 0.00000000 0.00000000
150 8 266 0 0.00927751 0.00927483 0.00000267 0.00028831 0.00000000 0.00000000 0.00000000 0.00000000
151 125 267 0 0.01915553 0.01915727 -0.00000173 -0.00009049 0.00000000 0.00000000 0.00000000 0.00000000
152 8 267 0 0.00699309 0.00699052 0.00000256 0.00036682 0.00000000 0.00000000 0.00000000 0.00000000
153 126 268 0 0.00168828 0.00168881 -0.00000053 -0.00031611 0.00000000 0.00000000 0.00000000 0.00000000
154 9 268 0 0.00050672 0.00050683 -0.00000011 -0.00021821 0.00000000 0.00000000 0.00000000 0.00000000
155 9 269 0 0.00075944 0.00075945 -0.00000002 -0.00002080 0.00000000 0.00000000 0.00000000 0.00000000
156 10 270 0 0.01590211 0.01590215 -0.00000004 -0.00000246 0.00000000 0.00000000 0.00000000 0.00000000
157 10 277 0 0.00819450 0.00818926 0.00000525 0.00064096 0.00000000 0.00000000 0.00000000 0.00000000
158 10 278 0 0.00003463 0.00003486 -0.00000022 -0.00632761 0.00000000 0.00000000 0.00000000 0.00000000
159 127 278 0 0.00009482 0.00009499 -0.00000017 -0.00181975 0.00000000 0.00000000 0.00000000 0.00000000
160 11 279 0 0.01217738 0.01217765 -0.00000028 -0.00002289 0.00000000 0.00000000 0.00000000 0.00000000
161 127 279 0 0.01172304 0.01172352 -0.00000047 -0.00004035 0.00000000 0.00000000 0.00000000 0.00000000
162 11 280 0 0.03008254 0.03008340 -0.00000086 -0.00002864 0.00000000 0.00000000 0.00000000 0.00000000
163 128 280 0 0.00409999 0.00409823 0.00000177 0.00043130 0.00000000 0.00000000 0.00000000 0.00000000
164 12 281 0 0.01627642 0.01627407 0.00000235 0.00014438 0.00000000 0.00000000 0.00000000 0.00000000
165 129 281 0 0.00547522 0.00548004 -0.00000482 -0.00088008 0.00000000 0.00000000 0.00000000 0.00000000
166 130 282 0 0.00499257 0.00499196 0.00000061 0.00012183 0.00000000 0.00000000 0.00000000 0.00000000
167 14 282 0 0.00215770 0.00215735 0.00000035 0.00016115 0.00000000 0.00000000 0.00000000 0.00000000
168 130 283 0 0.05889743 0.05889598 0.00000145 0.00002455 0.00000000 0.00000000 0.00000000 0.00000000
169 14 283 0 0.01511572 0.01512501 -0.00000929 -0.00061421 0.00000000 0.00000000 0.00000000 0.00000000
170 131 284 0 0.02078990 0.02079090 -0.00000100 -0.00004787 0.00000000 0.00000000 0.00000000 0.00000000
171 15 284 0 0.00415523 0.00415981 -0.00000458 -0.00110213 0.00000000 0.00000000 0.00000000 0.00000000
172 133 305 0 0.00332347 0.00332325 0.00000022 0.00006748 0.00000000 0.00000000 0.00000000 0.00000000
173 133 307 0 0.00084027 0.00084122 -0.00000096 -0.00114092 0.00000000 0.00000000 0.00000000 0.00000000
174 16 307 0 0.00000668 0.00000586 0.00000082 0.14042616 0.00000000 0.00000000 0.00000000 0.00000000
175 133 308 0 0.00031517 0.00031523 -0.00000006 -0.00019261 0.00000000 0.00000000 0.00000000 0.00000000
176 16 308 0 0.00061798 0.00061801 -0.00000003 -0.00004524 0.00000000 0.00000000 0.00000000 0.00000000
177 134 309 0 0.00030675 0.00030689 -0.00000014 -0.00045208 0.00000000 0.00000000 0.00000000 0.00000000
178 17 309 0 0.00003902 0.00003902 0.00000000 0.00011892 0.00000000 0.00000000 0.00000000 0.00000000
179 135 310 0 0.05341857 0.05341928 -0.00000071 -0.00001322 0.00000000 0.00000000 0.00000000 0.00000000
180 18 310 0 0.00086009 0.00086051 -0.00000042 -0.00048556 0.00000000 0.00000000 0.00000000 0.00000000
181 135 311 0 0.04181107 0.04181108 -0.00000001 -0.00000022 0.00000000 0.00000000 0.00000000 0.00000000
182 18 332 0 0.00089333 0.00089422 -0.00000089 -0.00099335 0.00000000 0.00000000 0.00000000 0.00000000
183 18 333 0 0.05648459 0.05648610 -0.00000150 -0.00002664 0.00000000 0.00000000 0.00000000 0.00000000
184 138 335 0 0.02713759 0.02713511 0.00000248 0.00009136 0.00000000 0.00000000 0.00000000 0.00000000
185 21 335 0 0.01225024 0.01226940 -0.00001916 -0.00156148 0.00000000 0.00000000 0.00000000 0.00000000
186 139 336 0 0.03024524 0.03024524 -0.00000000 -0.00000001 0.00000000 0.00000000 0.00000000 0.00000000
187 22 336 0 0.00038608 0.00038631 -0.00000023 -0.00059681 0.00000000 0.00000000 0.00000000 0.00000000
188 139 337 0 0.00091385 0.00091367 0.00000019 0.00020367 0.00000000 0.00000000 0.00000000 0.00000000
189 23 337 0 0.00075374 0.00075382 -0.00000007 -0.00009675 0.00000000 0.00000000 0.00000000 0.00000000
190 140 338 0 0.00014796 0.00014798 -0.00000002 -0.00014328 0.00000000 0.00000000 0.00000000 0.00000000
191 23 338 0 0.00244499 0.00244494 0.00000005 0.00002122 0.00000000 0.00000000 0.00000000 0.00000000
192 140 339 0 0.00226740 0.00226744 -0.00000004 -0.00001663 0.00000000 0.00000000 0.00000000 0.00000000
193 24 339 0 0.00083365 0.00083353 0.00000012 0.00014987 0.00000000 0.00000000 0.00000000 0.00000000
194 140 349 0 0.01358829 0.01358550 0.00000278 0.00020488 0.00000000 0.00000000 0.00000000 0.00000000
195 23 349 0 0.00086313 0.00086070 0.00000242 0.00281344 0.00000000 0.00000000 0.00000000 0.00000000
196 140 350 0 0.01919229 0.01919198 0.00000031 0.00001633 0.00000000 0.00000000 0.00000000 0.00000000
197 24 350 0 0.00475225 0.00475227 -0.00000003 -0.00000587 0.00000000 0.00000000 0.00000000 0.00000000
198 141 351 0 0.00016323 0.00016314 0.00000009 0.00056083 0.00000000 0.00000000 0.00000000 0.00000000
199 24 351 0 0.00078830 0.00078824 0.00000006 0.00007554 0.00000000 0.00000000 0.00000000 0.00000000
200 142 352 0 0.02042118 0.02042142 -0.00000024 -0.00001177 0.00000000 0.00000000 0.00000000 0.00000000
201 25 352 0 0.00647734 0.00648421 -0.00000687 -0.00105965 0.00000000 0.00000000 0.00000000 0.00000000
202 143 353 0 0.00327923 0.00327878 0.00000045 0.00013698 0.00000000 0.00000000 0.00000000 0.00000000
203 26 353 0 0.00124215 0.00124280 -0.00000065 -0.00051945 0.00000000 0.00000000 0.00000000 0.00000000
204 144 354 0 0.00020031 0.00020026 0.00000005 0.00026144 0.00000000 0.00000000 0.00000000 0.00000000
205 28 354 0 0.00112031 0.00112044 -0.00000012 -0.00010797 0.00000000 0.00000000 0.00000000 0.00000000
206 145 355 0 0.03961294 0.03961483 -0.00000189 -0.00004779 0.00000000 0.00000000 0.00000000 0.00000000
207 29 355 0 0.00501402 0.00501142 0.00000260 0.00051848 0.00000000 0.00000000 0.00000000 0.00000000
208 146 356 0 0.00136624 0.00136636 -0.00000012 -0.00008518 0.00000000 0.00000000 0.00000000 0.00000000
209 30 356 0 0.00076451 0.00075948 0.00000503 0.00662927 0.00000000 0.00000000 0.00000000 0.00000000
210 147 357 0 0.03741857 0.03741698 0.00000159 0.00004244 0.00000000 0.00000000 0.00000000 0.00000000
211 31 357 0 0.01308469 0.01308847 -0.00000379 -0.00028940 0.00000000 0.00000000 0.00000000 0.00000000
212 148 358 0 0.04781857 0.04781014 0.00000843 0.00017637 0.00000000 0.00000000 0.00000000 0.00000000
213 32 358 0 0.02546921 0.02545888 0.00001034 0.00040603 0.00000000 0.00000000 0.00000000 0.00000000
214 149 359 0 0.00038873 0.00038653 0.00000220 0.00568567 0.00000000 0.00000000 0.00000000 0.00000000
215 32 359 0 0.00074981 0.00074997 -0.00000016 -0.00021799 0.00000000 0.00000000 0.00000000 0.00000000
216 150 360 0 0.01911790 0.01911366 0.00000424 0.00022173 0.00000000 0.00000000 0.00000000 0.00000000
217 33 360 0 0.00499061 0.00499688 -0.00000628 -0.00125581 0.00000000 0.00000000 0.00000000 0.00000000
218 150 361 0 0.00012292 0.00012288 0.00000003 0.00028095 0.00000000 0.00000000 0.00000000 0.00000000
219 34 361 0 0.00015185 0.00015211 -0.00000026 -0.00168757 0.00000000 0.00000000 0.00000000 0.00000000
220 150 362 0 0.03367860 0.03367960 -0.00000100 -0.00002982 0.00000000 0.00000000 0.00000000 0.00000000
221 34 362 0 0.01146110 0.01146962 -0.00000852 -0.00074245 0.00000000 0.00000000 0.00000000 0.00000000
222 151 370 0 0.00945270 0.00945442 -0.00000171 -0.00018095 0.00000000 0.00000000 0.00000000 0.00000000
223 150 371 0 0.01404504 0.01405151 -0.00000647 -0.00046045 0.00000000 0.00000000 0.00000000 0.00000000
224 34 371 0 0.00213850 0.00213622 0.00000228 0.00106868 0.00000000 0.00000000 0.00000000 0.00000000
225 150 372 0 0.01875599 0.01875673 -0.00000075 -0.00003980 0.00000000 0.00000000 0.00000000 0.00000000
226 33 372 0 0.00257275 0.00257492 -0.00000216 -0.00083993 0.00000000 0.00000000 0.00000000 0.00000000
227 150 373 0 0.00113369 0.00113368 0.00000001 0.00001211 0.00000000 0.00000000 0.00000000 0.00000000
228 33 373 0 0.00001630 0.00001641 -0.00000011 -0.00654969 0.00000000 0.00000000 0.00000000 0.00000000
229 150 374 0 0.01809798 0.01809759 0.00000038 0.00002122 0.00000000 0.00000000 0.00000000 0.00000000
230 34 374 0 0.00466695 0.00466706 -0.00000011 -0.00002404 0.00000000 0.00000000 0.00000000 0.00000000
231 150 375 0 0.00648705 0.00648643 0.00000061 0.00009459 0.00000000 0.00000000 0.00000000 0.00000000
232 34 375 0 0.00190074 0.00190089 -0.00000015 -0.00007643 0.00000000 0.00000000 0.00000000 0.00000000
233 151 376 0 0.00380857 0.00380881 -0.00000024 -0.00006402 0.00000000 0.00000000 0.00000000 0.00000000
234 34 376 0 0.00169769 0.00169782 -0.00000013 -0.00007666 0.00000000 0.00000000 0.00000000 0.00000000
235 152 377 0 0.02427278 0.02427394 -0.00000116 -0.00004786 0.00000000 0.00000000 0.00000000 0.00000000
236 35 377 0 0.00504274 0.00504280 -0.00000006 -0.00001120 0.00000000 0.00000000 0.00000000 0.00000000
237 153 378 0 0.06134514 0.06135084 -0.00000570 -0.00009289 0.00000000 0.00000000 0.00000000 0.00000000
238 36 378 0 0.01439391 0.01437414 0.00001976 0.00137475 0.00000000 0.00000000 0.00000000 0.00000000
239 154 379 0 0.05021639 0.05024795 -0.00003156 -0.00062810 0.00000000 0.00000000 0.00000000 0.00000000
240 37 379 0 0.01133673 0.01134569 -0.00000896 -0.00078967 0.00000000 0.00000000 0.00000000 0.00000000
241 155 380 0 0.02581730 0.02581033 0.00000697 0.00026997 0.00000000 0.00000000 0.00000000 0.00000000
242 38 380 0 0.00730062 0.00730168 -0.00000106 -0.00014585 0.00000000 0.00000000 0.00000000 0.00000000
243 156 381 0 0.02234616 0.02233876 0.00000740 0.00033109 0.00000000 0.00000000 0.00000000 0.00000000
244 39 381 0 0.00592885 0.00592420 0.00000464 0.00078404 0.00000000 0.00000000 0.00000000 0.00000000
245 157 382 0 0.02296788 0.02296085 0.00000703 0.00030618 0.00000000 0.00000000 0.00000000 0.00000000
246 40 382 0 0.00557467 0.00557062 0.00000404 0.00072564 0.00000000 0.00000000 0.00000000 0.00000000
247 158 383 0 0.00243986 0.00244054 -0.00000068 -0.00027691 0.00000000 0.00000000 0.00000000 0.00000000
248 41 383 0 0.00058370 0.00058388 -0.00000019 -0.00031844 0.00000000 0.00000000 0.00000000 0.00000000
249 159 384 0 0.02513730 0.02514229 -0.00000499 -0.00019866 0.00000000 0.00000000 0.00000000 0.00000000
250 42 384 0 0.00621148 0.00620106 0.00001042 0.00167990 0.00000000 0.00000000 0.00000000 0.00000000
251 159 385 0 0.02580340 0.02581437 -0.00001097 -0.00042496 0.00000000 0.00000000 0.00000000 0.00000000
252 42 385 0 0.00878186 0.00877695 0.00000490 0.00055862 0.00000000 0.00000000 0.00000000 0.00000000
253 159 386 0 0.01952135 0.01952201 -0.00000066 -0.00003374 0.00000000 0.00000000 0.00000000 0.00000000
254 42 386 0 0.01131037 0.01130838 0.00000199 0.00017597 0.00000000 0.00000000 0.00000000 0.00000000
255 159 387 0 0.00052994 0.00053051 -0.00000057 -0.00107703 0.00000000 0.00000000 0.00000000 0.00000000
256 42 387 0 0.00079761 0.00079656 0.00000105 0.00132323 0.00000000 0.00000000 0.00000000 0.00000000
257 159 406 0 0.00445620 0.00445338 0.00000282 0.00063288 0.00000000 0.00000000 0.00000000 0.00000000
258 42 406 0 0.00017076 0.00017227 -0.00000151 -0.00875323 0.00000000 0.00000000 0.00000000 0.00000000
259 159 407 0 0.00023189 0.00023071 0.00000118 0.00512279 0.00000000 0.00000000 0.00000000 0.00000000
260 42 407 0 0.00013419 0.00013380 0.00000040 0.00295433 0.00000000 0.00000000 0.00000000 0.00000000
261 159 408 0 0.02777649 0.02777785 -0.00000137 -0.00004915 0.00000000 0.00000000 0.00000000 0.00000000
262 43 408 0 0.00705440 0.00705561 -0.00000121 -0.00017103 0.00000000 0.00000000 0.00000000 0.00000000
263 161 409 0 0.01569955 0.01570041 -0.00000086 -0.00005493 0.00000000 0.00000000 0.00000000 0.00000000
264 44 409 0 0.00559216 0.00559401 -0.00000184 -0.00032962 0.00000000 0.00000000 0.00000000 0.00000000
265 161 410 0 0.02378006 0.02378003 0.00000003 0.00000122 0.00000000 0.00000000 0.00000000 0.00000000
266 44 410 0 0.00834242 0.00834251 -0.00000009 -0.00001055 0.00000000 0.00000000 0.00000000 0.00000000
267 161 411 0 0.01871585 0.01871543 0.00000042 0.00002261 0.00000000 0.00000000 0.00000000 0.00000000
268 384 411 0 0.00428096 0.00427826 0.00000269 0.00062980 0.00000000 0.00000000 0.00000000 0.00000000
269 44 411 0 0.00373468 0.00373823 -0.00000355 -0.00094926 0.00000000 0.00000000 0.00000000 0.00000000
270 162 412 0 0.01661958 0.01662314 -0.00000357 -0.00021452 0.00000000 0.00000000 0.00000000 0.00000000
271 45 412 0 0.00380329 0.00380229 0.00000100 0.00026300 0.00000000 0.00000000 0.00000000 0.00000000
272 162 422 0 0.00378533 0.00378569 -0.00000036 -0.00009385 0.00000000 0.00000000 0.00000000 0.00000000
273 45 422 0 0.00007570 0.00007573 -0.00000003 -0.00040039 0.00000000 0.00000000 0.00000000 0.00000000
274 162 423 0 0.00034426 0.00034416 0.00000010 0.00029849 0.00000000 0.00000000 0.00000000 0.00000000
275 45 423 0 0.00015365 0.00015357 0.00000009 0.00056591 0.00000000 0.00000000 0.00000000 0.00000000
276 162 424 0 0.00070680 0.00070681 -0.00000001 -0.00000850 0.00000000 0.00000000 0.00000000 0.00000000
277 45 424 0 0.00021553 0.00021556 -0.00000003 -0.00012523 0.00000000 0.00000000 0.00000000 0.00000000
278 163 425 0 0.01878437 0.01878459 -0.00000022 -0.00001176 0.00000000 0.00000000 0.00000000 0.00000000
279 46 425 0 0.00232807 0.00232882 -0.00000075 -0.00031991 0.00000000 0.00000000 0.00000000 0.00000000
280 164 426 0 0.04198315 0.04198397 -0.00000081 -0.00001938 0.00000000 0.00000000 0.00000000 0.00000000
281 47 426 0 0.00948276 0.00947728 0.00000548 0.00057814 0.00000000 0.00000000 0.00000000 0.00000000
282 165 427 0 0.00120490 0.00120467 0.00000023 0.00018892 0.00000000 0.00000000 0.00000000 0.00000000
283 48 427 0 0.00032285 0.00032307 -0.00000022 -0.00068232 0.00000000 0.00000000 0.00000000 0.00000000
284 166 428 0 0.01710030 0.01710094 -0.00000065 -0.00003785 0.00000000 0.00000000 0.00000000 0.00000000
285 49 428 0 0.00289662 0.00289701 -0.00000038 -0.00013283 0.00000000 0.00000000 0.00000000 0.00000000
286 167 429 0 0.00846300 0.00846377 -0.00000076 -0.00008993 0.00000000 0.00000000 0.00000000 0.00000000
287 50 429 0 0.00168032 0.00168145 -0.00000113 -0.00067404 0.00000000 0.00000000 0.00000000 0.00000000
288 168 430 0 0.02495761 0.02495331 0.00000431 0.00017267 0.00000000 0.00000000 0.00000000 0.00000000
289 51 430 0 0.00624878 0.00625328 -0.00000450 -0.00071956 0.00000000 0.00000000 0.00000000 0.00000000
290 169 431 0 0.00033139 0.00033249 -0.00000110 -0.00330999 0.00000000 0.00000000 0.00000000 0.00000000
291 52 431 0 0.00016342 0.00016203 0.00000139 0.00860037 0.00000000 0.00000000 0.00000000 0.00000000
292 170 432 0 0.02256979 0.02257246 -0.00000267 -0.00011824 0.00000000 0.00000000 0.00000000 0.00000000
293 53 432 0 0.00573627 0.00573781 -0.00000154 -0.00026806 0.00000000 0.00000000 0.00000000 0.00000000
294 170 433 0 0.01818319 0.01818538 -0.00000219 -0.00012035 0.00000000 0.00000000 0.00000000 0.00000000
295 53 433 0 0.00455313 0.00455042 0.00000272 0.00059676 0.00000000 0.00000000 0.00000000 0.00000000
296 170 434 0 0.05027318 0.05027191 0.00000127 0.00002528 0.00000000 0.00000000 0.00000000 0.00000000
297 171 446 0 0.00323913 0.00324089 -0.00000176 -0.00054160 0.00000000 0.00000000 0.00000000 0.00000000
298 170 447 0 0.00034607 0.00034527 0.00000080 0.00231402 0.00000000 0.00000000 0.00000000 0.00000000
299 55 447 0 0.00030322 0.00030427 -0.00000104 -0.00342994 0.00000000 0.00000000 0.00000000 0.00000000
300 171 448 0 0.02150094 0.02150080 0.00000014 0.00000632 0.00000000 0.00000000 0.00000000 0.00000000
301 54 448 0 0.00675379 0.00675529 -0.00000150 -0.00022218 0.00000000 0.00000000 0.00000000 0.00000000
302 172 449 0 0.01876797 0.01876740 0.00000057 0.00003032 0.00000000 0.00000000 0.00000000 0.00000000
303 55 449 0 0.00539953 0.00539906 0.00000047 0.00008705 0.00000000 0.00000000 0.00000000 0.00000000
304 172 450 0 0.06607259 0.06607978 -0.00000719 -0.00010876 0.00000000 0.00000000 0.00000000 0.00000000
305 55 450 0 0.01997409 0.01997018 0.00000390 0.00019544 0.00000000 0.00000000 0.00000000 0.00000000
306 172 451 0 0.03532577 0.03532234 0.00000344 0.00009732 0.00000000 0.00000000 0.00000000 0.00000000
307 55 451 0 0.01544504 0.01544552 -0.00000048 -0.00003095 0.00000000 0.00000000 0.00000000 0.00000000
308 172 452 0 0.02233298 0.02233244 0.00000054 0.00002431 0.00000000 0.00000000 0.00000000 0.00000000
309 55 452 0 0.00561015 0.00560997 0.00000018 0.00003148 0.00000000 0.00000000 0.00000000 0.00000000
310 56 460 0 0.01486520 0.01487044 -0.00000524 -0.00035207 0.00000000 0.00000000 0.00000000 0.00000000
311 173 461 0 0.01536825 0.01533638 0.00003187 0.00207806 0.00000000 0.00000000 0.00000000 0.00000000
312 55 461 0 0.00743145 0.00743498 -0.00000353 -0.00047457 0.00000000 0.00000000 0.00000000 0.00000000
313 173 462 0 0.04742312 0.04742285 0.00000027 0.00000559 0.00000000 0.00000000 0.00000000 0.00000000
314 55 462 0 0.01210715 0.01210676 0.00000040 0.00003268 0.00000000 0.00000000 0.00000000 0.00000000
315 173 463 0 0.01894411 0.01894332 0.00000079 0.00004176 0.00000000 0.00000000 0.00000000 0.00000000
316 55 463 0 0.00766084 0.00766006 0.00000078 0.00010155 0.00000000 0.00000000 0.00000000 0.00000000
317 174 464 0 0.01985680 0.01985520 0.00000159 0.00008026 0.00000000 0.00000000 0.00000000 0.00000000
318 56 464 0 0.00634887 0.00635244 -0.00000358 -0.00056314 0.00000000 0.00000000 0.00000000 0.00000000
319 175 465 0 0.02090170 0.02089482 0.00000688 0.00032918 0.00000000 0.00000000 0.00000000 0.00000000
320 57 465 0 0.00988699 0.00987881 0.00000818 0.00082821 0.00000000 0.00000000 0.00000000 0.00000000
321 176 466 0 0.04765060 0.04765264 -0.00000204 -0.00004280 0.00000000 0.00000000 0.00000000 0.00000000
322 58 466 0 0.00730413 0.00731274 -0.00000860 -0.00117662 0.00000000 0.00000000 0.00000000 0.00000000
323 177 467 0 0.00035605 0.00035804 -0.00000200 -0.00558121 0.00000000 0.00000000 0.00000000 0.00000000
324 59 467 0 0.00058899 0.00058539 0.00000360 0.00614802 0.00000000 0.00000000 0.00000000 0.00000000
325 178 468 0 0.01816780 0.01816913 -0.00000133 -0.00007334 0.00000000 0.00000000 0.00000000 0.00000000
326 60 468 0 0.00479649 0.00479346 0.00000302 0.00063106 0.00000000 0.00000000 0.00000000 0.00000000
327 179 469 0 0.02044664 0.02044778 -0.00000114 -0.00005566 0.00000000 0.00000000 0.00000000 0.00000000
328 61 469 0 0.00550797 0.00551251 -0.00000454 -0.00082314 0.00000000 0.00000000 0.00000000 0.00000000
329 180 470 0 0.03395153 0.03395184 -0.00000031 -0.00000911 0.00000000 0.00000000 0.00000000 0.00000000
330 62 470 0 0.01116212 0.01117604 -0.00001392 -0.00124538 0.00000000 0.00000000 0.00000000 0.00000000
331 181 471 0 0.04276385 0.04274454 0.00001931 0.00045174 0.00000000 0.00000000 0.00000000 0.00000000
332 63 471 0 0.00970138 0.00970059 0.00000079 0.00008153 0.00000000 0.00000000 0.00000000 0.00000000
333 182 472 0 0.02879652 0.02880110 -0.00000458 -0.00015888 0.00000000 0.00000000 0.00000000 0.00000000
334 64 472 0 0.00754934 0.00755848 -0.00000914 -0.00120944 0.00000000 0.00000000 0.00000000 0.00000000
335 182 473 0 0.02096144 0.02095537 0.00000608 0.00028994 0.00000000 0.00000000 0.00000000 0.00000000
336 64 473 0 0.00871140 0.00871323 -0.00000183 -0.00020991 0.00000000 0.00000000 0.00000000 0.00000000
337 182 474 0 0.00592271 0.00592310 -0.00000039 -0.00006653 0.00000000 0.00000000 0.00000000 0.00000000
338 64 474 0 0.00237226 0.00237176 0.00000050 0.00020885 0.00000000 0.00000000 0.00000000 0.00000000
339 182 475 0 0.00162199 0.00162173 0.00000026 0.00016006 0.00000000 0.00000000 0.00000000 0.00000000
340 64 475 0 0.00074991 0.00075016 -0.00000025 -0.00033399 0.00000000 0.00000000 0.00000000 0.00000000
341 182 487 0 0.00239008 0.00239025 -0.00000017 -0.00006980 0.00000000 0.00000000 0.00000000 0.00000000
342 182 488 0 0.02003757 0.02003722 0.00000035 0.00001727 0.00000000 0.00000000 0.00000000 0.00000000
343 64 488 0 0.00543159 0.00543115 0.00000044 0.00008147 0.00000000 0.00000000 0.00000000 0.00000000
344 182 489 0 0.03134263 0.03134853 -0.00000590 -0.00018817 0.00000000 0.00000000 0.00000000 0.00000000
345 64 489 0 0.00885357 0.00885307 0.00000051 0.00005707 0.00000000 0.00000000 0.00000000 0.00000000
346 182 490 0 0.00059178 0.00059167 0.00000012 0.00019442 0.00000000 0.00000000 0.00000000 0.00000000
347 64 490 0 0.00021497 0.00021544 -0.00000047 -0.00217952 0.00000000 0.00000000 0.00000000 0.00000000
348 182 491 0 0.02748865 0.02749075 -0.00000210 -0.00007650 0.00000000 0.00000000 0.00000000 0.00000000
349 64 491 0 0.00790679 0.00790797 -0.00000119 -0.00015034 0.00000000 0.00000000 0.00000000 0.00000000
350 183 492 0 0.02814138 0.02814154 -0.00000016 -0.00000577 0.00000000 0.00000000 0.00000000 0.00000000
351 65 492 0 0.00819324 0.00819178 0.00000146 0.00017784 0.00000000 0.00000000 0.00000000 0.00000000
352 184 493 0 0.01722635 0.01722918 -0.00000283 -0.00016398 0.00000000 0.00000000 0.00000000 0.00000000
353 66 493 0 0.00366007 0.00365962 0.00000045 0.00012278 0.00000000 0.00000000 0.00000000 0.00000000
354 184 494 0 0.00038011 0.00038010 0.00000001 0.00002684 0.00000000 0.00000000 0.00000000 0.00000000
355 66 494 0 0.00017579 0.00017568 0.00000012 0.00067567 0.00000000 0.00000000 0.00000000 0.00000000
356 184 495 0 0.00445361 0.00445362 -0.00000001 -0.00000258 0.00000000 0.00000000 0.00000000 0.00000000
357 66 495 0 0.00136119 0.00136083 0.00000036 0.00026530 0.00000000 0.00000000 0.00000000 0.00000000
358 185 496 0 0.03449748 0.03449989 -0.00000241 -0.00006987 0.00000000 0.00000000 0.00000000 0.00000000
359 185 504 0 0.01182025 0.01182477 -0.00000451 -0.00038176 0.00000000 0.00000000 0.00000000 0.00000000
360 185 505 0 0.00080202 0.00080155 0.00000046 0.00057957 0.00000000 0.00000000 0.00000000 0.00000000
361 67 505 0 0.00023782 0.00023787 -0.00000005 -0.00022752 0.00000000 0.00000000 0.00000000 0.00000000
362 185 506 0 0.04703908 0.04704122 -0.00000214 -0.00004552 0.00000000 0.00000000 0.00000000 0.00000000
363 67 506 0 0.02109094 0.02109315 -0.00000221 -0.00010487 0.00000000 0.00000000 0.00000000 0.00000000
364 186 507 0 0.01633307 0.01633895 -0.00000588 -0.00035987 0.00000000 0.00000000 0.00000000 0.00000000
365 68 507 0 0.00398334 0.00398317 0.00000017 0.00004189 0.00000000 0.00000000 0.00000000 0.00000000
366 69 508 0 0.02361493 0.02360644 0.00000849 0.00035975 0.00000000 0.00000000 0.00000000 0.00000000
367 70 524 0 0.00234233 0.00233652 0.00000581 0.00248826 0.00000000 0.00000000 0.00000000 0.00000000
368 70 525 0 0.01863986 0.01862723 0.00001263 0.00067817 0.00000000 0.00000000 0.00000000 0.00000000
369 70 526 0 0.00580085 0.00580031 0.00000054 0.00009349 0.00000000 0.00000000 0.00000000 0.00000000
370 71 529 0 0.02098136 0.02097937 0.00000199 0.00009472 0.00000000 0.00000000 0.00000000 0.00000000
371 188 530 0 0.01598779 0.01598111 0.00000668 0.00041789 0.00000000 0.00000000 0.00000000 0.00000000
372 70 530 0 0.01051711 0.01046815 0.00004897 0.00467764 0.00000000 0.00000000 0.00000000 0.00000000
373 189 531 0 0.00008808 0.00008680 0.00000128 0.01479717 0.00000000 0.00000000 0.00000000 0.00000000
374 70 531 0 0.00005636 0.00005736 -0.00000100 -0.01750307 0.00000000 0.00000000 0.00000000 0.00000000
375 190 532 0 0.00190894 0.00190883 0.00000010 0.00005462 0.00000000 0.00000000 0.00000000 0.00000000
376 71 532 0 0.00041683 0.00041653 0.00000030 0.00072849 0.00000000 0.00000000 0.00000000 0.00000000
377 72 545 0 0.00017703 0.00017720 -0.00000017 -0.00095326 0.00000000 0.00000000 0.00000000 0.00000000
378 190 546 0 0.00008666 0.00008670 -0.00000004 -0.00040971 0.00000000 0.00000000 0.00000000 0.00000000
379 71 546 0 0.00012406 0.00012415 -0.00000009 -0.00074082 0.00000000 0.00000000 0.00000000 0.00000000
380 190 547 0 0.00407551 0.00407562 -0.00000011 -0.00002747 0.00000000 0.00000000 0.00000000 0.00000000
381 72 547 0 0.00123835 0.00123835 -0.00000000 -0.00000395 0.00000000 0.00000000 0.00000000 0.00000000
382 191 548 0 0.03383342 0.03383375 -0.00000034 -0.00000999 0.00000000 0.00000000 0.00000000 0.00000000
383 73 548 0 0.00953268 0.00952725 0.00000543 0.00056995 0.00000000 0.00000000 0.00000000 0.00000000
384 192 549 0 0.02194707 0.02194752 -0.00000045 -0.00002056 0.00000000 0.00000000 0.00000000 0.00000000
385 73 549 0 0.00770058 0.00770191 -0.00000132 -0.00017194 0.00000000 0.00000000 0.00000000 0.00000000
386 192 550 0 0.02533292 0.02533677 -0.00000385 -0.00015203 0.00000000 0.00000000 0.00000000 0.00000000
387 73 550 0 0.00447796 0.00447770 0.00000027 0.00005984 0.00000000 0.00000000 0.00000000 0.00000000
388 192 551 0 0.08264875 0.08265989 -0.00001114 -0.00013481 0.00000000 0.00000000 0.00000000 0.00000000
389 74 551 0 0.02276256 0.02278777 -0.00002521 -0.00110649 0.00000000 0.00000000 0.00000000 0.00000000
390 192 556 0 0.00617699 0.00617686 0.00000013 0.00002179 0.00000000 0.00000000 0.00000000 0.00000000
391 73 556 0 0.00157046 0.00157041 0.00000005 0.00003269 0.00000000 0.00000000 0.00000000 0.00000000
392 192 557 0 0.12923622 0.12924810 -0.00001188 -0.00009190 0.00000000 0.00000000 0.00000000 0.00000000
393 73 557 0 0.03237135 0.03234734 0.00002401 0.00074228 0.00000000 0.00000000 0.00000000 0.00000000
394 192 558 0 0.06368660 0.06369214 -0.00000554 -0.00008703 0.00000000 0.00000000 0.00000000 0.00000000
395 73 558 0 0.01558888 0.01558908 -0.00000021 -0.00001328 0.00000000 0.00000000 0.00000000 0.00000000
396 193 559 0 0.02886580 0.02886702 -0.00000122 -0.00004233 0.00000000 0.00000000 0.00000000 0.00000000
397 74 559 0 0.00639078 0.00639392 -0.00000314 -0.00049091 0.00000000 0.00000000 0.00000000 0.00000000
398 194 560 0 0.01622028 0.01621925 0.00000103 0.00006349 0.00000000 0.00000000 0.00000000 0.00000000
399 75 560 0 0.00355899 0.00355962 -0.00000063 -0.00017716 0.00000000 0.00000000 0.00000000 0.00000000
400 195 561 0 0.10743931 0.10743590 0.00000341 0.00003175 0.00000000 0.00000000 0.00000000 0.00000000
401 76 561 0 0.03054835 0.03056374 -0.00001539 -0.00050369 0.00000000 0.00000000 0.00000000 0.00000000
402 196 562 0 0.02999181 0.02997331 0.00001850 0.00061725 0.00000000 0.00000000 0.00000000 0.00000000
403 77 562 0 0.00436576 0.00436036 0.00000541 0.00124000 0.00000000 0.00000000 0.00000000 0.00000000
404 197 563 0 0.08659626 0.08661478 -0.00001852 -0.00021386 0.00000000 0.00000000 0.00000000 0.00000000
405 78 563 0 0.03233339 0.03235964 -0.00002625 -0.00081118 0.00000000 0.00000000 0.00000000 0.00000000
406 198 564 0 0.01460448 0.01461551 -0.00001104 -0.00075504 0.00000000 0.00000000 0.00000000 0.00000000
407 79 564 0 0.00628433 0.00628173 0.00000260 0.00041431 0.00000000 0.00000000 0.00000000 0.00000000
408 199 565 0 0.02160602 0.02160831 -0.00000228 -0.00010570 0.00000000 0.00000000 0.00000000 0.00000000
409 80 565 0 0.00594289 0.00593502 0.00000787 0.00132529 0.00000000 0.00000000 0.00000000 0.00000000
410 200 566 0 0.03913726 0.03913890 -0.00000164 -0.00004192 0.00000000 0.00000000 0.00000000 0.00000000
411 81 566 0 0.01506024 0.01506185 -0.00000161 -0.00010691 0.00000000 0.00000000 0.00000000 0.00000000
412 201 567 0 0.00009466 0.00009454 0.00000012 0.00126964 0.00000000 0.00000000 0.00000000 0.00000000
413 82 567 0 0.00008662 0.00008627 0.00000035 0.00399926 0.00000000 0.00000000 0.00000000 0.00000000
414 201 568 0 0.00006904 0.00006896 0.00000008 0.00109254 0.00000000 0.00000000 0.00000000 0.00000000
415 201 574 0 0.00755791 0.00755804 -0.00000014 -0.00001821 0.00000000 0.00000000 0.00000000 0.00000000
416 82 574 0 0.00097906 0.00097916 -0.00000010 -0.00009999 0.00000000 0.00000000 0.00000000 0.00000000
417 201 575 0 0.00003902 0.00003889 0.00000014 0.00351019 0.00000000 0.00000000 0.00000000 0.00000000
418 82 575 0 0.00001219 0.00001178 0.00000041 0.03496066 0.00000000 0.00000000 0.00000000 0.00000000
419 202 576 0 0.05609457 0.05609803 -0.00000345 -0.00006157 0.00000000 0.00000000 0.00000000 0.00000000
420 83 576 0 0.01416653 0.01414677 0.00001976 0.00139665 0.00000000 0.00000000 0.00000000 0.00000000
421 203 577 0 0.01694782 0.01694489 0.00000292 0.00017255 0.00000000 0.00000000 0.00000000 0.00000000
422 84 577 0 0.00312558 0.00312615 -0.00000056 -0.00017944 0.00000000 0.00000000 0.00000000 0.00000000
423 203 578 0 0.00420289 0.00420292 -0.00000003 -0.00000697 0.00000000 0.00000000 0.00000000 0.00000000
424 84 578 0 0.00472601 0.00472658 -0.00000057 -0.00011957 0.00000000 0.00000000 0.00000000 0.00000000
425 202 579 0 0.01857868 0.01857659 0.00000209 0.00011265 0.00000000 0.00000000 0.00000000 0.00000000
426 84 579 0 0.01248855 0.01248841 0.00000014 0.00001135 0.00000000 0.00000000 0.00000000 0.00000000
427 203 580 0 0.05537393 0.05537754 -0.00000361 -0.00006522 0.00000000 0.00000000 0.00000000 0.00000000
428 84 580 0 0.01899632 0.01900114 -0.00000482 -0.00025381 0.00000000 0.00000000 0.00000000 0.00000000
429 203 588 0 0.00912252 0.00912394 -0.00000142 -0.00015530 0.00000000 0.00000000 0.00000000 0.00000000
430 84 588 0 0.00069831 0.00069882 -0.00000051 -0.00073377 0.00000000 0.00000000 0.00000000 0.00000000
431 203 589 0 0.02277620 0.02277644 -0.00000024 -0.00001053 0.00000000 0.00000000 0.00000000 0.00000000
432 84 589 0 0.00858777 0.00858679 0.00000098 0.00011447 0.00000000 0.00000000 0.00000000 0.00000000
433 204 590 0 0.00515764 0.00515728 0.00000036 0.00006982 0.00000000 0.00000000 0.00000000 0.00000000
434 85 590 0 0.00175838 0.00175688 0.00000150 0.00085281 0.00000000 0.00000000 0.00000000 0.00000000
435 205 591 0 0.03755728 0.03755580 0.00000148 0.00003944 0.00000000 0.00000000 0.00000000 0.00000000
436 86 591 0 0.01546463 0.01546691 -0.00000228 -0.00014726 0.00000000 0.00000000 0.00000000 0.00000000
437 206 592 0 0.02456140 0.02456107 0.00000033 0.00001339 0.00000000 0.00000000 0.00000000 0.00000000
438 87 592 0 0.00218425 0.00218620 -0.00000195 -0.00089047 0.00000000 0.00000000 0.00000000 0.00000000
439 207 593 0 0.04905291 0.04904532 0.00000759 0.00015474 0.00000000 0.00000000 0.00000000 0.00000000
440 88 593 0 0.01439420 0.01439732 -0.00000311 -0.00021624 0.00000000 0.00000000 0.00000000 0.00000000
441 208 594 0 0.00590450 0.00590134 0.00000316 0.00053586 0.00000000 0.00000000 0.00000000 0.00000000
442 89 594 0 0.00143922 0.00143875 0.00000047 0.00032738 0.00000000 0.00000000 0.00000000 0.00000000
443 209 595 0 0.00575332 0.00575286 0.00000046 0.00008032 0.00000000 0.00000000 0.00000000 0.00000000
444 90 595 0 0.01260389 0.01259974 0.00000415 0.00032950 0.00000000 0.00000000 0.00000000 0.00000000
445 210 596 0 0.00019399 0.00019446 -0.00000047 -0.00242042 0.00000000 0.00000000 0.00000000 0.00000000
446 92 596 0 0.00153916 0.00153904 0.00000012 0.00007775 0.00000000 0.00000000 0.00000000 0.00000000
447 211 597 0 0.02968605 0.02968820 -0.00000215 -0.00007242 0.00000000 0.00000000 0.00000000 0.00000000
448 93 597 0 0.01227522 0.01227194 0.00000328 0.00026742 0.00000000 0.00000000 0.00000000 0.00000000
449 212 598 0 0.00031377 0.00031359 0.00000018 0.00056292 0.00000000 0.00000000 0.00000000 0.00000000
450 212 599 0 0.01959078 0.01959295 -0.00000217 -0.00011054 0.00000000 0.00000000 0.00000000 0.00000000
451 212 600 0 0.01426051 0.01425914 0.00000136 0.00009561 0.00000000 0.00000000 0.00000000 0.00000000
452 212 612 0 0.01080898 0.01081021 -0.00000123 -0.00011408 0.00000000 0.00000000 0.00000000 0.00000000
453 93 612 0 0.00109746 0.00109753 -0.00000007 -0.00006517 0.00000000 0.00000000 0.00000000 0.00000000
454 212 613 0 0.01959866 0.01959907 -0.00000041 -0.00002087 0.00000000 0.00000000 0.00000000 0.00000000
455 93 613 0 0.00801481 0.00801430 0.00000051 0.00006407 0.00000000 0.00000000 0.00000000 0.00000000
456 213 614 0 0.01822803 0.01822784 0.00000019 0.00001060 0.00000000 0.00000000 0.00000000 0.00000000
457 94 614 0 0.00618519 0.00618579 -0.00000059 -0.00009617 0.00000000 0.00000000 0.00000000 0.00000000
458 214 615 0 0.00446016 0.00446142 -0.00000126 -0.00028249 0.00000000 0.00000000 0.00000000 0.00000000
459 95 615 0 0.00051125 0.00051144 -0.00000019 -0.00036501 0.00000000 0.00000000 0.00000000 0.00000000
460 214 616 0 0.00074368 0.00074391 -0.00000023 -0.00031033 0.00000000 0.00000000 0.00000000 0.00000000
461 96 616 0 0.00288956 0.00288934 0.00000023 0.00007842 0.00000000 0.00000000 0.00000000 0.00000000
462 216 617 0 0.00498485 0.00498573 -0.00000087 -0.00017510 0.00000000 0.00000000 0.00000000 0.00000000
463 97 617 0 0.00032144 0.00032177 -0.00000033 -0.00102547 0.00000000 0.00000000 0.00000000 0.00000000
464 216 633 0 0.00324078 0.00324046 0.00000032 0.00009799 0.00000000 0.00000000 0.00000000 0.00000000
465 97 633 0 0.00051820 0.00051838 -0.00000018 -0.00034214 0.00000000 0.00000000 0.00000000 0.00000000
466 215 634 0 0.01830130 0.01830098 0.00000032 0.00001753 0.00000000 0.00000000 0.00000000 0.00000000
467 96 634 0 0.00886289 0.00886163 0.00000125 0.00014136 0.00000000 0.00000000 0.00000000 0.00000000
468 217 636 0 0.01837982 0.01838033 -0.00000052 -0.00002814 0.00000000 0.00000000 0.00000000 0.00000000
469 217 637 0 0.00345715 0.00345762 -0.00000047 -0.00013610 0.00000000 0.00000000 0.00000000 0.00000000
470 96 637 0 0.00181950 0.00182001 -0.00000051 -0.00027843 0.00000000 0.00000000 0.00000000 0.00000000
471 217 638 0 0.02091903 0.02091929 -0.00000026 -0.00001232 0.00000000 0.00000000 0.00000000 0.00000000
472 96 638 0 0.00596914 0.00596884 0.00000030 0.00005001 0.00000000 0.00000000 0.00000000 0.00000000
473 218 639 0 0.04026276 0.04026427 -0.00000151 -0.00003743 0.00000000 0.00000000 0.00000000 0.00000000
474 98 639 0 0.00520071 0.00520112 -0.00000041 -0.00007883 0.00000000 0.00000000 0.00000000 0.00000000
475 219 640 0 0.00143609 0.00143394 0.00000215 0.00150046 0.00000000 0.00000000 0.00000000 0.00000000
476 99 640 0 0.00323140 0.00323088 0.00000052 0.00016062 0.00000000 0.00000000 0.00000000 0.00000000
477 100 641 0 0.02100585 0.02100466 0.00000119 0.00005660 0.00000000 0.00000000 0.00000000 0.00000000
478 219 641 0 0.00876119 0.00876105 0.00000014 0.00001591 0.00000000 0.00000000 0.00000000 0.00000000
479 101 642 0 0.01438756 0.01438536 0.00000220 0.00015289 0.00000000 0.00000000 0.00000000 0.00000000
480 220 642 0 0.00580220 0.00580576 -0.00000356 -0.00061234 0.00000000 0.00000000 0.00000000 0.00000000
481 102 643 0 0.00041513 0.00041539 -0.00000026 -0.00063696 0.00000000 0.00000000 0.00000000 0.00000000
482 221 643 0 0.00040690 0.00040640 0.00000051 0.00124656 0.00000000 0.00000000 0.00000000 0.00000000
483 103 644 0 0.01430979 0.01430982 -0.00000003 -0.00000235 0.00000000 0.00000000 0.00000000 0.00000000
484 222 644 0 0.00368900 0.00368848 0.00000052 0.00014106 0.00000000 0.00000000 0.00000000 0.00000000
485 104 645 0 0.04208220 0.04208402 -0.00000182 -0.00004331 0.00000000 0.00000000 0.00000000 0.00000000
486 223 645 0 0.00891360 0.00891718 -0.00000357 -0.00040062 0.00000000 0.00000000 0.00000000 0.00000000
487 104 646 0 0.02680084 0.02680272 -0.00000189 -0.00007044 0.00000000 0.00000000 0.00000000 0.00000000
488 223 646 0 0.01161527 0.01161370 0.00000158 0.00013562 0.00000000 0.00000000 0.00000000 0.00000000
489 104 647 0 0.02236670 0.02236692 -0.00000022 -0.00000965 0.00000000 0.00000000 0.00000000 0.00000000
490 223 647 0 0.00855554 0.00855525 0.00000030 0.00003466 0.00000000 0.00000000 0.00000000 0.00000000
491 105 660 0 0.00550334 0.00550390 -0.00000056 -0.00010253 0.00000000 0.00000000 0.00000000 0.00000000
492 109 661 0 0.00233479 0.00233342 0.00000136 0.00058453 0.00000000 0.00000000 0.00000000 0.00000000
493 223 661 0 0.00027404 0.00027379 0.00000025 0.00090399 0.00000000 0.00000000 0.00000000 0.00000000
494 109 662 0 0.02066713 0.02066777 -0.00000063 -0.00003068 0.00000000 0.00000000 0.00000000 0.00000000
495 224 664 0 0.01358421 0.01360238 -0.00001818 -0.00133626 0.00000000 0.00000000 0.00000000 0.00000000
496 224 665 0 0.02365724 0.02365830 -0.00000106 -0.00004466 0.00000000 0.00000000 0.00000000 0.00000000
497 224 666 0 0.03818505 0.03818371 0.00000133 0.00003490 0.00000000 0.00000000 0.00000000 0.00000000
498 104 667 0 0.00097224 0.00097201 0.00000023 0.00023522 0.00000000 0.00000000 0.00000000 0.00000000
499 223 667 0 0.00120475 0.00120484 -0.00000009 -0.00007118 0.00000000 0.00000000 0.00000000 0.00000000
500 104 668 0 0.11236094 0.11236089 0.00000005 0.00000048 0.00000000 0.00000000 0.00000000 0.00000000
501 223 668 0 0.03637537 0.03638205 -0.00000668 -0.00018355 0.00000000 0.00000000 0.00000000 0.00000000
502 104 669 0 0.01001599 0.01001744 -0.00000144 -0.00014398 0.00000000 0.00000000 0.00000000 0.00000000
503 223 669 0 0.00325181 0.00325209 -0.00000028 -0.00008588 0.00000000 0.00000000 0.00000000 0.00000000
504 104 670 0 0.02811027 0.02811148 -0.00000121 -0.00004310 0.00000000 0.00000000 0.00000000 0.00000000
505 223 670 0 0.00884650 0.00884769 -0.00000118 -0.00013364 0.00000000 0.00000000 0.00000000 0.00000000
506 103 671 0 0.05308926 0.05308720 0.00000206 0.00003880 0.00000000 0.00000000 0.00000000 0.00000000
507 222 671 0 0.02078589 0.02079312 -0.00000724 -0.00034807 0.00000000 0.00000000 0.00000000 0.00000000
508 102 672 0 0.02343248 0.02344166 -0.00000918 -0.00039145 0.00000000 0.00000000 0.00000000 0.00000000
509 221 672 0 0.00975824 0.00975453 0.00000371 0.00038071 0.00000000 0.00000000 0.00000000 0.00000000
510 101 673 0 0.02164430 0.02164350 0.00000080 0.00003691 0.00000000 0.00000000 0.00000000 0.00000000
511 220 673 0 0.00240736 0.00240187 0.00000549 0.00228734 0.00000000 0.00000000 0.00000000 0.00000000
512 641 673 0 0.00398742 0.00399212 -0.00000470 -0.00117642 0.00000000 0.00000000 0.00000000 0.00000000
513 100 674 0 0.01866215 0.01866171 0.00000044 0.00002337 0.00000000 0.00000000 0.00000000 0.00000000
514 219 674 0 0.01085917 0.01085914 0.00000003 0.00000290 0.00000000 0.00000000 0.00000000 0.00000000
515 640 674 0 0.00125601 0.00125526 0.00000075 0.00059729 0.00000000 0.00000000 0.00000000 0.00000000
516 94 679 0 0.00078185 0.00078186 -0.00000001 -0.00001729 0.00000000 0.00000000 0.00000000 0.00000000
517 212 680 0 0.05727730 0.05728096 -0.00000366 -0.00006390 0.00000000 0.00000000 0.00000000 0.00000000
518 93 680 0 0.01329930 0.01328418 0.00001512 0.00113830 0.00000000 0.00000000 0.00000000 0.00000000
519 211 681 0 0.03676314 0.03676494 -0.00000181 -0.00004918 0.00000000 0.00000000 0.00000000 0.00000000
520 596 681 0 0.01407632 0.01407758 -0.00000126 -0.00008959 0.00000000 0.00000000 0.00000000 0.00000000
521 92 681 0 0.00475987 0.00475306 0.00000680 0.00143131 0.00000000 0.00000000 0.00000000 0.00000000
522 210 682 0 0.04000544 0.04000864 -0.00000320 -0.00008010 0.00000000 0.00000000 0.00000000 0.00000000
523 595 682 0 0.01312209 0.01312664 -0.00000456 -0.00034701 0.00000000 0.00000000 0.00000000 0.00000000
524 91 682 0 0.00317380 0.00317490 -0.00000109 -0.00034389 0.00000000 0.00000000 0.00000000 0.00000000
525 594 683 0 0.05959463 0.05960401 -0.00000937 -0.00015725 0.00000000 0.00000000 0.00000000 0.00000000
526 594 684 0 0.02049476 0.02049328 0.00000148 0.00007241 0.00000000 0.00000000 0.00000000 0.00000000
527 207 685 0 0.00470939 0.00471467 -0.00000528 -0.00112072 0.00000000 0.00000000 0.00000000 0.00000000
528 593 685 0 0.00201506 0.00201200 0.00000307 0.00152357 0.00000000 0.00000000 0.00000000 0.00000000
529 205 687 0 0.00898535 0.00898640 -0.00000105 -0.00011717 0.00000000 0.00000000 0.00000000 0.00000000
530 591 687 0 0.00953225 0.00956196 -0.00002970 -0.00310654 0.00000000 0.00000000 0.00000000 0.00000000
531 86 687 0 0.02005589 0.02005579 0.00000010 0.00000511 0.00000000 0.00000000 0.00000000 0.00000000
532 204 688 0 0.03579196 0.03579433 -0.00000237 -0.00006630 0.00000000 0.00000000 0.00000000 0.00000000
533 590 688 0 0.01802293 0.01800974 0.00001319 0.00073256 0.00000000 0.00000000 0.00000000 0.00000000
534 85 688 0 0.01086361 0.01085538 0.00000822 0.00075749 0.00000000 0.00000000 0.00000000 0.00000000
535 203 689 0 0.00058132 0.00058145 -0.00000013 -0.00022469 0.00000000 0.00000000 0.00000000 0.00000000
536 576 689 0 0.00060244 0.00060236 0.00000008 0.00013583 0.00000000 0.00000000 0.00000000 0.00000000
537 84 689 0 0.00769321 0.00769299 0.00000022 0.00002920 0.00000000 0.00000000 0.00000000 0.00000000
538 202 690 0 0.00005390 0.00005377 0.00000013 0.00240299 0.00000000 0.00000000 0.00000000 0.00000000
539 576 690 0 0.00737190 0.00737196 -0.00000006 -0.00000815 0.00000000 0.00000000 0.00000000 0.00000000
540 83 690 0 0.00099985 0.00099969 0.00000016 0.00016008 0.00000000 0.00000000 0.00000000 0.00000000
541 201 691 0 0.02713893 0.02713863 0.00000029 0.00001085 0.00000000 0.00000000 0.00000000 0.00000000
542 566 691 0 0.00262604 0.00262710 -0.00000106 -0.00040266 0.00000000 0.00000000 0.00000000 0.00000000
543 82 691 0 0.00513329 0.00513315 0.00000014 0.00002724 0.00000000 0.00000000 0.00000000 0.00000000
544 567 692 0 0.09428410 0.09428504 -0.00000093 -0.00000991 0.00000000 0.00000000 0.00000000 0.00000000
545 201 693 0 0.04400804 0.04404011 -0.00003207 -0.00072822 0.00000000 0.00000000 0.00000000 0.00000000
546 564 693 0 0.00643606 0.00644649 -0.00001043 -0.00161809 0.00000000 0.00000000 0.00000000 0.00000000
547 82 693 0 0.00772891 0.00772721 0.00000169 0.00021928 0.00000000 0.00000000 0.00000000 0.00000000
548 564 694 0 0.05783713 0.05785068 -0.00001355 -0.00023415 0.00000000 0.00000000 0.00000000 0.00000000
549 198 695 0 0.02156156 0.02161005 -0.00004849 -0.00224393 0.00000000 0.00000000 0.00000000 0.00000000
550 562 695 0 0.01289214 0.01289501 -0.00000287 -0.00022283 0.00000000 0.00000000 0.00000000 0.00000000
551 78 695 0 0.00948471 0.00947792 0.00000678 0.00071572 0.00000000 0.00000000 0.00000000 0.00000000
552 196 696 0 0.01772097 0.01772021 0.00000076 0.00004295 0.00000000 0.00000000 0.00000000 0.00000000
553 561 696 0 0.00985030 0.00985516 -0.00000486 -0.00049304 0.00000000 0.00000000 0.00000000 0.00000000
554 77 696 0 0.08999211 0.09002303 -0.00003092 -0.00034352 0.00000000 0.00000000 0.00000000 0.00000000
555 195 697 0 0.01237898 0.01238356 -0.00000458 -0.00037008 0.00000000 0.00000000 0.00000000 0.00000000
556 560 697 0 0.01825061 0.01825066 -0.00000005 -0.00000254 0.00000000 0.00000000 0.00000000 0.00000000
557 76 697 0 0.03130502 0.03131437 -0.00000935 -0.00029870 0.00000000 0.00000000 0.00000000 0.00000000
558 194 698 0 0.36446846 0.36468977 -0.00022131 -0.00060685 0.00000000 0.00000000 0.00000000 0.00000000
559 559 698 0 0.10013466 0.10060277 -0.00046811 -0.00465304 0.00000000 0.00000000 0.00000000 0.00000000
560 75 698 0 0.11363905 0.11371197 -0.00007293 -0.00064132 0.00000000 0.00000000 0.00000000 0.00000000
561 549 699 0 0.30887269 0.30896332 -0.00009063 -0.00029335 0.00000000 0.00000000 0.00000000 0.00000000
562 192 700 0 0.07436307 0.07436334 -0.00000027 -0.00000365 0.00000000 0.00000000 0.00000000 0.00000000
563 549 700 0 0.01754723 0.01760303 -0.00005580 -0.00317012 0.00000000 0.00000000 0.00000000 0.00000000
564 192 701 0 0.16825362 0.16828787 -0.00003425 -0.00020353 0.00000000 0.00000000 0.00000000 0.00000000
565 546 701 0 0.03085381 0.03085929 -0.00000548 -0.00017763 0.00000000 0.00000000 0.00000000 0.00000000
566 192 702 0 0.01872678 0.01872039 0.00000638 0.00034101 0.00000000 0.00000000 0.00000000 0.00000000
567 546 702 0 0.00789950 0.00790040 -0.00000090 -0.00011352 0.00000000 0.00000000 0.00000000 0.00000000
568 189 703 0 0.04429489 0.04430403 -0.00000915 -0.00020644 0.00000000 0.00000000 0.00000000 0.00000000
569 529 703 0 0.00834482 0.00833374 0.00001108 0.00132988 0.00000000 0.00000000 0.00000000 0.00000000
570 188 704 0 0.02267707 0.02267899 -0.00000192 -0.00008452 0.00000000 0.00000000 0.00000000 0.00000000
571 529 704 0 0.00561020 0.00559419 0.00001601 0.00286150 0.00000000 0.00000000 0.00000000 0.00000000
572 72 704 0 0.01093456 0.01094088 -0.00000633 -0.00057817 0.00000000 0.00000000 0.00000000 0.00000000
573 187 705 0 0.04408218 0.04408227 -0.00000008 -0.00000184 0.00000000 0.00000000 0.00000000 0.00000000
574 529 705 0 0.03584336 0.03589199 -0.00004863 -0.00135490 0.00000000 0.00000000 0.00000000 0.00000000
575 68 705 0 0.01336527 0.01335606 0.00000921 0.00068943 0.00000000 0.00000000 0.00000000 0.00000000
576 186 706 0 0.00250368 0.00249997 0.00000372 0.00148707 0.00000000 0.00000000 0.00000000 0.00000000
577 493 706 0 0.00566876 0.00567775 -0.00000898 -0.00158232 0.00000000 0.00000000 0.00000000 0.00000000
578 67 706 0 0.00005504 0.00005165 0.00000339 0.06567707 0.00000000 0.00000000 0.00000000 0.00000000
579 185 707 0 0.02356088 0.02356729 -0.00000641 -0.00027195 0.00000000 0.00000000 0.00000000 0.00000000
580 493 707 0 0.01214971 0.01214988 -0.00000017 -0.00001439 0.00000000 0.00000000 0.00000000 0.00000000
581 494 708 0 0.04422575 0.04422768 -0.00000193 -0.00004370 0.00000000 0.00000000 0.00000000 0.00000000
582 185 709 0 0.02615383 0.02616922 -0.00001539 -0.00058795 0.00000000 0.00000000 0.00000000 0.00000000
583 473 709 0 0.00358105 0.00358038 0.00000067 0.00018650 0.00000000 0.00000000 0.00000000 0.00000000
584 67 709 0 0.00586917 0.00586865 0.00000051 0.00008727 0.00000000 0.00000000 0.00000000 0.00000000
585 182 710 0 0.03068387 0.03068526 -0.00000139 -0.00004541 0.00000000 0.00000000 0.00000000 0.00000000
586 473 710 0 0.00825937 0.00826698 -0.00000761 -0.00092103 0.00000000 0.00000000 0.00000000 0.00000000
587 181 711 0 0.00038384 0.00038373 0.00000011 0.00028516 0.00000000 0.00000000 0.00000000 0.00000000
588 473 711 0 0.00009149 0.00009167 -0.00000019 -0.00204652 0.00000000 0.00000000 0.00000000 0.00000000
589 63 711 0 0.00037344 0.00037313 0.00000031 0.00082410 0.00000000 0.00000000 0.00000000 0.00000000
590 180 712 0 0.00035085 0.00035072 0.00000014 0.00038507 0.00000000 0.00000000 0.00000000 0.00000000
591 470 712 0 0.00008622 0.00008634 -0.00000011 -0.00131177 0.00000000 0.00000000 0.00000000 0.00000000
592 63 712 0 0.00050204 0.00050210 -0.00000006 -0.00012640 0.00000000 0.00000000 0.00000000 0.00000000
593 179 713 0 0.00096898 0.00096893 0.00000005 0.00005675 0.00000000 0.00000000 0.00000000 0.00000000
594 468 713 0 0.00081022 0.00080979 0.00000044 0.00053902 0.00000000 0.00000000 0.00000000 0.00000000
595 61 713 0 0.00015169 0.00015216 -0.00000047 -0.00308857 0.00000000 0.00000000 0.00000000 0.00000000
596 180 714 0 0.00001066 0.00001030 0.00000036 0.03524097 0.00000000 0.00000000 0.00000000 0.00000000
597 177 715 0 0.01795060 0.01794987 0.00000073 0.00004048 0.00000000 0.00000000 0.00000000 0.00000000
598 466 715 0 0.00206877 0.00206756 0.00000121 0.00058655 0.00000000 0.00000000 0.00000000 0.00000000
599 59 715 0 0.00295296 0.00295309 -0.00000013 -0.00004319 0.00000000 0.00000000 0.00000000 0.00000000
600 175 718 0 0.02402086 0.02401768 0.00000318 0.00013237 0.00000000 0.00000000 0.00000000 0.00000000
601 450 718 0 0.00103282 0.00103692 -0.00000410 -0.00395269 0.00000000 0.00000000 0.00000000 0.00000000
602 174 719 0 0.00137911 0.00137839 0.00000072 0.00052253 0.00000000 0.00000000 0.00000000 0.00000000
603 450 719 0 0.00051183 0.00051173 0.00000010 0.00019857 0.00000000 0.00000000 0.00000000 0.00000000
604 55 719 0 0.00165290 0.00165272 0.00000018 0.00010904 0.00000000 0.00000000 0.00000000 0.00000000
605 174 720 0 0.03614074 0.03613981 0.00000093 0.00002575 0.00000000 0.00000000 0.00000000 0.00000000
606 432 720 0 0.00703360 0.00703264 0.00000096 0.00013692 0.00000000 0.00000000 0.00000000 0.00000000
607 54 720 0 0.00658860 0.00658844 0.00000017 0.00002516 0.00000000 0.00000000 0.00000000 0.00000000
608 431 721 0 0.02242935 0.02242868 0.00000067 0.00002996 0.00000000 0.00000000 0.00000000 0.00000000
609 53 721 0 0.00837234 0.00838126 -0.00000892 -0.00106384 0.00000000 0.00000000 0.00000000 0.00000000
610 430 722 0 0.02317458 0.02317537 -0.00000079 -0.00003406 0.00000000 0.00000000 0.00000000 0.00000000
611 53 722 0 0.00708203 0.00708278 -0.00000075 -0.00010604 0.00000000 0.00000000 0.00000000 0.00000000
612 170 723 0 0.00605268 0.00605178 0.00000090 0.00014911 0.00000000 0.00000000 0.00000000 0.00000000
613 429 723 0 0.00009684 0.00009674 0.00000010 0.00102255 0.00000000 0.00000000 0.00000000 0.00000000
614 53 723 0 0.00177487 0.00178241 -0.00000754 -0.00423029 0.00000000 0.00000000 0.00000000 0.00000000
615 168 724 0 0.00077673 0.00078703 -0.00001030 -0.01308559 0.00000000 0.00000000 0.00000000 0.00000000
616 428 724 0 0.00015854 0.00015840 0.00000014 0.00088513 0.00000000 0.00000000 0.00000000 0.00000000
617 167 725 0 0.02677123 0.02677031 0.00000092 0.00003429 0.00000000 0.00000000 0.00000000 0.00000000
618 427 725 0 0.00660839 0.00661469 -0.00000629 -0.00095134 0.00000000 0.00000000 0.00000000 0.00000000
619 165 726 0 0.00019061 0.00018867 0.00000194 0.01027032 0.00000000 0.00000000 0.00000000 0.00000000
620 426 726 0 0.00044409 0.00044455 -0.00000046 -0.00103898 0.00000000 0.00000000 0.00000000 0.00000000
621 49 726 0 0.00002831 0.00002696 0.00000135 0.04991771 0.00000000 0.00000000 0.00000000 0.00000000
622 164 727 0 0.02667730 0.02667871 -0.00000141 -0.00005279 0.00000000 0.00000000 0.00000000 0.00000000
623 425 727 0 0.00564247 0.00565156 -0.00000909 -0.00160901 0.00000000 0.00000000 0.00000000 0.00000000
624 48 727 0 0.00650506 0.00650662 -0.00000155 -0.00023885 0.00000000 0.00000000 0.00000000 0.00000000
625 163 728 0 0.02140888 0.02140683 0.00000205 0.00009591 0.00000000 0.00000000 0.00000000 0.00000000
626 425 728 0 0.00672243 0.00672298 -0.00000055 -0.00008242 0.00000000 0.00000000 0.00000000 0.00000000
627 47 728 0 0.00593331 0.00593230 0.00000102 0.00017136 0.00000000 0.00000000 0.00000000 0.00000000
628 163 729 0 0.00949849 0.00949832 0.00000018 0.00001854 0.00000000 0.00000000 0.00000000 0.00000000
629 425 729 0 0.00324528 0.00324637 -0.00000109 -0.00033611 0.00000000 0.00000000 0.00000000 0.00000000
630 46 729 0 0.00175719 0.00175698 0.00000021 0.00012182 0.00000000 0.00000000 0.00000000 0.00000000
631 162 730 0 0.04055976 0.04056177 -0.00000201 -0.00004960 0.00000000 0.00000000 0.00000000 0.00000000
632 409 730 0 0.01220370 0.01220268 0.00000101 0.00008298 0.00000000 0.00000000 0.00000000 0.00000000
633 45 730 0 0.00724410 0.00724492 -0.00000082 -0.00011373 0.00000000 0.00000000 0.00000000 0.00000000
634 384 731 0 0.01009213 0.01009021 0.00000192 0.00019031 0.00000000 0.00000000 0.00000000 0.00000000
635 44 731 0 0.00455899 0.00455901 -0.00000003 -0.00000568 0.00000000 0.00000000 0.00000000 0.00000000
636 159 732 0 0.01851381 0.01851546 -0.00000165 -0.00008913 0.00000000 0.00000000 0.00000000 0.00000000
637 383 732 0 0.00536312 0.00536249 0.00000062 0.00011631 0.00000000 0.00000000 0.00000000 0.00000000
638 42 732 0 0.00207547 0.00207622 -0.00000075 -0.00036012 0.00000000 0.00000000 0.00000000 0.00000000
639 159 733 0 0.03641196 0.03641402 -0.00000206 -0.00005658 0.00000000 0.00000000 0.00000000 0.00000000
640 383 733 0 0.01520626 0.01520929 -0.00000304 -0.00019972 0.00000000 0.00000000 0.00000000 0.00000000
641 42 733 0 0.00515086 0.00515318 -0.00000232 -0.00045059 0.00000000 0.00000000 0.00000000 0.00000000
642 385 734 0 0.00218020 0.00218061 -0.00000041 -0.00018903 0.00000000 0.00000000 0.00000000 0.00000000
643 385 735 0 0.00174388 0.00174402 -0.00000015 -0.00008332 0.00000000 0.00000000 0.00000000 0.00000000
644 369 741 0 0.02703041 0.02700057 0.00002983 0.00110494 0.00000000 0.00000000 0.00000000 0.00000000
645 369 742 0 0.00288687 0.00289406 -0.00000719 -0.00248416 0.00000000 0.00000000 0.00000000 0.00000000
646 358 744 0 0.01788065 0.01788909 -0.00000844 -0.00047188 0.00000000 0.00000000 0.00000000 0.00000000
647 358 745 0 0.02009713 0.02009837 -0.00000124 -0.00006174 0.00000000 0.00000000 0.00000000 0.00000000
648 357 746 0 0.00755133 0.00755111 0.00000022 0.00002974 0.00000000 0.00000000 0.00000000 0.00000000
649 357 747 0 0.02300074 0.02299328 0.00000746 0.00032439 0.00000000 0.00000000 0.00000000 0.00000000
650 357 748 0 0.16197329 0.16199311 -0.00001982 -0.00012237 0.00000000 0.00000000 0.00000000 0.00000000
651 144 750 0 0.00477658 0.00478858 -0.00001200 -0.00250604 0.00000000 0.00000000 0.00000000 0.00000000
652 143 751 0 0.03882735 0.03876732 0.00006004 0.00154863 0.00000000 0.00000000 0.00000000 0.00000000
653 142 752 0 0.00159393 0.00159660 -0.00000267 -0.00167508 0.00000000 0.00000000 0.00000000 0.00000000
654 141 753 0 0.01759930 0.01759856 0.00000073 0.00004156 0.00000000 0.00000000 0.00000000 0.00000000
655 25 753 0 0.00809480 0.00809477 0.00000002 0.00000288 0.00000000 0.00000000 0.00000000 0.00000000
656 337 753 0 0.00144592 0.00144656 -0.00000064 -0.00044031 0.00000000 0.00000000 0.00000000 0.00000000
657 140 754 0 0.00193782 0.00193743 0.00000039 0.00020009 0.00000000 0.00000000 0.00000000 0.00000000
658 24 754 0 0.00069147 0.00069183 -0.00000036 -0.00051917 0.00000000 0.00000000 0.00000000 0.00000000
659 337 754 0 0.00049517 0.00049491 0.00000026 0.00052446 0.00000000 0.00000000 0.00000000 0.00000000
660 139 755 0 0.00094878 0.00094830 0.00000048 0.00050243 0.00000000 0.00000000 0.00000000 0.00000000
661 22 755 0 0.00090734 0.00090795 -0.00000061 -0.00067369 0.00000000 0.00000000 0.00000000 0.00000000
662 337 755 0 0.00091708 0.00091672 0.00000036 0.00039290 0.00000000 0.00000000 0.00000000 0.00000000
663 137 756 0 0.00178084 0.00178097 -0.00000013 -0.00007532 0.00000000 0.00000000 0.00000000 0.00000000
664 21 756 0 0.00160602 0.00160224 0.00000378 0.00236068 0.00000000 0.00000000 0.00000000 0.00000000
665 333 756 0 0.01015038 0.01015363 -0.00000325 -0.00032001 0.00000000 0.00000000 0.00000000 0.00000000
666 136 757 0 0.00281377 0.00281432 -0.00000055 -0.00019473 0.00000000 0.00000000 0.00000000 0.00000000
667 20 757 0 0.00062133 0.00061996 0.00000137 0.00220370 0.00000000 0.00000000 0.00000000 0.00000000
668 332 757 0 0.01062786 0.01062813 -0.00000027 -0.00002536 0.00000000 0.00000000 0.00000000 0.00000000
669 136 758 0 0.02587228 0.02587594 -0.00000366 -0.00014138 0.00000000 0.00000000 0.00000000 0.00000000
670 19 758 0 0.01273636 0.01273779 -0.00000143 -0.00011229 0.00000000 0.00000000 0.00000000 0.00000000
671 310 758 0 0.00634336 0.00634387 -0.00000051 -0.00008011 0.00000000 0.00000000 0.00000000 0.00000000
672 135 759 0 0.05239558 0.05239509 0.00000049 0.00000938 0.00000000 0.00000000 0.00000000 0.00000000
673 18 759 0 0.01209835 0.01208109 0.00001726 0.00142830 0.00000000 0.00000000 0.00000000 0.00000000
674 309 759 0 0.00703124 0.00704079 -0.00000955 -0.00135692 0.00000000 0.00000000 0.00000000 0.00000000
675 134 760 0 0.05240580 0.05241486 -0.00000906 -0.00017285 0.00000000 0.00000000 0.00000000 0.00000000
676 17 760 0 0.01701530 0.01696165 0.00005365 0.00316277 0.00000000 0.00000000 0.00000000 0.00000000
677 308 760 0 0.00664579 0.00664546 0.00000033 0.00004987 0.00000000 0.00000000 0.00000000 0.00000000
678 305 761 0 0.03922524 0.03922893 -0.00000369 -0.00009406 0.00000000 0.00000000 0.00000000 0.00000000
679 16 762 0 0.02537272 0.02543765 -0.00006493 -0.00255236 0.00000000 0.00000000 0.00000000 0.00000000
680 283 762 0 0.01401921 0.01401411 0.00000510 0.00036407 0.00000000 0.00000000 0.00000000 0.00000000
681 282 763 0 0.00779030 0.00779291 -0.00000261 -0.00033552 0.00000000 0.00000000 0.00000000 0.00000000
682 130 764 0 0.03894236 0.03895330 -0.00001094 -0.00028090 0.00000000 0.00000000 0.00000000 0.00000000
683 13 764 0 0.00263155 0.00263001 0.00000154 0.00058542 0.00000000 0.00000000 0.00000000 0.00000000
684 281 764 0 0.00590138 0.00590436 -0.00000299 -0.00050594 0.00000000 0.00000000 0.00000000 0.00000000
685 12 765 0 0.02634219 0.02634403 -0.00000183 -0.00006952 0.00000000 0.00000000 0.00000000 0.00000000
686 129 765 0 0.01760229 0.01760199 0.00000029 0.00001670 0.00000000 0.00000000 0.00000000 0.00000000
687 280 765 0 0.00540555 0.00540254 0.00000301 0.00055638 0.00000000 0.00000000 0.00000000 0.00000000
688 11 766 0 0.03163574 0.03163631 -0.00000057 -0.00001798 0.00000000 0.00000000 0.00000000 0.00000000
689 127 766 0 0.00812243 0.00812039 0.00000204 0.00025165 0.00000000 0.00000000 0.00000000 0.00000000
690 278 766 0 0.00394613 0.00394651 -0.00000038 -0.00009582 0.00000000 0.00000000 0.00000000 0.00000000
691 11 767 0 0.05244918 0.05244575 0.00000343 0.00006541 0.00000000 0.00000000 0.00000000 0.00000000
692 127 767 0 0.00739646 0.00739772 -0.00000126 -0.00017008 0.00000000 0.00000000 0.00000000 0.00000000
693 268 767 0 0.00299000 0.00298996 0.00000004 0.00001445 0.00000000 0.00000000 0.00000000 0.00000000
694 11 768 0 0.00160014 0.00160013 0.00000001 0.00000647 0.00000000 0.00000000 0.00000000 0.00000000
695 126 768 0 0.00280597 0.00280613 -0.00000016 -0.00005796 0.00000000 0.00000000 0.00000000 0.00000000
696 278 768 0 0.00612065 0.00612091 -0.00000026 -0.00004194 0.00000000 0.00000000 0.00000000 0.00000000
697 235 770 0 0.00135078 0.00135094 -0.00000015 -0.00011422 0.00000000 0.00000000 0.00000000 0.00000000
698 233 771 0 0.02909534 0.02910000 -0.00000466 -0.00016020 0.00000000 0.00000000 0.00000000 0.00000000
699 235 772 0 0.03975791 0.03973292 0.00002499 0.00062889 0.00000000 0.00000000 0.00000000 0.00000000
700 233 773 0 0.00536657 0.00536657 0.00000001 0.00000156 0.00000000 0.00000000 0.00000000 0.00000000
701 230 774 0 0.00495925 0.00495705 0.00000220 0.00044383 0.00000000 0.00000000 0.00000000 0.00000000
702 118 776 0 0.01585844 0.01586251 -0.00000407 -0.00025639 0.00000000 0.00000000 0.00000000 0.00000000
703 229 776 0 0.00541923 0.00541096 0.00000827 0.00152873 0.00000000 0.00000000 0.00000000 0.00000000
704 1 777 0 0.09056577 0.09058268 -0.00001690 -0.00018661 0.00000000 0.00000000 0.00000000 0.00000000
705 1 778 0 0.02606991 0.02606933 0.00000058 0.00002223 0.00000000 0.00000000 0.00000000 0.00000000
706 105 779 0 0.05240165 0.05240048 0.00000117 0.00002242 0.00000000 0.00000000 0.00000000 0.00000000
707 1 779 0 0.00823510 0.00823572 -0.00000063 -0.00007612 0.00000000 0.00000000 0.00000000 0.00000000
708 662 779 0 0.01243323 0.01243169 0.00000154 0.00012376 0.00000000 0.00000000 0.00000000 0.00000000
709 105 780 0 0.05141663 0.05142074 -0.00000411 -0.00007992 0.00000000 0.00000000 0.00000000 0.00000000
710 645 780 0 0.00545108 0.00544794 0.00000314 0.00057587 0.00000000 0.00000000 0.00000000 0.00000000
711 645 781 0 0.05106578 0.05106763 -0.00000186 -0.00003633 0.00000000 0.00000000 0.00000000 0.00000000
712 645 782 0 0.02470764 0.02470170 0.00000594 0.00024030 0.00000000 0.00000000 0.00000000 0.00000000
713 646 783 0 0.01881793 0.01882515 -0.00000722 -0.00038350 0.00000000 0.00000000 0.00000000 0.00000000
714 644 784 0 0.07346680 0.07347410 -0.00000730 -0.00009935 0.00000000 0.00000000 0.00000000 0.00000000
715 663 785 0 0.00174219 0.00174224 -0.00000006 -0.00003228 0.00000000 0.00000000 0.00000000 0.00000000
716 795 832 0 0.02472581 0.02482973 -0.00010393 -0.00418552 0.00000000 0.00000000 0.00000000 0.00000000
717 787 833 0 0.13218353 0.13212293 0.00006060 0.00045866 0.00000000 0.00000000 0.00000000 0.00000000
718 60 863 0 0.03966642 0.04104952 -0.00138310 -0.03369340 0.00000000 0.00000000 0.00000000 0.00000000
719 60 863 0 0.00049277 0.00014717 0.00034560 2.34833379 0.00000000 0.00000000 0.00000000 0.00000000
720 179 864 0 0.00951901 0.00952095 -0.00000195 -0.00020456 0.00000000 0.00000000 0.00000000 0.00000000
721 179 864 0 0.00202834 0.00202872 -0.00000038 -0.00018731 0.00000000 0.00000000 0.00000000 0.00000000
722 525 865 0 0.00173478 0.00173480 -0.00000002 -0.00001071 0.00000000 0.00000000 0.00000000 0.00000000
723 527 868 0 0.01019520 0.01020028 -0.00000508 -0.00049799 0.00000000 0.00000000 0.00000000 0.00000000
724 526 869 0 0.02710650 0.02711089 -0.00000439 -0.00016188 0.00000000 0.00000000 0.00000000 0.00000000
725 188 870 0 0.02900147 0.02901392 -0.00001245 -0.00042916 0.00000000 0.00000000 0.00000000 0.00000000
726 526 870 0 0.01812074 0.01812268 -0.00000194 -0.00010680 0.00000000 0.00000000 0.00000000 0.00000000
727 70 870 0 0.00183170 0.00183097 0.00000073 0.00039907 0.00000000 0.00000000 0.00000000 0.00000000
728 188 871 0 0.03037044 0.03037051 -0.00000007 -0.00000229 0.00000000 0.00000000 0.00000000 0.00000000
729 529 871 0 0.00655545 0.00655574 -0.00000029 -0.00004397 0.00000000 0.00000000 0.00000000 0.00000000
730 703 871 0 0.01173267 0.01173417 -0.00000150 -0.00012792 0.00000000 0.00000000 0.00000000 0.00000000
731 70 871 0 0.00290231 0.00290141 0.00000091 0.00031230 0.00000000 0.00000000 0.00000000 0.00000000
732 188 872 0 0.04766968 0.04767516 -0.00000549 -0.00011512 0.00000000 0.00000000 0.00000000 0.00000000
733 529 872 0 0.01601063 0.01600608 0.00000455 0.00028420 0.00000000 0.00000000 0.00000000 0.00000000
734 703 872 0 0.02438609 0.02437896 0.00000714 0.00029281 0.00000000 0.00000000 0.00000000 0.00000000
735 70 872 0 0.00510790 0.00510910 -0.00000120 -0.00023413 0.00000000 0.00000000 0.00000000 0.00000000
736 188 873 0 0.00040415 0.00040449 -0.00000034 -0.00083824 0.00000000 0.00000000 0.00000000 0.00000000
737 529 873 0 0.00006479 0.00006465 0.00000014 0.00222369 0.00000000 0.00000000 0.00000000 0.00000000
738 703 873 0 0.00636830 0.00666003 -0.00029172 -0.04380229 0.00000000 0.00000000 0.00000000 0.00000000
739 526 874 0 0.01558452 0.01558468 -0.00000016 -0.00001008 0.00000000 0.00000000 0.00000000 0.00000000
740 703 874 0 0.02376325 0.02376202 0.00000123 0.00005176 0.00000000 0.00000000 0.00000000 0.00000000
741 526 875 0 0.02407164 0.02407180 -0.00000016 -0.00000657 0.00000000 0.00000000 0.00000000 0.00000000
742 703 875 0 0.00547072 0.00547274 -0.00000202 -0.00036887 0.00000000 0.00000000 0.00000000 0.00000000
743 190 876 0 0.02641549 0.02641612 -0.00000063 -0.00002372 0.00000000 0.00000000 0.00000000 0.00000000
744 526 876 0 0.02342048 0.02341616 0.00000432 0.00018450 0.00000000 0.00000000 0.00000000 0.00000000
745 703 876 0 0.01018301 0.01018468 -0.00000167 -0.00016397 0.00000000 0.00000000 0.00000000 0.00000000
746 70 876 0 0.00194941 0.00194938 0.00000003 0.00001700 0.00000000 0.00000000 0.00000000 0.00000000
747 188 877 0 0.04814499 0.04814851 -0.00000352 -0.00007302 0.00000000 0.00000000 0.00000000 0.00000000
748 526 877 0 0.02979988 0.02978343 0.00001645 0.00055242 0.00000000 0.00000000 0.00000000 0.00000000
749 703 877 0 0.00976513 0.00976187 0.00000326 0.00033401 0.00000000 0.00000000 0.00000000 0.00000000
750 70 877 0 0.00140742 0.00140783 -0.00000041 -0.00029268 0.00000000 0.00000000 0.00000000 0.00000000
751 188 878 0 0.05332580 0.05332640 -0.00000060 -0.00001117 0.00000000 0.00000000 0.00000000 0.00000000
752 526 878 0 0.02730884 0.02731347 -0.00000463 -0.00016960 0.00000000 0.00000000 0.00000000 0.00000000
753 702 878 0 0.00813965 0.00813710 0.00000255 0.00031342 0.00000000 0.00000000 0.00000000 0.00000000
754 70 878 0 0.00997388 0.00997705 -0.00000317 -0.00031755 0.00000000 0.00000000 0.00000000 0.00000000
755 190 879 0 0.00212608 0.00212626 -0.00000018 -0.00008616 0.00000000 0.00000000 0.00000000 0.00000000
756 530 879 0 0.00380082 0.00380061 0.00000021 0.00005552 0.00000000 0.00000000 0.00000000 0.00000000
757 702 879 0 0.00160899 0.00160884 0.00000015 0.00009270 0.00000000 0.00000000 0.00000000 0.00000000
758 71 879 0 0.00790766 0.00790810 -0.00000044 -0.00005520 0.00000000 0.00000000 0.00000000 0.00000000
759 191 880 0 0.03727858 0.03727744 0.00000114 0.00003062 0.00000000 0.00000000 0.00000000 0.00000000
760 546 880 0 0.00364779 0.00364904 -0.00000125 -0.00034262 0.00000000 0.00000000 0.00000000 0.00000000
761 701 880 0 0.01393917 0.01393799 0.00000117 0.00008400 0.00000000 0.00000000 0.00000000 0.00000000
762 72 880 0 0.00005078 0.00005072 0.00000006 0.00116885 0.00000000 0.00000000 0.00000000 0.00000000
763 192 881 0 0.03385830 0.03385907 -0.00000077 -0.00002287 0.00000000 0.00000000 0.00000000 0.00000000
764 548 881 0 0.01330236 0.01328973 0.00001264 0.00095079 0.00000000 0.00000000 0.00000000 0.00000000
765 73 881 0 0.00629397 0.00629499 -0.00000102 -0.00016157 0.00000000 0.00000000 0.00000000 0.00000000
766 193 882 0 0.05935672 0.05935872 -0.00000200 -0.00003366 0.00000000 0.00000000 0.00000000 0.00000000
767 549 882 0 0.01043532 0.01050545 -0.00007013 -0.00667576 0.00000000 0.00000000 0.00000000 0.00000000
768 699 882 0 0.02117780 0.02117457 0.00000323 0.00015270 0.00000000 0.00000000 0.00000000 0.00000000
769 74 882 0 0.01516463 0.01515377 0.00001087 0.00071717 0.00000000 0.00000000 0.00000000 0.00000000
770 194 883 0 0.03680795 0.03680699 0.00000096 0.00002600 0.00000000 0.00000000 0.00000000 0.00000000
771 559 883 0 0.01084498 0.01084490 0.00000008 0.00000706 0.00000000 0.00000000 0.00000000 0.00000000
772 699 883 0 0.02103417 0.02103489 -0.00000072 -0.00003417 0.00000000 0.00000000 0.00000000 0.00000000
773 75 883 0 0.00805149 0.00805200 -0.00000051 -0.00006343 0.00000000 0.00000000 0.00000000 0.00000000
774 195 884 0 0.03213431 0.03212601 0.00000830 0.00025845 0.00000000 0.00000000 0.00000000 0.00000000
775 560 884 0 0.04510908 0.04512213 -0.00001305 -0.00028923 0.00000000 0.00000000 0.00000000 0.00000000
776 76 884 0 0.00736050 0.00737151 -0.00001100 -0.00149283 0.00000000 0.00000000 0.00000000 0.00000000
777 196 885 0 0.09317090 0.09318174 -0.00001084 -0.00011632 0.00000000 0.00000000 0.00000000 0.00000000
778 561 885 0 0.08647121 0.08650465 -0.00003344 -0.00038654 0.00000000 0.00000000 0.00000000 0.00000000
779 77 885 0 0.01572011 0.01572122 -0.00000111 -0.00007069 0.00000000 0.00000000 0.00000000 0.00000000
780 197 886 0 0.02706034 0.02706165 -0.00000131 -0.00004827 0.00000000 0.00000000 0.00000000 0.00000000
781 562 886 0 0.01629850 0.01630049 -0.00000199 -0.00012211 0.00000000 0.00000000 0.00000000 0.00000000
782 78 886 0 0.02073958 0.02073413 0.00000545 0.00026267 0.00000000 0.00000000 0.00000000 0.00000000
783 199 887 0 0.02656910 0.02658175 -0.00001264 -0.00047569 0.00000000 0.00000000 0.00000000 0.00000000
784 563 887 0 0.00651389 0.00645086 0.00006303 0.00977034 0.00000000 0.00000000 0.00000000 0.00000000
785 79 887 0 0.00673017 0.00673396 -0.00000378 -0.00056200 0.00000000 0.00000000 0.00000000 0.00000000
786 199 888 0 0.02027598 0.02027377 0.00000221 0.00010917 0.00000000 0.00000000 0.00000000 0.00000000
787 564 888 0 0.00323021 0.00323045 -0.00000024 -0.00007333 0.00000000 0.00000000 0.00000000 0.00000000
788 692 888 0 0.02333787 0.02333768 0.00000020 0.00000849 0.00000000 0.00000000 0.00000000 0.00000000
789 80 888 0 0.00483156 0.00482507 0.00000649 0.00134598 0.00000000 0.00000000 0.00000000 0.00000000
790 199 889 0 0.10703808 0.10703471 0.00000338 0.00003153 0.00000000 0.00000000 0.00000000 0.00000000
791 564 889 0 0.01232255 0.01232103 0.00000152 0.00012359 0.00000000 0.00000000 0.00000000 0.00000000
792 80 889 0 0.01435582 0.01435571 0.00000011 0.00000763 0.00000000 0.00000000 0.00000000 0.00000000
793 199 890 0 0.00207040 0.00207153 -0.00000114 -0.00054929 0.00000000 0.00000000 0.00000000 0.00000000
794 564 890 0 0.01467434 0.01467469 -0.00000035 -0.00002387 0.00000000 0.00000000 0.00000000 0.00000000
795 693 890 0 0.01159933 0.01159679 0.00000254 0.00021921 0.00000000 0.00000000 0.00000000 0.00000000
796 80 890 0 0.00359524 0.00359923 -0.00000399 -0.00110964 0.00000000 0.00000000 0.00000000 0.00000000
797 199 891 0 0.10532248 0.10533316 -0.00001068 -0.00010136 0.00000000 0.00000000 0.00000000 0.00000000
798 564 891 0 0.04192731 0.04191643 0.00001088 0.00025960 0.00000000 0.00000000 0.00000000 0.00000000
799 692 891 0 0.04535259 0.04534529 0.00000730 0.00016098 0.00000000 0.00000000 0.00000000 0.00000000
800 80 891 0 0.01104747 0.01105600 -0.00000854 -0.00077232 0.00000000 0.00000000 0.00000000 0.00000000
801 199 892 0 0.03415124 0.03415095 0.00000029 0.00000856 0.00000000 0.00000000 0.00000000 0.00000000
802 564 892 0 0.01507267 0.01507189 0.00000078 0.00005160 0.00000000 0.00000000 0.00000000 0.00000000
803 692 892 0 0.01093998 0.01094199 -0.00000201 -0.00018359 0.00000000 0.00000000 0.00000000 0.00000000
804 80 892 0 0.00448759 0.00448883 -0.00000125 -0.00027772 0.00000000 0.00000000 0.00000000 0.00000000
805 564 893 0 0.12295425 0.12295540 -0.00000115 -0.00000934 0.00000000 0.00000000 0.00000000 0.00000000
806 693 893 0 0.05197296 0.05197109 0.00000187 0.00003598 0.00000000 0.00000000 0.00000000 0.00000000
807 562 894 0 0.05862949 0.05862836 0.00000113 0.00001923 0.00000000 0.00000000 0.00000000 0.00000000
808 694 894 0 0.02714805 0.02716706 -0.00001901 -0.00069981 0.00000000 0.00000000 0.00000000 0.00000000
809 78 894 0 0.02119848 0.02118523 0.00001325 0.00062539 0.00000000 0.00000000 0.00000000 0.00000000
810 196 895 0 0.05850383 0.05849146 0.00001236 0.00021136 0.00000000 0.00000000 0.00000000 0.00000000
811 561 895 0 0.03818314 0.03815439 0.00002875 0.00075363 0.00000000 0.00000000 0.00000000 0.00000000
812 695 895 0 0.02926356 0.02926410 -0.00000054 -0.00001853 0.00000000 0.00000000 0.00000000 0.00000000
813 77 895 0 0.01921359 0.01921449 -0.00000091 -0.00004716 0.00000000 0.00000000 0.00000000 0.00000000
814 195 896 0 0.03468914 0.03468971 -0.00000056 -0.00001622 0.00000000 0.00000000 0.00000000 0.00000000
815 560 896 0 0.00665046 0.00666549 -0.00001503 -0.00225469 0.00000000 0.00000000 0.00000000 0.00000000
816 696 896 0 0.03831583 0.03831311 0.00000272 0.00007099 0.00000000 0.00000000 0.00000000 0.00000000
817 77 896 0 0.00573439 0.00573791 -0.00000352 -0.00061266 0.00000000 0.00000000 0.00000000 0.00000000
818 194 897 0 0.01005531 0.01005659 -0.00000128 -0.00012682 0.00000000 0.00000000 0.00000000 0.00000000
819 559 897 0 0.01467904 0.01467253 0.00000651 0.00044381 0.00000000 0.00000000 0.00000000 0.00000000
820 697 897 0 0.05606969 0.05606165 0.00000803 0.00014328 0.00000000 0.00000000 0.00000000 0.00000000
821 75 897 0 0.04412243 0.04411358 0.00000885 0.00020060 0.00000000 0.00000000 0.00000000 0.00000000
822 193 898 0 0.19598463 0.19603447 -0.00004985 -0.00025427 0.00000000 0.00000000 0.00000000 0.00000000
823 549 898 0 0.10315107 0.10324084 -0.00008977 -0.00086955 0.00000000 0.00000000 0.00000000 0.00000000
824 698 898 0 0.03275676 0.03288275 -0.00012599 -0.00383154 0.00000000 0.00000000 0.00000000 0.00000000
825 74 898 0 0.06368394 0.06370547 -0.00002154 -0.00033810 0.00000000 0.00000000 0.00000000 0.00000000
826 192 899 0 0.13794417 0.13791744 0.00002673 0.00019382 0.00000000 0.00000000 0.00000000 0.00000000
827 548 899 0 0.01358975 0.01362480 -0.00003504 -0.00257213 0.00000000 0.00000000 0.00000000 0.00000000
828 699 899 0 0.16887770 0.16885214 0.00002556 0.00015139 0.00000000 0.00000000 0.00000000 0.00000000
829 73 899 0 0.01062333 0.01061370 0.00000963 0.00090739 0.00000000 0.00000000 0.00000000 0.00000000
830 191 900 0 0.11538256 0.11538224 0.00000031 0.00000270 0.00000000 0.00000000 0.00000000 0.00000000
831 548 900 0 0.05017827 0.05017922 -0.00000094 -0.00001878 0.00000000 0.00000000 0.00000000 0.00000000
832 701 900 0 0.03086580 0.03085879 0.00000701 0.00022721 0.00000000 0.00000000 0.00000000 0.00000000
833 72 900 0 0.01423397 0.01422854 0.00000543 0.00038176 0.00000000 0.00000000 0.00000000 0.00000000
834 879 900 0 0.00844964 0.00845230 -0.00000266 -0.00031491 0.00000000 0.00000000 0.00000000 0.00000000
835 190 901 0 0.06271225 0.06272271 -0.00001046 -0.00016680 0.00000000 0.00000000 0.00000000 0.00000000
836 531 901 0 0.01469602 0.01475919 -0.00006317 -0.00428024 0.00000000 0.00000000 0.00000000 0.00000000
837 702 901 0 0.00467889 0.00467822 0.00000067 0.00014318 0.00000000 0.00000000 0.00000000 0.00000000
838 72 901 0 0.01373354 0.01373504 -0.00000150 -0.00010910 0.00000000 0.00000000 0.00000000 0.00000000
839 879 901 0 0.00426367 0.00426172 0.00000195 0.00045748 0.00000000 0.00000000 0.00000000 0.00000000
840 189 902 0 0.05550405 0.05550497 -0.00000091 -0.00001644 0.00000000 0.00000000 0.00000000 0.00000000
841 530 902 0 0.01449073 0.01450681 -0.00001607 -0.00110802 0.00000000 0.00000000 0.00000000 0.00000000
842 871 902 0 0.00172791 0.00172708 0.00000083 0.00048243 0.00000000 0.00000000 0.00000000 0.00000000
843 530 903 0 0.03610810 0.03610566 0.00000244 0.00006746 0.00000000 0.00000000 0.00000000 0.00000000
844 871 903 0 0.00645496 0.00645726 -0.00000230 -0.00035669 0.00000000 0.00000000 0.00000000 0.00000000
845 530 904 0 0.02317689 0.02317522 0.00000167 0.00007215 0.00000000 0.00000000 0.00000000 0.00000000
846 703 904 0 0.01482269 0.01481711 0.00000558 0.00037644 0.00000000 0.00000000 0.00000000 0.00000000
847 871 904 0 0.02274870 0.02274842 0.00000028 0.00001239 0.00000000 0.00000000 0.00000000 0.00000000
848 529 905 0 0.03812176 0.03812182 -0.00000006 -0.00000149 0.00000000 0.00000000 0.00000000 0.00000000
849 702 905 0 0.00578214 0.00578155 0.00000059 0.00010193 0.00000000 0.00000000 0.00000000 0.00000000
850 870 905 0 0.00368703 0.00368701 0.00000003 0.00000775 0.00000000 0.00000000 0.00000000 0.00000000
851 526 906 0 0.10731738 0.10732265 -0.00000527 -0.00004911 0.00000000 0.00000000 0.00000000 0.00000000
852 703 906 0 0.05233546 0.05233818 -0.00000272 -0.00005197 0.00000000 0.00000000 0.00000000 0.00000000
853 869 906 0 0.01710813 0.01711354 -0.00000542 -0.00031661 0.00000000 0.00000000 0.00000000 0.00000000
854 527 907 0 0.00065005 0.00064849 0.00000157 0.00241484 0.00000000 0.00000000 0.00000000 0.00000000
855 704 907 0 0.01800579 0.01800533 0.00000046 0.00002539 0.00000000 0.00000000 0.00000000 0.00000000
856 868 907 0 0.00107222 0.00107178 0.00000044 0.00041064 0.00000000 0.00000000 0.00000000 0.00000000
857 527 908 0 0.04003417 0.04003834 -0.00000417 -0.00010422 0.00000000 0.00000000 0.00000000 0.00000000
858 867 908 0 0.00495952 0.00495992 -0.00000039 -0.00007950 0.00000000 0.00000000 0.00000000 0.00000000
859 866 909 0 0.02158278 0.02157599 0.00000679 0.00031448 0.00000000 0.00000000 0.00000000 0.00000000
860 864 910 0 0.02014200 0.02016649 -0.00002449 -0.00121453 0.00000000 0.00000000 0.00000000 0.00000000
861 863 911 0 0.03339579 0.03339894 -0.00000315 -0.00009430 0.00000000 0.00000000 0.00000000 0.00000000
862 863 912 0 0.01844130 0.01844237 -0.00000108 -0.00005850 0.00000000 0.00000000 0.00000000 0.00000000
863 865 913 0 0.06937716 0.06938636 -0.00000920 -0.00013252 0.00000000 0.00000000 0.00000000 0.00000000
864 861 914 0 0.02118144 0.02117824 0.00000319 0.00015074 0.00000000 0.00000000 0.00000000 0.00000000
865 849 915 0 0.01986952 0.01995176 -0.00008223 -0.00412153 0.00000000 0.00000000 0.00000000 0.00000000
866 848 916 0 0.03339323 0.03339423 -0.00000100 -0.00002987 0.00000000 0.00000000 0.00000000 0.00000000
867 846 917 0 0.02589881 0.02591564 -0.00001684 -0.00064965 0.00000000 0.00000000 0.00000000 0.00000000
868 847 918 0 0.00019601 0.00019639 -0.00000038 -0.00194151 0.00000000 0.00000000 0.00000000 0.00000000
869 845 919 0 0.02180965 0.02181292 -0.00000327 -0.00015012 0.00000000 0.00000000 0.00000000 0.00000000
870 845 920 0 0.02186190 0.02186736 -0.00000545 -0.00024946 0.00000000 0.00000000 0.00000000 0.00000000
871 845 921 0 0.03119918 0.03119811 0.00000107 0.00003443 0.00000000 0.00000000 0.00000000 0.00000000
872 841 923 0 0.01467304 0.01470914 -0.00003610 -0.00245447 0.00000000 0.00000000 0.00000000 0.00000000
873 841 925 0 0.00154859 0.00154879 -0.00000020 -0.00012644 0.00000000 0.00000000 0.00000000 0.00000000
874 841 926 0 0.02914224 0.02914156 0.00000068 0.00002349 0.00000000 0.00000000 0.00000000 0.00000000
875 838 928 0 0.00516357 0.00516286 0.00000071 0.00013807 0.00000000 0.00000000 0.00000000 0.00000000
876 833 930 0 0.02233064 0.02235626 -0.00002563 -0.00114623 0.00000000 0.00000000 0.00000000 0.00000000
877 833 932 0 0.08880441 0.08880706 -0.00000265 -0.00002983 0.00000000 0.00000000 0.00000000 0.00000000
878 834 933 0 0.00142413 0.00142583 -0.00000170 -0.00119410 0.00000000 0.00000000 0.00000000 0.00000000
879 789 934 0 0.00040371 0.00040361 0.00000010 0.00024134 0.00000000 0.00000000 0.00000000 0.00000000
880 787 935 0 0.11735191 0.11738432 -0.00003241 -0.00027611 0.00000000 0.00000000 0.00000000 0.00000000
881 786 936 0 0.02606685 0.02607038 -0.00000353 -0.00013559 0.00000000 0.00000000 0.00000000 0.00000000
882 664 938 0 0.03282557 0.03287294 -0.00004737 -0.00144086 0.00000000 0.00000000 0.00000000 0.00000000
883 664 939 0 0.03224321 0.03224333 -0.00000012 -0.00000365 0.00000000 0.00000000 0.00000000 0.00000000
884 103 940 0 0.00555715 0.00555671 0.00000044 0.00007966 0.00000000 0.00000000 0.00000000 0.00000000
885 223 940 0 0.01974016 0.01973868 0.00000148 0.00007511 0.00000000 0.00000000 0.00000000 0.00000000
886 643 940 0 0.00572340 0.00572553 -0.00000213 -0.00037159 0.00000000 0.00000000 0.00000000 0.00000000
887 104 941 0 0.06356282 0.06356422 -0.00000139 -0.00002191 0.00000000 0.00000000 0.00000000 0.00000000
888 223 941 0 0.01557219 0.01556970 0.00000249 0.00016000 0.00000000 0.00000000 0.00000000 0.00000000
889 644 941 0 0.01466916 0.01467038 -0.00000122 -0.00008347 0.00000000 0.00000000 0.00000000 0.00000000
890 780 941 0 0.00509797 0.00509208 0.00000590 0.00115850 0.00000000 0.00000000 0.00000000 0.00000000
891 0 942 0 0.02849299 0.02849276 0.00000023 0.00000805 0.00000000 0.00000000 0.00000000 0.00000000
892 105 942 0 0.00318295 0.00318607 -0.00000312 -0.00098038 0.00000000 0.00000000 0.00000000 0.00000000
893 224 942 0 0.00989621 0.00989558 0.00000063 0.00006324 0.00000000 0.00000000 0.00000000 0.00000000
894 644 942 0 0.00361616 0.00361409 0.00000208 0.00057480 0.00000000 0.00000000 0.00000000 0.00000000
895 779 942 0 0.00672014 0.00672148 -0.00000133 -0.00019858 0.00000000 0.00000000 0.00000000 0.00000000
