1 19 166 0.00296143 10 
2 19 172 0.00313387 10 
3 25 172 0.00318898 10 
4 25 178 0.00329594 10 
5 32 178 0.00330639 10 
6 32 183 0.00339527 10 
7 44 189 0.00351372 10 
8 44 195 0.00362602 10 
9 50 195 0.00361744 10 
10 50 201 0.00372663 10 
11 50 203 0.00378149 10 
12 61 203 0.00376716 10 
13 61 209 0.00387986 10 
14 67 209 0.00388527 10 
15 67 220 0.00408274 10 
16 81 220 0.00406937 10 
17 81 226 0.00419058 10 
18 87 226 0.00418307 10 
19 87 231 0.00428532 10 
20 94 231 0.00427278 10 
21 226 231 0.00426747 10 
22 94 241 0.00447557 10 
23 101 241 0.00447714 10 
24 101 247 0.00458454 10 
25 107 247 0.00459553 10 
26 87 247 0.00461562 10 
27 107 254 0.00474839 10 
28 114 254 0.00478109 10 
29 107 256 0.00484637 10 
30 114 256 0.00485486 10 
31 107 258 0.00487043 10 
32 114 258 0.00489349 10 
33 121 266 0.00501841 10 
34 126 266 0.00506425 10 
35 126 272 0.00518147 10 
36 132 272 0.00519569 10 
37 202 275 0.00533896 10 
38 132 278 0.00541396 10 
39 138 278 0.00541862 10 
40 138 284 0.00554907 10 
41 151 284 0.00555926 10 
42 121 288 0.00567670 10 
43 151 291 0.00575004 10 
44 151 297 0.00586100 10 
45 157 297 0.00587003 10 
46 163 297 0.00588463 10 
47 166 297 0.00590161 10 
48 19 305 0.00617433 10 
49 157 305 0.00615724 10 
50 163 305 0.00619122 10 
51 166 305 0.00619288 10 
52 172 305 0.00622051 10 
53 19 315 0.00622100 10 
54 25 315 0.00624541 10 
55 172 315 0.00642735 10 
56 172 328 0.00647589 10 
57 19 337 0.00528539 8 
58 25 337 0.00667723 10 
59 172 337 0.00684497 10 
60 19 342 0.00674212 10 
61 25 342 0.00679933 10 
62 172 342 0.00350908 5 
63 178 342 0.00687664 10 
64 53 352 0.00709376 10 
65 12 362 0.00361645 5 
66 25 367 0.00440934 6 
67 32 367 0.00516797 7 
68 178 367 0.00441174 6 
69 183 367 0.00518844 7 
70 25 374 0.00758939 10 
71 32 374 0.00764156 10 
72 178 374 0.00546898 7 
73 183 374 0.00682660 9 
74 32 382 0.00618251 8 
75 183 382 0.00782238 10 
76 32 387 0.00787512 10 
77 183 387 0.00468509 6 
78 189 400 0.00819458 10 
79 189 414 0.00846053 10 
80 44 437 0.00888955 10 
81 195 437 0.01109802 10 
82 95 439 0.00932223 10 
83 44 454 0.00943965 10 
84 189 454 0.00963539 10 
85 23 455 0.00972451 10 
86 291 457 0.00973798 10 
87 44 467 0.00976825 10 
88 50 467 0.00998513 10 
89 195 467 0.01003299 10 
90 195 484 0.01010730 10 
91 44 494 0.00814628 8 
92 50 494 0.01029460 10 
93 195 494 0.01052993 10 
94 201 494 0.01059042 10 
95 293 499 0.01051875 10 
96 50 500 0.01083042 10 
97 201 500 0.01083381 10 
98 203 500 0.01087094 10 
99 61 508 0.01077958 10 
100 203 508 0.01102214 10 
101 209 508 0.01109569 10 
102 61 522 0.01107689 10 
103 203 522 0.01132007 10 
104 209 522 0.01134441 10 
105 61 528 0.01122080 10 
106 67 528 0.01148930 10 
107 81 528 0.01152537 10 
108 209 528 0.01154075 10 
109 220 528 0.01154841 10 
110 67 532 0.01016058 9 
111 81 532 0.01138373 10 
112 220 532 0.01166524 10 
113 67 556 0.01184348 10 
114 67 564 0.01199878 10 
115 81 564 0.01229455 10 
116 220 564 0.01222597 10 
117 67 567 0.01208271 10 
118 81 567 0.01236405 10 
119 220 567 0.01236483 10 
120 67 570 0.01215003 10 
121 81 570 0.01245902 10 
122 220 570 0.01245117 10 
123 81 575 0.01257221 10 
124 220 575 0.01258375 10 
125 81 588 0.01255816 10 
126 87 588 0.01286747 10 
127 226 588 0.01288358 10 
128 582 596 0.01275006 10 
129 87 597 0.01307759 10 
130 94 597 0.01311746 10 
131 226 597 0.01313664 10 
132 87 604 0.01298699 10 
133 94 604 0.01328953 10 
134 94 616 0.01179082 9 
135 32 617 0.01335432 10 
136 167 622 0.01346890 10 
137 94 632 0.01384348 10 
138 94 637 0.01393691 10 
139 101 637 0.01425816 10 
140 101 642 0.01400122 10 
141 107 642 0.01434157 10 
142 101 645 0.01408903 10 
143 107 645 0.01440154 10 
144 101 657 0.01432020 10 
145 101 663 0.01434288 10 
146 107 663 0.01444257 10 
147 114 663 0.01481932 10 
148 101 665 0.01451602 10 
149 107 665 0.01487563 10 
150 114 665 0.01489269 10 
151 107 680 0.01484183 10 
152 107 683 0.01490315 10 
153 114 683 0.01526649 10 
154 107 704 0.01531428 10 
155 114 704 0.01563993 10 
156 246 712 0.01556868 10 
157 107 714 0.01559450 10 
158 114 714 0.01597119 10 
159 107 730 0.01102212 7 
160 114 730 0.01590292 10 
161 252 738 0.01111038 7 
162 478 744 0.01639457 10 
163 121 754 0.01662190 10 
164 126 754 0.01700729 10 
165 121 759 0.01675088 10 
166 126 759 0.01712870 10 
167 126 762 0.01678044 10 
168 132 762 0.01718312 10 
169 132 778 0.01712134 10 
170 575 781 0.01743202 10 
171 132 792 0.01762246 10 
172 132 800 0.01780684 10 
173 138 800 0.01838474 10 
174 138 806 0.01795913 10 
175 138 821 0.01828146 10 
176 138 823 0.01817441 10 
177 151 828 0.01858583 10 
178 151 847 0.01878569 10 
179 151 855 0.01894707 10 
180 151 895 0.01974596 10 
181 151 897 0.02005941 10 
182 138 903 0.01983512 10 
183 444 903 0.02047966 10 
184 138 904 0.02051969 10 
185 800 904 0.02052502 10 
186 132 907 0.02009762 10 
187 138 907 0.02055154 10 
188 132 911 0.02022454 10 
189 7 922 0.02067289 10 
190 121 923 0.02114964 10 
191 126 923 0.02121131 10 
192 107 929 0.02103228 10 
193 114 929 0.02145949 10 
194 107 935 0.02111010 10 
195 114 935 0.02163687 10 
196 101 939 0.02121798 10 
197 107 939 0.01941620 9 
198 101 944 0.02130027 10 
199 94 947 0.02161008 10 
200 101 947 0.02188046 10 
201 87 953 0.02155319 10 
202 94 953 0.02204152 10 
203 226 953 0.02211422 10 
204 539 956 0.02191072 10 
205 444 957 0.02236041 10 
206 81 959 0.02192918 10 
207 87 959 0.02256313 10 
208 220 959 0.02246914 10 
209 226 959 0.02245481 10 
210 67 965 0.02214649 10 
211 81 965 0.02263668 10 
212 220 965 0.02262857 10 
213 61 976 0.02240827 10 
214 67 976 0.02286538 10 
215 209 976 0.02288476 10 
216 50 982 0.02256850 10 
217 61 982 0.02307119 10 
218 201 982 0.02313798 10 
219 203 982 0.02314357 10 
220 44 988 0.02289074 10 
221 50 988 0.02340300 10 
222 195 988 0.02338269 10 
223 201 988 0.01171967 5 
224 44 994 0.02300736 10 
225 189 994 0.02366512 10 
226 195 994 0.02366269 10 
227 32 1003 0.02331787 10 
228 178 1003 0.02390275 10 
229 183 1003 0.02382034 10 
230 25 1008 0.02350870 10 
231 32 1008 0.02392968 10 
232 178 1008 0.02396495 10 
233 183 1008 0.02402516 10 
234 377 1009 0.02410223 10 
235 25 1010 0.02361089 10 
236 32 1010 0.02415898 10 
237 172 1010 0.02412208 10 
238 178 1010 0.02423495 10 
239 19 1016 0.02384873 10 
240 166 1016 0.02439531 10 
241 172 1016 0.02447197 10 
242 215 1024 0.02446262 10 
243 625 1025 0.03138658 10 
244 151 1029 0.02459511 10 
245 157 1029 0.02537105 10 
246 163 1029 0.02533041 10 
247 166 1029 0.02531833 10 
248 132 1084 0.02590256 10 
249 1054 1084 0.02639622 10 
250 101 1138 0.02696545 10 
251 107 1147 0.02709166 10 
252 114 1147 0.02770449 10 
253 107 1150 0.02721656 10 
254 114 1150 0.02778993 10 
255 114 1158 0.02740544 10 
256 121 1158 0.02796702 10 
257 121 1164 0.02756192 10 
258 126 1164 0.02811481 10 
259 114 1175 0.02777283 10 
260 121 1175 0.02833684 10 
261 923 1175 0.02839376 10 
262 929 1175 0.02839291 10 
263 1158 1175 0.02266610 8 
264 101 1188 0.02811227 10 
265 939 1188 0.02866683 10 
266 1138 1188 0.02870934 10 
267 1147 1188 0.02875006 10 
268 1150 1188 0.02872861 10 
269 1050 1210 0.02866242 10 
270 1061 1210 0.02931536 10 
271 1075 1210 0.02928325 10 
272 1084 1210 0.02924432 10 
273 1088 1210 0.02945953 10 
274 1093 1210 0.02926304 10 
275 1098 1210 0.02926432 10 
276 157 1217 0.02927510 10 
277 163 1217 0.02974454 10 
278 1029 1217 0.02969708 10 
279 1044 1217 0.02979692 10 
280 1050 1217 0.02978932 10 
281 1056 1217 0.02979548 10 
