VERTEX2 0 0.00001903 -0.00000040 0.00000039
VERTEX2 1 0.00001903 -0.00000040 -0.00064161
VERTEX2 2 0.00001903 -0.00000040 -0.00117961
VERTEX2 3 0.01102089 -0.00097538 -0.00356161
VERTEX2 4 0.64102747 -0.01120028 -0.00744361
VERTEX2 5 0.69603515 -0.01171574 -0.09872561
VERTEX2 6 0.70028826 -0.01543506 -0.89599761
VERTEX2 7 0.69397552 0.00421342 -1.51153461
VERTEX2 8 0.70050960 0.03190156 -2.12432854
VERTEX2 9 0.72097864 0.04945708 -2.76163654
VERTEX2 10 0.73658187 0.05202577 2.90775704
VERTEX2 11 0.73995976 0.04988953 2.23427264
VERTEX2 12 0.73983922 0.05588452 1.58557018
VERTEX2 13 0.74582005 0.07496773 0.92647591
VERTEX2 14 0.76804886 0.09071783 0.31861595
VERTEX2 15 0.77818742 0.09145523 -0.20597140
VERTEX2 16 1.07324399 0.03254760 -0.22451351
VERTEX2 17 1.67592771 -0.11178353 -0.25559248
VERTEX2 18 2.30089265 -0.27200736 -0.26563108
VERTEX2 19 2.92992634 -0.46654163 -0.31406312
VERTEX2 20 3.52408696 -0.65291744 -0.30803748
VERTEX2 21 4.13380236 -0.80157608 -0.19635293
VERTEX2 22 4.74439531 -0.93916678 -0.17888751
VERTEX2 23 5.38527675 -0.97955777 -0.07139826
VERTEX2 24 6.01479233 -1.04758103 -0.12878261
VERTEX2 25 6.64749500 -1.11229242 -0.12626554
VERTEX2 26 7.25599324 -1.20962092 -0.16687000
VERTEX2 27 7.87135660 -1.29777494 -0.15110628
VERTEX2 28 8.45249185 -1.39340877 -0.15561713
VERTEX2 29 8.83081477 -1.44886516 -0.12491393
VERTEX2 30 8.83920307 -1.45105140 -0.65718605
VERTEX2 31 8.94103069 -1.58631869 -0.92564579
VERTEX2 32 9.31154859 -2.09953421 -0.94424434
VERTEX2 33 9.69655570 -2.60480616 -0.89347486
VERTEX2 34 10.11065438 -3.09366497 -0.87247470
VERTEX2 35 10.53479410 -3.57474153 -0.83826371
VERTEX2 36 10.96550790 -4.05700984 -0.84688467
VERTEX2 37 11.24901052 -4.37045414 -0.83925281
VERTEX2 38 11.24747763 -4.36838570 -1.16102813
VERTEX2 39 11.24621803 -4.36259779 -1.33206192
VERTEX2 40 11.39377062 -4.93594581 -1.31483926
VERTEX2 41 11.54695751 -5.53438866 -1.34684687
VERTEX2 42 11.67240605 -6.09649455 -1.36955876
VERTEX2 43 11.78206848 -6.69043992 -1.40974141
VERTEX2 44 11.87487533 -7.28382000 -1.44668173
VERTEX2 45 11.93364663 -7.90245114 -1.50212145
VERTEX2 46 11.96846613 -8.52315644 -1.52144561
VERTEX2 47 11.99245611 -9.14370932 -1.56306674
VERTEX2 48 11.99293330 -9.76870322 -1.56957182
VERTEX2 49 11.98966083 -10.38964848 -1.62036688
VERTEX2 50 11.94016175 -10.97825927 -1.66483258
VERTEX2 51 11.88960321 -11.56754857 -1.69377907
VERTEX2 52 11.79763622 -12.14352927 -1.77037710
VERTEX2 53 11.70282860 -12.69400645 -1.75792433
VERTEX2 54 11.59311385 -13.20853222 -1.81998469
VERTEX2 55 11.59913172 -13.17870680 -1.81468680
VERTEX2 56 11.59810058 -13.18283577 -1.80409248
VERTEX2 57 11.45826328 -13.80363402 -1.81549323
VERTEX2 58 11.31575595 -14.41262538 -1.76929976
VERTEX2 59 11.19057275 -15.02126055 -1.79293473
VERTEX2 60 11.06472577 -15.62620712 -1.77163352
VERTEX2 61 10.93304653 -16.23156572 -1.82248641
VERTEX2 62 10.78685667 -16.79134544 -1.78257171
VERTEX2 63 10.63894472 -17.35592099 -1.81802217
VERTEX2 64 10.50753413 -17.91516053 -1.75461649
VERTEX2 65 10.37657308 -18.47222056 -1.80604287
VERTEX2 66 10.22681248 -19.05915363 -1.81410938
VERTEX2 67 10.06530894 -19.64955575 -1.81273957
VERTEX2 68 9.95810676 -20.09764268 -1.82855280
VERTEX2 69 9.96126730 -20.08712713 -1.98353833
VERTEX2 70 9.96824957 -20.07357926 -2.65791569
VERTEX2 71 9.99202377 -20.07207373 2.98259542
VERTEX2 72 10.00511685 -20.07361655 2.97310596
VERTEX2 73 10.01291114 -20.07549592 2.90815440
VERTEX2 74 10.01326144 -20.07571648 2.28633975
VERTEX2 75 10.02029014 -20.07842070 1.93398005
VERTEX2 76 10.00864061 -20.06564371 2.62785377
VERTEX2 77 10.00464742 -20.06399291 2.86080108
VERTEX2 78 9.72369915 -20.07613517 -3.08525412
VERTEX2 79 9.10618950 -20.11805695 -3.09052719
VERTEX2 80 8.47476067 -20.11983016 3.11812381
VERTEX2 81 7.85093235 -20.09649953 3.09211034
VERTEX2 82 7.25319626 -20.05886582 3.03799612
VERTEX2 83 6.66636207 -20.01061000 3.01448970
VERTEX2 84 6.10536387 -19.92776926 2.93669391
VERTEX2 85 5.56397529 -19.82680210 2.94400832
VERTEX2 86 4.95598922 -19.70935618 2.85430880
VERTEX2 87 4.56807954 -19.60576789 2.80189483
VERTEX2 88 4.20924618 -19.47472649 2.77204092
VERTEX2 89 4.21985879 -19.47517946 -3.11549102
VERTEX2 90 3.61577080 -19.48125770 3.13654379
VERTEX2 91 3.00079867 -19.47975067 -3.09759938
VERTEX2 92 2.40190525 -19.47830421 3.06985756
VERTEX2 93 1.78066200 -19.37849440 2.96896927
VERTEX2 94 1.15941618 -19.24280991 2.92617653
VERTEX2 95 0.54904876 -19.15932083 3.06844943
VERTEX2 96 -0.06467266 -19.11061351 3.09255848
VERTEX2 97 -0.65803127 -19.04993943 3.02199166
VERTEX2 98 -1.24989049 -18.95112403 2.96404969
VERTEX2 99 -1.95844888 -18.82949285 3.01087309
VERTEX2 100 -2.52640086 -18.72356049 2.95915202
VERTEX2 101 -3.14111749 -18.66948626 3.06241928
VERTEX2 102 -3.75514589 -18.59186044 2.95652570
VERTEX2 103 -4.36456056 -18.47968205 3.05248469
VERTEX2 104 -4.97782212 -18.40607102 3.01881453
VERTEX2 105 -5.59123766 -18.34430861 3.06536809
VERTEX2 106 -6.19408986 -18.27654961 3.01049608
VERTEX2 107 -6.81280897 -18.18312200 3.00667439
VERTEX2 108 -7.26853832 -18.13614346 3.06823766
VERTEX2 109 -7.31478946 -18.12463157 2.61971655
VERTEX2 110 -7.33195948 -18.10700738 2.02834829
VERTEX2 111 -7.33246878 -18.02647436 1.52248241
VERTEX2 112 -7.31123795 -17.39278808 1.57688748
VERTEX2 113 -7.33207765 -16.77082536 1.62389929
VERTEX2 114 -7.36762450 -16.15736284 1.66066469
VERTEX2 115 -7.44325643 -15.51810487 1.72087660
VERTEX2 116 -7.56476850 -14.76873745 1.76493343
VERTEX2 117 -7.70272136 -14.15974795 1.86047400
VERTEX2 118 -7.70726997 -14.13988307 1.52584427
VERTEX2 119 -7.65412295 -13.62205063 1.47260759
VERTEX2 120 -7.60495096 -12.96612381 1.56287678
VERTEX2 121 -7.61902944 -12.34770684 1.63054504
VERTEX2 122 -7.65663743 -11.76699675 1.68675814
VERTEX2 123 -7.68252187 -11.58873059 1.67397701
VERTEX2 124 -7.59838935 -11.35064057 1.25098098
VERTEX2 125 -7.38625532 -10.75791890 1.24004951
VERTEX2 126 -7.25839348 -10.14253700 1.44661351
VERTEX2 127 -7.16580837 -9.50835968 1.44509751
VERTEX2 128 -7.09557381 -8.87009012 1.48159253
VERTEX2 129 -7.01451014 -8.23563245 1.44900539
VERTEX2 130 -6.95234586 -7.60314981 1.50173874
VERTEX2 131 -6.91193342 -6.97643752 1.59026172
VERTEX2 132 -6.89944676 -6.35926952 1.54068189
VERTEX2 133 -6.85735447 -5.79282212 1.50385674
VERTEX2 134 -6.80852348 -5.19740718 1.48564247
VERTEX2 135 -6.73154616 -4.62214602 1.45942620
VERTEX2 136 -6.66283433 -3.99003754 1.47906938
VERTEX2 137 -6.57175299 -3.35988479 1.43725346
VERTEX2 138 -6.50129518 -2.73098535 1.51749413
VERTEX2 139 -6.49040007 -2.10035214 1.58289476
VERTEX2 140 -6.52473602 -1.44529794 1.61350722
VERTEX2 141 -6.53664469 -0.80543866 1.56515144
VERTEX2 142 -6.54300657 -0.15585069 1.56138223
VERTEX2 143 -6.46794337 0.48324933 1.45088764
VERTEX2 144 -6.43171096 0.85490968 1.46846641
VERTEX2 145 -6.42651808 0.87114319 0.97014816
VERTEX2 146 -6.42506892 0.87891034 0.37701127
VERTEX2 147 -6.36952321 0.87560457 -0.10943605
VERTEX2 148 -5.93753605 0.82023325 -0.14505114
VERTEX2 149 -5.29629569 0.73343982 -0.11991362
VERTEX2 150 -4.66182569 0.67588190 -0.10572357
VERTEX2 151 -4.02193606 0.63552208 -0.02002346
VERTEX2 152 -3.39723895 0.60743536 -0.08079699
VERTEX2 153 -2.77285026 0.58203411 0.01273664
VERTEX2 154 -2.15215281 0.56842592 -0.05670650
VERTEX2 155 -1.52754517 0.54246119 -0.02319206
VERTEX2 156 -0.90069820 0.53568626 0.00762658
VERTEX2 157 -0.33746645 0.52483117 -0.05666549
VERTEX2 158 -0.14288753 0.51333500 -0.02917083
VERTEX2 159 -0.13738860 0.51164380 0.95815649
VERTEX2 160 -0.13206346 0.52056636 1.99383473
VERTEX2 161 -0.15390144 0.46157193 2.71488046
VERTEX2 162 -0.12822291 0.46755266 -2.53250550
VERTEX2 163 -0.12918473 0.46254302 -1.53542511
VERTEX2 164 -0.20634968 0.55723623 -0.47310941
VERTEX2 165 -0.03314507 0.54107403 -0.06532118
VERTEX2 166 0.66395565 0.50208846 -0.06361796
VERTEX2 167 1.28783170 0.45469303 -0.09271162
VERTEX2 168 1.87351515 0.40919776 -0.08080244
VERTEX2 169 2.46645250 0.34147152 -0.11783339
VERTEX2 170 3.05063286 0.27685315 -0.13857893
VERTEX2 171 3.61016978 0.18205731 -0.17699234
VERTEX2 172 4.23345632 0.07840375 -0.16304555
VERTEX2 173 4.86182435 -0.03860548 -0.18598361
VERTEX2 174 5.48637538 -0.14929435 -0.14597047
VERTEX2 175 6.10182399 -0.23602296 -0.17077892
VERTEX2 176 6.70059614 -0.35291506 -0.16127129
VERTEX2 177 7.32317933 -0.45228872 -0.18902253
VERTEX2 178 7.94408180 -0.59477982 -0.22812968
VERTEX2 179 8.34634976 -0.67628059 -0.17488074
VERTEX2 180 8.39518550 -0.68917483 -0.61707460
VERTEX2 181 8.83693860 -1.00539239 -0.66894226
VERTEX2 182 9.24492141 -1.36381270 -0.84306870
VERTEX2 183 9.59398096 -1.78371249 -0.90050218
VERTEX2 184 9.93921651 -2.30071341 -1.04617780
VERTEX2 185 10.22942195 -2.84170207 -1.13801017
VERTEX2 186 10.45495879 -3.41589035 -1.20370902
VERTEX2 187 10.65615243 -3.96827601 -1.22571151
VERTEX2 188 10.86436340 -4.54011616 -1.23052521
VERTEX2 189 11.06541412 -5.11603720 -1.25662109
VERTEX2 190 11.25223109 -5.71809093 -1.28550591
VERTEX2 191 11.42866409 -6.31957700 -1.30966650
VERTEX2 192 11.58610779 -6.91471739 -1.33808553
VERTEX2 193 11.71245854 -7.46158624 -1.39384899
VERTEX2 194 11.81527323 -8.02973297 -1.42063684
VERTEX2 195 11.89854216 -8.59341068 -1.44925587
VERTEX2 196 11.96899396 -9.21829634 -1.48996407
VERTEX2 197 12.01072502 -9.83913700 -1.51739889
VERTEX2 198 12.03973242 -10.45737803 -1.57554414
VERTEX2 199 12.01546681 -11.06503063 -1.63694641
VERTEX2 200 11.97219100 -11.66748069 -1.65882353
VERTEX2 201 11.90525565 -12.26644488 -1.71549946
VERTEX2 202 11.84483373 -12.76991242 -1.69512203
VERTEX2 203 11.74805083 -13.50548277 -1.74780446
VERTEX2 204 11.63007826 -14.08214817 -1.84966625
VERTEX2 205 11.46466020 -14.64439170 -1.85900203
VERTEX2 206 11.31429213 -15.19164281 -1.85700538
VERTEX2 207 11.15839783 -15.75866144 -1.84099249
VERTEX2 208 10.98915413 -16.35839194 -1.85038395
VERTEX2 209 10.83112950 -16.95961220 -1.81215718
VERTEX2 210 10.67179189 -17.55285577 -1.82107316
VERTEX2 211 10.52643667 -18.14975658 -1.81886662
VERTEX2 212 10.35341124 -18.73644397 -1.87177954
VERTEX2 213 10.16178181 -19.32694648 -1.89261299
VERTEX2 214 9.96521137 -19.90388655 -1.89647399
VERTEX2 215 9.85205829 -20.22648985 -1.93232550
VERTEX2 216 9.86350804 -20.20662470 -2.43098336
VERTEX2 217 9.89016631 -20.20361462 -2.97313183
VERTEX2 218 9.90083706 -20.20763775 -3.02915063
VERTEX2 219 9.33554082 -20.16696115 3.08553306
VERTEX2 220 8.72752473 -20.12647087 3.04566256
VERTEX2 221 8.09023953 -20.06401714 3.09618216
VERTEX2 222 7.46666742 -20.02524951 3.07066841
VERTEX2 223 6.84264045 -19.99976994 -3.11614319
VERTEX2 224 6.23059483 -20.00426005 3.14129047
VERTEX2 225 5.61490931 -20.00247746 -3.09216293
VERTEX2 226 5.00016912 -19.99996939 -3.14122812
VERTEX2 227 4.35558680 -20.07341862 -2.98450082
VERTEX2 228 3.83230624 -20.06123625 2.93721342
VERTEX2 229 3.38860952 -20.02646859 3.05771741
VERTEX2 230 3.09822376 -20.01245124 3.02896573
VERTEX2 231 3.30310732 -20.02902455 3.09908731
VERTEX2 232 2.99265829 -19.89193126 2.67318665
VERTEX2 233 2.42718888 -19.63459605 2.77548005
VERTEX2 234 1.84997902 -19.41133133 2.73130962
VERTEX2 235 1.60008313 -19.30521674 2.72631240
VERTEX2 236 1.26561764 -19.30837834 3.13171614
VERTEX2 237 0.63768155 -19.32696500 -3.08109666
VERTEX2 238 0.01766076 -19.37903707 -3.11385379
VERTEX2 239 -0.59885945 -19.37963788 3.10167882
VERTEX2 240 -1.16928822 -19.26491550 2.88354709
VERTEX2 241 -1.70977628 -19.13654862 2.96893647
VERTEX2 242 -2.28526669 -19.07407259 3.00847174
VERTEX2 243 -2.88755258 -18.99351248 3.00780455
VERTEX2 244 -3.51288663 -18.95076316 3.07917727
VERTEX2 245 -4.12893055 -18.90488664 3.02502695
VERTEX2 246 -4.73285148 -18.82153182 2.95271174
VERTEX2 247 -5.33815624 -18.74187543 3.05838342
VERTEX2 248 -5.89322388 -18.72298958 3.08972968
VERTEX2 249 -5.84536519 -18.72994775 -3.00061222
VERTEX2 250 -5.84247458 -18.72982345 2.69536986
VERTEX2 251 -6.16842793 -18.38912903 2.27187343
VERTEX2 252 -6.52791753 -17.96879465 2.28037169
VERTEX2 253 -6.89992711 -17.52707755 2.26962662
VERTEX2 254 -7.26568702 -17.07316631 2.22871225
VERTEX2 255 -7.33915501 -16.98090525 2.31258853
VERTEX2 256 -7.34255163 -16.90365775 1.83668038
VERTEX2 257 -7.39676797 -16.44408707 1.70120100
VERTEX2 258 -7.48361596 -15.85491787 1.78169628
VERTEX2 259 -7.63058093 -15.25093614 1.82242893
VERTEX2 260 -7.76761771 -14.69120194 1.81417322
VERTEX2 261 -7.76559626 -14.65438666 1.50295780
VERTEX2 262 -7.70641602 -14.00313251 1.50976810
VERTEX2 263 -7.66805626 -13.38535288 1.52336975
VERTEX2 264 -7.65691762 -12.78093433 1.62058148
VERTEX2 265 -7.69241044 -12.17742764 1.64087198
VERTEX2 266 -7.64826838 -11.59935523 1.51184984
VERTEX2 267 -7.60175231 -10.84961417 1.48246184
VERTEX2 268 -7.47329766 -10.24551007 1.37232005
VERTEX2 269 -7.35730634 -9.63092927 1.40219933
VERTEX2 270 -7.28909875 -9.00615680 1.51620399
VERTEX2 271 -7.19778586 -8.38294039 1.40568636
VERTEX2 272 -7.11609825 -7.75518533 1.47084466
VERTEX2 273 -7.12976461 -7.12653923 1.68278204
VERTEX2 274 -7.20106783 -6.51174981 1.70665098
VERTEX2 275 -7.19253087 -5.90598425 1.53502374
VERTEX2 276 -7.18915162 -5.29789399 1.64975872
VERTEX2 277 -7.23943099 -4.73227794 1.62438471
VERTEX2 278 -7.19997850 -4.09164349 1.53590657
VERTEX2 279 -7.16391392 -3.45428170 1.48063092
VERTEX2 280 -7.09950342 -2.82209228 1.48277100
VERTEX2 281 -7.01272783 -2.18791959 1.38245628
VERTEX2 282 -6.89671950 -1.55999328 1.42246134
VERTEX2 283 -6.81373991 -0.92583011 1.41479175
VERTEX2 284 -6.70575873 -0.30195427 1.44214787
VERTEX2 285 -6.64270204 0.34712247 1.46309220
VERTEX2 286 -6.57990732 0.96842291 1.51655807
VERTEX2 287 -6.57741152 1.01886399 1.41201419
VERTEX2 288 -6.57384342 1.02532284 0.80311212
VERTEX2 289 -6.56699296 1.02891342 0.21087694
VERTEX2 290 -6.12550887 1.02289703 -0.01361010
VERTEX2 291 -5.50158274 1.01928217 0.00050992
VERTEX2 292 -4.88264751 1.00336084 -0.05398460
VERTEX2 293 -4.25512296 0.96193054 -0.07691611
VERTEX2 294 -3.63610052 0.91384863 -0.07632453
VERTEX2 295 -3.01638197 0.83768140 -0.18893800
VERTEX2 296 -2.40158924 0.69728881 -0.23445719
VERTEX2 297 -1.78897755 0.54992009 -0.24627466
VERTEX2 298 -1.17772339 0.39904960 -0.24696996
VERTEX2 299 -0.60301146 0.24560196 -0.18583840
VERTEX2 300 -0.01631635 0.16292500 -0.14371403
VERTEX2 301 0.54589578 0.06621483 -0.20295517
VERTEX2 302 0.84737401 0.00289039 -0.22393060
VERTEX2 303 0.82902705 0.00649859 -0.21986267
VERTEX2 304 1.32941001 -0.10653718 -0.21039367
VERTEX2 305 1.94455065 -0.14812397 -0.02666253
VERTEX2 306 2.57369378 -0.15598725 -0.04482966
VERTEX2 307 3.21277984 -0.20108522 -0.08163924
VERTEX2 308 3.84038884 -0.26134763 -0.13734321
VERTEX2 309 4.47529923 -0.31903801 -0.04454885
VERTEX2 310 5.10275340 -0.34638415 -0.08055726
VERTEX2 311 5.38355677 -0.37114906 0.09433697
VERTEX2 312 5.38033708 -0.37285492 1.08184171
VERTEX2 313 5.38382583 -0.15398179 1.57739193
VERTEX2 314 5.36101905 0.47456432 1.61711238
VERTEX2 315 5.32923561 1.10245786 1.61272507
VERTEX2 316 5.28610475 1.74728581 1.66390395
VERTEX2 317 5.22178222 2.38864965 1.67370190
VERTEX2 318 5.12002992 3.02520373 1.76807462
VERTEX2 319 5.03874687 3.37180498 1.83926793
VERTEX2 320 5.04077003 3.37817856 2.80729459
VERTEX2 321 5.03285687 3.37472677 -2.43668746
VERTEX2 322 5.03198179 3.37289668 -1.44095362
VERTEX2 323 5.04262290 3.36274597 -0.44900824
VERTEX2 324 5.04718908 3.36128192 0.21051444
VERTEX2 325 5.04865268 3.36140522 -0.31746034
VERTEX2 326 5.06414036 3.34988264 -0.91300151
VERTEX2 327 5.06758788 3.33402119 -1.53671606
VERTEX2 328 5.05467331 2.69613544 -1.58339161
VERTEX2 329 5.03606039 2.06951471 -1.63979820
VERTEX2 330 4.98503802 1.45412032 -1.66026840
VERTEX2 331 4.93301729 0.83742972 -1.67601129
VERTEX2 332 4.85652729 0.22369292 -1.69599294
VERTEX2 333 4.83555309 0.06926181 -1.63251804
VERTEX2 334 4.84416237 0.07093712 -0.83929490
VERTEX2 335 4.86120786 0.06598309 0.15172375
VERTEX2 336 4.87403632 0.07055709 1.09289585
VERTEX2 337 4.87883302 0.10140690 2.07190004
VERTEX2 338 4.87592464 0.10340316 3.06138944
VERTEX2 339 4.88737943 0.11059450 -2.17185835
VERTEX2 340 4.88758857 0.10907102 -1.15205759
VERTEX2 341 5.00125392 0.04123736 -0.51832963
VERTEX2 342 5.57582345 -0.26068371 -0.41623584
VERTEX2 343 6.15803258 -0.46041572 -0.28471811
VERTEX2 344 6.75072552 -0.64182894 -0.29418041
VERTEX2 345 6.99211643 -0.71166798 -0.32106745
VERTEX2 346 6.98127006 -0.70817487 -0.96681684
VERTEX2 347 6.98434771 -0.80323512 -1.52413245
VERTEX2 348 7.00527695 -1.40041287 -1.54027749
VERTEX2 349 7.00596929 -2.02658241 -1.57994540
VERTEX2 350 6.99643560 -2.82138841 -1.59903228
VERTEX2 351 6.98313700 -3.10182941 -1.62745252
VERTEX2 352 6.98008363 -3.11672348 -1.91437865
VERTEX2 353 6.96912255 -3.13029174 -2.57725039
VERTEX2 354 6.95293059 -3.13501631 3.10491439
VERTEX2 355 6.92851108 -3.13412727 2.38666824
VERTEX2 356 6.91969055 -3.11872664 1.81369887
VERTEX2 357 6.92286263 -3.09912771 1.16313007
VERTEX2 358 6.92474681 -3.09644618 0.55006795
VERTEX2 359 6.91139960 -3.10224820 -0.06156303
VERTEX2 360 6.89204437 -3.09852339 -0.23659131
VERTEX2 361 6.88132268 -3.10138376 0.68618731
VERTEX2 362 6.96610215 -2.86697347 1.22202378
VERTEX2 363 7.06964812 -2.59177552 1.21643935
VERTEX2 364 6.99657664 -2.24714567 1.83327163
VERTEX2 365 6.93767012 -1.94945840 1.33802703
VERTEX2 366 7.04851032 -1.82248329 0.78589595
VERTEX2 367 7.49426862 -1.38184236 0.78873120
VERTEX2 368 7.94798382 -0.94309898 0.74081058
VERTEX2 369 7.96757149 -0.91917078 0.48901025
VERTEX2 370 7.99122925 -0.91525628 -0.09771146
VERTEX2 371 7.99669451 -0.91805671 -0.64313791
VERTEX2 372 8.42693054 -1.26394962 -0.67079153
VERTEX2 373 8.90095403 -1.62587298 -0.66878823
VERTEX2 374 9.38164437 -2.02604246 -0.72990355
VERTEX2 375 9.74355481 -2.34456284 -0.76054961
VERTEX2 376 9.75515215 -2.35155615 -0.06720913
VERTEX2 377 9.80030504 -2.31896967 0.62664145
VERTEX2 378 10.33360049 -1.91684379 0.67947180
VERTEX2 379 10.81075886 -1.48274644 0.76286557
VERTEX2 380 11.24783799 -1.01277282 0.88072701
VERTEX2 381 11.39312187 -0.83129360 1.02907969
VERTEX2 382 11.39448190 -0.82878197 2.07384341
VERTEX2 383 11.39266575 -0.82769042 3.06048277
VERTEX2 384 11.39069345 -0.82957867 -2.25918660
VERTEX2 385 11.38593969 -0.83766481 -1.22932514
VERTEX2 386 11.49107431 -0.97279120 -1.00446559
VERTEX2 387 11.94922427 -1.39264045 -0.67279883
VERTEX2 388 12.41027967 -1.74425332 -0.66609453
VERTEX2 389 12.84616933 -2.11512499 -0.75104602
VERTEX2 390 12.85430887 -2.12209246 -0.28143322
VERTEX2 391 12.66643563 -2.11473064 0.09383606
VERTEX2 392 12.60878792 -2.11560331 1.12245853
VERTEX2 393 12.60945741 -2.04868721 2.35761247
VERTEX2 394 12.54083639 -2.02050060 -2.94537253
VERTEX2 395 12.73204093 -1.91943686 -2.61295071
VERTEX2 396 12.70952810 -1.93096576 -2.61557109
VERTEX2 397 12.67009248 -1.93991355 -2.62918018
VERTEX2 398 12.65387840 -1.95342582 -2.43567474
VERTEX2 399 12.57951954 -2.05874965 -2.14150477
VERTEX2 400 12.22512099 -2.61235099 -2.09410227
VERTEX2 401 11.88092381 -3.15298140 -2.18838059
VERTEX2 402 11.40412409 -3.60835953 -2.45779567
VERTEX2 403 10.89010335 -4.01712883 -2.49327899
VERTEX2 404 10.38500473 -4.37524302 -2.57376178
VERTEX2 405 10.36708794 -4.39118732 -2.04283466
VERTEX2 406 10.36269845 -4.35137104 -1.06957424
VERTEX2 407 10.54030575 -4.60308011 -0.94320115
VERTEX2 408 10.86450916 -5.06251920 -0.98257466
VERTEX2 409 10.99458748 -5.27050805 -1.08371690
VERTEX2 410 10.98609571 -5.23572701 -1.71498031
VERTEX2 411 11.16323751 -4.78294508 -2.56766870
VERTEX2 412 10.61322963 -5.00707177 -2.77257831
VERTEX2 413 9.97761190 -5.22709170 -2.85361384
VERTEX2 414 9.33547883 -5.43567367 -2.75129564
VERTEX2 415 8.72922062 -5.67695981 -2.74378358
VERTEX2 416 8.44100475 -5.80707224 -2.79843697
VERTEX2 417 8.14620325 -5.79278528 3.06130500
VERTEX2 418 7.70488563 -5.75218901 3.01667406
VERTEX2 419 7.70515355 -5.75213279 -2.83450209
VERTEX2 420 7.75590177 -5.72920075 -2.61760333
VERTEX2 421 7.75699010 -5.72747619 -1.64796239
VERTEX2 422 7.75203904 -5.73451071 -0.40616636
VERTEX2 423 7.75243999 -5.73454964 -0.05963954
VERTEX2 424 7.74739343 -5.73458535 -0.05859255
VERTEX2 425 7.73677854 -5.74066748 -0.04617160
VERTEX2 426 7.73157116 -5.74076188 -0.05460748
VERTEX2 427 7.75890867 -5.74200969 -0.05080748
VERTEX2 428 8.41594052 -5.75890084 -0.05565415
VERTEX2 429 9.05561945 -5.80360647 -0.09577315
VERTEX2 430 9.39255134 -5.84138650 -0.14120852
VERTEX2 431 9.36521500 -5.83830776 -0.08862610
VERTEX2 432 9.37332115 -5.84110320 -0.71905700
VERTEX2 433 9.37774701 -5.84708603 -1.39500119
VERTEX2 434 9.34490433 -6.38594260 -1.62244843
VERTEX2 435 9.31729003 -7.02856643 -1.65021722
VERTEX2 436 9.24400914 -7.66887058 -1.65846935
VERTEX2 437 9.19655218 -8.31876706 -1.64998102
VERTEX2 438 9.14742364 -8.79107288 -1.68043150
VERTEX2 439 9.14406121 -8.80406763 -2.11618859
VERTEX2 440 9.14523791 -8.80319089 -2.75784773
VERTEX2 441 9.15450803 -8.80225544 2.90475879
VERTEX2 442 9.15755265 -8.80392971 2.27682842
VERTEX2 443 9.15779372 -8.80767950 1.71126622
VERTEX2 444 9.16003974 -8.79561466 1.12110329
VERTEX2 445 9.16851557 -8.78739674 0.46494730
VERTEX2 446 9.17178387 -8.78538042 0.66739014
VERTEX2 447 9.18436075 -8.76068881 1.30076055
VERTEX2 448 9.33179209 -8.13769863 1.31854396
VERTEX2 449 9.46197326 -7.50048643 1.42021875
VERTEX2 450 9.55318123 -6.86324131 1.43418463
VERTEX2 451 9.60373480 -6.39272111 1.47701118
VERTEX2 452 9.60380827 -6.39193568 1.09932425
VERTEX2 453 9.60192652 -6.39537940 0.47765878
VERTEX2 454 9.86927981 -6.37342238 0.05597467
VERTEX2 455 10.45955009 -6.34610004 0.03552491
VERTEX2 456 11.08879245 -6.33735552 -0.02923835
VERTEX2 457 11.43941966 -6.35741660 -0.11715227
VERTEX2 458 11.43625029 -6.35586049 -0.76290060
VERTEX2 459 11.42716914 -6.32000031 -1.37097025
VERTEX2 460 11.40908360 -6.71625269 -1.62789649
VERTEX2 461 11.34455138 -7.33066980 -1.71578396
VERTEX2 462 11.26076122 -7.83801338 -1.75574800
VERTEX2 463 11.27335078 -7.81296613 -0.91534599
VERTEX2 464 11.53137450 -7.88454287 -0.23712639
VERTEX2 465 12.11834351 -8.01421935 -0.22934298
VERTEX2 466 12.67505785 -8.16243024 -0.28494838
VERTEX2 467 13.24921932 -8.34117219 -0.32838366
VERTEX2 468 13.86431063 -8.55529206 -0.36373142
VERTEX2 469 14.45650586 -8.81670174 -0.44645776
VERTEX2 470 14.91094838 -9.02893175 -0.42737065
VERTEX2 471 14.91845789 -9.03293939 -0.62687485
VERTEX2 472 14.93533016 -9.05616452 -1.25880303
VERTEX2 473 14.93676422 -9.06299415 -1.89864947
VERTEX2 474 14.93479138 -9.06550297 -2.52925042
VERTEX2 475 14.93586711 -9.06534652 -3.10299361
VERTEX2 476 14.93691937 -9.06548022 2.52902199
VERTEX2 477 14.94106991 -9.07349252 1.96952999
VERTEX2 478 14.94185416 -9.08308270 1.34251084
VERTEX2 479 14.94109860 -9.08483515 0.88846711
VERTEX2 480 14.94165241 -9.08357209 1.45078684
VERTEX2 481 14.93820227 -9.06901484 2.45329598
VERTEX2 482 14.94511335 -9.07174466 2.78960828
VERTEX2 483 14.95427284 -9.07501533 2.78431514
VERTEX2 484 14.52988683 -8.92005268 2.81993056
VERTEX2 485 13.93057769 -8.73456507 2.81766955
VERTEX2 486 13.32843395 -8.52511942 2.82725329
VERTEX2 487 12.71782842 -8.34898444 2.85558958
VERTEX2 488 12.10491189 -8.17101721 2.89177130
VERTEX2 489 11.63446049 -8.06607351 2.92226111
VERTEX2 490 11.63958959 -8.06554654 -2.87567335
VERTEX2 491 11.64725127 -8.05531554 -1.93930552
VERTEX2 492 11.63194932 -8.28490896 -1.63616117
VERTEX2 493 11.57392983 -8.88891655 -1.69114605
VERTEX2 494 11.49060486 -9.50037427 -1.75199935
VERTEX2 495 11.42553572 -10.12308315 -1.64475550
VERTEX2 496 11.38584849 -10.74691254 -1.52695869
VERTEX2 497 11.38295600 -11.36401493 -1.61294616
VERTEX2 498 11.31852683 -11.98506457 -1.71469547
VERTEX2 499 11.19225924 -12.61152765 -1.73166502
VERTEX2 500 11.25414609 -13.17780186 -1.40282305
VERTEX2 501 11.33259790 -13.75593146 -1.47491822
VERTEX2 502 11.36127911 -14.45043999 -1.55940544
VERTEX2 503 11.35982924 -14.89655793 -1.57637906
VERTEX2 504 11.36519687 -14.88108119 -0.71985368
VERTEX2 505 11.60360041 -14.90673192 -0.09805041
VERTEX2 506 12.19634633 -14.98470172 -0.25059796
VERTEX2 507 12.77873241 -15.15089534 -0.32914401
VERTEX2 508 13.34926485 -15.35885088 -0.34240724
VERTEX2 509 13.97031157 -15.58828811 -0.39831481
VERTEX2 510 14.32763920 -15.74502518 -0.41221646
VERTEX2 511 14.32576143 -15.72781196 0.46315065
VERTEX2 512 14.34724723 -15.68176084 1.66049990
VERTEX2 513 14.34371373 -15.67156026 2.61600789
VERTEX2 514 14.27608567 -15.65305547 2.84229530
VERTEX2 515 13.66458891 -15.47607505 2.84341405
VERTEX2 516 13.07851282 -15.28582343 2.85932644
VERTEX2 517 12.48480614 -15.14154300 2.88753534
VERTEX2 518 11.89142154 -14.99412769 2.91190162
VERTEX2 519 11.36871717 -14.87354844 2.89621948
VERTEX2 520 11.20063261 -14.83091596 -2.98849838
VERTEX2 521 11.22274372 -14.80623228 -1.98479263
VERTEX2 522 11.15985869 -15.20261336 -1.72048970
VERTEX2 523 11.07264184 -15.82328205 -1.72780085
VERTEX2 524 10.97272738 -16.39773424 -1.76966624
VERTEX2 525 10.87251160 -16.94025633 -1.74597190
VERTEX2 526 10.76028137 -17.50949821 -1.80473302
VERTEX2 527 10.61662056 -18.08892239 -1.83951990
VERTEX2 528 10.43852286 -18.65575953 -1.91548363
VERTEX2 529 10.23040216 -19.25837419 -1.94378421
VERTEX2 530 9.98729554 -19.85840057 -1.97387775
VERTEX2 531 9.72164650 -20.43413538 -2.05371905
VERTEX2 532 9.62527152 -20.61970390 -2.00313090
VERTEX2 533 9.62175630 -20.60324117 -1.00296434
VERTEX2 534 9.61894765 -20.60140369 -0.33564639
VERTEX2 535 9.61910882 -20.60045857 -0.33590385
VERTEX2 536 9.97320087 -20.68092297 -0.20505600
VERTEX2 537 10.57766884 -20.82380437 -0.26294976
VERTEX2 538 11.13550248 -20.98758097 -0.28997663
VERTEX2 539 11.74156567 -21.19056158 -0.35466095
VERTEX2 540 12.33181928 -21.43990533 -0.44758991
VERTEX2 541 12.92222060 -21.66400174 -0.28532377
VERTEX2 542 13.55567941 -21.80139919 -0.22964743
VERTEX2 543 13.67919320 -21.83136267 -0.25933687
VERTEX2 544 13.70149531 -21.82891467 0.37760462
VERTEX2 545 13.72416860 -21.78697162 1.44369146
VERTEX2 546 13.74283990 -21.83453193 2.27064596
VERTEX2 547 13.75232101 -21.83382039 -2.99099057
VERTEX2 548 13.76579196 -21.82504006 -2.06820120
VERTEX2 549 13.76710363 -21.81575561 -1.26166957
VERTEX2 550 13.76589510 -21.79714978 -1.74151411
VERTEX2 551 13.77362407 -21.78121475 -2.36794570
VERTEX2 552 13.79211884 -21.77184386 -3.00046980
VERTEX2 553 13.65670191 -21.72116774 2.70536764
VERTEX2 554 13.06476759 -21.44221750 2.66987770
VERTEX2 555 12.48568691 -21.17224554 2.75870968
VERTEX2 556 11.88201263 -20.95875832 2.89375991
VERTEX2 557 11.28105671 -20.79218857 2.85251716
VERTEX2 558 10.70430678 -20.63925491 2.93351124
VERTEX2 559 10.71216250 -20.64184694 2.52649525
VERTEX2 560 10.70525026 -20.63424402 2.02549633
VERTEX2 561 10.68211099 -20.61208146 2.53065336
VERTEX2 562 10.50405411 -20.61327217 -3.10904938
VERTEX2 563 9.93354922 -20.53866907 2.98227533
VERTEX2 564 9.32834302 -20.45126628 3.03101084
VERTEX2 565 8.73732313 -20.38385885 2.97340906
VERTEX2 566 8.79837652 -20.40241921 -2.52632635
VERTEX2 567 8.70502765 -20.40993740 -1.73263448
VERTEX2 568 8.65737856 -20.91843756 -1.66850145
VERTEX2 569 8.60966554 -21.49436549 -1.70763862
VERTEX2 570 8.54457080 -22.07552182 -1.70287484
VERTEX2 571 8.49429353 -22.43154930 -1.75023202
VERTEX2 572 8.45929710 -22.45748478 -1.99324592
VERTEX2 573 8.42445882 -22.53793895 -1.71672275
VERTEX2 574 8.44432444 -22.56542940 -0.77665277
VERTEX2 575 8.59865079 -22.61481218 0.14039025
VERTEX2 576 8.59549129 -22.61231283 1.16789915
VERTEX2 577 8.58879611 -22.59481050 2.13985092
VERTEX2 578 8.57934973 -22.56329840 1.77561607
VERTEX2 579 8.45214968 -21.91329247 1.79059288
VERTEX2 580 8.28806749 -21.27526092 1.86566668
VERTEX2 581 8.09138627 -20.65296731 1.90796383
VERTEX2 582 7.86727053 -20.03954176 1.95099865
VERTEX2 583 7.73706384 -19.73363416 2.03081625
VERTEX2 584 7.73244726 -19.72476704 2.87600714
VERTEX2 585 7.14950582 -19.58807672 2.99489717
VERTEX2 586 6.55619228 -19.51717590 3.09303789
VERTEX2 587 5.93800777 -19.51023351 3.11896583
VERTEX2 588 5.30881739 -19.48868464 3.12393435
VERTEX2 589 4.77152223 -19.51703958 -3.08406180
VERTEX2 590 4.22349597 -19.56470515 -3.01549236
VERTEX2 591 3.68605072 -19.64697896 -3.01752716
VERTEX2 592 3.13957355 -19.72468812 -3.02039248
VERTEX2 593 2.96342255 -19.74795036 -2.81535680
VERTEX2 594 3.00455256 -19.70297596 -1.89270566
VERTEX2 595 2.89706825 -20.30995838 -1.66005599
VERTEX2 596 2.85012805 -20.93330979 -1.68330294
VERTEX2 597 2.76368301 -21.61012703 -1.72398700
VERTEX2 598 2.66547507 -22.20932137 -1.76618319
VERTEX2 599 2.58004016 -22.58737189 -1.83240147
VERTEX2 600 2.58035516 -22.60349685 -1.02596993
VERTEX2 601 2.62015836 -22.62760210 -0.00796688
VERTEX2 602 2.65442608 -22.61350804 1.00590956
VERTEX2 603 2.61825157 -22.37863181 1.77841859
VERTEX2 604 2.55363731 -21.76640819 1.53426554
VERTEX2 605 2.55833209 -21.11864943 1.61700054
VERTEX2 606 2.51356905 -20.47150837 1.65922146
VERTEX2 607 2.52069208 -19.88154674 1.57835709
VERTEX2 608 2.50492372 -19.49569391 1.62298967
VERTEX2 609 2.50101611 -19.47366492 1.95957214
VERTEX2 610 2.49249459 -19.47065118 2.89279341
VERTEX2 611 1.89547658 -19.32461499 2.89596270
VERTEX2 612 1.42141280 -19.19342572 2.89897916
VERTEX2 613 1.45633410 -19.20379951 -2.91999637
VERTEX2 614 1.46288906 -19.19875574 -1.88117903
VERTEX2 615 1.47885335 -19.68270854 -1.57629483
VERTEX2 616 1.48998356 -20.30310992 -1.62723664
VERTEX2 617 1.35812809 -20.89793071 -1.84351315
VERTEX2 618 1.19404496 -21.50202035 -1.83281506
VERTEX2 619 1.03831426 -22.07161515 -1.83359518
VERTEX2 620 0.86034263 -22.64614689 -1.92895490
VERTEX2 621 0.98650851 -22.31019610 -1.97975102
VERTEX2 622 1.10768839 -22.04391582 -2.05401638
VERTEX2 623 1.10765826 -22.04395837 -2.59097131
VERTEX2 624 1.07977651 -22.04395799 3.04975141
VERTEX2 625 1.03942637 -22.02811710 2.39135609
VERTEX2 626 1.01394882 -21.99941524 1.77348039
VERTEX2 627 1.08254645 -21.63135905 1.36275391
VERTEX2 628 1.25510235 -21.00745374 1.26176815
VERTEX2 629 1.42074369 -20.38302112 1.33264278
VERTEX2 630 1.54077481 -19.77901711 1.41744512
VERTEX2 631 1.60838192 -19.25360473 1.43733186
VERTEX2 632 1.61022078 -19.24221000 2.11263645
VERTEX2 633 1.51234882 -19.23631907 -3.08537078
VERTEX2 634 0.84570831 -19.27774441 -3.05820072
VERTEX2 635 0.19311375 -19.29283384 3.08969762
VERTEX2 636 -0.44835639 -19.26845044 3.07191312
VERTEX2 637 -1.07663821 -19.19814864 2.97239544
VERTEX2 638 -1.46857997 -19.12074624 2.94277375
VERTEX2 639 -2.07915622 -19.02174192 3.02303973
VERTEX2 640 -2.69396624 -18.91651661 2.95507597
VERTEX2 641 -3.29420567 -18.80947882 2.94668464
VERTEX2 642 -3.87031239 -18.67595536 2.90128747
VERTEX2 643 -4.35256264 -18.54240536 2.83382235
VERTEX2 644 -4.35652732 -18.54331527 -2.69260318
VERTEX2 645 -4.39217543 -18.68475270 -1.91514888
VERTEX2 646 -4.52572067 -19.29477376 -1.61977696
VERTEX2 647 -4.47852753 -19.93672117 -1.33092371
VERTEX2 648 -4.25202893 -20.56019821 -1.16463611
VERTEX2 649 -4.07499933 -21.15762010 -1.50222681
VERTEX2 650 -4.17203918 -21.78654579 -1.75957991
VERTEX2 651 -4.18867622 -21.93207537 -0.96015426
VERTEX2 652 -4.12585489 -21.95989911 0.06483084
VERTEX2 653 -4.08014557 -21.91837327 1.09528537
VERTEX2 654 -4.09083979 -21.62213217 1.60846686
VERTEX2 655 -4.10436861 -21.06916588 1.60346540
VERTEX2 656 -4.10694343 -20.46744143 1.59083798
VERTEX2 657 -4.21723504 -19.85687195 1.86747860
VERTEX2 658 -4.41105514 -19.24139365 1.86030611
VERTEX2 659 -4.52861572 -18.74904228 1.78914101
VERTEX2 660 -4.53171886 -18.73399070 2.38923910
VERTEX2 661 -4.70999860 -18.71536894 3.04266388
VERTEX2 662 -5.30350553 -18.65939197 3.11226132
VERTEX2 663 -5.89042098 -18.67713127 -3.06990291
VERTEX2 664 -5.89830754 -18.67514959 -2.54668437
VERTEX2 665 -5.91373104 -18.77662643 -1.71304551
VERTEX2 666 -5.98205204 -19.38524733 -1.67591420
VERTEX2 667 -6.03597705 -19.95163719 -1.67130040
VERTEX2 668 -6.09615557 -20.54551435 -1.64552650
VERTEX2 669 -6.14111879 -21.17105679 -1.67066476
VERTEX2 670 -6.23708745 -21.78908689 -1.73015036
VERTEX2 671 -6.28298021 -22.08176231 -1.67517560
VERTEX2 672 -6.18446967 -21.50040619 -1.76429778
VERTEX2 673 -6.11978971 -21.23334465 -1.89486189
VERTEX2 674 -6.10702653 -21.21972232 -2.54302995
VERTEX2 675 -6.08370780 -21.21465312 3.13151176
VERTEX2 676 -6.07767268 -21.21814153 2.50814920
VERTEX2 677 -6.07307221 -21.22442134 1.89228391
VERTEX2 678 -6.04624567 -21.00214034 1.44632397
VERTEX2 679 -5.98532710 -20.42276905 1.50889242
VERTEX2 680 -6.01532089 -19.97463548 1.85375550
VERTEX2 681 -6.17063703 -19.38407525 1.82623708
VERTEX2 682 -6.34613901 -18.77909957 1.87390691
VERTEX2 683 -6.43992001 -18.49734110 2.03305921
VERTEX2 684 -6.38689084 -18.55082300 3.11299714
VERTEX2 685 -6.79063959 -18.71446005 -2.72642251
VERTEX2 686 -7.23779817 -18.85415677 -2.87060722
VERTEX2 687 -7.83209642 -19.00920987 -2.90556649
VERTEX2 688 -8.42985935 -19.13324964 -2.91729314
VERTEX2 689 -8.99389464 -19.27602932 -2.88958379
VERTEX2 690 -9.52932003 -19.44869759 -2.81536618
VERTEX2 691 -9.92415547 -19.58291907 -2.84335653
VERTEX2 692 -9.91004053 -19.57653995 -2.30908552
VERTEX2 693 -9.88665382 -19.64869073 -1.26863920
VERTEX2 694 -9.86208932 -19.72054492 -0.43314476
VERTEX2 695 -9.84364900 -19.71517446 0.36688489
VERTEX2 696 -9.83747818 -19.71107827 1.39240225
VERTEX2 697 -9.84888827 -19.74944011 1.13943734
VERTEX2 698 -9.51968760 -19.53814494 0.48468520
VERTEX2 699 -8.95776380 -19.22107065 0.59873204
VERTEX2 700 -8.44632936 -18.85545157 0.65227146
VERTEX2 701 -8.01444419 -18.48949454 0.71145114
VERTEX2 702 -7.53687714 -18.17085083 0.59630554
VERTEX2 703 -7.02633860 -17.83069536 0.63057139
VERTEX2 704 -6.53485212 -17.44499650 0.64876246
VERTEX2 705 -6.02655137 -17.02113907 0.71897717
VERTEX2 706 -5.59839079 -16.70058125 0.44993976
VERTEX2 707 -5.57303064 -16.69906979 -0.07040075
VERTEX2 708 -5.56296617 -16.70481091 -0.70900904
VERTEX2 709 -5.60295884 -16.66222385 -1.04115389
VERTEX2 710 -5.60735897 -16.65103726 -1.60237603
VERTEX2 711 -5.59777869 -16.65959659 -2.19922387
VERTEX2 712 -5.57762023 -16.64398086 -2.75976905
VERTEX2 713 -6.05050435 -16.69687138 -3.04468017
VERTEX2 714 -6.60397046 -16.67484702 3.04133823
VERTEX2 715 -7.23067261 -16.64159687 -3.13820695
VERTEX2 716 -7.86474677 -16.62333454 3.00697805
VERTEX2 717 -8.48607926 -16.55915808 3.09176150
VERTEX2 718 -9.24850117 -16.44509446 2.91641419
VERTEX2 719 -9.86559551 -16.33350226 2.99090572
VERTEX2 720 -10.47852949 -16.22479762 2.93172403
VERTEX2 721 -11.09641143 -16.11269545 2.99996407
VERTEX2 722 -11.11251258 -16.11049902 3.06668520
VERTEX2 723 -11.13305281 -16.13193839 -2.12646971
VERTEX2 724 -11.13290060 -16.17642080 -1.05751654
VERTEX2 725 -11.10497544 -16.19495062 -0.42311162
VERTEX2 726 -10.77917305 -16.18913842 0.03112696
VERTEX2 727 -10.14161340 -16.14743119 0.06189611
VERTEX2 728 -9.50119608 -16.11996382 0.06331065
VERTEX2 729 -8.86353110 -16.05619214 0.12098571
VERTEX2 730 -8.24066447 -15.96064899 0.15852506
VERTEX2 731 -7.58925077 -15.85640383 0.17084427
VERTEX2 732 -7.44381682 -15.82625709 0.61766077
VERTEX2 733 -7.44041723 -15.83171816 1.61467754
VERTEX2 734 -7.50254042 -15.27834772 1.69292580
VERTEX2 735 -7.56724880 -14.67864721 1.66103212
VERTEX2 736 -7.56792025 -14.66967394 2.26091243
VERTEX2 737 -7.55680971 -14.67102674 3.06209741
VERTEX2 738 -8.13113022 -14.63569558 3.08129397
VERTEX2 739 -8.73501506 -14.54580253 3.02356373
VERTEX2 740 -9.23822919 -14.50980419 3.08672194
VERTEX2 741 -9.21805815 -14.50941888 2.71769386
VERTEX2 742 -9.21824850 -14.50930753 2.06465248
VERTEX2 743 -9.22020008 -14.50097685 1.44759976
VERTEX2 744 -9.21048684 -14.47827123 0.90801593
VERTEX2 745 -9.19324290 -14.46909011 0.31445341
VERTEX2 746 -8.65404281 -14.48321598 -0.16048293
VERTEX2 747 -8.01151377 -14.59234416 -0.19576212
VERTEX2 748 -7.43705876 -14.72978136 -0.26411339
VERTEX2 749 -7.35713880 -14.74906709 0.16506081
VERTEX2 750 -7.34745735 -14.73089526 1.09208519
VERTEX2 751 -7.38441790 -14.45605898 1.73230737
VERTEX2 752 -7.44797511 -13.82855439 1.62892545
VERTEX2 753 -7.49137945 -13.18540758 1.69206410
VERTEX2 754 -7.50458831 -12.54037882 1.52984851
VERTEX2 755 -7.49141521 -11.90719859 1.61635632
VERTEX2 756 -7.45965424 -11.27138546 1.44001625
VERTEX2 757 -7.39074451 -10.62596223 1.55192991
VERTEX2 758 -7.41648740 -10.04662552 1.69413226
VERTEX2 759 -7.41102899 -9.49897824 1.57401905
VERTEX2 760 -7.45530355 -8.88916259 1.68542702
VERTEX2 761 -7.45828606 -8.85238018 1.86584031
VERTEX2 762 -7.53440024 -8.81917554 2.70096139
VERTEX2 763 -8.10936059 -8.72170724 2.99380938
VERTEX2 764 -8.52987734 -8.65413200 2.96628088
VERTEX2 765 -8.51916016 -8.65382708 -2.67744786
VERTEX2 766 -8.52101250 -8.66005249 -1.67708560
VERTEX2 767 -8.51562702 -8.67331662 -0.74618968
VERTEX2 768 -8.48844663 -8.67472025 -0.02379776
VERTEX2 769 -7.85357465 -8.57938542 0.13311455
VERTEX2 770 -7.20142673 -8.51371822 0.06599438
VERTEX2 771 -7.11289268 -8.50545282 0.62649115
VERTEX2 772 -7.11000406 -8.49596704 1.49405596
VERTEX2 773 -7.09166749 -7.91823895 1.57987699
VERTEX2 774 -7.10917597 -7.37233140 1.60199371
VERTEX2 775 -7.10808656 -7.37685022 2.44694698
VERTEX2 776 -7.31763132 -7.35332112 3.06439500
VERTEX2 777 -7.93133958 -7.31706274 3.12345250
VERTEX2 778 -8.54422728 -7.31196666 3.10252543
VERTEX2 779 -9.15893610 -7.29606295 3.12064073
VERTEX2 780 -9.36590238 -7.27996076 2.99042242
VERTEX2 781 -9.36107741 -7.28164221 2.41701827
VERTEX2 782 -9.49060207 -7.01024496 1.98747916
VERTEX2 783 -9.72989569 -6.43836642 1.98688829
VERTEX2 784 -9.83096704 -6.21192051 1.96557266
VERTEX2 785 -9.83203834 -6.18710816 1.41362053
VERTEX2 786 -9.82452976 -6.16175245 0.82531047
VERTEX2 787 -9.80806225 -6.14465246 0.33465358
VERTEX2 788 -9.78225700 -6.14622511 -0.29447094
VERTEX2 789 -9.77225611 -6.15396407 -0.84643657
VERTEX2 790 -9.46351777 -6.54665664 -0.91359674
VERTEX2 791 -9.05591366 -7.02539273 -0.81492035
VERTEX2 792 -8.81553298 -7.23669262 -0.11035931
VERTEX2 793 -8.20009573 -7.28512982 -0.06557530
VERTEX2 794 -7.56043758 -7.31009328 0.00566920
VERTEX2 795 -7.58491865 -7.32832624 0.43512661
VERTEX2 796 -7.59202332 -7.33124302 1.09459387
VERTEX2 797 -7.51961617 -7.02166708 1.35480517
VERTEX2 798 -7.38841522 -6.39467569 1.40497789
VERTEX2 799 -7.30536188 -5.75000741 1.47073650
VERTEX2 800 -7.25530320 -5.10349350 1.54367374
VERTEX2 801 -7.26986692 -4.47288341 1.62962526
VERTEX2 802 -7.32720154 -3.84913584 1.68735200
VERTEX2 803 -7.31344875 -3.22160504 1.52271230
VERTEX2 804 -7.29677719 -2.59531281 1.57863839
VERTEX2 805 -7.33345108 -1.96626857 1.65494878
VERTEX2 806 -7.39663087 -1.36943578 1.69638592
VERTEX2 807 -7.42495462 -1.18520255 1.98449401
VERTEX2 808 -7.42970963 -1.18513548 2.93280869
VERTEX2 809 -8.02144443 -1.15942314 3.07748819
VERTEX2 810 -8.63941146 -1.03951173 2.93734065
VERTEX2 811 -9.23890620 -0.93120612 2.93406339
VERTEX2 812 -9.24118234 -0.93077710 -2.61734371
VERTEX2 813 -9.25084239 -0.95265119 -1.64203515
VERTEX2 814 -9.24448323 -0.95762588 -0.64980947
VERTEX2 815 -9.22013539 -0.96567912 0.26945525
VERTEX2 816 -9.21143436 -0.96085512 0.95060462
VERTEX2 817 -9.20019421 -0.95369337 0.28183570
VERTEX2 818 -8.97775735 -0.98634551 -0.20705648
VERTEX2 819 -8.38606264 -1.11075894 -0.19293234
VERTEX2 820 -7.79191618 -1.23924632 -0.23416081
VERTEX2 821 -7.24525872 -1.36706157 -0.21836000
VERTEX2 822 -7.19589638 -1.37428099 0.54312422
VERTEX2 823 -7.19467897 -1.36046286 1.46235916
VERTEX2 824 -7.13429914 -0.73891820 1.38304277
VERTEX2 825 -6.99387287 -0.11541745 1.35339820
VERTEX2 826 -6.94023134 0.51603023 1.51637583
VERTEX2 827 -6.87974520 1.13926161 1.46775976
VERTEX2 828 -6.82901726 1.76983497 1.50332863
VERTEX2 829 -6.77173347 2.37395929 1.46359948
VERTEX2 830 -6.70053747 2.98348925 1.45529407
VERTEX2 831 -6.60991983 3.56147127 1.40851387
VERTEX2 832 -6.52316027 4.12511190 1.40496049
VERTEX2 833 -6.48071172 4.38081409 1.54263157
VERTEX2 834 -6.48272269 4.38777927 2.59734035
VERTEX2 835 -6.49586197 4.38921094 -2.90814182
VERTEX2 836 -6.50799502 4.37883551 -1.96503538
VERTEX2 837 -6.50449050 4.36034192 -0.92862593
VERTEX2 838 -6.49286808 4.35319916 -0.06639168
VERTEX2 839 -6.49247084 4.35301329 -0.28464400
VERTEX2 840 -6.48153407 4.34454866 -0.84727070
VERTEX2 841 -6.47384481 4.32932518 -1.46433317
VERTEX2 842 -6.49853927 4.08325371 -1.69515140
VERTEX2 843 -6.57341826 3.51889627 -1.69768012
VERTEX2 844 -6.64493527 2.89257428 -1.70570452
VERTEX2 845 -6.73499971 2.26665621 -1.72043498
VERTEX2 846 -6.81714251 1.63656583 -1.71871677
VERTEX2 847 -6.92324371 1.01416245 -1.74547755
VERTEX2 848 -6.95282144 0.81855440 -1.26507922
VERTEX2 849 -6.95210945 0.81830866 -0.34296357
VERTEX2 850 -6.59691185 0.81700758 0.01039886
VERTEX2 851 -5.96952504 0.79487116 -0.08212335
VERTEX2 852 -5.34480688 0.73753371 -0.06772657
VERTEX2 853 -4.74976085 0.69871745 -0.09566465
VERTEX2 854 -4.16219639 0.63455895 -0.09367353
VERTEX2 855 -3.56705865 0.58733517 -0.09548315
VERTEX2 856 -2.91299766 0.50573796 -0.13617125
VERTEX2 857 -2.26008941 0.42044720 -0.14571812
VERTEX2 858 -1.61341499 0.30268818 -0.20023444
VERTEX2 859 -1.09471956 0.20230014 -0.20709646
VERTEX2 860 -1.06864916 0.21323198 0.64368168
VERTEX2 861 -1.05376925 0.32322070 1.55846169
VERTEX2 862 -1.01954515 0.98318881 1.49883390
VERTEX2 863 -0.96615459 1.62783982 1.46634565
VERTEX2 864 -0.88289948 2.23861281 1.46422649
VERTEX2 865 -0.84536815 2.85033100 1.52184746
VERTEX2 866 -0.80422377 3.43654831 1.52072290
VERTEX2 867 -0.79772922 3.60063748 1.70193031
VERTEX2 868 -0.80510202 3.60984496 2.72571657
VERTEX2 869 -0.79446912 3.61005750 -2.57912880
VERTEX2 870 -0.77478078 3.62079421 -1.57967734
VERTEX2 871 -0.75996370 3.61088053 -0.60597509
VERTEX2 872 -0.74143371 3.59766744 0.07928770
VERTEX2 873 -0.71401352 3.58871179 -0.49328429
VERTEX2 874 -0.69261714 3.56960962 -1.05289283
VERTEX2 875 -0.68618582 3.55472114 -1.63940841
VERTEX2 876 -0.80288401 2.99802772 -1.79697642
VERTEX2 877 -0.95193919 2.45524041 -1.88163319
VERTEX2 878 -1.00132411 2.25529855 -1.49867754
VERTEX2 879 -0.89654445 1.61737602 -1.44765260
VERTEX2 880 -0.85844433 1.16852460 -1.56034711
VERTEX2 881 -0.85910242 1.21837698 -1.55500847
VERTEX2 882 -0.91202379 0.57857718 -1.80153909
VERTEX2 883 -1.12439208 -0.01770229 -1.99227158
VERTEX2 884 -1.28103618 -0.35061867 -2.05924603
VERTEX2 885 -1.28101079 -0.35060286 -1.47771069
VERTEX2 886 -1.26378423 -0.36656841 -0.45979802
VERTEX2 887 -1.23518053 -0.37751718 0.55142641
VERTEX2 888 -1.22524490 -0.35632315 1.53544036
VERTEX2 889 -1.22682535 -0.35186811 2.43341672
VERTEX2 890 -1.54316747 -0.20101018 2.70732532
VERTEX2 891 -2.08185921 0.06282935 2.63700399
VERTEX2 892 -2.61718541 0.37923367 2.60143934
VERTEX2 893 -3.17166041 0.67199667 2.83772580
VERTEX2 894 -3.78527604 0.77997175 3.05878372
VERTEX2 895 -4.38457568 0.72795947 -2.92613235
VERTEX2 896 -4.40336796 0.72336599 -2.44764242
VERTEX2 897 -4.68562472 0.30090464 -2.17537084
VERTEX2 898 -5.03442298 -0.21041698 -2.15981542
VERTEX2 899 -5.31879685 -0.62180757 -2.22752161
VERTEX2 900 -5.72934697 -1.16804588 -2.22990002
VERTEX2 901 -6.09866637 -1.61402069 -2.29428092
VERTEX2 902 -6.51233154 -2.10739399 -2.26906996
VERTEX2 903 -6.82652255 -2.48769661 -2.31387324
VERTEX2 904 -6.82770830 -2.48939102 -1.61090544
VERTEX2 905 -6.81213256 -2.98002995 -1.55532275
VERTEX2 906 -6.77618867 -3.54869588 -1.48948135
VERTEX2 907 -6.71796015 -4.12030446 -1.49754690
VERTEX2 908 -6.66913410 -4.74131983 -1.47269880
VERTEX2 909 -6.60608718 -5.35244618 -1.49055319
VERTEX2 910 -6.63301378 -5.48082849 -1.86032340
VERTEX2 911 -6.79024038 -6.05128589 -1.79937964
VERTEX2 912 -6.90845612 -6.61410974 -1.78670026
VERTEX2 913 -7.01782172 -7.15488787 -1.77870207
VERTEX2 914 -7.14086858 -7.74196593 -1.80228684
VERTEX2 915 -7.26167698 -8.25004284 -1.83892087
VERTEX2 916 -7.19651098 -8.49231123 -1.29119704
VERTEX2 917 -7.05444073 -9.13902333 -1.54548078
VERTEX2 918 -7.07179093 -9.65574991 -1.62091446
VERTEX2 919 -7.10192771 -10.27839325 -1.66413307
VERTEX2 920 -7.16290280 -10.89161856 -1.68162129
VERTEX2 921 -7.23263362 -11.50614952 -1.73485417
VERTEX2 922 -7.33153064 -12.10941020 -1.76195601
VERTEX2 923 -7.44936924 -12.68083397 -1.82571848
VERTEX2 924 -7.57870486 -13.17539286 -1.80913564
VERTEX2 925 -7.57960876 -13.17101186 -1.30453625
VERTEX2 926 -7.41649309 -13.73244751 -1.28839174
VERTEX2 927 -7.24643195 -14.32244709 -1.31175466
VERTEX2 928 -7.08538941 -14.92796887 -1.32073936
VERTEX2 929 -6.93091970 -15.53070730 -1.32168857
VERTEX2 930 -6.78015288 -16.16067244 -1.40434957
VERTEX2 931 -6.69047814 -16.78655534 -1.48464973
VERTEX2 932 -6.64094718 -17.41352505 -1.54414655
VERTEX2 933 -6.63426164 -18.02631306 -1.60878853
VERTEX2 934 -6.64633752 -18.50732663 -1.61864388
VERTEX2 935 -6.64359247 -18.51971842 -0.93655294
VERTEX2 936 -6.64195898 -18.52028221 0.00856810
VERTEX2 937 -6.09968171 -18.49228533 0.07143094
VERTEX2 938 -5.50328519 -18.50525470 -0.10199675
VERTEX2 939 -4.87887931 -18.56189370 -0.07430131
VERTEX2 940 -4.26627349 -18.63398179 -0.16014987
VERTEX2 941 -3.66074392 -18.74646038 -0.21379733
VERTEX2 942 -3.14141206 -18.85960182 -0.20930151
VERTEX2 943 -2.53152078 -18.99039970 -0.12098043
VERTEX2 944 -1.91774783 -19.07040872 -0.17764958
VERTEX2 945 -1.29525960 -19.19631081 -0.23279675
VERTEX2 946 -1.11991409 -19.24014596 -0.16849857
VERTEX2 947 -0.71012081 -19.17512456 0.15968072
VERTEX2 948 -0.13643080 -19.08314577 0.14047975
VERTEX2 949 0.46768712 -19.04601823 -0.01526994
VERTEX2 950 1.09915251 -19.07967899 -0.25490580
VERTEX2 951 1.70265653 -19.25032850 -0.32714942
VERTEX2 952 2.30586791 -19.42404047 -0.07650890
VERTEX2 953 2.93674873 -19.45337713 0.00365702
VERTEX2 954 3.56887391 -19.44432238 -0.00369588
VERTEX2 955 4.16695659 -19.48942731 -0.16504115
VERTEX2 956 4.72667522 -19.56842096 -0.16771041
VERTEX2 957 5.26039749 -19.66366197 -0.25542241
VERTEX2 958 5.71345864 -19.77034599 -0.28167443
VERTEX2 959 6.12747820 -19.88081968 -0.34819042
VERTEX2 960 6.71546280 -20.04080859 -0.26805247
VERTEX2 961 7.29580957 -20.21193895 -0.29490605
VERTEX2 962 7.91214527 -20.33733261 -0.22911102
VERTEX2 963 8.52871669 -20.41499473 -0.04222128
VERTEX2 964 9.14995436 -20.45328631 -0.10598513
VERTEX2 965 9.76681957 -20.52895574 -0.11277862
VERTEX2 966 10.20978462 -20.58502345 -0.17172592
VERTEX2 967 10.24166512 -20.57836727 0.68176092
VERTEX2 968 10.24904352 -20.57131036 1.57858363
VERTEX2 969 10.25158189 -20.59896390 1.63807115
VERTEX2 970 10.25422875 -20.62689022 1.63635647
VERTEX2 971 10.23155902 -20.29376909 1.63650440
VERTEX2 972 10.18894249 -19.70749120 1.64212906
VERTEX2 973 10.26445912 -19.12508791 1.35711488
VERTEX2 974 10.39949730 -18.52277671 1.38889840
VERTEX2 975 10.50665913 -17.91651944 1.39345756
VERTEX2 976 10.60707381 -17.30764991 1.40630026
VERTEX2 977 10.73788352 -16.68974977 1.38001772
VERTEX2 978 10.85401513 -16.07807636 1.42596378
VERTEX2 979 10.96401254 -15.47026237 1.41364401
VERTEX2 980 11.05702241 -14.86556214 1.46049664
VERTEX2 981 11.14104738 -14.27140035 1.46731834
VERTEX2 982 11.19318246 -13.74381342 1.51217082
VERTEX2 983 11.23800987 -13.14560952 1.50872662
VERTEX2 984 11.26052912 -12.54995212 1.56601665
VERTEX2 985 11.26675518 -11.95340745 1.58621768
VERTEX2 986 11.24704020 -11.33335178 1.62245993
VERTEX2 987 11.22967038 -10.71476058 1.58566227
VERTEX2 988 11.22777438 -10.09644084 1.59926317
VERTEX2 989 11.20893197 -9.48336958 1.60678936
VERTEX2 990 11.19801339 -8.87352293 1.59590070
VERTEX2 991 11.17871881 -8.26024074 1.62063144
VERTEX2 992 11.16986719 -7.67477846 1.58795772
VERTEX2 993 11.15229870 -7.05995136 1.62063951
VERTEX2 994 11.13234952 -6.47590252 1.61063842
VERTEX2 995 11.09684660 -5.88097983 1.65785609
VERTEX2 996 11.03347498 -5.27123368 1.68493816
VERTEX2 997 10.98480211 -4.62273385 1.62047919
VERTEX2 998 10.96263275 -4.21631699 1.64230349
VERTEX2 999 10.99036048 -4.23850789 2.36004485
VERTEX2 1000 10.52590891 -3.88092629 2.50865286
VERTEX2 1001 10.08447757 -3.48291513 2.18766271
VERTEX2 1002 9.71507011 -3.01299964 2.28031325
VERTEX2 1003 9.36260619 -2.51565550 2.10069781
VERTEX2 1004 9.02157098 -1.98142102 2.15886747
VERTEX2 1005 8.66614299 -1.48973170 2.22124063
VERTEX2 1006 8.26881815 -1.01455456 2.29856809
VERTEX2 1007 7.85502626 -0.59153255 2.39018900
VERTEX2 1008 7.61939467 -0.37886505 2.54967326
VERTEX2 1009 7.52640038 -0.36526411 3.02270871
VERTEX2 1010 6.95670390 -0.31223623 3.07547497
VERTEX2 1011 6.34131010 -0.27642352 3.03253153
VERTEX2 1012 5.73211312 -0.21671033 3.07458247
VERTEX2 1013 5.09625747 -0.22291752 -3.09348867
VERTEX2 1014 4.48354743 -0.17848159 3.01455655
VERTEX2 1015 3.85877208 -0.14281084 3.09914120
VERTEX2 1016 3.08933132 -0.10981160 3.10595818
VERTEX2 1017 2.50450403 -0.09994161 3.04887837
VERTEX2 1018 1.94741873 -0.04158068 3.05622836
VERTEX2 1019 1.35308695 -0.02074150 3.11582066
VERTEX2 1020 0.73853410 0.01141347 3.10189701
VERTEX2 1021 0.11806307 0.03665746 3.06130577
VERTEX2 1022 0.06550880 0.04069319 3.05408694
VERTEX2 1023 0.07305350 0.04059218 3.14068878
VERTEX2 1024 -0.55333584 0.04445077 -3.11617370
VERTEX2 1025 -1.18359270 0.01004530 -3.09873526
VERTEX2 1026 -1.34562225 0.00360697 -3.09160987
VERTEX2 1027 -1.32973180 0.01150200 -2.17526196
VERTEX2 1028 -1.34187126 -0.15353692 -1.61191796
VERTEX2 1029 -1.36755547 -0.71843252 -1.63352426
VERTEX2 1030 -1.42793985 -1.33985832 -1.71396491
VERTEX2 1031 -1.53736567 -1.98559405 -1.76813182
VERTEX2 1032 -1.66471601 -2.63147614 -1.76409921
VERTEX2 1033 -1.80509218 -3.27620871 -1.80925542
VERTEX2 1034 -1.84886871 -3.44708785 -2.02303930
VERTEX2 1035 -1.85412129 -3.45156209 -2.64234630
VERTEX2 1036 -1.82312712 -3.46566857 3.07004174
VERTEX2 1037 -2.16376359 -3.33801828 2.83164865
VERTEX2 1038 -2.77580377 -3.21903873 2.92285966
VERTEX2 1039 -3.41508492 -3.05286100 2.89132881
VERTEX2 1040 -3.38942326 -3.05334092 -2.76178542
VERTEX2 1041 -3.36047444 -3.05699163 -1.74486066
VERTEX2 1042 -3.36209643 -3.08980270 -0.75694984
VERTEX2 1043 -3.32834736 -3.12054215 0.21260853
VERTEX2 1044 -3.34181931 -3.13662485 1.20639780
VERTEX2 1045 -3.34489500 -3.14350226 1.09235325
VERTEX2 1046 -3.35532551 -3.15769693 0.70679076
VERTEX2 1047 -3.37416378 -3.16602771 0.15098384
VERTEX2 1048 -3.01115123 -3.23322035 -0.16203391
VERTEX2 1049 -2.36502996 -3.32798826 -0.14488928
VERTEX2 1050 -1.71732617 -3.39498624 -0.06922339
VERTEX2 1051 -1.06230752 -3.46479970 -0.14827642
VERTEX2 1052 -0.43878334 -3.54225078 -0.09523045
VERTEX2 1053 -0.02197155 -3.59421850 -0.14776563
VERTEX2 1054 0.00313022 -3.59671504 0.61493180
VERTEX2 1055 0.00932973 -3.56674270 1.66951107
VERTEX2 1056 0.01970757 -3.58186522 2.67297716
VERTEX2 1057 0.04735820 -3.58480980 -2.61946091
VERTEX2 1058 0.04624125 -3.58613889 -1.69736862
VERTEX2 1059 -0.04913531 -4.16920397 -1.77814467
VERTEX2 1060 -0.18308001 -4.79966500 -1.77317124
VERTEX2 1061 -0.28847369 -5.24610168 -1.89574622
VERTEX2 1062 -0.29190306 -5.25143535 -2.46001145
VERTEX2 1063 -0.27055653 -5.23912243 -3.05777846
VERTEX2 1064 -0.55073006 -5.18744335 2.96013271
VERTEX2 1065 -1.13816606 -5.12239770 3.08208402
VERTEX2 1066 -1.70103138 -5.07191389 3.02596075
VERTEX2 1067 -1.68611718 -5.07108796 -2.82457754
VERTEX2 1068 -1.67350730 -5.06217051 -2.15181607
VERTEX2 1069 -1.67291802 -5.06056798 -1.98145325
VERTEX2 1070 -1.67145449 -5.05797809 -2.52043498
VERTEX2 1071 -2.14226711 -5.31551573 -2.64766564
VERTEX2 1072 -2.59135458 -5.54950328 -2.71634284
VERTEX2 1073 -2.56179774 -5.54864713 3.05566489
VERTEX2 1074 -3.09147176 -5.47862936 3.02128766
VERTEX2 1075 -3.66880978 -5.40437952 3.03783639
VERTEX2 1076 -3.68657771 -5.40316346 -2.84123985
VERTEX2 1077 -3.69915737 -5.42712754 -2.03564780
VERTEX2 1078 -3.93531455 -6.03718308 -1.99054118
VERTEX2 1079 -4.16596971 -6.60415594 -1.92847163
VERTEX2 1080 -4.17046813 -6.61630830 -2.41618300
VERTEX2 1081 -4.59625733 -6.90934623 -2.53949335
VERTEX2 1082 -4.76503883 -7.02796232 -2.25896564
VERTEX2 1083 -4.76057747 -7.06137496 -1.22916736
VERTEX2 1084 -4.68829925 -7.09832878 -0.26425646
VERTEX2 1085 -4.69544846 -7.10023524 0.71977696
VERTEX2 1086 -4.33813071 -6.61211046 0.95061032
VERTEX2 1087 -3.96164471 -6.10602471 0.93876344
VERTEX2 1088 -3.60382574 -5.59567355 0.92223438
VERTEX2 1089 -3.54871894 -5.52407395 0.82687353
VERTEX2 1090 -3.53900856 -5.51515346 0.21204484
VERTEX2 1091 -3.00226400 -5.48178540 0.03529725
VERTEX2 1092 -2.38412767 -5.46497943 0.02025161
VERTEX2 1093 -1.81593285 -5.46651508 -0.04471590
VERTEX2 1094 -1.80332195 -5.47845828 -0.44866812
VERTEX2 1095 -1.77298100 -5.50520460 -1.03822897
VERTEX2 1096 -1.77308350 -5.50487164 -1.60929273
VERTEX2 1097 -1.85523159 -5.82951822 -1.82464561
VERTEX2 1098 -2.03043071 -6.42601922 -1.88142791
VERTEX2 1099 -2.23582497 -6.98602269 -1.97747598
VERTEX2 1100 -2.24093603 -6.99904134 -1.61435039
VERTEX2 1101 -2.18217193 -7.26046629 -1.34841830
VERTEX2 1102 -2.18273481 -7.26731420 -1.74205712
VERTEX2 1103 -2.30868370 -7.87515937 -1.77581038
VERTEX2 1104 -2.44538651 -8.50933181 -1.80347325
VERTEX2 1105 -2.59932589 -9.12959784 -1.82133010
VERTEX2 1106 -2.72415709 -9.60470492 -1.84651941
VERTEX2 1107 -2.72360898 -9.61092913 -1.59033614
VERTEX2 1108 -2.69234908 -10.23534543 -1.58245076
VERTEX2 1109 -2.74547973 -10.87745135 -1.68632099
VERTEX2 1110 -2.82068188 -11.48332565 -1.73577710
VERTEX2 1111 -2.99076339 -12.01056839 -1.83697880
VERTEX2 1112 -3.02556136 -12.58796882 -1.49043549
VERTEX2 1113 -2.99070330 -13.22531728 -1.58572740
VERTEX2 1114 -2.99913522 -13.84026042 -1.56861827
VERTEX2 1115 -2.99488729 -14.42181566 -1.58473039
VERTEX2 1116 -2.98137919 -15.06850211 -1.54839333
VERTEX2 1117 -2.97836013 -15.16438669 -1.67606481
VERTEX2 1118 -2.97628386 -15.16048812 -2.28307056
VERTEX2 1119 -2.96643414 -15.15363583 -2.71455897
VERTEX2 1120 -3.52805453 -15.36047606 -2.77808714
VERTEX2 1121 -3.71666039 -15.42761788 -2.89656203
VERTEX2 1122 -3.71268762 -15.42896220 2.83650635
VERTEX2 1123 -4.26310542 -15.24630541 2.85352860
VERTEX2 1124 -4.82110057 -15.11996922 2.95239011
VERTEX2 1125 -5.44690608 -14.99728410 2.96599824
VERTEX2 1126 -5.52699964 -14.98476601 -2.97727427
VERTEX2 1127 -5.52327282 -14.98870361 -1.91965857
VERTEX2 1128 -5.52197956 -14.98226629 -0.93197346
VERTEX2 1129 -5.50517776 -14.99155223 0.08396663
VERTEX2 1130 -4.91606573 -14.92376191 0.09779547
VERTEX2 1131 -4.14163454 -15.04495011 -0.33374182
VERTEX2 1132 -3.53018712 -15.25931432 -0.35326278
VERTEX2 1133 -2.98263665 -15.48456909 -0.39179004
VERTEX2 1134 -2.72953504 -15.58941292 -0.48860903
VERTEX2 1135 -2.71934915 -15.59931828 -1.04427842
VERTEX2 1136 -2.71836975 -15.59723229 -1.60586701
VERTEX2 1137 -2.77072754 -15.89847643 -1.78965786
VERTEX2 1138 -2.92219512 -16.53079548 -1.80574525
VERTEX2 1139 -3.03918083 -17.02688774 -1.87876686
VERTEX2 1140 -3.02953082 -17.00348424 -2.35734032
VERTEX2 1141 -3.00832677 -16.98270303 -2.90429461
VERTEX2 1142 -3.37162659 -16.94066372 3.01489516
VERTEX2 1143 -3.96995541 -16.89614919 3.10448842
VERTEX2 1144 -4.55115835 -16.86398850 3.07404742
VERTEX2 1145 -5.12996288 -16.82058683 3.04875446
VERTEX2 1146 -5.70643577 -16.76553997 3.06866852
VERTEX2 1147 -6.28614755 -16.75769077 3.14156561
VERTEX2 1148 -6.86467090 -16.75743038 -3.13158875
VERTEX2 1149 -6.90742341 -16.75889899 -2.63334288
VERTEX2 1150 -6.99920231 -16.86169006 -1.82366152
VERTEX2 1151 -6.99712072 -16.87342783 -0.81973687
VERTEX2 1152 -6.97974591 -16.87365811 0.23349650
VERTEX2 1153 -6.96504705 -16.86693939 1.24638865
VERTEX2 1154 -7.02527986 -16.55069381 1.79244829
VERTEX2 1155 -7.16033161 -15.92733232 1.74310351
VERTEX2 1156 -7.25947997 -15.32243062 1.75312771
VERTEX2 1157 -7.38833951 -14.75237508 1.86424869
VERTEX2 1158 -7.51651364 -14.15127730 1.73570676
VERTEX2 1159 -7.57884032 -13.54937934 1.64167242
VERTEX2 1160 -7.60332049 -12.91064039 1.50493762
VERTEX2 1161 -7.50548884 -12.27917750 1.41526227
VERTEX2 1162 -7.41589629 -11.64747144 1.47339902
VERTEX2 1163 -7.35528719 -11.00498063 1.46797574
VERTEX2 1164 -7.30898843 -10.36454458 1.55346113
VERTEX2 1165 -7.30000104 -9.82448571 1.53067267
VERTEX2 1166 -7.30083257 -9.82052259 2.01971262
VERTEX2 1167 -7.24970532 -9.80786199 2.95649181
VERTEX2 1168 -7.20572082 -9.79014281 -2.42310593
VERTEX2 1169 -7.20943813 -9.84130872 -1.60098016
VERTEX2 1170 -7.21685016 -10.42709870 -1.59421615
VERTEX2 1171 -7.21360875 -11.06159196 -1.56240932
VERTEX2 1172 -7.21497584 -11.66016426 -1.62479239
VERTEX2 1173 -7.24180489 -12.28357458 -1.61561469
VERTEX2 1174 -7.28250595 -12.91225272 -1.68428512
VERTEX2 1175 -7.36549789 -13.52601846 -1.71765587
VERTEX2 1176 -7.45989831 -14.14729369 -1.76133961
VERTEX2 1177 -7.57651653 -14.75663489 -1.75930411
VERTEX2 1178 -7.70468137 -15.36995519 -1.80652769
VERTEX2 1179 -7.83936117 -15.97517514 -1.77719356
VERTEX2 1180 -7.89244039 -16.22920149 -1.78419289
VERTEX2 1181 -7.89165561 -16.22349550 -0.95679709
VERTEX2 1182 -7.83596277 -16.23736391 -0.24513739
VERTEX2 1183 -7.22159398 -16.38345556 -0.21985186
VERTEX2 1184 -6.58812565 -16.49534091 -0.15036000
VERTEX2 1185 -5.95958929 -16.60283019 -0.18267270
VERTEX2 1186 -5.32754460 -16.69485459 -0.11655933
VERTEX2 1187 -4.67321035 -16.77741896 -0.15373401
VERTEX2 1188 -4.04544356 -16.86453752 -0.13571594
VERTEX2 1189 -3.37953408 -16.96931821 -0.11409197
VERTEX2 1190 -3.04572371 -17.00823885 -0.10612807
VERTEX2 1191 -3.01148521 -17.00732436 0.81394400
VERTEX2 1192 -3.00626577 -16.92546454 1.61142164
VERTEX2 1193 -3.00295661 -16.32726596 1.47934959
VERTEX2 1194 -2.96501485 -15.75454126 1.52136036
VERTEX2 1195 -2.94011419 -15.13261739 1.57366598
VERTEX2 1196 -2.93783168 -14.51066613 1.40098346
VERTEX2 1197 -2.83819233 -13.89694496 1.41222903
VERTEX2 1198 -2.77154132 -13.27156887 1.67106195
VERTEX2 1199 -2.79226441 -12.66114791 1.45636438
VERTEX2 1200 -2.73894973 -12.03259446 1.52536837
VERTEX2 1201 -2.71774566 -11.41456894 1.58118606
VERTEX2 1202 -2.73168802 -10.79401119 1.60412054
VERTEX2 1203 -2.76557998 -10.20653023 1.51418095
VERTEX2 1204 -2.65493222 -9.61573311 1.36737878
VERTEX2 1205 -2.54996652 -9.05404678 1.39693233
VERTEX2 1206 -2.46797973 -8.46550070 1.45814280
VERTEX2 1207 -2.33422402 -7.85528661 1.37202580
VERTEX2 1208 -2.22534451 -7.23153468 1.43668778
VERTEX2 1209 -2.14185037 -6.61132056 1.43472984
VERTEX2 1210 -2.08037242 -5.99543490 1.45528133
VERTEX2 1211 -1.95790790 -5.38356102 1.38228296
VERTEX2 1212 -1.84651372 -4.77199542 1.43215134
VERTEX2 1213 -1.78269381 -4.15863545 1.50526602
VERTEX2 1214 -1.70484301 -3.43328345 1.28235699
VERTEX2 1215 -1.54392050 -2.84926451 1.34120733
VERTEX2 1216 -1.49668503 -2.29634605 1.55828357
VERTEX2 1217 -1.46562400 -1.71688960 1.53878572
VERTEX2 1218 -1.45498086 -1.12668187 1.48811672
VERTEX2 1219 -1.40775300 -0.47737216 1.51871472
VERTEX2 1220 -1.40386298 0.10971740 1.60945272
VERTEX2 1221 -1.40331000 0.10789140 1.15669972
VERTEX2 1222 -1.39338349 0.11765998 0.55939272
VERTEX2 1223 -1.38156456 0.12052341 -0.00023428
VERTEX2 1224 -0.80711544 0.03132482 -0.18314228
VERTEX2 1225 -0.19116866 -0.07879006 -0.16937828
VERTEX2 1226 -0.08620713 -0.09685083 -0.18610928
VERTEX2 1227 -0.08620713 -0.09685083 -0.18677128
