1 14 29 0.00017364 4 
2 3 37 0.00022030 4 
3 12 40 0.00023287 4 
4 46 97 0.00085606 5 
5 20 126 0.00162051 7 
6 93 132 0.00166689 7 
7 19 166 0.00642397 10 
8 19 172 0.00321768 10 
9 25 172 0.00322991 10 
10 25 178 0.00334014 10 
11 32 178 0.00335518 10 
12 169 180 0.00342572 10 
13 147 182 0.00347652 10 
14 32 183 0.00352232 10 
15 44 189 0.00367990 10 
16 44 195 0.00380337 10 
17 50 195 0.00386068 10 
18 50 201 0.00396641 10 
19 104 201 0.00397199 10 
20 50 203 0.00408509 10 
21 61 203 0.00413581 10 
22 61 209 0.00417384 10 
23 67 209 0.00415963 10 
24 67 220 0.00445396 10 
25 81 220 0.00446825 10 
26 50 221 0.00451130 10 
27 81 226 0.00454021 10 
28 87 226 0.00454556 10 
29 87 231 0.00464165 10 
30 94 231 0.00468977 10 
31 226 231 0.00469060 10 
32 163 233 0.00477565 10 
33 2 234 0.00484636 10 
34 94 241 0.00500312 10 
35 101 241 0.00505419 10 
36 101 247 0.00517218 10 
37 107 247 0.00520689 10 
38 235 249 0.00527395 10 
39 107 254 0.00536625 10 
40 114 254 0.00540970 10 
41 237 254 0.00539124 10 
42 107 256 0.00546498 10 
43 114 256 0.00547436 10 
44 107 258 0.00551581 10 
45 114 258 0.00552313 10 
46 121 266 0.00570877 10 
47 126 266 0.00569995 10 
48 126 272 0.00582997 10 
49 132 272 0.00591679 10 
50 23 277 0.00602340 10 
51 132 278 0.00606462 10 
52 138 278 0.00611203 10 
53 138 284 0.00622255 10 
54 151 284 0.00627780 10 
55 214 288 0.00646635 10 
56 151 291 0.00658961 10 
57 151 297 0.00670753 10 
58 157 297 0.00663886 10 
59 163 297 0.00666605 10 
60 166 297 0.00669777 10 
61 107 298 0.00678265 10 
62 164 300 0.00599873 9 
63 19 305 0.00685022 10 
64 157 305 0.00560157 8 
65 163 305 0.00688249 10 
66 166 305 0.00703491 10 
67 172 305 0.00707431 10 
68 19 315 0.00709963 10 
69 25 315 0.00726513 10 
70 172 315 0.00725710 10 
71 12 324 0.00727694 10 
72 172 328 0.00741141 10 
73 5 331 0.00445955 6 
74 19 337 0.00687885 9 
75 25 337 0.00770022 10 
76 172 337 0.00867263 10 
77 19 342 0.00776926 10 
78 25 342 0.00782491 10 
79 172 342 0.00400559 5 
80 178 342 0.00784325 10 
81 25 367 0.00744329 9 
82 32 367 0.00752741 9 
83 178 367 0.00588045 7 
84 183 367 0.00837306 10 
85 25 374 0.00758336 9 
86 32 374 0.00763284 9 
87 178 374 0.00591825 7 
88 183 374 0.00851876 10 
89 32 382 0.00774365 9 
90 183 382 0.00870358 10 
91 371 385 0.00899438 10 
92 32 387 0.00903407 10 
93 183 387 0.00809507 9 
94 103 390 0.00906856 10 
95 110 394 0.00907026 10 
96 392 397 0.00543715 6 
97 189 400 0.00931540 10 
98 61 407 0.00951957 10 
99 232 413 0.00971659 10 
100 189 414 0.00982440 10 
101 232 417 0.00989855 10 
102 213 417 0.01010271 10 
103 61 427 0.01016396 10 
104 272 430 0.01021003 10 
105 44 437 0.00931416 9 
106 195 437 0.00826283 8 
107 308 439 0.01077911 10 
108 25 446 0.00972729 9 
109 100 450 0.01099725 10 
110 282 450 0.01142449 10 
111 116 451 0.01000945 9 
112 44 454 0.01140249 10 
113 189 454 0.00932258 8 
114 44 467 0.01046548 9 
115 50 467 0.01167110 10 
116 195 467 0.00578663 5 
117 64 469 0.01048897 9 
118 123 475 0.00949497 8 
119 467 481 0.00595385 5 
120 195 484 0.00721954 6 
121 327 489 0.01262444 10 
122 407 489 0.00865399 7 
123 483 490 0.00490791 4 
124 7 493 0.01274259 10 
125 44 494 0.01278646 10 
126 50 494 0.01185926 9 
127 195 494 0.01309713 10 
128 201 494 0.01157348 9 
129 50 500 0.00906688 7 
130 201 500 0.00906293 7 
131 203 500 0.00916426 7 
132 61 508 0.01338569 10 
133 203 508 0.01363210 10 
134 209 508 0.01354980 10 
135 21 510 0.01354807 10 
136 441 511 0.01228479 9 
137 145 516 0.01266249 9 
138 350 517 0.01412583 10 
139 50 519 0.00984465 7 
140 61 522 0.01434769 10 
141 203 522 0.01458098 10 
142 209 522 0.01453728 10 
143 61 528 0.01148252 8 
144 67 528 0.01445837 10 
145 81 528 0.01476016 10 
146 209 528 0.01488749 10 
147 220 528 0.01477815 10 
148 12 529 0.01447726 10 
149 67 532 0.00868014 6 
150 81 532 0.01462935 10 
151 220 532 0.01492834 10 
152 459 533 0.01182529 8 
153 29 536 0.01415184 9 
154 266 538 0.01532799 10 
155 11 552 0.01582321 10 
156 197 555 0.01586992 10 
157 67 556 0.01603009 10 
158 280 561 0.01616083 10 
159 405 563 0.01661142 10 
160 67 564 0.01691131 10 
161 81 564 0.01680784 10 
162 220 564 0.01691072 10 
163 67 567 0.01695002 10 
164 81 567 0.01710231 10 
165 220 567 0.01737380 10 
166 67 570 0.01710993 10 
167 81 570 0.01720567 10 
168 220 570 0.01742385 10 
169 554 574 0.01726453 10 
170 81 575 0.01731491 10 
171 220 575 0.01731112 10 
172 134 579 0.01802900 10 
173 81 588 0.01795739 10 
174 87 588 0.01825220 10 
175 226 588 0.01825893 10 
176 530 589 0.01861812 10 
177 576 595 0.01826743 10 
178 14 595 0.01895461 10 
179 91 596 0.01913936 10 
180 87 597 0.01917726 10 
181 94 597 0.01919616 10 
182 226 597 0.01921092 10 
183 87 604 0.01904581 10 
184 94 604 0.01938081 10 
185 161 608 0.01964516 10 
186 67 612 0.01978360 10 
187 94 616 0.01946445 10 
188 56 618 0.01952618 10 
189 193 622 0.01967720 10 
190 375 623 0.02037103 10 
191 94 632 0.02063805 10 
192 94 637 0.02074051 10 
193 101 637 0.02062355 10 
194 14 640 0.02017470 10 
195 182 641 0.02107461 10 
196 101 642 0.02111292 10 
197 107 642 0.02115775 10 
198 101 645 0.02084568 10 
199 107 645 0.02121866 10 
200 46 645 0.02117020 10 
201 104 645 0.02124865 10 
202 645 655 0.01466168 7 
203 101 657 0.02115199 10 
204 525 659 0.02145992 10 
205 276 662 0.02189605 10 
206 101 663 0.02211487 10 
207 107 663 0.02231745 10 
208 114 663 0.02233832 10 
209 101 665 0.02203223 10 
210 107 665 0.02262521 10 
211 114 665 0.02242656 10 
212 125 671 0.02247200 10 
213 159 676 0.02295231 10 
214 27 678 0.02403634 10 
215 107 680 0.02362270 10 
216 107 683 0.02371001 10 
217 114 683 0.02372616 10 
218 235 687 0.02386047 10 
219 647 690 0.02370461 10 
220 498 690 0.02440942 10 
221 478 691 0.02431827 10 
222 4 702 0.02458835 10 
223 528 702 0.02504812 10 
224 107 704 0.02506184 10 
225 114 704 0.02510893 10 
226 299 704 0.02534827 10 
227 190 704 0.02559086 10 
228 195 709 0.02533352 10 
229 107 714 0.02542227 10 
230 114 714 0.02581346 10 
231 450 715 0.02590976 10 
232 661 716 0.02610711 10 
233 116 718 0.02621503 10 
234 491 718 0.02623137 10 
235 539 729 0.02619769 10 
236 107 730 0.02727794 10 
237 114 730 0.02682814 10 
238 505 735 0.02746375 10 
239 560 746 0.02735299 10 
240 7 750 0.02780854 10 
241 674 753 0.02769513 10 
242 121 754 0.02855105 10 
243 126 754 0.02885865 10 
244 2 754 0.02874386 10 
245 121 759 0.02847575 10 
246 126 759 0.02886832 10 
247 211 760 0.02910018 10 
248 467 761 0.02913952 10 
249 126 762 0.02913817 10 
250 132 762 0.02938630 10 
251 219 763 0.02949110 10 
252 655 763 0.02946194 10 
253 721 764 0.02985652 10 
254 402 775 0.02947132 10 
255 132 778 0.03023407 10 
256 675 790 0.02956367 10 
257 132 792 0.02999539 10 
258 284 793 0.03078895 10 
259 695 798 0.03102849 10 
260 271 799 0.03108832 10 
261 627 799 0.03094713 10 
262 132 800 0.03098602 10 
263 138 800 0.03143260 10 
264 764 802 0.03169441 10 
265 524 803 0.03176129 10 
266 748 804 0.03209669 10 
267 138 806 0.03208508 10 
268 568 807 0.03411168 10 
269 149 808 0.03223509 10 
270 569 814 0.03266169 10 
271 22 816 0.03288636 10 
272 427 818 0.03306466 10 
273 138 821 0.03288991 10 
274 138 823 0.03294332 10 
275 197 824 0.03444186 10 
276 193 825 0.03290332 10 
277 648 827 0.03321062 10 
278 151 828 0.03392382 10 
279 738 830 0.03422787 10 
280 440 833 0.03427357 10 
281 817 835 0.03404161 10 
282 51 838 0.03451033 10 
283 776 838 0.03572607 10 
284 118 843 0.03547179 10 
285 151 847 0.03556516 10 
286 260 848 0.03562219 10 
287 384 849 0.03588577 10 
288 278 849 0.03627734 10 
289 728 852 0.03630445 10 
290 151 855 0.03660825 10 
291 691 865 0.03620011 10 
292 859 872 0.03627690 10 
293 818 872 0.03990707 10 
294 365 875 0.03791900 10 
295 602 876 0.03679828 10 
296 123 878 0.03762266 10 
297 624 879 0.03713374 10 
298 733 880 0.03766775 10 
299 838 890 0.03784400 10 
300 424 894 0.03805409 10 
301 151 895 0.03803597 10 
302 216 896 0.03833762 10 
303 151 897 0.03826812 10 
304 620 900 0.03828369 10 
305 138 903 0.03838430 10 
306 146 903 0.04039272 10 
307 138 904 0.03941069 10 
308 132 907 0.03952637 10 
309 138 907 0.03948873 10 
310 736 909 0.03996237 10 
311 132 911 0.03969356 10 
312 578 911 0.04004882 10 
313 165 911 0.04027362 10 
314 815 917 0.03979848 10 
315 220 919 0.03980256 10 
316 194 920 0.03991498 10 
317 121 923 0.04277803 10 
318 126 923 0.04036273 10 
319 524 928 0.04119051 10 
320 236 928 0.04080907 10 
321 107 929 0.04080823 10 
322 114 929 0.04168565 10 
323 478 934 0.04158906 10 
324 107 935 0.04151287 10 
325 114 935 0.04174895 10 
326 236 938 0.04072177 10 
327 687 938 0.04090914 10 
328 101 939 0.04094161 10 
329 107 939 0.04094167 10 
330 101 944 0.04099703 10 
331 94 947 0.04105285 10 
332 101 947 0.04107077 10 
333 319 952 0.04186185 10 
334 87 953 0.04171555 10 
335 94 953 0.04172660 10 
336 226 953 0.04196073 10 
337 412 957 0.04239891 10 
338 81 959 0.04248688 10 
339 87 959 0.04246498 10 
340 220 959 0.04249724 10 
341 226 959 0.04248466 10 
342 377 960 0.04336535 10 
343 251 960 0.04450874 10 
344 45 962 0.04539609 10 
345 67 965 0.04400023 10 
346 81 965 0.04406636 10 
347 220 965 0.04401691 10 
348 273 965 0.04398991 10 
349 17 966 0.04416266 10 
350 840 969 0.04488594 10 
351 61 976 0.04512410 10 
352 67 976 0.04511501 10 
353 209 976 0.04542051 10 
354 619 977 0.04538271 10 
355 720 977 0.04652810 10 
356 77 980 0.04649214 10 
357 227 980 0.04621006 10 
358 50 982 0.04622476 10 
359 61 982 0.04717011 10 
360 201 982 0.04643992 10 
361 203 982 0.04830404 10 
362 884 985 0.04635422 10 
363 44 988 0.04646830 10 
364 50 988 0.04748659 10 
365 195 988 0.04756901 10 
366 201 988 0.04755776 10 
367 125 989 0.04645188 10 
368 44 994 0.04657013 10 
369 189 994 0.04663514 10 
370 195 994 0.04787572 10 
371 644 995 0.04654870 10 
372 76 1002 0.04803381 10 
373 32 1003 0.04821705 10 
374 178 1003 0.04852918 10 
375 183 1003 0.04795539 10 
376 25 1008 0.04817040 10 
377 32 1008 0.04814146 10 
378 178 1008 0.04814305 10 
379 183 1008 0.04816058 10 
380 25 1010 0.04819595 10 
381 32 1010 0.04821749 10 
382 172 1010 0.04853886 10 
383 178 1010 0.04928437 10 
384 886 1013 0.05070786 10 
385 19 1016 0.05140646 10 
386 166 1016 0.05085136 10 
387 172 1016 0.05089631 10 
388 283 1018 0.05143781 10 
389 545 1018 0.05081295 10 
390 585 1019 0.05122946 10 
391 375 1019 0.05401087 10 
392 757 1020 0.05232345 10 
393 613 1024 0.05102954 10 
394 151 1029 0.05116966 10 
395 157 1029 0.05199027 10 
396 163 1029 0.05244870 10 
397 166 1029 0.05249298 10 
398 943 1029 0.05223642 10 
399 730 1032 0.05246585 10 
400 104 1034 0.05316755 10 
401 462 1036 0.05485000 10 
402 919 1041 0.05384984 10 
403 825 1042 0.05513899 10 
404 37 1047 0.05456143 10 
405 813 1047 0.05513394 10 
406 599 1048 0.05593701 10 
407 489 1049 0.05573237 10 
408 866 1049 0.05677426 10 
409 241 1052 0.05686395 10 
410 219 1055 0.05590869 10 
411 707 1057 0.05671012 10 
412 885 1058 0.05659603 10 
413 389 1067 0.23631131 10 
414 878 1071 0.12195701 10 
415 835 1076 0.05866137 10 
416 657 1078 0.05896569 10 
417 12 1079 0.05932134 10 
418 329 1079 0.05896379 10 
419 809 1080 0.05810857 10 
420 610 1080 0.05869503 10 
421 481 1082 0.05957088 10 
422 132 1084 0.05974720 10 
423 510 1084 0.06129506 10 
424 239 1091 0.06223269 10 
425 346 1091 0.06112906 10 
426 636 1100 0.06162681 10 
427 834 1100 0.06101609 10 
428 667 1101 0.06297230 10 
429 887 1101 0.06190212 10 
430 764 1102 0.06308776 10 
431 705 1108 0.06217203 10 
432 173 1109 0.06431942 10 
433 736 1112 0.06364837 10 
434 813 1115 0.06508178 10 
435 740 1116 0.06443284 10 
436 561 1117 0.06480245 10 
437 450 1120 0.06489991 10 
438 271 1125 0.06578645 10 
439 306 1127 0.06656405 10 
440 275 1127 0.06695955 10 
441 715 1128 0.06702373 10 
442 523 1128 0.06714576 10 
443 478 1129 0.06807673 10 
444 207 1133 0.06787760 10 
445 245 1136 0.06834706 10 
446 101 1138 0.06845296 10 
447 83 1138 0.06887768 10 
448 140 1138 0.06729763 10 
449 441 1143 0.07035958 10 
450 24 1144 0.06973019 10 
451 107 1147 0.06977953 10 
452 114 1147 0.06976340 10 
453 609 1149 0.06926418 10 
454 107 1150 0.06926256 10 
455 114 1150 0.06928001 10 
456 68 1153 0.07022020 10 
457 114 1158 0.07023665 10 
458 121 1158 0.07041540 10 
459 1074 1158 0.07195074 10 
460 69 1162 0.07103887 10 
461 410 1162 0.07237803 10 
462 121 1164 0.07067481 10 
463 126 1164 0.07197506 10 
464 634 1171 0.07174670 10 
465 540 1174 0.07428447 10 
466 114 1175 0.07416802 10 
467 121 1175 0.07424276 10 
468 923 1175 0.07227829 10 
469 929 1175 0.07238896 10 
470 1158 1175 0.07464092 10 
471 270 1175 0.07740817 10 
472 1004 1177 0.07544680 10 
473 936 1178 0.07517715 10 
474 1149 1180 0.07651465 10 
475 877 1181 0.07651083 10 
476 1024 1182 0.07699021 10 
477 101 1188 0.07689694 10 
478 939 1188 0.07633558 10 
479 1138 1188 0.07635390 10 
480 1147 1188 0.07812078 10 
481 1150 1188 0.07762007 10 
482 52 1190 0.07748769 10 
483 759 1190 0.07539186 10 
484 130 1204 0.07917305 10 
485 1050 1210 0.07938808 10 
486 1061 1210 0.07878306 10 
487 1075 1210 0.07863343 10 
488 1084 1210 0.07892700 10 
489 1088 1210 0.07915757 10 
490 1093 1210 0.08034071 10 
491 1098 1210 0.08027650 10 
492 549 1210 0.07869926 10 
493 126 1212 0.07871006 10 
494 807 1214 0.07873599 10 
495 157 1217 0.08058333 10 
496 163 1217 0.08069147 10 
497 1029 1217 0.08076878 10 
498 1044 1217 0.07983743 10 
499 1050 1217 0.08203743 10 
500 1056 1217 0.08188096 10 
501 642 1217 0.08194493 10 
502 1045 1219 0.08203948 10 
503 818 1221 0.07989042 10 
504 360 1222 0.08310619 10 
505 514 1224 0.08304166 10 
506 520 1227 0.08344059 10 
