1 1 115 0.00124021 6 
2 19 166 0.00399950 10 
3 19 172 0.00318285 10 
4 25 172 0.00318210 10 
5 25 178 0.00330482 10 
6 32 178 0.00329975 10 
7 90 180 0.00333628 10 
8 32 183 0.00340027 10 
9 44 189 0.00348467 10 
10 155 193 0.00362183 10 
11 44 195 0.00374455 10 
12 50 195 0.00368783 10 
13 50 201 0.00385742 10 
14 50 203 0.00382663 10 
15 61 203 0.00383773 10 
16 61 209 0.00395719 10 
17 67 209 0.00395527 10 
18 67 220 0.00415322 10 
19 81 220 0.00415934 10 
20 81 226 0.00427997 10 
21 87 226 0.00428263 10 
22 87 231 0.00440620 10 
23 94 231 0.00447246 10 
24 226 231 0.00448707 10 
25 94 241 0.00467262 10 
26 101 241 0.00703030 10 
27 101 247 0.00480453 10 
28 107 247 0.00479836 10 
29 107 254 0.00657102 10 
30 114 254 0.00711406 10 
31 107 256 0.00503049 10 
32 114 256 0.00513822 10 
33 49 257 0.00522048 10 
34 107 258 0.00512970 10 
35 114 258 0.00522892 10 
36 121 266 0.00546945 10 
37 126 266 0.00549601 10 
38 126 272 0.00558612 10 
39 132 272 0.00548516 10 
40 132 278 0.00561567 10 
41 138 278 0.00573747 10 
42 138 284 0.00581326 10 
43 151 284 0.00587173 10 
44 277 288 0.00584091 10 
45 151 291 0.00592082 10 
46 151 297 0.00604578 10 
47 157 297 0.00610079 10 
48 163 297 0.00611489 10 
49 166 297 0.00613245 10 
50 19 305 0.00632669 10 
51 157 305 0.00631584 10 
52 163 305 0.00634351 10 
53 166 305 0.00634401 10 
54 172 305 0.00635288 10 
55 19 315 0.00572255 9 
56 25 315 0.00641720 10 
57 172 315 0.00655166 10 
58 172 328 0.00596894 9 
59 19 337 0.00544678 8 
60 25 337 0.00729629 10 
61 172 337 0.00706220 10 
62 19 342 0.00953329 10 
63 25 342 0.00701320 10 
64 172 342 0.00516444 6 
65 178 342 0.00708874 10 
66 153 353 0.00429582 6 
67 223 354 0.00739880 10 
68 25 367 0.00534869 7 
69 32 367 0.00533617 7 
70 178 367 0.00458307 6 
71 183 367 0.00616690 8 
72 25 374 0.00792050 10 
73 32 374 0.00809431 10 
74 178 374 0.00647407 8 
75 183 374 0.00789039 10 
76 184 374 0.00392120 5 
77 107 378 0.00727641 9 
78 32 382 0.00653075 8 
79 183 382 0.00839531 10 
80 32 387 0.00844670 10 
81 183 387 0.00608426 7 
82 189 400 0.00873498 10 
83 215 408 0.00901868 10 
84 189 414 0.00900238 10 
85 121 414 0.00917836 10 
86 197 424 0.00926963 10 
87 386 435 0.00951141 10 
88 44 437 0.00981898 10 
89 195 437 0.00983820 10 
90 94 439 0.00991576 10 
91 44 454 0.00792716 8 
92 189 454 0.00790883 8 
93 44 467 0.00708098 7 
94 50 467 0.00918964 9 
95 195 467 0.00299071 3 
96 8 474 0.01050410 10 
97 195 484 0.00532091 5 
98 44 494 0.00649564 6 
99 50 494 0.00867436 8 
100 195 494 0.00757261 7 
101 201 494 0.00870645 8 
102 50 500 0.01303442 9 
103 201 500 0.01115780 9 
104 203 500 0.00829667 7 
105 63 507 0.01155232 10 
106 61 508 0.01175473 10 
107 203 508 0.01187542 10 
108 209 508 0.01167387 10 
109 61 522 0.01171971 10 
110 203 522 0.01198646 10 
111 209 522 0.01194237 10 
112 61 528 0.01062868 9 
113 67 528 0.01185627 10 
114 81 528 0.01221208 10 
115 209 528 0.01218322 10 
116 220 528 0.01218144 10 
117 67 532 0.00953478 8 
118 81 532 0.01202920 10 
119 220 532 0.01231294 10 
120 470 544 0.01221633 10 
121 227 547 0.01243851 10 
122 67 556 0.01270538 10 
123 67 564 0.01287289 10 
124 81 564 0.01179521 9 
125 220 564 0.01287984 10 
126 67 567 0.01295617 10 
127 81 567 0.01324327 10 
128 220 567 0.01327784 10 
129 67 570 0.01306364 10 
130 81 570 0.01334900 10 
131 220 570 0.01335678 10 
132 81 575 0.01346678 10 
133 220 575 0.01347129 10 
134 164 577 0.01366392 10 
135 81 588 0.01375048 10 
136 87 588 0.01387813 10 
137 226 588 0.01402147 10 
138 80 589 0.01409531 10 
139 87 597 0.01393573 10 
140 94 597 0.01498686 10 
141 226 597 0.01427507 10 
142 87 604 0.01409657 10 
143 94 604 0.01516466 10 
144 253 604 0.01448645 10 
145 313 613 0.01451001 10 
146 94 616 0.01468755 10 
147 471 616 0.01510168 10 
148 555 620 0.01495249 10 
149 94 632 0.01519895 10 
150 53 636 0.01549056 10 
151 94 637 0.01585393 10 
152 101 637 0.01592267 10 
153 101 642 0.01404570 9 
154 107 642 0.01570872 10 
155 38 643 0.01895649 10 
156 101 645 0.01611744 10 
157 107 645 0.01616879 10 
158 588 648 0.01626449 10 
159 101 657 0.01617812 10 
160 406 662 0.01666987 10 
161 101 663 0.01156886 7 
162 107 663 0.01670020 10 
163 114 663 0.01701249 10 
164 101 665 0.01679786 10 
165 107 665 0.01715894 10 
166 114 665 0.01717701 10 
167 522 665 0.01734546 10 
168 586 674 0.01695895 10 
169 513 675 0.01729233 10 
170 107 680 0.01733902 10 
171 107 683 0.01742572 10 
172 114 683 0.01771636 10 
173 605 689 0.01761528 10 
174 307 692 0.01759747 10 
175 113 702 0.01413585 8 
176 107 704 0.02192042 10 
177 114 704 0.01875569 10 
178 274 704 0.01835397 10 
179 107 714 0.01826758 10 
180 114 714 0.01852355 10 
181 428 714 0.01840695 10 
182 177 722 0.01884026 10 
183 107 730 0.01507870 8 
184 114 730 0.01900721 10 
185 718 730 0.00973304 5 
186 131 735 0.01920943 10 
187 72 739 0.02003334 10 
188 116 741 0.02092615 10 
189 368 749 0.02043516 10 
190 121 754 0.01998771 10 
191 126 754 0.02049881 10 
192 49 754 0.02115337 10 
193 121 759 0.02135700 10 
194 126 759 0.02206605 10 
195 126 762 0.02046927 10 
196 132 762 0.02256579 10 
197 376 771 0.02143226 10 
198 757 773 0.02175104 10 
199 442 775 0.02183116 10 
200 132 778 0.01085019 5 
201 132 792 0.02220819 10 
202 145 792 0.02048969 9 
203 132 800 0.02257376 10 
204 138 800 0.02328530 10 
205 547 802 0.02280911 10 
206 138 806 0.02913744 10 
207 728 808 0.02416457 10 
208 138 821 0.01711984 7 
209 138 823 0.02423626 10 
210 235 826 0.02458122 10 
211 151 828 0.02598819 10 
212 3 841 0.02298737 8 
213 151 847 0.02383127 10 
214 151 855 0.01908270 8 
215 208 857 0.02469077 10 
216 856 862 0.00975329 4 
217 52 869 0.02551240 10 
218 726 870 0.02550162 10 
219 803 879 0.02072605 8 
220 10 879 0.01861866 7 
221 396 880 0.02569643 10 
222 409 882 0.03212178 10 
223 636 890 0.02614545 10 
224 456 892 0.02639056 10 
225 151 895 0.02647674 10 
226 151 897 0.02415626 9 
227 662 900 0.02654592 10 
228 138 903 0.02702486 10 
229 138 904 0.02700958 10 
230 132 907 0.02788621 10 
231 138 907 0.02756867 10 
232 27 909 0.02777603 10 
233 132 911 0.02784683 10 
234 121 923 0.03072733 10 
235 126 923 0.03590089 10 
236 86 925 0.02787764 10 
237 107 929 0.02794555 10 
238 114 929 0.02816954 10 
239 107 935 0.02812214 10 
240 114 935 0.02842633 10 
241 101 939 0.03434828 10 
242 107 939 0.01988422 7 
243 101 944 0.02899309 10 
244 119 944 0.03104045 10 
245 94 947 0.02936413 10 
246 101 947 0.03009685 10 
247 87 953 0.02982135 10 
248 94 953 0.03027127 10 
249 226 953 0.03221540 10 
250 81 959 0.02987980 10 
251 87 959 0.03011942 10 
252 220 959 0.03238425 10 
253 226 959 0.03042568 10 
254 67 965 0.03002240 10 
255 81 965 0.03007577 10 
256 220 965 0.02996049 10 
257 200 972 0.03010875 10 
258 643 973 0.03218603 10 
259 61 976 0.03505577 10 
260 67 976 0.03126844 10 
261 209 976 0.03098025 10 
262 454 976 0.02760679 9 
263 260 976 0.03422039 10 
264 827 979 0.03012743 10 
265 468 980 0.02403178 8 
266 50 982 0.03043957 10 
267 61 982 0.03075392 10 
268 201 982 0.03113745 10 
269 203 982 0.01877968 6 
270 44 988 0.03067569 10 
271 50 988 0.01864280 6 
272 195 988 0.02741565 9 
273 201 988 0.01505774 5 
274 72 990 0.03081489 10 
275 44 994 0.03082888 10 
276 189 994 0.05468266 10 
277 195 994 0.03146189 10 
278 32 1003 0.03141885 10 
279 178 1003 0.03566719 10 
280 183 1003 0.02555882 8 
281 696 1007 0.03148221 10 
282 25 1008 0.03140225 10 
283 32 1008 0.03189262 10 
284 178 1008 0.05268465 10 
285 183 1008 0.03224847 10 
286 25 1010 0.03139863 10 
287 32 1010 0.03171190 10 
288 172 1010 0.03136254 10 
289 178 1010 0.03122922 10 
290 639 1014 0.03184087 10 
291 19 1016 0.03810387 10 
292 166 1016 0.03529734 10 
293 172 1016 0.02693709 8 
294 565 1016 0.03342425 10 
295 151 1029 0.03307590 10 
296 157 1029 0.03970084 10 
297 163 1029 0.03325673 10 
298 166 1029 0.01975894 6 
299 655 1068 0.03390810 10 
300 1001 1072 0.03330092 10 
301 290 1074 0.03408828 10 
302 151 1076 0.02336882 7 
303 132 1084 0.03375745 10 
304 899 1084 0.03453034 10 
305 293 1087 0.03380852 10 
306 174 1098 0.03466352 10 
307 922 1104 0.03598576 10 
308 261 1106 0.03503893 10 
309 874 1111 0.03494965 10 
310 889 1117 0.03494585 10 
311 30 1121 0.03521871 10 
312 1071 1125 0.03604684 10 
313 101 1138 0.03631979 10 
314 626 1144 0.03680508 10 
315 227 1146 0.03723948 10 
316 107 1147 0.03720574 10 
317 114 1147 0.03785441 10 
318 107 1150 0.03725939 10 
319 114 1150 0.14560365 10 
320 1067 1153 0.19345720 10 
321 114 1158 0.18897636 10 
322 121 1158 0.20375035 10 
323 584 1159 0.20616702 10 
324 873 1160 0.11304126 10 
325 121 1164 0.03794381 10 
326 126 1164 0.03867918 10 
327 768 1166 0.03843770 10 
328 914 1167 0.03415336 9 
329 647 1169 0.03801982 10 
330 114 1175 0.03873435 10 
331 121 1175 0.03943537 10 
332 923 1175 0.03964632 10 
333 929 1175 0.03940709 10 
334 1158 1175 0.03947083 10 
335 101 1188 0.04047528 10 
336 939 1188 0.03962944 10 
337 1138 1188 0.03971778 10 
338 1147 1188 0.04007751 10 
339 1150 1188 0.04019669 10 
340 1105 1195 0.03910446 10 
341 841 1203 0.03953908 10 
342 222 1204 0.04076735 10 
343 653 1205 0.04381296 10 
344 1050 1210 0.04064903 10 
345 1061 1210 0.04125763 10 
346 1075 1210 0.04217794 10 
347 1084 1210 0.04158487 10 
348 1088 1210 0.04155946 10 
349 1093 1210 0.04155667 10 
350 1098 1210 0.04156590 10 
351 157 1217 0.04108957 10 
352 163 1217 0.04179464 10 
353 1029 1217 0.04486610 10 
354 1044 1217 0.04769575 10 
355 1050 1217 0.04288624 10 
356 1056 1217 0.04242958 10 
