VERTEX2 0 -0.00037797 -0.00000369 -0.00000985
VERTEX2 1 -0.00038063 -0.00000378 -0.00065196
VERTEX2 2 -0.00038328 -0.00000386 -0.00119007
VERTEX2 3 0.01061619 -0.00097874 -0.00357218
VERTEX2 4 0.64062005 -0.01121039 -0.00745428
VERTEX2 5 0.69562510 -0.01172642 -0.09873641
VERTEX2 6 0.69987817 -0.01544578 -0.89600873
VERTEX2 7 0.69356627 0.00420081 -1.51154600
VERTEX2 8 0.69887256 0.02667807 -2.12508027
VERTEX2 9 0.71572096 0.04110430 -2.76315054
VERTEX2 10 0.72858444 0.04320105 2.90550350
VERTEX2 11 0.73280646 0.04051829 2.23122421
VERTEX2 12 0.73278924 0.04152377 1.58174994
VERTEX2 13 0.73835450 0.05904528 0.92225166
VERTEX2 14 0.75925701 0.07372298 0.31401239
VERTEX2 15 0.78689208 0.07560816 -0.21053384
VERTEX2 16 1.11245628 0.00857415 -0.22898516
VERTEX2 17 1.74638078 -0.14829325 -0.25982671
VERTEX2 18 2.40306618 -0.32182458 -0.26949506
VERTEX2 19 3.06530126 -0.53167761 -0.31737713
VERTEX2 20 3.71357904 -0.74341603 -0.30595744
VERTEX2 21 4.37245508 -0.90872784 -0.18714198
VERTEX2 22 5.03102139 -1.05679355 -0.16337751
VERTEX2 23 5.70109072 -1.09479276 -0.04783205
VERTEX2 24 6.36843421 -1.15616354 -0.09729580
VERTEX2 25 7.03831609 -1.20859590 -0.08718219
VERTEX2 26 7.67481127 -1.28785104 -0.12575493
VERTEX2 27 8.31684187 -1.35590435 -0.10785592
VERTEX2 28 8.92634328 -1.43187451 -0.11009960
VERTEX2 29 9.33051150 -1.47350671 -0.07687874
VERTEX2 30 9.36928098 -1.48156577 -0.60357707
VERTEX2 31 9.51951582 -1.66040900 -0.86816743
VERTEX2 32 9.95872468 -2.20269309 -0.88417731
VERTEX2 33 10.40945644 -2.73281751 -0.82869118
VERTEX2 34 10.88953894 -3.23710688 -0.80293968
VERTEX2 35 11.38086510 -3.72855387 -0.76353564
VERTEX2 36 11.88103963 -4.21747750 -0.76697251
VERTEX2 37 12.22499626 -4.54442547 -0.75390749
VERTEX2 38 12.26371001 -4.58753039 -1.06637337
VERTEX2 39 12.29202974 -4.67170315 -1.23005805
VERTEX2 40 12.52635412 -5.31586761 -1.20704162
VERTEX2 41 12.77241360 -5.98341619 -1.23295631
VERTEX2 42 12.98926351 -6.61934158 -1.24949853
VERTEX2 43 13.19539019 -7.29109345 -1.28309390
VERTEX2 44 13.38716142 -7.96561449 -1.31329764
VERTEX2 45 13.54508518 -8.64634767 -1.36620369
VERTEX2 46 13.67849402 -9.33263869 -1.38317071
VERTEX2 47 13.80150846 -10.02020383 -1.42234089
VERTEX2 48 13.90077050 -10.71552857 -1.42657563
VERTEX2 49 13.99687869 -11.40722453 -1.47491716
VERTEX2 50 14.03840817 -12.07343144 -1.51699678
VERTEX2 51 14.07657634 -12.74013723 -1.54492752
VERTEX2 52 14.06711146 -13.40473085 -1.62022828
VERTEX2 53 14.05111994 -14.04529746 -1.60647584
VERTEX2 54 14.01325429 -14.64493642 -1.66687140
VERTEX2 55 14.01131312 -14.68801745 -1.66010019
VERTEX2 56 14.00396594 -14.76871227 -1.64802485
VERTEX2 57 13.95362443 -15.47903979 -1.65775778
VERTEX2 58 13.89942868 -16.17875796 -1.60958596
VERTEX2 59 13.86577434 -16.87390200 -1.63114062
VERTEX2 60 13.83216461 -17.56580322 -1.60757465
VERTEX2 61 13.79370259 -18.25980937 -1.65583884
VERTEX2 62 13.74965968 -18.91952550 -1.61542238
VERTEX2 63 13.70529906 -19.58446424 -1.65126315
VERTEX2 64 13.67793481 -20.24999993 -1.58921766
VERTEX2 65 13.64983407 -20.91390205 -1.64293699
VERTEX2 66 13.60671842 -21.60532746 -1.65406012
VERTEX2 67 13.54976078 -22.29716073 -1.65667388
VERTEX2 68 13.50834147 -22.82678516 -1.67395040
VERTEX2 69 13.50017791 -22.88478847 -1.83085230
VERTEX2 70 13.48410041 -22.93217345 -2.50942707
VERTEX2 71 13.50101660 -22.92856572 3.12707066
VERTEX2 72 13.52410137 -22.93033210 3.11613087
VERTEX2 73 13.54761953 -22.93257107 3.04956879
VERTEX2 74 13.58293646 -22.94957524 2.42391421
VERTEX2 75 13.61439580 -22.95698782 2.06894363
VERTEX2 76 13.64128064 -22.97940773 2.75870480
VERTEX2 77 13.66264576 -22.98501934 2.98953135
VERTEX2 78 13.38181772 -23.03452828 -2.95920039
VERTEX2 79 12.76980922 -23.15795948 -2.96618156
VERTEX2 80 12.14320664 -23.24144693 -3.04290842
VERTEX2 81 11.52376740 -23.29735877 -3.07112767
VERTEX2 82 10.90120662 -23.32156485 -3.12121423
VERTEX2 83 10.28247354 -23.33585145 -3.14020425
VERTEX2 84 9.66471179 -23.31143274 3.07125618
VERTEX2 85 9.04985150 -23.26642308 3.08494548
VERTEX2 86 8.34948766 -23.20973737 3.00449258
VERTEX2 87 7.77608658 -23.11490289 2.96581843
VERTEX2 88 7.44907100 -23.05614949 2.94008457
VERTEX2 89 7.44053363 -23.05736124 -2.93919534
VERTEX2 90 6.81980639 -23.18480950 -2.96677463
VERTEX2 91 6.19009698 -23.30831094 -2.91467456
VERTEX2 92 5.57660768 -23.43031148 -3.02773250
VERTEX2 93 4.95516737 -23.45625419 -3.12680813
VERTEX2 94 4.33824714 -23.44852559 3.11455122
VERTEX2 95 3.71275344 -23.49057884 -3.03249660
VERTEX2 96 3.09493986 -23.56340311 -3.01419913
VERTEX2 97 2.49884039 -23.61626128 -3.09188321
VERTEX2 98 1.90960606 -23.62660623 3.12579104
VERTEX2 99 1.20216183 -23.63236789 -3.11858733
VERTEX2 100 0.63950421 -23.62260016 3.10397162
VERTEX2 101 0.01917698 -23.66752460 -3.08639961
VERTEX2 102 -0.60616529 -23.68088909 3.09942706
VERTEX2 103 -1.22236546 -23.66443923 -3.07990129
VERTEX2 104 -1.84576979 -23.69151685 -3.10781927
VERTEX2 105 -2.47051611 -23.73423550 -3.05568833
VERTEX2 106 -3.08351940 -23.77223922 -3.10572766
VERTEX2 107 -3.71004067 -23.79032397 -3.10577293
VERTEX2 108 -4.10917024 -23.81801224 -3.05050515
VERTEX2 109 -4.09557279 -23.81921590 2.77228160
VERTEX2 110 -4.06802450 -23.84029749 2.16663853
VERTEX2 111 -4.07584631 -23.78796777 1.64804073
VERTEX2 112 -4.12917729 -23.18156210 1.69648913
VERTEX2 113 -4.21722353 -22.59496827 1.73780232
VERTEX2 114 -4.31474059 -22.01917339 1.76914551
VERTEX2 115 -4.45018920 -21.44709999 1.82141931
VERTEX2 116 -4.63812998 -20.76524434 1.85742057
VERTEX2 117 -4.82115786 -20.21674117 1.94373368
VERTEX2 118 -4.81353225 -20.24097788 1.59480216
VERTEX2 119 -4.80027311 -19.79352044 1.53264268
VERTEX2 120 -4.79454213 -19.20658968 1.61321290
VERTEX2 121 -4.83808823 -18.65276726 1.67131431
VERTEX2 122 -4.89923871 -18.09944473 1.71796179
VERTEX2 123 -4.92755518 -17.94226066 1.69613086
VERTEX2 124 -4.86366613 -17.74670336 1.25375501
VERTEX2 125 -4.67018621 -17.19621868 1.23361880
VERTEX2 126 -4.54875249 -16.61887205 1.42668515
VERTEX2 127 -4.45976230 -16.03795223 1.42093698
VERTEX2 128 -4.38828936 -15.44644236 1.45233660
VERTEX2 129 -4.30416772 -14.86225350 1.41403972
VERTEX2 130 -4.23382176 -14.27440264 1.46026793
VERTEX2 131 -4.17982743 -13.68519418 1.54110825
VERTEX2 132 -4.14784638 -13.09550633 1.48352454
VERTEX2 133 -4.08591402 -12.56622056 1.43902192
VERTEX2 134 -4.01266522 -12.00963595 1.41264756
VERTEX2 135 -3.91136101 -11.48643700 1.37736952
VERTEX2 136 -3.80890463 -10.90002770 1.38737349
VERTEX2 137 -3.68198114 -10.32560581 1.33387182
VERTEX2 138 -3.56692310 -9.74238343 1.40032972
VERTEX2 139 -3.48844195 -9.17169552 1.46337009
VERTEX2 140 -3.44700806 -8.57379432 1.49185035
VERTEX2 141 -3.38565814 -7.99266956 1.44136875
VERTEX2 142 -3.31674843 -7.40235975 1.43573011
VERTEX2 143 -3.17289379 -6.82764629 1.32306692
VERTEX2 144 -3.10062947 -6.51413859 1.33888043
VERTEX2 145 -3.11169460 -6.53754889 0.83671863
VERTEX2 146 -3.12435625 -6.57575132 0.23921910
VERTEX2 147 -3.03643800 -6.59339075 -0.25099624
VERTEX2 148 -2.58056240 -6.72023109 -0.28832780
VERTEX2 149 -1.92229655 -6.91042295 -0.26471216
VERTEX2 150 -1.26837656 -7.06960255 -0.25185496
VERTEX2 151 -0.60786929 -7.21226479 -0.16749861
VERTEX2 152 0.05378205 -7.34183643 -0.23652798
VERTEX2 153 0.71494862 -7.47402828 -0.15151821
VERTEX2 154 1.37352717 -7.59873958 -0.22929444
VERTEX2 155 2.03309520 -7.74281241 -0.20321009
VERTEX2 156 2.69738607 -7.87183085 -0.17973781
VERTEX2 157 3.29820247 -7.99826061 -0.25216658
VERTEX2 158 3.51293166 -8.05427957 -0.22309054
VERTEX2 159 3.54945744 -8.07365597 0.77029992
VERTEX2 160 3.34967750 -8.50742437 2.38852425
VERTEX2 161 4.45426345 -11.04723804 -2.43344696
VERTEX2 162 4.46445006 -12.87192505 -0.97213582
VERTEX2 163 7.22247221 -12.86664481 0.43198759
VERTEX2 164 7.17101273 -13.00940973 1.75641142
VERTEX2 165 8.87023827 -15.18151718 2.34571070
VERTEX2 166 8.30387431 -14.57492031 2.33531086
VERTEX2 167 7.75827487 -13.96352218 2.29802763
VERTEX2 168 7.23375531 -13.36571418 2.30396763
VERTEX2 169 6.71717063 -12.72546704 2.26236183
VERTEX2 170 6.20635406 -12.09187147 2.23882359
VERTEX2 171 5.73019142 -11.42594170 2.19915502
VERTEX2 172 5.21781004 -10.70824844 2.21360662
VERTEX2 173 4.83474736 -10.16311000 2.19278103
VERTEX2 174 4.44950538 -9.62731708 2.23546316
VERTEX2 175 4.05512575 -9.12074655 2.21357963
VERTEX2 176 3.68908308 -8.59924061 2.22635996
VERTEX2 177 3.29457756 -8.07959168 2.20234840
VERTEX2 178 2.92550020 -7.52349983 2.16748473
VERTEX2 179 2.71363967 -7.22750843 2.22024420
VERTEX2 180 2.70783479 -7.21836965 1.77720879
VERTEX2 181 2.60187414 -6.68079816 1.72523316
VERTEX2 182 2.54911256 -6.12331297 1.55138070
VERTEX2 183 2.58571676 -5.54125574 1.49452547
VERTEX2 184 2.67936306 -4.97962774 1.34973157
VERTEX2 185 2.82666188 -4.42815535 1.25904457
VERTEX2 186 3.04298409 -3.88395689 1.19476096
VERTEX2 187 3.26149935 -3.36946853 1.17435591
VERTEX2 188 3.48735895 -2.83579423 1.17137520
VERTEX2 189 3.72043744 -2.30230198 1.14748445
VERTEX2 190 3.98374482 -1.75596785 1.11670292
VERTEX2 191 4.25635250 -1.21495245 1.09119709
VERTEX2 192 4.54114567 -0.68734831 1.06197018
VERTEX2 193 4.81817707 -0.21093924 1.00590552
VERTEX2 194 5.13223534 0.27259909 0.97939710
VERTEX2 195 5.46138167 0.74502422 0.95164597
VERTEX2 196 5.82890587 1.24681446 0.90873923
VERTEX2 197 6.21706870 1.72724963 0.87931898
VERTEX2 198 6.61429695 2.19713641 0.81923330
VERTEX2 199 7.04728065 2.62558804 0.75604202
VERTEX2 200 7.49263561 3.03757742 0.73265779
VERTEX2 201 7.95523845 3.43145863 0.67453282
VERTEX2 202 8.34523649 3.75361566 0.69167548
VERTEX2 203 8.92449606 4.21428027 0.63611766
VERTEX2 204 9.40238876 4.54271207 0.53253280
VERTEX2 205 9.91467080 4.83313235 0.52212053
VERTEX2 206 10.40391026 5.12171944 0.52341116
VERTEX2 207 10.91147041 5.42024741 0.53912152
VERTEX2 208 11.45270585 5.73301150 0.52986381
VERTEX2 209 11.98506169 6.05363135 0.56874972
VERTEX2 210 12.50593184 6.37029269 0.55874398
VERTEX2 211 13.01920005 6.69833067 0.55994625
VERTEX2 212 13.54650963 7.00006825 0.50595793
VERTEX2 213 14.09057266 7.29140491 0.48418491
VERTEX2 214 14.62925913 7.56920650 0.47947828
VERTEX2 215 14.93170512 7.72167021 0.44275091
VERTEX2 216 14.91092787 7.71569771 -0.05831580
VERTEX2 217 14.90545370 7.71993290 -0.60304043
VERTEX2 218 14.91035110 7.70947674 -0.66000731
VERTEX2 219 15.30063861 7.26983996 -0.82970606
VERTEX2 220 15.72097018 6.80019675 -0.87044741
VERTEX2 221 16.15244391 6.29688822 -0.82125072
VERTEX2 222 16.59378936 5.81637679 -0.84841818
VERTEX2 223 17.04658251 5.34256856 -0.75438283
VERTEX2 224 17.51671327 4.89389439 -0.78256861
VERTEX2 225 17.98297133 4.43754559 -0.73577707
VERTEX2 226 18.44690809 3.97979178 -0.78821232
VERTEX2 227 18.93145656 3.58502425 -0.63327357
VERTEX2 228 19.28621687 3.19920444 -0.99635237
VERTEX2 229 19.59144005 2.81036529 -0.87555926
VERTEX2 230 19.78117562 2.59591960 -0.90496736
VERTEX2 231 19.64305845 2.76035454 -0.83585570
VERTEX2 232 19.78675089 2.37857104 -1.25212187
VERTEX2 233 20.02768903 1.73469323 -1.14435640
VERTEX2 234 20.30697108 1.11145690 -1.18371487
VERTEX2 235 20.43621745 0.80113257 -1.18423722
VERTEX2 236 20.71494940 0.53506218 -0.76854111
VERTEX2 237 21.21671710 0.08330025 -0.69261433
VERTEX2 238 21.73717315 -0.33190527 -0.72020162
VERTEX2 239 22.22304769 -0.78521703 -0.78211349
VERTEX2 240 22.59855102 -1.30329110 -0.99233499
VERTEX2 241 22.94550740 -1.80970410 -0.90054524
VERTEX2 242 23.35912479 -2.29606928 -0.87348697
VERTEX2 243 23.77718978 -2.82608572 -0.88421999
VERTEX2 244 24.21958854 -3.32568020 -0.82220653
VERTEX2 245 24.65005909 -3.82563145 -0.88412920
VERTEX2 246 25.05254126 -4.36638182 -0.96318842
VERTEX2 247 25.45397144 -4.90492829 -0.86283702
VERTEX2 248 25.85654858 -5.33405572 -0.83746780
VERTEX2 249 25.85164455 -5.32746211 -0.65294536
VERTEX2 250 25.87291969 -5.34880891 -1.25879831
VERTEX2 251 25.84589973 -5.88903941 -1.69574957
VERTEX2 252 25.77206094 -6.50514884 -1.69288002
VERTEX2 253 25.68621424 -7.15025366 -1.70965376
VERTEX2 254 25.58167215 -7.79856126 -1.75698256
VERTEX2 255 25.56601485 -7.88749231 -1.68144486
VERTEX2 256 25.53602202 -7.91550060 -2.17995090
VERTEX2 257 25.14056005 -8.36812017 -2.27861170
VERTEX2 258 24.71896251 -8.89215973 -2.18654388
VERTEX2 259 24.34360650 -9.45979705 -2.14728830
VERTEX2 260 23.99306057 -9.98954291 -2.15708042
VERTEX2 261 23.93272212 -10.03901769 -2.47092999
VERTEX2 262 23.38240634 -10.45978023 -2.46585760
VERTEX2 263 22.86918980 -10.87422337 -2.45421388
VERTEX2 264 22.38228201 -11.30193109 -2.35952078
VERTEX2 265 21.92510837 -11.76818028 -2.34158663
VERTEX2 266 21.43510984 -12.14694617 -2.47376605
VERTEX2 267 20.80708601 -12.63397825 -2.51244072
VERTEX2 268 20.22070257 -12.95731164 -2.63350698
VERTEX2 269 19.63371927 -13.29045025 -2.61208120
VERTEX2 270 19.07211214 -13.66263300 -2.50793228
VERTEX2 271 18.49124657 -14.00988025 -2.62833072
VERTEX2 272 17.91115613 -14.36168335 -2.57157455
VERTEX2 273 17.39340728 -14.79970894 -2.36589762
VERTEX2 274 16.91346365 -15.28358608 -2.34690265
VERTEX2 275 16.39817800 -15.67936169 -2.52568933
VERTEX2 276 15.88328166 -16.07579762 -2.41817849
VERTEX2 277 15.42424416 -16.49712741 -2.45019388
VERTEX2 278 14.86233368 -16.87092563 -2.54682629
VERTEX2 279 14.29428301 -17.24065202 -2.60232859
VERTEX2 280 13.71484886 -17.58158841 -2.60056293
VERTEX2 281 13.12164500 -17.90344057 -2.70153527
VERTEX2 282 12.51779968 -18.19502276 -2.66231097
VERTEX2 283 11.92621294 -18.51939560 -2.67088548
VERTEX2 284 11.32946697 -18.81461639 -2.64465626
VERTEX2 285 10.74429623 -19.15678498 -2.62971887
VERTEX2 286 10.17999186 -19.47929546 -2.58268080
VERTEX2 287 10.11561113 -19.51990466 -2.69444382
VERTEX2 288 10.08849920 -19.52266750 2.96376734
VERTEX2 289 10.07834518 -19.51730970 2.35424923
VERTEX2 290 9.84716656 -19.14870733 2.11996179
VERTEX2 291 9.42335658 -18.49582937 2.11437463
VERTEX2 292 9.03689989 -17.85104569 2.04103264
VERTEX2 293 8.69418098 -17.19679701 1.99898935
VERTEX2 294 8.37783717 -16.54583797 1.98026137
VERTEX2 295 8.11169397 -15.89760320 1.84210553
VERTEX2 296 7.94009690 -15.26519691 1.77266335
VERTEX2 297 7.79383362 -14.64119249 1.73720656
VERTEX2 298 7.70011563 -14.25796890 1.71935651
VERTEX2 299 7.62990785 -13.92518621 1.76016934
VERTEX2 300 7.47770598 -13.27363369 1.80940625
VERTEX2 301 7.34452440 -12.63836870 1.75769526
VERTEX2 302 7.27472222 -12.25552957 1.74387040
VERTEX2 303 7.26678176 -12.19277660 1.75499185
VERTEX2 304 7.16199878 -11.60830335 1.77183991
VERTEX2 305 6.93632807 -10.96495367 1.96625870
VERTEX2 306 6.74064098 -10.52338609 1.95900373
VERTEX2 307 6.56358374 -10.06634593 1.93330448
VERTEX2 308 6.39715230 -9.61753742 1.88891535
VERTEX2 309 6.22020022 -9.16371723 1.99379202
VERTEX2 310 6.01808979 -8.72510788 1.96823698
VERTEX2 311 5.96714804 -8.60154710 2.15675026
VERTEX2 312 6.02618041 -8.63798130 -3.09804036
VERTEX2 313 5.73992927 -8.80222627 -2.58033890
VERTEX2 314 5.12107248 -9.22460539 -2.53056226
VERTEX2 315 4.51027332 -9.66342020 -2.52612660
VERTEX2 316 3.90352368 -10.12319062 -2.46810943
VERTEX2 317 3.31286822 -10.60874551 -2.45243250
VERTEX2 318 2.74872196 -11.13639739 -2.35163003
VERTEX2 319 2.41510784 -11.49869575 -2.27454405
VERTEX2 320 2.34656978 -11.51994118 -1.28674974
VERTEX2 321 2.41820924 -11.56233265 -0.22628298
VERTEX2 322 2.37314683 -11.57127005 0.78986010
VERTEX2 323 2.35827047 -11.72830737 1.80206097
VERTEX2 324 2.41288531 -11.86752628 2.47568263
VERTEX2 325 2.49010764 -11.94535533 1.95969698
VERTEX2 326 2.50094854 -12.09579947 1.37734207
VERTEX2 327 2.42337969 -12.20175396 0.76726028
VERTEX2 328 2.81577923 -11.87017505 0.72655244
VERTEX2 329 3.28222365 -11.46801242 0.66343246
VERTEX2 330 3.76328271 -11.10101911 0.63662809
VERTEX2 331 4.24816624 -10.73704296 0.61454245
VERTEX2 332 4.74816874 -10.39666749 0.58809959
VERTEX2 333 4.86684995 -10.31893951 0.64449045
VERTEX2 334 4.84343834 -10.30539081 1.66925067
VERTEX2 335 4.81578815 -10.26881273 2.63542600
VERTEX2 336 4.77386994 -10.25464566 -2.73022340
VERTEX2 337 4.74209074 -10.28281077 -1.77574495
VERTEX2 338 4.73634185 -10.26063321 -0.79667524
VERTEX2 339 4.72326952 -10.25854000 0.24218776
VERTEX2 340 4.73820656 -10.23457273 1.25123158
VERTEX2 341 4.69241669 -10.08348108 1.87801114
VERTEX2 342 4.46726218 -9.44841338 1.97701775
VERTEX2 343 4.16279835 -8.86684937 2.11627560
VERTEX2 344 3.83573654 -8.29974987 2.11343388
VERTEX2 345 3.68765487 -8.05890660 2.09359928
VERTEX2 346 3.67604586 -8.03950147 1.46601920
VERTEX2 347 3.82871086 -7.84705987 0.92504391
VERTEX2 348 4.28556544 -7.25538268 0.91594364
VERTEX2 349 4.77641975 -6.65360805 0.88373649
VERTEX2 350 5.37832358 -5.92479443 0.87191022
VERTEX2 351 5.66170567 -5.59945512 0.85092728
VERTEX2 352 5.78761431 -5.49096781 0.57567384
VERTEX2 353 5.93755743 -5.45278087 -0.06800797
VERTEX2 354 6.01664558 -5.48069632 -0.65136750
VERTEX2 355 6.05557034 -5.50420434 -1.34940007
VERTEX2 356 6.06233699 -5.40059936 -1.90538954
VERTEX2 357 6.15477097 -5.29638985 -2.53714416
VERTEX2 358 6.28652018 -5.23828865 -3.13223911
VERTEX2 359 6.23834837 -5.23145262 2.51680009
VERTEX2 360 6.34758055 -5.33519002 2.32990284
VERTEX2 361 6.35567671 -5.33816268 -3.06175901
VERTEX2 362 5.93999181 -5.63188632 -2.54659862
VERTEX2 363 5.48635045 -5.93241342 -2.56160640
VERTEX2 364 5.20675911 -6.53763692 -1.96956519
VERTEX2 365 4.92743209 -7.08653451 -2.48644134
VERTEX2 366 4.61548141 -7.13959261 -3.06275430
VERTEX2 367 3.87041710 -7.20627375 -3.07096455
VERTEX2 368 3.21925886 -7.23966384 -3.12178375
VERTEX2 369 3.16774317 -7.24807432 2.90524729
VERTEX2 370 3.14044644 -7.23080622 2.31080214
VERTEX2 371 3.14025838 -7.23027204 1.75820994
VERTEX2 372 3.05677574 -6.69548448 1.72776073
VERTEX2 373 2.95345232 -6.11865827 1.72709239
VERTEX2 374 2.87235083 -5.51000994 1.66286577
VERTEX2 375 2.82547610 -5.04528257 1.62843644
VERTEX2 376 2.82561193 -5.04583827 2.31153652
VERTEX2 377 2.76932385 -5.03805745 2.99512134
VERTEX2 378 2.11231000 -4.95491969 3.04424390
VERTEX2 379 1.47190625 -4.93090283 3.12365773
VERTEX2 380 0.83355130 -4.95774262 -3.04596109
VERTEX2 381 0.60420298 -4.98332539 -2.90216271
VERTEX2 382 0.60033481 -4.98446373 -1.87165896
VERTEX2 383 0.60321337 -4.99692938 -0.87502213
VERTEX2 384 0.59641690 -4.99680580 0.09826875
VERTEX2 385 0.59296766 -4.99784359 1.13855923
VERTEX2 386 0.61061314 -4.84190783 1.36726127
VERTEX2 387 0.57422571 -4.23417743 1.70341156
VERTEX2 388 0.48226324 -3.65497597 1.70207522
VERTEX2 389 0.42697584 -3.08098064 1.60783455
VERTEX2 390 0.42537324 -3.06504353 2.06045053
VERTEX2 391 0.53151892 -3.18341741 2.42071016
VERTEX2 392 0.54663749 -3.19937085 -2.86453701
VERTEX2 393 0.47868631 -3.25685111 -1.66575843
VERTEX2 394 0.49379358 -3.30790599 -0.71466026
VERTEX2 395 0.26729998 -3.20536246 -0.39649978
VERTEX2 396 0.26100897 -3.20455210 -0.40722656
VERTEX2 397 0.27203445 -3.21409992 -0.42904457
VERTEX2 398 0.26125521 -3.21127647 -0.24711432
VERTEX2 399 0.33505968 -3.21048115 0.03389279
VERTEX2 400 0.93949491 -3.18650445 0.07241459
VERTEX2 401 1.54907597 -3.16699057 -0.02235188
VERTEX2 402 2.15364578 -3.29620280 -0.29258401
VERTEX2 403 2.73843476 -3.47860297 -0.32872588
VERTEX2 404 3.27524862 -3.67968722 -0.41002698
VERTEX2 405 3.25740871 -3.67509099 0.11923442
VERTEX2 406 3.23051362 -3.69774535 1.08983829
VERTEX2 407 3.35192611 -3.38063229 1.21527054
VERTEX2 408 3.56399141 -2.82603262 1.17497038
VERTEX2 409 3.67654228 -2.57625236 1.07271823
VERTEX2 410 3.66026405 -2.59382248 0.43902302
VERTEX2 411 3.63157534 -2.60393930 -0.15582502
VERTEX2 412 4.13645860 -2.78335345 -0.36197593
VERTEX2 413 4.70225186 -3.02020737 -0.44409022
VERTEX2 414 5.26511092 -3.26939561 -0.34297804
VERTEX2 415 5.87430834 -3.49523827 -0.33559872
VERTEX2 416 6.17251924 -3.59063089 -0.39038700
VERTEX2 417 6.38220897 -3.79899007 -0.81405621
VERTEX2 418 6.68319543 -4.12538323 -0.85879067
VERTEX2 419 6.68146020 -4.12442289 -0.42697843
VERTEX2 420 6.62542855 -4.10650238 -0.21022401
VERTEX2 421 6.61708378 -4.10892261 0.75902623
VERTEX2 422 6.61923270 -4.10843084 2.00031022
VERTEX2 423 6.61948216 -4.10869549 2.34666099
VERTEX2 424 6.62347889 -4.11259628 2.34761162
VERTEX2 425 6.63172015 -4.11439722 2.35993353
VERTEX2 426 6.63580697 -4.11828584 2.35140010
VERTEX2 427 6.61668486 -4.09932505 2.35510282
VERTEX2 428 6.14085242 -3.64633695 2.35013519
VERTEX2 429 5.69683641 -3.18454784 2.30986247
VERTEX2 430 5.47301508 -2.93113639 2.26425905
VERTEX2 431 5.49183282 -2.95248378 2.31667275
VERTEX2 432 5.48895545 -2.94724136 1.68582832
VERTEX2 433 5.48906955 -2.94611488 1.00944502
VERTEX2 434 5.87004529 -2.57467074 0.78176539
VERTEX2 435 6.31710533 -2.12308472 0.75383548
VERTEX2 436 6.79614970 -1.70358285 0.74543080
VERTEX2 437 7.26278257 -1.25993193 0.75376873
VERTEX2 438 7.61710323 -0.94213971 0.72359832
VERTEX2 439 7.62474923 -0.93713078 0.28833072
VERTEX2 440 7.60959801 -0.93618245 -0.35392011
VERTEX2 441 7.58588392 -0.91885851 -0.97506903
VERTEX2 442 7.57802886 -0.89684150 -1.60356900
VERTEX2 443 7.58351585 -0.88997666 -2.16962621
VERTEX2 444 7.57371195 -0.89739132 -2.76030773
VERTEX2 445 7.56103985 -0.89777788 2.86561352
VERTEX2 446 7.55475466 -0.89658885 3.06758135
VERTEX2 447 7.53046519 -0.90567807 -2.58327104
VERTEX2 448 7.00346954 -1.26270630 -2.56578559
VERTEX2 449 6.47955298 -1.64150290 -2.46444505
VERTEX2 450 5.98436987 -2.04609338 -2.45073315
VERTEX2 451 5.63201551 -2.35517276 -2.40816290
VERTEX2 452 5.63484261 -2.35256267 -2.78638159
VERTEX2 453 5.63998368 -2.35082088 2.87429664
VERTEX2 454 5.42398791 -2.18210203 2.45204636
VERTEX2 455 4.97209823 -1.80297355 2.43191357
VERTEX2 456 4.50865757 -1.38706467 2.36777592
VERTEX2 457 4.26890652 -1.13932183 2.28052046
VERTEX2 458 4.27487062 -1.15453288 1.63570949
VERTEX2 459 4.25408634 -1.19307228 1.02855288
VERTEX2 460 4.53298683 -0.91580823 0.77221791
VERTEX2 461 4.99391340 -0.50851151 0.68481311
VERTEX2 462 5.39690844 -0.19231317 0.64532091
VERTEX2 463 5.37250132 -0.20164804 1.48720930
VERTEX2 464 5.23675680 0.01426634 2.16663960
VERTEX2 465 4.89689744 0.49467474 2.17485388
VERTEX2 466 4.59128123 0.96799659 2.11971899
VERTEX2 467 4.29261059 1.47523041 2.07674440
VERTEX2 468 3.98036928 2.04777592 2.04126533
VERTEX2 469 3.71696105 2.64010655 1.95839828
VERTEX2 470 3.52261674 3.10351539 1.97736355
VERTEX2 471 3.51941314 3.11246679 1.77768887
VERTEX2 472 3.52266449 3.14224838 1.14543939
VERTEX2 473 3.52683900 3.14936859 0.50526860
VERTEX2 474 3.53063339 3.15000957 -0.12565340
VERTEX2 475 3.52948410 3.15078812 -0.69969534
VERTEX2 476 3.52839524 3.15207193 -1.35119521
VERTEX2 477 3.53105033 3.16202752 -1.91097961
VERTEX2 478 3.53767920 3.17061803 -2.53831804
VERTEX2 479 3.54113765 3.17218782 -2.99284427
VERTEX2 480 3.54163619 3.17240572 -2.43108036
VERTEX2 481 3.53419746 3.15902617 -1.42950092
VERTEX2 482 3.53231964 3.16288089 -1.09359453
VERTEX2 483 3.52927413 3.16868826 -1.09911640
VERTEX2 484 3.73894410 2.76491454 -1.06374654
VERTEX2 485 4.05541981 2.22322126 -1.06640145
VERTEX2 486 4.35753667 1.66190734 -1.05722413
VERTEX2 487 4.68826002 1.11915791 -1.02931745
VERTEX2 488 5.01921372 0.57335205 -0.99358000
VERTEX2 489 5.29457794 0.17743523 -0.96353562
VERTEX2 490 5.29132057 0.17987368 -0.47921269
VERTEX2 491 5.28130539 0.17803163 0.45556841
VERTEX2 492 5.45035994 0.33791762 0.75799849
VERTEX2 493 5.90544211 0.74318322 0.70254628
VERTEX2 494 6.38441235 1.13642499 0.64122199
VERTEX2 495 6.85322141 1.54649940 0.74733256
VERTEX2 496 7.30497275 1.97424135 0.86394255
VERTEX2 497 7.72609853 2.42174842 0.77682061
VERTEX2 498 8.19494633 2.82951251 0.67386831
VERTEX2 499 8.71281073 3.19845475 0.65585255
VERTEX2 500 9.05394410 3.65169007 0.98307866
VERTEX2 501 9.39253285 4.12469272 0.91009694
VERTEX2 502 9.84798470 4.64833646 0.82471764
VERTEX2 503 10.15495467 4.97060027 0.80689926
VERTEX2 504 10.14573171 4.96579455 1.66737457
VERTEX2 505 9.99100557 5.14610088 2.28970643
VERTEX2 506 9.61634494 5.60355315 2.13628814
VERTEX2 507 9.30942489 6.11778795 2.05691508
VERTEX2 508 9.03988094 6.65414000 2.04287267
VERTEX2 509 8.74643748 7.24517265 1.98644225
VERTEX2 510 8.59514277 7.60228430 1.97204005
VERTEX2 511 8.58371044 7.58719899 2.84743394
VERTEX2 512 8.54138142 7.57038036 -2.23587729
VERTEX2 513 8.53603445 7.55843451 -1.28010643
VERTEX2 514 8.57381263 7.49669542 -1.05443413
VERTEX2 515 8.89857587 6.94705389 -1.05379990
VERTEX2 516 9.19547816 6.40491434 -1.03838023
VERTEX2 517 9.52919844 5.89110733 -1.01066342
VERTEX2 518 9.86026454 5.37508032 -0.98678166
VERTEX2 519 10.15813724 4.92705543 -1.00293153
VERTEX2 520 10.25221789 4.77857139 -0.60515927
VERTEX2 521 10.22127177 4.77603069 0.39850782
VERTEX2 522 10.53682955 5.01848362 0.66220277
VERTEX2 523 11.02306675 5.39727529 0.65256198
VERTEX2 524 11.49009991 5.73600007 0.60866828
VERTEX2 525 11.93624349 6.05158030 0.63089404
VERTEX2 526 12.41153647 6.37793798 0.57095841
VERTEX2 527 12.92239434 6.69233314 0.53547346
VERTEX2 528 13.45696009 6.97695028 0.45916525
VERTEX2 529 14.02041968 7.25945669 0.42966424
VERTEX2 530 14.61189844 7.51720269 0.39866110
VERTEX2 531 15.20688659 7.74303376 0.31814841
VERTEX2 532 15.41160553 7.81082991 0.36818649
VERTEX2 533 15.39917440 7.79086571 1.37124154
VERTEX2 534 15.39947232 7.78955588 2.04048606
VERTEX2 535 15.39619449 7.79320894 2.04089994
VERTEX2 536 15.19288863 8.10152414 2.17258784
VERTEX2 537 14.85152966 8.62774971 2.11538846
VERTEX2 538 14.55853578 9.13631795 2.08898416
VERTEX2 539 14.25771782 9.70607580 2.02493419
VERTEX2 540 14.00271988 10.29238899 1.93275017
VERTEX2 541 13.72958106 10.86089391 2.09581621
VERTEX2 542 13.36380931 11.39800374 2.15209792
VERTEX2 543 13.29417468 11.50589262 2.12296615
VERTEX2 544 13.27132073 11.52324580 2.76149536
VERTEX2 545 13.21278716 11.50396550 -2.45273266
VERTEX2 546 13.22748784 11.54080149 -1.62372091
VERTEX2 547 13.21557070 11.55032547 -0.59954119
VERTEX2 548 13.18836107 11.55497901 0.32561619
VERTEX2 549 13.17004969 11.53987568 1.13418674
VERTEX2 550 13.14958002 11.51454629 0.65559456
VERTEX2 551 13.11927155 11.50254848 0.03073975
VERTEX2 552 13.08858823 11.51113114 -0.60021861
VERTEX2 553 13.15413862 11.38243134 -1.17614441
VERTEX2 554 13.40288123 10.77614041 -1.21102040
VERTEX2 555 13.64854857 10.18539605 -1.12144818
VERTEX2 556 13.95021800 9.62139321 -0.98553400
VERTEX2 557 14.28896578 9.08733279 -1.02984111
VERTEX2 558 14.61770129 8.57816257 -0.95223333
VERTEX2 559 14.61726022 8.57897461 -1.36503686
VERTEX2 560 14.61752807 8.57146901 -1.87263610
VERTEX2 561 14.61870615 8.54708775 -1.37406580
VERTEX2 562 14.76290280 8.41149136 -0.73859359
VERTEX2 563 15.13067786 7.94927352 -0.93478942
VERTEX2 564 15.51204927 7.45222558 -0.88946888
VERTEX2 565 15.89368265 6.96595672 -0.94986649
VERTEX2 566 15.89491618 6.96380294 -0.17049921
VERTEX2 567 15.90301977 6.95713385 0.65933339
VERTEX2 568 16.32355988 7.31564515 0.70513065
VERTEX2 569 16.77782532 7.70349807 0.65187107
VERTEX2 570 17.24863807 8.07421222 0.64539785
VERTEX2 571 17.53829033 8.28937431 0.59557245
VERTEX2 572 17.54903339 8.28785623 0.34916425
VERTEX2 573 17.61991686 8.31486637 0.62204730
VERTEX2 574 17.63145939 8.37793737 1.55514441
VERTEX2 575 17.59010610 8.45689214 2.54045322
VERTEX2 576 17.59215519 8.44394921 -2.72222114
VERTEX2 577 17.58895639 8.43603603 -1.75690062
VERTEX2 578 17.57997289 8.41808694 -2.12432884
VERTEX2 579 17.23518027 7.87151176 -2.11120828
VERTEX2 580 16.92270072 7.30774726 -2.03832752
VERTEX2 581 16.64200463 6.73236574 -1.99819701
VERTEX2 582 16.38496830 6.14394543 -1.95743924
VERTEX2 583 16.26937832 5.83958870 -1.88068432
VERTEX2 584 16.26760963 5.83371121 -1.04447954
VERTEX2 585 16.60335208 5.30250656 -0.92898613
VERTEX2 586 16.99550986 4.80895195 -0.83420711
VERTEX2 587 17.45323740 4.34214473 -0.81128314
VERTEX2 588 17.90604258 3.85575867 -0.80926736
VERTEX2 589 18.31140625 3.48492257 -0.73615900
VERTEX2 590 18.73675177 3.12002620 -0.66958012
VERTEX2 591 19.17674574 2.78844639 -0.67335631
VERTEX2 592 19.61974098 2.44584872 -0.67786673
VERTEX2 593 19.76817417 2.32846841 -0.47494837
VERTEX2 594 19.75476348 2.32786982 0.49227546
VERTEX2 595 20.23608408 2.68498841 0.72222023
VERTEX2 596 20.68624221 3.09266265 0.69710818
VERTEX2 597 21.20000909 3.51023372 0.65521737
VERTEX2 598 21.65987444 3.85500914 0.61524269
VERTEX2 599 21.95756900 4.05287177 0.55142788
VERTEX2 600 21.94205090 4.03577790 1.36514371
VERTEX2 601 21.94263223 4.03367286 2.39244997
VERTEX2 602 21.92268925 4.04091793 -2.86763517
VERTEX2 603 21.76904077 3.80570359 -2.08824067
VERTEX2 604 21.38803357 3.26981980 -2.32927015
VERTEX2 605 20.94494678 2.77260765 -2.24709794
VERTEX2 606 20.53929813 2.24148265 -2.20545500
VERTEX2 607 20.13196306 1.78995177 -2.28700144
VERTEX2 608 19.87642757 1.47539065 -2.24304087
VERTEX2 609 19.85358101 1.43806600 -1.90756249
VERTEX2 610 19.86967379 1.40894981 -0.97664497
VERTEX2 611 20.23088994 0.88344876 -0.97405687
VERTEX2 612 20.50974910 0.45007361 -0.97159103
VERTEX2 613 20.50306749 0.46087988 -0.50855243
VERTEX2 614 20.49907155 0.46118785 0.52799873
VERTEX2 615 20.79905097 0.81696599 0.83202285
VERTEX2 616 21.19448353 1.27080908 0.78058004
VERTEX2 617 21.68244811 1.61960963 0.56323713
VERTEX2 618 22.19470566 1.94977988 0.57319310
VERTEX2 619 22.67789865 2.25950492 0.57161555
VERTEX2 620 23.18017163 2.55764824 0.47521887
VERTEX2 621 22.84392303 2.38550001 0.42350974
VERTEX2 622 22.55622798 2.26228978 0.34832178
VERTEX2 623 22.53383578 2.25764419 -0.18913260
VERTEX2 624 22.54003186 2.25198476 -0.83217358
VERTEX2 625 22.55337785 2.22478398 -1.49115617
VERTEX2 626 22.55278054 2.18549080 -2.10961009
VERTEX2 627 22.23562055 1.94719827 -2.52072053
VERTEX2 628 21.66649708 1.59192627 -2.62189426
VERTEX2 629 21.10229496 1.23157285 -2.55115372
VERTEX2 630 20.58702436 0.85482331 -2.46644144
VERTEX2 631 20.16532948 0.49997743 -2.44659442
VERTEX2 632 20.13909353 0.47926317 -1.77139897
VERTEX2 633 20.21280979 0.40271693 -0.69729317
VERTEX2 634 20.71835781 -0.02389942 -0.67233118
VERTEX2 635 21.19872058 -0.46421813 -0.80982824
VERTEX2 636 21.64852086 -0.93217922 -0.82898409
VERTEX2 637 22.06212969 -1.43245933 -0.92964659
VERTEX2 638 22.31548707 -1.78876778 -0.96031511
VERTEX2 639 22.71521273 -2.31180244 -0.88136347
VERTEX2 640 23.11257206 -2.84267508 -0.95078292
VERTEX2 641 23.49691157 -3.36533398 -0.96061496
VERTEX2 642 23.84161193 -3.88995248 -1.00771609
VERTEX2 643 24.10666789 -4.34031970 -1.07220727
VERTEX2 644 24.11707140 -4.34657308 -0.30712203
VERTEX2 645 24.28301356 -4.25131561 0.65167729
VERTEX2 646 24.71042250 -3.83263895 0.94996579
VERTEX2 647 24.99815358 -3.30966744 1.24201996
VERTEX2 648 25.13122379 -2.72429601 1.41114518
VERTEX2 649 25.28747384 -2.18321344 1.07753390
VERTEX2 650 25.68679454 -1.72816020 0.82401582
VERTEX2 651 25.75690720 -1.64025698 1.63163380
VERTEX2 652 25.76556734 -1.65265921 2.66750187
VERTEX2 653 25.72799045 -1.66035790 -2.57456476
VERTEX2 654 25.56736890 -1.96158868 -2.05587347
VERTEX2 655 25.28404539 -2.48753157 -2.05865054
VERTEX2 656 24.96836834 -3.04964732 -2.06920289
VERTEX2 657 24.74636055 -3.68639444 -1.78949414
VERTEX2 658 24.60720969 -4.34564781 -1.79592614
VERTEX2 659 24.46091958 -4.85750613 -1.86633972
VERTEX2 660 24.44860114 -4.89597889 -1.26456857
VERTEX2 661 24.62817428 -5.02322601 -0.60931614
VERTEX2 662 25.15184242 -5.38555518 -0.53890579
VERTEX2 663 25.70682190 -5.67488210 -0.43695709
VERTEX2 664 25.72113570 -5.68831979 0.10319835
VERTEX2 665 25.72504307 -5.68302685 0.98480219
VERTEX2 666 26.03678073 -5.18161806 1.02010385
VERTEX2 667 26.31842004 -4.71297982 1.02302732
VERTEX2 668 26.61833628 -4.22263198 1.04706420
VERTEX2 669 26.91958202 -3.69823306 1.02019989
VERTEX2 670 27.26334781 -3.20173038 0.95890135
VERTEX2 671 27.42039456 -2.97630964 1.01211364
VERTEX2 672 27.06465748 -3.47306751 0.92105246
VERTEX2 673 26.87591728 -3.70011358 0.78837236
VERTEX2 674 26.84807066 -3.71053802 0.13552687
VERTEX2 675 26.82795973 -3.70540709 -0.47755843
VERTEX2 676 26.83428282 -3.71503032 -1.10544364
VERTEX2 677 26.83681598 -3.73027847 -1.72578460
VERTEX2 678 26.69895655 -3.93336511 -2.17530827
VERTEX2 679 26.36561202 -4.43758917 -2.11462946
VERTEX2 680 26.17522806 -4.86997774 -1.77286347
VERTEX2 681 26.02600765 -5.50313147 -1.79779666
VERTEX2 682 25.89067405 -6.15772881 -1.74725062
VERTEX2 683 25.83756285 -6.48672911 -1.58447138
VERTEX2 684 25.84782583 -6.51982882 -0.51151741
VERTEX2 685 26.28105246 -6.56478397 -0.07015751
VERTEX2 686 26.75006101 -6.65426646 -0.21554515
VERTEX2 687 27.36070864 -6.80312696 -0.25116388
VERTEX2 688 27.96464307 -6.98357246 -0.26321693
VERTEX2 689 28.54343247 -7.12950074 -0.23554138
VERTEX2 690 29.10458849 -7.23318514 -0.16104318
VERTEX2 691 29.52207436 -7.30266883 -0.18855884
VERTEX2 692 29.50187426 -7.30141837 0.34674294
VERTEX2 693 29.49532272 -7.33911776 1.38870608
VERTEX2 694 29.48945033 -7.37679064 2.22545709
VERTEX2 695 29.48097101 -7.37507833 3.02690953
VERTEX2 696 29.45108491 -7.37831511 -2.22899489
VERTEX2 697 29.41854641 -7.41192253 -2.48131998
VERTEX2 698 29.00809708 -7.45154487 -3.13538260
VERTEX2 699 28.34826606 -7.47990491 -3.02140717
VERTEX2 700 27.70026597 -7.57759497 -2.96826575
VERTEX2 701 27.11490722 -7.71514248 -2.90978953
VERTEX2 702 26.52159080 -7.78407035 -3.02606575
VERTEX2 703 25.88914626 -7.85669456 -2.99307925
VERTEX2 704 25.24493604 -7.98114932 -2.97644110
VERTEX2 705 24.59667373 -8.12195525 -2.91108954
VERTEX2 706 24.06947899 -8.20490891 3.09559552
VERTEX2 707 24.06710148 -8.20378294 2.56369196
VERTEX2 708 24.07959580 -8.22486951 1.91105626
VERTEX2 709 24.10170145 -8.31782142 1.57059257
VERTEX2 710 24.09446877 -8.36469897 0.99708963
VERTEX2 711 24.10180504 -8.38896084 0.38718949
VERTEX2 712 24.08062784 -8.39106304 -0.18569863
VERTEX2 713 24.52721711 -8.61103633 -0.47868022
VERTEX2 714 25.00055531 -8.94680082 -0.68258397
VERTEX2 715 25.51582206 -9.33028438 -0.57617771
VERTEX2 716 26.04541289 -9.70271464 -0.71101787
VERTEX2 717 26.54335854 -10.10847175 -0.62313484
VERTEX2 718 27.13457222 -10.63456939 -0.79456641
VERTEX2 719 27.60849568 -11.07841464 -0.71657746
VERTEX2 720 28.08185412 -11.51564313 -0.77219049
VERTEX2 721 28.55914905 -11.95687969 -0.70009015
VERTEX2 722 28.58629899 -11.97949674 -0.62951291
VERTEX2 723 28.57609710 -11.98222907 0.47565501
VERTEX2 724 28.56530088 -12.00074728 1.55949835
VERTEX2 725 28.56992672 -12.00993305 2.20306400
VERTEX2 726 28.29005493 -11.85876126 2.66430891
VERTEX2 727 27.71549525 -11.58933294 2.69837788
VERTEX2 728 27.14554123 -11.30862006 2.70271877
VERTEX2 729 26.55648195 -11.06104054 2.76344987
VERTEX2 730 25.96134188 -10.84893345 2.80373035
VERTEX2 731 25.35975122 -10.63922846 2.81811100
VERTEX2 732 25.23760540 -10.60287385 -3.01407667
VERTEX2 733 25.23986984 -10.63469285 -2.00908626
VERTEX2 734 25.02783968 -11.18313798 -1.92859252
VERTEX2 735 24.79798476 -11.77426398 -1.95850459
VERTEX2 736 24.78265177 -11.81036412 -1.35383569
VERTEX2 737 24.79810160 -11.82072807 -0.54655242
VERTEX2 738 25.31870465 -12.12593313 -0.52533407
VERTEX2 739 25.83798980 -12.49224204 -0.58057875
VERTEX2 740 26.29174286 -12.76138322 -0.51483198
VERTEX2 741 26.29220755 -12.76160049 -0.87958279
VERTEX2 742 26.30815005 -12.78965519 -1.52638597
VERTEX2 743 26.29981073 -12.82741184 -2.13746855
VERTEX2 744 26.26945852 -12.85430020 -2.67164153
VERTEX2 745 26.25244561 -12.85521395 3.02361609
VERTEX2 746 25.78356197 -12.62458542 2.55337708
VERTEX2 747 25.26020588 -12.27087440 2.52034442
VERTEX2 748 24.81013391 -11.92235202 2.45432578
VERTEX2 749 24.76206913 -11.88507063 2.88769182
VERTEX2 750 24.73406297 -11.90704474 -2.46082357
VERTEX2 751 24.65074509 -12.19999685 -1.81512270
VERTEX2 752 24.45390632 -12.82744954 -1.91608620
VERTEX2 753 24.23324634 -13.46119322 -1.85073653
VERTEX2 754 23.98457936 -14.08436456 -2.01037598
VERTEX2 755 23.71946634 -14.69803957 -1.93290531
VERTEX2 756 23.43268530 -15.30040384 -2.12290209
VERTEX2 757 23.10313774 -15.88263563 -2.02279044
VERTEX2 758 22.87264312 -16.46814579 -1.89502997
VERTEX2 759 22.62081005 -16.99869925 -2.03291680
VERTEX2 760 22.37866488 -17.58331780 -1.91751923
VERTEX2 761 22.35708497 -17.63742588 -1.73259833
VERTEX2 762 22.36720728 -17.64745276 -0.71898370
VERTEX2 763 22.91209738 -17.90973298 -0.42503955
VERTEX2 764 23.31696549 -18.09950862 -0.45179999
VERTEX2 765 23.32038110 -18.10038540 0.18960911
VERTEX2 766 23.30665301 -18.12226161 1.19288263
VERTEX2 767 23.30974692 -18.14884377 2.12649306
VERTEX2 768 23.30006297 -18.14562902 2.85104179
VERTEX2 769 22.67137943 -18.07302402 3.00877838
VERTEX2 770 22.03550202 -17.96856486 2.94223153
VERTEX2 771 21.95905369 -17.95528414 -2.77926868
VERTEX2 772 21.93673223 -17.99100211 -1.91000466
VERTEX2 773 21.75883264 -18.58045396 -1.82365703
VERTEX2 774 21.62608205 -19.15000558 -1.80110725
VERTEX2 775 21.62517238 -19.18590695 -0.95474314
VERTEX2 776 21.83919339 -19.26960516 -0.33611485
VERTEX2 777 22.43876140 -19.46867031 -0.27643313
VERTEX2 778 23.04407919 -19.63574136 -0.29666800
VERTEX2 779 23.65059993 -19.81323892 -0.27791456
VERTEX2 780 23.86358582 -19.88737591 -0.40732066
VERTEX2 781 23.87729577 -19.89662669 -0.97914315
VERTEX2 782 23.93841268 -20.21264262 -1.40740122
VERTEX2 783 24.03005854 -20.84682141 -1.40738083
VERTEX2 784 24.07486877 -21.11201626 -1.42806484
VERTEX2 785 24.06618971 -21.15310481 -1.97856684
VERTEX2 786 24.04660390 -21.18594448 -2.56536768
VERTEX2 787 24.02472445 -21.19953591 -3.05470301
VERTEX2 788 24.01444466 -21.19625596 2.60093975
VERTEX2 789 24.01974096 -21.20295476 2.05042159
VERTEX2 790 23.82421028 -20.76689901 1.98395222
VERTEX2 791 23.55396100 -20.22324233 2.08336079
VERTEX2 792 23.38371359 -19.97780194 2.78967337
VERTEX2 793 22.79662629 -19.78407705 2.83245640
VERTEX2 794 22.18006702 -19.60601501 2.90152953
VERTEX2 795 22.19562704 -19.59955175 -2.95619002
VERTEX2 796 22.19387832 -19.59983282 -2.30224144
VERTEX2 797 22.03638569 -19.89873058 -2.04509671
VERTEX2 798 21.74044152 -20.48944260 -1.99702616
VERTEX2 799 21.48656509 -21.10972708 -1.93343765
VERTEX2 800 21.26364632 -21.74016791 -1.86270040
VERTEX2 801 21.10169068 -22.39269589 -1.77850587
VERTEX2 802 20.98461862 -23.04857156 -1.72235943
VERTEX2 803 20.79201344 -23.69055371 -1.88886748
VERTEX2 804 20.59552686 -24.33021109 -1.83438220
VERTEX2 805 20.45249687 -24.98562630 -1.75948846
VERTEX2 806 20.34485034 -25.61620566 -1.71929679
VERTEX2 807 20.31785701 -25.83719598 -1.42507736
VERTEX2 808 20.32194430 -25.83840501 -0.46238228
VERTEX2 809 20.88776839 -26.01311424 -0.31276766
VERTEX2 810 21.46117881 -26.28508765 -0.44794251
VERTEX2 811 22.02030192 -26.53807544 -0.44727800
VERTEX2 812 22.02688014 -26.54110730 0.29665754
VERTEX2 813 22.02056390 -26.54969686 1.28796793
VERTEX2 814 22.02830341 -26.55884802 2.29648703
VERTEX2 815 22.01294728 -26.55016771 -3.05237598
VERTEX2 816 21.98341802 -26.56021646 -2.35980558
VERTEX2 817 21.94969377 -26.57448010 -3.01753219
VERTEX2 818 21.73546334 -26.50760530 2.78542643
VERTEX2 819 21.17045933 -26.29884363 2.80347297
VERTEX2 820 20.60285893 -26.08796465 2.76623417
VERTEX2 821 20.08182430 -25.88669387 2.78577536
VERTEX2 822 20.07595277 -25.88503316 -2.72026254
VERTEX2 823 20.08636800 -25.83638193 -1.78309429
VERTEX2 824 19.99010469 -26.39402452 -1.86157176
VERTEX2 825 19.83597020 -26.90468635 -1.89144982
VERTEX2 826 19.74485622 -27.47714452 -1.73009145
VERTEX2 827 19.64806280 -28.03564891 -1.78110677
VERTEX2 828 19.55738732 -28.60717520 -1.74895240
VERTEX2 829 19.46196612 -29.13380512 -1.79195178
VERTEX2 830 19.35405947 -29.65629585 -1.80415389
VERTEX2 831 19.23412393 -30.13162295 -1.85594308
VERTEX2 832 19.11676204 -30.59155904 -1.86481211
VERTEX2 833 19.07408391 -30.74307233 -1.73431156
VERTEX2 834 19.08107936 -30.79501593 -0.70287922
VERTEX2 835 19.41388434 -30.88973267 0.05705359
VERTEX2 836 19.68913556 -30.73247119 0.97915456
VERTEX2 837 19.68952673 -30.70485771 1.99312478
VERTEX2 838 19.58417729 -30.60371755 2.87250244
VERTEX2 839 19.48356304 -30.52890362 2.66158043
VERTEX2 840 19.38443215 -30.41608791 2.11109045
VERTEX2 841 19.33950378 -30.26487930 1.50703278
VERTEX2 842 19.43360209 -29.92168035 1.28355329
VERTEX2 843 19.62639158 -29.27430721 1.28561026
VERTEX2 844 19.82071951 -28.56165029 1.28191637
VERTEX2 845 20.03249100 -27.85436428 1.27125618
VERTEX2 846 20.23330758 -27.13903978 1.27665014
VERTEX2 847 20.45701510 -26.43832879 1.25340421
VERTEX2 848 20.53226607 -26.18642035 1.74243930
VERTEX2 849 20.42928026 -26.13311199 2.67909742
VERTEX2 850 19.98585446 -26.07721494 3.03994522
VERTEX2 851 19.27303315 -25.96808023 2.95257458
VERTEX2 852 18.56340745 -25.82229100 2.97170015
VERTEX2 853 17.88270614 -25.70442720 2.94885791
VERTEX2 854 17.20947245 -25.56119113 2.95595720
VERTEX2 855 16.52865804 -25.44065688 2.95948296
VERTEX2 856 15.82260559 -25.28424341 2.92731214
VERTEX2 857 15.11700974 -25.12994131 2.92616576
VERTEX2 858 14.41470115 -24.94547871 2.88123880
VERTEX2 859 13.83680813 -24.79386421 2.88342474
VERTEX2 860 13.82312254 -24.79900687 -2.51658168
VERTEX2 861 13.82435172 -24.78239940 -1.56704316
VERTEX2 862 13.80288509 -25.31020670 -1.61652428
VERTEX2 863 13.77124121 -25.82419815 -1.63928535
VERTEX2 864 13.72030435 -26.30795584 -1.63210339
VERTEX2 865 13.71038996 -26.78667516 -1.56394251
VERTEX2 866 13.70185584 -27.23996748 -1.55561271
VERTEX2 867 13.70186576 -27.26807191 -1.36114080
VERTEX2 868 13.62407841 -27.18689002 -0.29717059
VERTEX2 869 13.59959477 -27.19117337 0.71963075
VERTEX2 870 13.62657425 -27.16953542 1.75841886
VERTEX2 871 13.52937948 -27.13127654 2.77039090
VERTEX2 872 13.42671594 -27.09108586 -2.79985863
VERTEX2 873 13.35194539 -27.08781847 2.93438751
VERTEX2 874 13.23928916 -27.03556127 2.39811472
VERTEX2 875 13.14089345 -26.92453876 1.83584127
VERTEX2 876 13.04931753 -26.21699340 1.69101646
VERTEX2 877 12.99261665 -25.51284414 1.61741766
VERTEX2 878 12.95144146 -25.16412558 2.01867317
VERTEX2 879 12.54791029 -24.48585938 2.08026641
VERTEX2 880 12.27786937 -23.95498730 1.97933665
VERTEX2 881 12.23872876 -23.86643519 1.99439120
VERTEX2 882 11.98611532 -23.11783053 1.76267410
VERTEX2 883 11.92182180 -22.34224625 1.58530141
VERTEX2 884 11.92278952 -21.83206334 1.52891333
VERTEX2 885 11.85125602 -21.70510919 2.13452540
VERTEX2 886 11.75344537 -21.67894584 -3.09021056
VERTEX2 887 11.70513737 -21.68677474 -2.03851126
VERTEX2 888 11.68843090 -21.56043475 -1.01522930
VERTEX2 889 11.59333190 -21.49124122 -0.08160732
VERTEX2 890 11.91972245 -21.42922579 0.20747838
VERTEX2 891 12.49012648 -21.31534490 0.14718260
VERTEX2 892 13.07829125 -21.23899609 0.12056616
VERTEX2 893 14.22278749 -21.08095716 0.31923725
VERTEX2 894 15.08311707 -20.71502054 0.50922161
VERTEX2 895 15.66397626 -20.29818210 0.77775847
VERTEX2 896 15.66647347 -20.29513029 1.21400445
VERTEX2 897 15.67652548 -20.34092605 1.45607452
VERTEX2 898 15.70523782 -20.29614507 1.45357211
VERTEX2 899 15.71137542 -20.35091580 1.36599524
VERTEX2 900 15.77736213 -20.18822021 1.34673607
VERTEX2 901 15.83047212 -20.08039851 1.26385340
VERTEX2 902 15.91705373 -19.89624606 1.27254542
VERTEX2 903 15.94994690 -19.84599025 1.21106322
VERTEX2 904 15.95620188 -19.82400832 1.82271416
VERTEX2 905 15.94434000 -19.73564991 1.84289271
VERTEX2 906 15.91577653 -19.56951082 1.87360336
VERTEX2 907 15.88884970 -19.40690078 1.83535437
VERTEX2 908 15.86059598 -19.20275888 1.82632074
VERTEX2 909 15.83450574 -19.00093739 1.77587556
VERTEX2 910 15.83407305 -18.98389312 1.34643254
VERTEX2 911 15.98624757 -18.42979939 1.37392971
VERTEX2 912 16.12083211 -17.90159360 1.35654949
VERTEX2 913 16.26329482 -17.38231645 1.33720750
VERTEX2 914 16.44911774 -16.79294826 1.28817679
VERTEX2 915 16.64846642 -16.24017494 1.22819617
VERTEX2 916 16.67194005 -16.39438869 1.72469302
VERTEX2 917 16.67583882 -16.05322431 1.43922170
VERTEX2 918 16.79340433 -15.60036182 1.34292720
VERTEX2 919 16.97295422 -15.01912223 1.28305528
VERTEX2 920 17.20928702 -14.39601455 1.25272236
VERTEX2 921 17.47166856 -13.75408851 1.18911695
VERTEX2 922 17.79168502 -13.08166811 1.15550071
VERTEX2 923 18.14517313 -12.41210528 1.08879740
VERTEX2 924 18.41559196 -11.91016169 1.10465464
VERTEX2 925 18.41480965 -11.95262887 1.60780305
VERTEX2 926 18.39430450 -11.42073778 1.62373091
VERTEX2 927 18.37435068 -10.85898236 1.60068826
VERTEX2 928 18.36577363 -10.28026597 1.59255233
VERTEX2 929 18.36192303 -9.70420103 1.59297785
VERTEX2 930 18.37261098 -9.11705025 1.51568907
VERTEX2 931 18.43588131 -8.51748816 1.44186027
VERTEX2 932 18.53605390 -7.90515558 1.38969930
VERTEX2 933 18.67420204 -7.29375469 1.33360387
VERTEX2 934 18.79651494 -6.80354931 1.33222556
VERTEX2 935 18.79859421 -6.85939988 2.03997758
VERTEX2 936 18.99975403 -6.96679255 2.99938933
VERTEX2 937 18.68562036 -6.93651535 3.06635715
VERTEX2 938 18.32472100 -6.87570524 2.89783334
VERTEX2 939 17.94082249 -6.78505535 2.92923417
VERTEX2 940 17.31673489 -6.61760691 2.84131162
VERTEX2 941 16.70020783 -6.40607314 2.78601264
VERTEX2 942 16.16672629 -6.20402976 2.78922919
VERTEX2 943 15.54683863 -5.96996515 2.87639067
VERTEX2 944 14.92227356 -5.78985711 2.81895089
VERTEX2 945 14.30822646 -5.56699138 2.76259816
VERTEX2 946 14.12204357 -5.48998216 2.82571350
VERTEX2 947 13.70816428 -5.49298219 -3.13091540
VERTEX2 948 13.14397718 -5.49415814 3.12756458
VERTEX2 949 12.54626819 -5.43335589 2.96515313
VERTEX2 950 11.91968429 -5.29128216 2.71837343
VERTEX2 951 11.32202372 -5.00119158 2.64119457
VERTEX2 952 10.72577130 -4.70457055 2.88570207
VERTEX2 953 10.10085481 -4.55537910 2.96171340
VERTEX2 954 9.47816810 -4.42523379 2.94764127
VERTEX2 955 8.85560203 -4.22957637 2.77931513
VERTEX2 956 8.24843320 -3.98919983 2.77287320
VERTEX2 957 7.64569634 -3.71961826 2.68180492
VERTEX2 958 7.07928678 -3.42221985 2.65326103
VERTEX2 959 6.52639531 -3.10460887 2.58550783
VERTEX2 960 5.95944007 -2.81449964 2.67449874
VERTEX2 961 5.40060108 -2.51974868 2.65521664
VERTEX2 962 4.79517995 -2.26952321 2.72942453
VERTEX2 963 4.17879053 -2.07332062 2.92695943
VERTEX2 964 3.55023952 -1.92336679 2.87128706
VERTEX2 965 2.93193080 -1.74115322 2.87166921
VERTEX2 966 2.52454127 -1.62126734 2.81679257
VERTEX2 967 2.53687734 -1.62051770 -2.60027426
VERTEX2 968 2.58588003 -1.58495309 -1.69030992
VERTEX2 969 2.58900351 -1.49224189 -1.62675331
VERTEX2 970 2.59443979 -1.39840311 -1.62484810
VERTEX2 971 2.58096697 -1.66609703 -1.62112389
VERTEX2 972 2.55968315 -2.18787477 -1.61198536
VERTEX2 973 2.43721346 -2.68817342 -1.89140916
VERTEX2 974 2.26313854 -3.20235568 -1.85606588
VERTEX2 975 2.11489997 -3.72385668 -1.84820147
VERTEX2 976 1.97401968 -4.24912388 -1.83207110
VERTEX2 977 1.82323740 -4.77199900 -1.85614578
VERTEX2 978 1.68525902 -5.29707276 -1.80898656
VERTEX2 979 1.55301666 -5.82213948 -1.82118606
VERTEX2 980 1.43449649 -6.35550928 -1.77535844
VERTEX2 981 1.32355610 -6.88417915 -1.77056377
VERTEX2 982 1.24246775 -7.36555561 -1.72907160
VERTEX2 983 1.15745271 -7.86995522 -1.73256900
VERTEX2 984 1.09124627 -8.37771104 -1.67569708
VERTEX2 985 1.03851834 -8.89084778 -1.65622233
VERTEX2 986 1.00579609 -9.43482695 -1.62111655
VERTEX2 987 0.97055412 -9.97678394 -1.65945539
VERTEX2 988 0.92113842 -10.51407205 -1.64765496
VERTEX2 989 0.88540177 -11.05662163 -1.64131154
VERTEX2 990 0.84238799 -11.59381034 -1.65375703
VERTEX2 991 0.80557933 -12.13695750 -1.63097407
VERTEX2 992 0.76116342 -12.64953106 -1.66602308
VERTEX2 993 0.72038879 -13.19394036 -1.63606418
VERTEX2 994 0.68314702 -13.70863553 -1.64907823
VERTEX2 995 0.65723394 -14.19685411 -1.59910333
VERTEX2 996 0.65432842 -14.70683532 -1.56963119
VERTEX2 997 0.63699156 -15.25128990 -1.63181135
VERTEX2 998 0.62122681 -15.55035874 -1.60804620
VERTEX2 999 0.59208902 -15.52152938 -0.88480084
VERTEX2 1000 1.02031955 -15.91935751 -0.73421596
VERTEX2 1001 1.41542835 -16.34642785 -1.05322682
VERTEX2 1002 1.72173181 -16.81685215 -0.95963695
VERTEX2 1003 2.00736185 -17.30617156 -1.13864098
VERTEX2 1004 2.25966597 -17.80368380 -1.07468055
VERTEX2 1005 2.52909799 -18.26002363 -1.00636841
VERTEX2 1006 2.83966015 -18.70417339 -0.92282503
VERTEX2 1007 3.16873076 -19.09893410 -0.82472055
VERTEX2 1008 3.33450938 -19.27192954 -0.65778533
VERTEX2 1009 3.51192008 -19.31106209 -0.19989252
VERTEX2 1010 4.13177577 -19.43223096 -0.15330967
VERTEX2 1011 4.75513410 -19.52516776 -0.20107197
VERTEX2 1012 5.37035291 -19.64496050 -0.16361983
VERTEX2 1013 6.01403064 -19.70270169 -0.05363037
VERTEX2 1014 6.63128634 -19.81288829 -0.23441826
VERTEX2 1015 7.25976731 -19.91874453 -0.15443350
VERTEX2 1016 8.03090875 -20.04142497 -0.15146479
VERTEX2 1017 8.63227019 -20.11745604 -0.21083957
VERTEX2 1018 9.19104020 -20.23986459 -0.20584283
VERTEX2 1019 9.79788402 -20.33060132 -0.14916976
VERTEX2 1020 10.42117250 -20.43649332 -0.16607178
VERTEX2 1021 11.05177526 -20.53800705 -0.21011958
VERTEX2 1022 11.11667478 -20.55152825 -0.22060816
VERTEX2 1023 11.12875115 -20.55331955 -0.13780945
VERTEX2 1024 11.76952146 -20.64077473 -0.11519134
VERTEX2 1025 12.42327771 -20.69228946 -0.10159200
VERTEX2 1026 12.60772944 -20.71127872 -0.09839842
VERTEX2 1027 12.65287767 -20.69701553 0.80368306
VERTEX2 1028 12.71795910 -20.42841224 1.35752682
VERTEX2 1029 12.86458889 -19.76846096 1.33188137
VERTEX2 1030 13.03644008 -19.15219037 1.24821759
VERTEX2 1031 13.26323633 -18.52305976 1.19090962
VERTEX2 1032 13.50971444 -17.89851011 1.19199439
VERTEX2 1033 13.77060882 -17.27887533 1.14361074
VERTEX2 1034 13.85053265 -17.10895318 0.92547368
VERTEX2 1035 13.85304237 -17.10749290 0.29855624
VERTEX2 1036 13.80660054 -17.07353866 -0.27934061
VERTEX2 1037 14.09375366 -17.25572752 -0.52224589
VERTEX2 1038 14.64666168 -17.49154169 -0.43464162
VERTEX2 1039 15.21512098 -17.77970404 -0.46938953
VERTEX2 1040 15.17109426 -17.76884796 0.15277462
VERTEX2 1041 15.12462460 -17.75144804 1.15800694
VERTEX2 1042 15.13752252 -17.70871767 2.13450001
VERTEX2 1043 15.10020718 -17.65135136 3.09291483
VERTEX2 1044 15.11398024 -17.64165073 -2.20806000
VERTEX2 1045 15.08222507 -17.68022858 -2.31312594
VERTEX2 1046 15.06692891 -17.69271955 -2.68482229
VERTEX2 1047 15.10465973 -17.68623635 3.06005441
VERTEX2 1048 14.83517346 -17.56815405 2.75930237
VERTEX2 1049 14.29044985 -17.36339295 2.78358447
VERTEX2 1050 13.73391751 -17.18533367 2.86696576
VERTEX2 1051 13.07418458 -16.97732838 2.77869562
VERTEX2 1052 12.45174747 -16.76255023 2.82243711
VERTEX2 1053 12.02911505 -16.61088704 2.76056787
VERTEX2 1054 11.98083705 -16.59358169 -2.78382506
VERTEX2 1055 11.92651162 -16.70067937 -1.75076078
VERTEX2 1056 11.93995583 -16.74734477 -0.77274224
VERTEX2 1057 11.83524529 -16.70225707 0.23475777
VERTEX2 1058 11.84607334 -16.69502928 1.17240972
VERTEX2 1059 12.11977203 -16.09639053 1.09596442
VERTEX2 1060 12.44109638 -15.46536154 1.10442645
VERTEX2 1061 12.68690166 -15.00648925 0.98590063
VERTEX2 1062 12.70199652 -14.99283039 0.41939194
VERTEX2 1063 12.66746764 -15.00201105 -0.18068809
VERTEX2 1064 12.88614893 -15.10630406 -0.44747923
VERTEX2 1065 13.39896541 -15.30722140 -0.32684411
VERTEX2 1066 13.89193427 -15.48938037 -0.38422222
VERTEX2 1067 13.84432059 -15.47904194 0.04613362
VERTEX2 1068 13.82338586 -15.48651670 0.71579675
VERTEX2 1069 13.83658613 -15.46816045 0.88461716
VERTEX2 1070 13.84599117 -15.45873350 0.34299843
VERTEX2 1071 14.35577581 -15.34155956 0.21418922
VERTEX2 1072 14.83725694 -15.24197249 0.14396510
VERTEX2 1073 14.77434693 -15.22564977 -0.37024112
VERTEX2 1074 15.22555151 -15.42347337 -0.40613049
VERTEX2 1075 15.72107232 -15.63944445 -0.39113608
VERTEX2 1076 15.46096665 -15.53256749 -0.01264563
VERTEX2 1077 15.51490733 -15.47994086 0.79994033
VERTEX2 1078 15.95048350 -14.94498391 0.84716889
VERTEX2 1079 16.36780044 -14.44721935 0.91183067
VERTEX2 1080 16.39501930 -14.41161006 0.42975867
VERTEX2 1081 16.97961763 -14.22929453 0.30962622
VERTEX2 1082 17.26593584 -14.13525123 0.59473652
VERTEX2 1083 17.26472264 -14.14442822 1.64336760
VERTEX2 1084 17.30565554 -14.18142734 2.62599913
VERTEX2 1085 17.34836639 -14.18066203 -2.65085105
VERTEX2 1086 16.89401719 -14.57365897 -2.41152143
VERTEX2 1087 16.42008836 -14.98434512 -2.41772197
VERTEX2 1088 15.96421669 -15.40709835 -2.42869431
VERTEX2 1089 15.90725687 -15.45560026 -2.52119052
VERTEX2 1090 15.90951101 -15.45423851 -3.12992919
VERTEX2 1091 15.38859280 -15.38135287 2.97984972
VERTEX2 1092 14.79050813 -15.27829822 2.96733417
VERTEX2 1093 14.24427212 -15.16872316 2.90518152
VERTEX2 1094 14.22420478 -15.14089078 2.50972091
VERTEX2 1095 14.18959400 -15.09703967 1.93105537
VERTEX2 1096 14.18765911 -15.06023196 1.37063539
VERTEX2 1097 14.33889779 -14.71192887 1.16164248
VERTEX2 1098 14.62372454 -14.10899479 1.10967414
VERTEX2 1099 15.12213678 -13.22650521 1.02586973
VERTEX2 1100 15.32969880 -12.84684476 1.40898855
VERTEX2 1101 15.29198278 -12.45242670 1.69399370
VERTEX2 1102 15.25234156 -12.67098017 1.29788785
VERTEX2 1103 15.37238689 -12.29561794 1.26288818
VERTEX2 1104 15.50488634 -11.89456014 1.23407620
VERTEX2 1105 15.64760351 -11.50598135 1.21518853
VERTEX2 1106 15.74325569 -11.25698252 1.18902280
VERTEX2 1107 15.73950073 -11.47744797 1.44374108
VERTEX2 1108 15.76126205 -11.08075755 1.45066464
VERTEX2 1109 15.84041609 -10.67310354 1.34567290
VERTEX2 1110 15.92930823 -10.30161973 1.29525297
VERTEX2 1111 16.06764949 -9.99910701 1.19313228
VERTEX2 1112 16.12749547 -9.65496374 1.53827169
VERTEX2 1113 16.15029906 -9.24527255 1.44199750
VERTEX2 1114 16.19905290 -8.86243049 1.45827245
VERTEX2 1115 16.23637125 -8.51171437 1.44130888
VERTEX2 1116 16.27514501 -8.09539785 1.47674401
VERTEX2 1117 16.26398028 -8.22754182 1.34801628
VERTEX2 1118 16.14329166 -8.40050762 0.73873934
VERTEX2 1119 16.01044995 -8.47093588 0.30524602
VERTEX2 1120 16.50969284 -8.36246013 0.24115931
VERTEX2 1121 16.62207900 -8.33850745 0.12220301
VERTEX2 1122 16.67749838 -8.36538146 -0.42890327
VERTEX2 1123 17.25519177 -8.64960553 -0.41163450
VERTEX2 1124 17.82992272 -8.86583516 -0.31173657
VERTEX2 1125 18.46609769 -9.08491272 -0.29654783
VERTEX2 1126 18.56875079 -9.11412429 0.04630665
VERTEX2 1127 18.66096045 -9.23689151 1.11098546
VERTEX2 1128 18.59098170 -9.45937926 2.10546240
VERTEX2 1129 18.65606915 -9.50411034 3.12845893
VERTEX2 1130 18.02233162 -9.52377634 -3.13964307
VERTEX2 1131 17.27888899 -9.34878388 2.71284311
VERTEX2 1132 16.74194229 -9.11213642 2.69313908
VERTEX2 1133 16.27896541 -8.87718218 2.65387303
VERTEX2 1134 16.10128722 -8.78462949 2.55599519
VERTEX2 1135 16.18829310 -8.88733866 1.99836066
VERTEX2 1136 16.07735586 -9.07131072 1.43484404
VERTEX2 1137 16.09875112 -8.99618321 1.24994965
VERTEX2 1138 16.24099113 -8.59604688 1.23315062
VERTEX2 1139 16.35214821 -8.32706299 1.16257111
VERTEX2 1140 16.27770348 -8.46682865 0.68737117
VERTEX2 1141 16.32924728 -8.42518549 0.14374613
VERTEX2 1142 17.17253906 -8.60564734 -0.21588180
VERTEX2 1143 18.23914571 -8.79268973 -0.12172209
VERTEX2 1144 18.51505707 -8.81449946 -0.16945072
VERTEX2 1145 18.77574732 -8.84441054 -0.21233416
VERTEX2 1146 19.02140747 -8.88175656 -0.20999257
VERTEX2 1147 19.29145683 -8.90551820 -0.15708915
VERTEX2 1148 19.68756447 -8.95417124 -0.16167376
VERTEX2 1149 19.55499453 -8.93144955 0.30484910
VERTEX2 1150 19.63354727 -8.86552935 1.22934397
VERTEX2 1151 19.62170052 -8.71914145 2.19689246
VERTEX2 1152 19.17000892 -8.65059801 -3.07176265
VERTEX2 1153 18.77643309 -8.75215630 -2.09509237
VERTEX2 1154 18.76934805 -8.98075648 -1.56818463
VERTEX2 1155 18.74718459 -9.52134714 -1.62518178
VERTEX2 1156 18.69461543 -10.06004180 -1.62108972
VERTEX2 1157 18.67347612 -10.54878431 -1.51599828
VERTEX2 1158 18.64050093 -11.07478924 -1.64957912
VERTEX2 1159 18.55308677 -11.68179172 -1.74926131
VERTEX2 1160 18.41529238 -12.31690385 -1.89197740
VERTEX2 1161 18.15267407 -12.91876778 -1.98698913
VERTEX2 1162 17.89509125 -13.52135722 -1.93365306
VERTEX2 1163 17.66096935 -14.13961853 -1.94336010
VERTEX2 1164 17.43908857 -14.75819895 -1.86268985
VERTEX2 1165 17.28393185 -15.27944096 -1.88324595
VERTEX2 1166 17.28297128 -15.29398579 -1.38938142
VERTEX2 1167 17.26341642 -15.29358722 -0.44403257
VERTEX2 1168 17.24707800 -15.29570112 0.46780292
VERTEX2 1169 17.26313835 -15.24795442 1.29727963
VERTEX2 1170 17.41190658 -14.68449987 1.30631635
VERTEX2 1171 17.56082196 -14.07138423 1.34061281
VERTEX2 1172 17.70409955 -13.49356469 1.28094511
VERTEX2 1173 17.87672849 -12.89590441 1.29269207
VERTEX2 1174 18.06277032 -12.29514741 1.22698673
VERTEX2 1175 18.28550431 -11.71591448 1.19648774
VERTEX2 1176 18.52485449 -11.13712907 1.15658275
VERTEX2 1177 18.78324148 -10.56822968 1.16267163
VERTEX2 1178 19.05261001 -9.99495236 1.12041048
VERTEX2 1179 19.32425583 -9.42837731 1.15516356
VERTEX2 1180 19.43229217 -9.18723161 1.15351024
VERTEX2 1181 19.42681670 -9.20354324 1.99943209
VERTEX2 1182 19.54758356 -9.25814929 2.72719104
VERTEX2 1183 19.14140061 -9.08491468 2.75808770
VERTEX2 1184 18.71336755 -8.93462033 2.83368008
VERTEX2 1185 18.28872452 -8.79112458 2.80695608
VERTEX2 1186 17.85835411 -8.66037845 2.87908652
VERTEX2 1187 17.40416139 -8.53502883 2.84748449
VERTEX2 1188 16.97569995 -8.41355598 2.87090834
VERTEX2 1189 16.39705259 -8.22933357 2.89125186
VERTEX2 1190 16.14557185 -8.16215447 2.89824053
VERTEX2 1191 16.21775953 -8.17030053 -2.46863462
VERTEX2 1192 16.24721277 -8.03036928 -1.67460744
VERTEX2 1193 16.19435643 -8.40528880 -1.80831710
VERTEX2 1194 16.12369532 -8.74679160 -1.76787016
VERTEX2 1195 16.05277818 -9.13985414 -1.71738267
VERTEX2 1196 15.99546317 -9.53800432 -1.89262575
VERTEX2 1197 15.87776634 -9.90916033 -1.88341114
VERTEX2 1198 15.77774643 -10.29664600 -1.62800626
VERTEX2 1199 15.73343038 -10.68850652 -1.84625635
VERTEX2 1200 15.63840036 -11.08060578 -1.78018088
VERTEX2 1201 15.56409368 -11.46860249 -1.72744123
VERTEX2 1202 15.51023554 -11.86750815 -1.70762858
VERTEX2 1203 15.47237038 -12.23925881 -1.80138816
VERTEX2 1204 15.34511237 -12.58344499 -1.95254303
VERTEX2 1205 15.22678984 -12.89926381 -1.92659995
VERTEX2 1206 15.11463909 -13.24405095 -1.86938575
VERTEX2 1207 14.96385552 -13.60277403 -1.95983511
VERTEX2 1208 14.82377957 -13.97694170 -1.89946184
VERTEX2 1209 14.69878881 -14.35078459 -1.90539184
VERTEX2 1210 14.58690317 -14.72370928 -1.88909679
VERTEX2 1211 14.33330596 -15.30259840 -1.95676555
VERTEX2 1212 14.09547310 -15.88052153 -1.90120229
VERTEX2 1213 13.91160242 -16.45655115 -1.82157735
VERTEX2 1214 13.69458267 -17.13872367 -2.03525115
VERTEX2 1215 13.42175241 -17.69407378 -1.96891757
VERTEX2 1216 13.28135142 -18.20797813 -1.74129727
VERTEX2 1217 13.15851758 -18.74399934 -1.75298094
VERTEX2 1218 13.05969315 -19.32597199 -1.80364994
VERTEX2 1219 12.91585349 -19.96090800 -1.77305194
VERTEX2 1220 12.82417268 -20.54080790 -1.68231394
VERTEX2 1221 12.82389911 -20.53891973 -2.13506694
VERTEX2 1222 12.81262285 -20.54709326 -2.73237394
VERTEX2 1223 12.80050854 -20.54815622 2.99118437
VERTEX2 1224 12.24586983 -20.37401812 2.80827637
VERTEX2 1225 11.65332980 -20.17299067 2.82204037
VERTEX2 1226 11.55225168 -20.13942986 2.80530937
VERTEX2 1227 11.55225168 -20.13942986 2.80464737
