1 19 166 0.00295035 10 
2 19 172 0.00323505 10 
3 25 172 0.00318039 10 
4 25 178 0.00330089 10 
5 32 178 0.00330153 10 
6 32 183 0.00339347 10 
7 44 189 0.00351387 10 
8 44 195 0.00365099 10 
9 50 195 0.00362052 10 
10 50 201 0.00372469 10 
11 50 203 0.00377886 10 
12 61 203 0.00376216 10 
13 61 209 0.00387883 10 
14 67 209 0.00388695 10 
15 67 220 0.00408524 10 
16 81 220 0.00408004 10 
17 81 226 0.00419832 10 
18 87 226 0.00418532 10 
19 87 231 0.00428570 10 
20 94 231 0.00428051 10 
21 226 231 0.00427091 10 
22 94 241 0.00448513 10 
23 101 241 0.00448451 10 
24 101 247 0.00458912 10 
25 107 247 0.00459868 10 
26 107 254 0.00472556 10 
27 114 254 0.00472737 10 
28 107 256 0.00477705 10 
29 114 256 0.00478112 10 
30 107 258 0.00481703 10 
31 114 258 0.00481721 10 
32 121 266 0.00498979 10 
33 126 266 0.00501393 10 
34 126 272 0.00514271 10 
35 132 272 0.00515784 10 
36 132 278 0.00671368 10 
37 138 278 0.00526662 10 
38 138 284 0.00540942 10 
39 151 284 0.00540350 10 
40 151 291 0.00553483 10 
41 151 297 0.00565880 10 
42 157 297 0.00565462 10 
43 163 297 0.00567218 10 
44 166 297 0.00567170 10 
45 19 305 0.00594647 10 
46 157 305 0.00595167 10 
47 163 305 0.00601410 10 
48 166 305 0.00599374 10 
49 172 305 0.00603681 10 
50 19 315 0.00540504 9 
51 25 315 0.00606562 10 
52 172 315 0.00623088 10 
53 172 328 0.00629352 10 
54 19 337 0.00517084 8 
55 25 337 0.00652621 10 
56 172 337 0.00669221 10 
57 19 342 0.00659313 10 
58 25 342 0.00664184 10 
59 172 342 0.00341315 5 
60 178 342 0.00667276 10 
61 25 367 0.00348469 5 
62 32 367 0.00420984 6 
63 178 367 0.00421157 6 
64 183 367 0.00495609 7 
65 25 374 0.00725662 10 
66 32 374 0.00731456 10 
67 178 374 0.00524386 7 
68 183 374 0.00655358 9 
69 32 382 0.00594154 8 
70 183 382 0.00752572 10 
71 32 387 0.00757116 10 
72 183 387 0.00449756 6 
73 189 400 0.00790116 10 
74 189 414 0.00816327 10 
75 44 437 0.00863037 10 
76 195 437 0.00881720 10 
77 44 454 0.00892082 10 
78 189 454 0.00915568 10 
79 44 467 0.00919590 10 
80 50 467 0.00944047 10 
81 195 467 0.00944427 10 
82 195 484 0.00955414 10 
83 44 494 0.00674294 7 
84 50 494 0.00977308 10 
85 195 494 0.01000603 10 
86 201 494 0.01004688 10 
87 50 500 0.00992235 10 
88 201 500 0.01017555 10 
89 203 500 0.01020148 10 
90 36 500 0.01021991 10 
91 61 508 0.01017164 10 
92 203 508 0.01043528 10 
93 209 508 0.01044456 10 
94 61 522 0.01043748 10 
95 203 522 0.01067579 10 
96 209 522 0.01068055 10 
97 61 528 0.01056132 10 
98 67 528 0.01082624 10 
99 81 528 0.01086682 10 
100 209 528 0.01086609 10 
101 220 528 0.01086104 10 
102 67 532 0.00953276 9 
103 81 532 0.01070706 10 
104 220 532 0.01098540 10 
105 67 556 0.01116471 10 
106 67 564 0.01131141 10 
107 81 564 0.01159744 10 
108 220 564 0.01153672 10 
109 67 567 0.01143467 10 
110 81 567 0.01168857 10 
111 220 567 0.01169130 10 
112 67 570 0.01148807 10 
113 81 570 0.01177607 10 
114 220 570 0.01178813 10 
115 81 575 0.01189872 10 
116 220 575 0.01190404 10 
117 81 588 0.01186081 10 
118 87 588 0.01218642 10 
119 226 588 0.01223036 10 
120 87 597 0.01212812 10 
121 94 597 0.01241210 10 
122 226 597 0.01241513 10 
123 87 604 0.01228724 10 
124 94 604 0.01257909 10 
125 94 616 0.00990994 8 
126 94 632 0.01281605 10 
127 153 634 0.01325298 10 
128 94 637 0.01298698 10 
129 101 637 0.01341527 10 
130 101 642 0.01318410 10 
131 107 642 0.01353159 10 
132 101 645 0.01327454 10 
133 107 645 0.01360163 10 
134 101 657 0.01350002 10 
135 101 663 0.01219825 9 
136 107 663 0.01364077 10 
137 114 663 0.01403340 10 
138 101 665 0.01372233 10 
139 107 665 0.01405813 10 
140 114 665 0.01406869 10 
141 107 680 0.01402905 10 
142 107 683 0.01409466 10 
143 114 683 0.01441285 10 
144 346 688 0.01429182 10 
145 107 704 0.01460244 10 
146 114 704 0.01493675 10 
147 107 714 0.01478163 10 
148 114 714 0.01511519 10 
149 107 730 0.01042740 7 
150 114 730 0.01510506 10 
151 121 754 0.01552219 10 
152 126 754 0.01590083 10 
153 121 759 0.01564218 10 
154 126 759 0.01600250 10 
155 126 762 0.01568147 10 
156 132 762 0.01614119 10 
157 132 778 0.01606544 10 
158 132 792 0.01632066 10 
159 132 800 0.01650899 10 
160 138 800 0.01689076 10 
161 138 806 0.01659215 10 
162 42 815 0.01694848 10 
163 138 821 0.01706819 10 
164 138 823 0.01698656 10 
165 151 828 0.01727171 10 
166 151 847 0.01766743 10 
167 151 855 0.01776308 10 
168 151 895 0.01855770 10 
169 151 897 0.01885558 10 
170 138 903 0.01869401 10 
171 138 904 0.01917024 10 
172 132 907 0.01878835 10 
173 138 907 0.01921387 10 
174 132 911 0.01884845 10 
175 121 923 0.01909753 10 
176 126 923 0.01956486 10 
177 107 929 0.01926169 10 
178 114 929 0.02125638 10 
179 107 935 0.01941124 10 
180 114 935 0.02011527 10 
181 101 939 0.01945679 10 
182 107 939 0.01943682 10 
183 101 944 0.01966433 10 
184 94 947 0.01974231 10 
185 101 947 0.02026142 10 
186 87 953 0.01988501 10 
187 94 953 0.02033788 10 
188 226 953 0.02035887 10 
189 81 959 0.02008409 10 
190 87 959 0.02053850 10 
191 220 959 0.02066887 10 
192 226 959 0.02064507 10 
193 67 965 0.02029942 10 
194 81 965 0.02079765 10 
195 220 965 0.02081086 10 
196 61 976 0.02056925 10 
197 67 976 0.02098693 10 
198 209 976 0.02101813 10 
199 50 982 0.02069464 10 
200 61 982 0.02123567 10 
201 201 982 0.02133407 10 
202 203 982 0.02134627 10 
203 44 988 0.02098942 10 
204 50 988 0.02147426 10 
205 195 988 0.02149254 10 
206 201 988 0.02148699 10 
207 44 994 0.02114561 10 
208 189 994 0.02161385 10 
209 195 994 0.02161958 10 
210 32 1003 0.02131507 10 
211 178 1003 0.02188440 10 
212 183 1003 0.02192213 10 
213 25 1008 0.02154331 10 
214 32 1008 0.02205720 10 
215 178 1008 0.02207803 10 
216 183 1008 0.02208393 10 
217 25 1010 0.02161587 10 
218 32 1010 0.02215008 10 
219 172 1010 0.02216317 10 
220 178 1010 0.02216788 10 
221 19 1016 0.02182413 10 
222 166 1016 0.02231029 10 
223 172 1016 0.02234684 10 
224 621 1024 0.02211757 10 
225 151 1029 0.02241284 10 
226 157 1029 0.02282353 10 
227 163 1029 0.02286388 10 
228 166 1029 0.02286012 10 
229 132 1084 0.02367691 10 
230 101 1138 0.02474970 10 
231 107 1147 0.02489427 10 
232 114 1147 0.02544851 10 
233 107 1150 0.02496472 10 
234 114 1150 0.02555166 10 
235 114 1158 0.02518053 10 
236 121 1158 0.02568967 10 
237 121 1164 0.02519480 10 
238 126 1164 0.02578358 10 
239 114 1175 0.02543702 10 
240 121 1175 0.02603234 10 
241 923 1175 0.02612619 10 
242 929 1175 0.02610706 10 
243 1158 1175 0.02077832 8 
244 101 1188 0.02582126 10 
245 939 1188 0.02641029 10 
246 1138 1188 0.02642696 10 
247 1147 1188 0.02643874 10 
248 1150 1188 0.02643491 10 
249 1050 1210 0.02629487 10 
250 1061 1210 0.02691435 10 
251 1075 1210 0.02687674 10 
252 1084 1210 0.02690893 10 
253 1088 1210 0.02698016 10 
254 1093 1210 0.02690807 10 
255 1098 1210 0.02692070 10 
256 157 1217 0.02650248 10 
257 163 1217 0.02705330 10 
258 1029 1217 0.02668442 10 
259 1044 1217 0.02726061 10 
260 1050 1217 0.02726658 10 
261 1056 1217 0.02726080 10 
