1 19 166 0.00296172 10 
2 19 172 0.00312324 10 
3 25 172 0.00318553 10 
4 25 178 0.00329931 10 
5 32 178 0.00330409 10 
6 32 183 0.00339454 10 
7 44 189 0.00351309 10 
8 44 195 0.00361764 10 
9 50 195 0.00361366 10 
10 50 201 0.00372356 10 
11 50 203 0.00380709 10 
12 61 203 0.00375683 10 
13 61 209 0.00387487 10 
14 67 209 0.00387765 10 
15 67 220 0.00407774 10 
16 81 220 0.00406583 10 
17 81 226 0.00418642 10 
18 87 226 0.00417402 10 
19 87 231 0.00427787 10 
20 94 231 0.00427217 10 
21 226 231 0.00426503 10 
22 95 231 0.00450899 10 
23 94 241 0.00446999 10 
24 101 241 0.00447929 10 
25 102 243 0.00454006 10 
26 101 247 0.00463881 10 
27 107 247 0.00465808 10 
28 118 250 0.00472433 10 
29 171 253 0.00490612 10 
30 107 254 0.00493065 10 
31 114 254 0.00493127 10 
32 107 256 0.00497966 10 
33 114 256 0.00499250 10 
34 107 258 0.00529553 10 
35 114 258 0.00515997 10 
36 121 266 0.00527241 10 
37 126 266 0.00525566 10 
38 126 272 0.00537903 10 
39 132 272 0.00536451 10 
40 132 278 0.00548647 10 
41 138 278 0.00548403 10 
42 138 284 0.00560473 10 
43 151 284 0.00561072 10 
44 151 291 0.00573921 10 
45 151 297 0.00586361 10 
46 157 297 0.00587965 10 
47 163 297 0.00590729 10 
48 166 297 0.00589534 10 
49 19 305 0.00612077 10 
50 157 305 0.00610630 10 
51 163 305 0.00614539 10 
52 166 305 0.00614139 10 
53 172 305 0.00615973 10 
54 19 315 0.00635072 10 
55 25 315 0.00635175 10 
56 172 315 0.00638505 10 
57 50 317 0.00562889 9 
58 238 318 0.00636461 10 
59 257 322 0.00515212 8 
60 35 324 0.00591279 9 
61 172 328 0.00667276 10 
62 21 331 0.00470581 7 
63 19 337 0.00548365 8 
64 25 337 0.00693457 10 
65 172 337 0.00710425 10 
66 19 342 0.00701409 10 
67 25 342 0.00704685 10 
68 172 342 0.00363971 5 
69 178 342 0.00711089 10 
70 53 352 0.00729543 10 
71 166 358 0.00519932 7 
72 25 367 0.00455607 6 
73 32 367 0.00612179 8 
74 178 367 0.00457486 6 
75 183 367 0.00537195 7 
76 25 374 0.00783568 10 
77 32 374 0.00789359 10 
78 178 374 0.00566541 7 
79 183 374 0.00708702 9 
80 351 376 0.00554775 7 
81 337 380 0.00480982 6 
82 32 382 0.00650022 8 
83 183 382 0.00819469 10 
84 81 384 0.00855780 10 
85 32 387 0.00865927 10 
86 183 387 0.00866914 10 
87 189 400 0.00875094 10 
88 356 401 0.00703186 8 
89 189 414 0.00909880 10 
90 37 417 0.00920399 10 
91 250 424 0.00937915 10 
92 44 437 0.00962979 10 
93 195 437 0.00982659 10 
94 169 439 0.00974396 10 
95 88 451 0.01005037 10 
96 270 452 0.00909420 9 
97 44 454 0.01023921 10 
98 189 454 0.00818475 8 
99 44 467 0.00732853 7 
100 50 467 0.00838321 8 
101 195 467 0.00307951 3 
102 119 473 0.01074188 10 
103 195 484 0.00870546 8 
104 154 487 0.00882225 8 
105 44 494 0.00552947 5 
106 50 494 0.00668271 6 
107 195 494 0.00555203 5 
108 201 494 0.00791013 7 
109 50 500 0.00916586 8 
110 201 500 0.00917740 8 
111 203 500 0.00684055 6 
112 61 508 0.01181161 10 
113 203 508 0.01198693 10 
114 209 508 0.00929133 8 
115 141 511 0.01195209 10 
116 152 514 0.01194229 10 
117 61 522 0.01219498 10 
118 203 522 0.01247888 10 
119 209 522 0.01123301 9 
120 61 528 0.00986152 8 
121 67 528 0.01233157 10 
122 81 528 0.01262104 10 
123 209 528 0.01260983 10 
124 220 528 0.01263891 10 
125 67 532 0.00736802 6 
126 81 532 0.01245582 10 
127 220 532 0.01265274 10 
128 25 553 0.01157899 9 
129 507 555 0.00643826 5 
130 67 556 0.01314452 10 
131 67 564 0.01328987 10 
132 81 564 0.01218616 9 
133 220 564 0.01325875 10 
134 67 567 0.01339848 10 
135 81 567 0.01369672 10 
136 220 567 0.01370842 10 
137 67 570 0.01347274 10 
138 81 570 0.01377680 10 
139 220 570 0.01379194 10 
140 222 570 0.01381857 10 
141 81 575 0.01393721 10 
142 220 575 0.01393188 10 
143 581 587 0.00401423 3 
144 81 588 0.01390880 10 
145 87 588 0.01441442 10 
146 226 588 0.01441009 10 
147 87 597 0.01428656 10 
148 94 597 0.01461681 10 
149 226 597 0.01462518 10 
150 184 598 0.01494461 10 
151 87 604 0.01476911 10 
152 94 604 0.01507943 10 
153 94 616 0.01190306 8 
154 19 624 0.01505358 10 
155 15 626 0.01510188 10 
156 468 630 0.01548989 10 
157 94 632 0.01731768 10 
158 94 637 0.01562757 10 
159 101 637 0.01599707 10 
160 101 642 0.01407877 9 
161 107 642 0.01574229 10 
162 101 645 0.01581456 10 
163 107 645 0.01615123 10 
164 631 645 0.01618215 10 
165 101 657 0.01608428 10 
166 101 663 0.00959819 6 
167 107 663 0.01620750 10 
168 114 663 0.01660308 10 
169 101 665 0.01630594 10 
170 107 665 0.01665785 10 
171 114 665 0.01667820 10 
172 107 680 0.01660633 10 
173 601 682 0.01675863 10 
174 107 683 0.01680265 10 
175 114 683 0.01717601 10 
176 267 690 0.01721526 10 
177 107 704 0.01756839 10 
178 114 704 0.01770758 10 
179 550 712 0.01784165 10 
180 107 714 0.01789784 10 
181 114 714 0.01629289 9 
182 250 714 0.01242688 7 
183 313 715 0.01814226 10 
184 199 724 0.01855832 10 
185 107 730 0.01288338 7 
186 114 730 0.01860811 10 
187 361 731 0.01884595 10 
188 362 734 0.01891868 10 
189 103 742 0.01938480 10 
190 10 742 0.02012984 10 
191 15 753 0.01993847 10 
192 121 754 0.02012575 10 
193 126 754 0.02060541 10 
194 121 759 0.02032796 10 
195 126 759 0.02051758 10 
196 126 762 0.02019279 10 
197 132 762 0.02110236 10 
198 748 767 0.01653453 8 
199 281 772 0.02066333 10 
200 132 778 0.01446930 7 
201 657 785 0.02111242 10 
202 132 792 0.02123927 10 
203 378 792 0.02225844 10 
204 132 800 0.02212994 10 
205 138 800 0.02227275 10 
206 400 802 0.02247390 10 
207 138 806 0.01982956 9 
208 103 807 0.02267279 10 
209 39 812 0.02274154 10 
210 138 821 0.01834219 8 
211 210 821 0.02350100 10 
212 138 823 0.02342048 10 
213 151 828 0.02369947 10 
214 21 843 0.02455984 10 
215 151 847 0.01956938 8 
216 151 855 0.01719355 7 
217 134 855 0.02218508 9 
218 605 875 0.02548694 10 
219 604 876 0.02595678 10 
220 605 886 0.02573830 10 
221 151 895 0.02595365 10 
222 151 897 0.02644541 10 
223 138 903 0.02607837 10 
224 138 904 0.02607323 10 
225 132 907 0.02625532 10 
226 138 907 0.02667954 10 
227 456 910 0.02631340 10 
228 132 911 0.02633371 10 
229 121 923 0.02681376 10 
230 126 923 0.02727029 10 
231 107 929 0.02721877 10 
232 114 929 0.02203090 8 
233 107 935 0.02738185 10 
234 114 935 0.02778723 10 
235 712 938 0.02684710 10 
236 101 939 0.02131689 8 
237 107 939 0.01591651 6 
238 101 944 0.02145625 8 
239 418 945 0.02759366 10 
240 94 947 0.02754196 10 
241 101 947 0.02801723 10 
242 87 953 0.02790837 10 
243 94 953 0.02817738 10 
244 226 953 0.02818290 10 
245 760 957 0.02829263 10 
246 610 958 0.02805953 10 
247 81 959 0.02843423 10 
248 87 959 0.02887337 10 
249 220 959 0.02893275 10 
250 226 959 0.02890013 10 
251 70 959 0.02908169 10 
252 419 961 0.02885797 10 
253 67 965 0.02888874 10 
254 81 965 0.02931897 10 
255 220 965 0.02932850 10 
256 501 971 0.02922072 10 
257 61 976 0.02910281 10 
258 67 976 0.02971965 10 
259 209 976 0.02973026 10 
260 50 982 0.02933476 10 
261 61 982 0.02989058 10 
262 201 982 0.02939608 10 
263 203 982 0.01784922 6 
264 831 983 0.02970621 10 
265 44 988 0.02923081 10 
266 50 988 0.02061280 6 
267 195 988 0.02914748 10 
268 201 988 0.01733314 6 
269 300 988 0.02954266 10 
270 704 992 0.02977882 10 
271 44 994 0.02991403 10 
272 189 994 0.03039833 10 
273 195 994 0.03058590 10 
274 32 1003 0.03014861 10 
275 178 1003 0.03082154 10 
276 183 1003 0.03061491 10 
277 762 1003 0.03075742 10 
278 25 1008 0.03057618 10 
279 32 1008 0.03110115 10 
280 178 1008 0.03110646 10 
281 183 1008 0.03112104 10 
282 25 1010 0.03065862 10 
283 32 1010 0.03115424 10 
284 172 1010 0.03103446 10 
285 178 1010 0.03105177 10 
286 19 1016 0.03064729 10 
287 166 1016 0.03116406 10 
288 172 1016 0.02481692 8 
289 809 1027 0.03113070 10 
290 151 1029 0.03099780 10 
291 157 1029 0.03183225 10 
292 163 1029 0.03129676 10 
293 166 1029 0.02850556 9 
294 822 1029 0.03139062 10 
295 494 1030 0.03196549 10 
296 553 1033 0.02825999 9 
297 365 1052 0.03215277 10 
298 1039 1059 0.01592304 5 
299 649 1062 0.03240160 10 
300 304 1068 0.01948593 6 
301 60 1074 0.02971115 9 
302 37 1076 0.02955153 9 
303 142 1078 0.02966385 9 
304 423 1081 0.03303048 10 
305 844 1081 0.03200899 9 
306 132 1084 0.03344591 10 
307 863 1094 0.03355383 10 
308 1082 1099 0.03371492 10 
309 373 1103 0.03486068 10 
310 7 1105 0.03418536 10 
311 507 1111 0.03457835 10 
312 187 1112 0.03558835 10 
313 381 1121 0.03499047 10 
314 578 1123 0.03556334 10 
315 450 1131 0.03553155 10 
316 748 1134 0.03651710 10 
317 101 1138 0.03661327 10 
318 107 1147 0.03637229 10 
319 114 1147 0.03669486 10 
320 107 1150 0.03612536 10 
321 114 1150 0.03675022 10 
322 114 1158 0.03627288 10 
323 121 1158 0.03749224 10 
324 121 1164 0.03708644 10 
325 126 1164 0.03727030 10 
326 114 1175 0.03682263 10 
327 121 1175 0.03740643 10 
328 923 1175 0.03741379 10 
329 929 1175 0.03745710 10 
330 1158 1175 0.02609382 7 
331 361 1182 0.03707431 10 
332 716 1185 0.03783427 10 
333 101 1188 0.03716738 10 
334 939 1188 0.03791763 10 
335 1138 1188 0.03776695 10 
336 1147 1188 0.03819086 10 
337 1150 1188 0.03794571 10 
338 1046 1194 0.03770880 10 
339 412 1207 0.03806445 10 
340 1050 1210 0.03818710 10 
341 1061 1210 0.03878063 10 
342 1075 1210 0.03912474 10 
343 1084 1210 0.03923619 10 
344 1088 1210 0.03931319 10 
345 1093 1210 0.03929544 10 
346 1098 1210 0.03963195 10 
347 157 1217 0.03896809 10 
348 163 1217 0.03940027 10 
349 1029 1217 0.03094254 8 
350 1044 1217 0.03951658 10 
351 1050 1217 0.04015705 10 
352 1056 1217 0.03999896 10 
353 366 1221 0.03935445 10 
354 708 1222 0.03963416 10 
355 589 1226 0.03985828 10 
356 387 1226 0.04106513 10 
