1 19 166 0.00295681 10 
2 19 172 0.00312278 10 
3 25 172 0.00317676 10 
4 25 178 0.00329161 10 
5 32 178 0.00329280 10 
6 32 183 0.00338530 10 
7 44 189 0.00350393 10 
8 44 195 0.00361393 10 
9 50 195 0.00361223 10 
10 50 201 0.00372165 10 
11 50 203 0.00377165 10 
12 61 203 0.00376011 10 
13 61 209 0.00387383 10 
14 67 209 0.00387627 10 
15 67 220 0.00407651 10 
16 81 220 0.00407004 10 
17 81 226 0.00418294 10 
18 87 226 0.00417927 10 
19 87 231 0.00427953 10 
20 94 231 0.00427161 10 
21 226 231 0.00426530 10 
22 94 241 0.00447053 10 
23 101 241 0.00447279 10 
24 101 247 0.00457844 10 
25 107 247 0.00458373 10 
26 107 254 0.00472061 10 
27 114 254 0.00471732 10 
28 107 256 0.00476765 10 
29 114 256 0.00476952 10 
30 107 258 0.00481119 10 
31 114 258 0.00481276 10 
32 121 266 0.00498159 10 
33 126 266 0.00500612 10 
34 126 272 0.00513286 10 
35 132 272 0.00515072 10 
36 132 278 0.00526661 10 
37 138 278 0.00525439 10 
38 138 284 0.00539673 10 
39 151 284 0.00539957 10 
40 151 291 0.00553430 10 
41 151 297 0.00564580 10 
42 157 297 0.00564942 10 
43 163 297 0.00565604 10 
44 166 297 0.00567716 10 
45 19 305 0.00594241 10 
46 157 305 0.00594006 10 
47 163 305 0.00600145 10 
48 166 305 0.00598087 10 
49 172 305 0.00602067 10 
50 19 315 0.00538735 9 
51 25 315 0.00605708 10 
52 172 315 0.00621993 10 
53 137 323 0.00498675 8 
54 172 328 0.00636093 10 
55 316 336 0.00452439 7 
56 19 337 0.00524358 8 
57 25 337 0.00661627 10 
58 172 337 0.00679169 10 
59 19 342 0.00666189 10 
60 25 342 0.00672707 10 
61 172 342 0.00347352 5 
62 178 342 0.00677586 10 
63 25 367 0.00427230 6 
64 32 367 0.00428279 6 
65 178 367 0.00427584 6 
66 183 367 0.00502683 7 
67 25 374 0.00737964 10 
68 32 374 0.00742104 10 
69 178 374 0.00533811 7 
70 183 374 0.00666657 9 
71 32 382 0.00603745 8 
72 183 382 0.00762122 10 
73 32 387 0.00767561 10 
74 183 387 0.00457163 6 
75 189 400 0.00803590 10 
76 98 412 0.00830698 10 
77 359 412 0.00597425 7 
78 189 414 0.00840160 10 
79 39 421 0.00856582 10 
80 44 437 0.01085233 10 
81 195 437 0.00912191 10 
82 44 454 0.00727077 8 
83 189 454 0.00728066 8 
84 44 467 0.00653916 7 
85 50 467 0.00655798 7 
86 195 467 0.00274265 3 
87 195 484 0.00480906 5 
88 44 494 0.00490723 5 
89 50 494 0.00592387 6 
90 195 494 0.00492791 5 
91 201 494 0.00695262 7 
92 50 500 0.00805607 8 
93 201 500 0.00804997 8 
94 203 500 0.00603738 6 
95 61 508 0.01037560 10 
96 203 508 0.01055400 10 
97 209 508 0.00825316 8 
98 61 522 0.01064820 10 
99 203 522 0.01086205 10 
100 209 522 0.00975856 9 
101 61 528 0.00853337 8 
102 67 528 0.01076895 10 
103 81 528 0.01112276 10 
104 209 528 0.01101807 10 
105 220 528 0.01084491 10 
106 67 532 0.00864487 8 
107 81 532 0.01094562 10 
108 220 532 0.01114545 10 
109 67 556 0.01139550 10 
110 67 564 0.01155498 10 
111 81 564 0.00944101 8 
112 220 564 0.01149424 10 
113 67 567 0.01164818 10 
114 81 567 0.01192913 10 
115 220 567 0.01194420 10 
116 67 570 0.01173034 10 
117 81 570 0.01202012 10 
118 220 570 0.01202717 10 
119 81 575 0.01214559 10 
120 220 575 0.01213799 10 
121 81 588 0.01209941 10 
122 87 588 0.01242392 10 
123 226 588 0.01245322 10 
124 87 597 0.01233283 10 
125 94 597 0.01265670 10 
126 226 597 0.01266918 10 
127 87 604 0.01248341 10 
128 94 604 0.01282969 10 
129 94 616 0.01009244 8 
130 587 625 0.01291558 10 
131 94 632 0.01307301 10 
132 409 633 0.01354460 10 
133 94 637 0.01332011 10 
134 101 637 0.01355079 10 
135 101 642 0.01199418 9 
136 107 642 0.01342191 10 
137 101 645 0.01348467 10 
138 107 645 0.01381764 10 
139 101 657 0.01372032 10 
140 101 663 0.00817239 6 
141 107 663 0.01236503 9 
142 114 663 0.01111293 8 
143 101 665 0.01496081 10 
144 107 665 0.01439933 10 
145 114 665 0.01441363 10 
146 107 680 0.01439433 10 
147 107 683 0.01444429 10 
148 114 683 0.01481283 10 
149 107 704 0.01487212 10 
150 114 704 0.01517987 10 
151 107 714 0.01503978 10 
152 114 714 0.01529619 10 
153 107 730 0.01060461 7 
154 114 730 0.01523247 10 
155 121 754 0.01574484 10 
156 126 754 0.01612131 10 
157 121 759 0.01586398 10 
158 126 759 0.01622912 10 
159 126 762 0.01595701 10 
160 132 762 0.01633499 10 
161 132 778 0.00960205 6 
162 740 790 0.01648323 10 
163 132 792 0.01652006 10 
164 132 800 0.01669211 10 
165 138 800 0.01712287 10 
166 547 801 0.01691878 10 
167 138 806 0.01699468 10 
168 138 821 0.01376753 8 
169 138 823 0.01731273 10 
170 570 823 0.01740786 10 
171 151 828 0.01754711 10 
172 236 835 0.01777770 10 
173 151 847 0.01245886 7 
174 151 855 0.01255066 7 
175 151 895 0.01895271 10 
176 151 897 0.01927864 10 
177 138 903 0.01906194 10 
178 138 904 0.01912085 10 
179 132 907 0.01921913 10 
180 138 907 0.01965996 10 
181 132 911 0.01929110 10 
182 121 923 0.01961477 10 
183 126 923 0.02008868 10 
184 107 929 0.01987278 10 
185 114 929 0.02034989 10 
186 107 935 0.01999455 10 
187 114 935 0.02043193 10 
188 101 939 0.01791971 9 
189 107 939 0.01389605 7 
190 101 944 0.01598856 8 
191 94 947 0.02027675 10 
192 101 947 0.02076294 10 
193 87 953 0.02052464 10 
194 94 953 0.02097300 10 
195 226 953 0.02103091 10 
196 81 959 0.02066478 10 
197 87 959 0.02124163 10 
198 220 959 0.02115286 10 
199 226 959 0.02115585 10 
200 866 963 0.02096877 10 
201 67 965 0.02108910 10 
202 81 965 0.02161788 10 
203 220 965 0.02161859 10 
204 61 976 0.02130008 10 
205 67 976 0.02176283 10 
206 209 976 0.02171666 10 
207 50 982 0.02142344 10 
208 61 982 0.02190119 10 
209 201 982 0.02192971 10 
210 203 982 0.01315881 6 
211 44 988 0.02156704 10 
212 50 988 0.01105017 5 
213 195 988 0.01709617 8 
214 201 988 0.01058613 5 
215 44 994 0.02173230 10 
216 189 994 0.02220641 10 
217 195 994 0.02223684 10 
218 32 1003 0.02192668 10 
219 178 1003 0.02267090 10 
220 183 1003 0.01809932 8 
221 25 1008 0.02233219 10 
222 32 1008 0.02282015 10 
223 178 1008 0.02287318 10 
224 183 1008 0.02289685 10 
225 600 1009 0.02252195 10 
226 294 1009 0.02299602 10 
227 25 1010 0.02266801 10 
228 32 1010 0.02317930 10 
229 172 1010 0.02321727 10 
230 178 1010 0.02320566 10 
231 19 1016 0.02283854 10 
232 166 1016 0.02337442 10 
233 172 1016 0.01865067 8 
234 151 1029 0.02320252 10 
235 157 1029 0.02368779 10 
236 163 1029 0.02372725 10 
237 166 1029 0.01596945 6 
238 702 1029 0.02332820 10 
239 349 1042 0.02355939 10 
240 993 1051 0.02387614 10 
241 747 1078 0.02467957 10 
242 132 1084 0.02476166 10 
243 953 1109 0.02522134 10 
244 101 1138 0.02575676 10 
245 107 1147 0.02596824 10 
246 114 1147 0.02653036 10 
247 107 1150 0.02605625 10 
248 114 1150 0.02660869 10 
249 114 1158 0.02622732 10 
250 121 1158 0.02685172 10 
251 121 1164 0.02639662 10 
252 126 1164 0.02706039 10 
253 1144 1170 0.02662126 10 
254 114 1175 0.02676227 10 
255 121 1175 0.02728072 10 
256 923 1175 0.02727617 10 
257 929 1175 0.02742175 10 
258 1158 1175 0.01911768 7 
259 103 1179 0.02777506 10 
260 101 1188 0.02713589 10 
261 939 1188 0.02771497 10 
262 1138 1188 0.02776101 10 
263 1147 1188 0.02775961 10 
264 1150 1188 0.02778860 10 
265 777 1203 0.02752148 10 
266 1050 1210 0.02781790 10 
267 1061 1210 0.02867736 10 
268 1075 1210 0.02869895 10 
269 1084 1210 0.02845931 10 
270 1088 1210 0.02845651 10 
271 1093 1210 0.02847270 10 
272 1098 1210 0.02852937 10 
273 157 1217 0.02811147 10 
274 163 1217 0.02855992 10 
275 1029 1217 0.02513261 9 
276 1044 1217 0.02890381 10 
277 1050 1217 0.02901935 10 
278 1056 1217 0.02955018 10 
279 192 1218 0.02953269 10 
280 484 1220 0.02912923 10 
281 302 1221 0.02955350 10 
