1 19 166 0 0.41518124 32005.22742413 -32004.81224289 -0.99998703 0.00000000 0.00000000 0.00000000 0.00000000
2 19 172 0 0.02820697 0.22810126 -0.19989429 -0.87634013 0.00000000 0.00000000 0.00000000 0.00000000
3 25 172 0 0.50374209 107.54210975 -107.03836765 -0.99531586 0.00000000 0.00000000 0.00000000 0.00000000
4 25 178 0 0.30831219 0.32809104 -0.01977885 -0.06028463 0.00000000 0.00000000 0.00000000 0.00000000
5 32 178 0 0.01497458 -0.00015836 0.01513295 -95.55839970 0.00000000 0.00000000 0.00000000 -0.00000000
6 32 183 0 0.07055613 0.07135951 -0.00080338 -0.01125814 0.00000000 0.00000000 0.00000000 0.00000000
7 44 189 0 0.52847520 27.09002195 -26.56154675 -0.98049189 0.00000000 0.00000000 0.00000000 0.00000000
8 44 195 0 0.35754661 0.35852903 -0.00098242 -0.00274014 0.00000000 0.00000000 0.00000000 0.00000000
9 50 195 0 0.00575501 0.00441003 0.00134498 0.30498174 0.00000000 0.00000000 0.00000000 0.00000000
10 50 201 0 0.04110603 0.04116428 -0.00005825 -0.00141516 0.00000000 0.00000000 0.00000000 0.00000000
11 50 203 0 0.06973518 0.06975513 -0.00001994 -0.00028592 0.00000000 0.00000000 0.00000000 0.00000000
12 61 203 0 0.00746255 0.00750248 -0.00003993 -0.00532245 0.00000000 0.00000000 0.00000000 0.00000000
13 61 209 0 0.37222863 0.37972566 -0.00749703 -0.01974327 0.00000000 0.00000000 0.00000000 0.00000000
14 67 209 0 0.41036355 1.34623248 -0.93586893 -0.69517631 0.00000000 0.00000000 0.00000000 0.00000000
15 67 220 0 0.66142782 12.12779172 -11.46636390 -0.94546181 0.00000000 0.00000000 0.00000000 0.00000000
16 81 220 0 0.47997854 266.73147284 -266.25149430 -0.99820052 0.00000000 0.00000000 0.00000000 0.00000000
17 81 226 0 0.05402984 0.05410214 -0.00007230 -0.00133637 0.00000000 0.00000000 0.00000000 0.00000000
18 87 226 0 1.82513378 4.58260630 -2.75747252 -0.60172582 0.00000000 0.00000000 0.00000000 0.00000000
19 87 231 0 0.34656603 0.35749620 -0.01093017 -0.03057423 0.00000000 0.00000000 0.00000000 0.00000000
20 94 231 0 0.55758592 4.59182008 -4.03423416 -0.87856974 0.00000000 0.00000000 0.00000000 0.00000000
21 226 231 0 1.44110444 -2.59307038 4.03417482 -1.55575215 0.00000000 0.00000000 0.00000000 -0.00000000
22 94 241 0 1.33132135 1.33337524 -0.00205390 -0.00154037 0.00000000 0.00000000 0.00000000 0.00000000
23 101 241 0 0.51076284 3.28024275 -2.76947990 -0.84429114 0.00000000 0.00000000 0.00000000 0.00000000
24 101 247 0 1.66453307 1.67351439 -0.00898132 -0.00536674 0.00000000 0.00000000 0.00000000 0.00000000
25 107 247 0 1.80100325 2.03966947 -0.23866622 -0.11701220 0.00000000 0.00000000 0.00000000 0.00000000
26 107 254 0 1.18351075 1.18672991 -0.00321916 -0.00271263 0.00000000 0.00000000 0.00000000 0.00000000
27 114 254 0 0.13010245 0.16115090 -0.03104845 -0.19266694 0.00000000 0.00000000 0.00000000 0.00000000
28 107 256 0 0.93084424 3.31080717 -2.37996293 -0.71884674 0.00000000 0.00000000 0.00000000 0.00000000
29 114 256 0 0.24609830 -2.12695580 2.37305410 -1.11570447 0.00000000 0.00000000 0.00000000 -0.00000000
30 107 258 0 1.37912050 1.40412811 -0.02500762 -0.01781007 0.00000000 0.00000000 0.00000000 0.00000000
31 114 258 0 1.15808577 1.14286793 0.01521784 0.01331548 0.00000000 0.00000000 0.00000000 0.00000000
32 121 266 0 0.00938653 0.01369686 -0.00431033 -0.31469471 0.00000000 0.00000000 0.00000000 0.00000000
33 126 266 0 0.44877104 0.46460676 -0.01583572 -0.03408413 0.00000000 0.00000000 0.00000000 0.00000000
34 126 272 0 1.03992204 1.04069980 -0.00077776 -0.00074734 0.00000000 0.00000000 0.00000000 0.00000000
35 132 272 0 0.39111714 8.58421440 -8.19309726 -0.95443763 0.00000000 0.00000000 0.00000000 0.00000000
36 132 278 0 0.58357725 0.58479074 -0.00121349 -0.00207508 0.00000000 0.00000000 0.00000000 0.00000000
37 138 278 0 1.06590353 37.40477141 -36.33886788 -0.97150354 0.00000000 0.00000000 0.00000000 0.00000000
38 138 284 0 0.02201542 0.02203109 -0.00001567 -0.00071145 0.00000000 0.00000000 0.00000000 0.00000000
39 151 284 0 0.12775479 7.69041629 -7.56266150 -0.98338779 0.00000000 0.00000000 0.00000000 0.00000000
40 151 291 0 0.60036587 6.42879595 -5.82843008 -0.90661302 0.00000000 0.00000000 0.00000000 0.00000000
41 151 297 0 0.07972285 0.07990147 -0.00017862 -0.00223546 0.00000000 0.00000000 0.00000000 0.00000000
42 157 297 0 1.05007006 2144.88554659 -2143.83547652 -0.99951043 0.00000000 0.00000000 0.00000000 0.00000000
43 163 297 0 8.46768964 504360.89374037 -504352.42605073 -0.99998321 0.00000000 0.00000000 0.00000000 0.00000000
44 166 297 0 0.51326007 -506031.21835746 506031.73161753 -1.00000101 0.00000000 0.00000000 0.00000000 -0.00000000
45 19 305 0 0.32824742 4.98537314 -4.65712572 -0.93415790 0.00000000 0.00000000 0.00000000 0.00000000
46 157 305 0 0.43807693 2311.28625624 -2310.84817931 -0.99981046 0.00000000 0.00000000 0.00000000 0.00000000
47 163 305 0 2.80096343 25430.57313367 -25427.77217025 -0.99988986 0.00000000 0.00000000 0.00000000 0.00000000
48 166 305 0 0.26407556 -27735.28707917 27735.55115473 -1.00000952 0.00000000 0.00000000 0.00000000 -0.00000000
49 172 305 0 0.02577990 -7.70282238 7.72860228 -1.00334681 0.00000000 0.00000000 0.00000000 -0.00000000
50 19 315 0 0.47860582 0.51339713 -0.03479131 -0.06776685 0.00000000 0.00000000 0.00000000 0.00000000
51 25 315 0 0.02016393 -0.01468699 0.03485092 -2.37291103 0.00000000 0.00000000 0.00000000 -0.00000000
52 172 315 0 0.05715431 0.05716473 -0.00001042 -0.00018232 0.00000000 0.00000000 0.00000000 0.00000000
53 172 328 0 0.12499766 0.26116559 -0.13616792 -0.52138540 0.00000000 0.00000000 0.00000000 0.00000000
54 19 337 0 6.63527565 147.22095874 -140.58568309 -0.95492982 0.00000000 0.00000000 0.00000000 0.00000000
55 25 337 0 0.95638176 -139.47945035 140.43583211 -1.00685679 0.00000000 0.00000000 0.00000000 -0.00000000
56 172 337 0 0.57899922 0.44852254 0.13047668 0.29090329 0.00000000 0.00000000 0.00000000 0.00000000
57 19 342 0 0.00452423 0.00453119 -0.00000696 -0.00153679 0.00000000 0.00000000 0.00000000 0.00000000
58 25 342 0 0.13527903 0.13600998 -0.00073094 -0.00537419 0.00000000 0.00000000 0.00000000 0.00000000
59 172 342 0 0.01312846 0.01241091 0.00071755 0.05781596 0.00000000 0.00000000 0.00000000 0.00000000
60 178 342 0 0.13550563 0.13557903 -0.00007341 -0.00054143 0.00000000 0.00000000 0.00000000 0.00000000
61 25 367 0 0.11419918 0.24791231 -0.13371313 -0.53935656 0.00000000 0.00000000 0.00000000 0.00000000
62 32 367 0 0.01384327 -0.11952283 0.13336610 -1.11582114 0.00000000 0.00000000 0.00000000 -0.00000000
63 178 367 0 0.00292533 0.00292097 0.00000436 0.00149304 0.00000000 0.00000000 0.00000000 0.00000000
64 183 367 0 0.06886475 0.06883951 0.00002524 0.00036668 0.00000000 0.00000000 0.00000000 0.00000000
65 25 374 0 0.55817680 0.62889460 -0.07071779 -0.11244777 0.00000000 0.00000000 0.00000000 0.00000000
66 32 374 0 0.10854918 0.03833653 0.07021265 1.83148133 0.00000000 0.00000000 0.00000000 0.00000000
67 178 374 0 0.02897280 0.02886991 0.00010289 0.00356394 0.00000000 0.00000000 0.00000000 0.00000000
68 183 374 0 0.05761810 0.05760138 0.00001673 0.00029036 0.00000000 0.00000000 0.00000000 0.00000000
69 32 382 0 4.14244206 5.08428932 -0.94184726 -0.18524659 0.00000000 0.00000000 0.00000000 0.00000000
70 183 382 0 1.28469449 0.41861729 0.86607721 2.06889978 0.00000000 0.00000000 0.00000000 0.00000000
71 32 387 0 2.72508041 3.44741927 -0.72233886 -0.20953032 0.00000000 0.00000000 0.00000000 0.00000000
72 183 387 0 0.18345592 -0.53838800 0.72184392 -1.34075039 0.00000000 0.00000000 0.00000000 -0.00000000
73 189 400 0 10.71097917 78.39653989 -67.68556072 -0.86337434 0.00000000 0.00000000 0.00000000 0.00000000
74 189 414 0 0.55056860 2.70816857 -2.15759997 -0.79670077 0.00000000 0.00000000 0.00000000 0.00000000
75 44 437 0 0.04205554 0.31330375 -0.27124821 -0.86576752 0.00000000 0.00000000 0.00000000 0.00000000
76 195 437 0 0.01472456 -0.25647275 0.27119730 -1.05741179 0.00000000 0.00000000 0.00000000 -0.00000000
77 44 454 0 0.66255359 1.42644330 -0.76388971 -0.53552056 0.00000000 0.00000000 0.00000000 0.00000000
78 189 454 0 0.05351812 -0.70862096 0.76213908 -1.07552432 0.00000000 0.00000000 0.00000000 -0.00000000
79 44 467 0 0.12704888 0.17052008 -0.04347120 -0.25493305 0.00000000 0.00000000 0.00000000 0.00000000
80 50 467 0 0.01127365 -0.03217407 0.04344772 -1.35039549 0.00000000 0.00000000 0.00000000 -0.00000000
81 195 467 0 0.00263609 0.00263699 -0.00000090 -0.00034024 0.00000000 0.00000000 0.00000000 0.00000000
82 195 484 0 0.09440529 0.15823286 -0.06382757 -0.40337746 0.00000000 0.00000000 0.00000000 0.00000000
83 44 494 0 0.02862492 0.03419498 -0.00557006 -0.16289122 0.00000000 0.00000000 0.00000000 0.00000000
84 50 494 0 0.00485956 -0.00065380 0.00551336 -8.43277558 0.00000000 0.00000000 0.00000000 -0.00000000
85 195 494 0 0.00869882 0.00869860 0.00000022 0.00002522 0.00000000 0.00000000 0.00000000 0.00000000
86 201 494 0 0.00453191 0.00453388 -0.00000197 -0.00043543 0.00000000 0.00000000 0.00000000 0.00000000
87 50 500 0 0.14598681 0.14616161 -0.00017480 -0.00119591 0.00000000 0.00000000 0.00000000 0.00000000
88 201 500 0 0.05359129 0.05388537 -0.00029408 -0.00545757 0.00000000 0.00000000 0.00000000 0.00000000
89 203 500 0 0.03276970 0.03275428 0.00001542 0.00047092 0.00000000 0.00000000 0.00000000 0.00000000
90 61 508 0 1.00722994 7.05366648 -6.04643654 -0.85720477 0.00000000 0.00000000 0.00000000 0.00000000
91 203 508 0 0.26715357 -5.77703081 6.04418438 -1.04624410 0.00000000 0.00000000 0.00000000 -0.00000000
92 209 508 0 0.04078307 0.03752725 0.00325582 0.08675885 0.00000000 0.00000000 0.00000000 0.00000000
93 61 522 0 1.38140995 4.72356724 -3.34215729 -0.70754943 0.00000000 0.00000000 0.00000000 0.00000000
94 203 522 0 0.12125394 -3.21718923 3.33844317 -1.03768940 0.00000000 0.00000000 0.00000000 -0.00000000
95 209 522 0 0.00439875 0.00395586 0.00044289 0.11195865 0.00000000 0.00000000 0.00000000 0.00000000
96 61 528 0 0.47876504 0.47905560 -0.00029056 -0.00060653 0.00000000 0.00000000 0.00000000 0.00000000
97 67 528 0 0.22161846 0.22229850 -0.00068003 -0.00305911 0.00000000 0.00000000 0.00000000 0.00000000
98 81 528 0 0.27118255 0.31368545 -0.04250291 -0.13549531 0.00000000 0.00000000 0.00000000 0.00000000
99 209 528 0 0.09805862 0.05514667 0.04291195 0.77814212 0.00000000 0.00000000 0.00000000 0.00000000
100 220 528 0 0.15414471 0.15525083 -0.00110611 -0.00712468 0.00000000 0.00000000 0.00000000 0.00000000
101 67 532 0 0.05422298 0.05418800 0.00003498 0.00064553 0.00000000 0.00000000 0.00000000 0.00000000
102 81 532 0 0.13177701 0.13297774 -0.00120073 -0.00902952 0.00000000 0.00000000 0.00000000 0.00000000
103 220 532 0 0.06130562 0.06003367 0.00127195 0.02118731 0.00000000 0.00000000 0.00000000 0.00000000
104 67 556 0 0.97999650 8.92624773 -7.94625123 -0.89021182 0.00000000 0.00000000 0.00000000 0.00000000
105 67 564 0 0.40193073 0.46480673 -0.06287600 -0.13527342 0.00000000 0.00000000 0.00000000 0.00000000
106 81 564 0 0.02100067 -0.04302121 0.06402188 -1.48814679 0.00000000 0.00000000 0.00000000 -0.00000000
107 220 564 0 0.02693408 0.02691111 0.00002297 0.00085362 0.00000000 0.00000000 0.00000000 0.00000000
108 67 567 0 2.64785339 91.05161259 -88.40375920 -0.97091920 0.00000000 0.00000000 0.00000000 0.00000000
109 81 567 0 0.48567334 -87.69417359 88.17984692 -1.00553826 0.00000000 0.00000000 0.00000000 -0.00000000
110 220 567 0 0.22198737 0.01445035 0.20753702 14.36208052 0.00000000 0.00000000 0.00000000 0.00000000
111 67 570 0 2.41605554 2.42722267 -0.01116713 -0.00460078 0.00000000 0.00000000 0.00000000 0.00000000
112 81 570 0 0.15279552 0.14612034 0.00667518 0.04568273 0.00000000 0.00000000 0.00000000 0.00000000
113 220 570 0 0.13252124 0.13214117 0.00038007 0.00287623 0.00000000 0.00000000 0.00000000 0.00000000
114 81 575 0 2.77600585 3.73106164 -0.95505579 -0.25597427 0.00000000 0.00000000 0.00000000 0.00000000
115 220 575 0 1.08702901 0.14422989 0.94279912 6.53678021 0.00000000 0.00000000 0.00000000 0.00000000
116 81 588 0 0.01480223 0.01556100 -0.00075877 -0.04876098 0.00000000 0.00000000 0.00000000 0.00000000
117 87 588 0 0.47035460 0.47041075 -0.00005615 -0.00011937 0.00000000 0.00000000 0.00000000 0.00000000
118 226 588 0 0.43208504 0.43126243 0.00082261 0.00190745 0.00000000 0.00000000 0.00000000 0.00000000
119 87 597 0 2.28420225 4.84463339 -2.56043114 -0.52850875 0.00000000 0.00000000 0.00000000 0.00000000
120 94 597 0 0.39264369 -2.14900327 2.54164696 -1.18270968 0.00000000 0.00000000 0.00000000 -0.00000000
121 226 597 0 0.54464266 0.54515279 -0.00051013 -0.00093576 0.00000000 0.00000000 0.00000000 0.00000000
122 87 604 0 0.47128650 0.48065852 -0.00937202 -0.01949829 0.00000000 0.00000000 0.00000000 0.00000000
123 94 604 0 0.01687917 0.00758728 0.00929189 1.22466617 0.00000000 0.00000000 0.00000000 0.00000000
124 94 616 0 0.01374294 0.01389550 -0.00015256 -0.01097889 0.00000000 0.00000000 0.00000000 0.00000000
125 94 632 0 2.17069007 105.24218287 -103.07149280 -0.97937433 0.00000000 0.00000000 0.00000000 0.00000000
126 94 637 0 4.44029524 4.54583477 -0.10553953 -0.02321675 0.00000000 0.00000000 0.00000000 0.00000000
127 101 637 0 0.17816284 0.09981332 0.07834953 0.78496067 0.00000000 0.00000000 0.00000000 0.00000000
128 101 642 0 0.11446958 0.11448928 -0.00001970 -0.00017206 0.00000000 0.00000000 0.00000000 0.00000000
129 107 642 0 0.03788492 0.03789178 -0.00000686 -0.00018103 0.00000000 0.00000000 0.00000000 0.00000000
130 101 645 0 6.68918339 6.90901154 -0.21982816 -0.03181760 0.00000000 0.00000000 0.00000000 0.00000000
131 107 645 0 1.54841585 1.33089841 0.21751743 0.16343654 0.00000000 0.00000000 0.00000000 0.00000000
132 101 657 0 0.73397517 3.73321475 -2.99923957 -0.80339326 0.00000000 0.00000000 0.00000000 0.00000000
133 101 663 0 0.04965857 0.04973620 -0.00007763 -0.00156087 0.00000000 0.00000000 0.00000000 0.00000000
134 107 663 0 0.01844485 0.01844427 0.00000059 0.00003172 0.00000000 0.00000000 0.00000000 0.00000000
135 114 663 0 0.00330274 0.00329909 0.00000365 0.00110669 0.00000000 0.00000000 0.00000000 0.00000000
136 101 665 0 1.54827791 1.55424485 -0.00596694 -0.00383913 0.00000000 0.00000000 0.00000000 0.00000000
137 107 665 0 0.47874724 0.47313134 0.00561590 0.01186964 0.00000000 0.00000000 0.00000000 0.00000000
138 114 665 0 0.13557231 0.13525365 0.00031867 0.00235606 0.00000000 0.00000000 0.00000000 0.00000000
139 107 680 0 1.48534968 2.51752623 -1.03217655 -0.40999634 0.00000000 0.00000000 0.00000000 0.00000000
140 107 683 0 0.94466135 0.95116567 -0.00650432 -0.00683826 0.00000000 0.00000000 0.00000000 0.00000000
141 114 683 0 0.32685981 0.32030849 0.00655132 0.02045317 0.00000000 0.00000000 0.00000000 0.00000000
142 107 704 0 0.34346137 1.66605981 -1.32259844 -0.79384812 0.00000000 0.00000000 0.00000000 0.00000000
143 114 704 0 0.07527914 -1.24826507 1.32354421 -1.06030702 0.00000000 0.00000000 0.00000000 -0.00000000
144 107 714 0 1.79934808 13.41048535 -11.61113728 -0.86582528 0.00000000 0.00000000 0.00000000 0.00000000
145 114 714 0 0.02801878 -11.58398575 11.61200453 -1.00241875 0.00000000 0.00000000 0.00000000 -0.00000000
146 107 730 0 0.19670764 0.30117110 -0.10446346 -0.34685751 0.00000000 0.00000000 0.00000000 0.00000000
147 114 730 0 0.03531896 -0.06838642 0.10370538 -1.51646154 0.00000000 0.00000000 0.00000000 -0.00000000
148 121 754 0 0.35019319 4.43502334 -4.08483015 -0.92103916 0.00000000 0.00000000 0.00000000 0.00000000
149 126 754 0 0.08292450 -4.00205148 4.08497599 -1.02072050 0.00000000 0.00000000 0.00000000 -0.00000000
150 121 759 0 2.33835735 2.33912849 -0.00077114 -0.00032967 0.00000000 0.00000000 0.00000000 0.00000000
151 126 759 0 0.22328477 0.22400185 -0.00071707 -0.00320120 0.00000000 0.00000000 0.00000000 0.00000000
152 126 762 0 7.08807363 146.38261512 -139.29454149 -0.95157845 0.00000000 0.00000000 0.00000000 0.00000000
153 132 762 0 2.01664742 -137.27719132 139.29383874 -1.01469033 0.00000000 0.00000000 0.00000000 -0.00000000
154 132 778 0 0.07028050 0.07456456 -0.00428407 -0.05745449 0.00000000 0.00000000 0.00000000 0.00000000
155 132 792 0 1.26843128 24.28906681 -23.02063553 -0.94777769 0.00000000 0.00000000 0.00000000 0.00000000
156 132 800 0 3.35643505 3.41934970 -0.06291465 -0.01839960 0.00000000 0.00000000 0.00000000 0.00000000
157 138 800 0 0.14828084 0.08230460 0.06597624 0.80161053 0.00000000 0.00000000 0.00000000 0.00000000
158 138 806 0 0.24969880 0.24973736 -0.00003856 -0.00015439 0.00000000 0.00000000 0.00000000 0.00000000
159 138 821 0 0.40675485 0.45446595 -0.04771110 -0.10498279 0.00000000 0.00000000 0.00000000 0.00000000
160 138 823 0 6.54729747 7.28942244 -0.74212498 -0.10180847 0.00000000 0.00000000 0.00000000 0.00000000
161 151 828 0 3.10566221 3.27744143 -0.17177921 -0.05241260 0.00000000 0.00000000 0.00000000 0.00000000
162 151 847 0 0.08662159 0.47430104 -0.38767946 -0.81737003 0.00000000 0.00000000 0.00000000 0.00000000
163 151 855 0 0.11497302 0.12195967 -0.00698664 -0.05728652 0.00000000 0.00000000 0.00000000 0.00000000
164 151 895 0 2.80704591 74.23120022 -71.42415431 -0.96218509 0.00000000 0.00000000 0.00000000 0.00000000
165 151 897 0 0.06119508 0.06144030 -0.00024522 -0.00399120 0.00000000 0.00000000 0.00000000 0.00000000
166 138 903 0 0.08000672 0.07991688 0.00008984 0.00112419 0.00000000 0.00000000 0.00000000 0.00000000
167 138 904 0 7.06247181 9.83488689 -2.77241508 -0.28189598 0.00000000 0.00000000 0.00000000 0.00000000
168 132 907 0 0.71626678 0.72773829 -0.01147151 -0.01576323 0.00000000 0.00000000 0.00000000 0.00000000
169 138 907 0 0.21797214 0.21796255 0.00000959 0.00004399 0.00000000 0.00000000 0.00000000 0.00000000
170 132 911 0 0.23113884 0.23126907 -0.00013023 -0.00056312 0.00000000 0.00000000 0.00000000 0.00000000
171 121 923 0 0.62462987 0.63275182 -0.00812195 -0.01283592 0.00000000 0.00000000 0.00000000 0.00000000
172 126 923 0 0.07065004 0.06911596 0.00153408 0.02219570 0.00000000 0.00000000 0.00000000 0.00000000
173 107 929 0 0.07545922 0.07622381 -0.00076459 -0.01003081 0.00000000 0.00000000 0.00000000 0.00000000
174 114 929 0 0.00467804 0.00391879 0.00075925 0.19374505 0.00000000 0.00000000 0.00000000 0.00000000
175 107 935 0 4.89514224 13.52276447 -8.62762223 -0.63800728 0.00000000 0.00000000 0.00000000 0.00000000
176 114 935 0 1.39957709 -7.21922357 8.61880066 -1.19386809 0.00000000 0.00000000 0.00000000 -0.00000000
177 101 939 0 0.48845621 0.56778310 -0.07932689 -0.13971338 0.00000000 0.00000000 0.00000000 0.00000000
178 107 939 0 0.21244267 0.13375815 0.07868452 0.58825966 0.00000000 0.00000000 0.00000000 0.00000000
179 101 944 0 0.15449092 0.15570293 -0.00121201 -0.00778410 0.00000000 0.00000000 0.00000000 0.00000000
180 94 947 0 0.23410119 0.23418690 -0.00008571 -0.00036600 0.00000000 0.00000000 0.00000000 0.00000000
181 101 947 0 0.16799456 0.16806288 -0.00006832 -0.00040654 0.00000000 0.00000000 0.00000000 0.00000000
182 87 953 0 0.13660836 0.13703917 -0.00043082 -0.00314377 0.00000000 0.00000000 0.00000000 0.00000000
183 94 953 0 0.06538116 0.06578737 -0.00040621 -0.00617455 0.00000000 0.00000000 0.00000000 0.00000000
184 226 953 0 0.08252179 0.08249965 0.00002214 0.00026835 0.00000000 0.00000000 0.00000000 0.00000000
185 81 959 0 1.84882209 1.88636643 -0.03754434 -0.01990299 0.00000000 0.00000000 0.00000000 0.00000000
186 87 959 0 1.24334363 1.29448367 -0.05114004 -0.03950613 0.00000000 0.00000000 0.00000000 0.00000000
187 220 959 0 0.05110483 0.05100629 0.00009854 0.00193189 0.00000000 0.00000000 0.00000000 0.00000000
188 226 959 0 0.12203653 0.12229929 -0.00026276 -0.00214847 0.00000000 0.00000000 0.00000000 0.00000000
189 67 965 0 0.99302710 0.99465294 -0.00162584 -0.00163458 0.00000000 0.00000000 0.00000000 0.00000000
190 81 965 0 0.31003664 0.31019494 -0.00015830 -0.00051032 0.00000000 0.00000000 0.00000000 0.00000000
191 220 965 0 0.16402013 0.16413954 -0.00011941 -0.00072748 0.00000000 0.00000000 0.00000000 0.00000000
192 61 976 0 0.16508498 3.27691077 -3.11182579 -0.94962177 0.00000000 0.00000000 0.00000000 0.00000000
193 67 976 0 0.05726883 -3.05328358 3.11055241 -1.01875647 0.00000000 0.00000000 0.00000000 -0.00000000
194 209 976 0 0.00764911 0.00757955 0.00006956 0.00917688 0.00000000 0.00000000 0.00000000 0.00000000
195 50 982 0 0.38746984 0.38812246 -0.00065262 -0.00168147 0.00000000 0.00000000 0.00000000 0.00000000
196 61 982 0 0.26954121 0.26998019 -0.00043897 -0.00162595 0.00000000 0.00000000 0.00000000 0.00000000
197 201 982 0 0.22501429 0.22478361 0.00023069 0.00102626 0.00000000 0.00000000 0.00000000 0.00000000
198 203 982 0 0.10532080 0.10518222 0.00013858 0.00131752 0.00000000 0.00000000 0.00000000 0.00000000
199 44 988 0 0.10229125 0.10224448 0.00004677 0.00045744 0.00000000 0.00000000 0.00000000 0.00000000
200 50 988 0 0.05911853 0.05904252 0.00007601 0.00128741 0.00000000 0.00000000 0.00000000 0.00000000
201 195 988 0 0.04470801 0.04468362 0.00002440 0.00054601 0.00000000 0.00000000 0.00000000 0.00000000
202 201 988 0 0.02655397 0.02654092 0.00001305 0.00049173 0.00000000 0.00000000 0.00000000 0.00000000
203 44 994 0 0.52409458 0.52403089 0.00006369 0.00012155 0.00000000 0.00000000 0.00000000 0.00000000
204 189 994 0 0.32944830 0.32895865 0.00048965 0.00148847 0.00000000 0.00000000 0.00000000 0.00000000
205 195 994 0 0.21305883 0.21309337 -0.00003454 -0.00016211 0.00000000 0.00000000 0.00000000 0.00000000
206 32 1003 0 0.27177632 0.31819058 -0.04641427 -0.14586939 0.00000000 0.00000000 0.00000000 0.00000000
207 178 1003 0 0.01477656 -0.02984403 0.04462060 -1.49512628 0.00000000 0.00000000 0.00000000 -0.00000000
208 183 1003 0 0.00859355 0.00857517 0.00001838 0.00214312 0.00000000 0.00000000 0.00000000 0.00000000
209 25 1008 0 1.30005308 1.30348631 -0.00343323 -0.00263388 0.00000000 0.00000000 0.00000000 0.00000000
210 32 1008 0 0.56525471 0.56232211 0.00293260 0.00521516 0.00000000 0.00000000 0.00000000 0.00000000
211 178 1008 0 0.35367822 0.35440891 -0.00073069 -0.00206170 0.00000000 0.00000000 0.00000000 0.00000000
212 183 1008 0 0.23350022 0.23392386 -0.00042363 -0.00181099 0.00000000 0.00000000 0.00000000 0.00000000
213 25 1010 0 0.59681880 0.59866497 -0.00184617 -0.00308381 0.00000000 0.00000000 0.00000000 0.00000000
214 32 1010 0 0.28931788 0.29074056 -0.00142268 -0.00489331 0.00000000 0.00000000 0.00000000 0.00000000
215 172 1010 0 0.10402144 0.10399236 0.00002907 0.00027959 0.00000000 0.00000000 0.00000000 0.00000000
216 178 1010 0 0.19198396 0.19165000 0.00033396 0.00174253 0.00000000 0.00000000 0.00000000 0.00000000
217 19 1016 0 0.44518638 0.44679116 -0.00160477 -0.00359177 0.00000000 0.00000000 0.00000000 0.00000000
218 166 1016 0 0.19233959 0.19299775 -0.00065816 -0.00341020 0.00000000 0.00000000 0.00000000 0.00000000
219 172 1016 0 0.07515749 0.07449057 0.00066693 0.00895316 0.00000000 0.00000000 0.00000000 0.00000000
220 151 1029 0 0.05171941 0.07437508 -0.02265567 -0.30461374 0.00000000 0.00000000 0.00000000 0.00000000
221 157 1029 0 0.03218749 0.00971459 0.02247290 2.31331511 0.00000000 0.00000000 0.00000000 0.00000000
222 163 1029 0 1.64416828 659.99072565 -658.34655737 -0.99750880 0.00000000 0.00000000 0.00000000 0.00000000
223 166 1029 0 0.33387918 -645.96257477 646.29645395 -1.00051687 0.00000000 0.00000000 0.00000000 -0.00000000
224 132 1084 0 4.08023156 2253.64417815 -2249.56394659 -0.99818950 0.00000000 0.00000000 0.00000000 0.00000000
225 101 1138 0 0.64757678 427.61583365 -426.96825687 -0.99848561 0.00000000 0.00000000 0.00000000 0.00000000
226 107 1147 0 0.73671199 1.80702241 -1.07031042 -0.59230611 0.00000000 0.00000000 0.00000000 0.00000000
227 114 1147 0 0.03986551 -1.03169542 1.07156093 -1.03864077 0.00000000 0.00000000 0.00000000 -0.00000000
228 107 1150 0 7.45607132 13.32185776 -5.86578644 -0.44031295 0.00000000 0.00000000 0.00000000 0.00000000
229 114 1150 0 1.00475121 -4.81400415 5.81875535 -1.20871424 0.00000000 0.00000000 0.00000000 -0.00000000
230 114 1158 0 0.16843255 0.19225016 -0.02381761 -0.12388861 0.00000000 0.00000000 0.00000000 0.00000000
231 121 1158 0 0.74628140 0.80527501 -0.05899361 -0.07325896 0.00000000 0.00000000 0.00000000 0.00000000
232 121 1164 0 0.44538291 0.44548076 -0.00009785 -0.00021965 0.00000000 0.00000000 0.00000000 0.00000000
233 126 1164 0 0.04274937 0.04258417 0.00016519 0.00387919 0.00000000 0.00000000 0.00000000 0.00000000
234 114 1175 0 0.13931473 0.36010776 -0.22079303 -0.61313044 0.00000000 0.00000000 0.00000000 0.00000000
235 121 1175 0 0.28211881 0.10066796 0.18145086 1.80246881 0.00000000 0.00000000 0.00000000 0.00000000
236 923 1175 0 0.19048599 0.16946584 0.02102015 0.12403767 0.00000000 0.00000000 0.00000000 0.00000000
237 929 1175 0 0.15975621 0.14236440 0.01739182 0.12216408 0.00000000 0.00000000 0.00000000 0.00000000
238 1158 1175 0 0.00141465 0.00049308 0.00092156 1.86897603 0.00000000 0.00000000 0.00000000 0.00000000
239 101 1188 0 0.32497944 0.33283837 -0.00785893 -0.02361185 0.00000000 0.00000000 0.00000000 0.00000000
240 939 1188 0 0.55086106 0.59778224 -0.04692118 -0.07849209 0.00000000 0.00000000 0.00000000 0.00000000
241 1138 1188 0 0.03025431 -0.02369106 0.05394537 -2.27703499 0.00000000 0.00000000 0.00000000 -0.00000000
242 1147 1188 0 0.04070442 0.04024204 0.00046238 0.01148995 0.00000000 0.00000000 0.00000000 0.00000000
243 1150 1188 0 1.83056773 2.07246722 -0.24189949 -0.11672054 0.00000000 0.00000000 0.00000000 0.00000000
244 1050 1210 0 0.00289669 0.00293906 -0.00004236 -0.01441346 0.00000000 0.00000000 0.00000000 0.00000000
245 1061 1210 0 0.57908992 13.93479810 -13.35570817 -0.95844289 0.00000000 0.00000000 0.00000000 0.00000000
246 1075 1210 0 0.22651980 -12.61139695 12.83791675 -1.01796152 0.00000000 0.00000000 0.00000000 -0.00000000
247 1084 1210 0 3.16543064 4.98014573 -1.81471509 -0.36438996 0.00000000 0.00000000 0.00000000 0.00000000
248 1088 1210 0 0.58434148 -1.47933482 2.06367631 -1.39500286 0.00000000 0.00000000 0.00000000 -0.00000000
249 1093 1210 0 0.13032986 -0.13658041 0.26691027 -1.95423544 0.00000000 0.00000000 0.00000000 -0.00000000
250 1098 1210 0 0.04781013 0.04781995 -0.00000983 -0.00020549 0.00000000 0.00000000 0.00000000 0.00000000
251 157 1217 0 0.35961253 0.42015109 -0.06053856 -0.14408759 0.00000000 0.00000000 0.00000000 0.00000000
252 163 1217 0 0.11073695 0.05512305 0.05561390 1.00890457 0.00000000 0.00000000 0.00000000 0.00000000
253 1029 1217 0 0.00567838 0.00113516 0.00454322 4.00227525 0.00000000 0.00000000 0.00000000 0.00000000
254 1044 1217 0 4.03127598 44.25155820 -40.22028222 -0.90890093 0.00000000 0.00000000 0.00000000 0.00000000
255 1050 1217 0 4.87752378 -30.37574102 35.25326479 -1.16057300 0.00000000 0.00000000 0.00000000 -0.00000000
256 1056 1217 0 9.65730777 343.10985805 -333.45255028 -0.97185360 0.00000000 0.00000000 0.00000000 0.00000000
