1 19 166 0 0.41485034 0.00209877 5 
2 19 172 0 0.02820697 0.00187284 4 
3 25 172 0 0.50366199 0.00187594 4 
4 25 178 0 0.30831851 0.00197792 4 
5 32 178 0 0.01493521 0.00198915 4 
6 32 183 0 0.07055611 0.00201609 4 
7 44 189 0 0.52863102 0.00207689 4 
8 44 195 0 0.35755137 0.00217222 4 
9 50 195 0 0.00572854 0.00220361 4 
10 50 201 0 0.04110605 0.00189933 3 
11 50 203 0 0.06975183 0.00187328 3 
12 61 203 0 0.00745912 0.00190465 3 
13 61 209 0 0.37222863 0.00230825 4 
14 67 209 0 0.41032090 0.00233037 4 
15 67 220 0 0.66144083 0.00250305 4 
16 81 220 0 0.48035877 0.00285676 5 
17 81 226 0 0.05402805 0.00256804 4 
18 87 226 0 1.82553139 0.00293786 5 
19 87 231 0 0.34656585 0.00262254 4 
20 94 231 0 0.55778528 0.00256954 4 
21 226 231 0 1.44127402 0.00298698 5 
22 94 241 0 1.33132047 0.00269131 4 
23 101 241 0 0.50961029 0.00300572 4 
24 101 247 0 1.66454674 0.00276293 4 
25 107 247 0 1.80094617 0.00278853 4 
26 107 254 0 1.18346605 0.00284563 4 
27 114 254 0 0.12939160 0.00285991 4 
28 107 256 0 0.93085039 0.00284996 4 
29 114 256 0 0.24629796 0.00285772 4 
30 107 258 0 1.37911724 0.00289393 4 
31 114 258 0 1.15747212 0.00292856 4 
32 121 266 0 0.00938596 0.00300774 4 
33 126 266 0 0.44864328 0.00354846 5 
34 126 272 0 1.03992836 0.00308939 4 
35 132 272 0 0.39070916 0.00364734 5 
36 132 278 0 0.58358145 0.00317670 4 
37 138 278 0 1.06458780 0.00373313 5 
38 138 284 0 0.02201259 0.00271153 3 
39 151 284 0 0.12777228 0.00329077 4 
40 151 291 0 0.60037557 0.00331821 4 
41 151 297 0 0.07972289 0.00284528 3 
42 157 297 0 1.04991834 0.00344888 4 
43 166 297 0 1.30507781 0.00338658 4 
44 19 305 0 0.16044642 0.00357241 4 
45 157 305 0 0.58687353 0.00360719 4 
46 163 305 0 7.56485476 0.00484196 6 
47 166 305 0 0.37495035 0.00360528 4 
48 172 305 0 0.01886255 0.00360894 4 
49 19 315 0 0.48455906 0.00309912 3 
50 25 315 0 0.02281386 0.00311478 3 
51 172 315 0 0.05679715 0.00372913 4 
52 172 328 0 0.12482725 0.00325654 3 
53 19 337 0 6.63404991 0.00465840 5 
54 25 337 0 0.96522419 0.00400036 4 
55 172 337 0 0.57611560 0.00333878 3 
56 19 342 0 0.00494520 0.00338495 3 
57 25 342 0 0.12855172 0.00406399 4 
58 172 342 0 0.01223902 0.00411807 4 
59 178 342 0 0.12442988 0.00417320 4 
60 25 367 0 0.11414782 0.00378331 3 
61 32 367 0 0.01267433 0.00594724 6 
62 178 367 0 0.00286807 0.00375015 3 
63 183 367 0 0.06698524 0.00376880 3 
64 25 374 0 0.56424690 0.00459048 4 
65 32 374 0 0.09892849 0.00532039 5 
66 178 374 0 0.03055075 0.00457761 4 
67 183 374 0 0.05309447 0.00456863 4 
68 32 382 0 4.14688582 0.00392241 3 
69 183 382 0 1.28811506 0.00465427 4 
70 32 387 0 2.72468715 0.00477375 4 
71 183 387 0 0.18197642 0.00473915 4 
72 189 414 0 7.69047346 0.00586233 5 
73 44 437 0 0.00915802 0.00439572 3 
74 195 437 0 0.01161094 0.00435346 3 
75 44 454 0 0.65644164 0.00451172 3 
76 189 454 0 0.03962740 0.00541975 4 
77 44 467 0 0.12345281 0.00641122 5 
78 50 467 0 0.00895575 0.01021920 9 
79 195 467 0 0.00230988 0.00462725 3 
80 195 484 0 0.09447226 0.00572730 4 
81 44 494 0 0.02880924 0.00576194 4 
82 50 494 0 0.00628832 0.00482438 3 
83 195 494 0 0.00818961 0.00682010 5 
84 201 494 0 0.00469852 0.00683147 5 
85 50 500 0 0.14406209 0.00695910 5 
86 201 500 0 0.05353930 0.00492112 3 
87 203 500 0 0.03252445 0.00486908 3 
88 61 508 0 0.99413579 0.00710824 5 
89 203 508 0 0.26947301 0.01222854 10 
90 209 508 0 0.03711473 0.00605374 4 
91 61 522 0 1.37942234 0.00611207 4 
92 203 522 0 0.12859200 0.00509276 3 
93 209 522 0 0.00542469 0.00511987 3 
94 61 528 0 0.47936102 0.00511335 3 
95 67 528 0 0.22419307 0.00625430 4 
96 81 528 0 0.23233822 0.00839221 6 
97 209 528 0 0.09444678 0.01069389 8 
98 220 528 0 0.13668760 0.00622034 4 
99 67 532 0 0.05459173 0.01178390 9 
100 81 532 0 0.11826401 0.00846470 6 
101 220 532 0 0.05648169 0.00632845 4 
102 67 556 0 0.98233216 0.00650492 4 
103 67 564 0 0.40168838 0.01232036 9 
104 81 564 0 0.02280941 0.00662907 4 
105 220 564 0 0.02684857 0.00665116 4 
106 67 567 0 2.67253169 0.00781417 5 
107 81 567 0 0.48923871 0.00899830 6 
108 220 567 0 0.21723258 0.00663763 4 
109 67 570 0 2.40706627 0.00911502 6 
110 81 570 0 0.15671702 0.00906481 6 
111 220 570 0 0.13379867 0.00672896 4 
112 81 575 0 2.76594993 0.00790859 5 
113 220 575 0 1.08612706 0.01033980 7 
114 81 588 0 0.01497138 0.00566655 3 
115 87 588 0 0.47937722 0.00816178 5 
116 226 588 0 0.43156268 0.00690487 4 
117 87 597 0 2.27648751 0.00954155 6 
118 94 597 0 0.38888315 0.00699279 4 
119 226 597 0 0.55079633 0.00830850 5 
120 87 604 0 0.47149562 0.00710013 4 
121 94 604 0 0.01542269 0.00839153 5 
122 94 616 0 0.01350372 0.01231875 8 
123 94 632 0 2.16969694 0.00877087 5 
124 94 637 0 4.44236402 0.01004143 6 
125 101 637 0 0.19098383 0.00750060 4 
126 101 642 0 0.11555601 0.00887797 5 
127 107 642 0 0.04025021 0.01406920 9 
128 101 645 0 6.69527511 0.00761740 4 
129 107 645 0 1.54205090 0.00750061 4 
130 101 657 0 0.73548669 0.01667465 10 
131 101 663 0 0.04971914 0.01670507 10 
132 107 663 0 0.01781179 0.00917266 5 
133 114 663 0 0.00275957 0.00914575 5 
134 101 665 0 1.55112265 0.01343975 8 
135 107 665 0 0.47667103 0.00778872 4 
136 114 665 0 0.13329170 0.00647692 3 
137 107 680 0 1.48615866 0.00936172 5 
138 107 683 0 0.94462224 0.00812440 4 
139 114 683 0 0.32178225 0.00952960 5 
140 107 704 0 0.34268109 0.01261033 7 
141 114 704 0 0.07528002 0.01550401 9 
142 107 714 0 1.79639085 0.01133666 6 
143 114 714 0 0.02860377 0.01440427 8 
144 107 730 0 0.19656714 0.01012487 5 
145 114 730 0 0.03540690 0.00853193 4 
146 121 754 0 0.33113739 0.00872793 4 
147 126 754 0 0.07673382 0.01518681 8 
148 121 759 0 2.33625684 0.01193531 6 
149 126 759 0 0.22329988 0.01199714 6 
150 126 762 0 7.08482229 0.01035742 5 
151 132 762 0 2.00372045 0.01530997 8 
152 132 778 0 0.06999780 0.00901377 4 
153 132 792 0 1.26802734 0.00927142 4 
154 132 800 0 3.35686460 0.00915784 4 
155 138 800 0 0.14494330 0.01251052 6 
156 138 806 0 0.25140739 0.00749625 3 
157 138 821 0 0.40674396 0.01105412 5 
158 138 823 0 6.54725682 0.00935511 4 
159 151 828 0 3.12108818 0.00946439 4 
160 151 847 0 0.08724621 0.01140470 5 
161 151 855 0 0.11494457 0.01508238 7 
162 151 895 0 2.80701437 0.01753788 8 
163 151 897 0 0.06118057 0.02152091 10 
164 138 903 0 0.08157811 0.01018886 4 
165 138 904 0 7.06392298 0.01394741 6 
166 132 907 0 0.71874717 0.01025366 4 
167 138 907 0 0.22077132 0.01216004 5 
168 132 911 0 0.23128175 0.01215855 5 
169 121 923 0 0.62636126 0.01430800 6 
170 126 923 0 0.07130653 0.01043369 4 
171 107 929 0 0.07225325 0.01249102 5 
172 114 929 0 0.00477553 0.01053954 4 
173 107 935 0 4.91438615 0.01643397 7 
174 114 935 0 1.40337639 0.01651160 7 
175 101 939 0 0.48567419 0.01065469 4 
176 107 939 0 0.21174614 0.01068206 4 
177 101 944 0 0.15377935 0.01268145 5 
178 94 947 0 0.23772432 0.01670668 7 
179 101 947 0 0.16826262 0.01477074 6 
180 87 953 0 0.13504795 0.01084935 4 
181 94 953 0 0.06505521 0.01484849 6 
182 226 953 0 0.08268323 0.02293238 10 
183 81 959 0 1.83528326 0.02427024 10 
184 87 959 0 1.29172246 0.01705670 7 
185 220 959 0 0.04883629 0.01097807 4 
186 226 959 0 0.12130941 0.01301999 5 
187 67 965 0 1.01368609 0.01311852 5 
188 81 965 0 0.31066014 0.01514577 6 
189 220 965 0 0.16483276 0.01923598 8 
190 600 972 2 565.59628325 0.00000475 1 
191 61 976 0 0.16803746 0.01735976 7 
192 67 976 0 0.05676300 0.00912834 3 
193 209 976 0 0.00780965 0.01119709 4 
194 50 982 0 0.38354811 0.01129100 4 
195 61 982 0 0.27147698 0.01129598 4 
196 201 982 0 0.22200943 0.01130477 4 
197 203 982 0 0.10573284 0.02178367 9 
198 395 983 2 553.44723967 0.00000484 1 
199 44 988 0 0.09550719 0.01140016 4 
200 50 988 0 0.05924873 0.01141286 4 
201 195 988 0 0.04319526 0.01563742 6 
202 201 988 0 0.02685916 0.01350128 5 
203 44 994 0 0.51683435 0.01780943 7 
204 189 994 0 0.29989154 0.02566455 10 
205 195 994 0 0.21957432 0.01366836 5 
206 516 1001 2 1438.80957722 0.00000599 1 
207 32 1003 0 0.23901034 0.01378101 5 
208 178 1003 0 0.03356851 0.02597891 10 
209 183 1003 0 0.01433170 0.01602726 6 
210 25 1008 0 1.23858172 0.01826278 7 
211 32 1008 0 0.53803958 0.01172821 4 
212 178 1008 0 0.34459610 0.01173267 4 
213 183 1008 0 0.22233868 0.01178322 4 
214 25 1010 0 0.60236133 0.01175329 4 
215 32 1010 0 0.30591807 0.01397561 5 
216 172 1010 0 0.10368354 0.01624128 6 
217 178 1010 0 0.19279072 0.02636935 10 
218 19 1016 0 0.44047719 0.02047050 8 
219 166 1016 0 0.20189646 0.01180201 4 
220 172 1016 0 0.07393216 0.01408053 5 
221 151 1029 0 0.03533130 0.01427371 5 
222 157 1029 0 0.02672450 0.01197470 4 
223 163 1029 0 3.39703566 0.01198425 4 
224 166 1029 0 0.49353449 0.01198680 4 
225 132 1084 0 4.21993706 0.01502648 5 
226 388 1100 2 145.04101053 0.00000580 1 
227 101 1138 0 0.63021658 0.01574675 5 
228 107 1147 0 0.73708347 0.01326983 4 
229 114 1147 0 0.03971358 0.01081528 3 
230 107 1150 0 7.45683387 0.01332555 4 
231 114 1150 0 1.00561260 0.01086824 3 
232 481 1152 2 4362.28101415 0.00000590 1 
233 114 1158 0 0.16899687 0.01089834 3 
234 121 1158 0 0.69099743 0.01346304 4 
235 121 1164 0 0.45182924 0.01602196 5 
236 126 1164 0 0.04418665 0.01353907 4 
237 114 1175 0 0.14266969 0.01364300 4 
238 121 1175 0 0.27324351 0.01369313 4 
239 923 1175 0 0.18719011 0.01370034 4 
240 929 1175 0 0.16073549 0.01366235 4 
241 1158 1175 0 0.00134797 0.01116921 3 
242 101 1188 0 0.32950319 0.01383653 4 
243 939 1188 0 0.55418798 0.01381692 4 
244 1138 1188 0 0.03006025 0.01138715 3 
245 1147 1188 0 0.04063922 0.01130892 3 
246 1150 1188 0 1.83245351 0.01383048 4 
247 1050 1210 0 0.00345523 0.01412718 4 
248 1061 1210 0 0.57363906 0.01667976 5 
249 1075 1210 0 0.23107861 0.01669589 5 
250 1084 1210 0 3.13555510 0.01670501 5 
251 1088 1210 0 0.59156319 0.01413789 4 
252 1093 1210 0 0.13111230 0.01942274 6 
253 1098 1210 0 0.04730346 0.01410127 4 
254 157 1217 0 0.32750279 0.01422919 4 
255 163 1217 0 0.19904338 0.01438235 4 
256 1029 1217 0 0.01250493 0.01167125 3 
257 1044 1217 0 3.98258990 0.01435335 4 
258 1050 1217 0 4.97161000 0.01706709 5 
259 163 297 0 0.27920255 0.01517791 4 
260 189 400 0 2.09679271 0.01459141 4 
261 1056 1217 0 9.66143264 0.01722435 5 
