1 97 131 2 491.09602562 0.00000382 1 
2 19 166 0 0.41485034 0.00211014 5 
3 19 172 0 0.02820697 0.00186582 4 
4 25 172 0 0.50366199 0.00188149 4 
5 25 178 0 0.30831851 0.00197305 4 
6 32 178 0 0.01493521 0.00199156 4 
7 32 183 0 0.07055611 0.00200790 4 
8 44 189 0 0.52863102 0.00208044 4 
9 44 195 0 0.35755137 0.00217177 4 
10 50 195 0 0.00572854 0.00219901 4 
11 50 201 0 0.04110605 0.00191027 3 
12 50 203 0 0.06975183 0.00188270 3 
13 61 203 0 0.00745912 0.00190075 3 
14 61 209 0 0.37222863 0.00231424 4 
15 67 209 0 0.41032090 0.00232515 4 
16 67 220 0 0.66144083 0.00249742 4 
17 81 220 0 0.48035877 0.00285766 5 
18 81 226 0 0.05402805 0.00256308 4 
19 87 226 0 1.82553139 0.00294597 5 
20 87 231 0 0.34656585 0.00262787 4 
21 94 231 0 0.55778528 0.00256377 4 
22 226 231 0 1.44127402 0.00298721 5 
23 94 241 0 1.33132047 0.00271115 4 
24 101 241 0 0.50961029 0.00272505 4 
25 101 247 0 1.66454674 0.00276544 4 
26 107 247 0 1.80094617 0.00278835 4 
27 170 247 2 2696.00996274 0.00000214 4 
28 107 254 0 1.18346605 0.00284586 4 
29 114 254 0 0.12939160 0.00286641 4 
30 107 256 0 0.93085039 0.00285076 4 
31 114 256 0 0.24629796 0.00286248 4 
32 107 258 0 1.37911724 0.00290215 4 
33 114 258 0 1.15747212 0.00292657 4 
34 121 266 0 0.00938596 0.00300406 4 
35 126 266 0 0.44864328 0.00355272 5 
36 126 272 0 1.03992836 0.00310198 4 
37 132 272 0 0.39070916 0.00364947 5 
38 132 278 0 0.58358145 0.00317745 4 
39 138 278 0 1.06458780 0.00373532 5 
40 138 284 0 0.02201259 0.00270879 3 
41 151 284 0 0.12777228 0.00328950 4 
42 151 291 0 0.60037557 0.00331744 4 
43 151 297 0 0.07972289 0.00285092 3 
44 157 297 0 1.04991834 0.00344754 4 
45 166 297 0 1.30507781 0.00339108 4 
46 19 305 0 0.16044642 0.00357621 4 
47 157 305 0 0.58687353 0.00360818 4 
48 163 305 0 7.56485476 0.00484503 6 
49 166 305 0 0.37495035 0.00360512 4 
50 172 305 0 0.01886255 0.00360711 4 
51 185 305 2 6453.43793457 0.00000228 4 
52 19 315 0 0.48455906 0.00310504 3 
53 25 315 0 0.02281386 0.00311094 3 
54 172 315 0 0.05679715 0.00373329 4 
55 78 325 2 318.23729296 0.00000248 1 
56 172 328 0 0.12482725 0.00325340 3 
57 309 330 2 673.89014291 0.00000230 1 
58 19 337 0 6.63404991 0.00466077 5 
59 25 337 0 0.96522419 0.00399998 4 
60 172 337 0 0.57611560 0.00334410 3 
61 19 342 0 0.00494520 0.00339177 3 
62 25 342 0 0.12855172 0.00407017 4 
63 172 342 0 0.01223902 0.00412001 4 
64 178 342 0 0.12442988 0.00418125 4 
65 25 367 0 0.11414782 0.00378492 3 
66 32 367 0 0.01267433 0.00596526 6 
67 178 367 0 0.00286807 0.00376669 3 
68 183 367 0 0.06698524 0.00374941 3 
69 25 374 0 0.56424690 0.00459880 4 
70 32 374 0 0.09892849 0.00535207 5 
71 178 374 0 0.03055075 0.00461841 4 
72 183 374 0 0.05309447 0.00460796 4 
73 25 379 2 689.46962756 0.00000333 1 
74 32 382 0 4.14688582 0.00392892 3 
75 183 382 0 1.28811506 0.00466369 4 
76 32 387 0 2.72468715 0.00473952 4 
77 183 387 0 0.18197642 0.00472830 4 
78 189 414 0 7.69047346 0.00586470 5 
79 37 433 2 681.04678117 0.00000340 1 
80 44 437 0 0.00915802 0.00438263 3 
81 195 437 0 0.01161094 0.00438116 3 
82 180 438 2 1055.03439741 0.00000338 1 
83 44 454 0 0.65644164 0.00453336 3 
84 189 454 0 0.03962740 0.00542822 4 
85 410 465 2 1816.23882935 0.00000368 1 
86 44 467 0 0.12345281 0.00643175 5 
87 50 467 0 0.00895575 0.01024989 9 
88 195 467 0 0.00230988 0.00464682 3 
89 117 468 2 4441.12786359 0.00000428 1 
90 195 484 0 0.09447226 0.00574654 4 
91 44 494 0 0.02880924 0.00578266 4 
92 50 494 0 0.00628832 0.00482328 3 
93 195 494 0 0.00818961 0.00683440 5 
94 201 494 0 0.00469852 0.00683628 5 
95 231 499 2 985.35382263 0.00000342 1 
96 50 500 0 0.14406209 0.00694361 5 
97 201 500 0 0.05353930 0.00490922 3 
98 203 500 0 0.03252445 0.00488791 3 
99 293 501 2 3826.89419686 0.00000351 1 
100 46 502 2 1645.99826506 0.00000298 1 
101 61 508 0 0.99413579 0.00712793 5 
102 203 508 0 0.26947301 0.01225424 10 
103 209 508 0 0.03711473 0.00606055 4 
104 105 511 2 1820.18182348 0.00000394 1 
105 61 522 0 1.37942234 0.00614631 4 
106 203 522 0 0.12859200 0.00512443 3 
107 209 522 0 0.00542469 0.00514924 3 
108 61 528 0 0.47936102 0.00515615 3 
109 67 528 0 0.22419307 0.00629808 4 
110 81 528 0 0.23233822 0.00842104 6 
111 209 528 0 0.09444678 0.01061750 8 
112 220 528 0 0.13668760 0.00623428 4 
113 67 532 0 0.05459173 0.01181243 9 
114 81 532 0 0.11826401 0.00848393 6 
115 220 532 0 0.05648169 0.00634316 4 
116 67 556 0 0.98233216 0.00649431 4 
117 67 564 0 0.40168838 0.01233716 9 
118 81 564 0 0.02280941 0.00663800 4 
119 220 564 0 0.02684857 0.00666268 4 
120 67 567 0 2.67253169 0.00781418 5 
121 81 567 0 0.48923871 0.00902830 6 
122 220 567 0 0.21723258 0.00664631 4 
123 67 570 0 2.40706627 0.00910546 6 
124 81 570 0 0.15671702 0.00904091 6 
125 220 570 0 0.13379867 0.00673882 4 
126 81 575 0 2.76594993 0.00792637 5 
127 220 575 0 1.08612706 0.01044641 7 
128 444 586 2 978.84899152 0.00000306 1 
129 81 588 0 0.01497138 0.00567776 3 
130 87 588 0 0.47937722 0.00817892 5 
131 226 588 0 0.43156268 0.00691889 4 
132 87 597 0 2.27648751 0.00958083 6 
133 94 597 0 0.38888315 0.00701912 4 
134 226 597 0 0.55079633 0.00832985 5 
135 178 597 2 1689.30801475 0.00000310 5 
136 87 604 0 0.47149562 0.00711134 4 
137 94 604 0 0.01542269 0.00840758 5 
138 97 608 2 1549.43894828 0.00000336 1 
139 535 613 2 1356.59786367 0.00000274 1 
140 94 616 0 0.01350372 0.01236113 8 
141 94 632 0 2.16969694 0.00880956 5 
142 94 637 0 4.44236402 0.01007408 6 
143 101 637 0 0.19098383 0.00751705 4 
144 589 638 2 2641.95827828 0.00000389 1 
145 101 642 0 0.11555601 0.00888654 5 
146 107 642 0 0.04025021 0.01410290 9 
147 101 645 0 6.69527511 0.00762261 4 
148 107 645 0 1.54205090 0.00750745 4 
149 101 657 0 0.73548669 0.01668794 10 
150 101 663 0 0.04971914 0.01678109 10 
151 107 663 0 0.01781179 0.00915172 5 
152 114 663 0 0.00275957 0.00916259 5 
153 101 665 0 1.55112265 0.01347570 8 
154 107 665 0 0.47667103 0.00780022 4 
155 114 665 0 0.13329170 0.00648877 3 
156 107 680 0 1.48615866 0.00937533 5 
157 107 683 0 0.94462224 0.00804386 4 
158 114 683 0 0.32178225 0.00955085 5 
159 133 699 2 1498.31801653 0.00000393 1 
160 107 704 0 0.34268109 0.01264183 7 
161 114 704 0 0.07528002 0.01554455 9 
162 107 714 0 1.79639085 0.01134456 6 
163 114 714 0 0.02860377 0.01440297 8 
164 262 721 2 677.12958010 0.00000433 1 
165 107 730 0 0.19656714 0.01015018 5 
166 114 730 0 0.03540690 0.00856066 4 
167 195 749 2 659.22530201 0.00000360 1 
168 121 754 0 0.33113739 0.00875478 4 
169 126 754 0 0.07673382 0.01513212 8 
170 121 759 0 2.33625684 0.01197305 6 
171 126 759 0 0.22329988 0.01203605 6 
172 126 762 0 7.08482229 0.01041350 5 
173 132 762 0 2.00372045 0.01535194 8 
174 132 778 0 0.06999780 0.00903253 4 
175 135 787 2 414.33140897 0.00001311 1 
176 132 792 0 1.26802734 0.00929058 4 
177 696 798 2 1052.30082089 0.00000363 1 
178 132 800 0 3.35686460 0.00918030 4 
179 138 800 0 0.14494330 0.01254659 6 
180 424 805 2 463.50790427 0.00000360 1 
181 138 806 0 0.25140739 0.00751922 3 
182 57 807 2 3341.35733178 0.00000372 1 
183 697 807 2 1507.64145856 0.00000152 1 
184 138 821 0 0.40674396 0.01107997 5 
185 138 823 0 6.54725682 0.00936822 4 
186 151 828 0 3.12108818 0.00948374 4 
187 392 833 2 1789.02592952 0.00000423 1 
188 378 834 2 3314.48386708 0.00000337 1 
189 151 847 0 0.08724621 0.01145238 5 
190 151 855 0 0.11494457 0.01510830 7 
191 269 855 2 1223.02168111 0.00000438 7 
192 804 878 2 965.53963229 0.00000394 1 
193 151 895 0 2.80701437 0.01765932 8 
194 151 897 0 0.06118057 0.02137820 10 
195 138 903 0 0.08157811 0.01022987 4 
196 138 904 0 7.06392298 0.01400886 6 
197 132 907 0 0.71874717 0.01029067 4 
198 138 907 0 0.22077132 0.01218386 5 
199 132 911 0 0.23128175 0.01220259 5 
200 121 923 0 0.62636126 0.01433897 6 
201 126 923 0 0.07130653 0.01047026 4 
202 107 929 0 0.07225325 0.01253264 5 
203 114 929 0 0.00477553 0.01057983 4 
204 107 935 0 4.91438615 0.01649661 7 
205 114 935 0 1.40337639 0.01652298 7 
206 101 939 0 0.48567419 0.01077069 4 
207 107 939 0 0.21174614 0.01095427 4 
208 637 941 2 1310.05838883 0.00000474 1 
209 101 944 0 0.15377935 0.01271020 5 
210 94 947 0 0.23772432 0.01674663 7 
211 101 947 0 0.16826262 0.01479491 6 
212 893 948 2 3141.22325098 0.00000439 1 
213 87 953 0 0.13504795 0.01087318 4 
214 94 953 0 0.06505521 0.01490389 6 
215 226 953 0 0.08268323 0.02294924 10 
216 81 959 0 1.83528326 0.02434711 10 
217 87 959 0 1.29172246 0.01708336 7 
218 220 959 0 0.04883629 0.01099988 4 
219 226 959 0 0.12130941 0.01304760 5 
220 67 965 0 1.01368609 0.01314084 5 
221 81 965 0 0.31066014 0.01518359 6 
222 220 965 0 0.16483276 0.01927483 8 
223 61 976 0 0.16803746 0.01739309 7 
224 67 976 0 0.05676300 0.00914040 3 
225 209 976 0 0.00780965 0.01122738 4 
226 899 980 2 2888.64031460 0.00000452 1 
227 50 982 0 0.38354811 0.01132383 4 
228 61 982 0 0.27147698 0.01132467 4 
229 201 982 0 0.22200943 0.01132251 4 
230 203 982 0 0.10573284 0.02182921 9 
231 44 988 0 0.09550719 0.01145634 4 
232 50 988 0 0.05924873 0.01145152 4 
233 195 988 0 0.04319526 0.01568430 6 
234 201 988 0 0.02685916 0.01354398 5 
235 44 994 0 0.51683435 0.01783741 7 
236 189 994 0 0.29989154 0.02565828 10 
237 195 994 0 0.21957432 0.01368140 5 
238 32 1003 0 0.23901034 0.01382370 5 
239 178 1003 0 0.03356851 0.02599554 10 
240 183 1003 0 0.01433170 0.01602290 6 
241 25 1008 0 1.23858172 0.01831700 7 
242 32 1008 0 0.53803958 0.01175567 4 
243 178 1008 0 0.34459610 0.01176267 4 
244 183 1008 0 0.22233868 0.01180637 4 
245 25 1010 0 0.60236133 0.01181185 4 
246 32 1010 0 0.30591807 0.01396541 5 
247 172 1010 0 0.10368354 0.01627352 6 
248 178 1010 0 0.19279072 0.02640306 10 
249 19 1016 0 0.44047719 0.02055452 8 
250 166 1016 0 0.20189646 0.01184564 4 
251 172 1016 0 0.07393216 0.01405371 5 
252 865 1026 2 254.46664216 0.00000579 1 
253 151 1029 0 0.03533130 0.01432667 5 
254 157 1029 0 0.02672450 0.01199605 4 
255 163 1029 0 3.39703566 0.01201556 4 
256 166 1029 0 0.49353449 0.01202059 4 
257 802 1030 2 195.91804724 0.00000552 1 
258 102 1053 2 320.45470173 0.00000644 1 
259 554 1055 2 698.09429250 0.00000509 1 
260 163 1076 2 34.27904773 0.00000552 1 
261 724 1080 2 82.90942779 0.00000481 1 
262 132 1084 0 4.21993706 0.01504517 5 
263 1014 1097 2 236.67850469 0.00000639 1 
264 101 1138 0 0.63021658 0.01575066 5 
265 916 1145 2 2767.52908581 0.00000604 1 
266 107 1147 0 0.73708347 0.01327623 4 
267 114 1147 0 0.03971358 0.01081574 3 
268 107 1150 0 7.45683387 0.01333648 4 
269 114 1150 0 1.00561260 0.01088470 3 
270 999 1151 2 563.97635098 0.00000552 1 
271 114 1158 0 0.16899687 0.01090992 3 
272 121 1158 0 0.69099743 0.01346650 4 
273 121 1164 0 0.45182924 0.01601704 5 
274 126 1164 0 0.04418665 0.01352305 4 
275 114 1175 0 0.14266969 0.01366406 4 
276 121 1175 0 0.27324351 0.01368310 4 
277 923 1175 0 0.18719011 0.01375829 4 
278 929 1175 0 0.16073549 0.01364693 4 
279 1158 1175 0 0.00134797 0.01113036 3 
280 1017 1175 2 6898.90753590 0.00000536 3 
281 1148 1177 2 1452.04075691 0.00000584 1 
282 382 1182 2 3165.50401379 0.00000557 1 
283 101 1188 0 0.32950319 0.01387179 4 
284 939 1188 0 0.55418798 0.01391734 4 
285 1138 1188 0 0.03006025 0.01137658 3 
286 1147 1188 0 0.04063922 0.01128991 3 
287 1150 1188 0 1.83245351 0.01389247 4 
288 670 1192 2 2743.61127127 0.00000629 1 
289 862 1196 2 1175.17327943 0.00000640 1 
290 1061 1198 2 388.13486738 0.00000568 1 
291 1050 1210 0 0.00345523 0.01408663 4 
292 1061 1210 0 0.57363906 0.01676015 5 
293 1075 1210 0 0.23107861 0.01674089 5 
294 1084 1210 0 3.13555510 0.01715048 5 
295 1088 1210 0 0.59156319 0.01414005 4 
296 1093 1210 0 0.13111230 0.01937248 6 
297 1098 1210 0 0.04730346 0.01411921 4 
298 1141 1210 2 414.73905555 0.00000545 4 
299 157 1217 0 0.32750279 0.01430140 4 
300 163 1217 0 0.19904338 0.01441342 4 
301 1029 1217 0 0.01250493 0.01170629 3 
302 1044 1217 0 3.98258990 0.01438239 4 
303 1050 1217 0 4.97161000 0.01707484 5 
304 163 297 0 0.27920255 0.01515357 4 
305 189 400 0 2.09679271 0.01457705 4 
306 1056 1217 0 9.66143264 0.01725402 5 
