1 19 166 0.00295667 10 
2 19 172 0.00311259 10 
3 25 172 0.00317807 10 
4 25 178 0.00329012 10 
5 32 178 0.00329629 10 
6 32 183 0.00338983 10 
7 44 189 0.00350929 10 
8 44 195 0.00361728 10 
9 50 195 0.00361047 10 
10 50 201 0.00371980 10 
11 50 203 0.00376960 10 
12 61 203 0.00375283 10 
13 61 209 0.00386600 10 
14 67 209 0.00387256 10 
15 67 220 0.00406704 10 
16 81 220 0.00406645 10 
17 81 226 0.00418087 10 
18 87 226 0.00417293 10 
19 87 231 0.00427321 10 
20 94 231 0.00427193 10 
21 226 231 0.00425864 10 
22 94 241 0.00446479 10 
23 101 241 0.00446554 10 
24 101 247 0.00457148 10 
25 107 247 0.00458249 10 
26 107 254 0.00471197 10 
27 114 254 0.00471428 10 
28 107 256 0.00476175 10 
29 114 256 0.00476897 10 
30 107 258 0.00480536 10 
31 114 258 0.00480523 10 
32 121 266 0.00497393 10 
33 126 266 0.00500216 10 
34 126 272 0.00513162 10 
35 132 272 0.00514047 10 
36 132 278 0.00525548 10 
37 138 278 0.00525023 10 
38 138 284 0.00539732 10 
39 151 284 0.00539578 10 
40 151 291 0.00552751 10 
41 151 297 0.00564529 10 
42 157 297 0.00564418 10 
43 163 297 0.00564836 10 
44 166 297 0.00565573 10 
45 19 305 0.00593901 10 
46 157 305 0.00593446 10 
47 163 305 0.00599465 10 
48 166 305 0.00597351 10 
49 172 305 0.00601998 10 
50 19 315 0.00538523 9 
51 25 315 0.00605246 10 
52 172 315 0.00621475 10 
53 172 328 0.00627947 10 
54 19 337 0.00515226 8 
55 25 337 0.00651285 10 
56 172 337 0.00667674 10 
57 19 342 0.00657454 10 
58 25 342 0.00663595 10 
59 172 342 0.00340765 5 
60 178 342 0.00665349 10 
61 25 367 0.00347537 5 
62 32 367 0.00420002 6 
63 178 367 0.00422526 6 
64 183 367 0.00503487 7 
65 25 374 0.00724670 10 
66 32 374 0.00729431 10 
67 178 374 0.00523806 7 
68 183 374 0.00653381 9 
69 32 382 0.00592695 8 
70 183 382 0.00750713 10 
71 32 387 0.00754984 10 
72 183 387 0.00448286 6 
73 189 400 0.00788056 10 
74 189 414 0.00814382 10 
75 44 437 0.00903433 10 
76 195 437 0.00880440 10 
77 44 454 0.00889636 10 
78 189 454 0.00913642 10 
79 44 467 0.00916988 10 
80 50 467 0.00941873 10 
81 195 467 0.00943088 10 
82 7 475 0.00943234 10 
83 195 484 0.00960637 10 
84 44 494 0.00875691 9 
85 50 494 0.00978944 10 
86 195 494 0.01004525 10 
87 201 494 0.01015347 10 
88 50 500 0.00995570 10 
89 201 500 0.01021067 10 
90 203 500 0.01022754 10 
91 61 508 0.01016935 10 
92 203 508 0.01042638 10 
93 209 508 0.01047287 10 
94 61 522 0.01044352 10 
95 203 522 0.01068594 10 
96 209 522 0.01070591 10 
97 61 528 0.01057006 10 
98 67 528 0.01085604 10 
99 81 528 0.01088738 10 
100 209 528 0.01089564 10 
101 220 528 0.01088741 10 
102 67 532 0.00955525 9 
103 81 532 0.01071016 10 
104 220 532 0.01101154 10 
105 397 534 0.01091171 10 
106 67 556 0.01136446 10 
107 67 564 0.01153352 10 
108 81 564 0.01178587 10 
109 220 564 0.01171688 10 
110 67 567 0.01158810 10 
111 81 567 0.01186234 10 
112 220 567 0.01187803 10 
113 67 570 0.01165561 10 
114 81 570 0.01195905 10 
115 220 570 0.01196460 10 
116 81 575 0.01204298 10 
117 220 575 0.01206817 10 
118 10 579 0.01225675 10 
119 81 588 0.01215490 10 
120 87 588 0.01248028 10 
121 226 588 0.01253088 10 
122 87 597 0.01240901 10 
123 94 597 0.01272165 10 
124 226 597 0.01273266 10 
125 87 604 0.01259311 10 
126 94 604 0.01290111 10 
127 94 616 0.01015317 8 
128 94 632 0.01315183 10 
129 94 637 0.01323026 10 
130 101 637 0.01356509 10 
131 101 642 0.01334439 10 
132 107 642 0.01373075 10 
133 101 645 0.01346807 10 
134 107 645 0.01379735 10 
135 101 657 0.01458498 10 
136 101 663 0.01095883 8 
137 107 663 0.01376110 10 
138 114 663 0.01379130 10 
139 101 665 0.01393514 10 
140 107 665 0.01426623 10 
141 114 665 0.01425986 10 
142 107 680 0.01423230 10 
143 107 683 0.01429060 10 
144 114 683 0.01463491 10 
145 107 704 0.01469070 10 
146 114 704 0.01503363 10 
147 107 714 0.01488118 10 
148 114 714 0.01512434 10 
149 107 730 0.01048253 7 
150 114 730 0.01519680 10 
151 121 754 0.01563859 10 
152 126 754 0.01601303 10 
153 121 759 0.01574184 10 
154 126 759 0.01612442 10 
155 126 762 0.01581612 10 
156 132 762 0.01623815 10 
157 132 778 0.01603001 10 
158 132 792 0.01684533 10 
159 132 800 0.01657580 10 
160 138 800 0.01705958 10 
161 138 806 0.01677469 10 
162 138 821 0.01522825 9 
163 138 823 0.01699898 10 
164 151 828 0.01723549 10 
165 151 847 0.01759777 10 
166 151 855 0.01223612 7 
167 232 892 0.01844096 10 
168 151 895 0.01849858 10 
169 151 897 0.01467600 8 
170 138 903 0.01871404 10 
171 138 904 0.01873542 10 
172 132 907 0.01891426 10 
173 138 907 0.01934465 10 
174 132 911 0.01896766 10 
175 121 923 0.01925112 10 
176 126 923 0.01974106 10 
177 107 929 0.01939303 10 
178 114 929 0.01990099 10 
179 107 935 0.01958235 10 
180 114 935 0.02006720 10 
181 101 939 0.01757609 9 
182 107 939 0.01756384 9 
183 101 944 0.01976923 10 
184 94 947 0.01987407 10 
185 101 947 0.02032825 10 
186 87 953 0.01995668 10 
187 94 953 0.02041601 10 
188 226 953 0.02046174 10 
189 81 959 0.02012745 10 
190 87 959 0.02058077 10 
191 220 959 0.02059086 10 
192 226 959 0.02062900 10 
193 67 965 0.02029965 10 
194 81 965 0.02078995 10 
195 220 965 0.02078817 10 
196 61 976 0.02065443 10 
197 67 976 0.02110126 10 
198 209 976 0.02121357 10 
199 50 982 0.02091109 10 
200 61 982 0.02124938 10 
201 201 982 0.02134474 10 
202 203 982 0.02120667 10 
203 516 987 0.01868101 9 
204 44 988 0.02115881 10 
205 50 988 0.01724301 8 
206 195 988 0.02113786 10 
207 201 988 0.01513693 7 
208 44 994 0.02130218 10 
209 189 994 0.02183468 10 
210 195 994 0.02182927 10 
211 32 1003 0.02155023 10 
212 178 1003 0.02209983 10 
213 183 1003 0.02210175 10 
214 25 1008 0.02174685 10 
215 32 1008 0.02225394 10 
216 178 1008 0.02227793 10 
217 183 1008 0.02229006 10 
218 25 1010 0.02182463 10 
219 32 1010 0.02234419 10 
220 172 1010 0.02233769 10 
221 178 1010 0.02199413 10 
222 399 1010 0.02252145 10 
223 19 1016 0.02219178 10 
224 166 1016 0.02260412 10 
225 172 1016 0.01832228 8 
226 151 1029 0.02241658 10 
227 157 1029 0.02295189 10 
228 163 1029 0.02295635 10 
229 166 1029 0.02288435 10 
230 242 1076 0.02350792 10 
231 132 1084 0.02373407 10 
232 480 1098 0.02419367 10 
233 548 1128 0.02497718 10 
234 101 1138 0.02515748 10 
235 107 1147 0.02539884 10 
236 114 1147 0.02594958 10 
237 107 1150 0.02547489 10 
238 114 1150 0.02604418 10 
239 759 1154 0.02560404 10 
240 114 1158 0.02566173 10 
241 121 1158 0.02630928 10 
242 121 1164 0.02585331 10 
243 126 1164 0.02642811 10 
244 114 1175 0.02605113 10 
245 121 1175 0.02666261 10 
246 923 1175 0.02668564 10 
247 929 1175 0.02670843 10 
248 1158 1175 0.02126914 8 
249 101 1188 0.02645632 10 
250 939 1188 0.02701352 10 
251 1138 1188 0.02706550 10 
252 1147 1188 0.02711130 10 
253 1150 1188 0.02740416 10 
254 1050 1210 0.02784794 10 
255 1061 1210 0.02744827 10 
256 1075 1210 0.02745497 10 
257 1084 1210 0.02763184 10 
258 1088 1210 0.02764905 10 
259 1093 1210 0.02765229 10 
260 1098 1210 0.02765473 10 
261 157 1217 0.02714494 10 
262 163 1217 0.02766596 10 
263 1029 1217 0.02750945 10 
264 1044 1217 0.02710281 10 
265 1050 1217 0.02770366 10 
266 1056 1217 0.02773143 10 
