VERTEX2 0 0.00005476 -0.00000051 0.00000027
VERTEX2 1 0.00005476 -0.00000051 -0.00064173
VERTEX2 2 0.00005476 -0.00000051 -0.00117973
VERTEX2 3 0.01105662 -0.00097549 -0.00356173
VERTEX2 4 0.64106320 -0.01120046 -0.00744373
VERTEX2 5 0.69607089 -0.01171594 -0.09872573
VERTEX2 6 0.70032401 -0.01543526 -0.89599773
VERTEX2 7 0.69401127 0.00421321 -1.51153473
VERTEX2 8 0.69931812 0.02669398 -2.12506873
VERTEX2 9 0.71616938 0.04112300 -2.76313873
VERTEX2 10 0.72903590 0.04322040 2.90551557
VERTEX2 11 0.73325848 0.04053735 2.23123657
VERTEX2 12 0.73324120 0.04154580 1.58176258
VERTEX2 13 0.73880735 0.05907089 0.92226458
VERTEX2 14 0.75971286 0.07375110 0.31402558
VERTEX2 15 0.76862627 0.07435805 -0.21090242
VERTEX2 16 1.06254835 0.01415268 -0.22959442
VERTEX2 17 1.66370204 -0.13311390 -0.26082242
VERTEX2 18 2.28705623 -0.29647881 -0.27099942
VERTEX2 19 2.91435220 -0.49425248 -0.31957542
VERTEX2 20 3.50931808 -0.68495152 -0.31380204
VERTEX2 21 4.11975375 -0.83804093 -0.20229187
VERTEX2 22 4.73081778 -0.98004301 -0.18498008
VERTEX2 23 5.37130189 -1.02486934 -0.07751773
VERTEX2 24 6.00363610 -1.09669695 -0.13454871
VERTEX2 25 6.63925222 -1.16498385 -0.13175186
VERTEX2 26 7.24887959 -1.26575855 -0.17245202
VERTEX2 27 7.86547747 -1.35743609 -0.15679111
VERTEX2 28 8.44770641 -1.45649938 -0.16141316
VERTEX2 29 8.82740520 -1.51434488 -0.13083457
VERTEX2 30 8.83700188 -1.51690774 -0.66338205
VERTEX2 31 8.93705524 -1.65151854 -0.93203504
VERTEX2 32 9.30346744 -2.16561968 -0.95076970
VERTEX2 33 9.68603857 -2.67239761 -0.89893141
VERTEX2 34 10.09928129 -3.16367752 -0.87700236
VERTEX2 35 10.52347236 -3.64730430 -0.84191549
VERTEX2 36 10.95484202 -4.13195161 -0.84978855
VERTEX2 37 11.23950849 -4.44772406 -0.84145395
VERTEX2 38 11.23813735 -4.44587028 -1.16195783
VERTEX2 39 11.23460609 -4.43027079 -1.33196080
VERTEX2 40 11.38089387 -4.99396681 -1.31402215
VERTEX2 41 11.53337583 -5.58280595 -1.34535424
VERTEX2 42 11.65849339 -6.13475411 -1.36744626
VERTEX2 43 11.76858038 -6.71796704 -1.40701918
VERTEX2 44 11.86237413 -7.30026560 -1.44338946
VERTEX2 45 11.92333342 -7.91802245 -1.49942850
VERTEX2 46 11.95999023 -8.53778051 -1.51932461
VERTEX2 47 11.98547296 -9.15734768 -1.56155637
VERTEX2 48 11.98710633 -9.78124065 -1.56864405
VERTEX2 49 11.98462691 -10.40105606 -1.62008749
VERTEX2 50 11.93560408 -10.98822528 -1.66520598
VERTEX2 51 11.88438959 -11.58407359 -1.69459139
VERTEX2 52 11.79109320 -12.16624567 -1.77168859
VERTEX2 53 11.69463409 -12.72274052 -1.75968901
VERTEX2 54 11.58480948 -13.23319011 -1.82217983
VERTEX2 55 11.59172207 -13.19933831 -1.81726450
VERTEX2 56 11.59167410 -13.19956955 -1.80705579
VERTEX2 57 11.45081702 -13.81603706 -1.81883623
VERTEX2 58 11.30712923 -14.42063619 -1.77304059
VERTEX2 59 11.18045541 -15.02475210 -1.79704846
VERTEX2 60 11.05291524 -15.62512289 -1.77611100
VERTEX2 61 10.91934303 -16.22586894 -1.82733714
VERTEX2 62 10.76588006 -16.79087120 -1.78688211
VERTEX2 63 10.61100329 -17.36071036 -1.82158924
VERTEX2 64 10.47373649 -17.92400803 -1.75722911
VERTEX2 65 10.33760322 -18.48538251 -1.80755471
VERTEX2 66 10.18283132 -19.07782514 -1.81447801
VERTEX2 67 10.01685250 -19.67491996 -1.81188929
VERTEX2 68 9.90945159 -20.12536183 -1.82728529
VERTEX2 69 9.91187133 -20.11724455 -1.98174414
VERTEX2 70 9.91735947 -20.10651597 -2.65514750
VERTEX2 71 9.93875028 -20.10509663 2.98632679
VERTEX2 72 9.95034306 -20.10641606 2.97725576
VERTEX2 73 9.95684350 -20.10795166 2.91276783
VERTEX2 74 9.95676858 -20.10788706 2.29192006
VERTEX2 75 9.96281411 -20.11017086 1.94027437
VERTEX2 76 9.95127242 -20.09767103 2.63517014
VERTEX2 77 9.94638828 -20.09569639 2.86871856
VERTEX2 78 9.66348858 -20.11018921 -3.07666027
VERTEX2 79 9.04443374 -20.15765128 -3.08153036
VERTEX2 80 8.41120413 -20.16522531 3.12756854
VERTEX2 81 7.78544589 -20.14783775 3.10195991
VERTEX2 82 7.19909559 -20.12137865 3.04627453
VERTEX2 83 6.62492606 -20.08333085 3.02114738
VERTEX2 84 6.07792020 -20.00989606 2.94171555
VERTEX2 85 5.54945673 -19.91700582 2.94772217
VERTEX2 86 4.94306540 -19.80283693 2.85754390
VERTEX2 87 4.49519517 -19.67358067 2.80918670
VERTEX2 88 4.13457672 -19.54469818 2.77894392
VERTEX2 89 4.14549288 -19.54508909 -3.10878184
VERTEX2 90 3.54358918 -19.55481233 -3.14023071
VERTEX2 91 2.93096119 -19.55678414 -3.09151777
VERTEX2 92 2.33457587 -19.55849555 3.07557733
VERTEX2 93 1.71399444 -19.46176609 2.97429260
VERTEX2 94 1.09250766 -19.32875372 2.93116123
VERTEX2 95 0.47040767 -19.24346379 3.07271851
VERTEX2 96 -0.13602320 -19.19442476 3.09613713
VERTEX2 97 -0.72413423 -19.13321253 3.02496740
VERTEX2 98 -1.31550578 -19.03319723 2.96662492
VERTEX2 99 -2.02380683 -18.90921365 3.01323251
VERTEX2 100 -2.59288881 -18.80176482 2.96143279
VERTEX2 101 -3.20276290 -18.74647728 3.06460398
VERTEX2 102 -3.81865245 -18.66879072 2.95909362
VERTEX2 103 -4.43084492 -18.55643437 3.05527720
VERTEX2 104 -5.04351395 -18.48301477 3.02136024
VERTEX2 105 -5.65563212 -18.42132788 3.06774020
VERTEX2 106 -6.25706105 -18.35350231 3.01263418
VERTEX2 107 -6.87506923 -18.25962910 3.00849058
VERTEX2 108 -7.32892418 -18.21366142 3.07020471
VERTEX2 109 -7.37314782 -18.20274917 2.62192676
VERTEX2 110 -7.38972245 -18.18581110 2.03089369
VERTEX2 111 -7.39044038 -18.10439272 1.52531288
VERTEX2 112 -7.37090274 -17.47007101 1.57989653
VERTEX2 113 -7.39355438 -16.84777494 1.62709623
VERTEX2 114 -7.43101360 -16.23410829 1.66405434
VERTEX2 115 -7.50790923 -15.59151728 1.72397097
VERTEX2 116 -7.63027925 -14.84004209 1.76781279
VERTEX2 117 -7.76890862 -14.23060362 1.86314981
VERTEX2 118 -7.77373683 -14.20980525 1.52794347
VERTEX2 119 -7.72009128 -13.68249314 1.47456189
VERTEX2 120 -7.67054695 -13.01807637 1.56469276
VERTEX2 121 -7.68491558 -12.39361842 1.63230059
VERTEX2 122 -7.72343625 -11.81161647 1.68923151
VERTEX2 123 -7.74985394 -11.63256644 1.67714233
VERTEX2 124 -7.66566197 -11.39171355 1.25424446
VERTEX2 125 -7.45431397 -10.79550511 1.24402650
VERTEX2 126 -7.32838894 -10.17685710 1.45105669
VERTEX2 127 -7.23626450 -9.53546089 1.45024162
VERTEX2 128 -7.16734712 -8.89131748 1.48757469
VERTEX2 129 -7.08810318 -8.25056205 1.45590690
VERTEX2 130 -7.02869144 -7.61284162 1.50963613
VERTEX2 131 -6.99200884 -6.98189187 1.59922421
VERTEX2 132 -6.98419380 -6.36150072 1.55062820
VERTEX2 133 -6.94452930 -5.79577962 1.51421745
VERTEX2 134 -6.89853115 -5.20038682 1.49652201
VERTEX2 135 -6.82463211 -4.62096293 1.47091723
VERTEX2 136 -6.76002979 -3.98672657 1.49110891
VERTEX2 137 -6.67392694 -3.35219149 1.44956072
VERTEX2 138 -6.60980799 -2.72007316 1.52936805
VERTEX2 139 -6.60561640 -2.09189949 1.59362194
VERTEX2 140 -6.64588647 -1.44098400 1.62321719
VERTEX2 141 -6.66310112 -0.80440824 1.57386425
VERTEX2 142 -6.67422421 -0.15786890 1.56923392
VERTEX2 143 -6.60341631 0.48107867 1.45775047
VERTEX2 144 -6.56954574 0.85197262 1.47453176
VERTEX2 145 -6.56356322 0.87105080 0.97448490
VERTEX2 146 -6.56202039 0.87948950 0.37939539
VERTEX2 147 -6.48807771 0.87525701 -0.10875030
VERTEX2 148 -6.03772413 0.81782963 -0.14518918
VERTEX2 149 -5.37818951 0.72844766 -0.12085781
VERTEX2 150 -4.72540955 0.66855134 -0.10745439
VERTEX2 151 -4.06722513 0.62581390 -0.02265122
VERTEX2 152 -3.43913622 0.59627660 -0.08370356
VERTEX2 153 -2.81117451 0.56926996 0.00945427
VERTEX2 154 -2.18670567 0.55389248 -0.06039388
VERTEX2 155 -1.55869867 0.52581966 -0.02719318
VERTEX2 156 -0.92811259 0.51683712 0.00327231
VERTEX2 157 -0.36090104 0.50375234 -0.06156505
VERTEX2 158 -0.18064532 0.49224981 -0.04518863
VERTEX2 159 -0.18759488 0.49458620 0.90052293
VERTEX2 160 -0.18731466 0.49541695 1.89252887
VERTEX2 161 -0.19022871 0.48740851 2.82731300
VERTEX2 162 -0.17974509 0.49137116 -2.46373798
VERTEX2 163 -0.18107560 0.48177024 -1.50867978
VERTEX2 164 -0.23463610 0.54923897 -0.51912929
VERTEX2 165 -0.06048349 0.52565173 -0.08572437
VERTEX2 166 0.64667655 0.47840285 -0.07133060
VERTEX2 167 1.26660059 0.42919167 -0.10016932
VERTEX2 168 1.85785532 0.38114894 -0.08781360
VERTEX2 169 2.45428392 0.31117271 -0.12453503
VERTEX2 170 3.04218515 0.24447331 -0.14513287
VERTEX2 171 3.60212791 0.14798564 -0.18354507
VERTEX2 172 4.22604118 0.04268286 -0.16975888
VERTEX2 173 4.85504448 -0.07844608 -0.19250392
VERTEX2 174 5.48037163 -0.19311568 -0.15229819
VERTEX2 175 6.09703019 -0.28365126 -0.17696382
VERTEX2 176 6.69642050 -0.40417670 -0.16734349
VERTEX2 177 7.32001590 -0.50723974 -0.19500134
VERTEX2 178 7.94116332 -0.65332540 -0.23403432
VERTEX2 179 8.34598554 -0.73775831 -0.18084611
VERTEX2 180 8.39801536 -0.75183167 -0.62316269
VERTEX2 181 8.83776918 -1.07018059 -0.67512989
VERTEX2 182 9.24285437 -1.43001679 -0.84940607
VERTEX2 183 9.58869259 -1.85110376 -0.90694632
VERTEX2 184 9.92391952 -2.36113853 -1.04973165
VERTEX2 185 10.20691323 -2.89438118 -1.13887117
VERTEX2 186 10.42820074 -3.46086240 -1.20195672
VERTEX2 187 10.62693175 -4.00514927 -1.22150295
VERTEX2 188 10.83407927 -4.56837837 -1.22389639
VERTEX2 189 11.03563246 -5.13541091 -1.24742941
VERTEX2 190 11.22846318 -5.73602583 -1.27755430
VERTEX2 191 11.41002972 -6.33619002 -1.30294078
VERTEX2 192 11.57169270 -6.93019450 -1.33257475
VERTEX2 193 11.70115342 -7.47626015 -1.38957572
VERTEX2 194 11.80642653 -8.04408049 -1.41746512
VERTEX2 195 11.89145049 -8.60818096 -1.44709081
VERTEX2 196 11.96310954 -9.23161021 -1.48825500
VERTEX2 197 12.00581119 -9.85103420 -1.51613264
VERTEX2 198 12.03553655 -10.46784809 -1.57474566
VERTEX2 199 12.01178291 -11.07424026 -1.63661717
VERTEX2 200 11.96875672 -11.67548015 -1.65892549
VERTEX2 201 11.90182559 -12.27334932 -1.71605637
VERTEX2 202 11.84196264 -12.77649527 -1.69693448
VERTEX2 203 11.74557117 -13.50856067 -1.75092745
VERTEX2 204 11.62773613 -14.08195315 -1.85377997
VERTEX2 205 11.46300153 -14.63817239 -1.86401877
VERTEX2 206 11.31254333 -15.17975740 -1.86297868
VERTEX2 207 11.15595421 -15.74097805 -1.84797977
VERTEX2 208 10.98541331 -16.33451553 -1.85839055
VERTEX2 209 10.82512186 -16.93000668 -1.82125341
VERTEX2 210 10.73526201 -17.30023436 -1.85623198
VERTEX2 211 10.64463278 -17.66940170 -1.87986381
VERTEX2 212 10.53280023 -18.01398076 -1.96192196
VERTEX2 213 10.21212234 -18.78176766 -1.97254863
VERTEX2 214 9.89258661 -19.53719289 -1.96700030
VERTEX2 215 9.67615137 -20.04596192 -1.99317747
VERTEX2 216 9.58672931 -20.18365060 -2.47232763
VERTEX2 217 9.62266719 -20.18073936 -2.99392371
VERTEX2 218 9.74233481 -20.22804658 -3.04001570
VERTEX2 219 9.22482821 -20.19372695 3.08602410
VERTEX2 220 8.66110613 -20.16658395 3.05452021
VERTEX2 221 8.02067182 -20.10811044 3.10472249
VERTEX2 222 7.39521961 -20.07314937 3.07900273
VERTEX2 223 6.77005206 -20.05138415 -3.10793376
VERTEX2 224 6.15845094 -20.05947905 -3.13370514
VERTEX2 225 5.54281581 -20.06134653 -3.08390392
VERTEX2 226 4.92799857 -20.06258261 -3.13281816
VERTEX2 227 4.28484419 -20.14442400 -2.97638127
VERTEX2 228 3.76623593 -20.13786244 2.94482376
VERTEX2 229 3.29484165 -20.09692207 3.06583049
VERTEX2 230 3.01582334 -20.08717380 3.03637818
VERTEX2 231 3.23691710 -20.10357343 3.10568618
VERTEX2 232 2.91876608 -19.96508122 2.67942643
VERTEX2 233 2.34720709 -19.70786021 2.78103588
VERTEX2 234 1.76590698 -19.48534846 2.73626914
VERTEX2 235 1.51166329 -19.37857020 2.73071569
VERTEX2 236 1.18134463 -19.38276591 3.13621697
VERTEX2 237 0.56057630 -19.40269880 -3.07701942
VERTEX2 238 -0.05058232 -19.45534941 -3.11013551
VERTEX2 239 -0.66073982 -19.45700231 3.10514661
VERTEX2 240 -1.23144301 -19.34310196 2.88707915
VERTEX2 241 -1.77242486 -19.21555318 2.97242501
VERTEX2 242 -2.35195492 -19.15118824 3.00997756
VERTEX2 243 -2.95649885 -19.06875743 3.00843617
VERTEX2 244 -3.57970028 -19.02507032 3.07952917
VERTEX2 245 -4.19294989 -18.97893603 3.02561382
VERTEX2 246 -4.79458423 -18.89579375 2.95372596
VERTEX2 247 -5.39676072 -18.81732968 3.06040237
VERTEX2 248 -5.94934034 -18.79964033 3.09254716
VERTEX2 249 -5.89943806 -18.80673976 -2.99706630
VERTEX2 250 -5.89619242 -18.80660916 2.69692019
VERTEX2 251 -6.22341165 -18.46555268 2.27322038
VERTEX2 252 -6.58221474 -18.04704098 2.28249737
VERTEX2 253 -6.95771118 -17.60315054 2.27228755
VERTEX2 254 -7.32727806 -17.14706216 2.23189227
VERTEX2 255 -7.39714626 -17.05991031 2.31663847
VERTEX2 256 -7.40042255 -16.98824485 1.83605774
VERTEX2 257 -7.46814047 -16.48525346 1.71574635
VERTEX2 258 -7.55357544 -15.91973425 1.78751863
VERTEX2 259 -7.70021966 -15.32316584 1.82759564
VERTEX2 260 -7.83658764 -14.77076591 1.81883981
VERTEX2 261 -7.83439825 -14.72711721 1.50678017
VERTEX2 262 -7.77477609 -14.06739951 1.51324442
VERTEX2 263 -7.73615549 -13.44246682 1.52662849
VERTEX2 264 -7.72498501 -12.83292821 1.62373214
VERTEX2 265 -7.76050352 -12.22794492 1.64406336
VERTEX2 266 -7.71591775 -11.64205265 1.51523523
VERTEX2 267 -7.67008306 -10.89015526 1.48608280
VERTEX2 268 -7.54119255 -10.27943453 1.37602186
VERTEX2 269 -7.42547268 -9.65974106 1.40652467
VERTEX2 270 -7.35845455 -9.03154546 1.52118783
VERTEX2 271 -7.26851026 -8.40390797 1.41149804
VERTEX2 272 -7.18900208 -7.77237479 1.47772283
VERTEX2 273 -7.20534825 -7.13989356 1.69038833
VERTEX2 274 -7.27950706 -6.52541448 1.71490526
VERTEX2 275 -7.27443481 -5.91443794 1.54418452
VERTEX2 276 -7.27498536 -5.30484330 1.65947754
VERTEX2 277 -7.32899975 -4.74191748 1.63469355
VERTEX2 278 -7.29433450 -4.09754650 1.54687259
VERTEX2 279 -7.26224895 -3.46429264 1.49074405
VERTEX2 280 -7.20117285 -2.83288175 1.49230902
VERTEX2 281 -7.11709300 -2.19697251 1.39154438
VERTEX2 282 -7.00286645 -1.56398881 1.43136166
VERTEX2 283 -6.92223051 -0.92853920 1.42371950
VERTEX2 284 -6.81611529 -0.30043421 1.45131307
VERTEX2 285 -6.75827981 0.34518339 1.47151338
VERTEX2 286 -6.70008798 0.96306204 1.52425317
VERTEX2 287 -6.69817846 1.00839895 1.41887855
VERTEX2 288 -6.69199377 1.01985756 0.80754059
VERTEX2 289 -6.67246888 1.03046910 0.21141274
VERTEX2 290 -6.20731347 1.02409813 -0.01489902
VERTEX2 291 -5.56047028 1.01889152 -0.00184468
VERTEX2 292 -4.94109494 1.00144123 -0.05651998
VERTEX2 293 -4.31314231 0.95832410 -0.07961752
VERTEX2 294 -3.68876286 0.90809705 -0.07897275
VERTEX2 295 -3.06374226 0.82957812 -0.19151657
VERTEX2 296 -2.44386562 0.68634799 -0.23697164
VERTEX2 297 -1.82618881 0.53612680 -0.24872782
VERTEX2 298 -1.21525813 0.38557884 -0.24939045
VERTEX2 299 -0.64152357 0.23255657 -0.18831884
VERTEX2 300 -0.05132628 0.14949496 -0.14637017
VERTEX2 301 0.51319055 0.05234195 -0.20590094
VERTEX2 302 0.81540074 -0.01160160 -0.22721617
VERTEX2 303 0.79745806 -0.00693632 -0.22348176
VERTEX2 304 1.29794483 -0.12067126 -0.21444107
VERTEX2 305 1.91941634 -0.16350010 -0.03136738
VERTEX2 306 2.55074276 -0.17446785 -0.04994092
VERTEX2 307 3.19194506 -0.22311419 -0.08716211
VERTEX2 308 3.82162402 -0.28718545 -0.14328275
VERTEX2 309 4.45861024 -0.34898205 -0.05092290
VERTEX2 310 5.08818110 -0.38054564 -0.08732633
VERTEX2 311 5.37129655 -0.40747092 0.08710400
VERTEX2 312 5.36981230 -0.40820581 1.07469907
VERTEX2 313 5.37481952 -0.19144973 1.56973141
VERTEX2 314 5.35698587 0.43482783 1.60906288
VERTEX2 315 5.33044864 1.06048961 1.60431568
VERTEX2 316 5.29325080 1.70480109 1.65401327
VERTEX2 317 5.23583404 2.34561301 1.66247308
VERTEX2 318 5.14193965 2.98157911 1.75530893
VERTEX2 319 5.06574933 3.32681205 1.82504713
VERTEX2 320 5.06876853 3.33580540 2.78821359
VERTEX2 321 5.06920211 3.33592860 -2.46098266
VERTEX2 322 5.07025112 3.33785538 -1.47024607
VERTEX2 323 5.08566315 3.32222452 -0.48328066
VERTEX2 324 5.09902539 3.31738464 0.17276654
VERTEX2 325 5.11030329 3.31786520 -0.35813694
VERTEX2 326 5.13142612 3.30074702 -0.95686889
VERTEX2 327 5.13452554 3.28272977 -1.58388822
VERTEX2 328 5.09202030 2.64640902 -1.63197946
VERTEX2 329 5.04446384 2.01378129 -1.69791017
VERTEX2 330 4.95909745 1.39725393 -1.72739328
VERTEX2 331 4.86714958 0.78067664 -1.75218819
VERTEX2 332 4.74566635 0.17169794 -1.78142053
VERTEX2 333 4.71147134 0.01794001 -1.72809809
VERTEX2 334 4.74798441 0.02682510 -0.71478005
VERTEX2 335 4.81138921 0.01582602 0.24062922
VERTEX2 336 4.85740136 0.03617647 1.14794357
VERTEX2 337 4.86020702 0.06152563 2.09180568
VERTEX2 338 4.85991156 0.06171899 3.07510258
VERTEX2 339 4.87477498 0.07130212 -2.16473780
VERTEX2 340 4.87501330 0.06991723 -1.15134033
VERTEX2 341 4.99135404 0.00062568 -0.52173223
VERTEX2 342 5.56767900 -0.30455327 -0.42149549
VERTEX2 343 6.14651703 -0.50627033 -0.28987930
VERTEX2 344 6.73610800 -0.68979406 -0.29927977
VERTEX2 345 6.97499141 -0.76018295 -0.32610996
VERTEX2 346 6.96186823 -0.75588405 -0.97171499
VERTEX2 347 6.96430073 -0.84462809 -1.52889802
VERTEX2 348 6.98216955 -1.43557537 -1.54498566
VERTEX2 349 6.97990326 -2.05542396 -1.58459275
VERTEX2 350 6.96672636 -2.84386245 -1.60361980
VERTEX2 351 6.95245533 -3.11795743 -1.63197860
VERTEX2 352 6.95058813 -3.12685952 -1.91881159
VERTEX2 353 6.93891672 -3.14117601 -2.58178897
VERTEX2 354 6.92532762 -3.14507438 3.10026935
VERTEX2 355 6.90530697 -3.14437164 2.38189447
VERTEX2 356 6.89955778 -3.13421763 1.80883040
VERTEX2 357 6.90218021 -3.11853118 1.15816363
VERTEX2 358 6.90322329 -3.11707586 0.54500580
VERTEX2 359 6.89166955 -3.12202899 -0.06672971
VERTEX2 360 6.87720365 -3.11916778 -0.24181241
VERTEX2 361 6.86929655 -3.12123708 0.68080614
VERTEX2 362 6.95433578 -2.89012278 1.21657273
VERTEX2 363 7.05703176 -2.62178783 1.21094506
VERTEX2 364 6.98766696 -2.28544246 1.82766465
VERTEX2 365 6.93211372 -1.99610748 1.33233148
VERTEX2 366 7.04091178 -1.87294113 0.78012034
VERTEX2 367 7.48687033 -1.43768020 0.78294699
VERTEX2 368 7.94536316 -0.99941164 0.73492158
VERTEX2 369 7.96656841 -0.97382408 0.48276778
VERTEX2 370 7.99131467 -0.96989817 -0.10521460
VERTEX2 371 7.99762030 -0.97318157 -0.65167631
VERTEX2 372 8.42508620 -1.32274488 -0.67938385
VERTEX2 373 8.89623811 -1.68874554 -0.67741943
VERTEX2 374 9.37362906 -2.09299563 -0.73861272
VERTEX2 375 9.71137912 -2.39502031 -0.77517769
VERTEX2 376 9.70036916 -2.38800127 -0.09789805
VERTEX2 377 9.75076199 -2.35394392 0.57985173
VERTEX2 378 10.30020892 -1.97678048 0.62667336
VERTEX2 379 10.79969488 -1.56657200 0.70360003
VERTEX2 380 11.26557597 -1.11973178 0.81446632
VERTEX2 381 11.42638774 -0.94384809 0.95539528
VERTEX2 382 11.43390154 -0.93247051 1.97676406
VERTEX2 383 11.42617710 -0.92685760 2.98423230
VERTEX2 384 11.43125274 -0.92251947 -2.31508092
VERTEX2 385 11.43253951 -0.92021919 -1.26348452
VERTEX2 386 11.52673694 -1.05030214 -1.03065488
VERTEX2 387 11.96763559 -1.47557800 -0.68962729
VERTEX2 388 12.44751412 -1.85235524 -0.69098651
VERTEX2 389 12.89631134 -2.25158151 -0.78524165
VERTEX2 390 12.92554809 -2.27918463 -0.33265879
VERTEX2 391 12.78351201 -2.26636482 0.02754209
VERTEX2 392 12.77729761 -2.26601663 1.02533142
VERTEX2 393 12.78567562 -2.19523957 2.22394128
VERTEX2 394 12.75923200 -2.17967424 -3.10828045
VERTEX2 395 13.00238966 -2.09858983 -2.79014043
VERTEX2 396 13.01424930 -2.09318952 -2.80087936
VERTEX2 397 13.01343097 -2.09322603 -2.82271197
VERTEX2 398 13.02615903 -2.08639695 -2.64080480
VERTEX2 399 12.95381488 -2.15432796 -2.36027759
VERTEX2 400 12.50851765 -2.59893136 -2.32197974
VERTEX2 401 12.07311081 -3.02873107 -2.41683872
VERTEX2 402 11.53929476 -3.34604273 -2.68718063
VERTEX2 403 10.98345952 -3.61073777 -2.72338659
VERTEX2 404 10.44990957 -3.82901710 -2.80474872
VERTEX2 405 10.46355723 -3.82165748 -2.27561054
VERTEX2 406 10.46801930 -3.78589608 -1.30521319
VERTEX2 407 10.59317185 -4.09853805 -1.17984178
VERTEX2 408 10.81294097 -4.64711378 -1.22018390
VERTEX2 409 10.89906961 -4.90444104 -1.32247787
VERTEX2 410 10.89909182 -4.87909635 -1.95626539
VERTEX2 411 10.91297451 -4.85278500 -2.55120275
VERTEX2 412 10.41747469 -5.06496526 -2.75739482
VERTEX2 413 9.83803797 -5.27616391 -2.83953322
VERTEX2 414 9.25230635 -5.47625452 -2.73843695
VERTEX2 415 8.65350858 -5.72348591 -2.73117653
VERTEX2 416 8.37123470 -5.85521336 -2.78610527
VERTEX2 417 8.08011775 -5.84467246 3.07314194
VERTEX2 418 7.64204904 -5.80953430 3.02825282
VERTEX2 419 7.64668103 -5.80839196 -2.82340933
VERTEX2 420 7.70146970 -5.78289318 -2.60686116
VERTEX2 421 7.70482621 -5.77734400 -1.63814971
VERTEX2 422 7.70254693 -5.78064984 -0.39756382
VERTEX2 423 7.70668844 -5.78098300 -0.05146520
VERTEX2 424 7.70547679 -5.78117494 -0.05065393
VERTEX2 425 7.69906867 -5.78491334 -0.03847468
VERTEX2 426 7.69774113 -5.78511602 -0.04715014
VERTEX2 427 7.72896704 -5.78630559 -0.04358695
VERTEX2 428 8.39004980 -5.79838443 -0.04867993
VERTEX2 429 9.03384788 -5.83872583 -0.08907199
VERTEX2 430 9.37470593 -5.87459035 -0.13478820
VERTEX2 431 9.35102551 -5.87207549 -0.08248886
VERTEX2 432 9.36193561 -5.87575921 -0.71360823
VERTEX2 433 9.36652731 -5.88189973 -1.39028155
VERTEX2 434 9.33650853 -6.41797609 -1.61813215
VERTEX2 435 9.31194887 -7.05786118 -1.64619480
VERTEX2 436 9.24174836 -7.69535840 -1.65474064
VERTEX2 437 9.19709146 -8.34246881 -1.64655641
VERTEX2 438 9.15037250 -8.81236467 -1.67635268
VERTEX2 439 9.14855377 -8.81951131 -2.11089165
VERTEX2 440 9.15530624 -8.81408472 -2.75218928
VERTEX2 441 9.17275767 -8.81214961 2.91077387
VERTEX2 442 9.18161770 -8.81683982 2.28320874
VERTEX2 443 9.18182550 -8.81978413 1.71801587
VERTEX2 444 9.18446415 -8.80498641 1.12822405
VERTEX2 445 9.18967937 -8.79988539 0.47192454
VERTEX2 446 9.18838600 -8.80071502 0.67439269
VERTEX2 447 9.19949931 -8.77853739 1.30764217
VERTEX2 448 9.34201143 -8.15606345 1.32544592
VERTEX2 449 9.46723703 -7.51930899 1.42711327
VERTEX2 450 9.55362442 -6.88247271 1.44106407
VERTEX2 451 9.60070170 -6.41244760 1.48385770
VERTEX2 452 9.60071779 -6.41233783 1.10603414
VERTEX2 453 9.59740488 -6.41850592 0.48407631
VERTEX2 454 9.85844148 -6.39539434 0.06223305
VERTEX2 455 10.45621546 -6.36350537 0.04148894
VERTEX2 456 11.08772347 -6.35128488 -0.02329807
VERTEX2 457 11.44126900 -6.36951105 -0.11122404
VERTEX2 458 11.43588374 -6.36691001 -0.75757242
VERTEX2 459 11.42676252 -6.33164826 -1.36619682
VERTEX2 460 11.41044273 -6.72952955 -1.62345438
VERTEX2 461 11.34832368 -7.34591906 -1.71158060
VERTEX2 462 11.26626887 -7.85545985 -1.75175552
VERTEX2 463 11.27752138 -7.83286837 -0.91201111
VERTEX2 464 11.53295123 -7.90281664 -0.23435365
VERTEX2 465 12.11727178 -8.03027407 -0.22677023
VERTEX2 466 12.67146261 -8.17635273 -0.28258742
VERTEX2 467 13.24324769 -8.35295451 -0.32622250
VERTEX2 468 13.86011889 -8.56617892 -0.36152834
VERTEX2 469 14.45413368 -8.82680226 -0.44421082
VERTEX2 470 14.91027304 -9.03855997 -0.42508603
VERTEX2 471 14.91894269 -9.04316076 -0.62453892
VERTEX2 472 14.93639428 -9.06706365 -1.25637807
VERTEX2 473 14.93791843 -9.07423377 -1.89613463
VERTEX2 474 14.93646564 -9.07608685 -2.52664698
VERTEX2 475 14.93893815 -9.07572796 -3.10030731
VERTEX2 476 14.94140451 -9.07604220 2.53179826
VERTEX2 477 14.94590827 -9.08467610 1.97238843
VERTEX2 478 14.94673525 -9.09444204 1.34545765
VERTEX2 479 14.94580055 -9.09663189 0.89125706
VERTEX2 480 14.94614928 -9.09582880 1.45339474
VERTEX2 481 14.94237369 -9.08009585 2.45558820
VERTEX2 482 14.94681024 -9.08183617 2.79176839
VERTEX2 483 14.95347861 -9.08418688 2.78640216
VERTEX2 484 14.52626818 -8.92921287 2.82193949
VERTEX2 485 13.92656701 -8.74488973 2.81958879
VERTEX2 486 13.32397790 -8.53654994 2.82908376
VERTEX2 487 12.71303928 -8.36149557 2.85732999
VERTEX2 488 12.09979906 -8.18455684 2.89342235
VERTEX2 489 11.62919700 -8.08037564 2.92382533
VERTEX2 490 11.63454639 -8.07981860 -2.87429276
VERTEX2 491 11.64253085 -8.06913091 -1.93824792
VERTEX2 492 11.62751682 -8.29807581 -1.63524639
VERTEX2 493 11.57011851 -8.90145920 -1.69032485
VERTEX2 494 11.48739036 -9.51230867 -1.75127293
VERTEX2 495 11.42333729 -10.13319630 -1.64437256
VERTEX2 496 11.38434727 -10.75547244 -1.52696815
VERTEX2 497 11.38180268 -11.37142992 -1.61335704
VERTEX2 498 11.31760604 -11.99054652 -1.71556412
VERTEX2 499 11.19153328 -12.61447414 -1.73295324
VERTEX2 500 11.25271824 -13.17999113 -1.40466240
VERTEX2 501 11.32990211 -13.75638748 -1.47774570
VERTEX2 502 11.35658692 -14.44901688 -1.56325575
VERTEX2 503 11.35345118 -14.89287775 -1.58120432
VERTEX2 504 11.35804568 -14.87976112 -0.72117910
VERTEX2 505 11.60140418 -14.90633768 -0.09919542
VERTEX2 506 12.19468206 -14.98498036 -0.25279176
VERTEX2 507 12.77673948 -15.15235524 -0.33233114
VERTEX2 508 13.34623055 -15.36187437 -0.34653065
VERTEX2 509 13.96588427 -15.59349282 -0.40291489
VERTEX2 510 14.32181959 -15.75150196 -0.41727678
VERTEX2 511 14.31983666 -15.73248123 0.45825811
VERTEX2 512 14.33974890 -15.69020196 1.65832849
VERTEX2 513 14.33557138 -15.67807765 2.61425493
VERTEX2 514 14.26749191 -15.65932180 2.83998830
VERTEX2 515 13.65639822 -15.48070892 2.84066549
VERTEX2 516 13.07071366 -15.28859352 2.85613191
VERTEX2 517 12.47762552 -15.14225229 2.88389875
VERTEX2 518 11.88494367 -14.99251448 2.90783233
VERTEX2 519 11.36299467 -14.86970870 2.89173442
VERTEX2 520 11.19454059 -14.82616558 -2.99357764
VERTEX2 521 11.21643758 -14.80196560 -1.98970243
VERTEX2 522 11.15229184 -15.19400737 -1.72593045
VERTEX2 523 11.05917943 -15.81501395 -1.73319553
VERTEX2 524 10.95368619 -16.39113262 -1.77481558
VERTEX2 525 10.84846049 -16.93547814 -1.75067754
VERTEX2 526 10.73104059 -17.50700226 -1.80880186
VERTEX2 527 10.58173677 -18.09054342 -1.84282890
VERTEX2 528 10.39719890 -18.66410431 -1.91785351
VERTEX2 529 10.18533824 -19.27335978 -1.94486625
VERTEX2 530 9.93898669 -19.87998150 -1.97367776
VERTEX2 531 9.67059986 -20.46236342 -2.05211297
VERTEX2 532 9.57128614 -20.65435886 -2.00018986
VERTEX2 533 9.56810818 -20.63969582 -0.99954967
VERTEX2 534 9.56706946 -20.63901394 -0.33198383
VERTEX2 535 9.56923282 -20.63875638 -0.33217201
VERTEX2 536 9.92569086 -20.71836770 -0.20123079
VERTEX2 537 10.53276767 -20.85942847 -0.25904325
VERTEX2 538 11.09328161 -21.02162393 -0.28599344
VERTEX2 539 11.70217089 -21.22286505 -0.35059201
VERTEX2 540 12.29024343 -21.46825084 -0.44331364
VERTEX2 541 12.87849232 -21.68844360 -0.28081690
VERTEX2 542 13.50997366 -21.82220326 -0.22496840
VERTEX2 543 13.63091582 -21.85093193 -0.25450097
VERTEX2 544 13.65176332 -21.84853583 0.38300717
VERTEX2 545 13.67516466 -21.80464359 1.45033773
VERTEX2 546 13.69241665 -21.84769642 2.27808617
VERTEX2 547 13.70001525 -21.84706875 -2.98246939
VERTEX2 548 13.71370267 -21.83796205 -2.05870752
VERTEX2 549 13.71537619 -21.82489502 -1.25136609
VERTEX2 550 13.71361121 -21.80160976 -1.73077339
VERTEX2 551 13.72246877 -21.78279573 -2.35661481
VERTEX2 552 13.74119282 -21.77303165 -2.98856543
VERTEX2 553 13.60220015 -21.72287676 2.71775182
VERTEX2 554 13.00383402 -21.44968449 2.68243257
VERTEX2 555 12.41839674 -21.18544004 2.77147074
VERTEX2 556 11.80930269 -20.97852652 2.90676284
VERTEX2 557 11.18082309 -20.81266600 2.86915027
VERTEX2 558 10.57652359 -20.66274942 2.95407760
VERTEX2 559 10.55928599 -20.65746369 2.55379803
VERTEX2 560 10.52890498 -20.63467731 2.06047797
VERTEX2 561 10.48440444 -20.59522224 2.57328622
VERTEX2 562 10.28663824 -20.60490698 -3.05732520
VERTEX2 563 9.69210412 -20.55774946 3.03894036
VERTEX2 564 9.25498651 -20.50177574 3.05189372
VERTEX2 565 8.64556661 -20.44348931 2.98575114
VERTEX2 566 8.67429907 -20.45225603 -2.53492593
VERTEX2 567 8.64188731 -20.45486883 -1.72292888
VERTEX2 568 8.59398942 -20.97631723 -1.66376880
VERTEX2 569 8.55003779 -21.54854195 -1.70402198
VERTEX2 570 8.49123558 -22.11890663 -1.69910526
VERTEX2 571 8.44205877 -22.48213288 -1.75139097
VERTEX2 572 8.43652281 -22.48658633 -2.00126270
VERTEX2 573 8.40505467 -22.55791190 -1.73210615
VERTEX2 574 8.44751045 -22.61965458 -0.80768127
VERTEX2 575 8.54314285 -22.65066132 0.16847057
VERTEX2 576 8.54644730 -22.65313480 1.19265446
VERTEX2 577 8.53883880 -22.63458350 2.16146078
VERTEX2 578 8.52787779 -22.60066552 1.79572239
VERTEX2 579 8.38748255 -21.94876373 1.80992441
VERTEX2 580 8.21095487 -21.31042862 1.88418920
VERTEX2 581 8.00274094 -20.68920047 1.92578259
VERTEX2 582 7.76785755 -20.07790388 1.96816947
VERTEX2 583 7.63123790 -19.77130995 2.04675917
VERTEX2 584 7.62538318 -19.76046043 2.88831731
VERTEX2 585 7.04760214 -19.63207143 3.00591797
VERTEX2 586 6.46135006 -19.56820763 3.10284131
VERTEX2 587 5.85176957 -19.56700003 3.12772743
VERTEX2 588 5.23086543 -19.55081909 3.13171723
VERTEX2 589 4.69440741 -19.58309079 -3.08029320
VERTEX2 590 4.14779983 -19.63245349 -3.01566730
VERTEX2 591 3.61371567 -19.71390451 -3.02118393
VERTEX2 592 3.06985027 -19.78894535 -3.02747016
VERTEX2 593 2.89333033 -19.81110183 -2.82716753
VERTEX2 594 2.90135635 -19.80244709 -1.86699632
VERTEX2 595 2.81045053 -20.40604999 -1.63984667
VERTEX2 596 2.77654324 -21.02474165 -1.66688604
VERTEX2 597 2.70266074 -21.69402932 -1.71081891
VERTEX2 598 2.61244033 -22.29379350 -1.75359982
VERTEX2 599 2.53190396 -22.67223129 -1.82042626
VERTEX2 600 2.53237812 -22.68734373 -1.01547906
VERTEX2 601 2.57091365 -22.71014588 0.00087319
VERTEX2 602 2.60436842 -22.69605190 1.01307778
VERTEX2 603 2.56631502 -22.46026750 1.78413552
VERTEX2 604 2.49808588 -21.84748589 1.53917544
VERTEX2 605 2.49961759 -21.19790033 1.62087592
VERTEX2 606 2.45223291 -20.54913356 1.66213926
VERTEX2 607 2.45766190 -19.95732604 1.58024477
VERTEX2 608 2.44109636 -19.56967389 1.62391619
VERTEX2 609 2.43686162 -19.54586601 1.95892565
VERTEX2 610 2.42779857 -19.54265866 2.88885821
VERTEX2 611 1.83096395 -19.39409650 2.89114689
VERTEX2 612 1.35707092 -19.26044386 2.89328718
VERTEX2 613 1.39139691 -19.27085685 -2.92755568
VERTEX2 614 1.39888846 -19.26521904 -1.89236051
VERTEX2 615 1.40940905 -19.74737500 -1.58896025
VERTEX2 616 1.41267492 -20.36591246 -1.64086521
VERTEX2 617 1.26805947 -20.96620555 -1.86187483
VERTEX2 618 1.08856140 -21.57188865 -1.85418850
VERTEX2 619 0.91649722 -22.14321516 -1.85775793
VERTEX2 620 0.71947036 -22.72061726 -1.95625212
VERTEX2 621 0.84903748 -22.39992123 -2.01003676
VERTEX2 622 0.96992794 -22.15289974 -2.08751016
VERTEX2 623 0.95063769 -22.17759690 -2.62960751
VERTEX2 624 0.84982041 -22.17339427 3.00527668
VERTEX2 625 0.74385466 -22.12590279 2.34093610
VERTEX2 626 0.68179866 -22.04804010 1.71733381
VERTEX2 627 0.77055070 -21.68138786 1.30198646
VERTEX2 628 0.97607506 -21.07185265 1.19792454
VERTEX2 629 1.17679566 -20.46161275 1.26564215
VERTEX2 630 1.33420993 -19.86546160 1.34696287
VERTEX2 631 1.43755846 -19.34023925 1.36358686
VERTEX2 632 1.44088320 -19.32647717 2.03006732
VERTEX2 633 1.37833979 -19.31692658 -3.12549270
VERTEX2 634 0.71495970 -19.34105519 -3.08848119
VERTEX2 635 0.07089902 -19.34567456 3.07078829
VERTEX2 636 -0.55250847 -19.31925819 3.06156242
VERTEX2 637 -1.15127722 -19.25498224 2.97138643
VERTEX2 638 -1.53786262 -19.18004051 2.94116053
VERTEX2 639 -2.14669384 -19.08458363 3.02046196
VERTEX2 640 -2.75893984 -18.98251351 2.95125420
VERTEX2 641 -3.35584097 -18.87786639 2.94149661
VERTEX2 642 -3.92389702 -18.74696109 2.89436368
VERTEX2 643 -4.41345587 -18.60642496 2.80934457
VERTEX2 644 -4.40707351 -18.60552232 -2.76505064
VERTEX2 645 -4.46794718 -18.76868002 -1.87560648
VERTEX2 646 -4.57954111 -19.38980776 -1.58287477
VERTEX2 647 -4.50993629 -20.02884121 -1.29650911
VERTEX2 648 -4.26618317 -20.63700167 -1.13214401
VERTEX2 649 -4.07291883 -21.22225459 -1.47210731
VERTEX2 650 -4.15273373 -21.85836000 -1.73145614
VERTEX2 651 -4.16566194 -22.00782295 -0.93601896
VERTEX2 652 -4.12824991 -22.02341043 0.08439716
VERTEX2 653 -4.09874152 -21.99556293 1.11000915
VERTEX2 654 -4.11413467 -21.69856456 1.62024087
VERTEX2 655 -4.13510466 -21.14513417 1.61386551
VERTEX2 656 -4.14500002 -20.54325340 1.59977138
VERTEX2 657 -4.26279866 -19.92920413 1.87396378
VERTEX2 658 -4.46035533 -19.31605089 1.86617041
VERTEX2 659 -4.58056285 -18.82556765 1.79429791
VERTEX2 660 -4.58348679 -18.81171663 2.39281581
VERTEX2 661 -4.76361741 -18.79358972 3.04455175
VERTEX2 662 -5.35907227 -18.73865814 3.11343719
VERTEX2 663 -5.94808639 -18.75723806 -3.06948629
VERTEX2 664 -5.95562352 -18.75535005 -2.55159923
VERTEX2 665 -5.97017749 -18.85107850 -1.70321325
VERTEX2 666 -6.03165405 -19.45714348 -1.66513999
VERTEX2 667 -6.07875960 -20.02107235 -1.65967067
VERTEX2 668 -6.13124749 -20.61255339 -1.63304069
VERTEX2 669 -6.16767437 -21.23591296 -1.65735189
VERTEX2 670 -6.25434363 -21.85154836 -1.71599528
VERTEX2 671 -6.29544449 -22.14115997 -1.66021070
VERTEX2 672 -6.20462018 -21.55465270 -1.74842625
VERTEX2 673 -6.14308551 -21.28205994 -1.87799894
VERTEX2 674 -6.12407115 -21.26101791 -2.52421204
VERTEX2 675 -6.08849488 -21.25253158 -3.13097217
VERTEX2 676 -6.07331020 -21.26084030 2.53076614
VERTEX2 677 -6.06458614 -21.27213854 1.91679564
VERTEX2 678 -6.04289428 -21.04637144 1.47241529
VERTEX2 679 -5.99643743 -20.46276006 1.53590637
VERTEX2 680 -6.03830936 -20.01504383 1.88224355
VERTEX2 681 -6.20939075 -19.44004698 1.84914340
VERTEX2 682 -6.39781132 -18.84953639 1.89082812
VERTEX2 683 -6.49395319 -18.57787226 2.04257334
VERTEX2 684 -6.44672263 -18.62467831 3.12104048
VERTEX2 685 -6.84911673 -18.79154525 -2.71855827
VERTEX2 686 -7.29500445 -18.93471847 -2.86283565
VERTEX2 687 -7.88785643 -19.09435547 -2.89786925
VERTEX2 688 -8.48438096 -19.22296567 -2.90966810
VERTEX2 689 -9.04700612 -19.36999997 -2.88203028
VERTEX2 690 -9.58081287 -19.54665331 -2.80788952
VERTEX2 691 -9.97431907 -19.68374312 -2.83595006
VERTEX2 692 -9.96006831 -19.67717551 -2.30183415
VERTEX2 693 -9.93760935 -19.74485708 -1.26197007
VERTEX2 694 -9.91403318 -19.81239864 -0.42693852
VERTEX2 695 -9.89524714 -19.80680279 0.37286438
VERTEX2 696 -9.88899758 -19.80259871 1.39809841
VERTEX2 697 -9.89993614 -19.84014323 1.14498313
VERTEX2 698 -9.57176234 -19.62694856 0.49004687
VERTEX2 699 -9.01131699 -19.30679382 0.60401661
VERTEX2 700 -8.50168611 -18.93843399 0.65748754
VERTEX2 701 -8.07161916 -18.57018444 0.71659525
VERTEX2 702 -7.59551301 -18.24899318 0.60136902
VERTEX2 703 -7.08650842 -17.90615567 0.63556609
VERTEX2 704 -6.59677392 -17.51788238 0.65368391
VERTEX2 705 -6.09015239 -17.09127753 0.72430066
VERTEX2 706 -5.66379127 -16.76856142 0.45553167
VERTEX2 707 -5.63906053 -16.76695365 -0.06522928
VERTEX2 708 -5.62918119 -16.77253030 -0.70490063
VERTEX2 709 -5.66845766 -16.73103679 -1.03684595
VERTEX2 710 -5.67244120 -16.72101061 -1.59861133
VERTEX2 711 -5.66254189 -16.72979417 -2.19623033
VERTEX2 712 -5.64370240 -16.71512003 -2.75739465
VERTEX2 713 -6.11568869 -16.76904861 -3.04257120
VERTEX2 714 -6.66804027 -16.74822886 3.04337225
VERTEX2 715 -7.29488101 -16.71634557 -3.13615311
VERTEX2 716 -7.92911917 -16.69947803 3.00904675
VERTEX2 717 -8.55056555 -16.63668291 3.09383768
VERTEX2 718 -9.31314485 -16.52435251 2.91849495
VERTEX2 719 -9.93032321 -16.41416472 2.99298262
VERTEX2 720 -10.54334539 -16.30684905 2.93379186
VERTEX2 721 -11.16132491 -16.19614066 3.00201844
VERTEX2 722 -11.17736277 -16.19398675 3.06872447
VERTEX2 723 -11.19853079 -16.21617284 -2.12422482
VERTEX2 724 -11.19827099 -16.26143414 -1.05501529
VERTEX2 725 -11.16984164 -16.28019619 -0.42055819
VERTEX2 726 -10.84434399 -16.27357829 0.03368508
VERTEX2 727 -10.20723769 -16.23035691 0.06444525
VERTEX2 728 -9.56718924 -16.20136600 0.06585538
VERTEX2 729 -8.93009659 -16.13610936 0.12353191
VERTEX2 730 -8.30798352 -16.03915392 0.16107732
VERTEX2 731 -7.65984978 -15.93352202 0.17330420
VERTEX2 732 -7.51729886 -15.90359810 0.61993110
VERTEX2 733 -7.51681958 -15.90436989 1.61658090
VERTEX2 734 -7.58062509 -15.34656778 1.69470530
VERTEX2 735 -7.64702795 -14.74244043 1.66268978
VERTEX2 736 -7.64805123 -14.72901164 2.26228236
VERTEX2 737 -7.64118147 -14.72984818 3.06312347
VERTEX2 738 -8.21947889 -14.69471055 3.08221729
VERTEX2 739 -8.82249065 -14.60542343 3.02462723
VERTEX2 740 -9.32463619 -14.56997645 3.08793290
VERTEX2 741 -9.30322678 -14.56953911 2.71915193
VERTEX2 742 -9.30346339 -14.56939410 2.06646911
VERTEX2 743 -9.30578546 -14.55956050 1.44975557
VERTEX2 744 -9.29526517 -14.53481688 0.91048374
VERTEX2 745 -9.27344385 -14.52312813 0.31710036
VERTEX2 746 -8.72893680 -14.53591660 -0.15769253
VERTEX2 747 -8.08109092 -14.64399845 -0.19291070
VERTEX2 748 -7.50144119 -14.78084568 -0.26120444
VERTEX2 749 -7.41671470 -14.80103328 0.16807600
VERTEX2 750 -7.40546576 -14.77976480 1.09531475
VERTEX2 751 -7.44333368 -14.50458206 1.73569651
VERTEX2 752 -7.50885168 -13.87661430 1.63240017
VERTEX2 753 -7.55430610 -13.23276226 1.69563595
VERTEX2 754 -7.56960300 -12.58668451 1.53355734
VERTEX2 755 -7.55895629 -11.95196886 1.62014692
VERTEX2 756 -7.53081554 -11.31491895 1.44197253
VERTEX2 757 -7.46409460 -10.66906976 1.55270606
VERTEX2 758 -7.49218491 -10.08468783 1.69216394
VERTEX2 759 -7.48800714 -9.53260581 1.56675064
VERTEX2 760 -7.53081602 -8.91652036 1.65715709
VERTEX2 761 -7.53281681 -8.87449154 1.81386033
VERTEX2 762 -7.59720435 -8.84608545 2.74609818
VERTEX2 763 -8.17376872 -8.77472301 3.03689706
VERTEX2 764 -8.59456200 -8.72547334 3.00808302
VERTEX2 765 -8.58061713 -8.72453038 -2.63891212
VERTEX2 766 -8.58071092 -8.72494134 -1.64340504
VERTEX2 767 -8.57649367 -8.73444403 -0.71703422
VERTEX2 768 -8.54648970 -8.73515724 0.00175207
VERTEX2 769 -7.91043853 -8.62275065 0.15701802
VERTEX2 770 -7.25644055 -8.54083523 0.08847649
VERTEX2 771 -7.16452549 -8.53019461 0.64593543
VERTEX2 772 -7.16004219 -8.51442147 1.50915651
VERTEX2 773 -7.15022786 -7.93051237 1.59351850
VERTEX2 774 -7.17534172 -7.37909323 1.61435140
VERTEX2 775 -7.17545447 -7.37866211 2.45512276
VERTEX2 776 -7.38284756 -7.35708598 3.06936819
VERTEX2 777 -7.99402050 -7.32375962 3.12707179
VERTEX2 778 -8.60390814 -7.32063544 3.10490123
VERTEX2 779 -9.20111439 -7.30584803 3.12063492
VERTEX2 780 -9.39161709 -7.29095775 2.98749120
VERTEX2 781 -9.37638395 -7.29641618 2.40840752
VERTEX2 782 -9.50568012 -7.01877886 1.97423121
VERTEX2 783 -9.73901942 -6.43699615 1.97143866
VERTEX2 784 -9.83897241 -6.20300474 1.94785871
VERTEX2 785 -9.83991054 -6.16310147 1.39067325
VERTEX2 786 -9.82532631 -6.11807644 0.79688660
VERTEX2 787 -9.79052122 -6.08410564 0.30140895
VERTEX2 788 -9.74703262 -6.08830841 -0.33347439
VERTEX2 789 -9.73385062 -6.09938425 -0.89066672
VERTEX2 790 -9.44326950 -6.50344029 -0.96035791
VERTEX2 791 -9.05821425 -6.99923984 -0.86443997
VERTEX2 792 -8.82665575 -7.22368931 -0.16662043
VERTEX2 793 -8.24420520 -7.30223575 -0.11581352
VERTEX2 794 -7.63535221 -7.35617074 -0.03828221
VERTEX2 795 -7.67154775 -7.38081110 0.40222151
VERTEX2 796 -7.69705531 -7.39058792 1.07641638
VERTEX2 797 -7.61711464 -7.07303235 1.34521026
VERTEX2 798 -7.47899714 -6.43668180 1.40129351
VERTEX2 799 -7.39324089 -5.77919706 1.47304012
VERTEX2 800 -7.34493290 -5.11784942 1.55195021
VERTEX2 801 -7.36522632 -4.48263871 1.63820437
VERTEX2 802 -7.42877888 -3.85418163 1.69619967
VERTEX2 803 -7.42088911 -3.22212569 1.53184464
VERTEX2 804 -7.41023190 -2.59135381 1.58798927
VERTEX2 805 -7.45348065 -1.95768065 1.66450166
VERTEX2 806 -7.52328867 -1.35615685 1.70611006
VERTEX2 807 -7.55730375 -1.14771742 1.99134870
VERTEX2 808 -7.56027608 -1.14772636 2.93342037
VERTEX2 809 -8.15074588 -1.12142871 3.07590826
VERTEX2 810 -8.77085629 -0.99892398 2.93370229
VERTEX2 811 -9.37201001 -0.88697377 2.92888870
VERTEX2 812 -9.37711754 -0.88595595 -2.62691101
VERTEX2 813 -9.37680658 -0.88570299 -1.65716367
VERTEX2 814 -9.38172742 -0.88165210 -0.67058107
VERTEX2 815 -9.36369410 -0.88799912 0.24339197
VERTEX2 816 -9.34252430 -0.87705787 0.92037299
VERTEX2 817 -9.31804638 -0.86257663 0.24754890
VERTEX2 818 -9.09907369 -0.90228585 -0.24468244
VERTEX2 819 -8.51591597 -1.04695260 -0.23224445
VERTEX2 820 -7.93088351 -1.19669214 -0.27530468
VERTEX2 821 -7.39400143 -1.34484309 -0.26133182
VERTEX2 822 -7.40106165 -1.34335480 0.47271345
VERTEX2 823 -7.39396527 -1.30280288 1.35925924
VERTEX2 824 -7.27491405 -0.69537826 1.29130303
VERTEX2 825 -7.08676625 -0.10166637 1.27173240
VERTEX2 826 -6.98640179 0.52067587 1.44723506
VERTEX2 827 -6.88761608 1.13504101 1.40851068
VERTEX2 828 -6.80400332 1.76015875 1.45345535
VERTEX2 829 -6.71808273 2.35840896 1.41507848
VERTEX2 830 -6.61897153 2.96100573 1.40797253
VERTEX2 831 -6.50288109 3.53035650 1.36241150
VERTEX2 832 -6.39192096 4.08578799 1.35991251
VERTEX2 833 -6.33905309 4.33529595 1.49890741
VERTEX2 834 -6.34253214 4.34963683 2.55797407
VERTEX2 835 -6.38155599 4.35545045 -2.94426014
VERTEX2 836 -6.40954627 4.33322329 -1.99725698
VERTEX2 837 -6.40747413 4.31993697 -0.95655056
VERTEX2 838 -6.41509215 4.32491934 -0.09073185
VERTEX2 839 -6.43627122 4.33551542 -0.30746990
VERTEX2 840 -6.44204319 4.34019918 -0.86760072
VERTEX2 841 -6.44010763 4.33616287 -1.48198792
VERTEX2 842 -6.46952913 4.08885760 -1.71121680
VERTEX2 843 -6.55477934 3.52341231 -1.71262528
VERTEX2 844 -6.63706624 2.89637205 -1.71944231
VERTEX2 845 -6.73730808 2.26921094 -1.73287344
VERTEX2 846 -6.82879050 1.63800969 -1.72980909
VERTEX2 847 -6.94353627 1.01372287 -1.75508402
VERTEX2 848 -6.97449539 0.82137945 -1.27356961
VERTEX2 849 -6.97661056 0.82218203 -0.34960740
VERTEX2 850 -6.62373679 0.81857893 0.00462374
VERTEX2 851 -5.99897719 0.79302775 -0.08735560
VERTEX2 852 -5.37722711 0.73277591 -0.07249856
VERTEX2 853 -4.78500235 0.69139307 -0.09997416
VERTEX2 854 -4.20046733 0.62509517 -0.09754925
VERTEX2 855 -3.60822766 0.57587582 -0.09893402
VERTEX2 856 -2.95290902 0.49180312 -0.13988022
VERTEX2 857 -2.29875154 0.40386081 -0.14967385
VERTEX2 858 -1.65104422 0.28324714 -0.20444710
VERTEX2 859 -1.13122367 0.18035594 -0.21155183
VERTEX2 860 -1.10593587 0.19083141 0.63947993
VERTEX2 861 -1.09076798 0.29957584 1.55456426
VERTEX2 862 -1.05391778 0.95900751 1.49466588
VERTEX2 863 -0.99779252 1.60310830 1.46191631
VERTEX2 864 -0.91179017 2.21329802 1.45954684
VERTEX2 865 -0.87135078 2.82449376 1.51689852
VERTEX2 866 -0.82726122 3.41021321 1.51552567
VERTEX2 867 -0.81992718 3.57386872 1.69642782
VERTEX2 868 -0.82687124 3.58262813 2.72034883
VERTEX2 869 -0.81655455 3.58277784 -2.58436161
VERTEX2 870 -0.79752491 3.59302830 -1.58473127
VERTEX2 871 -0.78242554 3.58281525 -0.61095669
VERTEX2 872 -0.76322475 3.56897478 0.07405399
VERTEX2 873 -0.73492671 3.55956376 -0.49880944
VERTEX2 874 -0.71283030 3.53961003 -1.05873352
VERTEX2 875 -0.70612599 3.52382771 -1.64557088
VERTEX2 876 -0.82621964 2.96773538 -1.80343235
VERTEX2 877 -0.97871202 2.42592318 -1.88836242
VERTEX2 878 -1.02950117 2.22605360 -1.50572751
VERTEX2 879 -0.92905474 1.58678960 -1.45497447
VERTEX2 880 -0.89416865 1.13714349 -1.56795586
VERTEX2 881 -0.89444468 1.18661602 -1.56287510
VERTEX2 882 -0.95237156 0.54688017 -1.80971119
VERTEX2 883 -1.16954642 -0.04767005 -2.00073497
VERTEX2 884 -1.32886949 -0.37903408 -2.06797630
VERTEX2 885 -1.32881001 -0.37974425 -1.48663381
VERTEX2 886 -1.31176489 -0.39581998 -0.46799244
VERTEX2 887 -1.28392107 -0.40673016 0.54399345
VERTEX2 888 -1.27450296 -0.38700364 1.52864447
VERTEX2 889 -1.27579274 -0.38330794 2.42693778
VERTEX2 890 -1.59006180 -0.23093849 2.70055349
VERTEX2 891 -2.12561013 0.03588059 2.62996231
VERTEX2 892 -2.65737899 0.35527514 2.59413325
VERTEX2 893 -3.20853737 0.65145859 2.83010682
VERTEX2 894 -3.82003816 0.76385336 3.05085774
VERTEX2 895 -4.41869257 0.71664161 -2.93437193
VERTEX2 896 -4.43339778 0.71316766 -2.45650951
VERTEX2 897 -4.71721744 0.29628271 -2.18467134
VERTEX2 898 -5.07466941 -0.22166022 -2.17028813
VERTEX2 899 -5.36775673 -0.63904486 -2.23942329
VERTEX2 900 -5.78695240 -1.18811350 -2.24324423
VERTEX2 901 -6.16350279 -1.63402853 -2.30941720
VERTEX2 902 -6.58521958 -2.12594652 -2.28606567
VERTEX2 903 -6.90747318 -2.50521010 -2.33291923
VERTEX2 904 -6.91387350 -2.51369180 -1.64241897
VERTEX2 905 -6.90784011 -2.99118882 -1.58013487
VERTEX2 906 -6.87854587 -3.55424148 -1.50795295
VERTEX2 907 -6.82298826 -4.12842363 -1.51088266
VERTEX2 908 -6.77531829 -4.77172514 -1.48381010
VERTEX2 909 -6.71124877 -5.40841189 -1.49984484
VERTEX2 910 -6.73617195 -5.52332633 -1.86647254
VERTEX2 911 -6.88594274 -6.07375624 -1.80400748
VERTEX2 912 -7.00371962 -6.63202511 -1.79037846
VERTEX2 913 -7.11229237 -7.16877512 -1.78155675
VERTEX2 914 -7.23381110 -7.75172036 -1.80443184
VERTEX2 915 -7.35259729 -8.25449794 -1.84046434
VERTEX2 916 -7.28228857 -8.51665001 -1.29152870
VERTEX2 917 -7.13463934 -9.18057825 -1.54527221
VERTEX2 918 -7.15046320 -9.70270373 -1.62047146
VERTEX2 919 -7.17821694 -10.32995367 -1.66363520
VERTEX2 920 -7.23673021 -10.94520286 -1.68122340
VERTEX2 921 -7.30399497 -11.56106290 -1.73471918
VERTEX2 922 -7.40026066 -12.16325290 -1.76220613
VERTEX2 923 -7.51429509 -12.72641334 -1.82607910
VERTEX2 924 -7.63850639 -13.20585586 -1.80983563
VERTEX2 925 -7.63846228 -13.20588238 -1.30584053
VERTEX2 926 -7.47246205 -13.77391049 -1.29015522
VERTEX2 927 -7.29970601 -14.37044048 -1.31410141
VERTEX2 928 -7.13663485 -14.98172723 -1.32377662
VERTEX2 929 -6.98072602 -15.58994358 -1.32553120
VERTEX2 930 -6.81881366 -16.24598975 -1.41312810
VERTEX2 931 -6.72575076 -16.88215169 -1.49890267
VERTEX2 932 -6.67749526 -17.50744630 -1.56417271
VERTEX2 933 -6.67521422 -18.10539521 -1.63509841
VERTEX2 934 -6.69372128 -18.56373716 -1.65094976
VERTEX2 935 -6.68872765 -18.59154904 -0.98434968
VERTEX2 936 -6.71126474 -18.58287131 -0.01583702
VERTEX2 937 -6.16219910 -18.56515730 0.05378507
VERTEX2 938 -5.56523919 -18.58535700 -0.11170569
VERTEX2 939 -4.94552007 -18.64398833 -0.07816635
VERTEX2 940 -4.32966183 -18.71736233 -0.16332366
VERTEX2 941 -3.72308319 -18.83049277 -0.21642566
VERTEX2 942 -3.20370814 -18.94390937 -0.21151386
VERTEX2 943 -2.59350202 -19.07459988 -0.12280523
VERTEX2 944 -1.97668536 -19.15461909 -0.17922066
VERTEX2 945 -1.35438230 -19.28225997 -0.23434525
VERTEX2 946 -1.17820076 -19.32665561 -0.17001058
VERTEX2 947 -0.77369347 -19.26341931 0.15830400
VERTEX2 948 -0.20130484 -19.17235599 0.14032923
VERTEX2 949 0.40118105 -19.13532333 -0.01386577
VERTEX2 950 1.03085935 -19.16791055 -0.25173033
VERTEX2 951 1.63271173 -19.33595069 -0.32263750
VERTEX2 952 2.23459036 -19.50627045 -0.07022395
VERTEX2 953 2.86391717 -19.53146515 0.01127904
VERTEX2 954 3.48464707 -19.51580823 0.00503241
VERTEX2 955 4.06927968 -19.55278545 -0.15498595
VERTEX2 956 4.61387120 -19.62189455 -0.15670361
VERTEX2 957 5.14087954 -19.70915366 -0.24385796
VERTEX2 958 5.60951083 -19.81554100 -0.27024569
VERTEX2 959 6.05302479 -19.93277324 -0.33702454
VERTEX2 960 6.64767433 -20.08850683 -0.25775703
VERTEX2 961 7.23526927 -20.25635137 -0.28550575
VERTEX2 962 7.85624381 -20.37786010 -0.22058531
VERTEX2 963 8.47537422 -20.45163908 -0.03449296
VERTEX2 964 9.09660965 -20.48644946 -0.09905127
VERTEX2 965 9.71524407 -20.55937323 -0.10657834
VERTEX2 966 10.16525690 -20.61343066 -0.16614520
VERTEX2 967 10.20451001 -20.60504223 0.68547952
VERTEX2 968 10.21741181 -20.59264577 1.58032322
VERTEX2 969 10.21973234 -20.61754097 1.63918281
VERTEX2 970 10.22241679 -20.64250438 1.63690841
VERTEX2 971 10.19946549 -20.30644830 1.63650614
VERTEX2 972 10.15695184 -19.71723525 1.64159539
VERTEX2 973 10.23362603 -19.13052499 1.35574162
VERTEX2 974 10.37087289 -18.52360683 1.38699398
VERTEX2 975 10.48031165 -17.91299947 1.39106991
VERTEX2 976 10.58324575 -17.29987249 1.40344197
VERTEX2 977 10.71729440 -16.68354241 1.37712036
VERTEX2 978 10.83649332 -16.07408975 1.42313038
VERTEX2 979 10.94933809 -15.46863421 1.41094799
VERTEX2 980 11.04475813 -14.86643605 1.45795908
VERTEX2 981 11.13077015 -14.27432723 1.46489880
VERTEX2 982 11.18418760 -13.74743335 1.50971261
VERTEX2 983 11.23073790 -13.15029425 1.50683180
VERTEX2 984 11.25463692 -12.55591721 1.56474577
VERTEX2 985 11.26189025 -11.96082043 1.58553416
VERTEX2 986 11.24291974 -11.34237152 1.62237178
VERTEX2 987 11.22588408 -10.72533910 1.58617007
VERTEX2 988 11.22389655 -10.10849115 1.60033264
VERTEX2 989 11.20409567 -9.49716206 1.60844107
VERTEX2 990 11.19182630 -8.88909496 1.59810285
VERTEX2 991 11.17080377 -8.27736225 1.62333292
VERTEX2 992 11.15998051 -7.69348374 1.59111632
VERTEX2 993 11.13999703 -7.07996551 1.62417480
VERTEX2 994 11.11752637 -6.49705874 1.61447850
VERTEX2 995 11.08017977 -5.91352711 1.66098690
VERTEX2 996 11.01573913 -5.31475598 1.68735686
VERTEX2 997 10.96601112 -4.67737727 1.62210165
VERTEX2 998 10.94369936 -4.28211304 1.64317265
VERTEX2 999 10.97137866 -4.30429377 2.35877940
VERTEX2 1000 10.50640214 -3.94628831 2.50637982
VERTEX2 1001 10.06589838 -3.54826245 2.18398688
VERTEX2 1002 9.69988549 -3.08013355 2.27563942
VERTEX2 1003 9.35163444 -2.58490963 2.09480532
VERTEX2 1004 9.01373841 -2.05249503 2.15163723
VERTEX2 1005 8.66085653 -1.55995118 2.21255059
VERTEX2 1006 8.26495257 -1.08086477 2.28827576
VERTEX2 1007 7.85083159 -0.65091989 2.37816312
VERTEX2 1008 7.61207611 -0.43062924 2.53569698
VERTEX2 1009 7.51265264 -0.41462842 3.01047802
VERTEX2 1010 6.95395785 -0.35874897 3.06498301
VERTEX2 1011 6.33741268 -0.31784425 3.02312697
VERTEX2 1012 5.72848417 -0.25389995 3.06617668
VERTEX2 1013 5.08857982 -0.25634233 -3.10084591
VERTEX2 1014 4.47482096 -0.20884487 3.00825017
VERTEX2 1015 3.84839004 -0.17078679 3.09364197
VERTEX2 1016 3.07672646 -0.13598609 3.10103784
VERTEX2 1017 2.48916661 -0.12286372 3.04497864
VERTEX2 1018 1.92893665 -0.06168625 3.05327305
VERTEX2 1019 1.33178324 -0.03866029 3.11393272
VERTEX2 1020 0.71430433 -0.00484458 3.10100924
VERTEX2 1021 0.09096458 0.02141635 3.06149418
VERTEX2 1022 0.03526308 0.02569366 3.05528566
VERTEX2 1023 0.04012891 0.02564508 -3.14012423
VERTEX2 1024 -0.58886487 0.02838185 -3.11273218
VERTEX2 1025 -1.21953044 -0.00795212 -3.09411270
VERTEX2 1026 -1.38275995 -0.01518230 -3.08591044
VERTEX2 1027 -1.36766181 -0.00752540 -2.16567266
VERTEX2 1028 -1.37820250 -0.17200212 -1.59973291
VERTEX2 1029 -1.39703137 -0.73647905 -1.62022477
VERTEX2 1030 -1.44915241 -1.36723782 -1.70415225
VERTEX2 1031 -1.55251061 -2.02105772 -1.76170623
VERTEX2 1032 -1.67603481 -2.67410738 -1.76084166
VERTEX2 1033 -1.81464367 -3.32505657 -1.80945525
VERTEX2 1034 -1.85961450 -3.50043545 -2.02789800
VERTEX2 1035 -1.85835196 -3.49947903 -2.65535433
VERTEX2 1036 -1.80904084 -3.52292614 3.04942580
VERTEX2 1037 -2.12739292 -3.39630537 2.80621877
VERTEX2 1038 -2.71582363 -3.26669120 2.89360753
VERTEX2 1039 -3.32959186 -3.08815225 2.85868952
VERTEX2 1040 -3.28458107 -3.09065200 -2.80276717
VERTEX2 1041 -3.23674815 -3.09898819 -1.79820983
VERTEX2 1042 -3.24078394 -3.13634794 -0.82237246
VERTEX2 1043 -3.19703339 -3.18226041 0.13539858
VERTEX2 1044 -3.20511561 -3.19063675 1.11695098
VERTEX2 1045 -3.18033230 -3.14579073 1.01269216
VERTEX2 1046 -3.16638813 -3.12927531 0.64224360
VERTEX2 1047 -3.19955409 -3.14159199 0.10550572
VERTEX2 1048 -2.90975190 -3.20822042 -0.19413138
VERTEX2 1049 -2.33314612 -3.30802754 -0.16918259
VERTEX2 1050 -1.74977875 -3.37886327 -0.08505857
VERTEX2 1051 -1.06707502 -3.45816735 -0.17341733
VERTEX2 1052 -0.41976936 -3.55109441 -0.12976490
VERTEX2 1053 0.01938899 -3.61970132 -0.19172222
VERTEX2 1054 0.06557554 -3.62691102 0.54682184
VERTEX2 1055 0.09913133 -3.51045547 1.57954350
VERTEX2 1056 0.07528022 -3.46349369 2.55723639
VERTEX2 1057 0.16839897 -3.48387928 -2.71150987
VERTEX2 1058 0.16015979 -3.49214231 -1.76740974
VERTEX2 1059 0.01434020 -4.12053682 -1.84178674
VERTEX2 1060 -0.17015775 -4.79163692 -1.83144519
VERTEX2 1061 -0.31412471 -5.27984685 -1.94759051
VERTEX2 1062 -0.31938428 -5.28711001 -2.50857701
VERTEX2 1063 -0.29676371 -5.27544277 -3.10290507
VERTEX2 1064 -0.56876050 -5.21249630 2.91714700
VERTEX2 1065 -1.14760856 -5.12330985 3.04077083
VERTEX2 1066 -1.70274389 -5.05052087 2.98610142
VERTEX2 1067 -1.68368922 -5.05017846 -2.86172255
VERTEX2 1068 -1.67097088 -5.04182975 -2.18525146
VERTEX2 1069 -1.67210366 -5.04465510 -2.01310264
VERTEX2 1070 -1.67250294 -5.04532722 -2.54899928
VERTEX2 1071 -2.14972161 -5.28922996 -2.67460147
VERTEX2 1072 -2.60407710 -5.51088342 -2.74183664
VERTEX2 1073 -2.57042085 -5.51072150 3.03308820
VERTEX2 1074 -3.09309199 -5.42979647 3.00005036
VERTEX2 1075 -3.66346170 -5.34434895 3.01788351
VERTEX2 1076 -3.66077062 -5.34503560 -2.86351999
VERTEX2 1077 -3.68028950 -5.38006616 -2.06097393
VERTEX2 1078 -3.93726496 -6.00026453 -2.01756929
VERTEX2 1079 -4.18877150 -6.57629151 -1.95733183
VERTEX2 1080 -4.19983827 -6.60362972 -2.44793057
VERTEX2 1081 -4.63163356 -6.88234001 -2.57329161
VERTEX2 1082 -4.80226505 -6.99410155 -2.29532660
VERTEX2 1083 -4.79747695 -7.04243023 -1.26491661
VERTEX2 1084 -4.71720855 -7.08714439 -0.29934375
VERTEX2 1085 -4.74538472 -7.09375759 0.69888985
VERTEX2 1086 -4.36859497 -6.59742799 0.93505561
VERTEX2 1087 -3.97489703 -6.08125658 0.92667199
VERTEX2 1088 -3.60080406 -5.55740842 0.91346828
VERTEX2 1089 -3.54231672 -5.48274307 0.81875426
VERTEX2 1090 -3.53171373 -5.47314882 0.20516818
VERTEX2 1091 -3.00531124 -5.44353368 0.02910726
VERTEX2 1092 -2.39827095 -5.43009470 0.01454826
VERTEX2 1093 -1.84166944 -5.43419716 -0.04992468
VERTEX2 1094 -1.82837261 -5.44691890 -0.45360691
VERTEX2 1095 -1.79735078 -5.47453369 -1.04283727
VERTEX2 1096 -1.79754239 -5.47380148 -1.61357859
VERTEX2 1097 -1.88071893 -5.79678977 -1.82875040
VERTEX2 1098 -2.05785870 -6.39118353 -1.88539906
VERTEX2 1099 -2.26687854 -6.95428539 -1.98136329
VERTEX2 1100 -2.27357185 -6.97117103 -1.61813547
VERTEX2 1101 -2.21491632 -7.23683169 -1.35210220
VERTEX2 1102 -2.21586294 -7.24800162 -1.74563291
VERTEX2 1103 -2.34484313 -7.85958252 -1.77930811
VERTEX2 1104 -2.48465031 -8.49745157 -1.80689494
VERTEX2 1105 -2.64171652 -9.12131782 -1.82467858
VERTEX2 1106 -2.76920734 -9.60010901 -1.84979544
VERTEX2 1107 -2.76831221 -9.61057313 -1.59351870
VERTEX2 1108 -2.73886266 -10.23935224 -1.58556092
VERTEX2 1109 -2.79435703 -10.88558695 -1.68934783
VERTEX2 1110 -2.87192643 -11.49550291 -1.73872673
VERTEX2 1111 -3.04482876 -12.02624654 -1.83984862
VERTEX2 1112 -3.08155684 -12.60786281 -1.49320158
VERTEX2 1113 -3.04826498 -13.24957279 -1.58841068
VERTEX2 1114 -3.05842773 -13.86878852 -1.57122713
VERTEX2 1115 -3.05568923 -14.45464450 -1.58726332
VERTEX2 1116 -3.04375907 -15.10564974 -1.55084674
VERTEX2 1117 -3.04084697 -15.20582557 -1.67842646
VERTEX2 1118 -3.04066586 -15.20547664 -2.28529207
VERTEX2 1119 -3.03310323 -15.20024145 -2.71665635
VERTEX2 1120 -3.59680277 -15.40667858 -2.78011475
VERTEX2 1121 -3.78721502 -15.47405095 -2.89851879
VERTEX2 1122 -3.78230864 -15.47572333 2.83465141
VERTEX2 1123 -4.33145862 -15.29252368 2.85172398
VERTEX2 1124 -4.88867046 -15.16547049 2.95062801
VERTEX2 1125 -5.51381532 -15.04197263 2.96426206
VERTEX2 1126 -5.59361895 -15.02936120 -2.97898663
VERTEX2 1127 -5.58798877 -15.03532773 -1.92145467
VERTEX2 1128 -5.58755022 -15.03319016 -0.93383186
VERTEX2 1129 -5.56935104 -15.04328871 0.08203617
VERTEX2 1130 -4.98091757 -14.97688902 0.09590067
VERTEX2 1131 -4.20650667 -15.09987010 -0.33556125
VERTEX2 1132 -3.59447120 -15.31589226 -0.35501699
VERTEX2 1133 -3.04615244 -15.54275628 -0.39346506
VERTEX2 1134 -2.79201377 -15.64856231 -0.49019136
VERTEX2 1135 -2.77990001 -15.66037389 -1.04570885
VERTEX2 1136 -2.78067797 -15.66198805 -1.60714595
VERTEX2 1137 -2.83415633 -15.96741050 -1.79083166
VERTEX2 1138 -2.98733134 -16.60370405 -1.80683908
VERTEX2 1139 -3.10802652 -17.11381536 -1.88070147
VERTEX2 1140 -3.10376519 -17.10357114 -2.36116783
VERTEX2 1141 -3.09015306 -17.09035949 -2.91031340
VERTEX2 1142 -3.45038603 -17.04676154 3.00725371
VERTEX2 1143 -4.04546742 -16.99859013 3.09587719
VERTEX2 1144 -4.62365920 -16.96223779 3.06452426
VERTEX2 1145 -5.19903906 -16.91421002 3.03828671
VERTEX2 1146 -5.77162262 -16.85410437 3.05724169
VERTEX2 1147 -6.34924908 -16.84032271 3.12901092
VERTEX2 1148 -6.93422840 -16.83916511 3.12201767
VERTEX2 1149 -6.98369345 -16.83993466 -2.70047617
VERTEX2 1150 -7.06362656 -16.92718234 -1.78656554
VERTEX2 1151 -7.06107948 -16.93890069 -0.79033469
VERTEX2 1152 -7.03268836 -16.93842979 0.25466105
VERTEX2 1153 -7.00828840 -16.92665299 1.25975993
VERTEX2 1154 -7.07270796 -16.61074012 1.80190202
VERTEX2 1155 -7.21322933 -15.98814405 1.75094237
VERTEX2 1156 -7.31682098 -15.38290426 1.75953640
VERTEX2 1157 -7.44898324 -14.81323610 1.86893130
VERTEX2 1158 -7.57960625 -14.21213328 1.73860868
VERTEX2 1159 -7.64361467 -13.60841047 1.64449561
VERTEX2 1160 -7.66969185 -12.96730446 1.50767992
VERTEX2 1161 -7.57276633 -12.33197761 1.41798942
VERTEX2 1162 -7.48413210 -11.69650708 1.47615974
VERTEX2 1163 -7.42471528 -11.05058714 1.47080974
VERTEX2 1164 -7.37972705 -10.40688017 1.55637166
VERTEX2 1165 -7.37210385 -9.86859493 1.53335066
VERTEX2 1166 -7.37226792 -9.86787240 2.02193813
VERTEX2 1167 -7.31777459 -9.85426032 2.95833999
VERTEX2 1168 -7.27090454 -9.83528807 -2.42164107
VERTEX2 1169 -7.27465972 -9.88802718 -1.60009618
VERTEX2 1170 -7.28129514 -10.47550539 -1.59357668
VERTEX2 1171 -7.27731960 -11.11180554 -1.56204326
VERTEX2 1172 -7.27819204 -11.71214503 -1.62472829
VERTEX2 1173 -7.30473693 -12.33704336 -1.61584397
VERTEX2 1174 -7.34536410 -12.96708889 -1.68484906
VERTEX2 1175 -7.42852249 -13.58173337 -1.71854797
VERTEX2 1176 -7.52378761 -14.20510110 -1.76220902
VERTEX2 1177 -7.64131771 -14.81646347 -1.76015913
VERTEX2 1178 -7.77042510 -15.43180035 -1.80736315
VERTEX2 1179 -7.90605209 -16.03901372 -1.77801369
VERTEX2 1180 -7.95977804 -16.29509664 -1.78500341
VERTEX2 1181 -7.95937237 -16.29226818 -0.95694560
VERTEX2 1182 -7.90292160 -16.30633886 -0.24482592
VERTEX2 1183 -7.28778743 -16.45250889 -0.21952253
VERTEX2 1184 -6.65367505 -16.56439687 -0.14999407
VERTEX2 1185 -6.02450073 -16.67185976 -0.18227213
VERTEX2 1186 -5.39187253 -16.76381369 -0.11610435
VERTEX2 1187 -4.73699156 -16.84625373 -0.15322574
VERTEX2 1188 -4.10864451 -16.93322828 -0.13514953
VERTEX2 1189 -3.44174574 -17.03750804 -0.11367811
VERTEX2 1190 -3.10676881 -17.07636773 -0.10587169
VERTEX2 1191 -3.07048604 -17.07540017 0.81362561
VERTEX2 1192 -3.06487655 -16.98782629 1.61060130
VERTEX2 1193 -3.06096110 -16.38400095 1.47833912
VERTEX2 1194 -3.02199483 -15.80557570 1.52019535
VERTEX2 1195 -2.99605693 -15.17797389 1.57235075
VERTEX2 1196 -2.99284273 -14.55037463 1.39949107
VERTEX2 1197 -2.89128401 -13.93095742 1.41061058
VERTEX2 1198 -2.82293230 -13.29986610 1.66925638
VERTEX2 1199 -2.84264501 -12.68380110 1.45439365
VERTEX2 1200 -2.78752249 -12.04953522 1.52327784
VERTEX2 1201 -2.76474369 -11.42579624 1.57898527
VERTEX2 1202 -2.77734727 -10.79954891 1.60182308
VERTEX2 1203 -2.81011511 -10.20639548 1.51178061
VERTEX2 1204 -2.69689970 -9.60994703 1.36487150
VERTEX2 1205 -2.58938022 -9.04260563 1.39434388
VERTEX2 1206 -2.50499361 -8.44835051 1.45547132
VERTEX2 1207 -2.36827291 -7.83256026 1.36926973
VERTEX2 1208 -2.25658951 -7.20315668 1.43385403
VERTEX2 1209 -2.17048150 -6.57723157 1.43183093
VERTEX2 1210 -2.10656362 -5.95558080 1.45231798
VERTEX2 1211 -1.97488908 -5.34276900 1.38241628
VERTEX2 1212 -1.85682542 -4.73328145 1.43574859
VERTEX2 1213 -1.78946498 -4.13410128 1.51296925
VERTEX2 1214 -1.70879873 -3.42371282 1.29608710
VERTEX2 1215 -1.54734562 -2.83010899 1.35993331
VERTEX2 1216 -1.50587419 -2.29759197 1.58418462
VERTEX2 1217 -1.48401922 -1.74509145 1.57009170
VERTEX2 1218 -1.49185531 -1.15483978 1.51942270
VERTEX2 1219 -1.46497455 -0.50436995 1.55002070
VERTEX2 1220 -1.47946285 0.08255369 1.64075870
VERTEX2 1221 -1.47885298 0.08074590 1.18800570
VERTEX2 1222 -1.46923711 0.09082040 0.59069870
VERTEX2 1223 -1.45751359 0.09405237 0.03107170
VERTEX2 1224 -0.88055396 0.02287824 -0.15183630
VERTEX2 1225 -0.26146230 -0.06790301 -0.13807230
VERTEX2 1226 -0.15598688 -0.08266955 -0.15480330
VERTEX2 1227 -0.15598688 -0.08266955 -0.15546530
