1 19 166 0 0.41485034 0.00211724 5 
2 19 172 0 0.02820697 0.00187013 4 
3 25 172 0 0.50366199 0.00187344 4 
4 25 178 0 0.30831851 0.00203232 4 
5 32 178 0 0.01493521 0.00198360 4 
6 32 183 0 0.07055611 0.00200703 4 
7 44 189 0 0.52863102 0.00207573 4 
8 44 195 0 0.35755137 0.00216770 4 
9 50 195 0 0.00572854 0.00219339 4 
10 50 201 0 0.04110605 0.00190563 3 
11 50 203 0 0.06975183 0.00187609 3 
12 61 203 0 0.00745912 0.00189473 3 
13 61 209 0 0.37222863 0.00231487 4 
14 67 209 0 0.41032090 0.00232435 4 
15 67 220 0 0.66144083 0.00249786 4 
16 81 220 0 0.48035877 0.00284845 5 
17 81 226 0 0.05402805 0.00255823 4 
18 87 226 0 1.82553139 0.00294029 5 
19 87 231 0 0.34656585 0.00262063 4 
20 94 231 0 0.55778528 0.00255956 4 
21 226 231 0 1.44127402 0.00298159 5 
22 94 241 0 1.33132047 0.00268512 4 
23 101 241 0 0.50961029 0.00271586 4 
24 101 247 0 1.66454674 0.00276217 4 
25 107 247 0 1.80094617 0.00278229 4 
26 107 254 0 1.18346605 0.00284047 4 
27 114 254 0 0.12939160 0.00287074 4 
28 107 256 0 0.93085039 0.00285063 4 
29 114 256 0 0.24629796 0.00285822 4 
30 107 258 0 1.37911724 0.00289857 4 
31 114 258 0 1.15747212 0.00292197 4 
32 121 266 0 0.00938596 0.00300615 4 
33 126 266 0 0.44864328 0.00353961 5 
34 126 272 0 1.03992836 0.00309530 4 
35 132 272 0 0.39070916 0.00364322 5 
36 132 278 0 0.58358145 0.00317529 4 
37 138 278 0 1.06458780 0.00373008 5 
38 138 284 0 0.02201259 0.00270443 3 
39 151 284 0 0.12777228 0.00328494 4 
40 151 291 0 0.60037557 0.00331416 4 
41 151 297 0 0.07972289 0.00284845 3 
42 157 297 0 1.04991834 0.00344083 4 
43 166 297 0 1.30507781 0.00337807 4 
44 19 305 0 0.16044642 0.00356259 4 
45 157 305 0 0.58687353 0.00360164 4 
46 163 305 0 7.56485476 0.00483574 6 
47 166 305 0 0.37495035 0.00359831 4 
48 172 305 0 0.01886255 0.00360037 4 
49 19 315 0 0.48455906 0.00309920 3 
50 25 315 0 0.02281386 0.00310601 3 
51 172 315 0 0.05679715 0.00372341 4 
52 172 328 0 0.12482725 0.00324645 3 
53 19 337 0 6.63404991 0.00465067 5 
54 25 337 0 0.96522419 0.00398935 4 
55 172 337 0 0.57611560 0.00333045 3 
56 19 342 0 0.00494520 0.00337770 3 
57 25 342 0 0.12855172 0.00406428 4 
58 172 342 0 0.01223902 0.00410925 4 
59 178 342 0 0.12442988 0.00416963 4 
60 25 367 0 0.11414782 0.00378963 3 
61 32 367 0 0.01267433 0.00594054 6 
62 178 367 0 0.00286807 0.00376704 3 
63 183 367 0 0.06698524 0.00378279 3 
64 25 374 0 0.56424690 0.00459083 4 
65 32 374 0 0.09892849 0.00531924 5 
66 178 374 0 0.03055075 0.00457241 4 
67 183 374 0 0.05309447 0.00456539 4 
68 32 382 0 4.14688582 0.00392772 3 
69 183 382 0 1.28811506 0.00465420 4 
70 32 387 0 2.72468715 0.00473458 4 
71 183 387 0 0.18197642 0.00471597 4 
72 286 399 2 1157.41182333 0.00000336 1 
73 189 414 0 7.69047346 0.00585070 5 
74 220 415 2 1871.10972675 0.00000397 1 
75 3 435 2 603.79237987 0.00000341 1 
76 44 437 0 0.00915802 0.00438542 3 
77 195 437 0 0.01161094 0.00436936 3 
78 44 454 0 0.65644164 0.00452248 3 
79 189 454 0 0.03962740 0.00542148 4 
80 44 467 0 0.12345281 0.00648472 5 
81 50 467 0 0.00895575 0.01022511 9 
82 195 467 0 0.00230988 0.00463739 3 
83 77 468 2 2462.61492378 0.00000425 1 
84 15 483 2 593.95427825 0.00000396 1 
85 195 484 0 0.09447226 0.00574165 4 
86 367 487 2 296.80245247 0.00000320 1 
87 44 494 0 0.02880924 0.00576512 4 
88 50 494 0 0.00628832 0.00482753 3 
89 195 494 0 0.00818961 0.00682054 5 
90 201 494 0 0.00469852 0.00681715 5 
91 50 500 0 0.14406209 0.00694830 5 
92 201 500 0 0.05353930 0.00490064 3 
93 203 500 0 0.03252445 0.00487117 3 
94 61 508 0 0.99413579 0.00711338 5 
95 203 508 0 0.26947301 0.01222735 10 
96 209 508 0 0.03711473 0.00604413 4 
97 61 522 0 1.37942234 0.00613132 4 
98 203 522 0 0.12859200 0.00512381 3 
99 209 522 0 0.00542469 0.00513721 3 
100 61 528 0 0.47936102 0.00513958 3 
101 67 528 0 0.22419307 0.00626740 4 
102 81 528 0 0.23233822 0.00844594 6 
103 209 528 0 0.09444678 0.01063079 8 
104 220 528 0 0.13668760 0.00622688 4 
105 67 532 0 0.05459173 0.01179711 9 
106 81 532 0 0.11826401 0.00846706 6 
107 220 532 0 0.05648169 0.00633673 4 
108 67 556 0 0.98233216 0.00649690 4 
109 381 561 2 2396.00884356 0.00000301 1 
110 67 564 0 0.40168838 0.01231942 9 
111 81 564 0 0.02280941 0.00663907 4 
112 220 564 0 0.02684857 0.00665528 4 
113 67 567 0 2.67253169 0.00780565 5 
114 81 567 0 0.48923871 0.00901395 6 
115 220 567 0 0.21723258 0.00664967 4 
116 67 570 0 2.40706627 0.00970997 6 
117 81 570 0 0.15671702 0.00913666 6 
118 220 570 0 0.13379867 0.00676823 4 
119 81 575 0 2.76594993 0.00792354 5 
120 220 575 0 1.08612706 0.01041377 7 
121 81 588 0 0.01497138 0.00567568 3 
122 87 588 0 0.47937722 0.00818672 5 
123 226 588 0 0.43156268 0.00692101 4 
124 87 597 0 2.27648751 0.00958887 6 
125 94 597 0 0.38888315 0.00700368 4 
126 226 597 0 0.55079633 0.00832372 5 
127 87 604 0 0.47149562 0.00711081 4 
128 94 604 0 0.01542269 0.00841618 5 
129 94 616 0 0.01350372 0.01231396 8 
130 94 632 0 2.16969694 0.00882944 5 
131 94 637 0 4.44236402 0.01007388 6 
132 101 637 0 0.19098383 0.00751943 4 
133 101 642 0 0.11555601 0.00891172 5 
134 107 642 0 0.04025021 0.01416620 9 
135 101 645 0 6.69527511 0.00765423 4 
136 107 645 0 1.54205090 0.00752507 4 
137 101 657 0 0.73548669 0.01669139 10 
138 101 663 0 0.04971914 0.01675673 10 
139 107 663 0 0.01781179 0.00916577 5 
140 114 663 0 0.00275957 0.00917469 5 
141 101 665 0 1.55112265 0.01348476 8 
142 107 665 0 0.47667103 0.00781041 4 
143 114 665 0 0.13329170 0.00650378 3 
144 107 680 0 1.48615866 0.00938083 5 
145 107 683 0 0.94462224 0.00802369 4 
146 114 683 0 0.32178225 0.00953760 5 
147 107 704 0 0.34268109 0.01263367 7 
148 114 704 0 0.07528002 0.01553285 9 
149 107 714 0 1.79639085 0.01135398 6 
150 114 714 0 0.02860377 0.01441665 8 
151 107 730 0 0.19656714 0.01018578 5 
152 114 730 0 0.03540690 0.00857234 4 
153 621 753 2 349.91494756 0.00000338 1 
154 121 754 0 0.33113739 0.00876395 4 
155 126 754 0 0.07673382 0.01516104 8 
156 121 759 0 2.33625684 0.01198256 6 
157 126 759 0 0.22329988 0.01213333 6 
158 126 762 0 7.08482229 0.01042163 5 
159 132 762 0 2.00372045 0.01537933 8 
160 132 778 0 0.06999780 0.00902249 4 
161 132 792 0 1.26802734 0.00934944 4 
162 132 800 0 3.35686460 0.00920390 4 
163 138 800 0 0.14494330 0.01406350 6 
164 138 806 0 0.25140739 0.00754523 3 
165 655 809 2 639.33962233 0.00000388 1 
166 138 821 0 0.40674396 0.01108141 5 
167 138 823 0 6.54725682 0.00940794 4 
168 151 828 0 3.12108818 0.00954496 4 
169 151 847 0 0.08724621 0.01150991 5 
170 151 855 0 0.11494457 0.01516473 7 
171 700 864 2 1823.28295280 0.00000405 1 
172 128 875 2 260.05463475 0.00000363 1 
173 151 895 0 2.80701437 0.01770624 8 
174 151 897 0 0.06118057 0.02147553 10 
175 138 903 0 0.08157811 0.01023745 4 
176 138 904 0 7.06392298 0.01402189 6 
177 132 907 0 0.71874717 0.01033942 4 
178 138 907 0 0.22077132 0.01224315 5 
179 132 911 0 0.23128175 0.01225387 5 
180 121 923 0 0.62636126 0.01436477 6 
181 126 923 0 0.07130653 0.01051336 4 
182 107 929 0 0.07225325 0.01260455 5 
183 114 929 0 0.00477553 0.01064550 4 
184 107 935 0 4.91438615 0.01655311 7 
185 114 935 0 1.40337639 0.01658587 7 
186 101 939 0 0.48567419 0.01073832 4 
187 107 939 0 0.21174614 0.01081299 4 
188 101 944 0 0.15377935 0.01277771 5 
189 94 947 0 0.23772432 0.01679951 7 
190 101 947 0 0.16826262 0.01485059 6 
191 87 953 0 0.13504795 0.01093618 4 
192 94 953 0 0.06505521 0.01500165 6 
193 226 953 0 0.08268323 0.02309966 10 
194 129 956 2 1396.39618729 0.00000451 1 
195 81 959 0 1.83528326 0.02443408 10 
196 87 959 0 1.29172246 0.01717999 7 
197 220 959 0 0.04883629 0.01109111 4 
198 226 959 0 0.12130941 0.01311614 5 
199 67 965 0 1.01368609 0.01320226 5 
200 81 965 0 0.31066014 0.01528650 6 
201 220 965 0 0.16483276 0.01938532 8 
202 24 971 2 1216.33619029 0.00000393 1 
203 61 976 0 0.16803746 0.01744521 7 
204 67 976 0 0.05676300 0.00923873 3 
205 209 976 0 0.00780965 0.01129952 4 
206 755 978 2 6125.38965577 0.00000431 1 
207 50 982 0 0.38354811 0.01136274 4 
208 61 982 0 0.27147698 0.01139134 4 
209 201 982 0 0.22200943 0.01140144 4 
210 203 982 0 0.10573284 0.02195449 9 
211 389 984 2 575.72809579 0.00000399 1 
212 385 986 2 1875.13018634 0.00000410 1 
213 44 988 0 0.09550719 0.01149265 4 
214 50 988 0 0.05924873 0.01153626 4 
215 195 988 0 0.04319526 0.01576908 6 
216 201 988 0 0.02685916 0.01361647 5 
217 44 994 0 0.51683435 0.01792902 7 
218 189 994 0 0.29989154 0.02582827 10 
219 195 994 0 0.21957432 0.01378076 5 
220 32 1003 0 0.23901034 0.01388675 5 
221 178 1003 0 0.03356851 0.02612985 10 
222 183 1003 0 0.01433170 0.01614024 6 
223 25 1008 0 1.23858172 0.01842765 7 
224 32 1008 0 0.53803958 0.01186460 4 
225 178 1008 0 0.34459610 0.01184128 4 
226 183 1008 0 0.22233868 0.01190027 4 
227 25 1010 0 0.60236133 0.01186199 4 
228 32 1010 0 0.30591807 0.01410842 5 
229 172 1010 0 0.10368354 0.01641485 6 
230 178 1010 0 0.19279072 0.02659158 10 
231 19 1016 0 0.44047719 0.02063197 8 
232 166 1016 0 0.20189646 0.01192892 4 
233 172 1016 0 0.07393216 0.01413972 5 
234 151 1029 0 0.03533130 0.01438138 5 
235 157 1029 0 0.02672450 0.01209224 4 
236 163 1029 0 3.39703566 0.01208120 4 
237 166 1029 0 0.49353449 0.01211885 4 
238 650 1062 2 305.35134342 0.00000594 1 
239 455 1077 2 165.12262201 0.00000572 1 
240 132 1084 0 4.21993706 0.01513490 5 
241 607 1100 2 874.20864822 0.00000551 1 
242 227 1103 2 391.31643633 0.00000616 1 
243 750 1119 2 1194.62932038 0.00000622 1 
244 101 1138 0 0.63021658 0.01592269 5 
245 107 1147 0 0.73708347 0.01335291 4 
246 114 1147 0 0.03971358 0.01095206 3 
247 174 1147 2 556.37828845 0.00000435 3 
248 107 1150 0 7.45683387 0.01348468 4 
249 114 1150 0 1.00561260 0.01103160 3 
250 114 1158 0 0.16899687 0.01091675 3 
251 121 1158 0 0.69099743 0.01355954 4 
252 121 1164 0 0.45182924 0.01611845 5 
253 126 1164 0 0.04418665 0.01367309 4 
254 436 1168 2 1797.85779093 0.00000647 1 
255 986 1170 2 2510.42442582 0.00000569 1 
256 114 1175 0 0.14266969 0.01373878 4 
257 121 1175 0 0.27324351 0.01385004 4 
258 923 1175 0 0.18719011 0.01388176 4 
259 929 1175 0 0.16073549 0.01386459 4 
260 1158 1175 0 0.00134797 0.01128095 3 
261 101 1188 0 0.32950319 0.01395284 4 
262 939 1188 0 0.55418798 0.01398912 4 
263 1138 1188 0 0.03006025 0.01151700 3 
264 1147 1188 0 0.04063922 0.01141233 3 
265 1150 1188 0 1.83245351 0.01402284 4 
266 1050 1210 0 0.00345523 0.01418747 4 
267 1061 1210 0 0.57363906 0.01692209 5 
268 1075 1210 0 0.23107861 0.01691188 5 
269 1084 1210 0 3.13555510 0.01696438 5 
270 1088 1210 0 0.59156319 0.01429596 4 
271 1093 1210 0 0.13111230 0.01958650 6 
272 1098 1210 0 0.04730346 0.01426364 4 
273 157 1217 0 0.32750279 0.01430867 4 
274 163 1217 0 0.19904338 0.01455162 4 
275 1029 1217 0 0.01250493 0.01180410 3 
276 1044 1217 0 3.98258990 0.01456872 4 
277 1050 1217 0 4.97161000 0.01724419 5 
278 163 1224 2 1149.30248387 0.00000509 1 
279 163 297 0 0.27920255 0.01527159 4 
280 189 400 0 2.09679271 0.01454741 4 
281 1056 1217 0 9.66143264 0.01726066 5 
