1 19 166 0.00294227 10 
2 19 172 0.00312444 10 
3 25 172 0.00318638 10 
4 25 178 0.00330294 10 
5 32 178 0.00330587 10 
6 32 183 0.00339957 10 
7 44 189 0.00351195 10 
8 44 195 0.00362191 10 
9 50 195 0.00361836 10 
10 50 201 0.00372436 10 
11 50 203 0.00377981 10 
12 61 203 0.00376917 10 
13 61 209 0.00388099 10 
14 67 209 0.00605644 10 
15 67 220 0.00408363 10 
16 81 220 0.00407568 10 
17 161 225 0.00420566 10 
18 81 226 0.00420175 10 
19 87 226 0.00419176 10 
20 87 231 0.00429519 10 
21 94 231 0.00431039 10 
22 226 231 0.00430661 10 
23 94 241 0.00452838 10 
24 101 241 0.00449921 10 
25 188 245 0.00469319 10 
26 101 247 0.00471574 10 
27 107 247 0.00475414 10 
28 225 248 0.00478502 10 
29 107 254 0.00489754 10 
30 114 254 0.00492480 10 
31 107 256 0.00496842 10 
32 114 256 0.00496981 10 
33 107 258 0.00501951 10 
34 114 258 0.00505571 10 
35 121 266 0.00519187 10 
36 126 266 0.00521120 10 
37 126 272 0.00533598 10 
38 132 272 0.00533305 10 
39 1 277 0.00559449 10 
40 132 278 0.00565177 10 
41 138 278 0.00564021 10 
42 138 284 0.00574780 10 
43 151 284 0.00577489 10 
44 151 291 0.00589025 10 
45 151 297 0.00600040 10 
46 157 297 0.00601958 10 
47 163 297 0.00608777 10 
48 166 297 0.00609007 10 
49 19 305 0.00624417 10 
50 157 305 0.00626474 10 
51 163 305 0.00628794 10 
52 166 305 0.00627899 10 
53 172 305 0.00628834 10 
54 19 315 0.00649554 10 
55 25 315 0.00653382 10 
56 172 315 0.00655886 10 
57 216 327 0.00599716 9 
58 172 328 0.00671975 10 
59 19 337 0.00551530 8 
60 25 337 0.00697843 10 
61 172 337 0.00713986 10 
62 19 342 0.00702886 10 
63 25 342 0.00708222 10 
64 172 342 0.00365045 5 
65 178 342 0.00715132 10 
66 47 342 0.00732040 10 
67 25 367 0.00375044 5 
68 32 367 0.00452233 6 
69 178 367 0.00529497 7 
70 183 367 0.00534547 7 
71 25 374 0.00784648 10 
72 32 374 0.00801213 10 
73 178 374 0.00562072 7 
74 183 374 0.00702640 9 
75 32 382 0.00638566 8 
76 183 382 0.00802944 10 
77 32 387 0.00808104 10 
78 183 387 0.00563025 7 
79 73 399 0.00838932 10 
80 189 400 0.00846926 10 
81 189 414 0.00872699 10 
82 406 431 0.00903355 10 
83 44 437 0.00919257 10 
84 195 437 0.00940927 10 
85 44 454 0.00949775 10 
86 189 454 0.00972399 10 
87 162 458 0.00970509 10 
88 157 461 0.00979067 10 
89 44 467 0.00991717 10 
90 50 467 0.01013899 10 
91 195 467 0.00509872 5 
92 343 468 0.01004490 10 
93 195 484 0.00924631 9 
94 274 486 0.01051455 10 
95 338 491 0.01064820 10 
96 44 494 0.01283154 10 
97 50 494 0.01173424 10 
98 195 494 0.01172935 10 
99 201 494 0.01108381 10 
100 50 500 0.01093641 10 
101 201 500 0.01116635 10 
102 203 500 0.01119766 10 
103 61 508 0.01117774 10 
104 203 508 0.01139521 10 
105 209 508 0.01138348 10 
106 135 513 0.01143391 10 
107 61 522 0.01166786 10 
108 203 522 0.01189485 10 
109 209 522 0.01192718 10 
110 61 528 0.01178240 10 
111 67 528 0.01207187 10 
112 81 528 0.01211105 10 
113 209 528 0.01210389 10 
114 220 528 0.01211631 10 
115 67 532 0.00705881 6 
116 81 532 0.01196375 10 
117 220 532 0.01222564 10 
118 397 538 0.01228074 10 
119 67 556 0.01414346 10 
120 67 564 0.01289996 10 
121 81 564 0.01302798 10 
122 220 564 0.01274265 10 
123 67 567 0.01289727 10 
124 81 567 0.01318786 10 
125 220 567 0.01322475 10 
126 67 570 0.01302368 10 
127 81 570 0.01446567 10 
128 220 570 0.01328990 10 
129 81 575 0.01339884 10 
130 220 575 0.01338773 10 
131 236 582 0.01365706 10 
132 81 588 0.01379087 10 
133 87 588 0.01379537 10 
134 226 588 0.01385765 10 
135 315 594 0.01687237 10 
136 87 597 0.01413518 10 
137 94 597 0.01414696 10 
138 226 597 0.01416314 10 
139 87 604 0.01431517 10 
140 94 604 0.01435209 10 
141 94 616 0.01130249 8 
142 431 626 0.01452225 10 
143 94 632 0.01461437 10 
144 94 637 0.01473644 10 
145 101 637 0.01529377 10 
146 101 642 0.01507482 10 
147 107 642 0.01518209 10 
148 101 645 0.01524563 10 
149 107 645 0.01525679 10 
150 101 657 0.01512600 10 
151 440 659 0.01585793 10 
152 134 659 0.01562636 10 
153 101 663 0.01540056 10 
154 107 663 0.01566575 10 
155 114 663 0.01238237 8 
156 101 665 0.01566548 10 
157 107 665 0.01598459 10 
158 114 665 0.01598712 10 
159 107 680 0.01595027 10 
160 107 683 0.01598809 10 
161 114 683 0.01637748 10 
162 378 686 0.01622677 10 
163 107 704 0.01656463 10 
164 114 704 0.01689957 10 
165 107 714 0.01675545 10 
166 114 714 0.01710104 10 
167 107 730 0.01699495 10 
168 114 730 0.01704831 10 
169 395 750 0.01747853 10 
170 121 754 0.01802484 10 
171 126 754 0.01817095 10 
172 121 759 0.01825851 10 
173 126 759 0.01827961 10 
174 126 762 0.01836501 10 
175 132 762 0.01838643 10 
176 132 778 0.01868834 10 
177 570 787 0.01888236 10 
178 132 792 0.18487747 10 
179 346 798 0.17985121 10 
180 132 800 0.18777078 10 
181 138 800 0.18154047 10 
182 138 806 0.01947280 10 
183 115 811 0.01959989 10 
184 359 813 0.02006659 10 
185 255 813 0.02022502 10 
186 138 821 0.02025828 10 
187 138 823 0.02030200 10 
188 422 825 0.02352129 10 
189 151 828 0.02064930 10 
190 807 839 0.02070125 10 
191 347 846 0.02095847 10 
192 151 847 0.02138968 10 
193 151 855 0.02113082 10 
194 854 875 0.01060110 5 
195 280 890 0.02192155 10 
196 151 895 0.02201610 10 
197 151 897 0.01971345 9 
198 396 899 0.02222238 10 
199 84 900 0.02295104 10 
200 138 903 0.02308773 10 
201 138 904 0.02305673 10 
202 132 907 0.02309915 10 
203 138 907 0.02313184 10 
204 132 911 0.02378129 10 
205 18 911 0.02414422 10 
206 721 914 0.02319129 10 
207 530 917 0.02367552 10 
208 121 923 0.02432775 10 
209 126 923 0.02415329 10 
210 107 929 0.02437126 10 
211 114 929 0.02444515 10 
212 107 935 0.02446421 10 
213 114 935 0.02450697 10 
214 292 937 0.02492502 10 
215 133 938 0.02492569 10 
216 101 939 0.02479202 10 
217 107 939 0.02526944 10 
218 127 940 0.02487624 10 
219 101 944 0.02543491 10 
220 94 947 0.02578531 10 
221 101 947 0.02571487 10 
222 87 953 0.02585386 10 
223 94 953 0.02586060 10 
224 226 953 0.02591370 10 
225 142 953 0.02602784 10 
226 81 959 0.02619728 10 
227 87 959 0.02617699 10 
228 220 959 0.02620521 10 
229 226 959 0.02622101 10 
230 485 964 0.02652654 10 
231 67 965 0.02671728 10 
232 81 965 0.02665078 10 
233 220 965 0.02662307 10 
234 106 967 0.02915866 10 
235 730 974 0.02726887 10 
236 33 974 0.04188393 10 
237 61 976 0.02783039 10 
238 67 976 0.02791467 10 
239 209 976 0.02795021 10 
240 50 982 0.02775412 10 
241 61 982 0.02813595 10 
242 201 982 0.02769228 10 
243 203 982 0.02765650 10 
244 44 988 0.02767405 10 
245 50 988 0.02519419 9 
246 195 988 0.02760234 10 
247 201 988 0.01961425 7 
248 58 989 0.02765644 10 
249 44 994 0.02791672 10 
250 189 994 0.02864802 10 
251 195 994 0.07633868 10 
252 712 1000 0.02870430 10 
253 604 1002 0.02888892 10 
254 722 1002 0.02945190 10 
255 32 1003 0.02955844 10 
256 178 1003 0.02953962 10 
257 183 1003 0.02953513 10 
258 25 1008 0.02913028 10 
259 32 1008 0.02963620 10 
260 178 1008 0.02966984 10 
261 183 1008 0.02959438 10 
262 25 1010 0.02920023 10 
263 32 1010 0.03296644 10 
264 172 1010 0.03087023 10 
265 178 1010 0.02971017 10 
266 19 1016 0.02924740 10 
267 166 1016 0.02973574 10 
268 172 1016 0.02663218 9 
269 547 1027 0.03325550 10 
270 151 1029 0.02972564 10 
271 157 1029 0.03024327 10 
272 163 1029 0.03308680 10 
273 166 1029 0.03059211 10 
274 126 1032 0.03329691 10 
275 58 1041 0.02997687 10 
276 267 1042 0.03077290 10 
277 233 1051 0.03058166 10 
278 173 1060 0.03376915 10 
279 896 1072 0.03599775 10 
280 132 1084 0.03139564 10 
281 469 1095 0.03154135 10 
282 196 1096 0.03233748 10 
283 245 1104 0.03222908 10 
284 890 1108 0.03216781 10 
285 573 1111 0.03464878 10 
286 173 1126 0.03346853 10 
287 101 1138 0.03276738 10 
288 47 1143 0.03668322 10 
289 107 1147 0.03330321 10 
290 114 1147 0.03309639 10 
291 1082 1149 0.03721416 10 
292 107 1150 0.03344859 10 
293 114 1150 0.03612950 10 
294 551 1150 0.03442268 10 
295 702 1153 0.03619014 10 
296 907 1154 0.03563716 10 
297 114 1158 0.03383966 10 
298 121 1158 0.03450115 10 
299 388 1160 0.05278438 10 
300 659 1161 0.03465451 10 
301 121 1164 0.03468399 10 
302 126 1164 0.03484231 10 
303 356 1167 0.03671865 10 
304 114 1175 0.03598257 10 
305 121 1175 0.03580721 10 
306 923 1175 0.03559308 10 
307 929 1175 0.03573672 10 
308 1158 1175 0.03666371 10 
309 158 1182 0.03501698 10 
310 101 1188 0.03503130 10 
311 939 1188 0.03580640 10 
312 1138 1188 0.03612860 10 
313 1147 1188 0.03791836 10 
314 1150 1188 0.03636964 10 
315 997 1199 0.03711602 10 
316 1050 1210 0.03793110 10 
317 1061 1210 0.03725997 10 
318 1075 1210 0.03719139 10 
319 1084 1210 0.03798936 10 
320 1088 1210 0.03764483 10 
321 1093 1210 0.03743904 10 
322 1098 1210 0.03741927 10 
323 157 1217 0.04348809 10 
324 163 1217 0.03822965 10 
325 1029 1217 0.03895535 10 
326 1044 1217 0.03744056 10 
327 1050 1217 0.03848000 10 
328 1056 1217 0.03833276 10 
329 204 1220 0.03786097 10 
330 966 1224 0.03828022 10 
331 330 1227 0.03928403 10 
