1 17 29 2 819.76473558 0.00000305 1 
2 2 59 2 386.70534780 0.00000272 1 
3 120 124 2 2198.25397856 0.00000267 1 
4 126 134 2 5694.93419959 0.00000213 1 
5 135 157 2 1125.53718199 0.00000225 1 
6 19 166 0 0.41485034 0.00211724 5 
7 19 172 0 0.02820697 0.00187035 4 
8 25 172 0 0.50366199 0.00188464 4 
9 25 178 0 0.30831851 0.00198393 4 
10 32 178 0 0.01493521 0.00199576 4 
11 126 178 2 262.14495124 0.00000204 4 
12 32 183 0 0.07055611 0.00201662 4 
13 44 189 0 0.52863102 0.00208610 4 
14 44 195 0 0.35755137 0.00217972 4 
15 50 195 0 0.00572854 0.00220121 4 
16 50 201 0 0.04110605 0.00191360 3 
17 50 203 0 0.06975183 0.00188378 3 
18 61 203 0 0.00745912 0.00190457 3 
19 61 209 0 0.37222863 0.00231966 4 
20 67 209 0 0.41032090 0.00233638 4 
21 67 220 0 0.66144083 0.00251004 4 
22 81 220 0 0.48035877 0.00285844 5 
23 81 226 0 0.05402805 0.00256984 4 
24 87 226 0 1.82553139 0.00294911 5 
25 87 231 0 0.34656585 0.00263636 4 
26 94 231 0 0.55778528 0.00256988 4 
27 226 231 0 1.44127402 0.00299552 5 
28 117 232 2 576.97978503 0.00000264 1 
29 94 241 0 1.33132047 0.00269760 4 
30 101 241 0 0.50961029 0.00272560 4 
31 101 247 0 1.66454674 0.00277650 4 
32 107 247 0 1.80094617 0.00278944 4 
33 237 249 2 126.21781176 0.00000200 1 
34 50 253 2 2443.18999699 0.00000226 1 
35 107 254 0 1.18346605 0.00285412 4 
36 114 254 0 0.12939160 0.00287155 4 
37 107 256 0 0.93085039 0.00285853 4 
38 114 256 0 0.24629796 0.00286808 4 
39 107 258 0 1.37911724 0.00293081 4 
40 114 258 0 1.15747212 0.00293735 4 
41 121 266 0 0.00938596 0.00301740 4 
42 126 266 0 0.44864328 0.00355392 5 
43 126 272 0 1.03992836 0.00310429 4 
44 132 272 0 0.39070916 0.00365488 5 
45 132 278 0 0.58358145 0.00318630 4 
46 138 278 0 1.06458780 0.00373530 5 
47 138 284 0 0.02201259 0.00271823 3 
48 151 284 0 0.12777228 0.00329574 4 
49 259 286 2 4267.39583338 0.00000240 1 
50 228 286 2 1031.82670109 0.00000145 1 
51 56 287 2 1565.52328990 0.00000233 1 
52 151 291 0 0.60037557 0.00332503 4 
53 151 297 0 0.07972289 0.00285674 3 
54 157 297 0 1.04991834 0.00345395 4 
55 166 297 0 1.30507781 0.00339927 4 
56 65 304 2 991.89818986 0.00000261 1 
57 19 305 0 0.16044642 0.00358475 4 
58 157 305 0 0.58687353 0.00361446 4 
59 163 305 0 7.56485476 0.00485015 6 
60 166 305 0 0.37495035 0.00361058 4 
61 172 305 0 0.01886255 0.00361992 4 
62 196 310 2 1554.00797656 0.00000268 1 
63 19 315 0 0.48455906 0.00311236 3 
64 25 315 0 0.02281386 0.00312696 3 
65 172 315 0 0.05679715 0.00374534 4 
66 15 319 2 1391.39825989 0.00000228 1 
67 140 323 2 1491.33967355 0.00000217 1 
68 17 327 2 1326.28305632 0.00000258 1 
69 172 328 0 0.12482725 0.00326546 3 
70 305 332 2 940.43391011 0.00000248 1 
71 19 337 0 6.63404991 0.00467150 5 
72 25 337 0 0.96522419 0.00401089 4 
73 172 337 0 0.57611560 0.00335105 3 
74 80 338 2 161.55717441 0.00000205 1 
75 9 339 2 497.31159483 0.00000240 1 
76 19 342 0 0.00494520 0.00339082 3 
77 25 342 0 0.12855172 0.00407634 4 
78 172 342 0 0.01223902 0.00413544 4 
79 178 342 0 0.12442988 0.00419173 4 
80 320 347 2 4886.30499814 0.00000321 1 
81 248 357 2 1100.62080488 0.00000330 1 
82 175 364 2 45.24901499 0.00000311 1 
83 25 367 0 0.11414782 0.00379453 3 
84 32 367 0 0.01267433 0.00596997 6 
85 178 367 0 0.00286807 0.00378217 3 
86 183 367 0 0.06698524 0.00379113 3 
87 23 370 2 4910.30562690 0.00000318 1 
88 25 374 0 0.56424690 0.00460571 4 
89 32 374 0 0.09892849 0.00535101 5 
90 178 374 0 0.03055075 0.00459264 4 
91 183 374 0 0.05309447 0.00458237 4 
92 70 380 2 537.30854453 0.00000311 1 
93 32 382 0 4.14688582 0.00394161 3 
94 183 382 0 1.28811506 0.00467053 4 
95 282 382 2 2195.19724237 0.00000268 4 
96 32 387 0 2.72468715 0.00474149 4 
97 183 387 0 0.18197642 0.00473664 4 
98 283 390 2 1872.53782071 0.00000332 1 
99 43 393 2 558.09180336 0.00000275 1 
100 367 394 2 282.32741643 0.00000273 1 
101 231 399 2 1532.29014029 0.00000291 1 
102 83 412 2 58.52994837 0.00000312 1 
103 189 414 0 7.69047346 0.00587291 5 
104 133 416 2 2728.95298081 0.00000370 1 
105 44 437 0 0.00915802 0.00438484 3 
106 195 437 0 0.01161094 0.00438960 3 
107 243 448 2 1745.35889576 0.00000376 1 
108 44 454 0 0.65644164 0.00452852 3 
109 189 454 0 0.03962740 0.00544268 4 
110 44 467 0 0.12345281 0.00642675 5 
111 50 467 0 0.00895575 0.01024649 9 
112 195 467 0 0.00230988 0.00464481 3 
113 30 470 2 988.00172568 0.00000359 1 
114 91 471 2 1455.61198673 0.00000340 1 
115 217 472 2 1031.16187728 0.00000314 1 
116 316 479 2 223.61355365 0.00000341 1 
117 336 483 2 1015.61485312 0.00000311 1 
118 195 484 0 0.09447226 0.00574544 4 
119 65 488 2 1566.65579575 0.00000390 1 
120 292 489 2 592.44601955 0.00000289 1 
121 122 491 2 387.94646900 0.00000309 1 
122 44 494 0 0.02880924 0.00578791 4 
123 50 494 0 0.00628832 0.00483188 3 
124 195 494 0 0.00818961 0.00684600 5 
125 201 494 0 0.00469852 0.00684252 5 
126 50 500 0 0.14406209 0.00695534 5 
127 201 500 0 0.05353930 0.00490991 3 
128 203 500 0 0.03252445 0.00488795 3 
129 44 504 2 2117.69510141 0.00000383 1 
130 87 505 2 1497.14670911 0.00001228 1 
131 61 508 0 0.99413579 0.00720548 5 
132 203 508 0 0.26947301 0.01226569 10 
133 209 508 0 0.03711473 0.00606873 4 
134 211 508 2 6823.92845770 0.00000261 4 
135 412 510 2 1711.48589162 0.00000277 1 
136 110 511 2 1261.18298977 0.00000235 1 
137 405 514 2 1256.36601067 0.00000290 1 
138 34 519 2 1375.03167805 0.00000320 1 
139 462 520 2 919.12651934 0.00000283 1 
140 61 522 0 1.37942234 0.00614455 4 
141 203 522 0 0.12859200 0.00513193 3 
142 209 522 0 0.00542469 0.00514484 3 
143 376 525 2 1844.68862134 0.00000310 1 
144 116 527 2 1274.46493638 0.00000293 1 
145 61 528 0 0.47936102 0.00516605 3 
146 67 528 0 0.22419307 0.00629717 4 
147 81 528 0 0.23233822 0.00843469 6 
148 209 528 0 0.09444678 0.01063755 8 
149 220 528 0 0.13668760 0.00623690 4 
150 152 530 2 2534.10323849 0.00000358 1 
151 67 532 0 0.05459173 0.01182665 9 
152 81 532 0 0.11826401 0.00848375 6 
153 220 532 0 0.05648169 0.00634846 4 
154 17 532 2 3715.54017575 0.00000286 4 
155 267 538 2 625.91426981 0.00000312 1 
156 373 543 2 529.41933041 0.00000286 1 
157 480 546 2 23.86618725 0.00000254 1 
158 457 549 2 620.14599591 0.00000237 1 
159 341 553 2 527.45870322 0.00000263 1 
160 67 556 0 0.98233216 0.00650230 4 
161 201 563 2 4045.28407265 0.00000303 1 
162 67 564 0 0.40168838 0.01234748 9 
163 81 564 0 0.02280941 0.00665310 4 
164 220 564 0 0.02684857 0.00666257 4 
165 341 564 2 2670.94695668 0.00000263 4 
166 67 567 0 2.67253169 0.00782463 5 
167 81 567 0 0.48923871 0.00904699 6 
168 220 567 0 0.21723258 0.00667046 4 
169 67 570 0 2.40706627 0.00910919 6 
170 81 570 0 0.15671702 0.00906701 6 
171 220 570 0 0.13379867 0.00675071 4 
172 515 570 2 4108.94269542 0.00000551 4 
173 161 571 2 4068.57985555 0.00000256 1 
174 464 572 2 321.38656589 0.00000242 1 
175 81 575 0 2.76594993 0.00797062 5 
176 220 575 0 1.08612706 0.01036930 7 
177 110 577 2 387.69515085 0.00000304 1 
178 280 585 2 1690.08307961 0.00000268 1 
179 27 585 2 1890.40841329 0.00000106 1 
180 81 588 0 0.01497138 0.00568331 3 
181 87 588 0 0.47937722 0.00818852 5 
182 226 588 0 0.43156268 0.00692295 4 
183 507 588 2 5093.48775701 0.00000382 4 
184 276 594 2 2480.04965934 0.00000372 1 
185 409 596 2 900.06838895 0.00000327 1 
186 87 597 0 2.27648751 0.00957152 6 
187 94 597 0 0.38888315 0.00700565 4 
188 226 597 0 0.55079633 0.00831601 5 
189 87 604 0 0.47149562 0.00712398 4 
190 94 604 0 0.01542269 0.00841710 5 
191 500 605 2 3134.03987164 0.00000323 1 
192 94 616 0 0.01350372 0.01234969 8 
193 301 618 2 2114.73823497 0.00000370 1 
194 8 626 2 346.35874397 0.00000363 1 
195 437 629 2 1148.99277629 0.00000341 1 
196 94 632 0 2.16969694 0.00880816 5 
197 173 632 2 1315.98192148 0.00000303 5 
198 352 633 2 706.74383235 0.00000319 1 
199 94 637 0 4.44236402 0.01008737 6 
200 101 637 0 0.19098383 0.00751975 4 
201 614 637 2 8380.36362011 0.00000380 4 
202 428 641 2 848.44933743 0.00000370 1 
203 101 642 0 0.11555601 0.00890766 5 
204 107 642 0 0.04025021 0.01411658 9 
205 101 645 0 6.69527511 0.00762313 4 
206 107 645 0 1.54205090 0.00752944 4 
207 621 650 2 100.25831753 0.00000361 1 
208 123 654 2 997.60171148 0.00000388 1 
209 101 657 0 0.73548669 0.01671672 10 
210 102 657 2 4828.90688155 0.00000344 10 
211 467 660 2 2170.01058285 0.00000395 10 
212 287 661 2 742.30330033 0.00000329 10 
213 101 663 0 0.04971914 0.01687836 10 
214 107 663 0 0.01781179 0.00919679 5 
215 114 663 0 0.00275957 0.00916558 5 
216 101 665 0 1.55112265 0.01348860 8 
217 107 665 0 0.47667103 0.00782128 4 
218 114 665 0 0.13329170 0.00651175 3 
219 572 671 2 1911.92592445 0.00000319 1 
220 627 672 2 447.15213137 0.00000273 1 
221 107 680 0 1.48615866 0.00938323 5 
222 320 682 2 97.53134763 0.00000374 1 
223 107 683 0 0.94462224 0.00804478 4 
224 114 683 0 0.32178225 0.00958134 5 
225 16 691 2 843.99462259 0.00000336 1 
226 107 704 0 0.34268109 0.01262324 7 
227 114 704 0 0.07528002 0.01554269 9 
228 360 704 2 884.77361976 0.00000359 9 
229 215 705 2 3201.91378416 0.00000365 1 
230 571 711 2 2352.01901891 0.00000320 1 
231 107 714 0 1.79639085 0.01134517 6 
232 114 714 0 0.02860377 0.01456784 8 
233 696 716 2 4799.98416716 0.00000505 1 
234 313 722 2 811.46433738 0.00001077 1 
235 107 730 0 0.19656714 0.01014707 5 
236 114 730 0 0.03540690 0.00932027 4 
237 604 735 2 169.15659328 0.00000386 1 
238 646 743 2 945.66347527 0.00000325 1 
239 712 744 2 1345.42110999 0.00000334 1 
240 235 753 2 207.61432238 0.00000354 1 
241 121 754 0 0.33113739 0.00876232 4 
242 126 754 0 0.07673382 0.01516329 8 
243 363 756 2 1170.62105417 0.00000371 1 
244 225 757 2 5105.17481475 0.00000338 1 
245 392 757 2 513.45529360 0.00000114 1 
246 164 758 2 302.93907763 0.00000335 1 
247 121 759 0 2.33625684 0.01198296 6 
248 126 759 0 0.22329988 0.01204523 6 
249 735 761 2 3505.12953294 0.00000393 1 
250 126 762 0 7.08482229 0.01042415 5 
251 132 762 0 2.00372045 0.01536048 8 
252 219 763 2 1868.19520310 0.00000347 1 
253 493 766 2 2929.99655671 0.00000328 1 
254 524 769 2 1333.94072370 0.00000371 1 
255 9 770 2 214.92093481 0.00000380 1 
256 447 770 2 697.45739167 0.00000141 1 
257 407 773 2 590.79487238 0.00000391 1 
258 136 773 2 644.83126401 0.00000116 1 
259 606 774 2 283.00645953 0.00000298 1 
260 132 778 0 0.06999780 0.00905958 4 
261 190 785 2 464.63515979 0.00000432 1 
262 318 786 2 637.65493395 0.00000434 1 
263 517 789 2 451.08918226 0.00000387 1 
264 132 792 0 1.26802734 0.00929722 4 
265 408 792 2 1032.04841408 0.00000408 4 
266 67 793 2 647.29451646 0.00000391 1 
267 159 794 2 1057.06289002 0.00000363 1 
268 695 798 2 804.31060134 0.00000444 1 
269 132 800 0 3.35686460 0.00919264 4 
270 138 800 0 0.14494330 0.01256258 6 
271 179 804 2 1419.83362508 0.00000375 1 
272 52 804 2 1748.97227091 0.00000145 1 
273 138 806 0 0.25140739 0.00753305 3 
274 225 806 2 3533.33684479 0.00000391 3 
275 366 811 2 1157.26617169 0.00000397 1 
276 107 816 2 219.67035187 0.00000410 1 
277 755 818 2 669.70605857 0.00000359 1 
278 138 821 0 0.40674396 0.01109004 5 
279 138 823 0 6.54725682 0.00939550 4 
280 388 825 2 796.48972717 0.00000371 1 
281 151 828 0 3.12108818 0.00951804 4 
282 664 830 2 3718.57995507 0.00000462 1 
283 543 831 2 1120.54137006 0.00000377 1 
284 345 839 2 1179.10948856 0.00000405 1 
285 15 839 2 307.91370164 0.00000123 1 
286 86 841 2 1120.23284054 0.00000438 1 
287 151 847 0 0.08724621 0.01146092 5 
288 350 853 2 195.03527650 0.00000417 1 
289 388 854 2 94.68577695 0.00000324 1 
290 383 854 2 1151.22085444 0.00000150 1 
291 151 855 0 0.11494457 0.01512236 7 
292 148 856 2 870.08779344 0.00000358 1 
293 408 866 2 516.45732793 0.00000385 1 
294 854 868 2 878.80000059 0.00000388 1 
295 608 870 2 1516.63600067 0.00000397 1 
296 385 871 2 277.61320805 0.00000308 1 
297 246 877 2 395.35843421 0.00000414 1 
298 688 879 2 247.55088669 0.00000408 1 
299 687 881 2 489.49024094 0.00000405 1 
300 532 890 2 245.20087462 0.00000396 1 
301 151 895 0 2.80701437 0.01760903 8 
302 151 897 0 0.06118057 0.02137568 10 
303 237 897 2 501.06618241 0.00000471 10 
304 328 898 2 823.85349829 0.00000459 1 
305 340 901 2 373.99705271 0.00000390 1 
306 365 902 2 725.30891949 0.00000411 1 
307 138 903 0 0.08157811 0.01023085 4 
308 140 903 2 6364.86528061 0.00000455 4 
309 138 904 0 7.06392298 0.01400305 6 
310 132 907 0 0.71874717 0.01029243 4 
311 138 907 0 0.22077132 0.01219911 5 
312 145 908 2 593.91575151 0.00000420 1 
313 688 909 2 694.49407377 0.00000362 1 
314 672 909 2 558.79051111 0.00000131 1 
315 586 910 2 2994.90891685 0.00000325 1 
316 132 911 0 0.23128175 0.01220819 5 
317 518 911 2 1525.46997863 0.00000447 5 
318 200 915 2 745.03223095 0.00000372 1 
319 506 918 2 530.59045869 0.00000374 1 
320 291 922 2 510.15288458 0.00000383 1 
321 121 923 0 0.62636126 0.01435629 6 
322 126 923 0 0.07130653 0.01047008 4 
323 107 929 0 0.07225325 0.01254892 5 
324 114 929 0 0.00477553 0.01056803 4 
325 467 931 2 2948.54396487 0.00000444 1 
326 107 935 0 4.91438615 0.01650956 7 
327 114 935 0 1.40337639 0.01653363 7 
328 101 939 0 0.48567419 0.01070480 4 
329 107 939 0 0.21174614 0.01073391 4 
330 101 944 0 0.15377935 0.01272245 5 
331 94 947 0 0.23772432 0.01683017 7 
332 101 947 0 0.16826262 0.01477827 6 
333 46 949 2 2929.14623011 0.00000431 1 
334 87 953 0 0.13504795 0.01086640 4 
335 94 953 0 0.06505521 0.01489932 6 
336 226 953 0 0.08268323 0.02291296 10 
337 803 957 2 1561.54167022 0.00000473 1 
338 81 959 0 1.83528326 0.02431849 10 
339 87 959 0 1.29172246 0.01707340 7 
340 220 959 0 0.04883629 0.01103721 4 
341 226 959 0 0.12130941 0.01303800 5 
342 72 959 2 3736.03453446 0.00000380 5 
343 521 962 2 1280.06865130 0.00000398 1 
344 504 964 2 921.41588064 0.00000408 1 
345 67 965 0 1.01368609 0.01313762 5 
346 81 965 0 0.31066014 0.01519532 6 
347 220 965 0 0.16483276 0.01928451 8 
348 355 966 2 1756.59190579 0.00000513 1 
349 734 966 2 285.04153508 0.00000158 1 
350 97 967 2 6089.97301856 0.00000410 1 
351 727 972 2 2521.93718866 0.00000457 1 
352 609 975 2 1405.91635060 0.00000484 1 
353 61 976 0 0.16803746 0.01740094 7 
354 67 976 0 0.05676300 0.00915577 3 
355 209 976 0 0.00780965 0.01122690 4 
356 334 980 2 1226.38978958 0.00000464 1 
357 287 980 2 1127.76703632 0.00000161 1 
358 403 981 2 274.53283973 0.00000403 1 
359 664 981 2 1139.89054490 0.00000135 1 
360 50 982 0 0.38354811 0.01132232 4 
361 61 982 0 0.27147698 0.01135485 4 
362 201 982 0 0.22200943 0.01133902 4 
363 203 982 0 0.10573284 0.02184421 9 
364 285 984 2 1903.66090622 0.00000455 1 
365 334 985 2 2103.28190720 0.00000375 1 
366 753 986 2 1257.96005358 0.00000408 1 
367 753 987 2 1060.48462017 0.00000403 1 
368 44 988 0 0.09550719 0.01142998 4 
369 50 988 0 0.05924873 0.01145071 4 
370 195 988 0 0.04319526 0.01568026 6 
371 201 988 0 0.02685916 0.01355003 5 
372 28 989 2 2837.98571236 0.00000492 1 
373 846 991 2 4146.43319247 0.00000456 1 
374 440 992 2 2068.04715118 0.00000421 1 
375 44 994 0 0.51683435 0.01786473 7 
376 189 994 0 0.29989154 0.02573452 10 
377 195 994 0 0.21957432 0.01368020 5 
378 810 996 2 1239.99963487 0.00000482 1 
379 629 998 2 1328.10964389 0.00000469 1 
380 179 1000 2 1643.69986013 0.00000481 1 
381 32 1003 0 0.23901034 0.01384466 5 
382 178 1003 0 0.03356851 0.02602504 10 
383 183 1003 0 0.01433170 0.01604030 6 
384 25 1008 0 1.23858172 0.01837544 7 
385 32 1008 0 0.53803958 0.01176412 4 
386 178 1008 0 0.34459610 0.01177648 4 
387 183 1008 0 0.22233868 0.01181451 4 
388 433 1009 2 2577.16808121 0.00000562 1 
389 25 1010 0 0.60236133 0.01188096 4 
390 32 1010 0 0.30591807 0.01400900 5 
391 172 1010 0 0.10368354 0.01628147 6 
392 178 1010 0 0.19279072 0.02641443 10 
393 19 1016 0 0.44047719 0.02054182 8 
394 166 1016 0 0.20189646 0.01182751 4 
395 172 1016 0 0.07393216 0.01403767 5 
396 878 1027 2 165.30855717 0.00000554 1 
397 358 1028 2 204.68495717 0.00000570 1 
398 151 1029 0 0.03533130 0.01431460 5 
399 157 1029 0 0.02672450 0.01203974 4 
400 163 1029 0 3.39703566 0.01202934 4 
401 166 1029 0 0.49353449 0.01200691 4 
402 560 1029 2 403.39443812 0.00000413 4 
403 538 1030 2 1706.12896793 0.00000568 1 
404 160 1035 2 324.56862894 0.00000552 1 
405 1016 1037 2 1195.65415806 0.00000502 1 
406 883 1038 2 366.32111100 0.00000575 1 
407 363 1042 2 152.44250374 0.00000545 1 
408 9 1047 2 487.55737966 0.00000577 1 
409 221 1053 2 1232.79109595 0.00000591 1 
410 374 1054 2 1097.54388509 0.00000546 1 
411 943 1055 2 229.06195892 0.00000544 1 
412 8 1056 2 313.98319471 0.00000570 1 
413 181 1057 2 558.95985520 0.00000552 1 
414 636 1058 2 386.52500919 0.00000540 1 
415 433 1058 2 583.31311913 0.00000225 1 
416 502 1063 2 132.25530486 0.00000631 1 
417 1041 1074 2 429.89559574 0.00000602 1 
418 611 1077 2 682.08917222 0.00000610 1 
419 163 1080 2 119.99878804 0.00000575 1 
420 27 1081 2 297.02631683 0.00000525 1 
421 889 1081 2 98.86101528 0.00000204 1 
422 132 1084 0 4.21993706 0.01505322 5 
423 596 1084 2 838.58997687 0.00000515 5 
424 486 1088 2 870.47465259 0.00000595 1 
425 404 1090 2 190.94623218 0.00000480 1 
426 939 1095 2 431.64308891 0.00000591 1 
427 619 1100 2 223.09756955 0.00000541 1 
428 45 1110 2 315.87148077 0.00000582 1 
429 699 1111 2 309.11217438 0.00000558 1 
430 582 1113 2 393.37936373 0.00000596 1 
431 769 1113 2 297.48370783 0.00000192 1 
432 615 1116 2 720.38525424 0.00000527 1 
433 174 1122 2 195.25248142 0.00000606 1 
434 342 1122 2 48.69546716 0.00000229 1 
435 0 1123 2 75.55413864 0.00000545 1 
436 1036 1124 2 534.05326075 0.00000577 1 
437 371 1130 2 297.20456572 0.00000531 1 
438 1120 1130 2 707.85625232 0.00000218 1 
439 499 1132 2 1073.86773221 0.00000613 1 
440 295 1134 2 218.33435693 0.00000518 1 
441 625 1134 2 467.20562399 0.00000263 1 
442 168 1135 2 166.25270305 0.00000581 1 
443 7 1136 2 400.51932932 0.00000566 1 
444 101 1138 0 0.63021658 0.01594665 5 
445 109 1143 2 1231.30895279 0.00000552 1 
446 107 1147 0 0.73708347 0.01343033 4 
447 114 1147 0 0.03971358 0.01092661 3 
448 393 1147 2 436.69432884 0.00000490 3 
449 107 1150 0 7.45683387 0.01335553 4 
450 114 1150 0 1.00561260 0.01088184 3 
451 701 1151 2 4849.68979530 0.00000624 1 
452 1131 1154 2 987.88144711 0.00000565 1 
453 114 1158 0 0.16899687 0.01095837 3 
454 121 1158 0 0.69099743 0.01352641 4 
455 40 1160 2 8848.07264810 0.00000527 1 
456 121 1164 0 0.45182924 0.01607389 5 
457 126 1164 0 0.04418665 0.01354654 4 
458 1075 1164 2 2113.06494678 0.00000541 4 
459 389 1165 2 3747.47199255 0.00000584 1 
460 195 1166 2 2605.02324015 0.00000542 1 
461 1050 1169 2 537.08195861 0.00000550 1 
462 471 1169 2 2184.15935989 0.00000220 1 
463 385 1172 2 775.66807397 0.00000584 1 
464 114 1175 0 0.14266969 0.01365911 4 
465 121 1175 0 0.27324351 0.01370058 4 
466 923 1175 0 0.18719011 0.01373204 4 
467 929 1175 0 0.16073549 0.01367162 4 
468 1158 1175 0 0.00134797 0.01115945 3 
469 699 1175 2 14267.67543663 0.00000587 3 
470 463 1176 2 434.22900967 0.00000564 1 
471 202 1176 2 5594.84480616 0.00000191 1 
472 27 1177 2 3563.97838605 0.00000546 1 
473 1116 1178 2 1589.27120721 0.00000548 1 
474 932 1179 2 2037.93464003 0.00000561 1 
475 265 1182 2 606.87712350 0.00000592 1 
476 101 1188 0 0.32950319 0.01384366 4 
477 939 1188 0 0.55418798 0.01384749 4 
478 1138 1188 0 0.03006025 0.01138443 3 
479 1147 1188 0 0.04063922 0.01130175 3 
480 1150 1188 0 1.83245351 0.01392935 4 
481 295 1196 2 707.54115860 0.00000616 1 
482 727 1201 2 367.94364358 0.00000592 1 
483 1050 1210 0 0.00345523 0.01408238 4 
484 1061 1210 0 0.57363906 0.01673245 5 
485 1075 1210 0 0.23107861 0.01677634 5 
486 1084 1210 0 3.13555510 0.01675039 5 
487 1088 1210 0 0.59156319 0.01417142 4 
488 1093 1210 0 0.13111230 0.01944566 6 
489 1098 1210 0 0.04730346 0.01414031 4 
490 1156 1211 2 1973.27950684 0.00000596 1 
491 585 1211 2 5366.97690972 0.00000238 1 
492 757 1214 2 2194.83449767 0.00000613 1 
493 157 1217 0 0.32750279 0.01427051 4 
494 163 1217 0 0.19904338 0.01437842 4 
495 1029 1217 0 0.01250493 0.01168450 3 
496 1044 1217 0 3.98258990 0.01438442 4 
497 1050 1217 0 4.97161000 0.01707007 5 
498 1122 1217 2 588.04063260 0.00000154 5 
499 1154 1217 2 6250.30952597 0.00000117 5 
500 304 1222 2 1117.94056137 0.00000584 1 
501 493 1224 2 1648.33672286 0.00000619 1 
502 10 1224 2 588.12134669 0.00000222 1 
503 651 1225 2 2530.62635068 0.00000593 1 
504 163 297 0 0.27920255 0.01533307 4 
505 189 400 0 2.09679271 0.01698686 4 
506 1056 1217 0 9.66143264 0.01729793 5 
