VERTEX2 0 0.00003389 0.00000008 0.00000053
VERTEX2 1 0.00003389 0.00000008 -0.00064147
VERTEX2 2 0.00003390 0.00000008 -0.00117948
VERTEX2 3 0.01103575 -0.00097490 -0.00356148
VERTEX2 4 0.64104234 -0.01119971 -0.00744348
VERTEX2 5 0.69605002 -0.01171517 -0.09872548
VERTEX2 6 0.70030314 -0.01543449 -0.89599748
VERTEX2 7 0.69399040 0.00421399 -1.51153448
VERTEX2 8 0.69929724 0.02669476 -2.12506848
VERTEX2 9 0.71614850 0.04112379 -2.76313848
VERTEX2 10 0.72233189 0.04213231 2.90532289
VERTEX2 11 0.72252416 0.04201107 2.23055115
VERTEX2 12 0.72246236 0.04585925 1.58094006
VERTEX2 13 0.72759668 0.06198076 0.92130021
VERTEX2 14 0.74096123 0.07134786 0.31292564
VERTEX2 15 0.73698816 0.07108206 -0.21212398
VERTEX2 16 1.01772667 0.01321941 -0.23087007
VERTEX2 17 1.60570146 -0.13163899 -0.26215182
VERTEX2 18 2.21372025 -0.29178485 -0.27226782
VERTEX2 19 2.82631249 -0.48562118 -0.32058972
VERTEX2 20 3.42033809 -0.67677351 -0.31440822
VERTEX2 21 4.02959984 -0.82999542 -0.20248051
VERTEX2 22 4.63966853 -0.97194306 -0.18478026
VERTEX2 23 5.27893736 -1.01654906 -0.07695088
VERTEX2 24 5.91014357 -1.08789236 -0.13363655
VERTEX2 25 6.54467940 -1.15548671 -0.13051545
VERTEX2 26 7.15360926 -1.25603381 -0.17016053
VERTEX2 27 7.76935590 -1.34681262 -0.15344833
VERTEX2 28 8.35225930 -1.44392007 -0.15803660
VERTEX2 29 8.73252343 -1.50051097 -0.12742560
VERTEX2 30 8.74230620 -1.50308778 -0.65990224
VERTEX2 31 8.84224837 -1.63656624 -0.92850951
VERTEX2 32 9.20994136 -2.14851324 -0.94721906
VERTEX2 33 9.58743000 -2.64517899 -0.89643005
VERTEX2 34 9.99433118 -3.12669940 -0.87547305
VERTEX2 35 10.41138151 -3.60089613 -0.84137393
VERTEX2 36 10.83782042 -4.08001014 -0.85012004
VERTEX2 37 11.11721722 -4.39033584 -0.84264709
VERTEX2 38 11.11160623 -4.38275539 -1.16470494
VERTEX2 39 11.10714652 -4.36272521 -1.33601124
VERTEX2 40 11.24969669 -4.92259221 -1.31903497
VERTEX2 41 11.39768250 -5.50741311 -1.35133982
VERTEX2 42 11.51812203 -6.05508052 -1.37438970
VERTEX2 43 11.62290155 -6.63353737 -1.41497850
VERTEX2 44 11.71092458 -7.21062373 -1.45237486
VERTEX2 45 11.76579224 -7.82590994 -1.50799859
VERTEX2 46 11.79672052 -8.44317687 -1.52749014
VERTEX2 47 11.81677804 -9.06025013 -1.56928144
VERTEX2 48 11.81331938 -9.68167402 -1.57594071
VERTEX2 49 11.80606241 -10.29903237 -1.62689863
VERTEX2 50 11.75295164 -10.88390047 -1.67151962
VERTEX2 51 11.69828889 -11.47309146 -1.70079653
VERTEX2 52 11.60206567 -12.04886583 -1.77774693
VERTEX2 53 11.50299329 -12.59908015 -1.76559613
VERTEX2 54 11.38972610 -13.10917898 -1.82768706
VERTEX2 55 11.39674977 -13.07570111 -1.82241655
VERTEX2 56 11.39649452 -13.07670094 -1.81184833
VERTEX2 57 11.25206529 -13.69293636 -1.82323894
VERTEX2 58 11.10636284 -14.29243607 -1.77700582
VERTEX2 59 10.97786725 -14.89140305 -1.80056639
VERTEX2 60 10.84810181 -15.49033765 -1.77913392
VERTEX2 61 10.71147706 -16.09480422 -1.82988785
VERTEX2 62 10.56129447 -16.65045892 -1.79001385
VERTEX2 63 10.40931928 -17.21086953 -1.82546918
VERTEX2 64 10.27388469 -17.76557289 -1.76202774
VERTEX2 65 10.13894029 -18.31799424 -1.81337759
VERTEX2 66 9.98496240 -18.90029358 -1.82133047
VERTEX2 67 9.81927442 -19.48610685 -1.81980123
VERTEX2 68 9.70978927 -19.93014462 -1.83549181
VERTEX2 69 9.71407955 -19.91623189 -1.99031573
VERTEX2 70 9.72307854 -19.89906176 -2.66432527
VERTEX2 71 9.75061653 -19.89748817 2.97653198
VERTEX2 72 9.76666920 -19.89951215 2.96716170
VERTEX2 73 9.77711304 -19.90209692 2.90234225
VERTEX2 74 9.77867099 -19.90313512 2.28084950
VERTEX2 75 9.78454194 -19.90543055 1.92846119
VERTEX2 76 9.77495163 -19.89478189 2.62228868
VERTEX2 77 9.76999867 -19.89270799 2.85521142
VERTEX2 78 9.48420417 -19.90355034 -3.09089694
VERTEX2 79 8.86156691 -19.94264753 -3.09622158
VERTEX2 80 8.22569546 -19.94119511 3.11234416
VERTEX2 81 7.59788458 -19.91446162 3.08622921
VERTEX2 82 6.99421529 -19.86930902 3.03277600
VERTEX2 83 6.39937509 -19.81349784 3.01013730
VERTEX2 84 5.82284701 -19.72118354 2.93373721
VERTEX2 85 5.26320980 -19.61036877 2.94261306
VERTEX2 86 4.62699707 -19.47816270 2.85574152
VERTEX2 87 4.30928412 -19.40500122 2.79773913
VERTEX2 88 3.95011890 -19.27208390 2.76804016
VERTEX2 89 3.96103141 -19.27258427 -3.11914154
VERTEX2 90 3.35766633 -19.27623499 3.13306000
VERTEX2 91 2.74341284 -19.27236889 -3.10089633
VERTEX2 92 2.14525844 -19.26874365 3.06678210
VERTEX2 93 1.52654416 -19.16724516 2.96578502
VERTEX2 94 0.90774988 -19.02989106 2.92290447
VERTEX2 95 0.28584999 -18.94267061 3.06578390
VERTEX2 96 -0.32421061 -18.89230058 3.09007965
VERTEX2 97 -0.91161679 -18.83066100 3.01930740
VERTEX2 98 -1.49753215 -18.73111147 2.96115473
VERTEX2 99 -2.20001045 -18.60829166 3.00777046
VERTEX2 100 -2.76193246 -18.50157293 2.95582454
VERTEX2 101 -3.37047091 -18.44589754 3.05884450
VERTEX2 102 -3.98317869 -18.36631936 2.95293165
VERTEX2 103 -4.59105421 -18.25226232 3.04885932
VERTEX2 104 -5.20309461 -18.17664154 3.01515658
VERTEX2 105 -5.81536041 -18.11282632 3.06166505
VERTEX2 106 -6.41703576 -18.04303068 3.00674201
VERTEX2 107 -7.03444938 -17.94751640 3.00286999
VERTEX2 108 -7.48680594 -17.89919069 3.06439753
VERTEX2 109 -7.53322844 -17.88744896 2.61599758
VERTEX2 110 -7.55079324 -17.86928756 2.02477624
VERTEX2 111 -7.55101835 -17.78781254 1.51903715
VERTEX2 112 -7.52771619 -17.15560589 1.57328909
VERTEX2 113 -7.54633906 -16.53490229 1.62014686
VERTEX2 114 -7.57957382 -15.92261662 1.65675823
VERTEX2 115 -7.65166759 -15.28643321 1.71700779
VERTEX2 116 -7.76872035 -14.54051927 1.76115907
VERTEX2 117 -7.90262969 -13.93579101 1.85685662
VERTEX2 118 -7.90591442 -13.92101809 1.52247785
VERTEX2 119 -7.85160977 -13.41000963 1.46883977
VERTEX2 120 -7.80033796 -12.76105396 1.55868247
VERTEX2 121 -7.81156311 -12.14950660 1.62595022
VERTEX2 122 -7.84630051 -11.57131880 1.68216053
VERTEX2 123 -7.87096920 -11.39563320 1.66937813
VERTEX2 124 -7.78657961 -11.16036238 1.24633704
VERTEX2 125 -7.57241332 -10.57082972 1.23539360
VERTEX2 126 -7.44215822 -9.95862687 1.44194922
VERTEX2 127 -7.34728619 -9.33100367 1.44034996
VERTEX2 128 -7.27448240 -8.69936371 1.47676124
VERTEX2 129 -7.19092439 -8.07155418 1.44409147
VERTEX2 130 -7.12604879 -7.44581536 1.49674498
VERTEX2 131 -7.08269077 -6.82599326 1.58518850
VERTEX2 132 -7.06695178 -6.21589011 1.53554320
VERTEX2 133 -7.02167880 -5.65964194 1.49893796
VERTEX2 134 -6.96958010 -5.07466018 1.48101168
VERTEX2 135 -6.89007335 -4.50895217 1.45514749
VERTEX2 136 -6.81826175 -3.87946676 1.47438467
VERTEX2 137 -6.72388018 -3.25161869 1.43211223
VERTEX2 138 -6.64932544 -2.61983360 1.51183798
VERTEX2 139 -6.63460201 -1.99812028 1.57767886
VERTEX2 140 -6.66514091 -1.34690550 1.60803729
VERTEX2 141 -6.67331123 -0.71087130 1.55943130
VERTEX2 142 -6.67574729 -0.06510223 1.55544494
VERTEX2 143 -6.59708346 0.57025795 1.44470095
VERTEX2 144 -6.55883122 0.93832541 1.46207846
VERTEX2 145 -6.55425715 0.95231162 0.96332385
VERTEX2 146 -6.55331657 0.95716343 0.36969386
VERTEX2 147 -6.49334347 0.95315315 -0.11718039
VERTEX2 148 -6.05715698 0.89373652 -0.15299591
VERTEX2 149 -5.41627438 0.80176106 -0.12806660
VERTEX2 150 -4.78197741 0.73896184 -0.11407784
VERTEX2 151 -4.14215294 0.69319679 -0.02860549
VERTEX2 152 -3.51417746 0.65878152 -0.08940587
VERTEX2 153 -2.88656424 0.62704459 0.00417546
VERTEX2 154 -2.26288732 0.60723498 -0.06514440
VERTEX2 155 -1.63512930 0.57503725 -0.03145554
VERTEX2 156 -1.00967513 0.56219879 -0.00068590
VERTEX2 157 -0.44776831 0.54593855 -0.06496077
VERTEX2 158 -0.25288820 0.53280051 -0.03746077
VERTEX2 159 -0.24697948 0.53093034 0.94988759
VERTEX2 160 -0.24157159 0.53982351 1.98558865
VERTEX2 161 -0.26504287 0.47807012 2.70575161
VERTEX2 162 -0.23897482 0.48389043 -2.54161280
VERTEX2 163 -0.24000832 0.47876090 -1.54451148
VERTEX2 164 -0.31079882 0.56701235 -0.48103295
VERTEX2 165 -0.13842871 0.54954342 -0.07328006
VERTEX2 166 0.55758712 0.50496886 -0.07158795
VERTEX2 167 1.17744544 0.45219825 -0.10115425
VERTEX2 168 1.76880921 0.40045469 -0.08929864
VERTEX2 169 2.36272253 0.32702838 -0.12573032
VERTEX2 170 2.94786296 0.25716257 -0.14586389
VERTEX2 171 3.50872892 0.15751146 -0.18361356
VERTEX2 172 4.13324541 0.04887669 -0.16900117
VERTEX2 173 4.76153219 -0.07245188 -0.19132538
VERTEX2 174 5.38602875 -0.18702640 -0.15062716
VERTEX2 175 6.00411021 -0.27706501 -0.17501530
VERTEX2 176 6.60538236 -0.39708638 -0.16509409
VERTEX2 177 7.23060521 -0.49933274 -0.19242423
VERTEX2 178 7.84615919 -0.64232983 -0.23180450
VERTEX2 179 8.25045289 -0.72570992 -0.17842276
VERTEX2 180 8.30115332 -0.73928268 -0.62037774
VERTEX2 181 8.74173719 -1.05661059 -0.67213764
VERTEX2 182 9.14804822 -1.41556051 -0.84614854
VERTEX2 183 9.49360286 -1.83305890 -0.90355523
VERTEX2 184 9.83087782 -2.33838548 -1.04936818
VERTEX2 185 10.11249312 -2.86389791 -1.14142236
VERTEX2 186 10.32957378 -3.41768299 -1.20740808
VERTEX2 187 10.52234763 -3.94879400 -1.22975431
VERTEX2 188 10.72199211 -4.49948692 -1.23498414
VERTEX2 189 10.91437374 -5.05381029 -1.26160012
VERTEX2 190 11.09795133 -5.65502526 -1.29060797
VERTEX2 191 11.27107143 -6.25550144 -1.31490884
VERTEX2 192 11.42515308 -6.84932928 -1.34348975
VERTEX2 193 11.54828644 -7.39446777 -1.39944617
VERTEX2 194 11.64774113 -7.96032427 -1.42644199
VERTEX2 195 11.72694815 -8.51352802 -1.45531965
VERTEX2 196 11.79296166 -9.13224872 -1.49603318
VERTEX2 197 11.83056391 -9.74671172 -1.52346884
VERTEX2 198 11.85558808 -10.35848764 -1.58161067
VERTEX2 199 11.82796488 -10.95932340 -1.64300337
VERTEX2 200 11.78061457 -11.56429519 -1.66517747
VERTEX2 201 11.70932237 -12.16574043 -1.72216094
VERTEX2 202 11.64588613 -12.66462440 -1.70210570
VERTEX2 203 11.54437476 -13.39218919 -1.75496998
VERTEX2 204 11.42280319 -13.96367082 -1.85721339
VERTEX2 205 11.25387347 -14.52094241 -1.86659194
VERTEX2 206 11.10009468 -15.06313924 -1.86460819
VERTEX2 207 10.94060404 -15.62503829 -1.84857475
VERTEX2 208 10.76747548 -16.21960992 -1.85791001
VERTEX2 209 10.60557063 -16.81555301 -1.81957912
VERTEX2 210 10.44268183 -17.40535478 -1.82866221
VERTEX2 211 10.29323468 -17.99901988 -1.82641101
VERTEX2 212 10.11629307 -18.58237282 -1.87926645
VERTEX2 213 9.92078211 -19.16948599 -1.90003954
VERTEX2 214 9.72048564 -19.74305364 -1.90383590
VERTEX2 215 9.60558802 -20.06295479 -1.93961397
VERTEX2 216 9.61846416 -20.04099221 -2.43823117
VERTEX2 217 9.64443368 -20.03824610 -2.98000111
VERTEX2 218 9.65250572 -20.04135176 -3.03587347
VERTEX2 219 9.08594520 -19.99658908 3.07901493
VERTEX2 220 8.47668704 -19.95183735 3.03931544
VERTEX2 221 7.83647222 -19.88491340 3.09015588
VERTEX2 222 7.21229216 -19.84208461 3.06489468
VERTEX2 223 6.58776327 -19.81270925 -3.12160718
VERTEX2 224 5.97540873 -19.81357569 3.13611848
VERTEX2 225 5.35795422 -19.80835140 -3.09720847
VERTEX2 226 4.74147909 -19.80247566 3.13706093
VERTEX2 227 4.09996419 -19.87195517 -2.98924850
VERTEX2 228 3.57855701 -19.85689564 2.93275676
VERTEX2 229 3.13183463 -19.81860371 3.05369882
VERTEX2 230 2.84163775 -19.80329968 3.02517094
VERTEX2 231 3.04660085 -19.82064108 3.09551222
VERTEX2 232 2.73385997 -19.68123870 2.67102087
VERTEX2 233 2.16678870 -19.42192010 2.77398763
VERTEX2 234 1.59312973 -19.19923988 2.72980372
VERTEX2 235 1.34432642 -19.09311677 2.72460693
VERTEX2 236 1.01267147 -19.09567309 3.12944429
VERTEX2 237 0.38708292 -19.11265396 -3.08360035
VERTEX2 238 -0.23059321 -19.16286631 -3.11655376
VERTEX2 239 -0.84481688 -19.16169208 3.09877515
VERTEX2 240 -1.41310835 -19.04555647 2.88036723
VERTEX2 241 -1.95161344 -18.91573255 2.96556279
VERTEX2 242 -2.52336792 -18.85180832 3.00505414
VERTEX2 243 -3.12204668 -18.76976806 3.00436823
VERTEX2 244 -3.74414748 -18.72517208 3.07570321
VERTEX2 245 -4.35707798 -18.67746647 3.02152452
VERTEX2 246 -4.95773236 -18.59252064 2.94919648
VERTEX2 247 -5.56296815 -18.51090823 3.05473342
VERTEX2 248 -6.11816525 -18.48986017 3.08603262
VERTEX2 249 -6.07095961 -18.49690374 -3.00438256
VERTEX2 250 -6.06816330 -18.49679288 2.69133860
VERTEX2 251 -6.39486907 -18.15246491 2.26768753
VERTEX2 252 -6.74839526 -17.73533887 2.27644494
VERTEX2 253 -7.11821052 -17.29262086 2.26572552
VERTEX2 254 -7.48176074 -16.83773553 2.22484385
VERTEX2 255 -7.55463718 -16.74548617 2.30872207
VERTEX2 256 -7.55775251 -16.66788278 1.83290735
VERTEX2 257 -7.60815621 -16.21403177 1.69592396
VERTEX2 258 -7.69400385 -15.62022374 1.77760896
VERTEX2 259 -7.83616173 -15.02304577 1.81816744
VERTEX2 260 -7.96853335 -14.47015957 1.80977626
VERTEX2 261 -7.96657603 -14.43731524 1.49832011
VERTEX2 262 -7.90447178 -13.79112805 1.50477132
VERTEX2 263 -7.86374380 -13.17867907 1.51851702
VERTEX2 264 -7.85015121 -12.57909537 1.61586724
VERTEX2 265 -7.88296962 -11.97948704 1.63624883
VERTEX2 266 -7.83690829 -11.40692109 1.50730789
VERTEX2 267 -7.78713919 -10.66137582 1.47894845
VERTEX2 268 -7.65733079 -10.06162015 1.37020430
VERTEX2 269 -7.53935193 -9.45043169 1.39933258
VERTEX2 270 -7.46868643 -8.83121876 1.51253518
VERTEX2 271 -7.37447379 -8.21278822 1.40133648
VERTEX2 272 -7.28948948 -7.59025507 1.46604666
VERTEX2 273 -7.29947624 -6.96394024 1.67830976
VERTEX2 274 -7.36700113 -6.35239612 1.70244848
VERTEX2 275 -7.35535975 -5.74875799 1.53124839
VERTEX2 276 -7.34916512 -5.15057889 1.64539406
VERTEX2 277 -7.39548910 -4.59570203 1.61955914
VERTEX2 278 -7.35287450 -3.96454285 1.53054680
VERTEX2 279 -7.31338215 -3.33257338 1.47509777
VERTEX2 280 -7.24565534 -2.70559997 1.47710161
VERTEX2 281 -7.15558658 -2.07651272 1.37664843
VERTEX2 282 -7.03637473 -1.45347963 1.41655274
VERTEX2 283 -6.94993022 -0.82443358 1.40880972
VERTEX2 284 -6.83863483 -0.20550405 1.43611149
VERTEX2 285 -6.77198854 0.43926411 1.45697150
VERTEX2 286 -6.70574008 1.05625383 1.51035315
VERTEX2 287 -6.70314753 1.10264933 1.40571409
VERTEX2 288 -6.70107921 1.10629108 0.79657879
VERTEX2 289 -6.69504616 1.10939418 0.20319082
VERTEX2 290 -6.25048973 1.09974492 -0.02184719
VERTEX2 291 -5.62371724 1.09060573 -0.00804721
VERTEX2 292 -5.00743766 1.06884326 -0.06278764
VERTEX2 293 -4.38224430 1.02138406 -0.08590992
VERTEX2 294 -3.76052901 0.96684312 -0.08525354
VERTEX2 295 -3.13780728 0.88403785 -0.19773840
VERTEX2 296 -2.51936957 0.73646710 -0.24310226
VERTEX2 297 -1.90303141 0.58194844 -0.25473483
VERTEX2 298 -1.28843939 0.42355076 -0.25533712
VERTEX2 299 -0.70992066 0.26283393 -0.19401758
VERTEX2 300 -0.12149044 0.17395205 -0.15163812
VERTEX2 301 0.43940366 0.07211690 -0.21085329
VERTEX2 302 0.74065453 0.00611438 -0.23177245
VERTEX2 303 0.72286849 0.00918515 -0.22765134
VERTEX2 304 1.22282823 -0.10848112 -0.21808000
VERTEX2 305 1.83519379 -0.15549637 -0.03412751
VERTEX2 306 2.46574710 -0.16803731 -0.05235804
VERTEX2 307 3.10589500 -0.21800189 -0.08923747
VERTEX2 308 3.73441578 -0.28312092 -0.14501817
VERTEX2 309 4.37068462 -0.34602799 -0.05217741
VERTEX2 310 4.99957162 -0.37840811 -0.08813396
VERTEX2 311 5.28201770 -0.40551361 0.08683705
VERTEX2 312 5.27839899 -0.40740677 1.07463383
VERTEX2 313 5.28346462 -0.18920067 1.57066448
VERTEX2 314 5.26502291 0.43871136 1.61060021
VERTEX2 315 5.23747686 1.06599270 1.60641711
VERTEX2 316 5.19934627 1.70483494 1.65751604
VERTEX2 317 5.14028456 2.33998468 1.66727566
VERTEX2 318 5.04425877 2.96995324 1.76164338
VERTEX2 319 4.96716896 3.30910022 1.83285192
VERTEX2 320 4.96880296 3.31413775 2.80093091
VERTEX2 321 4.96969213 3.31448845 -2.44300293
VERTEX2 322 4.96846128 3.31196984 -1.44767626
VERTEX2 323 4.97493432 3.30573883 -0.45539329
VERTEX2 324 4.97554870 3.30555186 0.20436197
VERTEX2 325 4.97491265 3.30550831 -0.32341679
VERTEX2 326 4.98604794 3.29713380 -0.91874676
VERTEX2 327 4.98818468 3.28708764 -1.54224277
VERTEX2 328 4.97176515 2.65474597 -1.58882064
VERTEX2 329 4.94969035 2.02654595 -1.64502244
VERTEX2 330 4.89530982 1.40975219 -1.66530221
VERTEX2 331 4.84025674 0.79435509 -1.68103815
VERTEX2 332 4.76079021 0.18201176 -1.70101140
VERTEX2 333 4.73917993 0.02867938 -1.63752693
VERTEX2 334 4.74244748 0.02910729 -0.84604705
VERTEX2 335 4.75880517 0.02423659 0.14501070
VERTEX2 336 4.77163818 0.02871548 1.08622081
VERTEX2 337 4.77792331 0.06746884 2.06607200
VERTEX2 338 4.77445821 0.06987859 3.05602546
VERTEX2 339 4.78659337 0.07741065 -2.17672595
VERTEX2 340 4.78717617 0.07364426 -1.15622348
VERTEX2 341 4.90086819 0.00517170 -0.52283499
VERTEX2 342 5.47486549 -0.29936050 -0.42091594
VERTEX2 343 6.05497770 -0.50163498 -0.28797248
VERTEX2 344 6.64502474 -0.68454411 -0.29652654
VERTEX2 345 6.88415503 -0.75438188 -0.32246857
VERTEX2 346 6.87119028 -0.75020925 -0.96575342
VERTEX2 347 6.87448684 -0.84841242 -1.52086939
VERTEX2 348 6.89736019 -1.44854396 -1.53607997
VERTEX2 349 6.90054824 -2.06810455 -1.57534623
VERTEX2 350 6.89455883 -2.85635993 -1.59403966
VERTEX2 351 6.88301246 -3.12889889 -1.62231255
VERTEX2 352 6.88166207 -3.13566175 -1.90900886
VERTEX2 353 6.87223434 -3.14746116 -2.57174835
VERTEX2 354 6.85633455 -3.15218989 3.10992219
VERTEX2 355 6.83050729 -3.15172978 2.39029745
VERTEX2 356 6.82446558 -3.14126191 1.81677768
VERTEX2 357 6.82722656 -3.12387462 1.16569208
VERTEX2 358 6.82763131 -3.12331445 0.55213774
VERTEX2 359 6.81218779 -3.13005799 -0.05998520
VERTEX2 360 6.79164893 -3.12613543 -0.23527413
VERTEX2 361 6.77892509 -3.12953483 0.68680343
VERTEX2 362 6.86270422 -2.89742359 1.22219494
VERTEX2 363 6.96398427 -2.62809161 1.21639655
VERTEX2 364 6.89196258 -2.28855032 1.83265822
VERTEX2 365 6.83422403 -1.99598396 1.33691483
VERTEX2 366 6.94584533 -1.86837533 0.78353182
VERTEX2 367 7.39307679 -1.42818041 0.78584015
VERTEX2 368 7.84798654 -0.99064337 0.73797229
VERTEX2 369 7.86790505 -0.96644935 0.48625521
VERTEX2 370 7.88971830 -0.96290375 -0.10031827
VERTEX2 371 7.89236616 -0.96429405 -0.64559651
VERTEX2 372 8.32288831 -1.31185406 -0.67353292
VERTEX2 373 8.79721314 -1.67572207 -0.67181273
VERTEX2 374 9.27775855 -2.07783749 -0.73327696
VERTEX2 375 9.63914938 -2.39794612 -0.76423548
VERTEX2 376 9.65195021 -2.40573709 -0.07179464
VERTEX2 377 9.70052895 -2.37102883 0.62116089
VERTEX2 378 10.23351712 -1.97369177 0.67399403
VERTEX2 379 10.71073159 -1.54427335 0.75738903
VERTEX2 380 11.14826265 -1.07890696 0.87524903
VERTEX2 381 11.29264244 -0.90055571 1.02359856
VERTEX2 382 11.29610147 -0.89433338 2.06884024
VERTEX2 383 11.29232896 -0.89202573 3.05604861
VERTEX2 384 11.29043103 -0.89382600 -2.26306884
VERTEX2 385 11.28603672 -0.90122660 -1.23261317
VERTEX2 386 11.38929142 -1.03484805 -1.00754832
VERTEX2 387 11.84443256 -1.45451855 -0.67563886
VERTEX2 388 12.30231895 -1.80674663 -0.66849681
VERTEX2 389 12.73601981 -2.17855632 -0.75288080
VERTEX2 390 12.74423689 -2.18568160 -0.28204941
VERTEX2 391 12.54440974 -2.17775267 0.09410743
VERTEX2 392 12.47462776 -2.17891366 1.12545164
VERTEX2 393 12.47484680 -2.12803173 2.36511000
VERTEX2 394 12.40124687 -2.09853876 -2.93517403
VERTEX2 395 12.57743661 -2.00305441 -2.60193667
VERTEX2 396 12.54157599 -2.02298679 -2.60413463
VERTEX2 397 12.48834753 -2.03571642 -2.61731828
VERTEX2 398 12.46010770 -2.05982663 -2.42316213
VERTEX2 399 12.38181026 -2.17368743 -2.12823749
VERTEX2 400 12.02997053 -2.73942456 -2.08035840
VERTEX2 401 11.68814930 -3.29266311 -2.17402096
VERTEX2 402 11.21058786 -3.76198398 -2.44259436
VERTEX2 403 10.69474857 -4.18512792 -2.47751745
VERTEX2 404 10.18687996 -4.55737598 -2.55738505
VERTEX2 405 10.16176481 -4.58049765 -2.02519025
VERTEX2 406 10.15726237 -4.54563265 -1.04971996
VERTEX2 407 10.33415857 -4.78615875 -0.92309585
VERTEX2 408 10.66175963 -5.23142709 -0.96224974
VERTEX2 409 10.79094476 -5.42903122 -1.06314082
VERTEX2 410 10.77987910 -5.38749928 -1.69384250
VERTEX2 411 11.03596972 -4.71713146 -2.57263551
VERTEX2 412 10.47865905 -4.94077346 -2.77735106
VERTEX2 413 9.83529763 -5.15975103 -2.85820703
VERTEX2 414 9.18535755 -5.36729033 -2.75567582
VERTEX2 415 8.57609851 -5.60669493 -2.74788900
VERTEX2 416 8.28542632 -5.73648569 -2.80224032
VERTEX2 417 7.98882974 -5.72099324 3.05805143
VERTEX2 418 7.54234259 -5.67836241 3.01371802
VERTEX2 419 7.53901812 -5.67914577 -2.83689801
VERTEX2 420 7.59076245 -5.65590836 -2.61978790
VERTEX2 421 7.59487701 -5.64930430 -1.64959069
VERTEX2 422 7.59299092 -5.65198863 -0.40706884
VERTEX2 423 7.59002758 -5.65172881 -0.06028188
VERTEX2 424 7.58186416 -5.65134759 -0.05909159
VERTEX2 425 7.57222675 -5.65686134 -0.04699915
VERTEX2 426 7.56855782 -5.65703135 -0.05576157
VERTEX2 427 7.59743656 -5.65838157 -0.05228397
VERTEX2 428 8.25598370 -5.67629915 -0.05745374
VERTEX2 429 8.89713704 -5.72227785 -0.09791814
VERTEX2 430 9.23555246 -5.76096027 -0.14370204
VERTEX2 431 9.20979391 -5.75799306 -0.09147160
VERTEX2 432 9.21940514 -5.76133578 -0.72275534
VERTEX2 433 9.22454107 -5.76833755 -1.39960110
VERTEX2 434 9.18924701 -6.30734080 -1.62753566
VERTEX2 435 9.15841641 -6.95015542 -1.65565027
VERTEX2 436 9.08281840 -7.58458800 -1.66390038
VERTEX2 437 9.03275261 -8.22918250 -1.65544403
VERTEX2 438 8.98159946 -8.70161850 -1.68534671
VERTEX2 439 8.97902421 -8.71138144 -2.11999522
VERTEX2 440 8.98530187 -8.70643544 -2.76134843
VERTEX2 441 9.00425247 -8.70450205 2.90155006
VERTEX2 442 9.01592058 -8.71079679 2.27392075
VERTEX2 443 9.01631722 -8.71720798 1.70864576
VERTEX2 444 9.01924670 -8.70160445 1.11866547
VERTEX2 445 9.02494335 -8.69613128 0.46219269
VERTEX2 446 9.02417223 -8.69662024 0.66448345
VERTEX2 447 9.03585348 -8.67386649 1.29755001
VERTEX2 448 9.18485452 -8.05197048 1.31520683
VERTEX2 449 9.31677830 -7.41564332 1.41671018
VERTEX2 450 9.40992228 -6.77884025 1.43051392
VERTEX2 451 9.46205771 -6.30844104 1.47315426
VERTEX2 452 9.46215048 -6.30746518 1.09512326
VERTEX2 453 9.45913907 -6.31292588 0.47296212
VERTEX2 454 9.72061830 -6.29269314 0.05090930
VERTEX2 455 10.32027247 -6.26748522 0.03033004
VERTEX2 456 10.95341723 -6.26226906 -0.03428086
VERTEX2 457 11.30822601 -6.28446016 -0.12202500
VERTEX2 458 11.30373224 -6.28223022 -0.76797114
VERTEX2 459 11.29477688 -6.24608545 -1.37623078
VERTEX2 460 11.27455774 -6.64253243 -1.63326711
VERTEX2 461 11.20660220 -7.25698956 -1.72123112
VERTEX2 462 11.11990862 -7.76436463 -1.76126075
VERTEX2 463 11.13218878 -7.74027169 -0.92106724
VERTEX2 464 11.38821115 -7.81287435 -0.24301899
VERTEX2 465 11.97276618 -7.94565481 -0.23529480
VERTEX2 466 12.51785532 -8.09354294 -0.29106932
VERTEX2 467 13.07964196 -8.27144620 -0.33471759
VERTEX2 468 13.69276466 -8.48904163 -0.37042634
VERTEX2 469 14.28232331 -8.75381411 -0.45356144
VERTEX2 470 14.73427451 -8.96868273 -0.43484423
VERTEX2 471 14.74056660 -8.97210288 -0.63486396
VERTEX2 472 14.75813124 -8.99668837 -1.26672281
VERTEX2 473 14.75952880 -9.00361584 -1.90650003
VERTEX2 474 14.75916368 -9.00406109 -2.53703186
VERTEX2 475 14.76370365 -9.00345530 -3.11070984
VERTEX2 476 14.76804978 -9.00405981 2.52137755
VERTEX2 477 14.77260235 -9.01301318 1.96194791
VERTEX2 478 14.77328801 -9.02226528 1.33499607
VERTEX2 479 14.77289763 -9.02314625 0.88077685
VERTEX2 480 14.77384498 -9.02103550 1.44289483
VERTEX2 481 14.77018906 -9.00506569 2.44506859
VERTEX2 482 14.77608518 -9.00745122 2.78123335
VERTEX2 483 14.78425223 -9.01040604 2.77585675
VERTEX2 484 14.36022655 -8.85147315 2.81138612
VERTEX2 485 13.76372139 -8.66089069 2.80880136
VERTEX2 486 13.16439679 -8.44606934 2.81807979
VERTEX2 487 12.55676304 -8.26436777 2.84612240
VERTEX2 488 11.94687061 -8.08062711 2.88202944
VERTEX2 489 11.47511801 -7.97060777 2.91283066
VERTEX2 490 11.47744897 -7.97038656 -2.88445301
VERTEX2 491 11.48365081 -7.96223985 -1.94696871
VERTEX2 492 11.46646868 -8.19306433 -1.64331897
VERTEX2 493 11.40386632 -8.79807070 -1.69796495
VERTEX2 494 11.31604140 -9.41046480 -1.75846787
VERTEX2 495 11.24743306 -10.02914379 -1.65126622
VERTEX2 496 11.20402402 -10.64920293 -1.53352490
VERTEX2 497 11.19721725 -11.26292343 -1.61957601
VERTEX2 498 11.12914555 -11.88000982 -1.72139837
VERTEX2 499 10.99951343 -12.50197243 -1.73843603
VERTEX2 500 11.05707684 -13.06493842 -1.40956827
VERTEX2 501 11.13075392 -13.63781478 -1.48142794
VERTEX2 502 11.15450999 -14.32703092 -1.56565616
VERTEX2 503 11.15022959 -14.76788095 -1.58239988
VERTEX2 504 11.15604630 -14.75145214 -0.72676634
VERTEX2 505 11.39353823 -14.77864572 -0.10533166
VERTEX2 506 11.98524482 -14.86083572 -0.25798839
VERTEX2 507 12.56588263 -15.03115309 -0.33662877
VERTEX2 508 13.13433090 -15.24315631 -0.34997424
VERTEX2 509 13.75719891 -15.47839772 -0.40614495
VERTEX2 510 14.11640698 -15.63924711 -0.42029627
VERTEX2 511 14.11427596 -15.61803436 0.45372692
VERTEX2 512 14.14066372 -15.56307925 1.64795176
VERTEX2 513 14.13645810 -15.55040417 2.60195111
VERTEX2 514 14.07303967 -15.53210473 2.82784414
VERTEX2 515 13.46283538 -15.34610325 2.82926512
VERTEX2 516 12.87833019 -15.14737025 2.84547584
VERTEX2 517 12.28519826 -14.99468151 2.87397903
VERTEX2 518 11.69242410 -14.83903956 2.89862409
VERTEX2 519 11.16988444 -14.71130795 2.88320070
VERTEX2 520 11.00089860 -14.66610525 -3.00098166
VERTEX2 521 11.01570563 -14.64994628 -1.99411531
VERTEX2 522 10.94598032 -15.06439375 -1.72820110
VERTEX2 523 10.85389471 -15.68146564 -1.73550623
VERTEX2 524 10.74956707 -16.25259281 -1.77732107
VERTEX2 525 10.64526307 -16.79194809 -1.75354522
VERTEX2 526 10.52874556 -17.35807792 -1.81218054
VERTEX2 527 10.38071700 -17.93471915 -1.84681460
VERTEX2 528 10.19829615 -18.49920583 -1.92257648
VERTEX2 529 9.98621356 -19.09855486 -1.95082130
VERTEX2 530 9.73912922 -19.69543715 -1.98083595
VERTEX2 531 9.46964387 -20.26821526 -2.06056462
VERTEX2 532 9.37231227 -20.45245787 -2.00986195
VERTEX2 533 9.37086916 -20.44536865 -1.00925768
VERTEX2 534 9.36972716 -20.44460437 -0.34170042
VERTEX2 535 9.36701902 -20.44322253 -0.34187543
VERTEX2 536 9.71564984 -20.52491404 -0.21088004
VERTEX2 537 10.31436264 -20.67096058 -0.26858387
VERTEX2 538 10.86741213 -20.83748391 -0.29537711
VERTEX2 539 11.46919586 -21.04360021 -0.35974400
VERTEX2 540 12.05129369 -21.29375691 -0.45215448
VERTEX2 541 12.63316426 -21.51837338 -0.28922954
VERTEX2 542 13.25614895 -21.65669045 -0.23296286
VERTEX2 543 13.37506878 -21.68595374 -0.26220052
VERTEX2 544 13.39188812 -21.68414493 0.37597843
VERTEX2 545 13.41240777 -21.64625484 1.44419433
VERTEX2 546 13.43026028 -21.69158909 2.27019582
VERTEX2 547 13.44281351 -21.69065215 -2.99265854
VERTEX2 548 13.45997580 -21.67951020 -2.07097346
VERTEX2 549 13.46187112 -21.66622871 -1.26539345
VERTEX2 550 13.46053325 -21.64428736 -1.74582458
VERTEX2 551 13.47026997 -21.62443687 -2.37299078
VERTEX2 552 13.49229257 -21.61342651 -3.00624725
VERTEX2 553 13.36518362 -21.56504561 2.69944294
VERTEX2 554 12.78250343 -21.28621263 2.66389345
VERTEX2 555 12.21265560 -21.01637213 2.75265753
VERTEX2 556 11.61816361 -20.80210559 2.88762812
VERTEX2 557 11.01933700 -20.63215410 2.84636405
VERTEX2 558 10.44464034 -20.47596360 2.92733495
VERTEX2 559 10.45354720 -20.47896534 2.52027746
VERTEX2 560 10.44754454 -20.47192077 2.01922776
VERTEX2 561 10.42525308 -20.45029899 2.52433237
VERTEX2 562 10.24832896 -20.45036016 -3.11542872
VERTEX2 563 9.67943754 -20.37226913 2.97586456
VERTEX2 564 9.07592563 -20.28115244 3.02457548
VERTEX2 565 8.47825127 -20.20961824 2.96622568
VERTEX2 566 8.53949372 -20.22873229 -2.53391871
VERTEX2 567 8.45247627 -20.23510873 -1.73942309
VERTEX2 568 8.40102597 -20.74371030 -1.67606509
VERTEX2 569 8.34937616 -21.31785823 -1.71542485
VERTEX2 570 8.28030338 -21.89682419 -1.71081345
VERTEX2 571 8.22709036 -22.25309645 -1.75818841
VERTEX2 572 8.19102245 -22.27937949 -2.00122664
VERTEX2 573 8.15518608 -22.36035202 -1.72473148
VERTEX2 574 8.17478392 -22.38793619 -0.78474713
VERTEX2 575 8.32718133 -22.43747427 0.14013858
VERTEX2 576 8.31988964 -22.43170690 1.16791556
VERTEX2 577 8.31207333 -22.41128585 2.14012114
VERTEX2 578 8.30183323 -22.37716822 1.77600573
VERTEX2 579 8.17370269 -21.72511285 1.79103136
VERTEX2 580 8.00847033 -21.08478694 1.86614192
VERTEX2 581 7.81041902 -20.45999469 1.90845728
VERTEX2 582 7.58616150 -19.84741641 1.95123877
VERTEX2 583 7.45511796 -19.54002101 2.03021557
VERTEX2 584 7.45165981 -19.53335605 2.87345829
VERTEX2 585 6.86878109 -19.39551002 2.99140021
VERTEX2 586 6.27444027 -19.32276758 3.08859747
VERTEX2 587 5.66953421 -19.31362520 3.11414614
VERTEX2 588 5.05385516 -19.28990264 3.11872846
VERTEX2 589 4.51556495 -19.31466730 -3.08996478
VERTEX2 590 3.96710111 -19.35824940 -3.02203155
VERTEX2 591 3.42660757 -19.43689678 -3.02422096
VERTEX2 592 2.87690220 -19.51081302 -3.02721217
VERTEX2 593 2.69790199 -19.53310607 -2.82237064
VERTEX2 594 2.74484293 -19.48208293 -1.89521743
VERTEX2 595 2.63510082 -20.09348400 -1.66340890
VERTEX2 596 2.58577615 -20.72141710 -1.68719547
VERTEX2 597 2.49685771 -21.40002179 -1.72783197
VERTEX2 598 2.39671131 -21.99691679 -1.76988579
VERTEX2 599 2.31034266 -22.37270249 -1.83595613
VERTEX2 600 2.31057666 -22.38699894 -1.02904602
VERTEX2 601 2.35031593 -22.41122468 -0.01041988
VERTEX2 602 2.38626929 -22.39653931 1.00406629
VERTEX2 603 2.35030213 -22.15999878 1.77703705
VERTEX2 604 2.28699683 -21.55282853 1.53277889
VERTEX2 605 2.29236673 -20.90197964 1.61624048
VERTEX2 606 2.24838081 -20.25694943 1.65823800
VERTEX2 607 2.25617900 -19.66890132 1.57714281
VERTEX2 608 2.24101060 -19.28509384 1.62156561
VERTEX2 609 2.23756196 -19.26547921 1.95780511
VERTEX2 610 2.23244666 -19.26366069 2.89030936
VERTEX2 611 1.63919105 -19.11702734 2.89328222
VERTEX2 612 1.16888267 -18.98554475 2.89609991
VERTEX2 613 1.20717641 -18.99704157 -2.92329932
VERTEX2 614 1.21480498 -18.99122079 -1.88530587
VERTEX2 615 1.22891548 -19.47724029 -1.58077034
VERTEX2 616 1.23743366 -20.09963992 -1.63194806
VERTEX2 617 1.10112865 -20.70273451 -1.84885507
VERTEX2 618 0.93352986 -21.30867693 -1.83855308
VERTEX2 619 0.77419112 -21.88009272 -1.83974797
VERTEX2 620 0.59236119 -22.45594298 -1.93563632
VERTEX2 621 0.72025519 -22.12256185 -1.98689975
VERTEX2 622 0.84294405 -21.85821791 -2.06163766
VERTEX2 623 0.84259104 -21.85870011 -2.59816595
VERTEX2 624 0.81403409 -21.85850207 3.04304966
VERTEX2 625 0.77326315 -21.84218960 2.38515843
VERTEX2 626 0.74557885 -21.81062145 1.76773304
VERTEX2 627 0.81711235 -21.43863162 1.35734072
VERTEX2 628 0.99416247 -20.81150587 1.25655270
VERTEX2 629 1.16414112 -20.18375088 1.32760935
VERTEX2 630 1.28805978 -19.57602389 1.41259438
VERTEX2 631 1.35879430 -19.04649381 1.43264010
VERTEX2 632 1.36141712 -19.03069973 2.10837206
VERTEX2 633 1.26368362 -19.02439854 -3.08878989
VERTEX2 634 0.59731460 -19.06339136 -3.06143115
VERTEX2 635 -0.05504517 -19.07624259 3.08671014
VERTEX2 636 -0.69634350 -19.04981976 3.06912731
VERTEX2 637 -1.31929830 -18.97856387 2.96916392
VERTEX2 638 -1.70824019 -18.90046568 2.93947644
VERTEX2 639 -2.31577853 -18.79995618 3.01966343
VERTEX2 640 -2.92751871 -18.69318855 2.95161532
VERTEX2 641 -3.52467146 -18.58462323 2.94314308
VERTEX2 642 -4.09755278 -18.44975338 2.89765261
VERTEX2 643 -4.57852114 -18.31467598 2.83019492
VERTEX2 644 -4.58177731 -18.31541538 -2.69620886
VERTEX2 645 -4.61718178 -18.45517637 -1.91926432
VERTEX2 646 -4.75311144 -19.06411631 -1.62402976
VERTEX2 647 -4.70867133 -19.70575464 -1.33531371
VERTEX2 648 -4.48504386 -20.32980293 -1.16914019
VERTEX2 649 -4.31082025 -20.92757424 -1.50688298
VERTEX2 650 -4.41068722 -21.55547643 -1.76437080
VERTEX2 651 -4.42794863 -21.70034040 -0.96523870
VERTEX2 652 -4.36592167 -21.72817637 0.06013715
VERTEX2 653 -4.32099416 -21.68773122 1.09097452
VERTEX2 654 -4.33039633 -21.39217197 1.60434287
VERTEX2 655 -4.34165510 -20.83989856 1.59941819
VERTEX2 656 -4.34182394 -20.23893222 1.58686623
VERTEX2 657 -4.44961943 -19.62854934 1.86362394
VERTEX2 658 -4.64083483 -19.01294307 1.85646857
VERTEX2 659 -4.75634477 -18.52072061 1.78532489
VERTEX2 660 -4.75927744 -18.50621725 2.38547070
VERTEX2 661 -4.93645585 -18.48703535 3.03894597
VERTEX2 662 -5.52872220 -18.42896375 3.10856357
VERTEX2 663 -6.11470525 -18.44452254 -3.07358067
VERTEX2 664 -6.12264260 -18.44249660 -2.55035753
VERTEX2 665 -6.13850031 -18.54429104 -1.71671226
VERTEX2 666 -6.20904690 -19.15252576 -1.67955665
VERTEX2 667 -6.26502954 -19.71858078 -1.67491957
VERTEX2 668 -6.32735207 -20.31210263 -1.64912073
VERTEX2 669 -6.37456254 -20.93733952 -1.67423320
VERTEX2 670 -6.47272686 -21.55490083 -1.73369045
VERTEX2 671 -6.51963872 -21.84729123 -1.67868757
VERTEX2 672 -6.41907513 -21.26616543 -1.76778004
VERTEX2 673 -6.35344275 -20.99922902 -1.89831236
VERTEX2 674 -6.34064419 -20.98566242 -2.54640788
VERTEX2 675 -6.31746341 -20.98070522 3.12820215
VERTEX2 676 -6.31165731 -20.98408803 2.50490953
VERTEX2 677 -6.30722351 -20.99018439 1.88911371
VERTEX2 678 -6.27967765 -20.76785624 1.44320754
VERTEX2 679 -6.21694756 -20.18854653 1.50580270
VERTEX2 680 -6.24557188 -19.74015447 1.85070928
VERTEX2 681 -6.39927951 -19.14864013 1.82319560
VERTEX2 682 -6.57315793 -18.54261781 1.87086543
VERTEX2 683 -6.66628777 -18.25999243 2.03001489
VERTEX2 684 -6.62423359 -18.30249795 3.11310870
VERTEX2 685 -7.03091263 -18.46703428 -2.72489312
VERTEX2 686 -7.48209882 -18.60834748 -2.86817529
VERTEX2 687 -8.08110766 -18.76551736 -2.90236715
VERTEX2 688 -8.68433460 -18.89204829 -2.91332770
VERTEX2 689 -9.24332539 -19.03593290 -2.88578398
VERTEX2 690 -9.77370885 -19.20923359 -2.81174627
VERTEX2 691 -10.16369963 -19.34340832 -2.83990057
VERTEX2 692 -10.14546815 -19.33509134 -2.30599246
VERTEX2 693 -10.12191916 -19.40707454 -1.26624566
VERTEX2 694 -10.09719697 -19.47889905 -0.43131968
VERTEX2 695 -10.07543476 -19.47252662 0.36785282
VERTEX2 696 -10.06806795 -19.46761671 1.39228469
VERTEX2 697 -10.08059244 -19.50965990 1.13889787
VERTEX2 698 -9.74982615 -19.29774787 0.48344821
VERTEX2 699 -9.18553638 -18.98062513 0.59720983
VERTEX2 700 -8.67227275 -18.61527442 0.65051708
VERTEX2 701 -8.23899701 -18.24980138 0.70948273
VERTEX2 702 -7.75931228 -17.93142362 0.59412100
VERTEX2 703 -7.24650240 -17.59173352 0.62822505
VERTEX2 704 -6.75306368 -17.20678868 0.64628106
VERTEX2 705 -6.23702857 -16.77810760 0.71689578
VERTEX2 706 -5.80111837 -16.45276593 0.44846907
VERTEX2 707 -5.77876842 -16.45146734 -0.07156514
VERTEX2 708 -5.76821096 -16.45751175 -0.71058517
VERTEX2 709 -5.80571661 -16.41742630 -1.04292983
VERTEX2 710 -5.80740757 -16.41294249 -1.60449002
VERTEX2 711 -5.79571869 -16.42343155 -2.20170903
VERTEX2 712 -5.78342763 -16.41397982 -2.76266701
VERTEX2 713 -6.26178654 -16.46631693 -3.04832483
VERTEX2 714 -6.81924521 -16.44241437 3.03705100
VERTEX2 715 -7.44834675 -16.40650934 3.14037277
VERTEX2 716 -8.08284951 -16.38528923 3.00246114
VERTEX2 717 -8.70443262 -16.31822958 3.08732688
VERTEX2 718 -9.46690465 -16.20067290 2.91207768
VERTEX2 719 -10.08408219 -16.08628233 2.98665259
VERTEX2 720 -10.69712338 -15.97485021 2.92755234
VERTEX2 721 -11.31511177 -15.86004639 2.99587703
VERTEX2 722 -11.33376582 -15.85741921 3.06266695
VERTEX2 723 -11.35566542 -15.88009484 -2.13020944
VERTEX2 724 -11.35567494 -15.92449038 -1.06097289
VERTEX2 725 -11.32582428 -15.94445295 -0.42681797
VERTEX2 726 -10.99870649 -15.93985722 0.02723936
VERTEX2 727 -10.35981221 -15.90065623 0.05792731
VERTEX2 728 -9.71806404 -15.87578145 0.05927202
VERTEX2 729 -9.07904355 -15.81458206 0.11687680
VERTEX2 730 -8.45480694 -15.72155458 0.15435606
VERTEX2 731 -7.80555302 -15.62044686 0.16655239
VERTEX2 732 -7.66256857 -15.59144830 0.61311586
VERTEX2 733 -7.65953477 -15.59637549 1.60963988
VERTEX2 734 -7.71890373 -15.04319203 1.68774091
VERTEX2 735 -7.78055248 -14.44366570 1.65570570
VERTEX2 736 -7.78113608 -14.43526231 2.25524052
VERTEX2 737 -7.77241592 -14.43638253 3.05598650
VERTEX2 738 -8.35191644 -14.39729197 3.07504947
VERTEX2 739 -8.95517163 -14.30385311 3.01740547
VERTEX2 740 -9.45844552 -14.26488102 3.08063893
VERTEX2 741 -9.43899897 -14.26462666 2.71173684
VERTEX2 742 -9.43736650 -14.26577769 2.05887742
VERTEX2 743 -9.43825962 -14.26188010 1.44199974
VERTEX2 744 -9.43029854 -14.24354712 0.90257673
VERTEX2 745 -9.41259530 -14.23424468 0.30902488
VERTEX2 746 -8.86986623 -14.25158222 -0.16587618
VERTEX2 747 -8.22370082 -14.36514389 -0.20112330
VERTEX2 748 -7.64551582 -14.50693378 -0.26942701
VERTEX2 749 -7.56117076 -14.52776866 0.15983639
VERTEX2 750 -7.55295083 -14.51252670 1.08703582
VERTEX2 751 -7.58774748 -14.24337567 1.72739051
VERTEX2 752 -7.64753611 -13.62133832 1.62407673
VERTEX2 753 -7.68732466 -12.98368049 1.68728826
VERTEX2 754 -7.69721420 -12.34415946 1.52517179
VERTEX2 755 -7.68124640 -11.71473187 1.61174863
VERTEX2 756 -7.64697771 -11.08053922 1.43558879
VERTEX2 757 -7.57578748 -10.43735931 1.54755353
VERTEX2 758 -7.59935536 -9.85858570 1.68975969
VERTEX2 759 -7.59195391 -9.31222972 1.56943569
VERTEX2 760 -7.63314456 -8.70849557 1.68084765
VERTEX2 761 -7.63548730 -8.67794921 1.86126473
VERTEX2 762 -7.71099582 -8.64460389 2.69652851
VERTEX2 763 -8.29136343 -8.54322363 2.98975800
VERTEX2 764 -8.71741451 -8.47279685 2.96248785
VERTEX2 765 -8.71191647 -8.47265568 -2.68076864
VERTEX2 766 -8.71339718 -8.47756348 -1.67969932
VERTEX2 767 -8.70981965 -8.48643791 -0.74814517
VERTEX2 768 -8.68809198 -8.48759986 -0.02523073
VERTEX2 769 -8.05786462 -8.39372502 0.13190253
VERTEX2 770 -7.41061787 -8.32918791 0.06495894
VERTEX2 771 -7.31933055 -8.32073978 0.62678064
VERTEX2 772 -7.31657911 -8.31169690 1.49407110
VERTEX2 773 -7.29824072 -7.74366887 1.57955732
VERTEX2 774 -7.31498529 -7.20793390 1.60139524
VERTEX2 775 -7.31122893 -7.22364003 2.44543444
VERTEX2 776 -7.51181112 -7.20086739 3.06215464
VERTEX2 777 -8.11695775 -7.16418219 3.12087201
VERTEX2 778 -8.72180872 -7.15803517 3.09960046
VERTEX2 779 -9.33697123 -7.14042686 3.11771500
VERTEX2 780 -9.54426256 -7.12370336 2.98749301
VERTEX2 781 -9.53919566 -7.12548638 2.41408236
VERTEX2 782 -9.66604980 -6.85765526 1.98451943
VERTEX2 783 -9.90196845 -6.28910676 1.98391622
VERTEX2 784 -10.00059449 -6.06635427 1.96258711
VERTEX2 785 -10.00142336 -6.04568593 1.41060118
VERTEX2 786 -9.99483198 -6.02367530 0.82225489
VERTEX2 787 -9.97957368 -6.00792789 0.33156753
VERTEX2 788 -9.95186513 -6.00970210 -0.29758811
VERTEX2 789 -9.93890058 -6.01979634 -0.84958237
VERTEX2 790 -9.62971047 -6.41537373 -0.91664598
VERTEX2 791 -9.22586221 -6.89235668 -0.81798063
VERTEX2 792 -8.98845416 -7.10226784 -0.11346447
VERTEX2 793 -8.37107680 -7.15273017 -0.06873638
VERTEX2 794 -7.72935378 -7.17974891 0.00244491
VERTEX2 795 -7.75189545 -7.19641263 0.43178512
VERTEX2 796 -7.76096233 -7.20012200 1.09049669
VERTEX2 797 -7.68741009 -6.89127989 1.35030025
VERTEX2 798 -7.55355464 -6.26523145 1.40019128
VERTEX2 799 -7.46753967 -5.62115796 1.46565183
VERTEX2 800 -7.41429886 -4.97499250 1.53827912
VERTEX2 801 -7.42579439 -4.34783766 1.62401722
VERTEX2 802 -7.47977673 -3.72671115 1.68151364
VERTEX2 803 -7.46285390 -3.10317290 1.51655661
VERTEX2 804 -7.44283926 -2.48093292 1.57220145
VERTEX2 805 -7.47558175 -1.85182852 1.64871252
VERTEX2 806 -7.53515068 -1.25464150 1.69032818
VERTEX2 807 -7.56225216 -1.07097050 1.97834279
VERTEX2 808 -7.56695272 -1.07087613 2.92641773
VERTEX2 809 -8.15844995 -1.04141484 3.07102217
VERTEX2 810 -8.77546778 -0.91757548 2.93079835
VERTEX2 811 -9.37408951 -0.80540923 2.92746078
VERTEX2 812 -9.37618226 -0.80500274 -2.62414820
VERTEX2 813 -9.38627825 -0.82744064 -1.64911676
VERTEX2 814 -9.37955315 -0.83278125 -0.65717444
VERTEX2 815 -9.35499577 -0.84110677 0.26183241
VERTEX2 816 -9.34654823 -0.83650609 0.94279386
VERTEX2 817 -9.33556598 -0.82962736 0.27384384
VERTEX2 818 -9.11325149 -0.86408339 -0.21518688
VERTEX2 819 -8.52241352 -0.99337075 -0.20112216
VERTEX2 820 -7.92916111 -1.12678935 -0.24241064
VERTEX2 821 -7.38338752 -1.25918111 -0.22666554
VERTEX2 822 -7.33318346 -1.26699403 0.53304655
VERTEX2 823 -7.33237782 -1.25821570 1.45177299
VERTEX2 824 -7.26575108 -0.64229259 1.37246624
VERTEX2 825 -7.11951950 -0.02462716 1.34284422
VERTEX2 826 -7.05948686 0.60121566 1.50586501
VERTEX2 827 -6.99278011 1.21882741 1.45729587
VERTEX2 828 -6.93567909 1.84760521 1.49288285
VERTEX2 829 -6.87253108 2.44626831 1.45287963
VERTEX2 830 -6.79534345 3.05021933 1.44432158
VERTEX2 831 -6.69910378 3.62248889 1.39727454
VERTEX2 832 -6.60551437 4.18774389 1.39377802
VERTEX2 833 -6.55972395 4.44560565 1.53152534
VERTEX2 834 -6.56210512 4.45421855 2.58648993
VERTEX2 835 -6.57333147 4.45556228 -2.91880170
VERTEX2 836 -6.58310832 4.44737221 -1.97546718
VERTEX2 837 -6.58013353 4.43075133 -0.93880707
VERTEX2 838 -6.56806436 4.42316222 -0.07636453
VERTEX2 839 -6.57042324 4.42430363 -0.29453759
VERTEX2 840 -6.56187115 4.41755323 -0.85703285
VERTEX2 841 -6.55532371 4.40427670 -1.47395387
VERTEX2 842 -6.58231997 4.15922293 -1.70468565
VERTEX2 843 -6.66258803 3.59629010 -1.70714960
VERTEX2 844 -6.74007402 2.97141513 -1.71510003
VERTEX2 845 -6.83604988 2.34702761 -1.72974683
VERTEX2 846 -6.92409511 1.71842530 -1.72793825
VERTEX2 847 -7.03596299 1.09760790 -1.75459553
VERTEX2 848 -7.06694337 0.90459790 -1.27412822
VERTEX2 849 -7.06583523 0.90419572 -0.35190716
VERTEX2 850 -6.70946024 0.89973472 0.00150057
VERTEX2 851 -6.08116234 0.87206572 -0.09099968
VERTEX2 852 -5.45825005 0.80860528 -0.07665434
VERTEX2 853 -4.86522363 0.76395979 -0.10460201
VERTEX2 854 -4.27925199 0.69404190 -0.10257904
VERTEX2 855 -3.68599485 0.64100600 -0.10431647
VERTEX2 856 -3.03186488 0.55303315 -0.14512688
VERTEX2 857 -2.37638844 0.46111465 -0.15448074
VERTEX2 858 -1.72712387 0.33668569 -0.20876265
VERTEX2 859 -1.20558153 0.23092628 -0.21539637
VERTEX2 860 -1.18025636 0.24131379 0.63643068
VERTEX2 861 -1.16568343 0.34376230 1.55237247
VERTEX2 862 -1.12772211 0.99641462 1.49301871
VERTEX2 863 -1.07106803 1.63376139 1.46079806
VERTEX2 864 -0.98524997 2.23729131 1.45893998
VERTEX2 865 -0.94484260 2.84173935 1.51686385
VERTEX2 866 -0.90119712 3.42073140 1.51601375
VERTEX2 867 -0.89425284 3.57761357 1.69761746
VERTEX2 868 -0.89691821 3.58084143 2.72281605
VERTEX2 869 -0.88424973 3.58109279 -2.58068055
VERTEX2 870 -0.86622729 3.59090167 -1.57980746
VERTEX2 871 -0.84613431 3.57746623 -0.60478625
VERTEX2 872 -0.82928147 3.56548079 0.08014030
VERTEX2 873 -0.80433799 3.55735859 -0.49270349
VERTEX2 874 -0.78429519 3.53948922 -1.05258155
VERTEX2 875 -0.77813467 3.52524490 -1.63938036
VERTEX2 876 -0.89513607 2.96753312 -1.79707507
VERTEX2 877 -1.04466455 2.42360980 -1.88183357
VERTEX2 878 -1.09438600 2.22255273 -1.49905296
VERTEX2 879 -0.99106256 1.59113930 -1.44829689
VERTEX2 880 -0.95386002 1.14863686 -1.56128184
VERTEX2 881 -0.95453692 1.20455141 -1.55618003
VERTEX2 882 -1.00794234 0.57053758 -1.80306418
VERTEX2 883 -1.22006763 -0.02136706 -1.99408792
VERTEX2 884 -1.37590495 -0.35078222 -2.06127621
VERTEX2 885 -1.37622878 -0.34408989 -1.48029894
VERTEX2 886 -1.36515271 -0.35437098 -0.46346953
VERTEX2 887 -1.34327621 -0.36282411 0.54670186
VERTEX2 888 -1.33137922 -0.33780282 1.52961988
VERTEX2 889 -1.33552861 -0.32567032 2.42667540
VERTEX2 890 -1.65712950 -0.16955898 2.70029337
VERTEX2 891 -2.20010938 0.10129750 2.62979228
VERTEX2 892 -2.73922454 0.42536310 2.59406983
VERTEX2 893 -3.29186175 0.72250280 2.82991451
VERTEX2 894 -3.90431118 0.83531726 3.05055233
VERTEX2 895 -4.50311013 0.78840040 -2.93483922
VERTEX2 896 -4.52815134 0.78252000 -2.45648756
VERTEX2 897 -4.81413297 0.36318113 -2.18427979
VERTEX2 898 -5.16479881 -0.13882052 -2.16870711
VERTEX2 899 -5.44983490 -0.54191433 -2.23631192
VERTEX2 900 -5.86336563 -1.07943900 -2.23850146
VERTEX2 901 -6.23509512 -1.51867738 -2.30257180
VERTEX2 902 -6.65175076 -2.00503459 -2.27697021
VERTEX2 903 -6.96724705 -2.37947460 -2.32129254
VERTEX2 904 -6.96744887 -2.37980402 -1.61727723
VERTEX2 905 -6.95566704 -2.86144212 -1.56149718
VERTEX2 906 -6.92424887 -3.42519692 -1.49567927
VERTEX2 907 -6.87081804 -3.99145333 -1.50371772
VERTEX2 908 -6.82649776 -4.60778692 -1.47884436
VERTEX2 909 -6.76800250 -5.21416549 -1.49665345
VERTEX2 910 -6.79513955 -5.33963189 -1.86633121
VERTEX2 911 -6.95551512 -5.90685479 -1.80530657
VERTEX2 912 -7.07625780 -6.46548525 -1.79256848
VERTEX2 913 -7.18802496 -7.00215921 -1.78451144
VERTEX2 914 -7.31368223 -7.58507129 -1.80803389
VERTEX2 915 -7.43652778 -8.08902265 -1.84460225
VERTEX2 916 -7.37352389 -8.32860997 -1.29673842
VERTEX2 917 -7.23562782 -8.97297306 -1.55093117
VERTEX2 918 -7.25561800 -9.48631692 -1.62629826
VERTEX2 919 -7.28886720 -10.10549421 -1.66945324
VERTEX2 920 -7.35269702 -10.71507258 -1.68688014
VERTEX2 921 -7.42520486 -11.32590865 -1.74004587
VERTEX2 922 -7.52661043 -11.92531094 -1.76708277
VERTEX2 923 -7.64408658 -12.48224582 -1.83054112
VERTEX2 924 -7.77330864 -12.96692606 -1.81401975
VERTEX2 925 -7.77594140 -12.95416268 -1.30955354
VERTEX2 926 -7.61761918 -13.50865863 -1.29347804
VERTEX2 927 -7.45250490 -14.09173176 -1.31692494
VERTEX2 928 -7.29640347 -14.69014442 -1.32600555
VERTEX2 929 -7.14292264 -15.30085915 -1.32649713
VERTEX2 930 -6.99533882 -15.92976414 -1.40906264
VERTEX2 931 -6.90867093 -16.55379645 -1.48928523
VERTEX2 932 -6.86197901 -17.17837995 -1.54872450
VERTEX2 933 -6.85785909 -17.78820517 -1.61332565
VERTEX2 934 -6.87195606 -18.26885574 -1.62314353
VERTEX2 935 -6.86903357 -18.28235059 -0.94088843
VERTEX2 936 -6.86717851 -18.28299993 0.00433191
VERTEX2 937 -6.32498869 -18.25734874 0.06722752
VERTEX2 938 -5.72877415 -18.27286833 -0.10615608
VERTEX2 939 -5.10465745 -18.33215079 -0.07842349
VERTEX2 940 -4.49146535 -18.40654859 -0.16408647
VERTEX2 941 -3.88793587 -18.52090867 -0.21766854
VERTEX2 942 -3.37072955 -18.63553089 -0.21312399
VERTEX2 943 -2.76301037 -18.76808275 -0.12476037
VERTEX2 944 -2.15088761 -18.85002001 -0.18140395
VERTEX2 945 -1.53266382 -18.97717133 -0.23655785
VERTEX2 946 -1.36032415 -19.02093089 -0.17217706
VERTEX2 947 -0.95167596 -18.95754301 0.15611668
VERTEX2 948 -0.37931401 -18.86771296 0.13697906
VERTEX2 949 0.22287916 -18.83265802 -0.01870206
VERTEX2 950 0.85175323 -18.86817937 -0.25827393
VERTEX2 951 1.45162251 -19.03984163 -0.33047889
VERTEX2 952 2.05117369 -19.21452072 -0.07979862
VERTEX2 953 2.67953384 -19.24564651 0.00038305
VERTEX2 954 3.30412652 -19.23829147 -0.00680305
VERTEX2 955 3.89373709 -19.28395854 -0.16786858
VERTEX2 956 4.44436254 -19.36254238 -0.17032457
VERTEX2 957 4.97552531 -19.45888630 -0.25820929
VERTEX2 958 5.44140336 -19.57116073 -0.28511379
VERTEX2 959 5.87147790 -19.68929960 -0.35240718
VERTEX2 960 6.46080505 -19.85277641 -0.27271787
VERTEX2 961 7.04251812 -20.02767293 -0.29989411
VERTEX2 962 7.65966308 -20.15689131 -0.23441807
VERTEX2 963 8.27660145 -20.23839211 -0.04790025
VERTEX2 964 8.89786005 -20.28066327 -0.11188362
VERTEX2 965 9.51508890 -20.36048510 -0.11883316
VERTEX2 966 9.96122837 -20.41973179 -0.17776977
VERTEX2 967 9.99591444 -20.41270977 0.67576094
VERTEX2 968 10.00404055 -20.40503284 1.57264067
VERTEX2 969 10.00661285 -20.43500863 1.63214242
VERTEX2 970 10.00931619 -20.46517691 1.63043970
VERTEX2 971 9.98880306 -20.13416011 1.63060404
VERTEX2 972 9.94993058 -19.54988461 1.63625317
VERTEX2 973 10.02880066 -18.96951095 1.35129508
VERTEX2 974 10.16722155 -18.36924378 1.38312520
VERTEX2 975 10.27778659 -17.76502928 1.38773789
VERTEX2 976 10.38159666 -17.15820054 1.40064459
VERTEX2 977 10.51560349 -16.54526739 1.37414664
VERTEX2 978 10.63508231 -15.93868669 1.41989435
VERTEX2 979 10.74854994 -15.33602133 1.40740920
VERTEX2 980 10.84521490 -14.73677370 1.45411014
VERTEX2 981 10.93296598 -14.14824875 1.46081430
VERTEX2 982 10.98857850 -13.62686707 1.50556823
VERTEX2 983 11.03746670 -13.03229659 1.50212868
VERTEX2 984 11.06414069 -12.44047442 1.55944932
VERTEX2 985 11.07461372 -11.84791941 1.57970269
VERTEX2 986 11.05948982 -11.23210632 1.61602676
VERTEX2 987 11.04664121 -10.61779780 1.57933874
VERTEX2 988 11.04908863 -10.00367988 1.59306669
VERTEX2 989 11.03434486 -9.39438312 1.60074514
VERTEX2 990 11.02736593 -8.78836692 1.59002239
VERTEX2 991 11.01199486 -8.17898627 1.61493400
VERTEX2 992 11.00672229 -7.59749035 1.58245911
VERTEX2 993 10.99286015 -6.98671513 1.61535096
VERTEX2 994 10.97633816 -6.40679523 1.60556735
VERTEX2 995 10.94486562 -5.83410822 1.65297407
VERTEX2 996 10.88638383 -5.24602519 1.68020363
VERTEX2 997 10.84207715 -4.61957880 1.61586769
VERTEX2 998 10.82283696 -4.23550895 1.63778293
VERTEX2 999 10.85823625 -4.26409442 2.35578160
VERTEX2 1000 10.40214612 -3.91107110 2.50442484
VERTEX2 1001 9.96763765 -3.51664632 2.18425725
VERTEX2 1002 9.60533344 -3.05321124 2.27742630
VERTEX2 1003 9.25976295 -2.56330494 2.09837356
VERTEX2 1004 8.91999780 -2.02822226 2.15687226
VERTEX2 1005 8.56559889 -1.53580601 2.21958514
VERTEX2 1006 8.16915302 -1.06000080 2.29727306
VERTEX2 1007 7.75606118 -0.63653191 2.38927649
VERTEX2 1008 7.52297906 -0.42581462 2.54879478
VERTEX2 1009 7.42271508 -0.41105234 3.01968859
VERTEX2 1010 6.85729033 -0.35625560 3.07159891
VERTEX2 1011 6.24114759 -0.31789332 3.02799183
VERTEX2 1012 5.63136275 -0.25522876 3.06940841
VERTEX2 1013 4.99493232 -0.25804390 -3.09937749
VERTEX2 1014 4.38186701 -0.20985542 3.00787059
VERTEX2 1015 3.75688498 -0.16989869 3.09180908
VERTEX2 1016 2.98737082 -0.13114056 3.09808161
VERTEX2 1017 2.40217011 -0.11643720 3.04022784
VERTEX2 1018 1.84074104 -0.05236133 3.04710308
VERTEX2 1019 1.24236206 -0.02550966 3.10619945
VERTEX2 1020 0.62372079 0.01325773 3.09184870
VERTEX2 1021 -0.00079499 0.04539192 3.05083713
VERTEX2 1022 -0.05800651 0.05038913 3.04322727
VERTEX2 1023 -0.05458326 0.05030478 3.12937477
VERTEX2 1024 -0.67953503 0.06150324 -3.12744462
VERTEX2 1025 -1.30682775 0.03452922 -3.10983899
VERTEX2 1026 -1.46418652 0.03002954 -3.10248563
VERTEX2 1027 -1.44443393 0.03958821 -2.18530589
VERTEX2 1028 -1.45821471 -0.12528907 -1.62142391
VERTEX2 1029 -1.48909830 -0.69004248 -1.64281323
VERTEX2 1030 -1.55464741 -1.30569165 -1.72365428
VERTEX2 1031 -1.66935036 -1.94514079 -1.77820381
VERTEX2 1032 -1.80208497 -2.58451546 -1.77452186
VERTEX2 1033 -1.94795258 -3.22255898 -1.82005723
VERTEX2 1034 -1.99170433 -3.38616713 -2.03344913
VERTEX2 1035 -1.98744631 -3.38268473 -2.65204707
VERTEX2 1036 -1.94723226 -3.40144824 3.06097414
VERTEX2 1037 -2.27655320 -3.27449590 2.82297690
VERTEX2 1038 -2.88354516 -3.15097064 2.91474314
VERTEX2 1039 -3.52264551 -2.97888713 2.88312939
VERTEX2 1040 -3.49645598 -2.97959496 -2.77023173
VERTEX2 1041 -3.47191424 -2.98291398 -1.75455535
VERTEX2 1042 -3.47385093 -3.01540848 -0.76787458
VERTEX2 1043 -3.44310890 -3.04404901 0.20051111
VERTEX2 1044 -3.45827581 -3.06169325 1.19306855
VERTEX2 1045 -3.46130501 -3.06823011 1.07880024
VERTEX2 1046 -3.47225677 -3.08271692 0.69289215
VERTEX2 1047 -3.49350700 -3.09176206 0.13665021
VERTEX2 1048 -3.13531360 -3.16336853 -0.17668093
VERTEX2 1049 -2.49443531 -3.26691146 -0.15972882
VERTEX2 1050 -1.85154197 -3.34299663 -0.08428367
VERTEX2 1051 -1.19606302 -3.42258527 -0.16339718
VERTEX2 1052 -0.57229737 -3.50941131 -0.11043175
VERTEX2 1053 -0.15485868 -3.56780811 -0.16305972
VERTEX2 1054 -0.12761536 -3.57094842 0.59910932
VERTEX2 1055 -0.11877490 -3.53131623 1.65250011
VERTEX2 1056 -0.11279316 -3.54011691 2.65611782
VERTEX2 1057 -0.08668840 -3.54333444 -2.63588361
VERTEX2 1058 -0.08938847 -3.54643121 -1.71293061
VERTEX2 1059 -0.19429672 -4.13052645 -1.79348366
VERTEX2 1060 -0.33848006 -4.76141542 -1.78831701
VERTEX2 1061 -0.45002542 -5.20318461 -1.91096008
VERTEX2 1062 -0.45442690 -5.20979308 -2.47555535
VERTEX2 1063 -0.43471126 -5.19882932 -3.07366686
VERTEX2 1064 -0.71596566 -5.14232659 2.94402978
VERTEX2 1065 -1.30430692 -5.06760559 3.06580977
VERTEX2 1066 -1.86832616 -5.00777939 3.00953411
VERTEX2 1067 -1.85088699 -5.00709290 -2.84069615
VERTEX2 1068 -1.83675873 -4.99743214 -2.16750707
VERTEX2 1069 -1.83605942 -4.99561462 -1.99693930
VERTEX2 1070 -1.83424066 -4.99249903 -2.53556392
VERTEX2 1071 -2.30717579 -5.24205045 -2.66261205
VERTEX2 1072 -2.75794470 -5.46847711 -2.73112993
VERTEX2 1073 -2.72584894 -5.46801775 3.04120194
VERTEX2 1074 -3.25538469 -5.39043405 3.00701926
VERTEX2 1075 -3.83255895 -5.30808202 3.02373963
VERTEX2 1076 -3.84765877 -5.30687589 -2.85515869
VERTEX2 1077 -3.85966244 -5.32901526 -2.04913314
VERTEX2 1078 -4.10340617 -5.93457748 -2.00393556
VERTEX2 1079 -4.34099149 -6.49712712 -1.94177770
VERTEX2 1080 -4.34512404 -6.50785252 -2.42928036
VERTEX2 1081 -4.77270220 -6.79399866 -2.55250171
VERTEX2 1082 -4.94100494 -6.90905964 -2.27184587
VERTEX2 1083 -4.93710411 -6.94130719 -1.24101804
VERTEX2 1084 -4.86357346 -6.97998051 -0.27539348
VERTEX2 1085 -4.87342726 -6.98244605 0.70769870
VERTEX2 1086 -4.51316913 -6.50265636 0.93818793
VERTEX2 1087 -4.13336665 -6.00521967 0.92611576
VERTEX2 1088 -3.77199170 -5.50349049 0.90936529
VERTEX2 1089 -3.71614681 -5.43283294 0.81396001
VERTEX2 1090 -3.70659186 -5.42428108 0.19902721
VERTEX2 1091 -3.16991612 -5.39792400 0.02222922
VERTEX2 1092 -2.55207412 -5.38920228 0.00714695
VERTEX2 1093 -1.98441078 -5.39817567 -0.05786081
VERTEX2 1094 -1.97163760 -5.41059656 -0.46201923
VERTEX2 1095 -1.94135012 -5.43802486 -1.05184705
VERTEX2 1096 -1.94131273 -5.43832082 -1.62317280
VERTEX2 1097 -2.02812242 -5.76242242 -1.83868208
VERTEX2 1098 -2.21185409 -6.35700660 -1.89558245
VERTEX2 1099 -2.42924129 -6.92326809 -1.99179083
VERTEX2 1100 -2.43845585 -6.94585517 -1.62891347
VERTEX2 1101 -2.38334914 -7.20948787 -1.36316110
VERTEX2 1102 -2.38459818 -7.22254322 -1.75702130
VERTEX2 1103 -2.52198371 -7.83615089 -1.79084944
VERTEX2 1104 -2.66899900 -8.47010694 -1.81824354
VERTEX2 1105 -2.83297561 -9.09013401 -1.83581555
VERTEX2 1106 -2.96549279 -9.56560139 -1.86069915
VERTEX2 1107 -2.96504770 -9.57164521 -1.60405210
VERTEX2 1108 -2.94267679 -10.19655358 -1.59585215
VERTEX2 1109 -3.00373990 -10.82954681 -1.69936209
VERTEX2 1110 -3.08584990 -11.42621408 -1.74848416
VERTEX2 1111 -3.26037469 -11.94407150 -1.84930229
VERTEX2 1112 -3.30177881 -12.51253224 -1.50216860
VERTEX2 1113 -3.27513755 -13.13750984 -1.59700342
VERTEX2 1114 -3.29040334 -13.73989208 -1.57949092
VERTEX2 1115 -3.29261338 -14.30893750 -1.59518501
VERTEX2 1116 -3.28522715 -14.94249276 -1.55865689
VERTEX2 1117 -3.28346600 -15.02535585 -1.68610776
VERTEX2 1118 -3.27169476 -15.00381602 -2.29262043
VERTEX2 1119 -3.24388957 -14.98484427 -2.72371295
VERTEX2 1120 -3.78834350 -15.17938944 -2.78700746
VERTEX2 1121 -3.95839439 -15.23815647 -2.90521560
VERTEX2 1122 -3.94010523 -15.24454691 2.82819541
VERTEX2 1123 -4.47451873 -15.06172231 2.84539226
VERTEX2 1124 -5.01546255 -14.93415733 2.94449373
VERTEX2 1125 -5.62387248 -14.80935842 2.95833608
VERTEX2 1126 -5.68688576 -14.79896907 -2.98451353
VERTEX2 1127 -5.67327639 -14.81355139 -1.92751998
VERTEX2 1128 -5.67016135 -14.79855225 -0.93821489
VERTEX2 1129 -5.65743530 -14.80569961 0.07940134
VERTEX2 1130 -5.07009726 -14.74036888 0.09350464
VERTEX2 1131 -4.30807319 -14.86251604 -0.33798854
VERTEX2 1132 -3.70977829 -15.07491192 -0.35750054
VERTEX2 1133 -3.17539698 -15.29724933 -0.39602890
VERTEX2 1134 -2.93500309 -15.39800395 -0.49285421
VERTEX2 1135 -2.93480674 -15.39822305 -1.04853161
VERTEX2 1136 -2.93242951 -15.39324367 -1.61012819
VERTEX2 1137 -2.98502879 -15.68764223 -1.79389875
VERTEX2 1138 -3.13835953 -16.31344118 -1.80993360
VERTEX2 1139 -3.25655733 -16.80588395 -1.88298377
VERTEX2 1140 -3.24754120 -16.78427931 -2.36159413
VERTEX2 1141 -3.22797910 -16.76526963 -2.90859745
VERTEX2 1142 -3.59309237 -16.72146177 3.01055316
VERTEX2 1143 -4.19323282 -16.67425534 3.10011916
VERTEX2 1144 -4.77632098 -16.63949278 3.06964996
VERTEX2 1145 -5.35693599 -16.59344688 3.04432552
VERTEX2 1146 -5.92851335 -16.53628793 3.06442066
VERTEX2 1147 -6.50347578 -16.52605118 3.13752060
VERTEX2 1148 -7.08113469 -16.52348904 -3.13563450
VERTEX2 1149 -7.12305052 -16.52476377 -2.63738999
VERTEX2 1150 -7.21518400 -16.62710937 -1.82775837
VERTEX2 1151 -7.21251472 -16.64230590 -0.82388000
VERTEX2 1152 -7.19523626 -16.64260730 0.22930822
VERTEX2 1153 -7.18198311 -16.63662597 1.24215621
VERTEX2 1154 -7.24027268 -16.32333953 1.78819217
VERTEX2 1155 -7.37205308 -15.70245153 1.73883511
VERTEX2 1156 -7.46814430 -15.10022690 1.74884627
VERTEX2 1157 -7.59391140 -14.53266718 1.85994833
VERTEX2 1158 -7.71888390 -13.93409090 1.73138337
VERTEX2 1159 -7.77765092 -13.33747728 1.63719263
VERTEX2 1160 -7.79863211 -12.70360454 1.50033063
VERTEX2 1161 -7.69786000 -12.07557185 1.41058338
VERTEX2 1162 -7.60526758 -11.44738525 1.46869242
VERTEX2 1163 -7.54149341 -10.80875447 1.46327803
VERTEX2 1164 -7.49199184 -10.17236336 1.54881294
VERTEX2 1165 -7.48050873 -9.62964894 1.52602325
VERTEX2 1166 -7.48194264 -9.62260933 2.01506442
VERTEX2 1167 -7.43231829 -9.61056506 2.95186154
VERTEX2 1168 -7.38925852 -9.59344992 -2.42772690
VERTEX2 1169 -7.39299797 -9.64197694 -1.60560602
VERTEX2 1170 -7.40314632 -10.22502608 -1.59883650
VERTEX2 1171 -7.40292245 -10.85678685 -1.56701655
VERTEX2 1172 -7.40710395 -11.45261608 -1.62937856
VERTEX2 1173 -7.43675493 -12.07325442 -1.62017465
VERTEX2 1174 -7.48023652 -12.69914136 -1.68880750
VERTEX2 1175 -7.56576643 -13.31010243 -1.72213521
VERTEX2 1176 -7.66266926 -13.92788808 -1.76575735
VERTEX2 1177 -7.78161667 -14.53383588 -1.76365131
VERTEX2 1178 -7.91205892 -15.14380115 -1.81078372
VERTEX2 1179 -8.04890140 -15.74571796 -1.78134629
VERTEX2 1180 -8.10248292 -15.99677151 -1.78824286
VERTEX2 1181 -8.10123766 -15.98781979 -0.96043712
VERTEX2 1182 -8.04678212 -16.00158489 -0.24902968
VERTEX2 1183 -7.43413481 -16.14981253 -0.22381976
VERTEX2 1184 -6.80231182 -16.26401503 -0.15440899
VERTEX2 1185 -6.17541474 -16.37385846 -0.18679414
VERTEX2 1186 -5.54497383 -16.46832291 -0.12075796
VERTEX2 1187 -4.89222212 -16.55349228 -0.15800280
VERTEX2 1188 -4.26605603 -16.64313278 -0.14005165
VERTEX2 1189 -3.60958830 -16.75004322 -0.11874133
VERTEX2 1190 -3.28549346 -16.78951259 -0.11106119
VERTEX2 1191 -3.26101396 -16.78898782 0.80837217
VERTEX2 1192 -3.25580074 -16.71365539 1.60527853
VERTEX2 1193 -3.24926040 -16.12143960 1.47294711
VERTEX2 1194 -3.20844741 -15.55542047 1.51471311
VERTEX2 1195 -3.18009619 -14.93989969 1.56674050
VERTEX2 1196 -3.17397391 -14.32388092 1.39367542
VERTEX2 1197 -3.07140767 -13.71800211 1.40461352
VERTEX2 1198 -3.00195652 -13.10511161 1.66309235
VERTEX2 1199 -3.01799114 -12.49795915 1.44814574
VERTEX2 1200 -2.96014762 -11.87393413 1.51693864
VERTEX2 1201 -2.93415398 -11.25990368 1.57253124
VERTEX2 1202 -2.94294882 -10.64270896 1.59523573
VERTEX2 1203 -2.97171404 -10.05818497 1.50501296
VERTEX2 1204 -2.85675390 -9.47293025 1.35787738
VERTEX2 1205 -2.74753284 -8.91676342 1.38714875
VERTEX2 1206 -2.66151323 -8.33782238 1.44776233
VERTEX2 1207 -2.52400534 -7.73838682 1.36098104
VERTEX2 1208 -2.41112537 -7.12994539 1.42507925
VERTEX2 1209 -2.32275686 -6.52463783 1.42259659
VERTEX2 1210 -2.25564744 -5.92324863 1.44258247
VERTEX2 1211 -2.12675689 -5.31838190 1.36985426
VERTEX2 1212 -2.00899652 -4.71361096 1.41996424
VERTEX2 1213 -1.93849619 -4.10618714 1.49331072
VERTEX2 1214 -1.85286910 -3.38695208 1.27067372
VERTEX2 1215 -1.68690145 -2.81049498 1.32971328
VERTEX2 1216 -1.63396348 -2.26325848 1.54701592
VERTEX2 1217 -1.59575894 -1.68401375 1.52813649
VERTEX2 1218 -1.57848178 -1.09134749 1.47729666
VERTEX2 1219 -1.52365580 -0.43962630 1.50775169
VERTEX2 1220 -1.51301261 0.14991546 1.59835174
VERTEX2 1221 -1.51256771 0.14838531 1.14535400
VERTEX2 1222 -1.49760546 0.16277756 0.54775163
VERTEX2 1223 -1.47842348 0.16718841 -0.01215702
VERTEX2 1224 -0.90507865 0.07114732 -0.19506502
VERTEX2 1225 -0.29048849 -0.04630333 -0.18130102
VERTEX2 1226 -0.18574975 -0.06561422 -0.19803202
VERTEX2 1227 -0.18574975 -0.06561422 -0.19869402
