1 19 166 0.00396193 10 
2 19 172 0.00311902 10 
3 25 172 0.00319240 10 
4 25 178 0.00329833 10 
5 32 178 0.00330378 10 
6 32 183 0.00339133 10 
7 44 189 0.00350841 10 
8 44 195 0.00361749 10 
9 50 195 0.00361516 10 
10 50 201 0.00372664 10 
11 50 203 0.00377520 10 
12 61 203 0.00376187 10 
13 61 209 0.00387709 10 
14 67 209 0.00387854 10 
15 67 220 0.00407591 10 
16 81 220 0.00407249 10 
17 81 226 0.00419097 10 
18 87 226 0.00417703 10 
19 87 231 0.00428289 10 
20 94 231 0.00427210 10 
21 226 231 0.00426578 10 
22 94 241 0.00447939 10 
23 101 241 0.00448271 10 
24 101 247 0.00458454 10 
25 107 247 0.00460960 10 
26 107 254 0.00472094 10 
27 114 254 0.00471865 10 
28 107 256 0.00477405 10 
29 114 256 0.00477408 10 
30 107 258 0.00481472 10 
31 114 258 0.00481957 10 
32 121 266 0.00498115 10 
33 126 266 0.00501253 10 
34 126 272 0.00513573 10 
35 132 272 0.00514997 10 
36 132 278 0.00526580 10 
37 138 278 0.00526319 10 
38 138 284 0.00539950 10 
39 151 284 0.00540428 10 
40 151 291 0.00553346 10 
41 151 297 0.00564370 10 
42 157 297 0.00564948 10 
43 163 297 0.00565643 10 
44 166 297 0.00565830 10 
45 19 305 0.00596512 10 
46 157 305 0.00595118 10 
47 163 305 0.00600078 10 
48 166 305 0.00598085 10 
49 172 305 0.00603121 10 
50 19 315 0.00538749 9 
51 25 315 0.00607146 10 
52 172 315 0.00622826 10 
53 172 328 0.00628274 10 
54 15 332 0.00315115 5 
55 19 337 0.00517264 8 
56 25 337 0.00656320 10 
57 172 337 0.00672881 10 
58 19 342 0.00661583 10 
59 25 342 0.00667070 10 
60 172 342 0.00344112 5 
61 178 342 0.00672204 10 
62 194 357 0.00699717 10 
63 25 367 0.00424582 6 
64 32 367 0.00499167 7 
65 178 367 0.00428209 6 
66 183 367 0.00501484 7 
67 83 371 0.00660259 9 
68 25 374 0.00743078 10 
69 32 374 0.00750846 10 
70 178 374 0.00536260 7 
71 183 374 0.00670109 9 
72 32 382 0.00606446 8 
73 183 382 0.00768119 10 
74 32 387 0.00770929 10 
75 183 387 0.00458510 6 
76 189 400 0.00805762 10 
77 189 414 0.00832251 10 
78 44 437 0.00880960 10 
79 195 437 0.00899663 10 
80 44 454 0.00909235 10 
81 189 454 0.00931579 10 
82 44 467 0.00936113 10 
83 50 467 0.00959463 10 
84 195 467 0.00959644 10 
85 195 484 0.00970571 10 
86 83 487 0.00978917 10 
87 44 494 0.00886158 9 
88 50 494 0.00993658 10 
89 195 494 0.01019308 10 
90 201 494 0.01022672 10 
91 352 496 0.01008137 10 
92 363 497 0.01035707 10 
93 302 498 0.01044804 10 
94 50 500 0.01052177 10 
95 201 500 0.01054796 10 
96 203 500 0.01054269 10 
97 61 508 0.01052649 10 
98 203 508 0.01076911 10 
99 209 508 0.01071891 10 
100 61 522 0.01070387 10 
101 203 522 0.01102960 10 
102 209 522 0.01098239 10 
103 61 528 0.01083363 10 
104 67 528 0.01117821 10 
105 81 528 0.01114583 10 
106 209 528 0.01114309 10 
107 220 528 0.01120849 10 
108 67 532 0.00873945 8 
109 81 532 0.01103866 10 
110 220 532 0.01126480 10 
111 384 550 0.01150684 10 
112 67 556 0.01170277 10 
113 176 558 0.01182860 10 
114 67 564 0.01187296 10 
115 81 564 0.01216549 10 
116 220 564 0.01223550 10 
117 67 567 0.01210794 10 
118 81 567 0.01238706 10 
119 220 567 0.01238937 10 
120 67 570 0.01217836 10 
121 81 570 0.01246703 10 
122 220 570 0.01248030 10 
123 81 575 0.01259264 10 
124 220 575 0.01259135 10 
125 81 588 0.01252582 10 
126 87 588 0.01288691 10 
127 226 588 0.01279269 10 
128 87 597 0.01269053 10 
129 94 597 0.01315446 10 
130 226 597 0.01316171 10 
131 87 604 0.01298699 10 
132 94 604 0.01327580 10 
133 204 604 0.01350068 10 
134 94 616 0.01062242 8 
135 94 632 0.01372787 10 
136 94 637 0.01383302 10 
137 101 637 0.01407588 10 
138 101 642 0.01387053 10 
139 107 642 0.01418975 10 
140 101 645 0.01393277 10 
141 107 645 0.01426599 10 
142 101 657 0.01416899 10 
143 351 658 0.01445469 10 
144 101 663 0.01299223 9 
145 107 663 0.01446955 10 
146 114 663 0.01481519 10 
147 101 665 0.01453064 10 
148 107 665 0.01486860 10 
149 114 665 0.01486999 10 
150 107 680 0.01482729 10 
151 107 683 0.01490681 10 
152 114 683 0.01524131 10 
153 107 704 0.01528529 10 
154 114 704 0.01563222 10 
155 479 704 0.01589824 10 
156 107 714 0.01574190 10 
157 114 714 0.01610998 10 
158 336 727 0.01619631 10 
159 107 730 0.01417946 8 
160 114 730 0.01627510 10 
161 288 735 0.01645384 10 
162 310 739 0.01658340 10 
163 121 754 0.01682181 10 
164 126 754 0.01736168 10 
165 121 759 0.01708976 10 
166 126 759 0.01747686 10 
167 126 762 0.01714408 10 
168 132 762 0.01757226 10 
169 132 778 0.01749832 10 
170 353 782 0.01771120 10 
171 132 792 0.01791970 10 
172 132 800 0.01817158 10 
173 138 800 0.01837173 10 
174 138 806 0.01807933 10 
175 138 821 0.01835940 10 
176 138 823 0.01829563 10 
177 304 824 0.01852338 10 
178 151 828 0.01861220 10 
179 480 831 0.01894189 10 
180 784 837 0.01916085 10 
181 361 839 0.01933479 10 
182 652 844 0.01945485 10 
183 151 847 0.01953402 10 
184 151 855 0.01970902 10 
185 390 861 0.02034519 10 
186 337 867 0.02064885 10 
187 435 868 0.02062740 10 
188 153 868 0.02138448 10 
189 514 893 0.02119447 10 
190 151 895 0.02142128 10 
191 151 897 0.02176324 10 
192 138 903 0.02180971 10 
193 138 904 0.02226035 10 
194 132 907 0.02217620 10 
195 138 907 0.02260317 10 
196 132 911 0.02225602 10 
197 121 923 0.02212933 10 
198 126 923 0.02292520 10 
199 73 926 0.02256308 10 
200 566 927 0.02288241 10 
201 107 929 0.02298572 10 
202 114 929 0.02300423 10 
203 443 929 0.02315750 10 
204 107 935 0.02279240 10 
205 114 935 0.02329775 10 
206 101 939 0.02289612 10 
207 107 939 0.02093895 9 
208 101 944 0.02305109 10 
209 94 947 0.02308430 10 
210 101 947 0.02374322 10 
211 176 951 0.02342718 10 
212 568 952 0.02389816 10 
213 87 953 0.02406207 10 
214 94 953 0.02414427 10 
215 226 953 0.02421328 10 
216 783 954 0.02438192 10 
217 81 959 0.02438102 10 
218 87 959 0.02485259 10 
219 220 959 0.02493854 10 
220 226 959 0.02464785 10 
221 67 965 0.02510756 10 
222 81 965 0.02558639 10 
223 220 965 0.02559282 10 
224 122 965 0.02548835 10 
225 424 965 0.02576208 10 
226 422 973 0.02542107 10 
227 553 975 0.02278144 9 
228 61 976 0.02574663 10 
229 67 976 0.02622198 10 
230 209 976 0.02615216 10 
231 182 981 0.02602111 10 
232 50 982 0.02657587 10 
233 61 982 0.02684827 10 
234 201 982 0.02685437 10 
235 203 982 0.02686674 10 
236 44 988 0.02656892 10 
237 50 988 0.02714777 10 
238 195 988 0.02713428 10 
239 201 988 0.02707884 10 
240 44 994 0.02721334 10 
241 189 994 0.02725285 10 
242 195 994 0.02726389 10 
243 125 996 0.02712058 10 
244 416 1002 0.02768861 10 
245 32 1003 0.02812205 10 
246 178 1003 0.02825285 10 
247 183 1003 0.02815545 10 
248 409 1006 0.02771436 10 
249 25 1008 0.02765645 10 
250 32 1008 0.02828571 10 
251 178 1008 0.02822648 10 
252 183 1008 0.03571143 10 
253 25 1010 0.02790082 10 
254 32 1010 0.02832278 10 
255 172 1010 0.02857799 10 
256 178 1010 0.02850924 10 
257 375 1012 0.01945127 7 
258 230 1015 0.02891585 10 
259 19 1016 0.02955215 10 
260 166 1016 0.02965029 10 
261 172 1016 0.02355833 8 
262 190 1019 0.02924819 10 
263 151 1029 0.02927944 10 
264 157 1029 0.02991583 10 
265 163 1029 0.03035449 10 
266 166 1029 0.03034501 10 
267 958 1034 0.02965610 10 
268 965 1036 0.02983484 10 
269 377 1037 0.03005604 10 
270 203 1042 0.03022130 10 
271 30 1045 0.03042298 10 
272 788 1046 0.02107585 7 
273 1016 1058 0.02430563 8 
274 863 1068 0.02751764 9 
275 132 1084 0.03103505 10 
276 431 1100 0.03181217 10 
277 1020 1113 0.03221642 10 
278 693 1114 0.03252014 10 
279 760 1117 0.03255821 10 
280 593 1117 0.03376722 10 
281 502 1118 0.03324265 10 
282 920 1126 0.03297748 10 
283 27 1132 0.03470749 10 
284 101 1138 0.03352471 10 
285 107 1147 0.03339112 10 
286 114 1147 0.03399166 10 
287 107 1150 0.03392392 10 
288 114 1150 0.03407381 10 
289 114 1158 0.03419787 10 
290 121 1158 0.03417155 10 
291 5 1162 0.03408876 10 
292 155 1163 0.03470288 10 
293 121 1164 0.03422118 10 
294 126 1164 0.03492352 10 
295 17 1174 0.03455221 10 
296 114 1175 0.03459876 10 
297 121 1175 0.03516950 10 
298 923 1175 0.03549567 10 
299 929 1175 0.03546873 10 
300 1158 1175 0.03546688 10 
301 691 1176 0.03510079 10 
302 803 1180 0.03486048 10 
303 263 1184 0.02784502 8 
304 988 1186 0.03519419 10 
305 101 1188 0.03524545 10 
306 939 1188 0.03628808 10 
307 1138 1188 0.03623081 10 
308 1147 1188 0.03624311 10 
309 1150 1188 0.03625378 10 
310 838 1193 0.03582014 10 
311 96 1195 0.03591667 10 
312 351 1197 0.03590328 10 
313 1005 1205 0.03621979 10 
314 378 1207 0.03629545 10 
315 145 1207 0.03691383 10 
316 176 1209 0.03634377 10 
317 1050 1210 0.03706829 10 
318 1061 1210 0.03709958 10 
319 1075 1210 0.03756528 10 
320 1084 1210 0.03753708 10 
321 1088 1210 0.03754950 10 
322 1093 1210 0.03759673 10 
323 1098 1210 0.03834188 10 
324 157 1217 0.03708737 10 
325 163 1217 0.03771150 10 
326 1029 1217 0.03772293 10 
327 1044 1217 0.03810585 10 
328 1050 1217 0.03761903 10 
329 1056 1217 0.03765961 10 
330 300 1218 0.03797414 10 
331 293 1219 0.03776671 10 
