1 114 126 0.00068337 4 
2 19 166 0.00284801 10 
3 85 166 0.00289309 10 
4 19 172 0.00299565 10 
5 25 172 0.00313479 10 
6 25 178 0.00324923 10 
7 32 178 0.00323980 10 
8 32 183 0.00331649 10 
9 44 189 0.00344071 10 
10 44 195 0.00354576 10 
11 50 195 0.00355303 10 
12 50 201 0.00367612 10 
13 50 203 0.00372215 10 
14 61 203 0.00370698 10 
15 61 209 0.00382889 10 
16 67 209 0.00383162 10 
17 172 215 0.00400716 10 
18 67 220 0.00411238 10 
19 81 220 0.00412299 10 
20 81 226 0.00425537 10 
21 87 226 0.00427969 10 
22 87 231 0.00436656 10 
23 94 231 0.00436665 10 
24 226 231 0.00438475 10 
25 94 241 0.00460172 10 
26 101 241 0.00467962 10 
27 101 247 0.00475779 10 
28 107 247 0.00472194 10 
29 107 254 0.00484013 10 
30 114 254 0.00483544 10 
31 107 256 0.00491349 10 
32 114 256 0.00491482 10 
33 107 258 0.00494308 10 
34 114 258 0.00495991 10 
35 201 259 0.00508377 10 
36 121 266 0.00524237 10 
37 126 266 0.00523548 10 
38 126 272 0.00535906 10 
39 132 272 0.00537442 10 
40 132 278 0.00552126 10 
41 138 278 0.00549104 10 
42 138 284 0.00561080 10 
43 151 284 0.00562517 10 
44 151 291 0.00575047 10 
45 151 297 0.00586775 10 
46 157 297 0.00587182 10 
47 163 297 0.00588722 10 
48 166 297 0.00589118 10 
49 19 305 0.00614521 10 
50 157 305 0.00612994 10 
51 163 305 0.00616662 10 
52 166 305 0.00617260 10 
53 172 305 0.00617574 10 
54 116 313 0.00491686 8 
55 34 313 0.00631194 10 
56 19 315 0.00631618 10 
57 25 315 0.00635107 10 
58 172 315 0.00651398 10 
59 86 318 0.00641820 10 
60 172 328 0.00663272 10 
61 19 337 0.00543467 8 
62 25 337 0.00686698 10 
63 172 337 0.00705035 10 
64 19 342 0.00695533 10 
65 25 342 0.00702226 10 
66 172 342 0.00361119 5 
67 178 342 0.00705103 10 
68 232 355 0.00731791 10 
69 113 358 0.00664319 9 
70 25 367 0.00531046 7 
71 32 367 0.00611021 8 
72 178 367 0.00456754 6 
73 183 367 0.00615027 8 
74 25 374 0.00783779 10 
75 32 374 0.00790144 10 
76 178 374 0.00564599 7 
77 183 374 0.00708278 9 
78 126 375 0.00555401 7 
79 32 382 0.00645653 8 
80 183 382 0.00815260 10 
81 32 387 0.00821549 10 
82 183 387 0.00489052 6 
83 189 400 0.00857494 10 
84 189 414 0.00885697 10 
85 44 437 0.00926657 10 
86 195 437 0.00946375 10 
87 44 454 0.00957533 10 
88 189 454 0.00978212 10 
89 44 467 0.00983614 10 
90 50 467 0.01007265 10 
91 195 467 0.01008359 10 
92 304 481 0.01019563 10 
93 195 484 0.00529199 5 
94 44 494 0.01050001 10 
95 50 494 0.01075160 10 
96 195 494 0.01075382 10 
97 201 494 0.01075534 10 
98 24 495 0.01084987 10 
99 125 495 0.01091655 10 
100 50 500 0.01102568 10 
101 201 500 0.01103872 10 
102 203 500 0.01107973 10 
103 246 507 0.01106934 10 
104 61 508 0.01137178 10 
105 203 508 0.01139584 10 
106 209 508 0.01139267 10 
107 61 522 0.01139635 10 
108 203 522 0.01163607 10 
109 209 522 0.01164328 10 
110 61 528 0.01152257 10 
111 67 528 0.01181798 10 
112 81 528 0.01184870 10 
113 209 528 0.01182492 10 
114 220 528 0.01183264 10 
115 67 532 0.01039298 9 
116 81 532 0.01166267 10 
117 220 532 0.01192943 10 
118 67 556 0.01210737 10 
119 67 564 0.01227052 10 
120 81 564 0.01265619 10 
121 220 564 0.01249418 10 
122 72 565 0.00852891 7 
123 67 567 0.01237293 10 
124 81 567 0.01265593 10 
125 220 567 0.01269127 10 
126 77 567 0.01270306 10 
127 67 570 0.01248188 10 
128 81 570 0.01277022 10 
129 220 570 0.01280619 10 
130 81 575 0.01470868 10 
131 220 575 0.01291192 10 
132 201 586 0.01290232 10 
133 81 588 0.01292851 10 
134 87 588 0.01326410 10 
135 226 588 0.01331461 10 
136 87 597 0.01318522 10 
137 94 597 0.01351416 10 
138 226 597 0.01358057 10 
139 130 600 0.01376049 10 
140 87 604 0.01355802 10 
141 94 604 0.01392240 10 
142 94 616 0.01234309 9 
143 383 627 0.01427107 10 
144 94 632 0.01441239 10 
145 464 635 0.01446031 10 
146 94 637 0.01481867 10 
147 101 637 0.01499262 10 
148 101 642 0.01476253 10 
149 107 642 0.01508972 10 
150 101 645 0.01480356 10 
151 107 645 0.01516514 10 
152 375 645 0.01529291 10 
153 295 651 0.01530756 10 
154 302 651 0.01555116 10 
155 101 657 0.01568404 10 
156 101 663 0.01569753 10 
157 107 663 0.01580185 10 
158 114 663 0.01618269 10 
159 101 665 0.01587880 10 
160 107 665 0.01622362 10 
161 114 665 0.01623318 10 
162 28 667 0.01599537 10 
163 78 669 0.01659298 10 
164 501 672 0.01636160 10 
165 653 677 0.01653953 10 
166 107 680 0.01663505 10 
167 162 682 0.01670675 10 
168 107 683 0.01703457 10 
169 114 683 0.01705923 10 
170 99 698 0.01708869 10 
171 107 704 0.01716297 10 
172 114 704 0.01752335 10 
173 600 706 0.01725684 10 
174 107 714 0.01736926 10 
175 114 714 0.01774414 10 
176 593 722 0.01779400 10 
177 107 730 0.01425559 8 
178 114 730 0.01797318 10 
179 492 731 0.01834886 10 
180 0 733 0.01895861 10 
181 482 733 0.01899137 10 
182 260 736 0.01877235 10 
183 344 752 0.01906944 10 
184 165 753 0.01968204 10 
185 240 753 0.01987623 10 
186 121 754 0.01980112 10 
187 126 754 0.01980112 10 
188 121 759 0.01951743 10 
189 126 759 0.01990947 10 
190 126 762 0.01961870 10 
191 132 762 0.02020869 10 
192 132 778 0.02012994 10 
193 132 792 0.02040268 10 
194 132 800 0.02057511 10 
195 138 800 0.02102135 10 
196 138 806 0.02070202 10 
197 83 808 0.02093255 10 
198 138 821 0.02116269 10 
199 138 823 0.02110606 10 
200 151 828 0.02141003 10 
201 800 829 0.02172460 10 
202 151 847 0.02162326 10 
203 346 852 0.02211993 10 
204 151 855 0.02215270 10 
205 406 859 0.02264425 10 
206 669 864 0.02278310 10 
207 45 885 0.02340298 10 
208 151 895 0.02379477 10 
209 151 897 0.02430877 10 
210 138 903 0.02395483 10 
211 138 904 0.02444100 10 
212 132 907 0.02420258 10 
213 138 907 0.02462975 10 
214 132 911 0.02425000 10 
215 334 914 0.02458141 10 
216 218 915 0.02506425 10 
217 119 922 0.02518474 10 
218 121 923 0.02506317 10 
219 126 923 0.02537595 10 
220 775 927 0.02496424 10 
221 107 929 0.02509838 10 
222 114 929 0.02557357 10 
223 107 935 0.02521344 10 
224 114 935 0.02572081 10 
225 101 939 0.02574091 10 
226 107 939 0.02348235 9 
227 101 944 0.02582815 10 
228 94 947 0.02594866 10 
229 101 947 0.02641857 10 
230 576 951 0.02857469 10 
231 87 953 0.02685177 10 
232 94 953 0.02685641 10 
233 226 953 0.02671613 10 
234 81 959 0.02638996 10 
235 87 959 0.02686569 10 
236 220 959 0.02693218 10 
237 226 959 0.02698326 10 
238 93 964 0.02661024 10 
239 67 965 0.02662391 10 
240 81 965 0.02712889 10 
241 220 965 0.02714966 10 
242 61 976 0.02687090 10 
243 67 976 0.02736933 10 
244 209 976 0.02735897 10 
245 474 979 0.02690863 10 
246 50 982 0.02713189 10 
247 61 982 0.02748686 10 
248 201 982 0.02756962 10 
249 203 982 0.02760459 10 
250 629 987 0.02816287 10 
251 44 988 0.02804076 10 
252 50 988 0.02811593 10 
253 195 988 0.02826525 10 
254 201 988 0.01974809 7 
255 755 990 0.02835217 10 
256 710 992 0.02833100 10 
257 44 994 0.02837859 10 
258 189 994 0.02895435 10 
259 195 994 0.02929070 10 
260 707 1001 0.02884854 10 
261 32 1003 0.02904076 10 
262 178 1003 0.02960866 10 
263 183 1003 0.02984119 10 
264 129 1003 0.02983627 10 
265 361 1003 0.02976454 10 
266 25 1008 0.02935397 10 
267 32 1008 0.02987878 10 
268 178 1008 0.02988789 10 
269 183 1008 0.02989012 10 
270 642 1008 0.02991729 10 
271 794 1008 0.03050507 10 
272 25 1010 0.03001388 10 
273 32 1010 0.03055345 10 
274 172 1010 0.03054516 10 
275 178 1010 0.03056928 10 
276 19 1016 0.02993389 10 
277 166 1016 0.03059221 10 
278 172 1016 0.03057741 10 
279 822 1025 0.03033890 10 
280 295 1026 0.03047374 10 
281 151 1029 0.03029012 10 
282 157 1029 0.02458826 8 
283 163 1029 0.03068386 10 
284 166 1029 0.03128081 10 
285 377 1035 0.03084117 10 
286 1011 1049 0.03116269 10 
287 176 1051 0.02160952 7 
288 445 1056 0.03142446 10 
289 926 1061 0.03175279 10 
290 701 1062 0.03232892 10 
291 727 1066 0.03227999 10 
292 44 1073 0.03201231 10 
293 1029 1080 0.03225931 10 
294 132 1084 0.03243561 10 
295 788 1085 0.03298008 10 
296 79 1087 0.03348594 10 
297 638 1089 0.03382535 10 
298 722 1096 0.03304217 10 
299 2 1103 0.03391184 10 
300 282 1110 0.03374955 10 
301 108 1128 0.03487512 10 
302 500 1128 0.03480855 10 
303 428 1129 0.03491456 10 
304 801 1130 0.03526663 10 
305 299 1131 0.03530511 10 
306 843 1135 0.03483329 10 
307 101 1138 0.03470005 10 
308 1075 1140 0.03503092 10 
309 917 1145 0.03514543 10 
310 296 1146 0.03518158 10 
311 107 1147 0.03576968 10 
312 114 1147 0.03582389 10 
313 218 1147 0.03594729 10 
314 107 1150 0.03534485 10 
315 114 1150 0.03595922 10 
316 1075 1153 0.03544377 10 
317 114 1158 0.03548876 10 
318 121 1158 0.03611851 10 
319 121 1164 0.03562142 10 
320 126 1164 0.03681718 10 
321 633 1164 0.03699683 10 
322 391 1168 0.03673308 10 
323 114 1175 0.03689649 10 
324 121 1175 0.03750241 10 
325 923 1175 0.03770946 10 
326 929 1175 0.03802863 10 
327 1158 1175 0.03819250 10 
328 309 1175 0.03810968 10 
329 399 1177 0.03712588 10 
330 970 1180 0.03762987 10 
331 872 1181 0.03761047 10 
332 1079 1187 0.03722139 10 
333 101 1188 0.03781220 10 
334 939 1188 0.03805701 10 
335 1138 1188 0.03863002 10 
336 1147 1188 0.03849487 10 
337 1150 1188 0.03884939 10 
338 522 1188 0.03943946 10 
339 1050 1210 0.03912950 10 
340 1061 1210 0.03919884 10 
341 1075 1210 0.03902904 10 
342 1084 1210 0.03961308 10 
343 1088 1210 0.03955412 10 
344 1093 1210 0.03956748 10 
345 1098 1210 0.03957278 10 
346 217 1210 0.03965458 10 
347 157 1217 0.03977520 10 
348 163 1217 0.03978748 10 
349 1029 1217 0.03977994 10 
350 1044 1217 0.04002847 10 
351 1050 1217 0.04029537 10 
352 1056 1217 0.04001779 10 
353 802 1218 0.04007168 10 
354 174 1219 0.03924079 10 
355 350 1223 0.03939410 10 
356 434 1224 0.03989796 10 
