1 19 166 0 0.41485034 0.00211939 5 
2 19 172 0 0.02820697 0.00186460 4 
3 25 172 0 0.50366199 0.00187552 4 
4 25 178 0 0.30831851 0.00197064 4 
5 32 178 0 0.01493521 0.00198702 4 
6 32 183 0 0.07055611 0.00201051 4 
7 44 189 0 0.52863102 0.00207748 4 
8 44 195 0 0.35755137 0.00216275 4 
9 50 195 0 0.00572854 0.00220040 4 
10 50 201 0 0.04110605 0.00189537 3 
11 50 203 0 0.06975183 0.00187073 3 
12 61 203 0 0.00745912 0.00190101 3 
13 61 209 0 0.37222863 0.00230939 4 
14 67 209 0 0.41032090 0.00232113 4 
15 67 220 0 0.66144083 0.00250111 4 
16 81 220 0 0.48035877 0.00285548 5 
17 81 226 0 0.05402805 0.00256448 4 
18 87 226 0 1.82553139 0.00293664 5 
19 87 231 0 0.34656585 0.00261838 4 
20 94 231 0 0.55778528 0.00256039 4 
21 226 231 0 1.44127402 0.00298332 5 
22 94 241 0 1.33132047 0.00268768 4 
23 101 241 0 0.50961029 0.00271428 4 
24 101 247 0 1.66454674 0.00276146 4 
25 107 247 0 1.80094617 0.00277695 4 
26 107 254 0 1.18346605 0.00284041 4 
27 114 254 0 0.12939160 0.00286238 4 
28 107 256 0 0.93085039 0.00284913 4 
29 114 256 0 0.24629796 0.00285102 4 
30 107 258 0 1.37911724 0.00292320 4 
31 114 258 0 1.15747212 0.00296250 4 
32 121 266 0 0.00938596 0.00300196 4 
33 126 266 0 0.44864328 0.00354369 5 
34 126 272 0 1.03992836 0.00308788 4 
35 132 272 0 0.39070916 0.00363175 5 
36 132 278 0 0.58358145 0.00317490 4 
37 138 278 0 1.06458780 0.00372782 5 
38 138 284 0 0.02201259 0.00270274 3 
39 151 284 0 0.12777228 0.00328289 4 
40 151 291 0 0.60037557 0.00331065 4 
41 151 297 0 0.07972289 0.00284761 3 
42 157 297 0 1.04991834 0.00344896 4 
43 166 297 0 1.30507781 0.00338477 4 
44 19 305 0 0.16044642 0.00356429 4 
45 157 305 0 0.58687353 0.00360248 4 
46 163 305 0 7.56485476 0.00483732 6 
47 166 305 0 0.37495035 0.00359623 4 
48 172 305 0 0.01886255 0.00360370 4 
49 19 315 0 0.48455906 0.00309785 3 
50 25 315 0 0.02281386 0.00311049 3 
51 172 315 0 0.05679715 0.00373075 4 
52 191 317 2 598.24593160 0.00000240 1 
53 172 328 0 0.12482725 0.00325630 3 
54 19 337 0 6.63404991 0.00465286 5 
55 25 337 0 0.96522419 0.00399303 4 
56 172 337 0 0.57611560 0.00333950 3 
57 19 342 0 0.00494520 0.00338283 3 
58 25 342 0 0.12855172 0.00406225 4 
59 172 342 0 0.01223902 0.00411331 4 
60 178 342 0 0.12442988 0.00416411 4 
61 25 367 0 0.11414782 0.00378263 3 
62 32 367 0 0.01267433 0.00596109 6 
63 178 367 0 0.00286807 0.00376011 3 
64 183 367 0 0.06698524 0.00377376 3 
65 25 374 0 0.56424690 0.00459708 4 
66 32 374 0 0.09892849 0.00533753 5 
67 178 374 0 0.03055075 0.00460170 4 
68 183 374 0 0.05309447 0.00457159 4 
69 32 382 0 4.14688582 0.00392750 3 
70 183 382 0 1.28811506 0.00466505 4 
71 32 387 0 2.72468715 0.00473742 4 
72 183 387 0 0.18197642 0.00471847 4 
73 189 414 0 7.69047346 0.00585299 5 
74 44 437 0 0.00915802 0.00438353 3 
75 195 437 0 0.01161094 0.00437367 3 
76 44 454 0 0.65644164 0.00452599 3 
77 189 454 0 0.03962740 0.00543180 4 
78 44 467 0 0.12345281 0.00641465 5 
79 50 467 0 0.00895575 0.01022087 9 
80 195 467 0 0.00230988 0.00465434 3 
81 195 484 0 0.09447226 0.00574575 4 
82 44 494 0 0.02880924 0.00576511 4 
83 50 494 0 0.00628832 0.00481893 3 
84 195 494 0 0.00818961 0.00682044 5 
85 201 494 0 0.00469852 0.00682706 5 
86 50 500 0 0.14406209 0.00694560 5 
87 201 500 0 0.05353930 0.00491663 3 
88 203 500 0 0.03252445 0.00488394 3 
89 61 508 0 0.99413579 0.00712880 5 
90 203 508 0 0.26947301 0.01223785 10 
91 209 508 0 0.03711473 0.00605724 4 
92 61 522 0 1.37942234 0.00613774 4 
93 203 522 0 0.12859200 0.00509246 3 
94 209 522 0 0.00542469 0.00512479 3 
95 61 528 0 0.47936102 0.00515495 3 
96 67 528 0 0.22419307 0.00628610 4 
97 81 528 0 0.23233822 0.00841602 6 
98 209 528 0 0.09444678 0.01062240 8 
99 220 528 0 0.13668760 0.00622963 4 
100 67 532 0 0.05459173 0.01180293 9 
101 81 532 0 0.11826401 0.00846989 6 
102 220 532 0 0.05648169 0.00633492 4 
103 67 556 0 0.98233216 0.00656112 4 
104 67 564 0 0.40168838 0.01249534 9 
105 81 564 0 0.02280941 0.00663517 4 
106 220 564 0 0.02684857 0.00666008 4 
107 67 567 0 2.67253169 0.00780608 5 
108 81 567 0 0.48923871 0.00903028 6 
109 220 567 0 0.21723258 0.00665232 4 
110 67 570 0 2.40706627 0.00909163 6 
111 81 570 0 0.15671702 0.00904840 6 
112 220 570 0 0.13379867 0.00674595 4 
113 81 575 0 2.76594993 0.00792715 5 
114 220 575 0 1.08612706 0.01034838 7 
115 81 588 0 0.01497138 0.00567149 3 
116 87 588 0 0.47937722 0.00817003 5 
117 226 588 0 0.43156268 0.00690229 4 
118 87 597 0 2.27648751 0.00955013 6 
119 94 597 0 0.38888315 0.00701580 4 
120 226 597 0 0.55079633 0.00831253 5 
121 87 604 0 0.47149562 0.00710078 4 
122 94 604 0 0.01542269 0.00839240 5 
123 94 616 0 0.01350372 0.01233470 8 
124 94 632 0 2.16969694 0.00877991 5 
125 94 637 0 4.44236402 0.01004958 6 
126 101 637 0 0.19098383 0.00750376 4 
127 101 642 0 0.11555601 0.00888025 5 
128 107 642 0 0.04025021 0.01407588 9 
129 101 645 0 6.69527511 0.00761729 4 
130 107 645 0 1.54205090 0.00751801 4 
131 101 657 0 0.73548669 0.01666751 10 
132 101 663 0 0.04971914 0.01671231 10 
133 107 663 0 0.01781179 0.00913591 5 
134 114 663 0 0.00275957 0.00915178 5 
135 101 665 0 1.55112265 0.01345344 8 
136 107 665 0 0.47667103 0.00785092 4 
137 114 665 0 0.13329170 0.00648853 3 
138 107 680 0 1.48615866 0.00935277 5 
139 107 683 0 0.94462224 0.00801585 4 
140 114 683 0 0.32178225 0.00951671 5 
141 196 697 2 300.69269133 0.00000309 1 
142 107 704 0 0.34268109 0.01262189 7 
143 114 704 0 0.07528002 0.01553847 9 
144 107 714 0 1.79639085 0.01132264 6 
145 114 714 0 0.02860377 0.01436005 8 
146 107 730 0 0.19656714 0.01013256 5 
147 114 730 0 0.03540690 0.00854118 4 
148 121 754 0 0.33113739 0.00874741 4 
149 126 754 0 0.07673382 0.01509859 8 
150 121 759 0 2.33625684 0.01194405 6 
151 126 759 0 0.22329988 0.01203173 6 
152 126 762 0 7.08482229 0.01038080 5 
153 132 762 0 2.00372045 0.01540807 8 
154 132 778 0 0.06999780 0.00903999 4 
155 132 792 0 1.26802734 0.00927715 4 
156 132 800 0 3.35686460 0.00917363 4 
157 138 800 0 0.14494330 0.01252422 6 
158 138 806 0 0.25140739 0.00750465 3 
159 138 821 0 0.40674396 0.01107694 5 
160 138 823 0 6.54725682 0.00938085 4 
161 151 828 0 3.12108818 0.00948474 4 
162 151 847 0 0.08724621 0.01142951 5 
163 151 855 0 0.11494457 0.01509607 7 
164 151 895 0 2.80701437 0.01765348 8 
165 151 897 0 0.06118057 0.02141821 10 
166 138 903 0 0.08157811 0.01026683 4 
167 138 904 0 7.06392298 0.01402006 6 
168 132 907 0 0.71874717 0.01032068 4 
169 138 907 0 0.22077132 0.01223303 5 
170 132 911 0 0.23128175 0.01224845 5 
171 121 923 0 0.62636126 0.01440344 6 
172 126 923 0 0.07130653 0.01052611 4 
173 107 929 0 0.07225325 0.01256003 5 
174 114 929 0 0.00477553 0.01062501 4 
175 107 935 0 4.91438615 0.01652702 7 
176 114 935 0 1.40337639 0.01667711 7 
177 101 939 0 0.48567419 0.01072443 4 
178 107 939 0 0.21174614 0.01078091 4 
179 101 944 0 0.15377935 0.01278558 5 
180 94 947 0 0.23772432 0.01678084 7 
181 101 947 0 0.16826262 0.01482436 6 
182 87 953 0 0.13504795 0.01095393 4 
183 94 953 0 0.06505521 0.01496372 6 
184 226 953 0 0.08268323 0.02299764 10 
185 81 959 0 1.83528326 0.02440228 10 
186 87 959 0 1.29172246 0.01716461 7 
187 220 959 0 0.04883629 0.01107825 4 
188 226 959 0 0.12130941 0.01312336 5 
189 101 961 2 739.07683206 0.00000399 1 
190 67 965 0 1.01368609 0.01320027 5 
191 81 965 0 0.31066014 0.01527322 6 
192 220 965 0 0.16483276 0.01936321 8 
193 61 976 0 0.16803746 0.01748178 7 
194 67 976 0 0.05676300 0.00921622 3 
195 209 976 0 0.00780965 0.01128910 4 
196 50 982 0 0.38354811 0.01138975 4 
197 61 982 0 0.27147698 0.01139748 4 
198 201 982 0 0.22200943 0.01140465 4 
199 203 982 0 0.10573284 0.02194572 9 
200 44 988 0 0.09550719 0.01151030 4 
201 50 988 0 0.05924873 0.01151580 4 
202 195 988 0 0.04319526 0.01572828 6 
203 201 988 0 0.02685916 0.01359573 5 
204 44 994 0 0.51683435 0.01932238 7 
205 189 994 0 0.29989154 0.02578204 10 
206 195 994 0 0.21957432 0.01376226 5 
207 32 1003 0 0.23901034 0.01398385 5 
208 178 1003 0 0.03356851 0.02607558 10 
209 183 1003 0 0.01433170 0.01611898 6 
210 25 1008 0 1.23858172 0.01842872 7 
211 32 1008 0 0.53803958 0.01184706 4 
212 178 1008 0 0.34459610 0.01184864 4 
213 183 1008 0 0.22233868 0.01188591 4 
214 25 1010 0 0.60236133 0.01187294 4 
215 32 1010 0 0.30591807 0.01404707 5 
216 172 1010 0 0.10368354 0.01635906 6 
217 178 1010 0 0.19279072 0.02648301 10 
218 19 1016 0 0.44047719 0.02062874 8 
219 166 1016 0 0.20189646 0.01189952 4 
220 172 1016 0 0.07393216 0.01412226 5 
221 151 1029 0 0.03533130 0.01439948 5 
222 157 1029 0 0.02672450 0.01208170 4 
223 163 1029 0 3.39703566 0.01208780 4 
224 166 1029 0 0.49353449 0.01228070 4 
225 132 1084 0 4.21993706 0.01520050 5 
226 101 1138 0 0.63021658 0.01587259 5 
227 107 1147 0 0.73708347 0.01340823 4 
228 114 1147 0 0.03971358 0.01092782 3 
229 107 1150 0 7.45683387 0.01346912 4 
230 114 1150 0 1.00561260 0.01104578 3 
231 1112 1157 2 608.16882205 0.00000530 1 
232 114 1158 0 0.16899687 0.01109367 3 
233 121 1158 0 0.69099743 0.01361060 4 
234 121 1164 0 0.45182924 0.01617965 5 
235 126 1164 0 0.04418665 0.01369199 4 
236 114 1175 0 0.14266969 0.01382947 4 
237 121 1175 0 0.27324351 0.01385533 4 
238 923 1175 0 0.18719011 0.01385884 4 
239 929 1175 0 0.16073549 0.01377488 4 
240 1158 1175 0 0.00134797 0.01129458 3 
241 101 1188 0 0.32950319 0.01395247 4 
242 939 1188 0 0.55418798 0.01396293 4 
243 1138 1188 0 0.03006025 0.01149460 3 
244 1147 1188 0 0.04063922 0.01146718 3 
245 1150 1188 0 1.83245351 0.01398856 4 
246 1050 1210 0 0.00345523 0.01407769 4 
247 1061 1210 0 0.57363906 0.01684071 5 
248 1075 1210 0 0.23107861 0.01669109 5 
249 1084 1210 0 3.13555510 0.01672335 5 
250 1088 1210 0 0.59156319 0.01412575 4 
251 1093 1210 0 0.13111230 0.01934700 6 
252 1098 1210 0 0.04730346 0.01409439 4 
253 157 1217 0 0.32750279 0.01421814 4 
254 163 1217 0 0.19904338 0.01441762 4 
255 1029 1217 0 0.01250493 0.01166182 3 
256 1044 1217 0 3.98258990 0.01438192 4 
257 1050 1217 0 4.97161000 0.01705888 5 
258 884 1223 2 1811.73736914 0.00000644 1 
259 163 297 0 0.27920255 0.01528995 4 
260 189 400 0 2.09679271 0.01498002 4 
261 1056 1217 0 9.66143264 0.01741419 5 
