VERTEX2 0 0.00008966 0.00000044 0.00000168
VERTEX2 1 0.00008966 0.00000044 -0.00064032
VERTEX2 2 0.00008966 0.00000044 -0.00117832
VERTEX2 3 0.01109152 -0.00097452 -0.00356032
VERTEX2 4 0.63581765 -0.01114549 -0.00736163
VERTEX2 5 0.75597656 -0.01213371 -0.09488032
VERTEX2 6 0.79136281 -0.04256188 -0.88172680
VERTEX2 7 0.78712604 -0.02989146 -1.48913737
VERTEX2 8 0.79751936 0.01951971 -2.09469813
VERTEX2 9 0.85663541 0.07366433 -2.72424754
VERTEX2 10 0.93505058 0.08988542 2.95278600
VERTEX2 11 0.98128032 0.06373926 2.28732120
VERTEX2 12 0.98097763 0.06770621 1.64664939
VERTEX2 13 0.99125228 0.10966995 0.99616453
VERTEX2 14 1.05854588 0.16511847 0.39670957
VERTEX2 15 1.14058271 0.17787609 -0.12021464
VERTEX2 16 1.50741189 0.13713923 -0.13551472
VERTEX2 17 2.18752049 0.03793165 -0.16333068
VERTEX2 18 2.88167037 -0.07217290 -0.17041481
VERTEX2 19 3.58205884 -0.21641598 -0.21574321
VERTEX2 20 4.20063067 -0.34612223 -0.20876707
VERTEX2 21 4.82295180 -0.43410796 -0.09641322
VERTEX2 22 5.44498879 -0.51053325 -0.07837780
VERTEX2 23 6.08640946 -0.48678525 0.02985158
VERTEX2 24 6.72387232 -0.48906513 -0.02774242
VERTEX2 25 7.35839994 -0.48746270 -0.02557188
VERTEX2 26 7.97602861 -0.52293492 -0.06595752
VERTEX2 27 8.59970443 -0.54841499 -0.05000827
VERTEX2 28 9.18992543 -0.58475141 -0.05435956
VERTEX2 29 9.57445447 -0.60166700 -0.02350292
VERTEX2 30 9.58465199 -0.60324528 -0.55543760
VERTEX2 31 9.69709162 -0.72462052 -0.82367553
VERTEX2 32 10.11551836 -1.19422484 -0.84215251
VERTEX2 33 10.54164987 -1.64802499 -0.79164840
VERTEX2 34 10.99476429 -2.08336560 -0.77091881
VERTEX2 35 11.45687456 -2.51030189 -0.73701061
VERTEX2 36 11.92547159 -2.93794695 -0.74594032
VERTEX2 37 12.23025817 -3.21288770 -0.73863324
VERTEX2 38 12.21953672 -3.20118122 -1.06099371
VERTEX2 39 12.21241984 -3.17991182 -1.23253464
VERTEX2 40 12.41086291 -3.72034303 -1.21569672
VERTEX2 41 12.61717819 -4.28510855 -1.24810533
VERTEX2 42 12.79244003 -4.81611398 -1.27122158
VERTEX2 43 12.95538948 -5.37986319 -1.31183784
VERTEX2 44 13.10241079 -5.94604251 -1.34913843
VERTEX2 45 13.22070235 -6.55456555 -1.40434192
VERTEX2 46 13.31614179 -7.16947690 -1.42382888
VERTEX2 47 13.40067316 -7.78526997 -1.46562660
VERTEX2 48 13.46210004 -8.40770580 -1.47230282
VERTEX2 49 13.51929002 -9.02647115 -1.52329114
VERTEX2 50 13.52717268 -9.61737812 -1.56795428
VERTEX2 51 13.53386922 -10.21501091 -1.59701758
VERTEX2 52 13.49755740 -10.80342198 -1.67374735
VERTEX2 53 13.45580859 -11.36669663 -1.66141320
VERTEX2 54 13.39643239 -11.88563544 -1.72352382
VERTEX2 55 13.39994617 -11.85152360 -1.71827000
VERTEX2 56 13.39985355 -11.85216993 -1.70771862
VERTEX2 57 13.31987305 -12.48305984 -1.71902384
VERTEX2 58 13.23616215 -13.10257375 -1.67269114
VERTEX2 59 13.16978409 -13.71978085 -1.69615815
VERTEX2 60 13.10249185 -14.33344171 -1.67465415
VERTEX2 61 13.03008891 -14.94510761 -1.72541250
VERTEX2 62 12.93808772 -15.51861125 -1.68534887
VERTEX2 63 12.84490949 -16.09700067 -1.72061499
VERTEX2 64 12.76781424 -16.66813137 -1.65697395
VERTEX2 65 12.69107782 -17.23693464 -1.70812208
VERTEX2 66 12.59858678 -17.83737711 -1.71588260
VERTEX2 67 12.49484512 -18.44248791 -1.71415338
VERTEX2 68 12.43234781 -18.89901572 -1.73014900
VERTEX2 69 12.43448930 -18.88810515 -1.88537274
VERTEX2 70 12.43936024 -18.87581921 -2.55974581
VERTEX2 71 12.46628957 -18.87143120 3.08078661
VERTEX2 72 12.47484815 -18.87158749 3.07168720
VERTEX2 73 12.47875094 -18.87212545 3.00717344
VERTEX2 74 12.47784018 -18.87162652 2.38645876
VERTEX2 75 12.48616037 -18.87390362 2.03423030
VERTEX2 76 12.47484455 -18.86374254 2.72831321
VERTEX2 77 12.47179961 -18.86282226 2.96136614
VERTEX2 78 12.19352797 -18.90312910 -2.98457047
VERTEX2 79 11.58333922 -19.00703057 -2.98978557
VERTEX2 80 10.95543524 -19.07240679 -3.06426190
VERTEX2 81 10.33267130 -19.11207375 -3.09023065
VERTEX2 82 9.73238216 -19.13509724 3.13911456
VERTEX2 83 9.14183602 -19.14657547 3.11585585
VERTEX2 84 8.57352996 -19.12104424 3.03834459
VERTEX2 85 8.02290805 -19.07559299 3.04591064
VERTEX2 86 7.40356587 -19.02054447 2.95655671
VERTEX2 87 7.02426394 -18.96362951 2.90321329
VERTEX2 88 6.65696233 -18.87050083 2.87345677
VERTEX2 89 6.66614161 -18.86997199 -3.01387107
VERTEX2 90 6.06377162 -18.93821833 -3.04495797
VERTEX2 91 5.45003946 -19.00001619 -2.99589622
VERTEX2 92 4.85855251 -19.05957800 -3.11170486
VERTEX2 93 4.23686696 -19.02425991 3.07046944
VERTEX2 94 3.60676867 -18.95312712 3.02757976
VERTEX2 95 2.98208417 -18.93224250 -3.11284599
VERTEX2 96 2.37203008 -18.94656181 -3.08870272
VERTEX2 97 1.78132218 -18.94701290 3.12390975
VERTEX2 98 1.18894127 -18.90975506 3.06591286
VERTEX2 99 0.47821182 -18.86189255 3.11262444
VERTEX2 100 -0.09080670 -18.81515361 3.06074035
VERTEX2 101 -0.70218267 -18.82417138 -3.11941964
VERTEX2 102 -1.31506336 -18.80985964 3.05784859
VERTEX2 103 -1.93045145 -18.76088256 -3.12937662
VERTEX2 104 -2.54684040 -18.75046414 3.12007048
VERTEX2 105 -3.16242380 -18.75177795 -3.11670659
VERTEX2 106 -3.76790763 -18.74593283 3.11140274
VERTEX2 107 -4.39125265 -18.71609532 3.10735045
VERTEX2 108 -4.84874665 -18.71517928 -3.11437040
VERTEX2 109 -4.89508107 -18.70848683 2.72010073
VERTEX2 110 -4.91298359 -18.69346285 2.12850101
VERTEX2 111 -4.92141343 -18.61458065 1.62243485
VERTEX2 112 -4.96341939 -17.98313878 1.67674902
VERTEX2 113 -5.04598051 -17.36757691 1.72367312
VERTEX2 114 -5.14224507 -16.76193939 1.76035426
VERTEX2 115 -5.27983022 -16.13563987 1.82011178
VERTEX2 116 -5.47309475 -15.40480408 1.86379048
VERTEX2 117 -5.66841014 -14.81615308 1.95896098
VERTEX2 118 -5.67353505 -14.80078811 1.62369152
VERTEX2 119 -5.67065153 -14.28265776 1.57000136
VERTEX2 120 -5.68445277 -13.62801639 1.65986518
VERTEX2 121 -5.75686523 -13.01867620 1.72721623
VERTEX2 122 -5.84947853 -12.44507137 1.78410580
VERTEX2 123 -5.89191918 -12.27232363 1.77196994
VERTEX2 124 -5.83145556 -12.02734388 1.34805531
VERTEX2 125 -5.67730256 -11.41696962 1.33683534
VERTEX2 126 -5.60915792 -10.79373548 1.54299100
VERTEX2 127 -5.57755866 -10.15616180 1.54132209
VERTEX2 128 -5.56838918 -9.51708524 1.57768908
VERTEX2 129 -5.54804791 -8.88055664 1.54500693
VERTEX2 130 -5.54616359 -8.24819175 1.59768069
VERTEX2 131 -5.56518305 -7.62415388 1.68618405
VERTEX2 132 -5.61139496 -7.00754504 1.63695915
VERTEX2 133 -5.62384788 -6.44165842 1.60018253
VERTEX2 134 -5.63241360 -5.84634347 1.58201583
VERTEX2 135 -5.61116098 -5.26840531 1.55584511
VERTEX2 136 -5.60356499 -4.63478523 1.57553731
VERTEX2 137 -5.57361711 -4.00107541 1.53377735
VERTEX2 138 -5.56410518 -3.36535410 1.61401470
VERTEX2 139 -5.61382882 -2.73704289 1.67949177
VERTEX2 140 -5.71089698 -2.09076631 1.71014435
VERTEX2 141 -5.78427048 -1.45751380 1.66182538
VERTEX2 142 -5.85310696 -0.81406048 1.65808555
VERTEX2 143 -5.84020838 -0.17336201 1.54762280
VERTEX2 144 -5.84006145 0.19741952 1.56522618
VERTEX2 145 -5.83706078 0.21130123 1.06696141
VERTEX2 146 -5.83660865 0.21644403 0.47388504
VERTEX2 147 -5.78233547 0.21847494 -0.01250790
VERTEX2 148 -5.34817043 0.20514807 -0.04809105
VERTEX2 149 -4.70267602 0.18075685 -0.02291415
VERTEX2 150 -4.06686275 0.18478908 -0.00867788
VERTEX2 151 -3.42738958 0.20645645 0.07708394
VERTEX2 152 -2.80379539 0.23860177 0.01630031
VERTEX2 153 -2.18083554 0.27336998 0.10986222
VERTEX2 154 -1.56288309 0.31950385 0.04048592
VERTEX2 155 -0.93967385 0.35379160 0.07409205
VERTEX2 156 -0.31639951 0.40738897 0.10503792
VERTEX2 157 0.24395522 0.45089941 0.04092880
VERTEX2 158 0.43832334 0.45840263 0.06842103
VERTEX2 159 0.44354417 0.45733939 1.05573880
VERTEX2 160 0.44793267 0.46664995 2.09140637
VERTEX2 161 0.43177959 0.40512283 2.81288460
VERTEX2 162 0.45640071 0.41347004 -2.43451142
VERTEX2 163 0.45593795 0.40843665 -1.43744098
VERTEX2 164 0.36875707 0.49626234 -0.37498419
VERTEX2 165 0.54089010 0.49713052 0.03278947
VERTEX2 166 1.23662345 0.52646727 0.03449066
VERTEX2 167 1.85409931 0.54038600 0.00552310
VERTEX2 168 2.44304019 0.55259179 0.01790354
VERTEX2 169 3.04188018 0.54378827 -0.01895633
VERTEX2 170 3.63170622 0.53731741 -0.03954757
VERTEX2 171 4.19972738 0.49835686 -0.07781311
VERTEX2 172 4.83207989 0.45702408 -0.06373804
VERTEX2 173 5.46568498 0.40352556 -0.08669832
VERTEX2 174 6.09491054 0.35588885 -0.04673554
VERTEX2 175 6.72022089 0.33116381 -0.07101739
VERTEX2 176 7.33102489 0.27493537 -0.06104656
VERTEX2 177 7.96441123 0.23892832 -0.08838429
VERTEX2 178 8.59929035 0.16002705 -0.12712944
VERTEX2 179 9.01137775 0.11927018 -0.07367991
VERTEX2 180 9.06424671 0.11091324 -0.51551395
VERTEX2 181 9.53529027 -0.15819987 -0.56722192
VERTEX2 182 9.97633531 -0.47199053 -0.74118045
VERTEX2 183 10.36403303 -0.85133276 -0.79850388
VERTEX2 184 10.74551948 -1.31108449 -0.94513741
VERTEX2 185 11.07476885 -1.79738851 -1.03786857
VERTEX2 186 11.34397458 -2.31956986 -1.10444439
VERTEX2 187 11.58669221 -2.82197762 -1.12728122
VERTEX2 188 11.83793920 -3.34323489 -1.13293658
VERTEX2 189 12.08224952 -3.86904006 -1.15994869
VERTEX2 190 12.32569925 -4.44687353 -1.18887662
VERTEX2 191 12.56040630 -5.02951533 -1.21283625
VERTEX2 192 12.77557284 -5.60733898 -1.24109339
VERTEX2 193 12.95498149 -6.13975728 -1.29672509
VERTEX2 194 13.11295724 -6.69490878 -1.32343348
VERTEX2 195 13.25233754 -7.24845140 -1.35197779
VERTEX2 196 13.38330227 -7.86368684 -1.39272741
VERTEX2 197 13.48523730 -8.47757220 -1.42021036
VERTEX2 198 13.57421795 -9.09005143 -1.47841485
VERTEX2 199 13.60910448 -9.69692773 -1.53988505
VERTEX2 200 13.62453206 -10.30037396 -1.56183269
VERTEX2 201 13.61605070 -10.90252094 -1.61859228
VERTEX2 202 13.60468582 -11.41084041 -1.59834144
VERTEX2 203 13.57950161 -12.15047769 -1.65103158
VERTEX2 204 13.51855391 -12.73147450 -1.75312319
VERTEX2 205 13.40933068 -13.30220079 -1.76267005
VERTEX2 206 13.31342005 -13.85655428 -1.76090106
VERTEX2 207 13.21382686 -14.43099008 -1.74514470
VERTEX2 208 13.10051694 -15.05457651 -1.75384177
VERTEX2 209 12.99907718 -15.67885913 -1.71482565
VERTEX2 210 12.89894005 -16.27986000 -1.72339920
VERTEX2 211 12.81316912 -16.88317222 -1.72085886
VERTEX2 212 12.70013853 -17.47521238 -1.77387244
VERTEX2 213 12.56765993 -18.07820500 -1.79494933
VERTEX2 214 12.42536741 -18.68354432 -1.79856618
VERTEX2 215 12.34134062 -19.02768024 -1.83415224
VERTEX2 216 12.34572999 -19.01792089 -2.33230180
VERTEX2 217 12.36278745 -19.01426452 -2.87387492
VERTEX2 218 12.36959157 -19.01608229 -2.92965463
VERTEX2 219 11.79558924 -19.03235674 -3.09789887
VERTEX2 220 11.20695709 -19.05297998 -3.13726247
VERTEX2 221 10.56825666 -19.05555418 -3.08636433
VERTEX2 222 9.94494522 -19.08049835 -3.11158201
VERTEX2 223 9.32216744 -19.11890809 -3.01493869
VERTEX2 224 8.71344455 -19.18617863 -3.04051213
VERTEX2 225 8.10070512 -19.24766099 -2.99065524
VERTEX2 226 7.48953531 -19.30845637 -3.03978517
VERTEX2 227 6.85381189 -19.44794869 -2.88300427
VERTEX2 228 6.33247591 -19.48959077 3.03869867
VERTEX2 229 5.89580014 -19.50243884 -3.12419701
VERTEX2 230 5.60572300 -19.51805919 3.13021222
VERTEX2 231 5.81123364 -19.51386183 -3.08285469
VERTEX2 232 5.50118367 -19.41342764 2.77321594
VERTEX2 233 4.92386999 -19.21858875 2.87487535
VERTEX2 234 4.33734546 -19.05744664 2.83011346
VERTEX2 235 4.08879642 -18.98005412 2.82455067
VERTEX2 236 3.76018111 -19.01600219 -3.05487135
VERTEX2 237 3.13072170 -19.09618899 -2.98355287
VERTEX2 238 2.51223693 -19.20989805 -3.01549369
VERTEX2 239 1.89271420 -19.27197305 -3.08228637
VERTEX2 240 1.30895593 -19.21419095 2.98394215
VERTEX2 241 0.75416735 -19.14041357 3.07019058
VERTEX2 242 0.17331031 -19.13749528 3.11040852
VERTEX2 243 -0.43608813 -19.11942318 3.11011519
VERTEX2 244 -1.06578279 -19.14155695 -3.10141188
VERTEX2 245 -1.68646099 -19.15965877 3.12779948
VERTEX2 246 -2.28428430 -19.13931549 3.05496022
VERTEX2 247 -2.87608153 -19.12229255 -3.12361491
VERTEX2 248 -3.42830378 -19.15958335 -3.09230232
VERTEX2 249 -3.37756574 -19.16177062 -2.89950594
VERTEX2 250 -3.37261986 -19.16111069 2.79629700
VERTEX2 251 -3.72761714 -18.85810681 2.37273395
VERTEX2 252 -4.12452621 -18.47909499 2.38120659
VERTEX2 253 -4.54019999 -18.07623440 2.37017484
VERTEX2 254 -4.95071644 -17.66050851 2.32893700
VERTEX2 255 -5.03263604 -17.57648197 2.41281553
VERTEX2 256 -5.04357267 -17.50114177 1.93688747
VERTEX2 257 -5.13095397 -17.09239270 1.79931979
VERTEX2 258 -5.28544933 -16.47710681 1.88121585
VERTEX2 259 -5.49051674 -15.89237499 1.92144407
VERTEX2 260 -5.68110694 -15.35060703 1.91274356
VERTEX2 261 -5.68279906 -15.31196566 1.60076714
VERTEX2 262 -5.68693403 -14.65579426 1.60717540
VERTEX2 263 -5.70837945 -14.03527875 1.62040448
VERTEX2 264 -5.75472725 -13.43979376 1.71740319
VERTEX2 265 -5.84658549 -12.85057314 1.73754485
VERTEX2 266 -5.85778754 -12.27741814 1.60837553
VERTEX2 267 -5.88269353 -11.52429001 1.57884840
VERTEX2 268 -5.81252973 -10.91364765 1.46834397
VERTEX2 269 -5.75557144 -10.29411924 1.49803561
VERTEX2 270 -5.74680813 -9.67033220 1.61188292
VERTEX2 271 -5.71493637 -9.04534925 1.50128704
VERTEX2 272 -5.69306681 -8.41043911 1.56712624
VERTEX2 273 -5.76702916 -7.78069871 1.77936411
VERTEX2 274 -5.89733674 -7.17191403 1.80349541
VERTEX2 275 -5.94724200 -6.56226448 1.63232395
VERTEX2 276 -6.00236349 -5.95423214 1.74717067
VERTEX2 277 -6.10502580 -5.40921117 1.72141163
VERTEX2 278 -6.12735246 -4.78177544 1.63241580
VERTEX2 279 -6.15293595 -4.14760792 1.57716471
VERTEX2 280 -6.14997895 -3.51605705 1.57931369
VERTEX2 281 -6.12509433 -2.88052122 1.47899405
VERTEX2 282 -6.07070233 -2.24856273 1.51898132
VERTEX2 283 -6.04948224 -1.60895278 1.51138207
VERTEX2 284 -6.00242533 -0.97740537 1.53879379
VERTEX2 285 -6.00236188 -0.32634216 1.55999025
VERTEX2 286 -6.00003462 0.29705117 1.61372150
VERTEX2 287 -6.00239653 0.34651299 1.50947897
VERTEX2 288 -6.00011872 0.35175805 0.90137912
VERTEX2 289 -5.99846055 0.35273936 0.30844393
VERTEX2 290 -5.55984187 0.38942623 0.08363975
VERTEX2 291 -4.94132158 0.44585527 0.09762097
VERTEX2 292 -4.32807526 0.48932030 0.04295833
VERTEX2 293 -3.70347335 0.50829237 0.01989296
VERTEX2 294 -3.08164653 0.51991023 0.02058819
VERTEX2 295 -2.45606320 0.50365120 -0.09186748
VERTEX2 296 -1.82837607 0.42285275 -0.13722199
VERTEX2 297 -1.20209244 0.33496806 -0.14886109
VERTEX2 298 -0.57648576 0.24358810 -0.14959165
VERTEX2 299 0.01312772 0.14602842 -0.08847901
VERTEX2 300 0.60707444 0.12041156 -0.04635237
VERTEX2 301 1.17414736 0.07875976 -0.10560540
VERTEX2 302 1.47675513 0.04541256 -0.12645311
VERTEX2 303 1.45458435 0.04761709 -0.12226045
VERTEX2 304 1.96003309 -0.01573825 -0.11266066
VERTEX2 305 2.57734626 0.00314238 0.07163320
VERTEX2 306 3.21099998 0.05773418 0.05392824
VERTEX2 307 3.85250257 0.07584979 0.01725649
VERTEX2 308 4.48410411 0.07780564 -0.03830091
VERTEX2 309 5.12271594 0.08313966 0.05465785
VERTEX2 310 5.75084681 0.11808382 0.01879638
VERTEX2 311 6.02850207 0.12125039 0.19384194
VERTEX2 312 6.02216018 0.11694612 1.18193163
VERTEX2 313 6.00374834 0.33493613 1.67774741
VERTEX2 314 5.91788675 0.95809322 1.71756823
VERTEX2 315 5.82257656 1.58359613 1.71307329
VERTEX2 316 5.71539001 2.22097432 1.76449947
VERTEX2 317 5.58735315 2.85251506 1.77454759
VERTEX2 318 5.42252179 3.47506266 1.86924079
VERTEX2 319 5.30712568 3.81060345 1.94075464
VERTEX2 320 5.30905945 3.81988055 2.90989669
VERTEX2 321 5.30779150 3.81914593 -2.33288555
VERTEX2 322 5.30841201 3.82079895 -1.33600499
VERTEX2 323 5.31688498 3.81429373 -0.34546400
VERTEX2 324 5.31767631 3.81414607 0.31310686
VERTEX2 325 5.31583109 3.81381007 -0.21566035
VERTEX2 326 5.33317018 3.80346635 -0.81173234
VERTEX2 327 5.33907264 3.78535110 -1.43599607
VERTEX2 328 5.39056218 3.14623901 -1.48289104
VERTEX2 329 5.43493329 2.52061160 -1.53929142
VERTEX2 330 5.44592077 1.90290153 -1.55975583
VERTEX2 331 5.45604818 1.28380177 -1.57549297
VERTEX2 332 5.44152555 0.66518593 -1.59546885
VERTEX2 333 5.43614451 0.50912837 -1.53198763
VERTEX2 334 5.44049031 0.51028548 -0.73979736
VERTEX2 335 5.45798347 0.50704136 0.25124574
VERTEX2 336 5.47015931 0.51280400 1.19244101
VERTEX2 337 5.47184847 0.54366089 2.17147042
VERTEX2 338 5.46894271 0.54525439 -3.12217770
VERTEX2 339 5.48000512 0.55384549 -2.07218814
VERTEX2 340 5.48032222 0.55250047 -1.05233736
VERTEX2 341 5.60039660 0.49621791 -0.41857916
VERTEX2 342 6.20242598 0.25293547 -0.31647353
VERTEX2 343 6.79639712 0.11343333 -0.18486582
VERTEX2 344 7.39897198 -0.00691402 -0.19425899
VERTEX2 345 7.64086508 -0.05135587 -0.22107587
VERTEX2 346 7.62890606 -0.04878947 -0.86653069
VERTEX2 347 7.64068276 -0.13707667 -1.42358654
VERTEX2 348 7.72067450 -0.72315249 -1.43962569
VERTEX2 349 7.78370157 -1.34002999 -1.47918666
VERTEX2 350 7.85368294 -2.12568331 -1.49817511
VERTEX2 351 7.86836150 -2.39991123 -1.52649677
VERTEX2 352 7.86745182 -2.40886517 -1.81326926
VERTEX2 353 7.85778137 -2.42367735 -2.47613545
VERTEX2 354 7.84597270 -2.42846464 -3.07715657
VERTEX2 355 7.82750579 -2.42978601 2.48777777
VERTEX2 356 7.82129370 -2.42110420 1.91480771
VERTEX2 357 7.82224382 -2.40520608 1.26424606
VERTEX2 358 7.82346577 -2.40303819 0.65119169
VERTEX2 359 7.81364180 -2.40855072 0.03956357
VERTEX2 360 7.80054103 -2.40738278 -0.13546576
VERTEX2 361 7.79417901 -2.40979936 0.78731321
VERTEX2 362 7.85426017 -2.17063374 1.32317320
VERTEX2 363 7.92793605 -1.89253004 1.31758530
VERTEX2 364 7.82335002 -1.56598967 1.93441737
VERTEX2 365 7.73745078 -1.28471460 1.43918382
VERTEX2 366 7.83300270 -1.14993672 0.88708752
VERTEX2 367 8.23062893 -0.66881363 0.88996368
VERTEX2 368 8.63835613 -0.18564803 0.84207358
VERTEX2 369 8.65604205 -0.15892760 0.59032122
VERTEX2 370 8.67998390 -0.15242051 0.00368689
VERTEX2 371 8.68584976 -0.15470887 -0.54166477
VERTEX2 372 9.14886903 -0.45516949 -0.56929610
VERTEX2 373 9.65710584 -0.76714166 -0.56727511
VERTEX2 374 10.17582553 -1.11644994 -0.62837368
VERTEX2 375 10.56635580 -1.39506192 -0.65917381
VERTEX2 376 10.57810710 -1.40061460 0.03372117
VERTEX2 377 10.62674073 -1.35746724 0.72712174
VERTEX2 378 11.11847767 -0.90222727 0.78010349
VERTEX2 379 11.55119726 -0.42034515 0.86364388
VERTEX2 380 11.93733942 0.09004282 0.98131660
VERTEX2 381 12.06301577 0.28430095 1.12945594
VERTEX2 382 12.06433106 0.28743739 2.17347290
VERTEX2 383 12.06123165 0.28890864 -3.12233448
VERTEX2 384 12.05788621 0.28497645 -2.15809998
VERTEX2 385 12.05308678 0.27450018 -1.12746586
VERTEX2 386 12.17641102 0.14561472 -0.90167775
VERTEX2 387 12.68275822 -0.23002994 -0.56895761
VERTEX2 388 13.22297986 -0.55928998 -0.55924794
VERTEX2 389 13.73965002 -0.91096505 -0.64077146
VERTEX2 390 13.79308072 -0.94926420 -0.16433147
VERTEX2 391 13.65410770 -0.96029814 0.21669264
VERTEX2 392 13.65001078 -0.96090232 1.26010293
VERTEX2 393 13.65870370 -0.70176176 2.13869180
VERTEX2 394 13.64823388 -0.69458082 3.13309645
VERTEX2 395 13.88254142 -0.62729459 -2.81235337
VERTEX2 396 13.88183660 -0.62742542 -2.81214107
VERTEX2 397 13.87863960 -0.62751585 -2.82283727
VERTEX2 398 13.87499513 -0.62952269 -2.62522215
VERTEX2 399 13.78496673 -0.71634945 -2.32623201
VERTEX2 400 13.33755963 -1.19617299 -2.27594744
VERTEX2 401 12.91843387 -1.65121880 -2.36898367
VERTEX2 402 12.39968554 -1.99537356 -2.63697357
VERTEX2 403 11.85873381 -2.28826191 -2.67167669
VERTEX2 404 11.33913208 -2.53385463 -2.75146894
VERTEX2 405 11.35186279 -2.52605390 -2.21915665
VERTEX2 406 11.35299551 -2.50869428 -1.24347693
VERTEX2 407 11.50681517 -2.83337243 -1.11638532
VERTEX2 408 11.77064418 -3.38724569 -1.15527938
VERTEX2 409 11.88127607 -3.65786843 -1.25573472
VERTEX2 410 11.88068556 -3.64918071 -1.88550393
VERTEX2 411 11.88984711 -3.62826718 -2.47661373
VERTEX2 412 11.41975457 -3.87333418 -2.68068796
VERTEX2 413 10.86774978 -4.12500317 -2.76118885
VERTEX2 414 10.31469654 -4.36478820 -2.65812829
VERTEX2 415 9.73744664 -4.65960053 -2.65047992
VERTEX2 416 9.46625130 -4.81396863 -2.70498882
VERTEX2 417 9.17675577 -4.82702164 -3.12817003
VERTEX2 418 8.73897509 -4.82791238 3.11052272
VERTEX2 419 8.74376665 -4.82630399 -2.74039300
VERTEX2 420 8.79574763 -4.79664251 -2.52330500
VERTEX2 421 8.79729484 -4.79355858 -1.55315995
VERTEX2 422 8.79389618 -4.79952626 -0.31070836
VERTEX2 423 8.79967594 -4.79948704 0.03605140
VERTEX2 424 8.79998788 -4.79984543 0.03722692
VERTEX2 425 8.79308698 -4.80473215 0.04977916
VERTEX2 426 8.79322130 -4.80509549 0.04147439
VERTEX2 427 8.82585613 -4.80344451 0.04540433
VERTEX2 428 9.48674483 -4.75683233 0.04069293
VERTEX2 429 10.13309638 -4.73970207 0.00072314
VERTEX2 430 10.47748388 -4.74493352 -0.04455944
VERTEX2 431 10.45536018 -4.74458842 0.00817752
VERTEX2 432 10.46903393 -4.74785764 -0.62187542
VERTEX2 433 10.47698068 -4.75666007 -1.29741727
VERTEX2 434 10.49700849 -5.29742000 -1.52467023
VERTEX2 435 10.53257129 -5.94101849 -1.55231931
VERTEX2 436 10.52244996 -6.58640464 -1.56047210
VERTEX2 437 10.53908068 -7.23902122 -1.55190043
VERTEX2 438 10.53665871 -7.71920816 -1.58124857
VERTEX2 439 10.53399096 -7.73651185 -2.01473639
VERTEX2 440 10.53535869 -7.73526001 -2.65415580
VERTEX2 441 10.54764253 -7.73269938 3.01061505
VERTEX2 442 10.56210551 -7.73856068 2.38237041
VERTEX2 443 10.56235137 -7.74000771 1.81653047
VERTEX2 444 10.56376059 -7.72178733 1.22607979
VERTEX2 445 10.57268255 -7.71109031 0.56908828
VERTEX2 446 10.57723695 -7.70757075 0.77112689
VERTEX2 447 10.58795877 -7.67968610 1.40370456
VERTEX2 448 10.67087557 -7.04287449 1.42120598
VERTEX2 449 10.73529621 -6.39371543 1.52255040
VERTEX2 450 10.76104480 -5.74857142 1.53624146
VERTEX2 451 10.76342921 -5.27346075 1.57877875
VERTEX2 452 10.76338730 -5.27077514 1.20055845
VERTEX2 453 10.76270350 -5.27238945 0.57812307
VERTEX2 454 11.02778808 -5.22347471 0.15586286
VERTEX2 455 11.65109380 -5.13071108 0.13600362
VERTEX2 456 12.31399498 -5.05421324 0.07200915
VERTEX2 457 12.70195154 -5.03698369 -0.01513364
VERTEX2 458 12.72996600 -5.04722789 -0.66003447
VERTEX2 459 12.71922162 -5.01790716 -1.26727918
VERTEX2 460 12.74201661 -5.41907792 -1.52456192
VERTEX2 461 12.73999459 -6.04358370 -1.61263032
VERTEX2 462 12.70733363 -6.55939637 -1.65318411
VERTEX2 463 12.70958662 -6.55349665 -0.81493101
VERTEX2 464 12.93766956 -6.59269392 -0.13854185
VERTEX2 465 13.49812429 -6.66004115 -0.13136564
VERTEX2 466 14.03094415 -6.74768253 -0.18759215
VERTEX2 467 14.58485995 -6.86309607 -0.23158572
VERTEX2 468 15.22106125 -7.01710564 -0.26778004
VERTEX2 469 15.83806648 -7.22092456 -0.35146632
VERTEX2 470 16.31280023 -7.38959268 -0.33324943
VERTEX2 471 16.32221232 -7.39353301 -0.53396583
VERTEX2 472 16.33922408 -7.41288779 -1.16814853
VERTEX2 473 16.33929318 -7.41311353 -1.81027122
VERTEX2 474 16.34318234 -7.40712955 -2.44312192
VERTEX2 475 16.34103264 -7.40761459 -3.01577925
VERTEX2 476 16.33983376 -7.40755287 2.61743493
VERTEX2 477 16.34581601 -7.41695320 2.05901036
VERTEX2 478 16.34807325 -7.42998071 1.43315589
VERTEX2 479 16.34574952 -7.43713439 0.97980763
VERTEX2 480 16.34438019 -7.44120942 1.54292763
VERTEX2 481 16.34009378 -7.42846179 2.54677090
VERTEX2 482 16.34220644 -7.42907257 2.88366273
VERTEX2 483 16.34640778 -7.43024562 2.87869664
VERTEX2 484 15.90407224 -7.31473240 2.91464631
VERTEX2 485 15.28467952 -7.18571719 2.91241986
VERTEX2 486 14.66026552 -7.03297893 2.92203568
VERTEX2 487 14.03046710 -6.91447946 2.95040301
VERTEX2 488 13.40877599 -6.79645325 2.98679487
VERTEX2 489 12.93571603 -6.73733986 3.01748595
VERTEX2 490 12.94484614 -6.73551159 -2.78002802
VERTEX2 491 12.95130427 -6.72489839 -1.84294256
VERTEX2 492 12.95830282 -6.95850320 -1.53948626
VERTEX2 493 12.95906861 -7.56875892 -1.59428157
VERTEX2 494 12.93536694 -8.18868893 -1.65495900
VERTEX2 495 12.93107417 -8.81483973 -1.54775257
VERTEX2 496 12.95213767 -9.43976881 -1.43000433
VERTEX2 497 13.00916991 -10.05461685 -1.51604619
VERTEX2 498 13.00526261 -10.67907245 -1.61786138
VERTEX2 499 12.94030665 -11.31463348 -1.63489521
VERTEX2 500 13.05654116 -11.87232659 -1.30600941
VERTEX2 501 13.19080566 -12.44205243 -1.37815545
VERTEX2 502 13.28637728 -13.13015394 -1.46262897
VERTEX2 503 13.32799754 -13.57395340 -1.47959007
VERTEX2 504 13.33190643 -13.55776723 -0.62291896
VERTEX2 505 13.57124118 -13.56021295 -0.00106165
VERTEX2 506 14.16834587 -13.58038626 -0.15359446
VERTEX2 507 14.76364901 -13.68929844 -0.23212941
VERTEX2 508 15.35119228 -13.84088387 -0.24538400
VERTEX2 509 15.99155641 -14.00901555 -0.30130713
VERTEX2 510 16.36230631 -14.13035741 -0.31522547
VERTEX2 511 16.35846162 -14.11193435 0.56004117
VERTEX2 512 16.37608345 -14.06209188 1.75715672
VERTEX2 513 16.37103182 -14.05108433 2.71255916
VERTEX2 514 16.30204631 -14.03920360 2.93882155
VERTEX2 515 15.67643988 -13.92192891 2.93992902
VERTEX2 516 15.07481088 -13.78898513 2.95583432
VERTEX2 517 14.47011991 -13.70254192 2.98404019
VERTEX2 518 13.86543858 -13.61294503 3.00840787
VERTEX2 519 13.33371367 -13.54326441 2.99273076
VERTEX2 520 13.16242749 -13.51704009 -2.89197361
VERTEX2 521 13.18296654 -13.48909765 -1.88825645
VERTEX2 522 13.15857417 -13.89128096 -1.62404546
VERTEX2 523 13.13231679 -14.50347478 -1.63256833
VERTEX2 524 13.08875708 -15.07063154 -1.67568928
VERTEX2 525 13.03944987 -15.63119262 -1.65093462
VERTEX2 526 12.98122911 -16.21952435 -1.70862043
VERTEX2 527 12.89289274 -16.82049764 -1.74248316
VERTEX2 528 12.76913071 -17.41163732 -1.81752610
VERTEX2 529 12.62043007 -18.03509694 -1.84538749
VERTEX2 530 12.43686898 -18.65913848 -1.87506075
VERTEX2 531 12.22869102 -19.26099395 -1.95445998
VERTEX2 532 12.15028464 -19.45751688 -1.90345610
VERTEX2 533 12.15791142 -19.48091468 -0.90038168
VERTEX2 534 12.17042723 -19.48730468 -0.23112019
VERTEX2 535 12.17727939 -19.48917724 -0.23069637
VERTEX2 536 12.54238494 -19.53274848 -0.10039121
VERTEX2 537 13.16304257 -19.61284822 -0.15871484
VERTEX2 538 13.74005895 -19.71913919 -0.18611211
VERTEX2 539 14.36945452 -19.86002591 -0.25115557
VERTEX2 540 14.98323444 -20.04770228 -0.34430954
VERTEX2 541 15.58760800 -20.20790663 -0.18212845
VERTEX2 542 16.22644739 -20.27844350 -0.12653818
VERTEX2 543 16.34685164 -20.29476633 -0.15631075
VERTEX2 544 16.36541222 -20.29076396 0.48040552
VERTEX2 545 16.38537678 -20.24261696 1.54603912
VERTEX2 546 16.40506758 -20.28065501 2.37264961
VERTEX2 547 16.41073082 -20.27966132 -2.88935702
VERTEX2 548 16.42348750 -20.26936562 -1.96691321
VERTEX2 549 16.42406282 -20.25334479 -1.16072119
VERTEX2 550 16.41976639 -20.22769411 -1.64077880
VERTEX2 551 16.42742036 -20.20676276 -2.26746430
VERTEX2 552 16.44430894 -20.19595472 -2.90022014
VERTEX2 553 16.29827795 -20.15741560 2.80541223
VERTEX2 554 15.67521547 -19.93656415 2.76985264
VERTEX2 555 15.06585378 -19.72335703 2.85862310
VERTEX2 556 14.43790764 -19.56945403 2.99362764
VERTEX2 557 13.82222958 -19.46329194 2.95242354
VERTEX2 558 13.23202760 -19.36833652 3.03347023
VERTEX2 559 13.23880727 -19.36984145 2.62654548
VERTEX2 560 13.22925638 -19.36179722 2.12565728
VERTEX2 561 13.20191611 -19.34042062 2.63093037
VERTEX2 562 13.02474992 -19.35942176 -3.00862676
VERTEX2 563 12.44902868 -19.34223046 3.08278589
VERTEX2 564 11.83745848 -19.31581082 3.13159951
VERTEX2 565 11.24369403 -19.30804864 3.07412799
VERTEX2 566 11.30603072 -19.32029459 -2.42481348
VERTEX2 567 11.21307220 -19.33725438 -1.63392456
VERTEX2 568 11.21691738 -19.83902721 -1.57055754
VERTEX2 569 11.22662893 -20.42050387 -1.61007471
VERTEX2 570 11.21927396 -21.00765697 -1.60563833
VERTEX2 571 11.20427987 -21.36271062 -1.65445985
VERTEX2 572 11.18647891 -21.37889278 -1.89975749
VERTEX2 573 11.16255481 -21.45245010 -1.62567692
VERTEX2 574 11.19953204 -21.49535522 -0.69665565
VERTEX2 575 11.31820865 -21.52051599 0.26550541
VERTEX2 576 11.32037545 -21.52183252 1.28908554
VERTEX2 577 11.31232000 -21.50656517 2.25738178
VERTEX2 578 11.29931034 -21.47650479 1.89139675
VERTEX2 579 11.09814716 -20.84386348 1.90545900
VERTEX2 580 10.86253155 -20.22803159 1.97956231
VERTEX2 581 10.59721243 -19.63208673 2.02099900
VERTEX2 582 10.30645978 -19.04841370 2.06322363
VERTEX2 583 10.14267280 -18.75853093 2.14163612
VERTEX2 584 10.13994022 -18.75444431 2.98291634
VERTEX2 585 9.55515028 -18.68183087 3.10039042
VERTEX2 586 8.96725349 -18.67389806 -3.08601776
VERTEX2 587 8.36125273 -18.73037115 -3.06128147
VERTEX2 588 7.74273980 -18.77293305 -3.05745743
VERTEX2 589 7.21285772 -18.85559120 -2.98210404
VERTEX2 590 6.67414990 -18.95860918 -2.91337813
VERTEX2 591 6.14928932 -19.09500763 -2.91528427
VERTEX2 592 5.61503894 -19.22786514 -2.91802708
VERTEX2 593 5.44349443 -19.26872026 -2.71279402
VERTEX2 594 5.48222493 -19.21667786 -1.79355763
VERTEX2 595 5.43528852 -19.83293431 -1.56070965
VERTEX2 596 5.45051218 -20.45978143 -1.58384334
VERTEX2 597 5.43210857 -21.14115534 -1.62378254
VERTEX2 598 5.39440255 -21.74736180 -1.66589883
VERTEX2 599 5.34726947 -22.13214288 -1.73203716
VERTEX2 600 5.34926443 -22.14870446 -0.92534864
VERTEX2 601 5.39306072 -22.16953442 0.09298082
VERTEX2 602 5.42715171 -22.15130184 1.10718572
VERTEX2 603 5.36763296 -21.92207938 1.87994644
VERTEX2 604 5.24153044 -21.32026400 1.63591431
VERTEX2 605 5.18041349 -20.67643638 1.71883857
VERTEX2 606 5.07006750 -20.03799792 1.76122363
VERTEX2 607 5.01704799 -19.45145701 1.68052520
VERTEX2 608 4.96208021 -19.07010962 1.72530602
VERTEX2 609 4.95605182 -19.04898160 2.06213053
VERTEX2 610 4.94440116 -19.04616431 2.99585722
VERTEX2 611 4.33240151 -18.96197708 2.99915764
VERTEX2 612 3.85522650 -18.88170747 3.00187652
VERTEX2 613 3.89892949 -18.88992775 -2.81773327
VERTEX2 614 3.90703874 -18.88226619 -1.78014914
VERTEX2 615 3.97254648 -19.36675657 -1.47579508
VERTEX2 616 4.04611002 -19.98289428 -1.52698277
VERTEX2 617 3.97381946 -20.59608086 -1.74384355
VERTEX2 618 3.87076917 -21.21541234 -1.73350821
VERTEX2 619 3.77233840 -21.79954547 -1.73466892
VERTEX2 620 3.65204836 -22.39047303 -1.83051453
VERTEX2 621 3.74445113 -22.04474823 -1.88173997
VERTEX2 622 3.83895017 -21.76828069 -1.95643942
VERTEX2 623 3.83894928 -21.76828513 -2.49288939
VERTEX2 624 3.81019393 -21.77112359 -3.13476831
VERTEX2 625 3.76727077 -21.75900425 2.49061938
VERTEX2 626 3.73569260 -21.72985904 1.87328338
VERTEX2 627 3.76770700 -21.35149659 1.46295609
VERTEX2 628 3.87778092 -20.70834620 1.36220544
VERTEX2 629 3.98048357 -20.06822187 1.43312841
VERTEX2 630 4.03965476 -19.45316299 1.51799049
VERTEX2 631 4.05433809 -18.92176284 1.53793807
VERTEX2 632 4.05513914 -18.90828201 2.21340676
VERTEX2 633 3.96247522 -18.91204235 -2.98429850
VERTEX2 634 3.30744250 -19.02036490 -2.95709260
VERTEX2 635 2.65937106 -19.10188039 -3.09217485
VERTEX2 636 2.01913033 -19.14304957 -3.10983551
VERTEX2 637 1.38824286 -19.13731438 3.07393326
VERTEX2 638 0.99491031 -19.10058452 3.04427182
VERTEX2 639 0.38161150 -19.06453532 3.12446663
VERTEX2 640 -0.23647273 -19.02272669 3.05640588
VERTEX2 641 -0.84019841 -18.97759729 3.04790459
VERTEX2 642 -1.42224566 -18.90384401 3.00236441
VERTEX2 643 -1.91534427 -18.81966690 2.93489569
VERTEX2 644 -1.91907289 -18.82093105 -2.59154048
VERTEX2 645 -1.94048548 -18.96602340 -1.81380110
VERTEX2 646 -2.01168650 -19.58654533 -1.51841641
VERTEX2 647 -1.89985167 -20.22026296 -1.22954552
VERTEX2 648 -1.61164929 -20.81722808 -1.06323900
VERTEX2 649 -1.37523867 -21.39331308 -1.40079979
VERTEX2 650 -1.40815011 -22.02889836 -1.65812228
VERTEX2 651 -1.40996481 -22.17539399 -0.85862816
VERTEX2 652 -1.34579578 -22.19632860 0.16646626
VERTEX2 653 -1.30507505 -22.15097551 1.19701877
VERTEX2 654 -1.34582636 -21.85723802 1.71024354
VERTEX2 655 -1.41551612 -21.30841089 1.70525785
VERTEX2 656 -1.47927388 -20.70998715 1.69264361
VERTEX2 657 -1.65116311 -20.11355140 1.96930118
VERTEX2 658 -1.90602071 -19.52196864 1.96223921
VERTEX2 659 -2.07234990 -19.04606312 1.89095041
VERTEX2 660 -2.07636499 -19.03331222 2.49077174
VERTEX2 661 -2.25347056 -19.03287352 -3.13929284
VERTEX2 662 -2.84747757 -19.03720776 -3.06982718
VERTEX2 663 -3.42769046 -19.11391164 -2.96895149
VERTEX2 664 -3.43623169 -19.11265880 -2.44585645
VERTEX2 665 -3.44128101 -19.21451633 -1.61083689
VERTEX2 666 -3.44729833 -19.82391537 -1.57335874
VERTEX2 667 -3.44313267 -20.38977539 -1.56841018
VERTEX2 668 -3.44217172 -20.98363494 -1.54227506
VERTEX2 669 -3.42270361 -21.60731212 -1.56703683
VERTEX2 670 -3.45418304 -22.23100533 -1.62654573
VERTEX2 671 -3.46951394 -22.52590936 -1.57159369
VERTEX2 672 -3.43158527 -21.93653558 -1.66074069
VERTEX2 673 -3.39473499 -21.66328407 -1.79133189
VERTEX2 674 -3.38299043 -21.64781214 -2.43956247
VERTEX2 675 -3.36005759 -21.64027500 -3.04826656
VERTEX2 676 -3.35407731 -21.64295223 2.61149407
VERTEX2 677 -3.34934903 -21.64818243 1.99556793
VERTEX2 678 -3.34560272 -21.42629409 1.54921816
VERTEX2 679 -3.34451300 -20.84796445 1.61145419
VERTEX2 680 -3.41951775 -20.40943571 1.95576750
VERTEX2 681 -3.63357925 -19.83958147 1.92788641
VERTEX2 682 -3.86894936 -19.25732234 1.97516933
VERTEX2 683 -3.98865024 -18.99122853 2.13369269
VERTEX2 684 -3.93316935 -19.03693015 -3.06966388
VERTEX2 685 -4.31893554 -19.24044502 -2.62590647
VERTEX2 686 -4.75050853 -19.42452709 -2.77008974
VERTEX2 687 -5.32708142 -19.63861991 -2.80504093
VERTEX2 688 -5.91034343 -19.82220574 -2.81675339
VERTEX2 689 -6.45804571 -20.02107286 -2.78902274
VERTEX2 690 -6.97410941 -20.24681164 -2.71477467
VERTEX2 691 -7.35408801 -20.42022693 -2.74273222
VERTEX2 692 -7.33976483 -20.41192853 -2.20857875
VERTEX2 693 -7.30930696 -20.48127698 -1.16835951
VERTEX2 694 -7.27770720 -20.55025292 -0.33304897
VERTEX2 695 -7.25886282 -20.54265123 0.46681722
VERTEX2 696 -7.25228359 -20.53725973 1.49212644
VERTEX2 697 -7.25967884 -20.57583185 1.23907934
VERTEX2 698 -6.95225334 -20.33213923 0.58419014
VERTEX2 699 -6.42367672 -19.96015835 0.69817705
VERTEX2 700 -5.95022344 -19.54483688 0.75166384
VERTEX2 701 -5.55601343 -19.13704432 0.81079132
VERTEX2 702 -5.11152009 -18.77188562 0.69558881
VERTEX2 703 -4.63632406 -18.38207660 0.72980731
VERTEX2 704 -4.18914255 -17.95338809 0.74843596
VERTEX2 705 -3.72520812 -17.48072052 0.81875062
VERTEX2 706 -3.33071852 -17.11875284 0.54987679
VERTEX2 707 -3.30501919 -17.11461564 0.02982935
VERTEX2 708 -3.29399556 -17.11951229 -0.60838984
VERTEX2 709 -3.33788847 -17.08130716 -0.94034865
VERTEX2 710 -3.34268737 -17.07196013 -1.50143356
VERTEX2 711 -3.33183574 -17.07984129 -2.09813021
VERTEX2 712 -3.31495209 -17.06379112 -2.65855562
VERTEX2 713 -3.78109037 -17.16444158 -2.94390499
VERTEX2 714 -4.33483397 -17.19830187 -3.14143309
VERTEX2 715 -4.96342067 -17.22806720 -3.03809301
VERTEX2 716 -5.59781529 -17.27332940 3.10677821
VERTEX2 717 -6.22419889 -17.27131995 -3.09190700
VERTEX2 718 -6.99596547 -17.23340837 3.01560319
VERTEX2 719 -7.62288046 -17.18328116 3.08982259
VERTEX2 720 -8.24534728 -17.13545300 3.03038103
VERTEX2 721 -8.87305662 -17.08456204 3.09835694
VERTEX2 722 -8.89103923 -17.08389087 -3.11837080
VERTEX2 723 -8.90960229 -17.10750317 -2.02947246
VERTEX2 724 -8.90526852 -17.15067348 -0.96162443
VERTEX2 725 -8.87740867 -17.16553714 -0.32786766
VERTEX2 726 -8.55509782 -17.12891871 0.12586266
VERTEX2 727 -7.92572007 -17.02725073 0.15638023
VERTEX2 728 -7.28564830 -16.93800307 0.15823574
VERTEX2 729 -6.65124115 -16.81193941 0.21658756
VERTEX2 730 -6.03369226 -16.65470201 0.25471178
VERTEX2 731 -5.39963391 -16.48972871 0.26671010
VERTEX2 732 -5.26225961 -16.44720550 0.71287003
VERTEX2 733 -5.25671695 -16.45447508 1.70860332
VERTEX2 734 -5.36959982 -15.91420502 1.78647758
VERTEX2 735 -5.48922468 -15.32802226 1.75423065
VERTEX2 736 -5.48988580 -15.32414320 2.35324624
VERTEX2 737 -5.48167212 -15.32439576 -3.12985902
VERTEX2 738 -6.06019023 -15.34185878 -3.11102401
VERTEX2 739 -6.66740957 -15.30759170 3.11426487
VERTEX2 740 -7.17002672 -15.31751664 -3.10594995
VERTEX2 741 -7.14886975 -15.31519147 2.80789716
VERTEX2 742 -7.14438049 -15.31772894 2.15439792
VERTEX2 743 -7.14466018 -15.31690763 1.53691205
VERTEX2 744 -7.13902940 -15.29961787 0.99693967
VERTEX2 745 -7.12401132 -15.28980985 0.40417423
VERTEX2 746 -6.58711513 -15.25559535 -0.06988389
VERTEX2 747 -5.93323647 -15.30630992 -0.10486812
VERTEX2 748 -5.34482285 -15.39146023 -0.17291639
VERTEX2 749 -5.26357818 -15.40336703 0.25708510
VERTEX2 750 -5.25527004 -15.38354894 1.18562911
VERTEX2 751 -5.31795003 -15.11246642 1.82694399
VERTEX2 752 -5.44069124 -14.49285465 1.72405103
VERTEX2 753 -5.54602355 -13.85045582 1.78770945
VERTEX2 754 -5.62152798 -13.20332891 1.62611229
VERTEX2 755 -5.66919437 -12.57229957 1.71276366
VERTEX2 756 -5.69865191 -11.93693719 1.53672633
VERTEX2 757 -5.69231523 -11.28838805 1.64885397
VERTEX2 758 -5.77418286 -10.71472673 1.79095311
VERTEX2 759 -5.82193864 -10.16990212 1.67048728
VERTEX2 760 -5.92327046 -9.57455164 1.78177528
VERTEX2 761 -5.92997239 -9.53711573 1.96181539
VERTEX2 762 -6.00690341 -9.51203093 2.79723527
VERTEX2 763 -6.58526851 -9.47052851 3.08989908
VERTEX2 764 -7.00702421 -9.44382522 3.06225365
VERTEX2 765 -6.99320544 -9.44210179 -2.58177244
VERTEX2 766 -6.99441419 -9.44827014 -1.58185356
VERTEX2 767 -6.98846187 -9.45967629 -0.65074608
VERTEX2 768 -6.96067692 -9.45845536 0.07181500
VERTEX2 769 -6.33689875 -9.30264231 0.22879698
VERTEX2 770 -5.69317186 -9.17472382 0.16173037
VERTEX2 771 -5.60499097 -9.15786980 0.72234004
VERTEX2 772 -5.60263887 -9.14624342 1.59006580
VERTEX2 773 -5.63986716 -8.56757776 1.67594301
VERTEX2 774 -5.70986533 -8.02407943 1.69811151
VERTEX2 775 -5.70887286 -8.02694542 2.54323467
VERTEX2 776 -5.91922703 -8.02366529 -3.12236601
VERTEX2 777 -6.53559729 -8.04762613 -3.06363921
VERTEX2 778 -7.14911175 -8.10249924 -3.08493066
VERTEX2 779 -7.76020700 -8.14541309 -3.06727339
VERTEX2 780 -7.96529452 -8.14905080 3.08512350
VERTEX2 781 -7.96127799 -8.15003581 2.51153430
VERTEX2 782 -8.11703246 -7.88999710 2.08184031
VERTEX2 783 -8.41021822 -7.34080114 2.08118713
VERTEX2 784 -8.53337967 -7.12266655 2.05981219
VERTEX2 785 -8.53626115 -7.10181295 1.50780212
VERTEX2 786 -8.53187596 -7.07946663 0.91942973
VERTEX2 787 -8.51883008 -7.06308280 0.42871822
VERTEX2 788 -8.49281237 -7.06221930 -0.20046689
VERTEX2 789 -8.48021899 -7.07019373 -0.75248640
VERTEX2 790 -8.13404199 -7.43435281 -0.81966642
VERTEX2 791 -7.68138687 -7.87479789 -0.72100301
VERTEX2 792 -7.42029189 -8.06408215 -0.01646191
VERTEX2 793 -6.80674104 -8.05465322 0.02853703
VERTEX2 794 -6.17126745 -8.01958527 0.10000694
VERTEX2 795 -6.19589933 -8.04184095 0.52989201
VERTEX2 796 -6.20559419 -8.04697239 1.18997144
VERTEX2 797 -6.16307879 -7.73220803 1.45049798
VERTEX2 798 -6.09257324 -7.09577308 1.50086986
VERTEX2 799 -6.07179165 -6.44606208 1.56682162
VERTEX2 800 -6.08416018 -5.79749627 1.63994216
VERTEX2 801 -6.15956104 -5.16847669 1.72591590
VERTEX2 802 -6.27705483 -4.55049316 1.78366683
VERTEX2 803 -6.32388972 -3.92177009 1.61905915
VERTEX2 804 -6.36743356 -3.30138881 1.67492566
VERTEX2 805 -6.46399563 -2.68295447 1.75115703
VERTEX2 806 -6.58416153 -2.09638799 1.79271031
VERTEX2 807 -6.63007952 -1.91570929 2.08082321
VERTEX2 808 -6.63504042 -1.91611626 3.02915032
VERTEX2 809 -7.22671679 -1.94745524 -3.10935178
VERTEX2 810 -7.85355984 -1.88752813 3.03368944
VERTEX2 811 -8.46089988 -1.83738065 3.03041469
VERTEX2 812 -8.46341934 -1.83715125 -2.52098404
VERTEX2 813 -8.47096137 -1.85994641 -1.54566415
VERTEX2 814 -8.46429682 -1.86419397 -0.55342668
VERTEX2 815 -8.43948986 -1.86981986 0.36584886
VERTEX2 816 -8.43145494 -1.86429115 1.04700604
VERTEX2 817 -8.42110548 -1.85619664 0.37824460
VERTEX2 818 -8.19677113 -1.86727461 -0.11064163
VERTEX2 819 -7.59605285 -1.93412943 -0.09651470
VERTEX2 820 -6.99250154 -2.00480049 -0.13774011
VERTEX2 821 -6.43628169 -2.07936905 -0.12193621
VERTEX2 822 -6.38727739 -2.08176290 0.63951659
VERTEX2 823 -6.38739605 -2.06802201 1.55869760
VERTEX2 824 -6.38711675 -1.44368934 1.47937125
VERTEX2 825 -6.30737242 -0.80980032 1.44971531
VERTEX2 826 -6.31437821 -0.18477197 1.61324008
VERTEX2 827 -6.31422326 0.43275966 1.56507967
VERTEX2 828 -6.32478619 1.05821433 1.60091575
VERTEX2 829 -6.32630030 1.65317494 1.56154570
VERTEX2 830 -6.31494846 2.25503535 1.55359906
VERTEX2 831 -6.28139638 2.83399299 1.50707571
VERTEX2 832 -6.25042862 3.39827825 1.50378474
VERTEX2 833 -6.23345373 3.65608717 1.64117772
VERTEX2 834 -6.23548780 3.66117862 2.69495045
VERTEX2 835 -6.24640828 3.66129345 -2.81122493
VERTEX2 836 -6.25686877 3.65042369 -1.86895293
VERTEX2 837 -6.25116617 3.63082803 -0.83346395
VERTEX2 838 -6.23669037 3.62372374 0.02800593
VERTEX2 839 -6.23396052 3.62274089 -0.19056498
VERTEX2 840 -6.22021280 3.61402934 -0.75372055
VERTEX2 841 -6.21005010 3.59785917 -1.37135054
VERTEX2 842 -6.21175254 3.35741820 -1.60142101
VERTEX2 843 -6.23329414 2.79532938 -1.60344963
VERTEX2 844 -6.24551098 2.17189508 -1.61096319
VERTEX2 845 -6.27572402 1.54704209 -1.62517011
VERTEX2 846 -6.29741300 0.91880362 -1.62293412
VERTEX2 847 -6.34311006 0.29582366 -1.64914658
VERTEX2 848 -6.35361478 0.09980452 -1.16777594
VERTEX2 849 -6.34670736 0.09803250 -0.24401125
VERTEX2 850 -5.99067243 0.13220420 0.10931717
VERTEX2 851 -5.36201462 0.17270095 0.01674270
VERTEX2 852 -4.73869628 0.17749621 0.03076528
VERTEX2 853 -4.14658557 0.19745530 0.00243055
VERTEX2 854 -3.55961468 0.19138421 0.00403054
VERTEX2 855 -2.96660661 0.20256886 0.00181825
VERTEX2 856 -2.30841688 0.18515887 -0.03915914
VERTEX2 857 -1.64478238 0.16333491 -0.04879454
VERTEX2 858 -0.98538265 0.10851268 -0.10342023
VERTEX2 859 -0.45511307 0.05843165 -0.11039135
VERTEX2 860 -0.42437208 0.07496227 0.73985804
VERTEX2 861 -0.41992392 0.19014003 1.65412189
VERTEX2 862 -0.44881440 0.85376376 1.59439801
VERTEX2 863 -0.45701354 1.50410212 1.56183434
VERTEX2 864 -0.43203823 2.12378306 1.55965708
VERTEX2 865 -0.45289054 2.73972684 1.61722886
VERTEX2 866 -0.46767614 3.33065373 1.61607413
VERTEX2 867 -0.47700125 3.49795963 1.79724461
VERTEX2 868 -0.48480827 3.50599188 2.82090520
VERTEX2 869 -0.46875188 3.50789438 -2.48410833
VERTEX2 870 -0.44480692 3.52407746 -1.48484217
VERTEX2 871 -0.42689686 3.51440953 -0.51127402
VERTEX2 872 -0.40525105 3.50187428 0.17389935
VERTEX2 873 -0.37336704 3.49470251 -0.39875749
VERTEX2 874 -0.35202794 3.47900695 -0.95872424
VERTEX2 875 -0.34370553 3.46383293 -1.54561610
VERTEX2 876 -0.40854884 2.89360226 -1.70334204
VERTEX2 877 -0.50734446 2.33395196 -1.78811972
VERTEX2 878 -0.53869030 2.12494551 -1.40536878
VERTEX2 879 -0.37454659 1.49678543 -1.35443402
VERTEX2 880 -0.29440536 1.05012943 -1.46721170
VERTEX2 881 -0.29930452 1.09596743 -1.46194211
VERTEX2 882 -0.29279877 0.44956909 -1.70855164
VERTEX2 883 -0.45056715 -0.16947843 -1.89933135
VERTEX2 884 -0.57784628 -0.52135163 -1.96633391
VERTEX2 885 -0.57728311 -0.52495761 -1.38488818
VERTEX2 886 -0.56045760 -0.53786205 -0.36715013
VERTEX2 887 -0.53592691 -0.54471535 0.64393451
VERTEX2 888 -0.53035404 -0.52921112 1.62781619
VERTEX2 889 -0.53164056 -0.52646444 2.52563959
VERTEX2 890 -0.86450716 -0.40400836 2.79948537
VERTEX2 891 -1.42910032 -0.18966027 2.72910237
VERTEX2 892 -1.99459940 0.07742469 2.69345920
VERTEX2 893 -2.57734822 0.31922590 2.92959784
VERTEX2 894 -3.20099867 0.37073637 -3.13165807
VERTEX2 895 -3.79530116 0.26310366 -2.83237963
VERTEX2 896 -3.81506752 0.25625817 -2.35299500
VERTEX2 897 -4.05618065 -0.19086929 -2.08004256
VERTEX2 898 -4.35323302 -0.72981710 -2.06439678
VERTEX2 899 -4.59554270 -1.16326191 -2.13198699
VERTEX2 900 -4.95068917 -1.74320801 -2.13424313
VERTEX2 901 -5.27426022 -2.21982717 -2.19846544
VERTEX2 902 -5.63742202 -2.74793304 -2.17308518
VERTEX2 903 -5.91220023 -3.15403717 -2.21769764
VERTEX2 904 -5.91269343 -3.15494489 -1.51440408
VERTEX2 905 -5.84994867 -3.64120544 -1.45886669
VERTEX2 906 -5.75944082 -4.20319304 -1.39307469
VERTEX2 907 -5.64651004 -4.76601424 -1.40118610
VERTEX2 908 -5.53824650 -5.37975607 -1.37636836
VERTEX2 909 -5.41718428 -5.98077173 -1.39399627
VERTEX2 910 -5.43166422 -6.11148494 -1.76334911
VERTEX2 911 -5.53325826 -6.69512294 -1.70213920
VERTEX2 912 -5.59688004 -7.27150217 -1.68918607
VERTEX2 913 -5.65404699 -7.82203459 -1.68135489
VERTEX2 914 -5.72027692 -8.42009462 -1.70510398
VERTEX2 915 -5.79199886 -8.93960925 -1.74187297
VERTEX2 916 -5.70538369 -9.17001497 -1.19441954
VERTEX2 917 -5.50325357 -9.79629555 -1.44881470
VERTEX2 918 -5.47108211 -10.31168894 -1.52429118
VERTEX2 919 -5.44161571 -10.93396450 -1.56750900
VERTEX2 920 -5.44390111 -11.54685341 -1.58481905
VERTEX2 921 -5.45431018 -12.15938257 -1.63802702
VERTEX2 922 -5.49459536 -12.76410095 -1.66506421
VERTEX2 923 -5.55592254 -13.33406002 -1.72829052
VERTEX2 924 -5.63638221 -13.83751867 -1.71155831
VERTEX2 925 -5.63917210 -13.82866671 -1.20663045
VERTEX2 926 -5.42383613 -14.36695809 -1.19034031
VERTEX2 927 -5.19870951 -14.93296874 -1.21355083
VERTEX2 928 -4.98084850 -15.51528336 -1.22238109
VERTEX2 929 -4.76966479 -16.09544368 -1.22317064
VERTEX2 930 -4.55774677 -16.70654079 -1.30568425
VERTEX2 931 -4.40695763 -17.31910235 -1.38585416
VERTEX2 932 -4.29588955 -17.93635699 -1.44524210
VERTEX2 933 -4.22919810 -18.54317748 -1.50956361
VERTEX2 934 -4.19385754 -19.02089797 -1.51911951
VERTEX2 935 -4.19105521 -19.02937696 -0.83578290
VERTEX2 936 -4.19046384 -19.02951697 0.11026482
VERTEX2 937 -3.65114447 -18.94585703 0.17337745
VERTEX2 938 -3.06023664 -18.89859930 -0.00022886
VERTEX2 939 -2.43663965 -18.89181801 0.02734671
VERTEX2 940 -1.81786717 -18.90215979 -0.05773273
VERTEX2 941 -1.20096898 -18.95313855 -0.11060603
VERTEX2 942 -0.67486286 -19.01174117 -0.10581721
VERTEX2 943 -0.05681081 -19.07833140 -0.01716953
VERTEX2 944 0.55506471 -19.09524071 -0.07410690
VERTEX2 945 1.18332643 -19.15591066 -0.12934477
VERTEX2 946 1.35855900 -19.18088780 -0.06513645
VERTEX2 947 1.75473886 -19.07522886 0.26289792
VERTEX2 948 2.31161604 -18.92567005 0.24371931
VERTEX2 949 2.90406299 -18.82715265 0.08799177
VERTEX2 950 3.53070898 -18.79570821 -0.15162424
VERTEX2 951 4.14533310 -18.90271677 -0.22393274
VERTEX2 952 4.75996747 -19.01282672 0.02662552
VERTEX2 953 5.38703762 -18.97727359 0.10673214
VERTEX2 954 6.00714508 -18.90328861 0.09967948
VERTEX2 955 6.59734873 -18.88562079 -0.06123281
VERTEX2 956 7.15182530 -18.90467353 -0.06359881
VERTEX2 957 7.68840737 -18.94327072 -0.15139385
VERTEX2 958 8.16070907 -19.00427005 -0.17822568
VERTEX2 959 8.59659244 -19.07433305 -0.24544967
VERTEX2 960 9.19786348 -19.17318171 -0.16573726
VERTEX2 961 9.79266601 -19.28414364 -0.19293171
VERTEX2 962 10.41860849 -19.34614974 -0.12752175
VERTEX2 963 11.03992112 -19.36089597 0.05885038
VERTEX2 964 11.66199654 -19.33629637 -0.00526862
VERTEX2 965 12.28353030 -19.34954972 -0.01236515
VERTEX2 966 12.73095924 -19.36093095 -0.07134619
VERTEX2 967 12.76345341 -19.35066045 0.78203150
VERTEX2 968 12.77125698 -19.34153909 1.67874509
VERTEX2 969 12.77631839 -19.36762061 1.73820190
VERTEX2 970 12.78157372 -19.39391964 1.73645999
VERTEX2 971 12.72553796 -19.06351322 1.73658273
VERTEX2 972 12.62527121 -18.48548039 1.74167975
VERTEX2 973 12.64307760 -17.89708912 1.45586190
VERTEX2 974 12.71892485 -17.28190075 1.48716886
VERTEX2 975 12.76678596 -16.66604466 1.49131184
VERTEX2 976 12.80762487 -16.05130094 1.50374820
VERTEX2 977 12.87801745 -15.42329896 1.47699752
VERTEX2 978 12.93452510 -14.80743799 1.52260179
VERTEX2 979 12.98582901 -14.18922833 1.51035969
VERTEX2 980 13.02042522 -13.57594183 1.55732516
VERTEX2 981 13.04701290 -12.97413285 1.56428223
VERTEX2 982 13.04824121 -12.44237858 1.60897238
VERTEX2 983 13.03522775 -11.84216631 1.60553369
VERTEX2 984 13.00025139 -11.24682342 1.66284527
VERTEX2 985 12.94896984 -10.65231044 1.68308107
VERTEX2 986 12.86962381 -10.03712404 1.71937611
VERTEX2 987 12.79272296 -9.42317035 1.68264927
VERTEX2 988 12.73119151 -8.80788413 1.69633279
VERTEX2 989 12.65280228 -8.19844866 1.70390740
VERTEX2 990 12.58259918 -7.59147573 1.69306488
VERTEX2 991 12.50417584 -6.98455007 1.71813111
VERTEX2 992 12.43863145 -6.40437956 1.68581247
VERTEX2 993 12.36138064 -5.79594453 1.71885204
VERTEX2 994 12.28457771 -5.21847194 1.70920721
VERTEX2 995 12.19410426 -4.65044035 1.75688840
VERTEX2 996 12.07505779 -4.07033954 1.78440827
VERTEX2 997 11.96598724 -3.45040993 1.72041354
VERTEX2 998 11.90667591 -3.06882539 1.74265956
VERTEX2 999 11.95046860 -3.09713135 2.46163766
VERTEX2 1000 11.46571894 -2.79756677 2.61074477
VERTEX2 1001 10.99974260 -2.45726605 2.29034566
VERTEX2 1002 10.59713018 -2.04162862 2.38335644
VERTEX2 1003 10.20801932 -1.59805411 2.20411864
VERTEX2 1004 9.81895642 -1.10780817 2.26271704
VERTEX2 1005 9.42050873 -0.66176521 2.32557084
VERTEX2 1006 8.97960773 -0.23339251 2.40315965
VERTEX2 1007 8.51752011 0.15029444 2.49461973
VERTEX2 1008 8.25572122 0.34125452 2.65344694
VERTEX2 1009 8.15451362 0.34547843 3.12478655
VERTEX2 1010 7.58574864 0.34080241 -3.10634063
VERTEX2 1011 6.96761402 0.31416164 3.13345536
VERTEX2 1012 6.35323353 0.31228014 -3.10810557
VERTEX2 1013 5.71922533 0.24219576 -2.99346924
VERTEX2 1014 5.10305847 0.22526570 3.11404166
VERTEX2 1015 4.47588771 0.19870960 -3.08499089
VERTEX2 1016 3.70635374 0.15566364 -3.07837849
VERTEX2 1017 3.12398457 0.10803570 -3.13559906
VERTEX2 1018 2.56397945 0.11141265 -3.12836306
VERTEX2 1019 1.97096252 0.07390424 -3.06888083
VERTEX2 1020 1.35661476 0.04573711 -3.08289021
VERTEX2 1021 0.73711303 0.01017622 -3.12355558
VERTEX2 1022 0.68467768 0.00904159 -3.13084262
VERTEX2 1023 0.69279448 0.00973114 -3.04432024
VERTEX2 1024 0.06966581 -0.04751838 -3.01805247
VERTEX2 1025 -0.55165580 -0.14295232 -3.00054481
VERTEX2 1026 -0.71040666 -0.16498859 -2.99343365
VERTEX2 1027 -0.69436869 -0.15495047 -2.07713769
VERTEX2 1028 -0.69024579 -0.32150501 -1.51383288
VERTEX2 1029 -0.66035294 -0.88736679 -1.53546117
VERTEX2 1030 -0.65928118 -1.51379846 -1.61564135
VERTEX2 1031 -0.70453131 -2.16868880 -1.66958712
VERTEX2 1032 -0.76747442 -2.82529944 -1.66537725
VERTEX2 1033 -0.84338109 -3.48191252 -1.71036951
VERTEX2 1034 -0.87017893 -3.65712035 -1.92393688
VERTEX2 1035 -0.87206753 -3.65910940 -2.54283723
VERTEX2 1036 -0.83156067 -3.67287037 -3.11329191
VERTEX2 1037 -1.17487706 -3.58204506 2.93170447
VERTEX2 1038 -1.78733978 -3.52566609 3.02307075
VERTEX2 1039 -2.43611431 -3.42484079 2.99155603
VERTEX2 1040 -2.40632775 -3.42240726 -2.66150989
VERTEX2 1041 -2.38023148 -3.42306950 -1.64508645
VERTEX2 1042 -2.37865381 -3.45442639 -0.65766989
VERTEX2 1043 -2.34859117 -3.47677648 0.31163381
VERTEX2 1044 -2.36110089 -3.49511747 1.30508990
VERTEX2 1045 -2.36314366 -3.50124339 1.19098642
VERTEX2 1046 -2.37226509 -3.51663072 0.80533371
VERTEX2 1047 -2.39314380 -3.52844317 0.24941427
VERTEX2 1048 -2.03108485 -3.55910832 -0.06369071
VERTEX2 1049 -1.38449231 -3.58958300 -0.04660678
VERTEX2 1050 -0.74070353 -3.59231450 0.02902412
VERTEX2 1051 -0.08158393 -3.59749292 -0.05006126
VERTEX2 1052 0.54692249 -3.61339284 0.00294917
VERTEX2 1053 0.96721244 -3.62424426 -0.04962339
VERTEX2 1054 0.99303271 -3.62427290 0.71286604
VERTEX2 1055 0.99597106 -3.59630648 1.77020571
VERTEX2 1056 1.00594796 -3.60802550 2.77469445
VERTEX2 1057 1.03083730 -3.60812129 -2.51762265
VERTEX2 1058 1.02922626 -3.61048406 -1.59542656
VERTEX2 1059 0.99360191 -4.19981942 -1.67616689
VERTEX2 1060 0.92455545 -4.83384598 -1.67156686
VERTEX2 1061 0.86547089 -5.28225010 -1.79456697
VERTEX2 1062 0.86245730 -5.28817860 -2.35908186
VERTEX2 1063 0.88143774 -5.27451290 -2.95710924
VERTEX2 1064 0.59386354 -5.25091711 3.06066230
VERTEX2 1065 -0.00052510 -5.24496968 -3.10066981
VERTEX2 1066 -0.56893530 -5.25106844 3.12631634
VERTEX2 1067 -0.55689386 -5.24918392 -2.72436670
VERTEX2 1068 -0.54533047 -5.23913183 -2.05181287
VERTEX2 1069 -0.54424982 -5.23490833 -1.88154967
VERTEX2 1070 -0.54225648 -5.23035519 -2.42070519
VERTEX2 1071 -0.98577467 -5.53375506 -2.54801080
VERTEX2 1072 -1.41012068 -5.81158279 -2.61674266
VERTEX2 1073 -1.38364865 -5.80816167 -3.12802885
VERTEX2 1074 -1.92113185 -5.79086581 3.12073903
VERTEX2 1075 -2.49770310 -5.77453742 3.13721767
VERTEX2 1076 -2.51542738 -5.77508776 -2.74184911
VERTEX2 1077 -2.52460877 -5.79785041 -1.93622867
VERTEX2 1078 -2.69844359 -6.42608688 -1.89111128
VERTEX2 1079 -2.87103342 -7.01092003 -1.82902768
VERTEX2 1080 -2.87367105 -7.02103167 -2.31670302
VERTEX2 1081 -3.26706192 -7.35383772 -2.43999719
VERTEX2 1082 -3.42197275 -7.48754901 -2.15944243
VERTEX2 1083 -3.41510577 -7.51664434 -1.12920503
VERTEX2 1084 -3.34120822 -7.54551768 -0.16396465
VERTEX2 1085 -3.34602566 -7.54735873 0.81991796
VERTEX2 1086 -3.04108224 -7.02958967 1.05072827
VERTEX2 1087 -2.71880829 -6.49196133 1.03889137
VERTEX2 1088 -2.41771038 -5.95705210 1.02192626
VERTEX2 1089 -2.37162350 -5.88294421 0.92653953
VERTEX2 1090 -2.36397086 -5.87436161 0.31165865
VERTEX2 1091 -1.82914604 -5.78738693 0.13490776
VERTEX2 1092 -1.21142371 -5.70898856 0.11988027
VERTEX2 1093 -0.64135448 -5.65384953 0.05495344
VERTEX2 1094 -0.62393389 -5.66732313 -0.34869477
VERTEX2 1095 -0.59190573 -5.69031644 -0.93865752
VERTEX2 1096 -0.59145175 -5.69175412 -1.51011402
VERTEX2 1097 -0.64163272 -6.02653153 -1.72569764
VERTEX2 1098 -0.75788157 -6.64106625 -1.78264510
VERTEX2 1099 -0.90933181 -7.22850937 -1.87891596
VERTEX2 1100 -0.91585819 -7.25168790 -1.51614037
VERTEX2 1101 -0.82794048 -7.51755137 -1.25050354
VERTEX2 1102 -0.82776943 -7.52769042 -1.64516684
VERTEX2 1103 -0.89430638 -8.14732650 -1.67949040
VERTEX2 1104 -0.96935519 -8.79410605 -1.70773663
VERTEX2 1105 -1.06331709 -9.42843652 -1.72618493
VERTEX2 1106 -1.14260208 -9.91532751 -1.75198973
VERTEX2 1107 -1.14070421 -9.92558114 -1.49673223
VERTEX2 1108 -1.05041086 -10.54819910 -1.48945258
VERTEX2 1109 -1.04336423 -11.19561043 -1.59408008
VERTEX2 1110 -1.06234742 -11.80135982 -1.64394079
VERTEX2 1111 -1.18251194 -12.33787457 -1.74558271
VERTEX2 1112 -1.16464330 -12.91148751 -1.39969530
VERTEX2 1113 -1.07285954 -13.53848739 -1.49541819
VERTEX2 1114 -1.02617575 -14.14711487 -1.47867442
VERTEX2 1115 -0.97017584 -14.72136086 -1.49515203
VERTEX2 1116 -0.89940131 -15.35966596 -1.45919083
VERTEX2 1117 -0.88841251 -15.45031200 -1.58731181
VERTEX2 1118 -0.88520471 -15.44276217 -2.19525353
VERTEX2 1119 -0.87674595 -15.43570175 -2.62691428
VERTEX2 1120 -1.41925702 -15.69140840 -2.69053273
VERTEX2 1121 -1.60242259 -15.77531029 -2.80910665
VERTEX2 1122 -1.59991241 -15.77591912 2.92376646
VERTEX2 1123 -2.16570202 -15.64156130 2.94070781
VERTEX2 1124 -2.73415068 -15.56407172 3.03947496
VERTEX2 1125 -3.36982612 -15.49610642 3.05300365
VERTEX2 1126 -3.45228664 -15.49049075 -2.89040971
VERTEX2 1127 -3.45373638 -15.48921516 -1.83057511
VERTEX2 1128 -3.45202872 -15.47340710 -0.84081811
VERTEX2 1129 -3.43905760 -15.47911308 0.17723701
VERTEX2 1130 -2.85841967 -15.35630848 0.19152981
VERTEX2 1131 -2.07795988 -15.40375461 -0.23911568
VERTEX2 1132 -1.44573882 -15.55910014 -0.25818307
VERTEX2 1133 -0.87723834 -15.73104681 -0.29630846
VERTEX2 1134 -0.61349669 -15.81163775 -0.39271382
VERTEX2 1135 -0.60784783 -15.81617735 -0.94752824
VERTEX2 1136 -0.59895414 -15.79143949 -1.50820150
VERTEX2 1137 -0.61956574 -16.06940874 -1.69091506
VERTEX2 1138 -0.70361467 -16.68620049 -1.70625281
VERTEX2 1139 -0.77070295 -17.19187234 -1.77917960
VERTEX2 1140 -0.76338716 -17.16748208 -2.25754844
VERTEX2 1141 -0.74338263 -17.14351693 -2.80426012
VERTEX2 1142 -1.10574740 -17.13801566 3.11511419
VERTEX2 1143 -1.70236358 -17.15353391 -3.07837390
VERTEX2 1144 -2.28073521 -17.17963361 -3.10872448
VERTEX2 1145 -2.85782544 -17.19441887 -3.13393075
VERTEX2 1146 -3.43374741 -17.19749516 -3.11393493
VERTEX2 1147 -4.01179299 -17.24794872 -3.04101536
VERTEX2 1148 -4.58633315 -17.30572891 -3.03098813
VERTEX2 1149 -4.62766530 -17.31134632 -2.53275040
VERTEX2 1150 -4.70853667 -17.42268905 -1.72288763
VERTEX2 1151 -4.70307124 -17.44165592 -0.71914153
VERTEX2 1152 -4.68289242 -17.43987050 0.33390866
VERTEX2 1153 -4.66944003 -17.43200810 1.34662468
VERTEX2 1154 -4.76064992 -17.12426086 1.89180891
VERTEX2 1155 -4.95619633 -16.51826814 1.84213000
VERTEX2 1156 -5.11417124 -15.92665970 1.85187578
VERTEX2 1157 -5.29795268 -15.37306297 1.96268048
VERTEX2 1158 -5.48291134 -14.79182880 1.83388648
VERTEX2 1159 -5.60223294 -14.20383390 1.73941566
VERTEX2 1160 -5.68759976 -13.57443313 1.60227628
VERTEX2 1161 -5.65083254 -12.93715672 1.51230340
VERTEX2 1162 -5.62210839 -12.30065891 1.57022988
VERTEX2 1163 -5.62308707 -11.65700878 1.56467176
VERTEX2 1164 -5.63798296 -11.01716596 1.65006406
VERTEX2 1165 -5.68139984 -10.47679757 1.62732909
VERTEX2 1166 -5.68341595 -10.47033413 2.11648991
VERTEX2 1167 -5.63696887 -10.45392248 3.05352353
VERTEX2 1168 -5.59749638 -10.43336774 -2.32583746
VERTEX2 1169 -5.59626505 -10.48290977 -1.50352692
VERTEX2 1170 -5.54694021 -11.06472943 -1.49670012
VERTEX2 1171 -5.48229584 -11.69392872 -1.46481550
VERTEX2 1172 -5.42565624 -12.28784550 -1.52710508
VERTEX2 1173 -5.39180955 -12.90910007 -1.51783112
VERTEX2 1174 -5.37115984 -13.53702670 -1.58638104
VERTEX2 1175 -5.39387308 -14.15450051 -1.61962701
VERTEX2 1176 -5.42694252 -14.77783608 -1.66293575
VERTEX2 1177 -5.48291586 -15.39162977 -1.66054163
VERTEX2 1178 -5.54971111 -16.01060582 -1.70736507
VERTEX2 1179 -5.62349646 -16.62224453 -1.67762899
VERTEX2 1180 -5.65140821 -16.88291106 -1.68436350
VERTEX2 1181 -5.65127251 -16.87946122 -0.85591774
VERTEX2 1182 -5.60186999 -16.88655171 -0.14337645
VERTEX2 1183 -4.98302397 -16.96863464 -0.11780583
VERTEX2 1184 -4.34492428 -17.01532845 -0.04837403
VERTEX2 1185 -3.71219732 -17.05820345 -0.08072896
VERTEX2 1186 -3.07766257 -17.08544173 -0.01464805
VERTEX2 1187 -2.41524522 -17.10157284 -0.05216782
VERTEX2 1188 -1.77868841 -17.12516083 -0.03445500
VERTEX2 1189 -1.09651090 -17.16270573 -0.01309505
VERTEX2 1190 -0.75149404 -17.16793914 -0.00538301
VERTEX2 1191 -0.70913171 -17.16253092 0.91378147
VERTEX2 1192 -0.71197837 -17.08374763 1.71049095
VERTEX2 1193 -0.76715920 -16.49178253 1.57814096
VERTEX2 1194 -0.78522955 -15.92663255 1.61998776
VERTEX2 1195 -0.82073515 -15.31403039 1.67215269
VERTEX2 1196 -0.87832715 -14.70391897 1.49932697
VERTEX2 1197 -0.83942930 -14.09096545 1.51049301
VERTEX2 1198 -0.83404578 -13.47020687 1.76924389
VERTEX2 1199 -0.91285259 -12.87410321 1.55450328
VERTEX2 1200 -0.92079837 -12.25169867 1.62350208
VERTEX2 1201 -0.95924489 -11.64337708 1.67934183
VERTEX2 1202 -1.03238056 -11.03644952 1.70232135
VERTEX2 1203 -1.12182501 -10.46467622 1.61245830
VERTEX2 1204 -1.06986336 -9.87325016 1.46577170
VERTEX2 1205 -1.02023199 -9.30465167 1.49552081
VERTEX2 1206 -0.99589197 -8.70400634 1.55704318
VERTEX2 1207 -0.92261043 -8.08262068 1.47083382
VERTEX2 1208 -0.87541198 -7.45051673 1.53543132
VERTEX2 1209 -0.85312488 -6.82470900 1.53343691
VERTEX2 1210 -0.85222437 -6.20781469 1.55420343
VERTEX2 1211 -0.79078007 -5.58846073 1.48089375
VERTEX2 1212 -0.74003933 -4.96941533 1.53071749
VERTEX2 1213 -0.73675245 -4.35348830 1.60379468
VERTEX2 1214 -0.73044523 -3.62472372 1.38085137
VERTEX2 1215 -0.62764612 -3.02794971 1.43968578
VERTEX2 1216 -0.63487890 -2.47383681 1.65675114
VERTEX2 1217 -0.66077065 -1.89499552 1.63725313
VERTEX2 1218 -0.70757429 -1.31868769 1.58667713
VERTEX2 1219 -0.72453161 -0.68045759 1.61733964
VERTEX2 1220 -0.77771293 -0.10781313 1.70812221
VERTEX2 1221 -0.77363119 -0.11766230 1.25544942
VERTEX2 1222 -0.77426633 -0.11842584 0.65824031
VERTEX2 1223 -0.77385457 -0.11828313 0.09870702
VERTEX2 1224 -0.19340388 -0.15030142 -0.08420098
VERTEX2 1225 0.43040763 -0.19903457 -0.07043698
VERTEX2 1226 0.53663987 -0.20663892 -0.08716798
VERTEX2 1227 0.53663987 -0.20663892 -0.08782998
