1 35 126 2 583.42848055 0.00000323 1 
2 19 166 0 0.41485034 0.00208895 5 
3 1 166 2 388.52108724 0.00000220 5 
4 19 172 0 0.02820697 0.00187306 4 
5 25 172 0 0.50366199 0.00187217 4 
6 25 178 0 0.30831851 0.00197226 4 
7 32 178 0 0.01493521 0.00197955 4 
8 32 183 0 0.07055611 0.00201070 4 
9 44 189 0 0.52863102 0.00206992 4 
10 44 195 0 0.35755137 0.00216185 4 
11 50 195 0 0.00572854 0.00218990 4 
12 50 201 0 0.04110605 0.00189585 3 
13 50 203 0 0.06975183 0.00187405 3 
14 61 203 0 0.00745912 0.00189214 3 
15 61 209 0 0.37222863 0.00230294 4 
16 67 209 0 0.41032090 0.00232244 4 
17 67 220 0 0.66144083 0.00249901 4 
18 81 220 0 0.48035877 0.00284580 5 
19 81 226 0 0.05402805 0.00255378 4 
20 87 226 0 1.82553139 0.00293467 5 
21 87 231 0 0.34656585 0.00261860 4 
22 94 231 0 0.55778528 0.00255925 4 
23 226 231 0 1.44127402 0.00299731 5 
24 94 241 0 1.33132047 0.00268081 4 
25 101 241 0 0.50961029 0.00271023 4 
26 101 247 0 1.66454674 0.00275235 4 
27 107 247 0 1.80094617 0.00277437 4 
28 107 254 0 1.18346605 0.00283642 4 
29 114 254 0 0.12939160 0.00285743 4 
30 107 256 0 0.93085039 0.00283988 4 
31 114 256 0 0.24629796 0.00286124 4 
32 107 258 0 1.37911724 0.00289102 4 
33 114 258 0 1.15747212 0.00291766 4 
34 121 266 0 0.00938596 0.00300089 4 
35 126 266 0 0.44864328 0.00353557 5 
36 126 272 0 1.03992836 0.00311140 4 
37 132 272 0 0.39070916 0.00364025 5 
38 132 278 0 0.58358145 0.00317172 4 
39 138 278 0 1.06458780 0.00372372 5 
40 138 284 0 0.02201259 0.00269795 3 
41 151 284 0 0.12777228 0.00327642 4 
42 151 291 0 0.60037557 0.00330886 4 
43 151 297 0 0.07972289 0.00285973 3 
44 157 297 0 1.04991834 0.00343244 4 
45 166 297 0 1.30507781 0.00338568 4 
46 19 305 0 0.16044642 0.00355770 4 
47 157 305 0 0.58687353 0.00359383 4 
48 163 305 0 7.56485476 0.00483433 6 
49 166 305 0 0.37495035 0.00359474 4 
50 172 305 0 0.01886255 0.00359338 4 
51 19 315 0 0.48455906 0.00309252 3 
52 25 315 0 0.02281386 0.00310453 3 
53 172 315 0 0.05679715 0.00391591 4 
54 172 328 0 0.12482725 0.00323986 3 
55 19 337 0 6.63404991 0.00465011 5 
56 25 337 0 0.96522419 0.00398839 4 
57 172 337 0 0.57611560 0.00332453 3 
58 19 342 0 0.00494520 0.00338003 3 
59 25 342 0 0.12855172 0.00405830 4 
60 172 342 0 0.01223902 0.00410845 4 
61 178 342 0 0.12442988 0.00416738 4 
62 107 362 2 1201.26342390 0.00000316 1 
63 25 367 0 0.11414782 0.00377614 3 
64 32 367 0 0.01267433 0.00594773 6 
65 178 367 0 0.00286807 0.00376116 3 
66 183 367 0 0.06698524 0.00376219 3 
67 25 374 0 0.56424690 0.00458883 4 
68 32 374 0 0.09892849 0.00533565 5 
69 178 374 0 0.03055075 0.00459674 4 
70 183 374 0 0.05309447 0.00456415 4 
71 32 382 0 4.14688582 0.00391877 3 
72 183 382 0 1.28811506 0.00465414 4 
73 4 385 2 400.12776713 0.00000333 1 
74 32 387 0 2.72468715 0.00472734 4 
75 183 387 0 0.18197642 0.00471164 4 
76 189 414 0 7.69047346 0.00588050 5 
77 44 437 0 0.00915802 0.00437388 3 
78 195 437 0 0.01161094 0.00436510 3 
79 44 454 0 0.65644164 0.00452234 3 
80 189 454 0 0.03962740 0.00545996 4 
81 187 454 2 1366.86160659 0.00000227 4 
82 44 467 0 0.12345281 0.00640388 5 
83 50 467 0 0.00895575 0.01019018 9 
84 195 467 0 0.00230988 0.00462343 3 
85 195 484 0 0.09447226 0.00575034 4 
86 263 493 2 2100.44696973 0.00000313 1 
87 44 494 0 0.02880924 0.00575700 4 
88 50 494 0 0.00628832 0.00480938 3 
89 195 494 0 0.00818961 0.00681130 5 
90 201 494 0 0.00469852 0.00682091 5 
91 50 500 0 0.14406209 0.00694406 5 
92 201 500 0 0.05353930 0.00490325 3 
93 203 500 0 0.03252445 0.00487468 3 
94 61 508 0 0.99413579 0.00712345 5 
95 203 508 0 0.26947301 0.01220026 10 
96 209 508 0 0.03711473 0.00603765 4 
97 90 520 2 719.89782921 0.00000315 1 
98 61 522 0 1.37942234 0.00613809 4 
99 203 522 0 0.12859200 0.00513003 3 
100 209 522 0 0.00542469 0.00509608 3 
101 61 528 0 0.47936102 0.00515552 3 
102 67 528 0 0.22419307 0.00628290 4 
103 81 528 0 0.23233822 0.00841092 6 
104 209 528 0 0.09444678 0.01059345 8 
105 220 528 0 0.13668760 0.00622110 4 
106 67 532 0 0.05459173 0.01178176 9 
107 81 532 0 0.11826401 0.00845770 6 
108 220 532 0 0.05648169 0.00633743 4 
109 67 556 0 0.98233216 0.00650759 4 
110 67 564 0 0.40168838 0.01234566 9 
111 81 564 0 0.02280941 0.00666037 4 
112 220 564 0 0.02684857 0.00663248 4 
113 67 567 0 2.67253169 0.00779199 5 
114 81 567 0 0.48923871 0.00899801 6 
115 220 567 0 0.21723258 0.00663838 4 
116 67 570 0 2.40706627 0.00907833 6 
117 81 570 0 0.15671702 0.00900700 6 
118 220 570 0 0.13379867 0.00673085 4 
119 81 575 0 2.76594993 0.00791235 5 
120 220 575 0 1.08612706 0.01035168 7 
121 157 584 2 1537.99751823 0.00000303 1 
122 81 588 0 0.01497138 0.00566267 3 
123 87 588 0 0.47937722 0.00816102 5 
124 226 588 0 0.43156268 0.00690186 4 
125 87 597 0 2.27648751 0.00954330 6 
126 94 597 0 0.38888315 0.00698992 4 
127 226 597 0 0.55079633 0.00829438 5 
128 87 604 0 0.47149562 0.00709615 4 
129 94 604 0 0.01542269 0.00944793 5 
130 588 604 2 6332.50669344 0.00000337 5 
131 94 616 0 0.01350372 0.01246532 8 
132 393 625 2 849.15675087 0.00000352 1 
133 94 632 0 2.16969694 0.00877752 5 
134 94 637 0 4.44236402 0.01004869 6 
135 101 637 0 0.19098383 0.00752999 4 
136 263 640 2 442.61769110 0.00000375 1 
137 101 642 0 0.11555601 0.00888225 5 
138 107 642 0 0.04025021 0.01405833 9 
139 101 645 0 6.69527511 0.00763271 4 
140 107 645 0 1.54205090 0.00750838 4 
141 101 657 0 0.73548669 0.01668717 10 
142 363 660 2 1665.59632630 0.00000381 10 
143 70 660 2 416.07958921 0.00000133 10 
144 101 663 0 0.04971914 0.01668471 10 
145 107 663 0 0.01781179 0.00911463 5 
146 114 663 0 0.00275957 0.00914534 5 
147 101 665 0 1.55112265 0.01342643 8 
148 107 665 0 0.47667103 0.00778469 4 
149 114 665 0 0.13329170 0.00650198 3 
150 259 677 2 90.66082600 0.00000288 1 
151 107 680 0 1.48615866 0.00936075 5 
152 107 683 0 0.94462224 0.00802796 4 
153 114 683 0 0.32178225 0.00953301 5 
154 156 697 2 1856.43695003 0.00000347 1 
155 107 704 0 0.34268109 0.01260626 7 
156 114 704 0 0.07528002 0.01555872 9 
157 107 714 0 1.79639085 0.01133668 6 
158 114 714 0 0.02860377 0.01438406 8 
159 718 722 2 4948.13880033 0.00000383 1 
160 75 722 2 746.43571289 0.00000190 1 
161 107 730 0 0.19656714 0.01016636 5 
162 114 730 0 0.03540690 0.00857339 4 
163 121 754 0 0.33113739 0.00881779 4 
164 126 754 0 0.07673382 0.01513336 8 
165 121 759 0 2.33625684 0.01200190 6 
166 126 759 0 0.22329988 0.01212512 6 
167 126 762 0 7.08482229 0.01039461 5 
168 132 762 0 2.00372045 0.01534303 8 
169 418 775 2 443.88266762 0.00000402 1 
170 132 778 0 0.06999780 0.00904865 4 
171 147 781 2 1601.18783087 0.00000442 1 
172 132 792 0 1.26802734 0.00934947 4 
173 482 795 2 691.18647230 0.00000383 1 
174 132 800 0 3.35686460 0.00922013 4 
175 138 800 0 0.14494330 0.01255893 6 
176 138 806 0 0.25140739 0.00755638 3 
177 166 809 2 4893.57273691 0.00000372 1 
178 138 821 0 0.40674396 0.01111225 5 
179 138 823 0 6.54725682 0.00938427 4 
180 748 825 2 267.30392644 0.00000310 1 
181 151 828 0 3.12108818 0.00950337 4 
182 643 843 2 376.97032394 0.00000390 1 
183 151 847 0 0.08724621 0.01147937 5 
184 151 855 0 0.11494457 0.01515659 7 
185 751 860 2 800.55634755 0.00000395 1 
186 395 870 2 1504.57883510 0.00000444 1 
187 151 895 0 2.80701437 0.01761491 8 
188 151 897 0 0.06118057 0.02136190 10 
189 138 903 0 0.08157811 0.01024398 4 
190 138 904 0 7.06392298 0.01400873 6 
191 256 904 2 2306.68405795 0.00000434 6 
192 400 905 2 2081.47285871 0.00000345 1 
193 132 907 0 0.71874717 0.01031516 4 
194 138 907 0 0.22077132 0.01221415 5 
195 132 911 0 0.23128175 0.01222701 5 
196 564 911 2 1798.57140964 0.00000414 5 
197 121 923 0 0.62636126 0.01440498 6 
198 126 923 0 0.07130653 0.01049075 4 
199 107 929 0 0.07225325 0.01253840 5 
200 114 929 0 0.00477553 0.01059856 4 
201 107 935 0 4.91438615 0.01652535 7 
202 114 935 0 1.40337639 0.01655551 7 
203 101 939 0 0.48567419 0.01072582 4 
204 107 939 0 0.21174614 0.01079260 4 
205 175 943 2 4765.08335832 0.00000402 1 
206 101 944 0 0.15377935 0.01275289 5 
207 94 947 0 0.23772432 0.01675640 7 
208 101 947 0 0.16826262 0.01481300 6 
209 855 948 2 5368.49133291 0.00000427 1 
210 87 953 0 0.13504795 0.01091358 4 
211 94 953 0 0.06505521 0.01494472 6 
212 226 953 0 0.08268323 0.02295518 10 
213 81 959 0 1.83528326 0.02435129 10 
214 87 959 0 1.29172246 0.01712156 7 
215 220 959 0 0.04883629 0.01107281 4 
216 226 959 0 0.12130941 0.01307202 5 
217 915 962 2 135.33192362 0.00000358 1 
218 67 965 0 1.01368609 0.01315721 5 
219 81 965 0 0.31066014 0.01520985 6 
220 220 965 0 0.16483276 0.01930761 8 
221 61 976 0 0.16803746 0.01744376 7 
222 67 976 0 0.05676300 0.00919800 3 
223 209 976 0 0.00780965 0.01126969 4 
224 428 981 2 1321.28036379 0.00000530 1 
225 144 981 2 2001.20289967 0.00000117 1 
226 50 982 0 0.38354811 0.01135118 4 
227 61 982 0 0.27147698 0.01136717 4 
228 201 982 0 0.22200943 0.01138922 4 
229 203 982 0 0.10573284 0.02187220 9 
230 441 985 2 1254.45454745 0.00000432 1 
231 44 988 0 0.09550719 0.01148045 4 
232 50 988 0 0.05924873 0.01151290 4 
233 195 988 0 0.04319526 0.01573461 6 
234 201 988 0 0.02685916 0.01361623 5 
235 44 994 0 0.51683435 0.01788047 7 
236 189 994 0 0.29989154 0.02570582 10 
237 195 994 0 0.21957432 0.01372323 5 
238 32 1003 0 0.23901034 0.01385960 5 
239 178 1003 0 0.03356851 0.02601713 10 
240 183 1003 0 0.01433170 0.01608048 6 
241 25 1008 0 1.23858172 0.01835825 7 
242 32 1008 0 0.53803958 0.01181181 4 
243 178 1008 0 0.34459610 0.01182008 4 
244 183 1008 0 0.22233868 0.01185253 4 
245 25 1010 0 0.60236133 0.01182139 4 
246 32 1010 0 0.30591807 0.01403965 5 
247 172 1010 0 0.10368354 0.01630393 6 
248 178 1010 0 0.19279072 0.02640543 10 
249 19 1016 0 0.44047719 0.02053966 8 
250 166 1016 0 0.20189646 0.01188566 4 
251 172 1016 0 0.07393216 0.01405353 5 
252 151 1029 0 0.03533130 0.01440421 5 
253 157 1029 0 0.02672450 0.01209625 4 
254 163 1029 0 3.39703566 0.01212521 4 
255 166 1029 0 0.49353449 0.01207581 4 
256 318 1039 2 1016.28644968 0.00000582 1 
257 749 1050 2 435.40056495 0.00000532 1 
258 667 1066 2 139.40658631 0.00000610 1 
259 355 1067 2 377.76688223 0.00000567 1 
260 33 1083 2 194.18565374 0.00000523 1 
261 132 1084 0 4.21993706 0.01509083 5 
262 533 1088 2 1898.91561972 0.00000544 1 
263 222 1089 2 1640.08317711 0.00000530 1 
264 101 1138 0 0.63021658 0.01583094 5 
265 107 1147 0 0.73708347 0.01333716 4 
266 114 1147 0 0.03971358 0.01096234 3 
267 107 1150 0 7.45683387 0.01340269 4 
268 114 1150 0 1.00561260 0.01095433 3 
269 399 1152 2 2533.50902765 0.00000576 1 
270 251 1154 2 145.03854937 0.00000512 1 
271 646 1154 2 2269.29077094 0.00000318 1 
272 114 1158 0 0.16899687 0.01099803 3 
273 121 1158 0 0.69099743 0.01368039 4 
274 121 1164 0 0.45182924 0.01609752 5 
275 126 1164 0 0.04418665 0.01360998 4 
276 877 1167 2 1362.46776388 0.00000613 1 
277 527 1167 2 1740.75222213 0.00000248 1 
278 84 1174 2 2340.65374828 0.00000602 1 
279 130 1174 2 1364.33753427 0.00000229 1 
280 114 1175 0 0.14266969 0.01386909 4 
281 121 1175 0 0.27324351 0.01378359 4 
282 923 1175 0 0.18719011 0.01379882 4 
283 929 1175 0 0.16073549 0.01373757 4 
284 1158 1175 0 0.00134797 0.01123605 3 
285 1030 1187 2 612.05054125 0.00000572 1 
286 101 1188 0 0.32950319 0.01389140 4 
287 939 1188 0 0.55418798 0.01392067 4 
288 1138 1188 0 0.03006025 0.01143747 3 
289 1147 1188 0 0.04063922 0.01136153 3 
290 1150 1188 0 1.83245351 0.01395843 4 
291 1050 1210 0 0.00345523 0.01428932 4 
292 1061 1210 0 0.57363906 0.01675842 5 
293 1075 1210 0 0.23107861 0.01677348 5 
294 1084 1210 0 3.13555510 0.01680390 5 
295 1088 1210 0 0.59156319 0.01418464 4 
296 1093 1210 0 0.13111230 0.01942161 6 
297 1098 1210 0 0.04730346 0.01431549 4 
298 157 1217 0 0.32750279 0.01431712 4 
299 163 1217 0 0.19904338 0.01446489 4 
300 1029 1217 0 0.01250493 0.01175297 3 
301 1044 1217 0 3.98258990 0.01449558 4 
302 1050 1217 0 4.97161000 0.01712377 5 
303 54 1225 2 252.90056539 0.00000543 1 
304 163 297 0 0.27920255 0.01537804 4 
305 189 400 0 2.09679271 0.01463575 4 
306 1056 1217 0 9.66143264 0.01734288 5 
