1 35 126 0.00105956 5 
2 19 166 0.00294472 10 
3 1 166 0.00304577 10 
4 19 172 0.00149398 5 
5 25 172 0.00317963 10 
6 25 178 0.00327857 10 
7 32 178 0.00300526 9 
8 32 183 0.00266555 8 
9 44 189 0.00347847 10 
10 44 195 0.00360596 10 
11 50 195 0.00257716 7 
12 50 201 0.00256645 7 
13 50 203 0.00221036 6 
14 61 203 0.00297182 8 
15 61 209 0.00305922 8 
16 67 209 0.00344357 9 
17 67 220 0.00362151 9 
18 81 220 0.00403305 10 
19 81 226 0.00416647 10 
20 87 226 0.00426969 10 
21 87 231 0.00427200 10 
22 94 231 0.00437117 10 
23 226 231 0.00438038 10 
24 94 241 0.00445511 10 
25 101 241 0.00457000 10 
26 101 247 0.00456657 10 
27 107 247 0.00468356 10 
28 107 254 0.00480757 10 
29 114 254 0.00480249 10 
30 107 256 0.00488742 10 
31 114 256 0.00488171 10 
32 107 258 0.00493146 10 
33 114 258 0.00492949 10 
34 121 266 0.00497738 10 
35 126 266 0.00513381 10 
36 126 272 0.00511825 10 
37 132 272 0.00533546 10 
38 132 278 0.00532970 10 
39 138 278 0.00548738 10 
40 138 284 0.00545380 10 
41 151 284 0.00558042 10 
42 151 291 0.00558564 10 
43 151 297 0.00570560 10 
44 157 297 0.00584906 10 
45 163 297 0.00585489 10 
46 166 297 0.00588717 10 
47 19 305 0.00593455 10 
48 157 305 0.00608109 10 
49 163 305 0.00611823 10 
50 166 305 0.00610811 10 
51 172 305 0.00615639 10 
52 19 315 0.00618427 10 
53 25 315 0.00633091 10 
54 172 315 0.00636145 10 
55 172 328 0.00644769 10 
56 19 337 0.00664032 10 
57 25 337 0.00680873 10 
58 172 337 0.00681659 10 
59 19 342 0.00674894 10 
60 25 342 0.00691903 10 
61 172 342 0.00694273 10 
62 178 342 0.00738067 10 
63 107 362 0.00719534 10 
64 25 367 0.00728709 10 
65 32 367 0.00748627 10 
66 178 367 0.00749998 10 
67 183 367 0.00752637 10 
68 25 374 0.00747416 10 
69 32 374 0.00767176 10 
70 178 374 0.00768231 10 
71 183 374 0.00770937 10 
72 32 382 0.00762795 10 
73 183 382 0.00770855 10 
74 4 385 0.00799426 10 
75 32 387 0.00805265 10 
76 183 387 0.00720561 9 
77 189 400 0.00814920 10 
78 189 414 0.00843059 10 
79 44 437 0.00912561 10 
80 195 437 0.00905408 10 
81 44 454 0.00915095 10 
82 189 454 0.00938514 10 
83 187 454 0.00941613 10 
84 44 467 0.00942968 10 
85 50 467 0.00968293 10 
86 195 467 0.00866990 9 
87 195 484 0.00978191 10 
88 263 493 0.01000508 10 
89 44 494 0.01023988 10 
90 50 494 0.01028826 10 
91 195 494 0.01031854 10 
92 201 494 0.01031068 10 
93 50 500 0.01022492 10 
94 201 500 0.01047176 10 
95 203 500 0.01048859 10 
96 61 508 0.01041625 10 
97 203 508 0.01066121 10 
98 209 508 0.01071643 10 
99 90 520 0.01064573 10 
100 61 522 0.01071272 10 
101 203 522 0.01099731 10 
102 209 522 0.01105378 10 
103 61 528 0.01091810 10 
104 67 528 0.01117094 10 
105 81 528 0.01122647 10 
106 209 528 0.01118825 10 
107 220 528 0.01118798 10 
108 67 532 0.01129204 10 
109 81 532 0.01129441 10 
110 220 532 0.01133249 10 
111 67 556 0.01152946 10 
112 67 564 0.01169086 10 
113 81 564 0.01196430 10 
114 220 564 0.01195753 10 
115 67 567 0.01175671 10 
116 81 567 0.01203490 10 
117 220 567 0.01207972 10 
118 67 570 0.01186585 10 
119 81 570 0.01213446 10 
120 220 570 0.01214279 10 
121 81 575 0.01226981 10 
122 220 575 0.01225149 10 
123 157 584 0.01233888 10 
124 81 588 0.01244179 10 
125 87 588 0.01275173 10 
126 226 588 0.01270717 10 
127 87 597 0.01257292 10 
128 94 597 0.01299115 10 
129 226 597 0.01300163 10 
130 87 604 0.01284727 10 
131 94 604 0.01313827 10 
132 588 604 0.01316340 10 
133 94 616 0.01310176 10 
134 393 625 0.01349648 10 
135 94 632 0.01365655 10 
136 94 637 0.01374327 10 
137 101 637 0.01392126 10 
138 263 640 0.01379277 10 
139 101 642 0.01412308 10 
140 107 642 0.01418258 10 
141 101 645 0.01387735 10 
142 107 645 0.01418681 10 
143 101 657 0.01411784 10 
144 363 660 0.01429499 10 
145 70 660 0.01473359 10 
146 101 663 0.01448430 10 
147 107 663 0.01481381 10 
148 114 663 0.01491669 10 
149 101 665 0.01449464 10 
150 107 665 0.01483290 10 
151 114 665 0.01486686 10 
152 259 677 0.01479192 10 
153 107 680 0.01483394 10 
154 107 683 0.01490360 10 
155 114 683 0.01524326 10 
156 156 697 0.01533356 10 
157 107 704 0.01541159 10 
158 114 704 0.01576189 10 
159 107 714 0.01558340 10 
160 114 714 0.01594557 10 
161 718 722 0.00453048 3 
162 75 722 0.01587861 10 
163 107 730 0.01608462 10 
164 114 730 0.01650190 10 
165 121 754 0.01654830 10 
166 126 754 0.01692302 10 
167 121 759 0.01664742 10 
168 126 759 0.01704937 10 
169 126 762 0.01673965 10 
170 132 762 0.01726218 10 
171 418 775 0.01723999 10 
172 132 778 0.01857119 10 
173 147 781 0.01739286 10 
174 132 792 0.01764786 10 
175 482 795 0.01788925 10 
176 132 800 0.01799095 10 
177 138 800 0.01840942 10 
178 138 806 0.01815118 10 
179 166 809 0.01821764 10 
180 138 821 0.01843768 10 
181 138 823 0.01889773 10 
182 748 825 0.01902271 10 
183 151 828 0.01867504 10 
184 643 843 0.01912757 10 
185 151 847 0.01915663 10 
186 151 855 0.01932689 10 
187 751 860 0.01942179 10 
188 395 870 0.01977097 10 
189 151 895 0.02022595 10 
190 151 897 0.02075246 10 
191 138 903 0.02062287 10 
192 138 904 0.02107891 10 
193 256 904 0.02113618 10 
194 400 905 0.02136840 10 
195 132 907 0.02157399 10 
196 138 907 0.02151512 10 
197 132 911 0.02169162 10 
198 564 911 0.02173041 10 
199 121 923 0.02154168 10 
200 126 923 0.02209961 10 
201 107 929 0.02175802 10 
202 114 929 0.02225661 10 
203 107 935 0.02194998 10 
204 114 935 0.02239155 10 
205 101 939 0.02208534 10 
206 107 939 0.02256544 10 
207 175 943 0.02245224 10 
208 101 944 0.02298964 10 
209 94 947 0.02259596 10 
210 101 947 0.02300169 10 
211 855 948 0.02279791 10 
212 87 953 0.02258657 10 
213 94 953 0.02305088 10 
214 226 953 0.02323546 10 
215 81 959 0.02285651 10 
216 87 959 0.02335083 10 
217 220 959 0.02336159 10 
218 226 959 0.02336115 10 
219 915 962 0.02319220 10 
220 67 965 0.02321975 10 
221 81 965 0.02372049 10 
222 220 965 0.02364696 10 
223 61 976 0.02329401 10 
224 67 976 0.02378991 10 
225 209 976 0.02411187 10 
226 428 981 0.02366418 10 
227 144 981 0.02440855 10 
228 50 982 0.02463174 10 
229 61 982 0.02464842 10 
230 201 982 0.02483771 10 
231 203 982 0.02469006 10 
232 441 985 0.02431156 10 
233 44 988 0.02437078 10 
234 50 988 0.02492601 10 
235 195 988 0.02515162 10 
236 201 988 0.02236454 9 
237 44 994 0.02460223 10 
238 189 994 0.02516444 10 
239 195 994 0.02516946 10 
240 32 1003 0.02479341 10 
241 178 1003 0.02554878 10 
242 183 1003 0.02556095 10 
243 25 1008 0.02511936 10 
244 32 1008 0.02559317 10 
245 178 1008 0.02559990 10 
246 183 1008 0.02573264 10 
247 25 1010 0.02528807 10 
248 32 1010 0.02568988 10 
249 172 1010 0.02579622 10 
250 178 1010 0.02574576 10 
251 19 1016 0.02578338 10 
252 166 1016 0.02609811 10 
253 172 1016 0.02611645 10 
254 151 1029 0.02594062 10 
255 157 1029 0.02657255 10 
256 163 1029 0.02682278 10 
257 166 1029 0.02830902 10 
258 318 1039 0.02646564 10 
259 749 1050 0.02714234 10 
260 667 1066 0.02849377 10 
261 355 1067 0.02879440 10 
262 33 1083 0.02877514 10 
263 132 1084 0.02926831 10 
264 533 1088 0.02901421 10 
265 222 1089 0.02902869 10 
266 101 1138 0.02951037 10 
267 107 1147 0.02970593 10 
268 114 1147 0.03022341 10 
269 107 1150 0.02975078 10 
270 114 1150 0.03023896 10 
271 399 1152 0.02957953 10 
272 251 1154 0.02965876 10 
273 646 1154 0.03052500 10 
274 114 1158 0.03000612 10 
275 121 1158 0.03062170 10 
276 121 1164 0.03016578 10 
277 126 1164 0.03071567 10 
278 877 1167 0.03031099 10 
279 527 1167 0.03121879 10 
280 84 1174 0.03057988 10 
281 130 1174 0.03113252 10 
282 114 1175 0.03060912 10 
283 121 1175 0.03122866 10 
284 923 1175 0.03126899 10 
285 929 1175 0.03111572 10 
286 1158 1175 0.02193047 7 
287 1030 1187 0.03097761 10 
288 101 1188 0.03101026 10 
289 939 1188 0.03199636 10 
290 1138 1188 0.03209630 10 
291 1147 1188 0.03195462 10 
292 1150 1188 0.03196789 10 
293 1050 1210 0.03247596 10 
294 1061 1210 0.03236673 10 
295 1075 1210 0.03247444 10 
296 1084 1210 0.03247241 10 
297 1088 1210 0.03242795 10 
298 1093 1210 0.03269574 10 
299 1098 1210 0.03267225 10 
300 157 1217 0.03220510 10 
301 163 1217 0.03277421 10 
302 1029 1217 0.03213597 10 
303 1044 1217 0.03231344 10 
304 1050 1217 0.03293964 10 
305 1056 1217 0.03290905 10 
306 54 1225 0.03335511 10 
