VERTEX2 0 0.00011823 0.00000021 0.00000744
VERTEX2 1 0.00011823 0.00000021 -0.00063456
VERTEX2 2 0.00011822 0.00000020 -0.00117257
VERTEX2 3 0.01112010 -0.00097470 -0.00355458
VERTEX2 4 0.64112675 -0.01119517 -0.00743658
VERTEX2 5 0.69527926 -0.01170075 -0.09882483
VERTEX2 6 0.69693636 -0.01314901 -0.89638521
VERTEX2 7 0.68930284 0.01064392 -1.51215503
VERTEX2 8 0.69554600 0.03701649 -2.12592177
VERTEX2 9 0.71406519 0.05284621 -2.76423272
VERTEX2 10 0.72681875 0.05491097 2.90418683
VERTEX2 11 0.72850657 0.05383559 2.22965521
VERTEX2 12 0.72859972 0.04857857 1.58474115
VERTEX2 13 0.73614338 0.07262465 0.92986977
VERTEX2 14 0.78141497 0.10501120 0.32602847
VERTEX2 15 0.83093426 0.10906366 -0.19491246
VERTEX2 16 1.16639801 0.04597833 -0.21184305
VERTEX2 17 1.81031389 -0.09950599 -0.24127704
VERTEX2 18 2.47678986 -0.26008749 -0.24974621
VERTEX2 19 3.14750713 -0.45563792 -0.29650238
VERTEX2 20 3.74644781 -0.63222062 -0.29044954
VERTEX2 21 4.36011073 -0.77065846 -0.17871619
VERTEX2 22 4.97439562 -0.89794063 -0.16119875
VERTEX2 23 5.61668301 -0.92723170 -0.05362976
VERTEX2 24 6.25119211 -0.98366614 -0.11057067
VERTEX2 25 6.88895419 -1.03642544 -0.10770855
VERTEX2 26 7.50195432 -1.12282453 -0.14818434
VERTEX2 27 8.12167325 -1.19980077 -0.13229929
VERTEX2 28 8.70730535 -1.28488104 -0.13669311
VERTEX2 29 9.08942644 -1.33352255 -0.10586750
VERTEX2 30 9.09677113 -1.33528762 -0.63794284
VERTEX2 31 9.20071820 -1.46798283 -0.90626655
VERTEX2 32 9.58064140 -1.97336163 -0.92477483
VERTEX2 33 9.97977189 -2.47603788 -0.87368673
VERTEX2 34 10.40835061 -2.96170237 -0.85241138
VERTEX2 35 10.84717048 -3.43931671 -0.81794264
VERTEX2 36 11.29280321 -3.91790217 -0.82634548
VERTEX2 37 11.58784476 -4.23077719 -0.81850945
VERTEX2 38 11.59049444 -4.23415497 -1.13992004
VERTEX2 39 11.58990564 -4.23154253 -1.31066460
VERTEX2 40 11.75099555 -4.80473590 -1.29325556
VERTEX2 41 11.91840166 -5.40285939 -1.32510446
VERTEX2 42 12.05716826 -5.96499151 -1.34768949
VERTEX2 43 12.18079225 -6.55894263 -1.38777349
VERTEX2 44 12.28749763 -7.15241894 -1.42464936
VERTEX2 45 12.35933892 -7.76675105 -1.48027417
VERTEX2 46 12.40728430 -8.38385570 -1.49975722
VERTEX2 47 12.44435103 -9.00112582 -1.54152977
VERTEX2 48 12.45800777 -9.62352025 -1.54816233
VERTEX2 49 12.46775411 -10.25045969 -1.59910192
VERTEX2 50 12.43004583 -10.84663620 -1.64368884
VERTEX2 51 12.39122036 -11.44330104 -1.67287381
VERTEX2 52 12.31005654 -12.02793962 -1.74971773
VERTEX2 53 12.22531461 -12.58715587 -1.73746798
VERTEX2 54 12.12627246 -13.10105180 -1.79965546
VERTEX2 55 12.13221120 -13.06819273 -1.79447138
VERTEX2 56 12.13180161 -13.06999953 -1.78399102
VERTEX2 57 12.00441816 -13.69080932 -1.79546968
VERTEX2 58 11.87409862 -14.29995517 -1.74932059
VERTEX2 59 11.76107465 -14.90806819 -1.77296118
VERTEX2 60 11.64731483 -15.51253706 -1.75162882
VERTEX2 61 11.52774522 -16.11765576 -1.80240955
VERTEX2 62 11.39242276 -16.67965657 -1.76269374
VERTEX2 63 11.25534098 -17.24652526 -1.79830945
VERTEX2 64 11.13459413 -17.80742793 -1.73504319
VERTEX2 65 11.01416677 -18.36614521 -1.78657352
VERTEX2 66 10.87565124 -18.95490214 -1.79457231
VERTEX2 67 10.72547977 -19.54743581 -1.79310721
VERTEX2 68 10.62717236 -19.99692352 -1.80895093
VERTEX2 69 10.63025889 -19.98587696 -1.96397659
VERTEX2 70 10.63700185 -19.97214265 -2.63844561
VERTEX2 71 10.65878303 -19.97033934 3.00197277
VERTEX2 72 10.66979693 -19.97131324 2.99245115
VERTEX2 73 10.67549108 -19.97256900 2.92746397
VERTEX2 74 10.67390549 -19.97154204 2.30556443
VERTEX2 75 10.67885250 -19.97333612 1.95314702
VERTEX2 76 10.66857906 -19.96248296 2.64717597
VERTEX2 77 10.66667374 -19.96172531 2.88020271
VERTEX2 78 10.38784026 -19.97921032 -3.06576067
VERTEX2 79 9.77303072 -20.03307121 -3.07098745
VERTEX2 80 9.14246604 -20.04742663 3.13765364
VERTEX2 81 8.51474183 -20.03646192 3.11152113
VERTEX2 82 7.91414615 -20.01034212 3.05732076
VERTEX2 83 7.32425871 -19.97330031 3.03372456
VERTEX2 84 6.75953566 -19.90098977 2.95581484
VERTEX2 85 6.21407034 -19.81002918 2.96301605
VERTEX2 86 5.60181668 -19.70389251 2.87312917
VERTEX2 87 5.20302656 -19.60422675 2.82091717
VERTEX2 88 4.84013031 -19.47945650 2.79105924
VERTEX2 89 4.84941868 -19.47968839 -3.09645907
VERTEX2 90 4.24437960 -19.49722675 -3.12759777
VERTEX2 91 3.62830458 -19.50738099 -3.07853704
VERTEX2 92 3.02831270 -19.51730540 3.08894752
VERTEX2 93 2.40391712 -19.42912334 2.98808944
VERTEX2 94 1.77878476 -19.30500809 2.94532823
VERTEX2 95 1.15266239 -19.23140441 3.08785263
VERTEX2 96 0.53928210 -19.19429346 3.11187218
VERTEX2 97 -0.05415093 -19.14480351 3.04122917
VERTEX2 98 -0.64733564 -19.05709706 2.98323812
VERTEX2 99 -1.35761084 -18.94862000 3.03005125
VERTEX2 100 -1.92716340 -18.85330196 2.97834521
VERTEX2 101 -2.54152263 -18.81066698 3.08167606
VERTEX2 102 -3.15744142 -18.74456249 2.97573944
VERTEX2 103 -3.76971763 -18.64373600 3.07168972
VERTEX2 104 -4.38477668 -18.58163731 3.03803469
VERTEX2 105 -4.99969106 -18.53141578 3.08462615
VERTEX2 106 -5.60421560 -18.47502406 3.02980968
VERTEX2 107 -6.22524550 -18.39327035 3.02605195
VERTEX2 108 -6.68195125 -18.35511217 3.08762377
VERTEX2 109 -6.72861435 -18.34445434 2.63911957
VERTEX2 110 -6.74635548 -18.32693803 2.04777126
VERTEX2 111 -6.74843859 -18.24608309 1.54192143
VERTEX2 112 -6.73952938 -17.61176316 1.59633346
VERTEX2 113 -6.77248098 -16.98997725 1.64335179
VERTEX2 114 -6.81998370 -16.37697504 1.68012325
VERTEX2 115 -6.90847031 -15.73475605 1.74049769
VERTEX2 116 -7.04514023 -14.98357613 1.78473763
VERTEX2 117 -7.19587891 -14.37346686 1.88050631
VERTEX2 118 -7.20184930 -14.34971268 1.54626569
VERTEX2 119 -7.15922143 -13.83296235 1.49273837
VERTEX2 120 -7.12300763 -13.17846817 1.58272528
VERTEX2 121 -7.14888310 -12.56343202 1.65014997
VERTEX2 122 -7.19803488 -11.98235497 1.70639058
VERTEX2 123 -7.22764305 -11.80332720 1.69363338
VERTEX2 124 -7.14800664 -11.56297054 1.27072126
VERTEX2 125 -6.94749350 -10.96558199 1.25981303
VERTEX2 126 -6.83173822 -10.34692281 1.46640474
VERTEX2 127 -6.75190852 -9.70966672 1.46497709
VERTEX2 128 -6.69460408 -9.06849909 1.50154472
VERTEX2 129 -6.62642358 -8.43104917 1.46900962
VERTEX2 130 -6.57717223 -7.79571440 1.52177292
VERTEX2 131 -6.54963630 -7.16628157 1.61030074
VERTEX2 132 -6.54994809 -6.54653292 1.56069587
VERTEX2 133 -6.51934360 -5.97790636 1.52391154
VERTEX2 134 -6.48262509 -5.38018633 1.50572227
VERTEX2 135 -6.41730871 -4.80230330 1.47951987
VERTEX2 136 -6.36149597 -4.16754154 1.49915215
VERTEX2 137 -6.28325910 -3.53440727 1.45729714
VERTEX2 138 -6.22568378 -2.90254792 1.53743716
VERTEX2 139 -6.22740844 -2.27078972 1.60278567
VERTEX2 140 -6.27488390 -1.61546031 1.63334680
VERTEX2 141 -6.29956327 -0.97490083 1.58493512
VERTEX2 142 -6.31884561 -0.32451063 1.58111212
VERTEX2 143 -6.25635937 0.31688341 1.47054813
VERTEX2 144 -6.22738097 0.69013951 1.48806701
VERTEX2 145 -6.22229899 0.70716890 0.98961839
VERTEX2 146 -6.22085865 0.71581737 0.39633394
VERTEX2 147 -6.16620513 0.71362364 -0.09024236
VERTEX2 148 -5.73423953 0.66668268 -0.12592188
VERTEX2 149 -5.09246438 0.59233130 -0.10085015
VERTEX2 150 -4.45798573 0.54699200 -0.08672726
VERTEX2 151 -3.81839455 0.51888182 -0.00110739
VERTEX2 152 -3.19354408 0.50261160 -0.06198219
VERTEX2 153 -2.56905122 0.48895626 0.03144533
VERTEX2 154 -1.94847325 0.48695185 -0.03810143
VERTEX2 155 -1.32375238 0.47260575 -0.00467682
VERTEX2 156 -0.69715455 0.47742358 0.02605291
VERTEX2 157 -0.13407746 0.47693871 -0.03834121
VERTEX2 158 0.06061671 0.46901244 -0.01084669
VERTEX2 159 0.06608264 0.46744032 0.97648009
VERTEX2 160 0.07123528 0.47644486 2.01215766
VERTEX2 161 0.05042555 0.41689645 2.73323121
VERTEX2 162 0.07593451 0.42333351 -2.51415533
VERTEX2 163 0.07506585 0.41831323 -1.51707555
VERTEX2 164 -0.00455958 0.51250017 -0.45512718
VERTEX2 165 0.16827156 0.49950119 -0.04732922
VERTEX2 166 0.86531948 0.47307125 -0.04562014
VERTEX2 167 1.48274486 0.43751546 -0.07499488
VERTEX2 168 2.07160123 0.40229113 -0.06300936
VERTEX2 169 2.66806927 0.34493203 -0.09996171
VERTEX2 170 3.25572919 0.29057830 -0.12063243
VERTEX2 171 3.81922578 0.20552535 -0.15897011
VERTEX2 172 4.44662995 0.11282287 -0.14495301
VERTEX2 173 5.07886113 0.00683449 -0.16777667
VERTEX2 174 5.70717074 -0.09281505 -0.12763778
VERTEX2 175 6.32591417 -0.16852488 -0.15232367
VERTEX2 176 6.92859090 -0.27472400 -0.14269175
VERTEX2 177 7.55473406 -0.36282682 -0.17031234
VERTEX2 178 8.18006447 -0.49412185 -0.20928205
VERTEX2 179 8.58710503 -0.56868326 -0.15578272
VERTEX2 180 8.63959080 -0.58146223 -0.59751739
VERTEX2 181 9.08654186 -0.88846064 -0.64939236
VERTEX2 182 9.50080063 -1.23840764 -0.82351780
VERTEX2 183 9.85770169 -1.65123554 -0.88094143
VERTEX2 184 10.22107428 -2.17166287 -1.02585262
VERTEX2 185 10.52847000 -2.71614378 -1.11708596
VERTEX2 186 10.77031290 -3.29366190 -1.18229432
VERTEX2 187 10.98719870 -3.84950406 -1.20391359
VERTEX2 188 11.21178570 -4.42455998 -1.20841861
VERTEX2 189 11.42930790 -5.00363020 -1.23425403
VERTEX2 190 11.62961800 -5.60151646 -1.26322815
VERTEX2 191 11.81947293 -6.19906044 -1.28748019
VERTEX2 192 11.99013726 -6.79066639 -1.31599505
VERTEX2 193 12.12857913 -7.33467386 -1.37186417
VERTEX2 194 12.24389169 -7.90042914 -1.39875653
VERTEX2 195 12.33950074 -8.46209631 -1.42748654
VERTEX2 196 12.42302866 -9.08460963 -1.46837326
VERTEX2 197 12.47771026 -9.70408411 -1.49595453
VERTEX2 198 12.51954345 -10.32140014 -1.55422650
VERTEX2 199 12.50780621 -10.93002864 -1.61572868
VERTEX2 200 12.47685607 -11.53413483 -1.63767295
VERTEX2 201 12.42206096 -12.13560919 -1.69439357
VERTEX2 202 12.37168280 -12.64157595 -1.67434010
VERTEX2 203 12.28925290 -13.37736541 -1.72719131
VERTEX2 204 12.18300144 -13.95534820 -1.82925953
VERTEX2 205 12.02875088 -14.52061336 -1.83873799
VERTEX2 206 11.88922713 -15.07039735 -1.83685946
VERTEX2 207 11.74447919 -15.64003410 -1.82094001
VERTEX2 208 11.58691373 -16.24269104 -1.83039007
VERTEX2 209 11.44059072 -16.84644133 -1.79219323
VERTEX2 210 11.29322462 -17.44237216 -1.80110840
VERTEX2 211 11.15990245 -18.04168178 -1.79890138
VERTEX2 212 10.99873055 -18.63133060 -1.85181400
VERTEX2 213 10.81904481 -19.22516713 -1.87264738
VERTEX2 214 10.63415350 -19.80554388 -1.87650850
VERTEX2 215 10.52758668 -20.12996813 -1.91236024
VERTEX2 216 10.53927143 -20.10873427 -2.41115513
VERTEX2 217 10.56441289 -20.10539190 -2.95346901
VERTEX2 218 10.57294603 -20.10841883 -3.00955245
VERTEX2 219 10.00515973 -20.07865517 3.10505762
VERTEX2 220 9.39470289 -20.04986708 3.06513826
VERTEX2 221 8.75303487 -19.99939502 3.11555239
VERTEX2 222 8.12569038 -19.97240493 3.08995767
VERTEX2 223 7.49822577 -19.95872652 -3.09692633
VERTEX2 224 6.88350422 -19.97487853 -3.12272467
VERTEX2 225 6.26496114 -19.98477257 -3.07302374
VERTEX2 226 5.64732616 -19.99390109 -3.12210208
VERTEX2 227 5.00447777 -20.07925853 -2.96542632
VERTEX2 228 4.47996586 -20.07660881 2.95625513
VERTEX2 229 4.03061739 -20.04858753 3.07682992
VERTEX2 230 3.73914462 -20.03995954 3.04806649
VERTEX2 231 3.94360802 -20.05256545 3.11816230
VERTEX2 232 3.62903180 -19.92071339 2.69222231
VERTEX2 233 3.05731344 -19.67345105 2.79450480
VERTEX2 234 2.47459519 -19.46060093 2.75033203
VERTEX2 235 2.22129696 -19.35865710 2.74533575
VERTEX2 236 1.88627090 -19.36815494 -3.13244035
VERTEX2 237 1.25822591 -19.39859216 -3.06205609
VERTEX2 238 0.63886611 -19.46238533 -3.09479473
VERTEX2 239 0.02181084 -19.47463097 3.12076823
VERTEX2 240 -0.55187319 -19.37049812 2.90269538
VERTEX2 241 -1.09592330 -19.25214740 2.98813738
VERTEX2 242 -1.67356932 -19.20043690 3.02758203
VERTEX2 243 -2.27826852 -19.13110984 3.02685908
VERTEX2 244 -2.90500106 -19.10011077 3.09819642
VERTEX2 245 -3.52246326 -19.06580354 3.04402424
VERTEX2 246 -4.12863691 -18.99371907 2.97169196
VERTEX2 247 -4.73606118 -18.92553729 3.07769160
VERTEX2 248 -5.29147656 -18.91744656 3.10908992
VERTEX2 249 -5.24333041 -18.92349653 -2.98117195
VERTEX2 250 -5.24061733 -18.92332077 2.71510510
VERTEX2 251 -5.57203283 -18.59038142 2.29177609
VERTEX2 252 -5.93883594 -18.17846365 2.30032076
VERTEX2 253 -6.32243435 -17.74126972 2.28936278
VERTEX2 254 -6.69984798 -17.29165345 2.24820336
VERTEX2 255 -6.77535822 -17.20053152 2.33207863
VERTEX2 256 -6.78025369 -17.12342125 1.85610788
VERTEX2 257 -6.84349972 -16.66441391 1.72069210
VERTEX2 258 -6.94180803 -16.07697724 1.80116826
VERTEX2 259 -7.10137098 -15.47351014 1.84196627
VERTEX2 260 -7.25016081 -14.91408728 1.83376099
VERTEX2 261 -7.24882174 -14.87604454 1.52263426
VERTEX2 262 -7.20263712 -14.22271688 1.52948052
VERTEX2 263 -7.17663165 -13.60312906 1.54310448
VERTEX2 264 -7.17763449 -12.99722268 1.64032623
VERTEX2 265 -7.22538259 -12.39279094 1.66061141
VERTEX2 266 -7.19279192 -11.81284783 1.53156636
VERTEX2 267 -7.16076907 -11.05771557 1.50231162
VERTEX2 268 -7.04454038 -10.45158536 1.39229982
VERTEX2 269 -6.94101893 -9.83509675 1.42225772
VERTEX2 270 -6.88548472 -9.20917345 1.53634741
VERTEX2 271 -6.80678801 -8.58209014 1.42573299
VERTEX2 272 -6.73776440 -7.95064379 1.49078469
VERTEX2 273 -6.76426148 -7.31595887 1.70304076
VERTEX2 274 -6.84887244 -6.69647814 1.72713264
VERTEX2 275 -6.85282011 -6.08416320 1.55584343
VERTEX2 276 -6.86218691 -5.47906314 1.67030794
VERTEX2 277 -6.92392909 -4.91713338 1.64469191
VERTEX2 278 -6.89777085 -4.27896060 1.55589965
VERTEX2 279 -6.87464580 -3.63949768 1.50064573
VERTEX2 280 -6.82304175 -3.00487152 1.50279024
VERTEX2 281 -6.74910137 -2.36799419 1.40246232
VERTEX2 282 -6.64578982 -1.73702299 1.44243887
VERTEX2 283 -6.57562014 -1.10020266 1.43472717
VERTEX2 284 -6.48020459 -0.47338823 1.46202334
VERTEX2 285 -6.42998427 0.17912526 1.48311850
VERTEX2 286 -6.37955160 0.80386811 1.53673815
VERTEX2 287 -6.37800873 0.85679174 1.43236837
VERTEX2 288 -6.37393847 0.86454900 0.82391392
VERTEX2 289 -6.37094246 0.86612781 0.23062541
VERTEX2 290 -5.93124805 0.86868782 0.00564003
VERTEX2 291 -5.30928332 0.87681120 0.01946630
VERTEX2 292 -4.69309329 0.87260855 -0.03525858
VERTEX2 293 -4.06779732 0.84302993 -0.05840515
VERTEX2 294 -3.44592899 0.80627463 -0.05780910
VERTEX2 295 -2.82283198 0.74136462 -0.17041503
VERTEX2 296 -2.20347287 0.61194670 -0.21592635
VERTEX2 297 -1.58616661 0.47549498 -0.22773547
VERTEX2 298 -0.97216851 0.33584861 -0.22850717
VERTEX2 299 -0.39461915 0.19290241 -0.16745441
VERTEX2 300 0.19331117 0.12094068 -0.12539804
VERTEX2 301 0.75709543 0.03446033 -0.18470022
VERTEX2 302 1.05968363 -0.02338147 -0.20572752
VERTEX2 303 1.04131445 -0.02018789 -0.20171067
VERTEX2 304 1.54370121 -0.12421066 -0.19228686
VERTEX2 305 2.15913879 -0.15475045 -0.00861095
VERTEX2 306 2.78873736 -0.15128362 -0.02677544
VERTEX2 307 3.42898455 -0.18489016 -0.06358022
VERTEX2 308 4.05804540 -0.23387414 -0.11927714
VERTEX2 309 4.69435916 -0.28014854 -0.02647278
VERTEX2 310 5.32264084 -0.29618922 -0.06247044
VERTEX2 311 5.60431463 -0.31591125 0.11243949
VERTEX2 312 5.60117486 -0.31764758 1.10000449
VERTEX2 313 5.60068900 -0.09941399 1.59558217
VERTEX2 314 5.56650489 0.52795015 1.63531568
VERTEX2 315 5.52339626 1.15558893 1.63089796
VERTEX2 316 5.46855178 1.79962517 1.68207365
VERTEX2 317 5.39258142 2.43980892 1.69186902
VERTEX2 318 5.27927247 3.07449656 1.78623913
VERTEX2 319 5.19168988 3.41964047 1.85743018
VERTEX2 320 5.19363577 3.42617990 2.82544890
VERTEX2 321 5.18591781 3.42264467 -2.41854162
VERTEX2 322 5.18513749 3.42093038 -1.42281597
VERTEX2 323 5.19596486 3.41097076 -0.43087871
VERTEX2 324 5.20062531 3.40956888 0.22863845
VERTEX2 325 5.20220366 3.40973035 -0.29934096
VERTEX2 326 5.21791718 3.39847619 -0.89488724
VERTEX2 327 5.22163299 3.38275882 -1.51860717
VERTEX2 328 5.22027653 2.74485174 -1.56528525
VERTEX2 329 5.21301268 2.11797546 -1.62169181
VERTEX2 330 5.17314043 1.50173818 -1.64216205
VERTEX2 331 5.13229341 0.88418686 -1.65790504
VERTEX2 332 5.06692694 0.26914687 -1.67788687
VERTEX2 333 5.04875006 0.11434282 -1.61441219
VERTEX2 334 5.05802294 0.11634686 -0.82114382
VERTEX2 335 5.07518322 0.11169537 0.16987372
VERTEX2 336 5.08794051 0.11650666 1.11104472
VERTEX2 337 5.09217413 0.14742069 2.09004782
VERTEX2 338 5.08968518 0.14906029 3.07956677
VERTEX2 339 5.10162451 0.15686377 -2.15364762
VERTEX2 340 5.10185782 0.15536150 -1.13381569
VERTEX2 341 5.21724600 0.08932672 -0.50006951
VERTEX2 342 5.79777731 -0.20230084 -0.39796949
VERTEX2 343 6.38153105 -0.39045199 -0.26632166
VERTEX2 344 6.97561659 -0.56013271 -0.27569690
VERTEX2 345 7.21642796 -0.62495920 -0.30250089
VERTEX2 346 7.20350564 -0.62106214 -0.94803495
VERTEX2 347 7.20804500 -0.70983714 -1.50516119
VERTEX2 348 7.23995589 -1.30030393 -1.52122670
VERTEX2 349 7.25243433 -1.92012949 -1.56081148
VERTEX2 350 7.25803643 -2.70875242 -1.57981815
VERTEX2 351 7.25029373 -2.98318921 -1.60815675
VERTEX2 352 7.24863389 -2.99216209 -1.89495578
VERTEX2 353 7.23735621 -3.00669068 -2.55786591
VERTEX2 354 7.22404803 -3.01085627 3.12425839
VERTEX2 355 7.20423921 -3.01064135 2.40596151
VERTEX2 356 7.19837262 -3.00083822 1.83295207
VERTEX2 357 7.20060900 -2.98514383 1.18234632
VERTEX2 358 7.20165760 -2.98360293 0.56925020
VERTEX2 359 7.19038570 -2.98876303 -0.04241880
VERTEX2 360 7.17615443 -2.98630646 -0.21746959
VERTEX2 361 7.16844600 -2.98852703 0.70525132
VERTEX2 362 7.24781919 -2.75538653 1.24107049
VERTEX2 363 7.34393149 -2.48457120 1.23546357
VERTEX2 364 7.26638098 -2.15017912 1.85224138
VERTEX2 365 7.20376975 -1.86244466 1.35695760
VERTEX2 366 7.30958416 -1.73654105 0.80480552
VERTEX2 367 7.74479862 -1.29028642 0.80765598
VERTEX2 368 8.19070216 -0.84241547 0.75969916
VERTEX2 369 8.21041710 -0.81738261 0.50784280
VERTEX2 370 8.23423084 -0.81298074 -0.07899740
VERTEX2 371 8.23930880 -0.81546749 -0.62453338
VERTEX2 372 8.67540543 -1.15287053 -0.65222601
VERTEX2 373 9.15812935 -1.50729807 -0.64996224
VERTEX2 374 9.64819781 -1.89971675 -0.71078950
VERTEX2 375 10.01746103 -2.21218102 -0.74143887
VERTEX2 376 10.03160565 -2.22034743 -0.04811063
VERTEX2 377 10.08157282 -2.18283756 0.64573301
VERTEX2 378 10.60678731 -1.77086357 0.69889283
VERTEX2 379 11.07511929 -1.32788806 0.78263663
VERTEX2 380 11.50252366 -0.84971435 0.90087189
VERTEX2 381 11.64332057 -0.66634901 1.04918634
VERTEX2 382 11.64433526 -0.66436811 2.09381652
VERTEX2 383 11.64135998 -0.66264952 3.08033123
VERTEX2 384 11.63841127 -0.66559415 -2.23946074
VERTEX2 385 11.63327493 -0.67474905 -1.20973094
VERTEX2 386 11.74051660 -0.80715710 -0.98491472
VERTEX2 387 12.20594999 -1.21731296 -0.65329258
VERTEX2 388 12.67887796 -1.56391539 -0.64658923
VERTEX2 389 13.12707543 -1.93073464 -0.73152349
VERTEX2 390 13.14091621 -1.94240269 -0.26186536
VERTEX2 391 12.95497940 -1.93878016 0.11337333
VERTEX2 392 12.89902309 -1.94071850 1.14186617
VERTEX2 393 12.89843029 -1.88366317 2.37698904
VERTEX2 394 12.83457424 -1.85887599 -2.92598680
VERTEX2 395 13.02169450 -1.75532493 -2.59361029
VERTEX2 396 12.99724167 -1.76884673 -2.59625353
VERTEX2 397 12.96030925 -1.77798056 -2.60984998
VERTEX2 398 12.94522663 -1.79105300 -2.41633657
VERTEX2 399 12.87312855 -1.89749600 -2.12216366
VERTEX2 400 12.52973429 -2.45774775 -2.07476941
VERTEX2 401 12.19634479 -3.00467371 -2.16904915
VERTEX2 402 11.72921637 -3.46856327 -2.43847701
VERTEX2 403 11.22418155 -3.88649518 -2.47397601
VERTEX2 404 10.72721498 -4.25356713 -2.55448338
VERTEX2 405 10.71039480 -4.26912645 -2.02360962
VERTEX2 406 10.70541733 -4.23075663 -1.05043752
VERTEX2 407 10.88927205 -4.48097599 -0.92409072
VERTEX2 408 11.22369295 -4.93606661 -0.96348990
VERTEX2 409 11.35901009 -5.14348797 -1.06466306
VERTEX2 410 11.35028753 -5.11049560 -1.69599770
VERTEX2 411 11.51216770 -4.66986554 -2.54496935
VERTEX2 412 10.96926474 -4.90566844 -2.74990838
VERTEX2 413 10.34081195 -5.13936850 -2.83097377
VERTEX2 414 9.70562294 -5.36178859 -2.72869344
VERTEX2 415 9.10584468 -5.61637447 -2.72118410
VERTEX2 416 8.82146416 -5.75258037 -2.77584144
VERTEX2 417 8.52751309 -5.74498703 3.08389309
VERTEX2 418 8.08649063 -5.71444740 3.03925802
VERTEX2 419 8.08773858 -5.71413034 -2.81192591
VERTEX2 420 8.13877462 -5.68966579 -2.59503248
VERTEX2 421 8.14002398 -5.68757468 -1.62540520
VERTEX2 422 8.13549050 -5.69433550 -0.38362720
VERTEX2 423 8.13699354 -5.69443765 -0.03710674
VERTEX2 424 8.13304702 -5.69463136 -0.03606321
VERTEX2 425 8.12329354 -5.70051558 -0.02364584
VERTEX2 426 8.11918617 -5.70075711 -0.03208519
VERTEX2 427 8.14764142 -5.70141374 -0.02828854
VERTEX2 428 8.80598066 -5.70351710 -0.03313800
VERTEX2 429 9.44760328 -5.73386619 -0.07325950
VERTEX2 430 9.78640128 -5.76415021 -0.11869717
VERTEX2 431 9.76010367 -5.76178612 -0.06611703
VERTEX2 432 9.76931942 -5.76473223 -0.69655318
VERTEX2 433 9.77438082 -5.77126135 -1.37250246
VERTEX2 434 9.75369767 -6.31086563 -1.59995646
VERTEX2 435 9.74058837 -6.95411243 -1.62773331
VERTEX2 436 9.68176255 -7.59599108 -1.63599644
VERTEX2 437 9.64896494 -8.24692238 -1.62752234
VERTEX2 438 9.61135485 -8.71966167 -1.65721250
VERTEX2 439 9.60964000 -8.72698762 -2.09142466
VERTEX2 440 9.62220684 -8.71641102 -2.73218424
VERTEX2 441 9.65184904 -8.71245811 2.93129532
VERTEX2 442 9.67243469 -8.72273722 2.30425883
VERTEX2 443 9.67310933 -8.73001580 1.73952108
VERTEX2 444 9.67524831 -8.71636749 1.15021253
VERTEX2 445 9.68496592 -8.70636699 0.49447609
VERTEX2 446 9.69114641 -8.70228433 0.69711972
VERTEX2 447 9.70284466 -8.67753039 1.33089187
VERTEX2 448 9.83135464 -8.05242022 1.34883892
VERTEX2 449 9.94212237 -7.41382522 1.45073295
VERTEX2 450 10.01386948 -6.77675768 1.46490347
VERTEX2 451 10.04936118 -6.30094355 1.50684516
VERTEX2 452 10.04966401 -6.29546490 1.12753780
VERTEX2 453 10.04330671 -6.30792096 0.50356413
VERTEX2 454 10.27566672 -6.28274618 0.08017856
VERTEX2 455 10.87120485 -6.24028973 0.05951356
VERTEX2 456 11.50085927 -6.21679530 -0.00518405
VERTEX2 457 11.85323193 -6.22858224 -0.09301439
VERTEX2 458 11.84694708 -6.22569083 -0.73916049
VERTEX2 459 11.83728393 -6.19099290 -1.34760961
VERTEX2 460 11.82830752 -6.59006922 -1.60475155
VERTEX2 461 11.77756999 -7.20858883 -1.69278493
VERTEX2 462 11.70489412 -7.72074868 -1.73287095
VERTEX2 463 11.71509182 -7.69926023 -0.89285693
VERTEX2 464 11.97068603 -7.76402821 -0.21495303
VERTEX2 465 12.55619155 -7.87995153 -0.20727265
VERTEX2 466 13.11201168 -8.01498273 -0.26298063
VERTEX2 467 13.68609957 -8.18010130 -0.30650535
VERTEX2 468 14.30699340 -8.38111088 -0.34180546
VERTEX2 469 14.90598661 -8.62995848 -0.42448089
VERTEX2 470 15.36617181 -8.83266245 -0.40534980
VERTEX2 471 15.37490449 -8.83707803 -0.60479272
VERTEX2 472 15.39286373 -8.86068287 -1.23660710
VERTEX2 473 15.39455788 -8.86794320 -1.87633900
VERTEX2 474 15.39303795 -8.86996402 -2.50682666
VERTEX2 475 15.39539118 -8.86957432 -3.08046406
VERTEX2 476 15.39779468 -8.86983193 2.55166822
VERTEX2 477 15.40251075 -8.87845056 1.99227959
VERTEX2 478 15.40354658 -8.88833747 1.36537278
VERTEX2 479 15.40258967 -8.89071007 0.91118910
VERTEX2 480 15.40285507 -8.89006259 1.47334779
VERTEX2 481 15.39879908 -8.87453227 2.47558872
VERTEX2 482 15.40322884 -8.87616841 2.81178257
VERTEX2 483 15.40988478 -8.87837061 2.80642249
VERTEX2 484 14.97960031 -8.73196503 2.84196609
VERTEX2 485 14.37597238 -8.55963752 2.83966639
VERTEX2 486 13.76900505 -8.36338864 2.84920986
VERTEX2 487 13.15429226 -8.20061711 2.87750329
VERTEX2 488 12.53723577 -8.03603751 2.91364039
VERTEX2 489 12.06418880 -7.94133348 2.94408531
VERTEX2 490 12.06879948 -7.94075794 -2.85394280
VERTEX2 491 12.07594921 -7.93076704 -1.91773543
VERTEX2 492 12.06558793 -8.16091142 -1.61466230
VERTEX2 493 12.02052541 -8.76631125 -1.66969253
VERTEX2 494 11.95028210 -9.37971631 -1.73059030
VERTEX2 495 11.89797844 -10.00962231 -1.62349383
VERTEX2 496 11.87122268 -10.64000570 -1.50582875
VERTEX2 497 11.88128783 -11.25408728 -1.59189945
VERTEX2 498 11.83013708 -11.87350427 -1.69373156
VERTEX2 499 11.71747160 -12.49974037 -1.71076906
VERTEX2 500 11.79047591 -13.06099006 -1.38188644
VERTEX2 501 11.88089677 -13.63676659 -1.45402153
VERTEX2 502 11.92401232 -14.32999957 -1.53854633
VERTEX2 503 11.93184323 -14.77556742 -1.55554990
VERTEX2 504 11.93702594 -14.75956263 -0.69936035
VERTEX2 505 12.17489221 -14.78021680 -0.07771243
VERTEX2 506 12.76829933 -14.84600480 -0.23030645
VERTEX2 507 13.35312221 -15.00011557 -0.30889306
VERTEX2 508 13.92694530 -15.19618706 -0.32219169
VERTEX2 509 14.55172307 -15.41268514 -0.37813499
VERTEX2 510 14.91129675 -15.56180586 -0.39207150
VERTEX2 511 14.90883114 -15.54277771 0.48309021
VERTEX2 512 14.93021097 -15.49449644 1.68000345
VERTEX2 513 14.92811461 -15.48878723 2.63594302
VERTEX2 514 14.85994035 -15.47158926 2.86233717
VERTEX2 515 14.24484627 -15.30710540 2.86350731
VERTEX2 516 13.65505542 -15.12890262 2.87945675
VERTEX2 517 13.05820280 -14.99675302 2.90768868
VERTEX2 518 12.46163757 -14.86148162 2.93206220
VERTEX2 519 11.93621500 -14.75156043 2.91637407
VERTEX2 520 11.76706855 -14.71229140 -2.96836650
VERTEX2 521 11.78816780 -14.68776045 -1.96456758
VERTEX2 522 11.73322021 -15.08593435 -1.70023815
VERTEX2 523 11.65748424 -15.71250270 -1.70733969
VERTEX2 524 11.56811755 -16.29347475 -1.74895222
VERTEX2 525 11.47921371 -16.83377147 -1.72555445
VERTEX2 526 11.37864266 -17.40115062 -1.78457645
VERTEX2 527 11.24666665 -17.98008484 -1.81954980
VERTEX2 528 11.07977912 -18.54807588 -1.89565556
VERTEX2 529 10.88351048 -19.15395336 -1.92404495
VERTEX2 530 10.65202594 -19.75830277 -1.95420185
VERTEX2 531 10.39735461 -20.33914354 -2.03408505
VERTEX2 532 10.30437439 -20.52701293 -1.98352932
VERTEX2 533 10.30134156 -20.51402089 -0.98331670
VERTEX2 534 10.30207466 -20.51446302 -0.31633459
VERTEX2 535 10.30548204 -20.51468423 -0.31670966
VERTEX2 536 10.66405991 -20.58902270 -0.18600679
VERTEX2 537 11.27414662 -20.72118494 -0.24401505
VERTEX2 538 11.83812736 -20.87537663 -0.27114039
VERTEX2 539 12.45113233 -21.06809318 -0.33592008
VERTEX2 540 13.04412613 -21.30554185 -0.42882562
VERTEX2 541 13.63680381 -21.51780842 -0.26653637
VERTEX2 542 14.27101029 -21.64287145 -0.21084499
VERTEX2 543 14.39331269 -21.67011193 -0.24052084
VERTEX2 544 14.41430415 -21.66740603 0.39645958
VERTEX2 545 14.43659871 -21.62423866 1.46259968
VERTEX2 546 14.45532381 -21.66937399 2.28959075
VERTEX2 547 14.46343947 -21.66861533 -2.97198199
VERTEX2 548 14.47652589 -21.65972683 -2.04913897
VERTEX2 549 14.47784229 -21.64880711 -1.24257141
VERTEX2 550 14.47611772 -21.62834147 -1.72239389
VERTEX2 551 14.48395489 -21.61135717 -2.34879547
VERTEX2 552 14.50182245 -21.60186972 -2.98128362
VERTEX2 553 14.36360186 -21.55313835 2.72458812
VERTEX2 554 13.76459729 -21.28475323 2.68911518
VERTEX2 555 13.17861131 -21.02511807 2.77796989
VERTEX2 556 12.56914482 -20.82264650 2.91304991
VERTEX2 557 11.96468787 -20.66758922 2.87181736
VERTEX2 558 11.38469517 -20.52571006 2.95282327
VERTEX2 559 11.39219413 -20.52802411 2.54582818
VERTEX2 560 11.38474905 -20.52029177 2.04485459
VERTEX2 561 11.36083143 -20.49825623 2.55003780
VERTEX2 562 11.18249271 -20.50290627 -3.08963433
VERTEX2 563 10.61027577 -20.43934267 3.00170748
VERTEX2 564 10.00311295 -20.36365967 3.05045701
VERTEX2 565 9.41057524 -20.30770986 2.99285240
VERTEX2 566 9.47152447 -20.32495211 -2.50689014
VERTEX2 567 9.37768486 -20.33435685 -1.71303420
VERTEX2 568 9.33953186 -20.84397171 -1.64910441
VERTEX2 569 9.30283771 -21.42018887 -1.68822709
VERTEX2 570 9.24889704 -22.00211784 -1.68343423
VERTEX2 571 9.20563269 -22.35807774 -1.73073460
VERTEX2 572 9.17004226 -22.38553692 -1.97366394
VERTEX2 573 9.13685344 -22.46648920 -1.69704797
VERTEX2 574 9.15535094 -22.49103725 -0.75665378
VERTEX2 575 9.31591330 -22.53885141 0.16140953
VERTEX2 576 9.31477775 -22.53799024 1.18924816
VERTEX2 577 9.30754573 -22.52023558 2.16151368
VERTEX2 578 9.29715610 -22.48812645 1.79743001
VERTEX2 579 9.15576539 -21.83962041 1.81250733
VERTEX2 580 8.97770674 -21.20423499 1.88771343
VERTEX2 581 8.76736013 -20.58562939 1.93015314
VERTEX2 582 8.52975536 -19.97676871 1.97334915
VERTEX2 583 8.39169576 -19.67156480 2.05278391
VERTEX2 584 8.38564115 -19.66052826 2.89682763
VERTEX2 585 7.79761195 -19.53545017 3.01530922
VERTEX2 586 7.20071699 -19.47639018 3.11306166
VERTEX2 587 6.58042686 -19.48176816 3.13865660
VERTEX2 588 5.94879854 -19.47250295 -3.13987433
VERTEX2 589 5.41067019 -19.51138157 -3.06450294
VERTEX2 590 4.86216302 -19.56992846 -2.99575580
VERTEX2 591 4.32496599 -19.66305868 -2.99764260
VERTEX2 592 3.77862980 -19.75187446 -3.00036040
VERTEX2 593 3.60116053 -19.77891406 -2.79508369
VERTEX2 594 3.64193060 -19.73267438 -1.87589943
VERTEX2 595 3.54449448 -20.34218598 -1.64304003
VERTEX2 596 3.50808613 -20.96706150 -1.66615440
VERTEX2 597 3.43370849 -21.64365052 -1.70606303
VERTEX2 598 3.34631771 -22.24440723 -1.74820877
VERTEX2 599 3.26774604 -22.62376356 -1.81437633
VERTEX2 600 3.26835565 -22.63997719 -1.00778118
VERTEX2 601 3.30949609 -22.66388116 0.01043046
VERTEX2 602 3.34446307 -22.64874266 1.02451531
VERTEX2 603 3.30397695 -22.41483590 1.79718442
VERTEX2 604 3.22796122 -21.80414114 1.55310803
VERTEX2 605 3.22077978 -21.16028018 1.63582447
VERTEX2 606 3.16449611 -20.51840061 1.67804671
VERTEX2 607 3.16077396 -19.93225191 1.59720284
VERTEX2 608 3.13768800 -19.54611317 1.64175815
VERTEX2 609 3.13322574 -19.52343639 1.97821412
VERTEX2 610 3.12381755 -19.52030584 2.91117122
VERTEX2 611 2.52340152 -19.38506405 2.91427063
VERTEX2 612 2.04619150 -19.26235290 2.91721819
VERTEX2 613 2.08046415 -19.27185766 -2.90190416
VERTEX2 614 2.08677845 -19.26681721 -1.86337215
VERTEX2 615 2.11130595 -19.74975566 -1.55860208
VERTEX2 616 2.13335654 -20.36921883 -1.60961580
VERTEX2 617 2.01057925 -20.97469183 -1.82631405
VERTEX2 618 1.85671076 -21.58381595 -1.81586349
VERTEX2 619 1.71041691 -22.15825757 -1.81690788
VERTEX2 620 1.54182354 -22.73771757 -1.91261031
VERTEX2 621 1.66208016 -22.40120668 -1.96370603
VERTEX2 622 1.77865826 -22.13392672 -2.03827144
VERTEX2 623 1.77821955 -22.13455704 -2.57444676
VERTEX2 624 1.74809177 -22.13506954 3.06717817
VERTEX2 625 1.70522421 -22.11911547 2.40970658
VERTEX2 626 1.67556837 -22.08693926 1.79267971
VERTEX2 627 1.73773159 -21.71381890 1.38192198
VERTEX2 628 1.89926260 -21.08297120 1.28091617
VERTEX2 629 2.05384545 -20.45172165 1.35177100
VERTEX2 630 2.16299995 -19.84172465 1.43655289
VERTEX2 631 2.22099543 -19.31128876 1.45642201
VERTEX2 632 2.22315971 -19.29603679 2.13167757
VERTEX2 633 2.12528204 -19.29200738 -3.06637925
VERTEX2 634 1.46032327 -19.34573012 -3.03920195
VERTEX2 635 0.80866972 -19.37291038 3.10872999
VERTEX2 636 0.16701492 -19.36046387 3.09099128
VERTEX2 637 -0.46277223 -19.30185502 2.99154831
VERTEX2 638 -0.85744249 -19.23165216 2.96192199
VERTEX2 639 -1.47094248 -19.14398071 3.04219925
VERTEX2 640 -2.08882982 -19.05015857 2.97426257
VERTEX2 641 -2.69221465 -18.95425830 2.96590936
VERTEX2 642 -3.27219914 -18.83134400 2.92056791
VERTEX2 643 -3.75756869 -18.70694903 2.85309434
VERTEX2 644 -3.76202582 -18.70805951 -2.67335596
VERTEX2 645 -3.79472303 -18.84928906 -1.89526805
VERTEX2 646 -3.91586259 -19.45980553 -1.59954369
VERTEX2 647 -3.85608363 -20.09769804 -1.31032299
VERTEX2 648 -3.61820388 -20.71292463 -1.14372044
VERTEX2 649 -3.42831463 -21.30776542 -1.48142351
VERTEX2 650 -3.51235923 -21.93961230 -1.73887719
VERTEX2 651 -3.52608367 -22.08653381 -0.93967377
VERTEX2 652 -3.46145100 -22.11360247 0.08498770
VERTEX2 653 -3.41674833 -22.07132378 1.11514732
VERTEX2 654 -3.43325505 -21.77648175 1.62817800
VERTEX2 655 -3.45760829 -21.22498274 1.62311414
VERTEX2 656 -3.47195103 -20.62450157 1.61042491
VERTEX2 657 -3.59392609 -20.01735788 1.88696635
VERTEX2 658 -3.79975874 -19.40548487 1.87978309
VERTEX2 659 -3.92695252 -18.91516889 1.80860804
VERTEX2 660 -3.93043228 -18.89980833 2.40868423
VERTEX2 661 -4.10833559 -18.88471321 3.06208677
VERTEX2 662 -4.70210329 -18.84029846 3.13167674
VERTEX2 663 -5.29191055 -18.86947305 -3.05048663
VERTEX2 664 -5.30113389 -18.86733575 -2.52665104
VERTEX2 665 -5.31454817 -18.96914902 -1.69365498
VERTEX2 666 -5.37087728 -19.57715982 -1.65650548
VERTEX2 667 -5.41365322 -20.14267386 -1.65187543
VERTEX2 668 -5.46212656 -20.73579051 -1.62608532
VERTEX2 669 -5.49481228 -21.36027742 -1.65120826
VERTEX2 670 -5.57848567 -21.97823641 -1.71067794
VERTEX2 671 -5.61842210 -22.26992877 -1.65568783
VERTEX2 672 -5.53098339 -21.68494087 -1.74479281
VERTEX2 673 -5.47195015 -21.41858848 -1.87535812
VERTEX2 674 -5.46077326 -21.40618647 -2.52352883
VERTEX2 675 -5.43879831 -21.40096153 -3.13217244
VERTEX2 676 -5.43257779 -21.40439649 2.52765208
VERTEX2 677 -5.42727874 -21.41133283 1.91178798
VERTEX2 678 -5.40498419 -21.19048718 1.46582542
VERTEX2 679 -5.35555759 -20.61191600 1.52839046
VERTEX2 680 -5.39414836 -20.16620612 1.87324430
VERTEX2 681 -5.56078425 -19.57957328 1.84571138
VERTEX2 682 -5.74786867 -18.97888419 1.89336176
VERTEX2 683 -5.84689010 -18.69968194 2.05248790
VERTEX2 684 -5.79314875 -18.75182333 3.13229606
VERTEX2 685 -6.19374354 -18.92324909 -2.70717164
VERTEX2 686 -6.63822492 -19.07155273 -2.85138546
VERTEX2 687 -7.22953787 -19.23801876 -2.88636774
VERTEX2 688 -7.82492363 -19.37352705 -2.89811576
VERTEX2 689 -8.38621874 -19.52711491 -2.87042765
VERTEX2 690 -8.91832266 -19.71002756 -2.79623255
VERTEX2 691 -9.31059474 -19.85180145 -2.82424309
VERTEX2 692 -9.29665439 -19.84517774 -2.29001715
VERTEX2 693 -9.27199837 -19.91658449 -1.24965951
VERTEX2 694 -9.24617879 -19.98768102 -0.41423625
VERTEX2 695 -9.22791419 -19.98198554 0.38573095
VERTEX2 696 -9.22181656 -19.97776994 1.41116898
VERTEX2 697 -9.23245960 -20.01617314 1.15817279
VERTEX2 698 -8.90726953 -19.79873853 0.50336657
VERTEX2 699 -8.35137324 -19.47121372 0.61738841
VERTEX2 700 -7.84683396 -19.09609280 0.67090468
VERTEX2 701 -7.42181239 -18.72211351 0.73006018
VERTEX2 702 -6.95024374 -18.39461753 0.61488668
VERTEX2 703 -6.44609900 -18.04501193 0.64912801
VERTEX2 704 -5.96182531 -17.65022141 0.66729448
VERTEX2 705 -5.46438137 -17.21957842 0.73708688
VERTEX2 706 -5.03996677 -16.88962240 0.46821671
VERTEX2 707 -5.01254612 -16.88747887 -0.05183021
VERTEX2 708 -5.00185453 -16.89331573 -0.69006505
VERTEX2 709 -5.04287873 -16.85125556 -1.02203173
VERTEX2 710 -5.04804204 -16.83886190 -1.58294935
VERTEX2 711 -5.03833675 -16.84719706 -2.17946285
VERTEX2 712 -5.01613927 -16.82927834 -2.73967410
VERTEX2 713 -5.48940748 -16.89176822 -3.02492064
VERTEX2 714 -6.04524315 -16.88052467 3.06083812
VERTEX2 715 -6.67287956 -16.85944106 -3.11874133
VERTEX2 716 -7.30757044 -16.85347316 3.02641103
VERTEX2 717 -7.93048307 -16.80129937 3.11116790
VERTEX2 718 -8.69546361 -16.70192088 2.93579407
VERTEX2 719 -9.31512059 -16.60217988 3.01026639
VERTEX2 720 -9.93055746 -16.50523618 2.95106910
VERTEX2 721 -10.55100911 -16.40497819 3.01929615
VERTEX2 722 -10.56763217 -16.40303621 3.08600424
VERTEX2 723 -10.58740300 -16.42448742 -2.10720440
VERTEX2 724 -10.58641806 -16.46787173 -1.03829898
VERTEX2 725 -10.55888251 -16.48538983 -0.40392423
VERTEX2 726 -10.23357849 -16.47332770 0.05028600
VERTEX2 727 -9.59720963 -16.41939002 0.08103806
VERTEX2 728 -8.95773205 -16.37964120 0.08243346
VERTEX2 729 -8.32164092 -16.30366837 0.14008365
VERTEX2 730 -7.70089482 -16.19623192 0.17759583
VERTEX2 731 -7.06016506 -16.08075697 0.18978459
VERTEX2 732 -6.92341565 -16.04967830 0.63632086
VERTEX2 733 -6.92576941 -16.04605790 1.63278395
VERTEX2 734 -6.99919149 -15.48641253 1.71084827
VERTEX2 735 -7.07594352 -14.88051615 1.67876203
VERTEX2 736 -7.07743928 -14.86430088 2.27817242
VERTEX2 737 -7.07679343 -14.86438765 3.07877544
VERTEX2 738 -7.65446323 -14.83843950 3.09784057
VERTEX2 739 -8.25753691 -14.75883902 3.04021397
VERTEX2 740 -8.75904941 -14.73134872 3.10347691
VERTEX2 741 -8.73667443 -14.73054441 2.73462243
VERTEX2 742 -8.73521265 -14.73152723 2.08183581
VERTEX2 743 -8.73711478 -14.72399699 1.46502758
VERTEX2 744 -8.72757754 -14.70057884 0.92566538
VERTEX2 745 -8.70795872 -14.68968308 0.33228172
VERTEX2 746 -8.16339751 -14.69434308 -0.14248613
VERTEX2 747 -7.51349594 -14.79284467 -0.17767530
VERTEX2 748 -6.93105668 -14.92118777 -0.24592460
VERTEX2 749 -6.84518048 -14.94027011 0.18343532
VERTEX2 750 -6.83612716 -14.92249175 1.11081104
VERTEX2 751 -6.87757893 -14.65239951 1.75130061
VERTEX2 752 -6.95237370 -14.03005995 1.64805324
VERTEX2 753 -7.00753064 -13.39156804 1.71133247
VERTEX2 754 -7.03280021 -12.75041720 1.54930324
VERTEX2 755 -7.03202295 -12.11842063 1.63537707
VERTEX2 756 -7.01262676 -11.48360251 1.45816311
VERTEX2 757 -6.95545027 -10.83619180 1.57032144
VERTEX2 758 -6.99195095 -10.25639098 1.71287618
VERTEX2 759 -6.99661895 -9.70783433 1.59365546
VERTEX2 760 -7.05304742 -9.09637602 1.70505571
VERTEX2 761 -7.05701245 -9.05704227 1.88546062
VERTEX2 762 -7.13516378 -9.02477090 2.72090401
VERTEX2 763 -7.71221242 -8.93870872 3.01375562
VERTEX2 764 -8.13424699 -8.87947654 2.98623138
VERTEX2 765 -8.12360755 -8.87896111 -2.65748653
VERTEX2 766 -8.12508609 -8.88431515 -1.65710805
VERTEX2 767 -8.11982175 -8.89657281 -0.72619720
VERTEX2 768 -8.09276943 -8.89742793 -0.00379331
VERTEX2 769 -7.45988517 -8.78936033 0.15312056
VERTEX2 770 -6.80918255 -8.71061431 0.08599832
VERTEX2 771 -6.72083484 -8.70057952 0.64648974
VERTEX2 772 -6.71788197 -8.69013550 1.51404688
VERTEX2 773 -6.71109227 -8.11115077 1.59986497
VERTEX2 774 -6.73956449 -7.56469172 1.62197898
VERTEX2 775 -6.73863991 -7.56821270 2.46692349
VERTEX2 776 -6.94882339 -7.54884888 3.08436758
VERTEX2 777 -7.56329025 -7.52480312 -3.13975880
VERTEX2 778 -8.17626509 -7.53190531 3.12250364
VERTEX2 779 -8.79264674 -7.52820160 3.14062200
VERTEX2 780 -9.00145593 -7.51613969 3.01040953
VERTEX2 781 -8.99843160 -7.51712248 2.43701708
VERTEX2 782 -9.13322221 -7.24862285 2.00747394
VERTEX2 783 -9.38377176 -6.68185977 2.00688315
VERTEX2 784 -9.48923189 -6.45771996 1.98556839
VERTEX2 785 -9.49080055 -6.43291127 1.43361856
VERTEX2 786 -9.48372624 -6.40713969 0.84531142
VERTEX2 787 -9.46719898 -6.38927599 0.35465765
VERTEX2 788 -9.44058152 -6.39036399 -0.27446321
VERTEX2 789 -9.42995795 -6.39824963 -0.82642629
VERTEX2 790 -9.11313315 -6.78501332 -0.89358705
VERTEX2 791 -8.69570500 -7.25582590 -0.79491346
VERTEX2 792 -8.45072118 -7.46262434 -0.09036162
VERTEX2 793 -7.83404504 -7.49876128 -0.04558425
VERTEX2 794 -7.19361572 -7.51093385 0.02565272
VERTEX2 795 -7.21740336 -7.52939858 0.45509625
VERTEX2 796 -7.22404607 -7.53227792 1.11454354
VERTEX2 797 -7.15777926 -7.22110235 1.37474505
VERTEX2 798 -7.03905079 -6.59141384 1.42491240
VERTEX2 799 -6.96882753 -5.94503793 1.49066676
VERTEX2 800 -6.93163640 -5.29749256 1.56360102
VERTEX2 801 -6.95878832 -4.66615794 1.64954737
VERTEX2 802 -7.02863310 -4.04258136 1.70727115
VERTEX2 803 -7.02735901 -3.41373715 1.54262933
VERTEX2 804 -7.02313533 -2.78607657 1.59855511
VERTEX2 805 -7.07239165 -2.15677254 1.67486706
VERTEX2 806 -7.14755713 -1.56023539 1.71630743
VERTEX2 807 -7.17949703 -1.37687525 2.00440139
VERTEX2 808 -7.18385924 -1.37690389 2.95267968
VERTEX2 809 -7.77560718 -1.36297196 3.09734743
VERTEX2 810 -8.39543355 -1.25543251 2.95718782
VERTEX2 811 -8.99656242 -1.15911633 2.95390091
VERTEX2 812 -8.99843272 -1.15880642 -2.59753842
VERTEX2 813 -9.00767837 -1.18091633 -1.62227381
VERTEX2 814 -9.00086214 -1.18603620 -0.63009355
VERTEX2 815 -8.97593848 -1.19374017 0.28912983
VERTEX2 816 -8.96713868 -1.18863338 0.97024930
VERTEX2 817 -8.95587324 -1.18114118 0.30145164
VERTEX2 818 -8.73243498 -1.20947726 -0.18746255
VERTEX2 819 -8.13801632 -1.32235599 -0.17334778
VERTEX2 820 -7.54106707 -1.43926794 -0.21458564
VERTEX2 821 -6.99582703 -1.55543962 -0.19875760
VERTEX2 822 -6.94965744 -1.56127010 0.56269391
VERTEX2 823 -6.94856804 -1.54562286 1.48183459
VERTEX2 824 -6.90031595 -0.92144918 1.40249858
VERTEX2 825 -6.77194791 -0.29413844 1.37282709
VERTEX2 826 -6.73061628 0.33984036 1.53575971
VERTEX2 827 -6.68223429 0.96570214 1.48709850
VERTEX2 828 -6.64374748 1.59876368 1.52261494
VERTEX2 829 -6.59808692 2.20461261 1.48288746
VERTEX2 830 -6.53860811 2.81612409 1.47458238
VERTEX2 831 -6.45907652 3.39644760 1.42780118
VERTEX2 832 -6.38312597 3.96235917 1.42424565
VERTEX2 833 -6.34551779 4.21952692 1.56191324
VERTEX2 834 -6.34791223 4.22726230 2.61661024
VERTEX2 835 -6.36152048 4.22848099 -2.88888037
VERTEX2 836 -6.37328166 4.21802412 -1.94578384
VERTEX2 837 -6.36959021 4.20041526 -0.90938542
VERTEX2 838 -6.35844933 4.19386202 -0.04716034
VERTEX2 839 -6.35864683 4.19395175 -0.26541648
VERTEX2 840 -6.34815884 4.18615359 -0.82804957
VERTEX2 841 -6.34057697 4.17183634 -1.44511893
VERTEX2 842 -6.36048249 3.92606510 -1.67594038
VERTEX2 843 -6.42444210 3.36108692 -1.67847006
VERTEX2 844 -6.48386601 2.73422984 -1.68649416
VERTEX2 845 -6.56182311 2.10740544 -1.70122296
VERTEX2 846 -6.63219445 1.47238699 -1.69954800
VERTEX2 847 -6.72681951 0.84464795 -1.72635693
VERTEX2 848 -6.75286450 0.64691802 -1.24601097
VERTEX2 849 -6.75172177 0.64653927 -0.32397530
VERTEX2 850 -6.39663770 0.65195829 0.02935360
VERTEX2 851 -5.76897091 0.64164792 -0.06318490
VERTEX2 852 -5.14322348 0.59607842 -0.04879776
VERTEX2 853 -4.54753061 0.56846863 -0.07674142
VERTEX2 854 -3.95877529 0.51537130 -0.07475158
VERTEX2 855 -3.36281096 0.47935174 -0.07655845
VERTEX2 856 -2.70735784 0.41015583 -0.11723556
VERTEX2 857 -2.05298672 0.33725259 -0.12677251
VERTEX2 858 -1.40423838 0.23177803 -0.18127833
VERTEX2 859 -0.88377507 0.14125086 -0.18813114
VERTEX2 860 -0.85789713 0.15268433 0.66268810
VERTEX2 861 -0.84509517 0.26306213 1.57751269
VERTEX2 862 -0.82344667 0.92368598 1.51789485
VERTEX2 863 -0.78234621 1.56935969 1.48541592
VERTEX2 864 -0.71074053 2.18172899 1.48330542
VERTEX2 865 -0.68488210 2.79417425 1.54093614
VERTEX2 866 -0.65492940 3.38119172 1.53982012
VERTEX2 867 -0.65156688 3.54549784 1.72103985
VERTEX2 868 -0.65919076 3.55465728 2.74487331
VERTEX2 869 -0.64859140 3.55507269 -2.55992758
VERTEX2 870 -0.62908329 3.56620297 -1.56043082
VERTEX2 871 -0.61415806 3.55662803 -0.58668442
VERTEX2 872 -0.59545124 3.54382633 0.09860733
VERTEX2 873 -0.56791895 3.53541941 -0.47394085
VERTEX2 874 -0.54622971 3.51679750 -1.03352612
VERTEX2 875 -0.53955984 3.50214410 -1.62001765
VERTEX2 876 -0.64542246 2.94340236 -1.77757391
VERTEX2 877 -0.78389346 2.39793093 -1.86222033
VERTEX2 878 -0.82936346 2.19717556 -1.47924629
VERTEX2 879 -0.71222937 1.56152441 -1.42821139
VERTEX2 880 -0.66542274 1.11361484 -1.54089475
VERTEX2 881 -0.66705404 1.16356052 -1.53554704
VERTEX2 882 -0.70750837 0.52296653 -1.78206311
VERTEX2 883 -0.90819314 -0.07723639 -1.97278222
VERTEX2 884 -1.05828036 -0.41305247 -2.03974606
VERTEX2 885 -1.05826422 -0.41291735 -1.45818305
VERTEX2 886 -1.04081059 -0.42846992 -0.44021335
VERTEX2 887 -1.01207050 -0.43882945 0.57106783
VERTEX2 888 -1.00251531 -0.41735889 1.55513463
VERTEX2 889 -1.00422435 -0.41282379 2.45315739
VERTEX2 890 -1.32353939 -0.26821212 2.72708281
VERTEX2 891 -1.86739203 -0.01503722 2.65677288
VERTEX2 892 -2.40892481 0.29075974 2.62121909
VERTEX2 893 -2.96913817 0.57253203 2.85752234
VERTEX2 894 -3.58480442 0.66834957 3.07859704
VERTEX2 895 -4.18296392 0.60447835 -2.90629924
VERTEX2 896 -4.20134212 0.59959747 -2.42771422
VERTEX2 897 -4.47490826 0.17193347 -2.15537266
VERTEX2 898 -4.81368018 -0.34692404 -2.13967167
VERTEX2 899 -5.09001351 -0.76458077 -2.20722630
VERTEX2 900 -5.48958005 -1.31958971 -2.20948205
VERTEX2 901 -5.84987043 -1.77340448 -2.27373382
VERTEX2 902 -6.25343233 -2.27556877 -2.24841255
VERTEX2 903 -6.55988580 -2.66265897 -2.29311037
VERTEX2 904 -6.56067005 -2.66384962 -1.58982431
VERTEX2 905 -6.53442436 -3.15661794 -1.53430219
VERTEX2 906 -6.48605313 -3.72710835 -1.46854401
VERTEX2 907 -6.41526619 -4.30026177 -1.47670100
VERTEX2 908 -6.35324371 -4.92167005 -1.45189400
VERTEX2 909 -6.27719520 -5.53294852 -1.46979601
VERTEX2 910 -6.30159370 -5.66266149 -1.83965625
VERTEX2 911 -6.44703579 -6.23688461 -1.77877516
VERTEX2 912 -6.55374025 -6.80356059 -1.76615286
VERTEX2 913 -6.65208959 -7.34802376 -1.75822365
VERTEX2 914 -6.76317636 -7.93900241 -1.78189395
VERTEX2 915 -6.87373900 -8.45079630 -1.81862849
VERTEX2 916 -6.80265288 -8.69517275 -1.27113679
VERTEX2 917 -6.64669967 -9.34215899 -1.52559718
VERTEX2 918 -6.65368634 -9.86128162 -1.60117258
VERTEX2 919 -6.67140397 -10.48646517 -1.64454097
VERTEX2 920 -6.72030727 -11.10258048 -1.66218719
VERTEX2 921 -6.77804298 -11.72006949 -1.71560717
VERTEX2 922 -6.86530614 -12.32657029 -1.74290456
VERTEX2 923 -6.97116619 -12.89598373 -1.80647333
VERTEX2 924 -7.09105308 -13.39493343 -1.79006365
VERTEX2 925 -7.09036124 -13.39773114 -1.28586671
VERTEX2 926 -6.91660290 -13.95560585 -1.26951206
VERTEX2 927 -6.73521747 -14.54184751 -1.29268662
VERTEX2 928 -6.56246374 -15.14359215 -1.30151091
VERTEX2 929 -6.39625600 -15.74258685 -1.30232317
VERTEX2 930 -6.23305644 -16.37001210 -1.38497365
VERTEX2 931 -6.13109769 -16.99428986 -1.46527358
VERTEX2 932 -6.06928289 -17.62024869 -1.52478073
VERTEX2 933 -6.05059592 -18.23265050 -1.58944430
VERTEX2 934 -6.05327286 -18.71355825 -1.59932608
VERTEX2 935 -6.05015200 -18.72647132 -0.91734159
VERTEX2 936 -6.04765822 -18.72727894 0.02770312
VERTEX2 937 -5.50578172 -18.68895598 0.09054821
VERTEX2 938 -4.90888368 -18.69059521 -0.08289454
VERTEX2 939 -4.28303174 -18.73540911 -0.05520542
VERTEX2 940 -3.66689501 -18.79613703 -0.14126881
VERTEX2 941 -3.05901339 -18.89741287 -0.19487529
VERTEX2 942 -2.53716690 -19.00094663 -0.19033138
VERTEX2 943 -1.92445170 -19.12043986 -0.10193872
VERTEX2 944 -1.30913639 -19.18895684 -0.15852841
VERTEX2 945 -0.68265385 -19.30356949 -0.21358599
VERTEX2 946 -0.50443952 -19.34452781 -0.14918848
VERTEX2 947 -0.09676953 -19.27190253 0.17917325
VERTEX2 948 0.47361903 -19.16929983 0.16010596
VERTEX2 949 1.07619077 -19.12069773 0.00456046
VERTEX2 950 1.70834740 -19.14218600 -0.23480295
VERTEX2 951 2.31688403 -19.30147188 -0.30682324
VERTEX2 952 2.92525612 -19.46370755 -0.05584307
VERTEX2 953 3.56164296 -19.48058250 0.02432092
VERTEX2 954 4.18641563 -19.45854052 0.01722533
VERTEX2 955 4.77809539 -19.49041226 -0.14370236
VERTEX2 956 5.33225370 -19.55627959 -0.14605468
VERTEX2 957 5.86795397 -19.64055429 -0.23380372
VERTEX2 958 6.34015680 -19.74287708 -0.26057614
VERTEX2 959 6.77856716 -19.85275992 -0.32770731
VERTEX2 960 7.37257376 -20.00171465 -0.24779428
VERTEX2 961 7.95919152 -20.16214832 -0.27480148
VERTEX2 962 8.58031830 -20.27589461 -0.20914338
VERTEX2 963 9.20025757 -20.34177790 -0.02239164
VERTEX2 964 9.82358632 -20.36813406 -0.08622142
VERTEX2 965 10.44367078 -20.43209545 -0.09304807
VERTEX2 966 10.88948381 -20.47961445 -0.15198375
VERTEX2 967 10.92279867 -20.47197010 0.70154455
VERTEX2 968 10.93064886 -20.46416089 1.59841653
VERTEX2 969 10.93381732 -20.49249135 1.65791802
VERTEX2 970 10.93712487 -20.52104777 1.65621542
VERTEX2 971 10.90793075 -20.18913482 1.65637794
VERTEX2 972 10.85380926 -19.60451694 1.66202172
VERTEX2 973 10.91776222 -19.02107942 1.37704699
VERTEX2 974 11.04081203 -18.41639278 1.40886120
VERTEX2 975 11.13588952 -17.80839385 1.41345429
VERTEX2 976 11.22414876 -17.19793594 1.42633647
VERTEX2 977 11.34305073 -16.57735225 1.40015495
VERTEX2 978 11.44731176 -15.96354547 1.44623861
VERTEX2 979 11.54543277 -15.35388169 1.43408229
VERTEX2 980 11.62655426 -14.74812055 1.48115341
VERTEX2 981 11.69879535 -14.15340449 1.48822282
VERTEX2 982 11.74038830 -13.62683974 1.53340916
VERTEX2 983 11.77292072 -13.02822159 1.53009500
VERTEX2 984 11.78314626 -12.43304014 1.58756318
VERTEX2 985 11.77699684 -11.83764533 1.60796240
VERTEX2 986 11.74442094 -11.21982505 1.64444789
VERTEX2 987 11.71407467 -10.60345476 1.60793598
VERTEX2 988 11.69898868 -9.98063816 1.62129103
VERTEX2 989 11.66676802 -9.36755247 1.62873035
VERTEX2 990 11.64259608 -8.75745855 1.61776258
VERTEX2 991 11.61002152 -8.14414601 1.64242326
VERTEX2 992 11.58852930 -7.55834973 1.60968704
VERTEX2 993 11.55773269 -6.94342446 1.64231874
VERTEX2 994 11.52523858 -6.35933522 1.63227944
VERTEX2 995 11.47622952 -5.76061755 1.67939438
VERTEX2 996 11.39884895 -5.14744284 1.70636215
VERTEX2 997 11.33552453 -4.49534006 1.64176191
VERTEX2 998 11.30423231 -4.08479361 1.66344582
VERTEX2 999 11.32572768 -4.10127320 2.38078914
VERTEX2 1000 10.84703275 -3.74841623 2.52921772
VERTEX2 1001 10.39110010 -3.35419100 2.20798694
VERTEX2 1002 10.00712219 -2.88593883 2.30046881
VERTEX2 1003 9.63998973 -2.38975229 2.12064746
VERTEX2 1004 9.28783812 -1.86170979 2.17877251
VERTEX2 1005 8.92209377 -1.37645272 2.24109584
VERTEX2 1006 8.51471220 -0.90850261 2.31836634
VERTEX2 1007 8.09181255 -0.49299174 2.40992269
VERTEX2 1008 7.85112589 -0.28423285 2.56932750
VERTEX2 1009 7.75218186 -0.27173377 3.04199167
VERTEX2 1010 7.18370837 -0.22956188 3.09443431
VERTEX2 1011 6.56553409 -0.20502967 3.05127691
VERTEX2 1012 5.95292043 -0.15625563 3.09313932
VERTEX2 1013 5.31558404 -0.17400213 -3.07512079
VERTEX2 1014 4.69998234 -0.14041653 3.03273358
VERTEX2 1015 4.07262951 -0.11573539 3.11718264
VERTEX2 1016 3.30078750 -0.09614320 3.12390440
VERTEX2 1017 2.71593207 -0.09655365 3.06675928
VERTEX2 1018 2.15749514 -0.04793049 3.07406348
VERTEX2 1019 1.56284675 -0.03747013 3.13362108
VERTEX2 1020 0.94769146 -0.01601599 3.11968068
VERTEX2 1021 0.32680253 -0.00156497 3.07908785
VERTEX2 1022 0.27391516 0.00155440 3.07186876
VERTEX2 1023 0.28152646 0.00158789 -3.12471513
VERTEX2 1024 -0.34472131 -0.00544242 -3.09837694
VERTEX2 1025 -0.97223090 -0.05075416 -3.08080003
VERTEX2 1026 -1.13277047 -0.06002307 -3.07362104
VERTEX2 1027 -1.11641490 -0.05152440 -2.15707808
VERTEX2 1028 -1.12561321 -0.21795994 -1.59360856
VERTEX2 1029 -1.14093170 -0.78447940 -1.61516518
VERTEX2 1030 -1.18990728 -1.40711266 -1.69559550
VERTEX2 1031 -1.28747427 -2.05493958 -1.74975321
VERTEX2 1032 -1.40295801 -2.70323788 -1.74571277
VERTEX2 1033 -1.53148424 -3.35062351 -1.79086120
VERTEX2 1034 -1.57215077 -3.52245084 -2.00463461
VERTEX2 1035 -1.57734231 -3.52704041 -2.62392136
VERTEX2 1036 -1.54587911 -3.54066604 3.08848468
VERTEX2 1037 -1.88860352 -3.41939654 2.85010187
VERTEX2 1038 -2.50254794 -3.31177316 2.94132026
VERTEX2 1039 -3.14459217 -3.15748187 2.90979528
VERTEX2 1040 -3.11877095 -3.15748771 -2.74330190
VERTEX2 1041 -3.08958043 -3.16062165 -1.72634811
VERTEX2 1042 -3.09060172 -3.19368233 -0.73840962
VERTEX2 1043 -3.05608203 -3.22397189 0.23117477
VERTEX2 1044 -3.06930439 -3.24036499 1.22499307
VERTEX2 1045 -3.07231642 -3.24745080 1.11095480
VERTEX2 1046 -3.08254081 -3.26192157 0.72540197
VERTEX2 1047 -3.10116506 -3.27057563 0.16960716
VERTEX2 1048 -2.73673926 -3.33103715 -0.14340133
VERTEX2 1049 -2.08874780 -3.41378902 -0.12625043
VERTEX2 1050 -1.43969995 -3.46873246 -0.05057669
VERTEX2 1051 -0.78220606 -3.52639630 -0.12972131
VERTEX2 1052 -0.15608529 -3.59236418 -0.07676764
VERTEX2 1053 0.26287682 -3.63674935 -0.12939521
VERTEX2 1054 0.28979944 -3.63893690 0.63278199
VERTEX2 1055 0.29526418 -3.60986468 1.68809968
VERTEX2 1056 0.30472518 -3.62305418 2.69177391
VERTEX2 1057 0.33028224 -3.62528128 -2.60061348
VERTEX2 1058 0.32846970 -3.62751600 -1.67848009
VERTEX2 1059 0.24403937 -4.21232140 -1.75923910
VERTEX2 1060 0.12191986 -4.84533013 -1.75424485
VERTEX2 1061 0.02490787 -5.29386122 -1.87678840
VERTEX2 1062 0.02153712 -5.29932743 -2.44100735
VERTEX2 1063 0.04253506 -5.28667714 -3.03872569
VERTEX2 1064 -0.23871010 -5.24032223 2.97921559
VERTEX2 1065 -0.82741988 -5.18648541 3.10119054
VERTEX2 1066 -1.39128646 -5.14675507 3.04508797
VERTEX2 1067 -1.37653621 -5.14565456 -2.80541131
VERTEX2 1068 -1.36420092 -5.13657113 -2.13259622
VERTEX2 1069 -1.36366104 -5.13501131 -1.96220809
VERTEX2 1070 -1.36228525 -5.13246376 -2.50114558
VERTEX2 1071 -1.82815674 -5.39909689 -2.62835256
VERTEX2 1072 -2.27275766 -5.64177433 -2.69700837
VERTEX2 1073 -2.24337107 -5.64035346 3.07504318
VERTEX2 1074 -2.77444027 -5.58059762 3.04068594
VERTEX2 1075 -3.35324778 -5.51754636 3.05725402
VERTEX2 1076 -3.37073452 -5.51669328 -2.82171696
VERTEX2 1077 -3.38304619 -5.54129850 -2.01589969
VERTEX2 1078 -3.60725913 -6.15636202 -1.97074475
VERTEX2 1079 -3.82680297 -6.72824617 -1.90862636
VERTEX2 1080 -3.83122831 -6.74097439 -2.39622414
VERTEX2 1081 -4.25119678 -7.04255671 -2.51948078
VERTEX2 1082 -4.41771233 -7.16463275 -2.23887645
VERTEX2 1083 -4.41249814 -7.19838118 -1.20855745
VERTEX2 1084 -4.33942529 -7.23384250 -0.24318070
VERTEX2 1085 -4.34676115 -7.23595043 0.74008164
VERTEX2 1086 -3.99905271 -6.74004629 0.97062891
VERTEX2 1087 -3.63240936 -6.22591188 0.95858467
VERTEX2 1088 -3.28440877 -5.70791831 0.94185205
VERTEX2 1089 -3.23049518 -5.63495041 0.84645230
VERTEX2 1090 -3.22079334 -5.62568169 0.23153113
VERTEX2 1091 -2.68513227 -5.58186118 0.05473542
VERTEX2 1092 -2.06780141 -5.55302508 0.03965259
VERTEX2 1093 -1.50006850 -5.54351413 -0.02535806
VERTEX2 1094 -1.48735305 -5.55509805 -0.42932989
VERTEX2 1095 -1.45662122 -5.58115083 -1.01891622
VERTEX2 1096 -1.45680888 -5.58049958 -1.59000418
VERTEX2 1097 -1.53259118 -5.90629095 -1.80537097
VERTEX2 1098 -1.69615680 -6.50568053 -1.86216367
VERTEX2 1099 -1.89069677 -7.06912566 -1.95820359
VERTEX2 1100 -1.89543682 -7.08191571 -1.59506487
VERTEX2 1101 -1.83208278 -7.34043950 -1.32911759
VERTEX2 1102 -1.83244767 -7.34619717 -1.72273711
VERTEX2 1103 -1.94659613 -7.95557523 -1.75647238
VERTEX2 1104 -2.07098427 -8.59150417 -1.78410948
VERTEX2 1105 -2.21285008 -9.21394561 -1.80193329
VERTEX2 1106 -2.32836027 -9.69074111 -1.82708296
VERTEX2 1107 -2.32785382 -9.69547164 -1.57083965
VERTEX2 1108 -2.28462293 -10.31777668 -1.56290969
VERTEX2 1109 -2.32524245 -10.95970889 -1.66671693
VERTEX2 1110 -2.38855518 -11.56595350 -1.71610872
VERTEX2 1111 -2.54817725 -12.09593209 -1.81723140
VERTEX2 1112 -2.57161287 -12.67275883 -1.47055754
VERTEX2 1113 -2.52430116 -13.30789670 -1.56575583
VERTEX2 1114 -2.52055855 -13.92164342 -1.54856018
VERTEX2 1115 -2.50477107 -14.50170818 -1.56457900
VERTEX2 1116 -2.47839729 -15.14667463 -1.52813831
VERTEX2 1117 -2.47351069 -15.24113044 -1.65568423
VERTEX2 1118 -2.47149910 -15.23715853 -2.26242660
VERTEX2 1119 -2.46492409 -15.23238216 -2.69388900
VERTEX2 1120 -3.02381757 -15.45179016 -2.75742701
VERTEX2 1121 -3.21269955 -15.52350398 -2.87592196
VERTEX2 1122 -3.20533659 -15.52583416 2.85711181
VERTEX2 1123 -3.75620859 -15.35583542 2.87409986
VERTEX2 1124 -4.31410478 -15.24182219 2.97289713
VERTEX2 1125 -4.93992882 -15.13277075 2.98642796
VERTEX2 1126 -5.01811584 -15.12218601 -2.95698713
VERTEX2 1127 -5.00964441 -15.13077630 -1.89972022
VERTEX2 1128 -5.00987010 -15.13207613 -0.91236757
VERTEX2 1129 -4.98863898 -15.14326207 0.10323845
VERTEX2 1130 -4.40089301 -15.06443508 0.11700865
VERTEX2 1131 -3.62218104 -15.17153730 -0.31458943
VERTEX2 1132 -3.00346087 -15.37557961 -0.33411774
VERTEX2 1133 -2.44811800 -15.59199098 -0.37263197
VERTEX2 1134 -2.18938134 -15.69346306 -0.46942572
VERTEX2 1135 -2.17435540 -15.70751232 -1.02504077
VERTEX2 1136 -2.17626807 -15.71173427 -1.58658171
VERTEX2 1137 -2.22396117 -16.02163562 -1.77034989
VERTEX2 1138 -2.36468920 -16.66421893 -1.78642975
VERTEX2 1139 -2.47212642 -17.16269189 -1.85944521
VERTEX2 1140 -2.46302899 -17.13935905 -2.33800608
VERTEX2 1141 -2.44248058 -17.11842592 -2.88494734
VERTEX2 1142 -2.80684389 -17.08339696 3.03425145
VERTEX2 1143 -3.40624385 -17.05046262 3.12384938
VERTEX2 1144 -3.98828511 -17.02955629 3.09341207
VERTEX2 1145 -4.56814279 -16.99736085 3.06812228
VERTEX2 1146 -5.14589097 -16.95347307 3.08803893
VERTEX2 1147 -5.72597998 -16.95686343 -3.12224693
VERTEX2 1148 -6.30461316 -16.96780571 -3.11221549
VERTEX2 1149 -6.34753856 -16.97011235 -2.61396852
VERTEX2 1150 -6.43740998 -17.07477964 -1.80429900
VERTEX2 1151 -6.43530719 -17.08548992 -0.80031975
VERTEX2 1152 -6.41859338 -17.08539119 0.25296932
VERTEX2 1153 -6.40421815 -17.07847998 1.26591372
VERTEX2 1154 -6.47081638 -16.76255443 1.81199720
VERTEX2 1155 -6.61825560 -16.14107661 1.76266076
VERTEX2 1156 -6.72939346 -15.53736767 1.77269122
VERTEX2 1157 -6.86961476 -14.96906073 1.88381860
VERTEX2 1158 -7.00975256 -14.36970532 1.75528191
VERTEX2 1159 -7.08432095 -13.76712172 1.66132516
VERTEX2 1160 -7.12170041 -13.12728927 1.52465095
VERTEX2 1161 -7.03651078 -12.49336827 1.43500729
VERTEX2 1162 -6.95958014 -11.85929866 1.49315303
VERTEX2 1163 -6.91186196 -11.21477056 1.48771996
VERTEX2 1164 -6.87841626 -10.57245586 1.57317321
VERTEX2 1165 -6.88003698 -10.03319633 1.55038250
VERTEX2 1166 -6.88070212 -10.03032422 2.03941616
VERTEX2 1167 -6.82889616 -10.01640726 2.97617455
VERTEX2 1168 -6.78455380 -9.99752139 -2.40344002
VERTEX2 1169 -6.78731084 -10.04956834 -1.58132187
VERTEX2 1170 -6.78316068 -10.63625799 -1.57456338
VERTEX2 1171 -6.76738297 -11.27145124 -1.54276604
VERTEX2 1172 -6.75693598 -11.87081478 -1.60516273
VERTEX2 1173 -6.77149545 -12.49546710 -1.59600095
VERTEX2 1174 -6.79984558 -13.12563497 -1.66469328
VERTEX2 1175 -6.87082961 -13.74163721 -1.69808835
VERTEX2 1176 -6.95277667 -14.36378760 -1.74139930
VERTEX2 1177 -7.05689205 -14.97435015 -1.73902799
VERTEX2 1178 -7.17223564 -15.58910825 -1.78589886
VERTEX2 1179 -7.29402383 -16.19589982 -1.75623117
VERTEX2 1180 -7.34251503 -16.45497426 -1.76336671
VERTEX2 1181 -7.34231853 -16.45352561 -0.93652657
VERTEX2 1182 -7.28558815 -16.46644270 -0.22534132
VERTEX2 1183 -6.66780827 -16.60066789 -0.20018833
VERTEX2 1184 -6.03184022 -16.70033296 -0.13082774
VERTEX2 1185 -5.40092482 -16.79577310 -0.16324751
VERTEX2 1186 -4.76690637 -16.87572933 -0.09723666
VERTEX2 1187 -4.11087021 -16.94585923 -0.13449302
VERTEX2 1188 -3.48277700 -17.02064511 -0.11646921
VERTEX2 1189 -2.82033883 -17.11178063 -0.09474894
VERTEX2 1190 -2.49116296 -17.14370292 -0.08669427
VERTEX2 1191 -2.46196252 -17.14234971 0.83370454
VERTEX2 1192 -2.45827753 -17.05838861 1.63145855
VERTEX2 1193 -2.46720031 -16.45792878 1.49947970
VERTEX2 1194 -2.44090097 -15.88254161 1.54155562
VERTEX2 1195 -2.42875385 -15.25809639 1.59391257
VERTEX2 1196 -2.43933168 -14.63390624 1.42127539
VERTEX2 1197 -2.35218728 -14.01675803 1.43254024
VERTEX2 1198 -2.29833655 -13.38834077 1.69138040
VERTEX2 1199 -2.33181455 -12.77596637 1.47666996
VERTEX2 1200 -2.29139117 -12.14453155 1.54564818
VERTEX2 1201 -2.28292434 -11.52402231 1.60142542
VERTEX2 1202 -2.30975732 -10.90141856 1.62430778
VERTEX2 1203 -2.35591241 -10.31211794 1.53429369
VERTEX2 1204 -2.25715917 -9.71779176 1.38739151
VERTEX2 1205 -2.16342386 -9.15269402 1.41685086
VERTEX2 1206 -2.09319673 -8.56095482 1.47794537
VERTEX2 1207 -1.97154387 -7.94693005 1.39168855
VERTEX2 1208 -1.87496805 -7.31964117 1.45619983
VERTEX2 1209 -1.80363779 -6.69619049 1.45409268
VERTEX2 1210 -1.75418151 -6.07731705 1.47447503
VERTEX2 1211 -1.64349379 -5.46170376 1.40111643
VERTEX2 1212 -1.54370324 -4.84806828 1.45095040
VERTEX2 1213 -1.49148671 -4.23340402 1.52402375
VERTEX2 1214 -1.42734667 -3.50650315 1.30105306
VERTEX2 1215 -1.27745734 -2.91962987 1.35985213
VERTEX2 1216 -1.24058740 -2.36567012 1.57685414
VERTEX2 1217 -1.22035379 -1.78541499 1.55730005
VERTEX2 1218 -1.22056971 -1.19608162 1.50661168
VERTEX2 1219 -1.18531919 -0.54688453 1.53719667
VERTEX2 1220 -1.19220023 0.03918703 1.62792559
VERTEX2 1221 -1.19161362 0.03737156 1.17517259
VERTEX2 1222 -1.18186925 0.04732183 0.57786559
VERTEX2 1223 -1.17010523 0.05040309 0.01823859
VERTEX2 1224 -0.59410646 -0.02816916 -0.16466941
VERTEX2 1225 0.02376925 -0.12688760 -0.15090541
VERTEX2 1226 0.12904649 -0.14300646 -0.16763641
VERTEX2 1227 0.12904649 -0.14300646 -0.16829841
