1 19 166 0.00295807 10 
2 19 172 0.00312403 10 
3 25 172 0.00318442 10 
4 25 178 0.00330074 10 
5 32 178 0.00330100 10 
6 32 183 0.00338835 10 
7 44 189 0.00351060 10 
8 44 195 0.00361775 10 
9 50 195 0.00361489 10 
10 50 201 0.00372358 10 
11 50 203 0.00377348 10 
12 61 203 0.00376040 10 
13 61 209 0.00387542 10 
14 67 209 0.00387674 10 
15 67 220 0.00407379 10 
16 81 220 0.00406478 10 
17 81 226 0.00422941 10 
18 87 226 0.00417927 10 
19 87 231 0.00427166 10 
20 94 231 0.00427046 10 
21 226 231 0.00426428 10 
22 94 241 0.00447142 10 
23 101 241 0.00447381 10 
24 101 247 0.00458482 10 
25 107 247 0.00458581 10 
26 107 254 0.00471735 10 
27 114 254 0.00471643 10 
28 107 256 0.00476624 10 
29 114 256 0.00477605 10 
30 107 258 0.00481088 10 
31 114 258 0.00480999 10 
32 121 266 0.00497382 10 
33 126 266 0.00500449 10 
34 126 272 0.00513828 10 
35 132 272 0.00514171 10 
36 132 278 0.00526122 10 
37 138 278 0.00525193 10 
38 138 284 0.00540113 10 
39 151 284 0.00539746 10 
40 151 291 0.00553240 10 
41 151 297 0.00564997 10 
42 157 297 0.00564632 10 
43 163 297 0.00565653 10 
44 166 297 0.00566241 10 
45 19 305 0.00593943 10 
46 157 305 0.00593710 10 
47 163 305 0.00599230 10 
48 166 305 0.00597489 10 
49 172 305 0.00602047 10 
50 19 315 0.00538424 9 
51 25 315 0.00605262 10 
52 172 315 0.00621603 10 
53 172 328 0.00627933 10 
54 19 337 0.00515330 8 
55 25 337 0.00651053 10 
56 172 337 0.00668112 10 
57 19 342 0.00657735 10 
58 25 342 0.00662925 10 
59 172 342 0.00340913 5 
60 178 342 0.00665466 10 
61 25 367 0.00347796 5 
62 32 367 0.00420293 6 
63 178 367 0.00421485 6 
64 183 367 0.00503788 7 
65 25 374 0.00724737 10 
66 32 374 0.00730217 10 
67 178 374 0.00523960 7 
68 183 374 0.00653496 9 
69 32 382 0.00592926 8 
70 183 382 0.00750873 10 
71 32 387 0.00754751 10 
72 183 387 0.00449128 6 
73 189 400 0.00788448 10 
74 189 414 0.00815167 10 
75 44 437 0.00861361 10 
76 195 437 0.00880633 10 
77 44 454 0.00889888 10 
78 189 454 0.00913230 10 
79 44 467 0.00916855 10 
80 50 467 0.00942582 10 
81 195 467 0.00943755 10 
82 195 484 0.00954644 10 
83 44 494 0.00673835 7 
84 50 494 0.01168472 10 
85 195 494 0.01000794 10 
86 201 494 0.01006044 10 
87 50 500 0.00991224 10 
88 201 500 0.01016875 10 
89 203 500 0.01019674 10 
90 61 508 0.01010873 10 
91 203 508 0.01035532 10 
92 209 508 0.01039797 10 
93 61 522 0.01038529 10 
94 203 522 0.01063442 10 
95 209 522 0.01065209 10 
96 61 528 0.01051911 10 
97 67 528 0.01084802 10 
98 81 528 0.01085357 10 
99 209 528 0.01085373 10 
100 220 528 0.01085464 10 
101 67 532 0.00845476 8 
102 81 532 0.01068854 10 
103 220 532 0.01096217 10 
104 67 556 0.01116220 10 
105 67 564 0.01131013 10 
106 81 564 0.01158549 10 
107 220 564 0.01150848 10 
108 67 567 0.01139540 10 
109 81 567 0.01168811 10 
110 220 567 0.01168899 10 
111 67 570 0.01148144 10 
112 81 570 0.01176159 10 
113 220 570 0.01175561 10 
114 81 575 0.01188410 10 
115 220 575 0.01187615 10 
116 81 588 0.01186549 10 
117 87 588 0.01217788 10 
118 226 588 0.01220352 10 
119 87 597 0.01209684 10 
120 94 597 0.01238575 10 
121 226 597 0.01240185 10 
122 87 604 0.01226123 10 
123 94 604 0.01256183 10 
124 94 616 0.00990727 8 
125 584 619 0.01261633 10 
126 94 632 0.01284898 10 
127 94 637 0.01294676 10 
128 101 637 0.01336976 10 
129 101 642 0.01314710 10 
130 107 642 0.01348870 10 
131 101 645 0.01324674 10 
132 107 645 0.01356298 10 
133 101 657 0.01345787 10 
134 101 663 0.01349519 10 
135 107 663 0.01358042 10 
136 114 663 0.01400379 10 
137 101 665 0.01370935 10 
138 107 665 0.01404541 10 
139 114 665 0.01403695 10 
140 107 680 0.01398736 10 
141 107 683 0.01405746 10 
142 114 683 0.01456370 10 
143 21 702 0.01450767 10 
144 107 704 0.01456232 10 
145 114 704 0.01490601 10 
146 107 714 0.01481927 10 
147 114 714 0.01512161 10 
148 107 730 0.01041703 7 
149 114 730 0.01506225 10 
150 121 754 0.01556620 10 
151 126 754 0.01596860 10 
152 121 759 0.01567402 10 
153 126 759 0.01605536 10 
154 126 762 0.01574539 10 
155 132 762 0.01618251 10 
156 132 778 0.01609636 10 
157 132 792 0.01636987 10 
158 132 800 0.01654364 10 
159 138 800 0.01700329 10 
160 138 806 0.01669210 10 
161 138 821 0.01699208 10 
162 138 823 0.01693166 10 
163 151 828 0.01713608 10 
164 151 847 0.01752919 10 
165 151 855 0.01767219 10 
166 855 872 0.00698044 4 
167 151 895 0.01843247 10 
168 151 897 0.01877684 10 
169 813 898 0.00907744 5 
170 138 903 0.01859765 10 
171 138 904 0.01908681 10 
172 132 907 0.01875047 10 
173 138 907 0.01920725 10 
174 132 911 0.01884012 10 
175 843 911 0.01933851 10 
176 121 923 0.01912764 10 
177 126 923 0.01958633 10 
178 107 929 0.01925174 10 
179 114 929 0.01972771 10 
180 107 935 0.01945168 10 
181 114 935 0.01985720 10 
182 101 939 0.01935610 10 
183 107 939 0.01736729 9 
184 101 944 0.01956439 10 
185 94 947 0.01974057 10 
186 101 947 0.02019342 10 
187 87 953 0.01991122 10 
188 94 953 0.02037242 10 
189 226 953 0.02045428 10 
190 81 959 0.02005132 10 
191 87 959 0.02052159 10 
192 220 959 0.02059670 10 
193 226 959 0.02061870 10 
194 67 965 0.02031467 10 
195 81 965 0.02079319 10 
196 220 965 0.02080843 10 
197 61 976 0.02059990 10 
198 67 976 0.02106173 10 
199 209 976 0.02109586 10 
200 50 982 0.02073946 10 
201 61 982 0.02147339 10 
202 201 982 0.02135310 10 
203 203 982 0.02132661 10 
204 44 988 0.02092825 10 
205 50 988 0.02140148 10 
206 195 988 0.02140319 10 
207 201 988 0.01918326 9 
208 44 994 0.02103330 10 
209 189 994 0.02165398 10 
210 195 994 0.02164554 10 
211 32 1003 0.02132820 10 
212 178 1003 0.02188262 10 
213 183 1003 0.02190555 10 
214 25 1008 0.02144593 10 
215 32 1008 0.02201141 10 
216 178 1008 0.02200306 10 
217 183 1008 0.02199622 10 
218 25 1010 0.02154218 10 
219 32 1010 0.02209086 10 
220 172 1010 0.02216340 10 
221 178 1010 0.02219135 10 
222 19 1016 0.02191931 10 
223 166 1016 0.02228628 10 
224 172 1016 0.01994823 9 
225 151 1029 0.02236941 10 
226 157 1029 0.02253855 10 
227 163 1029 0.02399039 10 
228 166 1029 0.02256918 10 
229 132 1084 0.02344576 10 
230 1080 1088 0.02348098 10 
231 101 1138 0.02447489 10 
232 107 1147 0.02464959 10 
233 114 1147 0.02526976 10 
234 107 1150 0.02467314 10 
235 114 1150 0.02529383 10 
236 485 1155 0.02509045 10 
237 114 1158 0.02510320 10 
238 121 1158 0.02568902 10 
239 121 1164 0.02521600 10 
240 126 1164 0.02587555 10 
241 616 1174 0.02568558 10 
242 114 1175 0.02572143 10 
243 121 1175 0.02630953 10 
244 923 1175 0.02647894 10 
245 929 1175 0.02635809 10 
246 1158 1175 0.02095370 8 
247 101 1188 0.02610733 10 
248 939 1188 0.02670134 10 
249 1138 1188 0.02669115 10 
250 1147 1188 0.02672852 10 
251 1150 1188 0.02659546 10 
252 536 1202 0.02653921 10 
253 1050 1210 0.02678151 10 
254 1061 1210 0.02744594 10 
255 1075 1210 0.02735654 10 
256 1084 1210 0.02738694 10 
257 1088 1210 0.02740667 10 
258 1093 1210 0.02741216 10 
259 1098 1210 0.02741463 10 
260 157 1217 0.02725168 10 
261 163 1217 0.02797810 10 
262 1029 1217 0.02797645 10 
263 1044 1217 0.02817230 10 
264 1050 1217 0.02811984 10 
265 1056 1217 0.02816881 10 
266 221 1221 0.02766626 10 
