1 70 117 2 159.55572536 0.00000379 1 
2 19 166 0 0.41485034 0.00211094 5 
3 19 172 0 0.02820697 0.00187300 4 
4 25 172 0 0.50366199 0.00190716 4 
5 25 178 0 0.30831851 0.00198020 4 
6 32 178 0 0.01493521 0.00199559 4 
7 32 183 0 0.07055611 0.00201493 4 
8 44 189 0 0.52863102 0.00208689 4 
9 44 195 0 0.35755137 0.00217421 4 
10 50 195 0 0.00572854 0.00220916 4 
11 50 201 0 0.04110605 0.00191023 3 
12 50 203 0 0.06975183 0.00188662 3 
13 61 203 0 0.00745912 0.00190422 3 
14 61 209 0 0.37222863 0.00232169 4 
15 67 209 0 0.41032090 0.00233221 4 
16 81 211 2 1117.40247287 0.00000276 1 
17 67 220 0 0.66144083 0.00250595 4 
18 81 220 0 0.48035877 0.00286802 5 
19 81 226 0 0.05402805 0.00257721 4 
20 87 226 0 1.82553139 0.00294983 5 
21 87 231 0 0.34656585 0.00263172 4 
22 94 231 0 0.55778528 0.00257075 4 
23 226 231 0 1.44127402 0.00299607 5 
24 94 241 0 1.33132047 0.00269710 4 
25 101 241 0 0.50961029 0.00272259 4 
26 101 247 0 1.66454674 0.00277077 4 
27 107 247 0 1.80094617 0.00279488 4 
28 107 254 0 1.18346605 0.00285510 4 
29 114 254 0 0.12939160 0.00287175 4 
30 107 256 0 0.93085039 0.00285883 4 
31 114 256 0 0.24629796 0.00286882 4 
32 107 258 0 1.37911724 0.00290903 4 
33 114 258 0 1.15747212 0.00293577 4 
34 121 266 0 0.00938596 0.00301374 4 
35 126 266 0 0.44864328 0.00355421 5 
36 126 272 0 1.03992836 0.00310162 4 
37 132 272 0 0.39070916 0.00365721 5 
38 132 278 0 0.58358145 0.00318667 4 
39 138 278 0 1.06458780 0.00374639 5 
40 138 284 0 0.02201259 0.00271406 3 
41 151 284 0 0.12777228 0.00330131 4 
42 151 291 0 0.60037557 0.00332520 4 
43 260 296 2 1317.79734034 0.00000246 1 
44 151 297 0 0.07972289 0.00285601 3 
45 157 297 0 1.04991834 0.00344983 4 
46 166 297 0 1.30507781 0.00339649 4 
47 262 302 2 570.91465997 0.00000231 1 
48 19 305 0 0.16044642 0.00358064 4 
49 157 305 0 0.58687353 0.00361739 4 
50 163 305 0 7.56485476 0.00484989 6 
51 166 305 0 0.37495035 0.00361605 4 
52 172 305 0 0.01886255 0.00362024 4 
53 19 315 0 0.48455906 0.00311446 3 
54 25 315 0 0.02281386 0.00311833 3 
55 172 315 0 0.05679715 0.00373988 4 
56 172 328 0 0.12482725 0.00326167 3 
57 19 337 0 6.63404991 0.00467453 5 
58 25 337 0 0.96522419 0.00400776 4 
59 172 337 0 0.57611560 0.00334872 3 
60 117 340 2 3312.66724795 0.00000234 1 
61 19 342 0 0.00494520 0.00339107 3 
62 25 342 0 0.12855172 0.00407527 4 
63 172 342 0 0.01223902 0.00413391 4 
64 178 342 0 0.12442988 0.00418285 4 
65 25 367 0 0.11414782 0.00378977 3 
66 32 367 0 0.01267433 0.00597596 6 
67 178 367 0 0.00286807 0.00374737 3 
68 183 367 0 0.06698524 0.00379425 3 
69 25 374 0 0.56424690 0.00460702 4 
70 32 374 0 0.09892849 0.00536166 5 
71 178 374 0 0.03055075 0.00462113 4 
72 183 374 0 0.05309447 0.00461022 4 
73 32 382 0 4.14688582 0.00393294 3 
74 183 382 0 1.28811506 0.00467454 4 
75 32 387 0 2.72468715 0.00474878 4 
76 183 387 0 0.18197642 0.00473349 4 
77 189 414 0 7.69047346 0.00587235 5 
78 44 437 0 0.00915802 0.00439312 3 
79 195 437 0 0.01161094 0.00438629 3 
80 44 454 0 0.65644164 0.00452840 3 
81 189 454 0 0.03962740 0.00543536 4 
82 44 467 0 0.12345281 0.00643283 5 
83 50 467 0 0.00895575 0.01026320 9 
84 195 467 0 0.00230988 0.00464817 3 
85 195 484 0 0.09447226 0.00575146 4 
86 44 494 0 0.02880924 0.00577898 4 
87 50 494 0 0.00628832 0.00483109 3 
88 195 494 0 0.00818961 0.00684728 5 
89 201 494 0 0.00469852 0.00684674 5 
90 92 495 2 889.21576186 0.00000444 1 
91 90 497 2 1439.65861918 0.00000279 1 
92 50 500 0 0.14406209 0.00696055 5 
93 201 500 0 0.05353930 0.00491220 3 
94 203 500 0 0.03252445 0.00490584 3 
95 128 502 2 3937.86916580 0.00000338 1 
96 61 508 0 0.99413579 0.00711855 5 
97 203 508 0 0.26947301 0.01226521 10 
98 209 508 0 0.03711473 0.00605921 4 
99 205 515 2 1081.72574484 0.00000264 1 
100 61 522 0 1.37942234 0.00614212 4 
101 203 522 0 0.12859200 0.00511107 3 
102 209 522 0 0.00542469 0.00512530 3 
103 61 528 0 0.47936102 0.00516562 3 
104 67 528 0 0.22419307 0.00630662 4 
105 81 528 0 0.23233822 0.00852039 6 
106 209 528 0 0.09444678 0.01064185 8 
107 220 528 0 0.13668760 0.00625602 4 
108 67 532 0 0.05459173 0.01184176 9 
109 81 532 0 0.11826401 0.00849360 6 
110 220 532 0 0.05648169 0.00636262 4 
111 56 547 2 201.97227505 0.00000305 1 
112 67 556 0 0.98233216 0.00650732 4 
113 319 558 2 584.10769774 0.00000330 1 
114 67 564 0 0.40168838 0.01235991 9 
115 81 564 0 0.02280941 0.00664052 4 
116 220 564 0 0.02684857 0.00666705 4 
117 67 567 0 2.67253169 0.00781612 5 
118 81 567 0 0.48923871 0.00903042 6 
119 220 567 0 0.21723258 0.00665173 4 
120 67 570 0 2.40706627 0.00912645 6 
121 81 570 0 0.15671702 0.00905450 6 
122 220 570 0 0.13379867 0.00675617 4 
123 81 575 0 2.76594993 0.00794325 5 
124 220 575 0 1.08612706 0.01048020 7 
125 81 588 0 0.01497138 0.00569541 3 
126 87 588 0 0.47937722 0.00821012 5 
127 226 588 0 0.43156268 0.00692778 4 
128 87 597 0 2.27648751 0.00959225 6 
129 94 597 0 0.38888315 0.00701835 4 
130 226 597 0 0.55079633 0.00833918 5 
131 71 599 2 7017.37804556 0.00000316 1 
132 87 604 0 0.47149562 0.00712890 4 
133 94 604 0 0.01542269 0.00843108 5 
134 94 616 0 0.01350372 0.01237278 8 
135 94 632 0 2.16969694 0.00879865 5 
136 264 632 2 1768.93503606 0.00000339 5 
137 94 637 0 4.44236402 0.01007428 6 
138 101 637 0 0.19098383 0.00753958 4 
139 7 637 2 1623.85221326 0.00000363 4 
140 101 642 0 0.11555601 0.00893145 5 
141 107 642 0 0.04025021 0.01413442 9 
142 437 643 2 2169.96102493 0.00000429 1 
143 101 645 0 6.69527511 0.00767480 4 
144 107 645 0 1.54205090 0.00753174 4 
145 101 657 0 0.73548669 0.01678592 10 
146 101 663 0 0.04971914 0.01676097 10 
147 107 663 0 0.01781179 0.00916374 5 
148 114 663 0 0.00275957 0.00917214 5 
149 101 665 0 1.55112265 0.01350768 8 
150 107 665 0 0.47667103 0.00782209 4 
151 114 665 0 0.13329170 0.00651425 3 
152 107 680 0 1.48615866 0.00939232 5 
153 107 683 0 0.94462224 0.00809062 4 
154 114 683 0 0.32178225 0.00955687 5 
155 633 686 2 696.28582570 0.00000351 1 
156 107 704 0 0.34268109 0.01268590 7 
157 114 704 0 0.07528002 0.01559012 9 
158 296 706 2 954.91263252 0.00000324 1 
159 107 714 0 1.79639085 0.01150324 6 
160 114 714 0 0.02860377 0.01443394 8 
161 590 720 2 4788.39379399 0.00000382 1 
162 695 728 2 1114.66465548 0.00000461 1 
163 107 730 0 0.19656714 0.01019942 5 
164 114 730 0 0.03540690 0.00862275 4 
165 207 742 2 77.14966492 0.00000345 1 
166 681 746 2 831.22863901 0.00000316 1 
167 121 754 0 0.33113739 0.00880579 4 
168 126 754 0 0.07673382 0.01521926 8 
169 121 759 0 2.33625684 0.01201552 6 
170 126 759 0 0.22329988 0.01209374 6 
171 622 760 2 1990.23759680 0.00000373 1 
172 126 762 0 7.08482229 0.01045179 5 
173 132 762 0 2.00372045 0.01541724 8 
174 724 777 2 796.03207495 0.00000353 1 
175 132 778 0 0.06999780 0.00908183 4 
176 590 785 2 954.69866879 0.00000411 1 
177 64 789 2 2362.49492415 0.00000419 1 
178 132 792 0 1.26802734 0.00930324 4 
179 132 800 0 3.35686460 0.00918353 4 
180 138 800 0 0.14494330 0.01257395 6 
181 138 806 0 0.25140739 0.00754623 3 
182 181 815 2 1108.32114277 0.00000329 1 
183 138 821 0 0.40674396 0.01113169 5 
184 138 823 0 6.54725682 0.00945033 4 
185 151 828 0 3.12108818 0.00953576 4 
186 413 842 2 894.84243257 0.00000373 1 
187 151 847 0 0.08724621 0.01151517 5 
188 151 855 0 0.11494457 0.01517945 7 
189 235 875 2 137.00369663 0.00000359 1 
190 433 884 2 46.02604674 0.00000372 1 
191 151 895 0 2.80701437 0.01766777 8 
192 151 897 0 0.06118057 0.02141035 10 
193 138 903 0 0.08157811 0.01024223 4 
194 138 904 0 7.06392298 0.01401009 6 
195 132 907 0 0.71874717 0.01030505 4 
196 138 907 0 0.22077132 0.01220264 5 
197 366 910 2 3106.20799628 0.00000431 1 
198 132 911 0 0.23128175 0.01223445 5 
199 121 923 0 0.62636126 0.01552898 6 
200 126 923 0 0.07130653 0.01051013 4 
201 107 929 0 0.07225325 0.01253856 5 
202 114 929 0 0.00477553 0.01058580 4 
203 107 935 0 4.91438615 0.01653571 7 
204 114 935 0 1.40337639 0.01658431 7 
205 101 939 0 0.48567419 0.01070076 4 
206 107 939 0 0.21174614 0.01072108 4 
207 101 944 0 0.15377935 0.01274006 5 
208 94 947 0 0.23772432 0.01675234 7 
209 101 947 0 0.16826262 0.01479975 6 
210 87 953 0 0.13504795 0.01090024 4 
211 94 953 0 0.06505521 0.01492882 6 
212 226 953 0 0.08268323 0.02300797 10 
213 515 953 2 2404.18856533 0.00000492 10 
214 81 959 0 1.83528326 0.02437886 10 
215 87 959 0 1.29172246 0.01710544 7 
216 220 959 0 0.04883629 0.01104436 4 
217 226 959 0 0.12130941 0.01306997 5 
218 263 960 2 3766.28270570 0.00000454 1 
219 67 965 0 1.01368609 0.01315196 5 
220 81 965 0 0.31066014 0.01520677 6 
221 220 965 0 0.16483276 0.01935142 8 
222 61 976 0 0.16803746 0.01743325 7 
223 67 976 0 0.05676300 0.00915420 3 
224 209 976 0 0.00780965 0.01124131 4 
225 50 982 0 0.38354811 0.01133898 4 
226 61 982 0 0.27147698 0.01133949 4 
227 201 982 0 0.22200943 0.01135348 4 
228 203 982 0 0.10573284 0.02192618 9 
229 44 988 0 0.09550719 0.01143392 4 
230 50 988 0 0.05924873 0.01150170 4 
231 195 988 0 0.04319526 0.01569538 6 
232 201 988 0 0.02685916 0.01355425 5 
233 44 994 0 0.51683435 0.01788109 7 
234 189 994 0 0.29989154 0.02572163 10 
235 195 994 0 0.21957432 0.01369200 5 
236 32 1003 0 0.23901034 0.01382467 5 
237 178 1003 0 0.03356851 0.02602201 10 
238 183 1003 0 0.01433170 0.01601146 6 
239 25 1008 0 1.23858172 0.01832812 7 
240 32 1008 0 0.53803958 0.01175471 4 
241 178 1008 0 0.34459610 0.01186110 4 
242 183 1008 0 0.22233868 0.01186106 4 
243 25 1010 0 0.60236133 0.01179505 4 
244 32 1010 0 0.30591807 0.01407463 5 
245 172 1010 0 0.10368354 0.01636394 6 
246 178 1010 0 0.19279072 0.02651122 10 
247 983 1012 2 2564.07051238 0.00000477 10 
248 19 1016 0 0.44047719 0.02063793 8 
249 166 1016 0 0.20189646 0.01191797 4 
250 172 1016 0 0.07393216 0.01421095 5 
251 151 1029 0 0.03533130 0.01436358 5 
252 157 1029 0 0.02672450 0.01210539 4 
253 163 1029 0 3.39703566 0.01210937 4 
254 166 1029 0 0.49353449 0.01209934 4 
255 356 1046 2 802.82196552 0.00000608 1 
256 685 1046 2 893.28281761 0.00000188 1 
257 724 1048 2 682.34196371 0.00000578 1 
258 740 1050 2 631.03327094 0.00000538 1 
259 538 1082 2 386.50906845 0.00000539 1 
260 132 1084 0 4.21993706 0.01511422 5 
261 632 1094 2 542.48711608 0.00000596 1 
262 463 1114 2 1107.81109598 0.00000541 1 
263 536 1115 2 285.49761952 0.00000572 1 
264 352 1123 2 284.69072135 0.00000669 1 
265 381 1135 2 512.92540069 0.00000613 1 
266 101 1138 0 0.63021658 0.01579408 5 
267 2 1139 2 376.45052085 0.00000565 1 
268 107 1147 0 0.73708347 0.01327770 4 
269 114 1147 0 0.03971358 0.01083623 3 
270 107 1150 0 7.45683387 0.01334975 4 
271 114 1150 0 1.00561260 0.01089176 3 
272 114 1158 0 0.16899687 0.01094271 3 
273 121 1158 0 0.69099743 0.01349223 4 
274 121 1164 0 0.45182924 0.01608021 5 
275 126 1164 0 0.04418665 0.01367431 4 
276 114 1175 0 0.14266969 0.01380815 4 
277 121 1175 0 0.27324351 0.01388028 4 
278 923 1175 0 0.18719011 0.01386277 4 
279 929 1175 0 0.16073549 0.01382400 4 
280 1158 1175 0 0.00134797 0.01130597 3 
281 101 1188 0 0.32950319 0.01402798 4 
282 939 1188 0 0.55418798 0.01399774 4 
283 1138 1188 0 0.03006025 0.01149497 3 
284 1147 1188 0 0.04063922 0.01142009 3 
285 1150 1188 0 1.83245351 0.01400977 4 
286 1005 1191 2 3176.96754431 0.00000581 1 
287 364 1192 2 841.90955707 0.00000576 1 
288 1068 1194 2 1173.76642615 0.00000551 1 
289 1050 1210 0 0.00345523 0.01414512 4 
290 1061 1210 0 0.57363906 0.01686709 5 
291 1075 1210 0 0.23107861 0.01686639 5 
292 1084 1210 0 3.13555510 0.01686326 5 
293 1088 1210 0 0.59156319 0.01425414 4 
294 1093 1210 0 0.13111230 0.01952497 6 
295 1098 1210 0 0.04730346 0.01424047 4 
296 16 1210 2 1148.98152556 0.00000498 4 
297 129 1211 2 3912.30872809 0.00000586 1 
298 563 1213 2 3997.90093574 0.00000553 1 
299 157 1217 0 0.32750279 0.01445667 4 
300 163 1217 0 0.19904338 0.01451057 4 
301 1029 1217 0 0.01250493 0.01179798 3 
302 1044 1217 0 3.98258990 0.01451946 4 
303 1050 1217 0 4.97161000 0.01725631 5 
304 163 297 0 0.27920255 0.01531307 4 
305 189 400 0 2.09679271 0.01467343 4 
306 1056 1217 0 9.66143264 0.01734212 5 
