1 48 67 0.00030093 3 
2 26 130 0.00131189 6 
3 19 166 0.00288926 10 
4 19 172 0.00303701 10 
5 25 172 0.00316922 10 
6 68 176 0.00320074 10 
7 25 178 0.00323594 10 
8 32 178 0.00327059 10 
9 155 179 0.00329134 10 
10 32 183 0.00344853 10 
11 44 189 0.00358585 10 
12 44 195 0.00361943 10 
13 50 195 0.00365199 10 
14 126 200 0.00377265 10 
15 50 201 0.00380629 10 
16 50 203 0.00384266 10 
17 61 203 0.00384409 10 
18 43 206 0.00394185 10 
19 61 209 0.00402440 10 
20 67 209 0.00401514 10 
21 67 220 0.00423346 10 
22 81 220 0.00426624 10 
23 81 226 0.00439092 10 
24 87 226 0.00442737 10 
25 87 231 0.00453308 10 
26 94 231 0.00453532 10 
27 226 231 0.00454936 10 
28 198 232 0.00466130 10 
29 94 241 0.00485249 10 
30 101 241 0.00485796 10 
31 101 247 0.00501744 10 
32 107 247 0.00496870 10 
33 107 254 0.00507545 10 
34 114 254 0.00508637 10 
35 217 254 0.00519911 10 
36 107 256 0.00524073 10 
37 114 256 0.00523867 10 
38 107 258 0.00529706 10 
39 114 258 0.00529837 10 
40 161 265 0.00552762 10 
41 121 266 0.00557378 10 
42 126 266 0.00557908 10 
43 118 270 0.00568000 10 
44 126 272 0.00573320 10 
45 132 272 0.00589070 10 
46 132 278 0.00601852 10 
47 138 278 0.00601734 10 
48 104 280 0.00608862 10 
49 138 284 0.00619470 10 
50 151 284 0.00620157 10 
51 151 291 0.00631847 10 
52 4 295 0.00649160 10 
53 151 297 0.00653852 10 
54 157 297 0.00668738 10 
55 163 297 0.00673289 10 
56 166 297 0.00676735 10 
57 34 303 0.00698661 10 
58 19 305 0.00699640 10 
59 157 305 0.00704084 10 
60 163 305 0.00708140 10 
61 166 305 0.00706370 10 
62 172 305 0.00706341 10 
63 116 308 0.00713308 10 
64 29 313 0.00732777 10 
65 19 315 0.00738078 10 
66 25 315 0.00740194 10 
67 172 315 0.00741333 10 
68 179 321 0.00756263 10 
69 172 328 0.00771486 10 
70 19 337 0.00784670 10 
71 25 337 0.00776215 10 
72 172 337 0.00833685 10 
73 19 342 0.00787374 10 
74 25 342 0.00803957 10 
75 172 342 0.00484261 6 
76 178 342 0.00790052 10 
77 271 348 0.00811667 10 
78 13 356 0.00327133 4 
79 219 359 0.00763306 9 
80 25 367 0.00599472 7 
81 32 367 0.00865729 10 
82 178 367 0.00792403 9 
83 183 367 0.00866573 10 
84 25 374 0.00877994 10 
85 32 374 0.00896580 10 
86 178 374 0.00628133 7 
87 183 374 0.00881046 10 
88 240 379 0.00900977 10 
89 175 379 0.00647748 7 
90 32 382 0.00905990 10 
91 183 382 0.00911559 10 
92 132 382 0.00930690 10 
93 32 387 0.00921731 10 
94 183 387 0.00658773 7 
95 28 393 0.00651194 7 
96 189 400 0.00964218 10 
97 397 405 0.00575552 6 
98 175 411 0.00892822 9 
99 268 411 0.01047915 10 
100 343 412 0.00922432 9 
101 189 414 0.01031769 10 
102 371 422 0.01051659 10 
103 136 426 0.01082635 10 
104 365 429 0.01090834 10 
105 8 433 0.01092312 10 
106 269 433 0.01134675 10 
107 44 437 0.01138042 10 
108 195 437 0.01180109 10 
109 139 438 0.01156077 10 
110 359 449 0.01179174 10 
111 432 452 0.00830708 7 
112 286 452 0.01214446 10 
113 44 454 0.00967390 8 
114 189 454 0.01215756 10 
115 317 455 0.01240938 10 
116 371 459 0.01000155 8 
117 68 461 0.01241981 10 
118 396 466 0.01134124 9 
119 44 467 0.01010943 8 
120 50 467 0.01298524 10 
121 195 467 0.00535440 4 
122 236 479 0.01332806 10 
123 195 484 0.00803634 6 
124 345 487 0.01091364 8 
125 203 489 0.00959274 7 
126 253 491 0.01382679 10 
127 163 491 0.01404027 10 
128 44 494 0.00823146 6 
129 50 494 0.01103568 8 
130 195 494 0.00825854 6 
131 201 494 0.00969430 7 
132 50 500 0.01259242 9 
133 201 500 0.01401029 10 
134 203 500 0.01408656 10 
135 462 502 0.01000318 7 
136 61 508 0.01483713 10 
137 203 508 0.01482712 10 
138 209 508 0.01559666 10 
139 65 508 0.01089817 7 
140 405 515 0.01503273 10 
141 61 522 0.01552583 10 
142 203 522 0.01581181 10 
143 209 522 0.01574312 10 
144 323 523 0.01593758 10 
145 61 528 0.01442556 9 
146 67 528 0.01616579 10 
147 81 528 0.01638922 10 
148 209 528 0.01639959 10 
149 220 528 0.01624595 10 
150 67 532 0.00953237 6 
151 81 532 0.01604378 10 
152 220 532 0.01633382 10 
153 151 534 0.01608672 10 
154 107 534 0.01618434 10 
155 484 536 0.01312416 8 
156 372 539 0.01711652 10 
157 67 556 0.01753054 10 
158 67 564 0.01768064 10 
159 81 564 0.01613965 9 
160 220 564 0.01771365 10 
161 215 564 0.01801845 10 
162 67 567 0.01778473 10 
163 81 567 0.01808977 10 
164 220 567 0.01810548 10 
165 67 570 0.01787013 10 
166 81 570 0.01820104 10 
167 220 570 0.01821061 10 
168 278 573 0.01808452 10 
169 515 573 0.01841101 10 
170 61 573 0.01831018 10 
171 81 575 0.01839145 10 
172 220 575 0.01838317 10 
173 452 576 0.01834693 10 
174 200 584 0.01843033 10 
175 243 584 0.01874867 10 
176 316 586 0.01890734 10 
177 81 588 0.01917746 10 
178 87 588 0.01949636 10 
179 226 588 0.01949352 10 
180 274 589 0.01948979 10 
181 180 589 0.01962638 10 
182 393 591 0.01941134 10 
183 424 595 0.01943082 10 
184 155 596 0.02012112 10 
185 87 597 0.02092738 10 
186 94 597 0.02099829 10 
187 226 597 0.02102394 10 
188 87 604 0.02085337 10 
189 94 604 0.02116647 10 
190 505 606 0.02081760 10 
191 174 606 0.02127285 10 
192 399 609 0.02103837 10 
193 94 616 0.01910748 9 
194 196 624 0.02139163 10 
195 68 626 0.02172541 10 
196 94 632 0.02184960 10 
197 81 632 0.02268625 10 
198 199 635 0.02261436 10 
199 94 637 0.02257299 10 
200 101 637 0.02301089 10 
201 475 640 0.02292334 10 
202 101 642 0.02302395 10 
203 107 642 0.02329854 10 
204 55 643 0.02365645 10 
205 101 645 0.02361936 10 
206 107 645 0.02371945 10 
207 621 648 0.02376741 10 
208 116 652 0.02399939 10 
209 249 656 0.01176165 5 
210 315 656 0.02377981 10 
211 101 657 0.02386330 10 
212 419 660 0.02449902 10 
213 101 663 0.01467093 6 
214 107 663 0.02440785 10 
215 114 663 0.02513170 10 
216 550 663 0.02529042 10 
217 101 665 0.02494847 10 
218 107 665 0.02534765 10 
219 114 665 0.02536987 10 
220 447 670 0.02526076 10 
221 466 678 0.02562560 10 
222 279 678 0.02598004 10 
223 601 679 0.02626536 10 
224 107 680 0.02594827 10 
225 107 683 0.02599554 10 
226 114 683 0.02712537 10 
227 186 697 0.02685494 10 
228 470 703 0.02737111 10 
229 107 704 0.02739401 10 
230 114 704 0.02783608 10 
231 619 705 0.02750128 10 
232 64 708 0.02763314 10 
233 107 714 0.02766475 10 
234 114 714 0.02805569 10 
235 398 715 0.02811212 10 
236 651 721 0.02229533 8 
237 667 723 0.04666178 10 
238 44 726 0.17104635 10 
239 280 729 0.17689851 10 
240 450 729 0.18514996 10 
241 107 730 0.19047751 10 
242 114 730 0.18647436 10 
243 120 732 0.18293431 10 
244 224 733 0.02976001 10 
245 680 747 0.02964652 10 
246 649 749 0.02952409 10 
247 267 751 0.02985004 10 
248 433 752 0.03026072 10 
249 121 754 0.03051978 10 
250 126 754 0.03020413 10 
251 692 754 0.03059595 10 
252 413 757 0.03105701 10 
253 121 759 0.03053024 10 
254 126 759 0.03092922 10 
255 126 762 0.03058503 10 
256 132 762 0.03096698 10 
257 172 769 0.03061398 10 
258 297 770 0.03121017 10 
259 290 772 0.03099630 10 
260 119 774 0.03101924 10 
261 400 774 0.03180026 10 
262 132 778 0.03148343 10 
263 132 792 0.03329800 10 
264 161 793 0.03208887 10 
265 777 798 0.03160361 10 
266 132 800 0.03176540 10 
267 138 800 0.03227717 10 
268 138 806 0.03195404 10 
269 299 807 0.03243822 10 
270 782 808 0.03238765 10 
271 260 808 0.03243555 10 
272 481 811 0.03272369 10 
273 329 812 0.03333074 10 
274 224 813 0.03302104 10 
275 225 813 0.03299144 10 
276 775 814 0.03385926 10 
277 138 821 0.03355872 10 
278 138 823 0.03358260 10 
279 508 826 0.03366302 10 
280 151 828 0.03371127 10 
281 510 829 0.03357712 10 
282 801 831 0.03459798 10 
283 732 832 0.03427640 10 
284 649 840 0.03362440 10 
285 546 843 0.03406063 10 
286 449 845 0.03431511 10 
287 166 846 0.03465922 10 
288 151 847 0.03417270 10 
289 553 848 0.03432749 10 
290 754 854 0.03466843 10 
291 605 854 0.03608373 10 
292 151 855 0.03506890 10 
293 565 855 0.03558180 10 
294 385 859 0.03563598 10 
295 758 864 0.03558390 10 
296 141 866 0.03629392 10 
297 774 867 0.03595218 10 
298 588 868 0.03673244 10 
299 745 874 0.03674004 10 
300 192 875 0.03724977 10 
301 377 877 0.03634566 10 
302 687 882 0.03710736 10 
303 541 886 0.03742672 10 
304 741 889 0.03691450 10 
305 832 892 0.03802972 10 
306 151 895 0.03805252 10 
307 37 895 0.03867981 10 
308 151 897 0.03870358 10 
309 463 897 0.03952472 10 
310 138 903 0.03903818 10 
311 138 904 0.03903077 10 
312 68 905 0.03905893 10 
313 770 905 0.03958486 10 
314 871 906 0.03527909 9 
315 132 907 0.03911200 10 
316 138 907 0.03962970 10 
317 313 908 0.03918810 10 
318 854 910 0.02762329 7 
319 103 910 0.04002970 10 
320 132 911 0.03966726 10 
321 217 912 0.03970787 10 
322 279 915 0.04051021 10 
323 536 919 0.04055503 10 
324 138 921 0.04063964 10 
325 463 922 0.04058758 10 
326 121 923 0.04154457 10 
327 126 923 0.04206380 10 
328 661 924 0.04156074 10 
329 261 928 0.04204745 10 
330 320 928 0.04224541 10 
331 107 929 0.04188728 10 
332 114 929 0.04227276 10 
333 643 930 0.04506079 10 
334 700 932 0.04360679 10 
335 738 932 0.04474959 10 
336 107 935 0.04433991 10 
337 114 935 0.04487053 10 
338 101 939 0.04446554 10 
339 107 939 0.04495689 10 
340 144 939 0.04461916 10 
341 768 939 0.04531308 10 
342 28 943 0.04512507 10 
343 486 943 0.04565818 10 
344 101 944 0.04586333 10 
345 94 947 0.04528130 10 
346 101 947 0.04580150 10 
347 738 949 0.04560799 10 
348 87 953 0.04562231 10 
349 94 953 0.04624016 10 
350 226 953 0.04616609 10 
351 81 959 0.04583545 10 
352 87 959 0.04632432 10 
353 220 959 0.04635957 10 
354 226 959 0.04637388 10 
355 487 962 0.04634596 10 
356 474 962 0.04652200 10 
357 439 962 0.04737121 10 
358 67 965 0.04687223 10 
359 81 965 0.04744074 10 
360 220 965 0.04742526 10 
361 543 967 0.04797946 10 
362 229 967 0.04855227 10 
363 620 975 0.04721901 10 
364 61 976 0.04737350 10 
365 67 976 0.04790599 10 
366 209 976 0.04872734 10 
367 11 976 0.04895288 10 
368 170 977 0.04940592 10 
369 50 982 0.04942921 10 
370 61 982 0.05002493 10 
371 201 982 0.04975988 10 
372 203 982 0.03972417 8 
373 386 982 0.04844132 10 
374 910 984 0.04881638 10 
375 470 985 0.04425444 9 
376 44 988 0.04888029 10 
377 50 988 0.05087699 10 
378 195 988 0.05038462 10 
379 201 988 0.02962939 6 
380 155 988 0.04974726 10 
381 354 991 0.04974578 10 
382 948 991 0.05062818 10 
383 223 993 0.05079090 10 
384 44 994 0.05087523 10 
385 189 994 0.05088257 10 
386 195 994 0.05089639 10 
387 777 994 0.05142394 10 
388 409 998 0.03031490 6 
389 769 998 0.05174954 10 
390 888 1000 0.05183599 10 
391 159 1002 0.05243347 10 
392 32 1003 0.05169587 10 
393 178 1003 0.05286364 10 
394 183 1003 0.05288190 10 
395 770 1003 0.05258166 10 
396 25 1008 0.05210686 10 
397 32 1008 0.05266366 10 
398 178 1008 0.05271030 10 
399 183 1008 0.05277405 10 
400 25 1010 0.05217762 10 
401 32 1010 0.05273944 10 
402 172 1010 0.05279983 10 
403 178 1010 0.05289864 10 
404 114 1011 0.05225755 10 
405 19 1016 0.05236528 10 
406 166 1016 0.05370322 10 
407 172 1016 0.05371181 10 
408 918 1025 0.05414461 10 
409 151 1029 0.05416474 10 
410 157 1029 0.05519555 10 
411 163 1029 0.05530052 10 
412 166 1029 0.05368594 10 
413 279 1029 0.05515753 10 
414 345 1032 0.05414205 10 
415 60 1037 0.05578858 10 
416 427 1038 0.05624188 10 
417 415 1041 0.05478215 10 
418 69 1042 0.05549938 10 
419 591 1047 0.05461801 10 
420 971 1051 0.05763692 10 
421 179 1059 0.05777267 10 
422 155 1070 0.03888731 7 
423 581 1071 0.05705899 10 
424 615 1078 0.05907309 10 
425 1059 1078 0.05878927 10 
426 724 1080 0.05851748 10 
427 764 1081 0.05873674 10 
428 132 1084 0.05845307 10 
429 952 1096 0.05865563 10 
430 795 1099 0.05962951 10 
431 23 1102 0.05989440 10 
432 626 1107 0.06025531 10 
433 556 1109 0.06094474 10 
434 156 1111 0.06182924 10 
435 181 1111 0.06235810 10 
436 872 1113 0.06161440 10 
437 228 1117 0.06229255 10 
438 1072 1121 0.06526111 10 
439 514 1125 0.06367751 10 
440 305 1125 0.06477797 10 
441 170 1126 0.06436145 10 
442 247 1133 0.06429348 10 
443 71 1134 0.06458448 10 
444 468 1134 0.06578330 10 
445 866 1136 0.06543721 10 
446 101 1138 0.06546866 10 
447 145 1144 0.06630419 10 
448 268 1146 0.06485744 10 
449 107 1147 0.06489819 10 
450 114 1147 0.06493120 10 
451 134 1148 0.06673115 10 
452 107 1150 0.06670771 10 
453 114 1150 0.06675350 10 
454 582 1150 0.06623578 10 
455 276 1153 0.06721619 10 
456 720 1156 0.06624385 10 
457 114 1158 0.06657755 10 
458 121 1158 0.06708500 10 
459 853 1160 0.06674342 10 
460 1100 1161 0.06758720 10 
461 174 1161 0.06884556 10 
462 121 1164 0.06851523 10 
463 126 1164 0.06844349 10 
464 206 1165 0.06852491 10 
465 271 1166 0.06812249 10 
466 114 1175 0.06845110 10 
467 121 1175 0.06834740 10 
468 923 1175 0.06812816 10 
469 929 1175 0.07154859 10 
470 1158 1175 0.07158341 10 
471 202 1186 0.07170777 10 
472 274 1186 0.07165028 10 
473 970 1186 0.07350246 10 
474 37 1187 0.07073381 10 
475 101 1188 0.07090792 10 
476 939 1188 0.07091373 10 
477 1138 1188 0.07147096 10 
478 1147 1188 0.07148230 10 
479 1150 1188 0.07135704 10 
480 936 1188 0.07217089 10 
481 533 1188 0.07401317 10 
482 404 1192 0.07418722 10 
483 287 1196 0.07346692 10 
484 172 1196 0.07246463 10 
485 178 1201 0.07262174 10 
486 139 1202 0.07463260 10 
487 686 1208 0.07320148 10 
488 482 1208 0.07338929 10 
489 1050 1210 0.07484282 10 
490 1061 1210 0.07570747 10 
491 1075 1210 0.07624344 10 
492 1084 1210 0.07592286 10 
493 1088 1210 0.07589764 10 
494 1093 1210 0.07595012 10 
495 1098 1210 0.07601519 10 
496 982 1210 0.07602377 10 
497 729 1211 0.07515778 10 
498 157 1217 0.07497646 10 
499 163 1217 0.07547062 10 
500 1029 1217 0.07550986 10 
501 1044 1217 0.07659417 10 
502 1050 1217 0.07632597 10 
503 1056 1217 0.07635867 10 
504 75 1217 0.07635917 10 
505 544 1224 0.07862684 10 
506 617 1227 0.07828375 10 
