1 19 166 0.00293294 10 
2 38 166 0.00297327 10 
3 19 172 0.00309745 10 
4 25 172 0.00317675 10 
5 25 178 0.00330186 10 
6 32 178 0.00329136 10 
7 32 183 0.00339798 10 
8 44 189 0.00350830 10 
9 44 195 0.00362805 10 
10 50 195 0.00362264 10 
11 50 201 0.00373793 10 
12 50 203 0.00377830 10 
13 61 203 0.00376886 10 
14 61 209 0.00389049 10 
15 67 209 0.00389180 10 
16 67 220 0.00407710 10 
17 81 220 0.00406627 10 
18 81 226 0.00418400 10 
19 87 226 0.00417670 10 
20 87 231 0.00428455 10 
21 94 231 0.00428542 10 
22 226 231 0.00427766 10 
23 94 241 0.00449080 10 
24 101 241 0.00448363 10 
25 101 247 0.00565951 10 
26 107 247 0.00461836 10 
27 107 254 0.00473076 10 
28 114 254 0.00473979 10 
29 189 254 0.00482239 10 
30 107 256 0.00488779 10 
31 114 256 0.00490696 10 
32 107 258 0.00492714 10 
33 114 258 0.00497429 10 
34 121 266 0.00511506 10 
35 126 266 0.00511026 10 
36 126 272 0.00523808 10 
37 132 272 0.00526566 10 
38 132 278 0.00537922 10 
39 138 278 0.00539269 10 
40 138 284 0.00550694 10 
41 151 284 0.00549984 10 
42 151 291 0.00578943 10 
43 151 297 0.00576966 10 
44 157 297 0.00577245 10 
45 163 297 0.00575202 10 
46 166 297 0.00575430 10 
47 19 305 0.00599868 10 
48 157 305 0.00600462 10 
49 163 305 0.00604665 10 
50 166 305 0.00604091 10 
51 172 305 0.00605150 10 
52 19 315 0.00652257 10 
53 25 315 0.01289014 10 
54 172 315 0.01245579 10 
55 172 328 0.00649405 10 
56 35 333 0.00810385 10 
57 19 337 0.00673522 10 
58 25 337 0.00675498 10 
59 172 337 0.00678204 10 
60 19 342 0.00685723 10 
61 25 342 0.00688079 10 
62 172 342 0.00687865 10 
63 178 342 0.00690949 10 
64 25 367 0.00426890 6 
65 32 367 0.00500064 7 
66 178 367 0.00500579 7 
67 183 367 0.00500920 7 
68 25 374 0.00738447 10 
69 32 374 0.00759656 10 
70 178 374 0.00529429 7 
71 183 374 0.00664991 9 
72 32 382 0.00601275 8 
73 183 382 0.00759779 10 
74 32 387 0.00762079 10 
75 183 387 0.00453821 6 
76 189 400 0.00797264 10 
77 253 407 0.00730082 9 
78 376 410 0.00737940 9 
79 59 413 0.00668426 8 
80 189 414 0.00846918 10 
81 74 421 0.00865789 10 
82 306 426 0.00877139 10 
83 44 437 0.00901037 10 
84 195 437 0.00631860 7 
85 44 454 0.00744749 8 
86 189 454 0.00743100 8 
87 44 467 0.00665489 7 
88 50 467 0.00773314 8 
89 195 467 0.00495352 3 
90 195 484 0.00492582 5 
91 44 494 0.00503826 5 
92 50 494 0.00607578 6 
93 195 494 0.00503415 5 
94 201 494 0.00712664 7 
95 50 500 0.00824695 8 
96 201 500 0.00825560 8 
97 203 500 0.00615676 6 
98 286 503 0.01060107 10 
99 229 506 0.00853892 8 
100 170 507 0.00865659 8 
101 145 507 0.01095848 10 
102 61 508 0.01094185 10 
103 203 508 0.01121800 10 
104 209 508 0.00899603 8 
105 406 510 0.00886191 8 
106 175 516 0.01124081 10 
107 404 517 0.00672688 6 
108 61 522 0.01150615 10 
109 203 522 0.01176861 10 
110 209 522 0.01055878 9 
111 81 524 0.01165703 10 
112 61 528 0.00931083 8 
113 67 528 0.01175694 10 
114 81 528 0.01202526 10 
115 209 528 0.01195735 10 
116 220 528 0.01179869 10 
117 67 532 0.00702569 6 
118 81 532 0.01186869 10 
119 220 532 0.01213757 10 
120 375 539 0.01079379 9 
121 166 546 0.01092192 9 
122 542 546 0.00477000 4 
123 531 553 0.00484282 4 
124 67 556 0.01247078 10 
125 67 564 0.01263975 10 
126 81 564 0.01030645 8 
127 220 564 0.01259365 10 
128 67 567 0.01273028 10 
129 81 567 0.01304150 10 
130 220 567 0.01303882 10 
131 67 570 0.01281909 10 
132 81 570 0.01311236 10 
133 220 570 0.01695009 10 
134 81 575 0.01325235 10 
135 220 575 0.01325811 10 
136 81 588 0.01320738 10 
137 87 588 0.01359886 10 
138 226 588 0.01534606 10 
139 87 597 0.01355173 10 
140 94 597 0.01468024 10 
141 226 597 0.01391202 10 
142 397 603 0.01387303 10 
143 87 604 0.01419856 10 
144 94 604 0.01424083 10 
145 127 611 0.01420272 10 
146 94 616 0.01145887 8 
147 94 632 0.01476383 10 
148 94 637 0.01487600 10 
149 101 637 0.01502822 10 
150 101 642 0.01595581 9 
151 107 642 0.01543363 10 
152 101 645 0.01493229 10 
153 107 645 0.01520190 10 
154 101 657 0.01509707 10 
155 389 657 0.01551329 10 
156 133 658 0.01528158 10 
157 101 663 0.01820080 10 
158 107 663 0.01549246 10 
159 114 663 0.01415679 9 
160 101 665 0.01542537 10 
161 107 665 0.01591016 10 
162 114 665 0.01578889 10 
163 107 680 0.01597227 10 
164 107 683 0.01581121 10 
165 114 683 0.02114505 10 
166 521 690 0.01648981 10 
167 104 690 0.01655966 10 
168 88 693 0.01649369 10 
169 284 693 0.01680784 10 
170 361 702 0.01693187 10 
171 107 704 0.01697687 10 
172 114 704 0.01739761 10 
173 574 706 0.01724453 10 
174 232 711 0.01744797 10 
175 107 714 0.01745295 10 
176 114 714 0.01801846 10 
177 705 719 0.01220351 7 
178 123 719 0.01773983 10 
179 107 730 0.01244928 7 
180 114 730 0.01795897 10 
181 1 752 0.01890176 10 
182 121 754 0.01874308 10 
183 126 754 0.01912689 10 
184 121 759 0.01884850 10 
185 126 759 0.01925204 10 
186 126 762 0.01894615 10 
187 132 762 0.01936047 10 
188 363 776 0.01939448 10 
189 154 777 0.01959110 10 
190 132 778 0.01162103 6 
191 132 792 0.01988524 10 
192 663 797 0.02030487 10 
193 132 800 0.02038195 10 
194 138 800 0.02080384 10 
195 138 806 0.02039513 10 
196 641 808 0.02065215 10 
197 138 821 0.01660166 8 
198 138 823 0.02082628 10 
199 151 828 0.02127291 10 
200 16 841 0.02159366 10 
201 266 841 0.02222476 10 
202 151 847 0.01957905 9 
203 151 855 0.01901760 7 
204 251 855 0.02195811 10 
205 844 860 0.01306237 6 
206 440 863 0.02308962 10 
207 491 870 0.02271912 10 
208 165 889 0.02109172 9 
209 151 895 0.02360571 10 
210 151 897 0.02399063 10 
211 231 899 0.02372045 10 
212 138 903 0.02384515 10 
213 138 904 0.02964715 10 
214 132 907 0.02392001 10 
215 138 907 0.02429909 10 
216 132 911 0.02548251 10 
217 121 923 0.02433465 10 
218 126 923 0.02482570 10 
219 107 929 0.02875762 10 
220 114 929 0.02623089 10 
221 107 935 0.02520978 10 
222 114 935 0.02587027 10 
223 136 938 0.02446513 10 
224 101 939 0.02762546 10 
225 107 939 0.01994642 8 
226 101 944 0.02446348 10 
227 94 947 0.03243338 10 
228 101 947 0.02604582 10 
229 355 949 0.02565796 10 
230 87 953 0.02608554 10 
231 94 953 0.02655846 10 
232 226 953 0.02754645 10 
233 81 959 0.02612363 10 
234 87 959 0.02659914 10 
235 220 959 0.02646919 10 
236 226 959 0.02649690 10 
237 67 965 0.02621446 10 
238 81 965 0.02669184 10 
239 220 965 0.02926008 10 
240 61 976 0.02622850 10 
241 67 976 0.02666704 10 
242 209 976 0.02668911 10 
243 50 982 0.02664559 10 
244 61 982 0.03172685 10 
245 201 982 0.02837738 10 
246 203 982 0.01682257 6 
247 74 987 0.03527070 10 
248 44 988 0.02675229 10 
249 50 988 0.01633591 6 
250 195 988 0.01851593 7 
251 201 988 0.01470547 5 
252 750 990 0.02722506 10 
253 277 993 0.02750646 10 
254 44 994 0.02761171 10 
255 189 994 0.02813008 10 
256 195 994 0.02852460 10 
257 32 1003 0.02855019 10 
258 178 1003 0.02899004 10 
259 183 1003 0.02283502 8 
260 629 1003 0.02866740 10 
261 25 1008 0.02878205 10 
262 32 1008 0.02937965 10 
263 178 1008 0.03226332 10 
264 183 1008 0.04726457 10 
265 25 1010 0.02892617 10 
266 32 1010 0.03046905 10 
267 172 1010 0.02933139 10 
268 178 1010 0.02933265 10 
269 19 1016 0.02885052 10 
270 166 1016 0.02964002 10 
271 172 1016 0.02365806 8 
272 151 1029 0.02952329 10 
273 157 1029 0.03000035 10 
274 163 1029 0.02990125 10 
275 166 1029 0.01797742 6 
276 674 1033 0.02965012 10 
277 629 1059 0.03008649 10 
278 623 1065 0.02990694 10 
279 566 1071 0.03039306 10 
280 3 1081 0.02995309 10 
281 132 1084 0.03390530 10 
282 82 1084 0.03267373 10 
283 624 1088 0.03430825 10 
284 681 1099 0.03180675 10 
285 714 1103 0.03224052 10 
286 647 1112 0.03252041 10 
287 176 1113 0.03303549 10 
288 602 1115 0.03309047 10 
289 520 1125 0.03274044 10 
290 101 1138 0.03307063 10 
291 438 1142 0.03398167 10 
292 107 1147 0.03399043 10 
293 114 1147 0.03399626 10 
294 107 1150 0.03401660 10 
295 114 1150 0.03399671 10 
296 1004 1152 0.03396475 10 
297 114 1158 0.03360435 10 
298 121 1158 0.03413791 10 
299 121 1164 0.03373550 10 
300 126 1164 0.03487713 10 
301 114 1175 0.03394080 10 
302 121 1175 0.03501273 10 
303 923 1175 0.03489207 10 
304 929 1175 0.03479373 10 
305 1158 1175 0.02427340 7 
306 995 1179 0.03427150 10 
307 1156 1183 0.03482382 10 
308 101 1188 0.03507381 10 
309 939 1188 0.03716412 10 
310 1138 1188 0.03497904 10 
311 1147 1188 0.03573993 10 
312 1150 1188 0.03527978 10 
313 779 1192 0.03548242 10 
314 513 1194 0.03659772 10 
315 527 1201 0.03622529 10 
316 423 1207 0.03648321 10 
317 1050 1210 0.03655618 10 
318 1061 1210 0.03766202 10 
319 1075 1210 0.03703383 10 
320 1084 1210 0.03755133 10 
321 1088 1210 0.03697818 10 
322 1093 1210 0.03754999 10 
323 1098 1210 0.03730332 10 
324 222 1211 0.03649829 10 
325 157 1217 0.04113134 10 
326 163 1217 0.03414429 9 
327 1029 1217 0.03333241 9 
328 1044 1217 0.03722543 10 
329 1050 1217 0.03784307 10 
330 1056 1217 0.03782502 10 
331 1133 1219 0.03730697 10 
