VERTEX2 0 -0.00001762 0.00000065 -0.00000038
VERTEX2 1 -0.00001762 0.00000065 -0.00064238
VERTEX2 2 -0.00001761 0.00000065 -0.00118038
VERTEX2 3 0.01098425 -0.00097434 -0.00356238
VERTEX2 4 0.64099082 -0.01119972 -0.00744438
VERTEX2 5 0.69599851 -0.01171523 -0.09872638
VERTEX2 6 0.70025162 -0.01543456 -0.89599838
VERTEX2 7 0.69393889 0.00421393 -1.51153538
VERTEX2 8 0.69924576 0.02669471 -2.12506938
VERTEX2 9 0.71609703 0.04112372 -2.76313938
VERTEX2 10 0.72896356 0.04322111 2.90551493
VERTEX2 11 0.73318614 0.04053807 2.23123593
VERTEX2 12 0.73316886 0.04154652 1.58176193
VERTEX2 13 0.73873502 0.05907162 0.92226393
VERTEX2 14 0.75964055 0.07375182 0.31402493
VERTEX2 15 0.76855396 0.07435876 -0.21090307
VERTEX2 16 1.06247600 0.01415321 -0.22959507
VERTEX2 17 1.66362960 -0.13311377 -0.26082307
VERTEX2 18 2.28698367 -0.29647908 -0.27100007
VERTEX2 19 2.91427951 -0.49425316 -0.31957607
VERTEX2 20 3.51353042 -0.68684377 -0.31361226
VERTEX2 21 4.12759655 -0.84119291 -0.20193553
VERTEX2 22 4.74227133 -0.98429365 -0.18441383
VERTEX2 23 5.38490360 -1.02935308 -0.07677786
VERTEX2 24 6.01980946 -1.10145423 -0.13359913
VERTEX2 25 6.65797402 -1.16986715 -0.13057234
VERTEX2 26 7.26993437 -1.27045923 -0.17091162
VERTEX2 27 7.88883695 -1.36168234 -0.15489500
VERTEX2 28 8.47349869 -1.46017750 -0.15915914
VERTEX2 29 8.85553071 -1.51756450 -0.12819598
VERTEX2 30 8.86772373 -1.52078511 -0.65989511
VERTEX2 31 8.97092200 -1.65863811 -0.92796545
VERTEX2 32 9.34200465 -2.17494526 -0.94632122
VERTEX2 33 9.72187892 -2.67664867 -0.89611136
VERTEX2 34 10.12990145 -3.16184884 -0.87559472
VERTEX2 35 10.54745170 -3.63933913 -0.84183656
VERTEX2 36 10.97123386 -4.11817939 -0.85083961
VERTEX2 37 11.24843546 -4.42746099 -0.84356624
VERTEX2 38 11.24319546 -4.42036301 -1.16598870
VERTEX2 39 11.24044233 -4.40774772 -1.33778695
VERTEX2 40 11.38225510 -4.97434768 -1.32147605
VERTEX2 41 11.52895860 -5.56614211 -1.35437239
VERTEX2 42 11.64804355 -6.12179175 -1.37791943
VERTEX2 43 11.75088096 -6.70960168 -1.41892962
VERTEX2 44 11.83661095 -7.29707603 -1.45664972
VERTEX2 45 11.88866641 -7.91510584 -1.51223471
VERTEX2 46 11.91671936 -8.53533716 -1.53166607
VERTEX2 47 11.93389673 -9.15547278 -1.57336960
VERTEX2 48 11.92747842 -9.78016815 -1.57992380
VERTEX2 49 11.91732775 -10.40083386 -1.63074225
VERTEX2 50 11.86125836 -10.98943630 -1.67520272
VERTEX2 51 11.80367906 -11.58201813 -1.70429676
VERTEX2 52 11.70425071 -12.16282950 -1.78094917
VERTEX2 53 11.60216076 -12.71819171 -1.76852374
VERTEX2 54 11.48730278 -13.22795287 -1.83051010
VERTEX2 55 11.49442512 -13.19446938 -1.82514670
VERTEX2 56 11.49413633 -13.19557930 -1.81448440
VERTEX2 57 11.34792811 -13.81148002 -1.82577247
VERTEX2 58 11.19874512 -14.41865605 -1.77939522
VERTEX2 59 11.06705859 -15.02544037 -1.80282481
VERTEX2 60 10.93486227 -15.62860604 -1.78128852
VERTEX2 61 10.79693962 -16.23228024 -1.83186092
VERTEX2 62 10.64314040 -16.79558774 -1.79123775
VERTEX2 63 10.48915025 -17.36022837 -1.82628605
VERTEX2 64 10.35308904 -17.91684131 -1.76301883
VERTEX2 65 10.21741187 -18.47128284 -1.81456173
VERTEX2 66 10.06256284 -19.05556765 -1.82271403
VERTEX2 67 9.89586581 -19.64334860 -1.82140673
VERTEX2 68 9.78449707 -20.09177354 -1.83702501
VERTEX2 69 9.78737759 -20.08246182 -1.99175497
VERTEX2 70 9.79404247 -20.06976971 -2.66555523
VERTEX2 71 9.81876217 -20.06838790 2.97551319
VERTEX2 72 9.83300535 -20.07025500 2.96621814
VERTEX2 73 9.84204860 -20.07250092 2.90148388
VERTEX2 74 9.84383245 -20.07369316 2.28020697
VERTEX2 75 9.85224723 -20.07698872 1.92820804
VERTEX2 76 9.83649953 -20.05954285 2.62199396
VERTEX2 77 9.82631705 -20.05530013 2.85489314
VERTEX2 78 9.54225025 -20.06582458 -3.09139099
VERTEX2 79 8.92167121 -20.10376450 -3.09676686
VERTEX2 80 8.29534802 -20.10102820 3.11144971
VERTEX2 81 7.67630055 -20.07315571 3.08507787
VERTEX2 82 7.07405361 -20.03042151 3.03109565
VERTEX2 83 6.48842513 -19.97825576 3.00766725
VERTEX2 84 5.92894017 -19.89179943 2.92996273
VERTEX2 85 5.38924980 -19.78746002 2.93735984
VERTEX2 86 4.78304615 -19.66624810 2.84777702
VERTEX2 87 4.39734982 -19.56068621 2.79551588
VERTEX2 88 4.04458698 -19.42936828 2.76560068
VERTEX2 89 4.05932009 -19.43005742 -3.12213960
VERTEX2 90 3.45868003 -19.43237641 3.12978271
VERTEX2 91 2.84723787 -19.42701429 -3.10450021
VERTEX2 92 2.24340338 -19.42195101 3.06358670
VERTEX2 93 1.61987425 -19.31830489 2.96324727
VERTEX2 94 0.99720800 -19.17909888 2.92090473
VERTEX2 95 0.37634226 -19.09105289 3.06366076
VERTEX2 96 -0.23312118 -19.03972565 3.08783692
VERTEX2 97 -0.82210409 -18.97666045 3.01734093
VERTEX2 98 -1.40939759 -18.87576344 2.95946028
VERTEX2 99 -2.11322246 -18.75158086 3.00633869
VERTEX2 100 -2.67647705 -18.64383921 2.95467008
VERTEX2 101 -3.28654696 -18.58737784 3.05800244
VERTEX2 102 -3.89902564 -18.50727742 2.95221065
VERTEX2 103 -4.50667341 -18.39278250 3.04826004
VERTEX2 104 -5.11844860 -18.31678982 3.01464501
VERTEX2 105 -5.73044483 -18.25265468 3.06124955
VERTEX2 106 -6.33184952 -18.18260623 3.00641895
VERTEX2 107 -6.94900079 -18.08689452 3.00262783
VERTEX2 108 -7.40884092 -18.03761010 3.06474650
VERTEX2 109 -7.45960384 -18.02481204 2.61731637
VERTEX2 110 -7.46805287 -18.01606954 2.02499363
VERTEX2 111 -7.46826314 -17.93972864 1.51830910
VERTEX2 112 -7.44407003 -17.30247004 1.57275203
VERTEX2 113 -7.46225587 -16.67700940 1.61981272
VERTEX2 114 -7.49529362 -16.06008906 1.65663691
VERTEX2 115 -7.56812798 -15.41959794 1.71691292
VERTEX2 116 -7.68628636 -14.66911399 1.76106433
VERTEX2 117 -7.82156848 -14.05942778 1.85673951
VERTEX2 118 -7.82522341 -14.04306782 1.52211875
VERTEX2 119 -7.77017024 -13.52724350 1.46889346
VERTEX2 120 -7.71844077 -12.87349518 1.55919838
VERTEX2 121 -7.72994202 -12.25755103 1.62692196
VERTEX2 122 -7.76531663 -11.67913507 1.68330740
VERTEX2 123 -7.79024593 -11.50310720 1.67068643
VERTEX2 124 -7.70629638 -11.26808922 1.24811370
VERTEX2 125 -7.49243761 -10.67504462 1.23702901
VERTEX2 126 -7.36265009 -10.05807013 1.44329909
VERTEX2 127 -7.26856761 -9.42732146 1.44183407
VERTEX2 128 -7.19673624 -8.79230450 1.47836870
VERTEX2 129 -7.11417577 -8.16122553 1.44580486
VERTEX2 130 -7.05044120 -7.53198906 1.49854638
VERTEX2 131 -7.00836283 -6.90430299 1.58729888
VERTEX2 132 -6.99370227 -6.29073059 1.53774689
VERTEX2 133 -6.95008098 -5.72542297 1.50098019
VERTEX2 134 -6.89969008 -5.13120951 1.48281612
VERTEX2 135 -6.82130494 -4.55735824 1.45664302
VERTEX2 136 -6.75104185 -3.92662821 1.47632052
VERTEX2 137 -6.65850215 -3.29806280 1.43453092
VERTEX2 138 -6.58657484 -2.67072094 1.51478945
VERTEX2 139 -6.57394352 -2.04175444 1.58008892
VERTEX2 140 -6.60629279 -1.38833212 1.61061085
VERTEX2 141 -6.61625928 -0.75012473 1.56216561
VERTEX2 142 -6.62060529 -0.10219256 1.55831848
VERTEX2 143 -6.54368952 0.53519489 1.44773418
VERTEX2 144 -6.50641302 0.90523152 1.46524044
VERTEX2 145 -6.50152050 0.92035568 0.96676498
VERTEX2 146 -6.50030058 0.92677068 0.37345046
VERTEX2 147 -6.44623832 0.92336006 -0.11336415
VERTEX2 148 -6.01592631 0.86648088 -0.14915693
VERTEX2 149 -5.37650094 0.77724924 -0.12419266
VERTEX2 150 -4.74375153 0.71711084 -0.11017174
VERTEX2 151 -4.10552349 0.67400090 -0.02466507
VERTEX2 152 -3.64189802 0.65117073 -0.08397285
VERTEX2 153 -2.97848256 0.62029227 0.00871191
VERTEX2 154 -2.31929961 0.60137691 -0.06137917
VERTEX2 155 -1.65565155 0.56887278 -0.02825269
VERTEX2 156 -0.99195201 0.55604701 0.00224753
VERTEX2 157 -0.39070288 0.53938007 -0.06218698
VERTEX2 158 -0.19615525 0.52677983 -0.03526805
VERTEX2 159 -0.18752852 0.52407408 0.95203416
VERTEX2 160 -0.18188161 0.53340234 1.98769168
VERTEX2 161 -0.20546860 0.47077353 2.70971135
VERTEX2 162 -0.17712964 0.47721281 -2.53770224
VERTEX2 163 -0.17824304 0.47157677 -1.54064564
VERTEX2 164 -0.24798398 0.55799020 -0.47899374
VERTEX2 165 -0.07169097 0.54050340 -0.07115302
VERTEX2 166 0.62836474 0.49734188 -0.06943101
VERTEX2 167 1.24522744 0.44620049 -0.09895330
VERTEX2 168 1.83797474 0.39572537 -0.08697533
VERTEX2 169 2.43840230 0.32267359 -0.12388176
VERTEX2 170 3.03003568 0.25291308 -0.14445628
VERTEX2 171 3.59771955 0.15267957 -0.18264359
VERTEX2 172 4.22903174 0.04324726 -0.16842888
VERTEX2 173 4.86204873 -0.07868363 -0.19118816
VERTEX2 174 5.49123316 -0.19409538 -0.15094604
VERTEX2 175 6.11109595 -0.28509659 -0.17550207
VERTEX2 176 6.71465896 -0.40636260 -0.16571169
VERTEX2 177 7.34180925 -0.50983562 -0.19313818
VERTEX2 178 7.96774629 -0.65670914 -0.23187664
VERTEX2 179 8.37193030 -0.74021008 -0.17835450
VERTEX2 180 8.42305088 -0.75388480 -0.62004572
VERTEX2 181 8.86627733 -1.07326513 -0.67164767
VERTEX2 182 9.27571712 -1.43507296 -0.84543666
VERTEX2 183 9.62614868 -1.85885141 -0.90258509
VERTEX2 184 9.96359378 -2.36594509 -1.04983270
VERTEX2 185 10.24582707 -2.89618609 -1.14307613
VERTEX2 186 10.46361465 -3.45846300 -1.21010973
VERTEX2 187 10.65668524 -3.99877278 -1.23332996
VERTEX2 188 10.85595199 -4.55874438 -1.23931760
VERTEX2 189 11.04750268 -5.12280692 -1.26663986
VERTEX2 190 11.22992054 -5.73058641 -1.29551368
VERTEX2 191 11.40187441 -6.33756714 -1.31970120
VERTEX2 192 11.55222170 -6.92975297 -1.34841557
VERTEX2 193 11.67192987 -7.47323455 -1.40449453
VERTEX2 194 11.76806183 -8.03828567 -1.43122768
VERTEX2 195 11.84586964 -8.60444977 -1.45971772
VERTEX2 196 11.90897360 -9.22736738 -1.50024620
VERTEX2 197 11.94409371 -9.84857549 -1.52772652
VERTEX2 198 11.96649375 -10.46714462 -1.58590477
VERTEX2 199 11.93568335 -11.07498685 -1.64732544
VERTEX2 200 11.88587707 -11.67758179 -1.66920599
VERTEX2 201 11.81239220 -12.27663968 -1.72587104
VERTEX2 202 11.74624937 -12.78060166 -1.70537667
VERTEX2 203 11.64127695 -13.51336520 -1.75776355
VERTEX2 204 11.51731936 -14.08854450 -1.85955317
VERTEX2 205 11.34591942 -14.64944779 -1.86880574
VERTEX2 206 11.18981767 -15.19542148 -1.86670354
VERTEX2 207 11.02801734 -15.76115354 -1.85055538
VERTEX2 208 10.85255781 -16.35956419 -1.85978839
VERTEX2 209 10.68841880 -16.95951779 -1.82135456
VERTEX2 210 10.52358898 -17.55155827 -1.83010239
VERTEX2 211 10.37280777 -18.14743559 -1.82773469
VERTEX2 212 10.19454290 -18.73283346 -1.88046845
VERTEX2 213 9.99774497 -19.32190300 -1.90113782
VERTEX2 214 9.79621574 -19.89739408 -1.90484358
VERTEX2 215 9.68029587 -20.21926886 -1.94053015
VERTEX2 216 9.69238742 -20.19867681 -2.43891751
VERTEX2 217 9.71822546 -20.19596379 -2.98078768
VERTEX2 218 9.72746051 -20.19952574 -3.03669726
VERTEX2 219 9.16135257 -20.15444134 3.07813098
VERTEX2 220 8.55364394 -20.10925299 3.03822697
VERTEX2 221 7.91673807 -20.04217955 3.08891622
VERTEX2 222 7.29330863 -19.99899046 3.06355510
VERTEX2 223 6.66930935 -19.96918072 -3.12309020
VERTEX2 224 6.05700021 -19.96953257 3.13448328
VERTEX2 225 5.44115760 -19.96366649 -3.09883044
VERTEX2 226 4.82630424 -19.95716346 3.13542470
VERTEX2 227 4.18066568 -20.02635697 -2.99084327
VERTEX2 228 3.65604686 -20.01054081 2.93116779
VERTEX2 229 3.20723314 -19.97142070 3.05201112
VERTEX2 230 2.92192288 -19.95631729 3.02314982
VERTEX2 231 3.13125818 -19.97447658 3.09318800
VERTEX2 232 2.81794735 -19.83388282 2.66834271
VERTEX2 233 2.24763689 -19.57127086 2.77126768
VERTEX2 234 1.66497985 -19.34331385 2.72761229
VERTEX2 235 1.40946729 -19.23373132 2.72307622
VERTEX2 236 1.08065078 -19.23595864 3.12814288
VERTEX2 237 0.45752684 -19.25260689 -3.08484607
VERTEX2 238 -0.15831039 -19.30243280 -3.11778630
VERTEX2 239 -0.76965765 -19.30103844 3.09751031
VERTEX2 240 -1.33262881 -19.18573594 2.87898209
VERTEX2 241 -1.86560814 -19.05689094 2.96404942
VERTEX2 242 -2.43844401 -18.99230673 3.00386543
VERTEX2 243 -3.03828004 -18.90962101 3.00337863
VERTEX2 244 -3.66196020 -18.86448159 3.07488930
VERTEX2 245 -4.27645966 -18.81629358 3.02084272
VERTEX2 246 -4.87849142 -18.73086150 2.94862173
VERTEX2 247 -5.47894188 -18.65018608 3.05419626
VERTEX2 248 -6.03324032 -18.62913408 3.08560335
VERTEX2 249 -5.98427295 -18.63645589 -3.00464364
VERTEX2 250 -5.98066531 -18.63633248 2.69168647
VERTEX2 251 -6.30284377 -18.29715314 2.26840070
VERTEX2 252 -6.65881441 -17.87809722 2.27695639
VERTEX2 253 -7.03099619 -17.43339806 2.26600834
VERTEX2 254 -7.39672455 -16.97646709 2.22485823
VERTEX2 255 -7.47009997 -16.88358857 2.30869815
VERTEX2 256 -7.47322099 -16.80548485 1.83255499
VERTEX2 257 -7.52549367 -16.34668843 1.69714135
VERTEX2 258 -7.60989941 -15.75758827 1.77762106
VERTEX2 259 -7.75334568 -15.15705476 1.81823501
VERTEX2 260 -7.88698307 -14.60079350 1.80987062
VERTEX2 261 -7.88500426 -14.56749126 1.49846451
VERTEX2 262 -7.82307332 -13.91990859 1.50517264
VERTEX2 263 -7.78218907 -13.30134458 1.51905550
VERTEX2 264 -7.76877574 -12.69565327 1.61657075
VERTEX2 265 -7.80232016 -12.09005334 1.63709795
VERTEX2 266 -7.75626529 -11.51132530 1.50834355
VERTEX2 267 -7.70706394 -10.76089225 1.47900883
VERTEX2 268 -7.57634566 -10.15637976 1.36893109
VERTEX2 269 -7.45811486 -9.54136603 1.39885421
VERTEX2 270 -7.38772245 -8.91596744 1.51291461
VERTEX2 271 -7.29548125 -8.29887181 1.40251960
VERTEX2 272 -7.21278702 -7.67691283 1.46775704
VERTEX2 273 -7.22454770 -7.04627595 1.68014525
VERTEX2 274 -7.29444439 -6.42941651 1.70432780
VERTEX2 275 -7.28461284 -5.82329108 1.53294426
VERTEX2 276 -7.27996986 -5.21806853 1.64752222
VERTEX2 277 -7.32828425 -4.65881196 1.62193468
VERTEX2 278 -7.28747893 -4.02451792 1.53318968
VERTEX2 279 -7.24956139 -3.38390911 1.47813147
VERTEX2 280 -7.18331400 -2.74862494 1.48046350
VERTEX2 281 -7.09593126 -2.11869582 1.38001023
VERTEX2 282 -6.97947264 -1.49533949 1.41987167
VERTEX2 283 -6.89567792 -0.86539163 1.41204864
VERTEX2 284 -6.78700744 -0.24603234 1.43922582
VERTEX2 285 -6.72246523 0.39993099 1.46010504
VERTEX2 286 -6.65785559 1.02193425 1.51367828
VERTEX2 287 -6.65516240 1.07342523 1.40925531
VERTEX2 288 -6.65177796 1.07950454 0.80066655
VERTEX2 289 -6.65023458 1.08020844 0.20725534
VERTEX2 290 -6.21170719 1.07247716 -0.01778645
VERTEX2 291 -5.59082553 1.06597772 -0.00399148
VERTEX2 292 -4.98484783 1.04699472 -0.05838988
VERTEX2 293 -4.35325495 1.00221107 -0.08168653
VERTEX2 294 -3.72519707 0.95015438 -0.08121643
VERTEX2 295 -3.09636494 0.86950364 -0.19395809
VERTEX2 296 -2.47245064 0.72353217 -0.23957279
VERTEX2 297 -1.85073477 0.57041381 -0.25146396
VERTEX2 298 -1.23564858 0.41427809 -0.25238017
VERTEX2 299 -0.65677225 0.25552377 -0.19143571
VERTEX2 300 -0.06763653 0.16830553 -0.14942969
VERTEX2 301 0.49750732 0.06699230 -0.20872914
VERTEX2 302 0.80287206 0.00076882 -0.22972572
VERTEX2 303 0.78903579 0.00287832 -0.22567995
VERTEX2 304 1.29318446 -0.11471429 -0.21618437
VERTEX2 305 1.90974225 -0.16089122 -0.03233469
VERTEX2 306 2.53746663 -0.17253391 -0.05079347
VERTEX2 307 3.17520951 -0.22160996 -0.08788859
VERTEX2 308 3.80938755 -0.28660386 -0.14354511
VERTEX2 309 4.45089860 -0.34901115 -0.05069108
VERTEX2 310 5.08503949 -0.38066533 -0.08663967
VERTEX2 311 5.37269954 -0.40783418 0.08833916
VERTEX2 312 5.37406695 -0.40702052 1.07617895
VERTEX2 313 5.37876931 -0.19071570 1.57188761
VERTEX2 314 5.35980077 0.43513228 1.61169769
VERTEX2 315 5.33183758 1.06029264 1.60741188
VERTEX2 316 5.29226833 1.70377472 1.65858146
VERTEX2 317 5.23154723 2.34388330 1.66837327
VERTEX2 318 5.13347057 2.97934879 1.76274132
VERTEX2 319 5.05442184 3.32472923 1.83393128
VERTEX2 320 5.05612263 3.32999118 2.80194582
VERTEX2 321 5.04846792 3.32669976 -2.44205030
VERTEX2 322 5.04716604 3.32403384 -1.44632946
VERTEX2 323 5.05902423 3.31259046 -0.45439619
VERTEX2 324 5.06491621 3.31066107 0.20511785
VERTEX2 325 5.06325253 3.31054097 -0.32343337
VERTEX2 326 5.07636340 3.30067572 -0.91960576
VERTEX2 327 5.07946252 3.28597593 -1.54397324
VERTEX2 328 5.06214957 2.65246498 -1.59036259
VERTEX2 329 5.03918460 2.02617600 -1.64678087
VERTEX2 330 4.98389198 1.41134775 -1.66726247
VERTEX2 331 4.92758525 0.79523106 -1.68301715
VERTEX2 332 4.84683150 0.18224563 -1.70301116
VERTEX2 333 4.82480392 0.02816860 -1.63954994
VERTEX2 334 4.84316866 0.03197157 -0.84404329
VERTEX2 335 4.86035731 0.02688672 0.14692136
VERTEX2 336 4.87348241 0.03149478 1.08804194
VERTEX2 337 4.87846711 0.06255454 2.06699151
VERTEX2 338 4.87698035 0.06357608 3.05650242
VERTEX2 339 4.88896860 0.07102234 -2.17671922
VERTEX2 340 4.88938831 0.06822756 -1.15689712
VERTEX2 341 5.00417397 -0.00102582 -0.52315477
VERTEX2 342 5.57873420 -0.30650463 -0.42105367
VERTEX2 343 6.15646846 -0.50790560 -0.28945539
VERTEX2 344 6.74469921 -0.69108713 -0.29884910
VERTEX2 345 6.98169907 -0.76084754 -0.32568958
VERTEX2 346 6.96678667 -0.75596869 -0.97131918
VERTEX2 347 6.96935302 -0.84823418 -1.52852837
VERTEX2 348 6.98743179 -1.44268361 -1.54461896
VERTEX2 349 6.98525847 -2.06614700 -1.58421932
VERTEX2 350 6.97211778 -2.85824254 -1.60322816
VERTEX2 351 6.95774061 -3.13609904 -1.63156437
VERTEX2 352 6.95502098 -3.14909607 -1.91835834
VERTEX2 353 6.94027864 -3.16719945 -2.58125605
VERTEX2 354 6.92269454 -3.17225294 3.10088067
VERTEX2 355 6.89953840 -3.17154531 2.38259576
VERTEX2 356 6.89294853 -3.15992876 1.80974083
VERTEX2 357 6.89531111 -3.14573879 1.15936303
VERTEX2 358 6.89598263 -3.14481421 0.54648517
VERTEX2 359 6.89212772 -3.14647961 -0.06518289
VERTEX2 360 6.88609863 -3.14529876 -0.24023315
VERTEX2 361 6.88660660 -3.14518707 0.68248900
VERTEX2 362 6.97255267 -2.91055679 1.21833424
VERTEX2 363 7.07618162 -2.63857416 1.21274831
VERTEX2 364 7.00657071 -2.30352181 1.82961548
VERTEX2 365 6.95074466 -2.01535288 1.33443366
VERTEX2 366 7.06346802 -1.88722919 0.78239942
VERTEX2 367 7.51346941 -1.44638875 0.78531344
VERTEX2 368 7.96900706 -1.00904786 0.73743925
VERTEX2 369 7.98868414 -0.98517346 0.48571065
VERTEX2 370 8.01449067 -0.98098566 -0.10085544
VERTEX2 371 8.02269504 -0.98519816 -0.64615241
VERTEX2 372 8.45414730 -1.33421479 -0.67376481
VERTEX2 373 8.92938450 -1.69931122 -0.67172304
VERTEX2 374 9.41113034 -2.10275655 -0.73279502
VERTEX2 375 9.77729087 -2.42667071 -0.76358774
VERTEX2 376 9.79579588 -2.43791521 -0.07066971
VERTEX2 377 9.84815541 -2.40043487 0.62277952
VERTEX2 378 10.38424304 -1.99975762 0.67581065
VERTEX2 379 10.86380231 -1.56699982 0.75943557
VERTEX2 380 11.30296497 -1.09837660 0.87756288
VERTEX2 381 11.44887265 -0.91734711 1.02620419
VERTEX2 382 11.45025992 -0.91480788 2.07219783
VERTEX2 383 11.46328378 -0.92278778 3.06000541
VERTEX2 384 11.46464426 -0.92145959 -2.25853216
VERTEX2 385 11.45983310 -0.92965490 -1.22745822
VERTEX2 386 11.57501643 -1.07705612 -1.00219025
VERTEX2 387 12.04658711 -1.50699307 -0.67005519
VERTEX2 388 12.69283566 -1.99653631 -0.65586634
VERTEX2 389 13.29962680 -2.50084027 -0.73303641
VERTEX2 390 13.47662802 -2.65362309 -0.24830644
VERTEX2 391 13.45738494 -2.65343987 0.13927436
VERTEX2 392 13.56844673 -2.64508960 1.19750056
VERTEX2 393 13.57343553 -2.70657693 2.46937014
VERTEX2 394 13.71403361 -2.74459001 -2.80414856
VERTEX2 395 13.94560200 -2.57824377 -2.46039098
VERTEX2 396 13.97357821 -2.55989100 -2.45682627
VERTEX2 397 14.03739856 -2.53402781 -2.46399692
VERTEX2 398 14.04157745 -2.52912531 -2.26154256
VERTEX2 399 13.97825546 -2.66432899 -1.95695541
VERTEX2 400 13.72811805 -3.30488423 -1.90343968
VERTEX2 401 13.49126653 -3.92891884 -1.99244153
VERTEX2 402 13.13144054 -4.45656388 -2.25570101
VERTEX2 403 12.74044985 -4.93687765 -2.28768598
VERTEX2 404 12.35681571 -5.36062509 -2.36493677
VERTEX2 405 12.35647979 -5.36107915 -1.82879106
VERTEX2 406 12.38976119 -5.45879919 -0.84602586
VERTEX2 407 12.76573899 -5.79600031 -0.71657724
VERTEX2 408 13.33307420 -6.30052007 -0.75347354
VERTEX2 409 13.64484238 -6.60964415 -0.85192917
VERTEX2 410 13.70261039 -6.72216656 -1.47746524
VERTEX2 411 13.70239521 -6.79432693 -2.06478657
VERTEX2 412 13.36015364 -7.22548300 -2.26719085
VERTEX2 413 12.95042476 -7.69183423 -2.34673937
VERTEX2 414 12.53278617 -8.15056912 -2.24341826
VERTEX2 415 12.13389407 -8.64850477 -2.23728274
VERTEX2 416 11.95148147 -8.89548505 -2.29362780
VERTEX2 417 11.74629887 -8.99743349 -2.72046862
VERTEX2 418 11.40646425 -9.14757269 -2.76712554
VERTEX2 419 11.43161775 -9.12509728 -2.33876065
VERTEX2 420 11.47176324 -9.07244257 -2.12441733
VERTEX2 421 11.46791290 -9.13385595 -1.16178847
VERTEX2 422 11.45953411 -9.19654139 0.07079742
VERTEX2 423 11.43466660 -9.20671337 0.41609294
VERTEX2 424 11.40550965 -9.21941765 0.41646091
VERTEX2 425 11.39209313 -9.24008806 0.42818818
VERTEX2 426 11.36315692 -9.25310277 0.41906510
VERTEX2 427 11.36392482 -9.25275289 0.42218484
VERTEX2 428 11.93255913 -8.97897342 0.41659916
VERTEX2 429 12.49744696 -8.73762378 0.37563431
VERTEX2 430 12.78880453 -8.62782318 0.32931784
VERTEX2 431 12.73709763 -8.64718503 0.38101306
VERTEX2 432 12.71527692 -8.65021399 -0.25156302
VERTEX2 433 9.36870771 -5.81708535 -1.40002303
VERTEX2 434 9.33237991 -6.35832331 -1.62970426
VERTEX2 435 9.29912796 -7.00298544 -1.65897914
VERTEX2 436 9.21893977 -7.64619266 -1.66862517
VERTEX2 437 9.16376711 -8.29843363 -1.66146956
VERTEX2 438 9.11077788 -8.75907035 -1.69522491
VERTEX2 439 9.11065305 -8.75953305 -2.13746894
VERTEX2 440 9.11663264 -8.75494029 -2.78887292
VERTEX2 441 9.12620421 -8.75419691 2.86423678
VERTEX2 442 9.12430971 -8.75305613 2.22672618
VERTEX2 443 -4.63023342 -28.63606749 0.42075576
VERTEX2 444 -4.62669560 -28.63573630 -0.17379081
VERTEX2 445 -4.62956854 -28.63409867 -0.83524906
VERTEX2 446 -7.07886891 -26.80213907 -0.42876449
VERTEX2 447 -7.06455229 -26.80209942 0.19941935
VERTEX2 448 -6.45038581 -26.65320059 0.21540659
VERTEX2 449 -5.83068477 -26.48373623 0.31493029
VERTEX2 450 -5.22738232 -26.28101291 0.32704885
VERTEX2 451 -4.79050145 -26.11793959 0.36789275
VERTEX2 452 9.58049477 -6.39708564 1.11562771
VERTEX2 453 9.58280495 -6.39273323 0.48356588
VERTEX2 454 9.84414062 -6.36956052 0.05470213
VERTEX2 455 10.44377741 -6.34233986 0.03360004
VERTEX2 456 11.07718770 -6.33534586 -0.03155938
VERTEX2 457 11.43277844 -6.35670913 -0.11986431
VERTEX2 458 11.43111710 -6.35587278 -0.76711370
VERTEX2 459 11.42372914 -6.32610491 -1.37661672
VERTEX2 460 11.40317849 -6.72380059 -1.63410624
VERTEX2 461 11.33426092 -7.33979786 -1.72238932
VERTEX2 462 11.24646065 -7.84900297 -1.76269570
VERTEX2 463 11.25716870 -7.82809360 -0.92338624
VERTEX2 464 11.50773413 -7.89977969 -0.24606694
VERTEX2 465 12.08642548 -8.03316165 -0.23859452
VERTEX2 466 12.63482509 -8.18470636 -0.29453069
VERTEX2 467 13.20051758 -8.36690171 -0.33827870
VERTEX2 468 13.81305776 -8.58710338 -0.37367613
VERTEX2 469 14.40244857 -8.85446436 -0.45644635
VERTEX2 470 14.85465523 -9.07127159 -0.43739080
VERTEX2 471 14.86366315 -9.07619507 -0.63691843
VERTEX2 472 14.88095836 -9.10051022 -1.26889133
VERTEX2 473 14.88239048 -9.10768843 -1.90878340
VERTEX2 474 14.88121330 -9.10914913 -2.53942926
VERTEX2 475 14.88429953 -9.10874336 -3.11321373
VERTEX2 476 14.88733679 -9.10917222 2.51875634
VERTEX2 477 14.89179462 -9.11799710 1.95922306
VERTEX2 478 14.89248624 -9.12768101 1.33215848
VERTEX2 479 14.89166905 -9.12952563 0.87784929
VERTEX2 480 14.89218233 -9.12838868 1.43986372
VERTEX2 481 14.88862028 -9.11260816 2.44186566
VERTEX2 482 14.89348908 -9.11459615 2.77795449
VERTEX2 483 14.90058610 -9.11720444 2.77253496
VERTEX2 484 14.47602880 -8.95648796 2.80801682
VERTEX2 485 13.87839728 -8.76353187 2.80548453
VERTEX2 486 13.27817374 -8.54635837 2.81480337
VERTEX2 487 12.66928114 -8.36231574 2.84287501
VERTEX2 488 12.05813983 -8.17624507 2.87879841
VERTEX2 489 11.58961739 -8.06539668 2.90953207
VERTEX2 490 11.59452990 -8.06495260 -2.88789294
VERTEX2 491 11.60110903 -8.05637537 -1.95065285
VERTEX2 492 11.58300717 -8.28828662 -1.64711798
VERTEX2 493 11.51811548 -8.89412381 -1.70184780
VERTEX2 494 11.42790211 -9.50713413 -1.76244446
VERTEX2 495 11.35625919 -10.12774289 -1.65542068
VERTEX2 496 11.30980577 -10.74956884 -1.53782989
VERTEX2 497 11.30000883 -11.36482183 -1.62399400
VERTEX2 498 11.22864993 -11.98384059 -1.72590630
VERTEX2 499 11.09531996 -12.60803072 -1.74299924
VERTEX2 500 11.15144716 -13.18108713 -1.41331620
VERTEX2 501 11.22379259 -13.75980574 -1.48536504
VERTEX2 502 11.24519605 -14.45439566 -1.56980363
VERTEX2 503 11.23910311 -14.90030277 -1.58673539
VERTEX2 504 11.24460356 -14.88494647 -0.72974547
VERTEX2 505 11.48253588 -14.91293007 -0.10774908
VERTEX2 506 12.07422612 -14.99659918 -0.26023994
VERTEX2 507 12.65469794 -15.16831005 -0.33873876
VERTEX2 508 13.22292175 -15.38161698 -0.35196195
VERTEX2 509 13.84295947 -15.61730623 -0.40786805
VERTEX2 510 14.19977263 -15.77785485 -0.42177327
VERTEX2 511 14.19783733 -15.75842823 0.45356499
VERTEX2 512 14.22143735 -15.70911250 1.65078149
VERTEX2 513 14.21750327 -15.69739668 2.60627654
VERTEX2 514 14.15151650 -15.67865181 2.83256001
VERTEX2 515 13.54131183 -15.49576522 2.83372417
VERTEX2 516 12.95676308 -15.29989533 2.84967233
VERTEX2 517 12.36388467 -15.14990038 2.87790769
VERTEX2 518 11.77137763 -14.99679233 2.90228947
VERTEX2 519 11.24924466 -14.87117081 2.88661339
VERTEX2 520 11.08106454 -14.82680445 -2.99809848
VERTEX2 521 11.10079993 -14.80520265 -1.99431969
VERTEX2 522 11.03352331 -15.20443409 -1.72999883
VERTEX2 523 10.93988695 -15.82473424 -1.73732250
VERTEX2 524 10.83397648 -16.39896336 -1.77917045
VERTEX2 525 10.72810237 -16.94133238 -1.75543446
VERTEX2 526 10.61058889 -17.50870447 -1.81406358
VERTEX2 527 10.46162351 -18.08610111 -1.84872113
VERTEX2 528 10.27840773 -18.65074276 -1.92453850
VERTEX2 529 10.06631205 -19.24689477 -1.95335444
VERTEX2 530 9.81696255 -19.84685501 -1.98315143
VERTEX2 531 9.54553509 -20.42199030 -2.06269502
VERTEX2 532 9.44682729 -20.60803771 -2.01183089
VERTEX2 533 9.44208804 -20.58480481 -1.01319998
VERTEX2 534 9.43689613 -20.58133645 -0.34687739
VERTEX2 535 9.43588588 -20.57977456 -0.34747518
VERTEX2 536 9.78844398 -20.66409390 -0.21707983
VERTEX2 537 10.39545724 -20.81534240 -0.27534722
VERTEX2 538 10.95546739 -20.98735181 -0.30272582
VERTEX2 539 11.56309389 -21.19952885 -0.36779007
VERTEX2 540 12.14897338 -21.45591636 -0.46100854
VERTEX2 541 12.73538157 -21.68732886 -0.29909386
VERTEX2 542 13.36623305 -21.83325092 -0.24329955
VERTEX2 543 13.48865855 -21.86472358 -0.27287841
VERTEX2 544 13.51051766 -21.86262036 0.36436723
VERTEX2 545 13.53389806 -21.82068900 1.43097587
VERTEX2 546 13.55165549 -21.86766623 2.25831648
VERTEX2 547 13.56063378 -21.86710158 -3.00282440
VERTEX2 548 13.57414098 -21.85851660 -2.07959351
VERTEX2 549 13.57564370 -21.84861596 -1.27268346
VERTEX2 550 13.57459496 -21.82923228 -1.75229066
VERTEX2 551 13.58268677 -21.81298431 -2.37842829
VERTEX2 552 13.60118352 -21.80385062 -3.01065501
VERTEX2 553 13.46566252 -21.75155221 2.69545648
VERTEX2 554 12.87591279 -21.46642936 2.66007982
VERTEX2 555 12.29889878 -21.19048273 2.74904027
VERTEX2 556 11.69673450 -20.97092940 2.88423258
VERTEX2 557 11.09352175 -20.79773778 2.84306310
VERTEX2 558 10.51431981 -20.63847079 2.92412547
VERTEX2 559 10.51861048 -20.63992592 2.51723404
VERTEX2 560 10.50969666 -20.63093671 2.01638638
VERTEX2 561 10.48552767 -20.60736621 2.52169658
VERTEX2 562 10.31305793 -20.60696818 -3.11716002
VERTEX2 563 9.74946756 -20.52886772 2.97456347
VERTEX2 564 9.15129523 -20.43805707 3.02357721
VERTEX2 565 8.56165653 -20.36648443 2.96602841
VERTEX2 566 8.62369401 -20.38583260 -2.53339292
VERTEX2 567 8.52896556 -20.39273044 -1.74091579
VERTEX2 568 8.47788493 -20.89962175 -1.67633977
VERTEX2 569 8.42574951 -21.47562768 -1.71546473
VERTEX2 570 8.35617219 -22.05664479 -1.71070814
VERTEX2 571 8.30314942 -22.41219245 -1.75822535
VERTEX2 572 8.26935333 -22.43683171 -2.00147830
VERTEX2 573 8.23414154 -22.51635502 -1.72521417
VERTEX2 574 8.25496941 -22.54572631 -0.78600886
VERTEX2 575 8.40807350 -22.59589331 0.13644859
VERTEX2 576 8.40663407 -22.59474447 1.16409642
VERTEX2 577 8.39999533 -22.57719191 2.13618072
VERTEX2 578 8.39056686 -22.54531583 1.77201030
VERTEX2 579 8.26576267 -21.89407053 1.78703560
VERTEX2 580 8.10401814 -21.25491571 1.86217837
VERTEX2 581 7.90961428 -20.63161879 1.90455391
VERTEX2 582 7.68774907 -20.01728725 1.94768090
VERTEX2 583 7.55768218 -19.70895441 2.02703912
VERTEX2 584 7.55201689 -19.69796340 2.87085510
VERTEX2 585 6.96642194 -19.55746570 2.98925017
VERTEX2 586 6.37753817 -19.48382749 3.08711708
VERTEX2 587 5.76314849 -19.47342505 3.11279686
VERTEX2 588 5.13790798 -19.44828529 3.11751836
VERTEX2 589 4.59770572 -19.47320235 -3.08992727
VERTEX2 590 4.04666950 -19.51775271 -3.02080962
VERTEX2 591 3.50633557 -19.59741935 -3.02237771
VERTEX2 592 2.96414528 -19.67211050 -3.02508638
VERTEX2 593 2.79251371 -19.69402985 -2.81980083
VERTEX2 594 2.84070309 -19.64197651 -1.90203190
VERTEX2 595 2.72727552 -20.25037969 -1.66909620
VERTEX2 596 2.67460216 -20.87642277 -1.69218829
VERTEX2 597 2.58261390 -21.55288841 -1.73209467
VERTEX2 598 2.48024487 -22.14956891 -1.77461768
VERTEX2 599 2.39232608 -22.52461173 -1.84119795
VERTEX2 600 2.39249532 -22.54076580 -1.03595952
VERTEX2 601 2.43422981 -22.56660820 -0.01696722
VERTEX2 602 2.46907337 -22.55263462 0.99790418
VERTEX2 603 2.43515817 -22.32004498 1.77114656
VERTEX2 604 2.37505110 -21.70900436 1.52760739
VERTEX2 605 2.38404510 -21.06279586 1.61045186
VERTEX2 606 2.34361795 -20.41688536 1.65277428
VERTEX2 607 2.35452299 -19.82848714 1.57201963
VERTEX2 608 2.34125391 -19.44405402 1.61675472
VERTEX2 609 2.33773759 -19.42349091 1.95350488
VERTEX2 610 2.32985120 -19.42064685 2.88707650
VERTEX2 611 1.73416485 -19.27138367 2.89033614
VERTEX2 612 1.26137647 -19.13771811 2.89343980
VERTEX2 613 1.29680571 -19.14845637 -2.92534944
VERTEX2 614 1.30494823 -19.14226297 -1.88671164
VERTEX2 615 1.31840016 -19.62840702 -1.58191573
VERTEX2 616 1.32624361 -20.25091160 -1.63292699
VERTEX2 617 1.19013965 -20.85189213 -1.84943953
VERTEX2 618 1.02317500 -21.45543668 -1.83888795
VERTEX2 619 0.86460790 -22.02446785 -1.83985801
VERTEX2 620 0.68228491 -22.60313726 -1.93594053
VERTEX2 621 0.80964199 -22.27186020 -1.98736328
VERTEX2 622 0.93194018 -22.00891110 -2.06225117
VERTEX2 623 0.93201404 -22.00881217 -2.59908574
VERTEX2 624 0.90309687 -22.00858334 3.04202424
VERTEX2 625 0.86200356 -21.99209088 2.38402504
VERTEX2 626 0.83416337 -21.96026961 1.76649690
VERTEX2 627 0.90615094 -21.58837181 1.35602605
VERTEX2 628 1.08399930 -20.96151068 1.25518898
VERTEX2 629 1.25480880 -20.33401733 1.32619801
VERTEX2 630 1.37956783 -19.72647572 1.41113294
VERTEX2 631 1.45106690 -19.19703755 1.43113346
VERTEX2 632 1.45371385 -19.18124998 2.10674333
VERTEX2 633 1.35636087 -19.17481628 -3.09069534
VERTEX2 634 0.68976248 -19.21276674 -3.06340858
VERTEX2 635 0.03740615 -19.22453774 3.08462623
VERTEX2 636 -0.60353005 -19.19700060 3.06694502
VERTEX2 637 -1.23094601 -19.12371809 2.96754198
VERTEX2 638 -1.62067822 -19.04479472 2.93803715
VERTEX2 639 -2.22895364 -18.94323891 3.01842800
VERTEX2 640 -2.84142657 -18.83553812 2.95058329
VERTEX2 641 -3.43931908 -18.72617699 2.94229465
VERTEX2 642 -4.01293462 -18.59059936 2.89700463
VERTEX2 643 -4.49461281 -18.45498373 2.82953740
VERTEX2 644 -4.49858118 -18.45587661 -2.69689434
VERTEX2 645 -4.53482634 -18.59711778 -1.91927289
VERTEX2 646 -4.67078634 -19.20582128 -1.62382368
VERTEX2 647 -4.62632955 -19.84675406 -1.33488565
VERTEX2 648 -4.40286818 -20.46966270 -1.16852229
VERTEX2 649 -4.22861824 -21.06633718 -1.50600707
VERTEX2 650 -4.32797042 -21.69404215 -1.76326134
VERTEX2 651 -4.34503542 -21.83859660 -0.96361679
VERTEX2 652 -4.28435783 -21.86571073 0.06169589
VERTEX2 653 -4.24122358 -21.82675988 1.09231368
VERTEX2 654 -4.25100701 -21.53229368 1.60555174
VERTEX2 655 -4.26297674 -20.98110596 1.60056691
VERTEX2 656 -4.26391149 -20.38124395 1.58794840
VERTEX2 657 -4.37232801 -19.77173862 1.86458831
VERTEX2 658 -4.56566688 -19.15312457 1.85768629
VERTEX2 659 -4.68270558 -18.65847980 1.78680089
VERTEX2 660 -4.68612757 -18.64169985 2.38752228
VERTEX2 661 -4.85955760 -18.62334212 3.03982105
VERTEX2 662 -5.44824665 -18.56647655 3.10892405
VERTEX2 663 -6.03151579 -18.58252112 -3.07379112
VERTEX2 664 -6.03584300 -18.58144246 -2.55037310
VERTEX2 665 -6.05188460 -18.68417533 -1.71753522
VERTEX2 666 -6.12267610 -19.29181765 -1.68046168
VERTEX2 667 -6.17895747 -19.85735618 -1.67591301
VERTEX2 668 -6.24163426 -20.45032788 -1.65021915
VERTEX2 669 -6.28930138 -21.07515015 -1.67545111
VERTEX2 670 -6.38790428 -21.69189018 -1.73505037
VERTEX2 671 -6.43504854 -21.98348570 -1.68019331
VERTEX2 672 -6.33373027 -21.40317321 -1.76925684
VERTEX2 673 -6.26786746 -21.13699607 -1.89975803
VERTEX2 674 -6.25549921 -21.12392406 -2.54778195
VERTEX2 675 -6.23269883 -21.11908162 3.12689665
VERTEX2 676 -6.22681634 -21.12251885 2.50367457
VERTEX2 677 -6.22217513 -21.12891366 1.88794830
VERTEX2 678 -6.19445301 -20.90728430 1.44209519
VERTEX2 679 -6.13115653 -20.32870238 1.50471673
VERTEX2 680 -6.15925991 -19.88090294 1.84966589
VERTEX2 681 -6.31214687 -19.28986691 1.82219437
VERTEX2 682 -6.48519149 -18.68432429 1.86991159
VERTEX2 683 -6.57781854 -18.40229748 2.02912130
VERTEX2 684 -6.52648409 -18.45444312 3.10965456
VERTEX2 685 -6.93324251 -18.61768800 -2.72950801
VERTEX2 686 -7.38345566 -18.75678046 -2.87353389
VERTEX2 687 -7.97748944 -18.91001094 -2.90867739
VERTEX2 688 -8.57479206 -19.03211907 -2.92058502
VERTEX2 689 -9.13853351 -19.17294406 -2.89306621
VERTEX2 690 -9.67392356 -19.34363255 -2.81906219
VERTEX2 691 -10.06865051 -19.47624198 -2.84725234
VERTEX2 692 -10.05412947 -19.46974869 -2.31342570
VERTEX2 693 -10.03037087 -19.54426185 -1.27381782
VERTEX2 694 -10.00543206 -19.61855352 -0.43900000
VERTEX2 695 -9.98613124 -19.61306048 0.36041274
VERTEX2 696 -9.97968966 -19.60884033 1.38514786
VERTEX2 697 -9.99022288 -19.64337021 1.13252541
VERTEX2 698 -9.65894825 -19.43386729 0.47835529
VERTEX2 699 -9.09747883 -19.12070720 0.59291453
VERTEX2 700 -8.58463956 -18.75749352 0.64685061
VERTEX2 701 -8.15022376 -18.39244983 0.70637595
VERTEX2 702 -7.67222347 -18.07613747 0.59155654
VERTEX2 703 -7.16132608 -17.73823397 0.62604082
VERTEX2 704 -6.66818075 -17.35369089 0.64438466
VERTEX2 705 -6.15754327 -16.93161683 0.71466231
VERTEX2 706 -5.72748603 -16.61249354 0.44572372
VERTEX2 707 -5.70192912 -16.61107640 -0.07444447
VERTEX2 708 -5.69224334 -16.61665021 -0.71282776
VERTEX2 709 -5.73251934 -16.57343609 -1.04486360
VERTEX2 710 -5.73722128 -16.56137196 -1.60589834
VERTEX2 711 -5.72811774 -16.56956216 -2.20254297
VERTEX2 712 -5.70730096 -16.55354273 -2.76289238
VERTEX2 713 -6.17988061 -16.60485089 -3.04819433
VERTEX2 714 -6.73307136 -16.58081687 3.03751281
VERTEX2 715 -7.35342107 -16.54544512 3.14120621
VERTEX2 716 -7.98114428 -16.52492298 3.00327084
VERTEX2 717 -8.59614307 -16.45900334 3.08812235
VERTEX2 718 -9.35218128 -16.34291344 2.91286881
VERTEX2 719 -9.96303478 -16.23009532 2.98744925
VERTEX2 720 -10.56973680 -16.12021790 2.92836328
VERTEX2 721 -11.19009546 -16.00538901 2.99682402
VERTEX2 722 -11.20897930 -16.00274667 3.06376455
VERTEX2 723 -11.22921063 -16.02375409 -2.12847371
VERTEX2 724 -11.22915128 -16.06827279 -1.05974644
VERTEX2 725 -11.20543953 -16.08407908 -0.42546233
VERTEX2 726 -10.88555034 -16.07911872 0.02867343
VERTEX2 727 -10.25373669 -16.03933369 0.05939000
VERTEX2 728 -9.61910413 -16.01370368 0.06075366
VERTEX2 729 -8.98708292 -15.95210921 0.11836872
VERTEX2 730 -8.36969332 -15.85902771 0.15584661
VERTEX2 731 -7.73386519 -15.75876901 0.16843550
VERTEX2 732 -7.60385241 -15.73211810 0.61579942
VERTEX2 733 -7.60634817 -15.72810560 1.61385062
VERTEX2 734 -7.66907478 -15.17015832 1.69234833
VERTEX2 735 -7.73456787 -14.56596859 1.66063628
VERTEX2 736 -7.73553133 -14.55301492 2.26095653
VERTEX2 737 -7.74119496 -14.55234913 3.06271895
VERTEX2 738 -8.33224644 -14.51628913 3.08210372
VERTEX2 739 -8.93713013 -14.42670705 3.02471496
VERTEX2 740 -9.44125138 -14.39119580 3.08822213
VERTEX2 741 -9.42187961 -14.39079131 2.71977234
VERTEX2 742 -9.41289632 -14.39694780 2.06615560
VERTEX2 743 -9.41348596 -14.39447221 1.44856520
VERTEX2 744 -9.40342888 -14.37091115 0.90849424
VERTEX2 745 -9.37618733 -14.35640373 0.31423569
VERTEX2 746 -8.82177696 -14.37119766 -0.16127840
VERTEX2 747 -8.16406625 -14.48354171 -0.19683453
VERTEX2 748 -7.57462431 -14.62528066 -0.26547959
VERTEX2 749 -7.47952662 -14.64839031 0.16315985
VERTEX2 750 -7.46821123 -14.62727090 1.08922458
VERTEX2 751 -7.50347765 -14.35838375 1.72881546
VERTEX2 752 -7.56367861 -13.73621370 1.62520134
VERTEX2 753 -7.60469788 -13.09462548 1.68848831
VERTEX2 754 -7.61568505 -12.45139327 1.52643933
VERTEX2 755 -7.59983831 -11.81275091 1.61350211
VERTEX2 756 -7.56519969 -11.17028065 1.43856595
VERTEX2 757 -7.49557983 -10.52862278 1.55009980
VERTEX2 758 -7.51995648 -9.95343217 1.69180887
VERTEX2 759 -7.51353887 -9.41195958 1.57065579
VERTEX2 760 -7.55560687 -8.80530441 1.68206891
VERTEX2 761 -7.55821366 -8.77180276 1.86248760
VERTEX2 762 -7.63436884 -8.73827098 2.69750481
VERTEX2 763 -8.21512673 -8.63756171 2.98991607
VERTEX2 764 -8.64149423 -8.56723667 2.96212111
VERTEX2 765 -8.63598568 -8.56710532 -2.68228537
VERTEX2 766 -8.63670200 -8.56946420 -1.68292665
VERTEX2 767 -8.63413873 -8.57589358 -0.75296643
VERTEX2 768 -8.60482853 -8.57760243 -0.03024109
VERTEX2 769 -7.96839995 -8.48648475 0.12684405
VERTEX2 770 -7.31461033 -8.42505997 0.05989131
VERTEX2 771 -7.22475673 -8.41722320 0.62075219
VERTEX2 772 -7.22331578 -8.41260206 1.48883718
VERTEX2 773 -7.20209394 -7.84077777 1.57483937
VERTEX2 774 -7.21662781 -7.30070725 1.59712029
VERTEX2 775 -7.21414421 -7.31124076 2.44261196
VERTEX2 776 -7.42112527 -7.28711795 3.06045817
VERTEX2 777 -8.03255220 -7.24883598 3.11966785
VERTEX2 778 -8.64356791 -7.24170329 3.09886564
VERTEX2 779 -9.25734942 -7.22406541 3.11695839
VERTEX2 780 -9.46280942 -7.20738078 2.98669961
VERTEX2 781 -9.45401705 -7.21049072 2.41321898
VERTEX2 782 -9.57714423 -6.94997756 1.98358909
VERTEX2 783 -9.81272307 -6.38156387 1.98267501
VERTEX2 784 -9.91108369 -6.15878125 1.96101354
VERTEX2 785 -9.91217064 -6.13069622 1.40920650
VERTEX2 786 -9.90381412 -6.10291978 0.82104882
VERTEX2 787 -9.88654802 -6.08514034 0.33052415
VERTEX2 788 -9.86275208 -6.08668859 -0.29844681
VERTEX2 789 -9.85542363 -6.09240883 -0.85027234
VERTEX2 790 -9.55037891 -6.48345210 -0.91736723
VERTEX2 791 -9.14684815 -6.96098799 -0.81862373
VERTEX2 792 -8.90980256 -7.17090046 -0.11390462
VERTEX2 793 -8.29552247 -7.22140654 -0.06905207
VERTEX2 794 -7.65690840 -7.24851720 0.00226194
VERTEX2 795 -7.68163191 -7.26680012 0.43185183
VERTEX2 796 -7.68923362 -7.26989608 1.09150747
VERTEX2 797 -7.61573795 -6.95992427 1.35181723
VERTEX2 798 -7.48257741 -6.33268702 1.40205254
VERTEX2 799 -7.39759057 -5.68753734 1.46787234
VERTEX2 800 -7.34566357 -5.04039033 1.54086831
VERTEX2 801 -7.35869312 -4.40974472 1.62703024
VERTEX2 802 -7.41467016 -3.78550756 1.68493871
VERTEX2 803 -7.39964163 -3.15822740 1.52050403
VERTEX2 804 -7.38182474 -2.53220232 1.57657783
VERTEX2 805 -7.41744616 -1.90288916 1.65302424
VERTEX2 806 -7.47903966 -1.30793661 1.69427121
VERTEX2 807 -7.50629530 -1.12811560 1.98265381
VERTEX2 808 -7.50804458 -1.12811043 2.93166837
VERTEX2 809 -8.09674957 -1.10201972 3.07654749
VERTEX2 810 -8.71113259 -0.98236909 2.93658224
VERTEX2 811 -9.30711976 -0.87438537 2.93343466
VERTEX2 812 -9.30580958 -0.87466884 -2.61754179
VERTEX2 813 -9.31658529 -0.89902763 -1.64164441
VERTEX2 814 -9.30632798 -0.90705658 -0.64882358
VERTEX2 815 -9.27807103 -0.91638710 0.27098859
VERTEX2 816 -9.26896973 -0.91132422 0.95254407
VERTEX2 817 -9.25761597 -0.90405947 0.28416790
VERTEX2 818 -9.04056884 -0.93534818 -0.20584251
VERTEX2 819 -8.45437080 -1.05758249 -0.19222798
VERTEX2 820 -7.86581619 -1.18414371 -0.23400973
VERTEX2 821 -7.32490982 -1.31028873 -0.21875707
VERTEX2 822 -7.28004164 -1.31688681 0.54186360
VERTEX2 823 -7.27876516 -1.30261255 1.45993647
VERTEX2 824 -7.21705816 -0.68091649 1.38036286
VERTEX2 825 -7.07523080 -0.05802694 1.35047056
VERTEX2 826 -7.01992268 0.57363802 1.51311378
VERTEX2 827 -6.95757995 1.19700658 1.46421225
VERTEX2 828 -6.90479453 1.82782078 1.49948871
VERTEX2 829 -6.84462076 2.43868655 1.45958109
VERTEX2 830 -6.76995948 3.05432984 1.45134489
VERTEX2 831 -6.67578922 3.63853124 1.40465504
VERTEX2 832 -6.58561615 4.20840222 1.40119884
VERTEX2 833 -6.54103254 4.47059055 1.53900394
VERTEX2 834 -6.54405065 4.48120485 2.59416415
VERTEX2 835 -6.55143043 4.48202427 -2.91098181
VERTEX2 836 -6.56126944 4.47364834 -1.96841606
VERTEX2 837 -6.55728360 4.45217895 -0.93260342
VERTEX2 838 -6.54069009 4.44187487 -0.07086645
VERTEX2 839 -6.53491591 4.43912340 -0.28932648
VERTEX2 840 -6.52262645 4.42951629 -0.85240066
VERTEX2 841 -6.51568184 4.41559421 -1.46954268
VERTEX2 842 -6.54243853 4.16317162 -1.70038465
VERTEX2 843 -6.62168069 3.59241518 -1.70289611
VERTEX2 844 -6.69783139 2.95989837 -1.71086573
VERTEX2 845 -6.79273383 2.32754985 -1.72550341
VERTEX2 846 -6.87957155 1.69113136 -1.72365745
VERTEX2 847 -6.98983444 1.06572527 -1.75021311
VERTEX2 848 -7.02055002 0.86877914 -1.26940701
VERTEX2 849 -7.01965451 0.86846199 -0.34735341
VERTEX2 850 -6.66514908 0.86556945 0.00598599
VERTEX2 851 -6.03847309 0.84057421 -0.08654273
VERTEX2 852 -5.41448405 0.78040675 -0.07214434
VERTEX2 853 -4.82014686 0.73889541 -0.10007391
VERTEX2 854 -4.23329617 0.67209288 -0.09806807
VERTEX2 855 -3.63886912 0.62219189 -0.09985657
VERTEX2 856 -2.97366650 0.53575893 -0.14022738
VERTEX2 857 -2.30957961 0.44578196 -0.14944528
VERTEX2 858 -1.65142995 0.32293198 -0.20356793
VERTEX2 859 -1.11959192 0.21805009 -0.21007433
VERTEX2 860 -1.08431105 0.23274344 0.64229506
VERTEX2 861 -1.06936544 0.34208177 1.55675760
VERTEX2 862 -1.03400306 1.00127566 1.49706271
VERTEX2 863 -0.97947773 1.64515216 1.46451473
VERTEX2 864 -0.89514259 2.25515505 1.46234265
VERTEX2 865 -0.85645878 2.86610174 1.51990716
VERTEX2 866 -0.81418582 3.45155081 1.51873578
VERTEX2 867 -0.80739322 3.61490641 1.69987680
VERTEX2 868 -0.81389938 3.62303676 2.72340435
VERTEX2 869 -0.80206499 3.62325297 -2.58169140
VERTEX2 870 -0.78173901 3.63426682 -1.58249327
VERTEX2 871 -0.76575790 3.62350523 -0.60903591
VERTEX2 872 -0.74616008 3.60943569 0.07606651
VERTEX2 873 -0.71753807 3.59998218 -0.49663868
VERTEX2 874 -0.69522510 3.57992169 -1.05637604
VERTEX2 875 -0.68841004 3.56398251 -1.64302349
VERTEX2 876 -0.80718123 3.00722355 -1.80065934
VERTEX2 877 -0.95830526 2.46457417 -1.88537887
VERTEX2 878 -1.00854228 2.26438392 -1.50253638
VERTEX2 879 -0.90651801 1.62692798 -1.45141124
VERTEX2 880 -0.87023306 1.17856833 -1.56398492
VERTEX2 881 -0.87071411 1.22882346 -1.55854885
VERTEX2 882 -0.92606059 0.58928087 -1.80490700
VERTEX2 883 -1.14087762 -0.00702758 -1.99546754
VERTEX2 884 -1.29913621 -0.34046909 -2.06230034
VERTEX2 885 -1.29913955 -0.33992013 -1.48040553
VERTEX2 886 -1.28426380 -0.35376118 -0.46175419
VERTEX2 887 -1.25932343 -0.36334592 0.55022163
VERTEX2 888 -1.24999676 -0.34349304 1.53493458
VERTEX2 889 -1.25207030 -0.33760106 2.43350870
VERTEX2 890 -1.57822183 -0.18203726 2.70689131
VERTEX2 891 -2.12640452 0.08685475 2.63623226
VERTEX2 892 -2.67078828 0.40925254 2.60035821
VERTEX2 893 -3.23454578 0.70780868 2.83618771
VERTEX2 894 -3.85764799 0.81869452 3.05683084
VERTEX2 895 -4.46531319 0.76749597 -2.92852443
VERTEX2 896 -4.48775465 0.76207365 -2.45037085
VERTEX2 897 -4.76982563 0.34290406 -2.17832410
VERTEX2 898 -5.11874069 -0.16481872 -2.16271362
VERTEX2 899 -5.40283407 -0.57292054 -2.23034011
VERTEX2 900 -5.81368152 -1.11572546 -2.23262509
VERTEX2 901 -6.18301511 -1.55881509 -2.29687730
VERTEX2 902 -6.59683268 -2.04923695 -2.27152215
VERTEX2 903 -6.91069454 -2.42693347 -2.31615822
VERTEX2 904 -6.91076755 -2.42709168 -1.61257569
VERTEX2 905 -6.89617887 -2.91711281 -1.55745966
VERTEX2 906 -6.86169639 -3.48497392 -1.49208302
VERTEX2 907 -6.80525645 -4.05564842 -1.50054396
VERTEX2 908 -6.75822387 -4.67719715 -1.47607100
VERTEX2 909 -6.69716200 -5.28892607 -1.49429773
VERTEX2 910 -6.72377936 -5.41357367 -1.86466379
VERTEX2 911 -6.88240082 -5.97969138 -1.80408052
VERTEX2 912 -7.00193026 -6.53927565 -1.79144963
VERTEX2 913 -7.11278079 -7.07714566 -1.78349610
VERTEX2 914 -7.23740900 -7.66113424 -1.80716593
VERTEX2 915 -7.35944262 -8.16573598 -1.84392154
VERTEX2 916 -7.29433505 -8.41250542 -1.29650156
VERTEX2 917 -7.15435875 -9.06331957 -1.55105832
VERTEX2 918 -7.17400841 -9.57597280 -1.62643291
VERTEX2 919 -7.20697303 -10.19868247 -1.66945879
VERTEX2 920 -7.27053385 -10.81115439 -1.68680353
VERTEX2 921 -7.34272664 -11.42472217 -1.73992527
VERTEX2 922 -7.44379118 -12.02620386 -1.76696282
VERTEX2 923 -7.56224214 -12.58985735 -1.83027559
VERTEX2 924 -7.69200497 -13.07720582 -1.81369057
VERTEX2 925 -7.69401989 -13.06742160 -1.30907597
VERTEX2 926 -7.53465077 -13.62466226 -1.29293735
VERTEX2 927 -7.36669449 -14.21842386 -1.31625790
VERTEX2 928 -7.20784047 -14.82779105 -1.32518473
VERTEX2 929 -7.05552204 -15.43439469 -1.32606022
VERTEX2 930 -6.90768764 -16.06446435 -1.40877603
VERTEX2 931 -6.82089748 -16.69027458 -1.48912740
VERTEX2 932 -6.77425557 -17.31705831 -1.54866983
VERTEX2 933 -6.77039584 -17.92953921 -1.61335445
VERTEX2 934 -6.78469218 -18.41020091 -1.62324496
VERTEX2 935 -6.78214325 -18.42195467 -0.94129892
VERTEX2 936 -6.78178490 -18.42207991 0.00374765
VERTEX2 937 -6.23988813 -18.39664232 0.06658170
VERTEX2 938 -5.64423362 -18.41239338 -0.10688952
VERTEX2 939 -5.02092873 -18.47190949 -0.07923412
VERTEX2 940 -4.41134031 -18.54632765 -0.16514735
VERTEX2 941 -3.80950427 -18.66087481 -0.21888051
VERTEX2 942 -3.29409805 -18.77563829 -0.21448217
VERTEX2 943 -2.68335234 -18.90976604 -0.12606687
VERTEX2 944 -2.06816392 -18.99298914 -0.18265934
VERTEX2 945 -1.44806221 -19.12155062 -0.23778072
VERTEX2 946 -1.27477929 -19.16578068 -0.17345837
VERTEX2 947 -0.86562723 -19.10288528 0.15474875
VERTEX2 948 -0.29366846 -19.01404400 0.13557226
VERTEX2 949 0.30835052 -18.97998565 -0.02014687
VERTEX2 950 0.93731445 -19.01657503 -0.25974771
VERTEX2 951 1.53773652 -19.18950481 -0.33196387
VERTEX2 952 2.13784804 -19.36546658 -0.08128452
VERTEX2 953 2.76627799 -19.39768087 -0.00109190
VERTEX2 954 3.38749453 -19.39131277 -0.00814557
VERTEX2 955 3.97376158 -19.43747990 -0.16898614
VERTEX2 956 4.52127387 -19.51622887 -0.17126755
VERTEX2 957 5.04934632 -19.61250046 -0.25892687
VERTEX2 958 5.51833869 -19.72600441 -0.28590412
VERTEX2 959 5.95204548 -19.84572664 -0.35329278
VERTEX2 960 6.54027474 -20.00940284 -0.27363826
VERTEX2 961 7.12088713 -20.18449768 -0.30084729
VERTEX2 962 7.73706256 -20.31406566 -0.23541625
VERTEX2 963 8.35314321 -20.39601741 -0.04896902
VERTEX2 964 8.97370752 -20.43884418 -0.11300685
VERTEX2 965 9.59014291 -20.51920788 -0.12000705
VERTEX2 966 10.03531295 -20.57889948 -0.17892496
VERTEX2 967 10.06844461 -20.57223014 0.67466769
VERTEX2 968 10.07492165 -20.56611923 1.57160674
VERTEX2 969 10.07731086 -20.59435351 1.63082504
VERTEX2 970 10.07988169 -20.62274805 1.62887148
VERTEX2 971 10.05978399 -20.28991453 1.62878554
VERTEX2 972 10.02187739 -19.70377676 1.63418374
VERTEX2 973 10.10220746 -19.12172465 1.34881737
VERTEX2 974 10.24254466 -18.51994848 1.38038635
VERTEX2 975 10.35511422 -17.91415869 1.38475279
VERTEX2 976 10.46106652 -17.30574932 1.39741030
VERTEX2 977 10.59793627 -16.68976296 1.37100429
VERTEX2 978 10.72010941 -16.08017130 1.41686749
VERTEX2 979 10.83615872 -15.47452429 1.40451192
VERTEX2 980 10.93578234 -14.86903055 1.45110679
VERTEX2 981 11.02644447 -14.27412999 1.45774106
VERTEX2 982 11.08444983 -13.74613335 1.50243452
VERTEX2 983 11.13600495 -13.14741064 1.49897547
VERTEX2 984 11.16518260 -12.55175314 1.55631243
VERTEX2 985 11.17805502 -11.95561818 1.57661750
VERTEX2 986 11.16529801 -11.33664278 1.61303653
VERTEX2 987 11.15476928 -10.71915315 1.57648877
VERTEX2 988 11.15952435 -10.10162417 1.59039045
VERTEX2 989 11.14755553 -9.49247463 1.59869090
VERTEX2 990 11.14296868 -8.88650376 1.58868933
VERTEX2 991 11.12916680 -8.27163807 1.61321613
VERTEX2 992 11.12565074 -7.68425611 1.58040380
VERTEX2 993 11.11384026 -7.06779951 1.61303230
VERTEX2 994 11.09935657 -6.48226306 1.60305647
VERTEX2 995 11.06889397 -5.89607001 1.65059939
VERTEX2 996 11.01107117 -5.29598061 1.67803445
VERTEX2 997 10.96773776 -4.65725115 1.61395921
VERTEX2 998 10.94878346 -4.26076421 1.63613831
VERTEX2 999 10.98412084 -4.28936559 2.35491419
VERTEX2 1000 10.52920555 -3.93561585 2.50396478
VERTEX2 1001 10.09713482 -3.54253743 2.18353330
VERTEX2 1002 9.73619624 -3.07956451 2.27654751
VERTEX2 1003 9.39180527 -2.58976779 2.09734337
VERTEX2 1004 9.05169308 -2.05427774 2.15568841
VERTEX2 1005 8.69648261 -1.56062370 2.21818856
VERTEX2 1006 8.29848471 -1.08264402 2.29559034
VERTEX2 1007 7.88288129 -0.65600786 2.38722782
VERTEX2 1008 7.64414953 -0.43942366 2.54669253
VERTEX2 1009 7.54216389 -0.42415186 3.01926610
VERTEX2 1010 6.97233744 -0.36841229 3.07169939
VERTEX2 1011 6.35903114 -0.32963528 3.02851857
VERTEX2 1012 5.74237159 -0.26567064 3.07010497
VERTEX2 1013 5.10109745 -0.26801780 -3.09840934
VERTEX2 1014 4.48158795 -0.21902570 3.00921359
VERTEX2 1015 3.85042303 -0.17860052 3.09352213
VERTEX2 1016 3.07491037 -0.13948951 3.10017352
VERTEX2 1017 2.48586704 -0.12550817 3.04293302
VERTEX2 1018 1.92357625 -0.06265582 3.05017636
VERTEX2 1019 1.32482431 -0.03738356 3.10969779
VERTEX2 1020 0.70567213 -0.00049467 3.09575347
VERTEX2 1021 0.08073234 0.02948379 3.05518784
VERTEX2 1022 0.02297907 0.03428109 3.04799705
VERTEX2 1023 0.02625540 0.03421964 3.13463166
VERTEX2 1024 -0.60421678 0.04264899 -3.12215468
VERTEX2 1025 -1.23624217 0.01259048 -3.10448653
VERTEX2 1026 -1.40071143 0.00703566 -3.09721020
VERTEX2 1027 -1.38328779 0.01557814 -2.18031020
VERTEX2 1028 -1.39556935 -0.14036533 -1.61658992
VERTEX2 1029 -1.42403450 -0.70203438 -1.63847103
VERTEX2 1030 -1.48710752 -1.32149468 -1.71883402
VERTEX2 1031 -1.59909570 -1.96471423 -1.77294337
VERTEX2 1032 -1.72889328 -2.60789197 -1.76887300
VERTEX2 1033 -1.87162345 -3.24977893 -1.81400443
VERTEX2 1034 -1.91556913 -3.41806798 -2.02775901
VERTEX2 1035 -1.91706052 -3.41935624 -2.64702014
VERTEX2 1036 -1.88190664 -3.43555533 3.06539096
VERTEX2 1037 -2.21746901 -3.30798370 2.82701947
VERTEX2 1038 -2.82387649 -3.18709842 2.91825489
VERTEX2 1039 -3.45751441 -3.01915166 2.88675365
VERTEX2 1040 -3.42627383 -3.01987894 -2.76627571
VERTEX2 1041 -3.40155600 -3.02311435 -1.74992442
VERTEX2 1042 -3.40334608 -3.05582516 -0.76259523
VERTEX2 1043 -3.37226457 -3.08446353 0.20642604
VERTEX2 1044 -3.38740194 -3.10228779 1.19963329
VERTEX2 1045 -3.39078920 -3.10972585 1.08550217
VERTEX2 1046 -3.40212726 -3.12493511 0.69980624
VERTEX2 1047 -3.42357829 -3.13424177 0.14383154
VERTEX2 1048 -3.06449433 -3.20336468 -0.16930628
VERTEX2 1049 -2.42252822 -3.30228346 -0.15223483
VERTEX2 1050 -1.77878471 -3.37363408 -0.07665246
VERTEX2 1051 -1.12775186 -3.44783962 -0.15608856
VERTEX2 1052 -0.50832422 -3.52963032 -0.10341867
VERTEX2 1053 -0.09543561 -3.58451070 -0.15632354
VERTEX2 1054 -0.07378540 -3.58686649 0.60419036
VERTEX2 1055 -0.06770693 -3.55856318 1.66427959
VERTEX2 1056 -0.05824179 -3.57247423 2.67036766
VERTEX2 1057 -0.03065778 -3.57548165 -2.62146650
VERTEX2 1058 -0.02931529 -3.57391336 -1.69994496
VERTEX2 1059 -0.12577785 -4.15527605 -1.78087928
VERTEX2 1060 -0.26089057 -4.78374136 -1.77605629
VERTEX2 1061 -0.36704930 -5.22813001 -1.89883146
VERTEX2 1062 -0.37039441 -5.23330011 -2.46314747
VERTEX2 1063 -0.34864340 -5.22084540 -3.06096822
VERTEX2 1064 -0.62807341 -5.16838295 2.95690930
VERTEX2 1065 -1.21472042 -5.10151424 3.07883383
VERTEX2 1066 -1.77684411 -5.04925920 3.02268679
VERTEX2 1067 -1.76136314 -5.04845261 -2.82789628
VERTEX2 1068 -1.74840837 -5.03935604 -2.15519566
VERTEX2 1069 -1.74779327 -5.03770034 -1.98486128
VERTEX2 1070 -1.74624563 -5.03498229 -2.52389275
VERTEX2 1071 -2.21756179 -5.29069885 -2.65115129
VERTEX2 1072 -2.66706795 -5.52293061 -2.71985450
VERTEX2 1073 -2.63693389 -5.52216447 3.05209967
VERTEX2 1074 -3.16577938 -5.45033988 3.01769774
VERTEX2 1075 -3.74227185 -5.37409737 3.03422231
VERTEX2 1076 -3.75783133 -5.37300037 -2.84429545
VERTEX2 1077 -3.77001646 -5.39606185 -2.03750832
VERTEX2 1078 -4.00703281 -6.00525094 -1.99213407
VERTEX2 1079 -4.23538693 -6.56410063 -1.92962318
VERTEX2 1080 -4.23954041 -6.57527321 -2.41771898
VERTEX2 1081 -4.66818531 -6.86906650 -2.54118778
VERTEX2 1082 -4.83945858 -6.98894311 -2.26088188
VERTEX2 1083 -4.83565747 -7.01831505 -1.23269187
VERTEX2 1084 -4.77071335 -7.05183013 -0.26875240
VERTEX2 1085 -4.77665001 -7.05338678 0.71451310
VERTEX2 1086 -4.41796361 -6.56903998 0.94508372
VERTEX2 1087 -4.03985948 -6.06689087 0.93307345
VERTEX2 1088 -3.68034622 -5.56056554 0.91639272
VERTEX2 1089 -3.62489553 -5.48938791 0.82082102
VERTEX2 1090 -3.61509477 -5.48049708 0.20549979
VERTEX2 1091 -3.07726881 -5.45062624 0.02850977
VERTEX2 1092 -2.45815353 -5.43803913 0.01328961
VERTEX2 1093 -1.88908283 -5.44357277 -0.05186801
VERTEX2 1094 -1.87466748 -5.45742765 -0.45657582
VERTEX2 1095 -1.84261569 -5.48614211 -1.04711473
VERTEX2 1096 -1.84310394 -5.48402179 -1.61801863
VERTEX2 1097 -1.92877490 -5.81007842 -1.83326295
VERTEX2 1098 -2.11024011 -6.40740454 -1.88993888
VERTEX2 1099 -2.32096865 -6.96793220 -1.98614030
VERTEX2 1100 -2.32701778 -6.98297390 -1.62325544
VERTEX2 1101 -2.26936763 -7.25036053 -1.35753643
VERTEX2 1102 -2.27035062 -7.26124918 -1.75144175
VERTEX2 1103 -2.40242798 -7.87114381 -1.78535661
VERTEX2 1104 -2.54559798 -8.50719037 -1.81319864
VERTEX2 1105 -2.70414874 -9.12146683 -1.83116127
VERTEX2 1106 -2.83225177 -9.59078130 -1.85647032
VERTEX2 1107 -2.83197523 -9.59438305 -1.60046937
VERTEX2 1108 -2.80687199 -10.21618642 -1.59271808
VERTEX2 1109 -2.86596127 -10.85401525 -1.69677253
VERTEX2 1110 -2.94671107 -11.45515166 -1.74641242
VERTEX2 1111 -3.12062224 -11.97582508 -1.84783164
VERTEX2 1112 -3.16119665 -12.54922591 -1.50164538
VERTEX2 1113 -3.13331062 -13.18404279 -1.59719513
VERTEX2 1114 -3.14844069 -13.79554042 -1.58032358
VERTEX2 1115 -3.15074264 -14.37392272 -1.59669170
VERTEX2 1116 -3.14469523 -15.01762201 -1.56063901
VERTEX2 1117 -3.14290404 -15.11050422 -1.68865449
VERTEX2 1118 -3.13792092 -15.10144929 -2.29637372
VERTEX2 1119 -3.12204980 -15.09071987 -2.72841940
VERTEX2 1120 -3.67862729 -15.28712817 -2.79214600
VERTEX2 1121 -3.86027575 -15.34893942 -2.91084447
VERTEX2 1122 -3.84820367 -15.35323784 2.82178287
VERTEX2 1123 -4.38772780 -15.16522201 2.83862858
VERTEX2 1124 -4.93520612 -15.03258721 2.93728840
VERTEX2 1125 -5.55042334 -14.90222425 2.95072947
VERTEX2 1126 -5.62152001 -14.88998308 -2.99283893
VERTEX2 1127 -5.61348825 -14.89873716 -1.93596952
VERTEX2 1128 -5.61177689 -14.89088603 -0.94898281
VERTEX2 1129 -5.59734725 -14.89919063 0.06721890
VERTEX2 1130 -5.01164915 -14.84134228 0.08155532
VERTEX2 1131 -4.24603415 -14.97336182 -0.34899195
VERTEX2 1132 -3.64558767 -15.19387783 -0.36804741
VERTEX2 1133 -3.10466873 -15.42563075 -0.40569811
VERTEX2 1134 -2.85634086 -15.53253044 -0.50154179
VERTEX2 1135 -2.84983188 -15.53903603 -1.05515931
VERTEX2 1136 -2.84691455 -15.53300684 -1.61467113
VERTEX2 1137 -2.90104023 -15.82875235 -1.79730913
VERTEX2 1138 -3.05630174 -16.45511903 -1.81254983
VERTEX2 1139 -3.17659332 -16.95020015 -1.88536525
VERTEX2 1140 -3.16663516 -16.92648049 -2.36349607
VERTEX2 1141 -3.14480422 -16.90533569 -2.90994644
VERTEX2 1142 -3.50708520 -16.86132588 3.00961200
VERTEX2 1143 -4.10448466 -16.81369674 3.09941969
VERTEX2 1144 -4.68483955 -16.77862431 3.06917157
VERTEX2 1145 -5.26274716 -16.73244779 3.04406974
VERTEX2 1146 -5.83827918 -16.67476114 3.06416996
VERTEX2 1147 -6.41724633 -16.66431100 3.13727612
VERTEX2 1148 -6.99545199 -16.66158296 -3.13587648
VERTEX2 1149 -7.03790608 -16.66286069 -2.63762643
VERTEX2 1150 -7.13022532 -16.76534997 -1.82813638
VERTEX2 1151 -7.12771018 -16.77974017 -0.82431797
VERTEX2 1152 -7.11087226 -16.78004429 0.22880387
VERTEX2 1153 -7.09768323 -16.77410051 1.24158995
VERTEX2 1154 -7.15623430 -16.45817886 1.78789349
VERTEX2 1155 -7.28812507 -15.83485669 1.73866111
VERTEX2 1156 -7.38434382 -15.22998407 1.74879870
VERTEX2 1157 -7.51042667 -14.66006571 1.86007387
VERTEX2 1158 -7.63578396 -14.05908228 1.73171033
VERTEX2 1159 -7.69550958 -13.45762307 1.63771587
VERTEX2 1160 -7.71730196 -12.81928345 1.50103831
VERTEX2 1161 -7.61684768 -12.18811453 1.41142670
VERTEX2 1162 -7.52467996 -11.55670131 1.46963250
VERTEX2 1163 -7.46151328 -10.91452582 1.46428172
VERTEX2 1164 -7.41271563 -10.27441349 1.54986345
VERTEX2 1165 -7.40163840 -9.72723107 1.52693210
VERTEX2 1166 -7.40384181 -9.71642878 2.01566719
VERTEX2 1167 -7.35003386 -9.70335210 2.95185483
VERTEX2 1168 -7.30247793 -9.68446600 -2.42832707
VERTEX2 1169 -7.30662191 -9.73750069 -1.60596303
VERTEX2 1170 -7.31714661 -10.32484614 -1.59912098
VERTEX2 1171 -7.31721155 -10.96088983 -1.56721956
VERTEX2 1172 -7.32164422 -11.56103004 -1.62949063
VERTEX2 1173 -7.35167455 -12.18605230 -1.62019913
VERTEX2 1174 -7.39558009 -12.81638181 -1.68872905
VERTEX2 1175 -7.48178118 -13.43187781 -1.72195624
VERTEX2 1176 -7.57820868 -14.04897037 -1.76532104
VERTEX2 1177 -7.69646609 -14.65406046 -1.76299200
VERTEX2 1178 -7.82604116 -15.26311802 -1.80990005
VERTEX2 1179 -7.96325046 -15.86988493 -1.78068550
VERTEX2 1180 -8.01765182 -16.12572954 -1.78779649
VERTEX2 1181 -8.01712000 -16.12206734 -0.96085581
VERTEX2 1182 -7.96217452 -16.13598392 -0.24958304
VERTEX2 1183 -7.34916987 -16.28472603 -0.22440958
VERTEX2 1184 -6.71705142 -16.39943864 -0.15503358
VERTEX2 1185 -6.08986837 -16.50980628 -0.18744574
VERTEX2 1186 -5.45916767 -16.60480064 -0.12143376
VERTEX2 1187 -4.80618028 -16.69052486 -0.15869601
VERTEX2 1188 -4.17976512 -16.78071377 -0.14075710
VERTEX2 1189 -3.51350649 -16.88919167 -0.11918492
VERTEX2 1190 -3.17916035 -16.92994581 -0.11126474
VERTEX2 1191 -3.14481158 -16.92920770 0.80865171
VERTEX2 1192 -3.13945649 -16.85170145 1.60599500
VERTEX2 1193 -3.13292613 -16.25789560 1.47386968
VERTEX2 1194 -3.09212495 -15.68971006 1.51583614
VERTEX2 1195 -3.06395556 -15.07227653 1.56809717
VERTEX2 1196 -3.05822514 -14.45470999 1.39535934
VERTEX2 1197 -2.95578707 -13.84575750 1.40656570
VERTEX2 1198 -2.88602996 -13.22504641 1.66533997
VERTEX2 1199 -2.90311844 -12.61888736 1.45058740
VERTEX2 1200 -2.84652117 -11.99495231 1.51954995
VERTEX2 1201 -2.82196909 -11.37761982 1.57544460
VERTEX2 1202 -2.83257427 -10.75727379 1.59843632
VERTEX2 1203 -2.86333084 -10.16971765 1.50854585
VERTEX2 1204 -2.74980603 -9.58082665 1.36178072
VERTEX2 1205 -2.64212852 -9.02101228 1.39135026
VERTEX2 1206 -2.55721493 -8.43399446 1.45256238
VERTEX2 1207 -2.42059197 -7.82593990 1.36643045
VERTEX2 1208 -2.30867184 -7.20401845 1.43106172
VERTEX2 1209 -2.22206132 -6.58531550 1.42906180
VERTEX2 1210 -2.15740974 -5.97065547 1.44955489
VERTEX2 1211 -2.03230035 -5.36060226 1.37680901
VERTEX2 1212 -1.91835305 -4.75056578 1.42687586
VERTEX2 1213 -1.85191688 -4.13748061 1.50015286
VERTEX2 1214 -1.77122147 -3.41247884 1.27738624
VERTEX2 1215 -1.60853856 -2.83132241 1.33630019
VERTEX2 1216 -1.55907625 -2.27839591 1.55340926
VERTEX2 1217 -1.52571265 -1.69842044 1.53389782
VERTEX2 1218 -1.51218479 -1.10827179 1.48322882
VERTEX2 1219 -1.46178374 -0.45920067 1.51382682
VERTEX2 1220 -1.45502415 0.12786285 1.60456482
VERTEX2 1221 -1.45448010 0.12603418 1.15181182
VERTEX2 1222 -1.44450597 0.13575412 0.55450482
VERTEX2 1223 -1.43267318 0.13855974 -0.00512218
VERTEX2 1224 -0.85866691 0.04655439 -0.18803018
VERTEX2 1225 -0.24326572 -0.06656985 -0.17426618
VERTEX2 1226 -0.13839372 -0.08514345 -0.19099718
VERTEX2 1227 -0.13839372 -0.08514345 -0.19165918
