1 19 166 0.00295068 10 
2 19 172 0.00313177 10 
3 25 172 0.00318287 10 
4 25 178 0.00329825 10 
5 32 178 0.00330022 10 
6 32 183 0.00339102 10 
7 44 189 0.00351065 10 
8 44 195 0.00361838 10 
9 50 195 0.00361373 10 
10 50 201 0.00372065 10 
11 50 203 0.00377248 10 
12 61 203 0.00376096 10 
13 61 209 0.00387582 10 
14 67 209 0.00387551 10 
15 67 220 0.00407611 10 
16 81 220 0.00406610 10 
17 81 226 0.00418616 10 
18 87 226 0.00417755 10 
19 87 231 0.00427870 10 
20 94 231 0.00427648 10 
21 226 231 0.00426797 10 
22 94 241 0.00447797 10 
23 101 241 0.00447839 10 
24 101 247 0.00458136 10 
25 107 247 0.00459361 10 
26 107 254 0.00471459 10 
27 114 254 0.00471872 10 
28 107 256 0.00477141 10 
29 114 256 0.00477282 10 
30 107 258 0.00482100 10 
31 114 258 0.00481750 10 
32 121 266 0.00498157 10 
33 126 266 0.00500588 10 
34 126 272 0.00513410 10 
35 132 272 0.00515111 10 
36 132 278 0.00526907 10 
37 138 278 0.00525694 10 
38 138 284 0.00539830 10 
39 151 284 0.00540049 10 
40 151 291 0.00554167 10 
41 151 297 0.00565215 10 
42 157 297 0.00565300 10 
43 163 297 0.00565660 10 
44 166 297 0.00567017 10 
45 19 305 0.00594220 10 
46 157 305 0.00594940 10 
47 163 305 0.00599454 10 
48 166 305 0.00598342 10 
49 172 305 0.00601929 10 
50 19 315 0.00538777 9 
51 25 315 0.00606429 10 
52 172 315 0.00622650 10 
53 172 328 0.00628203 10 
54 19 337 0.00516007 8 
55 25 337 0.00651865 10 
56 172 337 0.00668106 10 
57 19 342 0.00658361 10 
58 25 342 0.00664558 10 
59 172 342 0.00341232 5 
60 178 342 0.00665815 10 
61 25 367 0.00348333 5 
62 32 367 0.00420680 6 
63 178 367 0.00421334 6 
64 183 367 0.00495716 7 
65 25 374 0.00725976 10 
66 32 374 0.00731745 10 
67 178 374 0.00524861 7 
68 183 374 0.00654690 9 
69 32 382 0.00593968 8 
70 183 382 0.00752393 10 
71 32 387 0.00755741 10 
72 183 387 0.00448935 6 
73 189 400 0.00788752 10 
74 189 414 0.00814600 10 
75 44 437 0.00862495 10 
76 195 437 0.00881906 10 
77 44 454 0.00891108 10 
78 189 454 0.00914471 10 
79 44 467 0.00918330 10 
80 50 467 0.00943678 10 
81 195 467 0.00944634 10 
82 195 484 0.00954970 10 
83 44 494 0.00674208 7 
84 50 494 0.00978058 10 
85 195 494 0.01000281 10 
86 201 494 0.01006561 10 
87 50 500 0.00992728 10 
88 201 500 0.01018074 10 
89 203 500 0.01020053 10 
90 61 508 0.01011830 10 
91 203 508 0.01036399 10 
92 209 508 0.01039670 10 
93 94 514 0.01027979 10 
94 61 522 0.01043778 10 
95 203 522 0.01070953 10 
96 209 522 0.01070934 10 
97 61 528 0.01059600 10 
98 67 528 0.01090465 10 
99 81 528 0.01085624 10 
100 209 528 0.01089263 10 
101 220 528 0.01090327 10 
102 67 532 0.00957492 9 
103 81 532 0.01076913 10 
104 220 532 0.01099722 10 
105 67 556 0.01116660 10 
106 353 559 0.01142032 10 
107 67 564 0.01150457 10 
108 81 564 0.01179032 10 
109 220 564 0.01168662 10 
110 67 567 0.01154725 10 
111 81 567 0.01182844 10 
112 220 567 0.01185130 10 
113 67 570 0.01162451 10 
114 81 570 0.01191556 10 
115 220 570 0.01192010 10 
116 81 575 0.01203885 10 
117 220 575 0.01204884 10 
118 81 588 0.01200666 10 
119 87 588 0.01243282 10 
120 226 588 0.01242981 10 
121 87 597 0.01231634 10 
122 94 597 0.01262206 10 
123 226 597 0.01262712 10 
124 87 604 0.01246969 10 
125 94 604 0.01278771 10 
126 97 612 0.01263836 10 
127 94 616 0.01134962 9 
128 94 632 0.01303884 10 
129 94 637 0.01314240 10 
130 101 637 0.01344292 10 
131 101 642 0.01323458 10 
132 107 642 0.01358975 10 
133 101 645 0.01333744 10 
134 107 645 0.01364362 10 
135 535 650 0.01357267 10 
136 101 657 0.01416828 10 
137 101 663 0.01237541 9 
138 107 663 0.01382357 10 
139 114 663 0.01421836 10 
140 101 665 0.01391765 10 
141 107 665 0.01425312 10 
142 114 665 0.01425334 10 
143 107 680 0.01422823 10 
144 107 683 0.01428242 10 
145 114 683 0.01462825 10 
146 107 704 0.01469459 10 
147 114 704 0.01502244 10 
148 107 714 0.01488366 10 
149 114 714 0.01522711 10 
150 107 730 0.01050166 7 
151 114 730 0.01518662 10 
152 121 754 0.16678727 10 
153 126 754 0.17798519 10 
154 121 759 0.16653153 10 
155 126 759 0.18237028 10 
156 126 762 0.17413094 10 
157 132 762 0.17743619 10 
158 132 778 0.16908507 10 
159 132 792 0.16730572 10 
160 132 800 0.17296530 10 
161 138 800 0.03047903 10 
162 138 806 0.01676527 10 
163 138 821 0.01693431 10 
164 138 823 0.01695956 10 
165 151 828 0.01718106 10 
166 151 847 0.01754457 10 
167 151 855 0.01769181 10 
168 324 879 0.01832195 10 
169 151 895 0.01858052 10 
170 151 897 0.01708248 9 
171 138 903 0.01872939 10 
172 138 904 0.01919741 10 
173 132 907 0.01883758 10 
174 138 907 0.01927976 10 
175 132 911 0.01891652 10 
176 121 923 0.01920291 10 
177 126 923 0.01967903 10 
178 107 929 0.01942368 10 
179 114 929 0.01990217 10 
180 107 935 0.01952291 10 
181 114 935 0.01998150 10 
182 101 939 0.01750356 9 
183 107 939 0.01952113 10 
184 101 944 0.01969813 10 
185 94 947 0.01979899 10 
186 101 947 0.02035122 10 
187 87 953 0.02000935 10 
188 94 953 0.02045311 10 
189 226 953 0.02048100 10 
190 81 959 0.02017084 10 
191 87 959 0.02064274 10 
192 220 959 0.02072545 10 
193 226 959 0.02073663 10 
194 67 965 0.02035184 10 
195 81 965 0.02082985 10 
196 220 965 0.02085544 10 
197 61 976 0.02060551 10 
198 67 976 0.02108905 10 
199 209 976 0.02115905 10 
200 50 982 0.02080350 10 
201 61 982 0.02131606 10 
202 201 982 0.02146991 10 
203 203 982 0.02145231 10 
204 44 988 0.02103120 10 
205 50 988 0.02157414 10 
206 195 988 0.02154744 10 
207 201 988 0.01929355 9 
208 44 994 0.02118914 10 
209 189 994 0.02171699 10 
210 195 994 0.02171572 10 
211 32 1003 0.02143319 10 
212 178 1003 0.02206731 10 
213 183 1003 0.02208000 10 
214 25 1008 0.02161894 10 
215 32 1008 0.02211529 10 
216 178 1008 0.02216524 10 
217 183 1008 0.02214742 10 
218 25 1010 0.02170305 10 
219 32 1010 0.02219853 10 
220 172 1010 0.02222775 10 
221 178 1010 0.02223036 10 
222 19 1016 0.02206431 10 
223 166 1016 0.02256767 10 
224 172 1016 0.02019766 9 
225 151 1029 0.02242959 10 
226 157 1029 0.02290356 10 
227 163 1029 0.02282018 10 
228 166 1029 0.02280609 10 
229 132 1084 0.02354741 10 
230 101 1138 0.02464929 10 
231 107 1147 0.02483310 10 
232 114 1147 0.02544348 10 
233 107 1150 0.02496058 10 
234 114 1150 0.02554828 10 
235 114 1158 0.02514493 10 
236 121 1158 0.02573262 10 
237 121 1164 0.02530202 10 
238 126 1164 0.02629099 10 
239 114 1175 0.02548014 10 
240 121 1175 0.02603268 10 
241 923 1175 0.02607707 10 
242 929 1175 0.02612964 10 
243 1158 1175 0.01825519 7 
244 101 1188 0.02584337 10 
245 939 1188 0.02641265 10 
246 1138 1188 0.02646689 10 
247 1147 1188 0.02647126 10 
248 1150 1188 0.02678842 10 
249 1050 1210 0.02632783 10 
250 1061 1210 0.02690090 10 
251 1075 1210 0.02691757 10 
252 1084 1210 0.02695906 10 
253 1088 1210 0.02700298 10 
254 1093 1210 0.02727969 10 
255 1098 1210 0.02697235 10 
256 157 1217 0.02687193 10 
257 163 1217 0.02724874 10 
258 1029 1217 0.02708527 10 
259 1044 1217 0.02661311 10 
260 1050 1217 0.02727502 10 
261 1056 1217 0.02725735 10 
