1 119 142 2 103.60636943 0.00000301 1 
2 19 166 0 0.41485034 0.00215359 5 
3 19 172 0 0.02820697 0.00186954 4 
4 25 172 0 0.50366199 0.00187578 4 
5 25 178 0 0.30831851 0.00197773 4 
6 32 178 0 0.01493521 0.00198569 4 
7 32 183 0 0.07055611 0.00201355 4 
8 44 189 0 0.52863102 0.00207515 4 
9 44 195 0 0.35755137 0.00216863 4 
10 50 195 0 0.00572854 0.00219486 4 
11 50 201 0 0.04110605 0.00190071 3 
12 50 203 0 0.06975183 0.00188143 3 
13 61 203 0 0.00745912 0.00189644 3 
14 61 209 0 0.37222863 0.00230824 4 
15 67 209 0 0.41032090 0.00232745 4 
16 67 220 0 0.66144083 0.00250316 4 
17 81 220 0 0.48035877 0.00285025 5 
18 81 226 0 0.05402805 0.00256226 4 
19 87 226 0 1.82553139 0.00293970 5 
20 87 231 0 0.34656585 0.00262196 4 
21 94 231 0 0.55778528 0.00256751 4 
22 226 231 0 1.44127402 0.00298172 5 
23 94 241 0 1.33132047 0.00268713 4 
24 101 241 0 0.50961029 0.00271443 4 
25 101 247 0 1.66454674 0.00275677 4 
26 107 247 0 1.80094617 0.00278077 4 
27 242 249 2 3889.19652771 0.00000237 1 
28 107 254 0 1.18346605 0.00283775 4 
29 114 254 0 0.12939160 0.00286209 4 
30 107 256 0 0.93085039 0.00284247 4 
31 114 256 0 0.24629796 0.00285910 4 
32 107 258 0 1.37911724 0.00289960 4 
33 114 258 0 1.15747212 0.00292838 4 
34 121 266 0 0.00938596 0.00300626 4 
35 126 266 0 0.44864328 0.00354825 5 
36 126 272 0 1.03992836 0.00308921 4 
37 132 272 0 0.39070916 0.00364405 5 
38 132 278 0 0.58358145 0.00317207 4 
39 138 278 0 1.06458780 0.00373091 5 
40 138 284 0 0.02201259 0.00270949 3 
41 151 284 0 0.12777228 0.00329206 4 
42 151 291 0 0.60037557 0.00330745 4 
43 151 297 0 0.07972289 0.00284794 3 
44 157 297 0 1.04991834 0.00344464 4 
45 166 297 0 1.30507781 0.00338567 4 
46 19 305 0 0.16044642 0.00356557 4 
47 157 305 0 0.58687353 0.00360193 4 
48 163 305 0 7.56485476 0.00484314 6 
49 166 305 0 0.37495035 0.00360189 4 
50 172 305 0 0.01886255 0.00360651 4 
51 19 315 0 0.48455906 0.00310042 3 
52 25 315 0 0.02281386 0.00311100 3 
53 172 315 0 0.05679715 0.00372614 4 
54 86 326 2 936.27607095 0.00000240 1 
55 172 328 0 0.12482725 0.00324762 3 
56 19 337 0 6.63404991 0.00465084 5 
57 25 337 0 0.96522419 0.00399335 4 
58 172 337 0 0.57611560 0.00333196 3 
59 93 340 2 1902.25971790 0.00000224 1 
60 19 342 0 0.00494520 0.00337671 3 
61 25 342 0 0.12855172 0.00405630 4 
62 172 342 0 0.01223902 0.00410839 4 
63 178 342 0 0.12442988 0.00417039 4 
64 25 367 0 0.11414782 0.00378536 3 
65 32 367 0 0.01267433 0.00595532 6 
66 178 367 0 0.00286807 0.00376969 3 
67 183 367 0 0.06698524 0.00378146 3 
68 25 374 0 0.56424690 0.00460153 4 
69 32 374 0 0.09892849 0.00534789 5 
70 178 374 0 0.03055075 0.00461253 4 
71 183 374 0 0.05309447 0.00457369 4 
72 96 378 2 1299.54424110 0.00000333 1 
73 32 382 0 4.14688582 0.00392301 3 
74 183 382 0 1.28811506 0.00465339 4 
75 32 387 0 2.72468715 0.00473535 4 
76 183 387 0 0.18197642 0.00472197 4 
77 189 414 0 7.69047346 0.00585402 5 
78 69 417 2 1349.97743427 0.00000343 1 
79 122 436 2 269.89771109 0.00000345 1 
80 44 437 0 0.00915802 0.00438441 3 
81 195 437 0 0.01161094 0.00437252 3 
82 83 442 2 506.62732242 0.00000353 1 
83 174 450 2 2567.57421573 0.00000317 1 
84 44 454 0 0.65644164 0.00452048 3 
85 189 454 0 0.03962740 0.00542441 4 
86 171 463 2 707.21086448 0.00000287 1 
87 44 467 0 0.12345281 0.00640920 5 
88 50 467 0 0.00895575 0.01022214 9 
89 195 467 0 0.00230988 0.00463833 3 
90 399 474 2 371.35526300 0.00000342 1 
91 195 484 0 0.09447226 0.00573286 4 
92 44 494 0 0.02880924 0.00579304 4 
93 50 494 0 0.00628832 0.00481455 3 
94 195 494 0 0.00818961 0.00682805 5 
95 201 494 0 0.00469852 0.00681694 5 
96 50 500 0 0.14406209 0.00694469 5 
97 201 500 0 0.05353930 0.00490311 3 
98 203 500 0 0.03252445 0.00493631 3 
99 61 508 0 0.99413579 0.00712292 5 
100 203 508 0 0.26947301 0.01224178 10 
101 209 508 0 0.03711473 0.00605505 4 
102 435 520 2 2355.19311690 0.00000289 1 
103 61 522 0 1.37942234 0.00613489 4 
104 203 522 0 0.12859200 0.00511431 3 
105 209 522 0 0.00542469 0.00515579 3 
106 61 528 0 0.47936102 0.00516923 3 
107 67 528 0 0.22419307 0.00627991 4 
108 81 528 0 0.23233822 0.00841142 6 
109 209 528 0 0.09444678 0.01060701 8 
110 220 528 0 0.13668760 0.00622617 4 
111 67 532 0 0.05459173 0.01180193 9 
112 81 532 0 0.11826401 0.00847331 6 
113 220 532 0 0.05648169 0.00633748 4 
114 67 556 0 0.98233216 0.00649165 4 
115 67 564 0 0.40168838 0.01233153 9 
116 81 564 0 0.02280941 0.00663362 4 
117 220 564 0 0.02684857 0.00665741 4 
118 67 567 0 2.67253169 0.00779981 5 
119 81 567 0 0.48923871 0.00900696 6 
120 220 567 0 0.21723258 0.00664894 4 
121 67 570 0 2.40706627 0.00941883 6 
122 81 570 0 0.15671702 0.00904178 6 
123 220 570 0 0.13379867 0.00673131 4 
124 81 575 0 2.76594993 0.00792381 5 
125 220 575 0 1.08612706 0.01035202 7 
126 358 584 2 694.13702618 0.00000303 1 
127 81 588 0 0.01497138 0.00566830 3 
128 87 588 0 0.47937722 0.00817853 5 
129 226 588 0 0.43156268 0.00692110 4 
130 87 597 0 2.27648751 0.00956784 6 
131 94 597 0 0.38888315 0.00701200 4 
132 226 597 0 0.55079633 0.00831823 5 
133 87 604 0 0.47149562 0.00711358 4 
134 94 604 0 0.01542269 0.00843754 5 
135 265 607 2 2580.12281463 0.00000332 1 
136 50 615 2 1109.40063044 0.00000283 1 
137 94 616 0 0.01350372 0.01232691 8 
138 176 626 2 1480.31497041 0.00000383 1 
139 483 630 2 1777.20676749 0.00000399 1 
140 94 632 0 2.16969694 0.00880245 5 
141 94 637 0 4.44236402 0.01006572 6 
142 101 637 0 0.19098383 0.00753009 4 
143 613 641 2 2501.06923298 0.00000369 1 
144 101 642 0 0.11555601 0.00891771 5 
145 107 642 0 0.04025021 0.01419197 9 
146 186 643 2 3543.69981280 0.00000416 1 
147 101 645 0 6.69527511 0.00765726 4 
148 107 645 0 1.54205090 0.00752533 4 
149 119 653 2 889.87336500 0.00000391 1 
150 101 657 0 0.73548669 0.01671578 10 
151 282 657 2 2755.58015824 0.00000268 10 
152 101 663 0 0.04971914 0.01673919 10 
153 107 663 0 0.01781179 0.00916628 5 
154 114 663 0 0.00275957 0.00917791 5 
155 94 664 2 4944.76132312 0.00000400 1 
156 101 665 0 1.55112265 0.01351652 8 
157 107 665 0 0.47667103 0.00780936 4 
158 114 665 0 0.13329170 0.00653975 3 
159 107 680 0 1.48615866 0.00947099 5 
160 66 682 2 533.89140211 0.00000316 1 
161 107 683 0 0.94462224 0.00804372 4 
162 114 683 0 0.32178225 0.00957636 5 
163 412 702 2 565.83920277 0.00000343 1 
164 107 704 0 0.34268109 0.01266673 7 
165 114 704 0 0.07528002 0.01559501 9 
166 107 714 0 1.79639085 0.01138570 6 
167 114 714 0 0.02860377 0.01446213 8 
168 345 714 2 2810.91303975 0.00000453 8 
169 512 716 2 1820.55112037 0.00000417 1 
170 107 730 0 0.19656714 0.01020987 5 
171 114 730 0 0.03540690 0.00859630 4 
172 69 732 2 2259.91928503 0.00000379 1 
173 96 742 2 45.72923420 0.00000330 1 
174 186 745 2 159.45006218 0.00000322 1 
175 241 748 2 436.21563877 0.00000327 1 
176 121 754 0 0.33113739 0.00878606 4 
177 126 754 0 0.07673382 0.01527043 8 
178 121 759 0 2.33625684 0.01199960 6 
179 126 759 0 0.22329988 0.01207500 6 
180 126 762 0 7.08482229 0.01043274 5 
181 132 762 0 2.00372045 0.01545628 8 
182 652 765 2 1209.13619823 0.00000320 1 
183 145 769 2 1794.56255785 0.00000361 1 
184 551 770 2 1486.05066478 0.00000302 1 
185 132 778 0 0.06999780 0.00909422 4 
186 396 782 2 760.89230351 0.00000481 1 
187 588 786 2 1845.48831340 0.00000423 1 
188 132 792 0 1.26802734 0.00934953 4 
189 303 795 2 509.68569050 0.00000382 1 
190 132 800 0 3.35686460 0.00922192 4 
191 138 800 0 0.14494330 0.01261116 6 
192 729 801 2 2023.28722392 0.00000359 1 
193 138 806 0 0.25140739 0.00756565 3 
194 139 806 2 2939.70286328 0.00000376 3 
195 484 808 2 1697.94684090 0.00000359 1 
196 376 813 2 2832.00501290 0.00000332 1 
197 138 821 0 0.40674396 0.01112847 5 
198 138 823 0 6.54725682 0.00952567 4 
199 151 828 0 3.12108818 0.00952720 4 
200 501 840 2 1629.27942775 0.00000416 1 
201 835 841 2 341.07697914 0.00000320 1 
202 277 843 2 1303.02928941 0.00000348 1 
203 554 844 2 1319.54384025 0.00000356 1 
204 151 847 0 0.08724621 0.01148542 5 
205 773 851 2 1188.18195969 0.00000402 1 
206 613 854 2 1740.43660686 0.00000342 1 
207 151 855 0 0.11494457 0.01516943 7 
208 459 855 2 1072.00058154 0.00000454 7 
209 388 867 2 149.47826406 0.00000408 1 
210 320 877 2 949.05037342 0.00000408 1 
211 151 895 0 2.80701437 0.01769829 8 
212 151 897 0 0.06118057 0.02148033 10 
213 541 899 2 3999.40992783 0.00000389 1 
214 831 899 2 1304.57950078 0.00000156 1 
215 46 900 2 371.17116681 0.00000345 1 
216 138 903 0 0.08157811 0.01027816 4 
217 867 903 2 1720.96531249 0.00000470 4 
218 229 903 2 1575.78375082 0.00000179 4 
219 138 904 0 7.06392298 0.01407183 6 
220 132 907 0 0.71874717 0.01037043 4 
221 138 907 0 0.22077132 0.01224730 5 
222 685 907 2 2201.07340074 0.00000462 5 
223 132 911 0 0.23128175 0.01228253 5 
224 725 914 2 2004.46844583 0.00000482 1 
225 75 919 2 840.02260698 0.00000341 1 
226 121 923 0 0.62636126 0.01443798 6 
227 126 923 0 0.07130653 0.01052043 4 
228 107 929 0 0.07225325 0.01260713 5 
229 114 929 0 0.00477553 0.01065280 4 
230 107 935 0 4.91438615 0.01656381 7 
231 114 935 0 1.40337639 0.01658257 7 
232 176 937 2 1788.08047642 0.00000413 1 
233 101 939 0 0.48567419 0.01080683 4 
234 107 939 0 0.21174614 0.01079211 4 
235 101 944 0 0.15377935 0.01279797 5 
236 94 947 0 0.23772432 0.01683524 7 
237 101 947 0 0.16826262 0.01490472 6 
238 87 953 0 0.13504795 0.01094447 4 
239 94 953 0 0.06505521 0.01504567 6 
240 226 953 0 0.08268323 0.02305710 10 
241 146 955 2 1757.59530486 0.00000444 1 
242 81 959 0 1.83528326 0.02445708 10 
243 87 959 0 1.29172246 0.01721179 7 
244 220 959 0 0.04883629 0.01109942 4 
245 226 959 0 0.12130941 0.01314280 5 
246 844 961 2 1792.86075884 0.00000453 1 
247 769 963 2 1254.96526449 0.00000371 1 
248 445 964 2 1651.10287378 0.00000373 1 
249 67 965 0 1.01368609 0.01323504 5 
250 81 965 0 0.31066014 0.01530555 6 
251 220 965 0 0.16483276 0.01942113 8 
252 61 976 0 0.16803746 0.01750915 7 
253 67 976 0 0.05676300 0.00923865 3 
254 209 976 0 0.00780965 0.01133233 4 
255 687 980 2 2728.20286186 0.00000442 1 
256 50 982 0 0.38354811 0.01141933 4 
257 61 982 0 0.27147698 0.01144382 4 
258 201 982 0 0.22200943 0.01143971 4 
259 203 982 0 0.10573284 0.02199439 9 
260 44 988 0 0.09550719 0.01153420 4 
261 50 988 0 0.05924873 0.01160804 4 
262 195 988 0 0.04319526 0.01579967 6 
263 201 988 0 0.02685916 0.01366055 5 
264 455 990 2 1353.49096142 0.00000488 1 
265 44 994 0 0.51683435 0.01801087 7 
266 189 994 0 0.29989154 0.02585018 10 
267 195 994 0 0.21957432 0.01382289 5 
268 32 1003 0 0.23901034 0.01397299 5 
269 178 1003 0 0.03356851 0.02620340 10 
270 183 1003 0 0.01433170 0.01617615 6 
271 791 1006 2 3262.93312760 0.00000514 1 
272 25 1008 0 1.23858172 0.01847737 7 
273 32 1008 0 0.53803958 0.01189995 4 
274 178 1008 0 0.34459610 0.01189180 4 
275 183 1008 0 0.22233868 0.01192901 4 
276 25 1010 0 0.60236133 0.01191956 4 
277 32 1010 0 0.30591807 0.01408986 5 
278 172 1010 0 0.10368354 0.01648379 6 
279 178 1010 0 0.19279072 0.02659102 10 
280 439 1012 2 3266.95714296 0.00000490 10 
281 19 1016 0 0.44047719 0.02074757 8 
282 166 1016 0 0.20189646 0.01195499 4 
283 172 1016 0 0.07393216 0.01417111 5 
284 249 1018 2 5765.11791016 0.00000560 1 
285 316 1022 2 2790.20766843 0.00000536 1 
286 884 1026 2 231.66497577 0.00000585 1 
287 151 1029 0 0.03533130 0.01447075 5 
288 157 1029 0 0.02672450 0.01213546 4 
289 163 1029 0 3.39703566 0.01214669 4 
290 166 1029 0 0.49353449 0.01213786 4 
291 596 1038 2 1789.55079874 0.00000599 1 
292 806 1045 2 823.19200881 0.00000582 1 
293 381 1050 2 120.55249237 0.00000513 1 
294 563 1059 2 764.87563449 0.00000538 1 
295 814 1059 2 898.29174309 0.00000248 1 
296 285 1073 2 31.62224965 0.00000662 1 
297 132 1084 0 4.21993706 0.01524990 5 
298 293 1087 2 1061.31795501 0.00000579 1 
299 633 1088 2 3584.74851334 0.00000565 1 
300 649 1091 2 460.96033718 0.00000529 1 
301 447 1100 2 271.57702054 0.00000545 1 
302 132 1103 2 323.16974407 0.00000590 1 
303 667 1107 2 1047.59377032 0.00000602 1 
304 1053 1109 2 147.99292417 0.00000578 1 
305 890 1111 2 327.18781657 0.00000565 1 
306 816 1119 2 438.96321136 0.00000627 1 
307 1066 1119 2 47.74374445 0.00000227 1 
308 101 1138 0 0.63021658 0.01633917 5 
309 117 1139 2 2280.01511505 0.00000651 1 
310 825 1143 2 1047.99911527 0.00000609 1 
311 107 1147 0 0.73708347 0.01344543 4 
312 114 1147 0 0.03971358 0.01099310 3 
313 340 1147 2 1128.59623345 0.00000503 3 
314 107 1150 0 7.45683387 0.01349179 4 
315 114 1150 0 1.00561260 0.01101292 3 
316 915 1152 2 226.13736284 0.00000562 1 
317 1113 1153 2 645.97416951 0.00000557 1 
318 114 1158 0 0.16899687 0.01105600 3 
319 121 1158 0 0.69099743 0.01365899 4 
320 609 1163 2 2416.60133769 0.00000602 1 
321 549 1163 2 917.37878850 0.00000244 1 
322 121 1164 0 0.45182924 0.01619134 5 
323 126 1164 0 0.04418665 0.01371709 4 
324 210 1165 2 6765.51133128 0.00000607 1 
325 180 1166 2 2943.78304116 0.00000603 1 
326 1129 1168 2 965.94478727 0.00000578 1 
327 114 1175 0 0.14266969 0.01384244 4 
328 121 1175 0 0.27324351 0.01397453 4 
329 923 1175 0 0.18719011 0.01388455 4 
330 929 1175 0 0.16073549 0.01382775 4 
331 1158 1175 0 0.00134797 0.01128806 3 
332 101 1188 0 0.32950319 0.01405458 4 
333 939 1188 0 0.55418798 0.01403114 4 
334 1138 1188 0 0.03006025 0.01148286 3 
335 1147 1188 0 0.04063922 0.01142622 3 
336 1150 1188 0 1.83245351 0.01401691 4 
337 953 1195 2 2270.81907403 0.00000589 1 
338 534 1205 2 528.75011216 0.00000590 1 
339 1050 1210 0 0.00345523 0.01425993 4 
340 1061 1210 0 0.57363906 0.01693342 5 
341 1075 1210 0 0.23107861 0.01694447 5 
342 1084 1210 0 3.13555510 0.01697606 5 
343 1088 1210 0 0.59156319 0.01431342 4 
344 1093 1210 0 0.13111230 0.01964255 6 
345 1098 1210 0 0.04730346 0.01432266 4 
346 157 1217 0 0.32750279 0.01440095 4 
347 163 1217 0 0.19904338 0.01456286 4 
348 1029 1217 0 0.01250493 0.01182286 3 
349 1044 1217 0 3.98258990 0.01457426 4 
350 1050 1217 0 4.97161000 0.01725953 5 
351 242 1217 2 1197.80830237 0.00000168 5 
352 1148 1219 2 5848.34558888 0.00000602 1 
353 163 297 0 0.27920255 0.01528768 4 
354 189 400 0 2.09679271 0.01458776 4 
355 205 1133 0 9.61978773 0.02281141 7 
356 1056 1217 0 10.08775830 0.01736922 5 
