VERTEX2 0 0.00002248 0.00000025 0.00000021
VERTEX2 1 0.00002249 0.00000025 -0.00064179
VERTEX2 2 0.00002249 0.00000025 -0.00117979
VERTEX2 3 0.01102435 -0.00097473 -0.00356179
VERTEX2 4 0.64103092 -0.01119974 -0.00744379
VERTEX2 5 0.69603861 -0.01171522 -0.09872579
VERTEX2 6 0.70029173 -0.01543454 -0.89599778
VERTEX2 7 0.69397899 0.00421394 -1.51153478
VERTEX2 8 0.69928584 0.02669471 -2.12506878
VERTEX2 9 0.71613710 0.04112374 -2.76313878
VERTEX2 10 0.72900362 0.04322113 2.90551552
VERTEX2 11 0.73322621 0.04053809 2.23123652
VERTEX2 12 0.73320893 0.04154654 1.58176252
VERTEX2 13 0.73877508 0.05907163 0.92226452
VERTEX2 14 0.75968060 0.07375185 0.31402552
VERTEX2 15 0.76859401 0.07435879 -0.21090248
VERTEX2 16 1.06251608 0.01415341 -0.22959448
VERTEX2 17 1.66366977 -0.13311320 -0.26082248
VERTEX2 18 2.28702394 -0.29647814 -0.27099948
VERTEX2 19 2.91431990 -0.49425185 -0.31957548
VERTEX2 20 3.50736334 -0.68407655 -0.31362229
VERTEX2 21 4.11589496 -0.83625070 -0.20201461
VERTEX2 22 4.72529078 -0.97739764 -0.18459773
VERTEX2 23 5.36486077 -1.02156046 -0.07715123
VERTEX2 24 5.99601578 -1.09267890 -0.13419917
VERTEX2 25 6.63049543 -1.16027887 -0.13143389
VERTEX2 26 7.24001057 -1.26087334 -0.17194361
VERTEX2 27 7.85650082 -1.35225232 -0.15609847
VERTEX2 28 8.43866670 -1.45092422 -0.16053819
VERTEX2 29 8.81827572 -1.50843009 -0.12976571
VERTEX2 30 8.82784221 -1.51097330 -0.66188542
VERTEX2 31 8.92841192 -1.64586437 -0.93024491
VERTEX2 32 9.29603631 -2.15977566 -0.94878838
VERTEX2 33 9.67940165 -2.66706669 -0.89786756
VERTEX2 34 10.09229142 -3.15830492 -0.87674871
VERTEX2 35 10.51543513 -3.64186446 -0.84244075
VERTEX2 36 10.94524411 -4.12663619 -0.85099483
VERTEX2 37 11.22846201 -4.44213764 -0.84331065
VERTEX2 38 11.22732465 -4.44058569 -1.16499136
VERTEX2 39 11.22546675 -4.43205299 -1.33596200
VERTEX2 40 11.37048407 -5.00327622 -1.31871520
VERTEX2 41 11.52107922 -5.59956303 -1.35072250
VERTEX2 42 11.64405740 -6.15912172 -1.37345733
VERTEX2 43 11.75119783 -6.75007106 -1.41369070
VERTEX2 44 11.84150704 -7.34009861 -1.45070785
VERTEX2 45 11.89793160 -7.96637805 -1.50562731
VERTEX2 46 11.93047153 -8.59505232 -1.52443473
VERTEX2 47 11.95174631 -9.20971808 -1.56672906
VERTEX2 48 11.94928096 -9.82928737 -1.57382136
VERTEX2 49 11.94275736 -10.44487805 -1.62521176
VERTEX2 50 11.89015513 -11.02906439 -1.67022219
VERTEX2 51 11.83554699 -11.62349986 -1.69947466
VERTEX2 52 11.73894809 -12.20488879 -1.77638728
VERTEX2 53 11.63942373 -12.76077612 -1.76419368
VERTEX2 54 11.52681316 -13.27103140 -1.82643855
VERTEX2 55 11.53380377 -13.23751167 -1.82130559
VERTEX2 56 11.53354163 -13.23855036 -1.81087669
VERTEX2 57 11.38962916 -13.85490342 -1.82240214
VERTEX2 58 11.24307391 -14.45952009 -1.77629796
VERTEX2 59 11.11379959 -15.06351649 -1.79997658
VERTEX2 60 10.98386783 -15.66384514 -1.77867734
VERTEX2 61 10.84809545 -16.26467278 -1.82948792
VERTEX2 62 10.69831552 -16.82138737 -1.78969432
VERTEX2 63 10.54670403 -17.38290292 -1.82525787
VERTEX2 64 10.41153870 -17.93907230 -1.76196339
VERTEX2 65 10.27677445 -18.49306747 -1.81349340
VERTEX2 66 10.12293191 -19.07686523 -1.82164917
VERTEX2 67 9.95451229 -19.67352159 -1.81984660
VERTEX2 68 9.84424526 -20.11925010 -1.83559377
VERTEX2 69 9.84776283 -20.10783976 -1.99049417
VERTEX2 70 9.85437437 -20.09522098 -2.66474865
VERTEX2 71 9.87700761 -20.09394291 2.97588030
VERTEX2 72 9.88909514 -20.09542798 2.96643260
VERTEX2 73 9.89595965 -20.09713087 2.90152799
VERTEX2 74 9.89579066 -20.09700307 2.27983077
VERTEX2 75 9.90202422 -20.09944734 1.92754968
VERTEX2 76 9.89221174 -20.08853356 2.62143377
VERTEX2 77 9.88944490 -20.08736170 2.85438681
VERTEX2 78 9.60825737 -20.09774302 -3.09167136
VERTEX2 79 8.99024763 -20.13587355 -3.09695622
VERTEX2 80 8.35878968 -20.13375030 3.11166969
VERTEX2 81 7.73522698 -20.10655720 3.08562298
VERTEX2 82 7.13477296 -20.06443121 3.03154782
VERTEX2 83 6.54501730 -20.01166776 3.00810069
VERTEX2 84 5.98027627 -19.92437333 2.93056489
VERTEX2 85 5.43467108 -19.81887404 2.93814013
VERTEX2 86 4.82060031 -19.69578265 2.84888632
VERTEX2 87 4.45020561 -19.59870849 2.79537009
VERTEX2 88 4.09621385 -19.46699068 2.76558269
VERTEX2 89 4.10711872 -19.46752275 -3.12183317
VERTEX2 90 3.50257667 -19.47039458 3.13022537
VERTEX2 91 2.88739547 -19.46562653 -3.10393697
VERTEX2 92 2.28832406 -19.46097005 3.06345234
VERTEX2 93 1.66940785 -19.35802004 2.96245383
VERTEX2 94 1.04676378 -19.21854957 2.91955280
VERTEX2 95 0.41379532 -19.12808951 3.06315811
VERTEX2 96 -0.20792824 -19.07557752 3.08800700
VERTEX2 97 -0.79092804 -19.01237148 3.01683403
VERTEX2 98 -1.37350349 -18.91111132 2.95833477
VERTEX2 99 -2.07249137 -18.78570350 3.00468566
VERTEX2 100 -2.63134207 -18.67702015 2.95250848
VERTEX2 101 -3.23490364 -18.61881256 3.05535958
VERTEX2 102 -3.84710851 -18.53707380 2.94943431
VERTEX2 103 -4.45443629 -18.42086722 3.04535732
VERTEX2 104 -5.06601152 -18.34308016 3.01165501
VERTEX2 105 -5.67783854 -18.27709664 3.05816806
VERTEX2 106 -6.27907321 -18.20517592 3.00325339
VERTEX2 107 -6.89599786 -18.10748718 2.99939208
VERTEX2 108 -7.35114787 -18.05721943 3.06095162
VERTEX2 109 -7.39706886 -18.04543347 2.61242323
VERTEX2 110 -7.41391065 -18.02789129 2.02104704
VERTEX2 111 -7.41383140 -17.94756641 1.51517542
VERTEX2 112 -7.38796961 -17.31425155 1.56957850
VERTEX2 113 -7.40424914 -16.69236437 1.61658895
VERTEX2 114 -7.43529186 -16.07887342 1.65335361
VERTEX2 115 -7.50570005 -15.44724947 1.71339222
VERTEX2 116 -7.62095763 -14.70478736 1.75723753
VERTEX2 117 -7.75306512 -14.10191038 1.85250231
VERTEX2 118 -7.75780306 -14.08048523 1.51801522
VERTEX2 119 -7.70090185 -13.56396462 1.46483395
VERTEX2 120 -7.64776760 -12.90807825 1.55605294
VERTEX2 121 -7.65874455 -12.28694469 1.62454272
VERTEX2 122 -7.69276245 -11.70652544 1.68082544
VERTEX2 123 -7.71770093 -11.52744714 1.66812129
VERTEX2 124 -7.63254858 -11.29085096 1.24534355
VERTEX2 125 -7.41754504 -10.70022766 1.23447459
VERTEX2 126 -7.28652298 -10.08609474 1.44112358
VERTEX2 127 -7.19132740 -9.45422589 1.43979453
VERTEX2 128 -7.11848921 -8.81770302 1.47644623
VERTEX2 129 -7.03499109 -8.18530261 1.44397278
VERTEX2 130 -6.97040948 -7.55440902 1.49677708
VERTEX2 131 -6.92760676 -6.92871691 1.58532413
VERTEX2 132 -6.91277914 -6.31176152 1.53571250
VERTEX2 133 -6.86853578 -5.74581240 1.49907826
VERTEX2 134 -6.81762711 -5.15104477 1.48099447
VERTEX2 135 -6.73882849 -4.57748958 1.45485638
VERTEX2 136 -6.66822578 -3.94654880 1.47449458
VERTEX2 137 -6.57545842 -3.31837140 1.43256434
VERTEX2 138 -6.50333515 -2.69053009 1.51250072
VERTEX2 139 -6.49081989 -2.07046606 1.57796901
VERTEX2 140 -6.52291059 -1.41687090 1.60831840
VERTEX2 141 -6.53247065 -0.77931154 1.55961995
VERTEX2 142 -6.53626145 -0.13224951 1.55547150
VERTEX2 143 -6.45766011 0.50603302 1.44512037
VERTEX2 144 -6.41937983 0.87718167 1.46281212
VERTEX2 145 -6.41446453 0.89225411 0.96473877
VERTEX2 146 -6.41243167 0.90283122 0.37148647
VERTEX2 147 -6.35932280 0.89937712 -0.11515929
VERTEX2 148 -5.93033418 0.84198096 -0.15087896
VERTEX2 149 -5.29229739 0.75202475 -0.12585592
VERTEX2 150 -4.66071043 0.69113370 -0.11178997
VERTEX2 151 -4.02350361 0.64725704 -0.02624620
VERTEX2 152 -3.39989278 0.61546835 -0.08690643
VERTEX2 153 -2.77656399 0.58643496 0.00673326
VERTEX2 154 -2.15679147 0.56926462 -0.06261917
VERTEX2 155 -1.53322179 0.53978990 -0.02903743
VERTEX2 156 -0.90720169 0.52950890 0.00183606
VERTEX2 157 -0.34485825 0.51553152 -0.06240500
VERTEX2 158 -0.15058220 0.50293438 -0.03491168
VERTEX2 159 -0.14533258 0.50128639 0.95241036
VERTEX2 160 -0.13997537 0.51014682 1.98808267
VERTEX2 161 -0.16196772 0.45174870 2.70935776
VERTEX2 162 -0.13645789 0.45754230 -2.53803363
VERTEX2 163 -0.13743780 0.45258623 -1.54095860
VERTEX2 164 -0.21418991 0.54786983 -0.47885524
VERTEX2 165 -0.04207841 0.53080812 -0.07106330
VERTEX2 166 0.65377258 0.48784389 -0.06935558
VERTEX2 167 1.26888288 0.43774920 -0.09870224
VERTEX2 168 1.85543998 0.38868304 -0.08669010
VERTEX2 169 2.44908605 0.31736882 -0.12361496
VERTEX2 170 3.03399706 0.24927936 -0.14425949
VERTEX2 171 3.59403843 0.15115715 -0.18257035
VERTEX2 172 4.22065945 0.04364187 -0.16844637
VERTEX2 173 4.84833780 -0.07672034 -0.19131435
VERTEX2 174 5.47224578 -0.19069958 -0.15122890
VERTEX2 175 6.08637601 -0.28036347 -0.17606174
VERTEX2 176 6.68348161 -0.40004045 -0.16659037
VERTEX2 177 7.30910417 -0.50267661 -0.19418170
VERTEX2 178 7.93190316 -0.64831809 -0.23317399
VERTEX2 179 8.33588239 -0.73205372 -0.17994884
VERTEX2 180 8.38567576 -0.74547248 -0.62219775
VERTEX2 181 8.82745673 -1.06458851 -0.67388558
VERTEX2 182 9.23427575 -1.42489430 -0.84783378
VERTEX2 183 9.58052502 -1.84449842 -0.90516137
VERTEX2 184 9.92335558 -2.36024068 -1.05098934
VERTEX2 185 10.20964073 -2.89682274 -1.14306842
VERTEX2 186 10.43018230 -3.46238319 -1.20909385
VERTEX2 187 10.63066890 -4.01837211 -1.23041833
VERTEX2 188 10.83856102 -4.59377655 -1.23467468
VERTEX2 189 11.03946187 -5.17283745 -1.26028447
VERTEX2 190 11.22434684 -5.77526868 -1.28922941
VERTEX2 191 11.39878683 -6.37696691 -1.31347399
VERTEX2 192 11.55416677 -6.97202502 -1.34200386
VERTEX2 193 11.67849303 -7.51842143 -1.39791154
VERTEX2 194 11.77912770 -8.08551882 -1.42486679
VERTEX2 195 11.86015349 -8.64766296 -1.45368849
VERTEX2 196 11.92759719 -9.27160354 -1.49459114
VERTEX2 197 11.96627974 -9.89145389 -1.52220716
VERTEX2 198 11.99216462 -10.50867194 -1.58053610
VERTEX2 199 11.96480593 -11.11521531 -1.64211547
VERTEX2 200 11.91838314 -11.71650485 -1.66414941
VERTEX2 201 11.84825136 -12.31424760 -1.72098545
VERTEX2 202 11.78525204 -12.81655601 -1.70118067
VERTEX2 203 11.68455238 -13.54737821 -1.75434623
VERTEX2 204 11.56928599 -14.09752406 -1.85802863
VERTEX2 205 11.40833589 -14.63150058 -1.86894251
VERTEX2 206 11.24929645 -15.18889060 -1.86625722
VERTEX2 207 11.08487594 -15.76630445 -1.84954444
VERTEX2 208 10.90713414 -16.37654472 -1.85827397
VERTEX2 209 10.74109023 -16.98890396 -1.81933231
VERTEX2 210 10.57717017 -17.58181521 -1.82829873
VERTEX2 211 10.42747428 -18.17804202 -1.82600109
VERTEX2 212 10.25023838 -18.76380288 -1.87881595
VERTEX2 213 10.05443360 -19.35323291 -1.89956267
VERTEX2 214 9.85383257 -19.92906634 -1.90334460
VERTEX2 215 9.73840027 -20.25113160 -1.93911399
VERTEX2 216 9.75048481 -20.23049095 -2.43770504
VERTEX2 217 9.77683029 -20.22769478 -2.97979122
VERTEX2 218 9.78662329 -20.23146136 -3.03578588
VERTEX2 219 9.22104282 -20.18694278 3.07893378
VERTEX2 220 8.61275210 -20.14234566 3.03909504
VERTEX2 221 7.97558628 -20.07625929 3.08973476
VERTEX2 222 7.35156999 -20.03399172 3.06429835
VERTEX2 223 6.72676357 -20.00507209 -3.12246547
VERTEX2 224 6.11315454 -20.00628665 3.13497509
VERTEX2 225 5.49605505 -20.00119991 -3.09850764
VERTEX2 226 4.87988720 -19.99538062 3.13554497
VERTEX2 227 4.23208676 -20.06521276 -2.99086293
VERTEX2 228 3.70658816 -20.04972114 2.93089029
VERTEX2 229 3.25982742 -20.01173127 3.05142285
VERTEX2 230 2.97371796 -19.99644961 3.02254334
VERTEX2 231 3.18223819 -20.01467549 3.09256624
VERTEX2 232 2.87450801 -19.87644731 2.66667083
VERTEX2 233 2.31239382 -19.61636885 2.76895486
VERTEX2 234 1.73818550 -19.39010768 2.72476654
VERTEX2 235 1.49062543 -19.28310683 2.71974847
VERTEX2 236 1.15665867 -19.28413258 3.12509190
VERTEX2 237 0.52899153 -19.29872111 -3.08776059
VERTEX2 238 -0.09116711 -19.34681120 -3.12056424
VERTEX2 239 -0.70718182 -19.34344294 3.09490314
VERTEX2 240 -1.27559367 -19.22526950 2.87665488
VERTEX2 241 -1.81389995 -19.09363256 2.96194450
VERTEX2 242 -2.37668189 -19.02888429 3.00071719
VERTEX2 243 -2.97777109 -18.94433033 3.00020935
VERTEX2 244 -3.60307601 -18.89728137 3.07167637
VERTEX2 245 -4.21906395 -18.84716317 3.01756578
VERTEX2 246 -4.82214297 -18.75974709 2.94525686
VERTEX2 247 -5.42671788 -18.67614572 3.05123842
VERTEX2 248 -5.98130129 -18.65335920 3.08281230
VERTEX2 249 -5.93294371 -18.66072792 -3.00718189
VERTEX2 250 -5.92853881 -18.66060824 2.68874040
VERTEX2 251 -6.24997525 -18.32015754 2.26523297
VERTEX2 252 -6.60479327 -17.89969970 2.27372455
VERTEX2 253 -6.97571195 -17.45351293 2.26271383
VERTEX2 254 -7.34012008 -16.99506542 2.22150009
VERTEX2 255 -7.41293700 -16.90225559 2.30536600
VERTEX2 256 -7.41577347 -16.82496490 1.82938134
VERTEX2 257 -7.46653375 -16.36524537 1.69394572
VERTEX2 258 -7.54904280 -15.77560426 1.77443877
VERTEX2 259 -7.69080947 -15.17284774 1.81532753
VERTEX2 260 -7.82308399 -14.61445394 1.80723416
VERTEX2 261 -7.82084476 -14.57830820 1.49629559
VERTEX2 262 -7.75707626 -13.92794247 1.50328396
VERTEX2 263 -7.71448817 -13.31108092 1.51708421
VERTEX2 264 -7.69931393 -12.70767743 1.61455119
VERTEX2 265 -7.73083186 -12.10536475 1.63507944
VERTEX2 266 -7.68386104 -11.53710205 1.50611775
VERTEX2 267 -7.63371820 -10.78812929 1.47691580
VERTEX2 268 -7.50278984 -10.18662168 1.36696645
VERTEX2 269 -7.38423435 -9.57417449 1.39693919
VERTEX2 270 -7.31326336 -8.95059730 1.51101140
VERTEX2 271 -7.21931107 -8.32898080 1.40051904
VERTEX2 272 -7.13491665 -7.70259425 1.46566129
VERTEX2 273 -7.14591489 -7.07181517 1.67803678
VERTEX2 274 -7.21522236 -6.45359136 1.70217030
VERTEX2 275 -7.20446176 -5.84624597 1.53087717
VERTEX2 276 -7.19896178 -5.23971640 1.64549981
VERTEX2 277 -7.24714402 -4.67453478 1.61999970
VERTEX2 278 -7.20604244 -4.04308406 1.53100039
VERTEX2 279 -7.16769496 -3.40793203 1.47585024
VERTEX2 280 -7.10125577 -2.77874454 1.47805925
VERTEX2 281 -7.01265585 -2.14817002 1.37777380
VERTEX2 282 -6.89513660 -1.52462450 1.41775777
VERTEX2 283 -6.81016917 -0.89167073 1.40991228
VERTEX2 284 -6.70028625 -0.26987913 1.43702814
VERTEX2 285 -6.63553195 0.36726332 1.45782947
VERTEX2 286 -6.56919980 0.99310825 1.51146280
VERTEX2 287 -6.56617468 1.04875247 1.40710724
VERTEX2 288 -6.56140619 1.05732206 0.79867724
VERTEX2 289 -6.55983816 1.05803402 0.20542097
VERTEX2 290 -6.12373143 1.04964261 -0.01954751
VERTEX2 291 -5.50516483 1.04227294 -0.00571957
VERTEX2 292 -4.89345244 1.02269498 -0.06059700
VERTEX2 293 -4.27327649 0.97758632 -0.08388852
VERTEX2 294 -3.65066174 0.92508829 -0.08305621
VERTEX2 295 -3.02776852 0.84451317 -0.19538728
VERTEX2 296 -2.41076551 0.69968671 -0.24067293
VERTEX2 297 -1.79602516 0.54802331 -0.25228673
VERTEX2 298 -1.18580927 0.39328781 -0.25287342
VERTEX2 299 -0.61203828 0.23625573 -0.19160231
VERTEX2 300 -0.02638727 0.15008594 -0.14933099
VERTEX2 301 0.53485457 0.05011222 -0.20840860
VERTEX2 302 0.83575061 -0.01486207 -0.22922620
VERTEX2 303 0.81724699 -0.01124718 -0.22500402
VERTEX2 304 1.31627995 -0.12639824 -0.21568813
VERTEX2 305 1.93168558 -0.17087793 -0.03221210
VERTEX2 306 2.56070435 -0.18223515 -0.05032430
VERTEX2 307 3.19946671 -0.23084310 -0.08707647
VERTEX2 308 3.82667466 -0.29451468 -0.14272046
VERTEX2 309 4.46120134 -0.35561625 -0.04985999
VERTEX2 310 5.08843183 -0.38629496 -0.08581039
VERTEX2 311 5.36903752 -0.41252964 0.08916211
VERTEX2 312 5.36575223 -0.41425183 1.07697250
VERTEX2 313 5.37030492 -0.19546967 1.57266151
VERTEX2 314 5.35047038 0.43310597 1.61244119
VERTEX2 315 5.32161988 1.06107120 1.60810774
VERTEX2 316 5.28144698 1.70398217 1.65963007
VERTEX2 317 5.22008489 2.34398638 1.66958911
VERTEX2 318 5.12127344 2.97925850 1.76415606
VERTEX2 319 5.04177032 3.32441099 1.83553753
VERTEX2 320 5.04351749 3.32985112 2.80422134
VERTEX2 321 5.03595473 3.32657844 -2.43995215
VERTEX2 322 5.03507982 3.32476260 -1.44440128
VERTEX2 323 5.04608502 3.31418972 -0.45263780
VERTEX2 324 5.05119644 3.31252846 0.20676082
VERTEX2 325 5.05316401 3.31268530 -0.32131772
VERTEX2 326 5.06906355 3.30075956 -0.91697226
VERTEX2 327 5.07171048 3.28839692 -1.54108341
VERTEX2 328 5.05607301 2.65408283 -1.58791842
VERTEX2 329 5.03463516 2.02820297 -1.64431804
VERTEX2 330 4.98087522 1.41368026 -1.66478096
VERTEX2 331 4.92611631 0.79786483 -1.68051590
VERTEX2 332 4.84692918 0.18509931 -1.70048869
VERTEX2 333 4.82534652 0.03137867 -1.63700386
VERTEX2 334 4.83070858 0.03227718 -0.84550943
VERTEX2 335 4.84731359 0.02734113 0.14554809
VERTEX2 336 4.86014709 0.03182791 1.08675759
VERTEX2 337 4.86522987 0.06324544 2.06579895
VERTEX2 338 4.85645855 0.06939220 3.05451167
VERTEX2 339 4.86527711 0.07483518 -2.17958278
VERTEX2 340 4.86468090 0.07805631 -1.16058639
VERTEX2 341 4.98223663 0.00655621 -0.52480385
VERTEX2 342 5.55961843 -0.30147610 -0.42183945
VERTEX2 343 6.13215100 -0.50139214 -0.29042837
VERTEX2 344 6.71522955 -0.68340598 -0.29998317
VERTEX2 345 6.94761276 -0.75208733 -0.32696950
VERTEX2 346 6.93432052 -0.74771943 -0.97266834
VERTEX2 347 6.93670021 -0.83764613 -1.52994085
VERTEX2 348 6.95396889 -1.42978846 -1.54606575
VERTEX2 349 6.95100880 -2.05083001 -1.58571000
VERTEX2 350 6.93689906 -2.84045690 -1.60477060
VERTEX2 351 6.92224534 -3.11575488 -1.63316296
VERTEX2 352 6.92010182 -3.12591443 -1.92004618
VERTEX2 353 6.90756620 -3.14125188 -2.58309724
VERTEX2 354 6.89304393 -3.14539621 3.09889650
VERTEX2 355 6.87241163 -3.14467488 2.38044821
VERTEX2 356 6.86706275 -3.13519486 1.80731159
VERTEX2 357 6.86949528 -3.12078939 1.15656623
VERTEX2 358 6.86976306 -3.12043920 0.54333756
VERTEX2 359 6.86311066 -3.12328376 -0.06811413
VERTEX2 360 6.85462968 -3.12159635 -0.24305073
VERTEX2 361 6.85221627 -3.12224187 0.67997941
VERTEX2 362 6.93802777 -2.88974723 1.21601219
VERTEX2 363 7.04152730 -2.61993063 1.21050355
VERTEX2 364 6.97274580 -2.28528740 1.82755912
VERTEX2 365 6.91759909 -1.99760431 1.33253023
VERTEX2 366 7.02877049 -1.87172658 0.78066012
VERTEX2 367 7.47750549 -1.43358288 0.78363881
VERTEX2 368 7.93354329 -0.99710175 0.73575000
VERTEX2 369 7.95327675 -0.97324167 0.48399915
VERTEX2 370 7.97748176 -0.96935932 -0.10262218
VERTEX2 371 7.98356878 -0.97251064 -0.64796021
VERTEX2 372 8.41265250 -1.32089576 -0.67558469
VERTEX2 373 8.88546482 -1.68549476 -0.67355434
VERTEX2 374 9.36475705 -2.08838122 -0.73463886
VERTEX2 375 9.72974435 -2.41274199 -0.76512984
VERTEX2 376 9.74629396 -2.42282379 -0.07134623
VERTEX2 377 9.79117939 -2.39071561 0.62257663
VERTEX2 378 10.32013672 -1.99585553 0.67579776
VERTEX2 379 10.79506506 -1.56747953 0.75974726
VERTEX2 380 11.22964694 -1.10362551 0.87822805
VERTEX2 381 11.37118600 -0.92779166 1.02724424
VERTEX2 382 11.37885946 -0.91394280 2.07150307
VERTEX2 383 11.37763171 -0.91320434 3.05759506
VERTEX2 384 11.38086319 -0.91009521 -2.26260364
VERTEX2 385 11.37976676 -0.91189038 -1.23330998
VERTEX2 386 11.48320030 -1.04589192 -1.00865706
VERTEX2 387 11.93925519 -1.46692381 -0.67727183
VERTEX2 388 12.40512763 -1.82524672 -0.67056167
VERTEX2 389 12.83906626 -2.19847604 -0.75491709
VERTEX2 390 12.84798835 -2.20627285 -0.28402966
VERTEX2 391 12.65316931 -2.19816139 0.09222013
VERTEX2 392 12.58937840 -2.19911328 1.12386074
VERTEX2 393 12.58972987 -2.14389545 2.36365652
VERTEX2 394 12.51966571 -2.11571323 -2.93639001
VERTEX2 395 12.70142010 -2.01753119 -2.60307099
VERTEX2 396 12.67069223 -2.03433360 -2.60522942
VERTEX2 397 12.62660698 -2.04482512 -2.61845752
VERTEX2 398 12.60730244 -2.06127173 -2.42438258
VERTEX2 399 12.53208077 -2.17039302 -2.12951330
VERTEX2 400 12.18414881 -2.72794612 -2.08199847
VERTEX2 401 11.84605231 -3.27298780 -2.17623381
VERTEX2 402 11.37335589 -3.73522392 -2.44556680
VERTEX2 403 10.86245794 -4.15152303 -2.48098024
VERTEX2 404 10.35961061 -4.51718345 -2.56137044
VERTEX2 405 10.34043437 -4.53468152 -2.03024711
VERTEX2 406 10.33515108 -4.49176768 -1.05665888
VERTEX2 407 10.51276170 -4.73677931 -0.93018622
VERTEX2 408 10.83961384 -5.18762019 -0.96946919
VERTEX2 409 10.96953740 -5.38949226 -1.07050592
VERTEX2 410 10.95961643 -5.35109234 -1.70153056
VERTEX2 411 11.15847551 -4.83188462 -2.56676712
VERTEX2 412 10.60459260 -5.05803595 -2.77158340
VERTEX2 413 9.96632789 -5.27939383 -2.85279920
VERTEX2 414 9.32136707 -5.48918970 -2.75064613
VERTEX2 415 8.71838313 -5.72988690 -2.74281061
VERTEX2 416 8.43306240 -5.85908891 -2.79711642
VERTEX2 417 8.14335773 -5.84546250 3.06325416
VERTEX2 418 7.70055186 -5.80557846 3.01843514
VERTEX2 419 7.69980918 -5.80576007 -2.83309458
VERTEX2 420 7.74983288 -5.78306888 -2.61645146
VERTEX2 421 7.75104299 -5.78113315 -1.64748639
VERTEX2 422 7.74617536 -5.78804658 -0.40656868
VERTEX2 423 7.74519616 -5.78796227 -0.06035485
VERTEX2 424 7.73879690 -5.78788550 -0.05948052
VERTEX2 425 7.72765456 -5.79425559 -0.04723634
VERTEX2 426 7.72111018 -5.79425366 -0.05584794
VERTEX2 427 7.74711052 -5.79547275 -0.05222169
VERTEX2 428 8.40280514 -5.81320892 -0.05724618
VERTEX2 429 9.04106304 -5.85879308 -0.09755884
VERTEX2 430 9.37654478 -5.89700612 -0.14319145
VERTEX2 431 9.34783269 -5.89371467 -0.09080822
VERTEX2 432 9.35446924 -5.89602102 -0.72172288
VERTEX2 433 9.35792637 -5.90072297 -1.39817953
VERTEX2 434 9.32338985 -6.43850223 -1.62589558
VERTEX2 435 9.29354657 -7.08003818 -1.65384847
VERTEX2 436 9.21796135 -7.71822744 -1.66222587
VERTEX2 437 9.16821745 -8.36610747 -1.65375754
VERTEX2 438 9.11728727 -8.84290444 -1.68357427
VERTEX2 439 9.11343299 -8.85764368 -2.11804359
VERTEX2 440 9.11640324 -8.85533812 -2.75879674
VERTEX2 441 9.13345364 -8.85356619 2.90467948
VERTEX2 442 9.14615015 -8.86035956 2.27763190
VERTEX2 443 9.14643208 -8.86467205 1.71247847
VERTEX2 444 9.14898550 -8.85082092 1.12273907
VERTEX2 445 9.15443783 -8.84554372 0.46653091
VERTEX2 446 9.15084417 -8.84779687 0.66891681
VERTEX2 447 9.16144700 -8.82693678 1.30216699
VERTEX2 448 9.30878674 -8.19906503 1.31954298
VERTEX2 449 9.43901102 -7.55681916 1.42071346
VERTEX2 450 9.53036496 -6.91424872 1.43423717
VERTEX2 451 9.58100505 -6.44142845 1.47670920
VERTEX2 452 9.58128301 -6.43820513 1.09836901
VERTEX2 453 9.57945943 -6.44153212 0.47576215
VERTEX2 454 9.84210183 -6.42044827 0.05337168
VERTEX2 455 10.43268992 -6.39414898 0.03294565
VERTEX2 456 11.06462071 -6.38735868 -0.03166720
VERTEX2 457 11.41840361 -6.40857970 -0.11941009
VERTEX2 458 11.41358859 -6.40620700 -0.76535322
VERTEX2 459 11.40486328 -6.37138284 -1.37360808
VERTEX2 460 11.38573599 -6.76786158 -1.63092223
VERTEX2 461 11.31934639 -7.38234102 -1.71910127
VERTEX2 462 11.23385679 -7.88963570 -1.75933290
VERTEX2 463 11.24655544 -7.86462339 -0.91978583
VERTEX2 464 11.50252664 -7.93689792 -0.24172525
VERTEX2 465 12.08683757 -8.06902252 -0.23398390
VERTEX2 466 12.64103439 -8.21952441 -0.28961984
VERTEX2 467 13.21275058 -8.40066855 -0.33306893
VERTEX2 468 13.82668895 -8.61746877 -0.36851479
VERTEX2 469 14.41727560 -8.88140070 -0.45135868
VERTEX2 470 14.87024599 -9.09556339 -0.43238218
VERTEX2 471 14.87714390 -9.09928976 -0.63204072
VERTEX2 472 14.89278167 -9.12105467 -1.26425751
VERTEX2 473 14.89363270 -9.12523247 -1.90439506
VERTEX2 474 14.89339342 -9.12552253 -2.53528293
VERTEX2 475 14.89574706 -9.12519980 -3.10853064
VERTEX2 476 14.89847322 -9.12556881 2.52403176
VERTEX2 477 14.90349887 -9.13538431 1.96502585
VERTEX2 478 14.90436558 -9.14657365 1.33853602
VERTEX2 479 14.90290573 -9.14993575 0.88468366
VERTEX2 480 14.90273928 -9.15030274 1.44722338
VERTEX2 481 14.89938781 -9.13592954 2.45009796
VERTEX2 482 14.90435064 -9.13790689 2.78656959
VERTEX2 483 14.91148774 -9.14050906 2.78136654
VERTEX2 484 14.48979158 -8.98525267 2.81692256
VERTEX2 485 13.89119267 -8.79795147 2.81452254
VERTEX2 486 13.28981785 -8.58658828 2.82396916
VERTEX2 487 12.67996242 -8.40843848 2.85216691
VERTEX2 488 12.06782261 -8.22836253 2.88821177
VERTEX2 489 11.59797989 -8.12176386 2.91856904
VERTEX2 490 11.60371497 -8.12119778 -2.87964174
VERTEX2 491 11.61216144 -8.11001953 -1.94374608
VERTEX2 492 11.59593021 -8.33833172 -1.64081502
VERTEX2 493 11.53524071 -8.94084017 -1.69594097
VERTEX2 494 11.44917402 -9.55066044 -1.75693783
VERTEX2 495 11.38132615 -10.17153047 -1.64981804
VERTEX2 496 11.33871008 -10.79377559 -1.53215925
VERTEX2 497 11.33275849 -11.40967615 -1.61828596
VERTEX2 498 11.26529941 -12.02893921 -1.72018769
VERTEX2 499 11.13606070 -12.65304694 -1.73729444
VERTEX2 500 11.19452904 -13.21819802 -1.40854273
VERTEX2 501 11.26922658 -13.79440927 -1.48054714
VERTEX2 502 11.29392113 -14.48877442 -1.56509421
VERTEX2 503 11.28990804 -14.93464619 -1.58211540
VERTEX2 504 11.29536326 -14.91921786 -0.72613263
VERTEX2 505 11.53199114 -14.94615825 -0.10458056
VERTEX2 506 12.12295585 -15.02781187 -0.25720047
VERTEX2 507 12.70303196 -15.19749457 -0.33580732
VERTEX2 508 13.27102039 -15.40882480 -0.34912183
VERTEX2 509 13.88810681 -15.64156939 -0.40494697
VERTEX2 510 14.24213454 -15.79968138 -0.41877089
VERTEX2 511 14.24037382 -15.78253542 0.45697623
VERTEX2 512 14.26109632 -15.73877778 1.65512508
VERTEX2 513 14.25724261 -15.72745878 2.61045214
VERTEX2 514 14.19021522 -15.70871836 2.83669297
VERTEX2 515 13.58019912 -15.52837908 2.83778730
VERTEX2 516 12.99562766 -15.33489954 2.85367941
VERTEX2 517 12.40328545 -15.18733339 2.88187188
VERTEX2 518 11.81127414 -15.03662441 2.90622652
VERTEX2 519 11.28981023 -14.91315662 2.89053698
VERTEX2 520 11.12248365 -14.86969787 -2.99419361
VERTEX2 521 11.14725596 -14.84237926 -1.99142817
VERTEX2 522 11.08196368 -15.23753867 -1.72739078
VERTEX2 523 10.99026576 -15.85676860 -1.73477911
VERTEX2 524 10.88617825 -16.42988503 -1.77670090
VERTEX2 525 10.78201352 -16.97111898 -1.75303732
VERTEX2 526 10.66559791 -17.53904829 -1.81181043
VERTEX2 527 10.51759659 -18.11722993 -1.84658888
VERTEX2 528 10.33512804 -18.68295298 -1.92252346
VERTEX2 529 10.12265425 -19.28400727 -1.95084595
VERTEX2 530 9.87513681 -19.88236207 -1.98095181
VERTEX2 531 9.60517936 -20.45638999 -2.06079617
VERTEX2 532 9.50728831 -20.64162508 -2.01020814
VERTEX2 533 9.50414851 -20.62632058 -1.01084692
VERTEX2 534 9.50121851 -20.62436845 -0.34407130
VERTEX2 535 9.50189040 -20.62361213 -0.34445067
VERTEX2 536 9.85577295 -20.70722156 -0.21375958
VERTEX2 537 10.45945992 -20.85549165 -0.27178851
VERTEX2 538 11.01631161 -21.02435162 -0.29894213
VERTEX2 539 11.62101667 -21.23293799 -0.36376251
VERTEX2 540 12.20433187 -21.48541661 -0.45672116
VERTEX2 541 12.78806299 -21.71288515 -0.29450430
VERTEX2 542 13.41789897 -21.85535185 -0.23888936
VERTEX2 543 13.53867126 -21.88582406 -0.26863848
VERTEX2 544 13.56007432 -21.88367683 0.36813768
VERTEX2 545 13.58506523 -21.83850092 1.43389401
VERTEX2 546 13.60140917 -21.88126539 2.26060579
VERTEX2 547 13.60979586 -21.88072752 -3.00130318
VERTEX2 548 13.62467828 -21.87124256 -2.07877188
VERTEX2 549 13.62679516 -21.85706967 -1.27248537
VERTEX2 550 13.62586927 -21.84000765 -1.75197081
VERTEX2 551 13.63310415 -21.82547344 -2.37795866
VERTEX2 552 13.65040772 -21.81691455 -3.00978696
VERTEX2 553 13.51759428 -21.76581114 2.69667797
VERTEX2 554 12.93034312 -21.48299143 2.66143365
VERTEX2 555 12.35725999 -21.21014443 2.75046656
VERTEX2 556 11.75877875 -20.99318283 2.88571448
VERTEX2 557 11.15995272 -20.82216574 2.84457006
VERTEX2 558 10.58518658 -20.66500770 2.92565849
VERTEX2 559 10.59404310 -20.66800738 2.51880697
VERTEX2 560 10.58880913 -20.66161454 2.01799179
VERTEX2 561 10.56764101 -20.64103327 2.52332691
VERTEX2 562 10.38951846 -20.64093503 -3.11616268
VERTEX2 563 9.81995172 -20.56247718 2.97525783
VERTEX2 564 9.21143765 -20.47066589 3.02430681
VERTEX2 565 8.62118283 -20.39941295 2.96672054
VERTEX2 566 8.68270663 -20.41856285 -2.53292366
VERTEX2 567 8.58835362 -20.42551955 -1.73957705
VERTEX2 568 8.53751159 -20.93303465 -1.67520592
VERTEX2 569 8.48594087 -21.50881687 -1.71431916
VERTEX2 570 8.41694927 -22.08971845 -1.70954376
VERTEX2 571 8.36437001 -22.44501863 -1.75691113
VERTEX2 572 8.33000053 -22.47014008 -1.99994172
VERTEX2 573 8.29488811 -22.54976751 -1.72343556
VERTEX2 574 8.31484424 -22.57778031 -0.78342659
VERTEX2 575 8.47272484 -22.62945291 0.13430651
VERTEX2 576 8.47453588 -22.63090037 1.16196387
VERTEX2 577 8.46836771 -22.61448373 2.13405621
VERTEX2 578 8.45922482 -22.58332752 1.76989124
VERTEX2 579 8.33611724 -21.93192863 1.78493851
VERTEX2 580 8.17612097 -21.29287940 1.86012677
VERTEX2 581 7.98352095 -20.66992835 1.90256432
VERTEX2 582 7.76352670 -20.05613192 1.94577259
VERTEX2 583 7.63467782 -19.74886574 2.02522806
VERTEX2 584 7.62990834 -19.73957133 2.86933354
VERTEX2 585 7.04396581 -19.59803387 2.98828940
VERTEX2 586 6.44720260 -19.52268753 3.08649665
VERTEX2 587 5.82523410 -19.51158074 3.11248661
VERTEX2 588 5.19232945 -19.48574769 3.11751850
VERTEX2 589 4.65464848 -19.51070200 -3.09043379
VERTEX2 590 4.10608093 -19.55493268 -3.02182359
VERTEX2 591 3.56783072 -19.63388116 -3.02382592
VERTEX2 592 3.02058788 -19.70822337 -3.02666109
VERTEX2 593 2.84394738 -19.73042650 -2.82157684
VERTEX2 594 2.88435868 -19.68685308 -1.89971170
VERTEX2 595 2.77246062 -20.29394047 -1.66702753
VERTEX2 596 2.72109752 -20.91785857 -1.69025487
VERTEX2 597 2.63063230 -21.59303697 -1.73074434
VERTEX2 598 2.52838277 -22.19191884 -1.77289895
VERTEX2 599 2.44037827 -22.56964709 -1.83907690
VERTEX2 600 2.44059322 -22.58644669 -1.03251624
VERTEX2 601 2.48173259 -22.61173423 -0.01435291
VERTEX2 602 2.51726390 -22.59738725 0.99968758
VERTEX2 603 2.48268862 -22.36316670 1.77232507
VERTEX2 604 2.42195079 -21.75135734 1.52823611
VERTEX2 605 2.43045532 -21.10933292 1.61123263
VERTEX2 606 2.38974352 -20.46757582 1.65369272
VERTEX2 607 2.40001264 -19.88336242 1.57308409
VERTEX2 608 2.38617652 -19.49436309 1.61770024
VERTEX2 609 2.38188189 -19.46938450 1.95425619
VERTEX2 610 2.37427924 -19.46665077 2.88687637
VERTEX2 611 1.78030392 -19.31712403 2.88991505
VERTEX2 612 1.30882299 -19.18324661 2.89282598
VERTEX2 613 1.34514413 -19.19427885 -2.92637892
VERTEX2 614 1.35509386 -19.18674059 -1.88881754
VERTEX2 615 1.36738680 -19.66810303 -1.58445961
VERTEX2 616 1.37348960 -20.28995385 -1.63585887
VERTEX2 617 1.23502301 -20.89171236 -1.85317484
VERTEX2 618 1.06503940 -21.49613888 -1.84315523
VERTEX2 619 0.90330173 -22.06603942 -1.84462841
VERTEX2 620 0.71891688 -22.64023246 -1.94085110
VERTEX2 621 0.84884316 -22.30677528 -1.99242174
VERTEX2 622 0.97333298 -22.04238937 -2.06748060
VERTEX2 623 0.97344635 -22.04223743 -2.60466548
VERTEX2 624 0.94531133 -22.04184759 3.03579191
VERTEX2 625 0.90479917 -22.02528149 2.37712544
VERTEX2 626 0.87724547 -21.99332893 1.75896353
VERTEX2 627 0.95162120 -21.62393668 1.34822072
VERTEX2 628 1.13372475 -21.00047495 1.24721515
VERTEX2 629 1.30892129 -20.37635755 1.31806184
VERTEX2 630 1.43814699 -19.77182193 1.40282687
VERTEX2 631 1.51427598 -19.24031898 1.42326758
VERTEX2 632 1.51748168 -19.22202943 2.10006274
VERTEX2 633 1.41941559 -19.21491799 -3.09479482
VERTEX2 634 0.74836250 -19.25116136 -3.06699256
VERTEX2 635 0.09226520 -19.26141970 3.08160367
VERTEX2 636 -0.55127800 -19.23257389 3.06431189
VERTEX2 637 -1.18002244 -19.15821466 2.96530042
VERTEX2 638 -1.56905166 -19.07873131 2.93564671
VERTEX2 639 -2.17700439 -18.97622429 3.01583841
VERTEX2 640 -2.78906084 -18.86746068 2.94776346
VERTEX2 641 -3.38645577 -18.75692614 2.93923974
VERTEX2 642 -3.95997587 -18.61976265 2.89397143
VERTEX2 643 -4.44040624 -18.48285909 2.82639542
VERTEX2 644 -4.44750665 -18.48441321 -2.70005547
VERTEX2 645 -4.48445454 -18.62498726 -1.92217678
VERTEX2 646 -4.62193229 -19.23097987 -1.62668501
VERTEX2 647 -4.57980003 -19.86801668 -1.33767497
VERTEX2 648 -4.36007022 -20.48644147 -1.17122961
VERTEX2 649 -4.18903514 -21.07862451 -1.50858219
VERTEX2 650 -4.29030627 -21.70795688 -1.76594514
VERTEX2 651 -4.30799897 -21.85438745 -0.96653965
VERTEX2 652 -4.24648866 -21.88210183 0.05843413
VERTEX2 653 -4.19807463 -21.83869202 1.08871209
VERTEX2 654 -4.20664549 -21.54716258 1.60184741
VERTEX2 655 -4.21629802 -20.99880440 1.59683341
VERTEX2 656 -4.21473556 -20.40168924 1.58420158
VERTEX2 657 -4.31994772 -19.79549411 1.86084163
VERTEX2 658 -4.50937369 -19.17949228 1.85361549
VERTEX2 659 -4.62343717 -18.68703172 1.78239359
VERTEX2 660 -4.62631343 -18.67258576 2.38236487
VERTEX2 661 -4.80269994 -18.65293727 3.03565158
VERTEX2 662 -5.39404145 -18.59298170 3.10519071
VERTEX2 663 -5.97932409 -18.60654381 -3.07703663
VERTEX2 664 -5.98601075 -18.60482173 -2.55373717
VERTEX2 665 -6.00224357 -18.70655444 -1.72106134
VERTEX2 666 -6.07479785 -19.30924875 -1.68409975
VERTEX2 667 -6.13280090 -19.86981445 -1.67964498
VERTEX2 668 -6.19804840 -20.46440829 -1.65385830
VERTEX2 669 -6.24830186 -21.09081000 -1.67898503
VERTEX2 670 -6.34958141 -21.70922809 -1.73846004
VERTEX2 671 -6.39809635 -22.00271569 -1.68347574
VERTEX2 672 -6.29495456 -21.42339616 -1.77258584
VERTEX2 673 -6.22834273 -21.15802012 -1.90313585
VERTEX2 674 -6.21596379 -21.14502605 -2.55127053
VERTEX2 675 -6.19254054 -21.14013567 3.12330455
VERTEX2 676 -6.18570512 -21.14415779 2.49997600
VERTEX2 677 -6.18041053 -21.15149822 1.88414333
VERTEX2 678 -6.15193051 -20.93068987 1.43820887
VERTEX2 679 -6.08643359 -20.35307186 1.50079171
VERTEX2 680 -6.11270994 -19.90602896 1.84567955
VERTEX2 681 -6.26290575 -19.31559259 1.81820292
VERTEX2 682 -6.43316214 -18.71057907 1.86591738
VERTEX2 683 -6.52576683 -18.42442684 2.02537526
VERTEX2 684 -6.47322756 -18.47825030 3.10506275
VERTEX2 685 -6.87902219 -18.63898801 -2.73445952
VERTEX2 686 -7.32774004 -18.77539204 -2.87880854
VERTEX2 687 -7.92340764 -18.92588397 -2.91391939
VERTEX2 688 -8.52168140 -19.04483218 -2.92562365
VERTEX2 689 -9.08639505 -19.18279455 -2.89789160
VERTEX2 690 -9.62276452 -19.35086792 -2.82364956
VERTEX2 691 -10.01823498 -19.48166547 -2.85161764
VERTEX2 692 -10.00364001 -19.47521351 -2.31729676
VERTEX2 693 -9.98078782 -19.54772720 -1.27675350
VERTEX2 694 -9.95674587 -19.61995268 -0.44118170
VERTEX2 695 -9.93780299 -19.61459991 0.35891697
VERTEX2 696 -9.93125840 -19.61032880 1.38452170
VERTEX2 697 -9.94292034 -19.64843920 1.13159082
VERTEX2 698 -9.61172873 -19.43952014 0.47689867
VERTEX2 699 -9.04698748 -19.12663710 0.59097331
VERTEX2 700 -8.53240990 -18.76478232 0.64453851
VERTEX2 701 -8.09742300 -18.40195012 0.70374525
VERTEX2 702 -7.61708327 -18.08678723 0.58863120
VERTEX2 703 -7.10540081 -17.75164231 0.62298434
VERTEX2 704 -6.61251633 -17.37099568 0.64126691
VERTEX2 705 -6.10113860 -16.95104838 0.71151365
VERTEX2 706 -5.67067369 -16.63376287 0.44252985
VERTEX2 707 -5.64518146 -16.63243185 -0.07771353
VERTEX2 708 -5.63488737 -16.63840397 -0.71619109
VERTEX2 709 -5.67435655 -16.59576175 -1.04827322
VERTEX2 710 -5.67854095 -16.58488812 -1.60938998
VERTEX2 711 -5.66876312 -16.59374680 -2.20612116
VERTEX2 712 -5.64857316 -16.57832713 -2.76656139
VERTEX2 713 -6.12146229 -16.62795064 -3.05191402
VERTEX2 714 -6.67449240 -16.60190874 3.03374671
VERTEX2 715 -7.29720593 -16.56398275 3.13728680
VERTEX2 716 -7.92731313 -16.54083992 2.99919370
VERTEX2 717 -8.54787289 -16.47177886 3.08384215
VERTEX2 718 -9.30918020 -16.35158943 2.90834520
VERTEX2 719 -9.92522202 -16.23496497 2.98271700
VERTEX2 720 -10.53710491 -16.12119048 2.92342542
VERTEX2 721 -11.15389828 -16.00390855 2.99155845
VERTEX2 722 -11.16977371 -16.00160757 3.05817299
VERTEX2 723 -11.18938819 -16.02173238 -2.13542725
VERTEX2 724 -11.18962920 -16.06444909 -1.06690751
VERTEX2 725 -11.16233984 -16.08293115 -0.43276382
VERTEX2 726 -10.83884547 -16.08031324 0.02200072
VERTEX2 727 -10.20339684 -16.04469261 0.05303528
VERTEX2 728 -9.56517506 -16.02311376 0.05470751
VERTEX2 729 -8.92954789 -15.96519012 0.11267822
VERTEX2 730 -8.30590081 -15.87503755 0.15038181
VERTEX2 731 -7.64705875 -15.77490907 0.16264174
VERTEX2 732 -7.49458767 -15.74460714 0.60932975
VERTEX2 733 -7.49241427 -15.74816583 1.60642293
VERTEX2 734 -7.55029275 -15.18982287 1.68470447
VERTEX2 735 -7.61035298 -14.58511443 1.65285367
VERTEX2 736 -7.61125780 -14.57149385 2.25284021
VERTEX2 737 -7.59706236 -14.57333212 3.05415910
VERTEX2 738 -8.16764464 -14.53347395 3.07341141
VERTEX2 739 -8.76267772 -14.43991994 3.01599710
VERTEX2 740 -9.25714137 -14.40068147 3.07948342
VERTEX2 741 -9.22822119 -14.40033144 2.71099756
VERTEX2 742 -9.22377992 -14.40343031 2.05875241
VERTEX2 743 -9.22205383 -14.41106006 1.44170402
VERTEX2 744 -9.22136174 -14.40944064 0.90212979
VERTEX2 745 -9.21898162 -14.40818826 0.30842150
VERTEX2 746 -8.68481714 -14.42558855 -0.16583766
VERTEX2 747 -8.04684557 -14.53777118 -0.20076359
VERTEX2 748 -7.47654813 -14.67749996 -0.26871719
VERTEX2 749 -7.40512719 -14.69507527 0.16033123
VERTEX2 750 -7.39693136 -14.67986478 1.08711965
VERTEX2 751 -7.43285672 -14.40281667 1.72714007
VERTEX2 752 -7.49370767 -13.77325675 1.62363953
VERTEX2 753 -7.53419059 -13.12842339 1.68663984
VERTEX2 754 -7.54430578 -12.48224669 1.52422595
VERTEX2 755 -7.52778824 -11.84925696 1.61080091
VERTEX2 756 -7.49274541 -11.21389577 1.43454064
VERTEX2 757 -7.42061143 -10.56944408 1.54646685
VERTEX2 758 -7.44346928 -9.98967290 1.68863053
VERTEX2 759 -7.43531243 -9.44202917 1.56830743
VERTEX2 760 -7.47605329 -8.83309671 1.67971297
VERTEX2 761 -7.47874231 -8.79741864 1.86012335
VERTEX2 762 -7.55458437 -8.76382697 2.69550220
VERTEX2 763 -8.12159291 -8.66445137 2.98820670
VERTEX2 764 -8.53429403 -8.59572228 2.96059061
VERTEX2 765 -8.51588872 -8.59530975 -2.68336095
VERTEX2 766 -8.51772290 -8.60134669 -1.68455116
VERTEX2 767 -8.51199128 -8.61579530 -0.75510399
VERTEX2 768 -8.48256365 -8.61759036 -0.03386792
VERTEX2 769 -7.84460062 -8.52838612 0.12252615
VERTEX2 770 -7.19692273 -8.47005751 0.05550424
VERTEX2 771 -7.11393016 -8.46318421 0.61652369
VERTEX2 772 -7.11059878 -8.45261726 1.48483955
VERTEX2 773 -7.08705293 -7.87225525 1.57089486
VERTEX2 774 -7.09989779 -7.32428923 1.59333673
VERTEX2 775 -7.09952541 -7.32586913 2.43935913
VERTEX2 776 -7.31483160 -7.30002991 3.05762841
VERTEX2 777 -7.93420558 -7.25916615 3.11704027
VERTEX2 778 -8.55291192 -7.24997767 3.09644785
VERTEX2 779 -9.16480060 -7.23001081 3.11474871
VERTEX2 780 -9.36944838 -7.21281739 2.98477003
VERTEX2 781 -9.36483156 -7.21445149 2.41182875
VERTEX2 782 -9.49473441 -6.93843394 1.98267697
VERTEX2 783 -9.73119258 -6.36527144 1.98184252
VERTEX2 784 -9.83111300 -6.13828128 1.96027673
VERTEX2 785 -9.83209392 -6.11225572 1.40774340
VERTEX2 786 -9.82381312 -6.08490820 0.81882480
VERTEX2 787 -9.80390876 -6.06450411 0.32827004
VERTEX2 788 -9.77709986 -6.06630831 -0.30074033
VERTEX2 789 -9.76881571 -6.07280376 -0.85260499
VERTEX2 790 -9.46439938 -6.46475627 -0.91972776
VERTEX2 791 -9.06156877 -6.94350177 -0.82102609
VERTEX2 792 -8.82342879 -7.15541698 -0.11599366
VERTEX2 793 -8.20978284 -7.20691660 -0.07102039
VERTEX2 794 -7.57152865 -7.23500717 0.00040095
VERTEX2 795 -7.59344197 -7.25112705 0.43020307
VERTEX2 796 -7.60587284 -7.25621344 1.08965890
VERTEX2 797 -7.53355971 -6.95376284 1.34985524
VERTEX2 798 -7.40076479 -6.33409381 1.40001152
VERTEX2 799 -7.31549671 -5.69643411 1.46574466
VERTEX2 800 -7.26286442 -5.05667252 1.53864625
VERTEX2 801 -7.27422681 -4.42747187 1.62458893
VERTEX2 802 -7.32860117 -3.80282801 1.68224546
VERTEX2 803 -7.31176794 -3.17506948 1.51750716
VERTEX2 804 -7.29195863 -2.54858504 1.57334482
VERTEX2 805 -7.32546000 -1.91883498 1.64955363
VERTEX2 806 -7.38560059 -1.32102527 1.69088757
VERTEX2 807 -7.41340976 -1.13308802 1.97916021
VERTEX2 808 -7.41382972 -1.13311416 2.92788861
VERTEX2 809 -8.00129554 -1.10477153 3.07217557
VERTEX2 810 -8.61434575 -0.98249429 2.93163868
VERTEX2 811 -9.20897250 -0.87162278 2.92806089
VERTEX2 812 -9.20677323 -0.87210190 -2.62436394
VERTEX2 813 -9.21666061 -0.89406786 -1.65045412
VERTEX2 814 -9.20982743 -0.89950689 -0.65767249
VERTEX2 815 -9.18449670 -0.90811040 0.26200664
VERTEX2 816 -9.17587206 -0.90341176 0.94346076
VERTEX2 817 -9.17072705 -0.90015843 0.27490012
VERTEX2 818 -8.95476391 -0.93339545 -0.21381990
VERTEX2 819 -8.36979619 -1.06068801 -0.19960799
VERTEX2 820 -7.78236812 -1.19199284 -0.24073286
VERTEX2 821 -7.24231602 -1.32215185 -0.22482190
VERTEX2 822 -7.20528206 -1.32781364 0.53644249
VERTEX2 823 -7.20451102 -1.31907068 1.45518458
VERTEX2 824 -7.14070881 -0.70292071 1.37577593
VERTEX2 825 -6.99770109 -0.08663507 1.34601319
VERTEX2 826 -6.93998153 0.54260540 1.50908542
VERTEX2 827 -6.87555812 1.16347905 1.46051766
VERTEX2 828 -6.82083604 1.79191006 1.49610550
VERTEX2 829 -6.76031499 2.38703163 1.45621543
VERTEX2 830 -6.68594574 2.98734578 1.44774284
VERTEX2 831 -6.59263500 3.55578508 1.40076693
VERTEX2 832 -6.50181045 4.11886631 1.39736726
VERTEX2 833 -6.45748948 4.37422656 1.53522397
VERTEX2 834 -6.46046947 4.38485748 2.59054959
VERTEX2 835 -6.48237398 4.38740722 -2.91447639
VERTEX2 836 -6.49156688 4.37963065 -1.97254534
VERTEX2 837 -6.48725740 4.35583478 -0.93743402
VERTEX2 838 -6.46790534 4.34367884 -0.07628047
VERTEX2 839 -6.45922661 4.33948367 -0.29498267
VERTEX2 840 -6.44133696 4.32531980 -0.85835691
VERTEX2 841 -6.43175701 4.30580072 -1.47610133
VERTEX2 842 -6.45921920 4.06185930 -1.70661327
VERTEX2 843 -6.54076098 3.49990925 -1.70891046
VERTEX2 844 -6.61863428 2.88275174 -1.71635472
VERTEX2 845 -6.71435179 2.26799267 -1.73058320
VERTEX2 846 -6.80199207 1.64911521 -1.72833917
VERTEX2 847 -6.91288248 1.03758672 -1.75451245
VERTEX2 848 -6.94321887 0.84846749 -1.27362321
VERTEX2 849 -6.94578461 0.84944281 -0.35070035
VERTEX2 850 -6.59206147 0.84550347 0.00302768
VERTEX2 851 -5.96650373 0.81909268 -0.08928202
VERTEX2 852 -5.34442003 0.75783156 -0.07486607
VERTEX2 853 -4.75170071 0.71521531 -0.10280556
VERTEX2 854 -4.16693673 0.64742294 -0.10083528
VERTEX2 855 -3.57282954 0.59643307 -0.10242926
VERTEX2 856 -2.92772380 0.51124043 -0.14359177
VERTEX2 857 -2.28381118 0.42210023 -0.15357030
VERTEX2 858 -1.64618454 0.30062964 -0.20854777
VERTEX2 859 -1.13636254 0.19744280 -0.21581532
VERTEX2 860 -1.11914733 0.20447701 0.63306434
VERTEX2 861 -1.10371317 0.31029540 1.54566056
VERTEX2 862 -1.06165288 0.96669959 1.48553546
VERTEX2 863 -1.00039980 1.60728108 1.45255078
VERTEX2 864 -0.90962704 2.21315257 1.44994100
VERTEX2 865 -0.86394665 2.82115599 1.50697617
VERTEX2 866 -0.81467828 3.40352529 1.50531217
VERTEX2 867 -0.80584525 3.56454083 1.68572600
VERTEX2 868 -0.81169032 3.57203614 2.70880458
VERTEX2 869 -0.79606108 3.57211638 -2.59674897
VERTEX2 870 -0.77188370 3.58474529 -1.59802716
VERTEX2 871 -0.75438054 3.57255254 -0.62500058
VERTEX2 872 -0.73353622 3.55707125 0.05982069
VERTEX2 873 -0.70248464 3.54624620 -0.51312288
VERTEX2 874 -0.67947884 3.52486035 -1.07308719
VERTEX2 875 -0.67301303 3.50901135 -1.65996777
VERTEX2 876 -0.80057465 2.95654007 -1.81772994
VERTEX2 877 -0.96013974 2.41886308 -1.90256777
VERTEX2 878 -1.01342223 2.22090623 -1.51955995
VERTEX2 879 -0.92158084 1.57978049 -1.46852353
VERTEX2 880 -0.89268701 1.12944300 -1.58121891
VERTEX2 881 -0.89230730 1.17887091 -1.57587965
VERTEX2 882 -0.95830607 0.54038837 -1.82243652
VERTEX2 883 -1.18232605 -0.05001685 -2.01321743
VERTEX2 884 -1.34495137 -0.37784843 -2.08024023
VERTEX2 885 -1.34515237 -0.37131510 -1.49769047
VERTEX2 886 -1.32796347 -0.38787920 -0.47775982
VERTEX2 887 -1.29562324 -0.40091458 0.53543198
VERTEX2 888 -1.28117465 -0.37132125 1.52128932
VERTEX2 889 -1.28397755 -0.36295172 2.42093967
VERTEX2 890 -1.59499870 -0.20968940 2.69547484
VERTEX2 891 -2.12479423 0.05824480 2.62569553
VERTEX2 892 -2.65184161 0.37856713 2.59067712
VERTEX2 893 -3.19781573 0.67509436 2.82783987
VERTEX2 894 -3.80080219 0.78786236 3.04978484
VERTEX2 895 -4.38843904 0.74252421 -2.93408607
VERTEX2 896 -4.40287238 0.73911393 -2.45449476
VERTEX2 897 -4.68757240 0.31890444 -2.18142141
VERTEX2 898 -5.03281649 -0.18002390 -2.16531469
VERTEX2 899 -5.31266761 -0.57972821 -2.23239015
VERTEX2 900 -5.72300812 -1.11981248 -2.23462118
VERTEX2 901 -6.09625620 -1.56662638 -2.29860655
VERTEX2 902 -6.51382238 -2.06079737 -2.27304785
VERTEX2 903 -6.83141987 -2.44241441 -2.31751046
VERTEX2 904 -6.83212427 -2.44343602 -1.61397974
VERTEX2 905 -6.81783534 -2.93564668 -1.55839104
VERTEX2 906 -6.78330516 -3.50609056 -1.49256142
VERTEX2 907 -6.72642788 -4.07972750 -1.50065289
VERTEX2 908 -6.67954192 -4.70163561 -1.47575721
VERTEX2 909 -6.61835939 -5.31366217 -1.49356066
VERTEX2 910 -6.64591133 -5.44306434 -1.86323722
VERTEX2 911 -6.80517105 -6.01420912 -1.80223403
VERTEX2 912 -6.92702255 -6.58700498 -1.78947210
VERTEX2 913 -7.03986431 -7.13781387 -1.78141616
VERTEX2 914 -7.16651352 -7.73485026 -1.80496746
VERTEX2 915 -7.28958461 -8.24742456 -1.84192640
VERTEX2 916 -7.22561408 -8.48801592 -1.29517206
VERTEX2 917 -7.08620009 -9.13278401 -1.55013787
VERTEX2 918 -7.10544516 -9.64457177 -1.62608829
VERTEX2 919 -7.13804595 -10.26192810 -1.66982210
VERTEX2 920 -7.20115135 -10.86631651 -1.68760066
VERTEX2 921 -7.27302837 -11.47171668 -1.74116710
VERTEX2 922 -7.37365421 -12.06511952 -1.76861120
VERTEX2 923 -7.49150381 -12.62070219 -1.83234572
VERTEX2 924 -7.62358109 -13.11220321 -1.81578729
VERTEX2 925 -7.62504672 -13.10496295 -1.31124554
VERTEX2 926 -7.46649417 -13.66471797 -1.29512379
VERTEX2 927 -7.30119756 -14.25308435 -1.31850812
VERTEX2 928 -7.14498061 -14.85690926 -1.32751202
VERTEX2 929 -6.99530406 -15.45790625 -1.32847862
VERTEX2 930 -6.84897295 -16.08836827 -1.41108867
VERTEX2 931 -6.76361580 -16.71440436 -1.49133435
VERTEX2 932 -6.71834523 -17.34131429 -1.55077487
VERTEX2 933 -6.71576595 -17.95382672 -1.61535534
VERTEX2 934 -6.73101929 -18.43448461 -1.62515325
VERTEX2 935 -6.72847378 -18.44632739 -0.94281813
VERTEX2 936 -6.72624546 -18.44711225 0.00242953
VERTEX2 937 -6.18275202 -18.42236423 0.06532777
VERTEX2 938 -5.58885795 -18.43914496 -0.10837047
VERTEX2 939 -4.96683477 -18.49983734 -0.08086512
VERTEX2 940 -4.35619700 -18.57589527 -0.16670449
VERTEX2 941 -3.75268783 -18.69223636 -0.22033326
VERTEX2 942 -3.23526750 -18.80861624 -0.21581242
VERTEX2 943 -2.62741951 -18.94326843 -0.12745082
VERTEX2 944 -2.01560911 -19.02718804 -0.18407305
VERTEX2 945 -1.39615870 -19.15657229 -0.23913363
VERTEX2 946 -1.22335007 -19.20093383 -0.17474800
VERTEX2 947 -0.81488363 -19.13869869 0.15356101
VERTEX2 948 -0.24196150 -19.05029481 0.13446708
VERTEX2 949 0.36068985 -19.01674605 -0.02115589
VERTEX2 950 0.98988376 -19.05384804 -0.26065922
VERTEX2 951 1.58978857 -19.22707974 -0.33281363
VERTEX2 952 2.18937837 -19.40329951 -0.08206346
VERTEX2 953 2.81807686 -19.43588355 -0.00182956
VERTEX2 954 3.43963259 -19.42919185 -0.00848294
VERTEX2 955 4.02478297 -19.47459221 -0.16883780
VERTEX2 956 4.57673174 -19.55371581 -0.17116491
VERTEX2 957 5.10917522 -19.65057025 -0.25891697
VERTEX2 958 5.57634163 -19.76336092 -0.28571526
VERTEX2 959 6.00786543 -19.88206293 -0.35290284
VERTEX2 960 6.59263934 -20.04435130 -0.27304502
VERTEX2 961 7.16987210 -20.21789404 -0.30010778
VERTEX2 962 7.78597861 -20.34678456 -0.23452813
VERTEX2 963 8.40225111 -20.42801258 -0.04790287
VERTEX2 964 9.02498369 -20.47027612 -0.11171793
VERTEX2 965 9.64900697 -20.55081017 -0.11882418
VERTEX2 966 10.09257812 -20.60968470 -0.17785085
VERTEX2 967 10.12539905 -20.60304564 0.67538177
VERTEX2 968 10.13321932 -20.59566322 1.57194270
VERTEX2 969 10.13559678 -20.62361413 1.63135184
VERTEX2 970 10.13809567 -20.65181016 1.62956762
VERTEX2 971 10.11771593 -20.31879471 1.62964719
VERTEX2 972 10.07917547 -19.73249090 1.63520520
VERTEX2 973 10.15875190 -19.15069479 1.35008678
VERTEX2 974 10.29806752 -18.54932664 1.38180631
VERTEX2 975 10.40956582 -17.94386086 1.38630752
VERTEX2 976 10.51436992 -17.33574877 1.39909405
VERTEX2 977 10.64993866 -16.71730980 1.37273271
VERTEX2 978 10.77079574 -16.10495935 1.41860013
VERTEX2 979 10.88552433 -15.49638159 1.40620784
VERTEX2 980 10.98323963 -14.89070434 1.45298221
VERTEX2 981 11.07142732 -14.30296402 1.46023180
VERTEX2 982 11.12722427 -13.78276960 1.50561917
VERTEX2 983 11.17579059 -13.18644806 1.50238674
VERTEX2 984 11.20196720 -12.59250827 1.55990734
VERTEX2 985 11.21176046 -11.99756673 1.58031895
VERTEX2 986 11.19568527 -11.37893678 1.61677613
VERTEX2 987 11.18181183 -10.76183434 1.58019362
VERTEX2 988 11.18324018 -10.14515737 1.59399209
VERTEX2 989 11.16749109 -9.53386419 1.60157619
VERTEX2 990 11.15959355 -8.92590507 1.59073283
VERTEX2 991 11.14292732 -8.31309122 1.61574789
VERTEX2 992 11.13643771 -7.72838207 1.58333475
VERTEX2 993 11.12115591 -7.11411156 1.61623356
VERTEX2 994 11.10327178 -6.53055204 1.60640756
VERTEX2 995 11.07029735 -5.93882027 1.65373536
VERTEX2 996 11.00955736 -5.33193000 1.68090727
VERTEX2 997 10.96352021 -4.68650611 1.61652729
VERTEX2 998 10.94305353 -4.28337451 1.63841392
VERTEX2 999 10.96956404 -4.30475545 2.35633486
VERTEX2 1000 10.50498913 -3.94467665 2.50500322
VERTEX2 1001 10.06399751 -3.54451263 2.18406564
VERTEX2 1002 9.69604786 -3.07340364 2.27673343
VERTEX2 1003 9.34529482 -2.57517006 2.09711556
VERTEX2 1004 9.00619793 -2.03935106 2.15554009
VERTEX2 1005 8.65254358 -1.54633640 2.21818917
VERTEX2 1006 8.25701076 -1.07004452 2.29582356
VERTEX2 1007 7.84385649 -0.64487475 2.38721336
VERTEX2 1008 7.60851786 -0.43107361 2.54644336
VERTEX2 1009 7.51058770 -0.41639104 3.01885152
VERTEX2 1010 6.94444661 -0.36089696 3.07122979
VERTEX2 1011 6.33175222 -0.32225917 3.02824888
VERTEX2 1012 5.72501648 -0.25978961 3.07029399
VERTEX2 1013 5.08785756 -0.26279948 -3.09810563
VERTEX2 1014 4.47332436 -0.21491842 3.00960753
VERTEX2 1015 3.84691766 -0.17558478 3.09395384
VERTEX2 1016 3.07600434 -0.13783983 3.10060082
VERTEX2 1017 2.49361560 -0.12441448 3.04341906
VERTEX2 1018 1.93822188 -0.06272001 3.05070631
VERTEX2 1019 1.34600971 -0.03807660 3.11019523
VERTEX2 1020 0.73340378 -0.00191980 3.09621728
VERTEX2 1021 0.11500680 0.02741703 3.05561193
VERTEX2 1022 0.06382696 0.03164901 3.04838298
VERTEX2 1023 0.06893045 0.03155439 3.13517470
VERTEX2 1024 -0.55973668 0.03951737 -3.12147837
VERTEX2 1025 -1.19006556 0.00900470 -3.10368628
VERTEX2 1026 -1.35281999 0.00337135 -3.09629045
VERTEX2 1027 -1.33940729 0.00995400 -2.18030764
VERTEX2 1028 -1.35241430 -0.15534990 -1.61719900
VERTEX2 1029 -1.38120659 -0.72033750 -1.63889791
VERTEX2 1030 -1.44474285 -1.33980903 -1.71898295
VERTEX2 1031 -1.55711060 -1.98337916 -1.77281223
VERTEX2 1032 -1.68714729 -2.62706761 -1.76847110
VERTEX2 1033 -1.82997572 -3.26959273 -1.81329491
VERTEX2 1034 -1.87401813 -3.43869448 -2.02662248
VERTEX2 1035 -1.87827393 -3.44229959 -2.64507776
VERTEX2 1036 -1.84773511 -3.45628561 3.06811776
VERTEX2 1037 -2.18833071 -3.32786493 2.83020763
VERTEX2 1038 -2.80012131 -3.20793880 2.92179706
VERTEX2 1039 -3.44293005 -3.04003841 2.89064281
VERTEX2 1040 -3.42103878 -3.04045133 -2.76143374
VERTEX2 1041 -3.39643166 -3.04352382 -1.74275983
VERTEX2 1042 -3.39785702 -3.07410314 -0.75318075
VERTEX2 1043 -3.36750085 -3.10150063 0.21804981
VERTEX2 1044 -3.38143389 -3.11831789 1.21349722
VERTEX2 1045 -3.38448882 -3.12528223 1.09961951
VERTEX2 1046 -3.39387125 -3.13824685 0.71380825
VERTEX2 1047 -3.41120232 -3.14605757 0.15768780
VERTEX2 1048 -3.04671361 -3.21098047 -0.15555685
VERTEX2 1049 -2.39889965 -3.30165542 -0.13855217
VERTEX2 1050 -1.74963637 -3.36460263 -0.06304677
VERTEX2 1051 -1.08923933 -3.43144720 -0.14187632
VERTEX2 1052 -0.46009389 -3.50603736 -0.08857115
VERTEX2 1053 -0.03778409 -3.55607266 -0.14082588
VERTEX2 1054 -0.01089460 -3.55856893 0.62120629
VERTEX2 1055 -0.00619473 -3.53601820 1.66581389
VERTEX2 1056 0.00766872 -3.55658231 2.66905838
VERTEX2 1057 0.03363158 -3.55944300 -2.62339354
VERTEX2 1058 0.02843572 -3.56554132 -1.70132478
VERTEX2 1059 -0.07032225 -4.15427265 -1.78210551
VERTEX2 1060 -0.20606878 -4.78181639 -1.77692457
VERTEX2 1061 -0.31244937 -5.22537464 -1.89924949
VERTEX2 1062 -0.31783481 -5.23364750 -2.46329817
VERTEX2 1063 -0.29762627 -5.22207633 -3.06083840
VERTEX2 1064 -0.57529006 -5.17003528 2.95719820
VERTEX2 1065 -1.16052409 -5.10370749 3.07923203
VERTEX2 1066 -1.72132691 -5.05199284 3.02316719
VERTEX2 1067 -1.70589061 -5.05118024 -2.82735300
VERTEX2 1068 -1.69073462 -5.04052210 -2.15457271
VERTEX2 1069 -1.68852906 -5.03453084 -1.98419952
VERTEX2 1070 -1.68489178 -5.02809008 -2.52316318
VERTEX2 1071 -2.15420492 -5.28298664 -2.65037095
VERTEX2 1072 -2.60176880 -5.51449942 -2.71901641
VERTEX2 1073 -2.57183837 -5.51371164 3.05305899
VERTEX2 1074 -3.10514101 -5.44219469 3.01885456
VERTEX2 1075 -3.68615401 -5.36650062 3.03554034
VERTEX2 1076 -3.70384442 -5.36524756 -2.84340508
VERTEX2 1077 -3.71678242 -5.38975905 -2.03754015
VERTEX2 1078 -3.95432150 -5.99998386 -1.99237399
VERTEX2 1079 -4.18625510 -6.56714552 -1.93024339
VERTEX2 1080 -4.19101578 -6.57994053 -2.41781301
VERTEX2 1081 -4.61759263 -6.87251773 -2.54105502
VERTEX2 1082 -4.78690483 -6.99111232 -2.26042958
VERTEX2 1083 -4.78242017 -7.02493246 -1.22996876
VERTEX2 1084 -4.71051553 -7.06174253 -0.26444185
VERTEX2 1085 -4.71284489 -7.06241476 0.71947993
VERTEX2 1086 -4.35486794 -6.57413947 0.95030659
VERTEX2 1087 -3.97765913 -6.06788251 0.93847494
VERTEX2 1088 -3.62374182 -5.56367623 0.92178002
VERTEX2 1089 -3.56926652 -5.49296828 0.82655228
VERTEX2 1090 -3.55967565 -5.48416083 0.21204249
VERTEX2 1091 -3.01977127 -5.45074530 0.03546181
VERTEX2 1092 -2.40377428 -5.43381556 0.02023712
VERTEX2 1093 -1.83776966 -5.43528710 -0.04493196
VERTEX2 1094 -1.82535444 -5.44705164 -0.44905956
VERTEX2 1095 -1.79521984 -5.47363940 -1.03884768
VERTEX2 1096 -1.79544018 -5.47277497 -1.61013221
VERTEX2 1097 -1.87769507 -5.79671215 -1.82561532
VERTEX2 1098 -2.05327779 -6.39239613 -1.88249538
VERTEX2 1099 -2.25841756 -6.94967798 -1.97866926
VERTEX2 1100 -2.26258850 -6.96024812 -1.61573974
VERTEX2 1101 -2.20381883 -7.22358867 -1.34999303
VERTEX2 1102 -2.20466328 -7.23378653 -1.74386174
VERTEX2 1103 -2.33266631 -7.84514382 -1.77772621
VERTEX2 1104 -2.47199440 -8.48335493 -1.80543553
VERTEX2 1105 -2.62874711 -9.10786966 -1.82330875
VERTEX2 1106 -2.75603257 -9.58743139 -1.84849205
VERTEX2 1107 -2.75537527 -9.59503824 -1.59229852
VERTEX2 1108 -2.72600542 -10.21478744 -1.58463739
VERTEX2 1109 -2.78074217 -10.85334604 -1.68874267
VERTEX2 1110 -2.85792334 -11.46078667 -1.73822854
VERTEX2 1111 -3.03045511 -11.99045435 -1.83944370
VERTEX2 1112 -3.06733532 -12.57182809 -1.49264647
VERTEX2 1113 -3.03424704 -13.21208931 -1.58773253
VERTEX2 1114 -3.04442430 -13.82610491 -1.57045018
VERTEX2 1115 -3.04171824 -14.40650594 -1.58635442
VERTEX2 1116 -3.02986593 -15.05189160 -1.54976376
VERTEX2 1117 -3.02703814 -15.14630251 -1.67712419
VERTEX2 1118 -3.02729098 -15.14676203 -2.28347774
VERTEX2 1119 -3.02534138 -15.14541255 -2.71445848
VERTEX2 1120 -3.59284311 -15.35475000 -2.77834596
VERTEX2 1121 -3.78741089 -15.42399667 -2.89722625
VERTEX2 1122 -3.78461730 -15.42494445 2.83504801
VERTEX2 1123 -4.33609157 -15.24139458 2.85171680
VERTEX2 1124 -4.89599944 -15.11388676 2.95013797
VERTEX2 1125 -5.52391962 -14.98971748 2.96334788
VERTEX2 1126 -5.60666341 -14.97657494 -2.98063530
VERTEX2 1127 -5.60094163 -14.98266744 -1.92476321
VERTEX2 1128 -5.60132685 -14.98456735 -0.93869934
VERTEX2 1129 -5.58436895 -14.99409530 0.07557154
VERTEX2 1130 -4.99877363 -14.93215520 0.08915729
VERTEX2 1131 -4.22629773 -15.06076345 -0.34278217
VERTEX2 1132 -3.61547445 -15.28174917 -0.36246293
VERTEX2 1133 -3.06807434 -15.51337596 -0.40111918
VERTEX2 1134 -2.81590771 -15.62040133 -0.49768323
VERTEX2 1135 -2.81190924 -15.62437846 -1.05282625
VERTEX2 1136 -2.80067363 -15.60115533 -1.61383655
VERTEX2 1137 -2.85134733 -15.87971149 -1.79731731
VERTEX2 1138 -3.00200110 -16.48872453 -1.81318756
VERTEX2 1139 -3.12093830 -16.97707761 -1.88612278
VERTEX2 1140 -3.11165810 -16.95503518 -2.36475086
VERTEX2 1141 -3.09008255 -16.93420241 -2.91175697
VERTEX2 1142 -3.44958582 -16.88990810 3.00740315
VERTEX2 1143 -4.04425591 -16.84128183 3.09697013
VERTEX2 1144 -4.62501077 -16.80499733 3.06654717
VERTEX2 1145 -5.20318620 -16.75751112 3.04125594
VERTEX2 1146 -5.77884152 -16.69841366 3.06115604
VERTEX2 1147 -6.35854708 -16.68644272 3.13401816
VERTEX2 1148 -6.93804296 -16.68158751 -3.13905509
VERTEX2 1149 -6.98238584 -16.68277067 -2.64081117
VERTEX2 1150 -7.07325805 -16.78302860 -1.83097885
VERTEX2 1151 -7.07342341 -16.78282772 -0.82727317
VERTEX2 1152 -7.05494765 -16.78320500 0.22566479
VERTEX2 1153 -7.04042541 -16.77670329 1.23931054
VERTEX2 1154 -7.09750938 -16.46486176 1.78551804
VERTEX2 1155 -7.22726045 -15.84516767 1.73623369
VERTEX2 1156 -7.32150373 -15.24420367 1.74631341
VERTEX2 1157 -7.44545327 -14.67788511 1.85750343
VERTEX2 1158 -7.56859804 -14.08055992 1.72903485
VERTEX2 1159 -7.62671393 -13.48008654 1.63515516
VERTEX2 1160 -7.64694941 -12.84301433 1.49859213
VERTEX2 1161 -7.54534176 -12.21384681 1.40907518
VERTEX2 1162 -7.45205085 -11.58436801 1.46735882
VERTEX2 1163 -7.38769770 -10.94394484 1.46207055
VERTEX2 1164 -7.33814314 -10.30740321 1.54762683
VERTEX2 1165 -7.32591768 -9.77485575 1.52475047
VERTEX2 1166 -7.32517363 -9.77863622 2.01308339
VERTEX2 1167 -7.27445668 -9.76642692 2.95010383
VERTEX2 1168 -7.23099482 -9.74923393 -2.42925992
VERTEX2 1169 -7.23471499 -9.79666360 -1.60735337
VERTEX2 1170 -7.24582047 -10.37870067 -1.60064656
VERTEX2 1171 -7.24668833 -11.00947665 -1.56889563
VERTEX2 1172 -7.25193495 -11.60429835 -1.63133331
VERTEX2 1173 -7.28269938 -12.22383755 -1.62220106
VERTEX2 1174 -7.32732352 -12.84856514 -1.69091715
VERTEX2 1175 -7.41393606 -13.45821544 -1.72432545
VERTEX2 1176 -7.51236630 -14.07787276 -1.76801479
VERTEX2 1177 -7.63290889 -14.68549163 -1.76598154
VERTEX2 1178 -7.76501506 -15.29703010 -1.81320428
VERTEX2 1179 -7.90357252 -15.90044120 -1.78386611
VERTEX2 1180 -7.95815785 -16.15320574 -1.79086041
VERTEX2 1181 -7.95719047 -16.14645855 -0.96344485
VERTEX2 1182 -7.90266535 -16.16041602 -0.25176641
VERTEX2 1183 -7.29028664 -16.31028712 -0.22647783
VERTEX2 1184 -6.65854604 -16.42614187 -0.15698582
VERTEX2 1185 -6.03170259 -16.53757511 -0.18930134
VERTEX2 1186 -5.40123264 -16.63359465 -0.12319436
VERTEX2 1187 -4.74839444 -16.72032351 -0.16037821
VERTEX2 1188 -4.12216469 -16.81142676 -0.14237212
VERTEX2 1189 -3.45005696 -16.92189961 -0.12054279
VERTEX2 1190 -3.10967500 -16.96383970 -0.11237375
VERTEX2 1191 -3.06913119 -16.96299452 0.80844512
VERTEX2 1192 -3.06369450 -16.88471661 1.60657595
VERTEX2 1193 -3.05725689 -16.29051520 1.47478372
VERTEX2 1194 -3.01669949 -15.72157384 1.51704814
VERTEX2 1195 -2.98898844 -15.10355427 1.56963131
VERTEX2 1196 -2.98388671 -14.48139165 1.39712688
VERTEX2 1197 -2.88138194 -13.86684004 1.40852330
VERTEX2 1198 -2.81200988 -13.24085190 1.66762099
VERTEX2 1199 -2.83032832 -12.63042321 1.45319941
VERTEX2 1200 -2.77465045 -12.00133989 1.52243769
VERTEX2 1201 -2.75131713 -11.38301512 1.57850548
VERTEX2 1202 -2.76328420 -10.76244401 1.60169511
VERTEX2 1203 -2.79545123 -10.17515742 1.51206910
VERTEX2 1204 -2.68303387 -9.58331868 1.36563787
VERTEX2 1205 -2.57659854 -9.02054924 1.39550674
VERTEX2 1206 -2.49361026 -8.43251666 1.45682827
VERTEX2 1207 -2.35881547 -7.82249857 1.37084606
VERTEX2 1208 -2.24899444 -7.19911923 1.43565413
VERTEX2 1209 -2.16467680 -6.57943906 1.43384157
VERTEX2 1210 -2.10247652 -5.96424131 1.45455873
VERTEX2 1211 -1.98098818 -5.35707543 1.38101615
VERTEX2 1212 -1.87011495 -4.75003197 1.43032526
VERTEX2 1213 -1.80606140 -4.14033613 1.50281653
VERTEX2 1214 -1.72752625 -3.41868397 1.27904312
VERTEX2 1215 -1.56649647 -2.84017546 1.33721967
VERTEX2 1216 -1.51775997 -2.29059539 1.55335261
VERTEX2 1217 -1.48447174 -1.71395501 1.53316641
VERTEX2 1218 -1.47061811 -1.12733330 1.48245576
VERTEX2 1219 -1.42001092 -0.48183409 1.51301250
VERTEX2 1220 -1.41277327 0.10522374 1.60375050
VERTEX2 1221 -1.41223071 0.10339462 1.15099750
VERTEX2 1222 -1.40224867 0.11310644 0.55369050
VERTEX2 1223 -1.39041360 0.11590242 -0.00593650
VERTEX2 1224 -0.81648244 0.02342967 -0.18884450
VERTEX2 1225 -0.20117357 -0.09019566 -0.17508050
VERTEX2 1226 -0.09631674 -0.10885465 -0.19181150
VERTEX2 1227 -0.09631674 -0.10885465 -0.19247350
