1 71 91 2 1142.44193452 0.00003375 1 
2 131 153 2 509.35565704 0.00000316 1 
3 67 157 2 147.10883483 0.00000503 1 
18 113 209 2 1076.84233703 0.00000268 4 
30 27 253 2 1231.89864695 0.00000254 1 
39 212 268 2 1328.44226742 0.00000281 1 
44 6 283 2 955.72939935 0.00000337 1 
60 244 331 2 4763.86247304 0.00000340 1 
78 224 383 2 1049.96858739 0.00000347 1 
79 253 384 2 3522.40551896 0.00000284 1 
82 222 399 2 599.56143277 0.00000380 1 
84 224 423 2 1346.91928954 0.00000406 1 
87 225 443 2 1158.61811777 0.00000369 1 
90 397 462 2 450.53835515 0.00000379 1 
94 204 483 2 1794.65720618 0.00000420 1 
96 74 485 2 643.12236953 0.00000389 1 
107 425 513 2 521.95623934 0.00000363 1 
119 315 541 2 2651.69902827 0.00000357 1 
120 77 547 2 328.86942556 0.00000334 1 
122 390 560 2 775.52191409 0.00000294 1 
126 76 564 2 2159.63612796 0.00000330 4 
135 503 578 2 3105.22020681 0.00000358 1 
144 261 604 2 399.83098875 0.00000334 5 
145 135 612 2 127.02745380 0.00000405 1 
146 584 612 2 423.16413069 0.00000125 1 
148 136 617 2 1225.03676618 0.00000366 1 
149 74 625 2 23.31550358 0.00000328 1 
153 614 637 2 2022.13850230 0.00000350 4 
158 149 646 2 1625.44886501 0.00000465 1 
159 516 652 2 373.04606729 0.00000430 1 
164 327 664 2 1956.36054110 0.00000658 1 
168 497 675 2 1564.43699474 0.00000294 1 
169 469 676 2 2082.46100361 0.00000360 1 
173 262 683 2 914.39424286 0.00000319 5 
174 140 686 2 2054.88496106 0.00000331 1 
175 500 689 2 2607.28560271 0.00000302 1 
178 667 708 2 1664.48728583 0.00000279 1 
185 731 757 2 2274.71423458 0.00000483 1 
195 74 812 2 382.65584706 0.00000401 1 
196 68 814 2 925.06991473 0.00000460 1 
199 314 827 2 1716.02282091 0.00000673 1 
201 327 835 2 1345.98166786 0.00000424 1 
202 455 840 2 1941.69539081 0.00000366 1 
204 391 849 2 571.09797713 0.00000360 1 
206 838 856 2 1661.68440591 0.00000425 1 
207 378 873 2 62.91164113 0.00000388 1 
208 594 877 2 264.28478329 0.00000548 1 
209 548 877 2 221.12404314 0.00000139 1 
210 617 887 2 1123.32436910 0.00000451 1 
211 480 892 2 173.69541936 0.00000454 1 
212 817 893 2 307.91348627 0.00000358 1 
213 521 894 2 215.11877376 0.00000359 1 
215 329 896 2 1485.35497939 0.00000698 1 
217 193 897 2 499.98665373 0.00000731 10 
220 91 905 2 1563.01054018 0.00000416 1 
223 291 907 2 596.31354146 0.00000393 5 
227 1 925 2 976.17167374 0.00000466 1 
230 908 934 2 1548.83872878 0.00000405 1 
233 295 935 2 4383.36752764 0.00000411 7 
234 117 938 2 636.42190371 0.00000487 1 
238 270 944 2 1168.28104946 0.00000455 5 
241 104 951 2 1673.93893125 0.00000438 1 
245 765 955 2 911.18477201 0.00000450 1 
246 572 957 2 934.78677477 0.00000369 1 
251 641 962 2 4511.95584612 0.00000358 1 
255 753 965 2 2049.33283023 0.00000433 8 
256 578 970 2 1882.70083759 0.00000430 1 
278 467 1008 2 4559.75125789 0.00000462 4 
283 403 1012 2 917.47184307 0.00000496 10 
291 892 1059 2 581.81552966 0.00000552 1 
292 456 1070 2 178.56216589 0.00000522 1 
293 849 1072 2 324.61212853 0.00000534 1 
294 477 1079 2 834.41943581 0.00000545 1 
295 378 1082 2 199.12804377 0.00000532 1 
297 652 1096 2 1173.06298510 0.00000538 1 
298 864 1097 2 236.61555502 0.00000474 1 
299 797 1100 2 1127.97994872 0.00000535 1 
300 932 1103 2 280.51988880 0.00000481 1 
301 401 1105 2 692.11397981 0.00000723 1 
302 982 1109 2 1441.07115165 0.00000606 1 
303 947 1112 2 1074.67501296 0.00000599 1 
304 865 1123 2 301.20049153 0.00000557 1 
305 209 1137 2 304.98011933 0.00000536 1 
307 687 1141 2 3247.95446389 0.00000464 1 
308 432 1146 2 314.30450430 0.00000553 1 
313 286 1152 2 962.53737126 0.00000519 1 
316 545 1161 2 493.86483914 0.00000530 1 
319 220 1166 2 7856.34527729 0.00000560 1 
325 678 1180 2 641.13689010 0.00000502 1 
326 0 1184 2 531.13366260 0.00000471 1 
332 991 1188 2 7750.61324621 0.00000502 4 
333 1033 1190 2 1038.64439158 0.00000501 1 
334 1169 1191 2 181.07025499 0.00000535 1 
335 536 1203 2 256.05964381 0.00000885 1 
336 1078 1203 2 601.97718882 0.00000230 1 
337 746 1207 2 104.34783189 0.00000489 1 
338 631 1207 2 272.76321368 0.00000193 1 
346 779 1212 2 951.87886462 0.00000517 1 
347 16 1216 2 769.94451893 0.00000528 1 
353 655 1219 2 1896.40969732 0.00000492 1 
