1 19 166 0 0.41485034 0.00210745 5 
2 19 172 0 0.02820697 0.00187462 4 
3 25 172 0 0.50366199 0.00188045 4 
4 25 178 0 0.30831851 0.00198404 4 
5 32 178 0 0.01493521 0.00199219 4 
6 32 183 0 0.07055611 0.00201853 4 
7 44 189 0 0.52863102 0.00208482 4 
8 44 195 0 0.35755137 0.00217639 4 
9 50 195 0 0.00572854 0.00220012 4 
10 50 201 0 0.04110605 0.00190318 3 
11 50 203 0 0.06975183 0.00188617 3 
12 61 203 0 0.00745912 0.00190257 3 
13 51 207 2 5302.12420127 0.00000214 1 
14 61 209 0 0.37222863 0.00231639 4 
15 67 209 0 0.41032090 0.00233276 4 
16 189 212 2 3802.65185288 0.00000259 1 
17 67 220 0 0.66144083 0.00250797 4 
18 81 220 0 0.48035877 0.00286093 5 
19 81 226 0 0.05402805 0.00256943 4 
20 87 226 0 1.82553139 0.00294816 5 
21 87 231 0 0.34656585 0.00263242 4 
22 94 231 0 0.55778528 0.00257178 4 
23 226 231 0 1.44127402 0.00298745 5 
24 94 241 0 1.33132047 0.00269306 4 
25 101 241 0 0.50961029 0.00272190 4 
26 101 247 0 1.66454674 0.00276056 4 
27 107 247 0 1.80094617 0.00278999 4 
28 107 254 0 1.18346605 0.00284408 4 
29 114 254 0 0.12939160 0.00287008 4 
30 107 256 0 0.93085039 0.00285565 4 
31 114 256 0 0.24629796 0.00286848 4 
32 107 258 0 1.37911724 0.00290024 4 
33 114 258 0 1.15747212 0.00293565 4 
34 121 266 0 0.00938596 0.00301816 4 
35 126 266 0 0.44864328 0.00355390 5 
36 126 272 0 1.03992836 0.00310305 4 
37 132 272 0 0.39070916 0.00365143 5 
38 132 278 0 0.58358145 0.00317912 4 
39 138 278 0 1.06458780 0.00374036 5 
40 138 284 0 0.02201259 0.00271803 3 
41 151 284 0 0.12777228 0.00329667 4 
42 8 286 2 503.73508279 0.00000247 1 
43 151 291 0 0.60037557 0.00331748 4 
44 151 297 0 0.07972289 0.00285378 3 
45 157 297 0 1.04991834 0.00345366 4 
46 166 297 0 1.30507781 0.00339468 4 
47 19 305 0 0.16044642 0.00357767 4 
48 157 305 0 0.58687353 0.00361172 4 
49 163 305 0 7.56485476 0.00484694 6 
50 166 305 0 0.37495035 0.00360938 4 
51 172 305 0 0.01886255 0.00361745 4 
52 19 315 0 0.48455906 0.00310633 3 
53 25 315 0 0.02281386 0.00311929 3 
54 172 315 0 0.05679715 0.00374024 4 
55 172 328 0 0.12482725 0.00326103 3 
56 173 330 2 425.90442532 0.00000241 1 
57 19 337 0 6.63404991 0.00467321 5 
58 25 337 0 0.96522419 0.00400181 4 
59 172 337 0 0.57611560 0.00334885 3 
60 19 342 0 0.00494520 0.00338362 3 
61 25 342 0 0.12855172 0.00407923 4 
62 172 342 0 0.01223902 0.00412285 4 
63 178 342 0 0.12442988 0.00418634 4 
64 25 367 0 0.11414782 0.00379437 3 
65 32 367 0 0.01267433 0.00596003 6 
66 178 367 0 0.00286807 0.00377104 3 
67 183 367 0 0.06698524 0.00378076 3 
68 25 374 0 0.56424690 0.00460746 4 
69 32 374 0 0.09892849 0.00534445 5 
70 178 374 0 0.03055075 0.00459920 4 
71 183 374 0 0.05309447 0.00457729 4 
72 32 382 0 4.14688582 0.00392822 3 
73 183 382 0 1.28811506 0.00466536 4 
74 32 387 0 2.72468715 0.00475384 4 
75 183 387 0 0.18197642 0.00472973 4 
76 189 414 0 7.69047346 0.00587546 5 
77 44 437 0 0.00915802 0.00439488 3 
78 195 437 0 0.01161094 0.00438987 3 
79 244 439 2 2049.97316779 0.00000351 1 
80 149 444 2 1089.82839463 0.00000299 1 
81 44 454 0 0.65644164 0.00452844 3 
82 189 454 0 0.03962740 0.00544182 4 
83 44 467 0 0.12345281 0.00642760 5 
84 50 467 0 0.00895575 0.01024584 9 
85 195 467 0 0.00230988 0.00464009 3 
86 171 472 2 2029.87223661 0.00000361 1 
87 195 484 0 0.09447226 0.00575206 4 
88 44 494 0 0.02880924 0.00582070 4 
89 50 494 0 0.00628832 0.00482818 3 
90 195 494 0 0.00818961 0.00683922 5 
91 201 494 0 0.00469852 0.00684007 5 
92 50 500 0 0.14406209 0.00694775 5 
93 201 500 0 0.05353930 0.00491509 3 
94 203 500 0 0.03252445 0.00488008 3 
95 159 505 2 1685.79330859 0.00000385 1 
96 61 508 0 0.99413579 0.00712311 5 
97 203 508 0 0.26947301 0.01226319 10 
98 209 508 0 0.03711473 0.00607386 4 
99 61 522 0 1.37942234 0.00615123 4 
100 203 522 0 0.12859200 0.00509781 3 
101 209 522 0 0.00542469 0.00512146 3 
102 289 522 2 2829.03401772 0.00000204 3 
103 61 528 0 0.47936102 0.00513703 3 
104 67 528 0 0.22419307 0.00627627 4 
105 81 528 0 0.23233822 0.00848497 6 
106 209 528 0 0.09444678 0.01066023 8 
107 220 528 0 0.13668760 0.00624395 4 
108 67 532 0 0.05459173 0.01182851 9 
109 81 532 0 0.11826401 0.00849613 6 
110 220 532 0 0.05648169 0.00636146 4 
111 412 535 2 3429.33915354 0.00000302 1 
112 67 556 0 0.98233216 0.00651459 4 
113 67 564 0 0.40168838 0.01235301 9 
114 81 564 0 0.02280941 0.00663973 4 
115 220 564 0 0.02684857 0.00666677 4 
116 67 567 0 2.67253169 0.00782558 5 
117 81 567 0 0.48923871 0.00903002 6 
118 220 567 0 0.21723258 0.00669955 4 
119 67 570 0 2.40706627 0.00912722 6 
120 81 570 0 0.15671702 0.00904033 6 
121 220 570 0 0.13379867 0.00676131 4 
122 81 575 0 2.76594993 0.00793849 5 
123 220 575 0 1.08612706 0.01036457 7 
124 81 588 0 0.01497138 0.00568883 3 
125 87 588 0 0.47937722 0.00820665 5 
126 226 588 0 0.43156268 0.00693225 4 
127 87 597 0 2.27648751 0.00958922 6 
128 94 597 0 0.38888315 0.00702261 4 
129 226 597 0 0.55079633 0.00834147 5 
130 87 604 0 0.47149562 0.00712678 4 
131 94 604 0 0.01542269 0.00842719 5 
132 94 616 0 0.01350372 0.01236933 8 
133 94 632 0 2.16969694 0.00882178 5 
134 94 637 0 4.44236402 0.01010143 6 
135 101 637 0 0.19098383 0.00753218 4 
136 101 642 0 0.11555601 0.00891609 5 
137 107 642 0 0.04025021 0.01412115 9 
138 101 645 0 6.69527511 0.00766297 4 
139 107 645 0 1.54205090 0.00753104 4 
140 101 657 0 0.73548669 0.01673532 10 
141 101 663 0 0.04971914 0.01680865 10 
142 107 663 0 0.01781179 0.00917315 5 
143 114 663 0 0.00275957 0.00918465 5 
144 101 665 0 1.55112265 0.01350115 8 
145 107 665 0 0.47667103 0.00782866 4 
146 114 665 0 0.13329170 0.00650769 3 
147 55 665 2 1378.84922545 0.00000286 3 
148 460 675 2 970.08460230 0.00000278 1 
149 107 680 0 1.48615866 0.00939551 5 
150 107 683 0 0.94462224 0.00805956 4 
151 114 683 0 0.32178225 0.00954708 5 
152 65 696 2 660.61691342 0.00000313 1 
153 107 704 0 0.34268109 0.01266774 7 
154 114 704 0 0.07528002 0.01557569 9 
155 107 714 0 1.79639085 0.01138952 6 
156 114 714 0 0.02860377 0.01443199 8 
157 107 730 0 0.19656714 0.01019235 5 
158 114 730 0 0.03540690 0.00860164 4 
159 706 753 2 448.92430561 0.00000344 1 
160 121 754 0 0.33113739 0.00878262 4 
161 126 754 0 0.07673382 0.01516377 8 
162 101 755 2 1428.19311007 0.00000394 1 
163 121 759 0 2.33625684 0.01201945 6 
164 126 759 0 0.22329988 0.01209413 6 
165 126 762 0 7.08482229 0.01042695 5 
166 132 762 0 2.00372045 0.01540257 8 
167 638 764 2 4209.04774158 0.00000365 1 
168 132 778 0 0.06999780 0.00907191 4 
169 528 786 2 148.50167237 0.00000376 1 
170 132 792 0 1.26802734 0.01110706 4 
171 627 798 2 733.11806793 0.00000413 1 
172 132 800 0 3.35686460 0.00921919 4 
173 138 800 0 0.14494330 0.01258229 6 
174 249 803 2 1131.52485184 0.00000412 1 
175 138 806 0 0.25140739 0.00757766 3 
176 138 821 0 0.40674396 0.01112209 5 
177 138 823 0 6.54725682 0.00942020 4 
178 199 824 2 1597.78387722 0.00000364 1 
179 151 828 0 3.12108818 0.00952267 4 
180 740 837 2 745.86212884 0.00000373 1 
181 194 839 2 879.94000526 0.00000330 1 
182 665 844 2 962.03408223 0.00000387 1 
183 151 847 0 0.08724621 0.01145289 5 
184 151 855 0 0.11494457 0.01514759 7 
185 346 878 2 148.23833698 0.00000320 1 
186 151 895 0 2.80701437 0.01769440 8 
187 747 896 2 620.96650536 0.00000415 1 
188 151 897 0 0.06118057 0.02141364 10 
189 360 898 2 1506.92110169 0.00000406 1 
190 138 903 0 0.08157811 0.01028171 4 
191 138 904 0 7.06392298 0.01406919 6 
192 132 907 0 0.71874717 0.01050052 4 
193 138 907 0 0.22077132 0.01239071 5 
194 159 907 2 614.96946612 0.00000380 5 
195 411 909 2 722.16935890 0.00000408 1 
196 681 910 2 1403.56506916 0.00000360 1 
197 132 911 0 0.23128175 0.01227634 5 
198 112 913 2 2592.90625059 0.00000463 1 
199 481 915 2 1947.23484320 0.00000377 1 
200 265 921 2 1145.91036631 0.00000345 1 
201 121 923 0 0.62636126 0.01435038 6 
202 126 923 0 0.07130653 0.01045903 4 
203 107 929 0 0.07225325 0.01252913 5 
204 114 929 0 0.00477553 0.01063140 4 
205 107 935 0 4.91438615 0.01653638 7 
206 114 935 0 1.40337639 0.01657212 7 
207 482 936 2 505.94670483 0.00000411 1 
208 101 939 0 0.48567419 0.01074126 4 
209 107 939 0 0.21174614 0.01075283 4 
210 101 944 0 0.15377935 0.01280825 5 
211 94 947 0 0.23772432 0.01679851 7 
212 101 947 0 0.16826262 0.01483742 6 
213 87 953 0 0.13504795 0.01093284 4 
214 94 953 0 0.06505521 0.01498352 6 
215 226 953 0 0.08268323 0.02431259 10 
216 33 956 2 1873.48147252 0.00000373 1 
217 292 956 2 2077.70756736 0.00000132 1 
218 831 956 2 2646.51385053 0.00000118 1 
219 81 959 0 1.83528326 0.02438097 10 
220 87 959 0 1.29172246 0.01716736 7 
221 220 959 0 0.04883629 0.01106715 4 
222 226 959 0 0.12130941 0.01312159 5 
223 67 965 0 1.01368609 0.01321486 5 
224 81 965 0 0.31066014 0.01525854 6 
225 220 965 0 0.16483276 0.01936053 8 
226 61 976 0 0.16803746 0.01737708 7 
227 67 976 0 0.05676300 0.00916137 3 
228 209 976 0 0.00780965 0.01125537 4 
229 50 982 0 0.38354811 0.01131837 4 
230 61 982 0 0.27147698 0.01131792 4 
231 201 982 0 0.22200943 0.01136284 4 
232 203 982 0 0.10573284 0.02193443 9 
233 488 987 2 2695.64311415 0.00000452 1 
234 44 988 0 0.09550719 0.01151173 4 
235 50 988 0 0.05924873 0.01150762 4 
236 195 988 0 0.04319526 0.01573821 6 
237 201 988 0 0.02685916 0.01361008 5 
238 44 994 0 0.51683435 0.01792083 7 
239 189 994 0 0.29989154 0.02575450 10 
240 195 994 0 0.21957432 0.01375223 5 
241 32 1003 0 0.23901034 0.01387051 5 
242 178 1003 0 0.03356851 0.02600728 10 
243 183 1003 0 0.01433170 0.01609743 6 
244 6 1005 2 1552.33780439 0.00000541 1 
245 25 1008 0 1.23858172 0.01829678 7 
246 32 1008 0 0.53803958 0.01178691 4 
247 178 1008 0 0.34459610 0.01181171 4 
248 183 1008 0 0.22233868 0.01188221 4 
249 25 1010 0 0.60236133 0.01184419 4 
250 32 1010 0 0.30591807 0.01405209 5 
251 172 1010 0 0.10368354 0.01634987 6 
252 178 1010 0 0.19279072 0.02646694 10 
253 19 1016 0 0.44047719 0.02059774 8 
254 166 1016 0 0.20189646 0.01192944 4 
255 172 1016 0 0.07393216 0.01410498 5 
256 365 1021 2 170.49967060 0.00000535 1 
257 151 1029 0 0.03533130 0.01431421 5 
258 157 1029 0 0.02672450 0.01198714 4 
259 163 1029 0 3.39703566 0.01199832 4 
260 166 1029 0 0.49353449 0.01199424 4 
261 455 1079 2 518.10276194 0.00000600 1 
262 623 1080 2 732.20669988 0.00000513 1 
263 132 1084 0 4.21993706 0.01503574 5 
264 1032 1109 2 883.07241686 0.00000539 1 
265 926 1122 2 397.66973026 0.00000621 1 
266 101 1138 0 0.63021658 0.01576580 5 
267 920 1138 2 1639.40629518 0.00000619 5 
268 107 1147 0 0.73708347 0.01327264 4 
269 114 1147 0 0.03971358 0.01082791 3 
270 107 1150 0 7.45683387 0.01331972 4 
271 114 1150 0 1.00561260 0.01093912 3 
272 114 1158 0 0.16899687 0.01096853 3 
273 121 1158 0 0.69099743 0.01347350 4 
274 121 1164 0 0.45182924 0.01603672 5 
275 126 1164 0 0.04418665 0.01362320 4 
276 985 1171 2 2536.68463090 0.00000511 1 
277 96 1174 2 2118.31767492 0.00000528 1 
278 114 1175 0 0.14266969 0.01367104 4 
279 121 1175 0 0.27324351 0.01370998 4 
280 923 1175 0 0.18719011 0.01372408 4 
281 929 1175 0 0.16073549 0.01369024 4 
282 1158 1175 0 0.00134797 0.01115015 3 
283 408 1185 2 1526.07977121 0.00000566 1 
284 101 1188 0 0.32950319 0.01383682 4 
285 939 1188 0 0.55418798 0.01385316 4 
286 1138 1188 0 0.03006025 0.01136740 3 
287 1147 1188 0 0.04063922 0.01130565 3 
288 1150 1188 0 1.83245351 0.01384440 4 
289 592 1194 2 331.90444027 0.00000538 1 
290 1050 1210 0 0.00345523 0.01409558 4 
291 1061 1210 0 0.57363906 0.01672422 5 
292 1075 1210 0 0.23107861 0.01672973 5 
293 1084 1210 0 3.13555510 0.01673601 5 
294 1088 1210 0 0.59156319 0.01413483 4 
295 1093 1210 0 0.13111230 0.01949978 6 
296 1098 1210 0 0.04730346 0.01418475 4 
297 447 1211 2 1102.99148838 0.00000562 1 
298 157 1217 0 0.32750279 0.01421979 4 
299 163 1217 0 0.19904338 0.01437924 4 
300 1029 1217 0 0.01250493 0.01167072 3 
301 1044 1217 0 3.98258990 0.01436287 4 
302 1050 1217 0 4.97161000 0.01704197 5 
303 596 1225 2 2800.83373307 0.00000632 1 
304 163 297 0 0.27920255 0.01541456 4 
305 189 400 0 2.09679271 0.01473087 4 
306 1056 1217 0 9.66143264 0.01737336 5 
