1 89 98 2 5202.06329381 0.00000334 1 
2 95 147 2 33.82721180 0.00000251 1 
3 19 166 0 0.41485034 0.00209896 5 
4 19 172 0 0.02820697 0.00187057 4 
5 25 172 0 0.50366199 0.00188156 4 
6 57 173 2 799.64823878 0.00000206 1 
7 25 178 0 0.30831851 0.00197882 4 
8 32 178 0 0.01493521 0.00199360 4 
9 32 183 0 0.07055611 0.00201308 4 
10 44 189 0 0.52863102 0.00208355 4 
11 44 195 0 0.35755137 0.00217111 4 
12 50 195 0 0.00572854 0.00219887 4 
13 50 201 0 0.04110605 0.00190867 3 
14 50 203 0 0.06975183 0.00188489 3 
15 61 203 0 0.00745912 0.00190171 3 
16 61 209 0 0.37222863 0.00231932 4 
17 67 209 0 0.41032090 0.00232644 4 
18 67 220 0 0.66144083 0.00250177 4 
19 81 220 0 0.48035877 0.00286751 5 
20 81 226 0 0.05402805 0.00256872 4 
21 87 226 0 1.82553139 0.00294788 5 
22 87 231 0 0.34656585 0.00262917 4 
23 94 231 0 0.55778528 0.00256681 4 
24 226 231 0 1.44127402 0.00298626 5 
25 94 241 0 1.33132047 0.00269543 4 
26 101 241 0 0.50961029 0.00272035 4 
27 101 247 0 1.66454674 0.00276489 4 
28 107 247 0 1.80094617 0.00278659 4 
29 107 254 0 1.18346605 0.00284541 4 
30 114 254 0 0.12939160 0.00286878 4 
31 107 256 0 0.93085039 0.00285497 4 
32 114 256 0 0.24629796 0.00286299 4 
33 107 258 0 1.37911724 0.00290032 4 
34 114 258 0 1.15747212 0.00292989 4 
35 121 266 0 0.00938596 0.00300586 4 
36 126 266 0 0.44864328 0.00355055 5 
37 126 272 0 1.03992836 0.00309725 4 
38 132 272 0 0.39070916 0.00364755 5 
39 132 278 0 0.58358145 0.00318044 4 
40 138 278 0 1.06458780 0.00373443 5 
41 138 284 0 0.02201259 0.00270968 3 
42 151 284 0 0.12777228 0.00329096 4 
43 151 291 0 0.60037557 0.00332091 4 
44 151 297 0 0.07972289 0.00285167 3 
45 157 297 0 1.04991834 0.00344501 4 
46 166 297 0 1.30507781 0.00339278 4 
47 19 305 0 0.16044642 0.00357553 4 
48 157 305 0 0.58687353 0.00361262 4 
49 163 305 0 7.56485476 0.00484689 6 
50 166 305 0 0.37495035 0.00360956 4 
51 172 305 0 0.01886255 0.00360982 4 
52 125 311 2 1239.50395177 0.00000237 1 
53 19 315 0 0.48455906 0.00310786 3 
54 25 315 0 0.02281386 0.00311193 3 
55 172 315 0 0.05679715 0.00373422 4 
56 172 328 0 0.12482725 0.00325526 3 
57 19 337 0 6.63404991 0.00466172 5 
58 25 337 0 0.96522419 0.00400526 4 
59 172 337 0 0.57611560 0.00334053 3 
60 151 340 2 1364.61400269 0.00000236 1 
61 19 342 0 0.00494520 0.00338481 3 
62 25 342 0 0.12855172 0.00407195 4 
63 172 342 0 0.01223902 0.00412026 4 
64 178 342 0 0.12442988 0.00417451 4 
65 157 358 2 631.98973735 0.00000277 1 
66 357 362 2 1208.14535891 0.00000254 1 
67 84 363 2 338.64799864 0.00000282 1 
68 25 367 0 0.11414782 0.00378536 3 
69 32 367 0 0.01267433 0.00596116 6 
70 178 367 0 0.00286807 0.00376644 3 
71 183 367 0 0.06698524 0.00379167 3 
72 25 374 0 0.56424690 0.00460074 4 
73 32 374 0 0.09892849 0.00534497 5 
74 178 374 0 0.03055075 0.00460758 4 
75 183 374 0 0.05309447 0.00457747 4 
76 32 382 0 4.14688582 0.00392694 3 
77 183 382 0 1.28811506 0.00465927 4 
78 32 387 0 2.72468715 0.00473954 4 
79 183 387 0 0.18197642 0.00472491 4 
80 189 414 0 7.69047346 0.00585854 5 
81 163 415 2 144.45325158 0.00000346 1 
82 26 428 2 703.46726924 0.00000295 1 
83 44 437 0 0.00915802 0.00438293 3 
84 195 437 0 0.01161094 0.00437502 3 
85 44 454 0 0.65644164 0.00452193 3 
86 189 454 0 0.03962740 0.00542381 4 
87 236 462 2 141.62906467 0.00000289 1 
88 44 467 0 0.12345281 0.00641699 5 
89 50 467 0 0.00895575 0.01023786 9 
90 195 467 0 0.00230988 0.00463324 3 
91 195 484 0 0.09447226 0.00574002 4 
92 44 494 0 0.02880924 0.00577875 4 
93 50 494 0 0.00628832 0.00482775 3 
94 195 494 0 0.00818961 0.00683305 5 
95 201 494 0 0.00469852 0.00683125 5 
96 50 500 0 0.14406209 0.00700794 5 
97 201 500 0 0.05353930 0.00490408 3 
98 203 500 0 0.03252445 0.00488868 3 
99 183 506 2 1241.48629784 0.00000305 1 
100 61 508 0 0.99413579 0.00713160 5 
101 203 508 0 0.26947301 0.01225747 10 
102 209 508 0 0.03711473 0.00606009 4 
103 61 522 0 1.37942234 0.00614791 4 
104 203 522 0 0.12859200 0.00512146 3 
105 209 522 0 0.00542469 0.00510469 3 
106 61 528 0 0.47936102 0.00513732 3 
107 67 528 0 0.22419307 0.00629181 4 
108 81 528 0 0.23233822 0.00847890 6 
109 209 528 0 0.09444678 0.01063828 8 
110 220 528 0 0.13668760 0.00623562 4 
111 67 532 0 0.05459173 0.01182825 9 
112 81 532 0 0.11826401 0.00848413 6 
113 220 532 0 0.05648169 0.00635310 4 
114 503 533 2 2348.11766938 0.00000258 1 
115 437 537 2 1684.55869073 0.00000224 1 
116 289 538 2 1139.96326990 0.00000216 1 
117 309 539 2 1657.49421049 0.00000249 1 
118 67 556 0 0.98233216 0.00652241 4 
119 67 564 0 0.40168838 0.01233449 9 
120 81 564 0 0.02280941 0.00664347 4 
121 220 564 0 0.02684857 0.00666911 4 
122 67 567 0 2.67253169 0.00781066 5 
123 81 567 0 0.48923871 0.00902190 6 
124 220 567 0 0.21723258 0.00669374 4 
125 67 570 0 2.40706627 0.00910542 6 
126 81 570 0 0.15671702 0.00904554 6 
127 220 570 0 0.13379867 0.00675352 4 
128 81 575 0 2.76594993 0.00795324 5 
129 220 575 0 1.08612706 0.01036533 7 
130 299 581 2 814.49514607 0.00000273 1 
131 81 588 0 0.01497138 0.00568015 3 
132 87 588 0 0.47937722 0.00819202 5 
133 226 588 0 0.43156268 0.00692809 4 
134 87 597 0 2.27648751 0.00957703 6 
135 94 597 0 0.38888315 0.00704838 4 
136 226 597 0 0.55079633 0.00832756 5 
137 87 604 0 0.47149562 0.00712050 4 
138 94 604 0 0.01542269 0.00844109 5 
139 291 609 2 1171.21306206 0.00000243 1 
140 169 610 2 536.49458685 0.00000219 1 
141 95 612 2 270.55439938 0.00000249 1 
142 605 615 2 605.00766203 0.00000230 1 
143 94 616 0 0.01350372 0.01235116 8 
144 94 632 0 2.16969694 0.00881499 5 
145 331 632 2 1199.67642590 0.00000279 5 
146 94 637 0 4.44236402 0.01007679 6 
147 101 637 0 0.19098383 0.00754116 4 
148 101 642 0 0.11555601 0.00906364 5 
149 107 642 0 0.04025021 0.01411076 9 
150 101 645 0 6.69527511 0.00764068 4 
151 107 645 0 1.54205090 0.00753676 4 
152 101 657 0 0.73548669 0.01670386 10 
153 101 663 0 0.04971914 0.01674778 10 
154 107 663 0 0.01781179 0.00916773 5 
155 114 663 0 0.00275957 0.00917701 5 
156 480 663 2 1869.40101452 0.00000298 5 
157 101 665 0 1.55112265 0.01348958 8 
158 107 665 0 0.47667103 0.00782143 4 
159 114 665 0 0.13329170 0.00651951 3 
160 623 668 2 319.41554016 0.00000329 1 
161 107 680 0 1.48615866 0.00938761 5 
162 107 683 0 0.94462224 0.00805835 4 
163 114 683 0 0.32178225 0.00956305 5 
164 24 694 2 111.54707664 0.00000285 1 
165 107 704 0 0.34268109 0.01269533 7 
166 114 704 0 0.07528002 0.01556749 9 
167 426 712 2 1602.63306015 0.00000329 1 
168 107 714 0 1.79639085 0.01137252 6 
169 114 714 0 0.02860377 0.01440789 8 
170 107 730 0 0.19656714 0.01027633 5 
171 114 730 0 0.03540690 0.00857651 4 
172 461 738 2 1893.75946111 0.00000285 1 
173 420 747 2 831.74644298 0.00000315 1 
174 121 754 0 0.33113739 0.00879243 4 
175 126 754 0 0.07673382 0.01532376 8 
176 121 759 0 2.33625684 0.01198934 6 
177 126 759 0 0.22329988 0.01205784 6 
178 126 762 0 7.08482229 0.01041463 5 
179 132 762 0 2.00372045 0.01548296 8 
180 469 763 2 1055.15064033 0.00000346 1 
181 132 778 0 0.06999780 0.00907219 4 
182 132 792 0 1.26802734 0.00934963 4 
183 132 800 0 3.35686460 0.00922705 4 
184 138 800 0 0.14494330 0.01257267 6 
185 138 806 0 0.25140739 0.00754864 3 
186 138 821 0 0.40674396 0.01110271 5 
187 138 823 0 6.54725682 0.00941663 4 
188 805 827 2 8329.06050214 0.00000359 1 
189 151 828 0 3.12108818 0.00949127 4 
190 151 847 0 0.08724621 0.01145105 5 
191 216 851 2 1556.29411248 0.00000381 1 
192 151 855 0 0.11494457 0.01514106 7 
193 139 875 2 296.14632283 0.00000398 1 
194 587 884 2 122.83924193 0.00000320 1 
195 375 887 2 393.69232824 0.00000291 1 
196 557 891 2 484.99685948 0.00000340 1 
197 151 895 0 2.80701437 0.01770664 8 
198 151 897 0 0.06118057 0.02147126 10 
199 138 903 0 0.08157811 0.01030248 4 
200 138 904 0 7.06392298 0.01408074 6 
201 448 905 2 780.01876867 0.00000456 1 
202 132 907 0 0.71874717 0.01041207 4 
203 138 907 0 0.22077132 0.01228125 5 
204 132 911 0 0.23128175 0.01229187 5 
205 121 923 0 0.62636126 0.01452438 6 
206 126 923 0 0.07130653 0.01054180 4 
207 797 928 2 966.16144006 0.00001008 1 
208 107 929 0 0.07225325 0.01260929 5 
209 114 929 0 0.00477553 0.01066839 4 
210 423 931 2 1714.87004685 0.00000418 1 
211 107 935 0 4.91438615 0.01663159 7 
212 114 935 0 1.40337639 0.01665304 7 
213 101 939 0 0.48567419 0.01078327 4 
214 107 939 0 0.21174614 0.01085778 4 
215 808 939 2 944.82254596 0.00000426 4 
216 101 944 0 0.15377935 0.01281675 5 
217 265 946 2 765.05815358 0.00000358 1 
218 94 947 0 0.23772432 0.01688748 7 
219 101 947 0 0.16826262 0.01487174 6 
220 87 953 0 0.13504795 0.01097106 4 
221 94 953 0 0.06505521 0.01501381 6 
222 226 953 0 0.08268323 0.02309154 10 
223 340 953 2 2237.01476236 0.00000418 10 
224 133 955 2 725.98231495 0.00000350 1 
225 81 959 0 1.83528326 0.02447534 10 
226 87 959 0 1.29172246 0.01721276 7 
227 220 959 0 0.04883629 0.01111924 4 
228 226 959 0 0.12130941 0.01314236 5 
229 465 961 2 1531.68497045 0.00000379 1 
230 415 962 2 1864.87998414 0.00000388 1 
231 67 965 0 1.01368609 0.01452672 5 
232 81 965 0 0.31066014 0.01537218 6 
233 220 965 0 0.16483276 0.01944489 8 
234 76 965 2 4559.59954340 0.00000449 8 
235 61 976 0 0.16803746 0.01756083 7 
236 67 976 0 0.05676300 0.00927714 3 
237 209 976 0 0.00780965 0.01134774 4 
238 50 982 0 0.38354811 0.01142952 4 
239 61 982 0 0.27147698 0.01144850 4 
240 201 982 0 0.22200943 0.01144959 4 
241 203 982 0 0.10573284 0.02199180 9 
242 44 988 0 0.09550719 0.01163051 4 
243 50 988 0 0.05924873 0.01157834 4 
244 195 988 0 0.04319526 0.01578914 6 
245 201 988 0 0.02685916 0.01364729 5 
246 44 994 0 0.51683435 0.01799619 7 
247 189 994 0 0.29989154 0.02586085 10 
248 195 994 0 0.21957432 0.01381750 5 
249 32 1003 0 0.23901034 0.01395845 5 
250 178 1003 0 0.03356851 0.02618251 10 
251 183 1003 0 0.01433170 0.01617081 6 
252 163 1003 2 7696.65884998 0.00000426 6 
253 25 1008 0 1.23858172 0.01845893 7 
254 32 1008 0 0.53803958 0.01187776 4 
255 178 1008 0 0.34459610 0.01190318 4 
256 183 1008 0 0.22233868 0.01192544 4 
257 25 1010 0 0.60236133 0.01188991 4 
258 32 1010 0 0.30591807 0.01411390 5 
259 172 1010 0 0.10368354 0.01648605 6 
260 178 1010 0 0.19279072 0.02648855 10 
261 651 1012 2 2623.93130042 0.00000445 10 
262 933 1015 2 2200.27817185 0.00000521 1 
263 822 1015 2 1210.04765892 0.00000223 1 
264 19 1016 0 0.44047719 0.02058332 8 
265 166 1016 0 0.20189646 0.01183003 4 
266 172 1016 0 0.07393216 0.01404387 5 
267 762 1017 2 923.57665323 0.00000530 1 
268 719 1021 2 59.77782685 0.00000492 1 
269 717 1023 2 1006.02603311 0.00000472 1 
270 40 1025 2 1465.60082875 0.00000514 1 
271 151 1029 0 0.03533130 0.01442329 5 
272 157 1029 0 0.02672450 0.01213122 4 
273 163 1029 0 3.39703566 0.01213889 4 
274 166 1029 0 0.49353449 0.01212732 4 
275 314 1036 2 1967.68924521 0.00000550 1 
276 915 1057 2 689.12173617 0.00000464 1 
277 248 1063 2 231.12754801 0.00000483 1 
278 427 1069 2 302.96413254 0.00000462 1 
279 351 1072 2 299.95083329 0.00000513 1 
280 449 1073 2 510.26510601 0.00000544 1 
281 629 1074 2 185.18853646 0.00000538 1 
282 132 1084 0 4.21993706 0.01509398 5 
283 65 1097 2 830.82558951 0.00000529 1 
284 598 1122 2 107.58224764 0.00000572 1 
285 82 1127 2 614.94828499 0.00000532 1 
286 366 1130 2 25.12174304 0.00000429 1 
287 101 1138 0 0.63021658 0.01591039 5 
288 514 1141 2 2219.46182506 0.00000551 1 
289 107 1147 0 0.73708347 0.01343291 4 
290 114 1147 0 0.03971358 0.01097056 3 
291 107 1150 0 7.45683387 0.01349071 4 
292 114 1150 0 1.00561260 0.01099243 3 
293 114 1158 0 0.16899687 0.01104204 3 
294 121 1158 0 0.69099743 0.01369482 4 
295 1046 1161 2 1145.90911813 0.00000642 1 
296 121 1164 0 0.45182924 0.01620381 5 
297 126 1164 0 0.04418665 0.01371161 4 
298 1020 1166 2 1123.58194345 0.00000587 1 
299 114 1175 0 0.14266969 0.01383367 4 
300 121 1175 0 0.27324351 0.01383938 4 
301 923 1175 0 0.18719011 0.01387752 4 
302 929 1175 0 0.16073549 0.01390414 4 
303 1158 1175 0 0.00134797 0.01118428 3 
304 1148 1175 2 2532.88685941 0.00000546 3 
305 16 1183 2 2082.83631688 0.00000572 1 
306 126 1186 2 1298.39897044 0.00000630 1 
307 101 1188 0 0.32950319 0.01398265 4 
308 939 1188 0 0.55418798 0.01398044 4 
309 1138 1188 0 0.03006025 0.01149693 3 
310 1147 1188 0 0.04063922 0.01143003 3 
311 1150 1188 0 1.83245351 0.01404527 4 
312 995 1202 2 443.61346105 0.00000527 1 
313 895 1205 2 712.22750906 0.00000600 1 
314 1050 1210 0 0.00345523 0.01425770 4 
315 1061 1210 0 0.57363906 0.01687880 5 
316 1075 1210 0 0.23107861 0.01688953 5 
317 1084 1210 0 3.13555510 0.01684077 5 
318 1088 1210 0 0.59156319 0.01413715 4 
319 1093 1210 0 0.13111230 0.01940488 6 
320 1098 1210 0 0.04730346 0.01411473 4 
321 157 1217 0 0.32750279 0.01440680 4 
322 163 1217 0 0.19904338 0.01449494 4 
323 1029 1217 0 0.01250493 0.01168709 3 
324 1044 1217 0 3.98258990 0.01437221 4 
325 1050 1217 0 4.97161000 0.01707288 5 
326 49 1220 2 2638.15950932 0.00000510 1 
327 908 1226 2 1079.76513342 0.00000620 1 
328 599 1227 2 2072.42870748 0.00000622 1 
329 163 297 0 0.27920255 0.01526424 4 
330 189 400 0 2.09679271 0.01454413 4 
331 1056 1217 0 9.66143264 0.01728756 5 
