1 19 166 0.16216830 10 
2 19 172 0.00312118 10 
3 25 172 0.00317967 10 
4 25 178 0.00328756 10 
5 32 178 0.00330097 10 
6 32 183 0.00338278 10 
7 44 189 0.00350278 10 
8 44 195 0.00361576 10 
9 50 195 0.00360883 10 
10 50 201 0.00371603 10 
11 50 203 0.00376450 10 
12 61 203 0.00375475 10 
13 61 209 0.00387086 10 
14 67 209 0.00387504 10 
15 67 220 0.00407324 10 
16 81 220 0.00406573 10 
17 81 226 0.00418297 10 
18 87 226 0.00417395 10 
19 87 231 0.00427981 10 
20 94 231 0.00427060 10 
21 226 231 0.00426220 10 
22 94 241 0.00447206 10 
23 101 241 0.00447584 10 
24 101 247 0.00457781 10 
25 107 247 0.00459324 10 
26 107 254 0.00471756 10 
27 114 254 0.00471639 10 
28 107 256 0.00476953 10 
29 114 256 0.00477072 10 
30 107 258 0.00480771 10 
31 114 258 0.00481142 10 
32 121 266 0.00498237 10 
33 126 266 0.00500378 10 
34 126 272 0.00513782 10 
35 132 272 0.00514554 10 
36 132 278 0.00525758 10 
37 138 278 0.00524881 10 
38 138 284 0.00540614 10 
39 151 284 0.00539319 10 
40 151 291 0.00552647 10 
41 151 297 0.00564340 10 
42 157 297 0.00564044 10 
43 163 297 0.00564976 10 
44 166 297 0.00566014 10 
45 19 305 0.00592862 10 
46 157 305 0.00593420 10 
47 163 305 0.00599266 10 
48 166 305 0.00597599 10 
49 172 305 0.00601600 10 
50 19 315 0.00538358 9 
51 25 315 0.00605113 10 
52 172 315 0.00621565 10 
53 172 328 0.00627278 10 
54 19 337 0.00514953 8 
55 25 337 0.00651192 10 
56 172 337 0.00667560 10 
57 19 342 0.00658166 10 
58 25 342 0.00662831 10 
59 172 342 0.00340821 5 
60 178 342 0.00665260 10 
61 25 367 0.00347139 5 
62 32 367 0.00423655 6 
63 178 367 0.00421069 6 
64 183 367 0.00494264 7 
65 25 374 0.00723653 10 
66 32 374 0.00729340 10 
67 178 374 0.00526099 7 
68 183 374 0.00664032 9 
69 32 382 0.00592225 8 
70 183 382 0.00750189 10 
71 32 387 0.00754228 10 
72 183 387 0.00448669 6 
73 189 400 0.00787776 10 
74 189 414 0.00814395 10 
75 44 437 0.00859908 10 
76 195 437 0.00880229 10 
77 44 454 0.00889080 10 
78 189 454 0.00912969 10 
79 44 467 0.00918099 10 
80 50 467 0.00942139 10 
81 195 467 0.00942804 10 
82 195 484 0.00952643 10 
83 44 494 0.00673001 7 
84 50 494 0.00975524 10 
85 195 494 0.00997847 10 
86 201 494 0.01003252 10 
87 50 500 0.00990184 10 
88 201 500 0.01015740 10 
89 203 500 0.01017433 10 
90 61 508 0.01010974 10 
91 203 508 0.01036234 10 
92 209 508 0.01040364 10 
93 61 522 0.01037157 10 
94 203 522 0.01062314 10 
95 209 522 0.01065174 10 
96 61 528 0.01050510 10 
97 67 528 0.01081427 10 
98 81 528 0.01083756 10 
99 209 528 0.01082869 10 
100 220 528 0.01084367 10 
101 134 529 0.01088772 10 
102 67 532 0.00956035 9 
103 81 532 0.01074078 10 
104 220 532 0.01097628 10 
105 67 556 0.01118383 10 
106 439 559 0.01133622 10 
107 67 564 0.01142816 10 
108 81 564 0.01172862 10 
109 220 564 0.01163294 10 
110 67 567 0.01149321 10 
111 81 567 0.01177966 10 
112 220 567 0.01180561 10 
113 67 570 0.01156169 10 
114 81 570 0.01184951 10 
115 220 570 0.01185953 10 
116 81 575 0.01195150 10 
117 220 575 0.01197855 10 
118 81 588 0.01192635 10 
119 87 588 0.01228072 10 
120 226 588 0.01232570 10 
121 87 597 0.01220419 10 
122 94 597 0.01250294 10 
123 226 597 0.01253747 10 
124 87 604 0.01238009 10 
125 94 604 0.01266533 10 
126 94 616 0.00997623 8 
127 481 624 0.01287095 10 
128 94 632 0.01313583 10 
129 94 637 0.01324151 10 
130 101 637 0.01347166 10 
131 101 642 0.01326110 10 
132 107 642 0.01359660 10 
133 101 645 0.01334212 10 
134 107 645 0.01367167 10 
135 101 657 0.01359544 10 
136 101 663 0.01225339 9 
137 107 663 0.01372550 10 
138 114 663 0.01407132 10 
139 101 665 0.01381406 10 
140 107 665 0.01413159 10 
141 114 665 0.01414436 10 
142 107 680 0.01409789 10 
143 107 683 0.01418798 10 
144 114 683 0.01449338 10 
145 107 704 0.01455153 10 
146 114 704 0.01488032 10 
147 107 714 0.01473519 10 
148 114 714 0.01508684 10 
149 107 730 0.01039134 7 
150 114 730 0.01504269 10 
151 183 747 0.01552013 10 
152 121 754 0.01568163 10 
153 126 754 0.01604567 10 
154 121 759 0.01577953 10 
155 126 759 0.01616745 10 
156 126 762 0.01585465 10 
157 132 762 0.01624273 10 
158 132 778 0.01620979 10 
159 132 792 0.01650291 10 
160 132 800 0.01794767 10 
161 138 800 0.01707569 10 
162 138 806 0.01677435 10 
163 138 821 0.01705578 10 
164 138 823 0.01698347 10 
165 151 828 0.01732588 10 
166 151 847 0.01769940 10 
167 151 855 0.01772529 10 
168 151 895 0.01862664 10 
169 151 897 0.01892419 10 
170 138 903 0.01873663 10 
171 138 904 0.01919309 10 
172 132 907 0.01881097 10 
173 138 907 0.01927822 10 
174 132 911 0.01890732 10 
175 121 923 0.01915980 10 
176 126 923 0.01979536 10 
177 107 929 0.01937118 10 
178 114 929 0.01982896 10 
179 107 935 0.01949348 10 
180 114 935 0.01995657 10 
181 101 939 0.01957759 10 
182 107 939 0.02007165 10 
183 101 944 0.01970990 10 
184 94 947 0.01978647 10 
185 101 947 0.02024195 10 
186 87 953 0.02002513 10 
187 94 953 0.02050644 10 
188 226 953 0.02052104 10 
189 81 959 0.02031917 10 
190 87 959 0.02067403 10 
191 220 959 0.02071868 10 
192 226 959 0.02073257 10 
193 67 965 0.02042582 10 
194 81 965 0.02092808 10 
195 220 965 0.02095679 10 
196 61 976 0.02074912 10 
197 67 976 0.02123923 10 
198 209 976 0.02122405 10 
199 50 982 0.02091825 10 
200 61 982 0.02140410 10 
201 201 982 0.02145006 10 
202 203 982 0.02146744 10 
203 44 988 0.02115242 10 
204 50 988 0.02162282 10 
205 195 988 0.02163102 10 
206 201 988 0.01511986 7 
207 44 994 0.02127785 10 
208 189 994 0.02182254 10 
209 195 994 0.02183469 10 
210 32 1003 0.02156422 10 
211 178 1003 0.02209061 10 
212 183 1003 0.02214462 10 
213 25 1008 0.02177250 10 
214 32 1008 0.02228250 10 
215 178 1008 0.02232552 10 
216 183 1008 0.02230343 10 
217 25 1010 0.02184782 10 
218 32 1010 0.02237129 10 
219 172 1010 0.02236607 10 
220 178 1010 0.02238308 10 
221 19 1016 0.02208672 10 
222 166 1016 0.02263426 10 
223 172 1016 0.02024291 9 
224 151 1029 0.02237469 10 
225 157 1029 0.02272748 10 
226 163 1029 0.02276948 10 
227 166 1029 0.02276785 10 
228 132 1084 0.02365565 10 
229 101 1138 0.02470790 10 
230 107 1147 0.02481411 10 
231 114 1147 0.02546360 10 
232 107 1150 0.02493056 10 
233 114 1150 0.02569425 10 
234 114 1158 0.02512376 10 
235 121 1158 0.02579104 10 
236 121 1164 0.02538297 10 
237 126 1164 0.02590122 10 
238 114 1175 0.02552582 10 
239 121 1175 0.02611151 10 
240 923 1175 0.02628804 10 
241 929 1175 0.02621892 10 
242 1158 1175 0.02085209 8 
243 101 1188 0.02585541 10 
244 939 1188 0.02645632 10 
245 1138 1188 0.02652149 10 
246 1147 1188 0.02653522 10 
247 1150 1188 0.02651829 10 
248 660 1198 0.02338335 9 
249 1050 1210 0.02647043 10 
250 1061 1210 0.02714706 10 
251 1075 1210 0.02703078 10 
252 1084 1210 0.02704876 10 
253 1088 1210 0.02708134 10 
254 1093 1210 0.02707478 10 
255 1098 1210 0.02710117 10 
256 157 1217 0.02684970 10 
257 163 1217 0.02740963 10 
258 1029 1217 0.02741440 10 
259 1044 1217 0.02754999 10 
260 1050 1217 0.02753389 10 
261 1056 1217 0.02757592 10 
