1 53 76 0.00034324 3 
2 19 166 0.00289028 10 
3 19 172 0.00301032 10 
4 25 172 0.00329552 10 
5 25 178 0.00318549 10 
6 32 178 0.00320484 10 
7 32 183 0.00330697 10 
8 44 189 0.00341864 10 
9 44 195 0.00356933 10 
10 50 195 0.00355888 10 
11 50 201 0.00367773 10 
12 50 203 0.00371311 10 
13 61 203 0.00372353 10 
14 61 209 0.00382876 10 
15 67 209 0.00383408 10 
16 67 220 0.00403545 10 
17 81 220 0.00406807 10 
18 81 226 0.00419966 10 
19 87 226 0.00421819 10 
20 87 231 0.00431978 10 
21 94 231 0.00433146 10 
22 226 231 0.00433663 10 
23 94 241 0.00454919 10 
24 101 241 0.00454087 10 
25 101 247 0.00467442 10 
26 107 247 0.00465830 10 
27 107 254 0.00479733 10 
28 114 254 0.00479933 10 
29 107 256 0.00485985 10 
30 114 256 0.00485783 10 
31 107 258 0.00489122 10 
32 114 258 0.00491355 10 
33 121 266 0.00501277 10 
34 126 266 0.00508821 10 
35 126 272 0.00520419 10 
36 132 272 0.00525270 10 
37 132 278 0.00531874 10 
38 138 278 0.00533580 10 
39 138 284 0.00545851 10 
40 151 284 0.00547019 10 
41 151 291 0.00559651 10 
42 151 297 0.00570947 10 
43 157 297 0.00571650 10 
44 163 297 0.00571439 10 
45 166 297 0.00572119 10 
46 19 305 0.00601572 10 
47 157 305 0.00602501 10 
48 163 305 0.00607756 10 
49 166 305 0.00605823 10 
50 172 305 0.00611193 10 
51 164 308 0.00617642 10 
52 19 315 0.00630111 10 
53 25 315 0.00635637 10 
54 172 315 0.00635645 10 
55 78 319 0.00644739 10 
56 172 328 0.00662035 10 
57 19 337 0.00682943 10 
58 25 337 0.00683673 10 
59 172 337 0.00685576 10 
60 298 340 0.00694910 10 
61 19 342 0.00702017 10 
62 25 342 0.00702520 10 
63 172 342 0.00702308 10 
64 178 342 0.00704562 10 
65 199 350 0.00723150 10 
66 25 367 0.00756993 10 
67 32 367 0.00758427 10 
68 178 367 0.00760579 10 
69 183 367 0.00761885 10 
70 25 374 0.00775260 10 
71 32 374 0.00776835 10 
72 178 374 0.00777200 10 
73 183 374 0.00778443 10 
74 306 379 0.00798687 10 
75 32 382 0.00806805 10 
76 183 382 0.00807462 10 
77 207 384 0.00818621 10 
78 32 387 0.00826833 10 
79 183 387 0.00830583 10 
80 189 400 0.00862236 10 
81 370 409 0.00880139 10 
82 189 414 0.00892006 10 
83 44 437 0.00918176 10 
84 195 437 0.00933692 10 
85 44 454 0.00750846 8 
86 189 454 0.00753750 8 
87 304 455 0.00958749 10 
88 44 467 0.00683112 7 
89 50 467 0.00785179 8 
90 195 467 0.00286330 3 
91 195 484 0.00502189 5 
92 57 488 0.00625168 6 
93 44 494 0.00523676 5 
94 50 494 0.00624734 6 
95 195 494 0.00524710 5 
96 201 494 0.00744272 7 
97 50 500 0.00859088 8 
98 201 500 0.00859620 8 
99 203 500 0.00640782 6 
100 182 501 0.01080446 10 
101 46 504 0.00540635 5 
102 61 508 0.01105147 10 
103 203 508 0.01122207 10 
104 209 508 0.00884388 8 
105 173 510 0.01115174 10 
106 357 516 0.00900467 8 
107 61 522 0.01149220 10 
108 203 522 0.01176065 10 
109 209 522 0.01176705 10 
110 61 528 0.00927117 8 
111 67 528 0.01178221 10 
112 81 528 0.01207965 10 
113 209 528 0.01200393 10 
114 220 528 0.01179817 10 
115 446 530 0.00831186 7 
116 67 532 0.00714011 6 
117 81 532 0.01207801 10 
118 220 532 0.01229143 10 
119 211 544 0.00606599 5 
120 67 556 0.01259107 10 
121 367 558 0.01132417 9 
122 67 564 0.01280905 10 
123 81 564 0.01045069 8 
124 220 564 0.01278582 10 
125 67 567 0.01292782 10 
126 81 567 0.01321587 10 
127 220 567 0.01323321 10 
128 67 570 0.01301304 10 
129 81 570 0.01330492 10 
130 220 570 0.01331646 10 
131 81 575 0.01342042 10 
132 220 575 0.01342348 10 
133 81 588 0.01339424 10 
134 87 588 0.01380640 10 
135 226 588 0.01580238 10 
136 87 597 0.01372786 10 
137 94 597 0.01402264 10 
138 226 597 0.01403397 10 
139 450 600 0.01389169 10 
140 87 604 0.01400765 10 
141 94 604 0.01434453 10 
142 550 605 0.01411460 10 
143 94 616 0.01281489 9 
144 94 632 0.01466454 10 
145 94 637 0.01473386 10 
146 101 637 0.01507345 10 
147 570 637 0.01519449 10 
148 101 642 0.01487457 10 
149 107 642 0.01523952 10 
150 256 643 0.01506529 10 
151 101 645 0.01514125 10 
152 107 645 0.01548385 10 
153 521 647 0.01541079 10 
154 101 657 0.01561476 10 
155 101 663 0.00930819 6 
156 107 663 0.01564829 10 
157 114 663 0.01245364 8 
158 101 665 0.01573492 10 
159 107 665 0.01606767 10 
160 114 665 0.01606993 10 
161 15 675 0.01602231 10 
162 107 680 0.01612070 10 
163 107 683 0.01618142 10 
164 114 683 0.01652065 10 
165 205 684 0.01652680 10 
166 551 700 0.01685513 10 
167 107 704 0.01696655 10 
168 114 704 0.01732092 10 
169 107 714 0.01713475 10 
170 114 714 0.01570176 9 
171 255 727 0.01043318 6 
172 107 730 0.01224876 7 
173 114 730 0.01767783 10 
174 589 745 0.01788308 10 
175 725 748 0.00881835 5 
176 121 754 0.01816487 10 
177 126 754 0.01850233 10 
178 121 759 0.01821149 10 
179 126 759 0.01860577 10 
180 126 762 0.01828157 10 
181 132 762 0.01871496 10 
182 356 777 0.01882502 10 
183 132 778 0.01142005 6 
184 132 792 0.01953510 10 
185 132 800 0.01988316 10 
186 138 800 0.01970059 10 
187 138 806 0.01986743 10 
188 352 810 0.01973286 10 
189 430 811 0.02013715 10 
190 138 821 0.01405279 7 
191 231 821 0.02041884 10 
192 138 823 0.02033871 10 
193 151 828 0.02087426 10 
194 614 833 0.02083922 10 
195 151 847 0.01682380 8 
196 565 847 0.02126386 10 
197 151 855 0.01483356 7 
198 670 867 0.02199523 10 
199 270 884 0.02264325 10 
200 151 895 0.02253595 10 
201 151 897 0.02285288 10 
202 138 903 0.02269370 10 
203 138 904 0.02271643 10 
204 815 905 0.01383127 6 
205 132 907 0.02320584 10 
206 138 907 0.02367367 10 
207 132 911 0.02330754 10 
208 55 917 0.02362784 10 
209 121 923 0.02357262 10 
210 126 923 0.02441272 10 
211 107 929 0.02386480 10 
212 114 929 0.02445107 10 
213 107 935 0.02396604 10 
214 114 935 0.02444714 10 
215 101 939 0.01908618 8 
216 107 939 0.01669620 7 
217 23 943 0.02446166 10 
218 101 944 0.01746278 7 
219 94 947 0.02459870 10 
220 101 947 0.02510607 10 
221 87 953 0.02497324 10 
222 94 953 0.02536797 10 
223 226 953 0.02529242 10 
224 81 959 0.02475573 10 
225 87 959 0.02525361 10 
226 220 959 0.02526327 10 
227 226 959 0.02547650 10 
228 573 962 0.13590877 10 
229 67 965 0.02532854 10 
230 81 965 0.02583137 10 
231 220 965 0.02586581 10 
232 109 966 0.02607578 10 
233 494 967 0.02646559 10 
234 692 970 0.02571441 10 
235 61 976 0.02597954 10 
236 67 976 0.02644895 10 
237 209 976 0.02659418 10 
238 50 982 0.02639909 10 
239 61 982 0.02685367 10 
240 201 982 0.02709466 10 
241 203 982 0.01872304 7 
242 44 988 0.02641630 10 
243 50 988 0.01617774 6 
244 195 988 0.01567255 6 
245 201 988 0.01303149 5 
246 134 989 0.02654920 10 
247 62 991 0.02661629 10 
248 44 994 0.02667792 10 
249 189 994 0.02719468 10 
250 195 994 0.02723341 10 
251 824 994 0.02904284 10 
252 155 999 0.02830806 10 
253 503 1002 0.02846624 10 
254 32 1003 0.02862837 10 
255 178 1003 0.02888178 10 
256 183 1003 0.02882785 10 
257 320 1005 0.02882715 10 
258 446 1007 0.02872421 10 
259 878 1007 0.02406784 8 
260 25 1008 0.02917222 10 
261 32 1008 0.02979962 10 
262 178 1008 0.02968123 10 
263 183 1008 0.02973070 10 
264 25 1010 0.02924129 10 
265 32 1010 0.02977889 10 
266 172 1010 0.03184814 10 
267 178 1010 0.02975228 10 
268 331 1011 0.02034792 7 
269 19 1016 0.02966018 10 
270 166 1016 0.03033878 10 
271 172 1016 0.02437588 8 
272 151 1029 0.02993637 10 
273 157 1029 0.03025557 10 
274 163 1029 0.03041082 10 
275 166 1029 0.01878836 6 
276 173 1034 0.02965482 10 
277 481 1042 0.03003826 10 
278 233 1043 0.03006379 10 
279 206 1047 0.03023167 10 
280 751 1061 0.03055600 10 
281 937 1065 0.03080702 10 
282 640 1069 0.03094488 10 
283 843 1071 0.02471425 8 
284 349 1078 0.01842788 6 
285 132 1084 0.03137781 10 
286 988 1084 0.03238397 10 
287 409 1085 0.03255659 10 
288 817 1095 0.02542791 8 
289 835 1101 0.02913009 9 
290 97 1121 0.03285332 10 
291 876 1125 0.03307923 10 
292 804 1130 0.03294234 10 
293 101 1138 0.03313589 10 
294 107 1147 0.03325525 10 
295 114 1147 0.03378941 10 
296 107 1150 0.03384434 10 
297 114 1150 0.03383778 10 
298 293 1152 0.03395509 10 
299 680 1157 0.02684584 8 
300 114 1158 0.03389078 10 
301 121 1158 0.03479118 10 
302 121 1164 0.03425475 10 
303 126 1164 0.03448128 10 
304 114 1175 0.03450831 10 
305 121 1175 0.03467292 10 
306 923 1175 0.03484308 10 
307 929 1175 0.03516004 10 
308 1158 1175 0.03514475 10 
309 495 1180 0.03481333 10 
310 101 1188 0.03508478 10 
311 939 1188 0.03588175 10 
312 1138 1188 0.03639498 10 
313 1147 1188 0.03637773 10 
314 1150 1188 0.03640643 10 
315 1050 1210 0.03573016 10 
316 1061 1210 0.03629686 10 
317 1075 1210 0.03700981 10 
318 1084 1210 0.03676207 10 
319 1088 1210 0.03674264 10 
320 1093 1210 0.03676716 10 
321 1098 1210 0.03663948 10 
322 878 1212 0.03558576 10 
323 157 1217 0.03586629 10 
324 163 1217 0.02909245 8 
325 1029 1217 0.03208430 9 
326 1044 1217 0.03666922 10 
327 1050 1217 0.03728519 10 
328 1056 1217 0.03742337 10 
329 412 1217 0.03757877 10 
330 1099 1218 0.03763824 10 
331 395 1220 0.03727153 10 
