VERTEX2 0 0.00002460 0.00000018 -0.00000021
VERTEX2 1 0.00002460 0.00000018 -0.00064221
VERTEX2 2 0.00002459 0.00000018 -0.00118021
VERTEX2 3 0.01102645 -0.00097480 -0.00356221
VERTEX2 4 0.64103301 -0.01120008 -0.00744421
VERTEX2 5 0.69604069 -0.01171558 -0.09872621
VERTEX2 6 0.70029380 -0.01543490 -0.89599821
VERTEX2 7 0.69398107 0.00421359 -1.51153520
VERTEX2 8 0.69928793 0.02669436 -2.12506920
VERTEX2 9 0.71921713 0.04376119 -2.76206737
VERTEX2 10 0.74032607 0.04723357 2.90850822
VERTEX2 11 0.74752557 0.04269377 2.23629362
VERTEX2 12 0.74738358 0.04896347 1.58882357
VERTEX2 13 0.75501795 0.07362657 0.93135646
VERTEX2 14 0.78336509 0.09393078 0.32502529
VERTEX2 15 0.80022367 0.09527237 -0.19818912
VERTEX2 16 1.10118578 0.03767274 -0.21612749
VERTEX2 17 1.71032027 -0.10257422 -0.24660387
VERTEX2 18 2.34187040 -0.25818722 -0.25608059
VERTEX2 19 2.97759477 -0.44786797 -0.30392592
VERTEX2 20 3.56985444 -0.62821794 -0.29795361
VERTEX2 21 4.17572330 -0.77060154 -0.18624041
VERTEX2 22 4.78201431 -0.90189049 -0.16867043
VERTEX2 23 5.42394257 -0.93675078 -0.06117454
VERTEX2 24 6.05857335 -0.99880693 -0.11811720
VERTEX2 25 6.69639268 -1.05721030 -0.11519986
VERTEX2 26 7.30635201 -1.14783173 -0.15556435
VERTEX2 27 7.92311027 -1.22905035 -0.13957377
VERTEX2 28 8.50573541 -1.31801335 -0.14386498
VERTEX2 29 8.88512475 -1.36906773 -0.11293150
VERTEX2 30 8.89389733 -1.37124184 -0.64469555
VERTEX2 31 8.99730262 -1.50509012 -0.91280784
VERTEX2 32 9.37429759 -2.01333555 -0.93118473
VERTEX2 33 9.76473104 -2.51215438 -0.87968592
VERTEX2 34 10.18432046 -2.99393023 -0.85799099
VERTEX2 35 10.61021317 -3.46261069 -0.82378695
VERTEX2 36 11.04267375 -3.93243338 -0.83243025
VERTEX2 37 11.32534676 -4.23577719 -0.82482940
VERTEX2 38 11.31848138 -4.22684607 -1.14666093
VERTEX2 39 11.31456652 -4.21061011 -1.31776859
VERTEX2 40 11.46767052 -4.77143200 -1.30060468
VERTEX2 41 11.62815079 -5.36239700 -1.33246976
VERTEX2 42 11.76056450 -5.91724260 -1.35504973
VERTEX2 43 11.87790557 -6.50392247 -1.39510409
VERTEX2 44 11.97858803 -7.09011752 -1.43192495
VERTEX2 45 12.04635788 -7.70649630 -1.48743573
VERTEX2 46 12.09021258 -8.32528520 -1.50682715
VERTEX2 47 12.12321686 -8.94407441 -1.54851945
VERTEX2 48 12.13277989 -9.56763416 -1.55509174
VERTEX2 49 12.13850081 -10.18719773 -1.60596082
VERTEX2 50 12.09759086 -10.77508123 -1.65050010
VERTEX2 51 12.05527205 -11.36927152 -1.67969143
VERTEX2 52 11.97095238 -11.95049191 -1.75656935
VERTEX2 53 11.88323356 -12.50614947 -1.74437247
VERTEX2 54 11.78077833 -13.01982264 -1.80635352
VERTEX2 55 11.78682819 -12.98757202 -1.80098470
VERTEX2 56 11.78634146 -12.98964402 -1.79031743
VERTEX2 57 11.65526919 -13.61009496 -1.80162788
VERTEX2 58 11.52233226 -14.21543381 -1.75538849
VERTEX2 59 11.40661085 -14.82009499 -1.77896868
VERTEX2 60 11.29021894 -15.42109561 -1.75760183
VERTEX2 61 11.16808334 -16.02263226 -1.80837359
VERTEX2 62 11.03102800 -16.58010264 -1.76848120
VERTEX2 63 10.89231676 -17.14238619 -1.80397699
VERTEX2 64 10.76987664 -17.69917036 -1.74064336
VERTEX2 65 10.64782223 -18.25376649 -1.79216797
VERTEX2 66 10.50746595 -18.83843049 -1.80035521
VERTEX2 67 10.35418888 -19.43189924 -1.79865918
VERTEX2 68 10.25346902 -19.87997050 -1.81441927
VERTEX2 69 10.25678472 -19.86834776 -1.96933598
VERTEX2 70 10.26353010 -19.85478580 -2.64356419
VERTEX2 71 10.28544874 -19.85308530 2.99667611
VERTEX2 72 10.30138780 -19.85463956 2.98712679
VERTEX2 73 10.31135854 -19.85689814 2.92210662
VERTEX2 74 10.31117920 -19.85676940 2.30011811
VERTEX2 75 10.31933649 -19.85978064 1.94764223
VERTEX2 76 10.30574502 -19.84528725 2.64133004
VERTEX2 77 10.30265887 -19.84405474 2.87418445
VERTEX2 78 10.02623619 -19.85963003 -3.07195882
VERTEX2 79 9.41378961 -19.90907747 -3.07726116
VERTEX2 80 8.77842942 -19.92013288 3.13177256
VERTEX2 81 8.15101351 -19.90606560 3.10605229
VERTEX2 82 7.55326603 -19.87647407 3.05175755
VERTEX2 83 6.96619456 -19.83599994 3.02809821
VERTEX2 84 6.40404980 -19.76042777 2.95014617
VERTEX2 85 5.86088150 -19.66625210 2.95734485
VERTEX2 86 5.25052231 -19.55608873 2.86755079
VERTEX2 87 4.87126200 -19.46168411 2.81412559
VERTEX2 88 4.51373172 -19.33623269 2.78401642
VERTEX2 89 4.52362007 -19.33655384 -3.10411367
VERTEX2 90 3.91787132 -19.35017594 -3.13555482
VERTEX2 91 3.30129454 -19.35614106 -3.08685656
VERTEX2 92 2.70941290 -19.36036783 3.08062461
VERTEX2 93 2.09170992 -19.26725749 2.97981976
VERTEX2 94 1.47281534 -19.13843598 2.93714257
VERTEX2 95 0.85752821 -19.06065726 3.07954591
VERTEX2 96 0.25097727 -19.01865564 3.10359908
VERTEX2 97 -0.33553583 -18.96461119 3.03299931
VERTEX2 98 -0.92174544 -18.87275207 2.97505154
VERTEX2 99 -1.62965699 -18.75942755 3.02181180
VERTEX2 100 -2.19672374 -18.66018577 2.97001022
VERTEX2 101 -2.81030341 -18.61308614 3.07316847
VERTEX2 102 -3.41850300 -18.54320614 2.96707814
VERTEX2 103 -4.02500079 -18.43850568 3.06251216
VERTEX2 104 -4.63572610 -18.37175615 3.02843973
VERTEX2 105 -5.24659114 -18.31653193 3.07452536
VERTEX2 106 -5.85615704 -18.25385797 3.02050713
VERTEX2 107 -6.48137766 -18.16602451 3.01740102
VERTEX2 108 -6.93594698 -18.12397981 3.07903977
VERTEX2 109 -6.98156313 -18.11314994 2.63067364
VERTEX2 110 -7.00061668 -18.09402356 2.03950260
VERTEX2 111 -7.00201122 -18.01410024 1.53351145
VERTEX2 112 -6.98768660 -17.38074574 1.58786470
VERTEX2 113 -7.01523409 -16.75970603 1.63483188
VERTEX2 114 -7.05735137 -16.14737262 1.67155956
VERTEX2 115 -7.13959949 -15.51042181 1.73199097
VERTEX2 116 -7.26893293 -14.76404209 1.77627673
VERTEX2 117 -7.41318433 -14.15847222 1.87208923
VERTEX2 118 -7.41746360 -14.14065677 1.53792047
VERTEX2 119 -7.37055022 -13.62310258 1.48494416
VERTEX2 120 -7.32935967 -12.96762460 1.57551098
VERTEX2 121 -7.35103682 -12.35081293 1.64347934
VERTEX2 122 -7.39600889 -11.77183410 1.69976863
VERTEX2 123 -7.42399770 -11.59517913 1.68705972
VERTEX2 124 -7.34323548 -11.35680038 1.26425575
VERTEX2 125 -7.13917745 -10.76205714 1.25339577
VERTEX2 126 -7.01966018 -10.14603528 1.46008805
VERTEX2 127 -6.93635461 -9.51360665 1.45872386
VERTEX2 128 -6.87543344 -8.87714542 1.49535380
VERTEX2 129 -6.80377835 -8.24452260 1.46287379
VERTEX2 130 -6.75097060 -7.61394518 1.51568906
VERTEX2 131 -6.71979391 -6.98921410 1.60426893
VERTEX2 132 -6.71635115 -6.37406762 1.55471111
VERTEX2 133 -6.68252137 -5.81003047 1.51793333
VERTEX2 134 -6.64244012 -5.21702180 1.49974422
VERTEX2 135 -6.57412618 -4.64408325 1.47352618
VERTEX2 136 -6.51485084 -4.01437356 1.49314082
VERTEX2 137 -6.43335269 -3.38667522 1.45124167
VERTEX2 138 -6.37235121 -2.76049858 1.53132685
VERTEX2 139 -6.37018028 -2.13584960 1.59661567
VERTEX2 140 -6.41331311 -1.48575899 1.62710550
VERTEX2 141 -6.43386983 -0.85062922 1.57861614
VERTEX2 142 -6.44896689 -0.20571322 1.57471852
VERTEX2 143 -6.38299089 0.42961111 1.46406160
VERTEX2 144 -6.35207704 0.79701279 1.48150165
VERTEX2 145 -6.34854153 0.80857839 0.98288208
VERTEX2 146 -6.34801864 0.81158913 0.38940455
VERTEX2 147 -6.29561260 0.80912060 -0.09745393
VERTEX2 148 -5.86597803 0.75921693 -0.13326263
VERTEX2 149 -5.22673141 0.68022448 -0.10830609
VERTEX2 150 -4.59473559 0.63015983 -0.09428538
VERTEX2 151 -3.95760035 0.59716811 -0.00877060
VERTEX2 152 -3.33365650 0.57519920 -0.06986251
VERTEX2 153 -2.71017567 0.55569952 0.02342155
VERTEX2 154 -2.09103045 0.54793827 -0.04619213
VERTEX2 155 -1.46753357 0.52777421 -0.01276415
VERTEX2 156 -0.84256046 0.52671186 0.01803515
VERTEX2 157 -0.28108678 0.52104723 -0.04621257
VERTEX2 158 -0.08720919 0.51165132 -0.01911957
VERTEX2 159 -0.08401234 0.51069415 0.96659796
VERTEX2 160 -0.07571238 0.52482469 2.00057260
VERTEX2 161 -0.10413050 0.44585196 2.72636687
VERTEX2 162 -0.07589459 0.45276383 -2.52113892
VERTEX2 163 -0.07523698 0.45633982 -1.52448226
VERTEX2 164 -0.14983850 0.54586639 -0.46294129
VERTEX2 165 0.01795818 0.53190732 -0.05513743
VERTEX2 166 0.70974169 0.50002488 -0.05340914
VERTEX2 167 1.32368981 0.45911038 -0.08286253
VERTEX2 168 1.90911947 0.41877345 -0.07090960
VERTEX2 169 2.50256906 0.35625621 -0.10784960
VERTEX2 170 3.08717420 0.29683745 -0.12846383
VERTEX2 171 3.64831522 0.20699431 -0.16669854
VERTEX2 172 4.27321503 0.10892387 -0.15253535
VERTEX2 173 4.90190028 -0.00170039 -0.17544506
VERTEX2 174 5.52663921 -0.10601769 -0.13537348
VERTEX2 175 6.14175724 -0.18641488 -0.16010110
VERTEX2 176 6.74094538 -0.29710488 -0.15048833
VERTEX2 177 7.36428106 -0.38978841 -0.17788777
VERTEX2 178 7.98654755 -0.52539087 -0.21662915
VERTEX2 179 8.38951102 -0.60224336 -0.16301896
VERTEX2 180 8.43852851 -0.61454919 -0.60454325
VERTEX2 181 8.88502500 -0.92557428 -0.65625172
VERTEX2 182 9.29795315 -1.27891921 -0.83019567
VERTEX2 183 9.65227916 -1.69382128 -0.88749264
VERTEX2 184 9.98947861 -2.18407911 -1.03312810
VERTEX2 185 10.27840173 -2.70602073 -1.12488319
VERTEX2 186 10.50710270 -3.26674886 -1.19044022
VERTEX2 187 10.71155420 -3.80597102 -1.21230344
VERTEX2 188 10.92645098 -4.37222205 -1.21657639
VERTEX2 189 11.13459008 -4.94253366 -1.24211310
VERTEX2 190 11.33423556 -5.55497946 -1.27038292
VERTEX2 191 11.52370710 -6.16715977 -1.29393668
VERTEX2 192 11.68943148 -6.75594879 -1.32250109
VERTEX2 193 11.82195651 -7.29062747 -1.37853654
VERTEX2 194 11.93156831 -7.84653727 -1.40559029
VERTEX2 195 12.02172050 -8.39786291 -1.43448625
VERTEX2 196 12.10106477 -9.01981260 -1.47529183
VERTEX2 197 12.15166006 -9.63822684 -1.50281315
VERTEX2 198 12.18947892 -10.25426373 -1.56104153
VERTEX2 199 12.17396424 -10.86067114 -1.62251892
VERTEX2 200 12.13936370 -11.46221524 -1.64445775
VERTEX2 201 12.08106439 -12.06069983 -1.70119120
VERTEX2 202 12.02801824 -12.56334982 -1.68098331
VERTEX2 203 11.94199644 -13.29540336 -1.73370494
VERTEX2 204 11.83320126 -13.86707964 -1.83609753
VERTEX2 205 11.67608740 -14.42959519 -1.84531021
VERTEX2 206 11.53383262 -14.97697009 -1.84319385
VERTEX2 207 11.38640030 -15.54420170 -1.82706170
VERTEX2 208 11.22617634 -16.14433136 -1.83634368
VERTEX2 209 11.07721481 -16.74583399 -1.79800074
VERTEX2 210 10.92689068 -17.33849882 -1.80660467
VERTEX2 211 10.79076730 -17.93525421 -1.80436245
VERTEX2 212 10.62697359 -18.52214092 -1.85724018
VERTEX2 213 10.44472403 -19.11310517 -1.87804566
VERTEX2 214 10.25738690 -19.69058021 -1.88188427
VERTEX2 215 10.14973969 -20.01250759 -1.91771439
VERTEX2 216 10.16271961 -19.98922083 -2.41645242
VERTEX2 217 10.19022871 -19.98571021 -2.95871052
VERTEX2 218 10.20010245 -19.98927123 -3.01477604
VERTEX2 219 9.63448807 -19.95658902 3.09986545
VERTEX2 220 9.02618665 -19.92466064 3.05997490
VERTEX2 221 8.39248419 -19.87108116 3.11029381
VERTEX2 222 7.76867382 -19.84069036 3.08454740
VERTEX2 223 7.14474045 -19.82344445 -3.10249833
VERTEX2 224 6.53359639 -19.83582578 -3.12842939
VERTEX2 225 5.91858640 -19.84188747 -3.07885764
VERTEX2 226 5.30446703 -19.84711573 -3.12805717
VERTEX2 227 4.66212882 -19.92891964 -2.97150039
VERTEX2 228 4.14055262 -19.92376457 2.94995520
VERTEX2 229 3.70245244 -19.89625840 3.07014612
VERTEX2 230 3.41387533 -19.88602120 3.04127054
VERTEX2 231 3.61626170 -19.89989165 3.11112773
VERTEX2 232 3.30369682 -19.76620154 2.68509993
VERTEX2 233 2.73472753 -19.51502738 2.78736375
VERTEX2 234 2.15479165 -19.29822769 2.74319270
VERTEX2 235 1.90321957 -19.19483141 2.73820626
VERTEX2 236 1.57296632 -19.20185227 -3.13995695
VERTEX2 237 0.94899778 -19.22733678 -3.06973169
VERTEX2 238 0.33346171 -19.28592066 -3.10260597
VERTEX2 239 -0.27944088 -19.29323499 3.11281530
VERTEX2 240 -0.84836158 -19.18519795 2.89455183
VERTEX2 241 -1.38777255 -19.06315964 2.97986170
VERTEX2 242 -1.96058349 -19.00731036 3.01925332
VERTEX2 243 -2.56049593 -18.93370228 3.01849972
VERTEX2 244 -3.18317899 -18.89785610 3.08977349
VERTEX2 245 -3.79670883 -18.85874755 3.03554426
VERTEX2 246 -4.39850173 -18.78220108 2.96316915
VERTEX2 247 -5.00169222 -18.70947128 3.06912200
VERTEX2 248 -5.55602775 -18.69665359 3.10051547
VERTEX2 249 -5.50688353 -18.70325393 -2.98975274
VERTEX2 250 -5.50294739 -18.70306822 2.70649912
VERTEX2 251 -5.83071477 -18.36804543 2.28316777
VERTEX2 252 -6.19334186 -17.95365764 2.29171279
VERTEX2 253 -6.57254961 -17.51385280 2.28075692
VERTEX2 254 -6.94548355 -17.06168871 2.23960175
VERTEX2 255 -7.02019931 -16.96992992 2.32347743
VERTEX2 256 -7.02451501 -16.89135762 1.84764356
VERTEX2 257 -7.08336073 -16.43409613 1.71213273
VERTEX2 258 -7.17653065 -15.84637017 1.79265800
VERTEX2 259 -7.32905675 -15.24669556 1.83373500
VERTEX2 260 -7.47139697 -14.69124502 1.82582490
VERTEX2 261 -7.46982338 -14.65492430 1.51520192
VERTEX2 262 -7.41847001 -14.00409858 1.52215297
VERTEX2 263 -7.38761179 -13.38713752 1.53591144
VERTEX2 264 -7.38385644 -12.78409371 1.63332444
VERTEX2 265 -7.42670050 -12.18291300 1.65380214
VERTEX2 266 -7.38992066 -11.60553808 1.52503027
VERTEX2 267 -7.35360053 -10.85706412 1.49576963
VERTEX2 268 -7.23380858 -10.25361396 1.38578572
VERTEX2 269 -7.12660700 -9.63959791 1.41576089
VERTEX2 270 -7.06720479 -9.01584313 1.52986780
VERTEX2 271 -6.98481931 -8.39339739 1.41944177
VERTEX2 272 -6.91212567 -7.76641593 1.48466231
VERTEX2 273 -6.93432211 -7.14536889 1.69733120
VERTEX2 274 -7.01503232 -6.53113528 1.72132713
VERTEX2 275 -7.01573770 -5.92584258 1.54984625
VERTEX2 276 -7.02155299 -5.32147955 1.66431566
VERTEX2 277 -7.07994943 -4.75976351 1.63869699
VERTEX2 278 -7.05010310 -4.12267419 1.54989027
VERTEX2 279 -7.02384247 -3.48811338 1.49465104
VERTEX2 280 -6.96937978 -2.85901467 1.49677756
VERTEX2 281 -6.89277748 -2.22813528 1.39639078
VERTEX2 282 -6.78712508 -1.60376892 1.43628223
VERTEX2 283 -6.71416250 -0.97287260 1.42845959
VERTEX2 284 -6.61621860 -0.35253101 1.45560863
VERTEX2 285 -6.56273484 0.29319991 1.47618967
VERTEX2 286 -6.50889332 0.91107266 1.52923324
VERTEX2 287 -6.50716804 0.95780746 1.42420623
VERTEX2 288 -6.50538472 0.96106862 0.81598338
VERTEX2 289 -6.50462382 0.96135846 0.22293219
VERTEX2 290 -6.06450629 0.96039881 -0.00192485
VERTEX2 291 -5.44210450 0.96356214 0.01199859
VERTEX2 292 -4.82946064 0.95399003 -0.04290747
VERTEX2 293 -4.20718844 0.91893786 -0.06617226
VERTEX2 294 -3.58819269 0.87668788 -0.06563905
VERTEX2 295 -2.96740315 0.80625258 -0.17826037
VERTEX2 296 -2.34907747 0.67111451 -0.22372924
VERTEX2 297 -1.73266266 0.52894140 -0.23544519
VERTEX2 298 -1.11634729 0.38224168 -0.23610487
VERTEX2 299 -0.54147460 0.23421185 -0.17530755
VERTEX2 300 0.04136297 0.15716471 -0.13342380
VERTEX2 301 0.60074386 0.06577152 -0.19282135
VERTEX2 302 0.90026346 0.00568951 -0.21389365
VERTEX2 303 0.88202097 0.00841050 -0.20983189
VERTEX2 304 1.38358407 -0.10037443 -0.20030989
VERTEX2 305 1.99561418 -0.13662765 -0.01641305
VERTEX2 306 2.61880274 -0.13827627 -0.03485287
VERTEX2 307 3.25264321 -0.17692689 -0.07192601
VERTEX2 308 3.88156207 -0.23150637 -0.12772806
VERTEX2 309 4.51772107 -0.28350780 -0.03501289
VERTEX2 310 5.14578856 -0.30522968 -0.07106614
VERTEX2 311 5.42755632 -0.32746108 0.10378307
VERTEX2 312 5.42118228 -0.33098429 1.09103553
VERTEX2 313 5.42264828 -0.11601941 1.58715732
VERTEX2 314 5.39410887 0.50818036 1.62714070
VERTEX2 315 5.35598125 1.14213753 1.62303454
VERTEX2 316 5.30630713 1.78681699 1.67439027
VERTEX2 317 5.23503111 2.43074502 1.68443103
VERTEX2 318 5.12606931 3.06925508 1.77910022
VERTEX2 319 5.04032597 3.41774288 1.85058349
VERTEX2 320 5.04348644 3.42811577 2.81962066
VERTEX2 321 5.03544568 3.42449026 -2.42444412
VERTEX2 322 5.03380480 3.42098764 -1.42878850
VERTEX2 323 5.04627313 3.40936838 -0.43692002
VERTEX2 324 5.05236220 3.40749117 0.22254976
VERTEX2 325 5.05447798 3.40769309 -0.30546955
VERTEX2 326 5.07184738 3.39508540 -0.90105842
VERTEX2 327 5.07605701 3.37674615 -1.52482221
VERTEX2 328 5.07075030 2.73632737 -1.57152070
VERTEX2 329 5.05980811 2.10812978 -1.62770402
VERTEX2 330 5.01640613 1.49105578 -1.64798250
VERTEX2 331 4.97214081 0.87267607 -1.66355151
VERTEX2 332 4.90334249 0.25857895 -1.68352561
VERTEX2 333 4.88435987 0.10443481 -1.62004206
VERTEX2 334 4.88138493 0.10341282 -0.82841602
VERTEX2 335 4.89790364 0.09880915 0.16264017
VERTEX2 336 4.91046739 0.10344457 1.10384880
VERTEX2 337 4.91550352 0.13830642 2.08266931
VERTEX2 338 4.91245169 0.14035398 3.07215435
VERTEX2 339 4.92343212 0.14741233 -2.16109890
VERTEX2 340 4.92369752 0.14567897 -1.14130324
VERTEX2 341 5.03793237 0.07915936 -0.50757730
VERTEX2 342 5.61553126 -0.21649468 -0.40548292
VERTEX2 343 6.19338712 -0.40791958 -0.27399704
VERTEX2 344 6.78139648 -0.58112228 -0.28348002
VERTEX2 345 7.01689194 -0.64655293 -0.31038690
VERTEX2 346 6.99949425 -0.64115160 -0.95618929
VERTEX2 347 7.00355419 -0.73567772 -1.51355054
VERTEX2 348 7.03050811 -1.33209637 -1.52969570
VERTEX2 349 7.03752648 -1.95794728 -1.56934263
VERTEX2 350 7.03593964 -2.75261995 -1.58838345
VERTEX2 351 7.02556907 -3.03324807 -1.61674765
VERTEX2 352 7.02245586 -3.04930964 -1.90358436
VERTEX2 353 7.00543992 -3.07084722 -2.56655020
VERTEX2 354 6.98406146 -3.07733045 3.11552453
VERTEX2 355 6.95750949 -3.07694936 2.39716594
VERTEX2 356 6.95126415 -3.06630356 1.82427542
VERTEX2 357 6.95439855 -3.04554183 1.17380029
VERTEX2 358 6.95926903 -3.03839810 0.56082526
VERTEX2 359 6.95430836 -3.04062436 -0.05072577
VERTEX2 360 6.94479493 -3.03890214 -0.22571333
VERTEX2 361 6.94347053 -3.03929030 0.69717655
VERTEX2 362 7.02671943 -2.80116356 1.23311573
VERTEX2 363 7.12707591 -2.52548084 1.22756456
VERTEX2 364 7.05158541 -2.18749995 1.84451433
VERTEX2 365 6.99061631 -1.89621549 1.34939643
VERTEX2 366 7.10191817 -1.76579847 0.79742153
VERTEX2 367 7.54542337 -1.31777499 0.80034718
VERTEX2 368 7.99237215 -0.87560123 0.75227200
VERTEX2 369 8.00986625 -0.85372985 0.50023002
VERTEX2 370 8.03314485 -0.84961375 -0.08693625
VERTEX2 371 8.04069635 -0.85336364 -0.63276717
VERTEX2 372 8.47659191 -1.19654404 -0.66055274
VERTEX2 373 8.95355658 -1.55227283 -0.65771428
VERTEX2 374 9.43751752 -1.94529510 -0.71792064
VERTEX2 375 9.80786131 -2.26362884 -0.74796269
VERTEX2 376 9.82387880 -2.27300111 -0.05291902
VERTEX2 377 9.87271600 -2.23669830 0.64077291
VERTEX2 378 10.39864871 -1.82807720 0.69386164
VERTEX2 379 10.86827402 -1.38804144 0.77751400
VERTEX2 380 11.29750582 -0.91242459 0.89563457
VERTEX2 381 11.43954840 -0.72942357 1.04425454
VERTEX2 382 11.44302930 -0.72284855 2.08904034
VERTEX2 383 11.44531509 -0.72421098 3.07559612
VERTEX2 384 11.44596508 -0.72355128 -2.24415128
VERTEX2 385 11.44252804 -0.72958378 -1.21437472
VERTEX2 386 11.55188611 -0.86585450 -0.98955057
VERTEX2 387 12.02046486 -1.28203622 -0.65764230
VERTEX2 388 12.53227781 -1.65992302 -0.64797117
VERTEX2 389 13.01848838 -2.05817424 -0.72954249
VERTEX2 390 13.07094528 -2.10332951 -0.25319367
VERTEX2 391 12.93497621 -2.10202580 0.12774896
VERTEX2 392 12.93419786 -2.10207578 1.17097682
VERTEX2 393 12.95440993 -1.91638640 2.06272432
VERTEX2 394 12.94728092 -1.91066199 3.05697109
VERTEX2 395 13.18909165 -1.86077466 -2.88854480
VERTEX2 396 13.19131299 -1.86015606 -2.88836919
VERTEX2 397 13.19163053 -1.86017256 -2.89910269
VERTEX2 398 13.18712834 -1.86222046 -2.70227899
VERTEX2 399 13.09120578 -1.94141649 -2.40421786
VERTEX2 400 12.60831346 -2.38407578 -2.35451767
VERTEX2 401 12.15592106 -2.80365930 -2.44722506
VERTEX2 402 11.61290896 -3.10553666 -2.71476362
VERTEX2 403 11.05179975 -3.35497826 -2.74916144
VERTEX2 404 10.51564687 -3.55918800 -2.82861547
VERTEX2 405 10.52998150 -3.55185190 -2.29561517
VERTEX2 406 10.53272449 -3.53256551 -1.31878500
VERTEX2 407 10.66103347 -3.86616939 -1.19132615
VERTEX2 408 10.88170872 -4.43517116 -1.23011291
VERTEX2 409 10.97113917 -4.71132941 -1.33067637
VERTEX2 410 10.97121128 -4.70127687 -1.96068494
VERTEX2 411 10.98190244 -4.68114471 -2.55202291
VERTEX2 412 10.49287522 -4.89078998 -2.75621800
VERTEX2 413 9.92149151 -5.10070670 -2.83680902
VERTEX2 414 9.34452646 -5.30044316 -2.73415995
VERTEX2 415 8.74529947 -5.55228272 -2.72613171
VERTEX2 416 8.46066737 -5.68719549 -2.78026085
VERTEX2 417 8.17931942 -5.67889882 3.08038117
VERTEX2 418 7.75188990 -5.64829198 3.03618324
VERTEX2 419 7.75839466 -5.64663248 -2.81417680
VERTEX2 420 7.80967763 -5.62220857 -2.59667848
VERTEX2 421 7.80317556 -5.63337339 -1.62540884
VERTEX2 422 7.79084943 -5.65178022 -0.38150461
VERTEX2 423 7.80561081 -5.65271764 -0.03424612
VERTEX2 424 7.81418993 -5.65400674 -0.03279503
VERTEX2 425 7.80228173 -5.66124735 -0.01996099
VERTEX2 426 7.80590616 -5.66170117 -0.02830401
VERTEX2 427 7.84209264 -5.66239559 -0.02441155
VERTEX2 428 8.50813021 -5.66202001 -0.02915880
VERTEX2 429 9.14920118 -5.68942660 -0.07034754
VERTEX2 430 9.48545572 -5.71840741 -0.11664352
VERTEX2 431 9.45651375 -5.71586358 -0.06492953
VERTEX2 432 9.46188011 -5.71757226 -0.69746053
VERTEX2 433 9.46280218 -5.71876627 -1.37562608
VERTEX2 434 9.44064001 -6.25141836 -1.60425869
VERTEX2 435 9.42483229 -6.88769177 -1.63285460
VERTEX2 436 9.36324699 -7.52254324 -1.64189855
VERTEX2 437 9.32687958 -8.16643995 -1.63419610
VERTEX2 438 9.28592345 -8.63725883 -1.66400733
VERTEX2 439 9.28406057 -8.64498005 -2.09846753
VERTEX2 440 9.28998006 -8.64011042 -2.73956219
VERTEX2 441 9.31439950 -8.63705467 2.92531907
VERTEX2 442 9.32816923 -8.64405574 2.29859649
VERTEX2 443 9.32920558 -8.65592409 1.73415746
VERTEX2 444 9.33028589 -8.64950410 1.14516165
VERTEX2 445 9.33172883 -8.64809470 0.48843574
VERTEX2 446 9.32603798 -8.65182899 0.69060448
VERTEX2 447 9.33490304 -8.63343601 1.32342796
VERTEX2 448 9.46671137 -8.01195896 1.34098481
VERTEX2 449 9.58330446 -7.36589384 1.44182978
VERTEX2 450 9.66117978 -6.72030860 1.45507696
VERTEX2 451 9.70229944 -6.24208058 1.49712585
VERTEX2 452 9.70280074 -6.23433124 1.11801471
VERTEX2 453 9.70271768 -6.23448163 0.49430648
VERTEX2 454 9.96407918 -6.20860216 0.07143984
VERTEX2 455 10.56003152 -6.17116428 0.05066454
VERTEX2 456 11.18977992 -6.15303992 -0.01416794
VERTEX2 457 11.54162595 -6.16790846 -0.10214761
VERTEX2 458 11.53338636 -6.16402713 -0.74864230
VERTEX2 459 11.52284227 -6.12470142 -1.35743251
VERTEX2 460 11.51009770 -6.51892519 -1.61477990
VERTEX2 461 11.45356182 -7.13222646 -1.70296445
VERTEX2 462 11.37544894 -7.64521581 -1.74283705
VERTEX2 463 11.38523524 -7.62509586 -0.90214428
VERTEX2 464 11.64095086 -7.69244643 -0.22367632
VERTEX2 465 12.22905915 -7.81425012 -0.21553456
VERTEX2 466 12.78737599 -7.95480101 -0.27073762
VERTEX2 467 13.36764659 -8.12644377 -0.31388251
VERTEX2 468 13.98643825 -8.33182857 -0.34922526
VERTEX2 469 14.58298477 -8.58486885 -0.43194717
VERTEX2 470 15.04106677 -8.79074593 -0.41285691
VERTEX2 471 15.04920709 -8.79493937 -0.61235675
VERTEX2 472 15.06667095 -8.81825836 -1.24427715
VERTEX2 473 15.06823572 -8.82520632 -1.88411589
VERTEX2 474 15.06657833 -8.82737615 -2.51470918
VERTEX2 475 15.06837480 -8.82709207 -3.08844506
VERTEX2 476 15.07015436 -8.82729595 2.54357859
VERTEX2 477 15.07457814 -8.83553910 1.98409351
VERTEX2 478 15.07550706 -8.84516887 1.35708174
VERTEX2 479 15.07451711 -8.84756640 0.90281455
VERTEX2 480 15.07477153 -8.84696021 1.46487721
VERTEX2 481 15.07075953 -8.83105197 2.46695873
VERTEX2 482 15.07457732 -8.83249958 2.80308235
VERTEX2 483 15.08378631 -8.83560124 2.79793621
VERTEX2 484 14.65733744 -8.68639574 2.83371052
VERTEX2 485 14.05561088 -8.50918511 2.83149136
VERTEX2 486 13.45069615 -8.30808007 2.84111890
VERTEX2 487 12.83779974 -8.14043016 2.86950212
VERTEX2 488 12.22255930 -7.97100906 2.90573299
VERTEX2 489 11.75081019 -7.87265571 2.93627252
VERTEX2 490 11.75620139 -7.87202502 -2.86155815
VERTEX2 491 11.76401480 -7.86127630 -1.92501223
VERTEX2 492 11.75202070 -8.09060173 -1.62178825
VERTEX2 493 11.70273392 -8.69491568 -1.67672145
VERTEX2 494 11.62830168 -9.30704191 -1.73752299
VERTEX2 495 11.57254825 -9.92878937 -1.63031582
VERTEX2 496 11.54208988 -10.55141400 -1.51256930
VERTEX2 497 11.54819883 -11.16696752 -1.59861544
VERTEX2 498 11.49296148 -11.78708504 -1.70043513
VERTEX2 499 11.37613558 -12.41327042 -1.71747271
VERTEX2 500 11.44574585 -12.97678030 -1.38860089
VERTEX2 501 11.53188785 -13.55105725 -1.46073820
VERTEX2 502 11.57032204 -14.24335358 -1.54524369
VERTEX2 503 11.57517301 -14.68773617 -1.56223257
VERTEX2 504 11.58103041 -14.67004195 -0.70587120
VERTEX2 505 11.81946913 -14.69230770 -0.08413422
VERTEX2 506 12.41298578 -14.76191371 -0.23670876
VERTEX2 507 12.99714248 -14.91979251 -0.31528488
VERTEX2 508 13.56992844 -15.11954126 -0.32857944
VERTEX2 509 14.19440513 -15.34075103 -0.38468222
VERTEX2 510 14.55654788 -15.49383083 -0.39859968
VERTEX2 511 14.55517499 -15.48256796 0.47675566
VERTEX2 512 14.57372756 -15.44131730 1.67414718
VERTEX2 513 14.56930486 -15.42906497 2.62794838
VERTEX2 514 14.50381592 -15.41199429 2.85379785
VERTEX2 515 13.88975378 -15.24209378 2.85530821
VERTEX2 516 13.30102493 -15.05887430 2.87161138
VERTEX2 517 12.70444434 -14.92148004 2.89995831
VERTEX2 518 12.10811824 -14.78102158 2.92447135
VERTEX2 519 11.58283049 -14.66666036 2.90893951
VERTEX2 520 11.41292236 -14.62583561 -2.97545506
VERTEX2 521 11.43620154 -14.59912253 -1.97093590
VERTEX2 522 11.37930374 -14.99290580 -1.70639030
VERTEX2 523 11.30045948 -15.61472375 -1.71357998
VERTEX2 524 11.20834320 -16.19078378 -1.75528936
VERTEX2 525 11.11557223 -16.73504042 -1.73143015
VERTEX2 526 11.01120980 -17.30631479 -1.78998822
VERTEX2 527 10.87833136 -17.87885037 -1.82505103
VERTEX2 528 10.71130586 -18.43915587 -1.90129629
VERTEX2 529 10.51265492 -19.04199862 -1.92967414
VERTEX2 530 10.27907685 -19.64276827 -1.95984533
VERTEX2 531 10.02269663 -20.21958334 -2.03977227
VERTEX2 532 9.92992684 -20.40453901 -1.98912006
VERTEX2 533 9.92632537 -20.38873997 -0.98911112
VERTEX2 534 9.92787433 -20.38970256 -0.32189765
VERTEX2 535 9.93372405 -20.39057555 -0.32219389
VERTEX2 536 10.29504506 -20.46747088 -0.19140321
VERTEX2 537 10.90754557 -20.60336793 -0.24935507
VERTEX2 538 11.47348287 -20.76111554 -0.27644463
VERTEX2 539 12.08801858 -20.95760941 -0.34120689
VERTEX2 540 12.68141276 -21.19875912 -0.43380936
VERTEX2 541 13.27479974 -21.41452424 -0.27118057
VERTEX2 542 13.91057508 -21.54288207 -0.21521795
VERTEX2 543 14.03484871 -21.57113160 -0.24464018
VERTEX2 544 14.05853903 -21.56817209 0.39302770
VERTEX2 545 14.08207037 -21.52298465 1.45954906
VERTEX2 546 14.09777508 -21.56105971 2.28680355
VERTEX2 547 14.10043251 -21.56084371 -2.97437093
VERTEX2 548 14.11206571 -21.55298446 -2.05117625
VERTEX2 549 14.11398855 -21.53695687 -1.24434331
VERTEX2 550 14.11177588 -21.51023352 -1.72400304
VERTEX2 551 14.11794848 -21.49691860 -2.34992699
VERTEX2 552 14.13048262 -21.49028155 -2.98193411
VERTEX2 553 13.98759701 -21.43979782 2.72435879
VERTEX2 554 13.38437461 -21.16955538 2.68904663
VERTEX2 555 12.79977209 -20.91056322 2.77740733
VERTEX2 556 12.19167847 -20.70825114 2.91194252
VERTEX2 557 11.58831661 -20.55257968 2.87044912
VERTEX2 558 11.00945433 -20.40997042 2.95118587
VERTEX2 559 11.01753073 -20.41248135 2.54372245
VERTEX2 560 11.00973790 -20.40436064 2.04221213
VERTEX2 561 10.98507327 -20.38150844 2.54686259
VERTEX2 562 10.80839067 -20.38554046 -3.09344791
VERTEX2 563 10.23763609 -20.31978026 2.99757667
VERTEX2 564 9.63195312 -20.24156261 3.04609519
VERTEX2 565 9.04313260 -20.18370532 2.99060090
VERTEX2 566 9.09784716 -20.19900898 -2.49943710
VERTEX2 567 9.00764644 -20.20809266 -1.71928144
VERTEX2 568 8.96852280 -20.71328199 -1.65375755
VERTEX2 569 8.92909960 -21.29099959 -1.69281937
VERTEX2 570 8.87236704 -21.87422647 -1.68800549
VERTEX2 571 8.82802103 -22.22603597 -1.73505028
VERTEX2 572 8.79606869 -22.25048569 -1.97761226
VERTEX2 573 8.76433899 -22.32705599 -1.70059025
VERTEX2 574 8.78594282 -22.35593394 -0.75917320
VERTEX2 575 8.94064302 -22.40267885 0.15512027
VERTEX2 576 8.94113992 -22.40305766 1.18305874
VERTEX2 577 8.93483898 -22.38730717 2.15541620
VERTEX2 578 8.92530302 -22.35720769 1.79137593
VERTEX2 579 8.78831365 -21.70992384 1.80647890
VERTEX2 580 8.61468543 -21.07554773 1.88171551
VERTEX2 581 8.40876476 -20.45775382 1.92418512
VERTEX2 582 8.17560266 -19.84953208 1.96741198
VERTEX2 583 8.04026243 -19.54553354 2.04688003
VERTEX2 584 8.03533804 -19.53642829 2.89102251
VERTEX2 585 7.44949087 -19.40832137 3.00953497
VERTEX2 586 6.85423648 -19.34602315 3.10731122
VERTEX2 587 6.23502953 -19.34791471 3.13292119
VERTEX2 588 5.60461090 -19.33513600 3.13758447
VERTEX2 589 5.06825704 -19.37038111 -3.06972175
VERTEX2 590 4.52165215 -19.42541564 -3.00044529
VERTEX2 591 3.98691555 -19.51532514 -3.00200551
VERTEX2 592 3.44296331 -19.60109351 -3.00437806
VERTEX2 593 3.26772643 -19.62702111 -2.79853796
VERTEX2 594 3.31617585 -19.57258686 -1.88388131
VERTEX2 595 3.21378450 -20.18271273 -1.65074834
VERTEX2 596 3.17257090 -20.80927306 -1.67370925
VERTEX2 597 3.09305320 -21.48705821 -1.71347093
VERTEX2 598 3.00136574 -22.08672912 -1.75563489
VERTEX2 599 2.92013208 -22.46494767 -1.82182560
VERTEX2 600 2.92061914 -22.48111150 -1.01530551
VERTEX2 601 2.96322505 -22.50630518 0.00279478
VERTEX2 602 3.00029144 -22.49060018 1.01677052
VERTEX2 603 2.96166956 -22.25661362 1.78937535
VERTEX2 604 2.89053157 -21.64545721 1.54527946
VERTEX2 605 2.88833634 -20.99514554 1.62785449
VERTEX2 606 2.83664662 -20.34641821 1.66994573
VERTEX2 607 2.83765482 -19.75384394 1.58895935
VERTEX2 608 2.81769127 -19.36531860 1.63357862
VERTEX2 609 2.81309571 -19.34091642 1.97014008
VERTEX2 610 2.80598798 -19.33848617 2.90331808
VERTEX2 611 2.20934080 -19.19902340 2.90648525
VERTEX2 612 1.73567112 -19.07319116 2.90950727
VERTEX2 613 1.77449329 -19.08428364 -2.91032315
VERTEX2 614 1.77991732 -19.08003966 -1.87316663
VERTEX2 615 1.80005005 -19.56939635 -1.56897067
VERTEX2 616 1.81596753 -20.19520752 -1.62036682
VERTEX2 617 1.68807148 -20.79346927 -1.83809974
VERTEX2 618 1.52871237 -21.39485948 -1.82837024
VERTEX2 619 1.37691972 -21.96157187 -1.83013156
VERTEX2 620 1.20256486 -22.53290384 -1.92670254
VERTEX2 621 1.32978093 -22.19226966 -1.97859377
VERTEX2 622 1.44835643 -21.93115235 -2.05315317
VERTEX2 623 1.44551084 -21.93509582 -2.58931383
VERTEX2 624 1.41633945 -21.93515860 3.05232630
VERTEX2 625 1.37658687 -21.91968781 2.39486526
VERTEX2 626 1.35079781 -21.89085953 1.77784539
VERTEX2 627 1.41770286 -21.52290500 1.36776025
VERTEX2 628 1.58698640 -20.89856780 1.26716275
VERTEX2 629 1.74911969 -20.27365847 1.33840287
VERTEX2 630 1.86557030 -19.66933858 1.42357841
VERTEX2 631 1.92989275 -19.14383872 1.44379360
VERTEX2 632 1.93160485 -19.13275310 2.11998481
VERTEX2 633 1.83499922 -19.12765870 -3.07615488
VERTEX2 634 1.16918917 -19.17554311 -3.04861206
VERTEX2 635 0.51741360 -19.19720140 3.09971674
VERTEX2 636 -0.12324364 -19.17959355 3.08225318
VERTEX2 637 -0.75075627 -19.11625483 2.98308642
VERTEX2 638 -1.14039490 -19.04360139 2.95349356
VERTEX2 639 -1.74882736 -18.95158575 3.03379170
VERTEX2 640 -2.36156342 -18.85344079 2.96585968
VERTEX2 641 -2.95975497 -18.75336840 2.95749676
VERTEX2 642 -3.53415948 -18.62671955 2.91213018
VERTEX2 643 -4.01869748 -18.49817289 2.84466694
VERTEX2 644 -4.02340971 -18.49930339 -2.68175281
VERTEX2 645 -4.05778357 -18.64152895 -1.90451961
VERTEX2 646 -4.18454816 -19.25157693 -1.60921091
VERTEX2 647 -4.13066606 -19.89164177 -1.32042054
VERTEX2 648 -3.89803018 -20.51154148 -1.15418629
VERTEX2 649 -3.71511157 -21.10585855 -1.49185011
VERTEX2 650 -3.80540728 -21.73435895 -1.74926930
VERTEX2 651 -3.82038788 -21.87862201 -0.94998603
VERTEX2 652 -3.75753430 -21.90570573 0.07480649
VERTEX2 653 -3.71126003 -21.86282467 1.10505769
VERTEX2 654 -3.72482507 -21.56835071 1.61852335
VERTEX2 655 -3.74402464 -21.01725458 1.61362944
VERTEX2 656 -3.75288642 -20.41739432 1.60109703
VERTEX2 657 -3.86948945 -19.80894654 1.87786655
VERTEX2 658 -4.06933576 -19.19646047 1.87070249
VERTEX2 659 -4.19175167 -18.70626312 1.79954934
VERTEX2 660 -4.19481893 -18.69213150 2.39967391
VERTEX2 661 -4.37196493 -18.67549650 3.05312542
VERTEX2 662 -4.96686575 -18.62571549 3.12284368
VERTEX2 663 -5.55454922 -18.64975329 -3.05919588
VERTEX2 664 -5.56147071 -18.64810006 -2.53584660
VERTEX2 665 -5.57587806 -18.75001913 -1.70354739
VERTEX2 666 -5.63802000 -19.35748387 -1.66671097
VERTEX2 667 -5.68639881 -19.92264025 -1.66238585
VERTEX2 668 -5.74091833 -20.51529861 -1.63692719
VERTEX2 669 -5.78017486 -21.13960766 -1.66239846
VERTEX2 670 -5.87052466 -21.75644736 -1.72225583
VERTEX2 671 -5.91375788 -22.04748130 -1.66765262
VERTEX2 672 -5.81983387 -21.46666627 -1.75661006
VERTEX2 673 -5.75750327 -21.20037483 -1.88699596
VERTEX2 674 -5.74563759 -21.18750775 -2.53475373
VERTEX2 675 -5.72297848 -21.18238515 3.14017730
VERTEX2 676 -5.71665758 -21.18596488 2.51721292
VERTEX2 677 -5.71153247 -21.19282372 1.90174116
VERTEX2 678 -5.68695011 -20.97157228 1.45608589
VERTEX2 679 -5.63181876 -20.39290594 1.51880815
VERTEX2 680 -5.66616875 -19.94630918 1.86392439
VERTEX2 681 -5.82742021 -19.35762868 1.83655657
VERTEX2 682 -6.00909191 -18.75475096 1.88438385
VERTEX2 683 -6.10503257 -18.47638158 2.04365513
VERTEX2 684 -6.05127167 -18.52949055 3.12315701
VERTEX2 685 -6.45830968 -18.69934935 -2.71645515
VERTEX2 686 -6.90889816 -18.84513200 -2.86077173
VERTEX2 687 -7.50637573 -19.00743868 -2.89585026
VERTEX2 688 -8.10752560 -19.13842674 -2.90770275
VERTEX2 689 -8.67485349 -19.28796150 -2.88013243
VERTEX2 690 -9.20049664 -19.46274405 -2.80612349
VERTEX2 691 -9.58585072 -19.59761047 -2.83428887
VERTEX2 692 -9.56327950 -19.58715793 -2.30040429
VERTEX2 693 -9.53990920 -19.65718319 -1.25999271
VERTEX2 694 -9.51538233 -19.72695346 -0.42452786
VERTEX2 695 -9.49513689 -19.72086734 0.37548770
VERTEX2 696 -9.48706695 -19.71539905 1.40098551
VERTEX2 697 -9.49740102 -19.75126910 1.14800966
VERTEX2 698 -9.16809281 -19.53586044 0.49324291
VERTEX2 699 -8.60697813 -19.21280035 0.60728008
VERTEX2 700 -8.09679473 -18.84137118 0.66080796
VERTEX2 701 -7.66620792 -18.47009309 0.71997388
VERTEX2 702 -7.19608335 -18.15037028 0.60515721
VERTEX2 703 -6.69332261 -17.80867395 0.63968377
VERTEX2 704 -6.21089954 -17.42305491 0.65830484
VERTEX2 705 -5.70833803 -16.99540453 0.72846063
VERTEX2 706 -5.28524947 -16.67210629 0.45929421
VERTEX2 707 -5.26598082 -16.67078540 -0.06129851
VERTEX2 708 -5.26268290 -16.67260323 -0.70023073
VERTEX2 709 -5.30109517 -16.63238339 -1.03199890
VERTEX2 710 -5.30492099 -16.62286894 -1.59258703
VERTEX2 711 -5.29269706 -16.63356688 -2.18872225
VERTEX2 712 -5.27013466 -16.61569066 -2.74860228
VERTEX2 713 -5.73835437 -16.67333063 -3.03366013
VERTEX2 714 -6.28811953 -16.65746685 3.05224187
VERTEX2 715 -6.91258031 -16.63154679 -3.12725348
VERTEX2 716 -7.54444212 -16.62066997 3.01795346
VERTEX2 717 -8.16347479 -16.56397356 3.10272925
VERTEX2 718 -8.92379620 -16.45931464 2.92733324
VERTEX2 719 -9.54058947 -16.35501731 3.00187346
VERTEX2 720 -10.15321386 -16.25357989 2.94271883
VERTEX2 721 -10.77080028 -16.14883252 3.01096590
VERTEX2 722 -10.78372849 -16.14721928 3.07763465
VERTEX2 723 -10.79998359 -16.16457256 -2.11571369
VERTEX2 724 -10.79941339 -16.20460209 -1.04694482
VERTEX2 725 -10.77054948 -16.22332090 -0.41266824
VERTEX2 726 -10.44623803 -16.21411417 0.04151284
VERTEX2 727 -9.81041431 -16.16576034 0.07224523
VERTEX2 728 -9.17638867 -16.13175717 0.07369984
VERTEX2 729 -8.54517102 -16.06174880 0.13140015
VERTEX2 730 -7.92875128 -15.96035496 0.16894458
VERTEX2 731 -7.27329555 -15.84803313 0.18113670
VERTEX2 732 -7.12254796 -15.81515700 0.62767733
VERTEX2 733 -7.12256058 -15.81514358 1.62418067
VERTEX2 734 -7.19092116 -15.25305198 1.70229514
VERTEX2 735 -7.26216308 -14.64462349 1.67029437
VERTEX2 736 -7.26326952 -14.63145400 2.27038483
VERTEX2 737 -7.25060126 -14.63286908 3.07183889
VERTEX2 738 -7.82339219 -14.60304820 3.09113233
VERTEX2 739 -8.42150706 -14.51987771 3.03375974
VERTEX2 740 -8.91817345 -14.48935140 3.09728685
VERTEX2 741 -8.90256130 -14.48888361 2.72883486
VERTEX2 742 -8.90379297 -14.48807352 2.07663218
VERTEX2 743 -8.90508525 -14.48285175 1.46038003
VERTEX2 744 -8.89785661 -14.46532250 0.92152388
VERTEX2 745 -8.88639240 -14.45901727 0.32795790
VERTEX2 746 -8.35109595 -14.46598352 -0.14695234
VERTEX2 747 -7.71031155 -14.56620420 -0.18219907
VERTEX2 748 -7.13675446 -14.69547550 -0.25049605
VERTEX2 749 -7.05729324 -14.71351161 0.17866658
VERTEX2 750 -7.05047726 -14.70028131 1.10567508
VERTEX2 751 -7.09010932 -14.43325795 1.74575081
VERTEX2 752 -7.16131439 -13.81400457 1.64229824
VERTEX2 753 -7.21276826 -13.17889939 1.70536660
VERTEX2 754 -7.23434066 -12.54157578 1.54306330
VERTEX2 755 -7.22948233 -11.90912649 1.62957252
VERTEX2 756 -7.20608638 -11.27389443 1.45324268
VERTEX2 757 -7.14572635 -10.62846074 1.56516679
VERTEX2 758 -7.17898047 -10.05066931 1.70741492
VERTEX2 759 -7.18067684 -9.50426201 1.58741076
VERTEX2 760 -7.23259631 -8.89803569 1.69909006
VERTEX2 761 -7.23588978 -8.86333661 1.87949327
VERTEX2 762 -7.31217917 -8.83132178 2.71536703
VERTEX2 763 -7.88273741 -8.74283038 3.00865805
VERTEX2 764 -8.30298479 -8.68164665 2.98129108
VERTEX2 765 -8.29074421 -8.68111078 -2.66202614
VERTEX2 766 -8.29202906 -8.68567514 -1.66105375
VERTEX2 767 -8.28671156 -8.69818492 -0.72958924
VERTEX2 768 -8.25809573 -8.69918169 -0.00674315
VERTEX2 769 -7.62331173 -8.59270766 0.15036917
VERTEX2 770 -6.97080967 -8.51555356 0.08341551
VERTEX2 771 -6.88083966 -8.50556519 0.64426749
VERTEX2 772 -6.87765243 -8.49438248 1.51233909
VERTEX2 773 -6.86981145 -7.91503659 1.59833509
VERTEX2 774 -6.89740893 -7.36826004 1.62061074
VERTEX2 775 -6.89647144 -7.37184226 2.46608560
VERTEX2 776 -7.10510274 -7.35243672 3.08394033
VERTEX2 777 -7.72234209 -7.32845464 -3.14040117
VERTEX2 778 -8.33857070 -7.33562450 3.12163355
VERTEX2 779 -8.95326506 -7.33083884 3.14035507
VERTEX2 780 -9.16100072 -7.31870404 3.01090290
VERTEX2 781 -9.15526108 -7.32056608 2.43856979
VERTEX2 782 -9.29219490 -7.04870450 2.00991937
VERTEX2 783 -9.54559654 -6.47849569 2.00978550
VERTEX2 784 -9.65342941 -6.25092857 1.98895635
VERTEX2 785 -9.65536082 -6.22202244 1.43738350
VERTEX2 786 -9.64714532 -6.19162194 0.84947631
VERTEX2 787 -9.62747131 -6.17017090 0.35917622
VERTEX2 788 -9.59868214 -6.17121232 -0.26952945
VERTEX2 789 -9.58852978 -6.17867018 -0.82112145
VERTEX2 790 -9.27068436 -6.56231268 -0.88811932
VERTEX2 791 -8.85159688 -7.02952437 -0.78928855
VERTEX2 792 -8.60611834 -7.23431834 -0.08437540
VERTEX2 793 -7.98601893 -7.26634191 -0.03963284
VERTEX2 794 -7.34178288 -7.27412497 0.03152029
VERTEX2 795 -7.37061049 -7.29681973 0.45843990
VERTEX2 796 -7.38076331 -7.30130925 1.11437533
VERTEX2 797 -7.31684138 -7.00173056 1.37265811
VERTEX2 798 -7.19882256 -6.38387931 1.42153227
VERTEX2 799 -7.12847987 -5.75650182 1.48619762
VERTEX2 800 -7.08956534 -5.12795184 1.55802454
VERTEX2 801 -7.11320240 -4.50021118 1.64390982
VERTEX2 802 -7.17931456 -3.87974288 1.70156473
VERTEX2 803 -7.17461846 -3.25479503 1.53682667
VERTEX2 804 -7.16693715 -2.63104808 1.59266596
VERTEX2 805 -7.21237657 -2.00507412 1.66887681
VERTEX2 806 -7.28369968 -1.41153129 1.71021264
VERTEX2 807 -7.31443977 -1.22838676 1.99816837
VERTEX2 808 -7.31505671 -1.22842225 2.94608596
VERTEX2 809 -7.90313405 -1.21069181 3.09064621
VERTEX2 810 -8.51879148 -1.09959065 2.95038428
VERTEX2 811 -9.11581709 -0.99973402 2.94702135
VERTEX2 812 -9.11414799 -1.00006826 -2.60467290
VERTEX2 813 -9.12289432 -1.02059260 -1.62975375
VERTEX2 814 -9.11383031 -1.02751736 -0.63793175
VERTEX2 815 -9.09028020 -1.03499329 0.28159085
VERTEX2 816 -9.08269498 -1.03066238 0.96292859
VERTEX2 817 -9.07255241 -1.02401823 0.29434118
VERTEX2 818 -8.85075065 -1.05374917 -0.19440859
VERTEX2 819 -8.25849179 -1.17050606 -0.18021921
VERTEX2 820 -7.67202976 -1.28978661 -0.22140463
VERTEX2 821 -7.13291458 -1.40881464 -0.20554638
VERTEX2 822 -7.08975927 -1.41456588 0.55569887
VERTEX2 823 -7.08920084 -1.40632858 1.47450619
VERTEX2 824 -7.03708471 -0.78939485 1.39511775
VERTEX2 825 -6.90568209 -0.17011415 1.36539063
VERTEX2 826 -6.86026780 0.45671008 1.52823721
VERTEX2 827 -6.80788743 1.07533580 1.47949500
VERTEX2 828 -6.76518843 1.70127907 1.51492102
VERTEX2 829 -6.71493905 2.30330030 1.47510556
VERTEX2 830 -6.65082953 2.91099092 1.46673283
VERTEX2 831 -6.56698717 3.48755587 1.41989451
VERTEX2 832 -6.48681079 4.04971909 1.41630070
VERTEX2 833 -6.44759047 4.30354050 1.55392710
VERTEX2 834 -6.44842692 4.30629524 2.60848615
VERTEX2 835 -6.46392694 4.30781370 -2.89730389
VERTEX2 836 -6.47962940 4.29410332 -1.95456803
VERTEX2 837 -6.47523211 4.27210972 -0.91856491
VERTEX2 838 -6.46371838 4.26519300 -0.05666722
VERTEX2 839 -6.46586850 4.26618214 -0.27503710
VERTEX2 840 -6.45700929 4.25946587 -0.83785858
VERTEX2 841 -6.45014738 4.24620030 -1.45512949
VERTEX2 842 -6.47252278 4.00069438 -1.68606273
VERTEX2 843 -6.54228166 3.43638286 -1.68866051
VERTEX2 844 -6.60818797 2.81019523 -1.69674702
VERTEX2 845 -6.69267379 2.18417164 -1.71153251
VERTEX2 846 -6.76854199 1.55814957 -1.70940636
VERTEX2 847 -6.86799574 0.93959775 -1.73574499
VERTEX2 848 -6.89549764 0.74488968 -1.25485179
VERTEX2 849 -6.89726899 0.74552917 -0.33189791
VERTEX2 850 -6.54092888 0.74828774 0.02163053
VERTEX2 851 -5.91242940 0.73354205 -0.07081214
VERTEX2 852 -5.28663278 0.68359936 -0.05636984
VERTEX2 853 -4.69052033 0.65183606 -0.08428363
VERTEX2 854 -4.10193489 0.59465844 -0.08229047
VERTEX2 855 -3.50574474 0.55450311 -0.08411903
VERTEX2 856 -2.85413350 0.48122394 -0.12475741
VERTEX2 857 -2.20367022 0.40429300 -0.13429122
VERTEX2 858 -1.55955944 0.29508782 -0.18882887
VERTEX2 859 -1.04373702 0.20166454 -0.19573611
VERTEX2 860 -1.02069533 0.21164041 0.65523650
VERTEX2 861 -1.00649525 0.32642283 1.57016642
VERTEX2 862 -0.98006013 0.99152996 1.51055492
VERTEX2 863 -0.93415081 1.64136996 1.47806461
VERTEX2 864 -0.85775983 2.25737081 1.47592718
VERTEX2 865 -0.82737179 2.87421433 1.53351040
VERTEX2 866 -0.79299565 3.46553554 1.53233799
VERTEX2 867 -0.78827710 3.63455444 1.71347071
VERTEX2 868 -0.80058487 3.64971468 2.73700937
VERTEX2 869 -0.79535231 3.64983057 -2.56804107
VERTEX2 870 -0.77771862 3.65969723 -1.56882596
VERTEX2 871 -0.76918720 3.65412783 -0.59533734
VERTEX2 872 -0.75178141 3.64199889 0.09019326
VERTEX2 873 -0.72284003 3.63289490 -0.48217028
VERTEX2 874 -0.69499865 3.60857172 -1.04130451
VERTEX2 875 -0.68604524 3.58844481 -1.62731251
VERTEX2 876 -0.79579685 3.02969904 -1.78466174
VERTEX2 877 -0.93810613 2.48453102 -1.86920308
VERTEX2 878 -0.98514247 2.28327968 -1.48605435
VERTEX2 879 -0.87162698 1.64403663 -1.43494196
VERTEX2 880 -0.82748534 1.19331609 -1.54755145
VERTEX2 881 -0.82872987 1.24110515 -1.54214242
VERTEX2 882 -0.87328232 0.59908893 -1.78858748
VERTEX2 883 -1.07771494 -0.00011605 -1.97926774
VERTEX2 884 -1.22977197 -0.33472289 -2.04621256
VERTEX2 885 -1.22958431 -0.33709977 -1.46459634
VERTEX2 886 -1.20789567 -0.35670458 -0.44656670
VERTEX2 887 -1.17329414 -0.36944323 0.56474720
VERTEX2 888 -1.16348633 -0.34777428 1.54890389
VERTEX2 889 -1.16379729 -0.34702760 2.44700260
VERTEX2 890 -1.47701543 -0.20285604 2.72094088
VERTEX2 891 -2.01420778 0.05125773 2.65064046
VERTEX2 892 -2.55391155 0.36058136 2.61499138
VERTEX2 893 -3.11227140 0.64597291 2.85116708
VERTEX2 894 -3.72620995 0.74567504 3.07213033
VERTEX2 895 -4.32284613 0.68598959 -2.91288251
VERTEX2 896 -4.34328506 0.68070841 -2.43462399
VERTEX2 897 -4.62026284 0.25436726 -2.16251555
VERTEX2 898 -4.95823502 -0.25409037 -2.14684919
VERTEX2 899 -5.23286771 -0.66201239 -2.21440037
VERTEX2 900 -5.63212549 -1.20688151 -2.21660186
VERTEX2 901 -5.99133121 -1.65180418 -2.28074213
VERTEX2 902 -6.39424337 -2.14482618 -2.25526411
VERTEX2 903 -6.69889961 -2.52357500 -2.29975949
VERTEX2 904 -6.69892431 -2.52367005 -1.59628951
VERTEX2 905 -6.67640511 -3.00996534 -1.54070693
VERTEX2 906 -6.63252371 -3.57394683 -1.47485636
VERTEX2 907 -6.56646739 -4.14052739 -1.48290561
VERTEX2 908 -6.50874816 -4.75521466 -1.45796821
VERTEX2 909 -6.43701802 -5.35998254 -1.47575351
VERTEX2 910 -6.46298069 -5.49350642 -1.84577823
VERTEX2 911 -6.61340559 -6.07114922 -1.78497319
VERTEX2 912 -6.72220386 -6.63040849 -1.77231227
VERTEX2 913 -6.82255357 -7.16755399 -1.76434258
VERTEX2 914 -6.93584365 -7.75114519 -1.78796784
VERTEX2 915 -7.04793511 -8.25557780 -1.82465233
VERTEX2 916 -6.97999033 -8.49441033 -1.27705797
VERTEX2 917 -6.82774591 -9.14284214 -1.53211186
VERTEX2 918 -6.83810877 -9.66225214 -1.60811664
VERTEX2 919 -6.86014993 -10.28756540 -1.65189416
VERTEX2 920 -6.91356062 -10.90346685 -1.66993432
VERTEX2 921 -6.97603788 -11.52055911 -1.72378390
VERTEX2 922 -7.06818999 -12.12626221 -1.75149797
VERTEX2 923 -7.17613084 -12.68358467 -1.81504270
VERTEX2 924 -7.29940003 -13.17668341 -1.79848912
VERTEX2 925 -7.30071395 -13.17069712 -1.29395293
VERTEX2 926 -7.13193496 -13.72901165 -1.27784414
VERTEX2 927 -6.95591684 -14.31580596 -1.30125275
VERTEX2 928 -6.78876650 -14.91814834 -1.31029157
VERTEX2 929 -6.62824811 -15.51775075 -1.31130397
VERTEX2 930 -6.46963386 -16.15044847 -1.39423620
VERTEX2 931 -6.37279514 -16.77925411 -1.47483042
VERTEX2 932 -6.31722036 -17.40287823 -1.53427472
VERTEX2 933 -6.30441245 -18.01254067 -1.59887142
VERTEX2 934 -6.31157790 -18.49054234 -1.60869094
VERTEX2 935 -6.30932238 -18.50022079 -0.92639921
VERTEX2 936 -6.30875860 -18.50040892 0.01889290
VERTEX2 937 -5.76726669 -18.46678067 0.08180161
VERTEX2 938 -5.17136841 -18.47348401 -0.09157696
VERTEX2 939 -4.54712474 -18.52347733 -0.06384921
VERTEX2 940 -3.92998463 -18.58936761 -0.14997353
VERTEX2 941 -3.32280118 -18.69571493 -0.20362844
VERTEX2 942 -2.80185012 -18.80362774 -0.19914275
VERTEX2 943 -2.19405269 -18.92758402 -0.11065742
VERTEX2 944 -1.58300009 -19.00086865 -0.16717130
VERTEX2 945 -0.96293460 -19.11961789 -0.22217664
VERTEX2 946 -0.79070948 -19.16074060 -0.15773155
VERTEX2 947 -0.38575868 -19.09201928 0.17067585
VERTEX2 948 0.18243561 -18.99457205 0.15163934
VERTEX2 949 0.78177929 -18.95111384 -0.00388524
VERTEX2 950 1.40952628 -18.97753949 -0.24324540
VERTEX2 951 2.01173784 -19.14043230 -0.31527395
VERTEX2 952 2.61372189 -19.30624580 -0.06432218
VERTEX2 953 3.24089818 -19.32787567 0.01607985
VERTEX2 954 3.86370486 -19.31044240 0.00911795
VERTEX2 955 4.45180817 -19.34619374 -0.15164666
VERTEX2 956 5.00129496 -19.41518477 -0.15390054
VERTEX2 957 5.52770307 -19.50084223 -0.24144533
VERTEX2 958 5.98701326 -19.60224620 -0.26803377
VERTEX2 959 6.42374854 -19.71457367 -0.33453533
VERTEX2 960 7.01362221 -19.86649740 -0.25430139
VERTEX2 961 7.59604531 -20.02961030 -0.28107426
VERTEX2 962 8.21374414 -20.14645143 -0.21518503
VERTEX2 963 8.83094873 -20.21551604 -0.02816573
VERTEX2 964 9.45220732 -20.24509341 -0.09183715
VERTEX2 965 10.06967507 -20.31202748 -0.09854856
VERTEX2 966 10.51357453 -20.36183966 -0.15737695
VERTEX2 967 10.54487591 -20.35482916 0.69649478
VERTEX2 968 10.55119106 -20.34860430 1.59371800
VERTEX2 969 10.55435011 -20.37808943 1.65332320
VERTEX2 970 10.55757405 -20.40785831 1.65171260
VERTEX2 971 10.52994921 -20.07701297 1.65196437
VERTEX2 972 10.47843732 -19.49335472 1.65769320
VERTEX2 973 10.54481201 -18.91185055 1.37238637
VERTEX2 974 10.67048742 -18.30914670 1.40399435
VERTEX2 975 10.76837864 -17.70311402 1.40839783
VERTEX2 976 10.85959397 -17.09462267 1.42109314
VERTEX2 977 10.98072371 -16.47791809 1.39478705
VERTEX2 978 11.08735297 -15.86767952 1.44070326
VERTEX2 979 11.18794987 -15.26141569 1.42835001
VERTEX2 980 11.27171133 -14.65860256 1.47516214
VERTEX2 981 11.34670458 -14.06652309 1.48194096
VERTEX2 982 11.39094826 -13.54164590 1.52674483
VERTEX2 983 11.42689724 -12.94376748 1.52333182
VERTEX2 984 11.44059260 -12.34867369 1.58064798
VERTEX2 985 11.43798681 -11.75286334 1.60086528
VERTEX2 986 11.40933599 -11.13601077 1.63698222
VERTEX2 987 11.38311748 -10.52058287 1.60005287
VERTEX2 988 11.37238703 -9.90519928 1.61352603
VERTEX2 989 11.34395444 -9.29059907 1.62079693
VERTEX2 990 11.32367765 -8.67924106 1.60959706
VERTEX2 991 11.29510188 -8.06425097 1.63395706
VERTEX2 992 11.27827943 -7.48407690 1.60148085
VERTEX2 993 11.25224851 -6.87458729 1.63432714
VERTEX2 994 11.22421674 -6.29589307 1.62445811
VERTEX2 995 11.18123214 -5.71340090 1.67165541
VERTEX2 996 11.11033612 -5.11284818 1.69860089
VERTEX2 997 11.05372147 -4.47515537 1.63409790
VERTEX2 998 11.02673138 -4.07917440 1.65587712
VERTEX2 999 11.06030866 -4.10531268 2.37348104
VERTEX2 1000 10.59638448 -3.75836340 2.52199838
VERTEX2 1001 10.15502523 -3.37135850 2.20085258
VERTEX2 1002 9.78452974 -2.91298404 2.29337688
VERTEX2 1003 9.43048646 -2.42733536 2.11358970
VERTEX2 1004 9.08233174 -1.89769344 2.17166109
VERTEX2 1005 8.72018492 -1.41043119 2.23391077
VERTEX2 1006 8.31608449 -0.93983588 2.31108251
VERTEX2 1007 7.89742478 -0.52253025 2.40271468
VERTEX2 1008 7.65951662 -0.31318640 2.56220860
VERTEX2 1009 7.56328637 -0.30030005 3.03521506
VERTEX2 1010 6.99673940 -0.25411593 3.08775813
VERTEX2 1011 6.38455001 -0.22540260 3.04487615
VERTEX2 1012 5.77767602 -0.17284136 3.08703627
VERTEX2 1013 5.14273086 -0.18582830 -3.08160592
VERTEX2 1014 4.52845422 -0.14752117 3.02589458
VERTEX2 1015 3.90267683 -0.11781574 3.11011529
VERTEX2 1016 3.13261677 -0.09163609 3.11670407
VERTEX2 1017 2.54937251 -0.08779458 3.05949930
VERTEX2 1018 1.99278283 -0.03520580 3.06675277
VERTEX2 1019 1.39980126 -0.02038335 3.12625786
VERTEX2 1020 0.78637217 0.00559347 3.11227284
VERTEX2 1021 0.16717345 0.02465509 3.07163671
VERTEX2 1022 0.11582264 0.02806899 3.06437725
VERTEX2 1023 0.12503037 0.02803933 -3.13225372
VERTEX2 1024 -0.49964552 0.02579450 -3.10595405
VERTEX2 1025 -1.12580710 -0.01459861 -3.08841183
VERTEX2 1026 -1.28475305 -0.02255733 -3.08126610
VERTEX2 1027 -1.26655292 -0.01327855 -2.16484420
VERTEX2 1028 -1.27660919 -0.17312881 -1.60097824
VERTEX2 1029 -1.29557178 -0.73326298 -1.62238687
VERTEX2 1030 -1.34791802 -1.35075916 -1.70232964
VERTEX2 1031 -1.44814225 -1.99208338 -1.75607765
VERTEX2 1032 -1.56578835 -2.63344464 -1.75171179
VERTEX2 1033 -1.69607258 -3.27357145 -1.79656237
VERTEX2 1034 -1.73772461 -3.44523885 -2.01061151
VERTEX2 1035 -1.74076095 -3.44791051 -2.63042362
VERTEX2 1036 -1.71024930 -3.46136602 3.08163407
VERTEX2 1037 -2.05259332 -3.33746178 2.84306294
VERTEX2 1038 -2.66560804 -3.22560532 2.93418047
VERTEX2 1039 -3.30631506 -3.06685200 2.90256313
VERTEX2 1040 -3.28047253 -3.06704791 -2.75079211
VERTEX2 1041 -3.25106500 -3.07043448 -1.73428187
VERTEX2 1042 -3.25240831 -3.10482687 -0.74677719
VERTEX2 1043 -3.21741311 -3.13606808 0.22237925
VERTEX2 1044 -3.23137173 -3.15305716 1.21577265
VERTEX2 1045 -3.23450955 -3.16025348 1.10168482
VERTEX2 1046 -3.24498504 -3.17479145 0.71605537
VERTEX2 1047 -3.26394349 -3.18338620 0.16016398
VERTEX2 1048 -2.90037883 -3.24723970 -0.15291307
VERTEX2 1049 -2.25348233 -3.33611677 -0.13580312
VERTEX2 1050 -1.60527128 -3.39723434 -0.06017498
VERTEX2 1051 -0.95271223 -3.46049942 -0.13938761
VERTEX2 1052 -0.32360834 -3.53268682 -0.08598130
VERTEX2 1053 0.09771032 -3.58129380 -0.13866083
VERTEX2 1054 0.12811690 -3.58405704 0.62320642
VERTEX2 1055 0.13381152 -3.55553548 1.67589305
VERTEX2 1056 0.14558854 -3.57253555 2.67882268
VERTEX2 1057 0.17423722 -3.57542066 -2.61341969
VERTEX2 1058 0.17214595 -3.57793151 -1.69114757
VERTEX2 1059 0.08007303 -4.16387814 -1.77188189
VERTEX2 1060 -0.05032967 -4.79739303 -1.76687583
VERTEX2 1061 -0.15339123 -5.24668163 -1.88941328
VERTEX2 1062 -0.16087899 -5.25841079 -2.45389575
VERTEX2 1063 -0.14037623 -5.24642799 -3.05256873
VERTEX2 1064 -0.41636033 -5.19709530 2.96475999
VERTEX2 1065 -1.00257992 -5.13493000 3.08647440
VERTEX2 1066 -1.56415403 -5.08704831 3.03014340
VERTEX2 1067 -1.54768754 -5.08607094 -2.82078749
VERTEX2 1068 -1.53407870 -5.07637563 -2.14856589
VERTEX2 1069 -1.53333313 -5.07432576 -1.97845684
VERTEX2 1070 -1.53152281 -5.07109753 -2.51788302
VERTEX2 1071 -2.00102675 -5.32945646 -2.64453238
VERTEX2 1072 -2.44872891 -5.56448949 -2.71268654
VERTEX2 1073 -2.41878045 -5.56349767 3.06038553
VERTEX2 1074 -2.94717982 -5.49598843 3.02647874
VERTEX2 1075 -3.52326971 -5.42470776 3.04349912
VERTEX2 1076 -3.53528540 -5.42404774 -2.83539023
VERTEX2 1077 -3.54544011 -5.44373573 -2.02927124
VERTEX2 1078 -3.77612461 -6.05174055 -1.98405798
VERTEX2 1079 -4.00145344 -6.61659137 -1.92189030
VERTEX2 1080 -4.00448624 -6.62495147 -2.40936575
VERTEX2 1081 -4.42351403 -6.91766564 -2.53258850
VERTEX2 1082 -4.58668383 -7.03407995 -2.25193400
VERTEX2 1083 -4.58239208 -7.06451992 -1.22092640
VERTEX2 1084 -4.50530704 -7.10311609 -0.25542681
VERTEX2 1085 -4.52062453 -7.10725975 0.72877236
VERTEX2 1086 -4.17339358 -6.62375541 0.95964068
VERTEX2 1087 -3.80721376 -6.12202504 0.94781917
VERTEX2 1088 -3.45952850 -5.61632698 0.93131606
VERTEX2 1089 -3.40518857 -5.54437972 0.83601433
VERTEX2 1090 -3.39582001 -5.53561309 0.22132481
VERTEX2 1091 -2.86031299 -5.49731084 0.04464580
VERTEX2 1092 -2.24327317 -5.47473595 0.02964887
VERTEX2 1093 -1.67601564 -5.47091868 -0.03526610
VERTEX2 1094 -1.66309383 -5.48292675 -0.43923857
VERTEX2 1095 -1.63234791 -5.50951919 -1.02882497
VERTEX2 1096 -1.63216696 -5.51040111 -1.59991549
VERTEX2 1097 -1.71169540 -5.83752032 -1.81528498
VERTEX2 1098 -1.88182378 -6.43735124 -1.87207818
VERTEX2 1099 -2.08181607 -6.99993895 -1.96817716
VERTEX2 1100 -2.08694886 -7.01338382 -1.60513264
VERTEX2 1101 -2.02559674 -7.27474829 -1.33882449
VERTEX2 1102 -2.02596713 -7.27976298 -1.73199626
VERTEX2 1103 -2.14495568 -7.88621684 -1.76552244
VERTEX2 1104 -2.27423005 -8.51909534 -1.79298374
VERTEX2 1105 -2.42063976 -9.13808832 -1.81066456
VERTEX2 1106 -2.53945274 -9.61153676 -1.83569195
VERTEX2 1107 -2.53888699 -9.61726415 -1.57926555
VERTEX2 1108 -2.50042740 -10.24048666 -1.57124820
VERTEX2 1109 -2.54588164 -10.88137071 -1.67498475
VERTEX2 1110 -2.61366397 -11.48599747 -1.72434326
VERTEX2 1111 -2.77644751 -12.01189986 -1.82545764
VERTEX2 1112 -2.80422651 -12.58804687 -1.47882061
VERTEX2 1113 -2.76234241 -13.21776728 -1.57405139
VERTEX2 1114 -2.76350450 -13.82544900 -1.55689476
VERTEX2 1115 -2.75250562 -14.39963876 -1.57296422
VERTEX2 1116 -2.73153173 -15.03887483 -1.53658916
VERTEX2 1117 -2.72775435 -15.12611129 -1.66428575
VERTEX2 1118 -2.72049607 -15.11211792 -2.27133429
VERTEX2 1119 -2.70170523 -15.09870948 -2.70285418
VERTEX2 1120 -3.25473517 -15.30966319 -2.76628020
VERTEX2 1121 -3.43636606 -15.37672775 -2.88463919
VERTEX2 1122 -3.42881366 -15.37918914 2.84865310
VERTEX2 1123 -3.97776239 -15.20415174 2.86578352
VERTEX2 1124 -4.53299329 -15.08535911 2.96478909
VERTEX2 1125 -5.15582539 -14.97099953 2.97853501
VERTEX2 1126 -5.23139258 -14.96014272 -2.96448901
VERTEX2 1127 -5.22720483 -14.96445268 -1.90626132
VERTEX2 1128 -5.22448704 -14.94988353 -0.91904077
VERTEX2 1129 -5.21111774 -14.95705959 0.09640507
VERTEX2 1130 -4.62297116 -14.88220205 0.11039343
VERTEX2 1131 -3.85018283 -14.99357328 -0.32060778
VERTEX2 1132 -3.23793315 -15.19952925 -0.33984519
VERTEX2 1133 -2.68900958 -15.41670090 -0.37840791
VERTEX2 1134 -2.43615497 -15.51748387 -0.47526958
VERTEX2 1135 -2.42264602 -15.53026933 -1.03140687
VERTEX2 1136 -2.42245320 -15.52983046 -1.59347089
VERTEX2 1137 -2.47148054 -15.83447473 -1.77753545
VERTEX2 1138 -2.61567606 -16.47113022 -1.79383373
VERTEX2 1139 -2.72679799 -16.96875270 -1.86666921
VERTEX2 1140 -2.71750199 -16.94539811 -2.34484472
VERTEX2 1141 -2.69675542 -16.92454049 -2.89135010
VERTEX2 1142 -3.06367601 -16.88664810 3.02730066
VERTEX2 1143 -3.66483317 -16.84876989 3.11662988
VERTEX2 1144 -4.24840704 -16.82296775 3.08599592
VERTEX2 1145 -4.82356788 -16.78636299 3.06037472
VERTEX2 1146 -5.39669962 -16.73796458 3.07999394
VERTEX2 1147 -5.97177144 -16.73631598 -3.13059463
VERTEX2 1148 -6.55181136 -16.74237215 -3.12056033
VERTEX2 1149 -6.59605050 -16.74437193 -2.62230713
VERTEX2 1150 -6.68313796 -16.84403104 -1.81296032
VERTEX2 1151 -6.68337545 -16.84350939 -0.80879779
VERTEX2 1152 -6.66703335 -16.84355355 0.24462702
VERTEX2 1153 -6.64843566 -16.83477408 1.25770956
VERTEX2 1154 -6.71208664 -16.51956063 1.80394429
VERTEX2 1155 -6.85385385 -15.89822085 1.75469605
VERTEX2 1156 -6.95968120 -15.29458701 1.76482966
VERTEX2 1157 -7.09276473 -14.73467954 1.87598172
VERTEX2 1158 -7.22562611 -14.14365992 1.74750868
VERTEX2 1159 -7.29462885 -13.54478418 1.65365396
VERTEX2 1160 -7.32647050 -12.90839469 1.51713386
VERTEX2 1161 -7.23650633 -12.27575436 1.42777137
VERTEX2 1162 -7.15497292 -11.64289626 1.48618002
VERTEX2 1163 -7.10272190 -10.99944201 1.48099112
VERTEX2 1164 -7.06490390 -10.35813582 1.56673729
VERTEX2 1165 -7.06265725 -9.80397169 1.54429946
VERTEX2 1166 -7.06588201 -9.78945990 2.03414005
VERTEX2 1167 -7.01085032 -9.77501610 2.96992640
VERTEX2 1168 -6.96259041 -9.75484463 -2.41063430
VERTEX2 1169 -6.96589683 -9.80963709 -1.58941103
VERTEX2 1170 -6.96650345 -10.39909376 -1.58290455
VERTEX2 1171 -6.95598917 -11.03714108 -1.55137452
VERTEX2 1172 -6.95068643 -11.63930708 -1.61405451
VERTEX2 1173 -6.97089075 -12.26652282 -1.60515176
VERTEX2 1174 -7.00515239 -12.89910763 -1.67413611
VERTEX2 1175 -7.08312894 -13.52017699 -1.70714146
VERTEX2 1176 -7.17095501 -14.14183287 -1.75082558
VERTEX2 1177 -7.28110826 -14.75183001 -1.74878746
VERTEX2 1178 -7.40275963 -15.36594513 -1.79600492
VERTEX2 1179 -7.53100267 -15.97204436 -1.76666162
VERTEX2 1180 -7.58131031 -16.22610543 -1.77365108
VERTEX2 1181 -7.58051077 -16.21976872 -0.94621589
VERTEX2 1182 -7.52573489 -16.23278938 -0.23452176
VERTEX2 1183 -6.91085428 -16.37209867 -0.20922706
VERTEX2 1184 -6.27722263 -16.47705520 -0.13972695
VERTEX2 1185 -5.64856481 -16.57766963 -0.17203379
VERTEX2 1186 -5.01655570 -16.66280371 -0.10591597
VERTEX2 1187 -4.36234860 -16.73825591 -0.14308841
VERTEX2 1188 -3.73466443 -16.81853323 -0.12506994
VERTEX2 1189 -3.08450138 -16.91411358 -0.10347382
VERTEX2 1190 -2.76744530 -16.94774756 -0.09552771
VERTEX2 1191 -2.75122083 -16.94714258 0.82447759
VERTEX2 1192 -2.74720987 -16.87144931 1.62187146
VERTEX2 1193 -2.75084355 -16.27843273 1.48970592
VERTEX2 1194 -2.71982075 -15.71152597 1.53158978
VERTEX2 1195 -2.70221690 -15.09512299 1.58371245
VERTEX2 1196 -2.70692652 -14.47831321 1.41073494
VERTEX2 1197 -2.61514775 -13.87124181 1.42171518
VERTEX2 1198 -2.55551285 -13.25267287 1.68036827
VERTEX2 1199 -2.58203809 -12.64872716 1.46546352
VERTEX2 1200 -2.53527252 -12.02446877 1.53446749
VERTEX2 1201 -2.52026397 -11.41053330 1.59025160
VERTEX2 1202 -2.54019949 -10.79379383 1.61312218
VERTEX2 1203 -2.57960428 -10.20992537 1.52307422
VERTEX2 1204 -2.47562295 -9.62382698 1.37611632
VERTEX2 1205 -2.37693673 -9.06690304 1.40551749
VERTEX2 1206 -2.30109382 -8.48291585 1.46653425
VERTEX2 1207 -2.17280659 -7.87081889 1.38068726
VERTEX2 1208 -2.06964929 -7.24490778 1.44557110
VERTEX2 1209 -1.99196873 -6.62232221 1.44377913
VERTEX2 1210 -1.93638090 -6.00388244 1.46446982
VERTEX2 1211 -1.82184961 -5.39586042 1.39219514
VERTEX2 1212 -1.71865161 -4.78774200 1.44266183
VERTEX2 1213 -1.66287537 -4.17612475 1.51630073
VERTEX2 1214 -1.59517327 -3.45238099 1.29391826
VERTEX2 1215 -1.44407570 -2.87356489 1.35306854
VERTEX2 1216 -1.40410053 -2.31444235 1.57035284
VERTEX2 1217 -1.38098790 -1.72805211 1.55092381
VERTEX2 1218 -1.37775653 -1.11872721 1.50053329
VERTEX2 1219 -1.33796464 -0.45038865 1.53136690
VERTEX2 1220 -1.34196438 0.15583834 1.62234005
VERTEX2 1221 -1.34772785 0.17399725 1.17000355
VERTEX2 1222 -1.33290973 0.18897600 0.57319365
VERTEX2 1223 -1.32504968 0.19099469 0.01403735
VERTEX2 1224 -0.76082157 0.11227771 -0.16866222
VERTEX2 1225 -0.15065958 0.01323122 -0.15451024
VERTEX2 1226 -0.05276256 -0.00209318 -0.17086084
VERTEX2 1227 -0.05276256 -0.00209318 -0.17152284
