1 79 91 0.00051772 4 
2 70 95 0.00055772 4 
3 98 105 0.00045728 3 
4 19 166 0.00285009 10 
5 19 172 0.00302014 10 
6 25 172 0.00313965 10 
7 25 178 0.00324653 10 
8 32 178 0.00326690 10 
9 32 183 0.00335169 10 
10 44 189 0.00347753 10 
11 185 192 0.00352375 10 
12 44 195 0.00358178 10 
13 50 195 0.00359293 10 
14 50 201 0.00370543 10 
15 50 203 0.00375616 10 
16 61 203 0.00376926 10 
17 101 204 0.00380280 10 
18 61 209 0.00392542 10 
19 67 209 0.00392335 10 
20 67 220 0.00411054 10 
21 81 220 0.00414251 10 
22 81 226 0.00424838 10 
23 87 226 0.00425788 10 
24 191 226 0.00435371 10 
25 87 231 0.00446205 10 
26 94 231 0.00448247 10 
27 226 231 0.00448977 10 
28 94 241 0.00467176 10 
29 101 241 0.00475940 10 
30 101 247 0.00487109 10 
31 107 247 0.00491102 10 
32 107 254 0.00503858 10 
33 114 254 0.00508207 10 
34 107 256 0.00512801 10 
35 114 256 0.00508098 10 
36 230 256 0.00516413 10 
37 107 258 0.00520790 10 
38 114 258 0.00522186 10 
39 121 266 0.00539466 10 
40 126 266 0.00538906 10 
41 126 272 0.00552081 10 
42 132 272 0.00552773 10 
43 132 278 0.00563878 10 
44 138 278 0.00564875 10 
45 138 284 0.00577102 10 
46 151 284 0.00577669 10 
47 151 291 0.00590096 10 
48 151 297 0.00602685 10 
49 157 297 0.00603402 10 
50 163 297 0.00604365 10 
51 166 297 0.00604198 10 
52 53 302 0.00624894 10 
53 19 305 0.00638744 10 
54 157 305 0.00640487 10 
55 163 305 0.00641326 10 
56 166 305 0.00640211 10 
57 172 305 0.00642974 10 
58 235 311 0.00644716 10 
59 98 312 0.00648538 10 
60 19 315 0.00653970 10 
61 25 315 0.00665799 10 
62 172 315 0.00680983 10 
63 176 320 0.00535658 8 
64 172 328 0.00687563 10 
65 307 331 0.00416317 6 
66 19 337 0.00717701 10 
67 25 337 0.00737439 10 
68 172 337 0.00738118 10 
69 19 342 0.00728145 10 
70 25 342 0.00732719 10 
71 172 342 0.00376264 5 
72 178 342 0.00733373 10 
73 25 367 0.00383808 5 
74 32 367 0.00543336 7 
75 178 367 0.00464274 6 
76 183 367 0.00545443 7 
77 25 374 0.00802475 10 
78 32 374 0.00821673 10 
79 178 374 0.00574413 7 
80 183 374 0.00718816 9 
81 32 382 0.00649187 8 
82 183 382 0.00821108 10 
83 221 386 0.00845063 10 
84 32 387 0.00860990 10 
85 183 387 0.00502523 6 
86 187 397 0.00908102 10 
87 189 400 0.00877171 10 
88 189 414 0.00904255 10 
89 210 429 0.00950989 10 
90 44 437 0.00958423 10 
91 195 437 0.00983626 10 
92 71 441 0.00580202 6 
93 153 453 0.01013306 10 
94 44 454 0.00907989 9 
95 189 454 0.00809397 8 
96 355 461 0.01050741 10 
97 261 464 0.01060296 10 
98 44 467 0.00633138 6 
99 50 467 0.00848589 8 
100 195 467 0.00309534 3 
101 184 467 0.01077567 10 
102 195 484 0.00548619 5 
103 44 494 0.00557767 5 
104 50 494 0.00671446 6 
105 195 494 0.00558168 5 
106 201 494 0.00790705 7 
107 50 500 0.00914088 8 
108 201 500 0.00917450 8 
109 203 500 0.00685574 6 
110 61 508 0.01181917 10 
111 203 508 0.01198975 10 
112 209 508 0.00938300 8 
113 102 509 0.01184846 10 
114 180 514 0.01198506 10 
115 61 522 0.01227695 10 
116 203 522 0.01256644 10 
117 209 522 0.01244906 10 
118 61 528 0.01107366 9 
119 67 528 0.01244917 10 
120 81 528 0.01282228 10 
121 209 528 0.01285511 10 
122 220 528 0.01285038 10 
123 221 531 0.00624607 5 
124 67 532 0.00758789 6 
125 81 532 0.01273905 10 
126 220 532 0.01294745 10 
127 440 544 0.01037107 8 
128 67 556 0.01339917 10 
129 67 564 0.01356133 10 
130 81 564 0.01236563 9 
131 220 564 0.01343590 10 
132 67 567 0.01356830 10 
133 81 567 0.01386686 10 
134 220 567 0.01390502 10 
135 67 570 0.01364559 10 
136 81 570 0.01393674 10 
137 220 570 0.01394283 10 
138 9 573 0.01422970 10 
139 372 574 0.01447085 10 
140 81 575 0.01448355 10 
141 220 575 0.01451515 10 
142 81 588 0.01445092 10 
143 87 588 0.01479964 10 
144 226 588 0.01479417 10 
145 316 590 0.01596034 10 
146 87 597 0.01493680 10 
147 94 597 0.01536318 10 
148 226 597 0.01535423 10 
149 87 604 0.01520353 10 
150 94 604 0.01537784 10 
151 501 607 0.01581211 10 
152 94 616 0.01430943 9 
153 94 632 0.01631971 10 
154 94 637 0.01641998 10 
155 101 637 0.01646610 10 
156 101 642 0.01449031 9 
157 107 642 0.01624506 10 
158 526 642 0.01659116 10 
159 101 645 0.01633553 10 
160 107 645 0.01667159 10 
161 101 657 0.01655541 10 
162 101 663 0.00987055 6 
163 107 663 0.01491335 9 
164 114 663 0.01169987 7 
165 101 665 0.01687025 10 
166 107 665 0.01719676 10 
167 114 665 0.01724186 10 
168 336 671 0.01736844 10 
169 107 680 0.01755925 10 
170 107 683 0.01763618 10 
171 114 683 0.01798395 10 
172 40 689 0.01772263 10 
173 287 701 0.01800345 10 
174 273 703 0.01848932 10 
175 107 704 0.01818299 10 
176 114 704 0.01857280 10 
177 291 708 0.01828571 10 
178 107 714 0.01844222 10 
179 114 714 0.01684177 9 
180 210 718 0.01924663 10 
181 621 721 0.01913795 10 
182 110 727 0.00944411 5 
183 107 730 0.01139450 6 
184 114 730 0.01921606 10 
185 482 744 0.01967663 10 
186 661 748 0.01169260 6 
187 146 750 0.02019946 10 
188 121 754 0.01999552 10 
189 126 754 0.02037968 10 
190 121 759 0.02010710 10 
191 126 759 0.02051758 10 
192 126 762 0.02021732 10 
193 132 762 0.02062278 10 
194 466 763 0.02090224 10 
195 448 776 0.02063697 10 
196 132 778 0.01244434 6 
197 57 784 0.02124564 10 
198 132 792 0.02140798 10 
199 376 794 0.02179897 10 
200 314 794 0.02218668 10 
201 132 800 0.02192966 10 
202 138 800 0.02233286 10 
203 138 806 0.02202691 10 
204 138 821 0.01780333 8 
205 138 823 0.02227096 10 
206 151 828 0.02251601 10 
207 381 834 0.02290508 10 
208 66 838 0.02303591 10 
209 110 845 0.02341387 10 
210 151 847 0.01869871 8 
211 798 849 0.01638991 7 
212 151 855 0.01642442 7 
213 819 871 0.02389858 10 
214 162 873 0.02443925 10 
215 780 891 0.02501022 10 
216 151 895 0.02512742 10 
217 566 895 0.02577531 10 
218 151 897 0.02581084 10 
219 859 897 0.02629449 10 
220 138 903 0.02591836 10 
221 735 903 0.02646744 10 
222 138 904 0.02600410 10 
223 132 907 0.02607051 10 
224 138 907 0.02652551 10 
225 689 909 0.02616602 10 
226 132 911 0.02658326 10 
227 692 911 0.02672498 10 
228 516 916 0.02631207 10 
229 121 923 0.02694208 10 
230 126 923 0.02764562 10 
231 107 929 0.02749664 10 
232 114 929 0.02722194 10 
233 107 935 0.02696498 10 
234 114 935 0.02754630 10 
235 101 939 0.02687737 10 
236 107 939 0.02148748 8 
237 407 940 0.02781284 10 
238 101 944 0.02219860 8 
239 94 947 0.02796225 10 
240 101 947 0.02825248 10 
241 87 953 0.02808700 10 
242 94 953 0.02847268 10 
243 226 953 0.02848776 10 
244 526 956 0.02858847 10 
245 81 959 0.02876570 10 
246 87 959 0.02924713 10 
247 220 959 0.02932845 10 
248 226 959 0.02936069 10 
249 67 965 0.02911518 10 
250 81 965 0.02956438 10 
251 220 965 0.02958414 10 
252 876 972 0.02934580 10 
253 61 976 0.02946172 10 
254 67 976 0.02964571 10 
255 209 976 0.02994876 10 
256 50 982 0.02957215 10 
257 61 982 0.03005952 10 
258 201 982 0.03004959 10 
259 203 982 0.02093293 7 
260 682 985 0.02984112 10 
261 44 988 0.02990604 10 
262 50 988 0.01829745 6 
263 195 988 0.02391268 8 
264 201 988 0.01474077 5 
265 444 991 0.02086298 7 
266 44 994 0.03018921 10 
267 189 994 0.03090626 10 
268 195 994 0.03088036 10 
269 539 995 0.03051164 10 
270 139 996 0.03090726 10 
271 32 1003 0.03133275 10 
272 178 1003 0.03121726 10 
273 183 1003 0.03123542 10 
274 942 1006 0.03129573 10 
275 25 1008 0.03145996 10 
276 32 1008 0.03163030 10 
277 178 1008 0.03202048 10 
278 183 1008 0.03200165 10 
279 25 1010 0.03160579 10 
280 32 1010 0.03206964 10 
281 172 1010 0.03236733 10 
282 178 1010 0.03237213 10 
283 160 1012 0.03225233 10 
284 19 1016 0.03227571 10 
285 166 1016 0.03284906 10 
286 172 1016 0.03279057 10 
287 105 1027 0.03254957 10 
288 151 1029 0.03258353 10 
289 157 1029 0.03321714 10 
290 163 1029 0.03318324 10 
291 166 1029 0.01992621 6 
292 355 1033 0.03280729 10 
293 44 1035 0.03280944 10 
294 760 1051 0.03333053 10 
295 512 1052 0.03333887 10 
296 814 1062 0.03025066 9 
297 593 1064 0.03437644 10 
298 911 1070 0.02737589 8 
299 612 1070 0.03521957 10 
300 132 1084 0.03489472 10 
301 554 1084 0.03560845 10 
302 241 1093 0.03553320 10 
303 985 1100 0.03576105 10 
304 725 1116 0.03532658 10 
305 1073 1119 0.02446021 7 
306 958 1127 0.03568335 10 
307 386 1130 0.03669064 10 
308 740 1132 0.03647674 10 
309 931 1134 0.03647519 10 
310 101 1138 0.03677684 10 
311 1129 1141 0.03767310 10 
312 1112 1144 0.03811946 10 
313 107 1147 0.03818117 10 
314 114 1147 0.03771806 10 
315 107 1150 0.03777843 10 
316 114 1150 0.03778257 10 
317 428 1153 0.03853973 10 
318 298 1156 0.03905374 10 
319 114 1158 0.03909929 10 
320 121 1158 0.03913374 10 
321 374 1158 0.03912988 10 
322 8 1160 0.03961865 10 
323 121 1164 0.03967587 10 
324 126 1164 0.03979739 10 
325 922 1166 0.04020635 10 
326 34 1168 0.03956617 10 
327 22 1174 0.04026173 10 
328 114 1175 0.04023188 10 
329 121 1175 0.04025773 10 
330 923 1175 0.04034923 10 
331 929 1175 0.04007068 10 
332 1158 1175 0.04072609 10 
333 101 1188 0.04088635 10 
334 939 1188 0.04087332 10 
335 1138 1188 0.04088458 10 
336 1147 1188 0.04091625 10 
337 1150 1188 0.04134594 10 
338 1132 1197 0.04142901 10 
339 67 1199 0.04134852 10 
340 550 1206 0.04275647 10 
341 1050 1210 0.04172501 10 
342 1061 1210 0.04296178 10 
343 1075 1210 0.04303319 10 
344 1084 1210 0.04300959 10 
345 1088 1210 0.04318587 10 
346 1093 1210 0.04317168 10 
347 1098 1210 0.04290754 10 
348 1037 1215 0.03788111 9 
349 157 1217 0.04278093 10 
350 163 1217 0.04335343 10 
351 1029 1217 0.04267973 10 
352 1044 1217 0.04289384 10 
353 1050 1217 0.04355447 10 
354 1056 1217 0.04232156 10 
355 653 1224 0.04287320 10 
356 425 1226 0.04319106 10 
