1 19 166 0.00295647 10 
2 19 172 0.00311617 10 
3 25 172 0.00318332 10 
4 25 178 0.00329472 10 
5 32 178 0.00329973 10 
6 32 183 0.00338962 10 
7 44 189 0.00350652 10 
8 44 195 0.00361966 10 
9 50 195 0.00361479 10 
10 50 201 0.00371772 10 
11 50 203 0.00377291 10 
12 61 203 0.00376117 10 
13 61 209 0.00387435 10 
14 67 209 0.00387294 10 
15 67 220 0.00407377 10 
16 81 220 0.00406721 10 
17 81 226 0.00418747 10 
18 87 226 0.00417635 10 
19 87 231 0.00427539 10 
20 94 231 0.00427249 10 
21 226 231 0.00426313 10 
22 94 241 0.00447312 10 
23 101 241 0.00447281 10 
24 101 247 0.00457801 10 
25 107 247 0.00459314 10 
26 107 254 0.00471329 10 
27 114 254 0.00471300 10 
28 107 256 0.00476733 10 
29 114 256 0.00477481 10 
30 107 258 0.00481036 10 
31 114 258 0.00481691 10 
32 121 266 0.00498088 10 
33 126 266 0.00500356 10 
34 126 272 0.00513736 10 
35 132 272 0.00514396 10 
36 132 278 0.00527229 10 
37 138 278 0.00525686 10 
38 138 284 0.00540089 10 
39 151 284 0.00539583 10 
40 151 291 0.00552956 10 
41 284 295 0.00561125 10 
42 151 297 0.00566582 10 
43 157 297 0.00567394 10 
44 163 297 0.00568009 10 
45 166 297 0.00569558 10 
46 19 305 0.00597522 10 
47 157 305 0.00598642 10 
48 163 305 0.00601269 10 
49 166 305 0.00601565 10 
50 172 305 0.00603228 10 
51 302 309 0.00352187 6 
52 19 315 0.00542558 9 
53 25 315 0.00611701 10 
54 172 315 0.00626764 10 
55 172 328 0.00629884 10 
56 19 337 0.00516018 8 
57 25 337 0.00654766 10 
58 172 337 0.00670693 10 
59 19 342 0.00660482 10 
60 25 342 0.00667189 10 
61 172 342 0.00343973 5 
62 178 342 0.00669762 10 
63 25 367 0.00351373 5 
64 32 367 0.00423669 6 
65 178 367 0.00424733 6 
66 183 367 0.00498998 7 
67 25 374 0.00729450 10 
68 32 374 0.00735669 10 
69 178 374 0.00528778 7 
70 183 374 0.00660095 9 
71 32 382 0.00597120 8 
72 183 382 0.00754914 10 
73 32 387 0.00761841 10 
74 183 387 0.00453095 6 
75 189 400 0.00793275 10 
76 189 414 0.00820051 10 
77 44 437 0.00865342 10 
78 195 437 0.00885244 10 
79 44 454 0.00895736 10 
80 189 454 0.00918722 10 
81 44 467 0.00922223 10 
82 50 467 0.00948825 10 
83 195 467 0.00949923 10 
84 195 484 0.00957821 10 
85 44 494 0.00677165 7 
86 50 494 0.00982081 10 
87 195 494 0.01005259 10 
88 201 494 0.01008362 10 
89 50 500 0.00997637 10 
90 201 500 0.01023819 10 
91 203 500 0.01022213 10 
92 61 508 0.01017955 10 
93 203 508 0.01041583 10 
94 209 508 0.01044473 10 
95 176 518 0.01036683 10 
96 61 522 0.01046736 10 
97 203 522 0.01072403 10 
98 209 522 0.01075652 10 
99 61 528 0.01061728 10 
100 67 528 0.01090988 10 
101 81 528 0.01092628 10 
102 209 528 0.01094031 10 
103 220 528 0.01092624 10 
104 67 532 0.00961985 9 
105 81 532 0.01078383 10 
106 220 532 0.01106913 10 
107 67 556 0.01126172 10 
108 67 564 0.01140965 10 
109 81 564 0.01170055 10 
110 220 564 0.01163756 10 
111 67 567 0.01150132 10 
112 81 567 0.01177778 10 
113 220 567 0.01179656 10 
114 67 570 0.01158487 10 
115 81 570 0.01188396 10 
116 220 570 0.01187672 10 
117 81 575 0.01198979 10 
118 220 575 0.01198617 10 
119 81 588 0.01196256 10 
120 87 588 0.01229892 10 
121 226 588 0.01232378 10 
122 87 597 0.01218783 10 
123 94 597 0.01251725 10 
124 226 597 0.01253397 10 
125 87 604 0.01237781 10 
126 94 604 0.01267714 10 
127 94 616 0.01124142 9 
128 46 623 0.01289444 10 
129 94 632 0.01308579 10 
130 94 637 0.01316017 10 
131 101 637 0.01349024 10 
132 313 639 0.01326551 10 
133 101 642 0.01328664 10 
134 107 642 0.01368266 10 
135 101 645 0.01342178 10 
136 107 645 0.01373989 10 
137 101 657 0.01365872 10 
138 101 663 0.01229047 9 
139 107 663 0.01376860 10 
140 114 663 0.01415846 10 
141 101 665 0.01388139 10 
142 107 665 0.01421708 10 
143 114 665 0.01422836 10 
144 107 680 0.01416051 10 
145 107 683 0.01422890 10 
146 114 683 0.01458894 10 
147 107 704 0.01465081 10 
148 114 704 0.01498584 10 
149 107 714 0.01481693 10 
150 114 714 0.01517491 10 
151 576 723 0.01515821 10 
152 128 726 0.01522205 10 
153 107 730 0.01211600 8 
154 114 730 0.01534494 10 
155 121 754 0.01577755 10 
156 126 754 0.01614504 10 
157 121 759 0.01588162 10 
158 126 759 0.01627584 10 
159 126 762 0.01596436 10 
160 132 762 0.01639945 10 
161 389 773 0.01641357 10 
162 132 778 0.01654794 10 
163 132 792 0.01681225 10 
164 132 800 0.01700498 10 
165 138 800 0.01738131 10 
166 224 802 0.01712102 10 
167 138 806 0.01722492 10 
168 138 821 0.01738487 10 
169 138 823 0.01742894 10 
170 151 828 0.01770930 10 
171 151 847 0.01806716 10 
172 151 855 0.01820020 10 
173 794 863 0.01836760 10 
174 679 879 0.01886253 10 
175 63 887 0.01912595 10 
176 151 895 0.01932802 10 
177 385 896 0.02002559 10 
178 151 897 0.01989469 10 
179 138 903 0.01963997 10 
180 138 904 0.02011656 10 
181 132 907 0.01975816 10 
182 138 907 0.02021435 10 
183 132 911 0.01983298 10 
184 121 923 0.02018100 10 
185 126 923 0.02071781 10 
186 107 929 0.02031105 10 
187 114 929 0.02073121 10 
188 107 935 0.02039515 10 
189 114 935 0.02086615 10 
190 101 939 0.02042167 10 
191 107 939 0.02041810 10 
192 101 944 0.02065818 10 
193 94 947 0.02073620 10 
194 101 947 0.02145962 10 
195 87 948 0.02077197 10 
196 777 950 0.02098441 10 
197 87 953 0.02108986 10 
198 94 953 0.02158841 10 
199 226 953 0.02154123 10 
200 81 959 0.02119319 10 
201 87 959 0.02170595 10 
202 220 959 0.02189245 10 
203 226 959 0.02184252 10 
204 230 964 0.02144020 10 
205 67 965 0.02155548 10 
206 81 965 0.02202480 10 
207 220 965 0.02216516 10 
208 61 976 0.02193570 10 
209 67 976 0.02238583 10 
210 209 976 0.02242845 10 
211 50 982 0.02195497 10 
212 61 982 0.02244140 10 
213 201 982 0.02257415 10 
214 203 982 0.02256524 10 
215 44 988 0.02220064 10 
216 50 988 0.02268993 10 
217 195 988 0.02276979 10 
218 201 988 0.02039971 9 
219 44 994 0.02236874 10 
220 189 994 0.02285426 10 
221 195 994 0.02289433 10 
222 32 1003 0.02261136 10 
223 178 1003 0.02330145 10 
224 183 1003 0.02320630 10 
225 25 1008 0.02280028 10 
226 32 1008 0.02329661 10 
227 178 1008 0.02342883 10 
228 183 1008 0.02334796 10 
229 25 1010 0.02289631 10 
230 32 1010 0.02340015 10 
231 172 1010 0.02363109 10 
232 178 1010 0.02365598 10 
233 19 1016 0.02348361 10 
234 166 1016 0.02393123 10 
235 172 1016 0.02142192 9 
236 151 1029 0.02366159 10 
237 157 1029 0.02417814 10 
238 163 1029 0.02419237 10 
239 166 1029 0.02420394 10 
240 974 1043 0.02387222 10 
241 862 1072 0.01950888 8 
242 132 1084 0.02486138 10 
243 810 1086 0.02522409 10 
244 862 1086 0.02567527 10 
245 40 1130 0.02610858 10 
246 101 1138 0.02637017 10 
247 107 1147 0.02662122 10 
248 114 1147 0.02730412 10 
249 107 1150 0.02680051 10 
250 114 1150 0.02733821 10 
251 547 1152 0.02707455 10 
252 114 1158 0.02721195 10 
253 121 1158 0.02793213 10 
254 1020 1161 0.02751692 10 
255 121 1164 0.04921328 10 
256 126 1164 0.18270349 10 
257 114 1175 0.18442827 10 
258 121 1175 0.04293108 10 
259 923 1175 0.02858492 10 
260 929 1175 0.02888146 10 
261 1158 1175 0.01728963 6 
262 512 1184 0.02850156 10 
263 101 1188 0.02895105 10 
264 939 1188 0.02935580 10 
265 1138 1188 0.02955442 10 
266 1147 1188 0.02954156 10 
267 1150 1188 0.02955387 10 
268 529 1205 0.02956147 10 
269 1050 1210 0.02989606 10 
270 1061 1210 0.03038216 10 
271 1075 1210 0.03028928 10 
272 1084 1210 0.03031848 10 
273 1088 1210 0.02985948 10 
274 1093 1210 0.02987472 10 
275 1098 1210 0.02985256 10 
276 157 1217 0.02982647 10 
277 163 1217 0.03010470 10 
278 1029 1217 0.03011561 10 
279 1044 1217 0.03049401 10 
280 1050 1217 0.03039922 10 
281 1056 1217 0.03075300 10 
