VERTEX2 0 0.00003518 -0.00000060 0.00000009
VERTEX2 1 -0.00139469 0.00013788 -0.00103004
VERTEX2 2 -0.00282953 0.00027780 -0.00195606
VERTEX2 3 0.00631164 -0.00053896 -0.00472771
VERTEX2 4 0.63479363 -0.01125350 -0.00901448
VERTEX2 5 0.68831596 -0.01183712 -0.10077624
VERTEX2 6 0.68928459 -0.01268327 -0.89935093
VERTEX2 7 0.68147252 0.01192392 -1.51594021
VERTEX2 8 0.68793497 0.03876120 -2.13052455
VERTEX2 9 0.70648620 0.05447001 -2.76967830
VERTEX2 10 0.71872730 0.05638381 2.89792244
VERTEX2 11 0.71964992 0.05579002 2.22251006
VERTEX2 12 0.71962373 0.05910299 1.57251747
VERTEX2 13 0.72581838 0.07799860 0.91249389
VERTEX2 14 0.74646065 0.09219528 0.30376037
VERTEX2 15 0.75334860 0.09259371 -0.22161245
VERTEX2 16 1.04406771 0.02981138 -0.24050537
VERTEX2 17 1.64492070 -0.12403188 -0.27168574
VERTEX2 18 2.26769980 -0.29415014 -0.28183828
VERTEX2 19 2.88563559 -0.49599435 -0.33050033
VERTEX2 20 3.47413227 -0.69185416 -0.32436871
VERTEX2 21 4.07804143 -0.85015601 -0.21249803
VERTEX2 22 4.68254610 -0.99705374 -0.19513332
VERTEX2 23 5.31742733 -1.04777612 -0.08772825
VERTEX2 24 5.94381343 -1.12524275 -0.14479630
VERTEX2 25 6.57353881 -1.19926316 -0.14203297
VERTEX2 26 7.16981879 -1.30340842 -0.18254667
VERTEX2 27 7.77341417 -1.39863933 -0.16675436
VERTEX2 28 8.35834275 -1.50389160 -0.17103857
VERTEX2 29 8.74129967 -1.56589734 -0.14011733
VERTEX2 30 8.75383087 -1.56936787 -0.67191069
VERTEX2 31 8.85139459 -1.70294944 -0.94005723
VERTEX2 32 9.21573143 -2.22164841 -0.95813001
VERTEX2 33 9.58001083 -2.71328574 -0.90671639
VERTEX2 34 9.97315128 -3.18955608 -0.88510599
VERTEX2 35 10.37644140 -3.65827925 -0.85026742
VERTEX2 36 10.78650668 -4.12813755 -0.85830020
VERTEX2 37 11.05141125 -4.42752797 -0.85007182
VERTEX2 38 11.03608573 -4.40656641 -1.17079443
VERTEX2 39 11.02978364 -4.37775773 -1.34104759
VERTEX2 40 11.16549799 -4.92384711 -1.32351532
VERTEX2 41 11.30683618 -5.49492469 -1.35520961
VERTEX2 42 11.42168247 -6.02888651 -1.37761744
VERTEX2 43 11.52164006 -6.59389015 -1.41748709
VERTEX2 44 11.60647335 -7.16258938 -1.45402147
VERTEX2 45 11.66071496 -7.78644944 -1.50899993
VERTEX2 46 11.69115750 -8.41426211 -1.52817432
VERTEX2 47 11.71053128 -9.02740216 -1.56997384
VERTEX2 48 11.70652113 -9.64498848 -1.57663174
VERTEX2 49 11.69874038 -10.25852614 -1.62757836
VERTEX2 50 11.64594643 -10.83484866 -1.67214521
VERTEX2 51 11.58886773 -11.43971313 -1.70100072
VERTEX2 52 11.48987404 -12.02865909 -1.77747603
VERTEX2 53 11.38814246 -12.59221620 -1.76489001
VERTEX2 54 11.27324979 -13.11031207 -1.82669569
VERTEX2 55 11.27708634 -13.09192661 -1.82099571
VERTEX2 56 11.27956137 -13.08234749 -1.81058005
VERTEX2 57 11.13916601 -13.68432531 -1.82246975
VERTEX2 58 10.99604142 -14.27450241 -1.77674265
VERTEX2 59 10.86961927 -14.86386174 -1.80076965
VERTEX2 60 10.74238300 -15.44946724 -1.77980698
VERTEX2 61 10.60925122 -16.03549659 -1.83096125
VERTEX2 62 10.45821307 -16.59328475 -1.79056542
VERTEX2 63 10.30570339 -17.15570195 -1.82551120
VERTEX2 64 10.17169203 -17.70643360 -1.76198882
VERTEX2 65 10.03823272 -18.25485172 -1.81330341
VERTEX2 66 9.88722306 -18.83182266 -1.82217041
VERTEX2 67 9.72420705 -19.41214615 -1.82168810
VERTEX2 68 9.61378198 -19.85328814 -1.83734282
VERTEX2 69 9.61835072 -19.83856955 -1.99212554
VERTEX2 70 9.62519534 -19.82555152 -2.66607093
VERTEX2 71 9.62520359 -19.82557226 2.97483194
VERTEX2 72 9.61306365 -19.82278045 2.96548873
VERTEX2 73 9.59543603 -19.81837250 2.90070653
VERTEX2 74 9.57319774 -19.80328980 2.27935253
VERTEX2 75 9.55508240 -19.79616476 1.92729292
VERTEX2 76 9.56427225 -19.80621564 2.62240432
VERTEX2 77 9.57571892 -19.81092198 2.85595389
VERTEX2 78 9.31729557 -19.82116385 -3.09147526
VERTEX2 79 8.72127318 -19.85953140 -3.09762071
VERTEX2 80 8.11389906 -19.85853888 3.10991638
VERTEX2 81 7.51870812 -19.83302467 3.08272171
VERTEX2 82 6.92798222 -19.78902243 3.02836595
VERTEX2 83 6.34777910 -19.73439493 3.00472616
VERTEX2 84 5.79168680 -19.64520708 2.92690390
VERTEX2 85 5.24825774 -19.53778925 2.93461337
VERTEX2 86 4.63585151 -19.41221677 2.84561614
VERTEX2 87 4.29117112 -19.32531466 2.79047929
VERTEX2 88 3.94770737 -19.19568271 2.76041294
VERTEX2 89 3.96745544 -19.19668439 -3.12776752
VERTEX2 90 3.37034664 -19.19638814 3.12391975
VERTEX2 91 2.76264940 -19.18825925 -3.11066477
VERTEX2 92 2.16329026 -19.18011941 3.05669839
VERTEX2 93 1.54652998 -19.07376878 2.95563106
VERTEX2 94 0.92628415 -18.93084370 2.91304369
VERTEX2 95 0.30745084 -18.83902402 3.05607082
VERTEX2 96 -0.30137581 -18.78400514 3.08039850
VERTEX2 97 -0.88095036 -18.71842627 3.00950878
VERTEX2 98 -1.45734730 -18.61555873 2.95115419
VERTEX2 99 -2.15007588 -18.48863249 2.99746481
VERTEX2 100 -2.70195026 -18.37876266 2.94511599
VERTEX2 101 -3.30323154 -18.31839691 3.04756322
VERTEX2 102 -3.90984042 -18.23383276 2.94144317
VERTEX2 103 -4.50991915 -18.11519692 3.03701617
VERTEX2 104 -5.11365132 -18.03413640 3.00305070
VERTEX2 105 -5.72435521 -17.96365698 3.04965425
VERTEX2 106 -6.32418981 -17.88737376 2.99476194
VERTEX2 107 -6.93897841 -17.78532124 2.99086657
VERTEX2 108 -7.39308973 -17.73121579 3.05223621
VERTEX2 109 -7.43844852 -17.71914502 2.60334031
VERTEX2 110 -7.45536772 -17.70119635 2.01152205
VERTEX2 111 -7.45451748 -17.61958760 1.50525237
VERTEX2 112 -7.42243794 -16.98814123 1.55952887
VERTEX2 113 -7.43243198 -16.36772810 1.60641615
VERTEX2 114 -7.45716008 -15.75556892 1.64306147
VERTEX2 115 -7.52052887 -15.12311072 1.70221503
VERTEX2 116 -7.62665464 -14.37965565 1.74524108
VERTEX2 117 -7.75079527 -13.77609465 1.83962397
VERTEX2 118 -7.75325885 -13.76400893 1.50306966
VERTEX2 119 -7.68905990 -13.25458611 1.44871494
VERTEX2 120 -7.62472731 -12.60722027 1.53779063
VERTEX2 121 -7.62313217 -11.99601615 1.60432241
VERTEX2 122 -7.64521322 -11.41968165 1.66039743
VERTEX2 123 -7.66574091 -11.24600981 1.64749056
VERTEX2 124 -7.57696891 -11.01466227 1.22406246
VERTEX2 125 -7.35034508 -10.43186519 1.21298611
VERTEX2 126 -7.20684026 -9.82489127 1.41933392
VERTEX2 127 -7.09600875 -9.18933266 1.41776149
VERTEX2 128 -7.00794821 -8.55329124 1.45408687
VERTEX2 129 -6.91128381 -7.93980197 1.42111795
VERTEX2 130 -6.83284019 -7.32852761 1.47349115
VERTEX2 131 -6.77547135 -6.72342702 1.56166483
VERTEX2 132 -6.74516887 -6.12842999 1.51180387
VERTEX2 133 -6.68635505 -5.56599642 1.47490882
VERTEX2 134 -6.61985024 -4.97477930 1.45667630
VERTEX2 135 -6.52708626 -4.41120294 1.43033278
VERTEX2 136 -6.44052233 -3.79133024 1.44990170
VERTEX2 137 -6.33194214 -3.17410487 1.40801610
VERTEX2 138 -6.24363451 -2.55904757 1.48828813
VERTEX2 139 -6.21638690 -1.96196736 1.54874210
VERTEX2 140 -6.22841837 -1.34570628 1.57486673
VERTEX2 141 -6.21711503 -0.74609452 1.52180664
VERTEX2 142 -6.19738863 -0.13295269 1.51371607
VERTEX2 143 -6.09758488 0.47147956 1.39895244
VERTEX2 144 -6.04642752 0.81429207 1.41350928
VERTEX2 145 -6.27845880 0.30663772 0.78903586
VERTEX2 146 13.18536273 -33.05089870 1.98309972
VERTEX2 147 13.18632864 -33.01305913 1.50200005
VERTEX2 148 13.22219945 -32.59748441 1.46888734
VERTEX2 149 13.27779727 -31.98448335 1.49579237
VERTEX2 150 13.30477923 -31.37890143 1.51167082
VERTEX2 151 13.31411519 -30.76827436 1.59925898
VERTEX2 152 13.30851887 -30.12575749 1.53404070
VERTEX2 153 13.30302536 -29.48339704 1.62268171
VERTEX2 154 13.28873553 -28.84410020 1.54817746
VERTEX2 155 13.29051764 -28.20648731 1.57667550
VERTEX2 156 13.27582048 -27.56548875 1.60229652
VERTEX2 157 13.27068986 -26.98828372 1.53197955
VERTEX2 158 13.27773439 -26.81464979 1.56305034
VERTEX2 159 13.27179787 -26.83618013 2.56412738
VERTEX2 160 13.24591870 -26.82203535 -2.66903502
VERTEX2 161 -0.09339002 0.49744277 2.71208630
VERTEX2 162 -0.10747151 0.49441180 -2.54137180
VERTEX2 163 -0.11038370 0.48017773 -1.54994321
VERTEX2 164 -0.18528325 0.57523564 -0.49120498
VERTEX2 165 -0.02522708 0.55734490 -0.08300503
VERTEX2 166 0.65816934 0.50674092 -0.08108677
VERTEX2 167 1.26663939 0.44950155 -0.11031651
VERTEX2 168 1.84659712 0.39374578 -0.09816532
VERTEX2 169 2.43377433 0.31589225 -0.13491599
VERTEX2 170 3.01406849 0.24158108 -0.15544420
VERTEX2 171 3.56932170 0.13777929 -0.19362957
VERTEX2 172 4.18816502 0.02416929 -0.17946183
VERTEX2 173 4.81426396 -0.10292437 -0.20224229
VERTEX2 174 5.43203504 -0.22234152 -0.16205065
VERTEX2 175 6.04141848 -0.31778708 -0.18672242
VERTEX2 176 6.63321657 -0.44272159 -0.17711027
VERTEX2 177 7.25076353 -0.55046020 -0.20496140
VERTEX2 178 7.87183786 -0.70211233 -0.24353624
VERTEX2 179 8.27471589 -0.79017337 -0.19009620
VERTEX2 180 8.32188872 -0.80340127 -0.63236539
VERTEX2 181 8.75831926 -1.12560939 -0.68383357
VERTEX2 182 9.15993304 -1.48870005 -0.85748729
VERTEX2 183 9.50118220 -1.91078900 -0.91455268
VERTEX2 184 9.80961367 -2.38749044 -1.05980264
VERTEX2 185 10.06760905 -2.88557183 -1.15117439
VERTEX2 186 10.26941434 -3.42122932 -1.21595614
VERTEX2 187 10.44887687 -3.93477723 -1.23708194
VERTEX2 188 10.63564736 -4.46792828 -1.24101354
VERTEX2 189 10.81624884 -5.00486031 -1.26614068
VERTEX2 190 10.99799050 -5.60895893 -1.29443124
VERTEX2 191 11.16885362 -6.20856030 -1.31807977
VERTEX2 192 11.32108524 -6.80122149 -1.34601858
VERTEX2 193 11.44282173 -7.34489668 -1.40130728
VERTEX2 194 11.54114893 -7.90669941 -1.42787457
VERTEX2 195 11.62023456 -8.46295549 -1.45633146
VERTEX2 196 11.68604548 -9.08033588 -1.49764950
VERTEX2 197 11.72306425 -9.69915930 -1.52526669
VERTEX2 198 11.74778609 -10.32082906 -1.58315456
VERTEX2 199 11.71938017 -10.92764552 -1.64447865
VERTEX2 200 11.67262336 -11.52253518 -1.66623704
VERTEX2 201 11.60251616 -12.11600066 -1.72292070
VERTEX2 202 11.53993525 -12.61256380 -1.70287148
VERTEX2 203 11.44019405 -13.33724807 -1.75582342
VERTEX2 204 11.31985138 -13.90337893 -1.85795791
VERTEX2 205 11.15289168 -14.45460226 -1.86753061
VERTEX2 206 11.00081832 -14.99082634 -1.86577354
VERTEX2 207 10.84297783 -15.54658984 -1.85001468
VERTEX2 208 10.66774449 -16.14707468 -1.85925822
VERTEX2 209 10.50381425 -16.74928392 -1.82087520
VERTEX2 210 10.33927249 -17.34191865 -1.82984466
VERTEX2 211 10.18864342 -17.93841506 -1.82770173
VERTEX2 212 10.01040683 -18.52427511 -1.88069889
VERTEX2 213 9.81572286 -19.10687468 -1.90152528
VERTEX2 214 9.61631341 -19.67587308 -1.90538755
VERTEX2 215 9.50256503 -19.99124356 -1.94124501
VERTEX2 216 9.51841747 -19.96432667 -2.44004416
VERTEX2 217 9.54906459 -19.96114839 -2.98238734
VERTEX2 218 9.55992294 -19.96535806 -3.03849341
VERTEX2 219 8.99758466 -19.91931145 3.07611514
VERTEX2 220 8.39255919 -19.87295539 3.03621071
VERTEX2 221 7.76816794 -19.80589904 3.08654501
VERTEX2 222 7.15035509 -19.76152098 3.06095051
VERTEX2 223 6.53191303 -19.73026157 -3.12596682
VERTEX2 224 5.92509163 -19.72876879 3.13136202
VERTEX2 225 5.31468265 -19.72096042 -3.10221368
VERTEX2 226 4.70521351 -19.71237085 3.13176939
VERTEX2 227 4.06101413 -19.77906882 -2.99553809
VERTEX2 228 3.53995362 -19.76175042 2.92510208
VERTEX2 229 3.11129620 -19.72661399 3.04432636
VERTEX2 230 2.82573163 -19.70993752 3.01619118
VERTEX2 231 3.03352221 -19.72946684 3.08703946
VERTEX2 232 2.72620299 -19.58955415 2.66071919
VERTEX2 233 2.16403166 -19.32539082 2.76286490
VERTEX2 234 1.59556526 -19.09756580 2.71847221
VERTEX2 235 1.35779535 -18.99326314 2.71348468
VERTEX2 236 1.02522104 -18.99256174 3.11892205
VERTEX2 237 0.39836803 -19.00432102 -3.09397526
VERTEX2 238 -0.22229711 -19.04960071 -3.12689008
VERTEX2 239 -0.83663170 -19.04338986 3.08836391
VERTEX2 240 -1.39796053 -18.92385635 2.86965361
VERTEX2 241 -1.91598504 -18.79409014 2.95515143
VERTEX2 242 -2.48559515 -18.72514262 2.99542708
VERTEX2 243 -3.08634267 -18.63727973 2.99578591
VERTEX2 244 -3.70134176 -18.58798209 3.06638429
VERTEX2 245 -4.30522249 -18.53576131 3.01127953
VERTEX2 246 -4.89556855 -18.44669980 2.93806466
VERTEX2 247 -5.48727508 -18.36089106 3.04317290
VERTEX2 248 -6.03914030 -18.33385069 3.07444578
VERTEX2 249 -5.98800830 -18.34207437 -3.01600213
VERTEX2 250 -5.98190640 -18.34199433 2.67958849
VERTEX2 251 -6.29856650 -18.00037323 2.25591599
VERTEX2 252 -6.64805137 -17.57830640 2.26435589
VERTEX2 253 -7.01338229 -17.13035560 2.25329201
VERTEX2 254 -7.37209384 -16.67022153 2.21202150
VERTEX2 255 -7.44400140 -16.57676100 2.29595986
VERTEX2 256 -7.44609404 -16.49951240 1.81958236
VERTEX2 257 -7.49162988 -16.04107786 1.68353075
VERTEX2 258 -7.56810976 -15.45011069 1.76420824
VERTEX2 259 -7.70238982 -14.84799990 1.80425288
VERTEX2 260 -7.82650904 -14.29539719 1.79485200
VERTEX2 261 -7.82416286 -14.26388624 1.48168241
VERTEX2 262 -7.75088558 -13.61876501 1.48740419
VERTEX2 263 -7.69851212 -13.01089805 1.49994772
VERTEX2 264 -7.67272195 -12.41667197 1.59598035
VERTEX2 265 -7.69207890 -11.82375895 1.61530892
VERTEX2 266 -7.63318753 -11.25764812 1.48520508
VERTEX2 267 -7.56648914 -10.51825118 1.45526644
VERTEX2 268 -7.42242805 -9.92442821 1.34453649
VERTEX2 269 -7.29014919 -9.32009684 1.37406850
VERTEX2 270 -7.20531665 -8.70906716 1.48793310
VERTEX2 271 -7.09766030 -8.09967263 1.37736030
VERTEX2 272 -6.99931249 -7.48541292 1.44253581
VERTEX2 273 -6.99522323 -6.88518356 1.65244450
VERTEX2 274 -7.04721618 -6.27510324 1.67679738
VERTEX2 275 -7.02078012 -5.67668702 1.50584241
VERTEX2 276 -6.99975628 -5.07911332 1.62080747
VERTEX2 277 -7.03344981 -4.51920738 1.59539612
VERTEX2 278 -6.97592015 -3.88191750 1.50701160
VERTEX2 279 -6.92263981 -3.25229265 1.45204481
VERTEX2 280 -6.84171292 -2.62919143 1.45442504
VERTEX2 281 -6.73883530 -2.00512874 1.35435230
VERTEX2 282 -6.60703789 -1.38529314 1.39461418
VERTEX2 283 -6.50786630 -0.75741573 1.38713199
VERTEX2 284 -6.38463457 -0.14062367 1.41440727
VERTEX2 285 -6.30508340 0.50410252 1.43527362
VERTEX2 286 -6.22621799 1.12405902 1.48868793
VERTEX2 287 -6.22216845 1.17645549 1.38407245
VERTEX2 288 -6.22193769 1.17676235 0.77337126
VERTEX2 289 -6.23950288 1.16777725 0.17802919
VERTEX2 290 -5.83039483 1.14872373 -0.04795407
VERTEX2 291 -5.23862791 1.12499600 -0.03477760
VERTEX2 292 -4.66230883 1.09204831 -0.08643275
VERTEX2 293 -4.07993301 1.03682286 -0.10685017
VERTEX2 294 -3.50158512 0.97667562 -0.10380138
VERTEX2 295 -2.92611960 0.89234441 -0.21349051
VERTEX2 296 -2.34356550 0.74648182 -0.25734098
VERTEX2 297 -1.76479370 0.59526825 -0.26777750
VERTEX2 298 -1.17249870 0.43604421 -0.26760747
VERTEX2 299 -0.61107797 0.27398813 -0.20557308
VERTEX2 300 -0.03548711 0.18162565 -0.16261016
VERTEX2 301 0.51521721 0.07647729 -0.22102589
VERTEX2 302 0.81056876 0.00904071 -0.24169571
VERTEX2 303 0.78717064 0.01469181 -0.23732703
VERTEX2 304 1.28767124 -0.10725720 -0.22707895
VERTEX2 305 1.91479659 -0.15999272 -0.04223528
VERTEX2 306 2.53885280 -0.17760654 -0.06069769
VERTEX2 307 3.17239987 -0.23253811 -0.09780610
VERTEX2 308 3.79428215 -0.30252511 -0.15381215
VERTEX2 309 4.42897277 -0.37100064 -0.06101178
VERTEX2 310 5.05647081 -0.40894836 -0.09699815
VERTEX2 311 5.33766496 -0.43846638 0.07793633
VERTEX2 312 5.33220014 -0.44129729 1.06558278
VERTEX2 313 5.33904683 -0.22805570 1.56119488
VERTEX2 314 5.32652454 0.39541425 1.60094292
VERTEX2 315 5.30379982 1.02981121 1.59651261
VERTEX2 316 5.27139852 1.66721851 1.64762773
VERTEX2 317 5.21803986 2.30162277 1.65735788
VERTEX2 318 5.12763556 2.93206103 1.75163850
VERTEX2 319 5.05358554 3.27263874 1.82273625
VERTEX2 320 5.05296055 3.27078975 2.79042551
VERTEX2 321 5.03993192 3.26538455 -2.45392428
VERTEX2 322 5.03588633 3.25743181 -1.46040427
VERTEX2 323 5.04532410 3.24809055 -0.47057717
VERTEX2 324 5.04751027 3.24734955 0.18808177
VERTEX2 325 5.04804550 3.24738638 -0.34061239
VERTEX2 326 5.05689915 3.24050402 -0.93683372
VERTEX2 327 5.05771163 3.23648761 -1.56145371
VERTEX2 328 5.02928435 2.61015559 -1.60847902
VERTEX2 329 4.99442489 1.98290384 -1.66510965
VERTEX2 330 4.92720190 1.36719845 -1.68575959
VERTEX2 331 4.85984809 0.75522894 -1.70156447
VERTEX2 332 4.76819272 0.14683410 -1.72160926
VERTEX2 333 4.74379013 -0.00382251 -1.65820378
VERTEX2 334 4.80511781 0.00867227 -0.85377798
VERTEX2 335 4.82202088 0.00349535 0.13696686
VERTEX2 336 4.83093998 0.00653834 1.07758430
VERTEX2 337 4.83614827 0.03692035 2.05592965
VERTEX2 338 4.82832239 0.04251583 3.04498259
VERTEX2 339 4.83542931 0.04680434 -2.18874748
VERTEX2 340 4.83528509 0.04735515 -1.16940326
VERTEX2 341 4.94244294 -0.01916528 -0.53595445
VERTEX2 342 5.51492730 -0.33333871 -0.43273339
VERTEX2 343 6.07708841 -0.53700541 -0.30171430
VERTEX2 344 6.64952056 -0.72327643 -0.31155570
VERTEX2 345 6.87248156 -0.79206970 -0.33882858
VERTEX2 346 6.84497252 -0.78264464 -0.98557798
VERTEX2 347 6.84626199 -0.87882317 -1.54377653
VERTEX2 348 6.85481916 -1.47543508 -1.56030692
VERTEX2 349 6.84229127 -2.10116824 -1.60032993
VERTEX2 350 6.81545280 -2.89548840 -1.61969868
VERTEX2 351 6.79591381 -3.18163844 -1.64818995
VERTEX2 352 6.79104890 -3.20309479 -1.93522535
VERTEX2 353 6.77096666 -3.22691706 -2.59852680
VERTEX2 354 6.75491363 -3.23123811 3.08408707
VERTEX2 355 6.73438822 -3.23036726 2.36635119
VERTEX2 356 6.73001187 -3.22234598 1.79293501
VERTEX2 357 6.73251402 -3.20872461 1.14188289
VERTEX2 358 6.73821421 -3.20091327 0.52986716
VERTEX2 359 6.73945438 -3.20041648 -0.08072967
VERTEX2 360 6.74040598 -3.20062291 -0.25521771
VERTEX2 361 6.74688930 -3.19905986 0.66903536
VERTEX2 362 6.83621391 -2.96515633 1.20586687
VERTEX2 363 6.94607644 -2.68740496 1.20033166
VERTEX2 364 6.88001033 -2.34778049 1.81736465
VERTEX2 365 6.82710014 -2.05510491 1.32234919
VERTEX2 366 6.94732421 -1.92173886 0.77049554
VERTEX2 367 7.40908879 -1.48010457 0.77348735
VERTEX2 368 7.86898604 -1.04865126 0.72552155
VERTEX2 369 7.88870835 -1.02529805 0.47365115
VERTEX2 370 7.91074960 -1.02200198 -0.11321405
VERTEX2 371 7.91655361 -1.02508731 -0.65804718
VERTEX2 372 8.34140159 -1.37704319 -0.68551362
VERTEX2 373 8.80994450 -1.74564374 -0.68334679
VERTEX2 374 9.28422430 -2.15180635 -0.74441424
VERTEX2 375 9.64350995 -2.47736651 -0.77485590
VERTEX2 376 9.66052120 -2.48796147 -0.08140558
VERTEX2 377 9.70622094 -2.45596116 0.61257182
VERTEX2 378 10.23954676 -2.06588272 0.66580223
VERTEX2 379 10.72538695 -1.63620603 0.74922378
VERTEX2 380 11.17113169 -1.17020977 0.86713609
VERTEX2 381 11.32007672 -0.98925362 1.01560057
VERTEX2 382 11.32245474 -0.98503874 2.06075219
VERTEX2 383 11.32380206 -0.98590131 3.04771235
VERTEX2 384 11.32336791 -0.98629537 -2.27164175
VERTEX2 385 11.31911568 -0.99331594 -1.24144215
VERTEX2 386 11.42442621 -1.13208595 -1.01647004
VERTEX2 387 11.88001836 -1.55964509 -0.68467916
VERTEX2 388 12.37507546 -1.94630733 -0.67511492
VERTEX2 389 12.84100479 -2.34984331 -0.75661534
VERTEX2 390 12.88333972 -2.38831460 -0.28012920
VERTEX2 391 12.73910644 -2.38302787 0.10081445
VERTEX2 392 12.73019423 -2.38329246 1.14404593
VERTEX2 393 12.78283739 -2.02656139 2.04320624
VERTEX2 394 12.76009035 -2.00747694 3.03608122
VERTEX2 395 12.98235843 -1.96635342 -2.91005104
VERTEX2 396 12.97047406 -1.96893815 -2.91073204
VERTEX2 397 12.95534193 -1.96786192 -2.92233740
VERTEX2 398 12.94163530 -1.97370313 -2.72601111
VERTEX2 399 12.83942832 -2.05406696 -2.42862954
VERTEX2 400 12.34168152 -2.48819684 -2.37935260
VERTEX2 401 11.87510070 -2.90013691 -2.47190301
VERTEX2 402 11.32126115 -3.19067418 -2.73925639
VERTEX2 403 10.75099086 -3.42793111 -2.77354910
VERTEX2 404 10.20702537 -3.62032257 -2.85290752
VERTEX2 405 10.21798145 -3.61504627 -2.31971182
VERTEX2 406 10.22001417 -3.60284486 -1.34255556
VERTEX2 407 10.34242157 -3.94533926 -1.21498651
VERTEX2 408 10.54887917 -4.51675455 -1.25423585
VERTEX2 409 10.63080909 -4.79204023 -1.35532765
VERTEX2 410 10.63128914 -4.77723940 -1.98651584
VERTEX2 411 10.64561071 -4.75190790 -2.57898445
VERTEX2 412 10.15650991 -4.94606273 -2.78381092
VERTEX2 413 9.58487351 -5.13821425 -2.86489941
VERTEX2 414 9.00782097 -5.31986216 -2.76276035
VERTEX2 415 8.39523794 -5.55604397 -2.75574980
VERTEX2 416 8.10143802 -5.68457318 -2.81097008
VERTEX2 417 7.80435020 -5.66648556 3.04792164
VERTEX2 418 7.36751292 -5.62046225 3.00337962
VERTEX2 419 7.37236169 -5.61939549 -2.84721407
VERTEX2 420 7.42615281 -5.59591111 -2.62989198
VERTEX2 421 7.42824220 -5.59266187 -1.65924511
VERTEX2 422 7.42528416 -5.59678878 -0.41530354
VERTEX2 423 7.42901555 -5.59715671 -0.06801967
VERTEX2 424 7.42736589 -5.59732255 -0.06655634
VERTEX2 425 7.42635578 -5.59788979 -0.05391038
VERTEX2 426 7.42940476 -5.59817352 -0.06212112
VERTEX2 427 7.46498192 -5.60005997 -0.05809951
VERTEX2 428 8.13029838 -5.62164459 -0.06274541
VERTEX2 429 8.77773115 -5.67113302 -0.10267316
VERTEX2 430 9.12331930 -5.71226256 -0.14806359
VERTEX2 431 9.10492248 -5.71005910 -0.09543502
VERTEX2 432 9.11794510 -5.71464152 -0.72581821
VERTEX2 433 9.12289748 -5.72143099 -1.40171198
VERTEX2 434 9.08692979 -6.25578210 -1.62915773
VERTEX2 435 9.05550383 -6.89405087 -1.65694571
VERTEX2 436 8.97875225 -7.52927397 -1.66523500
VERTEX2 437 8.92754088 -8.17449631 -1.65680296
VERTEX2 438 8.87604065 -8.64335475 -1.68678105
VERTEX2 439 8.87422379 -8.65019140 -2.12158420
VERTEX2 440 8.88055800 -8.64521536 -2.76314562
VERTEX2 441 8.89686486 -8.64359260 2.89955307
VERTEX2 442 8.90446384 -8.64773275 2.27172161
VERTEX2 443 8.90459754 -8.65001382 1.70625657
VERTEX2 444 8.90747504 -8.63489589 1.11619334
VERTEX2 445 8.91239454 -8.63020216 0.45963035
VERTEX2 446 8.91059595 -8.63131867 0.66187767
VERTEX2 447 8.92196595 -8.60931903 1.29485791
VERTEX2 448 9.07246253 -7.98833854 1.31248028
VERTEX2 449 9.20596318 -7.35285633 1.41393874
VERTEX2 450 9.30075315 -6.71673525 1.42770119
VERTEX2 451 9.35413729 -6.24687124 1.47029491
VERTEX2 452 9.35419943 -6.24626416 1.09217810
VERTEX2 453 9.34858099 -6.25638978 0.46992516
VERTEX2 454 9.61170791 -6.23688853 0.04781710
VERTEX2 455 10.20716687 -6.21379892 0.02734780
VERTEX2 456 10.83614334 -6.21060913 -0.03713370
VERTEX2 457 11.19083266 -6.23385516 -0.12458751
VERTEX2 458 11.18745180 -6.23216825 -0.76986280
VERTEX2 459 11.17830644 -6.19499593 -1.37750847
VERTEX2 460 11.15755397 -6.58708891 -1.63455447
VERTEX2 461 11.08860884 -7.19786530 -1.72248385
VERTEX2 462 11.00132726 -7.70233281 -1.76244944
VERTEX2 463 11.01280979 -7.67988489 -0.92272509
VERTEX2 464 11.26179651 -7.75092113 -0.24507007
VERTEX2 465 11.84598679 -7.88505013 -0.23697207
VERTEX2 466 12.40003916 -8.03726981 -0.29221962
VERTEX2 467 12.97157345 -8.21996752 -0.33529090
VERTEX2 468 13.58358185 -8.43746115 -0.37008018
VERTEX2 469 14.17214204 -8.70144176 -0.45221566
VERTEX2 470 14.62325682 -8.91511002 -0.43262171
VERTEX2 471 14.62836362 -8.91786967 -0.63141828
VERTEX2 472 14.64221223 -8.93712615 -1.26202005
VERTEX2 473 14.64396393 -8.94558785 -1.90066864
VERTEX2 474 14.64012993 -8.95045564 -2.53030128
VERTEX2 475 14.63829761 -8.95070302 -3.10319202
VERTEX2 476 14.63705889 -8.95053076 2.52976428
VERTEX2 477 14.64160961 -8.95929503 1.97111011
VERTEX2 478 14.64201415 -8.96420128 1.34362700
VERTEX2 479 14.64188784 -8.96448679 0.88898463
VERTEX2 480 14.64304451 -8.96185645 1.45061606
VERTEX2 481 14.63989961 -8.94856767 2.45259292
VERTEX2 482 14.64895482 -8.95215399 2.78867177
VERTEX2 483 14.66172531 -8.95655594 2.78267230
VERTEX2 484 14.24120601 -8.80204398 2.81755623
VERTEX2 485 13.63728241 -8.61301448 2.81516205
VERTEX2 486 13.03536873 -8.40214895 2.82429749
VERTEX2 487 12.42478262 -8.22425219 2.85215673
VERTEX2 488 11.81923279 -8.04622652 2.88787354
VERTEX2 489 11.35304024 -7.94021778 2.91806441
VERTEX2 490 11.36306023 -7.93923835 -2.88049305
VERTEX2 491 11.37384781 -7.92499985 -1.94518916
VERTEX2 492 11.35745826 -8.15132834 -1.64253278
VERTEX2 493 11.29611894 -8.75166605 -1.69785089
VERTEX2 494 11.20937956 -9.35911502 -1.75905388
VERTEX2 495 11.14143566 -9.97303568 -1.65123238
VERTEX2 496 11.09920066 -10.58767743 -1.53342186
VERTEX2 497 11.09259255 -11.20307677 -1.61960873
VERTEX2 498 11.02450291 -11.82153164 -1.72158052
VERTEX2 499 10.89469293 -12.44454363 -1.73875354
VERTEX2 500 10.95242515 -13.00958830 -1.41013153
VERTEX2 501 11.02546221 -13.57979684 -1.48174879
VERTEX2 502 11.04930454 -14.26905247 -1.56612426
VERTEX2 503 11.04494901 -14.70971500 -1.58300624
VERTEX2 504 11.05236137 -14.68885118 -0.72860127
VERTEX2 505 11.29533509 -14.71716041 -0.10749401
VERTEX2 506 11.89169341 -14.80124785 -0.26025683
VERTEX2 507 12.47231954 -14.97324412 -0.33843939
VERTEX2 508 13.03214009 -15.18360865 -0.35114990
VERTEX2 509 13.64537516 -15.41602170 -0.40670748
VERTEX2 510 13.99549378 -15.57301935 -0.42029610
VERTEX2 511 13.99299356 -15.54858631 0.45652681
VERTEX2 512 14.02080847 -15.49016382 1.65223222
VERTEX2 513 14.01582822 -15.47538174 2.60639159
VERTEX2 514 13.94957595 -15.45656962 2.83264677
VERTEX2 515 13.34097947 -15.27394036 2.83375163
VERTEX2 516 12.75853093 -15.07848464 2.84940029
VERTEX2 517 12.16828414 -14.92869511 2.87734672
VERTEX2 518 11.57839499 -14.77562022 2.90146239
VERTEX2 519 11.05896534 -14.64997266 2.88554586
VERTEX2 520 10.89338292 -14.60608822 -2.99966568
VERTEX2 521 10.91915790 -14.57798853 -1.99740716
VERTEX2 522 10.84625685 -15.00290465 -1.72969230
VERTEX2 523 10.75306802 -15.62810008 -1.73703325
VERTEX2 524 10.64742107 -16.20651805 -1.77898302
VERTEX2 525 10.54407267 -16.74133635 -1.75513254
VERTEX2 526 10.42870848 -17.30270062 -1.81376032
VERTEX2 527 10.28244246 -17.87345307 -1.84844959
VERTEX2 528 10.10268825 -18.43056580 -1.92433238
VERTEX2 529 9.89230434 -19.02330312 -1.95264068
VERTEX2 530 9.64537568 -19.61797144 -1.98273267
VERTEX2 531 9.37605001 -20.18919954 -2.06274575
VERTEX2 532 9.27939684 -20.37136743 -2.01232840
VERTEX2 533 9.27480132 -20.34881702 -1.01322143
VERTEX2 534 9.27401395 -20.34827579 -0.34729910
VERTEX2 535 9.27677614 -20.34823831 -0.34803523
VERTEX2 536 9.63661383 -20.43452929 -0.21815957
VERTEX2 537 10.24583178 -20.58670346 -0.27691989
VERTEX2 538 10.80686012 -20.76010032 -0.30427580
VERTEX2 539 11.41551756 -20.97382782 -0.36930697
VERTEX2 540 12.00250227 -21.23189119 -0.46248174
VERTEX2 541 12.59001265 -21.46486776 -0.30050687
VERTEX2 542 13.22210221 -21.61196792 -0.24507563
VERTEX2 543 13.34585491 -21.64401792 -0.27499639
VERTEX2 544 13.36964799 -21.64178999 0.36129869
VERTEX2 545 13.39427288 -21.59801013 1.42623422
VERTEX2 546 13.41164633 -21.64458964 2.25235107
VERTEX2 547 13.41962949 -21.64414643 -3.00962923
VERTEX2 548 13.43161619 -21.63666049 -2.08713969
VERTEX2 549 13.43364358 -21.62399336 -1.28194212
VERTEX2 550 13.43270047 -21.60265325 -1.76260877
VERTEX2 551 13.44251318 -21.58348304 -2.39006812
VERTEX2 552 13.44615859 -21.58174131 -3.02070479
VERTEX2 553 13.30707909 -21.52651221 2.68766809
VERTEX2 554 12.71689828 -21.23678412 2.65315920
VERTEX2 555 12.13907623 -20.95675368 2.74300631
VERTEX2 556 11.53335170 -20.73293473 2.87907411
VERTEX2 557 10.93195917 -20.55720565 2.83824999
VERTEX2 558 10.35442289 -20.39568028 2.91966311
VERTEX2 559 10.36013603 -20.39764622 2.51338550
VERTEX2 560 10.35386281 -20.39070500 2.01323559
VERTEX2 561 10.33513843 -20.37233280 2.51948426
VERTEX2 562 10.15161926 -20.37159143 -3.11892788
VERTEX2 563 9.58452949 -20.29227635 2.97274151
VERTEX2 564 8.98615912 -20.20072081 3.02159157
VERTEX2 565 8.39694238 -20.12799911 2.96400366
VERTEX2 566 8.45962356 -20.14769660 -2.53568245
VERTEX2 567 8.36770188 -20.15420466 -1.74261983
VERTEX2 568 8.31445161 -20.66498046 -1.67995092
VERTEX2 569 8.26100903 -21.23960429 -1.71961763
VERTEX2 570 8.19007063 -21.81827005 -1.71524377
VERTEX2 571 8.13667752 -22.16757288 -1.76415286
VERTEX2 572 8.11862950 -22.18070251 -2.00950820
VERTEX2 573 8.08581385 -22.25334923 -1.73548312
VERTEX2 574 8.12487717 -22.31036986 -0.80765242
VERTEX2 575 8.23006227 -22.34479501 0.16243287
VERTEX2 576 8.23177419 -22.34609099 1.18752742
VERTEX2 577 8.22559535 -22.33079277 2.15546945
VERTEX2 578 8.21584931 -22.29999680 1.78931481
VERTEX2 579 8.08004731 -21.64711993 1.80323821
VERTEX2 580 7.90857533 -21.00799172 1.87699581
VERTEX2 581 7.70585546 -20.38632517 1.91815671
VERTEX2 582 7.47691210 -19.77481144 1.96015420
VERTEX2 583 7.34271825 -19.46640712 2.03757682
VERTEX2 584 7.33734550 -19.45619886 2.87573743
VERTEX2 585 6.77796320 -19.32388466 2.99212275
VERTEX2 586 6.21113563 -19.25368925 3.08790827
VERTEX2 587 5.61633967 -19.24331343 3.11176347
VERTEX2 588 5.01024318 -19.21748674 3.11478256
VERTEX2 589 4.48719184 -19.23943320 -3.09316755
VERTEX2 590 3.94232891 -19.28108752 -3.02380743
VERTEX2 591 3.40565600 -19.35853552 -3.02572130
VERTEX2 592 2.85992328 -19.43142725 -3.02845385
VERTEX2 593 2.68477897 -19.45309091 -2.82319699
VERTEX2 594 2.73915980 -19.39448193 -1.90342333
VERTEX2 595 2.62398430 -20.00505997 -1.67162840
VERTEX2 596 2.56920804 -20.63153320 -1.69537997
VERTEX2 597 2.47433134 -21.30884925 -1.73593999
VERTEX2 598 2.36908073 -21.90706311 -1.77812289
VERTEX2 599 2.27920102 -22.28407152 -1.84433463
VERTEX2 600 2.27932856 -22.30112160 -1.03788403
VERTEX2 601 2.32207360 -22.32772209 -0.01987880
VERTEX2 602 2.35955185 -22.31283676 0.99400836
VERTEX2 603 2.32639286 -22.07894061 1.76654789
VERTEX2 604 2.26931781 -21.46718924 1.52242405
VERTEX2 605 2.28173260 -20.81969906 1.60536300
VERTEX2 606 2.24457162 -20.17233894 1.64777661
VERTEX2 607 2.25848617 -19.58266198 1.56712343
VERTEX2 608 2.24707768 -19.19688623 1.61195538
VERTEX2 609 2.24347596 -19.17520408 1.94886438
VERTEX2 610 2.23614649 -19.17252112 2.88276841
VERTEX2 611 1.64232281 -19.02075266 2.88593752
VERTEX2 612 1.17114825 -18.88513953 2.88896308
VERTEX2 613 1.21481292 -18.89858978 -2.93055680
VERTEX2 614 1.22756222 -18.88901087 -1.89279904
VERTEX2 615 1.23817701 -19.37345323 -1.58838403
VERTEX2 616 1.24223941 -19.99412754 -1.63965983
VERTEX2 617 1.10385827 -20.58501338 -1.85627600
VERTEX2 618 0.93483361 -21.17870251 -1.84577374
VERTEX2 619 0.77446511 -21.73795968 -1.84677173
VERTEX2 620 0.59203161 -22.30165166 -1.94242294
VERTEX2 621 0.72487480 -21.96214155 -1.99353162
VERTEX2 622 0.85235749 -21.69208722 -2.06811654
VERTEX2 623 0.85568565 -21.68762475 -2.60433591
VERTEX2 624 0.82594227 -21.68724079 3.03723765
VERTEX2 625 0.78122445 -21.66905534 2.37972031
VERTEX2 626 0.75747382 -21.64162771 1.76021206
VERTEX2 627 0.83140683 -21.27258178 1.34826899
VERTEX2 628 1.01137104 -20.65789658 1.24676262
VERTEX2 629 1.18478979 -20.04277655 1.31716929
VERTEX2 630 1.31285805 -19.44798385 1.40151417
VERTEX2 631 1.38725183 -18.93618791 1.42132417
VERTEX2 632 1.38711484 -18.93694645 2.09642590
VERTEX2 633 1.29799377 -18.93013452 -3.10052865
VERTEX2 634 0.63513353 -18.96296677 -3.07323578
VERTEX2 635 -0.01711600 -18.96998038 3.07514082
VERTEX2 636 -0.65548925 -18.93810515 3.05762285
VERTEX2 637 -1.27748599 -18.86119281 2.95829128
VERTEX2 638 -1.66091278 -18.78027047 2.92851877
VERTEX2 639 -2.26084343 -18.67533952 3.00848884
VERTEX2 640 -2.86472525 -18.56407877 2.94014756
VERTEX2 641 -3.45383111 -18.45103499 2.93134446
VERTEX2 642 -4.01964028 -18.31230236 2.88599645
VERTEX2 643 -4.50238782 -18.17058710 2.81855402
VERTEX2 644 -4.50808509 -18.17179236 -2.70780375
VERTEX2 645 -4.54697839 -18.31573632 -1.93027190
VERTEX2 646 -4.68919637 -18.91913894 -1.63471043
VERTEX2 647 -4.65247575 -19.55391680 -1.34561214
VERTEX2 648 -4.43789086 -20.17379368 -1.17925164
VERTEX2 649 -4.27176436 -20.76720838 -1.51670177
VERTEX2 650 -4.37837716 -21.39761641 -1.77417381
VERTEX2 651 -4.39753986 -21.54592372 -0.97501314
VERTEX2 652 -4.33329683 -21.57554157 0.04958170
VERTEX2 653 -4.28833149 -21.53593240 1.07969999
VERTEX2 654 -4.29434261 -21.24261838 1.59269847
VERTEX2 655 -4.29910561 -20.69250498 1.58761988
VERTEX2 656 -4.29215618 -20.09379650 1.57491460
VERTEX2 657 -4.39221835 -19.48453480 1.85142559
VERTEX2 658 -4.57515138 -18.86946682 1.84439022
VERTEX2 659 -4.68397827 -18.38000792 1.77330126
VERTEX2 660 -4.68638362 -18.36734482 2.37431043
VERTEX2 661 -4.87083003 -18.34530453 3.02870492
VERTEX2 662 -5.45494383 -18.28183524 3.09814045
VERTEX2 663 -6.03396824 -18.29098676 -3.08497101
VERTEX2 664 -6.04042094 -18.28927220 -2.56161397
VERTEX2 665 -6.05715583 -18.38907643 -1.72961126
VERTEX2 666 -6.13560084 -18.99518612 -1.69228158
VERTEX2 667 -6.19882328 -19.55924484 -1.68746929
VERTEX2 668 -6.26864408 -20.15072147 -1.66147384
VERTEX2 669 -6.32367073 -20.77397189 -1.68637350
VERTEX2 670 -6.42937809 -21.38931427 -1.74558728
VERTEX2 671 -6.47925658 -21.67812164 -1.69041851
VERTEX2 672 -6.37135261 -21.09521429 -1.77933307
VERTEX2 673 -6.30189912 -20.82613419 -1.90967381
VERTEX2 674 -6.28730566 -20.81100414 -2.55733014
VERTEX2 675 -6.26336736 -20.80615423 3.11768928
VERTEX2 676 -6.25522801 -20.81100001 2.49393161
VERTEX2 677 -6.24906185 -20.81964426 1.87767289
VERTEX2 678 -6.21927110 -20.59996776 1.43140767
VERTEX2 679 -6.14991222 -20.02374059 1.49382550
VERTEX2 680 -6.17298784 -19.57767369 1.83844481
VERTEX2 681 -6.31929254 -18.98449679 1.81076787
VERTEX2 682 -6.48493957 -18.37929380 1.85824963
VERTEX2 683 -6.57181647 -18.10420998 2.01691084
VERTEX2 684 -6.53063802 -18.14716842 3.09524884
VERTEX2 685 -6.93548560 -18.30262487 -2.74467139
VERTEX2 686 -7.38437525 -18.43355448 -2.88912775
VERTEX2 687 -7.98136447 -18.57693127 -2.92426766
VERTEX2 688 -8.58189913 -18.68925518 -2.93612838
VERTEX2 689 -9.15485639 -18.82209922 -2.90809679
VERTEX2 690 -9.69376762 -18.98503097 -2.83425765
VERTEX2 691 -10.09146140 -19.11194615 -2.86259961
VERTEX2 692 -10.07362083 -19.10429476 -2.32915155
VERTEX2 693 -10.05063472 -19.18061189 -1.29026386
VERTEX2 694 -10.02561379 -19.25931804 -0.45472530
VERTEX2 695 -10.00120916 -19.25277309 0.34565451
VERTEX2 696 -9.99129785 -19.24647394 1.37161281
VERTEX2 697 -10.00366421 -19.28510989 1.11882214
VERTEX2 698 -9.66640366 -19.07842908 0.46439502
VERTEX2 699 -9.09700581 -18.77223401 0.57880575
VERTEX2 700 -8.57739731 -18.41624487 0.63267443
VERTEX2 701 -8.13921100 -18.05947117 0.69211751
VERTEX2 702 -7.65644580 -17.75069178 0.57726747
VERTEX2 703 -7.14041454 -17.42090024 0.61178509
VERTEX2 704 -6.64808958 -17.04957910 0.63039084
VERTEX2 705 -6.12316441 -16.62801221 0.70060809
VERTEX2 706 -5.67950962 -16.30837383 0.43158475
VERTEX2 707 -5.64289113 -16.30685274 -0.08873800
VERTEX2 708 -5.62763916 -16.31594879 -0.72741728
VERTEX2 709 -5.66276114 -16.27708448 -1.05962963
VERTEX2 710 -5.66586925 -16.26865983 -1.62099289
VERTEX2 711 -5.65122794 -16.28223490 -2.21795819
VERTEX2 712 -5.63830495 -16.27261195 -2.77693938
VERTEX2 713 -6.12662482 -16.31859498 -3.06152283
VERTEX2 714 -6.70214096 -16.28580487 3.02485587
VERTEX2 715 -7.32718032 -16.24194685 3.12842859
VERTEX2 716 -7.95964912 -16.21288891 2.99038642
VERTEX2 717 -8.58077458 -16.13813556 3.07503128
VERTEX2 718 -9.34225997 -16.01090477 2.89953864
VERTEX2 719 -9.95856621 -15.88851434 2.97391963
VERTEX2 720 -10.57073687 -15.76902201 2.91464225
VERTEX2 721 -11.18779664 -15.64597926 2.98279541
VERTEX2 722 -11.20491770 -15.64334173 3.04942975
VERTEX2 723 -11.22418684 -15.66277211 -2.14408532
VERTEX2 724 -11.22476383 -15.70339488 -1.07547093
VERTEX2 725 -11.19927562 -15.72097445 -0.44127417
VERTEX2 726 -10.87390017 -15.72103737 0.01278656
VERTEX2 727 -10.23598015 -15.69087628 0.04345760
VERTEX2 728 -9.59553918 -15.67506315 0.04476901
VERTEX2 729 -8.95868114 -15.62328733 0.10241164
VERTEX2 730 -8.33601907 -15.53958571 0.13991964
VERTEX2 731 -7.69277178 -15.44789628 0.15178751
VERTEX2 732 -7.55944351 -15.42285394 0.59736496
VERTEX2 733 -7.56985629 -15.40532403 1.59192097
VERTEX2 734 -7.62201521 -14.82765792 1.66966687
VERTEX2 735 -7.67539237 -14.20366529 1.63726812
VERTEX2 736 -7.67674058 -14.17658106 2.23523022
VERTEX2 737 -7.68757101 -14.17501357 3.03411526
VERTEX2 738 -8.28198606 -14.12124656 3.05262884
VERTEX2 739 -8.89986150 -14.01071530 2.99443694
VERTEX2 740 -9.42381765 -13.95763544 3.05689549
VERTEX2 741 -9.42791306 -13.95758595 2.68632568
VERTEX2 742 -9.40612146 -13.97356047 2.03362160
VERTEX2 743 -9.40351914 -13.98653347 1.41691177
VERTEX2 744 -9.39658540 -13.97159775 0.87764969
VERTEX2 745 -9.36730087 -13.95712894 0.28425949
VERTEX2 746 -8.80340187 -13.98953699 -0.19044890
VERTEX2 747 -8.13742754 -14.12396826 -0.22557326
VERTEX2 748 -7.53989384 -14.28640059 -0.29372332
VERTEX2 749 -7.43298570 -14.31560176 0.13582406
VERTEX2 750 -7.42516231 -14.30188603 1.06360081
VERTEX2 751 -7.45186811 -14.04741027 1.70442345
VERTEX2 752 -7.49542101 -13.43895049 1.60138108
VERTEX2 753 -7.51969076 -12.81514947 1.66488840
VERTEX2 754 -7.51486492 -12.18972174 1.50316245
VERTEX2 755 -7.48398010 -11.55362504 1.59095247
VERTEX2 756 -7.43623219 -10.92327363 1.41453724
VERTEX2 757 -7.35127577 -10.28396373 1.52638850
VERTEX2 758 -7.36223394 -9.71046162 1.66835748
VERTEX2 759 -7.34317284 -9.17033272 1.54752840
VERTEX2 760 -7.37107556 -8.57097720 1.65924171
VERTEX2 761 -7.37208845 -8.55283299 1.83988181
VERTEX2 762 -7.44143333 -8.52035669 2.67336891
VERTEX2 763 -8.00962386 -8.40782559 2.96661048
VERTEX2 764 -8.42429116 -8.32956618 2.93933050
VERTEX2 765 -8.40971674 -8.32953877 -2.70376476
VERTEX2 766 -8.41162707 -8.33538736 -1.70246562
VERTEX2 767 -8.40580108 -8.35083315 -0.77069526
VERTEX2 768 -8.37476680 -8.35319050 -0.04760445
VERTEX2 769 -7.73836959 -8.27309881 0.10986286
VERTEX2 770 -7.08540515 -8.22268864 0.04321858
VERTEX2 771 -7.00049630 -8.21670498 0.60465195
VERTEX2 772 -6.99867863 -8.21118731 1.47356119
VERTEX2 773 -6.96870804 -7.64135122 1.55931929
VERTEX2 774 -6.97474898 -7.10709688 1.58109832
VERTEX2 775 -6.97116537 -7.12355993 2.42494570
VERTEX2 776 -7.17993452 -7.09552088 3.04051562
VERTEX2 777 -7.79279305 -7.04496825 3.09874392
VERTEX2 778 -8.40593345 -7.02507233 3.07702205
VERTEX2 779 -9.00787769 -6.99386152 3.09520338
VERTEX2 780 -9.20257593 -6.97367253 2.96507189
VERTEX2 781 -9.18858522 -6.97896669 2.39182820
VERTEX2 782 -9.30978251 -6.70729534 1.96243338
VERTEX2 783 -9.53588967 -6.12730114 1.96144899
VERTEX2 784 -9.63226575 -5.89583758 1.93971563
VERTEX2 785 -9.63262224 -5.87511542 1.38768674
VERTEX2 786 -9.62634710 -5.85578708 0.79929130
VERTEX2 787 -9.61189264 -5.84154508 0.30820404
VERTEX2 788 -9.58936837 -5.84352172 -0.32143203
VERTEX2 789 -9.58089759 -5.85045192 -0.87385709
VERTEX2 790 -9.28363677 -6.25082299 -0.94122380
VERTEX2 791 -8.89016182 -6.73994632 -0.84275378
VERTEX2 792 -8.65688763 -6.95685212 -0.13867732
VERTEX2 793 -8.04579598 -7.02281834 -0.09408761
VERTEX2 794 -7.41021791 -7.06623686 -0.02301510
VERTEX2 795 -7.44229992 -7.08877630 0.40610869
VERTEX2 796 -7.45616652 -7.09407170 1.06510717
VERTEX2 797 -7.37726806 -6.79662767 1.32506024
VERTEX2 798 -7.22987389 -6.18357733 1.37505469
VERTEX2 799 -7.12812124 -5.54396798 1.44105696
VERTEX2 800 -7.05841382 -4.89384532 1.51428229
VERTEX2 801 -7.05406049 -4.26888309 1.59987140
VERTEX2 802 -7.09316978 -3.64571227 1.65764196
VERTEX2 803 -7.06141838 -3.02203557 1.49301646
VERTEX2 804 -7.02680802 -2.39971288 1.54892100
VERTEX2 805 -7.04518970 -1.77219580 1.62517301
VERTEX2 806 -7.09050413 -1.17621976 1.66724431
VERTEX2 807 -7.11361720 -0.98959327 1.95588832
VERTEX2 808 -7.11094148 -0.98976204 2.90554513
VERTEX2 809 -7.69869838 -0.94791965 3.05029393
VERTEX2 810 -8.31319059 -0.81092364 2.91000913
VERTEX2 811 -8.90943524 -0.68598932 2.90664671
VERTEX2 812 -8.91328055 -0.68513862 -2.64520440
VERTEX2 813 -8.92208039 -0.70369005 -1.67050610
VERTEX2 814 -8.91833279 -0.70678840 -0.67890150
VERTEX2 815 -8.89621287 -0.71481714 0.23979466
VERTEX2 816 -8.88631621 -0.70971266 0.92052746
VERTEX2 817 -8.87364195 -0.70216899 0.25135622
VERTEX2 818 -8.65370395 -0.74131078 -0.23785505
VERTEX2 819 -8.07285316 -0.88215438 -0.22401019
VERTEX2 820 -7.48190787 -1.02927520 -0.26566274
VERTEX2 821 -6.94550513 -1.17243690 -0.25047599
VERTEX2 822 -6.89132230 -1.18227998 0.50614741
VERTEX2 823 -6.88760391 -1.15408196 1.41922950
VERTEX2 824 -6.79812001 -0.51965705 1.33900238
VERTEX2 825 -6.62603049 0.11301339 1.30853483
VERTEX2 826 -6.54225146 0.75477463 1.47015736
VERTEX2 827 -6.45095796 1.38910143 1.42031951
VERTEX2 828 -6.36899976 2.02797954 1.45436762
VERTEX2 829 -6.27915026 2.63616160 1.41453734
VERTEX2 830 -6.17470998 3.24999633 1.40627115
VERTEX2 831 -6.05192275 3.83309385 1.35967024
VERTEX2 832 -5.93394204 4.40195556 1.35640479
VERTEX2 833 -5.87641623 4.66619351 1.49452241
VERTEX2 834 -5.87683725 4.66793110 2.54918200
VERTEX2 835 -5.84930993 4.66351265 -2.95640182
VERTEX2 836 -5.83609795 4.67364002 -2.01422006
VERTEX2 837 -5.83384930 4.65753544 -0.97877003
VERTEX2 838 -5.80223480 4.63578004 -0.11736873
VERTEX2 839 -5.77776928 4.62268603 -0.33597569
VERTEX2 840 -5.75324405 4.60156149 -0.89954708
VERTEX2 841 -5.74328458 4.57894968 -1.51762151
VERTEX2 842 -5.78089650 4.33511399 -1.75031130
VERTEX2 843 -5.88629665 3.77653397 -1.75409169
VERTEX2 844 -5.99250085 3.15588000 -1.76340763
VERTEX2 845 -6.11792563 2.53708687 -1.77947350
VERTEX2 846 -6.23654273 1.91373217 -1.77908720
VERTEX2 847 -6.37933440 1.29998480 -1.80726974
VERTEX2 848 -6.41152328 1.14977956 -1.32859745
VERTEX2 849 -6.40204823 1.14561828 -0.40968165
VERTEX2 850 -6.02319430 1.11952628 -0.05791345
VERTEX2 851 -5.37546532 1.05361106 -0.15231347
VERTEX2 852 -4.73482501 0.95057344 -0.13962511
VERTEX2 853 -4.12178964 0.86734795 -0.16939383
VERTEX2 854 -3.51968008 0.75756278 -0.16923130
VERTEX2 855 -2.90795731 0.66347338 -0.17294091
VERTEX2 856 -2.27692762 0.53393203 -0.21336763
VERTEX2 857 -1.64719183 0.40102460 -0.22262737
VERTEX2 858 -1.02736258 0.23754883 -0.27676836
VERTEX2 859 -0.53348007 0.10173238 -0.28325892
VERTEX2 860 -0.52806361 0.10355164 0.56917472
VERTEX2 861 -0.50787825 0.19920870 1.48564000
VERTEX2 862 -0.42788029 0.84452947 1.42634102
VERTEX2 863 -0.33043264 1.47276538 1.39410773
VERTEX2 864 -0.20645397 2.06435016 1.39218085
VERTEX2 865 -0.12694173 2.66477436 1.44951282
VERTEX2 866 -0.04549437 3.23930266 1.44806571
VERTEX2 867 -0.02728794 3.40141838 1.62898252
VERTEX2 868 -0.04223032 3.42347800 2.65164613
VERTEX2 869 -0.05582526 3.42400731 -2.65415508
VERTEX2 870 -0.05953672 3.42231067 -1.65459831
VERTEX2 871 -0.06991260 3.43046885 -0.68088647
VERTEX2 872 -0.07516235 3.43490292 0.00438719
VERTEX2 873 -0.07816690 3.43618350 -0.56814917
VERTEX2 874 -0.07561615 3.43362539 -1.12869726
VERTEX2 875 -0.07455124 3.43068497 -1.71619453
VERTEX2 876 -0.23681399 2.87796718 -1.87410522
VERTEX2 877 -0.43147345 2.34003961 -1.95895869
VERTEX2 878 -0.49791751 2.13979761 -1.57621788
VERTEX2 879 -0.44441472 1.49934345 -1.52494401
VERTEX2 880 -0.44171177 1.05059685 -1.63729016
VERTEX2 881 -0.43855214 1.10020277 -1.63167384
VERTEX2 882 -0.54190970 0.45635756 -1.87623474
VERTEX2 883 -0.80190559 -0.13114449 -2.06519151
VERTEX2 884 -0.98534655 -0.45702358 -2.13081698
VERTEX2 885 -0.98542582 -0.46337388 -1.54596397
VERTEX2 886 -0.96741747 -0.48245018 -0.52184459
VERTEX2 887 -0.93957471 -0.49506936 0.49556899
VERTEX2 888 -0.93220459 -0.48129811 1.48555420
VERTEX2 889 -0.93395635 -0.47541293 2.38936265
VERTEX2 890 -1.24175510 -0.31164798 2.66527702
VERTEX2 891 -1.77431608 -0.02259903 2.59629654
VERTEX2 892 -2.29778454 0.31616131 2.56215430
VERTEX2 893 -2.84682424 0.63438975 2.79997050
VERTEX2 894 -3.46215280 0.76703322 3.02254024
VERTEX2 895 -4.06801995 0.73681171 -2.96061380
VERTEX2 896 -4.06384215 0.73763264 -2.48314692
VERTEX2 897 -4.37136282 0.30816524 -2.21171065
VERTEX2 898 -4.72921626 -0.17595792 -2.19625830
VERTEX2 899 -5.01745274 -0.56088122 -2.26353246
VERTEX2 900 -5.43708449 -1.07702597 -2.26544641
VERTEX2 901 -5.81161087 -1.49635011 -2.32921734
VERTEX2 902 -6.23208740 -1.96175331 -2.30334853
VERTEX2 903 -6.54851151 -2.31796109 -2.34740653
VERTEX2 904 -6.54739467 -2.31657518 -1.64279867
VERTEX2 905 -6.54787082 -2.79708175 -1.58763065
VERTEX2 906 -6.53164163 -3.35638825 -1.52216279
VERTEX2 907 -6.49387581 -3.91853431 -1.53048549
VERTEX2 908 -6.46569737 -4.53779501 -1.50615254
VERTEX2 909 -6.42336636 -5.14762727 -1.52451218
VERTEX2 910 -6.45297317 -5.26814894 -1.89443701
VERTEX2 911 -6.62812595 -5.82671326 -1.83355123
VERTEX2 912 -6.76298532 -6.37881543 -1.82042343
VERTEX2 913 -6.88639728 -6.90188168 -1.81157869
VERTEX2 914 -7.02611260 -7.47724145 -1.83457318
VERTEX2 915 -7.16059914 -7.97358314 -1.87063554
VERTEX2 916 -7.10303843 -8.21781604 -1.32168581
VERTEX2 917 -6.98019649 -8.86773315 -1.57523645
VERTEX2 918 -7.01216843 -9.37943608 -1.65017867
VERTEX2 919 -7.05932661 -9.99415990 -1.69298510
VERTEX2 920 -7.13622806 -10.59328044 -1.70952065
VERTEX2 921 -7.22121739 -11.19369557 -1.76172131
VERTEX2 922 -7.33388443 -11.78229651 -1.78782692
VERTEX2 923 -7.46233508 -12.33361150 -1.85007705
VERTEX2 924 -7.59949439 -12.81154471 -1.83318228
VERTEX2 925 -7.60175748 -12.79944692 -1.32782110
VERTEX2 926 -7.45401836 -13.35399269 -1.31113277
VERTEX2 927 -7.29871159 -13.94120792 -1.33394604
VERTEX2 928 -7.15233999 -14.54344936 -1.34242191
VERTEX2 929 -7.01213637 -15.14260620 -1.34289091
VERTEX2 930 -6.87343190 -15.77683187 -1.42514506
VERTEX2 931 -6.79582241 -16.40367409 -1.50511619
VERTEX2 932 -6.75816143 -17.02933541 -1.56437389
VERTEX2 933 -6.76273054 -17.63834311 -1.62885356
VERTEX2 934 -6.78352641 -18.11441826 -1.63861697
VERTEX2 935 -6.78205661 -18.12164482 -0.95551849
VERTEX2 936 -6.78025354 -18.12230584 -0.00965615
VERTEX2 937 -6.23794998 -18.10365267 0.05394462
VERTEX2 938 -5.64343464 -18.12632549 -0.11864335
VERTEX2 939 -5.02268227 -18.19234497 -0.09035227
VERTEX2 940 -4.41459970 -18.27316205 -0.17551445
VERTEX2 941 -3.81502859 -18.39344132 -0.22856207
VERTEX2 942 -3.30200641 -18.51267935 -0.22355176
VERTEX2 943 -2.69854077 -18.65045323 -0.13466913
VERTEX2 944 -2.08938221 -18.73769315 -0.19086040
VERTEX2 945 -1.47696000 -18.86968351 -0.24545301
VERTEX2 946 -1.31083981 -18.91342690 -0.18059392
VERTEX2 947 -0.90582737 -18.85397827 0.14843400
VERTEX2 948 -0.33634425 -18.76968754 0.12984299
VERTEX2 949 0.26401113 -18.73971293 -0.02505835
VERTEX2 950 0.88423317 -18.77778275 -0.26489976
VERTEX2 951 1.47091457 -18.94902877 -0.33734994
VERTEX2 952 2.05712859 -19.12334767 -0.08708007
VERTEX2 953 2.67464133 -19.15766703 -0.00703707
VERTEX2 954 3.29776968 -19.15388849 -0.01422233
VERTEX2 955 3.88003739 -19.20242163 -0.17467201
VERTEX2 956 4.42261399 -19.28273938 -0.17670315
VERTEX2 957 4.94479212 -19.37986735 -0.26408560
VERTEX2 958 5.39928236 -19.49089984 -0.29051311
VERTEX2 959 5.81449538 -19.60545118 -0.35725463
VERTEX2 960 6.39791955 -19.76974739 -0.27736670
VERTEX2 961 6.97362375 -19.94521335 -0.30443429
VERTEX2 962 7.58594760 -20.07571813 -0.23890221
VERTEX2 963 8.19909989 -20.15889408 -0.05239260
VERTEX2 964 8.81248610 -20.20301191 -0.11592195
VERTEX2 965 9.42133078 -20.28391053 -0.12251052
VERTEX2 966 9.86063996 -20.34411058 -0.18145202
VERTEX2 967 9.88554353 -20.33915805 0.67206452
VERTEX2 968 9.88425445 -20.34033723 1.56889093
VERTEX2 969 9.88752933 -20.38025963 1.62836183
VERTEX2 970 9.89027752 -20.41176344 1.62636995
VERTEX2 971 9.87156795 -20.08750782 1.62628752
VERTEX2 972 9.83476998 -19.49712868 1.63201957
VERTEX2 973 9.91673563 -18.91165578 1.34718310
VERTEX2 974 10.05772057 -18.31020084 1.37934703
VERTEX2 975 10.17064128 -17.70435112 1.38425743
VERTEX2 976 10.27662242 -17.09576451 1.39744778
VERTEX2 977 10.40966010 -16.49147769 1.37142782
VERTEX2 978 10.52889286 -15.88778668 1.41747891
VERTEX2 979 10.64197181 -15.28780651 1.40518850
VERTEX2 980 10.73822659 -14.69039180 1.45199616
VERTEX2 981 10.82647723 -14.09586251 1.45929517
VERTEX2 982 10.88226717 -13.57240902 1.50495372
VERTEX2 983 10.93039574 -12.98257158 1.50179319
VERTEX2 984 10.95689545 -12.38892564 1.55899908
VERTEX2 985 10.96728726 -11.79700452 1.57910024
VERTEX2 986 10.95215665 -11.18143256 1.61523785
VERTEX2 987 10.93940863 -10.56735022 1.57833067
VERTEX2 988 10.94208716 -9.95363989 1.59182541
VERTEX2 989 10.92792250 -9.34690503 1.59920759
VERTEX2 990 10.92166486 -8.74347883 1.58816022
VERTEX2 991 10.90723567 -8.13654329 1.61271858
VERTEX2 992 10.90303716 -7.55754149 1.57985277
VERTEX2 993 10.89054632 -6.94909517 1.61233295
VERTEX2 994 10.87474941 -6.36186727 1.60211227
VERTEX2 995 10.84537423 -5.79623824 1.64921761
VERTEX2 996 10.78946915 -5.21474680 1.67613386
VERTEX2 997 10.74860964 -4.60066384 1.61144685
VERTEX2 998 10.73167960 -4.22900501 1.63303599
VERTEX2 999 10.78287049 -4.27079489 2.35011814
VERTEX2 1000 10.34458405 -3.92802833 2.49831605
VERTEX2 1001 9.92998578 -3.54797418 2.17664367
VERTEX2 1002 9.58696411 -3.10296502 2.26875368
VERTEX2 1003 9.26052014 -2.63222495 2.08841554
VERTEX2 1004 8.92682897 -2.09586420 2.14605726
VERTEX2 1005 8.57835372 -1.60122842 2.20786091
VERTEX2 1006 8.18775195 -1.12182821 2.28455562
VERTEX2 1007 7.78232384 -0.69586854 2.37553300
VERTEX2 1008 7.55230023 -0.48215279 2.53425129
VERTEX2 1009 7.46128170 -0.46744980 3.00806094
VERTEX2 1010 6.89512557 -0.40635084 3.06061679
VERTEX2 1011 6.29662584 -0.36298603 3.01763024
VERTEX2 1012 5.70870424 -0.29682751 3.06008995
VERTEX2 1013 5.07053355 -0.29363840 -3.10789186
VERTEX2 1014 4.44853009 -0.23894377 2.99954187
VERTEX2 1015 3.81470797 -0.19262971 3.08365922
VERTEX2 1016 3.04880321 -0.14640267 3.09057679
VERTEX2 1017 2.46298352 -0.12761496 3.03368546
VERTEX2 1018 1.90589049 -0.06079233 3.04119891
VERTEX2 1019 1.30493851 -0.03078622 3.10086404
VERTEX2 1020 0.69611755 0.00987071 3.08730780
VERTEX2 1021 0.07994186 0.04403454 3.04665399
VERTEX2 1022 0.03225970 0.04840262 3.03922836
VERTEX2 1023 0.04499891 0.04803755 3.12558929
VERTEX2 1024 -0.57600765 0.06150887 -3.13147169
VERTEX2 1025 -1.19265147 0.03747810 -3.11383257
VERTEX2 1026 -1.34138873 0.03382184 -3.10659312
VERTEX2 1027 -1.31467406 0.04660385 -2.18982994
VERTEX2 1028 -1.32913641 -0.11786347 -1.62624520
VERTEX2 1029 -1.36214126 -0.67795208 -1.64804021
VERTEX2 1030 -1.43088279 -1.29614145 -1.72888701
VERTEX2 1031 -1.54894824 -1.93725072 -1.78347136
VERTEX2 1032 -1.68506943 -2.57794824 -1.77984890
VERTEX2 1033 -1.83434932 -3.21706771 -1.82547886
VERTEX2 1034 -1.87984294 -3.38349476 -2.03992618
VERTEX2 1035 -1.88148493 -3.38487815 -2.65991267
VERTEX2 1036 -1.84632814 -3.40162007 3.05305899
VERTEX2 1037 -2.17935110 -3.27011650 2.81504114
VERTEX2 1038 -2.78614536 -3.14174019 2.90636341
VERTEX2 1039 -3.41938227 -2.96600747 2.87492625
VERTEX2 1040 -3.39074617 -2.96701011 -2.77791953
VERTEX2 1041 -3.35867529 -2.97157524 -1.76053943
VERTEX2 1042 -3.36092933 -3.00621189 -0.77217903
VERTEX2 1043 -3.32500318 -3.03994458 0.19779713
VERTEX2 1044 -3.33849576 -3.05557948 1.19204627
VERTEX2 1045 -3.34146353 -3.06196900 1.07818698
VERTEX2 1046 -3.35488362 -3.07969539 0.69209455
VERTEX2 1047 -3.37762531 -3.08935306 0.13561901
VERTEX2 1048 -3.01785946 -3.16174047 -0.17786344
VERTEX2 1049 -2.37566866 -3.26652998 -0.16098594
VERTEX2 1050 -1.73164416 -3.34382524 -0.08560601
VERTEX2 1051 -1.07924007 -3.42430229 -0.16503642
VERTEX2 1052 -0.45845014 -3.51210527 -0.11234702
VERTEX2 1053 -0.04393860 -3.57105168 -0.16522398
VERTEX2 1054 -0.01980840 -3.57389748 0.59546380
VERTEX2 1055 -0.01289577 -3.54371640 1.64713233
VERTEX2 1056 -0.00313107 -3.55864619 2.65444959
VERTEX2 1057 0.02503739 -3.56217074 -2.63651843
VERTEX2 1058 0.02423336 -3.56309804 -1.71308406
VERTEX2 1059 -0.08024076 -4.14444179 -1.79351003
VERTEX2 1060 -0.22378663 -4.77260040 -1.78823456
VERTEX2 1061 -0.33511271 -5.21585174 -1.91100512
VERTEX2 1062 -0.33919582 -5.22198658 -2.47544479
VERTEX2 1063 -0.31757738 -5.20995985 -3.07338659
VERTEX2 1064 -0.59281428 -5.15479508 2.94440002
VERTEX2 1065 -1.17538841 -5.08121073 3.06623707
VERTEX2 1066 -1.73371062 -5.02240426 3.00999945
VERTEX2 1067 -1.71411680 -5.02161757 -2.83997331
VERTEX2 1068 -1.69982038 -5.01182420 -2.16661764
VERTEX2 1069 -1.69835739 -5.00799509 -1.99597101
VERTEX2 1070 -1.69569430 -5.00340847 -2.53445817
VERTEX2 1071 -2.16858128 -5.25346506 -2.66142125
VERTEX2 1072 -2.61936604 -5.48044964 -2.72985376
VERTEX2 1073 -2.59070272 -5.47999757 3.04284486
VERTEX2 1074 -3.12456214 -5.40239976 3.00889349
VERTEX2 1075 -3.70605648 -5.32021858 3.02585933
VERTEX2 1076 -3.71186513 -5.31991060 -2.85179986
VERTEX2 1077 -3.71795783 -5.33139165 -2.04470071
VERTEX2 1078 -3.95488692 -5.92864287 -1.99926591
VERTEX2 1079 -4.18553950 -6.48282293 -1.93687997
VERTEX2 1080 -4.18661042 -6.48563467 -2.42397863
VERTEX2 1081 -4.60578451 -6.76936010 -2.54702733
VERTEX2 1082 -4.76999738 -6.88295123 -2.26662062
VERTEX2 1083 -4.76702549 -6.90719593 -1.23763924
VERTEX2 1084 -4.69727126 -6.94364107 -0.27367654
VERTEX2 1085 -4.71861412 -6.94889454 0.70733575
VERTEX2 1086 -4.36778697 -6.48201891 0.93704479
VERTEX2 1087 -3.99712508 -5.99769514 0.92445450
VERTEX2 1088 -3.64432838 -5.50954797 0.90718927
VERTEX2 1089 -3.59390056 -5.44605352 0.81119951
VERTEX2 1090 -3.59027876 -5.44283693 0.19492813
VERTEX2 1091 -3.05464655 -5.41910132 0.01750291
VERTEX2 1092 -2.43759370 -5.41379351 0.00199309
VERTEX2 1093 -1.86915420 -5.42550802 -0.06329679
VERTEX2 1094 -1.85058698 -5.44377397 -0.46872717
VERTEX2 1095 -1.81807771 -5.47363735 -1.06101334
VERTEX2 1096 -1.81836518 -5.47225097 -1.63455771
VERTEX2 1097 -1.90793815 -5.79226420 -1.85139738
VERTEX2 1098 -2.09646643 -6.37591779 -1.90948909
VERTEX2 1099 -2.32077832 -6.93732350 -2.00786644
VERTEX2 1100 -2.32952522 -6.95779828 -1.64833234
VERTEX2 1101 -2.27929691 -7.22355029 -1.38546772
VERTEX2 1102 -2.28077688 -7.23602575 -1.78287944
VERTEX2 1103 -2.43346202 -7.84475734 -1.81865841
VERTEX2 1104 -2.59935376 -8.47906499 -1.84829503
VERTEX2 1105 -2.78335098 -9.09857548 -1.86806150
VERTEX2 1106 -2.93264216 -9.57422041 -1.89516818
VERTEX2 1107 -2.93223776 -9.58442465 -1.64185206
VERTEX2 1108 -2.93347620 -10.21944266 -1.63588381
VERTEX2 1109 -3.02250156 -10.86825627 -1.74205828
VERTEX2 1110 -3.13284926 -11.47708099 -1.79342942
VERTEX2 1111 -3.33509936 -11.99818337 -1.89678512
VERTEX2 1112 -3.40502318 -12.57512073 -1.55340455
VERTEX2 1113 -3.41079619 -13.21499358 -1.65076260
VERTEX2 1114 -3.45971035 -13.82773610 -1.63545540
VERTEX2 1115 -3.49477845 -14.40766566 -1.65334282
VERTEX2 1116 -3.52622135 -15.05297341 -1.61879854
VERTEX2 1117 -3.53016212 -15.15388899 -1.74851401
VERTEX2 1118 -3.53331521 -15.15885998 -2.35972406
VERTEX2 1119 -8.59074990 -28.62071607 -1.43189902
VERTEX2 1120 -8.55139678 -29.22981751 -1.49712069
VERTEX2 1121 -8.54034063 -29.44165280 -1.61746687
VERTEX2 1122 7.72747510 -21.09559274 -3.12135713
VERTEX2 1123 7.14489982 -21.09871278 -3.10607489
VERTEX2 1124 6.57856854 -21.15634797 -3.00944168
VERTEX2 1125 5.94873712 -21.23761072 -2.99774920
VERTEX2 1126 5.85104820 -21.25385651 -2.65997028
VERTEX2 1127 -5.80284975 -20.70601522 -0.70665845
VERTEX2 1128 -5.85023209 -20.67639562 0.27346196
VERTEX2 1129 -5.88020338 -20.70156412 1.28105778
VERTEX2 1130 -5.73209789 -20.13613350 1.29283667
VERTEX2 1131 -5.34485181 -19.47159891 0.85759174
VERTEX2 1132 -4.93466303 -18.99828375 0.83610403
VERTEX2 1133 -4.53914172 -18.58990875 0.79544209
VERTEX2 1134 -4.36401595 -18.41117456 0.69619473
VERTEX2 1135 -4.37590311 -18.41636994 0.13571034
VERTEX2 1136 -4.39681891 -18.39322238 -0.43073480
VERTEX2 1137 -4.16696163 -18.53993725 -0.61727499
VERTEX2 1138 -3.66931574 -18.90620683 -0.63534335
VERTEX2 1139 -3.25945341 -19.20787769 -0.71213109
VERTEX2 1140 -3.27836256 -19.18844592 -1.19891059
VERTEX2 1141 -2.73443322 -16.61527630 -2.88683571
VERTEX2 1142 -3.15860827 -16.57400885 3.02461048
VERTEX2 1143 -3.81736107 -16.53187657 3.10942330
VERTEX2 1144 -4.46077922 -16.49973602 3.07476309
VERTEX2 1145 -5.10155468 -16.45248508 3.04528017
VERTEX2 1146 -5.73956081 -16.38971974 3.06109549
VERTEX2 1147 -6.38170340 -16.37635327 3.12943493
VERTEX2 1148 -6.96422157 -16.36883165 3.13954174
VERTEX2 1149 -7.01096383 -16.36984884 -2.64522410
VERTEX2 1150 -7.10173044 -16.46838687 -1.84221221
VERTEX2 1151 -7.09822683 -16.48989607 -0.84131976
VERTEX2 1152 -7.08500775 -16.49038439 0.21196652
VERTEX2 1153 -7.07436443 -16.48582030 1.22490522
VERTEX2 1154 -7.12765157 -16.16942514 1.77097251
VERTEX2 1155 -7.24927827 -15.54426524 1.72161744
VERTEX2 1156 -7.33503371 -14.94190423 1.73145885
VERTEX2 1157 -7.45092955 -14.37331647 1.84233009
VERTEX2 1158 -7.56537568 -13.77378489 1.71349814
VERTEX2 1159 -7.61249308 -13.18058979 1.61843969
VERTEX2 1160 -7.62083168 -12.54987644 1.48069130
VERTEX2 1161 -7.50711568 -11.92449910 1.39019891
VERTEX2 1162 -7.40113989 -11.29907560 1.44768033
VERTEX2 1163 -7.32340696 -10.66337032 1.44174543
VERTEX2 1164 -7.25966793 -10.02997278 1.52672990
VERTEX2 1165 -7.23650247 -9.49096970 1.50373719
VERTEX2 1166 -7.23837447 -9.48058335 1.99341856
VERTEX2 1167 -7.19665750 -9.47138263 2.93145083
VERTEX2 1168 -7.15401082 -9.45541435 -2.44748473
VERTEX2 1169 -7.15809080 -9.49773078 -1.62480843
VERTEX2 1170 -7.17950962 -10.07857730 -1.61795254
VERTEX2 1171 -7.19149571 -10.70826413 -1.58602895
VERTEX2 1172 -7.20710690 -11.30197551 -1.64826921
VERTEX2 1173 -7.24848902 -11.91765937 -1.63878682
VERTEX2 1174 -7.30407234 -12.54302333 -1.70726951
VERTEX2 1175 -7.40144998 -13.15331097 -1.74042834
VERTEX2 1176 -7.50816081 -13.76161532 -1.78348821
VERTEX2 1177 -7.63606480 -14.35770573 -1.78086746
VERTEX2 1178 -7.77673773 -14.96487372 -1.82766371
VERTEX2 1179 -7.92450016 -15.56754158 -1.79788883
VERTEX2 1180 -7.98296091 -15.82082234 -1.80446733
VERTEX2 1181 -7.98211101 -15.81539918 -0.97541844
VERTEX2 1182 -7.92846137 -15.82981922 -0.26304481
VERTEX2 1183 -7.31867734 -15.98671767 -0.23751500
VERTEX2 1184 -6.68955661 -16.10964135 -0.16773185
VERTEX2 1185 -6.06528629 -16.22790082 -0.19975690
VERTEX2 1186 -5.43737979 -16.33060616 -0.13330759
VERTEX2 1187 -4.78711943 -16.42406173 -0.17014800
VERTEX2 1188 -4.16337880 -16.52137586 -0.15178338
VERTEX2 1189 -3.51323149 -16.63471904 -0.12958854
VERTEX2 1190 -3.19435889 -16.67697584 -0.12106082
VERTEX2 1191 -3.16684315 -16.67662947 0.80056463
VERTEX2 1192 -3.16074056 -16.59765772 1.59938515
VERTEX2 1193 -3.15053537 -16.00198901 1.46782350
VERTEX2 1194 -3.10704338 -15.44025890 1.51046574
VERTEX2 1195 -3.07612936 -14.83114944 1.56307804
VERTEX2 1196 -3.06758120 -14.22167787 1.39075985
VERTEX2 1197 -2.96391630 -13.62167609 1.40226682
VERTEX2 1198 -2.89331050 -13.01236268 1.66147095
VERTEX2 1199 -2.90839529 -12.41557667 1.44706370
VERTEX2 1200 -2.85026979 -11.79892938 1.51566440
VERTEX2 1201 -2.82355847 -11.19255556 1.57108541
VERTEX2 1202 -2.83082924 -10.58832438 1.59363577
VERTEX2 1203 -2.85765468 -10.01991381 1.50277826
VERTEX2 1204 -2.74379970 -9.44904844 1.35496654
VERTEX2 1205 -2.63541032 -8.90730300 1.38371646
VERTEX2 1206 -2.54838343 -8.33875395 1.44407574
VERTEX2 1207 -2.40951041 -7.74458233 1.35758895
VERTEX2 1208 -2.29448398 -7.13650008 1.42187944
VERTEX2 1209 -2.20414052 -6.53266915 1.41963168
VERTEX2 1210 -2.13519324 -5.93284369 1.43987299
VERTEX2 1211 -2.00468234 -5.32461884 1.36763512
VERTEX2 1212 -1.88560900 -4.71615296 1.41816461
VERTEX2 1213 -1.81419602 -4.10361572 1.49189815
VERTEX2 1214 -1.72802777 -3.37928192 1.26968094
VERTEX2 1215 -1.56156914 -2.80066342 1.32897998
VERTEX2 1216 -1.50830149 -2.24571062 1.54686510
VERTEX2 1217 -1.47226439 -1.67795761 1.52797717
VERTEX2 1218 -1.45551954 -1.09762942 1.47689448
VERTEX2 1219 -1.40179089 -0.45856972 1.50709654
VERTEX2 1220 -1.39125826 0.11870136 1.59739115
VERTEX2 1221 -1.38813706 0.10791979 1.14385158
VERTEX2 1222 -1.38163792 0.11415299 0.54658476
VERTEX2 1223 -1.37295698 0.11613851 -0.01300352
VERTEX2 1224 -0.80113310 0.01966138 -0.19587098
VERTEX2 1225 -0.18663780 -0.09828456 -0.18210698
VERTEX2 1226 -0.08191466 -0.11767986 -0.19883798
VERTEX2 1227 -0.08191466 -0.11767986 -0.19949998
