1 123 129 2 2938.34874876 0.00000291 1 
2 3 161 2 48.77408817 0.00000260 1 
3 19 166 0 0.41485034 0.00210387 5 
4 19 172 0 0.02820697 0.00186053 4 
5 25 172 0 0.50366199 0.00188926 4 
6 25 178 0 0.30831851 0.00197271 4 
7 32 178 0 0.01493521 0.00198926 4 
8 32 183 0 0.07055611 0.00200878 4 
9 44 189 0 0.52863102 0.00294606 4 
10 44 195 0 0.35755137 0.00223520 4 
11 50 195 0 0.00572854 0.00220044 4 
12 50 201 0 0.04110605 0.00190116 3 
13 50 203 0 0.06975183 0.00186981 3 
14 61 203 0 0.00745912 0.00189957 3 
15 61 209 0 0.37222863 0.00231054 4 
16 67 209 0 0.41032090 0.00231892 4 
17 67 220 0 0.66144083 0.00249338 4 
18 81 220 0 0.48035877 0.00285400 5 
19 2 221 2 114.15431453 0.00000257 1 
20 81 226 0 0.05402805 0.00256395 4 
21 87 226 0 1.82553139 0.00293568 5 
22 87 231 0 0.34656585 0.00261398 4 
23 94 231 0 0.55778528 0.00256363 4 
24 226 231 0 1.44127402 0.00298140 5 
25 101 234 2 4126.09445684 0.00000223 1 
26 94 241 0 1.33132047 0.00269184 4 
27 101 241 0 0.50961029 0.00271368 4 
28 101 247 0 1.66454674 0.00275877 4 
29 107 247 0 1.80094617 0.00277391 4 
30 107 254 0 1.18346605 0.00283593 4 
31 114 254 0 0.12939160 0.00285571 4 
32 107 256 0 0.93085039 0.00284479 4 
33 114 256 0 0.24629796 0.00285051 4 
34 107 258 0 1.37911724 0.00289568 4 
35 114 258 0 1.15747212 0.00291757 4 
36 9 263 2 390.19764619 0.00000246 1 
37 121 266 0 0.00938596 0.00300150 4 
38 126 266 0 0.44864328 0.00354090 5 
39 126 272 0 1.03992836 0.00308366 4 
40 132 272 0 0.39070916 0.00364291 5 
41 132 278 0 0.58358145 0.00318653 4 
42 138 278 0 1.06458780 0.00629264 5 
43 44 278 2 1673.15506562 0.00000332 5 
44 138 284 0 0.02201259 0.00271657 3 
45 151 284 0 0.12777228 0.00401666 4 
46 151 291 0 0.60037557 0.00332501 4 
47 139 295 2 986.16116923 0.00000272 1 
48 151 297 0 0.07972289 0.00285534 3 
49 157 297 0 1.04991834 0.00346353 4 
50 166 297 0 1.30507781 0.00338416 4 
51 160 299 2 1894.15066999 0.00000254 1 
52 19 305 0 0.16044642 0.00356357 4 
53 157 305 0 0.58687353 0.00360609 4 
54 163 305 0 7.56485476 0.00484124 6 
55 166 305 0 0.37495035 0.00359328 4 
56 172 305 0 0.01886255 0.00397346 4 
57 19 315 0 0.48455906 0.00311894 3 
58 25 315 0 0.02281386 0.00310900 3 
59 172 315 0 0.05679715 0.00373264 4 
60 237 317 2 1628.34742790 0.00000243 1 
61 172 328 0 0.12482725 0.00325818 3 
62 19 337 0 6.63404991 0.00465678 5 
63 25 337 0 0.96522419 0.00399024 4 
64 172 337 0 0.57611560 0.00333478 3 
65 3 337 2 626.36887764 0.00000235 3 
66 19 342 0 0.00494520 0.00339366 3 
67 25 342 0 0.12855172 0.00405872 4 
68 172 342 0 0.01223902 0.00411911 4 
69 178 342 0 0.12442988 0.00417378 4 
70 261 349 2 1475.61576474 0.00000299 1 
71 316 356 2 467.37795726 0.00000263 1 
72 322 357 2 818.93276967 0.00000485 1 
73 144 359 2 807.77613373 0.00000251 1 
74 233 359 2 981.68627820 0.00000170 1 
75 140 363 2 44.31774635 0.00000279 1 
76 228 365 2 1169.15337462 0.00000356 1 
77 25 367 0 0.11414782 0.00379366 3 
78 32 367 0 0.01267433 0.00594687 6 
79 178 367 0 0.00286807 0.00377038 3 
80 183 367 0 0.06698524 0.00377550 3 
81 301 371 2 1601.41993428 0.00000289 1 
82 25 374 0 0.56424690 0.00460035 4 
83 32 374 0 0.09892849 0.00533945 5 
84 178 374 0 0.03055075 0.00457466 4 
85 183 374 0 0.05309447 0.00457357 4 
86 32 382 0 4.14688582 0.00393782 3 
87 183 382 0 1.28811506 0.00489029 4 
88 32 387 0 2.72468715 0.00477147 4 
89 183 387 0 0.18197642 0.00475056 4 
90 147 391 2 1637.23933567 0.00000280 1 
91 157 404 2 557.97623835 0.00000327 1 
92 132 412 2 383.63151687 0.00000336 1 
93 189 414 0 7.69047346 0.00585499 5 
94 316 415 2 885.30560761 0.00000630 1 
95 319 416 2 649.50820445 0.00000464 1 
96 112 424 2 213.61053731 0.00000386 1 
97 18 427 2 289.98866383 0.00000300 1 
98 44 437 0 0.00915802 0.00438326 3 
99 195 437 0 0.01161094 0.00437343 3 
100 283 452 2 1064.32039343 0.00000351 1 
101 44 454 0 0.65644164 0.00453482 3 
102 189 454 0 0.03962740 0.00543062 4 
103 239 455 2 3441.45994631 0.00000336 1 
104 97 463 2 1301.90495497 0.00000232 1 
105 282 464 2 1614.83493536 0.00000266 1 
106 44 467 0 0.12345281 0.00642091 5 
107 50 467 0 0.00895575 0.01024523 9 
108 195 467 0 0.00230988 0.00466931 3 
109 414 475 2 400.02168822 0.00000403 1 
110 219 477 2 828.41891886 0.00000330 1 
111 40 477 2 991.06616899 0.00000169 1 
112 362 478 2 1748.31908789 0.00000293 1 
113 195 484 0 0.09447226 0.00573932 4 
114 44 494 0 0.02880924 0.00580045 4 
115 50 494 0 0.00628832 0.00483253 3 
116 195 494 0 0.00818961 0.00684058 5 
117 201 494 0 0.00469852 0.00683703 5 
118 153 496 2 21.91676154 0.00000355 1 
119 50 500 0 0.14406209 0.00695099 5 
120 201 500 0 0.05353930 0.00492610 3 
121 203 500 0 0.03252445 0.00492685 3 
122 61 508 0 0.99413579 0.00713359 5 
123 203 508 0 0.26947301 0.01237418 10 
124 209 508 0 0.03711473 0.00606245 4 
125 186 517 2 371.63824622 0.00000354 1 
126 9 519 2 348.64678198 0.00000233 1 
127 468 520 2 1728.93672015 0.00000199 1 
128 61 522 0 1.37942234 0.00616074 4 
129 203 522 0 0.12859200 0.00685430 3 
130 209 522 0 0.00542469 0.00512685 3 
131 356 525 2 97.94949071 0.00000285 1 
132 61 528 0 0.47936102 0.00561660 3 
133 67 528 0 0.22419307 0.00640509 4 
134 81 528 0 0.23233822 0.00839620 6 
135 209 528 0 0.09444678 0.01065755 8 
136 220 528 0 0.13668760 0.00624813 4 
137 192 531 2 1422.23149732 0.00000318 1 
138 67 532 0 0.05459173 0.01180265 9 
139 81 532 0 0.11826401 0.00855228 6 
140 220 532 0 0.05648169 0.00668252 4 
141 27 534 2 1996.70360779 0.00000359 1 
142 397 536 2 482.29322138 0.00000245 1 
143 123 536 2 823.93074730 0.00000112 1 
144 83 537 2 2669.77951450 0.00000210 1 
145 327 538 2 944.19271925 0.00000208 1 
146 270 541 2 861.60724234 0.00000270 1 
147 92 543 2 2627.32389432 0.00000262 1 
148 319 544 2 524.75518526 0.00000204 1 
149 142 547 2 841.76375476 0.00000241 1 
150 309 549 2 1153.14626038 0.00000248 1 
151 229 554 2 306.91181720 0.00000544 1 
152 350 554 2 516.49885232 0.00000235 1 
153 67 556 0 0.98233216 0.00807441 4 
154 67 564 0 0.40168838 0.01312184 9 
155 81 564 0 0.02280941 0.00679968 4 
156 220 564 0 0.02684857 0.00684161 4 
157 283 566 2 2512.73883433 0.00000387 1 
158 67 567 0 2.67253169 0.00785438 5 
159 81 567 0 0.48923871 0.00905812 6 
160 220 567 0 0.21723258 0.00667765 4 
161 286 567 2 534.92842789 0.00000323 4 
162 26 568 2 2749.24099528 0.00000293 1 
163 67 570 0 2.40706627 0.00914013 6 
164 81 570 0 0.15671702 0.00906153 6 
165 220 570 0 0.13379867 0.00677088 4 
166 81 575 0 2.76594993 0.00797608 5 
167 220 575 0 1.08612706 0.01039663 7 
168 496 581 2 1606.63339794 0.00000274 1 
169 81 588 0 0.01497138 0.00570932 3 
170 87 588 0 0.47937722 0.00823139 5 
171 226 588 0 0.43156268 0.00772709 4 
172 371 596 2 2148.15324866 0.00000393 1 
173 87 597 0 2.27648751 0.00959847 6 
174 94 597 0 0.38888315 0.00705134 4 
175 226 597 0 0.55079633 0.00833465 5 
176 222 598 2 4493.37461031 0.00000318 1 
177 315 599 2 3111.90840316 0.00000221 1 
178 87 604 0 0.47149562 0.00712499 4 
179 94 604 0 0.01542269 0.00841416 5 
180 586 604 2 3291.86267538 0.00000300 5 
181 94 616 0 0.01350372 0.01237396 8 
182 176 621 2 1244.40246883 0.00000365 1 
183 161 625 2 949.54211467 0.00000610 1 
184 307 626 2 2713.04998925 0.00000281 1 
185 54 629 2 1291.49566840 0.00000288 1 
186 523 630 2 1593.35163680 0.00000332 1 
187 94 632 0 2.16969694 0.00884851 5 
188 31 633 2 684.67199002 0.00000308 1 
189 94 637 0 4.44236402 0.01010714 6 
190 101 637 0 0.19098383 0.00756765 4 
191 101 642 0 0.11555601 0.00894929 5 
192 107 642 0 0.04025021 0.01578415 9 
193 101 645 0 6.69527511 0.00765593 4 
194 107 645 0 1.54205090 0.00753876 4 
195 80 654 2 1184.71673528 0.00000398 1 
196 32 655 2 948.62814502 0.00000301 1 
197 422 656 2 929.26459463 0.00000696 1 
198 101 657 0 0.73548669 0.02411073 10 
199 74 661 2 702.46807506 0.00000345 10 
200 101 663 0 0.04971914 0.01684088 10 
201 107 663 0 0.01781179 0.00926663 5 
202 114 663 0 0.00275957 0.00919341 5 
203 101 665 0 1.55112265 0.02714513 8 
204 107 665 0 0.47667103 0.01316357 4 
205 114 665 0 0.13329170 0.00724834 3 
206 173 670 2 3063.66047472 0.00000303 1 
207 585 673 2 2636.40011689 0.00000353 1 
208 516 679 2 1078.43481783 0.00000346 1 
209 107 680 0 1.48615866 0.00952612 5 
210 107 683 0 0.94462224 0.00819599 4 
211 114 683 0 0.32178225 0.00948917 5 
212 426 683 2 1427.87234059 0.00000355 5 
213 521 686 2 2139.55713959 0.00000371 1 
214 41 686 2 2244.28972418 0.00000128 1 
215 304 689 2 3408.73260191 0.00000336 1 
216 617 692 2 490.59744450 0.00000358 1 
217 587 702 2 763.07088806 0.00000409 1 
218 107 704 0 0.34268109 0.01286474 7 
219 114 704 0 0.07528002 0.01693339 9 
220 163 705 2 2874.72277598 0.00000398 1 
221 354 713 2 2103.72402946 0.00000412 1 
222 107 714 0 1.79639085 0.01152516 6 
223 114 714 0 0.02860377 0.01445064 8 
224 209 720 2 668.40837741 0.00000375 1 
225 161 722 2 244.76139301 0.00000351 1 
226 659 723 2 401.48198397 0.00000315 1 
227 308 723 2 2343.90863088 0.00000143 1 
228 442 726 2 1491.58803890 0.00000354 1 
229 87 727 2 1349.28376942 0.00000344 1 
230 558 727 2 615.02554349 0.00000292 1 
231 107 730 0 0.19656714 0.01021493 5 
232 114 730 0 0.03540690 0.00854463 4 
233 383 736 2 768.13940901 0.00000462 1 
234 699 742 2 411.44090145 0.00000422 1 
235 629 750 2 209.45676682 0.00000379 1 
236 329 751 2 429.01944407 0.00000365 1 
237 121 754 0 0.33113739 0.00894170 4 
238 126 754 0 0.07673382 0.01520762 8 
239 297 755 2 573.52500373 0.00000329 1 
240 121 759 0 2.33625684 0.01204752 6 
241 126 759 0 0.22329988 0.01212382 6 
242 25 760 2 1607.70845217 0.00000373 1 
243 126 762 0 7.08482229 0.01046090 5 
244 132 762 0 2.00372045 0.01545192 8 
245 615 765 2 724.27878506 0.00000381 1 
246 508 765 2 1362.99153188 0.00000145 1 
247 552 770 2 1765.36040602 0.00000327 1 
248 273 774 2 739.30461393 0.00000311 1 
249 132 778 0 0.06999780 0.00903309 4 
250 758 779 2 2331.10308199 0.00000379 1 
251 660 783 2 1206.34294755 0.00000404 1 
252 466 784 2 980.33692251 0.00000326 1 
253 684 790 2 395.41164979 0.00000359 1 
254 132 792 0 1.26802734 0.01209345 4 
255 412 794 2 1868.76862560 0.00000476 1 
256 405 798 2 1062.67176179 0.00000359 1 
257 132 800 0 3.35686460 0.00923813 4 
258 138 800 0 0.14494330 0.01256180 6 
259 617 802 2 2283.00450647 0.00000353 1 
260 666 802 2 1947.00042988 0.00000151 1 
261 262 802 2 3813.22230637 0.00000122 1 
262 138 806 0 0.25140739 0.00756144 3 
263 624 806 2 1011.99091626 0.00000413 3 
264 579 807 2 1307.07141716 0.00000347 1 
265 386 807 2 523.50759578 0.00000102 1 
266 162 810 2 586.61168787 0.00000361 1 
267 618 812 2 2668.19266846 0.00000369 1 
268 442 819 2 1042.83462599 0.00000379 1 
269 754 820 2 871.06642543 0.00000306 1 
270 138 821 0 0.40674396 0.01111865 5 
271 138 823 0 6.54725682 0.00942327 4 
272 587 824 2 1645.89460280 0.00000427 1 
273 598 824 2 4441.49835916 0.00000088 1 
274 151 828 0 3.12108818 0.00951450 4 
275 776 828 2 1079.26891752 0.00000407 4 
276 767 831 2 424.43766979 0.00000393 1 
277 492 835 2 721.53159229 0.00000634 1 
278 252 839 2 732.11045834 0.00000373 1 
279 396 842 2 610.10470238 0.00000393 1 
280 460 843 2 131.40063836 0.00000284 1 
281 151 847 0 0.08724621 0.01141187 5 
282 8 847 2 940.42292983 0.00000419 5 
283 151 855 0 0.11494457 0.01514986 7 
284 329 859 2 2463.46779315 0.00000432 1 
285 809 866 2 771.83653295 0.00000399 1 
286 310 870 2 958.45836571 0.00000364 1 
287 417 878 2 718.41406105 0.00000395 1 
288 197 881 2 2616.27354251 0.00000360 1 
289 212 881 2 816.48269888 0.00000124 1 
290 336 882 2 38.97437738 0.00000368 1 
291 470 890 2 188.24286740 0.00000405 1 
292 425 891 2 79.04101801 0.00000400 1 
293 151 895 0 2.80701437 0.01755352 8 
294 725 896 2 3302.79547666 0.00000414 1 
295 151 897 0 0.06118057 0.02130702 10 
296 162 898 2 628.36875096 0.00000383 1 
297 41 899 2 1238.94160385 0.00000390 1 
298 25 900 2 3044.61609185 0.00000347 1 
299 677 901 2 2114.36248300 0.00000345 1 
300 138 903 0 0.08157811 0.01019266 4 
301 138 904 0 7.06392298 0.01396816 6 
302 132 907 0 0.71874717 0.01026481 4 
303 138 907 0 0.22077132 0.01217881 5 
304 132 911 0 0.23128175 0.01216969 5 
305 879 914 2 226.13543855 0.00000380 1 
306 476 916 2 1334.67692563 0.00000416 1 
307 576 919 2 2683.12578776 0.00000403 1 
308 121 923 0 0.62636126 0.01448443 6 
309 126 923 0 0.07130653 0.01051747 4 
310 852 925 2 2075.37764927 0.00000467 1 
311 802 926 2 1808.02292436 0.00000306 1 
312 683 927 2 3165.17334925 0.00000308 1 
313 107 929 0 0.07225325 0.01267643 5 
314 114 929 0 0.00477553 0.01067270 4 
315 449 929 2 235.57819725 0.00000455 4 
316 722 929 2 4407.94646112 0.00000143 4 
317 48 931 2 2016.72504739 0.00000361 1 
318 107 935 0 4.91438615 0.01666579 7 
319 114 935 0 1.40337639 0.01675480 7 
320 663 936 2 4554.77032715 0.00000435 1 
321 265 936 2 3011.52847158 0.00000144 1 
322 844 938 2 1793.06316425 0.00000396 1 
323 101 939 0 0.48567419 0.01081961 4 
324 107 939 0 0.21174614 0.01075867 4 
325 571 941 2 3445.53262251 0.00000490 1 
326 101 944 0 0.15377935 0.01307035 5 
327 94 947 0 0.23772432 0.01690104 7 
328 101 947 0 0.16826262 0.01482602 6 
329 913 951 2 2428.66842268 0.00000448 1 
330 87 953 0 0.13504795 0.01100594 4 
331 94 953 0 0.06505521 0.01500809 6 
332 226 953 0 0.08268323 0.02302301 10 
333 827 953 2 3735.49679008 0.00000404 10 
334 76 954 2 2932.21060686 0.00000433 1 
335 13 956 2 935.43195682 0.00000423 1 
336 97 956 2 1128.13305540 0.00000118 1 
337 81 959 0 1.83528326 0.02450307 10 
338 87 959 0 1.29172246 0.01718543 7 
339 220 959 0 0.04883629 0.01107029 4 
340 226 959 0 0.12130941 0.01310158 5 
341 546 960 2 1201.04564610 0.00000402 1 
342 67 965 0 1.01368609 0.01324616 5 
343 81 965 0 0.31066014 0.01529988 6 
344 220 965 0 0.16483276 0.01931020 8 
345 592 970 2 342.27498286 0.00000407 1 
346 37 972 2 556.53763305 0.00000388 1 
347 668 975 2 2399.62693181 0.00000435 1 
348 840 975 2 1550.89250587 0.00000174 1 
349 61 976 0 0.16803746 0.01754671 7 
350 67 976 0 0.05676300 0.00927537 3 
351 209 976 0 0.00780965 0.01128999 4 
352 404 976 2 493.11102763 0.00000451 4 
353 842 976 2 2424.09121974 0.00000128 4 
354 348 979 2 1886.58433656 0.00000469 1 
355 50 982 0 0.38354811 0.01147972 4 
356 61 982 0 0.27147698 0.01144725 4 
357 201 982 0 0.22200943 0.01141427 4 
358 203 982 0 0.10573284 0.02607183 9 
359 389 982 2 1849.38777018 0.00000498 9 
360 646 982 2 4753.11530577 0.00000110 9 
361 747 986 2 1168.27994777 0.00000424 1 
362 44 988 0 0.09550719 0.01160891 4 
363 50 988 0 0.05924873 0.01151756 4 
364 195 988 0 0.04319526 0.01591336 6 
365 201 988 0 0.02685916 0.01381945 5 
366 48 988 2 1333.56122784 0.00000454 5 
367 190 991 2 1379.07486381 0.00000491 1 
368 904 993 2 1142.48716138 0.00000445 1 
369 44 994 0 0.51683435 0.01836095 7 
370 189 994 0 0.29989154 0.02647419 10 
371 195 994 0 0.21957432 0.01402676 5 
372 934 996 2 2859.51974202 0.00000579 1 
373 32 1003 0 0.23901034 0.01429166 5 
374 178 1003 0 0.03356851 0.02650583 10 
375 183 1003 0 0.01433170 0.01639883 6 
376 824 1004 2 986.69819409 0.00000588 1 
377 695 1007 2 733.42081588 0.00000613 1 
378 25 1008 0 1.23858172 0.01863933 7 
379 32 1008 0 0.53803958 0.01199866 4 
380 178 1008 0 0.34459610 0.01202198 4 
381 183 1008 0 0.22233868 0.01205723 4 
382 279 1009 2 564.43175086 0.00000604 1 
383 25 1010 0 0.60236133 0.01213769 4 
384 32 1010 0 0.30591807 0.01422871 5 
385 172 1010 0 0.10368354 0.01654249 6 
386 178 1010 0 0.19279072 0.02666872 10 
387 893 1010 2 3717.60754497 0.00000522 10 
388 19 1016 0 0.44047719 0.02109215 8 
389 166 1016 0 0.20189646 0.01211125 4 
390 172 1016 0 0.07393216 0.01430901 5 
391 876 1018 2 279.41678350 0.00000601 1 
392 449 1020 2 996.93782855 0.00000593 1 
393 237 1020 2 1587.68389831 0.00000191 1 
394 129 1022 2 2055.34253818 0.00000633 1 
395 175 1024 2 349.50631726 0.00000642 1 
396 149 1025 2 674.84524044 0.00000624 1 
397 151 1029 0 0.03533130 0.02004754 5 
398 157 1029 0 0.02672450 0.01226247 4 
399 163 1029 0 3.39703566 0.01227192 4 
400 166 1029 0 0.49353449 0.01227204 4 
401 33 1030 2 9761.80794015 0.00000616 1 
402 25 1031 2 4596.08508864 0.00000577 1 
403 396 1032 2 285.16587969 0.00000633 1 
404 29 1032 2 3196.05602009 0.00000228 1 
405 828 1034 2 5539.63210982 0.00000622 1 
406 180 1037 2 2854.82511728 0.00000610 1 
407 739 1045 2 642.96717933 0.00000629 1 
408 259 1047 2 1097.34710162 0.00000902 1 
409 965 1049 2 487.61167368 0.00000563 1 
410 624 1051 2 268.98146133 0.00000576 1 
411 642 1054 2 206.05654108 0.00000603 1 
412 463 1056 2 58.21299414 0.00000543 1 
413 579 1068 2 107.39404632 0.00000571 1 
414 459 1071 2 193.11422200 0.00000599 1 
415 603 1078 2 388.68570211 0.00000548 1 
416 432 1078 2 124.39163029 0.00000258 1 
417 649 1078 2 624.83251009 0.00000131 1 
418 745 1080 2 365.90137372 0.00000589 1 
419 90 1082 2 389.36654735 0.00000589 1 
420 399 1082 2 40.17856934 0.00000210 1 
421 188 1082 2 62.93713482 0.00000197 1 
422 132 1084 0 4.21993706 0.01562571 5 
423 486 1087 2 1071.83879968 0.00000605 1 
424 18 1089 2 4131.04089896 0.00000653 1 
425 88 1090 2 1022.60233345 0.00000631 1 
426 1011 1094 2 1306.91072480 0.00000666 1 
427 206 1096 2 2023.54865864 0.00000609 1 
428 522 1098 2 707.49407433 0.00000642 1 
429 150 1098 2 568.31773301 0.00000254 1 
430 958 1099 2 27.01003479 0.00000542 1 
431 111 1101 2 733.66438891 0.00000626 1 
432 487 1102 2 310.48566102 0.00000614 1 
433 901 1103 2 355.36543502 0.00000537 1 
434 439 1111 2 210.37869152 0.00000535 1 
435 111 1112 2 416.59612071 0.00000687 1 
436 74 1112 2 79.68759450 0.00000208 1 
437 218 1113 2 966.14820836 0.00000626 1 
438 506 1116 2 675.21395557 0.00000566 1 
439 804 1121 2 357.31749277 0.00000702 1 
440 632 1124 2 334.08361765 0.00000603 1 
441 323 1127 2 414.72661979 0.00000646 1 
442 1064 1136 2 191.54480783 0.00000638 1 
443 158 1137 2 112.33417630 0.00000638 1 
444 829 1137 2 345.06266202 0.00000209 1 
445 101 1138 0 0.63021658 0.01617076 5 
446 294 1138 2 1137.31151240 0.00000498 5 
447 744 1140 2 165.94733361 0.00000608 1 
448 62 1144 2 838.87221800 0.00000697 1 
449 107 1147 0 0.73708347 0.01377875 4 
450 114 1147 0 0.03971358 0.01121378 3 
451 107 1150 0 7.45683387 0.01428377 4 
452 114 1150 0 1.00561260 0.01268027 3 
453 476 1150 2 5622.87699852 0.00000608 3 
454 196 1153 2 2722.76234971 0.00000670 1 
455 114 1158 0 0.16899687 0.01138796 3 
456 121 1158 0 0.69099743 0.01381512 4 
457 54 1160 2 6114.98044256 0.00000579 1 
458 846 1162 2 1088.89860317 0.00000661 1 
459 121 1164 0 0.45182924 0.01681849 5 
460 126 1164 0 0.04418665 0.01396257 4 
461 189 1166 2 3398.61217468 0.00000642 1 
462 862 1173 2 365.60960484 0.00000587 1 
463 365 1173 2 561.02614838 0.00000216 1 
464 114 1175 0 0.14266969 0.01432222 4 
465 121 1175 0 0.27324351 0.01405572 4 
466 923 1175 0 0.18719011 0.01407234 4 
467 929 1175 0 0.16073549 0.01399636 4 
468 1158 1175 0 0.00134797 0.01146785 3 
469 1080 1175 2 2475.68799224 0.00000574 3 
470 410 1177 2 965.19556622 0.00000558 1 
471 804 1177 2 4862.35359387 0.00000300 1 
472 42 1182 2 1537.31366563 0.00000638 1 
473 101 1188 0 0.32950319 0.01450049 4 
474 939 1188 0 0.55418798 0.01415334 4 
475 1138 1188 0 0.03006025 0.01170232 3 
476 1147 1188 0 0.04063922 0.01180713 3 
477 1150 1188 0 1.83245351 0.01424101 4 
478 506 1203 2 1068.11191632 0.00000639 1 
479 1159 1205 2 437.00668247 0.00000840 1 
480 945 1209 2 1618.37539767 0.00000641 1 
481 338 1209 2 194.77072401 0.00000255 1 
482 1050 1210 0 0.00345523 0.01453596 4 
483 1061 1210 0 0.57363906 0.01707970 5 
484 1075 1210 0 0.23107861 0.01709147 5 
485 1084 1210 0 3.13555510 0.01709178 5 
486 1088 1210 0 0.59156319 0.01448329 4 
487 1093 1210 0 0.13111230 0.01975701 6 
488 1098 1210 0 0.04730346 0.01672918 4 
489 908 1211 2 5318.29125268 0.00000723 1 
490 1184 1215 2 2483.04853571 0.00000715 1 
491 157 1217 0 0.32750279 0.01473975 4 
492 163 1217 0 0.19904338 0.01473423 4 
493 1029 1217 0 0.01250493 0.01203924 3 
494 1044 1217 0 3.98258990 0.01475788 4 
495 1050 1217 0 4.97161000 0.01744265 5 
496 250 1217 2 8637.74424845 0.00000164 5 
497 439 1219 2 2372.90632398 0.00000720 1 
498 190 1219 2 6240.97689368 0.00000245 1 
499 272 1220 2 1566.45204120 0.00000693 1 
500 629 1220 2 1417.75860721 0.00000229 1 
501 844 1221 2 1414.70608422 0.00000647 1 
502 990 1223 2 562.62931441 0.00000634 1 
503 163 297 0 0.27920255 0.01517770 4 
504 189 400 0 2.09679271 0.01625469 4 
505 355 658 1 12.09668768 0.00000432 4 
506 1056 1217 0 9.66143264 0.01962907 5 
