VERTEX2 0 -0.00001712 -0.00000021 -0.00000078
VERTEX2 1 -0.00001712 -0.00000021 -0.00064278
VERTEX2 2 0.00389229 0.00000455 -0.00105954
VERTEX2 3 0.01875140 -0.00131030 -0.00331989
VERTEX2 4 0.65179523 -0.01127484 -0.00698897
VERTEX2 5 0.71652298 -0.01184673 -0.09782531
VERTEX2 6 0.72193572 -0.01657047 -0.89389072
VERTEX2 7 0.71273064 0.01180390 -1.50407045
VERTEX2 8 0.72647353 0.07249720 -2.11214443
VERTEX2 9 0.78885711 0.12755948 -2.74442040
VERTEX2 10 0.86305661 0.14127734 2.93029526
VERTEX2 11 0.89953654 0.11948909 2.26235112
VERTEX2 12 0.89865958 0.13687899 1.61834488
VERTEX2 13 0.91194261 0.18502032 0.96445331
VERTEX2 14 0.97326873 0.23224295 0.36158897
VERTEX2 15 8.39102290 -16.63803341 -2.70891269
VERTEX2 16 8.16745291 -16.74386046 -2.73006567
VERTEX2 17 7.64762385 -16.96470209 -2.76398993
VERTEX2 18 7.10024535 -17.18517821 -2.77677681
VERTEX2 19 6.53001433 -17.38112594 -2.82818756
VERTEX2 20 5.93658895 -17.57993595 -2.82219507
VERTEX2 21 5.35289283 -17.81852206 -2.71054493
VERTEX2 22 4.78178777 -18.06387860 -2.69317333
VERTEX2 23 4.24300017 -18.40500550 -2.58579203
VERTEX2 24 3.69524883 -18.71942202 -2.64291234
VERTEX2 25 3.14684938 -19.03859505 -2.64022558
VERTEX2 26 2.59751411 -19.31710918 -2.68105365
VERTEX2 27 2.04790534 -19.60697528 -2.66551193
VERTEX2 28 1.52049899 -19.87136210 -2.66978787
VERTEX2 29 1.18069239 -20.04924531 -2.63885383
VERTEX2 30 1.17245188 -20.05246754 3.11256777
VERTEX2 31 1.01250170 -20.00351293 2.84465356
VERTEX2 32 0.41302632 -19.80779756 2.82635864
VERTEX2 33 -0.17590617 -19.63209403 2.87695096
VERTEX2 34 -0.77957472 -19.48507404 2.89787164
VERTEX2 35 -1.38605285 -19.35028526 2.93186124
VERTEX2 36 -1.99847707 -19.21815483 2.92301696
VERTEX2 37 -2.39250079 -19.13558382 2.93041717
VERTEX2 38 -2.36983352 -19.14263253 2.60822194
VERTEX2 39 -2.34800777 -19.16174813 2.43679546
VERTEX2 40 -2.78639482 -18.79885461 2.45373745
VERTEX2 41 -3.24388053 -18.41893434 2.42145349
VERTEX2 42 -3.65783388 -18.05266341 2.39847720
VERTEX2 43 -4.07797438 -17.65198449 2.35802757
VERTEX2 44 -4.48436381 -17.24230069 2.32083325
VERTEX2 45 -4.88945667 -16.78075172 2.26519929
VERTEX2 46 -5.27656388 -16.30346673 2.24570688
VERTEX2 47 -5.65877940 -15.81540078 2.20404938
VERTEX2 48 -6.02450230 -15.31004362 2.19750431
VERTEX2 49 -6.38479156 -14.80577292 2.14665918
VERTEX2 50 -6.68863404 -14.30081755 2.10213815
VERTEX2 51 -6.99221199 -13.79363537 2.07322962
VERTEX2 52 -7.25466405 -13.27263120 1.99669181
VERTEX2 53 -7.50260659 -12.76568674 2.00896166
VERTEX2 54 -7.71294013 -12.28813675 1.94677985
VERTEX2 55 -7.69855865 -12.31982525 1.95197043
VERTEX2 56 -7.69861180 -12.31970712 1.96245795
VERTEX2 57 -7.94651144 -11.73823037 1.95096842
VERTEX2 58 -8.18533925 -11.16473064 1.99708671
VERTEX2 59 -8.43781153 -10.60173314 1.97339849
VERTEX2 60 -8.68757105 -10.04132614 1.99466503
VERTEX2 61 -8.93287062 -9.47714070 1.94379525
VERTEX2 62 -9.14342525 -8.93311177 1.98393350
VERTEX2 63 -9.35203505 -8.39266879 1.94827070
VERTEX2 64 -9.57067658 -7.86616066 2.01145005
VERTEX2 65 -9.78794672 -7.34275708 1.95984781
VERTEX2 66 -10.00744814 -6.78412055 1.95160058
VERTEX2 67 -10.21945390 -6.21580325 1.95276956
VERTEX2 68 -10.39514853 -5.78662720 1.93348091
VERTEX2 69 -10.39283545 -5.79351834 1.77398460
VERTEX2 70 18.24439473 -8.70052999 -2.52155583
VERTEX2 71 18.14334798 -8.73793811 -2.87346733
VERTEX2 72 18.14324235 -8.73840780 -2.88389558
VERTEX2 73 18.14069110 -8.73889134 -2.94989326
VERTEX2 74 -8.71841800 5.38883347 2.06929569
VERTEX2 75 -10.42620872 -5.87697751 -0.55580123
VERTEX2 76 -10.41814532 -5.87844309 0.13100396
VERTEX2 77 -10.41581780 -5.87783177 0.36025507
VERTEX2 78 -10.19261628 -5.69550443 0.69296068
VERTEX2 79 -9.71597411 -5.28944272 0.68513643
VERTEX2 80 -9.20666677 -4.91153231 0.60743728
VERTEX2 81 -8.68806283 -4.56053565 0.57848356
VERTEX2 82 -8.18394633 -4.24086994 0.52445975
VERTEX2 83 -7.68245627 -3.93612763 0.50104495
VERTEX2 84 -7.18168365 -3.67441894 0.42336248
VERTEX2 85 -6.68623778 -3.43879461 0.43078657
VERTEX2 86 -6.12717876 -3.17731359 0.34125924
VERTEX2 87 -5.75699762 -3.03436799 0.28895913
VERTEX2 88 -5.39278736 -2.93018826 0.25921763
VERTEX2 89 -5.40352805 -2.93734981 0.65508324
VERTEX2 90 -4.92040664 -2.57818788 0.62401747
VERTEX2 91 -4.42410451 -2.21872075 0.67313467
VERTEX2 92 -3.94086804 -1.86864353 0.55747536
VERTEX2 93 -3.38224112 -1.58481719 0.45664346
VERTEX2 94 -2.80269668 -1.32989255 0.41389067
VERTEX2 95 -2.25430339 -1.03485930 0.55676897
VERTEX2 96 -1.73683113 -0.71719010 0.58104372
VERTEX2 97 -1.23005433 -0.42118930 0.51053458
VERTEX2 98 -0.70281254 -0.15659773 0.45260398
VERTEX2 99 -0.06558397 0.15975546 0.49927107
VERTEX2 100 0.44870424 0.40570784 0.44734664
VERTEX2 101 0.97128824 0.72089349 0.55033999
VERTEX2 102 1.50447046 1.01553873 0.44361000
VERTEX2 103 2.06202197 1.28345354 0.53998965
VERTEX2 104 2.60069377 1.58536266 0.50655348
VERTEX2 105 3.12834136 1.89491790 0.55305257
VERTEX2 106 3.65730719 2.19746757 0.49830546
VERTEX2 107 4.20912769 2.48586712 0.49420990
VERTEX2 108 4.60445751 2.71563495 0.55578250
VERTEX2 109 4.64756171 2.73311105 0.10727848
VERTEX2 110 4.66999025 2.72927429 -0.48406582
VERTEX2 111 4.71694367 2.66562665 -0.99023059
VERTEX2 112 5.07177831 2.14224082 -0.93597872
VERTEX2 113 5.45376461 1.65269673 -0.88913311
VERTEX2 114 5.84260916 1.17849981 -0.85254505
VERTEX2 115 6.27480469 0.71092721 -0.79276818
VERTEX2 116 6.80844365 0.18049468 -0.74910056
VERTEX2 117 7.27241210 -0.22701771 -0.65399344
VERTEX2 118 7.28249427 -0.23589203 -0.98935940
VERTEX2 119 7.53739441 -0.67780766 -1.04308443
VERTEX2 120 7.87547435 -1.22931603 -0.95328833
VERTEX2 121 8.24434434 -1.71726773 -0.88612978
VERTEX2 122 8.61264785 -2.16421008 -0.82992307
VERTEX2 123 8.73464304 -2.29031389 -0.84295040
VERTEX2 124 8.80407071 -2.52753963 -1.26606456
VERTEX2 125 8.97706339 -3.12784568 -1.27702801
VERTEX2 126 9.23074175 -3.69687099 -1.07049014
VERTEX2 127 9.52195203 -4.25804721 -1.07216842
VERTEX2 128 9.83313841 -4.80938854 -1.03582720
VERTEX2 129 10.13342469 -5.36403350 -1.06855457
VERTEX2 130 10.44739631 -5.90591165 -1.01594492
VERTEX2 131 10.77503384 -6.43020417 -0.92753043
VERTEX2 132 11.11893832 -6.93019505 -0.97718244
VERTEX2 133 11.41448972 -7.41300666 -1.01456407
VERTEX2 134 11.72129797 -7.92355395 -1.03333005
VERTEX2 135 11.99032004 -8.42871010 -1.05931354
VERTEX2 136 12.29894432 -8.97495869 -1.03943442
VERTEX2 137 12.58834484 -9.53196202 -1.08098935
VERTEX2 138 12.89306653 -10.07522046 -1.00038979
VERTEX2 139 13.25451389 -10.59175262 -0.93608083
VERTEX2 140 13.66900118 -11.10509891 -0.90667719
VERTEX2 141 14.04599437 -11.61029288 -0.95467509
VERTEX2 142 14.42433682 -12.12633265 -0.95815945
VERTEX2 143 14.73068368 -12.67904049 -1.06835263
VERTEX2 144 14.91456463 -12.99604383 -1.05055039
VERTEX2 145 14.91912958 -13.01015344 -1.54921664
VERTEX2 146 14.92171998 -13.01569007 -2.14274722
VERTEX2 147 14.87781517 -13.04336167 -2.62953612
VERTEX2 148 14.49756162 -13.24810976 -2.66531351
VERTEX2 149 13.92385770 -13.55177416 -2.63990881
VERTEX2 150 13.37279466 -13.87549636 -2.62545792
VERTEX2 151 12.82745211 -14.21654725 -2.53945942
VERTEX2 152 12.30729720 -14.55482409 -2.60023611
VERTEX2 153 11.78488358 -14.89794535 -2.50632810
VERTEX2 154 11.27256524 -15.24863082 -2.57538159
VERTEX2 155 10.74992312 -15.59181424 -2.54150969
VERTEX2 156 10.23691982 -15.95197718 -2.51031486
VERTEX2 157 9.77334996 -16.27188314 -2.57415080
VERTEX2 158 9.60949467 -16.37578158 -2.54662769
VERTEX2 159 9.60499788 -16.37729944 -1.55918794
VERTEX2 160 9.60589226 -16.38765250 -0.52339282
VERTEX2 161 9.59114578 -16.33381672 0.19269522
VERTEX2 162 9.57418859 -16.35305428 1.22861410
VERTEX2 163 9.56895663 -16.34166659 2.22965094
VERTEX2 164 9.68008398 -16.37140306 -2.98854620
VERTEX2 165 9.53359434 -16.45782563 -2.58086296
VERTEX2 166 8.94446819 -16.83584029 -2.57977786
VERTEX2 167 8.41919518 -17.15771842 -2.60897018
VERTEX2 168 7.91763889 -17.46366021 -2.59680419
VERTEX2 169 7.39724481 -17.75596455 -2.63356252
VERTEX2 170 6.88586865 -18.04578960 -2.65404072
VERTEX2 171 6.37033673 -18.30005620 -2.69197931
VERTEX2 172 5.79812393 -18.58476378 -2.67757147
VERTEX2 173 5.22149255 -18.85899439 -2.70018858
VERTEX2 174 4.65132922 -19.13609627 -2.65999592
VERTEX2 175 4.10247259 -19.42741982 -2.68465335
VERTEX2 176 3.54970450 -19.68449533 -2.67501461
VERTEX2 177 2.98782512 -19.96989280 -2.70265077
VERTEX2 178 2.40235510 -20.21935196 -2.74165930
VERTEX2 179 2.02965243 -20.38962091 -2.68856380
VERTEX2 180 1.98379298 -20.40738878 -3.13104485
VERTEX2 181 1.44139541 -20.41124096 3.10043747
VERTEX2 182 0.90265910 -20.36142533 2.92648009
VERTEX2 183 0.37092909 -20.22664840 2.86988029
VERTEX2 184 -0.17554884 -20.02513172 2.72354765
VERTEX2 185 -0.69307862 -19.77475619 2.63117818
VERTEX2 186 -1.18025106 -19.46278144 2.56503108
VERTEX2 187 -1.63553621 -19.15460346 2.54266305
VERTEX2 188 -2.10295611 -18.83798478 2.53764551
VERTEX2 189 -2.56727685 -18.51418539 2.51137663
VERTEX2 190 -3.06936876 -18.13788648 2.48243261
VERTEX2 191 -3.56264189 -17.75603531 2.45820204
VERTEX2 192 -4.03670791 -17.36833325 2.42969973
VERTEX2 193 -4.45715509 -17.00167888 2.37383469
VERTEX2 194 -4.87085936 -16.60431505 2.34693410
VERTEX2 195 -5.26595339 -16.19938167 2.31818374
VERTEX2 196 -5.68496443 -15.73865383 2.27754065
VERTEX2 197 -6.07862583 -15.26449979 2.25018026
VERTEX2 198 -6.46516858 -14.77927574 2.19177173
VERTEX2 199 -6.80220122 -14.27111431 2.13010984
VERTEX2 200 -7.11794641 -13.76059443 2.10812454
VERTEX2 201 -7.41277820 -13.23887859 2.05150566
VERTEX2 202 -7.65674768 -12.79872034 2.07154951
VERTEX2 203 -8.00525843 -12.15184798 2.01864792
VERTEX2 204 -8.24346419 -11.62344741 1.91637213
VERTEX2 205 -8.43508140 -11.07957141 1.90667702
VERTEX2 206 -8.62978025 -10.55656654 1.90830454
VERTEX2 207 -8.83130876 -10.01439355 1.92392097
VERTEX2 208 -9.04635700 -9.42210031 1.91509141
VERTEX2 209 -9.27189495 -8.83509015 1.95393833
VERTEX2 210 -9.48858981 -8.26239278 1.94589167
VERTEX2 211 -9.71918788 -7.69516961 1.94895852
VERTEX2 212 -9.92068380 -7.12476243 1.89641047
VERTEX2 213 -10.10972152 -6.54048955 1.87591156
VERTEX2 214 -10.28914328 -5.95767396 1.87208552
VERTEX2 215 -10.38688040 -5.62976671 1.83626927
VERTEX2 216 -10.38440916 -5.65343063 1.33756264
VERTEX2 217 -10.40377260 -5.67108821 0.79535162
VERTEX2 218 -10.41365506 -5.67378447 0.73930821
VERTEX2 219 -9.93124509 -5.37471977 0.57078046
VERTEX2 220 -9.41435144 -5.05047015 0.53089428
VERTEX2 221 -8.86223503 -4.72751608 0.58174405
VERTEX2 222 -8.33521405 -4.39328571 0.55653592
VERTEX2 223 -7.81575400 -4.04791794 0.65325291
VERTEX2 224 -7.32547771 -3.68635117 0.62774561
VERTEX2 225 -6.82877148 -3.32765671 0.67771568
VERTEX2 226 -6.33255609 -2.97003986 0.62887440
VERTEX2 227 -5.85569039 -2.53284001 0.78568002
VERTEX2 228 -5.42697484 -2.23603858 0.42433035
VERTEX2 229 -5.05145136 -2.00483377 0.54491035
VERTEX2 230 -4.80978714 -1.84625195 0.51623811
VERTEX2 231 -4.98652188 -1.95417007 0.58644690
VERTEX2 232 -4.65536649 -1.88260650 0.16152390
VERTEX2 233 -4.04258063 -1.75666274 0.26423204
VERTEX2 234 -3.44068517 -1.59583365 0.22041694
VERTEX2 235 -3.17394614 -1.53360092 0.21558287
VERTEX2 236 -2.90259230 -1.33144252 0.62143466
VERTEX2 237 -2.41223451 -0.94954093 0.69123644
VERTEX2 238 -1.94712674 -0.54544535 0.65794525
VERTEX2 239 -1.45534771 -0.18541107 0.58966634
VERTEX2 240 -0.93760710 0.05362618 0.37143544
VERTEX2 241 -0.43643385 0.26410139 0.45668690
VERTEX2 242 0.05854564 0.54994117 0.49645894
VERTEX2 243 0.58590086 0.83726440 0.49588047
VERTEX2 244 1.11180854 1.16926601 0.56718023
VERTEX2 245 1.63224434 1.49324221 0.51289008
VERTEX2 246 2.16374317 1.77946703 0.44040132
VERTEX2 247 2.69443515 2.06958861 0.54617468
VERTEX2 248 3.15426662 2.38132318 0.57744855
VERTEX2 249 3.11101904 2.35853595 0.77018570
VERTEX2 250 3.10926162 2.35711833 0.18259004
VERTEX2 251 3.56868560 2.27424757 -0.24110648
VERTEX2 252 4.10234697 2.14682099 -0.23268304
VERTEX2 253 4.66421264 2.00822827 -0.24377509
VERTEX2 254 5.22485612 1.85658097 -0.28428607
VERTEX2 255 5.33782254 1.82534924 -0.20041758
VERTEX2 256 5.38576634 1.76514691 -0.67632472
VERTEX2 257 5.69807012 1.42717497 -0.81211220
VERTEX2 258 6.11453511 1.00182950 -0.73153637
VERTEX2 259 6.57721313 0.60949132 -0.69150111
VERTEX2 260 7.00557982 0.24674953 -0.70043636
VERTEX2 261 7.01677276 0.22933375 -1.01282310
VERTEX2 262 7.34593774 -0.32520379 -1.00667373
VERTEX2 263 7.67190830 -0.84096581 -0.99376612
VERTEX2 264 8.01661607 -1.33781475 -0.89657792
VERTEX2 265 8.39897915 -1.80708960 -0.87632933
VERTEX2 266 8.69884788 -2.29803790 -1.00510753
VERTEX2 267 9.09510227 -2.92745176 -1.03467156
VERTEX2 268 9.34115527 -3.48718407 -1.14495483
VERTEX2 269 9.60293665 -4.04720119 -1.11517074
VERTEX2 270 9.90859246 -4.58727348 -1.00125741
VERTEX2 271 10.19490351 -5.13970310 -1.11182432
VERTEX2 272 10.49161890 -5.69036172 -1.04667774
VERTEX2 273 10.85797670 -6.17634414 -0.83491215
VERTEX2 274 11.26196121 -6.61908996 -0.81118405
VERTEX2 275 11.59710924 -7.09885877 -0.98308536
VERTEX2 276 11.94495675 -7.58838434 -0.86774259
VERTEX2 277 12.32225228 -8.02468490 -0.89326259
VERTEX2 278 12.66945149 -8.57509096 -0.98189442
VERTEX2 279 13.00988798 -9.10912176 -1.03718769
VERTEX2 280 13.32439521 -9.65527604 -1.03507386
VERTEX2 281 13.62199289 -10.21592952 -1.13543203
VERTEX2 282 13.89234216 -10.78836994 -1.09547574
VERTEX2 283 14.19294898 -11.34686383 -1.10320118
VERTEX2 284 14.46735056 -11.91141857 -1.07591298
VERTEX2 285 14.79405799 -12.47371888 -1.05489856
VERTEX2 286 15.10432420 -13.01190377 -1.00141638
VERTEX2 287 15.13001672 -13.05163196 -1.10594232
VERTEX2 288 15.13041567 -13.05520906 -1.71478458
VERTEX2 289 15.12997717 -13.05585839 -2.30844171
VERTEX2 290 14.76900678 -13.30673490 -2.53302978
VERTEX2 291 14.26154772 -13.66511431 -2.51910486
VERTEX2 292 13.76207331 -14.00364227 -2.57454336
VERTEX2 293 13.23251439 -14.33158810 -2.59767215
VERTEX2 294 12.69460257 -14.65607885 -2.59656840
VERTEX2 295 12.13953803 -14.95827567 -2.70851785
VERTEX2 296 11.55340248 -15.20428287 -2.75342738
VERTEX2 297 10.96510141 -15.44365656 -2.76466681
VERTEX2 298 10.37992188 -15.67784582 -2.76515760
VERTEX2 299 9.82282602 -15.88880118 -2.70376845
VERTEX2 300 9.29817866 -16.16404307 -2.66137603
VERTEX2 301 8.78509625 -16.41384655 -2.72032256
VERTEX2 302 8.50301510 -16.53876975 -2.74101538
VERTEX2 303 8.51941185 -16.53100321 -2.73667106
VERTEX2 304 8.04685558 -16.73200853 -2.72690512
VERTEX2 305 7.52396907 -17.05768334 -2.54272059
VERTEX2 306 7.01602365 -17.41447276 -2.56125174
VERTEX2 307 6.46982555 -17.75262557 -2.59798515
VERTEX2 308 5.92395796 -18.07184027 -2.65359313
VERTEX2 309 5.37372320 -18.39746087 -2.56067492
VERTEX2 310 4.84758623 -18.74333040 -2.59655901
VERTEX2 311 4.60385215 -18.88858546 -2.42148750
VERTEX2 312 4.60398122 -18.88844377 -1.43253884
VERTEX2 313 4.72900591 -19.06689578 -0.93683516
VERTEX2 314 5.11543074 -19.56150030 -0.89702988
VERTEX2 315 5.51128200 -20.05365619 -0.90134378
VERTEX2 316 5.91790864 -20.54222820 -0.85002817
VERTEX2 317 6.33940899 -21.01565164 -0.84009655
VERTEX2 318 6.79187016 -21.46728959 -0.74570632
VERTEX2 319 7.05721496 -21.69656627 -0.67449692
VERTEX2 320 7.05780288 -21.69833134 0.29358566
VERTEX2 321 7.06269855 -21.69001203 1.33272628
VERTEX2 322 7.06235054 -21.68812529 2.32840038
VERTEX2 323 7.05239548 -21.68680175 -2.96296066
VERTEX2 324 7.04678673 -21.68864021 -2.30351713
VERTEX2 325 7.04114866 -21.69347783 -2.83155953
VERTEX2 326 7.02495075 -21.69328908 2.85600604
VERTEX2 327 7.02075959 -21.68958016 2.23220074
VERTEX2 328 6.66343777 -21.17553584 2.18547295
VERTEX2 329 6.31309811 -20.66052690 2.12874959
VERTEX2 330 5.99548712 -20.13544304 2.10799406
VERTEX2 331 5.67806487 -19.60862528 2.09197799
VERTEX2 332 5.38214966 -19.06972084 2.07173101
VERTEX2 333 5.30905555 -18.93306020 2.13521581
VERTEX2 334 5.29617511 -18.94730260 2.92684799
VERTEX2 335 5.27964524 -18.95318256 -2.36528518
VERTEX2 336 5.27510376 -18.95978795 -1.42308446
VERTEX2 337 5.28727479 -18.98363788 -0.44299281
VERTEX2 338 5.29024577 -18.98355925 0.54685757
VERTEX2 339 5.28543202 -18.99550288 1.59718132
VERTEX2 340 5.28360253 -18.99364894 2.61735452
VERTEX2 341 5.15126986 -19.00555861 -3.03186709
VERTEX2 342 4.51390442 -19.09822759 -2.93020403
VERTEX2 343 3.93606761 -19.27534203 -2.79891369
VERTEX2 344 3.36022120 -19.47301749 -2.80857033
VERTEX2 345 3.12991230 -19.55597348 -2.83546652
VERTEX2 346 3.14462544 -19.55116561 2.80241223
VERTEX2 347 3.09061532 -19.48156272 2.24548866
VERTEX2 348 2.72718698 -19.01611219 2.22951374
VERTEX2 349 2.36280726 -18.51546410 2.19002923
VERTEX2 350 1.90744236 -17.87245185 2.17112557
VERTEX2 351 1.75709479 -17.64351670 2.14289418
VERTEX2 352 1.75346942 -17.63554028 1.85626385
VERTEX2 353 1.75442382 -17.61659494 1.19363943
VERTEX2 354 1.76390827 -17.60430857 0.59284512
VERTEX2 355 1.77875208 -17.59422499 -0.12547412
VERTEX2 356 1.78985885 -17.59920296 -0.69849973
VERTEX2 357 1.79803117 -17.61533938 -1.34912406
VERTEX2 358 1.79809819 -17.61908413 -1.96247091
VERTEX2 359 1.80169642 -17.61296243 -2.57439457
VERTEX2 360 1.80830397 -17.60986154 -2.74958036
VERTEX2 361 1.80956424 -17.60828576 -1.82722265
VERTEX2 362 1.87780999 -17.84493439 -1.29160987
VERTEX2 363 1.95383118 -18.12216723 -1.29729573
VERTEX2 364 2.20582214 -18.34964348 -0.68069787
VERTEX2 365 2.41894880 -18.54743151 -1.17611727
VERTEX2 366 2.40448417 -18.70685939 -1.72754938
VERTEX2 367 2.30381550 -19.31811753 -1.72466902
VERTEX2 368 2.19461201 -19.93887207 -1.77254437
VERTEX2 369 2.19289510 -19.96858405 -2.02427491
VERTEX2 370 2.17549843 -19.98622592 -2.61084158
VERTEX2 371 2.16727545 -19.98752561 3.12705437
VERTEX2 372 1.61359429 -19.96058402 3.09944819
VERTEX2 373 1.01510465 -19.94650142 3.10149895
VERTEX2 374 0.39986416 -19.90637956 3.04019975
VERTEX2 375 -0.08157991 -19.86152820 3.00939514
VERTEX2 376 -0.09765096 -19.86290490 -2.58090620
VERTEX2 377 -0.11710328 -19.92198922 -1.88750635
VERTEX2 378 -0.31255357 -20.55996426 -1.83451015
VERTEX2 379 -0.44373859 -21.19085769 -1.75094036
VERTEX2 380 -0.52135601 -21.82725195 -1.63289122
VERTEX2 381 -0.53226879 -22.05876565 -1.48434028
VERTEX2 382 -0.53197947 -22.06090784 -0.43889373
VERTEX2 383 -0.53342566 -22.06101107 0.54839049
VERTEX2 384 -0.53290943 -22.05813220 1.51253701
VERTEX2 385 -0.53395710 -22.04759770 2.54307565
VERTEX2 386 -0.70210108 -21.99947496 2.76816666
VERTEX2 387 -1.32337169 -21.93036440 3.10011072
VERTEX2 388 -1.95504744 -21.91727593 3.11021511
VERTEX2 389 -2.57822868 -21.87322381 3.02918063
VERTEX2 390 -2.64312822 -21.86712871 -2.77681677
VERTEX2 391 -2.52655803 -21.78595138 -2.39587928
VERTEX2 392 -2.52134256 -21.78177836 -1.35266208
VERTEX2 393 -2.36390446 -22.07034460 -0.45436586
VERTEX2 394 -2.34800040 -22.07119116 0.53894462
VERTEX2 395 -2.50722272 -22.24432596 0.87515389
VERTEX2 396 -2.50354497 -22.24034756 0.87428099
VERTEX2 397 -2.48814884 -22.23043213 0.86216197
VERTEX2 398 -2.48194166 -22.21972075 1.05776015
VERTEX2 399 -2.44859023 -22.09555718 1.35438492
VERTEX2 400 -2.30950429 -21.45185911 1.40320844
VERTEX2 401 -2.18033783 -20.83906731 1.31027311
VERTEX2 402 -1.90598060 -20.26847415 1.04247092
VERTEX2 403 -1.58515664 -19.73013415 1.00792311
VERTEX2 404 -1.26000798 -19.24641547 0.92810889
VERTEX2 405 -1.26538311 -19.25665172 1.45979899
VERTEX2 406 -1.25555725 -19.27591396 2.43441731
VERTEX2 407 -1.54781528 -19.07929903 2.56118122
VERTEX2 408 -2.05156072 -18.74161111 2.52202297
VERTEX2 409 -2.28046336 -18.56854266 2.42105721
VERTEX2 410 -2.27181159 -18.58110301 1.79109918
VERTEX2 411 -2.26853284 -18.60783781 1.19980914
VERTEX2 412 -1.99319559 -18.16500248 0.99563236
VERTEX2 413 -1.65054770 -17.67402358 0.91509180
VERTEX2 414 -1.29753313 -17.18789343 1.01783133
VERTEX2 415 -0.95297247 -16.64374526 1.02578000
VERTEX2 416 -0.80036693 -16.37644784 0.97160662
VERTEX2 417 -0.55991521 -16.21894610 0.54905564
VERTEX2 418 -0.18567190 -15.99591971 0.50490996
VERTEX2 419 -0.18772285 -15.99829501 0.93760262
VERTEX2 420 -0.21937900 -16.05413704 1.15490334
VERTEX2 421 -0.21833083 -16.06766282 2.12561011
VERTEX2 422 -0.21829060 -16.07046892 -2.91438860
VERTEX2 423 -0.22163712 -16.07249466 -2.56736734
VERTEX2 424 -0.22675930 -16.07557697 -2.56585342
VERTEX2 425 -0.22729056 -16.07678080 -2.55357548
VERTEX2 426 -0.22326266 -16.07384701 -2.56243761
VERTEX2 427 -0.25334476 -16.09391395 -2.55876466
VERTEX2 428 -0.79999478 -16.47461814 -2.56375415
VERTEX2 429 -1.34333912 -16.81830770 -2.60402024
VERTEX2 430 -1.63856927 -16.98806779 -2.64961075
VERTEX2 431 -1.61202645 -16.97283398 -2.59740264
VERTEX2 432 -1.60762934 -16.97146434 3.05361395
VERTEX2 433 -1.60594931 -16.97199017 2.37582847
VERTEX2 434 -1.89987693 -16.51148891 2.14745664
VERTEX2 435 -2.25860614 -15.96992178 2.11905546
VERTEX2 436 -2.57845771 -15.40267891 2.11020778
VERTEX2 437 -2.92464334 -14.84291099 2.11811626
VERTEX2 438 -3.16382500 -14.42862291 2.08794337
VERTEX2 439 -3.16925492 -14.41478180 1.65274631
VERTEX2 440 -3.16879991 -14.41290852 1.01066272
VERTEX2 441 -3.17469437 -14.41814387 0.38966771
VERTEX2 442 -3.18175038 -14.41907865 -0.23857986
VERTEX2 443 -3.18715304 -14.41254280 -0.80442308
VERTEX2 444 -3.18374983 -14.41978329 -1.39487429
VERTEX2 445 -3.18353037 -14.41823139 -2.05185551
VERTEX2 446 -3.17949876 -14.40840310 -1.84958839
VERTEX2 447 -3.17644226 -14.42833018 -1.21658267
VERTEX2 448 -2.93257863 -15.01644631 -1.19898103
VERTEX2 449 -2.66533161 -15.60953523 -1.09748589
VERTEX2 450 -2.36499412 -16.18406133 -1.08310913
VERTEX2 451 -2.12572088 -16.60461609 -1.03990608
VERTEX2 452 -2.11974449 -16.61456414 -1.41689050
VERTEX2 453 -2.11823018 -16.62644335 -2.03917559
VERTEX2 454 -2.33121105 -16.80844602 -2.46135178
VERTEX2 455 -2.80394499 -17.18482618 -2.48280033
VERTEX2 456 -3.31541984 -17.56393073 -2.54841359
VERTEX2 457 -3.61883715 -17.75658082 -2.63712639
VERTEX2 458 -3.61013776 -17.75513627 2.99783858
VERTEX2 459 -3.58299933 -17.77816089 2.38988330
VERTEX2 460 -3.79842191 -17.44491537 2.13301363
VERTEX2 461 -4.10264950 -16.90734651 2.04515445
VERTEX2 462 -4.32890039 -16.44598999 2.00520559
VERTEX2 463 -4.32408291 -16.47688784 2.84762190
VERTEX2 464 -4.56956576 -16.56675591 -2.75570078
VERTEX2 465 -5.11625232 -16.80173387 -2.74734052
VERTEX2 466 -5.64881071 -17.00446729 -2.80232739
VERTEX2 467 -6.21299634 -17.19315299 -2.84516997
VERTEX2 468 -6.82696846 -17.37611361 -2.88045212
VERTEX2 469 -7.45240677 -17.50912512 -2.96324063
VERTEX2 470 -7.93724256 -17.60145325 -2.94421996
VERTEX2 471 -7.93747481 -17.60148269 3.13936870
VERTEX2 472 -7.95569478 -17.59547767 2.50726954
VERTEX2 473 -7.95423586 -17.59679721 1.86725206
VERTEX2 474 -7.95422838 -17.59681199 1.23648202
VERTEX2 475 -7.95384459 -17.59645326 0.66285878
VERTEX2 476 -7.95351988 -17.59628674 0.01207432
VERTEX2 477 -7.95700175 -17.59452121 -0.54707461
VERTEX2 478 -7.96315999 -17.58730695 -1.17220812
VERTEX2 479 -7.96445741 -17.58155592 -1.62534911
VERTEX2 480 -7.96549678 -17.57672884 -1.06327103
VERTEX2 481 -7.96420255 -17.57788162 -0.06115319
VERTEX2 482 -7.98425279 -17.58301585 0.27498980
VERTEX2 483 -8.00622361 -17.58910537 0.26960135
VERTEX2 484 -7.58423126 -17.46906333 0.30510078
VERTEX2 485 -6.99508361 -17.26887496 0.30279034
VERTEX2 486 -6.39005725 -17.08640702 0.31228571
VERTEX2 487 -5.79695468 -16.87208832 0.34048975
VERTEX2 488 -5.19208160 -16.65574176 0.37655949
VERTEX2 489 -4.74587753 -16.46361787 0.40695281
VERTEX2 490 -4.74846638 -16.46592887 0.89200262
VERTEX2 491 -4.74882139 -16.48670575 1.82799151
VERTEX2 492 -4.86883743 -16.29502447 2.13094850
VERTEX2 493 -5.17364648 -15.77521979 2.07581589
VERTEX2 494 -5.46424723 -15.23113287 2.01514637
VERTEX2 495 -5.77383655 -14.69229854 2.12244650
VERTEX2 496 -6.10456311 -14.16728887 2.24028943
VERTEX2 497 -6.46103283 -13.66907580 2.15433395
VERTEX2 498 -6.77193650 -13.12966791 2.05243001
VERTEX2 499 -7.03565814 -12.55031121 2.03530707
VERTEX2 500 -7.41691866 -12.12808700 2.36400872
VERTEX2 501 -7.81213205 -11.71228063 2.29180278
VERTEX2 502 -8.24051280 -11.16722531 2.20731475
VERTEX2 503 -8.49937177 -10.80592089 2.19034991
VERTEX2 504 -8.49452622 -10.82207626 3.04701586
VERTEX2 505 -8.69882208 -10.93860278 -2.61439251
VERTEX2 506 -9.22579140 -11.22289750 -2.76734738
VERTEX2 507 -9.79564230 -11.42907326 -2.84625261
VERTEX2 508 -10.38014510 -11.59414407 -2.85983567
VERTEX2 509 -11.01411913 -11.76981173 -2.91617035
VERTEX2 510 -11.39158504 -11.85042107 -2.93046178
VERTEX2 511 -11.38086388 -11.86235472 -2.05498457
VERTEX2 512 -11.37151657 -11.91174962 -0.85742235
VERTEX2 513 -11.36396886 -11.91706857 0.09820980
VERTEX2 514 -11.29975409 -11.89313284 0.32452203
VERTEX2 515 -10.70152723 -11.68007985 0.32565453
VERTEX2 516 -10.11621199 -11.49260015 0.34157946
VERTEX2 517 -9.55148867 -11.26343706 0.36979892
VERTEX2 518 -8.98520165 -11.03699412 0.39417361
VERTEX2 519 -8.49193747 -10.83007911 0.37849774
VERTEX2 520 -8.33208904 -10.76706329 0.77697684
VERTEX2 521 -8.33563183 -10.80018503 1.78072863
VERTEX2 522 -8.51585940 -10.44230491 2.04566194
VERTEX2 523 -8.80828309 -9.88676279 2.03843853
VERTEX2 524 -9.06136918 -9.36613176 1.99661369
VERTEX2 525 -9.29563166 -8.87117812 2.02035060
VERTEX2 526 -9.53585235 -8.34753464 1.96164208
VERTEX2 527 -9.75675614 -7.79730447 1.92691304
VERTEX2 528 -9.94262508 -7.23724703 1.85102200
VERTEX2 529 -10.12530040 -6.62951116 1.82268373
VERTEX2 530 -10.27826330 -6.00315258 1.79257143
VERTEX2 531 -10.39889517 -5.38307179 1.71273069
VERTEX2 532 -10.42895803 -5.17824610 1.76332537
VERTEX2 533 -10.41206991 -5.19353120 2.76256229
VERTEX2 534 -10.40177107 -5.19305331 -2.85391155
VERTEX2 535 -10.39517932 -5.19216619 -2.85437456
VERTEX2 536 -10.72401391 -5.33113485 -2.72379579
VERTEX2 537 -11.29256545 -5.56549589 -2.78193179
VERTEX2 538 -11.83521607 -5.75577862 -2.80919413
VERTEX2 539 -12.44263546 -5.94305185 -2.87413212
VERTEX2 540 -13.05877613 -6.08251304 -2.96720717
VERTEX2 541 -13.66045114 -6.24218682 -2.80511506
VERTEX2 542 -14.24742508 -6.49625049 -2.74958869
VERTEX2 543 -14.35724723 -6.54060057 -2.77941974
VERTEX2 544 -14.36715096 -6.54948675 -2.14243564
VERTEX2 545 -14.36152900 -6.59375998 -1.07570763
VERTEX2 546 -14.40078000 -6.56837006 -0.24830413
VERTEX2 547 -14.40161014 -6.56902261 0.77386175
VERTEX2 548 -14.40889746 -6.58783272 1.69615343
VERTEX2 549 -14.40413554 -6.59692338 2.50227386
VERTEX2 550 -14.39235247 -6.61128665 2.02217698
VERTEX2 551 -14.38931215 -6.62899213 1.39521166
VERTEX2 552 -14.40106522 -6.65154325 0.76213328
VERTEX2 553 -14.27775967 -6.61830485 0.18513941
VERTEX2 554 -13.65068986 -6.50343944 0.14978464
VERTEX2 555 -13.03930079 -6.38874363 0.23875482
VERTEX2 556 -12.44016313 -6.21513853 0.37393325
VERTEX2 557 -11.85805238 -6.00182147 0.33266395
VERTEX2 558 -11.30356096 -5.79157456 0.41363154
VERTEX2 559 -11.31359738 -5.79471617 0.00742296
VERTEX2 560 -11.30672184 -5.79681950 -0.49265745
VERTEX2 561 -11.27856929 -5.80079231 0.01340765
VERTEX2 562 -11.13595214 -5.69659550 0.65801177
VERTEX2 563 -10.63141341 -5.42378861 0.46670660
VERTEX2 564 -10.09039489 -5.13993741 0.51625949
VERTEX2 565 -9.57425659 -4.84879335 0.45884821
VERTEX2 566 -9.63632710 -4.87023044 1.24342184
VERTEX2 567 -9.56251481 -4.80724756 2.03289615
VERTEX2 568 -9.82094063 -4.37091960 2.09868704
VERTEX2 569 -10.12106658 -3.87337847 2.05895219
VERTEX2 570 -10.40878882 -3.36468870 2.06362439
VERTEX2 571 -10.57619596 -3.04706534 2.01531928
VERTEX2 572 -10.56583951 -3.01447522 1.77086537
VERTEX2 573 -10.58364695 -2.93258275 2.04583105
VERTEX2 574 -10.62785527 -2.91758584 2.97993575
VERTEX2 575 -10.76153917 -2.96163389 -2.35797234
VERTEX2 576 -10.75563101 -2.96178965 -1.33150854
VERTEX2 577 -10.73737150 -2.97332595 -0.36054356
VERTEX2 578 -10.70916757 -2.99425335 -0.72502126
VERTEX2 579 -10.21748671 -3.44039516 -0.71072639
VERTEX2 580 -9.70379834 -3.85502937 -0.63640403
VERTEX2 581 -9.17377545 -4.23778908 -0.59480010
VERTEX2 582 -8.62968668 -4.59563680 -0.55245629
VERTEX2 583 -8.34248738 -4.76393129 -0.47394246
VERTEX2 584 -8.33200848 -4.76905966 0.36744459
VERTEX2 585 -7.79336838 -4.54025231 0.48500082
VERTEX2 586 -7.28550968 -4.25494776 0.58189474
VERTEX2 587 -6.79506851 -3.90601391 0.60676527
VERTEX2 588 -6.28188597 -3.55894893 0.61107408
VERTEX2 589 -5.86669817 -3.22184123 0.68647207
VERTEX2 590 -5.45401182 -2.86262916 0.75523392
VERTEX2 591 -5.06984197 -2.48139823 0.75335279
VERTEX2 592 -4.67584783 -2.09853000 0.75062576
VERTEX2 593 -4.54902567 -1.97772994 0.95588073
VERTEX2 594 -4.55596971 -2.03843964 1.87423342
VERTEX2 595 -4.82392546 -1.48401849 2.10744786
VERTEX2 596 -5.15102847 -0.95155861 2.08454816
VERTEX2 597 -5.47723294 -0.35455096 2.04490962
VERTEX2 598 -5.74814774 0.18531766 2.00287648
VERTEX2 599 -5.89967101 0.53839999 1.93682289
VERTEX2 600 -5.90785422 0.54921606 2.74378752
VERTEX2 601 -5.95632217 0.54515062 -2.52071431
VERTEX2 602 -5.97826790 0.50950753 -1.50617451
VERTEX2 603 -5.81360707 0.34382088 -0.73354845
VERTEX2 604 -5.40354015 -0.11021632 -0.97763559
VERTEX2 605 -5.02248843 -0.64136376 -0.89458732
VERTEX2 606 -4.60144087 -1.14235952 -0.85206827
VERTEX2 607 -4.25609801 -1.62802544 -0.93260520
VERTEX2 608 -4.01763723 -1.92814029 -0.88795293
VERTEX2 609 -4.00366069 -1.94154693 -0.55133828
VERTEX2 610 -3.99718679 -1.93961102 0.38195001
VERTEX2 611 -3.43085584 -1.70614820 0.38513070
VERTEX2 612 -2.97502384 -1.53396595 0.38790776
VERTEX2 613 -3.01381664 -1.54776304 0.85160940
VERTEX2 614 -3.01537126 -1.55305237 1.88943918
VERTEX2 615 -3.31796433 -1.16487420 2.19391047
VERTEX2 616 -3.69663746 -0.66334805 2.14269269
VERTEX2 617 -3.94617042 -0.08931991 1.92586750
VERTEX2 618 -4.17204151 0.50606922 1.93625648
VERTEX2 619 -4.38422892 1.06872215 1.93517561
VERTEX2 620 -4.57992850 1.64640830 1.83977022
VERTEX2 621 -4.48706642 1.30772695 1.78829053
VERTEX2 622 -4.43060817 1.02797681 1.71332506
VERTEX2 623 -4.43060450 1.03192015 1.17629423
VERTEX2 624 -4.39968524 1.05425677 0.53374800
VERTEX2 625 -4.34747360 1.06766968 -0.12473111
VERTEX2 626 -4.30335521 1.05783691 -0.74249801
VERTEX2 627 -4.13788212 0.70748345 -1.15313791
VERTEX2 628 -3.90781812 0.08836842 -1.25407136
VERTEX2 629 -3.67168572 -0.52706403 -1.18314711
VERTEX2 630 -3.41271330 -1.09310199 -1.09810930
VERTEX2 631 -3.15695180 -1.56397601 -1.07799471
VERTEX2 632 -3.14890026 -1.57996630 -0.40207569
VERTEX2 633 -3.07374800 -1.53217640 0.68445182
VERTEX2 634 -2.56531985 -1.11214726 0.71190279
VERTEX2 635 -2.05307254 -0.72128311 0.57696318
VERTEX2 636 -1.52700664 -0.36829201 0.55945822
VERTEX2 637 -0.98498502 -0.05952900 0.46027213
VERTEX2 638 -0.62632683 0.10684254 0.43097470
VERTEX2 639 -0.07991217 0.38412366 0.51091958
VERTEX2 640 0.47362040 0.65872671 0.44261101
VERTEX2 641 1.01555088 0.92297092 0.43420912
VERTEX2 642 1.55278045 1.15157385 0.38875515
VERTEX2 643 2.02250788 1.32764803 0.32078947
VERTEX2 644 2.02530667 1.33085701 1.07845425
VERTEX2 645 1.96984407 1.46852778 1.85582141
VERTEX2 646 1.71868211 2.04076510 2.15125363
VERTEX2 647 1.30437325 2.52984194 2.44021175
VERTEX2 648 0.75645668 2.89888743 2.60658701
VERTEX2 649 0.26375708 3.27581564 2.26911149
VERTEX2 650 -0.02702107 3.83899025 2.01186050
VERTEX2 651 -0.09801251 3.96411371 2.81151287
VERTEX2 652 -0.16327074 3.94997890 -2.44635280
VERTEX2 653 -0.17600040 3.88808327 -1.41560808
VERTEX2 654 0.00897128 3.65306573 -0.90227046
VERTEX2 655 0.34765557 3.21246814 -0.90720637
VERTEX2 656 0.70063169 2.73316315 -0.92005202
VERTEX2 657 1.14418872 2.31008577 -0.64375161
VERTEX2 658 1.65746247 1.93162785 -0.65079900
VERTEX2 659 2.04342018 1.60281983 -0.72167249
VERTEX2 660 2.05527711 1.59206918 -0.12092406
VERTEX2 661 2.21511613 1.68515307 0.53319903
VERTEX2 662 2.72317864 1.98850198 0.60226070
VERTEX2 663 3.17873899 2.34370242 0.70194923
VERTEX2 664 3.18217642 2.34512101 1.22724736
VERTEX2 665 3.13425575 2.43709187 2.05718883
VERTEX2 666 2.83224574 2.96653972 2.09424572
VERTEX2 667 2.54342939 3.45378421 2.09873312
VERTEX2 668 2.24330951 3.96752022 2.12427125
VERTEX2 669 1.91028128 4.50151976 2.09867932
VERTEX2 670 1.62392612 5.05849111 2.03865563
VERTEX2 671 1.48879257 5.32303077 2.09307806
VERTEX2 672 1.74911938 4.79463096 2.00341165
VERTEX2 673 1.85601717 4.53358215 1.87368571
VERTEX2 674 1.85306181 4.51004811 1.22747048
VERTEX2 675 1.83699951 4.49200850 0.62065033
VERTEX2 676 1.83121897 4.49139471 -0.00194385
VERTEX2 677 1.82478480 4.49344362 -0.61704755
VERTEX2 678 1.93334483 4.30037631 -1.06245929
VERTEX2 679 2.22587104 3.79861880 -1.00030164
VERTEX2 680 2.51235434 3.45790379 -0.65632960
VERTEX2 681 2.98416108 3.07473843 -0.68443557
VERTEX2 682 3.48047530 2.69153322 -0.63738312
VERTEX2 683 3.71992921 2.52089595 -0.47899306
VERTEX2 684 3.64250253 2.53337623 0.60152032
VERTEX2 685 3.87430540 2.90687813 1.04547223
VERTEX2 686 4.15527808 3.28623406 0.90138809
VERTEX2 687 4.54597766 3.76455535 0.86649648
VERTEX2 688 4.95772279 4.21964353 0.85482070
VERTEX2 689 5.33117470 4.67020876 0.88256978
VERTEX2 690 5.65879549 5.12122417 0.95675095
VERTEX2 691 5.89562127 5.45824735 0.92872846
VERTEX2 692 5.88548698 5.44036870 1.46293000
VERTEX2 693 5.82550462 5.48383075 2.50316301
VERTEX2 694 5.76470866 5.52643695 -2.94470241
VERTEX2 695 5.75109958 5.50880765 -2.14481745
VERTEX2 696 5.74736888 5.49870269 -1.11948581
VERTEX2 697 5.73505330 5.53342974 -1.37220678
VERTEX2 698 5.59405972 5.17003974 -2.02703699
VERTEX2 699 5.32748763 4.58417118 -1.91303605
VERTEX2 700 5.13004164 3.98859769 -1.85954734
VERTEX2 701 4.99688309 3.43941179 -1.80042818
VERTEX2 702 4.79912287 2.90184527 -1.91565207
VERTEX2 703 4.58735293 2.32748287 -1.88146233
VERTEX2 704 4.41760766 1.72734841 -1.86335474
VERTEX2 705 4.25473780 1.07940509 -1.79285579
VERTEX2 706 4.09558114 0.56182027 -2.06142490
VERTEX2 707 4.07838725 0.54764158 -2.58182060
VERTEX2 708 4.06596180 0.54624982 3.06272052
VERTEX2 709 4.12071557 0.53589620 2.73055844
VERTEX2 710 4.12659303 0.53211267 2.16930291
VERTEX2 711 4.11147203 0.53361471 1.57242101
VERTEX2 712 4.10610579 0.51510272 1.01179174
VERTEX2 713 4.45917260 0.83856042 0.72632181
VERTEX2 714 4.92124832 1.14793722 0.52867889
VERTEX2 715 5.43716617 1.48349689 0.63193701
VERTEX2 716 5.95739570 1.83923763 0.49392694
VERTEX2 717 6.49879956 2.15320022 0.57861235
VERTEX2 718 7.18379003 2.50965133 0.40315652
VERTEX2 719 7.74982996 2.78261399 0.47756112
VERTEX2 720 8.31082316 3.05542046 0.41829953
VERTEX2 721 8.87784471 3.32833714 0.48646162
VERTEX2 722 8.89326494 3.33660968 0.55310483
VERTEX2 723 8.89724418 3.36567475 1.64280445
VERTEX2 724 8.87192173 3.40032997 2.71144106
VERTEX2 725 8.84016358 3.39901092 -2.93752776
VERTEX2 726 8.58058474 3.20368948 -2.48344309
VERTEX2 727 8.08951942 2.79636270 -2.45275403
VERTEX2 728 7.58778959 2.39893431 -2.45141952
VERTEX2 729 7.10945358 1.97373788 -2.39383928
VERTEX2 730 6.66160580 1.53150569 -2.35639622
VERTEX2 731 6.18966604 1.06024865 -2.34460439
VERTEX2 732 6.08479912 0.94551987 -1.89886420
VERTEX2 733 6.06774217 0.95252586 -0.90393123
VERTEX2 734 6.43463446 0.54608121 -0.82624255
VERTEX2 735 6.83662031 0.09660823 -0.85862258
VERTEX2 736 6.84237979 0.08971976 -0.25993210
VERTEX2 737 6.82944399 0.08267722 0.53971677
VERTEX2 738 7.31476798 0.38543005 0.55843336
VERTEX2 739 7.85862700 0.66243854 0.50054654
VERTEX2 740 8.28939343 0.92492958 0.56354126
VERTEX2 741 8.27325736 0.91298107 0.19424198
VERTEX2 742 8.27250298 0.91298625 -0.45919745
VERTEX2 743 8.27762786 0.90846612 -1.07662937
VERTEX2 744 8.28356629 0.88102111 -1.61617720
VERTEX2 745 8.27625026 0.86640228 -2.20949707
VERTEX2 746 7.83573321 0.57073131 -2.68338438
VERTEX2 747 7.25594040 0.29068838 -2.71812623
VERTEX2 748 6.71508092 0.07220198 -2.78588179
VERTEX2 749 6.64564920 0.04421898 -2.35562534
VERTEX2 750 6.64716145 0.03285216 -1.42674912
VERTEX2 751 6.83693241 -0.16804908 -0.78508247
VERTEX2 752 7.24974855 -0.63263440 -0.88823450
VERTEX2 753 7.65533276 -1.12091851 -0.82494256
VERTEX2 754 8.03744213 -1.62738335 -0.98704614
VERTEX2 755 8.39901813 -2.15086981 -0.90133266
VERTEX2 756 8.74627385 -2.68567467 -1.07767587
VERTEX2 757 9.06357655 -3.24127833 -0.96534367
VERTEX2 758 9.41980965 -3.69071531 -0.82262809
VERTEX2 759 9.73123165 -4.13036362 -0.94227690
VERTEX2 760 10.11798154 -4.59128819 -0.83084143
VERTEX2 761 10.13563641 -4.61196980 -0.65039792
VERTEX2 762 10.21439642 -4.59490562 0.18334146
VERTEX2 763 10.74034578 -4.33710971 0.47619867
VERTEX2 764 11.12340708 -4.14521045 0.44868507
VERTEX2 765 11.11619180 -4.15072474 1.08817949
VERTEX2 766 11.11542075 -4.14849386 2.08859989
VERTEX2 767 11.10766039 -4.14361649 3.01954906
VERTEX2 768 11.08648775 -4.15726383 -2.54120218
VERTEX2 769 10.62793503 -4.60510202 -2.38428994
VERTEX2 770 10.13824118 -5.03884819 -2.45142683
VERTEX2 771 10.06971598 -5.09861106 -1.89101442
VERTEX2 772 10.07021228 -5.10008396 -1.02356988
VERTEX2 773 10.38743597 -5.57182391 -0.93777996
VERTEX2 774 10.71456668 -5.99699716 -0.91568495
VERTEX2 775 10.70339445 -5.98737530 -0.07080413
VERTEX2 776 10.88203828 -5.88687470 0.54652906
VERTEX2 777 11.39670766 -5.55999395 0.60549035
VERTEX2 778 11.89590320 -5.20644629 0.58445680
VERTEX2 779 12.39873127 -4.86407723 0.60242971
VERTEX2 780 12.57046071 -4.75978820 0.47203297
VERTEX2 781 12.55902874 -4.76315617 -0.10172000
VERTEX2 782 12.81629064 -4.90466762 -0.53155169
VERTEX2 783 13.33823363 -5.22639909 -0.53226848
VERTEX2 784 13.54636455 -5.34799859 -0.55370903
VERTEX2 785 13.55913673 -5.36427654 -1.10595354
VERTEX2 786 13.56742422 -5.38816119 -1.69456775
VERTEX2 787 13.56434823 -5.40919800 -2.18587367
VERTEX2 788 13.54126265 -5.42366952 -2.81576775
VERTEX2 789 13.52503855 -5.42304753 2.91475678
VERTEX2 790 13.05035547 -5.28390474 2.84733797
VERTEX2 791 12.44547140 -5.13176921 2.94575479
VERTEX2 792 12.13964236 -5.10046605 -2.63283825
VERTEX2 793 11.61580257 -5.41505415 -2.58797861
VERTEX2 794 11.09361883 -5.75800493 -2.51540110
VERTEX2 795 11.10473652 -5.72325969 -2.08360046
VERTEX2 796 11.10270812 -5.72670108 -1.42400800
VERTEX2 797 11.22393470 -6.01933048 -1.16371497
VERTEX2 798 11.48206680 -6.60394894 -1.11343963
VERTEX2 799 11.78903760 -7.17390119 -1.04752655
VERTEX2 800 12.12349168 -7.72551248 -0.97438353
VERTEX2 801 12.49804826 -8.22314661 -0.88844562
VERTEX2 802 12.90517763 -8.69303025 -0.83048667
VERTEX2 803 13.25835314 -9.20862346 -0.99476914
VERTEX2 804 13.60869298 -9.72486219 -0.93850103
VERTEX2 805 14.00303406 -10.21106289 -0.86177676
VERTEX2 806 14.39963851 -10.65497564 -0.81990321
VERTEX2 807 14.52019972 -10.77754186 -0.52947351
VERTEX2 808 14.49226066 -10.79696700 0.42444382
VERTEX2 809 14.95638528 -10.48582506 0.57084850
VERTEX2 810 15.49357832 -10.23047268 0.43237376
VERTEX2 811 16.00887683 -9.97622779 0.43036860
VERTEX2 812 15.98240167 -9.98879540 1.16613777
VERTEX2 813 15.97813656 -9.97031925 2.14684539
VERTEX2 814 15.98711985 -9.97053051 3.13552132
VERTEX2 815 15.98202706 -9.97235559 -2.23163366
VERTEX2 816 15.98693049 -9.96173081 -1.55340528
VERTEX2 817 15.98969853 -9.95477081 -2.22498155
VERTEX2 818 15.81259167 -10.04909237 -2.71601153
VERTEX2 819 15.28284377 -10.28893171 -2.70279891
VERTEX2 820 14.74853347 -10.52656770 -2.74496742
VERTEX2 821 14.25279609 -10.73664908 -2.73005427
VERTEX2 822 14.19456935 -10.76727949 -1.96927302
VERTEX2 823 14.19453880 -10.76692418 -1.05064565
VERTEX2 824 14.50638963 -11.29773426 -1.13072096
VERTEX2 825 14.75987646 -11.88486647 -1.16087840
VERTEX2 826 15.09168028 -12.43341905 -0.99863927
VERTEX2 827 15.40918643 -12.97345046 -1.04829064
VERTEX2 828 15.73857427 -13.51437155 -1.01380227
VERTEX2 829 16.04275691 -14.03423771 -1.05425013
VERTEX2 830 16.33858853 -14.56694149 -1.06320892
VERTEX2 831 16.59976770 -15.08435955 -1.11082569
VERTEX2 832 16.85527903 -15.58809818 -1.11514226
VERTEX2 833 16.96724619 -15.81583440 -0.97845799
VERTEX2 834 16.96872199 -15.81698714 0.07432330
VERTEX2 835 16.98590282 -15.80739327 0.85059988
VERTEX2 836 16.99181309 -15.78395997 1.79262779
VERTEX2 837 16.97656060 -15.76923678 2.82785410
VERTEX2 838 16.96732018 -15.76983866 -2.59407904
VERTEX2 839 16.97192462 -15.76903367 -2.81274045
VERTEX2 840 16.95968656 -15.76848183 2.90847261
VERTEX2 841 16.94727562 -15.76188070 2.29270189
VERTEX2 842 16.82759030 -15.55063216 2.06262602
VERTEX2 843 16.56461798 -15.05084658 2.06058539
VERTEX2 844 16.26287121 -14.50252839 2.05305035
VERTEX2 845 15.97612113 -13.94404714 2.03881200
VERTEX2 846 15.68026438 -13.38685125 2.04100781
VERTEX2 847 15.41005920 -12.82698243 2.01474178
VERTEX2 848 15.32386197 -12.65670133 2.49522617
VERTEX2 849 15.32523654 -12.65633788 -2.86573387
VERTEX2 850 15.03509329 -12.86148716 -2.51233897
VERTEX2 851 14.51143843 -13.20762819 -2.60486286
VERTEX2 852 13.96871834 -13.52481430 -2.58991688
VERTEX2 853 13.46060390 -13.84038267 -2.61735495
VERTEX2 854 12.94315211 -14.13175167 -2.61471773
VERTEX2 855 12.42903441 -14.44208258 -2.61595031
VERTEX2 856 11.84679612 -14.75744131 -2.65692521
VERTEX2 857 11.26322723 -15.06895743 -2.66671303
VERTEX2 858 10.66531733 -15.35034504 -2.72146574
VERTEX2 859 10.18155895 -15.57144948 -2.72852011
VERTEX2 860 10.16760503 -15.59401083 -1.87857972
VERTEX2 861 10.21829301 -15.69020413 -0.96426165
VERTEX2 862 10.57213524 -16.24584286 -1.02399248
VERTEX2 863 10.90148093 -16.80013343 -1.05657759
VERTEX2 864 11.18689663 -17.34413770 -1.05878721
VERTEX2 865 11.50992763 -17.86248786 -1.00126891
VERTEX2 866 11.81666083 -18.36453091 -1.00230069
VERTEX2 867 11.90689773 -18.50255748 -0.82096025
VERTEX2 868 11.91925706 -18.50608550 0.20332845
VERTEX2 869 11.91133940 -18.51196943 1.18214674
VERTEX2 870 11.90170844 -18.53182577 2.18208771
VERTEX2 871 11.88491420 -18.53234251 -3.12692382
VERTEX2 872 11.86311160 -18.53237245 -2.44135036
VERTEX2 873 11.82521456 -18.54430492 -3.01362270
VERTEX2 874 11.79221178 -18.54073553 2.71042256
VERTEX2 875 11.77534753 -18.53058460 2.12440116
VERTEX2 876 11.54518804 -18.00943063 1.96706059
VERTEX2 877 11.34945388 -17.48100056 1.88258701
VERTEX2 878 11.27265680 -17.28904539 2.26585608
VERTEX2 879 10.81346687 -16.83041827 2.31703613
VERTEX2 880 10.51908627 -16.48651906 2.20450424
VERTEX2 881 10.54758023 -16.52507023 2.20997621
VERTEX2 882 10.21607618 -15.97351851 1.96363526
VERTEX2 883 10.03998287 -15.36521472 1.77305304
VERTEX2 884 9.97263869 -15.00366478 1.70618674
VERTEX2 885 9.97121963 -15.00194609 2.28800391
VERTEX2 886 9.95576060 -15.00005684 -2.97805065
VERTEX2 887 9.93164287 -15.00642490 -1.96759067
VERTEX2 888 9.93716452 -15.03619129 -0.98441220
VERTEX2 889 9.94836645 -15.04408475 -0.08711272
VERTEX2 890 10.29915661 -14.98177403 0.18659438
VERTEX2 891 10.89654679 -14.88228943 0.11615929
VERTEX2 892 11.52223328 -14.82799798 0.08050586
VERTEX2 893 12.14956227 -14.74314612 0.31668615
VERTEX2 894 12.71533792 -14.47274676 0.53767372
VERTEX2 895 13.17448045 -14.08091002 0.83589871
VERTEX2 896 13.18896873 -14.06408188 1.31419325
VERTEX2 897 13.17322672 -13.55597218 1.58633533
VERTEX2 898 13.16043808 -12.93842383 1.60163529
VERTEX2 899 13.15324790 -12.43957829 1.53367701
VERTEX2 900 13.17043833 -11.76482112 1.53145441
VERTEX2 901 13.21173626 -11.19526438 1.46727419
VERTEX2 902 13.26150213 -10.56386791 1.49305675
VERTEX2 903 13.29555856 -10.08235237 1.44887237
VERTEX2 904 13.29552282 -10.08292476 2.15315511
VERTEX2 905 13.00065931 -9.69866509 2.20897435
VERTEX2 906 12.64367473 -9.26274087 2.27505467
VERTEX2 907 12.26681288 -8.83720337 2.26719617
VERTEX2 908 11.87050885 -8.36860086 2.29202856
VERTEX2 909 11.46488282 -7.91174206 2.27396680
VERTEX2 910 11.41427495 -7.79724033 1.90408061
VERTEX2 911 11.21134957 -7.24758167 1.96496484
VERTEX2 912 10.98300062 -6.73022004 1.97758568
VERTEX2 913 10.76040054 -6.23587752 1.98554033
VERTEX2 914 10.51904248 -5.68969328 1.96203462
VERTEX2 915 10.32183369 -5.20901932 1.92548363
VERTEX2 916 10.12953042 -5.05185998 2.47338805
VERTEX2 917 9.63866684 -4.61126427 2.21922367
VERTEX2 918 9.35338788 -4.18477671 2.14408221
VERTEX2 919 9.01803920 -3.66761961 2.10115002
VERTEX2 920 8.71281107 -3.14042990 2.08393568
VERTEX2 921 8.41369734 -2.60719198 2.03099933
VERTEX2 922 8.14440838 -2.06636676 2.00418248
VERTEX2 923 7.91087150 -1.54555165 1.94115440
VERTEX2 924 7.72878932 -1.07603481 1.95796069
VERTEX2 925 7.73472099 -1.08142779 2.46310155
VERTEX2 926 7.27557180 -0.72411023 2.47944997
VERTEX2 927 6.79397056 -0.34786503 2.45626293
VERTEX2 928 6.32246816 0.03639928 2.44766563
VERTEX2 929 5.85662098 0.42239210 2.44692851
VERTEX2 930 5.37076196 0.83795811 2.36456369
VERTEX2 931 4.93666245 1.28518472 2.28469876
VERTEX2 932 4.53421456 1.75580202 2.22559138
VERTEX2 933 4.17187245 2.24268993 2.16133731
VERTEX2 934 3.89729026 2.64125380 2.15172078
VERTEX2 935 3.88115138 2.65556391 2.83392930
VERTEX2 936 3.88136088 2.65562760 -2.50409687
VERTEX2 937 3.46189613 2.31621515 -2.44121418
VERTEX2 938 2.97451105 1.97777354 -2.61460552
VERTEX2 939 2.43389933 1.65497740 -2.58674252
VERTEX2 940 1.89931275 1.35423772 -2.67235758
VERTEX2 941 1.34716708 1.09015017 -2.72580327
VERTEX2 942 0.86452619 0.87725756 -2.72113612
VERTEX2 943 0.29431874 0.62346465 -2.63260010
VERTEX2 944 -0.24928333 0.32606483 -2.68908085
VERTEX2 945 -0.82262557 0.06248460 -2.74401626
VERTEX2 946 -0.98613489 -0.00386751 -2.67950574
VERTEX2 947 -1.27617844 -0.29544841 -2.35095939
VERTEX2 948 -1.68292325 -0.70531411 -2.36993732
VERTEX2 949 -2.14710296 -1.08981649 -2.52535187
VERTEX2 950 -2.67472944 -1.43406712 -2.76536950
VERTEX2 951 -3.25368712 -1.64879042 -2.83785431
VERTEX2 952 -3.83423899 -1.86075943 -2.58751545
VERTEX2 953 -4.35225198 -2.20303163 -2.50756077
VERTEX2 954 -4.85017272 -2.57823526 -2.51485532
VERTEX2 955 -5.34842251 -2.88839172 -2.67693712
VERTEX2 956 -5.82953491 -3.14614631 -2.67945739
VERTEX2 957 -6.30406482 -3.37802188 -2.76738872
VERTEX2 958 -6.74788204 -3.56328338 -2.79406680
VERTEX2 959 -7.16740508 -3.72294950 -2.86109962
VERTEX2 960 -7.73240399 -3.93737143 -2.78128087
VERTEX2 961 -8.29804474 -4.13830901 -2.80837740
VERTEX2 962 -8.87181965 -4.39946466 -2.74306406
VERTEX2 963 -9.41762222 -4.69907436 -2.55679749
VERTEX2 964 -9.94409848 -5.03296440 -2.62097204
VERTEX2 965 -10.48933385 -5.33388418 -2.62810321
VERTEX2 966 -10.88094327 -5.54813585 -2.68715818
VERTEX2 967 -10.90421178 -5.57367121 -1.83402985
VERTEX2 968 -10.90691941 -5.58833858 -0.93757814
VERTEX2 969 -10.92608797 -5.56634992 -0.87805860
VERTEX2 970 -10.94547456 -5.54415709 -0.87974496
VERTEX2 971 -10.73295496 -5.79984189 -0.87956983
VERTEX2 972 -10.35602063 -6.24906077 -0.87391963
VERTEX2 973 -10.07692772 -6.76406366 -1.15889378
VERTEX2 974 -9.83433351 -7.32848249 -1.12701437
VERTEX2 975 -9.56708675 -7.87889845 -1.12260022
VERTEX2 976 -9.29371514 -8.42638564 -1.10994054
VERTEX2 977 -9.03850582 -9.00269382 -1.13622265
VERTEX2 978 -8.77504407 -9.56542096 -1.09028674
VERTEX2 979 -8.50887279 -10.12145332 -1.10262629
VERTEX2 980 -8.23194474 -10.66298499 -1.05597492
VERTEX2 981 -7.95535646 -11.18875930 -1.04924229
VERTEX2 982 -7.69634523 -11.63613226 -1.00399911
VERTEX2 983 -7.38289501 -12.14754038 -1.00714531
VERTEX2 984 -7.05297404 -12.64335146 -0.94948772
VERTEX2 985 -6.70938331 -13.12993283 -0.92890915
VERTEX2 986 -6.33372342 -13.61556518 -0.89279589
VERTEX2 987 -5.96087969 -14.10140149 -0.92974082
VERTEX2 988 -5.60072229 -14.59599182 -0.91629404
VERTEX2 989 -5.22821878 -15.07932650 -0.90880765
VERTEX2 990 -4.86400975 -15.56468744 -0.91973551
VERTEX2 991 -4.49199829 -16.04703090 -0.89496712
VERTEX2 992 -4.14454547 -16.51352552 -0.92716995
VERTEX2 993 -3.77288880 -16.99835790 -0.89397777
VERTEX2 994 -3.41722595 -17.45650904 -0.90343846
VERTEX2 995 -3.05799145 -17.89491805 -0.85593925
VERTEX2 996 -2.66851674 -18.32947652 -0.82858369
VERTEX2 997 -2.26738047 -18.80350932 -0.89274139
VERTEX2 998 -2.02910931 -19.09676821 -0.87063887
VERTEX2 999 -2.09227756 -19.09387236 -0.15208073
VERTEX2 1000 -1.53370518 -19.10814522 -0.00317220
VERTEX2 1001 -0.97077564 -19.16636478 -0.32384427
VERTEX2 1002 -0.42415383 -19.32001982 -0.23102086
VERTEX2 1003 0.13058324 -19.50558419 -0.41098125
VERTEX2 1004 0.71708682 -19.73471686 -0.35288652
VERTEX2 1005 1.29021696 -19.92131569 -0.29059827
VERTEX2 1006 1.89060465 -20.07128382 -0.21342585
VERTEX2 1007 2.47338463 -20.16949602 -0.12195875
VERTEX2 1008 2.79120942 -20.20298942 0.03738863
VERTEX2 1009 2.87779687 -20.15747150 0.50997998
VERTEX2 1010 3.36653857 -19.86745502 0.56239981
VERTEX2 1011 3.88472647 -19.53518049 0.51931907
VERTEX2 1012 4.41205966 -19.22587576 0.56124813
VERTEX2 1013 4.92204874 -18.84788757 0.67623363
VERTEX2 1014 5.44324496 -18.52435678 0.50096230
VERTEX2 1015 5.96905810 -18.18675081 0.58545002
VERTEX2 1016 6.61041081 -17.76213112 0.59219452
VERTEX2 1017 7.08983118 -17.42605270 0.53524312
VERTEX2 1018 7.57480569 -17.14578722 0.54269307
VERTEX2 1019 8.06819151 -16.81295515 0.60237652
VERTEX2 1020 8.58446138 -16.47740026 0.58851803
VERTEX2 1021 9.10149216 -16.13269344 0.54797583
VERTEX2 1022 9.14653372 -16.10497373 0.54080143
VERTEX2 1023 9.14085261 -16.10898690 0.62745508
VERTEX2 1024 9.65165282 -15.74258574 0.65376611
VERTEX2 1025 10.14173401 -15.34378032 0.67129942
VERTEX2 1026 10.27319792 -15.24004725 0.67789934
VERTEX2 1027 10.26581456 -15.25412667 1.59233905
VERTEX2 1028 10.18506668 -15.12317148 2.15457810
VERTEX2 1029 9.88202624 -14.65977906 2.13251318
VERTEX2 1030 9.56739015 -14.12083559 2.05296106
VERTEX2 1031 9.27810705 -13.53453946 1.99959829
VERTEX2 1032 9.00287571 -12.93812581 2.00432875
VERTEX2 1033 8.73851341 -12.33541405 1.95988339
VERTEX2 1034 8.67437323 -12.17343161 1.74705973
VERTEX2 1035 8.67383713 -12.17551511 1.12952844
VERTEX2 1036 8.63726007 -12.18307149 0.55995187
VERTEX2 1037 8.99288219 -12.08366792 0.32123612
VERTEX2 1038 9.56109700 -11.81718941 0.41222473
VERTEX2 1039 10.17980279 -11.57295737 0.38052668
VERTEX2 1040 10.16084427 -11.58626114 1.01010722
VERTEX2 1041 10.13836321 -11.59867425 2.02619014
VERTEX2 1042 10.12557577 -11.57917556 3.01332397
VERTEX2 1043 10.08851040 -11.57507944 -2.30104572
VERTEX2 1044 10.08952721 -11.56001285 -1.30808714
VERTEX2 1045 10.08952773 -11.56001634 -1.42242872
VERTEX2 1046 10.08960476 -11.54868111 -1.80844986
VERTEX2 1047 10.09889718 -11.53274996 -2.36483317
VERTEX2 1048 9.76694586 -11.69034277 -2.67782443
VERTEX2 1049 9.18913805 -11.99192746 -2.66070080
VERTEX2 1050 8.62584784 -12.31713730 -2.58509971
VERTEX2 1051 8.05620983 -12.64332464 -2.66432052
VERTEX2 1052 7.50768039 -12.94473670 -2.61146238
VERTEX2 1053 7.13746299 -13.14772266 -2.66409792
VERTEX2 1054 7.11300018 -13.16191598 -1.90197447
VERTEX2 1055 7.12903306 -13.19773287 -0.84865751
VERTEX2 1056 7.11749898 -13.19368868 0.15488570
VERTEX2 1057 7.09429983 -13.20689830 1.14574457
VERTEX2 1058 7.09405398 -13.20993095 2.06793364
VERTEX2 1059 6.83189575 -12.68252675 1.98719486
VERTEX2 1060 6.57321414 -12.09397683 1.99221355
VERTEX2 1061 6.39866979 -11.67145601 1.86970687
VERTEX2 1062 6.39824685 -11.66316784 1.30559901
VERTEX2 1063 6.38885567 -11.68400134 0.70799809
VERTEX2 1064 6.64711304 -11.56183767 0.44282202
VERTEX2 1065 7.16253169 -11.27073636 0.56484488
VERTEX2 1066 7.64950288 -10.98211989 0.50877960
VERTEX2 1067 7.63882765 -10.99074760 0.94153653
VERTEX2 1068 7.63259939 -11.00888826 1.61411146
VERTEX2 1069 7.63324638 -11.01120107 1.78439027
VERTEX2 1070 7.63353200 -11.01378998 1.24575917
VERTEX2 1071 7.86406177 -10.53095147 1.11870304
VERTEX2 1072 8.09061452 -10.07992910 1.05017434
VERTEX2 1073 8.06748031 -10.09765889 0.53904639
VERTEX2 1074 8.53847817 -9.84431238 0.50469373
VERTEX2 1075 9.05059888 -9.56650147 0.52126816
VERTEX2 1076 9.06581969 -9.55703692 0.92559839
VERTEX2 1077 9.06198730 -9.53021344 1.73169685
VERTEX2 1078 8.89664633 -8.89944383 1.77694782
VERTEX2 1079 8.75195375 -8.30683600 1.83917240
VERTEX2 1080 8.74909203 -8.29656110 1.35182416
VERTEX2 1081 8.92191801 -7.81064720 1.22869114
VERTEX2 1082 8.98871295 -7.61668721 1.50947876
VERTEX2 1083 8.96903551 -7.59598351 2.54129188
VERTEX2 1084 8.89726900 -7.60731961 -2.77641228
VERTEX2 1085 8.89808726 -7.60625520 -1.79475030
VERTEX2 1086 8.89462273 -8.20578939 -1.56472934
VERTEX2 1087 8.88566595 -8.83125396 -1.57707888
VERTEX2 1088 8.89389779 -9.44880962 -1.59407041
VERTEX2 1089 8.89129536 -9.53333504 -1.68958811
VERTEX2 1090 8.88787601 -9.54997784 -2.30458817
VERTEX2 1091 8.46935135 -9.89338963 -2.48143524
VERTEX2 1092 7.97508974 -10.27080634 -2.49655886
VERTEX2 1093 7.51284444 -10.60217195 -2.56155523
VERTEX2 1094 7.49652892 -10.59998132 -2.96545906
VERTEX2 1095 7.45717380 -10.59612288 2.72822841
VERTEX2 1096 7.45805870 -10.59686857 2.15722867
VERTEX2 1097 7.33495797 -10.28601225 1.94191585
VERTEX2 1098 7.12824569 -9.70021772 1.88516603
VERTEX2 1099 6.96813454 -9.12985424 1.78942066
VERTEX2 1100 6.96552193 -9.11963890 2.15254327
VERTEX2 1101 6.76241553 -8.94003977 2.41845018
VERTEX2 1102 6.76122378 -8.93804112 2.02473204
VERTEX2 1103 6.50960476 -8.37722326 1.99090124
VERTEX2 1104 6.25129240 -7.78886548 1.96312453
VERTEX2 1105 6.01514139 -7.20206388 1.94512093
VERTEX2 1106 5.84333723 -6.75719776 1.92015154
VERTEX2 1107 5.84560296 -6.75978758 2.17666007
VERTEX2 1108 5.46058940 -6.28023764 2.18471021
VERTEX2 1109 5.13340459 -5.73933044 2.08099516
VERTEX2 1110 4.84512858 -5.21555748 2.03164063
VERTEX2 1111 4.67840189 -4.70290430 1.93052359
VERTEX2 1112 4.37426291 -4.22484991 2.27712381
VERTEX2 1113 3.97844044 -3.73705804 2.18181673
VERTEX2 1114 3.63088684 -3.24319905 2.19887391
VERTEX2 1115 3.29270100 -2.78340052 2.18267107
VERTEX2 1116 2.90879360 -2.27604883 2.21886987
VERTEX2 1117 2.86085272 -2.21389328 2.09157275
VERTEX2 1118 2.86416774 -2.23809645 1.48537594
VERTEX2 1119 2.85450808 -2.26579444 1.05451679
VERTEX2 1120 3.18031438 -1.78069171 0.99136524
VERTEX2 1121 3.28565535 -1.62717966 0.87332284
VERTEX2 1122 3.27934382 -1.62914583 0.32403841
VERTEX2 1123 3.83648136 -1.45207976 0.34172602
VERTEX2 1124 4.37125947 -1.22196083 0.44104341
VERTEX2 1125 4.95350636 -0.95021540 0.45504078
VERTEX2 1126 5.02987128 -0.91087743 0.79564844
VERTEX2 1127 5.02934976 -0.91077785 1.85421235
VERTEX2 1128 5.02924993 -0.91058337 2.84277552
VERTEX2 1129 5.01838434 -0.91196449 -2.42356384
VERTEX2 1130 4.59267946 -1.30729052 -2.40951553
VERTEX2 1131 3.90652391 -1.66320055 -2.84055290
VERTEX2 1132 3.29273492 -1.85081663 -2.85995717
VERTEX2 1133 2.72340973 -1.99239877 -2.89832437
VERTEX2 1134 2.46261037 -2.05673614 -2.99575282
VERTEX2 1135 2.44776500 -2.05468713 2.73051562
VERTEX2 1136 2.44520193 -2.04131547 2.16767114
VERTEX2 1137 2.30334094 -1.75470014 1.98318890
VERTEX2 1138 2.04717849 -1.14129899 1.96661848
VERTEX2 1139 1.84806947 -0.66938827 1.89353455
VERTEX2 1140 1.85350713 -0.69165449 1.41482653
VERTEX2 1141 1.84889717 -0.71934703 0.86772110
VERTEX2 1142 2.16635327 -0.53954179 0.50361720
VERTEX2 1143 2.67275778 -0.22451132 0.59306736
VERTEX2 1144 3.15824336 0.09033883 0.56247841
VERTEX2 1145 3.64833366 0.39461646 0.53702075
VERTEX2 1146 4.14776965 0.69060349 0.55670573
VERTEX2 1147 4.62235269 1.02685522 0.62933105
VERTEX2 1148 5.08971384 1.36685816 0.63936598
VERTEX2 1149 5.12296677 1.39286725 1.13762126
VERTEX2 1150 5.13659977 1.52906685 1.94683425
VERTEX2 1151 5.12390599 1.54120269 2.95019759
VERTEX2 1152 5.11002941 1.53140316 -2.28035736
VERTEX2 1153 5.10345872 1.51980688 -1.26803260
VERTEX2 1154 5.33398806 1.30269108 -0.72224601
VERTEX2 1155 5.80536346 0.88045838 -0.77170732
VERTEX2 1156 6.23691233 0.45227176 -0.76179209
VERTEX2 1157 6.67187340 0.06944304 -0.65081098
VERTEX2 1158 7.12444832 -0.33892762 -0.77950620
VERTEX2 1159 7.52396420 -0.78719049 -0.87420708
VERTEX2 1160 7.91267943 -1.28543481 -1.01130327
VERTEX2 1161 8.20068495 -1.85227318 -1.10122307
VERTEX2 1162 8.49523411 -2.41435312 -1.04323507
VERTEX2 1163 8.81889843 -2.96754924 -1.04872576
VERTEX2 1164 9.14987337 -3.50540201 -0.96324546
VERTEX2 1165 9.46618619 -3.95888310 -0.98576680
VERTEX2 1166 9.48059556 -3.97206198 -0.49612505
VERTEX2 1167 9.45402371 -4.00350067 0.44186049
VERTEX2 1168 9.43356330 -4.03611175 1.34657684
VERTEX2 1169 9.41276565 -4.00268350 2.16961893
VERTEX2 1170 9.07903142 -3.53050557 2.17610022
VERTEX2 1171 8.70201290 -3.02019926 2.20742137
VERTEX2 1172 8.34670125 -2.53110549 2.14440520
VERTEX2 1173 7.99857951 -2.00786894 2.15289889
VERTEX2 1174 7.66124833 -1.47490167 2.08394904
VERTEX2 1175 7.36801459 -0.93076182 2.05022914
VERTEX2 1176 7.08208530 -0.37742300 2.00646085
VERTEX2 1177 6.82134040 0.17856005 2.00836094
VERTEX2 1178 6.56772707 0.74419611 1.96092870
VERTEX2 1179 6.32429796 1.30687539 1.98999969
VERTEX2 1180 6.22114088 1.53769536 1.98273052
VERTEX2 1181 6.22775416 1.52535132 2.80969841
VERTEX2 1182 6.17788628 1.50536737 -2.76018286
VERTEX2 1183 5.59784182 1.26465891 -2.73438778
VERTEX2 1184 5.02226307 0.98483246 -2.66434994
VERTEX2 1185 4.45337312 0.70403356 -2.69617452
VERTEX2 1186 3.89075440 0.40840787 -2.62954293
VERTEX2 1187 3.31572929 0.09173305 -2.66624813
VERTEX2 1188 2.75756899 -0.20680458 -2.64821118
VERTEX2 1189 2.15965609 -0.51298906 -2.62690553
VERTEX2 1190 1.86343463 -0.67969883 -2.61926364
VERTEX2 1191 1.83355930 -0.70262572 -1.70035573
VERTEX2 1192 1.87581278 -0.76947660 -0.90387861
VERTEX2 1193 2.22182745 -1.25362631 -1.03633699
VERTEX2 1194 2.52494547 -1.73763707 -0.99464372
VERTEX2 1195 2.86716677 -2.25397753 -0.94265179
VERTEX2 1196 3.22743385 -2.75718083 -1.11571248
VERTEX2 1197 3.50439013 -3.31106698 -1.10473702
VERTEX2 1198 3.81456299 -3.85509623 -0.84630753
VERTEX2 1199 4.18443984 -4.33379956 -1.06112209
VERTEX2 1200 4.50691958 -4.87238983 -0.99227038
VERTEX2 1201 4.84721364 -5.38101142 -0.93652193
VERTEX2 1202 5.21480523 -5.86794113 -0.91365640
VERTEX2 1203 5.57903339 -6.31674636 -1.00369202
VERTEX2 1204 5.82560499 -6.84425221 -1.15053700
VERTEX2 1205 6.05982158 -7.34479140 -1.12097596
VERTEX2 1206 6.32719083 -7.85338624 -1.05971151
VERTEX2 1207 6.56698585 -8.41036537 -1.14572081
VERTEX2 1208 6.83388573 -8.96339896 -1.08090364
VERTEX2 1209 7.11846178 -9.49841044 -1.08267927
VERTEX2 1210 7.41759855 -10.01677337 -1.06189626
VERTEX2 1211 7.67126363 -10.57624092 -1.13533029
VERTEX2 1212 7.93419859 -11.13077190 -1.08584247
VERTEX2 1213 8.23558994 -11.65852570 -1.01309150
VERTEX2 1214 8.59060928 -12.28566847 -1.23641343
VERTEX2 1215 8.79777565 -12.84803548 -1.17782434
VERTEX2 1216 9.07680200 -13.31733703 -0.96106051
VERTEX2 1217 9.38381973 -13.79873194 -0.98074807
VERTEX2 1218 9.71891100 -14.28468621 -1.03180190
VERTEX2 1219 10.05860521 -14.84038202 -1.00155788
VERTEX2 1220 10.39396692 -15.31598686 -0.91127545
VERTEX2 1221 10.38934408 -15.31243030 -1.36400557
VERTEX2 1222 10.38689500 -15.32648384 -1.96128424
VERTEX2 1223 10.37721070 -15.33770128 -2.52088367
VERTEX2 1224 9.85809802 -15.59936938 -2.70379167
VERTEX2 1225 9.29306488 -15.86816909 -2.69002767
VERTEX2 1226 9.19718872 -15.91454661 -2.70675867
VERTEX2 1227 9.19718872 -15.91454661 -2.70742067
