VERTEX2 0 0.00001766 -0.00000027 0.00000015
VERTEX2 1 0.00001765 -0.00000027 -0.00064185
VERTEX2 2 0.00001764 -0.00000027 -0.00117985
VERTEX2 3 0.01101949 -0.00097525 -0.00356185
VERTEX2 4 0.64102606 -0.01120030 -0.00744385
VERTEX2 5 0.69603374 -0.01171578 -0.09872585
VERTEX2 6 0.70028685 -0.01543510 -0.89599786
VERTEX2 7 0.69397412 0.00421339 -1.51153486
VERTEX2 8 0.69928097 0.02669415 -2.12506886
VERTEX2 9 0.71613223 0.04112317 -2.76313886
VERTEX2 10 0.72899874 0.04322056 2.90551545
VERTEX2 11 0.73322132 0.04053752 2.23123644
VERTEX2 12 0.73320404 0.04154598 1.58176244
VERTEX2 13 0.73877019 0.05907106 0.92226444
VERTEX2 14 0.75967571 0.07375128 0.31402544
VERTEX2 15 0.76858911 0.07435822 -0.21090256
VERTEX2 16 1.06251116 0.01415281 -0.22959456
VERTEX2 17 1.66366483 -0.13311385 -0.26082256
VERTEX2 18 2.28701899 -0.29647884 -0.27099956
VERTEX2 19 2.91431492 -0.49425260 -0.31957556
VERTEX2 20 3.50821225 -0.68438032 -0.31365318
VERTEX2 21 4.11758699 -0.83681719 -0.20208410
VERTEX2 22 4.72780874 -0.97823218 -0.18469729
VERTEX2 23 5.36814977 -1.02254924 -0.07728771
VERTEX2 24 6.00008939 -1.09387922 -0.13436555
VERTEX2 25 6.63534686 -1.16170532 -0.13162574
VERTEX2 26 7.24440462 -1.26241648 -0.17219231
VERTEX2 27 7.86040517 -1.35395223 -0.15639648
VERTEX2 28 8.44211006 -1.45279025 -0.16087978
VERTEX2 29 8.82124229 -1.51038360 -0.13015012
VERTEX2 30 8.83054600 -1.51286082 -0.66236412
VERTEX2 31 8.93156963 -1.64850585 -0.93078627
VERTEX2 32 9.29938518 -2.16339589 -0.94936575
VERTEX2 33 9.68601646 -2.67617998 -0.89848146
VERTEX2 34 10.10221193 -3.17251109 -0.87738036
VERTEX2 35 10.52867465 -3.66102380 -0.84307201
VERTEX2 36 10.96180636 -4.15071182 -0.85160728
VERTEX2 37 11.24860058 -4.47084315 -0.84389355
VERTEX2 38 11.24672299 -4.46828702 -1.16599768
VERTEX2 39 11.24597918 -4.46463540 -1.33727834
VERTEX2 40 11.39076097 -5.04085987 -1.32022200
VERTEX2 41 11.54092045 -5.64225539 -1.35237990
VERTEX2 42 11.66346838 -6.20739702 -1.37522126
VERTEX2 43 11.76990800 -6.80459184 -1.41551805
VERTEX2 44 11.85938598 -7.40135133 -1.45255175
VERTEX2 45 11.91436163 -8.02094502 -1.50811270
VERTEX2 46 11.94528369 -8.64265400 -1.52753631
VERTEX2 47 11.96530493 -9.26422704 -1.56924711
VERTEX2 48 11.96169454 -9.89026996 -1.57582269
VERTEX2 49 11.95431182 -10.51226763 -1.62668027
VERTEX2 50 11.90077397 -11.10198792 -1.67119456
VERTEX2 51 11.84555051 -11.69817087 -1.70031256
VERTEX2 52 11.74833821 -12.28104761 -1.77708924
VERTEX2 53 11.64827277 -12.83840297 -1.76478539
VERTEX2 54 11.53516061 -13.34999897 -1.82691847
VERTEX2 55 11.54186242 -13.31793527 -1.82168585
VERTEX2 56 11.54126540 -13.32026397 -1.81115657
VERTEX2 57 11.39701950 -13.93797633 -1.82259176
VERTEX2 58 11.25017682 -14.54394401 -1.77640219
VERTEX2 59 11.12067715 -15.14940765 -1.80000979
VERTEX2 60 10.99055844 -15.75121165 -1.77865013
VERTEX2 61 10.85462943 -16.35349767 -1.82940804
VERTEX2 62 10.70402617 -16.91278749 -1.78957075
VERTEX2 63 10.55160908 -17.47687084 -1.82507080
VERTEX2 64 10.41576179 -18.03549530 -1.76168772
VERTEX2 65 10.28036156 -18.59192363 -1.81310606
VERTEX2 66 10.12585815 -19.17821177 -1.82113221
VERTEX2 67 9.95954604 -19.76800698 -1.81968655
VERTEX2 68 9.84914382 -20.21564400 -1.83548681
VERTEX2 69 9.85227317 -20.20548593 -1.99045547
VERTEX2 70 9.85914013 -20.19238264 -2.66479556
VERTEX2 71 9.88229967 -20.19107616 2.97575106
VERTEX2 72 9.89482184 -20.19262319 2.96627429
VERTEX2 73 9.90207673 -20.19442462 2.90133705
VERTEX2 74 9.90209022 -20.19442048 2.27955856
VERTEX2 75 9.90863701 -20.19699005 1.92722301
VERTEX2 76 9.89688848 -20.18392962 2.62113639
VERTEX2 77 9.89245648 -20.18206504 2.85410333
VERTEX2 78 9.61081931 -20.19235081 -3.09192932
VERTEX2 79 8.99243117 -20.23019506 -3.09719028
VERTEX2 80 8.36040055 -20.22776878 3.11147414
VERTEX2 81 7.73614599 -20.20027520 3.08547229
VERTEX2 82 7.13617436 -20.15860752 3.03136025
VERTEX2 83 6.54719917 -20.10634857 3.00784239
VERTEX2 84 5.98439034 -20.01953515 2.93001934
VERTEX2 85 5.44139564 -19.91464838 2.93729316
VERTEX2 86 4.83196105 -19.79294450 2.84749539
VERTEX2 87 4.43819835 -19.68434045 2.79523116
VERTEX2 88 4.08003805 -19.55089140 2.76543140
VERTEX2 89 4.08919664 -19.55135483 -3.12196876
VERTEX2 90 3.48354214 -19.55370696 3.13012002
VERTEX2 91 2.86713071 -19.54841893 -3.10397826
VERTEX2 92 2.26682200 -19.54331054 3.06351699
VERTEX2 93 1.64537528 -19.43958814 2.96265030
VERTEX2 94 1.02434706 -19.29999686 2.91986604
VERTEX2 95 0.40108822 -19.21085840 3.06248316
VERTEX2 96 -0.21068586 -19.15851210 3.08655746
VERTEX2 97 -0.80206399 -19.09433853 3.01595630
VERTEX2 98 -1.39185855 -18.99209076 2.95798496
VERTEX2 99 -2.09818517 -18.86626401 3.00478852
VERTEX2 100 -2.66404000 -18.75704410 2.95305170
VERTEX2 101 -3.27665766 -18.69924777 3.05631502
VERTEX2 102 -3.89042378 -18.61778998 2.95042748
VERTEX2 103 -4.49942480 -18.50179208 3.04639922
VERTEX2 104 -5.11243005 -18.42437529 3.01274282
VERTEX2 105 -5.72564611 -18.35882070 3.05931590
VERTEX2 106 -6.32827158 -18.28734563 3.00446657
VERTEX2 107 -6.94663569 -18.19010854 3.00066777
VERTEX2 108 -7.40216331 -18.14038119 3.06223476
VERTEX2 109 -7.44845150 -18.12856476 2.61372099
VERTEX2 110 -7.46562437 -18.11072533 2.02236129
VERTEX2 111 -7.46565197 -18.03004082 1.51650224
VERTEX2 112 -7.44062947 -17.39634679 1.57091020
VERTEX2 113 -7.45775791 -16.77412056 1.61792464
VERTEX2 114 -7.48964912 -16.16030543 1.65469242
VERTEX2 115 -7.56164052 -15.51986025 1.71489503
VERTEX2 116 -7.67893070 -14.76895532 1.75893477
VERTEX2 117 -7.81353256 -14.15820644 1.85444905
VERTEX2 118 -7.81819144 -14.13731667 1.51977696
VERTEX2 119 -7.76192663 -13.61947124 1.46651254
VERTEX2 120 -7.70882563 -12.96344673 1.55674288
VERTEX2 121 -7.71921396 -12.34434388 1.62436613
VERTEX2 122 -7.75334082 -11.76241459 1.68060237
VERTEX2 123 -7.77828604 -11.58292698 1.66784149
VERTEX2 124 -7.69250562 -11.34479212 1.24491627
VERTEX2 125 -7.47665709 -10.75285672 1.23400488
VERTEX2 126 -7.34498663 -10.13752949 1.44059370
VERTEX2 127 -7.24848630 -9.50251457 1.43912325
VERTEX2 128 -7.17438637 -8.86319305 1.47566202
VERTEX2 129 -7.08948439 -8.22777732 1.44311493
VERTEX2 130 -7.02355721 -7.59414934 1.49588455
VERTEX2 131 -6.97948775 -6.96606612 1.58444096
VERTEX2 132 -6.96349557 -6.34723668 1.53488622
VERTEX2 133 -6.91812443 -5.77965441 1.49809608
VERTEX2 134 -6.86587037 -5.18313490 1.47991090
VERTEX2 135 -6.78553427 -4.60703687 1.45372279
VERTEX2 136 -6.71321099 -3.97392763 1.47338403
VERTEX2 137 -6.61849915 -3.34291590 1.43158376
VERTEX2 138 -6.54448139 -2.71281578 1.51182288
VERTEX2 139 -6.52998340 -2.08119249 1.57723260
VERTEX2 140 -6.56065324 -1.42489924 1.60785395
VERTEX2 141 -6.56895418 -0.78392316 1.55950766
VERTEX2 142 -6.57165054 -0.13324914 1.55574738
VERTEX2 143 -6.49285985 0.50647257 1.44526354
VERTEX2 144 -6.45442924 0.87898095 1.46285125
VERTEX2 145 -6.44882528 0.89616745 0.96455237
VERTEX2 146 -6.44713317 0.90496446 0.37143735
VERTEX2 147 -6.39159641 0.90134885 -0.11499167
VERTEX2 148 -5.95998228 0.84360908 -0.15060009
VERTEX2 149 -5.31929564 0.75331773 -0.12545924
VERTEX2 150 -4.68517295 0.69229238 -0.11126903
VERTEX2 151 -4.04550752 0.64843298 -0.02557229
VERTEX2 152 -3.41997830 0.61681080 -0.08636191
VERTEX2 153 -2.79473712 0.58786950 0.00715720
VERTEX2 154 -2.17313064 0.57075086 -0.06229771
VERTEX2 155 -1.54768529 0.54122754 -0.02879125
VERTEX2 156 -0.91990746 0.53090513 0.00202168
VERTEX2 157 -0.35574572 0.51685222 -0.06227461
VERTEX2 158 -0.16107677 0.50425433 -0.03477969
VERTEX2 159 -0.15542774 0.50248250 0.95254867
VERTEX2 160 -0.15003580 0.51140274 1.98822826
VERTEX2 161 -0.17218957 0.45257508 2.70922264
VERTEX2 162 -0.14633995 0.45844132 -2.53816225
VERTEX2 163 -0.14733505 0.45341229 -1.54108071
VERTEX2 164 -0.22452796 0.54925733 -0.47878284
VERTEX2 165 -0.05028621 0.53200512 -0.07099040
VERTEX2 166 0.64773837 0.48905037 -0.06928882
VERTEX2 167 1.26480914 0.43887463 -0.09864388
VERTEX2 168 1.85332419 0.38971380 -0.08664118
VERTEX2 169 2.44889644 0.31823605 -0.12357754
VERTEX2 170 3.03573716 0.24998143 -0.14423470
VERTEX2 171 3.59764780 0.15158505 -0.18256035
VERTEX2 172 4.22327315 0.04404908 -0.16853396
VERTEX2 173 4.85222056 -0.07665948 -0.19143923
VERTEX2 174 5.47739223 -0.19099621 -0.15139009
VERTEX2 175 6.09358696 -0.28125613 -0.17616341
VERTEX2 176 6.69294914 -0.40163161 -0.16662027
VERTEX2 177 7.31621791 -0.50455350 -0.19433415
VERTEX2 178 7.93758304 -0.65064300 -0.23340223
VERTEX2 179 8.34079067 -0.73452259 -0.18013446
VERTEX2 180 8.39074440 -0.74799236 -0.62229667
VERTEX2 181 8.83112942 -1.06662202 -0.67415515
VERTEX2 182 9.23733726 -1.42713080 -0.84827868
VERTEX2 183 9.58404674 -1.84847519 -0.90571752
VERTEX2 184 9.93034573 -2.37206236 -1.05156742
VERTEX2 185 10.22039357 -2.91871915 -1.14360021
VERTEX2 186 10.44676695 -3.50174946 -1.20917094
VERTEX2 187 10.64852263 -4.06240235 -1.23112827
VERTEX2 188 10.85726501 -4.64250818 -1.23596742
VERTEX2 189 11.05862853 -5.22643077 -1.26216155
VERTEX2 190 11.24272900 -5.83071454 -1.29106832
VERTEX2 191 11.41639720 -6.43429720 -1.31526974
VERTEX2 192 11.57102017 -7.03129019 -1.34374994
VERTEX2 193 11.69468370 -7.57967022 -1.39959846
VERTEX2 194 11.79458182 -8.14888157 -1.42648950
VERTEX2 195 11.87486525 -8.71325989 -1.45523755
VERTEX2 196 11.94139312 -9.33883069 -1.49604305
VERTEX2 197 11.97916523 -9.96037758 -1.52355919
VERTEX2 198 12.00417426 -10.57932961 -1.58177666
VERTEX2 199 11.97586644 -11.18774425 -1.64323831
VERTEX2 200 11.92850431 -11.79097150 -1.66515820
VERTEX2 201 11.85741226 -12.39073500 -1.72186686
VERTEX2 202 11.79317657 -12.89615262 -1.70172033
VERTEX2 203 11.69081615 -13.63039208 -1.75448738
VERTEX2 204 11.56867080 -14.20648371 -1.85645215
VERTEX2 205 11.39892388 -14.76833117 -1.86585314
VERTEX2 206 11.24435418 -15.31517766 -1.86390463
VERTEX2 207 11.08406818 -15.88175440 -1.84792134
VERTEX2 208 10.91012713 -16.48099464 -1.85731922
VERTEX2 209 10.74742515 -17.08171271 -1.81907512
VERTEX2 210 10.58385757 -17.67439545 -1.82793808
VERTEX2 211 10.43428769 -18.27085527 -1.82568141
VERTEX2 212 10.25712851 -18.85689278 -1.87853951
VERTEX2 213 10.06136265 -19.44661396 -1.89932360
VERTEX2 214 9.86076996 -20.02274112 -1.90313874
VERTEX2 215 9.74529611 -20.34509199 -1.93894208
VERTEX2 216 9.75712039 -20.32488908 -2.43761834
VERTEX2 217 9.78241930 -20.32220327 -2.97979828
VERTEX2 218 9.79134615 -20.32563683 -3.03582840
VERTEX2 219 9.22477173 -20.28102180 3.07884517
VERTEX2 220 8.61550118 -20.23630368 3.03897117
VERTEX2 221 7.97581458 -20.16935984 3.08949079
VERTEX2 222 7.34966016 -20.12629375 3.06397868
VERTEX2 223 6.72294181 -20.09657566 -3.12282965
VERTEX2 224 6.10794745 -20.09705007 3.13460794
VERTEX2 225 5.48935786 -20.09120108 -3.09884003
VERTEX2 226 4.87170511 -20.08463396 3.13528686
VERTEX2 227 4.22643785 -20.15361020 -2.99117262
VERTEX2 228 3.70228515 -20.13764497 2.93056147
VERTEX2 229 3.25514931 -20.09868693 3.05114626
VERTEX2 230 2.96400027 -20.08262637 3.02240493
VERTEX2 231 3.16802053 -20.10047436 3.09252857
VERTEX2 232 2.85801110 -19.96115605 2.66671817
VERTEX2 233 2.29381609 -19.70004596 2.76904917
VERTEX2 234 1.71758999 -19.47295049 2.72490631
VERTEX2 235 1.46797967 -19.36507716 2.71993228
VERTEX2 236 1.13248818 -19.36611514 3.12540052
VERTEX2 237 0.50352250 -19.38079849 -3.08738816
VERTEX2 238 -0.11777292 -19.42908114 -3.12012703
VERTEX2 239 -0.73517773 -19.42585106 3.09542169
VERTEX2 240 -1.30557287 -19.30746374 2.87730652
VERTEX2 241 -1.84587770 -19.17561634 2.96270381
VERTEX2 242 -2.42114105 -19.10966047 3.00223908
VERTEX2 243 -3.02302201 -19.02545708 3.00155922
VERTEX2 244 -3.64834098 -18.97888664 3.07290603
VERTEX2 245 -4.26431772 -18.92922243 3.01872237
VERTEX2 246 -4.86779007 -18.84214789 2.94636585
VERTEX2 247 -5.47265939 -18.75890258 3.05232561
VERTEX2 248 -6.02763065 -18.73674931 3.08372102
VERTEX2 249 -5.97952919 -18.74403712 -3.00654491
VERTEX2 250 -5.97677337 -18.74392993 2.68971586
VERTEX2 251 -6.29929473 -18.40305004 2.26638062
VERTEX2 252 -6.65523459 -17.98230521 2.27492233
VERTEX2 253 -7.02732288 -17.53586979 2.26396026
VERTEX2 254 -7.39291319 -17.07718463 2.22279536
VERTEX2 255 -7.46603650 -16.98423396 2.30666957
VERTEX2 256 -7.46896963 -16.90706598 1.83069690
VERTEX2 257 -7.52047950 -16.44695967 1.69522997
VERTEX2 258 -7.60381497 -15.85723615 1.77571993
VERTEX2 259 -7.74753506 -15.25117681 1.81645412
VERTEX2 260 -7.88158482 -14.68941900 1.80819573
VERTEX2 261 -7.87930053 -14.65188499 1.49697678
VERTEX2 262 -7.81625722 -14.00032557 1.50377926
VERTEX2 263 -7.77423495 -13.38206108 1.51736750
VERTEX2 264 -7.75953094 -12.77690928 1.61455716
VERTEX2 265 -7.79151840 -12.17225005 1.63482333
VERTEX2 266 -7.74389957 -11.59374836 1.50576460
VERTEX2 267 -7.69287414 -10.84297262 1.47643575
VERTEX2 268 -7.56067255 -10.23863648 1.36635114
VERTEX2 269 -7.44091707 -9.62372825 1.39626054
VERTEX2 270 -7.36895733 -8.99814211 1.51029279
VERTEX2 271 -7.27388737 -8.37433013 1.39979066
VERTEX2 272 -7.18843825 -7.74591989 1.46495253
VERTEX2 273 -7.19849711 -7.11398910 1.67711485
VERTEX2 274 -7.26670749 -6.49560596 1.70113870
VERTEX2 275 -7.25481402 -5.88669177 1.52973890
VERTEX2 276 -7.24812353 -5.27867979 1.64431404
VERTEX2 277 -7.29520819 -4.71305194 1.61881121
VERTEX2 278 -7.25207078 -4.07253906 1.53018854
VERTEX2 279 -7.21228017 -3.43410080 1.47493508
VERTEX2 280 -7.14413236 -2.80099987 1.47709537
VERTEX2 281 -7.05357914 -2.16604741 1.37680498
VERTEX2 282 -6.93378825 -1.53751768 1.41683166
VERTEX2 283 -6.84706785 -0.90255040 1.40918240
VERTEX2 284 -6.73536697 -0.27801944 1.43655961
VERTEX2 285 -6.66852574 0.37299821 1.45773333
VERTEX2 286 -6.60222988 0.99625934 1.51143889
VERTEX2 287 -6.59935026 1.04910618 1.40716712
VERTEX2 288 -6.59497718 1.05695610 0.79897379
VERTEX2 289 -6.59156436 1.05866130 0.20593817
VERTEX2 290 -6.15140571 1.05035601 -0.01892280
VERTEX2 291 -5.52888188 1.04319311 -0.00501862
VERTEX2 292 -4.91172502 1.02387109 -0.05968632
VERTEX2 293 -4.28609141 0.97894574 -0.08277909
VERTEX2 294 -3.66406115 0.92694930 -0.08213173
VERTEX2 295 -3.04149868 0.84675671 -0.19467418
VERTEX2 296 -2.42427764 0.70209232 -0.24012998
VERTEX2 297 -1.80927891 0.55046830 -0.25188768
VERTEX2 298 -1.19810904 0.39602208 -0.25257183
VERTEX2 299 -0.62351462 0.23919605 -0.19143088
VERTEX2 300 -0.03641081 0.15314850 -0.14929994
VERTEX2 301 0.52609884 0.05318550 -0.20853734
VERTEX2 302 0.82801549 -0.01198205 -0.22951091
VERTEX2 303 0.81046878 -0.00842712 -0.22544103
VERTEX2 304 1.31099625 -0.12440268 -0.21597244
VERTEX2 305 1.92684921 -0.16945238 -0.03224475
VERTEX2 306 2.55689419 -0.18085155 -0.05040700
VERTEX2 307 3.19667750 -0.22959057 -0.08721129
VERTEX2 308 3.82489963 -0.29344975 -0.14290960
VERTEX2 309 4.46044064 -0.35476978 -0.05010884
VERTEX2 310 5.08869047 -0.38565655 -0.08611132
VERTEX2 311 5.37031912 -0.41207407 0.08879100
VERTEX2 312 5.36784896 -0.41334885 1.07632811
VERTEX2 313 5.37254707 -0.19461396 1.57189361
VERTEX2 314 5.35324353 0.43388614 1.61162370
VERTEX2 315 5.32495649 1.06177044 1.60724801
VERTEX2 316 5.28535444 1.70685255 1.65842684
VERTEX2 317 5.22454109 2.34858791 1.66822463
VERTEX2 318 5.12627035 2.98572067 1.76259702
VERTEX2 319 5.04687894 3.33279528 1.83378995
VERTEX2 320 5.04894026 3.33916779 2.80181528
VERTEX2 321 5.04097999 3.33574734 -2.44216818
VERTEX2 322 5.04009630 3.33392489 -1.44643569
VERTEX2 323 5.05064602 3.32375059 -0.45449168
VERTEX2 324 5.05515679 3.32227716 0.20503007
VERTEX2 325 5.05657921 3.32238927 -0.32294547
VERTEX2 326 5.07196320 3.31081233 -0.91848749
VERTEX2 327 5.07531673 3.29496535 -1.54220290
VERTEX2 328 5.05890098 2.65718410 -1.58887866
VERTEX2 329 5.03685031 2.03064622 -1.64528527
VERTEX2 330 4.98245091 1.41551392 -1.66575557
VERTEX2 331 4.92704598 0.79909095 -1.68149864
VERTEX2 332 4.84718737 0.18575728 -1.70148055
VERTEX2 333 4.82536254 0.03141830 -1.63800597
VERTEX2 334 4.83478055 0.03322559 -0.84471953
VERTEX2 335 4.85183261 0.02816900 0.14629759
VERTEX2 336 4.86470146 0.03267880 1.08746819
VERTEX2 337 4.86966160 0.06347779 2.06647088
VERTEX2 338 4.86697446 0.06534225 3.05597358
VERTEX2 339 4.87905951 0.07283998 -2.17725869
VERTEX2 340 4.87921324 0.07159069 -1.15744334
VERTEX2 341 4.99276835 0.00299314 -0.52370791
VERTEX2 342 5.56600689 -0.30214202 -0.42161296
VERTEX2 343 6.14581477 -0.50407627 -0.29000015
VERTEX2 344 6.73651772 -0.68782796 -0.29941503
VERTEX2 345 6.97654270 -0.75855329 -0.32626491
VERTEX2 346 6.96440130 -0.75457377 -0.97191674
VERTEX2 347 6.96671774 -0.83976435 -1.52914948
VERTEX2 348 6.98447307 -1.43143419 -1.54519297
VERTEX2 349 6.98209107 -2.05199040 -1.58475447
VERTEX2 350 6.96879948 -2.84113132 -1.60373854
VERTEX2 351 6.95446368 -3.11591438 -1.63205403
VERTEX2 352 6.95246531 -3.12544001 -1.91881657
VERTEX2 353 6.94052138 -3.14009238 -2.58166490
VERTEX2 354 6.92690294 -3.14400227 3.10051654
VERTEX2 355 6.90707152 -3.14333350 2.38228526
VERTEX2 356 6.90168533 -3.13382948 1.80933014
VERTEX2 357 6.90419319 -3.11879103 1.15878484
VERTEX2 358 6.90497403 -3.11770948 0.54574683
VERTEX2 359 6.89331504 -3.12271923 -0.06586412
VERTEX2 360 6.87920797 -3.11994236 -0.24088455
VERTEX2 361 6.87124524 -3.12203590 0.68191873
VERTEX2 362 6.95583690 -2.89135881 1.21779033
VERTEX2 363 7.05802293 -2.62339438 1.21220606
VERTEX2 364 6.98838417 -2.28785076 1.82904167
VERTEX2 365 6.93137164 -1.99337341 1.33345087
VERTEX2 366 7.03939278 -1.87076729 0.78095172
VERTEX2 367 7.48369599 -1.43593012 0.78363765
VERTEX2 368 7.93996021 -0.99921379 0.73569940
VERTEX2 369 7.95992364 -0.97507976 0.48387159
VERTEX2 370 7.98415615 -0.97119755 -0.10290480
VERTEX2 371 7.99002069 -0.97423749 -0.64838457
VERTEX2 372 8.41872073 -1.32259712 -0.67605752
VERTEX2 373 8.89112806 -1.68722154 -0.67407331
VERTEX2 374 9.36997468 -2.09013739 -0.73521198
VERTEX2 375 9.72962655 -2.40987202 -0.76609168
VERTEX2 376 9.74142827 -2.41708279 -0.07342421
VERTEX2 377 9.79162830 -2.38134529 0.61975377
VERTEX2 378 10.32666320 -1.98353165 0.67266140
VERTEX2 379 10.80595701 -1.55328649 0.75612945
VERTEX2 380 11.24555775 -1.08679085 0.87406175
VERTEX2 381 11.39162691 -0.90677996 1.02248597
VERTEX2 382 11.39287883 -0.90449991 2.06749697
VERTEX2 383 11.39026732 -0.90290184 3.05443829
VERTEX2 384 11.38783153 -0.90520895 -2.26493773
VERTEX2 385 11.38283871 -0.91359362 -1.23476075
VERTEX2 386 11.48679711 -1.04872347 -1.00979136
VERTEX2 387 11.94208144 -1.47046525 -0.67799120
VERTEX2 388 12.40314953 -1.82592639 -0.67122524
VERTEX2 389 12.83893598 -2.20061299 -0.75610355
VERTEX2 390 12.84897455 -2.20940069 -0.28633046
VERTEX2 391 12.66282026 -2.20120393 0.08905741
VERTEX2 392 12.60723951 -2.20179089 1.11806875
VERTEX2 393 12.60814544 -2.13727711 2.35377415
VERTEX2 394 12.54234064 -2.10996879 -2.94880828
VERTEX2 395 12.73439929 -2.00931822 -2.61628612
VERTEX2 396 12.71224526 -2.02061214 -2.61885640
VERTEX2 397 12.67383609 -2.02919559 -2.63241192
VERTEX2 398 12.65763287 -2.04261116 -2.43883414
VERTEX2 399 12.58265549 -2.14810689 -2.14457967
VERTEX2 400 12.22632233 -2.70116401 -2.09713241
VERTEX2 401 11.88053136 -3.24081852 -2.19138655
VERTEX2 402 11.40267764 -3.69456469 -2.46077603
VERTEX2 403 10.88787865 -4.10154118 -2.49624736
VERTEX2 404 10.38223643 -4.45786156 -2.57672206
VERTEX2 405 10.36458831 -4.47347374 -2.04577984
VERTEX2 406 10.36043109 -4.43472585 -1.07248905
VERTEX2 407 10.53825646 -4.68829320 -0.94610499
VERTEX2 408 10.86209146 -5.14999957 -0.98547081
VERTEX2 409 10.99241403 -5.35971358 -1.08660542
VERTEX2 410 10.98431494 -5.32612015 -1.71785360
VERTEX2 411 11.15529950 -4.89442809 -2.57322527
VERTEX2 412 10.60484580 -5.11523149 -2.77811927
VERTEX2 413 9.96890298 -5.33149092 -2.85914731
VERTEX2 414 9.32654054 -5.53628924 -2.75682666
VERTEX2 415 8.71953901 -5.77402685 -2.74931379
VERTEX2 416 8.43113918 -5.90231569 -2.80396745
VERTEX2 417 8.13728032 -5.88644847 3.05577301
VERTEX2 418 7.69706556 -5.84350472 3.01114051
VERTEX2 419 7.69802911 -5.84329018 -2.84003854
VERTEX2 420 7.74943106 -5.82040450 -2.62314155
VERTEX2 421 7.75055645 -5.81864182 -1.65350482
VERTEX2 422 7.74563163 -5.82555745 -0.41171452
VERTEX2 423 7.74690468 -5.82568051 -0.06518980
VERTEX2 424 7.74271937 -5.82575536 -0.06414394
VERTEX2 425 7.73250811 -5.83153111 -0.05172416
VERTEX2 426 7.72815702 -5.83165217 -0.06016117
VERTEX2 427 7.75634425 -5.83309529 -0.05636219
VERTEX2 428 8.41412068 -5.85368241 -0.06120856
VERTEX2 429 9.05440564 -5.90202289 -0.10132595
VERTEX2 430 9.39199992 -5.94178046 -0.14675904
VERTEX2 431 9.36555924 -5.93865356 -0.09417431
VERTEX2 432 9.37454034 -5.94180520 -0.72459934
VERTEX2 433 9.37944605 -5.94851378 -1.40053683
VERTEX2 434 9.34362108 -6.48758815 -1.62798360
VERTEX2 435 9.31246799 -7.13047248 -1.65575467
VERTEX2 436 9.23563900 -7.77072277 -1.66401158
VERTEX2 437 9.18458959 -8.42074382 -1.65553057
VERTEX2 438 9.13371884 -8.88926412 -1.68546197
VERTEX2 439 9.13199801 -8.89577303 -2.12016951
VERTEX2 440 9.13831028 -8.89080056 -2.76160090
VERTEX2 441 9.15427523 -8.88918925 2.90122437
VERTEX2 442 9.16138363 -8.89305122 2.27352090
VERTEX2 443 9.16149157 -8.89484906 1.70817212
VERTEX2 444 9.16440982 -8.87934803 1.11822912
VERTEX2 445 9.16935016 -8.87461537 0.46179840
VERTEX2 446 9.16748430 -8.87577906 0.66410973
VERTEX2 447 9.17891302 -8.85354269 1.29721509
VERTEX2 448 9.32800736 -8.23185800 1.31488078
VERTEX2 449 9.46003605 -7.59568913 1.41638871
VERTEX2 450 9.55330468 -6.95894187 1.43019136
VERTEX2 451 9.60555334 -6.48853509 1.47282669
VERTEX2 452 9.60565140 -6.48750263 1.09478640
VERTEX2 453 9.60233790 -6.49350731 0.47261251
VERTEX2 454 9.86220559 -6.47349230 0.05055058
VERTEX2 455 10.46021063 -6.44863656 0.02997664
VERTEX2 456 11.09175708 -6.44373545 -0.03462231
VERTEX2 457 11.44509280 -6.46598095 -0.12235015
VERTEX2 458 11.44006018 -6.46348352 -0.76825844
VERTEX2 459 11.43147172 -6.42878043 -1.37647949
VERTEX2 460 11.41101825 -6.82723543 -1.63348767
VERTEX2 461 11.34263056 -7.44375822 -1.72142606
VERTEX2 462 11.25542923 -7.95325629 -1.76142910
VERTEX2 463 11.26659315 -7.93136051 -0.92115085
VERTEX2 464 11.52163372 -8.00372535 -0.24302901
VERTEX2 465 12.10507416 -8.13634728 -0.23527248
VERTEX2 466 12.65828604 -8.28724956 -0.29089871
VERTEX2 467 13.22889774 -8.46874011 -0.33434532
VERTEX2 468 13.84395169 -8.68695244 -0.36964170
VERTEX2 469 14.43578105 -8.95237123 -0.45231315
VERTEX2 470 14.89014065 -9.16779917 -0.43317861
VERTEX2 471 14.89873931 -9.17245181 -0.63261673
VERTEX2 472 14.91602341 -9.19653113 -1.26442215
VERTEX2 473 14.91750969 -9.20380995 -1.90414499
VERTEX2 474 14.91594978 -9.20576796 -2.53462369
VERTEX2 475 14.91832178 -9.20544259 -3.10825276
VERTEX2 476 14.92071863 -9.20576704 2.52388872
VERTEX2 477 14.92518334 -9.21449351 1.96450826
VERTEX2 478 14.92594212 -9.22437829 1.33761036
VERTEX2 479 14.92493060 -9.22669829 0.88343378
VERTEX2 480 14.92522498 -9.22603351 1.44560063
VERTEX2 481 14.92159560 -9.21037173 2.44785511
VERTEX2 482 14.92597327 -9.21212804 2.78405491
VERTEX2 483 14.93256137 -9.21451152 2.77869819
VERTEX2 484 14.50649652 -9.05623214 2.81424541
VERTEX2 485 13.90789197 -8.86724009 2.81195269
VERTEX2 486 13.30660774 -8.65424677 2.82150353
VERTEX2 487 12.69665728 -8.47450876 2.84980489
VERTEX2 488 12.08441265 -8.29290329 2.88595036
VERTEX2 489 11.61419197 -8.18514110 2.91640378
VERTEX2 490 11.61886994 -8.18468820 -2.88160662
VERTEX2 491 11.62635455 -8.17481776 -1.94536886
VERTEX2 492 11.60964533 -8.40449369 -1.64228214
VERTEX2 493 11.54789225 -9.00832351 -1.69730356
VERTEX2 494 11.46075612 -9.61946006 -1.75819251
VERTEX2 495 11.39169980 -10.24264520 -1.65100930
VERTEX2 496 11.34801769 -10.86708090 -1.53326958
VERTEX2 497 11.34118746 -11.48498010 -1.61930595
VERTEX2 498 11.27268080 -12.10650790 -1.72110222
VERTEX2 499 11.14217707 -12.73310476 -1.73810913
VERTEX2 500 11.20017589 -13.29982953 -1.40915712
VERTEX2 501 11.27560738 -13.88289076 -1.48083590
VERTEX2 502 11.30045421 -14.58181816 -1.56490819
VERTEX2 503 11.29655000 -15.02585679 -1.58193868
VERTEX2 504 11.30285663 -15.00800719 -0.72605978
VERTEX2 505 11.53958956 -15.03492436 -0.10453878
VERTEX2 506 12.13062895 -15.11647983 -0.25717626
VERTEX2 507 12.71051730 -15.28600343 -0.33580615
VERTEX2 508 13.27819861 -15.49712823 -0.34914679
VERTEX2 509 13.89754778 -15.73069771 -0.40505801
VERTEX2 510 14.25368251 -15.88978477 -0.41896283
VERTEX2 511 14.25192173 -15.87256535 0.45638678
VERTEX2 512 14.27367549 -15.82675223 1.65370410
VERTEX2 513 14.27019948 -15.81649250 2.60919134
VERTEX2 514 14.20254794 -15.79748422 2.83547377
VERTEX2 515 13.59212419 -15.61629634 2.83658921
VERTEX2 516 13.00721563 -15.42200510 2.85249795
VERTEX2 517 12.41435503 -15.27363883 2.88070297
VERTEX2 518 11.82183922 -15.12213703 2.90506523
VERTEX2 519 11.29981782 -14.99795306 2.88937906
VERTEX2 520 11.13187538 -14.95413166 -2.99534739
VERTEX2 521 11.15406276 -14.92970266 -1.99166429
VERTEX2 522 11.08844348 -15.32569317 -1.72736793
VERTEX2 523 10.99659287 -15.94568482 -1.73474522
VERTEX2 524 10.89233473 -16.51958734 -1.77665343
VERTEX2 525 10.78800235 -17.06160692 -1.75297554
VERTEX2 526 10.67141274 -17.63033268 -1.81173116
VERTEX2 527 10.52319371 -18.20935241 -1.84649202
VERTEX2 528 10.34044214 -18.77597091 -1.92240654
VERTEX2 529 10.12785261 -19.37756450 -1.95072472
VERTEX2 530 9.88019524 -19.97645542 -1.98082628
VERTEX2 531 9.61007361 -20.55101496 -2.06066600
VERTEX2 532 9.51194911 -20.73674728 -2.01007364
VERTEX2 533 9.50945879 -20.72459139 -1.01031568
VERTEX2 534 9.51006481 -20.72497742 -0.34328247
VERTEX2 535 9.51343336 -20.72526665 -0.34363990
VERTEX2 536 9.86988960 -20.80922972 -0.21291517
VERTEX2 537 10.47620946 -20.95774258 -0.27090582
VERTEX2 538 11.03582957 -21.12702276 -0.29801572
VERTEX2 539 11.64341072 -21.33611396 -0.36278016
VERTEX2 540 12.22976289 -21.58936029 -0.45567100
VERTEX2 541 12.81649160 -21.81742456 -0.29336646
VERTEX2 542 13.44713472 -21.95944114 -0.23766396
VERTEX2 543 13.56866941 -21.98995245 -0.26732957
VERTEX2 544 13.58987774 -21.98779462 0.36967853
VERTEX2 545 13.61352893 -21.94486085 1.43586370
VERTEX2 546 13.63091640 -21.99015135 2.26288911
VERTEX2 547 13.63919291 -21.98959900 -2.99863872
VERTEX2 548 13.65278728 -21.98088377 -2.07575718
VERTEX2 549 13.65445402 -21.96957036 -1.26915715
VERTEX2 550 13.65324983 -21.94865600 -1.74895899
VERTEX2 551 13.66172606 -21.93149675 -2.37533535
VERTEX2 552 13.68010219 -21.92235527 -3.00779735
VERTEX2 553 13.54318938 -21.86996296 2.69810005
VERTEX2 554 12.95145159 -21.58576064 2.66263885
VERTEX2 555 12.37249412 -21.31065873 2.75150816
VERTEX2 556 11.76858217 -21.09210601 2.88660567
VERTEX2 557 11.16837271 -20.92110640 2.84539611
VERTEX2 558 10.59226828 -20.76394107 2.92642654
VERTEX2 559 10.59965321 -20.76643487 2.51947413
VERTEX2 560 10.59239033 -20.75849471 2.01854965
VERTEX2 561 10.56905120 -20.73582940 2.52378184
VERTEX2 562 10.39059325 -20.73579529 -3.11583070
VERTEX2 563 9.82018336 -20.65726061 2.97554149
VERTEX2 564 9.21515586 -20.56571393 3.02431396
VERTEX2 565 8.62460409 -20.49436150 2.96673081
VERTEX2 566 8.68540212 -20.51328440 -2.53288255
VERTEX2 567 8.59104287 -20.52024628 -1.73951897
VERTEX2 568 8.53975483 -21.02851298 -1.67553154
VERTEX2 569 8.48802886 -21.60378854 -1.71469328
VERTEX2 570 8.41888921 -22.18416502 -1.70994316
VERTEX2 571 8.36617778 -22.53946160 -1.75742596
VERTEX2 572 8.33235560 -22.56416058 -2.00062814
VERTEX2 573 8.29728857 -22.64354017 -1.72430832
VERTEX2 574 8.31779279 -22.67239315 -0.78491292
VERTEX2 575 8.47153892 -22.72266938 0.13644881
VERTEX2 576 8.47070167 -22.72200037 1.16411357
VERTEX2 577 8.46395650 -22.70416815 2.13621454
VERTEX2 578 8.45440020 -22.67186460 1.77205274
VERTEX2 579 8.32953622 -22.01998164 1.78708876
VERTEX2 580 8.16771686 -21.38030598 1.86225022
VERTEX2 581 7.97323057 -20.75660000 1.90464963
VERTEX2 582 7.75128147 -20.14195186 1.94780688
VERTEX2 583 7.62111144 -19.83342332 2.02720098
VERTEX2 584 7.61541266 -19.82237287 2.87112381
VERTEX2 585 7.03125508 -19.68232427 2.98956258
VERTEX2 586 6.43656950 -19.60797148 3.08727426
VERTEX2 587 5.81685533 -19.59735697 3.11283395
VERTEX2 588 5.18618180 -19.57180051 3.11745478
VERTEX2 589 4.64750570 -19.59675370 -3.09037906
VERTEX2 590 4.09793828 -19.64108099 -3.02165210
VERTEX2 591 3.55875328 -19.72024735 -3.02355627
VERTEX2 592 3.01055271 -19.79485631 -3.02629224
VERTEX2 593 2.83273632 -19.81725430 -2.82104547
VERTEX2 594 2.87427629 -19.77252367 -1.90146836
VERTEX2 595 2.76126752 -20.37950665 -1.66863715
VERTEX2 596 2.70887007 -21.00342485 -1.69177037
VERTEX2 597 2.61717454 -21.67805404 -1.73169980
VERTEX2 598 2.51436426 -22.27643098 -1.77385014
VERTEX2 599 2.42604964 -22.65376181 -1.84002070
VERTEX2 600 2.42624222 -22.66987741 -1.03343493
VERTEX2 601 2.46599520 -22.69435757 -0.01523034
VERTEX2 602 2.50052703 -22.68044590 0.99884618
VERTEX2 603 2.46601821 -22.44534609 1.77150316
VERTEX2 604 2.40565117 -21.83271739 1.52741732
VERTEX2 605 2.41476006 -21.18635850 1.61005758
VERTEX2 606 2.37456704 -20.54026064 1.65219007
VERTEX2 607 2.38581043 -19.95171542 1.57123020
VERTEX2 608 2.37283636 -19.56710365 1.61577329
VERTEX2 609 2.36930801 -19.54633741 1.95220920
VERTEX2 610 2.36113433 -19.54337920 2.88512398
VERTEX2 611 1.76544512 -19.39287514 2.88820706
VERTEX2 612 1.29264380 -19.25811640 2.89113444
VERTEX2 613 1.32774419 -19.26884427 -2.92803052
VERTEX2 614 1.33361143 -19.26440710 -1.88958154
VERTEX2 615 1.34553758 -19.74981251 -1.58484750
VERTEX2 616 1.35136732 -20.37162289 -1.63588640
VERTEX2 617 1.21263786 -20.97419093 -1.85278133
VERTEX2 618 1.04259612 -21.57952999 -1.84246804
VERTEX2 619 0.88096064 -22.15037987 -1.84364908
VERTEX2 620 0.69681117 -22.72560888 -1.93951747
VERTEX2 621 0.82592100 -22.39288575 -1.99076434
VERTEX2 622 0.94951799 -22.12923537 -2.06548642
VERTEX2 623 0.94890216 -22.13006830 -2.60198221
VERTEX2 624 0.91929181 -22.12975055 3.03927174
VERTEX2 625 0.87759294 -22.11288464 2.38141995
VERTEX2 626 0.84946141 -22.08056463 1.76403163
VERTEX2 627 0.92235836 -21.70882666 1.35366322
VERTEX2 628 1.10164663 -21.08241645 1.25288612
VERTEX2 629 1.27386286 -20.45533893 1.32394970
VERTEX2 630 1.39996306 -19.84805985 1.40893848
VERTEX2 631 1.47261208 -19.31871593 1.42898497
VERTEX2 632 1.47529947 -19.30289109 2.10471878
VERTEX2 633 1.37709179 -19.29620562 -3.09240746
VERTEX2 634 0.70959750 -19.33305053 -3.06505404
VERTEX2 635 0.05638129 -19.34375320 3.08306234
VERTEX2 636 -0.58535566 -19.31516752 3.06544549
VERTEX2 637 -1.21350904 -19.24083687 2.96611674
VERTEX2 638 -1.60540946 -19.16090741 2.93654075
VERTEX2 639 -2.21585699 -19.05807083 3.01685354
VERTEX2 640 -2.83049119 -18.94901470 2.94893246
VERTEX2 641 -3.43053737 -18.83825832 2.94057620
VERTEX2 642 -4.00622813 -18.70117249 2.89521378
VERTEX2 643 -4.48774216 -18.56467176 2.82774833
VERTEX2 644 -4.49178399 -18.56557310 -2.69867815
VERTEX2 645 -4.52829436 -18.70677161 -1.92120354
VERTEX2 646 -4.66552369 -19.31596327 -1.62583168
VERTEX2 647 -4.62221247 -19.95820347 -1.33697899
VERTEX2 648 -4.39947351 -20.58308409 -1.17069231
VERTEX2 649 -4.22605007 -21.18160620 -1.50828471
VERTEX2 650 -4.32689256 -21.80992850 -1.76563973
VERTEX2 651 -4.34441085 -21.95535393 -0.96621850
VERTEX2 652 -4.28164788 -21.98360862 0.05875897
VERTEX2 653 -4.23562861 -21.94230878 1.08920699
VERTEX2 654 -4.24452044 -21.64602270 1.60238583
VERTEX2 655 -4.25468248 -21.09299756 1.59738349
VERTEX2 656 -4.25359332 -20.49127970 1.58475548
VERTEX2 657 -4.36015946 -19.88007868 1.86139557
VERTEX2 658 -4.55028704 -19.26328265 1.85422648
VERTEX2 659 -4.66489065 -18.77008386 1.78306476
VERTEX2 660 -4.66792983 -18.75487595 2.38317045
VERTEX2 661 -4.84632339 -18.73514676 3.03660370
VERTEX2 662 -5.43970929 -18.67554798 3.10620494
VERTEX2 663 -6.02694127 -18.68973340 -3.07595490
VERTEX2 664 -6.03490908 -18.68767925 -2.55273976
VERTEX2 665 -6.05094093 -18.78903194 -1.71906831
VERTEX2 666 -6.12292919 -19.39722594 -1.68193582
VERTEX2 667 -6.18026620 -19.96327523 -1.67732072
VERTEX2 668 -6.24402164 -20.55677413 -1.65154523
VERTEX2 669 -6.29275199 -21.18202715 -1.67668165
VERTEX2 670 -6.39244090 -21.79946730 -1.73616503
VERTEX2 671 -6.44009389 -22.09186058 -1.68118797
VERTEX2 672 -6.33809275 -21.51110701 -1.77030793
VERTEX2 673 -6.27181088 -21.24444450 -1.90086975
VERTEX2 674 -6.25899670 -21.23093140 -2.54903268
VERTEX2 675 -6.23572080 -21.22601779 3.12551386
VERTEX2 676 -6.22977170 -21.22950456 2.50215634
VERTEX2 677 -6.22524308 -21.23576525 1.88629611
VERTEX2 678 -6.19708600 -21.01364510 1.44033990
VERTEX2 679 -6.13270389 -20.43464395 1.50291002
VERTEX2 680 -6.16001905 -19.98632093 1.84777557
VERTEX2 681 -6.31181657 -19.39480422 1.82025776
VERTEX2 682 -6.48371592 -18.78874884 1.86792778
VERTEX2 683 -6.57582724 -18.50638753 2.02708007
VERTEX2 684 -6.52306900 -18.56023562 3.10703130
VERTEX2 685 -6.92776131 -18.72145192 -2.73238367
VERTEX2 686 -7.37571615 -18.85847292 -2.87656557
VERTEX2 687 -7.97089727 -19.00997622 -2.91152264
VERTEX2 688 -8.56935618 -19.13044861 -2.92324728
VERTEX2 689 -9.13420143 -19.26986152 -2.89553596
VERTEX2 690 -9.67061783 -19.43933268 -2.82131631
VERTEX2 691 -10.06621879 -19.57119461 -2.84930485
VERTEX2 692 -10.05204482 -19.56489005 -2.31502978
VERTEX2 693 -10.02907321 -19.63722221 -1.27457537
VERTEX2 694 -10.00492089 -19.70926425 -0.43907446
VERTEX2 695 -9.98642263 -19.70399565 0.36096080
VERTEX2 696 -9.98021531 -19.69992796 1.38648527
VERTEX2 697 -9.99185690 -19.73823737 1.13352316
VERTEX2 698 -9.66139955 -19.52888551 0.47877597
VERTEX2 699 -9.09759642 -19.21513067 0.59282517
VERTEX2 700 -8.58400022 -18.85253337 0.64636684
VERTEX2 701 -8.14995418 -18.48912853 0.70554893
VERTEX2 702 -7.67050293 -18.17330308 0.59040619
VERTEX2 703 -7.15795478 -17.83615967 0.62467459
VERTEX2 704 -6.66419382 -17.45336142 0.64286829
VERTEX2 705 -6.15336153 -17.03246075 0.71312336
VERTEX2 706 -5.72328336 -16.71437074 0.44415059
VERTEX2 707 -5.69794596 -16.71300661 -0.07607566
VERTEX2 708 -5.68802821 -16.71873708 -0.71453210
VERTEX2 709 -5.72790667 -16.67579977 -1.04660345
VERTEX2 710 -5.73232125 -16.66439882 -1.60770024
VERTEX2 711 -5.72290605 -16.67290029 -2.20441139
VERTEX2 712 -5.70258991 -16.65732854 -2.76482935
VERTEX2 713 -6.17550925 -16.70776952 -3.05016918
VERTEX2 714 -6.72877447 -16.68266672 3.03550396
VERTEX2 715 -7.35545600 -16.64572092 3.13911412
VERTEX2 716 -7.98958085 -16.62370496 3.00108439
VERTEX2 717 -8.61073648 -16.55581577 3.08584302
VERTEX2 718 -9.37270578 -16.43716171 2.91046961
VERTEX2 719 -9.98937948 -16.32182673 2.98494120
VERTEX2 720 -10.60190582 -16.20939338 2.92574217
VERTEX2 721 -11.21935970 -16.09352038 2.99396636
VERTEX2 722 -11.23567930 -16.09119398 3.06067166
VERTEX2 723 -11.25608631 -16.11223933 -2.13254900
VERTEX2 724 -11.25620291 -16.15604216 -1.06365758
VERTEX2 725 -11.22879700 -16.17447079 -0.42929054
VERTEX2 726 -10.90309455 -16.17066574 0.02491568
VERTEX2 727 -10.26538544 -16.13289554 0.05566701
VERTEX2 728 -9.62492023 -16.10939246 0.05706287
VERTEX2 729 -8.98694337 -16.04958292 0.11471491
VERTEX2 730 -8.36352976 -15.95792384 0.15223012
VERTEX2 731 -7.71607581 -15.85836083 0.16444733
VERTEX2 732 -7.57487263 -15.83002489 0.61104940
VERTEX2 733 -7.57379006 -15.83179520 1.60764613
VERTEX2 734 -7.63245019 -15.27546398 1.68576111
VERTEX2 735 -7.69330510 -14.67279667 1.65373278
VERTEX2 736 -7.69407043 -14.66141996 2.25328465
VERTEX2 737 -7.68815483 -14.66219764 3.05405808
VERTEX2 738 -8.26729583 -14.62182649 3.07312979
VERTEX2 739 -8.87046535 -14.52701151 3.01550927
VERTEX2 740 -9.37343102 -14.48696403 3.07877814
VERTEX2 741 -9.35334564 -14.48673819 2.70993373
VERTEX2 742 -9.35346196 -14.48667452 2.05716073
VERTEX2 743 -9.35529402 -14.47858434 1.44036436
VERTEX2 744 -9.34553915 -14.45622550 0.90101322
VERTEX2 745 -9.32547626 -14.44572272 0.30753870
VERTEX2 746 -8.78233769 -14.46374184 -0.16731840
VERTEX2 747 -8.13651531 -14.57799333 -0.20255808
VERTEX2 748 -7.55900088 -14.72032329 -0.27086745
VERTEX2 749 -7.47520029 -14.74114892 0.15838220
VERTEX2 750 -7.46490450 -14.72212994 1.08555018
VERTEX2 751 -7.49984981 -14.44853310 1.72588969
VERTEX2 752 -7.55908297 -13.82197597 1.62257298
VERTEX2 753 -7.59814914 -13.17978841 1.68578496
VERTEX2 754 -7.60711388 -12.53573947 1.52367198
VERTEX2 755 -7.58989535 -11.90242631 1.61013740
VERTEX2 756 -7.55402009 -11.26647454 1.43374720
VERTEX2 757 -7.48085686 -10.62095505 1.54565350
VERTEX2 758 -7.50280102 -10.04145875 1.68787759
VERTEX2 759 -7.49371823 -9.49365570 1.56790251
VERTEX2 760 -7.53435108 -8.88159070 1.67930619
VERTEX2 761 -7.53725471 -8.84280957 1.85971491
VERTEX2 762 -7.61342272 -8.80902976 2.69496158
VERTEX2 763 -8.18660622 -8.70829865 2.98773416
VERTEX2 764 -8.60551751 -8.63835605 2.96015908
VERTEX2 765 -8.59351727 -8.63808991 -2.68368819
VERTEX2 766 -8.59520447 -8.64363140 -1.68350278
VERTEX2 767 -8.58985490 -8.65705602 -0.75277188
VERTEX2 768 -8.56143324 -8.65871252 -0.03051111
VERTEX2 769 -7.92463389 -8.56744741 0.12634151
VERTEX2 770 -7.27075601 -8.50606554 0.05916970
VERTEX2 771 -7.18086855 -8.49829253 0.61955597
VERTEX2 772 -7.17769870 -8.48813542 1.48696240
VERTEX2 773 -7.15532473 -7.90936048 1.57288150
VERTEX2 774 -7.16914121 -7.36198451 1.59507831
VERTEX2 775 -7.16850773 -7.36468290 2.44029430
VERTEX2 776 -7.38076951 -7.33941251 3.05794582
VERTEX2 777 -7.99706908 -7.29896100 3.11709363
VERTEX2 778 -8.61269809 -7.28987085 3.09625420
VERTEX2 779 -9.22898271 -7.26998762 3.11438600
VERTEX2 780 -9.43761022 -7.25243539 2.98419008
VERTEX2 781 -9.43477713 -7.25343811 2.41082992
VERTEX2 782 -9.56250296 -6.98148117 1.98131287
VERTEX2 783 -9.79815434 -6.40835111 1.98073419
VERTEX2 784 -9.89772596 -6.18151630 1.95943180
VERTEX2 785 -9.89864347 -6.15674213 1.40751072
VERTEX2 786 -9.89093802 -6.13129243 0.81923364
VERTEX2 787 -9.87409343 -6.11401177 0.32860622
VERTEX2 788 -9.84771737 -6.11577884 -0.30048311
VERTEX2 789 -9.83739395 -6.12386661 -0.85241751
VERTEX2 790 -9.53077233 -6.51868522 -0.91956426
VERTEX2 791 -9.12576824 -7.00013111 -0.82087517
VERTEX2 792 -8.88631297 -7.21315300 -0.11628496
VERTEX2 793 -8.27092200 -7.26524870 -0.07148978
VERTEX2 794 -7.63116265 -7.29399766 -0.00023418
VERTEX2 795 -7.65548302 -7.31188679 0.42924468
VERTEX2 796 -7.66229660 -7.31463407 1.08874223
VERTEX2 797 -7.58802060 -7.00525000 1.34897015
VERTEX2 798 -7.45310467 -6.37880667 1.39915478
VERTEX2 799 -7.36625935 -5.73441891 1.46492648
VERTEX2 800 -7.31241738 -5.08800343 1.53787788
VERTEX2 801 -7.32330896 -4.45621353 1.62383829
VERTEX2 802 -7.37708410 -3.83109932 1.68157623
VERTEX2 803 -7.35964212 -3.20251762 1.51695309
VERTEX2 804 -7.33929377 -2.57519254 1.57289473
VERTEX2 805 -7.37237278 -1.94487421 1.64922410
VERTEX2 806 -7.43220162 -1.34666003 1.69068152
VERTEX2 807 -7.45951430 -1.16199010 1.97878976
VERTEX2 808 -7.46425877 -1.16189619 2.92710461
VERTEX2 809 -8.05583359 -1.13279790 3.07178520
VERTEX2 810 -8.67314259 -1.00934411 2.93163981
VERTEX2 811 -9.27204261 -0.89760457 2.92836497
VERTEX2 812 -9.27435680 -0.89715428 -2.62303402
VERTEX2 813 -9.28402584 -0.91871914 -1.64771425
VERTEX2 814 -9.27782948 -0.92362291 -0.65547706
VERTEX2 815 -9.25360246 -0.93178843 0.26379794
VERTEX2 816 -9.24473803 -0.92693975 0.94495470
VERTEX2 817 -9.23331376 -0.91975173 0.27619287
VERTEX2 818 -9.01109112 -0.95365282 -0.21269444
VERTEX2 819 -8.42014714 -1.08138000 -0.19856895
VERTEX2 820 -7.82677567 -1.21319339 -0.23979685
VERTEX2 821 -7.28089312 -1.34406658 -0.22399624
VERTEX2 822 -7.23162538 -1.35155557 0.53750608
VERTEX2 823 -7.23020661 -1.33656117 1.45676540
VERTEX2 824 -7.16623671 -0.71424097 1.37745267
VERTEX2 825 -7.02208127 -0.09043779 1.34781131
VERTEX2 826 -6.96481173 0.54182318 1.51079364
VERTEX2 827 -6.90073378 1.16582874 1.46218175
VERTEX2 828 -6.84639336 1.79723158 1.49775513
VERTEX2 829 -6.78573562 2.40109897 1.45802659
VERTEX2 830 -6.71113460 3.01029450 1.44972178
VERTEX2 831 -6.61728567 3.58783439 1.40294225
VERTEX2 832 -6.52737527 4.15105467 1.39938950
VERTEX2 833 -6.48349043 4.40658825 1.53706142
VERTEX2 834 -6.48547961 4.41362515 2.59177300
VERTEX2 835 -6.49859904 4.41512859 -2.91370707
VERTEX2 836 -6.51074289 4.40486021 -1.97059811
VERTEX2 837 -6.50735313 4.38641268 -0.93418588
VERTEX2 838 -6.49578802 4.37921630 -0.07194934
VERTEX2 839 -6.49540298 4.37903355 -0.29020070
VERTEX2 840 -6.48453537 4.37052552 -0.85282582
VERTEX2 841 -6.47695501 4.35530835 -1.46988660
VERTEX2 842 -6.50300786 4.10944971 -1.70070390
VERTEX2 843 -6.58100892 3.54558855 -1.70323202
VERTEX2 844 -6.65599294 2.91974506 -1.71125585
VERTEX2 845 -6.74951945 2.29440841 -1.72598576
VERTEX2 846 -6.83514818 1.66485550 -1.72426703
VERTEX2 847 -6.94468923 1.04312232 -1.75102730
VERTEX2 848 -6.97534758 0.84770968 -1.27062795
VERTEX2 849 -6.97464486 0.84746293 -0.34851070
VERTEX2 850 -6.61945901 0.84419196 0.00485241
VERTEX2 851 -5.99220451 0.81857737 -0.08766946
VERTEX2 852 -5.36781531 0.75777742 -0.07327247
VERTEX2 853 -4.77299441 0.71566288 -0.10121041
VERTEX2 854 -4.18579662 0.64824819 -0.09921922
VERTEX2 855 -3.59093100 0.59772591 -0.10102885
VERTEX2 856 -2.93736107 0.51250796 -0.14171400
VERTEX2 857 -2.28496408 0.42360497 -0.15125820
VERTEX2 858 -1.63898177 0.30227217 -0.20577169
VERTEX2 859 -1.12088006 0.19902043 -0.21263121
VERTEX2 860 -1.09476265 0.20980257 0.63815812
VERTEX2 861 -1.07927104 0.31973798 1.55295004
VERTEX2 862 -1.04140936 0.97953938 1.49332485
VERTEX2 863 -0.98446668 1.62391747 1.46083896
VERTEX2 864 -0.89784650 2.23425212 1.45872194
VERTEX2 865 -0.85694748 2.84578592 1.51634526
VERTEX2 866 -0.81257686 3.43179908 1.51522270
VERTEX2 867 -0.80517847 3.59588203 1.69643297
VERTEX2 868 -0.81252810 3.60516568 2.72023027
VERTEX2 869 -0.80192225 3.60531936 -2.58460457
VERTEX2 870 -0.78218337 3.61594396 -1.58514242
VERTEX2 871 -0.76745587 3.60597341 -0.61142979
VERTEX2 872 -0.74903108 3.59268328 0.07383981
VERTEX2 873 -0.72169291 3.58358940 -0.49872654
VERTEX2 874 -0.70043079 3.56439831 -1.05832961
VERTEX2 875 -0.69409587 3.54951152 -1.64483956
VERTEX2 876 -0.81381136 2.99348565 -1.80240475
VERTEX2 877 -0.96580533 2.45153883 -1.88705897
VERTEX2 878 -1.01626836 2.25189195 -1.50409875
VERTEX2 879 -0.91495466 1.61344469 -1.45307127
VERTEX2 880 -0.87929027 1.16442628 -1.56576290
VERTEX2 881 -0.87967858 1.21431276 -1.56042191
VERTEX2 882 -0.93606127 0.57483791 -1.80694867
VERTEX2 883 -1.15164622 -0.02026356 -1.99767751
VERTEX2 884 -1.31008052 -0.35231190 -2.06464904
VERTEX2 885 -1.31005671 -0.35226316 -1.48310611
VERTEX2 886 -1.29294959 -0.36829009 -0.46517770
VERTEX2 887 -1.26444379 -0.37937728 0.54606251
VERTEX2 888 -1.25438799 -0.35822266 1.53009105
VERTEX2 889 -1.25595711 -0.35372232 2.42808016
VERTEX2 890 -1.57152094 -0.20116284 2.70199340
VERTEX2 891 -2.10882834 0.06556093 2.63167518
VERTEX2 892 -2.64249046 0.38483183 2.59611345
VERTEX2 893 -3.19542888 0.68056091 2.83240441
VERTEX2 894 -3.80848940 0.79180608 3.05346681
VERTEX2 895 -4.40807909 0.74298062 -2.93144395
VERTEX2 896 -4.42727289 0.73839746 -2.45293063
VERTEX2 897 -4.71199710 0.31709043 -2.18064001
VERTEX2 898 -5.06408899 -0.19316641 -2.16504114
VERTEX2 899 -5.35120853 -0.60386029 -2.23269645
VERTEX2 900 -5.76526141 -1.14875836 -2.23502651
VERTEX2 901 -6.13760311 -1.59364905 -2.29934923
VERTEX2 902 -6.55452160 -2.08572935 -2.27408039
VERTEX2 903 -6.87134561 -2.46527722 -2.31882134
VERTEX2 904 -6.87226840 -2.46659543 -1.61571460
VERTEX2 905 -6.85891604 -2.95960380 -1.56023258
VERTEX2 906 -6.82553078 -3.53077733 -1.49450446
VERTEX2 907 -6.76984932 -4.10506558 -1.50267823
VERTEX2 908 -6.72412087 -4.72749622 -1.47789860
VERTEX2 909 -6.66413591 -5.34011227 -1.49582094
VERTEX2 910 -6.69196717 -5.46942267 -1.86571538
VERTEX2 911 -6.85253597 -6.04005422 -1.80484791
VERTEX2 912 -6.97408582 -6.60371211 -1.79223891
VERTEX2 913 -7.08669605 -7.14535814 -1.78431561
VERTEX2 914 -7.21327937 -7.73318889 -1.80798414
VERTEX2 915 -7.33726148 -8.24194885 -1.84470977
VERTEX2 916 -7.27292581 -8.48678498 -1.29719235
VERTEX2 917 -7.13423817 -9.13645036 -1.55162173
VERTEX2 918 -7.15478860 -9.65472331 -1.62716677
VERTEX2 919 -7.18884251 -10.27878963 -1.67049761
VERTEX2 920 -7.25380978 -10.89312643 -1.68809957
VERTEX2 921 -7.32762150 -11.50865906 -1.74146263
VERTEX2 922 -7.43065111 -12.11259859 -1.76869644
VERTEX2 923 -7.55129724 -12.67912656 -1.83218668
VERTEX2 924 -7.68370501 -13.17263736 -1.81555660
VERTEX2 925 -7.68441688 -13.16904429 -1.31084342
VERTEX2 926 -7.52452211 -13.73236011 -1.29465627
VERTEX2 927 -7.35783203 -14.32427072 -1.31798229
VERTEX2 928 -7.20025889 -14.93160616 -1.32693705
VERTEX2 929 -7.04923553 -15.53609797 -1.32786241
VERTEX2 930 -6.90219631 -16.16737074 -1.41048911
VERTEX2 931 -6.81625673 -16.79404461 -1.49076057
VERTEX2 932 -6.77046927 -17.42145796 -1.55023547
VERTEX2 933 -6.76743657 -18.03431550 -1.61486107
VERTEX2 934 -6.78238207 -18.51522783 -1.62470584
VERTEX2 935 -6.77961533 -18.52809305 -0.94256929
VERTEX2 936 -6.77751117 -18.52883358 0.00258286
VERTEX2 937 -6.23513162 -18.50413572 0.06545909
VERTEX2 938 -5.63877485 -18.52072781 -0.10794688
VERTEX2 939 -5.01457325 -18.58116068 -0.08023046
VERTEX2 940 -4.40249630 -18.65707187 -0.16597806
VERTEX2 941 -3.79744116 -18.77331947 -0.21951644
VERTEX2 942 -3.27843625 -18.88965795 -0.21490968
VERTEX2 943 -2.66897381 -19.02415515 -0.12644178
VERTEX2 944 -2.05567255 -19.10771664 -0.18296101
VERTEX2 945 -1.43365235 -19.23717698 -0.23789529
VERTEX2 946 -1.25808796 -19.28203601 -0.17337415
VERTEX2 947 -0.84932458 -19.21931356 0.15517219
VERTEX2 948 -0.27997408 -19.13076201 0.13626993
VERTEX2 949 0.31975349 -19.09656653 -0.01907582
VERTEX2 950 0.95382576 -19.13316892 -0.25900360
VERTEX2 951 1.56088565 -19.30787152 -0.33143800
VERTEX2 952 2.16765013 -19.48578639 -0.08102420
VERTEX2 953 2.80104250 -19.51848483 -0.00099514
VERTEX2 954 3.42397954 -19.51185100 -0.00818981
VERTEX2 955 4.01153463 -19.55796893 -0.16925826
VERTEX2 956 4.56477988 -19.63809398 -0.17165156
VERTEX2 957 5.09907463 -19.73620527 -0.25945611
VERTEX2 958 5.56940718 -19.85081712 -0.28628577
VERTEX2 959 6.00575638 -19.97217768 -0.35348755
VERTEX2 960 6.59545523 -20.13624511 -0.27364630
VERTEX2 961 7.17744110 -20.31162980 -0.30071716
VERTEX2 962 7.79526473 -20.44132394 -0.23513849
VERTEX2 963 8.41325461 -20.52321907 -0.04850261
VERTEX2 964 9.03578051 -20.56576843 -0.11241808
VERTEX2 965 9.65398728 -20.64587527 -0.11932330
VERTEX2 966 10.09798191 -20.70502457 -0.17830731
VERTEX2 967 10.13131294 -20.69829671 0.67506348
VERTEX2 968 10.13951863 -20.69055622 1.57177029
VERTEX2 969 10.14187318 -20.71828711 1.63122332
VERTEX2 970 10.14436865 -20.74625240 1.62947791
VERTEX2 971 10.12401232 -20.41300654 1.62959716
VERTEX2 972 10.08550710 -19.82647553 1.63519657
VERTEX2 973 10.16514927 -19.24436679 1.35014760
VERTEX2 974 10.30452381 -18.64265526 1.38191284
VERTEX2 975 10.41603475 -18.03685895 1.38645851
VERTEX2 976 10.52081966 -17.42841810 1.39929142
VERTEX2 977 10.65646667 -16.81044069 1.37300109
VERTEX2 978 10.77735079 -16.19872148 1.41896171
VERTEX2 979 10.89205218 -15.59088345 1.40667759
VERTEX2 980 10.98969713 -14.98624956 1.45359428
VERTEX2 981 11.07823704 -14.39222610 1.46050168
VERTEX2 982 11.13430750 -13.86497812 1.50547953
VERTEX2 983 11.18330879 -13.26626395 1.50209402
VERTEX2 984 11.20991904 -12.67004807 1.55945830
VERTEX2 985 11.22018090 -12.07291838 1.57973733
VERTEX2 986 11.20460106 -11.45223902 1.61607078
VERTEX2 987 11.19130422 -10.83304539 1.57937682
VERTEX2 988 11.19342659 -10.21416454 1.59308527
VERTEX2 989 11.17827165 -9.59995381 1.60069881
VERTEX2 990 11.17098144 -8.98904216 1.58989673
VERTEX2 991 11.15526770 -8.37462936 1.61471233
VERTEX2 992 11.14980307 -7.78812874 1.58212412
VERTEX2 993 11.13572166 -7.17219440 1.61488670
VERTEX2 994 11.11903292 -6.58702029 1.60496143
VERTEX2 995 11.08652412 -5.98789232 1.65224465
VERTEX2 996 11.02599408 -5.37365149 1.67938035
VERTEX2 997 10.98044761 -4.72083483 1.61496783
VERTEX2 998 10.96024264 -4.31032069 1.63682883
VERTEX2 999 10.98317054 -4.32887359 2.35467896
VERTEX2 1000 10.51585494 -3.96511153 2.50333803
VERTEX2 1001 10.07210100 -3.56077569 2.18241645
VERTEX2 1002 9.70159059 -3.08447740 2.27511199
VERTEX2 1003 9.34841281 -2.58076860 2.09554618
VERTEX2 1004 9.00984607 -2.04443938 2.15377220
VERTEX2 1005 8.65657485 -1.55054173 2.21619776
VERTEX2 1006 8.26120279 -1.07290660 2.29357448
VERTEX2 1007 7.84896910 -0.64730927 2.38524122
VERTEX2 1008 7.61375338 -0.43290737 2.54477550
VERTEX2 1009 7.51628567 -0.41816860 3.01783192
VERTEX2 1010 6.94911032 -0.36245722 3.07037652
VERTEX2 1011 6.33265928 -0.32329505 3.02731063
VERTEX2 1012 5.72246148 -0.26013557 3.06925078
VERTEX2 1013 5.08556325 -0.26282329 -3.09893528
VERTEX2 1014 4.47188993 -0.21482895 3.00898927
VERTEX2 1015 3.84618120 -0.17548236 3.09348396
VERTEX2 1016 3.07584845 -0.13789280 3.10023287
VERTEX2 1017 2.49003140 -0.12443915 3.04306516
VERTEX2 1018 1.93180524 -0.06248550 3.05034852
VERTEX2 1019 1.33645780 -0.03788709 3.10988282
VERTEX2 1020 0.72087326 -0.00177940 3.09592078
VERTEX2 1021 0.09938846 0.02746433 3.05530492
VERTEX2 1022 0.04548360 0.03193149 3.04806430
VERTEX2 1023 0.05197500 0.03180579 3.13464076
VERTEX2 1024 -0.57538244 0.03970854 -3.12222875
VERTEX2 1025 -1.20491604 0.00931982 -3.10467380
VERTEX2 1026 -1.36675357 0.00384700 -3.09751626
VERTEX2 1027 -1.35113307 0.01149475 -2.18105141
VERTEX2 1028 -1.36433268 -0.15480626 -1.61763095
VERTEX2 1029 -1.39330149 -0.72089478 -1.63920560
VERTEX2 1030 -1.45729083 -1.34276667 -1.71967392
VERTEX2 1031 -1.57052631 -1.98863935 -1.77386810
VERTEX2 1032 -1.70172202 -2.63453952 -1.76986142
VERTEX2 1033 -1.84596666 -3.27920439 -1.81504673
VERTEX2 1034 -1.89092638 -3.45056370 -2.02887114
VERTEX2 1035 -1.89652524 -3.45527439 -2.64825264
VERTEX2 1036 -1.86514420 -3.46978270 3.06406242
VERTEX2 1037 -2.20459501 -3.34027222 2.82562469
VERTEX2 1038 -2.81560203 -3.21770791 2.91679892
VERTEX2 1039 -3.45352006 -3.04779307 2.88523325
VERTEX2 1040 -3.42765771 -3.04843568 -2.76797723
VERTEX2 1041 -3.39839840 -3.05231219 -1.75121776
VERTEX2 1042 -3.40028261 -3.08601221 -0.76346945
VERTEX2 1043 -3.36615071 -3.11751533 0.20592696
VERTEX2 1044 -3.38007574 -3.13391053 1.19955940
VERTEX2 1045 -3.38351186 -3.14145495 1.08550406
VERTEX2 1046 -3.39442991 -3.15610163 0.69992478
VERTEX2 1047 -3.41359162 -3.16441860 0.14409649
VERTEX2 1048 -3.05084240 -3.23416230 -0.16893416
VERTEX2 1049 -2.40521558 -3.33345272 -0.15179476
VERTEX2 1050 -1.75784795 -3.40497688 -0.07613188
VERTEX2 1051 -1.10203104 -3.47944108 -0.15528440
VERTEX2 1052 -0.47778423 -3.56140929 -0.10233705
VERTEX2 1053 -0.06007638 -3.61650064 -0.15496993
VERTEX2 1054 -0.03319496 -3.61937884 0.60717727
VERTEX2 1055 -0.02708706 -3.59094264 1.66233309
VERTEX2 1056 -0.01774494 -3.60471550 2.66592261
VERTEX2 1057 0.00766028 -3.60759232 -2.62644215
VERTEX2 1058 0.00522858 -3.61043415 -1.70428891
VERTEX2 1059 -0.09442464 -4.19378213 -1.78504305
VERTEX2 1060 -0.23303604 -4.82433506 -1.78004463
VERTEX2 1061 -0.34180806 -5.27111957 -1.90258307
VERTEX2 1062 -0.34579349 -5.27721599 -2.46685376
VERTEX2 1063 -0.32525903 -5.26555787 -3.06462576
VERTEX2 1064 -0.60579510 -5.21183017 2.95328058
VERTEX2 1065 -1.19355340 -5.14269655 3.07522592
VERTEX2 1066 -1.75685482 -5.08830157 3.01909559
VERTEX2 1067 -1.74282182 -5.08762238 -2.83145580
VERTEX2 1068 -1.73099485 -5.07938118 -2.15871271
VERTEX2 1069 -1.73068008 -5.07855072 -1.98835945
VERTEX2 1070 -1.72964749 -5.07676188 -2.52735776
VERTEX2 1071 -2.20312845 -5.33151794 -2.65459705
VERTEX2 1072 -2.65135722 -5.56102716 -2.72319431
VERTEX2 1073 -2.62052079 -5.56034317 3.04897860
VERTEX2 1074 -3.14905416 -5.48673708 3.01468789
VERTEX2 1075 -3.72521304 -5.40860538 3.03133136
VERTEX2 1076 -3.74361074 -5.40721316 -2.84766910
VERTEX2 1077 -3.75661602 -5.43159951 -2.04193382
VERTEX2 1078 -3.99680073 -6.04059974 -1.99679391
VERTEX2 1079 -4.23120309 -6.60656756 -1.93468818
VERTEX2 1080 -4.23595160 -6.61915693 -2.42231574
VERTEX2 1081 -4.66408367 -6.90994498 -2.54558288
VERTEX2 1082 -4.83415569 -7.02792096 -2.26499271
VERTEX2 1083 -4.82990195 -7.06123302 -1.23475750
VERTEX2 1084 -4.75898110 -7.09797405 -0.26939033
VERTEX2 1085 -4.76422219 -7.09935680 0.71415994
VERTEX2 1086 -4.40363755 -6.61265629 0.94482841
VERTEX2 1087 -4.02368502 -6.10816140 0.93287561
VERTEX2 1088 -3.66237148 -5.59936046 0.91624486
VERTEX2 1089 -3.60689253 -5.52816477 0.82086469
VERTEX2 1090 -3.59711075 -5.51928682 0.20599110
VERTEX2 1091 -3.05971285 -5.48916120 0.02922240
VERTEX2 1092 -2.44101105 -5.47612416 0.01416272
VERTEX2 1093 -1.87234716 -5.48114326 -0.05081895
VERTEX2 1094 -1.85973817 -5.49323138 -0.45476760
VERTEX2 1095 -1.82949133 -5.52022421 -1.04432379
VERTEX2 1096 -1.82955410 -5.52006238 -1.61538337
VERTEX2 1097 -1.91372818 -5.84439578 -1.83073403
VERTEX2 1098 -2.09261313 -6.44001015 -1.88751473
VERTEX2 1099 -2.30166594 -6.99947104 -1.98355374
VERTEX2 1100 -2.30713604 -7.01316439 -1.62041411
VERTEX2 1101 -2.24978337 -7.27574144 -1.35446949
VERTEX2 1102 -2.25045799 -7.28340993 -1.74809307
VERTEX2 1103 -2.38023117 -7.89126793 -1.78183890
VERTEX2 1104 -2.52091706 -8.52538595 -1.80949515
VERTEX2 1105 -2.67877276 -9.14548265 -1.82734628
VERTEX2 1106 -2.80665757 -9.62059222 -1.85253041
VERTEX2 1107 -2.80607750 -9.62764649 -1.59633921
VERTEX2 1108 -2.77852983 -10.25306424 -1.58844886
VERTEX2 1109 -2.83557782 -10.89565701 -1.69231355
VERTEX2 1110 -2.91450801 -11.50187736 -1.74176516
VERTEX2 1111 -3.08797511 -12.02882969 -1.84296289
VERTEX2 1112 -3.12627788 -12.60683566 -1.49641401
VERTEX2 1113 -3.09519032 -13.24520661 -1.59170225
VERTEX2 1114 -3.10730990 -13.86091167 -1.57459020
VERTEX2 1115 -3.10653226 -14.44330613 -1.59069953
VERTEX2 1116 -3.09687078 -15.09088627 -1.55435970
VERTEX2 1117 -3.09440193 -15.18761302 -1.68202791
VERTEX2 1118 -3.09264291 -15.18435523 -2.28902718
VERTEX2 1119 -3.08311400 -15.17781022 -2.72051042
VERTEX2 1120 -3.64617460 -15.38141830 -2.78403817
VERTEX2 1121 -3.83539876 -15.44751849 -2.90251348
VERTEX2 1122 -3.83114028 -15.44898839 2.83055452
VERTEX2 1123 -4.38018559 -15.26318292 2.84757453
VERTEX2 1124 -4.93720685 -15.13360621 2.94643090
VERTEX2 1125 -5.56208067 -15.00726999 2.96003230
VERTEX2 1126 -5.64193061 -14.99430198 -2.98325271
VERTEX2 1127 -5.63778775 -14.99873133 -1.92566787
VERTEX2 1128 -5.63662094 -14.99310377 -0.93801247
VERTEX2 1129 -5.61948749 -15.00270748 0.07789818
VERTEX2 1130 -5.03002287 -14.93853001 0.09172217
VERTEX2 1131 -4.25618197 -15.06450014 -0.33981895
VERTEX2 1132 -3.64576464 -15.28271439 -0.35933944
VERTEX2 1133 -3.09927730 -15.51145485 -0.39786406
VERTEX2 1134 -2.84649121 -15.61797748 -0.49467899
VERTEX2 1135 -2.83592944 -15.62837265 -1.05033987
VERTEX2 1136 -2.83525525 -15.62695259 -1.61192062
VERTEX2 1137 -2.88957578 -15.92866748 -1.79570740
VERTEX2 1138 -3.04504351 -16.56082859 -1.81179258
VERTEX2 1139 -3.16502748 -17.05618567 -1.88481057
VERTEX2 1140 -3.15523840 -17.03284591 -2.36337642
VERTEX2 1141 -3.13395917 -17.01224116 -2.91032261
VERTEX2 1142 -3.49715391 -16.96799375 3.00887279
VERTEX2 1143 -4.09535532 -16.91986316 3.09846949
VERTEX2 1144 -4.67650476 -16.88419421 3.06803172
VERTEX2 1145 -5.25518882 -16.83729793 3.04274209
VERTEX2 1146 -5.83147174 -16.77876962 3.06265950
VERTEX2 1147 -6.41127509 -16.76743253 3.13556052
VERTEX2 1148 -6.98989982 -16.76369289 -3.13759375
VERTEX2 1149 -7.03277170 -16.76490729 -2.63934768
VERTEX2 1150 -7.12520196 -16.86718614 -1.82965873
VERTEX2 1151 -7.12328728 -16.87840688 -0.82574539
VERTEX2 1152 -7.10639594 -16.87873549 0.22747368
VERTEX2 1153 -7.09187351 -16.87220428 1.24035244
VERTEX2 1154 -7.15029389 -16.55510573 1.78640510
VERTEX2 1155 -7.28169224 -15.93046330 1.73705638
VERTEX2 1156 -7.37726943 -15.32451006 1.74707599
VERTEX2 1157 -7.50279600 -14.75320461 1.85819019
VERTEX2 1158 -7.62744035 -14.15086249 1.72963985
VERTEX2 1159 -7.68628807 -13.54761509 1.63562048
VERTEX2 1160 -7.70702002 -12.90787010 1.49889346
VERTEX2 1161 -7.60539088 -12.27652101 1.40921676
VERTEX2 1162 -7.51199987 -11.64485671 1.46734509
VERTEX2 1163 -7.44753600 -11.00214391 1.46190775
VERTEX2 1164 -7.39739397 -10.36135350 1.54736929
VERTEX2 1165 -7.38510752 -9.82186208 1.52457379
VERTEX2 1166 -7.38579022 -9.81851556 2.01359739
VERTEX2 1167 -7.33403363 -9.80603548 2.95034095
VERTEX2 1168 -7.28951612 -9.78841977 -2.42928920
VERTEX2 1169 -7.29358818 -9.84002676 -1.60718771
VERTEX2 1170 -7.30462280 -10.42625541 -1.60043250
VERTEX2 1171 -7.30529960 -11.06126342 -1.56863706
VERTEX2 1172 -7.31037482 -11.66031824 -1.63103423
VERTEX2 1173 -7.34109070 -12.28402538 -1.62187139
VERTEX2 1174 -7.38572849 -12.91289901 -1.69056082
VERTEX2 1175 -7.47259905 -13.52654507 -1.72395155
VERTEX2 1176 -7.57095153 -14.14759721 -1.76761452
VERTEX2 1177 -7.69144469 -14.75655962 -1.76556099
VERTEX2 1178 -7.82350228 -15.36942372 -1.81276639
VERTEX2 1179 -7.96201646 -15.97414264 -1.78341585
VERTEX2 1180 -8.01674843 -16.22818703 -1.79040025
VERTEX2 1181 -8.01598665 -16.22290722 -0.96294396
VERTEX2 1182 -7.95992650 -16.23723605 -0.25123404
VERTEX2 1183 -7.34603288 -16.38719177 -0.22593192
VERTEX2 1184 -6.71284300 -16.50302076 -0.15642062
VERTEX2 1185 -6.08455808 -16.61440856 -0.18871436
VERTEX2 1186 -5.45267536 -16.71033021 -0.12257905
VERTEX2 1187 -4.79845090 -16.79690499 -0.15973205
VERTEX2 1188 -4.17081458 -16.88786432 -0.14169164
VERTEX2 1189 -3.50610947 -16.99647806 -0.12006595
VERTEX2 1190 -3.17306641 -17.03731586 -0.11210216
VERTEX2 1191 -3.13918007 -17.03661335 0.80796874
VERTEX2 1192 -3.13339091 -16.95361545 1.60544474
VERTEX2 1193 -3.12651212 -16.35424538 1.47337093
VERTEX2 1194 -3.08508294 -15.78058496 1.51537913
VERTEX2 1195 -3.05643105 -15.15763410 1.56768100
VERTEX2 1196 -3.05043573 -14.53450366 1.39499255
VERTEX2 1197 -2.94696255 -13.92027629 1.40623236
VERTEX2 1198 -2.87645978 -13.29415832 1.66505432
VERTEX2 1199 -2.89356845 -12.68240320 1.45034524
VERTEX2 1200 -2.83639142 -12.05301490 1.51933908
VERTEX2 1201 -2.81143612 -11.43393377 1.57514572
VERTEX2 1202 -2.82167006 -10.81208392 1.59806890
VERTEX2 1203 -2.85208681 -10.22317657 1.50811556
VERTEX2 1204 -2.73767310 -9.63195758 1.36129661
VERTEX2 1205 -2.62910629 -9.06981636 1.39083531
VERTEX2 1206 -2.54339318 -8.48064073 1.45202845
VERTEX2 1207 -2.40569734 -7.87017181 1.36589137
VERTEX2 1208 -2.29282262 -7.24597947 1.43053239
VERTEX2 1209 -2.20537958 -6.62514208 1.42855433
VERTEX2 1210 -2.14000192 -6.00847408 1.44908368
VERTEX2 1211 -2.01329008 -5.39537955 1.37613708
VERTEX2 1212 -1.89772186 -4.78254436 1.42606024
VERTEX2 1213 -1.82990595 -4.16769737 1.49923814
VERTEX2 1214 -1.74739543 -3.44094653 1.27641869
VERTEX2 1215 -1.58241099 -2.85590614 1.33533905
VERTEX2 1216 -1.53172030 -2.30144088 1.55251584
VERTEX2 1217 -1.49716091 -1.72039260 1.53309297
VERTEX2 1218 -1.48315806 -1.13025503 1.48242397
VERTEX2 1219 -1.43223463 -0.48122469 1.51302197
VERTEX2 1220 -1.42500253 0.10583321 1.60375997
VERTEX2 1221 -1.42445995 0.10400409 1.15100697
VERTEX2 1222 -1.41447800 0.11371601 0.55369997
VERTEX2 1223 -1.40264296 0.11651210 -0.00592703
VERTEX2 1224 -0.82871093 0.02404478 -0.18883503
VERTEX2 1225 -0.21340098 -0.08957473 -0.17507103
VERTEX2 1226 -0.10854397 -0.10823272 -0.19180203
VERTEX2 1227 -0.10854397 -0.10823272 -0.19246403
