1 32 75 2 210.50131815 0.00000328 1 
2 19 166 0 0.41485034 0.00210623 5 
3 19 172 0 0.02820697 0.00186402 4 
4 25 172 0 0.50366199 0.00187706 4 
5 25 178 0 0.30831851 0.00197118 4 
6 32 178 0 0.01493521 0.00199123 4 
7 78 178 2 227.67157415 0.00000220 4 
8 178 182 2 1091.86506518 0.00000201 1 
9 32 183 0 0.07055611 0.00200898 4 
10 44 189 0 0.52863102 0.00207936 4 
11 44 195 0 0.35755137 0.00216846 4 
12 50 195 0 0.00572854 0.00219737 4 
13 178 198 2 1076.24804147 0.00000267 1 
14 50 201 0 0.04110605 0.00190638 3 
15 50 203 0 0.06975183 0.00187781 3 
16 61 203 0 0.00745912 0.00190045 3 
17 61 209 0 0.37222863 0.00231428 4 
18 67 209 0 0.41032090 0.00232744 4 
19 67 220 0 0.66144083 0.00250420 4 
20 81 220 0 0.48035877 0.00285233 5 
21 52 223 2 432.98791556 0.00000273 1 
22 81 226 0 0.05402805 0.00255974 4 
23 87 226 0 1.82553139 0.00293921 5 
24 87 231 0 0.34656585 0.00262314 4 
25 94 231 0 0.55778528 0.00255646 4 
26 226 231 0 1.44127402 0.00298280 5 
27 94 241 0 1.33132047 0.00268887 4 
28 101 241 0 0.50961029 0.00271731 4 
29 131 246 2 697.40464367 0.00000254 1 
30 101 247 0 1.66454674 0.00276143 4 
31 107 247 0 1.80094617 0.00278450 4 
32 107 254 0 1.18346605 0.00284111 4 
33 114 254 0 0.12939160 0.00286332 4 
34 107 256 0 0.93085039 0.00285192 4 
35 114 256 0 0.24629796 0.00286039 4 
36 212 257 2 2969.58967122 0.00000233 1 
37 107 258 0 1.37911724 0.00289861 4 
38 114 258 0 1.15747212 0.00292450 4 
39 121 266 0 0.00938596 0.00300872 4 
40 126 266 0 0.44864328 0.00354151 5 
41 126 272 0 1.03992836 0.00309167 4 
42 132 272 0 0.39070916 0.00364565 5 
43 132 278 0 0.58358145 0.00317710 4 
44 138 278 0 1.06458780 0.00372805 5 
45 138 284 0 0.02201259 0.00270559 3 
46 151 284 0 0.12777228 0.00328845 4 
47 62 284 2 2605.68422389 0.00000231 4 
48 151 291 0 0.60037557 0.00331581 4 
49 16 293 2 1238.30998768 0.00000264 1 
50 151 297 0 0.07972289 0.00284877 3 
51 157 297 0 1.04991834 0.00343918 4 
52 166 297 0 1.30507781 0.00338673 4 
53 293 297 2 13582.50520862 0.00000218 4 
54 273 303 2 313.37775216 0.00000242 1 
55 19 305 0 0.16044642 0.00357289 4 
56 157 305 0 0.58687353 0.00360179 4 
57 163 305 0 7.56485476 0.00483913 6 
58 166 305 0 0.37495035 0.00360127 4 
59 172 305 0 0.01886255 0.00360435 4 
60 19 315 0 0.48455906 0.00310074 3 
61 25 315 0 0.02281386 0.00310779 3 
62 172 315 0 0.05679715 0.00372575 4 
63 172 328 0 0.12482725 0.00324629 3 
64 70 330 2 1517.70010790 0.00000232 1 
65 19 337 0 6.63404991 0.00465287 5 
66 25 337 0 0.96522419 0.00399900 4 
67 172 337 0 0.57611560 0.00333257 3 
68 19 342 0 0.00494520 0.00338427 3 
69 25 342 0 0.12855172 0.00406334 4 
70 172 342 0 0.01223902 0.00411262 4 
71 178 342 0 0.12442988 0.00417076 4 
72 193 344 2 1738.59492653 0.00000298 1 
73 335 348 2 2317.65278055 0.00000274 1 
74 103 349 2 861.31048531 0.00000263 1 
75 87 353 2 1305.18302723 0.00000270 1 
76 25 367 0 0.11414782 0.00378754 3 
77 32 367 0 0.01267433 0.00595898 6 
78 178 367 0 0.00286807 0.00375834 3 
79 183 367 0 0.06698524 0.00378054 3 
80 140 369 2 883.90186097 0.00000299 1 
81 344 369 2 1180.60054342 0.00000149 1 
82 130 370 2 3188.05328607 0.00000266 1 
83 25 374 0 0.56424690 0.00459321 4 
84 32 374 0 0.09892849 0.00532038 5 
85 178 374 0 0.03055075 0.00460149 4 
86 183 374 0 0.05309447 0.00456901 4 
87 32 382 0 4.14688582 0.00392999 3 
88 183 382 0 1.28811506 0.00465710 4 
89 266 382 2 4671.98726525 0.00000263 4 
90 156 385 2 1836.68483929 0.00000353 1 
91 32 387 0 2.72468715 0.00473181 4 
92 183 387 0 0.18197642 0.00471585 4 
93 255 393 2 2157.06615314 0.00000311 1 
94 375 393 2 132.23696064 0.00000159 1 
95 237 403 2 1430.93302551 0.00000313 1 
96 189 414 0 7.69047346 0.00585545 5 
97 183 422 2 802.93134297 0.00000335 1 
98 322 424 2 881.08248864 0.00000306 1 
99 399 427 2 1461.76676186 0.00000286 1 
100 68 431 2 894.73867403 0.00000285 1 
101 44 437 0 0.00915802 0.00440718 3 
102 195 437 0 0.01161094 0.00436810 3 
103 343 441 2 511.02692794 0.00000325 1 
104 44 454 0 0.65644164 0.00451938 3 
105 189 454 0 0.03962740 0.00541443 4 
106 438 455 2 6336.22196847 0.00000294 1 
107 44 467 0 0.12345281 0.00641207 5 
108 50 467 0 0.00895575 0.01022392 9 
109 195 467 0 0.00230988 0.00463219 3 
110 448 469 2 1117.05994265 0.00000331 1 
111 330 476 2 263.19210864 0.00000337 1 
112 150 481 2 933.87173653 0.00000330 1 
113 427 482 2 298.68417126 0.00000292 1 
114 195 484 0 0.09447226 0.00573831 4 
115 103 488 2 712.97607068 0.00000266 1 
116 130 491 2 1242.97945475 0.00000277 1 
117 449 492 2 576.81775155 0.00000274 1 
118 44 494 0 0.02880924 0.00576110 4 
119 50 494 0 0.00628832 0.00482961 3 
120 195 494 0 0.00818961 0.00681758 5 
121 201 494 0 0.00469852 0.00681759 5 
122 462 495 2 2179.12600582 0.00000349 1 
123 50 500 0 0.14406209 0.00694112 5 
124 201 500 0 0.05353930 0.00490022 3 
125 203 500 0 0.03252445 0.00489479 3 
126 324 506 2 2184.43622342 0.00000318 1 
127 61 508 0 0.99413579 0.00718124 5 
128 203 508 0 0.26947301 0.01223242 10 
129 209 508 0 0.03711473 0.00604801 4 
130 398 509 2 711.22311266 0.00000358 1 
131 238 512 2 1965.86012535 0.00000248 1 
132 314 513 2 1545.91394849 0.00000266 1 
133 314 516 2 897.83888138 0.00000252 1 
134 61 522 0 1.37942234 0.00614053 4 
135 203 522 0 0.12859200 0.00512685 3 
136 209 522 0 0.00542469 0.00510359 3 
137 61 528 0 0.47936102 0.00516485 3 
138 67 528 0 0.22419307 0.00627533 4 
139 81 528 0 0.23233822 0.00843479 6 
140 209 528 0 0.09444678 0.01062717 8 
141 220 528 0 0.13668760 0.00623603 4 
142 67 532 0 0.05459173 0.01180442 9 
143 81 532 0 0.11826401 0.00847322 6 
144 220 532 0 0.05648169 0.00635851 4 
145 40 539 2 2200.49222509 0.00000316 1 
146 351 545 2 1764.95200458 0.00000278 1 
147 124 553 2 402.09707673 0.00000267 1 
148 67 556 0 0.98233216 0.00649309 4 
149 38 562 2 121.47520688 0.00000270 1 
150 67 564 0 0.40168838 0.01232172 9 
151 81 564 0 0.02280941 0.00663216 4 
152 220 564 0 0.02684857 0.00665590 4 
153 55 566 2 537.21252412 0.00000283 1 
154 67 567 0 2.67253169 0.00780808 5 
155 81 567 0 0.48923871 0.00900735 6 
156 220 567 0 0.21723258 0.00664143 4 
157 67 570 0 2.40706627 0.00907799 6 
158 81 570 0 0.15671702 0.00902633 6 
159 220 570 0 0.13379867 0.00672904 4 
160 317 571 2 177.70069343 0.00000276 1 
161 81 575 0 2.76594993 0.00790889 5 
162 220 575 0 1.08612706 0.01034538 7 
163 414 580 2 609.91739731 0.00000274 1 
164 66 581 2 1590.27065927 0.00000223 1 
165 488 582 2 546.01475074 0.00000247 1 
166 181 585 2 356.27781298 0.00000280 1 
167 81 588 0 0.01497138 0.00567197 3 
168 87 588 0 0.47937722 0.00816638 5 
169 226 588 0 0.43156268 0.00690957 4 
170 216 596 2 1713.80754334 0.00000301 1 
171 87 597 0 2.27648751 0.00958321 6 
172 94 597 0 0.38888315 0.00699387 4 
173 226 597 0 0.55079633 0.00830996 5 
174 147 598 2 1084.55003582 0.00000289 1 
175 260 600 2 2628.69180645 0.00000264 1 
176 386 601 2 776.90696723 0.00000224 1 
177 468 602 2 311.57670741 0.00000212 1 
178 542 602 2 328.43371029 0.00000105 1 
179 87 604 0 0.47149562 0.00709746 4 
180 94 604 0 0.01542269 0.00840070 5 
181 503 608 2 1969.58227974 0.00000347 1 
182 360 608 2 1569.08681577 0.00000121 1 
183 544 609 2 1030.31994921 0.00000241 1 
184 591 611 2 98.42619114 0.00000223 1 
185 226 613 2 2602.00667200 0.00000224 1 
186 342 613 2 908.58908280 0.00000181 1 
187 274 614 2 681.26193489 0.00000263 1 
188 94 616 0 0.01350372 0.01231562 8 
189 288 619 2 334.21083688 0.00000328 1 
190 539 624 2 338.86344655 0.00000342 1 
191 483 625 2 917.18549072 0.00000303 1 
192 406 625 2 124.58516617 0.00000137 1 
193 94 632 0 2.16969694 0.00879007 5 
194 94 637 0 4.44236402 0.01005344 6 
195 101 637 0 0.19098383 0.00752437 4 
196 101 642 0 0.11555601 0.00889386 5 
197 107 642 0 0.04025021 0.01408263 9 
198 101 645 0 6.69527511 0.00762663 4 
199 107 645 0 1.54205090 0.00752821 4 
200 273 645 2 2042.61598897 0.00000348 4 
201 545 647 2 3096.08153815 0.00000317 1 
202 109 649 2 1385.74542934 0.00000305 1 
203 437 651 2 771.40993481 0.00000312 1 
204 101 657 0 0.73548669 0.01669487 10 
205 516 660 2 1439.83713323 0.00000400 10 
206 101 663 0 0.04971914 0.01671390 10 
207 107 663 0 0.01781179 0.00914617 5 
208 114 663 0 0.00275957 0.00914831 5 
209 101 665 0 1.55112265 0.01347676 8 
210 107 665 0 0.47667103 0.00781078 4 
211 114 665 0 0.13329170 0.00649860 3 
212 547 665 2 1781.49522439 0.00000275 3 
213 539 667 2 2186.54635354 0.00000286 1 
214 433 668 2 2690.41218944 0.00000242 1 
215 591 668 2 829.37205686 0.00000165 1 
216 496 668 2 2161.58246081 0.00000103 1 
217 318 677 2 1210.09753500 0.00000307 1 
218 552 678 2 1968.38102288 0.00000275 1 
219 107 680 0 1.48615866 0.00936851 5 
220 107 683 0 0.94462224 0.00802772 4 
221 114 683 0 0.32178225 0.00955361 5 
222 465 687 2 740.66570478 0.00000340 1 
223 250 692 2 111.05243918 0.00000309 1 
224 399 693 2 595.64423481 0.00000299 1 
225 37 693 2 885.78959656 0.00000140 1 
226 670 699 2 303.57921820 0.00000289 1 
227 107 704 0 0.34268109 0.01265168 7 
228 114 704 0 0.07528002 0.01554428 9 
229 189 710 2 1712.13177629 0.00000311 1 
230 257 710 2 1051.14846093 0.00000140 1 
231 107 714 0 1.79639085 0.01135891 6 
232 114 714 0 0.02860377 0.01440675 8 
233 631 715 2 2559.19336735 0.00000402 1 
234 300 716 2 597.16381455 0.00000397 1 
235 287 718 2 1046.87702177 0.00000366 1 
236 107 730 0 0.19656714 0.01018239 5 
237 114 730 0 0.03540690 0.00857271 4 
238 513 730 2 1316.42225008 0.00000355 4 
239 517 731 2 1736.46052247 0.00000327 1 
240 271 736 2 1653.04747941 0.00000304 1 
241 683 736 2 343.62398202 0.00000129 1 
242 84 737 2 1463.80943004 0.00000305 1 
243 384 742 2 766.04156569 0.00000331 1 
244 572 750 2 1397.00910179 0.00000320 1 
245 121 754 0 0.33113739 0.00876480 4 
246 126 754 0 0.07673382 0.01517431 8 
247 121 759 0 2.33625684 0.01197812 6 
248 126 759 0 0.22329988 0.01205924 6 
249 126 762 0 7.08482229 0.01040137 5 
250 132 762 0 2.00372045 0.01537858 8 
251 42 766 2 754.91647185 0.00000344 1 
252 627 769 2 631.87343504 0.00000378 1 
253 621 770 2 1362.24178974 0.00000308 1 
254 438 770 2 1656.75299481 0.00000171 1 
255 377 772 2 1643.50696825 0.00000320 1 
256 226 774 2 631.19032899 0.00000320 1 
257 413 777 2 588.61650996 0.00000347 1 
258 132 778 0 0.06999780 0.00905314 4 
259 219 778 2 1253.07805396 0.00000417 4 
260 396 787 2 731.89163037 0.00000425 1 
261 253 788 2 210.01255273 0.00000366 1 
262 140 791 2 1024.22570644 0.00000437 1 
263 132 792 0 1.26802734 0.00933477 4 
264 450 797 2 1283.71753887 0.00000356 1 
265 132 800 0 3.35686460 0.00919793 4 
266 138 800 0 0.14494330 0.01257543 6 
267 184 800 2 2045.78516518 0.00000396 6 
268 237 801 2 1341.75909158 0.00000363 1 
269 142 802 2 45.24090674 0.00000320 1 
270 615 804 2 435.09670973 0.00000348 1 
271 214 805 2 1190.51665805 0.00000299 1 
272 138 806 0 0.25140739 0.00753299 3 
273 713 807 2 1708.42728747 0.00000410 1 
274 363 813 2 1309.90223955 0.00000362 1 
275 138 821 0 0.40674396 0.01109885 5 
276 270 822 2 3036.69595939 0.00000400 1 
277 138 823 0 6.54725682 0.00939543 4 
278 360 823 2 1880.95925734 0.00000352 4 
279 516 824 2 627.92444644 0.00000365 1 
280 186 825 2 2404.39082832 0.00000340 1 
281 721 826 2 1454.74261284 0.00000373 1 
282 306 826 2 1918.92791557 0.00000131 1 
283 151 828 0 3.12108818 0.00951092 4 
284 743 836 2 615.22014404 0.00000379 1 
285 655 840 2 280.03307034 0.00000333 1 
286 155 841 2 893.75295148 0.00000385 1 
287 249 844 2 669.66623177 0.00000410 1 
288 151 847 0 0.08724621 0.01146546 5 
289 414 850 2 2803.02823212 0.00000431 1 
290 446 853 2 1586.86893439 0.00000412 1 
291 151 855 0 0.11494457 0.01513835 7 
292 4 862 2 162.38385862 0.00000421 1 
293 162 863 2 1486.59253931 0.00000388 1 
294 496 869 2 1382.41263485 0.00000393 1 
295 282 874 2 614.90501688 0.00000383 1 
296 82 878 2 1956.98497550 0.00000417 1 
297 142 879 2 28.95051900 0.00000400 1 
298 773 883 2 197.51664188 0.00000359 1 
299 247 884 2 251.69120284 0.00000423 1 
300 145 885 2 58.04940522 0.00000365 1 
301 527 886 2 111.06094598 0.00000344 1 
302 230 886 2 638.88074386 0.00000169 1 
303 151 895 0 2.80701437 0.01764816 8 
304 151 897 0 0.06118057 0.02139241 10 
305 613 897 2 647.22320010 0.00000464 10 
306 203 897 2 6875.75442353 0.00000120 10 
307 138 903 0 0.08157811 0.01025702 4 
308 138 904 0 7.06392298 0.01400665 6 
309 54 904 2 3641.57906791 0.00000438 6 
310 132 907 0 0.71874717 0.01032193 4 
311 138 907 0 0.22077132 0.01222611 5 
312 320 907 2 989.56040611 0.00000473 5 
313 842 907 2 461.02803986 0.00000142 5 
314 449 910 2 1792.68101187 0.00000396 1 
315 132 911 0 0.23128175 0.01223466 5 
316 123 911 2 10359.71515722 0.00000484 5 
317 725 912 2 1428.87651388 0.00000360 1 
318 561 914 2 390.97941509 0.00000383 1 
319 912 917 2 1958.43848862 0.00000420 1 
320 778 917 2 2963.51241558 0.00000157 1 
321 255 918 2 572.74799965 0.00000449 1 
322 215 922 2 4195.13936024 0.00000425 1 
323 121 923 0 0.62636126 0.01438010 6 
324 126 923 0 0.07130653 0.01050701 4 
325 107 929 0 0.07225325 0.01253634 5 
326 114 929 0 0.00477553 0.01056462 4 
327 904 930 2 2808.65052554 0.00000395 1 
328 630 933 2 3639.79359508 0.00000411 1 
329 107 935 0 4.91438615 0.01648790 7 
330 114 935 0 1.40337639 0.01650616 7 
331 652 936 2 3477.40819990 0.00000438 1 
332 101 939 0 0.48567419 0.01067379 4 
333 107 939 0 0.21174614 0.01070151 4 
334 101 944 0 0.15377935 0.01272018 5 
335 780 945 2 1440.79510385 0.00000455 1 
336 910 945 2 1220.97816885 0.00000145 1 
337 387 946 2 2375.23440233 0.00000363 1 
338 94 947 0 0.23772432 0.01674220 7 
339 101 947 0 0.16826262 0.01477784 6 
340 646 947 2 3089.21286915 0.00000462 6 
341 213 949 2 884.36826412 0.00000367 1 
342 704 949 2 1949.61706740 0.00000110 1 
343 723 952 2 1293.01945554 0.00000391 1 
344 87 953 0 0.13504795 0.01086681 4 
345 94 953 0 0.06505521 0.01488977 6 
346 226 953 0 0.08268323 0.02296733 10 
347 263 955 2 1154.02631900 0.00000387 1 
348 719 957 2 525.93977462 0.00000409 1 
349 495 958 2 1727.32337281 0.00000423 1 
350 272 958 2 3915.09543975 0.00000127 1 
351 81 959 0 1.83528326 0.02432407 10 
352 87 959 0 1.29172246 0.01708232 7 
353 220 959 0 0.04883629 0.01100601 4 
354 226 959 0 0.12130941 0.01304258 5 
355 54 959 2 4721.72882365 0.00000439 5 
356 836 960 2 151.97816547 0.00000355 1 
357 510 962 2 635.75958867 0.00000371 1 
358 67 965 0 1.01368609 0.01317958 5 
359 81 965 0 0.31066014 0.01524651 6 
360 220 965 0 0.16483276 0.01931243 8 
361 691 970 2 1848.04524214 0.00000436 1 
362 323 975 2 216.43721248 0.00000424 1 
363 61 976 0 0.16803746 0.01743953 7 
364 67 976 0 0.05676300 0.00924388 3 
365 209 976 0 0.00780965 0.01126812 4 
366 615 978 2 914.11651848 0.00000463 1 
367 612 978 2 1153.44372949 0.00000187 1 
368 782 981 2 4148.01084267 0.00000387 1 
369 50 982 0 0.38354811 0.01137664 4 
370 61 982 0 0.27147698 0.01139669 4 
371 201 982 0 0.22200943 0.01139612 4 
372 203 982 0 0.10573284 0.02189950 9 
373 902 984 2 6334.98730611 0.00000415 1 
374 606 986 2 556.41255967 0.00000397 1 
375 44 988 0 0.09550719 0.01147662 4 
376 50 988 0 0.05924873 0.01143075 4 
377 195 988 0 0.04319526 0.01564598 6 
378 201 988 0 0.02685916 0.01352316 5 
379 216 992 2 1139.91974373 0.00000415 1 
380 249 993 2 2322.04831323 0.00000459 1 
381 44 994 0 0.51683435 0.01782278 7 
382 189 994 0 0.29989154 0.02564393 10 
383 195 994 0 0.21957432 0.01365308 5 
384 11 998 2 1338.33389019 0.00000376 1 
385 482 998 2 1439.36384822 0.00000178 1 
386 913 999 2 1016.76547783 0.00000437 1 
387 32 1003 0 0.23901034 0.01388410 5 
388 178 1003 0 0.03356851 0.02606327 10 
389 183 1003 0 0.01433170 0.01608686 6 
390 493 1007 2 1606.52731565 0.00000524 1 
391 25 1008 0 1.23858172 0.01837335 7 
392 32 1008 0 0.53803958 0.01182487 4 
393 178 1008 0 0.34459610 0.01181669 4 
394 183 1008 0 0.22233868 0.01180711 4 
395 394 1008 2 1131.20537776 0.00000467 4 
396 460 1008 2 1772.68487884 0.00000109 4 
397 444 1009 2 3840.93326214 0.00000515 1 
398 57 1009 2 1053.35958795 0.00000200 1 
399 25 1010 0 0.60236133 0.01177371 4 
400 32 1010 0 0.30591807 0.01394906 5 
401 172 1010 0 0.10368354 0.01625517 6 
402 178 1010 0 0.19279072 0.02634771 10 
403 899 1013 2 2174.08227003 0.00000481 4 
404 19 1016 0 0.44047719 0.02050720 8 
405 166 1016 0 0.20189646 0.01179450 4 
406 172 1016 0 0.07393216 0.01398385 5 
407 797 1016 2 2547.15391085 0.00000457 5 
408 878 1018 2 282.54940811 0.00000539 1 
409 377 1023 2 3171.35228363 0.00000535 1 
410 29 1028 2 225.44235495 0.00000578 1 
411 151 1029 0 0.03533130 0.01429493 5 
412 157 1029 0 0.02672450 0.01198512 4 
413 163 1029 0 3.39703566 0.01197945 4 
414 166 1029 0 0.49353449 0.01199525 4 
415 569 1030 2 7312.56033225 0.00000547 1 
416 139 1038 2 724.80220649 0.00000545 1 
417 863 1039 2 747.34554050 0.00000507 1 
418 703 1041 2 1695.79873020 0.00000530 1 
419 748 1044 2 107.03061921 0.00000593 1 
420 375 1045 2 128.32659555 0.00000511 1 
421 447 1056 2 643.07829788 0.00000589 1 
422 1004 1056 2 353.66598526 0.00000230 1 
423 79 1059 2 42.17115347 0.00000557 1 
424 332 1068 2 271.09980971 0.00000613 1 
425 1060 1069 2 1939.35999480 0.00000563 1 
426 316 1074 2 123.60359086 0.00000562 1 
427 615 1075 2 228.88939669 0.00000585 1 
428 371 1077 2 401.29944825 0.00000552 1 
429 969 1080 2 502.14811185 0.00000603 1 
430 877 1080 2 87.65303504 0.00000209 1 
431 132 1084 0 4.21993706 0.01503056 5 
432 89 1085 2 992.79055676 0.00000583 1 
433 571 1091 2 822.42196043 0.00000615 1 
434 450 1096 2 1913.95167887 0.00000615 1 
435 428 1100 2 509.64360405 0.00000491 1 
436 563 1104 2 706.25809565 0.00000540 1 
437 141 1107 2 247.03350850 0.00000573 1 
438 1019 1110 2 389.74015891 0.00000536 1 
439 590 1116 2 290.76405173 0.00000612 1 
440 624 1122 2 1528.67230725 0.00000631 1 
441 880 1124 2 222.33758162 0.00000623 1 
442 1082 1125 2 153.21916635 0.00000580 1 
443 604 1125 2 202.15814305 0.00000187 1 
444 495 1132 2 775.60757231 0.00000604 1 
445 918 1136 2 195.17265315 0.00000532 1 
446 101 1138 0 0.63021658 0.01584577 5 
447 760 1139 2 1833.57211323 0.00000656 1 
448 118 1141 2 428.89075838 0.00000598 1 
449 400 1143 2 655.66290866 0.00000576 1 
450 806 1145 2 1397.15901977 0.00000614 1 
451 92 1146 2 423.78654613 0.00000478 1 
452 107 1147 0 0.73708347 0.01327460 4 
453 114 1147 0 0.03971358 0.01076629 3 
454 1142 1148 2 3819.84342761 0.00000529 1 
455 966 1148 2 2866.75339500 0.00000218 1 
456 107 1150 0 7.45683387 0.01332233 4 
457 114 1150 0 1.00561260 0.01084541 3 
458 1003 1153 2 1813.43072227 0.00000626 1 
459 394 1154 2 1537.89219325 0.00000597 1 
460 114 1158 0 0.16899687 0.01088171 3 
461 121 1158 0 0.69099743 0.01346982 4 
462 1053 1159 2 1054.79874557 0.00000513 1 
463 289 1161 2 2910.12137681 0.00000618 1 
464 121 1164 0 0.45182924 0.01614483 5 
465 126 1164 0 0.04418665 0.01349547 4 
466 1152 1164 2 440.51642694 0.00000559 4 
467 839 1167 2 1310.87012809 0.00000558 1 
468 114 1175 0 0.14266969 0.01375362 4 
469 121 1175 0 0.27324351 0.01377309 4 
470 923 1175 0 0.18719011 0.01370513 4 
471 929 1175 0 0.16073549 0.01366362 4 
472 1158 1175 0 0.00134797 0.01113022 3 
473 237 1180 2 3177.90905725 0.00000620 1 
474 101 1188 0 0.32950319 0.01383274 4 
475 939 1188 0 0.55418798 0.01382533 4 
476 1138 1188 0 0.03006025 0.01134425 3 
477 1147 1188 0 0.04063922 0.01131588 3 
478 1150 1188 0 1.83245351 0.01388547 4 
479 828 1189 2 2299.61769776 0.00000558 1 
480 604 1189 2 6957.70597060 0.00000212 1 
481 372 1193 2 4226.95600744 0.00000555 1 
482 270 1194 2 1075.36762933 0.00000557 1 
483 1121 1200 2 170.67245104 0.00000618 1 
484 116 1201 2 113.59315923 0.00000566 1 
485 109 1204 2 239.17502853 0.00000576 1 
486 418 1208 2 1658.00421146 0.00000602 1 
487 1050 1210 0 0.00345523 0.01406534 4 
488 1061 1210 0 0.57363906 0.01684811 5 
489 1075 1210 0 0.23107861 0.01668826 5 
490 1084 1210 0 3.13555510 0.01671216 5 
491 1088 1210 0 0.59156319 0.01413057 4 
492 1093 1210 0 0.13111230 0.01940781 6 
493 1098 1210 0 0.04730346 0.01409970 4 
494 554 1210 2 2997.09722712 0.00000512 4 
495 157 1217 0 0.32750279 0.01422710 4 
496 163 1217 0 0.19904338 0.01433098 4 
497 1029 1217 0 0.01250493 0.01164728 3 
498 1044 1217 0 3.98258990 0.01437478 4 
499 1050 1217 0 4.97161000 0.01702616 5 
500 31 1220 2 496.49187394 0.00000557 1 
501 561 1221 2 1481.20313909 0.00000589 1 
502 895 1224 2 1816.95485834 0.00000581 1 
503 748 1226 2 288.34064212 0.00000545 1 
504 163 297 0 0.27920255 0.01535334 4 
505 189 400 0 2.09679271 0.01748732 4 
506 1056 1217 0 9.66143264 0.01726907 5 
