1 72 134 0.00102529 5 
2 119 135 0.00081348 4 
3 125 141 0.00108760 5 
4 113 165 0.00263828 10 
5 19 166 0.00295983 10 
6 19 172 0.00307918 10 
7 25 172 0.00313438 10 
8 25 178 0.00325184 10 
9 32 178 0.00325886 10 
10 36 182 0.00333535 10 
11 32 183 0.00336129 10 
12 44 189 0.00348196 10 
13 44 195 0.00360681 10 
14 50 195 0.00360219 10 
15 50 201 0.00372331 10 
16 50 203 0.00376626 10 
17 61 203 0.00377555 10 
18 61 209 0.00379491 10 
19 67 209 0.00389751 10 
20 110 216 0.00404953 10 
21 67 220 0.00413149 10 
22 81 220 0.00416322 10 
23 81 226 0.00429221 10 
24 87 226 0.00430495 10 
25 87 231 0.00440018 10 
26 94 231 0.00440594 10 
27 226 231 0.00442087 10 
28 94 241 0.00460308 10 
29 101 241 0.00461700 10 
30 101 247 0.00472351 10 
31 107 247 0.00472791 10 
32 107 254 0.00487289 10 
33 114 254 0.00494029 10 
34 107 256 0.00499841 10 
35 114 256 0.00544896 10 
36 107 258 0.00506263 10 
37 114 258 0.00506324 10 
38 121 266 0.00523669 10 
39 126 266 0.00525167 10 
40 126 272 0.00537233 10 
41 132 272 0.00539225 10 
42 132 278 0.00552273 10 
43 138 278 0.00559209 10 
44 138 284 0.00570074 10 
45 151 284 0.00571637 10 
46 151 291 0.00584606 10 
47 36 296 0.00605774 10 
48 151 297 0.00609446 10 
49 157 297 0.00610270 10 
50 163 297 0.00612558 10 
51 166 297 0.00616465 10 
52 81 297 0.00618065 10 
53 9 297 0.00626074 10 
54 19 305 0.00640686 10 
55 157 305 0.00645835 10 
56 163 305 0.00647368 10 
57 166 305 0.00648378 10 
58 172 305 0.00647914 10 
59 191 305 0.00653047 10 
60 19 315 0.00672190 10 
61 25 315 0.00675225 10 
62 172 315 0.00675810 10 
63 171 320 0.00687954 10 
64 172 328 0.00703983 10 
65 19 337 0.00723468 10 
66 25 337 0.00725487 10 
67 172 337 0.00726555 10 
68 19 342 0.00734954 10 
69 25 342 0.00735989 10 
70 172 342 0.00734452 10 
71 178 342 0.00739440 10 
72 8 343 0.00746467 10 
73 25 367 0.00793464 10 
74 32 367 0.00793270 10 
75 178 367 0.00796279 10 
76 183 367 0.00795770 10 
77 122 368 0.00806701 10 
78 347 373 0.00824177 10 
79 25 374 0.00834434 10 
80 32 374 0.00829054 10 
81 178 374 0.00832395 10 
82 183 374 0.00844219 10 
83 150 377 0.00846844 10 
84 32 382 0.00859053 10 
85 183 382 0.00864257 10 
86 32 387 0.00874995 10 
87 183 387 0.00875556 10 
88 2 387 0.00882070 10 
89 189 400 0.00912461 10 
90 251 401 0.00934701 10 
91 371 407 0.00941962 10 
92 173 412 0.00957528 10 
93 189 414 0.00972696 10 
94 306 425 0.01000422 10 
95 398 430 0.01016906 10 
96 44 437 0.01034805 10 
97 195 437 0.01038636 10 
98 334 438 0.01050080 10 
99 44 454 0.01083708 10 
100 189 454 0.01091178 10 
101 44 467 0.01115783 10 
102 50 467 0.01119643 10 
103 195 467 0.01120005 10 
104 144 468 0.01205526 10 
105 140 470 0.01139358 10 
106 195 484 0.01167804 10 
107 278 489 0.01178432 10 
108 451 491 0.01204732 10 
109 44 494 0.01212188 10 
110 50 494 0.01179992 10 
111 195 494 0.01195845 10 
112 201 494 0.01193772 10 
113 50 500 0.01208036 10 
114 201 500 0.01209552 10 
115 203 500 0.01209112 10 
116 288 500 0.01234670 10 
117 61 508 0.01250142 10 
118 203 508 0.01249844 10 
119 209 508 0.01249983 10 
120 61 522 0.01271655 10 
121 203 522 0.01273510 10 
122 209 522 0.01274210 10 
123 352 523 0.01292845 10 
124 50 523 0.01289618 10 
125 141 525 0.01301196 10 
126 61 528 0.01331605 10 
127 67 528 0.01333640 10 
128 81 528 0.01337711 10 
129 209 528 0.01340235 10 
130 220 528 0.01340326 10 
131 314 531 0.01354084 10 
132 67 532 0.01370890 10 
133 81 532 0.01368725 10 
134 220 532 0.01370668 10 
135 444 536 0.01378141 10 
136 162 537 0.01373807 10 
137 87 541 0.01419669 10 
138 229 542 0.01422897 10 
139 67 556 0.01455290 10 
140 8 557 0.01481103 10 
141 137 560 0.01488473 10 
142 118 562 0.01484471 10 
143 67 564 0.01486128 10 
144 81 564 0.01539409 10 
145 220 564 0.01497674 10 
146 67 567 0.01505553 10 
147 81 567 0.01507182 10 
148 220 567 0.01506635 10 
149 535 567 0.01517999 10 
150 67 570 0.01529598 10 
151 81 570 0.01525117 10 
152 220 570 0.01535546 10 
153 504 570 0.01551013 10 
154 81 575 0.01560658 10 
155 220 575 0.01560582 10 
156 253 576 0.01576114 10 
157 230 586 0.01744576 10 
158 367 587 0.01665675 10 
159 81 588 0.01667673 10 
160 87 588 0.01664584 10 
161 226 588 0.01667680 10 
162 87 597 0.02530249 10 
163 94 597 0.03216544 10 
164 226 597 0.02427880 10 
165 250 597 0.02967371 10 
166 87 604 0.01674115 10 
167 94 604 0.01672465 10 
168 517 614 0.01726446 10 
169 94 616 0.01733672 10 
170 543 616 0.01743560 10 
171 446 626 0.01827706 10 
172 94 632 0.01921346 10 
173 94 637 0.01874976 10 
174 101 637 0.01897859 10 
175 133 637 0.01953324 10 
176 459 639 0.02045796 10 
177 341 641 0.01975564 10 
178 101 642 0.01945443 10 
179 107 642 0.01987065 10 
180 101 645 0.01994456 10 
181 107 645 0.01967525 10 
182 557 651 0.01874269 10 
183 71 655 0.01907383 10 
184 101 657 0.01906915 10 
185 101 663 0.01916293 10 
186 107 663 0.01916802 10 
187 114 663 0.02263605 10 
188 332 663 0.02034120 10 
189 101 665 0.02033378 10 
190 107 665 0.02024817 10 
191 114 665 0.02025543 10 
192 107 680 0.02059540 10 
193 593 680 0.02042611 10 
194 107 683 0.02051770 10 
195 114 683 0.02055901 10 
196 180 692 0.02098418 10 
197 107 704 0.02136030 10 
198 114 704 0.02136274 10 
199 568 709 0.02184810 10 
200 107 714 0.02258235 10 
201 114 714 0.02260215 10 
202 30 718 0.02281512 10 
203 716 726 0.02355435 10 
204 107 730 0.02718128 10 
205 114 730 0.02316815 10 
206 340 734 0.02351219 10 
207 660 736 0.02349008 10 
208 694 737 0.02403750 10 
209 89 747 0.02363867 10 
210 722 749 0.02374568 10 
211 121 754 0.02442283 10 
212 126 754 0.02455102 10 
213 118 756 0.09063837 10 
214 121 759 0.02519169 10 
215 126 759 0.02517878 10 
216 126 762 0.02527468 10 
217 132 762 0.02521666 10 
218 140 772 0.02572537 10 
219 132 778 0.02562704 10 
220 454 790 0.02619387 10 
221 372 790 0.02960141 10 
222 132 792 0.02706946 10 
223 132 800 0.02728167 10 
224 138 800 0.02622978 10 
225 468 802 0.02733637 10 
226 138 806 0.02736590 10 
227 57 811 0.02748875 10 
228 787 816 0.03571012 10 
229 138 821 0.02817919 10 
230 138 823 0.02807745 10 
231 151 828 0.02923763 10 
232 557 836 0.02774966 10 
233 811 838 0.02850814 10 
234 151 847 0.02781292 10 
235 151 855 0.02794939 10 
236 307 855 0.02876460 10 
237 25 861 0.02908219 10 
238 720 868 0.02985378 10 
239 548 870 0.02989069 10 
240 857 870 0.03017396 10 
241 597 873 0.03266647 10 
242 56 880 0.03104853 10 
243 160 881 0.03064770 10 
244 132 881 0.03279101 10 
245 185 885 0.03135517 10 
246 756 887 0.03098431 10 
247 458 889 0.03155705 10 
248 151 895 0.03056028 10 
249 151 897 0.03054155 10 
250 350 902 0.03165836 10 
251 138 903 0.03063237 10 
252 138 904 0.03073652 10 
253 399 906 0.03097938 10 
254 126 906 0.03097396 10 
255 453 906 0.03131680 10 
256 132 907 0.03126657 10 
257 138 907 0.03124627 10 
258 281 907 0.03137203 10 
259 132 911 0.03141704 10 
260 478 920 0.03180881 10 
261 121 923 0.03191600 10 
262 126 923 0.03187304 10 
263 892 927 0.03358964 10 
264 107 929 0.03243374 10 
265 114 929 0.03242678 10 
266 107 935 0.03408320 10 
267 114 935 0.03251364 10 
268 299 938 0.03431730 10 
269 101 939 0.03748473 10 
270 107 939 0.03274051 10 
271 659 941 0.03269891 10 
272 101 944 0.03265058 10 
273 164 944 0.03252399 10 
274 90 945 0.03301055 10 
275 94 947 0.03333667 10 
276 101 947 0.04159321 10 
277 87 953 0.03325999 10 
278 94 953 0.03326660 10 
279 226 953 0.03314615 10 
280 814 955 0.03349459 10 
281 81 959 0.03957153 10 
282 87 959 0.03686475 10 
283 220 959 0.04294760 10 
284 226 959 0.03776368 10 
285 657 964 0.04078319 10 
286 67 965 0.04075129 10 
287 81 965 0.03899421 10 
288 220 965 0.03783533 10 
289 482 969 0.03676404 10 
290 126 972 0.03492582 10 
291 61 976 0.03580465 10 
292 67 976 0.03578390 10 
293 209 976 0.03578486 10 
294 623 977 0.03622071 10 
295 725 980 0.03952857 10 
296 50 982 0.03546719 10 
297 61 982 0.03573914 10 
298 201 982 0.03593891 10 
299 203 982 0.03550514 10 
300 719 985 0.03581156 10 
301 120 986 0.03633999 10 
302 44 988 0.03571052 10 
303 50 988 0.03846839 10 
304 195 988 0.03767344 10 
305 201 988 0.03692569 10 
306 44 994 0.03822098 10 
307 189 994 0.03724651 10 
308 195 994 0.03695874 10 
309 190 996 0.03711234 10 
310 747 998 0.03720139 10 
311 32 1003 0.03830443 10 
312 178 1003 0.04095621 10 
313 183 1003 0.04559097 10 
314 309 1005 0.04157470 10 
315 31 1006 0.04313176 10 
316 25 1008 0.04288418 10 
317 32 1008 0.04312707 10 
318 178 1008 0.04035959 10 
319 183 1008 0.04365727 10 
320 892 1008 0.04115499 10 
321 25 1010 0.04325598 10 
322 32 1010 0.04298937 10 
323 172 1010 0.04331205 10 
324 178 1010 0.03849642 10 
325 692 1010 0.03824528 10 
326 457 1010 0.03939257 10 
327 19 1016 0.03840839 10 
328 166 1016 0.03834237 10 
329 172 1016 0.03843825 10 
330 783 1016 0.03877898 10 
331 535 1024 0.20112693 10 
332 151 1029 0.20221028 10 
333 157 1029 0.20576214 10 
334 163 1029 0.20495062 10 
335 166 1029 0.21427854 10 
336 176 1043 0.05707819 10 
337 99 1045 0.04145658 10 
338 51 1046 0.04062821 10 
339 424 1049 0.04082238 10 
340 216 1049 0.04083475 10 
341 94 1051 0.04059776 10 
342 571 1052 0.04106227 10 
343 433 1068 0.04169392 10 
344 149 1069 0.04211447 10 
345 400 1074 0.04224182 10 
346 132 1084 0.04240770 10 
347 986 1088 0.04248183 10 
348 70 1089 0.04251179 10 
349 272 1090 0.04298883 10 
350 597 1091 0.04299216 10 
351 1113 1120 0.04340226 10 
352 870 1129 0.04387924 10 
353 101 1138 0.04399240 10 
354 597 1145 0.04416515 10 
355 546 1145 0.04489813 10 
356 672 1145 0.04499758 10 
357 273 1146 0.04492792 10 
358 107 1147 0.04501301 10 
359 114 1147 0.04504937 10 
360 107 1150 0.04501846 10 
361 114 1150 0.04826817 10 
362 743 1156 0.04484385 10 
363 114 1158 0.04487007 10 
364 121 1158 0.04486977 10 
365 121 1164 0.04501627 10 
366 126 1164 0.04498924 10 
367 266 1170 0.04706047 10 
368 560 1172 0.04585687 10 
369 114 1175 0.04583759 10 
370 121 1175 0.04585150 10 
371 923 1175 0.04586048 10 
372 929 1175 0.04569090 10 
373 1158 1175 0.04652752 10 
374 913 1176 0.04827289 10 
375 601 1177 0.04651895 10 
376 1042 1181 0.04682898 10 
377 625 1183 0.04593112 10 
378 101 1188 0.04748519 10 
379 939 1188 0.04711681 10 
380 1138 1188 0.04784127 10 
381 1147 1188 0.04866275 10 
382 1150 1188 0.04802504 10 
383 719 1191 0.04853887 10 
384 312 1195 0.04800853 10 
385 528 1196 0.04803038 10 
386 216 1196 0.04851732 10 
387 400 1200 0.04897486 10 
388 855 1204 0.04909433 10 
389 1114 1207 0.05015955 10 
390 962 1208 0.04915463 10 
391 1050 1210 0.05023099 10 
392 1061 1210 0.04980910 10 
393 1075 1210 0.04998490 10 
394 1084 1210 0.05000130 10 
395 1088 1210 0.04997961 10 
396 1093 1210 0.05006059 10 
397 1098 1210 0.04999416 10 
398 490 1213 0.05054151 10 
399 157 1217 0.05166968 10 
400 163 1217 0.05163598 10 
401 1029 1217 0.05165667 10 
402 1044 1217 0.05077446 10 
403 1050 1217 0.05124564 10 
404 1056 1217 0.05162531 10 
405 967 1219 0.05671350 10 
406 1013 1220 0.05218957 10 
