1 11 77 2 235.23415516 0.00000333 1 
2 19 166 0 0.41485034 0.00210005 5 
3 19 172 0 0.02820697 0.00186885 4 
4 25 172 0 0.50366199 0.00187318 4 
5 25 178 0 0.30831851 0.00197695 4 
6 32 178 0 0.01493521 0.00198141 4 
7 32 183 0 0.07055611 0.00201343 4 
8 44 189 0 0.52863102 0.00207201 4 
9 44 195 0 0.35755137 0.00216932 4 
10 50 195 0 0.00572854 0.00219339 4 
11 82 199 2 446.78843551 0.00000265 1 
12 50 201 0 0.04110605 0.00192248 3 
13 50 203 0 0.06975183 0.00187578 3 
14 61 203 0 0.00745912 0.00189610 3 
15 61 209 0 0.37222863 0.00230780 4 
16 67 209 0 0.41032090 0.00232752 4 
17 67 220 0 0.66144083 0.00249867 4 
18 81 220 0 0.48035877 0.00285983 5 
19 81 226 0 0.05402805 0.00256642 4 
20 87 226 0 1.82553139 0.00293372 5 
21 87 231 0 0.34656585 0.00262424 4 
22 94 231 0 0.55778528 0.00256569 4 
23 226 231 0 1.44127402 0.00297882 5 
24 94 241 0 1.33132047 0.00268436 4 
25 101 241 0 0.50961029 0.00271731 4 
26 101 247 0 1.66454674 0.00275936 4 
27 107 247 0 1.80094617 0.00278550 4 
28 107 254 0 1.18346605 0.00283851 4 
29 114 254 0 0.12939160 0.00286311 4 
30 107 256 0 0.93085039 0.00284423 4 
31 114 256 0 0.24629796 0.00285755 4 
32 107 258 0 1.37911724 0.00290165 4 
33 114 258 0 1.15747212 0.00292792 4 
34 159 263 2 380.88766085 0.00000258 1 
35 121 266 0 0.00938596 0.00300613 4 
36 126 266 0 0.44864328 0.00354454 5 
37 126 272 0 1.03992836 0.00309368 4 
38 132 272 0 0.39070916 0.00364728 5 
39 132 278 0 0.58358145 0.00316884 4 
40 138 278 0 1.06458780 0.00373121 5 
41 138 284 0 0.02201259 0.00271264 3 
42 151 284 0 0.12777228 0.00328475 4 
43 151 291 0 0.60037557 0.00330449 4 
44 151 297 0 0.07972289 0.00284688 3 
45 157 297 0 1.04991834 0.00344697 4 
46 166 297 0 1.30507781 0.00338641 4 
47 37 301 2 3324.13495060 0.00000249 1 
48 19 305 0 0.16044642 0.00356517 4 
49 157 305 0 0.58687353 0.00360748 4 
50 163 305 0 7.56485476 0.00554097 6 
51 166 305 0 0.37495035 0.00361536 4 
52 172 305 0 0.01886255 0.00360927 4 
53 193 307 2 1770.20500065 0.00000254 1 
54 244 310 2 639.45766906 0.00000238 1 
55 19 315 0 0.48455906 0.00310547 3 
56 25 315 0 0.02281386 0.00311683 3 
57 172 315 0 0.05679715 0.00373011 4 
58 172 328 0 0.12482725 0.00325430 3 
59 19 337 0 6.63404991 0.00465979 5 
60 25 337 0 0.96522419 0.00399514 4 
61 172 337 0 0.57611560 0.00333746 3 
62 19 342 0 0.00494520 0.00338982 3 
63 25 342 0 0.12855172 0.00407112 4 
64 172 342 0 0.01223902 0.00412506 4 
65 178 342 0 0.12442988 0.00420806 4 
66 237 349 2 2003.17319318 0.00000357 1 
67 287 349 2 349.09294631 0.00000172 1 
68 155 360 2 769.82789958 0.00000316 1 
69 25 367 0 0.11414782 0.00380323 3 
70 32 367 0 0.01267433 0.00595803 6 
71 178 367 0 0.00286807 0.00376638 3 
72 183 367 0 0.06698524 0.00378816 3 
73 25 374 0 0.56424690 0.00460292 4 
74 32 374 0 0.09892849 0.00827939 5 
75 178 374 0 0.03055075 0.00561575 4 
76 183 374 0 0.05309447 0.00462064 4 
77 32 382 0 4.14688582 0.00393541 3 
78 183 382 0 1.28811506 0.00466025 4 
79 32 387 0 2.72468715 0.00474582 4 
80 183 387 0 0.18197642 0.00474293 4 
81 189 414 0 7.69047346 0.00587763 5 
82 352 417 2 55.31963200 0.00000304 1 
83 44 437 0 0.00915802 0.00438910 3 
84 195 437 0 0.01161094 0.00438033 3 
85 44 454 0 0.65644164 0.00453529 3 
86 189 454 0 0.03962740 0.00543249 4 
87 44 467 0 0.12345281 0.00642407 5 
88 50 467 0 0.00895575 0.01026200 9 
89 195 467 0 0.00230988 0.00467001 3 
90 18 472 2 507.82806035 0.00000363 1 
91 195 484 0 0.09447226 0.00575431 4 
92 44 494 0 0.02880924 0.00579503 4 
93 50 494 0 0.00628832 0.00483561 3 
94 195 494 0 0.00818961 0.00682837 5 
95 201 494 0 0.00469852 0.00682584 5 
96 50 500 0 0.14406209 0.00694975 5 
97 201 500 0 0.05353930 0.00491487 3 
98 203 500 0 0.03252445 0.00490647 3 
99 61 508 0 0.99413579 0.00713257 5 
100 203 508 0 0.26947301 0.01225059 10 
101 209 508 0 0.03711473 0.00605962 4 
102 105 512 2 4111.76780771 0.00000283 1 
103 391 514 2 700.33694065 0.00000281 1 
104 395 516 2 512.42089484 0.00000195 1 
105 61 522 0 1.37942234 0.00613179 4 
106 203 522 0 0.12859200 0.01271175 3 
107 209 522 0 0.00542469 0.00521017 3 
108 61 528 0 0.47936102 0.00518587 3 
109 67 528 0 0.22419307 0.00629601 4 
110 81 528 0 0.23233822 0.00839680 6 
111 209 528 0 0.09444678 0.01063614 8 
112 220 528 0 0.13668760 0.00625321 4 
113 238 528 2 4464.29836587 0.00000297 4 
114 67 532 0 0.05459173 0.01182750 9 
115 81 532 0 0.11826401 0.00848516 6 
116 220 532 0 0.05648169 0.00633680 4 
117 181 553 2 331.11412763 0.00000281 1 
118 67 556 0 0.98233216 0.00656066 4 
119 358 562 2 817.68558826 0.00000537 1 
120 185 563 2 396.86064331 0.00000273 1 
121 67 564 0 0.40168838 0.01234496 9 
122 81 564 0 0.02280941 0.00664962 4 
123 220 564 0 0.02684857 0.00666978 4 
124 315 566 2 2028.79596803 0.00000297 1 
125 67 567 0 2.67253169 0.00782496 5 
126 81 567 0 0.48923871 0.00902441 6 
127 220 567 0 0.21723258 0.00666466 4 
128 221 567 2 4299.40492005 0.00000273 4 
129 67 570 0 2.40706627 0.00910369 6 
130 81 570 0 0.15671702 0.00903468 6 
131 220 570 0 0.13379867 0.00675773 4 
132 303 572 2 623.86913363 0.00000255 1 
133 81 575 0 2.76594993 0.00794134 5 
134 220 575 0 1.08612706 0.01035718 7 
135 81 588 0 0.01497138 0.00570387 3 
136 87 588 0 0.47937722 0.00819110 5 
137 226 588 0 0.43156268 0.00693063 4 
138 87 597 0 2.27648751 0.00957534 6 
139 94 597 0 0.38888315 0.00701652 4 
140 226 597 0 0.55079633 0.00832986 5 
141 87 604 0 0.47149562 0.00713677 4 
142 94 604 0 0.01542269 0.00841344 5 
143 27 607 2 2903.10018193 0.00000311 1 
144 94 616 0 0.01350372 0.01234853 8 
145 94 632 0 2.16969694 0.00881742 5 
146 94 637 0 4.44236402 0.01007464 6 
147 101 637 0 0.19098383 0.00752014 4 
148 514 641 2 1113.77667652 0.00000384 1 
149 101 642 0 0.11555601 0.00891818 5 
150 107 642 0 0.04025021 0.01413694 9 
151 101 645 0 6.69527511 0.00767285 4 
152 107 645 0 1.54205090 0.00753655 4 
153 298 647 2 584.78198188 0.00000324 1 
154 101 657 0 0.73548669 0.01672090 10 
155 101 663 0 0.04971914 0.01676571 10 
156 107 663 0 0.01781179 0.00916720 5 
157 114 663 0 0.00275957 0.00919083 5 
158 101 665 0 1.55112265 0.01348568 8 
159 107 665 0 0.47667103 0.00784223 4 
160 114 665 0 0.13329170 0.00651667 3 
161 491 670 2 4810.50867019 0.00000317 1 
162 107 680 0 1.48615866 0.00941573 5 
163 107 683 0 0.94462224 0.00804953 4 
164 114 683 0 0.32178225 0.00954014 5 
165 60 685 2 734.24186020 0.00000314 1 
166 121 689 2 212.29615707 0.00000327 1 
167 107 704 0 0.34268109 0.01264480 7 
168 114 704 0 0.07528002 0.01559479 9 
169 107 714 0 1.79639085 0.01136638 6 
170 114 714 0 0.02860377 0.01440906 8 
171 107 730 0 0.19656714 0.01019615 5 
172 114 730 0 0.03540690 0.00860608 4 
173 335 750 2 21.42959430 0.00000317 1 
174 121 754 0 0.33113739 0.00879529 4 
175 126 754 0 0.07673382 0.01519558 8 
176 7 757 2 1113.60687600 0.00000310 1 
177 121 759 0 2.33625684 0.01200757 6 
178 126 759 0 0.22329988 0.01208535 6 
179 546 761 2 1023.96927868 0.00000380 1 
180 126 762 0 7.08482229 0.01042868 5 
181 132 762 0 2.00372045 0.01539966 8 
182 764 771 2 230.14400013 0.00000327 1 
183 372 774 2 807.55708875 0.00000283 1 
184 132 778 0 0.06999780 0.00909494 4 
185 132 792 0 1.26802734 0.00936564 4 
186 132 800 0 3.35686460 0.00924553 4 
187 138 800 0 0.14494330 0.01261127 6 
188 209 800 2 2270.85251940 0.00000372 6 
189 138 806 0 0.25140739 0.00757968 3 
190 777 811 2 552.70473383 0.00000311 1 
191 73 811 2 993.39866727 0.00000166 1 
192 195 814 2 2757.57299574 0.00000636 1 
193 233 820 2 336.72422071 0.00000339 1 
194 392 820 2 525.14727192 0.00000104 1 
195 138 821 0 0.40674396 0.01114075 5 
196 138 823 0 6.54725682 0.00943139 4 
197 151 828 0 3.12108818 0.00959415 4 
198 230 842 2 152.51006779 0.00000344 1 
199 151 847 0 0.08724621 0.01151115 5 
200 305 852 2 1627.50038001 0.00000351 1 
201 414 854 2 1070.14423206 0.00000377 1 
202 151 855 0 0.11494457 0.01519778 7 
203 17 868 2 51.19375806 0.00000347 1 
204 632 873 2 254.63323399 0.00000354 1 
205 2 878 2 97.62892941 0.00000353 1 
206 248 882 2 129.66500394 0.00000405 1 
207 880 891 2 473.41755836 0.00000388 1 
208 151 895 0 2.80701437 0.01813562 8 
209 15 896 2 536.05093562 0.00000450 1 
210 151 897 0 0.06118057 0.02148342 10 
211 138 903 0 0.08157811 0.01028860 4 
212 138 904 0 7.06392298 0.01408486 6 
213 132 907 0 0.71874717 0.01034922 4 
214 138 907 0 0.22077132 0.01225261 5 
215 132 911 0 0.23128175 0.01225657 5 
216 606 915 2 1165.48815938 0.00000431 1 
217 121 923 0 0.62636126 0.01441275 6 
218 126 923 0 0.07130653 0.01052511 4 
219 107 929 0 0.07225325 0.01258825 5 
220 114 929 0 0.00477553 0.01064118 4 
221 107 935 0 4.91438615 0.01658988 7 
222 114 935 0 1.40337639 0.01658142 7 
223 101 939 0 0.48567419 0.01072424 4 
224 107 939 0 0.21174614 0.01075931 4 
225 558 939 2 1592.80438274 0.00000368 4 
226 101 944 0 0.15377935 0.01278689 5 
227 690 945 2 3097.73818259 0.00000667 1 
228 94 947 0 0.23772432 0.01682640 7 
229 101 947 0 0.16826262 0.01485646 6 
230 715 949 2 4351.38856691 0.00000381 1 
231 87 953 0 0.13504795 0.01095258 4 
232 94 953 0 0.06505521 0.01499117 6 
233 226 953 0 0.08268323 0.02303378 10 
234 81 959 0 1.83528326 0.02443614 10 
235 87 959 0 1.29172246 0.01716960 7 
236 220 959 0 0.04883629 0.01107809 4 
237 226 959 0 0.12130941 0.01313269 5 
238 67 965 0 1.01368609 0.01320883 5 
239 81 965 0 0.31066014 0.01525691 6 
240 220 965 0 0.16483276 0.01943165 8 
241 736 970 2 859.89983953 0.00000460 1 
242 344 970 2 1871.33110310 0.00000135 1 
243 326 973 2 1360.63454511 0.00000391 1 
244 212 973 2 1375.90105749 0.00000117 1 
245 401 973 2 796.66689205 0.00000170 1 
246 61 976 0 0.16803746 0.01751045 7 
247 67 976 0 0.05676300 0.00922946 3 
248 209 976 0 0.00780965 0.01131624 4 
249 50 982 0 0.38354811 0.01142130 4 
250 61 982 0 0.27147698 0.01139116 4 
251 201 982 0 0.22200943 0.01142063 4 
252 203 982 0 0.10573284 0.02215331 9 
253 212 982 2 190.82791719 0.00000436 9 
254 57 984 2 2906.76575365 0.00000439 1 
255 44 988 0 0.09550719 0.01151117 4 
256 50 988 0 0.05924873 0.01149791 4 
257 195 988 0 0.04319526 0.01576756 6 
258 201 988 0 0.02685916 0.01363854 5 
259 44 994 0 0.51683435 0.01792924 7 
260 189 994 0 0.29989154 0.02579064 10 
261 195 994 0 0.21957432 0.01376361 5 
262 839 997 2 1108.97286565 0.00000444 1 
263 219 998 2 3809.59426499 0.00000384 1 
264 32 1003 0 0.23901034 0.01393360 5 
265 178 1003 0 0.03356851 0.02614038 10 
266 183 1003 0 0.01433170 0.01611733 6 
267 25 1008 0 1.23858172 0.01839295 7 
268 32 1008 0 0.53803958 0.01183806 4 
269 178 1008 0 0.34459610 0.01192462 4 
270 183 1008 0 0.22233868 0.01190170 4 
271 625 1008 2 2798.17262820 0.00000417 4 
272 506 1009 2 2630.53491745 0.00000554 1 
273 25 1010 0 0.60236133 0.01185747 4 
274 32 1010 0 0.30591807 0.01405802 5 
275 172 1010 0 0.10368354 0.01634651 6 
276 178 1010 0 0.19279072 0.02650115 10 
277 941 1013 2 5234.26088605 0.00000693 4 
278 19 1016 0 0.44047719 0.02060353 8 
279 166 1016 0 0.20189646 0.01193019 4 
280 172 1016 0 0.07393216 0.01411044 5 
281 151 1029 0 0.03533130 0.01444257 5 
282 157 1029 0 0.02672450 0.01213993 4 
283 163 1029 0 3.39703566 0.01208808 4 
284 166 1029 0 0.49353449 0.01208772 4 
285 95 1029 2 3856.38276069 0.00000466 4 
286 92 1031 2 1855.37855616 0.00000532 1 
287 657 1043 2 714.83991064 0.00000593 1 
288 262 1044 2 1026.94184443 0.00000756 1 
289 891 1045 2 163.35141475 0.00000482 1 
290 549 1045 2 480.43119590 0.00000169 1 
291 761 1057 2 80.93164571 0.00000493 1 
292 413 1064 2 629.97600756 0.00000554 1 
293 630 1065 2 125.86406856 0.00000612 1 
294 128 1080 2 546.92490548 0.00000584 1 
295 175 1083 2 428.37994760 0.00000562 1 
296 132 1084 0 4.21993706 0.01517073 5 
297 143 1102 2 1849.39459131 0.00000632 1 
298 69 1103 2 1222.39160174 0.00000456 1 
299 944 1122 2 800.83232438 0.00000582 1 
300 101 1138 0 0.63021658 0.01588878 5 
301 146 1138 2 1484.99519748 0.00000510 5 
302 698 1142 2 755.18933562 0.00000577 1 
303 107 1147 0 0.73708347 0.01340113 4 
304 114 1147 0 0.03971358 0.01094470 3 
305 10 1147 2 304.09522770 0.00000466 3 
306 107 1150 0 7.45683387 0.01345571 4 
307 114 1150 0 1.00561260 0.01101124 3 
308 114 1158 0 0.16899687 0.01102908 3 
309 121 1158 0 0.69099743 0.01404943 4 
310 335 1160 2 266.10618773 0.00000540 1 
311 695 1163 2 500.41853350 0.00000771 1 
312 121 1164 0 0.45182924 0.01615137 5 
313 126 1164 0 0.04418665 0.01369734 4 
314 15 1172 2 431.71385113 0.00000486 1 
315 114 1175 0 0.14266969 0.01378904 4 
316 121 1175 0 0.27324351 0.01384933 4 
317 923 1175 0 0.18719011 0.01386840 4 
318 929 1175 0 0.16073549 0.01382277 4 
319 1158 1175 0 0.00134797 0.01130120 3 
320 637 1176 2 123.31348840 0.00000553 1 
321 290 1176 2 3548.16473447 0.00000212 1 
322 232 1178 2 2827.02576494 0.00000762 1 
323 590 1183 2 421.01154417 0.00000512 1 
324 605 1187 2 658.25076663 0.00000516 1 
325 101 1188 0 0.32950319 0.01398472 4 
326 939 1188 0 0.55418798 0.01400276 4 
327 1138 1188 0 0.03006025 0.01147888 3 
328 1147 1188 0 0.04063922 0.01139615 3 
329 1150 1188 0 1.83245351 0.01397956 4 
330 361 1188 2 2755.83287523 0.00000516 4 
331 206 1190 2 1920.99027248 0.00000523 1 
332 4 1201 2 439.31134295 0.00000642 1 
333 542 1207 2 455.73825417 0.00000602 1 
334 749 1207 2 1337.87512883 0.00000226 1 
335 1050 1210 0 0.00345523 0.01420935 4 
336 1061 1210 0 0.57363906 0.01683434 5 
337 1075 1210 0 0.23107861 0.01688257 5 
338 1084 1210 0 3.13555510 0.01685709 5 
339 1088 1210 0 0.59156319 0.01424813 4 
340 1093 1210 0 0.13111230 0.01956228 6 
341 1098 1210 0 0.04730346 0.01424211 4 
342 404 1216 2 253.21441342 0.00000574 1 
343 969 1216 2 2511.85405777 0.00001233 1 
344 157 1217 0 0.32750279 0.01441463 4 
345 163 1217 0 0.19904338 0.01451766 4 
346 1029 1217 0 0.01250493 0.01177159 3 
347 1044 1217 0 3.98258990 0.01451070 4 
348 1050 1217 0 4.97161000 0.01723041 5 
349 157 1221 2 951.03765967 0.00000522 1 
350 803 1223 2 1080.46345438 0.00000520 1 
351 1137 1223 2 422.07173109 0.00000177 1 
352 146 1224 2 2237.99850425 0.00000500 1 
353 162 1224 2 2382.19135345 0.00000246 1 
354 163 297 0 0.27920255 0.01484672 4 
355 189 400 0 2.09679271 0.01475862 4 
356 1056 1217 0 9.66143264 0.01834534 5 
