VERTEX2 0 0.00000385 0.00000025 -0.00000190
VERTEX2 1 0.00000385 0.00000025 -0.00064390
VERTEX2 2 0.00000385 0.00000025 -0.00118190
VERTEX2 3 0.01679614 -0.00148774 -0.00344375
VERTEX2 4 0.65236616 -0.01188766 -0.00719493
VERTEX2 5 0.71291370 -0.01244076 -0.09832116
VERTEX2 6 0.72128473 -0.01975388 -0.89501766
VERTEX2 7 0.71638368 -0.00454659 -1.51008913
VERTEX2 8 0.72108390 0.01549000 -2.12315767
VERTEX2 9 0.73853279 0.03048849 -2.76074660
VERTEX2 10 0.75634891 0.03344086 2.90952049
VERTEX2 11 0.75530914 0.03408886 2.23697562
VERTEX2 12 0.75494102 0.05039132 1.58779789
VERTEX2 13 0.76443548 0.08092951 0.92859700
VERTEX2 14 0.79032095 0.09935496 0.32063132
VERTEX2 15 0.79720673 0.09986937 -0.20405276
VERTEX2 16 1.08561706 0.04299399 -0.22265537
VERTEX2 17 1.68149391 -0.09798969 -0.25383246
VERTEX2 18 2.29951853 -0.25468560 -0.26400096
VERTEX2 19 2.92120367 -0.44523357 -0.31261103
VERTEX2 20 3.51528051 -0.63136552 -0.30665797
VERTEX2 21 4.12393343 -0.77959688 -0.19500725
VERTEX2 22 4.73321482 -0.91673791 -0.17751891
VERTEX2 23 5.37029361 -0.95669070 -0.06993623
VERTEX2 24 5.99964524 -1.02351018 -0.12682390
VERTEX2 25 6.63225899 -1.08670016 -0.12387377
VERTEX2 26 7.23003975 -1.18371424 -0.16415320
VERTEX2 27 7.85035149 -1.27054430 -0.14805188
VERTEX2 28 8.43632819 -1.36485177 -0.15225336
VERTEX2 29 8.81927615 -1.41946821 -0.12140570
VERTEX2 30 8.83061978 -1.42238265 -0.65336119
VERTEX2 31 8.92946846 -1.55257652 -0.92161950
VERTEX2 32 9.29891783 -2.05903090 -0.94012310
VERTEX2 33 9.67482249 -2.54831555 -0.88924051
VERTEX2 34 10.07897462 -3.02144002 -0.86811233
VERTEX2 35 10.49286312 -3.48683793 -0.83375002
VERTEX2 36 10.91328832 -3.95338272 -0.84221117
VERTEX2 37 11.18573670 -4.25175007 -0.83440423
VERTEX2 38 11.17303565 -4.23491924 -1.15587168
VERTEX2 39 11.16753784 -4.21128773 -1.32719402
VERTEX2 40 11.31115769 -4.75762077 -1.31065385
VERTEX2 41 11.46012750 -5.32888930 -1.34335095
VERTEX2 42 11.58157831 -5.86359584 -1.36673752
VERTEX2 43 11.68786987 -6.42969777 -1.40762073
VERTEX2 44 11.77759818 -6.99498218 -1.44525140
VERTEX2 45 11.83749159 -7.61649534 -1.50071966
VERTEX2 46 11.87311554 -8.23572190 -1.51994476
VERTEX2 47 11.89799467 -8.85480305 -1.56146337
VERTEX2 48 11.89948376 -9.47834875 -1.56787344
VERTEX2 49 11.89728375 -10.09785171 -1.61856571
VERTEX2 50 11.84897166 -10.68509171 -1.66293024
VERTEX2 51 11.79910969 -11.27906594 -1.69183087
VERTEX2 52 11.70789655 -11.85961956 -1.76866122
VERTEX2 53 11.61361019 -12.41451640 -1.75643606
VERTEX2 54 11.50603042 -12.92327068 -1.81868741
VERTEX2 55 11.51319749 -12.88752103 -1.81355693
VERTEX2 56 11.51247411 -12.89042562 -1.80274587
VERTEX2 57 11.37384332 -13.51025910 -1.81393435
VERTEX2 58 11.23265838 -14.11833079 -1.76751955
VERTEX2 59 11.10888092 -14.72612280 -1.79094873
VERTEX2 60 10.98455400 -15.33027274 -1.76944744
VERTEX2 61 10.85452463 -15.93487994 -1.82009450
VERTEX2 62 10.71083397 -16.49006735 -1.78020989
VERTEX2 63 10.56542102 -17.05003733 -1.81569685
VERTEX2 64 10.43636313 -17.60449821 -1.75233518
VERTEX2 65 10.30773324 -18.15673468 -1.80381293
VERTEX2 66 10.15726264 -18.75352980 -1.81171472
VERTEX2 67 9.99474026 -19.35517329 -1.81013337
VERTEX2 68 9.88915030 -19.80137090 -1.82564242
VERTEX2 69 9.89287617 -19.78883632 -1.98022904
VERTEX2 70 9.90061305 -19.77368330 -2.65370539
VERTEX2 71 9.92280724 -19.77217853 2.98765368
VERTEX2 72 9.93939624 -19.77405403 2.97819129
VERTEX2 73 9.95022391 -19.77660835 2.91326849
VERTEX2 74 9.95154407 -19.77746602 2.29151875
VERTEX2 75 9.96085812 -19.78099509 1.93920385
VERTEX2 76 9.94893612 -19.76805686 2.63314670
VERTEX2 77 9.94708098 -19.76728848 2.86613065
VERTEX2 78 9.67070191 -19.78065520 -3.07986567
VERTEX2 79 9.04945854 -19.82631223 -3.08562296
VERTEX2 80 8.41419175 -19.83134630 3.12246332
VERTEX2 81 7.78651855 -19.81073596 3.09592864
VERTEX2 82 7.18806443 -19.77520520 3.04198458
VERTEX2 83 6.60030078 -19.72906787 3.01865283
VERTEX2 84 6.03767649 -19.64813674 2.94109068
VERTEX2 85 5.49407499 -19.54892324 2.94864829
VERTEX2 86 4.88223004 -19.43292731 2.85938143
VERTEX2 87 4.52315587 -19.34471464 2.80507018
VERTEX2 88 4.17642993 -19.21973944 2.77472877
VERTEX2 89 4.19192042 -19.22033893 -3.11405330
VERTEX2 90 3.58502674 -19.22801015 3.13879679
VERTEX2 91 2.96862333 -19.22846981 -3.09480164
VERTEX2 92 2.37114004 -19.22885669 3.07283086
VERTEX2 93 1.75153985 -19.13134236 2.97209642
VERTEX2 94 1.13197416 -18.99818545 2.92942801
VERTEX2 95 0.51136627 -18.91568300 3.07227489
VERTEX2 96 -0.09767347 -18.86979185 3.09651429
VERTEX2 97 -0.68244665 -18.81236067 3.02597722
VERTEX2 98 -1.26574232 -18.71737564 2.96803913
VERTEX2 99 -1.96571101 -18.60014441 3.01484580
VERTEX2 100 -2.52490544 -18.49814343 2.96308731
VERTEX2 101 -3.13053545 -18.44730740 3.06630901
VERTEX2 102 -3.74316114 -18.37258210 2.96064100
VERTEX2 103 -4.35097623 -18.26356104 3.05678337
VERTEX2 104 -4.96284208 -18.19303845 3.02321636
VERTEX2 105 -5.57488492 -18.13438675 3.06985380
VERTEX2 106 -6.17633195 -18.06974913 3.01503707
VERTEX2 107 -6.78931253 -17.97988861 3.01145492
VERTEX2 108 -7.24467094 -17.93515397 3.07298328
VERTEX2 109 -7.29033496 -17.92401647 2.62439422
VERTEX2 110 -7.30709261 -17.90697357 2.03294597
VERTEX2 111 -7.30796614 -17.82690280 1.52701184
VERTEX2 112 -7.28959369 -17.19356989 1.58138706
VERTEX2 113 -7.31319147 -16.57218394 1.62837120
VERTEX2 114 -7.35142989 -15.95937520 1.66511112
VERTEX2 115 -7.42881439 -15.32378139 1.72480902
VERTEX2 116 -7.55166621 -14.57872624 1.76841882
VERTEX2 117 -7.68998980 -13.97484405 1.86350256
VERTEX2 118 -7.69347048 -13.95972013 1.52809027
VERTEX2 119 -7.64153723 -13.44615365 1.47458574
VERTEX2 120 -7.59338074 -12.79492257 1.56461730
VERTEX2 121 -7.60781460 -12.18248328 1.63210374
VERTEX2 122 -7.64592900 -11.60526531 1.68829666
VERTEX2 123 -7.67151157 -11.43070854 1.67550124
VERTEX2 124 -7.58837159 -11.19443031 1.25241896
VERTEX2 125 -7.37750786 -10.60317951 1.24147311
VERTEX2 126 -7.25081899 -9.99016063 1.44804291
VERTEX2 127 -7.15848325 -9.35634598 1.44651612
VERTEX2 128 -7.08850051 -8.71903826 1.48304979
VERTEX2 129 -7.00910797 -8.09372093 1.45037728
VERTEX2 130 -6.94829839 -7.47071915 1.50303427
VERTEX2 131 -6.90886433 -6.85394374 1.59148979
VERTEX2 132 -6.89683835 -6.24728872 1.54186624
VERTEX2 133 -6.85559119 -5.68701266 1.50501089
VERTEX2 134 -6.80764540 -5.09785749 1.48677160
VERTEX2 135 -6.73185075 -4.52867687 1.46051997
VERTEX2 136 -6.66416550 -3.90303270 1.48014531
VERTEX2 137 -6.57434529 -3.27950697 1.43830076
VERTEX2 138 -6.50490198 -2.65804140 1.51854820
VERTEX2 139 -6.49464965 -2.03298010 1.58373408
VERTEX2 140 -6.52912661 -1.38368914 1.61415234
VERTEX2 141 -6.54123209 -0.74950506 1.56560275
VERTEX2 142 -6.54771703 -0.10556740 1.56166293
VERTEX2 143 -6.47330904 0.52827685 1.45097050
VERTEX2 144 -6.43758113 0.89460442 1.46838854
VERTEX2 145 -6.43347211 0.90744309 0.96999291
VERTEX2 146 -6.43267735 0.91169620 0.37676859
VERTEX2 147 -6.37772061 0.90841070 -0.10975257
VERTEX2 148 -5.94751029 0.85310692 -0.14530867
VERTEX2 149 -5.30804604 0.76633770 -0.12011028
VERTEX2 150 -4.67539047 0.70877587 -0.10585783
VERTEX2 151 -4.03648805 0.66846840 -0.02007988
VERTEX2 152 -3.41495561 0.63927577 -0.08075047
VERTEX2 153 -2.78989679 0.61277074 0.01303633
VERTEX2 154 -2.16671266 0.59853701 -0.05635159
VERTEX2 155 -1.53934775 0.57192134 -0.02272576
VERTEX2 156 -0.91027944 0.56463640 0.00827038
VERTEX2 157 -0.34470378 0.55345426 -0.05574863
VERTEX2 158 -0.15296963 0.54226360 -0.02796991
VERTEX2 159 -0.14745698 0.54057816 0.95995905
VERTEX2 160 -0.14255947 0.54882278 1.99576899
VERTEX2 161 -0.16799571 0.48027471 2.71136369
VERTEX2 162 -0.13766698 0.48722661 -2.53396137
VERTEX2 163 -0.13737572 0.48870500 -1.53489892
VERTEX2 164 -0.21067574 0.57845380 -0.47246698
VERTEX2 165 -0.04058643 0.56269385 -0.06459388
VERTEX2 166 0.65353742 0.52450434 -0.06285676
VERTEX2 167 1.26870812 0.47782658 -0.09219943
VERTEX2 168 1.85535275 0.43204484 -0.08014803
VERTEX2 169 2.44968337 0.36402900 -0.11699398
VERTEX2 170 3.03521004 0.29924888 -0.13752584
VERTEX2 171 3.59679225 0.20424672 -0.17568426
VERTEX2 172 4.22207900 0.10052103 -0.16145799
VERTEX2 173 4.84935883 -0.01524402 -0.18423083
VERTEX2 174 5.47282566 -0.12460186 -0.14404286
VERTEX2 175 6.08717332 -0.20991985 -0.16850117
VERTEX2 176 6.68490082 -0.32515143 -0.15865144
VERTEX2 177 7.30681295 -0.42249537 -0.18627782
VERTEX2 178 7.92683988 -0.56273742 -0.22527563
VERTEX2 179 8.33237935 -0.64355450 -0.17181503
VERTEX2 180 8.38360540 -0.65690220 -0.61362790
VERTEX2 181 8.82546409 -0.97044400 -0.66532499
VERTEX2 182 9.23310830 -1.32542312 -0.83927016
VERTEX2 183 9.58127281 -1.74025649 -0.89658293
VERTEX2 184 9.91199839 -2.22927738 -1.04294858
VERTEX2 185 10.19154239 -2.74471654 -1.13507535
VERTEX2 186 10.40191165 -3.27247235 -1.20162519
VERTEX2 187 10.58824042 -3.77769079 -1.22444058
VERTEX2 188 10.78129298 -4.30253818 -1.23008057
VERTEX2 189 10.96547914 -4.82561069 -1.25715240
VERTEX2 190 11.15301561 -5.42941253 -1.28561895
VERTEX2 191 11.33036931 -6.03249716 -1.30939625
VERTEX2 192 11.48885845 -6.62898756 -1.33745861
VERTEX2 193 11.61626175 -7.17695756 -1.39287218
VERTEX2 194 11.71916983 -7.74043354 -1.41937266
VERTEX2 195 11.80280247 -8.29913324 -1.44771595
VERTEX2 196 11.87438810 -8.92418659 -1.48836433
VERTEX2 197 11.91726227 -9.54511211 -1.51575019
VERTEX2 198 11.94743275 -10.16340353 -1.57385324
VERTEX2 199 11.92434186 -10.77094048 -1.63522238
VERTEX2 200 11.88226452 -11.37321552 -1.65707740
VERTEX2 201 11.81656146 -11.97192749 -1.71373886
VERTEX2 202 11.75706113 -12.47646446 -1.69322565
VERTEX2 203 11.66208030 -13.21002603 -1.74563778
VERTEX2 204 11.54556867 -13.78633341 -1.84743640
VERTEX2 205 11.38171746 -14.34818944 -1.85672578
VERTEX2 206 11.23288010 -14.89505552 -1.85468692
VERTEX2 207 11.07859382 -15.46170490 -1.83863552
VERTEX2 208 10.91107931 -16.06108919 -1.84799566
VERTEX2 209 10.75478694 -16.66196346 -1.80974029
VERTEX2 210 10.59811310 -17.25288026 -1.81831000
VERTEX2 211 10.45550370 -17.84773605 -1.81579994
VERTEX2 212 10.28563167 -18.43204409 -1.86840438
VERTEX2 213 10.09702622 -19.02177849 -1.88889565
VERTEX2 214 9.90142978 -19.60331634 -1.89272595
VERTEX2 215 9.78821152 -19.93016589 -1.92854972
VERTEX2 216 9.79823520 -19.91261630 -2.42727551
VERTEX2 217 9.82398734 -19.90961285 -2.96948317
VERTEX2 218 9.83505761 -19.91374075 -3.02552253
VERTEX2 219 9.26923343 -19.87519324 3.08912288
VERTEX2 220 8.66068141 -19.83697901 3.04921458
VERTEX2 221 8.02401463 -19.77778864 3.09993882
VERTEX2 222 7.40048993 -19.74227138 3.07455872
VERTEX2 223 6.77616321 -19.72012642 -3.11216713
VERTEX2 224 6.16892454 -19.72778666 -3.13789974
VERTEX2 225 5.55819852 -19.72925338 -3.08821087
VERTEX2 226 4.94841936 -19.72997783 -3.13738443
VERTEX2 227 4.30218289 -19.80667666 -2.98075311
VERTEX2 228 3.77877569 -19.79725520 2.94086979
VERTEX2 229 3.34260599 -19.76744027 3.06107679
VERTEX2 230 3.05202967 -19.75461913 3.03225338
VERTEX2 231 3.26428466 -19.77110171 3.10243140
VERTEX2 232 2.95977097 -19.63803984 2.67625256
VERTEX2 233 2.39925776 -19.38545283 2.77838550
VERTEX2 234 1.82679720 -19.16635126 2.73405529
VERTEX2 235 1.58223437 -19.06339878 2.72890125
VERTEX2 236 1.25084741 -19.06757321 3.13386079
VERTEX2 237 0.62539902 -19.08790042 -3.07917959
VERTEX2 238 0.00669402 -19.14102727 -3.11163604
VERTEX2 239 -0.60867638 -19.14295729 3.10422768
VERTEX2 240 -1.17851711 -19.02981831 2.88657656
VERTEX2 241 -1.71848942 -18.90326060 2.97233199
VERTEX2 242 -2.28790784 -18.84420031 3.01214207
VERTEX2 243 -2.88464875 -18.76734420 3.01164321
VERTEX2 244 -3.50554264 -18.72784240 3.08309328
VERTEX2 245 -4.11739703 -18.68516859 3.02898067
VERTEX2 246 -4.71681177 -18.60537271 2.95669785
VERTEX2 247 -5.31784225 -18.52936317 3.06270982
VERTEX2 248 -5.87071079 -18.51301506 3.09419353
VERTEX2 249 -5.82022683 -18.52011474 -2.99593644
VERTEX2 250 -5.81438096 -18.51990937 2.70085005
VERTEX2 251 -6.13953246 -18.18371423 2.27781748
VERTEX2 252 -6.49948383 -17.76784168 2.28645522
VERTEX2 253 -6.87406151 -17.32873145 2.27536285
VERTEX2 254 -7.24598365 -16.87257517 2.23367999
VERTEX2 255 -7.31987227 -16.78074328 2.31793328
VERTEX2 256 -7.32367644 -16.70352541 1.84190016
VERTEX2 257 -7.37875483 -16.24850809 1.70513945
VERTEX2 258 -7.46820110 -15.65885949 1.78600600
VERTEX2 259 -7.61469494 -15.06630680 1.82632217
VERTEX2 260 -7.75087509 -14.51790677 1.81769085
VERTEX2 261 -7.74939885 -14.48944660 1.50582153
VERTEX2 262 -7.69223975 -13.84602304 1.51228436
VERTEX2 263 -7.65508003 -13.22788147 1.52562455
VERTEX2 264 -7.64497902 -12.62348803 1.62255386
VERTEX2 265 -7.68129199 -12.02067665 1.64262341
VERTEX2 266 -7.63783390 -11.44211258 1.51335134
VERTEX2 267 -7.59197602 -10.69695196 1.48375234
VERTEX2 268 -7.46435591 -10.09569316 1.37342113
VERTEX2 269 -7.34910081 -9.48416729 1.40321667
VERTEX2 270 -7.28146034 -8.86348793 1.51717250
VERTEX2 271 -7.19077144 -8.24393455 1.40666601
VERTEX2 272 -7.11035152 -7.62285085 1.47214684
VERTEX2 273 -7.12446508 -6.99946109 1.68422072
VERTEX2 274 -7.19576039 -6.39035016 1.70819916
VERTEX2 275 -7.18797976 -5.78978196 1.53672866
VERTEX2 276 -7.18528151 -5.19020539 1.65125400
VERTEX2 277 -7.23523125 -4.63379466 1.62572817
VERTEX2 278 -7.19669399 -4.00135758 1.53706804
VERTEX2 279 -7.16166896 -3.37184146 1.48185340
VERTEX2 280 -7.09865651 -2.74730309 1.48405675
VERTEX2 281 -7.01419594 -2.12227090 1.38381307
VERTEX2 282 -6.90099002 -1.50360450 1.42386511
VERTEX2 283 -6.82034067 -0.87854806 1.41622216
VERTEX2 284 -6.71314884 -0.25102625 1.44321806
VERTEX2 285 -6.65117403 0.39589254 1.46436078
VERTEX2 286 -6.58954900 1.01503578 1.51802682
VERTEX2 287 -6.58732381 1.06122682 1.41361267
VERTEX2 288 -6.58592286 1.06369982 0.80506784
VERTEX2 289 -6.58526214 1.06392836 0.21170111
VERTEX2 290 -6.14467987 1.05799262 -0.01331067
VERTEX2 291 -5.52182918 1.05401184 0.00051963
VERTEX2 292 -4.90919780 1.03763023 -0.05407623
VERTEX2 293 -4.28743436 0.99586751 -0.07706391
VERTEX2 294 -3.66254815 0.94651105 -0.07638924
VERTEX2 295 -3.03849126 0.86912427 -0.18893741
VERTEX2 296 -2.41810224 0.72682220 -0.23435511
VERTEX2 297 -1.79975204 0.57751118 -0.24603628
VERTEX2 298 -1.18132436 0.42408882 -0.24667471
VERTEX2 299 -0.59905646 0.26796733 -0.18541257
VERTEX2 300 -0.00689786 0.18392606 -0.14309995
VERTEX2 301 0.55050155 0.08776963 -0.20240218
VERTEX2 302 0.84787696 0.02528863 -0.22340698
VERTEX2 303 0.82710522 0.02902994 -0.21920157
VERTEX2 304 1.32509334 -0.08358246 -0.20955821
VERTEX2 305 1.93557149 -0.12497618 -0.02552591
VERTEX2 306 2.56393310 -0.13209114 -0.04333927
VERTEX2 307 3.20226731 -0.17615677 -0.07978271
VERTEX2 308 3.82915711 -0.23515391 -0.13510770
VERTEX2 309 4.46860434 -0.29202301 -0.04191731
VERTEX2 310 5.10032805 -0.31809829 -0.07756509
VERTEX2 311 5.38564190 -0.34245251 0.09782188
VERTEX2 312 5.38070572 -0.34513344 1.08601247
VERTEX2 313 5.38325875 -0.12713309 1.58187523
VERTEX2 314 5.35758770 0.50052384 1.62172450
VERTEX2 315 5.32287172 1.12750934 1.61744980
VERTEX2 316 5.27764281 1.76818189 1.66929104
VERTEX2 317 5.21098897 2.40478824 1.67974230
VERTEX2 318 5.10690163 3.03553960 1.77493256
VERTEX2 319 5.02318624 3.38179973 1.84593800
VERTEX2 320 5.02519034 3.38825585 2.81330207
VERTEX2 321 5.01707392 3.38465786 -2.43139432
VERTEX2 322 5.01621419 3.38283089 -1.43634288
VERTEX2 323 5.02662675 3.37299460 -0.44507757
VERTEX2 324 5.03082882 3.37166803 0.21398258
VERTEX2 325 5.03195269 3.37176808 -0.31437823
VERTEX2 326 5.04716711 3.36052414 -0.91034184
VERTEX2 327 5.05060820 3.34490273 -1.53449440
VERTEX2 328 5.03904546 2.70997507 -1.58125975
VERTEX2 329 5.02158464 2.08127585 -1.63757657
VERTEX2 330 4.97163628 1.46360447 -1.65795559
VERTEX2 331 4.92074529 0.84462742 -1.67360075
VERTEX2 332 4.84628483 0.23595498 -1.69358102
VERTEX2 333 4.82637431 0.08668023 -1.63010314
VERTEX2 334 4.83086354 0.08741720 -0.83814528
VERTEX2 335 4.84514820 0.08329888 0.15289604
VERTEX2 336 4.85846322 0.08806284 1.09409392
VERTEX2 337 4.86403281 0.12413839 2.07310614
VERTEX2 338 4.85670303 0.12919171 3.06191646
VERTEX2 339 4.86601851 0.13503908 -2.17206922
VERTEX2 340 4.86587826 0.13544441 -1.15112173
VERTEX2 341 4.98180412 0.06642610 -0.51669316
VERTEX2 342 5.55941550 -0.23565327 -0.41431062
VERTEX2 343 6.13829364 -0.43261307 -0.28287064
VERTEX2 344 6.72782758 -0.61147544 -0.29241900
VERTEX2 345 6.96586239 -0.67982076 -0.31940529
VERTEX2 346 6.95129844 -0.67515321 -0.96540974
VERTEX2 347 6.95419021 -0.76099976 -1.52295575
VERTEX2 348 6.97544514 -1.34895520 -1.53919732
VERTEX2 349 6.97673340 -1.96594781 -1.57896413
VERTEX2 350 6.96763095 -2.75776845 -1.59857700
VERTEX2 351 6.95454065 -3.03543759 -1.62752606
VERTEX2 352 6.95185956 -3.04848715 -1.91528233
VERTEX2 353 6.93661549 -3.06729847 -2.57979780
VERTEX2 354 6.91747171 -3.07280952 3.10083775
VERTEX2 355 6.89256963 -3.07200604 2.38082242
VERTEX2 356 6.88826652 -3.06437908 1.80653701
VERTEX2 357 6.89089632 -3.04888247 1.15660747
VERTEX2 358 6.89160611 -3.04791421 0.54415818
VERTEX2 359 6.87915487 -3.05324696 -0.06686264
VERTEX2 360 6.86375423 -3.05020239 -0.24157248
VERTEX2 361 6.85478012 -3.05256181 0.68207363
VERTEX2 362 6.94033828 -2.81926311 1.21929404
VERTEX2 363 7.04320551 -2.54844828 1.21428904
VERTEX2 364 6.97304924 -2.21352656 1.83266424
VERTEX2 365 6.91632724 -1.92556479 1.33876591
VERTEX2 366 7.02939422 -1.79590911 0.78778714
VERTEX2 367 7.47774033 -1.35172539 0.79112544
VERTEX2 368 7.93125641 -0.91085610 0.74313699
VERTEX2 369 7.95191835 -0.88549722 0.49123232
VERTEX2 370 7.97439527 -0.88173070 -0.09571987
VERTEX2 371 7.98011177 -0.88464366 -0.64040422
VERTEX2 372 8.41086346 -1.22881923 -0.66782439
VERTEX2 373 8.88563190 -1.58886199 -0.66561719
VERTEX2 374 9.36715076 -1.98688700 -0.72651330
VERTEX2 375 9.72966700 -2.30359300 -0.75723034
VERTEX2 376 9.74149296 -2.31067225 -0.06409504
VERTEX2 377 9.79067041 -2.27496383 0.62955054
VERTEX2 378 10.32112173 -1.87244860 0.68263043
VERTEX2 379 10.79546893 -1.43804196 0.76628179
VERTEX2 380 11.22971363 -0.96776550 0.88440999
VERTEX2 381 11.37335166 -0.78695835 1.03304128
VERTEX2 382 11.37414130 -0.78546762 2.07876182
VERTEX2 383 11.37504550 -0.78602963 3.06584029
VERTEX2 384 11.37795302 -0.78318044 -2.25353631
VERTEX2 385 11.37563381 -0.78713450 -1.22336225
VERTEX2 386 11.48506746 -0.92601602 -0.99840606
VERTEX2 387 11.95095614 -1.34740826 -0.66665613
VERTEX2 388 12.45409671 -1.72580538 -0.65707961
VERTEX2 389 12.93152645 -2.12405992 -0.73876581
VERTEX2 390 12.98373152 -2.16984179 -0.26226133
VERTEX2 391 12.84975182 -2.16733955 0.11881923
VERTEX2 392 12.85108237 -2.16728282 1.16235502
VERTEX2 393 12.90507111 -1.79196699 2.03171487
VERTEX2 394 12.89582029 -1.78404745 3.02668776
VERTEX2 395 13.13250692 -1.74265028 -2.91850423
VERTEX2 396 13.12823784 -1.74360599 -2.91814870
VERTEX2 397 13.11673123 -1.74271214 -2.92780139
VERTEX2 398 13.10074854 -1.74943919 -2.72871343
VERTEX2 399 12.99214562 -1.83439511 -2.42794257
VERTEX2 400 12.48867043 -2.27484954 -2.37650049
VERTEX2 401 12.03023820 -2.68184517 -2.46917169
VERTEX2 402 11.48484703 -2.96966738 -2.73667062
VERTEX2 403 10.92282833 -3.20498445 -2.77104678
VERTEX2 404 10.38691331 -3.39583715 -2.85048123
VERTEX2 405 10.40560929 -3.38677799 -2.31744101
VERTEX2 406 10.40895991 -3.36641689 -1.34053806
VERTEX2 407 10.53050066 -3.70397271 -1.21306499
VERTEX2 408 10.73969693 -4.28018757 -1.25165346
VERTEX2 409 10.82393518 -4.56078790 -1.35199544
VERTEX2 410 10.82415165 -4.55313315 -1.98151397
VERTEX2 411 10.83177249 -4.53945579 -2.57148305
VERTEX2 412 10.33786286 -4.74026656 -2.77493216
VERTEX2 413 9.75576305 -4.94234650 -2.85546755
VERTEX2 414 9.16843220 -5.13399034 -2.75279702
VERTEX2 415 8.56795233 -5.37110461 -2.74505232
VERTEX2 416 8.28649774 -5.49754586 -2.79942424
VERTEX2 417 7.98578920 -5.48258016 3.06105826
VERTEX2 418 7.53815275 -5.44106578 3.01684599
VERTEX2 419 7.53578609 -5.44163519 -2.83354222
VERTEX2 420 7.58622558 -5.41878127 -2.61608183
VERTEX2 421 7.59080712 -5.41136596 -1.64495277
VERTEX2 422 7.58903483 -5.41392624 -0.40060361
VERTEX2 423 7.58521906 -5.41361819 -0.05317520
VERTEX2 424 7.57623800 -5.41323181 -0.05163276
VERTEX2 425 7.56142059 -5.42185917 -0.03928362
VERTEX2 426 7.56560885 -5.42245160 -0.04807957
VERTEX2 427 7.60235529 -5.42388497 -0.04463416
VERTEX2 428 8.26881651 -5.43706863 -0.04982601
VERTEX2 429 8.91821825 -5.47879022 -0.09030433
VERTEX2 430 9.26492935 -5.51577695 -0.13609736
VERTEX2 431 9.24716591 -5.51386563 -0.08387588
VERTEX2 432 9.26480460 -5.51984382 -0.71517902
VERTEX2 433 9.27442841 -5.53275640 -1.39204301
VERTEX2 434 9.24322284 -6.07789000 -1.61975576
VERTEX2 435 9.21764774 -6.72699806 -1.64774900
VERTEX2 436 9.14592139 -7.37297798 -1.65625595
VERTEX2 437 9.10028293 -8.02899034 -1.64807992
VERTEX2 438 9.05278468 -8.49900936 -1.67811969
VERTEX2 439 9.05081820 -8.50667877 -2.11304875
VERTEX2 440 9.05679588 -8.50190396 -2.75450890
VERTEX2 441 9.07389844 -8.50004894 2.90828693
VERTEX2 442 9.08313666 -8.50496561 2.28055318
VERTEX2 443 9.08342662 -8.50921655 1.71517974
VERTEX2 444 9.08587278 -8.49574997 1.12521229
VERTEX2 445 9.09031625 -8.49144020 0.46875456
VERTEX2 446 9.08841772 -8.49264234 0.67105245
VERTEX2 447 9.10044115 -8.46882843 1.30396451
VERTEX2 448 9.24567516 -7.84548427 1.32157305
VERTEX2 449 9.37374531 -7.20788797 1.42302779
VERTEX2 450 9.46301742 -6.57019339 1.43679778
VERTEX2 451 9.51228037 -6.09923140 1.47940787
VERTEX2 452 9.51238343 -6.09805254 1.10132125
VERTEX2 453 9.50996049 -6.10250896 0.47907911
VERTEX2 454 9.77369236 -6.08047326 0.05696531
VERTEX2 455 10.37397120 -6.05168093 0.03651594
VERTEX2 456 11.00793237 -6.04262947 -0.02794706
VERTEX2 457 11.36387660 -6.06265936 -0.11553316
VERTEX2 458 11.36091820 -6.06121314 -0.76111348
VERTEX2 459 11.35227787 -6.02735907 -1.36901941
VERTEX2 460 11.33484390 -6.42600960 -1.62584371
VERTEX2 461 11.27129759 -7.04294321 -1.71365299
VERTEX2 462 11.18818174 -7.55285981 -1.75354447
VERTEX2 463 11.19960897 -7.52999316 -0.91291196
VERTEX2 464 11.45763192 -7.60091513 -0.23449761
VERTEX2 465 12.03681693 -7.72729956 -0.22685851
VERTEX2 466 12.58589308 -7.87205081 -0.28261676
VERTEX2 467 13.15260603 -8.04707907 -0.32619536
VERTEX2 468 13.76405555 -8.25874005 -0.36127745
VERTEX2 469 14.35335332 -8.51747471 -0.44369064
VERTEX2 470 14.80504799 -8.72710254 -0.42431207
VERTEX2 471 14.80971369 -8.72957466 -0.62340916
VERTEX2 472 14.82671822 -8.75281048 -1.25457213
VERTEX2 473 14.82885385 -8.76274892 -1.89364451
VERTEX2 474 14.82240555 -8.77106847 -2.52348086
VERTEX2 475 14.81687930 -8.77186907 -3.09651433
VERTEX2 476 14.81488027 -8.77161024 2.53610479
VERTEX2 477 14.82152711 -8.78421238 1.97674452
VERTEX2 478 14.82280999 -8.79855296 1.34986747
VERTEX2 479 14.82755337 -8.78727710 0.89309870
VERTEX2 480 14.83607240 -8.76778938 1.45222186
VERTEX2 481 14.83000225 -8.74238597 2.45067579
VERTEX2 482 14.84041377 -8.74654131 2.78558785
VERTEX2 483 14.85367247 -8.75087026 2.77949943
VERTEX2 484 14.43414426 -8.59495486 2.81431087
VERTEX2 485 13.83278857 -8.40294426 2.81070273
VERTEX2 486 13.22754440 -8.18541870 2.81905978
VERTEX2 487 12.61599267 -8.00134266 2.84626586
VERTEX2 488 12.01256090 -7.82081053 2.88346238
VERTEX2 489 11.54998546 -7.71404209 2.91491545
VERTEX2 490 11.55652379 -7.71340878 -2.88099572
VERTEX2 491 11.55760142 -7.71196190 -1.94129715
VERTEX2 492 11.54080922 -7.95703122 -1.63668308
VERTEX2 493 11.48126039 -8.57720568 -1.69069941
VERTEX2 494 11.39645165 -9.20452706 -1.75060214
VERTEX2 495 11.33200100 -9.83103192 -1.64326685
VERTEX2 496 11.29357331 -10.45490685 -1.52533525
VERTEX2 497 11.29200925 -11.07238558 -1.61122141
VERTEX2 498 11.22899868 -11.69322819 -1.71289230
VERTEX2 499 11.10436082 -12.31897726 -1.72981630
VERTEX2 500 11.16723201 -12.88354920 -1.40099689
VERTEX2 501 11.24632196 -13.45925506 -1.47338987
VERTEX2 502 11.27581838 -14.15169690 -1.55816798
VERTEX2 503 11.27476015 -14.59812690 -1.57511948
VERTEX2 504 11.27900733 -14.58583284 -0.71829996
VERTEX2 505 11.51995932 -14.61130046 -0.09570612
VERTEX2 506 12.11449652 -14.68753778 -0.24807306
VERTEX2 507 12.69705637 -14.85159219 -0.32652164
VERTEX2 508 13.26703364 -15.05703775 -0.33974568
VERTEX2 509 13.88718711 -15.28393789 -0.39533049
VERTEX2 510 14.24312396 -15.43868156 -0.40894805
VERTEX2 511 14.24037190 -15.41448374 0.46776081
VERTEX2 512 14.26428606 -15.36249744 1.66758848
VERTEX2 513 14.25850816 -15.34627189 2.62466760
VERTEX2 514 14.18977692 -15.32808806 2.85141015
VERTEX2 515 13.57831958 -15.15718625 2.85210313
VERTEX2 516 12.99223434 -14.97258263 2.86757501
VERTEX2 517 12.39895150 -14.83362020 2.89532934
VERTEX2 518 11.80601048 -14.69125402 2.91924387
VERTEX2 519 11.28397935 -14.57489484 2.90312421
VERTEX2 520 11.11740827 -14.53388908 -2.98253364
VERTEX2 521 11.14058083 -14.50778990 -1.98152453
VERTEX2 522 11.07892139 -14.90507847 -1.71795725
VERTEX2 523 10.99359103 -15.52427979 -1.72516219
VERTEX2 524 10.89555224 -16.09730739 -1.76691705
VERTEX2 525 10.79718580 -16.63846664 -1.74312444
VERTEX2 526 10.68695658 -17.20640437 -1.80178088
VERTEX2 527 10.54547202 -17.78462339 -1.83647045
VERTEX2 528 10.36640832 -18.35907927 -1.91282822
VERTEX2 529 10.15875381 -18.96482494 -1.94136910
VERTEX2 530 9.91572938 -19.56818689 -1.97168962
VERTEX2 531 9.65282001 -20.14167152 -2.05152098
VERTEX2 532 9.55840178 -20.32450939 -2.00092579
VERTEX2 533 9.55060361 -20.28815549 -1.00473135
VERTEX2 534 9.54354940 -20.28352270 -0.33989536
VERTEX2 535 9.54392146 -20.28204282 -0.34098976
VERTEX2 536 9.89987360 -20.36453884 -0.21126911
VERTEX2 537 10.50560526 -20.51080026 -0.27020755
VERTEX2 538 11.06326929 -20.67812103 -0.29827724
VERTEX2 539 11.66793009 -20.88521711 -0.36416027
VERTEX2 540 12.24948549 -21.13614342 -0.45832128
VERTEX2 541 12.83177354 -21.36309269 -0.29758289
VERTEX2 542 13.46114209 -21.50646208 -0.24324124
VERTEX2 543 13.57554613 -21.53584955 -0.27253926
VERTEX2 544 13.59016611 -21.53442925 0.36548015
VERTEX2 545 13.61332579 -21.49274042 1.43338938
VERTEX2 546 13.62886067 -21.53347915 2.26168103
VERTEX2 547 13.63036207 -21.53340568 -2.99821003
VERTEX2 548 13.64309262 -21.52522026 -2.07406993
VERTEX2 549 13.64461045 -21.51471950 -1.26637659
VERTEX2 550 13.64337421 -21.49439038 -1.74548954
VERTEX2 551 13.65140248 -21.47796867 -2.37101619
VERTEX2 552 13.67173887 -21.46773975 -3.00344499
VERTEX2 553 13.54117056 -21.41845255 2.70247889
VERTEX2 554 12.95858082 -21.14141000 2.66738401
VERTEX2 555 12.38876086 -20.87361136 2.75668308
VERTEX2 556 11.79510695 -20.66195579 2.89226391
VERTEX2 557 11.19545571 -20.49452569 2.85151180
VERTEX2 558 10.62003299 -20.34108381 2.93305061
VERTEX2 559 10.62875795 -20.34396098 2.52698106
VERTEX2 560 10.62138682 -20.33585326 2.02707092
VERTEX2 561 10.59805315 -20.31358548 2.53291366
VERTEX2 562 10.42451256 -20.31506847 -3.10591143
VERTEX2 563 9.85823533 -20.24284957 2.98569131
VERTEX2 564 9.25989987 -20.15852750 3.03457545
VERTEX2 565 8.66475079 -20.09291616 2.97700408
VERTEX2 566 8.72887330 -20.11215648 -2.52276912
VERTEX2 567 8.63921836 -20.11966348 -1.72979841
VERTEX2 568 8.59291799 -20.62887345 -1.66607934
VERTEX2 569 8.54688899 -21.20451080 -1.70534923
VERTEX2 570 8.48347182 -21.78517732 -1.70068595
VERTEX2 571 8.43427223 -22.13927154 -1.74867480
VERTEX2 572 8.40106147 -22.16397867 -1.99263427
VERTEX2 573 8.36718214 -22.24236469 -1.71713842
VERTEX2 574 8.39016172 -22.27424413 -0.77836021
VERTEX2 575 8.53936519 -22.32161998 0.14730174
VERTEX2 576 8.54543893 -22.32634581 1.17585342
VERTEX2 577 8.54029437 -22.31321148 2.14892727
VERTEX2 578 8.53182500 -22.28586175 1.78522560
VERTEX2 579 8.39854710 -21.63497467 1.80000130
VERTEX2 580 8.22869721 -20.99708849 1.87489225
VERTEX2 581 8.02663983 -20.37585500 1.91705762
VERTEX2 582 7.79747628 -19.76422002 1.96000061
VERTEX2 583 7.66389089 -19.45788280 2.03917607
VERTEX2 584 7.65860848 -19.44792735 2.88245189
VERTEX2 585 7.07832736 -19.31559184 3.00066868
VERTEX2 586 6.48869518 -19.24839181 3.09817476
VERTEX2 587 5.87502732 -19.24447076 3.12356080
VERTEX2 588 5.25018835 -19.22575110 3.12802062
VERTEX2 589 4.71480986 -19.25619761 -3.07996507
VERTEX2 590 4.16877174 -19.30594593 -3.01138325
VERTEX2 591 3.63341309 -19.39015899 -3.01340543
VERTEX2 592 3.08901697 -19.46986784 -3.01625702
VERTEX2 593 2.91477913 -19.49362471 -2.81119898
VERTEX2 594 2.95997978 -19.44372114 -1.88904478
VERTEX2 595 2.85493394 -20.05014484 -1.65633777
VERTEX2 596 2.81057932 -20.67572084 -1.68018494
VERTEX2 597 2.72721837 -21.35185387 -1.72091806
VERTEX2 598 2.63126245 -21.94951390 -1.76330834
VERTEX2 599 2.54740645 -22.32582557 -1.82973556
VERTEX2 600 2.54773519 -22.34057307 -1.02398541
VERTEX2 601 2.58945315 -22.36574484 -0.00690060
VERTEX2 602 2.62719162 -22.35019800 1.00605843
VERTEX2 603 2.59168591 -22.11994443 1.77970017
VERTEX2 604 2.52679910 -21.51242356 1.53606117
VERTEX2 605 2.53049720 -20.86496979 1.61862405
VERTEX2 606 2.48489240 -20.21848377 1.66069708
VERTEX2 607 2.49128060 -19.62880400 1.57968493
VERTEX2 608 2.47507863 -19.24345560 1.62418650
VERTEX2 609 2.47131788 -19.22239362 1.96055517
VERTEX2 610 2.46620052 -19.22058922 2.89332988
VERTEX2 611 1.87269245 -19.07571988 2.89638021
VERTEX2 612 1.40211236 -18.94568345 2.89927902
VERTEX2 613 1.44065834 -18.95712116 -2.91970613
VERTEX2 614 1.44324675 -18.95513487 -1.88228604
VERTEX2 615 1.45918348 -19.45229427 -1.57798626
VERTEX2 616 1.46916649 -20.07006473 -1.62859914
VERTEX2 617 1.33386965 -20.67659458 -1.84534474
VERTEX2 618 1.16714936 -21.28640348 -1.83490884
VERTEX2 619 1.01003530 -21.85771821 -1.83604242
VERTEX2 620 0.83049271 -22.43359574 -1.93185402
VERTEX2 621 0.95732107 -22.09917517 -1.98304895
VERTEX2 622 1.07919834 -21.83388567 -2.05771713
VERTEX2 623 1.07901840 -21.83413508 -2.59410299
VERTEX2 624 1.04962743 -21.83405334 3.04727787
VERTEX2 625 1.00772140 -21.81749539 2.38955649
VERTEX2 626 0.97903508 -21.78507786 1.77229267
VERTEX2 627 1.04900595 -21.41197267 1.36201780
VERTEX2 628 1.22326931 -20.78331994 1.26129749
VERTEX2 629 1.39041222 -20.15404579 1.33241473
VERTEX2 630 1.51152718 -19.54493997 1.41745870
VERTEX2 631 1.57976960 -19.01421029 1.43755418
VERTEX2 632 1.58244735 -18.99757482 2.11341987
VERTEX2 633 1.48544794 -18.99182117 -3.08342402
VERTEX2 634 0.81882816 -19.03492723 -3.05602911
VERTEX2 635 0.17280594 -19.05153845 3.09235569
VERTEX2 636 -0.46199048 -19.02934484 3.07494817
VERTEX2 637 -1.08353267 -18.96193495 2.97586092
VERTEX2 638 -1.46792344 -18.88731861 2.94647285
VERTEX2 639 -2.07633215 -18.79118890 3.02684454
VERTEX2 640 -2.68896145 -18.68895187 2.95896779
VERTEX2 641 -3.28699913 -18.58491365 2.95063909
VERTEX2 642 -3.85330219 -18.45622436 2.90544831
VERTEX2 643 -4.33235418 -18.32571818 2.83797312
VERTEX2 644 -4.33305197 -18.32590248 -2.68848258
VERTEX2 645 -4.36741061 -18.46680437 -1.90998285
VERTEX2 646 -4.49530645 -19.06919249 -1.61419385
VERTEX2 647 -4.44408890 -19.70679301 -1.32499700
VERTEX2 648 -4.21290733 -20.32935561 -1.15849760
VERTEX2 649 -4.03163916 -20.92518159 -1.49589538
VERTEX2 650 -4.12485972 -21.55373552 -1.75396073
VERTEX2 651 -4.14054728 -21.69805819 -0.95609279
VERTEX2 652 -4.08418194 -21.72281305 0.06684165
VERTEX2 653 -4.04829016 -21.69003424 1.09814629
VERTEX2 654 -4.05991753 -21.39550521 1.61166982
VERTEX2 655 -4.07566630 -20.84441038 1.60677747
VERTEX2 656 -4.08080152 -20.24480264 1.59422090
VERTEX2 657 -4.19388329 -19.63432463 1.87091027
VERTEX2 658 -4.38910882 -19.02189664 1.86367144
VERTEX2 659 -4.50774554 -18.53244233 1.79242807
VERTEX2 660 -4.51036545 -18.51994003 2.39235021
VERTEX2 661 -4.69298055 -18.50144508 3.04623818
VERTEX2 662 -5.28420886 -18.44785826 3.11612530
VERTEX2 663 -5.86871846 -18.46784220 -3.06573647
VERTEX2 664 -5.87444732 -18.46644442 -2.54256280
VERTEX2 665 -5.88936847 -18.56754722 -1.70845825
VERTEX2 666 -5.95403330 -19.17179164 -1.67129654
VERTEX2 667 -6.00461744 -19.73387551 -1.66667637
VERTEX2 668 -6.06126208 -20.32343411 -1.64091961
VERTEX2 669 -6.10342506 -20.95062883 -1.66606122
VERTEX2 670 -6.19673898 -21.57050670 -1.72555187
VERTEX2 671 -6.24149322 -21.86479903 -1.67058274
VERTEX2 672 -6.14586591 -21.28440168 -1.75970958
VERTEX2 673 -6.08272625 -21.01839830 -1.89027788
VERTEX2 674 -6.07067717 -21.00542116 -2.53845451
VERTEX2 675 -6.04749241 -21.00027020 3.13608118
VERTEX2 676 -6.04062843 -21.00419204 2.51271271
VERTEX2 677 -6.03519803 -21.01152142 1.89684051
VERTEX2 678 -6.00954748 -20.79057364 1.45087472
VERTEX2 679 -5.95139534 -20.21236994 1.51344128
VERTEX2 680 -5.98331423 -19.76587384 1.85830166
VERTEX2 681 -6.14105223 -19.17695845 1.83078456
VERTEX2 682 -6.31901635 -18.57372236 1.87845707
VERTEX2 683 -6.41376062 -18.29333359 2.03761357
VERTEX2 684 -6.35939615 -18.34766378 3.11759383
VERTEX2 685 -6.76213328 -18.51307810 -2.72182509
VERTEX2 686 -7.20829455 -18.65474959 -2.86601215
VERTEX2 687 -7.80146152 -18.81247510 -2.90097632
VERTEX2 688 -8.39817847 -18.93920926 -2.91271045
VERTEX2 689 -8.96113493 -19.08451171 -2.88501168
VERTEX2 690 -9.49542115 -19.25955842 -2.81080878
VERTEX2 691 -9.88932165 -19.39549322 -2.83881471
VERTEX2 692 -9.87503848 -19.38895976 -2.30457825
VERTEX2 693 -9.85090901 -19.46228192 -1.26418898
VERTEX2 694 -9.82558358 -19.53530503 -0.42874115
VERTEX2 695 -9.80679635 -19.52974405 0.37124014
VERTEX2 696 -9.79604216 -19.52251231 1.39721252
VERTEX2 697 -9.80538119 -19.55449498 1.14441566
VERTEX2 698 -9.47911887 -19.34268551 0.48967651
VERTEX2 699 -8.92105489 -19.02384072 0.60370871
VERTEX2 700 -8.41313023 -18.65660293 0.65721726
VERTEX2 701 -7.98429216 -18.28929775 0.71634892
VERTEX2 702 -7.51012555 -17.96932068 0.60113055
VERTEX2 703 -7.00308308 -17.62768051 0.63531709
VERTEX2 704 -6.51486978 -17.24047595 0.65341367
VERTEX2 705 -6.00871893 -16.81421452 0.72366253
VERTEX2 706 -5.58234138 -16.49174316 0.45466407
VERTEX2 707 -5.55915840 -16.49025335 -0.06562173
VERTEX2 708 -5.55205492 -16.49424890 -0.70415822
VERTEX2 709 -5.59177895 -16.45234992 -1.03619879
VERTEX2 710 -5.59609397 -16.44152818 -1.59724628
VERTEX2 711 -5.58583937 -16.45059347 -2.19389916
VERTEX2 712 -5.56500703 -16.43427325 -2.75426113
VERTEX2 713 -6.03628483 -16.48958384 -3.03957122
VERTEX2 714 -6.58869104 -16.47038229 3.04612575
VERTEX2 715 -7.21764718 -16.43954600 -3.13350961
VERTEX2 716 -7.85365770 -16.42372101 3.01161928
VERTEX2 717 -8.47851057 -16.36179142 3.09634793
VERTEX2 718 -9.24494540 -16.25024124 2.92096900
VERTEX2 719 -9.86623237 -16.14049268 2.99545551
VERTEX2 720 -10.48332988 -16.03362889 2.93628963
VERTEX2 721 -11.10542047 -15.92337406 3.00456734
VERTEX2 722 -11.12500712 -15.92078712 3.07132546
VERTEX2 723 -11.14294718 -15.93969660 -2.12166418
VERTEX2 724 -11.14259183 -15.98493885 -1.05368849
VERTEX2 725 -11.11193986 -16.00512137 -0.41986497
VERTEX2 726 -10.78281146 -15.99819218 0.03393247
VERTEX2 727 -10.14209828 -15.95450057 0.06448992
VERTEX2 728 -9.49846166 -15.92524602 0.06570745
VERTEX2 729 -8.85770398 -15.85964576 0.12316591
VERTEX2 730 -8.23296014 -15.76264025 0.16066250
VERTEX2 731 -7.58438770 -15.65638308 0.17230383
VERTEX2 732 -7.44182695 -15.62659071 0.61775364
VERTEX2 733 -7.44223185 -15.62594835 1.61245561
VERTEX2 734 -7.50394149 -15.06601385 1.69004391
VERTEX2 735 -7.56772618 -14.45970730 1.65754084
VERTEX2 736 -7.56881358 -14.44429580 2.25592775
VERTEX2 737 -7.55838927 -14.44563579 3.05562500
VERTEX2 738 -8.13354801 -14.40669599 3.07434385
VERTEX2 739 -8.73233800 -14.31357231 3.01632688
VERTEX2 740 -9.23338963 -14.27421616 3.07929979
VERTEX2 741 -9.21581023 -14.27400591 2.71084702
VERTEX2 742 -9.21391511 -14.27533634 2.05864255
VERTEX2 743 -9.21420569 -14.27408163 1.44238982
VERTEX2 744 -9.20771570 -14.25911060 0.90353414
VERTEX2 745 -9.19279639 -14.25124717 0.31059269
VERTEX2 746 -8.65176823 -14.26777547 -0.16376980
VERTEX2 747 -8.00659152 -14.37992019 -0.19874216
VERTEX2 748 -7.42905571 -14.52022690 -0.26674248
VERTEX2 749 -7.34562018 -14.54059615 0.16307234
VERTEX2 750 -7.33923279 -14.52864688 1.09128434
VERTEX2 751 -7.37479338 -14.26263262 1.73235679
VERTEX2 752 -7.43744855 -13.64397220 1.62935604
VERTEX2 753 -7.48047710 -13.00968343 1.69285249
VERTEX2 754 -7.49393741 -12.37347535 1.53106795
VERTEX2 755 -7.48115516 -11.72875292 1.61760303
VERTEX2 756 -7.44993256 -11.09111770 1.44195768
VERTEX2 757 -7.38309336 -10.45320481 1.55380025
VERTEX2 758 -7.40955196 -9.88177320 1.69597633
VERTEX2 759 -7.40520978 -9.34311053 1.57556323
VERTEX2 760 -7.44991205 -8.74317205 1.68695779
VERTEX2 761 -7.45215455 -8.71615663 1.86735484
VERTEX2 762 -7.52541726 -8.68439497 2.70392179
VERTEX2 763 -8.10012715 -8.58888557 2.99782299
VERTEX2 764 -8.52043374 -8.52316411 2.97095047
VERTEX2 765 -8.51552110 -8.52299635 -2.67240410
VERTEX2 766 -8.51759031 -8.53008500 -1.67228213
VERTEX2 767 -8.51119710 -8.54561940 -0.74161010
VERTEX2 768 -8.48140979 -8.54702241 -0.01939611
VERTEX2 769 -7.84473402 -8.44863646 0.13744376
VERTEX2 770 -7.19053924 -8.37998636 0.07026828
VERTEX2 771 -7.09969762 -8.37111483 0.63064887
VERTEX2 772 -7.09709225 -8.36243208 1.49804677
VERTEX2 773 -7.08115761 -7.78836740 1.58369697
VERTEX2 774 -7.10061873 -7.24625594 1.60566155
VERTEX2 775 -7.09865956 -7.25428026 2.45011661
VERTEX2 776 -7.30793593 -7.23147855 3.06717025
VERTEX2 777 -7.92158808 -7.19710048 3.12604763
VERTEX2 778 -8.53451181 -7.19376165 3.10494219
VERTEX2 779 -9.14644252 -7.17898040 3.12310168
VERTEX2 780 -9.35114947 -7.16350251 2.99294855
VERTEX2 781 -9.34655809 -7.16508799 2.41966781
VERTEX2 782 -9.47874632 -6.88982793 1.99023729
VERTEX2 783 -9.72127655 -6.31386913 1.98972195
VERTEX2 784 -9.82492993 -6.08328578 1.96849460
VERTEX2 785 -9.82642412 -6.05098939 1.41675685
VERTEX2 786 -9.81646928 -6.01696283 0.82867966
VERTEX2 787 -9.79902037 -5.99872338 0.33791702
VERTEX2 788 -9.77160974 -6.00030482 -0.29133423
VERTEX2 789 -9.75882323 -6.01013479 -0.84371333
VERTEX2 790 -9.44611123 -6.40589791 -0.91105536
VERTEX2 791 -9.03443956 -6.88729761 -0.81255372
VERTEX2 792 -8.79070779 -7.10061203 -0.10839099
VERTEX2 793 -8.17438965 -7.14797730 -0.06374860
VERTEX2 794 -7.53500912 -7.17201890 0.00739221
VERTEX2 795 -7.56618163 -7.19536605 0.43642266
VERTEX2 796 -7.57917223 -7.20078020 1.09528902
VERTEX2 797 -7.50951972 -6.90218360 1.35517489
VERTEX2 798 -7.38070632 -6.28467226 1.40556233
VERTEX2 799 -7.29942796 -5.64928116 1.47152641
VERTEX2 800 -7.25080096 -5.01185865 1.54465408
VERTEX2 801 -7.26613296 -4.38617149 1.63060177
VERTEX2 802 -7.32393926 -3.76695811 1.68830472
VERTEX2 803 -7.31114783 -3.14457686 1.52361491
VERTEX2 804 -7.29542816 -2.52343490 1.57948335
VERTEX2 805 -7.33263115 -1.89909859 1.65571340
VERTEX2 806 -7.39605884 -1.30668535 1.69705720
VERTEX2 807 -7.42242967 -1.13623136 1.98464503
VERTEX2 808 -7.42848186 -1.13613759 2.93164357
VERTEX2 809 -8.02113806 -1.11025343 3.07587906
VERTEX2 810 -8.63618026 -0.98998488 2.93522323
VERTEX2 811 -9.23275138 -0.88099810 2.93155232
VERTEX2 812 -9.23416575 -0.88074038 -2.62138229
VERTEX2 813 -9.24439199 -0.90362558 -1.64819101
VERTEX2 814 -9.23691249 -0.90956393 -0.65813182
VERTEX2 815 -9.21291989 -0.91771819 0.26211556
VERTEX2 816 -9.19985380 -0.91061389 0.94398321
VERTEX2 817 -9.18060402 -0.89855094 0.27707925
VERTEX2 818 -8.95626632 -0.93250894 -0.21038136
VERTEX2 819 -8.37157075 -1.05701510 -0.19570412
VERTEX2 820 -7.78441694 -1.18522319 -0.23638747
VERTEX2 821 -7.24483703 -1.31225121 -0.22009240
VERTEX2 822 -7.20339339 -1.31837030 0.54206278
VERTEX2 823 -7.20313611 -1.31436313 1.46196333
VERTEX2 824 -7.14381013 -0.70299425 1.38279700
VERTEX2 825 -7.00375100 -0.08149941 1.35312780
VERTEX2 826 -6.95017631 0.54816654 1.51606565
VERTEX2 827 -6.88975433 1.16959352 1.46741087
VERTEX2 828 -6.83903501 1.79839451 1.50293553
VERTEX2 829 -6.78186886 2.39832948 1.46316352
VERTEX2 830 -6.71084512 3.00369478 1.45482106
VERTEX2 831 -6.62054503 3.57756821 1.40800468
VERTEX2 832 -6.53334441 4.14183569 1.40448689
VERTEX2 833 -6.49064887 4.39821001 1.54220608
VERTEX2 834 -6.49266880 4.40521699 2.59707622
VERTEX2 835 -6.50439809 4.40649593 -2.90828621
VERTEX2 836 -6.51544203 4.39705077 -1.96503638
VERTEX2 837 -6.51197231 4.37874257 -0.92846926
VERTEX2 838 -6.50242376 4.37288166 -0.06601130
VERTEX2 839 -6.50404086 4.37364393 -0.28416986
VERTEX2 840 -6.49514956 4.36677348 -0.84664151
VERTEX2 841 -6.48877176 4.35417533 -1.46353787
VERTEX2 842 -6.51302736 4.11061133 -1.69425811
VERTEX2 843 -6.58737118 3.54726612 -1.69693176
VERTEX2 844 -6.65842572 2.92202738 -1.70509403
VERTEX2 845 -6.74809598 2.29710214 -1.71995530
VERTEX2 846 -6.82993380 1.66805996 -1.71835635
VERTEX2 847 -6.93578559 1.04658559 -1.74523275
VERTEX2 848 -6.96523727 0.85152470 -1.26499503
VERTEX2 849 -6.96565076 0.85169134 -0.34315959
VERTEX2 850 -6.61145487 0.85033612 0.01006667
VERTEX2 851 -5.98507789 0.82805630 -0.08254455
VERTEX2 852 -5.36140883 0.77057646 -0.06822645
VERTEX2 853 -4.76623591 0.73170129 -0.09615684
VERTEX2 854 -4.17880774 0.66750766 -0.09417436
VERTEX2 855 -3.58346824 0.62034534 -0.09592897
VERTEX2 856 -2.93146063 0.53888646 -0.13694489
VERTEX2 857 -2.28065818 0.45353528 -0.14681073
VERTEX2 858 -1.63631347 0.33564763 -0.20169121
VERTEX2 859 -1.12001742 0.23505441 -0.20889152
VERTEX2 860 -1.09321588 0.24621299 0.64027130
VERTEX2 861 -1.07727834 0.36077712 1.55325262
VERTEX2 862 -1.03875628 1.02242912 1.49411463
VERTEX2 863 -0.98267119 1.66126591 1.46197978
VERTEX2 864 -0.89736574 2.26631527 1.46020255
VERTEX2 865 -0.85762315 2.87223681 1.51821856
VERTEX2 866 -0.81465306 3.45270391 1.51745030
VERTEX2 867 -0.80787073 3.61101840 1.69917179
VERTEX2 868 -0.81194559 3.61605914 2.72528575
VERTEX2 869 -0.80355810 3.61620264 -2.57967778
VERTEX2 870 -0.78789881 3.62472621 -1.58032868
VERTEX2 871 -0.77298299 3.61473081 -0.60677892
VERTEX2 872 -0.75432910 3.60140549 0.07838439
VERTEX2 873 -0.72730056 3.59255044 -0.49426696
VERTEX2 874 -0.70565783 3.57318828 -1.05395465
VERTEX2 875 -0.69881766 3.55729734 -1.64055214
VERTEX2 876 -0.81653093 2.99907835 -1.79815600
VERTEX2 877 -0.96533752 2.45927916 -1.88323401
VERTEX2 878 -1.01427725 2.26235786 -1.50103231
VERTEX2 879 -0.91108512 1.62580822 -1.45041868
VERTEX2 880 -0.87429533 1.17876605 -1.56358312
VERTEX2 881 -0.87480809 1.23075579 -1.55862467
VERTEX2 882 -0.92976314 0.58974018 -1.80514423
VERTEX2 883 -1.14359247 -0.00506877 -1.99590700
VERTEX2 884 -1.29992964 -0.33423707 -2.06281592
VERTEX2 885 -1.30007326 -0.33094057 -1.48110185
VERTEX2 886 -1.28394177 -0.34598313 -0.46281057
VERTEX2 887 -1.25536696 -0.35701558 0.54878103
VERTEX2 888 -1.24374582 -0.33240569 1.53311652
VERTEX2 889 -1.24622921 -0.32528317 2.43139802
VERTEX2 890 -1.56240690 -0.17365940 2.70542588
VERTEX2 891 -2.10071014 0.09142252 2.63519442
VERTEX2 892 -2.63578462 0.40916624 2.59972414
VERTEX2 893 -3.18996556 0.70317258 2.83616877
VERTEX2 894 -3.80263578 0.81212402 3.05739348
VERTEX2 895 -4.40040948 0.76121428 -2.92731804
VERTEX2 896 -4.42004508 0.75644059 -2.44868580
VERTEX2 897 -4.70300802 0.33392960 -2.17630337
VERTEX2 898 -5.04858060 -0.17015432 -2.16070947
VERTEX2 899 -5.32939994 -0.57466449 -2.22832079
VERTEX2 900 -5.73710829 -1.11446672 -2.23055160
VERTEX2 901 -6.10355823 -1.55518274 -2.29470270
VERTEX2 902 -6.51447122 -2.04336502 -2.26921169
VERTEX2 903 -6.82564015 -2.41890320 -2.31378883
VERTEX2 904 -6.82563413 -2.41895454 -1.61048969
VERTEX2 905 -6.81025743 -2.90234058 -1.55494667
VERTEX2 906 -6.77479419 -3.46359029 -1.48912053
VERTEX2 907 -6.71734429 -4.02762783 -1.49717717
VERTEX2 908 -6.66882128 -4.64340571 -1.47232136
VERTEX2 909 -6.60620047 -5.24923627 -1.49015962
VERTEX2 910 -6.63221626 -5.37347389 -1.85989465
VERTEX2 911 -6.78832431 -5.94012666 -1.79891586
VERTEX2 912 -6.90566089 -6.49921727 -1.78620265
VERTEX2 913 -7.01414726 -7.03624570 -1.77815591
VERTEX2 914 -7.13627869 -7.61963392 -1.80167350
VERTEX2 915 -7.25607072 -8.12418931 -1.83822287
VERTEX2 916 -7.19228999 -8.36065072 -1.29030670
VERTEX2 917 -7.05099638 -9.00166927 -1.54443831
VERTEX2 918 -7.06776273 -9.51394927 -1.61974516
VERTEX2 919 -7.09712724 -10.13223941 -1.66282613
VERTEX2 920 -7.15707026 -10.74141355 -1.68016611
VERTEX2 921 -7.22563813 -11.35200270 -1.73322046
VERTEX2 922 -7.32313674 -11.95165497 -1.76013329
VERTEX2 923 -7.43823368 -12.51444464 -1.82324821
VERTEX2 924 -7.56508337 -13.00404588 -1.80652714
VERTEX2 925 -7.56737245 -12.99335166 -1.30160223
VERTEX2 926 -7.40440037 -13.54818077 -1.28531812
VERTEX2 927 -7.23430555 -14.13152493 -1.30853998
VERTEX2 928 -7.07297470 -14.73036697 -1.31738647
VERTEX2 929 -6.91675294 -15.33181310 -1.31814643
VERTEX2 930 -6.76457020 -15.95590956 -1.40028015
VERTEX2 931 -6.67261382 -16.58053577 -1.48067736
VERTEX2 932 -6.62079167 -17.20659078 -1.54025742
VERTEX2 933 -6.61187175 -17.81883209 -1.60497360
VERTEX2 934 -6.62219418 -18.29947902 -1.61488756
VERTEX2 935 -6.61924649 -18.31256932 -0.93308499
VERTEX2 936 -6.61966445 -18.31242605 0.01189193
VERTEX2 937 -6.07856209 -18.28258132 0.07470294
VERTEX2 938 -5.48342237 -18.29345374 -0.09879912
VERTEX2 939 -4.86388854 -18.34753946 -0.07108790
VERTEX2 940 -4.25970486 -18.41674566 -0.15684537
VERTEX2 941 -3.66222000 -18.52579392 -0.21039897
VERTEX2 942 -3.14341270 -18.63639924 -0.20581907
VERTEX2 943 -2.53390025 -18.76410871 -0.11745584
VERTEX2 944 -1.91460240 -18.84174415 -0.17399859
VERTEX2 945 -1.29719490 -18.96361640 -0.22908942
VERTEX2 946 -1.12794272 -19.00520736 -0.16474814
VERTEX2 947 -0.71879287 -18.93838601 0.16344589
VERTEX2 948 -0.14703941 -18.84388397 0.14423486
VERTEX2 949 0.45378568 -18.80402514 -0.01158813
VERTEX2 950 1.08044630 -18.83440036 -0.25137777
VERTEX2 951 1.67669774 -19.00005216 -0.32377548
VERTEX2 952 2.27354942 -19.16997138 -0.07277140
VERTEX2 953 2.89645146 -19.19690833 0.00768208
VERTEX2 954 3.52011570 -19.18461824 0.00084632
VERTEX2 955 4.10854227 -19.22520947 -0.15976136
VERTEX2 956 4.65820173 -19.29874588 -0.16191561
VERTEX2 957 5.18839921 -19.38992916 -0.24945376
VERTEX2 958 5.65306645 -19.49720749 -0.27604392
VERTEX2 959 6.06763316 -19.60519309 -0.34286235
VERTEX2 960 6.65179094 -19.76123909 -0.26279916
VERTEX2 961 7.22871444 -19.92848696 -0.28967956
VERTEX2 962 7.84050797 -20.05006738 -0.22388843
VERTEX2 963 8.45396390 -20.12458939 -0.03693378
VERTEX2 964 9.07823470 -20.16038205 -0.10113926
VERTEX2 965 9.69907911 -20.23406688 -0.10826416
VERTEX2 966 10.14090993 -20.28801916 -0.16712773
VERTEX2 967 10.17429119 -20.28089654 0.68589983
VERTEX2 968 10.18225414 -20.27322091 1.58224949
VERTEX2 969 10.18495109 -20.30148575 1.64159546
VERTEX2 970 10.18777873 -20.32997344 1.63975517
VERTEX2 971 10.16403925 -19.99750084 1.63977951
VERTEX2 972 10.11961211 -19.41193546 1.64528346
VERTEX2 973 10.19332715 -18.82954982 1.36008019
VERTEX2 974 10.32663469 -18.22692955 1.39174752
VERTEX2 975 10.43211663 -17.62052443 1.39620129
VERTEX2 976 10.53090805 -17.01155013 1.40894165
VERTEX2 977 10.66001793 -16.39388305 1.38258322
VERTEX2 978 10.77452123 -15.78247893 1.42845146
VERTEX2 979 10.88295063 -15.17493642 1.41605808
VERTEX2 980 10.97445516 -14.57054754 1.46283061
VERTEX2 981 11.05705198 -13.97670255 1.46957594
VERTEX2 982 11.10796698 -13.44948538 1.51434050
VERTEX2 983 11.15158198 -12.85152851 1.51086614
VERTEX2 984 11.17292305 -12.25626205 1.56813058
VERTEX2 985 11.17799835 -11.66021458 1.58831514
VERTEX2 986 11.15713198 -11.04082630 1.62454858
VERTEX2 987 11.13861782 -10.42289411 1.58775009
VERTEX2 988 11.13556220 -9.80513995 1.60135787
VERTEX2 989 11.11610070 -9.19553143 1.60904988
VERTEX2 990 11.10442485 -8.58905724 1.59836466
VERTEX2 991 11.08431803 -7.97941635 1.62334023
VERTEX2 992 11.07456938 -7.39556232 1.59085130
VERTEX2 993 11.05598885 -6.77948809 1.62359763
VERTEX2 994 11.03501573 -6.19433140 1.61371566
VERTEX2 995 11.00038911 -5.63257534 1.66134478
VERTEX2 996 10.93873497 -5.05530648 1.68891770
VERTEX2 997 10.89048133 -4.43923016 1.62499221
VERTEX2 998 10.86860002 -4.06504126 1.64730729
VERTEX2 999 10.91513960 -4.10186188 2.36605366
VERTEX2 1000 10.46592969 -3.76062682 2.51463161
VERTEX2 1001 10.03870961 -3.38028012 2.19356190
VERTEX2 1002 9.68437894 -2.93495631 2.28617613
VERTEX2 1003 9.35147050 -2.47078665 2.10606616
VERTEX2 1004 9.00844972 -1.93980541 2.16399675
VERTEX2 1005 8.65146122 -1.45131048 2.22612562
VERTEX2 1006 8.25285958 -0.97937141 2.30319634
VERTEX2 1007 7.83823191 -0.55945911 2.39454705
VERTEX2 1008 7.60285868 -0.34890011 2.55371336
VERTEX2 1009 7.50576129 -0.33506231 3.02631413
VERTEX2 1010 6.93962791 -0.28384739 3.07874577
VERTEX2 1011 6.31727430 -0.24914583 3.03566677
VERTEX2 1012 5.70560375 -0.19053172 3.07750407
VERTEX2 1013 5.07469519 -0.19803074 -3.09101881
VERTEX2 1014 4.46592146 -0.15489254 3.01657358
VERTEX2 1015 3.84532466 -0.12022516 3.10082986
VERTEX2 1016 3.08024781 -0.08798076 3.10740861
VERTEX2 1017 2.50322878 -0.07846497 3.05015833
VERTEX2 1018 1.95253549 -0.02089668 3.05739248
VERTEX2 1019 1.36572762 -0.00036320 3.11690114
VERTEX2 1020 0.74991903 0.03154492 3.10280197
VERTEX2 1021 0.12828998 0.05663443 3.06204993
VERTEX2 1022 0.07125824 0.06097642 3.05482253
VERTEX2 1023 0.07509959 0.06092958 3.14141452
VERTEX2 1024 -0.55487985 0.06493795 -3.11541899
VERTEX2 1025 -1.18633432 0.03049763 -3.09780635
VERTEX2 1026 -1.35037011 0.02384887 -3.09058666
VERTEX2 1027 -1.33383802 0.03208811 -2.17389421
VERTEX2 1028 -1.34554373 -0.12952581 -1.61079546
VERTEX2 1029 -1.37084680 -0.69067803 -1.63247682
VERTEX2 1030 -1.43080047 -1.31579027 -1.71243561
VERTEX2 1031 -1.53965139 -1.96506798 -1.76615574
VERTEX2 1032 -1.66620635 -2.61448842 -1.76172563
VERTEX2 1033 -1.80558030 -3.26277015 -1.80646574
VERTEX2 1034 -1.84963637 -3.43679608 -2.01968329
VERTEX2 1035 -1.85521819 -3.44157931 -2.63792332
VERTEX2 1036 -1.82037059 -3.45723537 3.07545608
VERTEX2 1037 -2.16178720 -3.33140694 2.83756390
VERTEX2 1038 -2.77476013 -3.21604737 2.92915906
VERTEX2 1039 -3.41524504 -3.05390880 2.89796224
VERTEX2 1040 -3.39020214 -3.05419988 -2.75422393
VERTEX2 1041 -3.36202131 -3.05751603 -1.73573334
VERTEX2 1042 -3.36335748 -3.09111797 -0.74632720
VERTEX2 1043 -3.32940013 -3.12135797 0.22471269
VERTEX2 1044 -3.33711099 -3.13086189 1.21821920
VERTEX2 1045 -3.33428077 -3.12432947 1.10392905
VERTEX2 1046 -3.33909756 -3.13105396 0.71705219
VERTEX2 1047 -3.35060498 -3.13629284 0.15957952
VERTEX2 1048 -2.98967920 -3.19962583 -0.15467302
VERTEX2 1049 -2.35196054 -3.28750343 -0.13837739
VERTEX2 1050 -1.71222091 -3.34859246 -0.06372388
VERTEX2 1051 -1.05427578 -3.41503908 -0.14284001
VERTEX2 1052 -0.43180602 -3.48887547 -0.08990915
VERTEX2 1053 -0.01619433 -3.53842536 -0.14255893
VERTEX2 1054 0.00741100 -3.54065338 0.61950203
VERTEX2 1055 0.01356304 -3.51029494 1.67310254
VERTEX2 1056 0.02123089 -3.52122874 2.67627409
VERTEX2 1057 0.04363136 -3.52351634 -2.61620301
VERTEX2 1058 0.04114316 -3.52648462 -1.69415613
VERTEX2 1059 -0.05178006 -4.10428620 -1.77507002
VERTEX2 1060 -0.18310121 -4.73001649 -1.77018985
VERTEX2 1061 -0.28736745 -5.17682469 -1.89308847
VERTEX2 1062 -0.29441889 -5.18778432 -2.45723614
VERTEX2 1063 -0.27595952 -5.17706638 -3.05487922
VERTEX2 1064 -0.55332270 -5.12683331 2.96308260
VERTEX2 1065 -1.13860698 -5.06414596 3.08504539
VERTEX2 1066 -1.69944407 -5.01586125 3.02890778
VERTEX2 1067 -1.68363816 -5.01493852 -2.82165338
VERTEX2 1068 -1.66530782 -5.00189458 -2.14923807
VERTEX2 1069 -1.66315017 -4.99593856 -1.97903172
VERTEX2 1070 -1.65904158 -4.98858253 -2.51871743
VERTEX2 1071 -2.12650495 -5.24515698 -2.64630442
VERTEX2 1072 -2.57241773 -5.47810457 -2.71528844
VERTEX2 1073 -2.54194188 -5.47719863 3.05609273
VERTEX2 1074 -3.07175195 -5.40718966 3.02144596
VERTEX2 1075 -3.64919031 -5.33277876 3.03774887
VERTEX2 1076 -3.66266046 -5.33193915 -2.84173572
VERTEX2 1077 -3.67243008 -5.35060415 -2.03689800
VERTEX2 1078 -3.90736542 -5.95561812 -1.99195996
VERTEX2 1079 -4.13674580 -6.51748183 -1.93007345
VERTEX2 1080 -4.13937329 -6.52453345 -2.41820899
VERTEX2 1081 -4.56815906 -6.81825287 -2.54151460
VERTEX2 1082 -4.73958323 -6.93817351 -2.26097777
VERTEX2 1083 -4.73530816 -6.97072716 -1.23114384
VERTEX2 1084 -4.66776396 -7.00540801 -0.26589833
VERTEX2 1085 -4.67293723 -7.00679743 0.71791074
VERTEX2 1086 -4.31742293 -6.52359947 0.94869687
VERTEX2 1087 -3.94263082 -6.02240647 0.93684664
VERTEX2 1088 -3.58654133 -5.51718728 0.92034155
VERTEX2 1089 -3.52917653 -5.44295059 0.82465590
VERTEX2 1090 -3.51620399 -5.43109238 0.20906727
VERTEX2 1091 -2.97276707 -5.39898060 0.03193320
VERTEX2 1092 -2.35707065 -5.38433155 0.01642238
VERTEX2 1093 -1.79401667 -5.38781500 -0.04922489
VERTEX2 1094 -1.78011260 -5.40112708 -0.45590497
VERTEX2 1095 -1.74885552 -5.42911917 -1.04897680
VERTEX2 1096 -1.74924086 -5.42734580 -1.62281352
VERTEX2 1097 -1.83632921 -5.75261786 -1.83981073
VERTEX2 1098 -2.02146321 -6.34823339 -1.89781097
VERTEX2 1099 -2.23257311 -6.89639243 -1.99640300
VERTEX2 1100 -2.23441709 -6.90085414 -1.63719815
VERTEX2 1101 -2.18265493 -7.15815386 -1.37465320
VERTEX2 1102 -2.18255862 -7.15726994 -1.77245700
VERTEX2 1103 -2.32470092 -7.75273056 -1.80849296
VERTEX2 1104 -2.47970987 -8.37377623 -1.83842602
VERTEX2 1105 -2.65257973 -8.97985803 -1.85852278
VERTEX2 1106 -2.79194092 -9.44108879 -1.88599868
VERTEX2 1107 -2.79187097 -9.44248678 -1.63323127
VERTEX2 1108 -2.78682952 -10.06217632 -1.62757574
VERTEX2 1109 -2.86803454 -10.69319581 -1.73393681
VERTEX2 1110 -2.97082862 -11.28698111 -1.78562673
VERTEX2 1111 -3.16472262 -11.79858205 -1.88927186
VERTEX2 1112 -3.22888199 -12.36521038 -1.54634425
VERTEX2 1113 -3.22982443 -12.99484755 -1.64402628
VERTEX2 1114 -3.27362239 -13.59983305 -1.62894863
VERTEX2 1115 -3.30412839 -14.17206731 -1.64709215
VERTEX2 1116 -3.33075533 -14.80975389 -1.61284178
VERTEX2 1117 -3.33381083 -14.90228845 -1.74282573
VERTEX2 1118 5.51440681 -8.13002754 -3.07004149
VERTEX2 1119 4.67770158 -7.37407139 1.67234216
VERTEX2 1120 4.66108207 -6.76163790 1.60649417
VERTEX2 1121 4.65804812 -6.54723938 1.48545576
VERTEX2 1122 1.57690013 -1.11875390 -2.99733681
VERTEX2 1123 1.00405758 -1.19300569 -2.98174149
VERTEX2 1124 0.40725074 -1.33226432 -2.88726710
VERTEX2 1125 -0.25098962 -1.50337611 -2.87759245
VERTEX2 1126 -0.37192826 -1.53876009 -2.54465966
VERTEX2 1127 12.71775965 -6.45776404 -1.44687054
VERTEX2 1128 12.73452078 -6.51675352 -0.45716097
VERTEX2 1129 12.73018679 -6.51669376 0.56050671
VERTEX2 1130 13.17160526 -6.22268838 0.57492225
VERTEX2 1131 13.87100511 -5.99398765 0.14499439
VERTEX2 1132 14.47812680 -5.91069242 0.12643992
VERTEX2 1133 15.05191138 -5.85951069 0.08612871
VERTEX2 1134 15.30893772 -5.83761834 -0.01267207
VERTEX2 1135 4.60394640 0.37011386 -1.03074293
VERTEX2 1136 -2.71454976 -15.36493344 -1.60461962
VERTEX2 1137 -2.76794670 -15.67342475 -1.79038230
VERTEX2 1138 -2.92256874 -16.31358163 -1.80786840
VERTEX2 1139 -3.04084964 -16.80624845 -1.88509888
VERTEX2 1140 -2.68521634 -16.80752891 1.55422684
VERTEX2 1141 -2.90182550 -16.71526892 -2.86964691
VERTEX2 1142 -3.28522591 -16.68421586 3.04313350
VERTEX2 1143 -3.90237313 -16.65526119 3.12884982
VERTEX2 1144 -4.49572249 -16.63603724 3.09453563
VERTEX2 1145 -5.08764010 -16.60319482 3.06532410
VERTEX2 1146 -5.67771328 -16.55607451 3.08146602
VERTEX2 1147 -6.26917857 -16.55496938 -3.13296210
VERTEX2 1148 -6.84943535 -16.55913155 -3.12247066
VERTEX2 1149 -6.89427054 -16.56106760 -2.62411179
VERTEX2 1150 -6.98195990 -16.66061938 -1.81886930
VERTEX2 1151 -6.97829504 -16.68022568 -0.81336276
VERTEX2 1152 -6.95898165 -16.68034692 0.23943928
VERTEX2 1153 -6.94331800 -16.67306936 1.25192710
VERTEX2 1154 -7.00495121 -16.35881790 1.79779948
VERTEX2 1155 -7.14291473 -15.73777858 1.74838302
VERTEX2 1156 -7.24437581 -15.13592758 1.75778309
VERTEX2 1157 -7.37475473 -14.56958739 1.86817001
VERTEX2 1158 -7.50417634 -13.97198268 1.73889298
VERTEX2 1159 -7.56693829 -13.37828580 1.64416697
VERTEX2 1160 -7.59199842 -12.74671076 1.50674242
VERTEX2 1161 -7.49514895 -12.11911724 1.41650832
VERTEX2 1162 -7.40553101 -11.48619635 1.47470067
VERTEX2 1163 -7.34504856 -10.84315747 1.46937373
VERTEX2 1164 -7.29897171 -10.20248680 1.55502518
VERTEX2 1165 -7.29088880 -9.65997023 1.53225378
VERTEX2 1166 -7.29234994 -9.65301950 2.02133483
VERTEX2 1167 -7.24374399 -9.64089708 2.95821444
VERTEX2 1168 -7.20168814 -9.62386909 -2.42129494
VERTEX2 1169 -7.20514156 -9.67275325 -1.59911052
VERTEX2 1170 -7.21153840 -10.25613055 -1.59232093
VERTEX2 1171 -7.20723508 -10.88813985 -1.56047735
VERTEX2 1172 -7.20775420 -11.48399613 -1.62267740
VERTEX2 1173 -7.23351273 -12.10506198 -1.61330913
VERTEX2 1174 -7.27298633 -12.73161172 -1.68173909
VERTEX2 1175 -7.35456113 -13.34392941 -1.71485930
VERTEX2 1176 -7.44619895 -13.95847456 -1.75846739
VERTEX2 1177 -7.55979466 -14.56123821 -1.75635901
VERTEX2 1178 -7.68477122 -15.16805020 -1.80350029
VERTEX2 1179 -7.81615533 -15.76682718 -1.77408239
VERTEX2 1180 -7.86871859 -16.02225089 -1.78109860
VERTEX2 1181 -7.86809674 -16.01767733 -0.95377168
VERTEX2 1182 -7.81461911 -16.03081155 -0.24217241
VERTEX2 1183 -7.20200942 -16.17462185 -0.21690120
VERTEX2 1184 -6.57050467 -16.28428944 -0.14742069
VERTEX2 1185 -5.94395028 -16.38959342 -0.17973991
VERTEX2 1186 -5.31397540 -16.47947575 -0.11362963
VERTEX2 1187 -4.66176207 -16.55987842 -0.15080345
VERTEX2 1188 -4.03608537 -16.64488274 -0.13278102
VERTEX2 1189 -3.36117823 -16.74939917 -0.11128448
VERTEX2 1190 -3.01881273 -16.78842344 -0.10343163
VERTEX2 1191 -2.97736823 -16.78721310 0.81624661
VERTEX2 1192 -2.97283520 -16.71357201 1.61339550
VERTEX2 1193 -2.97041142 -16.12408760 1.48121562
VERTEX2 1194 -2.93374996 -15.55953212 1.52315501
VERTEX2 1195 -2.90992430 -14.94601847 1.57540939
VERTEX2 1196 -2.90838932 -14.33279470 1.40268885
VERTEX2 1197 -2.81058432 -13.72631601 1.41392810
VERTEX2 1198 -2.74534511 -13.10565325 1.67241862
VERTEX2 1199 -2.76659061 -12.50049238 1.45740975
VERTEX2 1200 -2.71418718 -11.87676307 1.52618230
VERTEX2 1201 -2.69351545 -11.26375310 1.58178193
VERTEX2 1202 -2.70758178 -10.65071897 1.60449477
VERTEX2 1203 -2.74119932 -10.07078997 1.51430350
VERTEX2 1204 -2.63179774 -9.48695423 1.36722856
VERTEX2 1205 -2.52809607 -8.93238235 1.39667373
VERTEX2 1206 -2.44698475 -8.35095666 1.45776347
VERTEX2 1207 -2.31456962 -7.74787767 1.37151394
VERTEX2 1208 -2.20664580 -7.13128296 1.43604438
VERTEX2 1209 -2.12469588 -6.52473698 1.43390323
VERTEX2 1210 -2.06419386 -5.92246822 1.45425308
VERTEX2 1211 -1.94333037 -5.31689621 1.38195468
VERTEX2 1212 -1.83378876 -4.71125194 1.43242280
VERTEX2 1213 -1.77158757 -4.10223496 1.50608738
VERTEX2 1214 -1.69619560 -3.38122248 1.28377562
VERTEX2 1215 -1.53907714 -2.80466718 1.34300349
VERTEX2 1216 -1.49399007 -2.25580513 1.56049183
VERTEX2 1217 -1.46528620 -1.67976144 1.54121938
VERTEX2 1218 -1.45576877 -1.06882717 1.49127485
VERTEX2 1219 -1.40922288 -0.39875027 1.52256598
VERTEX2 1220 -1.40753901 0.20905607 1.61408083
VERTEX2 1221 -1.41060878 0.21896665 1.16389087
VERTEX2 1222 -1.38402461 0.24555917 0.56970265
VERTEX2 1223 -1.35907333 0.25189515 0.01249650
VERTEX2 1224 -0.78463986 0.17082147 -0.16922451
VERTEX2 1225 -0.16865782 0.07027687 -0.15463805
VERTEX2 1226 -0.06799870 0.05450296 -0.17084434
VERTEX2 1227 -0.07274029 0.05584490 -0.17099763
