VERTEX2 0 0.00001218 -0.00000076 0.00000028
VERTEX2 1 0.00001218 -0.00000076 -0.00064172
VERTEX2 2 0.00001219 -0.00000076 -0.00117972
VERTEX2 3 0.01101404 -0.00097574 -0.00356172
VERTEX2 4 0.63655247 -0.01127990 -0.00770063
VERTEX2 5 0.68707123 -0.01176678 -0.09928532
VERTEX2 6 0.69043896 -0.01471438 -0.89737815
VERTEX2 7 0.68471364 0.00318773 -1.51357957
VERTEX2 8 0.68905997 0.02143964 -2.12777728
VERTEX2 9 0.70165835 0.03217079 -2.76653143
VERTEX2 10 0.70959557 0.03343868 2.90145865
VERTEX2 11 0.71213871 0.03180891 2.22646567
VERTEX2 12 0.71216466 0.02949136 1.57629861
VERTEX2 13 0.71640562 0.04260126 0.91609848
VERTEX2 14 0.73276211 0.05393930 0.30720013
VERTEX2 15 0.73696775 0.05419806 -0.21832039
VERTEX2 16 1.02678768 -0.00745349 -0.23727092
VERTEX2 17 1.62330213 -0.15863881 -0.26875109
VERTEX2 18 2.24192692 -0.32622894 -0.27915716
VERTEX2 19 2.86442072 -0.52831848 -0.32796522
VERTEX2 20 3.45587305 -0.72322929 -0.32204624
VERTEX2 21 4.06298527 -0.88060258 -0.21047382
VERTEX2 22 4.67101488 -1.02696999 -0.19307805
VERTEX2 23 5.30968224 -1.07661793 -0.08564838
VERTEX2 24 5.93980337 -1.15315154 -0.14270242
VERTEX2 25 6.57326640 -1.22620131 -0.13993465
VERTEX2 26 7.18109883 -1.33190109 -0.18048356
VERTEX2 27 7.79595254 -1.42847859 -0.16467114
VERTEX2 28 8.37645255 -1.53205697 -0.16913844
VERTEX2 29 8.75472955 -1.59271865 -0.13839206
VERTEX2 30 8.76364646 -1.59517159 -0.67056909
VERTEX2 31 8.86335615 -1.73137203 -0.93896565
VERTEX2 32 9.22675155 -2.24898859 -0.95752804
VERTEX2 33 9.60673009 -2.76175064 -0.90673981
VERTEX2 34 10.01611411 -3.25835700 -0.88572024
VERTEX2 35 10.43568741 -3.74726497 -0.85148696
VERTEX2 36 10.86184268 -4.23743207 -0.86008452
VERTEX2 37 11.14307644 -4.55679777 -0.85242794
VERTEX2 38 11.14412900 -4.55822770 -1.17381723
VERTEX2 39 11.14354574 -4.55521796 -1.34454485
VERTEX2 40 11.28478699 -5.13314066 -1.32710615
VERTEX2 41 11.43149737 -5.73621405 -1.35890744
VERTEX2 42 11.55090501 -6.30250612 -1.38142927
VERTEX2 43 11.65345091 -6.89433149 -1.42188284
VERTEX2 44 11.73903019 -7.48501966 -1.45912895
VERTEX2 45 11.78981618 -8.10360904 -1.51482804
VERTEX2 46 11.81649942 -8.72415959 -1.53438002
VERTEX2 47 11.83222592 -9.34450380 -1.57622428
VERTEX2 48 11.82425581 -9.96916147 -1.58292379
VERTEX2 49 11.81247274 -10.58974655 -1.63391566
VERTEX2 50 11.75478563 -11.17774748 -1.67856159
VERTEX2 51 11.69599188 -11.76806959 -1.70799209
VERTEX2 52 11.59559520 -12.34434583 -1.78512468
VERTEX2 53 11.49241991 -12.89494639 -1.77314598
VERTEX2 54 11.37666865 -13.39943017 -1.83564895
VERTEX2 55 11.38498964 -13.36130852 -1.83074292
VERTEX2 56 11.38360941 -13.36646814 -1.81997714
VERTEX2 57 11.23372675 -13.98608445 -1.83121047
VERTEX2 58 11.08144913 -14.59388537 -1.78484302
VERTEX2 59 10.94661860 -15.20168933 -1.80831669
VERTEX2 60 10.81127125 -15.80583271 -1.78685913
VERTEX2 61 10.67016740 -16.41032716 -1.83755171
VERTEX2 62 10.51546640 -16.96772641 -1.79765507
VERTEX2 63 10.35895729 -17.52989475 -1.83311553
VERTEX2 64 10.21903501 -18.08689457 -1.76971164
VERTEX2 65 10.07959354 -18.64171063 -1.82113086
VERTEX2 66 9.92088448 -19.22614680 -1.82918123
VERTEX2 67 9.75037740 -19.81390802 -1.82778507
VERTEX2 68 9.63673495 -20.25867940 -1.84361445
VERTEX2 69 9.64047211 -20.24689940 -1.99862167
VERTEX2 70 9.64785494 -20.23309256 -2.67305169
VERTEX2 71 9.66727048 -20.23216192 2.96739733
VERTEX2 72 9.68036851 -20.23397293 2.95796942
VERTEX2 73 9.68835246 -20.23602612 2.89308693
VERTEX2 74 9.68954239 -20.23683232 2.27144327
VERTEX2 75 9.69702716 -20.23984042 1.91919840
VERTEX2 76 9.68656414 -20.22801173 2.61325581
VERTEX2 77 9.68312912 -20.22652901 2.84629562
VERTEX2 78 9.40162312 -20.23462950 -3.09965585
VERTEX2 79 8.78310765 -20.26778147 -3.10487803
VERTEX2 80 8.15139325 -20.26059683 3.10382404
VERTEX2 81 7.52772536 -20.22844122 3.07785008
VERTEX2 82 6.92832109 -20.18139092 3.02404367
VERTEX2 83 6.33941223 -20.12390217 3.00088121
VERTEX2 84 5.77484966 -20.03163640 2.92358695
VERTEX2 85 5.22839924 -19.92104542 2.93146134
VERTEX2 86 4.61705194 -19.79445337 2.84177252
VERTEX2 87 4.24611990 -19.69414147 2.78763448
VERTEX2 88 3.89615332 -19.56057721 2.75786669
VERTEX2 89 3.90459765 -19.56107790 -3.12962559
VERTEX2 90 3.29808029 -19.55890234 3.12241818
VERTEX2 91 2.68089531 -19.54896789 -3.11173368
VERTEX2 92 2.07970448 -19.53946212 3.05576125
VERTEX2 93 1.45903746 -19.43117866 2.95487207
VERTEX2 94 0.83935705 -19.28707493 2.91205030
VERTEX2 95 0.21658822 -19.19333361 3.05472113
VERTEX2 96 -0.39534082 -19.13648592 3.07881797
VERTEX2 97 -0.98665070 -19.06796932 3.00822162
VERTEX2 98 -1.57568950 -18.96143342 2.95023394
VERTEX2 99 -2.28109773 -18.83053711 2.99699185
VERTEX2 100 -2.84604130 -18.71718926 2.94518583
VERTEX2 101 -3.45889203 -18.65485938 3.04833400
VERTEX2 102 -4.07207353 -18.56879233 2.94247962
VERTEX2 103 -4.67985094 -18.44829301 3.03844534
VERTEX2 104 -5.29227814 -18.36625769 3.00476208
VERTEX2 105 -5.90509120 -18.29605392 3.05128255
VERTEX2 106 -6.50718899 -18.21997354 2.99636128
VERTEX2 107 -7.12462923 -18.11799140 2.99248198
VERTEX2 108 -7.57930239 -18.06454042 3.05401318
VERTEX2 109 -7.62539819 -18.05236726 2.60543250
VERTEX2 110 -7.64323897 -18.03352601 2.01399447
VERTEX2 111 -7.64257912 -17.95049718 1.50805714
VERTEX2 112 -7.61205953 -17.31470920 1.56243010
VERTEX2 113 -7.62374054 -16.69582141 1.60948122
VERTEX2 114 -7.65019852 -16.08526322 1.64629223
VERTEX2 115 -7.71653263 -15.44647068 1.70641098
VERTEX2 116 -7.82706562 -14.69684827 1.75036993
VERTEX2 117 -7.95591868 -14.08723267 1.84579391
VERTEX2 118 -7.95988670 -14.06861497 1.51096662
VERTEX2 119 -7.89927016 -13.55340538 1.45760866
VERTEX2 120 -7.84046793 -12.90005052 1.54774076
VERTEX2 121 -7.84521845 -12.28311038 1.61527321
VERTEX2 122 -7.87402153 -11.70925271 1.67151296
VERTEX2 123 -7.89721474 -11.53102889 1.65880531
VERTEX2 124 -7.80898267 -11.29251983 1.23590152
VERTEX2 125 -7.58804736 -10.70139983 1.22494239
VERTEX2 126 -7.45080822 -10.08401074 1.43136393
VERTEX2 127 -7.34862647 -9.45096052 1.42986849
VERTEX2 128 -7.26875070 -8.81338717 1.46637789
VERTEX2 129 -7.17811114 -8.17983090 1.43379775
VERTEX2 130 -7.10641116 -7.54787983 1.48652992
VERTEX2 131 -7.05656282 -6.92126205 1.57504172
VERTEX2 132 -7.03480553 -6.30361552 1.52544061
VERTEX2 133 -6.98393993 -5.73505871 1.48867288
VERTEX2 134 -6.92591402 -5.13760473 1.47051577
VERTEX2 135 -6.83993014 -4.56076791 1.44436665
VERTEX2 136 -6.76192178 -3.92952585 1.46406637
VERTEX2 137 -6.66163878 -3.30074742 1.42229605
VERTEX2 138 -6.58204673 -2.67270039 1.50255515
VERTEX2 139 -6.56175447 -2.04058739 1.56788743
VERTEX2 140 -6.58640276 -1.38326422 1.59843076
VERTEX2 141 -6.58874689 -0.74152445 1.54999791
VERTEX2 142 -6.58533552 -0.09015590 1.54615295
VERTEX2 143 -6.50043485 0.54924820 1.43555871
VERTEX2 144 -6.45836299 0.92186385 1.45305060
VERTEX2 145 -6.45256287 0.93907575 0.95454309
VERTEX2 146 -6.45065394 0.94849556 0.36165807
VERTEX2 147 -6.39180774 0.94408754 -0.12457113
VERTEX2 148 -5.95746626 0.88175154 -0.16008379
VERTEX2 149 -5.31755533 0.78541987 -0.13494410
VERTEX2 150 -4.68388790 0.71841274 -0.12075796
VERTEX2 151 -4.05729558 0.66982233 -0.03447410
VERTEX2 152 -3.43467427 0.63290024 -0.09521604
VERTEX2 153 -2.81232197 0.59868175 -0.00165889
VERTEX2 154 -2.19344730 0.57629227 -0.07108874
VERTEX2 155 -1.57086023 0.54153098 -0.03757142
VERTEX2 156 -0.94569132 0.52588077 -0.00675879
VERTEX2 157 -0.38422870 0.50705681 -0.07106692
VERTEX2 158 -0.18997773 0.49277045 -0.04357207
VERTEX2 159 -0.18464891 0.49104696 0.94375606
VERTEX2 160 -0.17920859 0.49987139 1.97943491
VERTEX2 161 -0.20183160 0.44136105 2.70044971
VERTEX2 162 -0.17619206 0.44694423 -2.54693535
VERTEX2 163 -0.17722008 0.44197768 -1.54985419
VERTEX2 164 -0.25456868 0.53976331 -0.48739911
VERTEX2 165 -0.08250126 0.52122057 -0.07962296
VERTEX2 166 0.61307648 0.47230569 -0.07792360
VERTEX2 167 1.22805786 0.41699829 -0.10721078
VERTEX2 168 1.81449032 0.36299158 -0.09514606
VERTEX2 169 2.40775761 0.28670813 -0.13202097
VERTEX2 170 2.99232455 0.21375061 -0.15262210
VERTEX2 171 3.55166691 0.11099455 -0.19089307
VERTEX2 172 4.17465116 -0.00139774 -0.17681804
VERTEX2 173 4.80563916 -0.12777524 -0.19952308
VERTEX2 174 5.42818838 -0.24690881 -0.15952570
VERTEX2 175 6.04189779 -0.34197262 -0.18434319
VERTEX2 176 6.63861934 -0.46696794 -0.17483867
VERTEX2 177 7.25932413 -0.57477912 -0.20258714
VERTEX2 178 7.87788501 -0.72567987 -0.24168510
VERTEX2 179 8.27991490 -0.81280097 -0.18837740
VERTEX2 180 8.32935629 -0.82656887 -0.63046479
VERTEX2 181 8.76701049 -1.14873223 -0.68228166
VERTEX2 182 9.17022991 -1.51252883 -0.85635001
VERTEX2 183 9.51357105 -1.93677117 -0.91374023
VERTEX2 184 9.85535150 -2.46298963 -1.05902467
VERTEX2 185 10.14122732 -3.01203805 -1.15054138
VERTEX2 186 10.36138042 -3.59282684 -1.21597283
VERTEX2 187 10.55743071 -4.15134222 -1.23775830
VERTEX2 188 10.76040685 -4.72935779 -1.24238842
VERTEX2 189 10.95620705 -5.31126862 -1.26831860
VERTEX2 190 11.13569301 -5.91493558 -1.29737277
VERTEX2 191 11.30471140 -6.51794232 -1.32169509
VERTEX2 192 11.45474578 -7.11442593 -1.35027192
VERTEX2 193 11.57422564 -7.66230946 -1.40619815
VERTEX2 194 11.66984653 -8.23128238 -1.43313489
VERTEX2 195 11.74586034 -8.79402634 -1.46201563
VERTEX2 196 11.80792978 -9.41875120 -1.50294034
VERTEX2 197 11.84125904 -10.03933453 -1.53056534
VERTEX2 198 11.86180183 -10.65726423 -1.58889075
VERTEX2 199 11.82912723 -11.26444507 -1.65045377
VERTEX2 200 11.77740100 -11.86635382 -1.67246086
VERTEX2 201 11.70194408 -12.46469643 -1.72925561
VERTEX2 202 11.63429714 -12.96780578 -1.70933462
VERTEX2 203 11.52677593 -13.69932049 -1.76234828
VERTEX2 204 11.40032991 -14.27328116 -1.86437988
VERTEX2 205 11.22642436 -14.83271346 -1.87383338
VERTEX2 206 11.06777900 -15.37722382 -1.87193439
VERTEX2 207 10.90323413 -15.94139455 -1.85599910
VERTEX2 208 10.72474629 -16.53810679 -1.86543971
VERTEX2 209 10.55745308 -17.13633464 -1.82723884
VERTEX2 210 10.38887903 -17.72724291 -1.83593468
VERTEX2 211 10.23439971 -18.32192804 -1.83349684
VERTEX2 212 10.05246701 -18.90625723 -1.88613060
VERTEX2 213 9.85197862 -19.49432158 -1.90668709
VERTEX2 214 9.64688038 -20.06888437 -1.91026541
VERTEX2 215 9.52900139 -20.39042807 -1.94580366
VERTEX2 216 9.54179239 -20.36893858 -2.44514214
VERTEX2 217 9.57099801 -20.36606799 -2.98802095
VERTEX2 218 9.58039883 -20.36977205 -3.04389812
VERTEX2 219 9.01416594 -20.32065958 3.07096104
VERTEX2 220 8.40520679 -20.27122312 3.03122246
VERTEX2 221 7.76832568 -20.20001268 3.08186763
VERTEX2 222 7.14447017 -20.15274274 3.05644206
VERTEX2 223 6.51976099 -20.11882494 -3.13030295
VERTEX2 224 5.90610438 -20.11514523 3.12715978
VERTEX2 225 5.28899637 -20.10514857 -3.10629386
VERTEX2 226 4.67283359 -20.09444292 3.12779434
VERTEX2 227 4.02587147 -20.15916099 -2.99863761
VERTEX2 228 3.50221981 -20.13980314 2.92307940
VERTEX2 229 3.06003618 -20.09950259 3.04353255
VERTEX2 230 2.76926908 -20.08138929 3.01476855
VERTEX2 231 2.97325747 -20.10081982 3.08488333
VERTEX2 232 2.66560119 -19.95980358 2.65919095
VERTEX2 233 2.10459496 -19.69523855 2.76156231
VERTEX2 234 1.53111145 -19.46445648 2.71744021
VERTEX2 235 1.28349870 -19.35529317 2.71247904
VERTEX2 236 0.94755390 -19.35389249 3.11798021
VERTEX2 237 0.31800634 -19.36411572 -3.09481058
VERTEX2 238 -0.30432571 -19.40802663 -3.12756502
VERTEX2 239 -0.92204090 -19.40039475 3.08794958
VERTEX2 240 -1.49101966 -19.27805068 2.86975815
VERTEX2 241 -2.03078954 -19.14221533 2.95487210
VERTEX2 242 -2.60576478 -19.07193575 2.99441332
VERTEX2 243 -3.20711526 -18.98320857 2.99371704
VERTEX2 244 -3.83245488 -18.93187227 3.06502561
VERTEX2 245 -4.44837724 -18.87747747 3.01079113
VERTEX2 246 -5.05126275 -18.78576307 2.93837086
VERTEX2 247 -5.65556878 -18.69782203 3.04425479
VERTEX2 248 -6.21036216 -18.67120384 3.07563413
VERTEX2 249 -6.16229767 -18.67888429 -3.01465598
VERTEX2 250 -6.15960845 -18.67880010 2.68151339
VERTEX2 251 -6.47913485 -18.33549966 2.25812954
VERTEX2 252 -6.83141488 -17.91205930 2.26665560
VERTEX2 253 -7.19969520 -17.46298080 2.25568601
VERTEX2 254 -7.56132884 -17.00178047 2.21449741
VERTEX2 255 -7.63361429 -16.90830878 2.29837079
VERTEX2 256 -7.63589464 -16.83149549 1.82237077
VERTEX2 257 -7.68337771 -16.37175248 1.68681210
VERTEX2 258 -7.76173538 -15.78143068 1.76733489
VERTEX2 259 -7.89935869 -15.17779599 1.80800445
VERTEX2 260 -8.02766429 -14.61854257 1.79969423
VERTEX2 261 -8.02534608 -14.58523661 1.48817031
VERTEX2 262 -7.95695667 -13.93841450 1.49479810
VERTEX2 263 -7.90966457 -13.32473448 1.50821008
VERTEX2 264 -7.88943067 -12.72068461 1.60531592
VERTEX2 265 -7.91595629 -12.11414218 1.62561497
VERTEX2 266 -7.86293985 -11.53466035 1.49659342
VERTEX2 267 -7.80490238 -10.78322689 1.46723492
VERTEX2 268 -7.66684081 -10.17889428 1.35710848
VERTEX2 269 -7.54114989 -9.56396555 1.38699084
VERTEX2 270 -7.46322647 -8.93792316 1.50099282
VERTEX2 271 -7.36214981 -8.31387192 1.39046057
VERTEX2 272 -7.27220117 -7.69509378 1.45562596
VERTEX2 273 -7.27638382 -7.06374268 1.66780037
VERTEX2 274 -7.33879852 -6.44533212 1.69183057
VERTEX2 275 -7.32127698 -5.83723463 1.52043543
VERTEX2 276 -7.30896426 -5.22998689 1.63501174
VERTEX2 277 -7.35076071 -4.66455789 1.60950808
VERTEX2 278 -7.30174417 -4.02519794 1.52087941
VERTEX2 279 -7.25582063 -3.38479602 1.46580199
VERTEX2 280 -7.18159989 -2.74997643 1.46812295
VERTEX2 281 -7.08498087 -2.11349633 1.36802711
VERTEX2 282 -6.96025301 -1.48794136 1.40793497
VERTEX2 283 -6.86833477 -0.85546714 1.40016168
VERTEX2 284 -6.75154662 -0.23382022 1.42739662
VERTEX2 285 -6.67875148 0.41690112 1.44859537
VERTEX2 286 -6.60676691 1.03987065 1.50232427
VERTEX2 287 -6.60338182 1.09308229 1.39807871
VERTEX2 288 -6.59897749 1.10082089 0.78995390
VERTEX2 289 -6.59617378 1.10216495 0.19698882
VERTEX2 290 -6.15711885 1.08995670 -0.02783646
VERTEX2 291 -5.53566031 1.07728428 -0.01391136
VERTEX2 292 -4.92090915 1.05255317 -0.06857589
VERTEX2 293 -4.29789747 1.00223064 -0.09166555
VERTEX2 294 -3.67854766 0.94489569 -0.09101501
VERTEX2 295 -3.05889480 0.85945448 -0.20355299
VERTEX2 296 -2.44507405 0.70979392 -0.24900383
VERTEX2 297 -1.83352606 0.55321845 -0.26075569
VERTEX2 298 -1.22895991 0.39466947 -0.26167433
VERTEX2 299 -0.66100111 0.23403339 -0.20079767
VERTEX2 300 -0.07503171 0.14270824 -0.15854226
VERTEX2 301 0.48610403 0.03778901 -0.21766587
VERTEX2 302 0.78681977 -0.02994941 -0.23854136
VERTEX2 303 0.76866113 -0.02596491 -0.23437504
VERTEX2 304 1.26749766 -0.14612587 -0.22481910
VERTEX2 305 1.88289088 -0.19643290 -0.04098210
VERTEX2 306 2.51349854 -0.21337841 -0.05933090
VERTEX2 307 3.15172722 -0.26770831 -0.09606161
VERTEX2 308 3.77825578 -0.33698132 -0.15168491
VERTEX2 309 4.41212928 -0.40373713 -0.05880356
VERTEX2 310 5.03900184 -0.43999857 -0.09473726
VERTEX2 311 5.31928069 -0.46872399 0.08025673
VERTEX2 312 5.31619432 -0.47030309 1.06815182
VERTEX2 313 5.32269402 -0.25105305 1.56387950
VERTEX2 314 5.30836936 0.37817079 1.60367569
VERTEX2 315 5.28500645 1.00686204 1.59935725
VERTEX2 316 5.25065711 1.65031417 1.65077667
VERTEX2 317 5.19498093 2.29053778 1.66080001
VERTEX2 318 5.10178924 2.92636708 1.75544194
VERTEX2 319 5.02535255 3.27193181 1.82689480
VERTEX2 320 5.02703484 3.27702069 2.79582673
VERTEX2 321 5.01963017 3.27388999 -2.44718140
VERTEX2 322 5.02013389 3.27485261 -1.45124563
VERTEX2 323 5.02850133 3.26672425 -0.45985010
VERTEX2 324 5.03027751 3.26614568 0.19929909
VERTEX2 325 5.02938403 3.26608838 -0.32898660
VERTEX2 326 5.04231736 3.25624284 -0.92486897
VERTEX2 327 5.04513889 3.24251104 -1.54893648
VERTEX2 328 5.02436802 2.60647636 -1.59574752
VERTEX2 329 4.99761205 1.98361420 -1.65198399
VERTEX2 330 4.93882556 1.37175261 -1.67226132
VERTEX2 331 4.87914320 0.75857787 -1.68777960
VERTEX2 332 4.79501943 0.14226656 -1.70774540
VERTEX2 333 4.77171839 -0.01539552 -1.64425422
VERTEX2 334 4.78427653 -0.01298514 -0.85324486
VERTEX2 335 4.80311157 -0.01875630 0.13782748
VERTEX2 336 4.81565518 -0.01447850 1.07904816
VERTEX2 337 4.82027676 0.01277775 2.05811379
VERTEX2 338 4.81679514 0.01524272 3.04764158
VERTEX2 339 4.82762695 0.02183534 -2.18556736
VERTEX2 340 4.82780013 0.02039998 -1.16572746
VERTEX2 341 4.94104860 -0.04928983 -0.53205702
VERTEX2 342 5.51220602 -0.35928813 -0.43000203
VERTEX2 343 6.08925046 -0.56612379 -0.29862817
VERTEX2 344 6.67701005 -0.75495762 -0.30820851
VERTEX2 345 6.91463351 -0.82729291 -0.33500390
VERTEX2 346 6.90091641 -0.82266471 -0.98051594
VERTEX2 347 6.90257398 -0.91176951 -1.53762224
VERTEX2 348 6.91526665 -1.50318645 -1.55367624
VERTEX2 349 6.90757956 -2.12335194 -1.59324563
VERTEX2 350 6.88752302 -2.91201562 -1.61223344
VERTEX2 351 6.87086242 -3.18637136 -1.64055140
VERTEX2 352 6.86881019 -3.19575600 -1.92731779
VERTEX2 353 6.85648784 -3.21061298 -2.59017200
VERTEX2 354 6.84193887 -3.21465584 3.09200485
VERTEX2 355 6.82103078 -3.21375743 2.37376857
VERTEX2 356 6.81532384 -3.20348513 1.80080832
VERTEX2 357 6.81798947 -3.18829714 1.15025655
VERTEX2 358 6.81859279 -3.18748386 0.53721262
VERTEX2 359 6.80611323 -3.19271984 -0.07440342
VERTEX2 360 6.79093843 -3.18959769 -0.24942636
VERTEX2 361 6.78203750 -3.19185426 0.67336993
VERTEX2 362 6.86932600 -2.96000310 1.20902211
VERTEX2 363 6.97461924 -2.69104222 1.20334599
VERTEX2 364 6.90782077 -2.35404822 1.81995406
VERTEX2 365 6.85449573 -2.06413154 1.32453136
VERTEX2 366 6.96567849 -1.94023149 0.77222998
VERTEX2 367 7.41672847 -1.50698068 0.77502137
VERTEX2 368 7.87686574 -1.07408410 0.72712469
VERTEX2 369 7.89717247 -1.04995769 0.47536182
VERTEX2 370 7.92155615 -1.04626244 -0.11128851
VERTEX2 371 7.92734704 -1.04932650 -0.65665389
VERTEX2 372 8.35308801 -1.40115830 -0.68428877
VERTEX2 373 8.82241868 -1.76960272 -0.68226968
VERTEX2 374 9.29788440 -2.17636562 -0.74336889
VERTEX2 375 9.65470395 -2.49883104 -0.77418523
VERTEX2 376 9.66618964 -2.50597563 -0.08133519
VERTEX2 377 9.71659881 -2.47068618 0.61202446
VERTEX2 378 10.25462048 -2.07705567 0.66499753
VERTEX2 379 10.73714814 -1.65052267 0.74853396
VERTEX2 380 11.18024820 -1.18739319 0.86653810
VERTEX2 381 11.32765906 -1.00849401 1.01503784
VERTEX2 382 11.32894972 -1.00618621 2.06030897
VERTEX2 383 11.32559344 -1.00409505 3.04743175
VERTEX2 384 11.32313156 -1.00639446 -2.27176849
VERTEX2 385 11.31819027 -1.01456464 -1.24227076
VERTEX2 386 11.42174350 -1.15127303 -1.01753722
VERTEX2 387 11.87456725 -1.57726932 -0.68601961
VERTEX2 388 12.33275105 -1.93635088 -0.67934941
VERTEX2 389 12.76541201 -2.31444776 -0.76434245
VERTEX2 390 12.77515487 -2.32309988 -0.29481888
VERTEX2 391 12.58950802 -2.31334044 0.08037011
VERTEX2 392 12.53398901 -2.31342706 1.10872240
VERTEX2 393 12.53555821 -2.24746426 2.34340951
VERTEX2 394 12.46964646 -2.21928529 -2.95980361
VERTEX2 395 12.66339370 -2.12044786 -2.62746269
VERTEX2 396 12.64171791 -2.13114351 -2.63012464
VERTEX2 397 12.60378111 -2.13917193 -2.64377403
VERTEX2 398 12.58798591 -2.15194904 -2.45033496
VERTEX2 399 12.51224213 -2.25597112 -2.15624981
VERTEX2 400 12.14987979 -2.80422604 -2.10890554
VERTEX2 401 11.79799911 -3.33942116 -2.20323020
VERTEX2 402 11.31514068 -3.78716754 -2.47271572
VERTEX2 403 10.79588797 -4.18768554 -2.50825032
VERTEX2 404 10.28638886 -4.53764745 -2.58879417
VERTEX2 405 10.26888633 -4.55275640 -2.05799488
VERTEX2 406 10.26518451 -4.51372364 -1.08495359
VERTEX2 407 10.43986583 -4.76951687 -0.95864851
VERTEX2 408 10.75792920 -5.23527846 -0.99808204
VERTEX2 409 10.88561358 -5.44663504 -1.09929325
VERTEX2 410 10.87791307 -5.41280251 -1.73071144
VERTEX2 411 11.05371994 -4.97758643 -2.57390958
VERTEX2 412 10.50402844 -5.19762695 -2.77889196
VERTEX2 413 9.86882858 -5.41305916 -2.85998930
VERTEX2 414 9.22719925 -5.61700098 -2.75773934
VERTEX2 415 8.61876414 -5.85533483 -2.74974299
VERTEX2 416 8.32837053 -5.98451942 -2.80388626
VERTEX2 417 8.03870390 -5.96902318 3.05675315
VERTEX2 418 7.60314894 -5.92724116 3.01257371
VERTEX2 419 7.60449965 -5.92693888 -2.83775004
VERTEX2 420 7.65540716 -5.90414045 -2.62049646
VERTEX2 421 7.65735201 -5.90103220 -1.65200823
VERTEX2 422 7.65324037 -5.90681183 -0.41170944
VERTEX2 423 7.65253448 -5.90674750 -0.06571705
VERTEX2 424 7.64645115 -5.90661835 -0.06496493
VERTEX2 425 7.63616251 -5.91242494 -0.05284590
VERTEX2 426 7.62995389 -5.91236539 -0.06158178
VERTEX2 427 7.65628228 -5.91375051 -0.05807843
VERTEX2 428 8.31222924 -5.93527126 -0.06323052
VERTEX2 429 8.95051342 -5.98463325 -0.10368419
VERTEX2 430 9.28600439 -6.02491152 -0.14946153
VERTEX2 431 9.25756062 -6.02146945 -0.09722427
VERTEX2 432 9.26413091 -6.02379957 -0.72849228
VERTEX2 433 9.26705868 -6.02784003 -1.40532272
VERTEX2 434 9.22878764 -6.56398694 -1.63324010
VERTEX2 435 9.19432088 -7.20392260 -1.66133503
VERTEX2 436 9.11415769 -7.84110557 -1.66989784
VERTEX2 437 9.05942268 -8.48810104 -1.66171627
VERTEX2 438 9.00522695 -8.96062107 -1.69122338
VERTEX2 439 9.00242036 -8.97102716 -2.12505182
VERTEX2 440 9.01099029 -8.96431797 -2.76651053
VERTEX2 441 9.03106966 -8.96236833 2.89628670
VERTEX2 442 9.04174275 -8.96820392 2.26855601
VERTEX2 443 9.04189804 -8.97098993 1.70318582
VERTEX2 444 9.04490182 -8.95546064 1.11322132
VERTEX2 445 9.05168438 -8.94900171 0.45676476
VERTEX2 446 9.05249772 -8.94851884 0.65906307
VERTEX2 447 9.06461653 -8.92521897 1.29214659
VERTEX2 448 9.21661856 -8.30420040 1.30975449
VERTEX2 449 9.35169023 -7.66845444 1.41117385
VERTEX2 450 9.44810284 -7.03163034 1.42488527
VERTEX2 451 9.50279225 -6.56076244 1.46741074
VERTEX2 452 9.50297631 -6.55886744 1.08916821
VERTEX2 453 9.49890532 -6.56614808 0.46670528
VERTEX2 454 9.75349386 -6.54805038 0.04442967
VERTEX2 455 10.35094464 -6.52683726 0.02382142
VERTEX2 456 10.98177880 -6.52577785 -0.04081803
VERTEX2 457 11.33417219 -6.55014177 -0.12858986
VERTEX2 458 11.32815147 -6.54710876 -0.77460043
VERTEX2 459 11.31950442 -6.51118620 -1.38292068
VERTEX2 460 11.29652732 -6.90850661 -1.63998660
VERTEX2 461 11.22420470 -7.52363245 -1.72796528
VERTEX2 462 11.13379927 -8.03167206 -1.76800279
VERTEX2 463 11.14537274 -8.00934014 -0.92783408
VERTEX2 464 11.39895798 -8.08311713 -0.24980497
VERTEX2 465 11.98055741 -8.21943476 -0.24208353
VERTEX2 466 12.53177509 -8.37380124 -0.29775030
VERTEX2 467 13.10015779 -8.55884569 -0.34123858
VERTEX2 468 13.70969475 -8.77986650 -0.37658252
VERTEX2 469 14.29923818 -9.04919452 -0.45925040
VERTEX2 470 14.75166932 -9.26756786 -0.44011250
VERTEX2 471 14.75982932 -9.27205667 -0.63954592
VERTEX2 472 14.77673286 -9.29595434 -1.27134235
VERTEX2 473 14.77812753 -9.30303512 -1.91105598
VERTEX2 474 14.77643463 -9.30513125 -2.54152557
VERTEX2 475 14.77837049 -9.30487815 -3.11514630
VERTEX2 476 14.78029516 -9.30515095 2.51700435
VERTEX2 477 14.78455626 -9.31362329 1.95763222
VERTEX2 478 14.78523593 -9.32335641 1.33074353
VERTEX2 479 14.78417937 -9.32573536 0.87657430
VERTEX2 480 14.78444621 -9.32514311 1.43874958
VERTEX2 481 14.78087467 -9.30923839 2.44101791
VERTEX2 482 14.78480214 -9.31084510 2.77722370
VERTEX2 483 14.79093033 -9.31310605 2.77187039
VERTEX2 484 14.37082565 -9.15376729 2.80743047
VERTEX2 485 13.77426182 -8.96096397 2.80514337
VERTEX2 486 13.17518928 -8.74417644 2.81469829
VERTEX2 487 12.56720933 -8.56053943 2.84300211
VERTEX2 488 11.95694812 -8.37502268 2.87914826
VERTEX2 489 11.48818510 -8.26424914 2.90960090
VERTEX2 490 11.49336887 -8.26378319 -2.88841116
VERTEX2 491 11.50075673 -8.25417666 -1.95217667
VERTEX2 492 11.48243059 -8.48446631 -1.64909269
VERTEX2 493 11.41651699 -9.08857542 -1.70411790
VERTEX2 494 11.32597927 -9.69567821 -1.76523967
VERTEX2 495 11.25275050 -10.31689301 -1.65814220
VERTEX2 496 11.20477157 -10.93958952 -1.54049496
VERTEX2 497 11.19355213 -11.55609466 -1.62662243
VERTEX2 498 11.12071026 -12.17569487 -1.72851553
VERTEX2 499 10.98592304 -12.79983730 -1.74560732
VERTEX2 500 11.03961409 -13.36583076 -1.41681457
VERTEX2 501 11.10992415 -13.94419525 -1.48895415
VERTEX2 502 11.12889643 -14.63811988 -1.57349187
VERTEX2 503 11.12120729 -15.08322437 -1.59051094
VERTEX2 504 11.12745219 -15.06601858 -0.73452000
VERTEX2 505 11.36594923 -15.09511153 -0.11394324
VERTEX2 506 11.95823031 -15.18219527 -0.26688041
VERTEX2 507 12.53736633 -15.35725446 -0.34579621
VERTEX2 508 13.09958279 -15.57312656 -0.35839093
VERTEX2 509 13.70990438 -15.80977425 -0.41426700
VERTEX2 510 14.05798291 -15.96912216 -0.42813736
VERTEX2 511 14.05611660 -15.94912234 0.44731806
VERTEX2 512 14.07908602 -15.90191815 1.64364156
VERTEX2 513 14.07612267 -15.89285584 2.59860271
VERTEX2 514 14.01134128 -15.87392352 2.82473489
VERTEX2 515 13.40546759 -15.68696132 2.82575819
VERTEX2 516 12.82521917 -15.48718936 2.84157364
VERTEX2 517 12.23662391 -15.33302404 2.86968308
VERTEX2 518 11.64840814 -15.17568045 2.89395164
VERTEX2 519 11.13039861 -15.04634188 2.87817553
VERTEX2 520 10.96564446 -15.00138498 -3.00674169
VERTEX2 521 10.98298351 -14.98268762 -2.00065646
VERTEX2 522 10.91257158 -15.38488725 -1.73563694
VERTEX2 523 10.81504662 -16.00824091 -1.74318691
VERTEX2 524 10.70491684 -16.58778745 -1.78519306
VERTEX2 525 10.59694897 -17.12557686 -1.76141622
VERTEX2 526 10.47663416 -17.68993626 -1.82008452
VERTEX2 527 10.32493000 -18.26406135 -1.85477941
VERTEX2 528 10.13922803 -18.82512010 -1.93063721
VERTEX2 529 9.92471300 -19.41786875 -1.95938406
VERTEX2 530 9.67143014 -20.01657463 -1.98935496
VERTEX2 531 9.39603189 -20.59043186 -2.06907767
VERTEX2 532 9.29577714 -20.77646909 -2.01838114
VERTEX2 533 9.29157114 -20.75509638 -1.01995123
VERTEX2 534 9.29114196 -20.75479291 -0.35290406
VERTEX2 535 9.29395961 -20.75483309 -0.35325632
VERTEX2 536 9.64929658 -20.84210636 -0.22253056
VERTEX2 537 10.25386051 -20.99624517 -0.28052896
VERTEX2 538 10.81139374 -21.17065991 -0.30765363
VERTEX2 539 11.41641829 -21.38528300 -0.37244287
VERTEX2 540 11.99961885 -21.64374869 -0.46536908
VERTEX2 541 12.58350253 -21.87712039 -0.30311565
VERTEX2 542 13.21247572 -22.02508817 -0.24746406
VERTEX2 543 13.33336137 -22.05669414 -0.27717891
VERTEX2 544 13.35522728 -22.05468843 0.35969093
VERTEX2 545 13.38073655 -22.00947618 1.42561098
VERTEX2 546 13.39675280 -22.05245254 2.25244560
VERTEX2 547 13.40559937 -22.05195406 -3.00931009
VERTEX2 548 13.42092241 -22.04235592 -2.08664319
VERTEX2 549 13.42216108 -22.03465661 -1.27955254
VERTEX2 550 13.42134271 -22.01731454 -1.75904745
VERTEX2 551 13.42856163 -22.00306774 -2.38504518
VERTEX2 552 13.44578894 -21.99470163 -3.01713498
VERTEX2 553 13.31079306 -21.94160417 2.68909441
VERTEX2 554 12.72315189 -21.65298265 2.65375963
VERTEX2 555 12.14817271 -21.37363399 2.74275973
VERTEX2 556 11.54751442 -21.15044794 2.87798730
VERTEX2 557 10.94908657 -20.97440678 2.83684862
VERTEX2 558 10.37463265 -20.81244083 2.91795235
VERTEX2 559 10.38235905 -20.81512271 2.51112736
VERTEX2 560 10.37565851 -20.80750797 2.01034752
VERTEX2 561 10.35303567 -20.78517633 2.51572243
VERTEX2 562 10.17472211 -20.78370584 -3.12371556
VERTEX2 563 9.60518794 -20.70074712 2.96774240
VERTEX2 564 9.00114235 -20.60456622 3.01657713
VERTEX2 565 8.41150812 -20.52871102 2.95900473
VERTEX2 566 8.47257407 -20.54823355 -2.54055103
VERTEX2 567 8.37857119 -20.55442931 -1.74750579
VERTEX2 568 8.32363602 -21.06174520 -1.68324496
VERTEX2 569 8.26749486 -21.63700321 -1.72238251
VERTEX2 570 8.19388959 -22.21719823 -1.71762541
VERTEX2 571 8.13843333 -22.57219635 -1.76511013
VERTEX2 572 8.10442675 -22.59663167 -2.00831507
VERTEX2 573 8.06871649 -22.67581457 -1.73199841
VERTEX2 574 8.08911341 -22.70499011 -0.79261564
VERTEX2 575 8.24301405 -22.75662760 0.12885418
VERTEX2 576 8.24269750 -22.75636950 1.15653261
VERTEX2 577 8.23632268 -22.73912114 2.12864576
VERTEX2 578 8.22719423 -22.70738156 1.76448968
VERTEX2 579 8.10739275 -22.05519751 1.77952961
VERTEX2 580 7.95058028 -21.41494784 1.85469623
VERTEX2 581 7.76101369 -20.79042309 1.89710107
VERTEX2 582 7.54394265 -20.17474822 1.94026425
VERTEX2 583 7.41636538 -19.86587456 2.01966489
VERTEX2 584 7.41106311 -19.85539927 2.86360706
VERTEX2 585 6.82846997 -19.71110502 2.98205151
VERTEX2 586 6.23481349 -19.63236856 3.07976694
VERTEX2 587 5.61735469 -19.61728532 3.10532401
VERTEX2 588 4.98911301 -19.58723255 3.10993377
VERTEX2 589 4.45195156 -19.60816552 -3.09790313
VERTEX2 590 3.90367761 -19.64834110 -3.02918348
VERTEX2 591 3.36533486 -19.72334615 -3.03109636
VERTEX2 592 2.81806407 -19.79373380 -3.03384657
VERTEX2 593 2.64165727 -19.81463396 -2.82862549
VERTEX2 594 2.68303368 -19.77076456 -1.90907756
VERTEX2 595 2.56521839 -20.37813987 -1.67626594
VERTEX2 596 2.50803672 -21.00087337 -1.69942446
VERTEX2 597 2.41114940 -21.67414666 -1.73937063
VERTEX2 598 2.30399197 -22.27042968 -1.78153071
VERTEX2 599 2.21309514 -22.64579293 -1.84771153
VERTEX2 600 2.21316111 -22.66059803 -1.04115714
VERTEX2 601 2.25238928 -22.68517396 -0.02299439
VERTEX2 602 2.28781594 -22.67122338 0.99103394
VERTEX2 603 2.25535729 -22.43745061 1.76378167
VERTEX2 604 2.19985018 -21.82595652 1.51973497
VERTEX2 605 2.21406470 -21.17562434 1.60241876
VERTEX2 606 2.17865829 -20.52528366 1.64459651
VERTEX2 607 2.19452086 -19.93277330 1.56368924
VERTEX2 608 2.18436268 -19.54407656 1.60828424
VERTEX2 609 2.18151890 -19.52654185 1.94459710
VERTEX2 610 2.17452768 -19.52395157 2.87725391
VERTEX2 611 1.58089747 -19.36912714 2.88025868
VERTEX2 612 1.11013223 -19.23098292 2.88310079
VERTEX2 613 1.14617124 -19.24231580 -2.93624484
VERTEX2 614 1.15053315 -19.23907513 -1.89814693
VERTEX2 615 1.15826649 -19.73053193 -1.59336383
VERTEX2 616 1.15859896 -20.35840631 -1.64435709
VERTEX2 617 1.01495695 -20.95976430 -1.86133682
VERTEX2 618 0.83998616 -21.56344088 -1.85109348
VERTEX2 619 0.67365972 -22.13267894 -1.85235401
VERTEX2 620 0.48478911 -22.70596983 -1.94833076
VERTEX2 621 0.61711496 -22.37382375 -1.99967024
VERTEX2 622 0.74348089 -22.11048355 -2.07448329
VERTEX2 623 0.74385928 -22.10998451 -2.61116557
VERTEX2 624 0.71833650 -22.10947318 3.02987047
VERTEX2 625 0.68063362 -22.09380523 2.37179499
VERTEX2 626 0.65500847 -22.06378065 1.75419542
VERTEX2 627 0.73159703 -21.69289316 1.34368326
VERTEX2 628 0.91737458 -21.06812591 1.24283284
VERTEX2 629 1.09611769 -20.44267414 1.31384032
VERTEX2 630 1.22849999 -19.83679681 1.39878456
VERTEX2 631 1.30658986 -19.30857236 1.41880159
VERTEX2 632 1.30921706 -19.29398556 2.09505855
VERTEX2 633 1.20836528 -19.28617138 -3.10104737
VERTEX2 634 0.53631884 -19.31810964 -3.07352207
VERTEX2 635 -0.12067711 -19.32395206 3.07474474
VERTEX2 636 -0.76687788 -19.29048155 3.05729340
VERTEX2 637 -1.39796133 -19.21129497 2.95809625
VERTEX2 638 -1.78963882 -19.12842262 2.92837417
VERTEX2 639 -2.39915126 -19.02097767 3.00870568
VERTEX2 640 -3.01274311 -18.90730877 2.94077793
VERTEX2 641 -3.61168289 -18.79204966 2.93239373
VERTEX2 642 -4.18567869 -18.65072185 2.88697839
VERTEX2 643 -4.66683138 -18.51003049 2.81950409
VERTEX2 644 -4.67157994 -18.51104406 -2.70694828
VERTEX2 645 -4.70997888 -18.65335886 -1.92885631
VERTEX2 646 -4.85257790 -19.26467346 -1.63324010
VERTEX2 647 -4.81382303 -19.91071315 -1.34414920
VERTEX2 648 -4.59445586 -20.54050697 -1.17766677
VERTEX2 649 -4.42589274 -21.13789546 -1.51516611
VERTEX2 650 -4.53083246 -21.76374371 -1.77243392
VERTEX2 651 -4.54909882 -21.90719386 -0.97281752
VERTEX2 652 -4.48897362 -21.93472870 0.05246061
VERTEX2 653 -4.44256321 -21.89359538 1.08316681
VERTEX2 654 -4.44966826 -21.59634216 1.59594241
VERTEX2 655 -4.45621754 -21.04229719 1.59077531
VERTEX2 656 -4.45107326 -20.43958885 1.57798562
VERTEX2 657 -4.55352893 -19.82698313 1.85437403
VERTEX2 658 -4.74039916 -19.20549458 1.84723952
VERTEX2 659 -4.85111219 -18.71339768 1.77594934
VERTEX2 660 -4.85367970 -18.70005140 2.37576748
VERTEX2 661 -5.03083760 -18.67914361 3.02888507
VERTEX2 662 -5.62269516 -18.61515532 3.09834904
VERTEX2 663 -6.20917550 -18.62479251 -3.08396225
VERTEX2 664 -6.21615186 -18.62294155 -2.56058814
VERTEX2 665 -6.23320515 -18.72517707 -1.72844479
VERTEX2 666 -6.31123920 -19.33598966 -1.69157946
VERTEX2 667 -6.37433798 -19.90480460 -1.68721862
VERTEX2 668 -6.44428361 -20.50097885 -1.66171340
VERTEX2 669 -6.49959306 -21.12909253 -1.68712730
VERTEX2 670 -6.60619370 -21.74868623 -1.74691393
VERTEX2 671 -6.65752068 -22.04376178 -1.69223697
VERTEX2 672 -6.54963029 -21.46736773 -1.78167550
VERTEX2 673 -6.47957880 -21.19862281 -1.91208027
VERTEX2 674 -6.46453874 -21.18310529 -2.55988224
VERTEX2 675 -6.43932457 -21.17806157 3.11500052
VERTEX2 676 -6.43358923 -21.18150563 2.49198268
VERTEX2 677 -6.42995526 -21.18665479 1.87645992
VERTEX2 678 -6.39922602 -20.96194760 1.43077292
VERTEX2 679 -6.32893755 -20.38079606 1.49348277
VERTEX2 680 -6.35213604 -19.92960007 1.83858515
VERTEX2 681 -6.49846753 -19.33645523 1.81124606
VERTEX2 682 -6.66486576 -18.72865321 1.85910995
VERTEX2 683 -6.75683207 -18.43753353 2.01860051
VERTEX2 684 -6.70470390 -18.49160086 3.09934656
VERTEX2 685 -7.11383022 -18.65096055 -2.73975489
VERTEX2 686 -7.56603003 -18.78565389 -2.88374881
VERTEX2 687 -8.16554653 -18.93370970 -2.91855809
VERTEX2 688 -8.76810598 -19.05063432 -2.93014663
VERTEX2 689 -9.33717856 -19.18695409 -2.90229962
VERTEX2 690 -9.87800013 -19.35381442 -2.82793504
VERTEX2 691 -10.27773677 -19.48412368 -2.85579324
VERTEX2 692 -10.26673119 -19.47931602 -2.32122841
VERTEX2 693 -10.24363679 -19.55367483 -1.28110032
VERTEX2 694 -10.21932382 -19.62783370 -0.44586668
VERTEX2 695 -10.19720689 -19.62169853 0.35392306
VERTEX2 696 -10.18838494 -19.61599126 1.37913456
VERTEX2 697 -10.20006791 -19.65343498 1.12604964
VERTEX2 698 -9.86536851 -19.44491705 0.47110695
VERTEX2 699 -9.29624523 -19.13399567 0.58507918
VERTEX2 700 -8.77730698 -18.77374130 0.63856073
VERTEX2 701 -8.33820272 -18.41201296 0.69769057
VERTEX2 702 -7.85360769 -18.09832439 0.58249988
VERTEX2 703 -7.33571927 -17.76361274 0.61673637
VERTEX2 704 -6.83652592 -17.38304466 0.63490768
VERTEX2 705 -6.32139913 -16.96546886 0.70507333
VERTEX2 706 -5.88774475 -16.65011198 0.43595785
VERTEX2 707 -5.86109230 -16.64889735 -0.08452108
VERTEX2 708 -5.85047530 -16.65515824 -0.72332141
VERTEX2 709 -5.88961826 -16.61225867 -1.05556098
VERTEX2 710 -5.89391852 -16.60085046 -1.61694439
VERTEX2 711 -5.88412582 -16.60986059 -2.21396638
VERTEX2 712 -5.86612886 -16.59633614 -2.77375574
VERTEX2 713 -6.34075851 -16.64278138 -3.05877804
VERTEX2 714 -6.89453866 -16.61301304 3.02714036
VERTEX2 715 -7.52085667 -16.57084080 3.13075270
VERTEX2 716 -8.15474840 -16.54353620 2.99272437
VERTEX2 717 -8.77527037 -16.47047311 3.07748346
VERTEX2 718 -9.53616686 -16.34547971 2.90210937
VERTEX2 719 -10.15179294 -16.22501693 2.97657960
VERTEX2 720 -10.76329646 -16.10748904 2.91737848
VERTEX2 721 -11.37969725 -15.98647985 2.98559973
VERTEX2 722 -11.39594293 -15.98402525 3.05230211
VERTEX2 723 -11.41665069 -16.00502564 -2.14093155
VERTEX2 724 -11.41713801 -16.04909907 -1.07205403
VERTEX2 725 -11.38975322 -16.06784959 -0.43769456
VERTEX2 726 -11.06401338 -16.06678477 0.01650695
VERTEX2 727 -10.42600446 -16.03438936 0.04725675
VERTEX2 728 -9.78535405 -16.01628467 0.04865192
VERTEX2 729 -9.14690024 -15.96185502 0.10630400
VERTEX2 730 -8.52275388 -15.87545609 0.14382003
VERTEX2 731 -7.87468536 -15.78143380 0.15602496
VERTEX2 732 -7.73351729 -15.75434205 0.60260360
VERTEX2 733 -7.73182574 -15.75715785 1.59915408
VERTEX2 734 -7.78562896 -15.20173856 1.67725573
VERTEX2 735 -7.84123194 -14.59996572 1.64521473
VERTEX2 736 -7.84181874 -14.58998464 2.24473538
VERTEX2 737 -7.83572520 -14.59083856 3.04546780
VERTEX2 738 -8.41440138 -14.54555771 3.06452287
VERTEX2 739 -9.01652296 -14.44565138 3.00688022
VERTEX2 740 -9.51901274 -14.40131807 3.07012308
VERTEX2 741 -9.49893698 -14.40126652 2.70123585
VERTEX2 742 -9.49839303 -14.40167050 2.04839971
VERTEX2 743 -9.49986511 -14.39489958 1.43154358
VERTEX2 744 -9.49043845 -14.37380220 0.89213879
VERTEX2 745 -9.47086305 -14.36377548 0.29860642
VERTEX2 746 -8.92785698 -14.38669070 -0.17629335
VERTEX2 747 -8.28285440 -14.50684064 -0.21154966
VERTEX2 748 -7.70632793 -14.65449073 -0.27987272
VERTEX2 749 -7.62238729 -14.67615685 0.14935316
VERTEX2 750 -7.61251992 -14.65831536 1.07647958
VERTEX2 751 -7.64482146 -14.38578867 1.71678777
VERTEX2 752 -7.69823627 -13.76009880 1.61345655
VERTEX2 753 -7.73137756 -13.11896822 1.67665461
VERTEX2 754 -7.73445492 -12.47625520 1.51452482
VERTEX2 755 -7.71151114 -11.84353819 1.60101261
VERTEX2 756 -7.66992261 -11.20845228 1.42465013
VERTEX2 757 -7.59102083 -10.56421068 1.53656137
VERTEX2 758 -7.60774648 -9.98492856 1.67878436
VERTEX2 759 -7.59377085 -9.43776199 1.55875778
VERTEX2 760 -7.62873652 -8.82725690 1.67017120
VERTEX2 761 -7.63116304 -8.79034911 1.85059069
VERTEX2 762 -7.70689160 -8.75591131 2.68532841
VERTEX2 763 -8.28017308 -8.64955506 2.97792053
VERTEX2 764 -8.69948222 -8.57536106 2.95022677
VERTEX2 765 -8.68899891 -8.57523507 -2.69392215
VERTEX2 766 -8.69144771 -8.58300091 -1.69418345
VERTEX2 767 -8.68576487 -8.59772375 -0.76386914
VERTEX2 768 -8.65870967 -8.59960556 -0.04194113
VERTEX2 769 -8.02261520 -8.51592928 0.11476824
VERTEX2 770 -7.36969929 -8.46233851 0.04748040
VERTEX2 771 -7.28135381 -8.45574230 0.60762046
VERTEX2 772 -7.27878025 -8.44783350 1.47467598
VERTEX2 773 -7.24933619 -7.87218550 1.56032473
VERTEX2 774 -7.25615341 -7.32764558 1.58228811
VERTEX2 775 -7.25482987 -7.33367108 2.42673956
VERTEX2 776 -7.46384784 -7.30592735 3.04379640
VERTEX2 777 -8.07674640 -7.25710424 3.10268165
VERTEX2 778 -8.69438150 -7.23832409 3.08258133
VERTEX2 779 -9.30957165 -7.20997508 3.10078194
VERTEX2 780 -9.51726729 -7.18964096 2.97067300
VERTEX2 781 -9.51424137 -7.19075774 2.39748145
VERTEX2 782 -9.63877954 -6.91609167 1.96810734
VERTEX2 783 -9.86722839 -6.33877601 1.96760236
VERTEX2 784 -9.96425557 -6.10958836 1.94637850
VERTEX2 785 -9.96489043 -6.08319531 1.39464231
VERTEX2 786 -9.95630872 -6.05610417 0.80656079
VERTEX2 787 -9.93798741 -6.03777579 0.31610605
VERTEX2 788 -9.91089668 -6.03992898 -0.31277961
VERTEX2 789 -9.90029790 -6.04844373 -0.86450177
VERTEX2 790 -9.59790777 -6.44777580 -0.93154412
VERTEX2 791 -9.19818125 -6.93481606 -0.83273791
VERTEX2 792 -8.96082023 -7.15110488 -0.12785519
VERTEX2 793 -8.34649596 -7.21038427 -0.08290225
VERTEX2 794 -7.70762476 -7.24651782 -0.01147167
VERTEX2 795 -7.73377857 -7.26531558 0.41833762
VERTEX2 796 -7.74206943 -7.26856748 1.07830848
VERTEX2 797 -7.66519972 -6.96250253 1.33878314
VERTEX2 798 -7.52447996 -6.33999062 1.38913294
VERTEX2 799 -7.43155948 -5.69905358 1.45507427
VERTEX2 800 -7.37080655 -5.04491197 1.52839107
VERTEX2 801 -7.37574079 -4.41260108 1.61438815
VERTEX2 802 -7.42367505 -3.78651495 1.67215845
VERTEX2 803 -7.40033267 -3.15770928 1.50757235
VERTEX2 804 -7.37411697 -2.53019076 1.56354123
VERTEX2 805 -7.40135148 -1.89911895 1.63989651
VERTEX2 806 -7.45567158 -1.29987100 1.68137600
VERTEX2 807 -7.48116930 -1.11562003 1.96948895
VERTEX2 808 -7.48461329 -1.11553058 2.91781516
VERTEX2 809 -8.07463665 -1.08103100 3.06249765
VERTEX2 810 -8.68949430 -0.95213063 2.92235318
VERTEX2 811 -9.28605787 -0.83509677 2.91907834
VERTEX2 812 -9.28705086 -0.83490748 -2.63232067
VERTEX2 813 -9.29689340 -0.85632520 -1.65700007
VERTEX2 814 -9.28970615 -0.86212662 -0.66476374
VERTEX2 815 -9.26763778 -0.86978398 0.25454993
VERTEX2 816 -9.25875338 -0.86503043 0.93573352
VERTEX2 817 -9.24713481 -0.85786934 0.26699699
VERTEX2 818 -9.02698668 -0.89351109 -0.22187548
VERTEX2 819 -8.43905243 -1.02615904 -0.20774949
VERTEX2 820 -7.84873823 -1.16290102 -0.24898329
VERTEX2 821 -7.30593044 -1.29824505 -0.23319392
VERTEX2 822 -7.26035293 -1.30560075 0.52834984
VERTEX2 823 -7.25875960 -1.29029002 1.44759878
VERTEX2 824 -7.18921662 -0.66839933 1.36827177
VERTEX2 825 -7.03954472 -0.04615037 1.33860740
VERTEX2 826 -6.97658973 0.58578109 1.50154758
VERTEX2 827 -6.90687397 1.20935539 1.45289130
VERTEX2 828 -6.84680008 1.84046931 1.48841136
VERTEX2 829 -6.78087785 2.44108840 1.44855123
VERTEX2 830 -6.70094600 3.04686099 1.44011734
VERTEX2 831 -6.60209977 3.62072748 1.39319336
VERTEX2 832 -6.50723671 4.18030256 1.38950325
VERTEX2 833 -6.46134702 4.43262098 1.52699465
VERTEX2 834 -6.46280150 4.43796162 2.58109942
VERTEX2 835 -6.47786544 4.43985469 -2.92483094
VERTEX2 836 -6.48972422 4.43004990 -1.98179327
VERTEX2 837 -6.48643827 4.41095974 -0.94545975
VERTEX2 838 -6.47492157 4.40361177 -0.08278599
VERTEX2 839 -6.47421401 4.40326534 -0.30085411
VERTEX2 840 -6.46364447 4.39480776 -0.86317637
VERTEX2 841 -6.45686105 4.38083386 -1.47991311
VERTEX2 842 -6.48507207 4.13778951 -1.71054628
VERTEX2 843 -6.56819349 3.57728509 -1.71295572
VERTEX2 844 -6.64887188 2.95474556 -1.72086312
VERTEX2 845 -6.74793771 2.33290490 -1.73547847
VERTEX2 846 -6.83910930 1.70675159 -1.73365112
VERTEX2 847 -6.95394748 1.08865948 -1.76030100
VERTEX2 848 -6.98625023 0.89450812 -1.27976436
VERTEX2 849 -6.98532494 0.89416854 -0.35741712
VERTEX2 850 -6.62962609 0.88773664 -0.00394649
VERTEX2 851 -6.00210132 0.85661836 -0.09640263
VERTEX2 852 -5.37780109 0.79035961 -0.08195146
VERTEX2 853 -4.78288196 0.74308241 -0.10983649
VERTEX2 854 -4.19584353 0.67058708 -0.10779721
VERTEX2 855 -3.60096482 0.61495722 -0.10956129
VERTEX2 856 -2.94561674 0.52421177 -0.14986582
VERTEX2 857 -2.29146682 0.43002935 -0.15908046
VERTEX2 858 -1.64438597 0.30364802 -0.21326099
VERTEX2 859 -1.12891344 0.19717014 -0.21998086
VERTEX2 860 -1.09938684 0.20911276 0.63138663
VERTEX2 861 -1.08165655 0.32869800 1.54678712
VERTEX2 862 -1.03916932 0.99745261 1.48730163
VERTEX2 863 -0.97752032 1.65061219 1.45494544
VERTEX2 864 -0.88602449 2.26943624 1.45294692
VERTEX2 865 -0.84095279 2.88987955 1.51070428
VERTEX2 866 -0.79256114 3.48474366 1.50969884
VERTEX2 867 -0.78377704 3.65799386 1.69107898
VERTEX2 868 -0.79587434 3.67360022 2.71556963
VERTEX2 869 -0.78526789 3.67371248 -2.58861967
VERTEX2 870 -0.76350435 3.68533907 -1.58765655
VERTEX2 871 -0.73925929 3.66884872 -0.61255521
VERTEX2 872 -0.71157169 3.64882152 0.07363674
VERTEX2 873 -0.67468058 3.63654003 -0.49816948
VERTEX2 874 -0.64479029 3.60956873 -1.05702399
VERTEX2 875 -0.63408109 3.58441182 -1.64273947
VERTEX2 876 -0.75377185 3.02126421 -1.79993593
VERTEX2 877 -0.90607456 2.47378374 -1.88487133
VERTEX2 878 -0.95745015 2.26883411 -1.50240062
VERTEX2 879 -0.85494707 1.62779172 -1.45161526
VERTEX2 880 -0.81852837 1.17553237 -1.56455992
VERTEX2 881 -0.81894942 1.22169176 -1.55942581
VERTEX2 882 -0.87538402 0.57779447 -1.80625161
VERTEX2 883 -1.09276977 -0.02286318 -1.99722623
VERTEX2 884 -1.25381503 -0.36057650 -2.06438104
VERTEX2 885 -1.25361170 -0.36412780 -1.48333407
VERTEX2 886 -1.23813449 -0.37863101 -0.46641930
VERTEX2 887 -1.21434302 -0.38791242 0.54384864
VERTEX2 888 -1.20716088 -0.37286911 1.52695184
VERTEX2 889 -1.20953643 -0.36591772 2.42370049
VERTEX2 890 -1.53365615 -0.20755517 2.69718523
VERTEX2 891 -2.07875261 0.06599866 2.62656363
VERTEX2 892 -2.61901526 0.39259011 2.59069592
VERTEX2 893 -3.17918586 0.69574395 2.82649184
VERTEX2 894 -3.80300776 0.81259963 3.04706417
VERTEX2 895 -4.41510855 0.76670005 -2.93840993
VERTEX2 896 -4.43806533 0.76139374 -2.46039941
VERTEX2 897 -4.72449868 0.34484140 -2.18845720
VERTEX2 898 -5.08075310 -0.16296621 -2.17296628
VERTEX2 899 -5.37131072 -0.57167811 -2.24074242
VERTEX2 900 -5.78990275 -1.11351087 -2.24318104
VERTEX2 901 -6.16602436 -1.55558955 -2.30762934
VERTEX2 902 -6.58715884 -2.04443823 -2.28248054
VERTEX2 903 -6.90732856 -2.42154310 -2.32734718
VERTEX2 904 -6.90834586 -2.42296581 -1.62449254
VERTEX2 905 -6.89931742 -2.91632293 -1.56908592
VERTEX2 906 -6.87097911 -3.48800096 -1.50343553
VERTEX2 907 -6.82041063 -4.06298453 -1.51167784
VERTEX2 908 -6.78033234 -4.68562690 -1.48693156
VERTEX2 909 -6.72593499 -5.29856592 -1.50488452
VERTEX2 910 -6.75495010 -5.42766930 -1.87483361
VERTEX2 911 -6.92077750 -5.99690364 -1.81399654
VERTEX2 912 -7.04747831 -6.55885976 -1.80140003
VERTEX2 913 -7.16503240 -7.09886218 -1.79348063
VERTEX2 914 -7.29700651 -7.68493972 -1.81714398
VERTEX2 915 -7.42562824 -8.19205964 -1.85385592
VERTEX2 916 -7.36403755 -8.43551694 -1.30630205
VERTEX2 917 -7.23175226 -9.08461621 -1.56069169
VERTEX2 918 -7.25703152 -9.60162171 -1.63619886
VERTEX2 919 -7.29678029 -10.22434482 -1.67948374
VERTEX2 920 -7.36729727 -10.83722281 -1.69703225
VERTEX2 921 -7.44663653 -11.45127411 -1.75032709
VERTEX2 922 -7.55504501 -12.05364632 -1.77748529
VERTEX2 923 -7.68069745 -12.61861258 -1.84088263
VERTEX2 924 -7.81701839 -13.10937721 -1.82419759
VERTEX2 925 -7.81816919 -13.10341684 -1.31935587
VERTEX2 926 -7.66375098 -13.66573176 -1.30311112
VERTEX2 927 -7.50274542 -14.25669054 -1.32637633
VERTEX2 928 -7.35090047 -14.86299491 -1.33526895
VERTEX2 929 -7.20552086 -15.46639547 -1.33612956
VERTEX2 930 -7.06446395 -16.09618586 -1.41842004
VERTEX2 931 -6.98396866 -16.72119587 -1.49833858
VERTEX2 932 -6.94325676 -17.34689750 -1.55745508
VERTEX2 933 -6.94484271 -17.95805730 -1.62169570
VERTEX2 934 -6.96333179 -18.44156232 -1.63164080
VERTEX2 935 -6.96031081 -18.45613851 -0.94997803
VERTEX2 936 -6.95854031 -18.45677626 -0.00522042
VERTEX2 937 -6.41586280 -18.43626486 0.05753457
VERTEX2 938 -5.81961709 -18.45753339 -0.11602359
VERTEX2 939 -5.19596115 -18.52294685 -0.08842743
VERTEX2 940 -4.58446288 -18.60352460 -0.17435375
VERTEX2 941 -3.98083082 -18.72439051 -0.22808497
VERTEX2 942 -3.46350991 -18.84474409 -0.22367413
VERTEX2 943 -2.85589378 -18.98405846 -0.13546540
VERTEX2 944 -2.24342435 -19.07278327 -0.19224905
VERTEX2 945 -1.62537522 -19.20718304 -0.24754429
VERTEX2 946 -1.45322520 -19.25292401 -0.18339877
VERTEX2 947 -1.03413157 -19.19269146 0.14489420
VERTEX2 948 -0.45689195 -19.10862157 0.12596506
VERTEX2 949 0.14934296 -19.07990073 -0.02945741
VERTEX2 950 0.78114109 -19.12225051 -0.26874732
VERTEX2 951 1.38161658 -19.30072029 -0.34076132
VERTEX2 952 1.98177043 -19.48209562 -0.08983923
VERTEX2 953 2.61314635 -19.51957855 -0.00949208
VERTEX2 954 3.23935347 -19.51793654 -0.01640700
VERTEX2 955 3.82926804 -19.56885758 -0.17715890
VERTEX2 956 4.37961066 -19.65223016 -0.17942733
VERTEX2 957 4.91012391 -19.75304228 -0.26711564
VERTEX2 958 5.37478068 -19.86898905 -0.29385785
VERTEX2 959 5.80314759 -19.99020225 -0.36098588
VERTEX2 960 6.38993538 -20.15801920 -0.28113252
VERTEX2 961 6.96890559 -20.33705622 -0.30820980
VERTEX2 962 7.58437066 -20.47088036 -0.24266011
VERTEX2 963 8.20062342 -20.55706655 -0.05609033
VERTEX2 964 8.82201914 -20.60408044 -0.12006858
VERTEX2 965 9.43858736 -20.68858902 -0.12704119
VERTEX2 966 9.88149005 -20.75108215 -0.18602969
VERTEX2 967 9.91417725 -20.74474626 0.66732596
VERTEX2 968 9.92195680 -20.73751920 1.56401452
VERTEX2 969 9.92411277 -20.76548330 1.62346169
VERTEX2 970 9.92638480 -20.79370012 1.62171115
VERTEX2 971 9.90862004 -20.46053763 1.62182423
VERTEX2 972 9.87466054 -19.87395366 1.62741562
VERTEX2 973 9.95875449 -19.29283103 1.34235083
VERTEX2 974 10.10269770 -18.69261301 1.37410422
VERTEX2 975 10.21883917 -18.08807336 1.37863699
VERTEX2 976 10.32828845 -17.48083208 1.39145509
VERTEX2 977 10.46842946 -16.86520993 1.36520243
VERTEX2 978 10.59377253 -16.25571569 1.41119452
VERTEX2 979 10.71289618 -15.65006203 1.39893334
VERTEX2 980 10.81496268 -15.04748196 1.44586813
VERTEX2 981 10.90784713 -14.45545628 1.45278591
VERTEX2 982 10.96781247 -13.92996471 1.49777099
VERTEX2 983 11.02104525 -13.33269009 1.49436545
VERTEX2 984 11.05233116 -12.73784094 1.55180608
VERTEX2 985 11.06726281 -12.14204504 1.57216451
VERTEX2 986 11.05655535 -11.52265283 1.60859025
VERTEX2 987 11.04806055 -10.90478270 1.57199999
VERTEX2 988 11.05488407 -10.28728819 1.58581455
VERTEX2 989 11.04420064 -9.67434291 1.59346015
VERTEX2 990 11.04132235 -9.06477322 1.58268832
VERTEX2 991 11.03004556 -8.45164718 1.60753225
VERTEX2 992 11.02878102 -7.86652988 1.57497072
VERTEX2 993 11.01911070 -7.25192293 1.60775695
VERTEX2 994 11.00660957 -6.66806368 1.59785213
VERTEX2 995 10.97848698 -6.07145775 1.64507923
VERTEX2 996 10.92259841 -5.45949920 1.67215855
VERTEX2 997 10.88193116 -4.80909020 1.60768309
VERTEX2 998 10.86483341 -4.40116546 1.62948450
VERTEX2 999 10.88890297 -4.42094177 2.34716175
VERTEX2 1000 10.42552760 -4.05474065 2.49573492
VERTEX2 1001 9.98607821 -3.64829011 2.17468945
VERTEX2 1002 9.62044441 -3.17080404 2.26729480
VERTEX2 1003 9.27235733 -2.66612222 2.08761616
VERTEX2 1004 8.93819434 -2.12723425 2.14579030
VERTEX2 1005 8.58906692 -1.63070799 2.20816780
VERTEX2 1006 8.19781188 -1.15015632 2.28549962
VERTEX2 1007 7.78939090 -0.72155539 2.37712491
VERTEX2 1008 7.55635062 -0.50563309 2.53661406
VERTEX2 1009 7.45955661 -0.49018297 3.00955730
VERTEX2 1010 6.89355840 -0.42981322 3.06207163
VERTEX2 1011 6.27858724 -0.38560946 3.01896001
VERTEX2 1012 5.67005736 -0.31747682 3.06085832
VERTEX2 1013 5.03430870 -0.31482210 -3.10737547
VERTEX2 1014 4.42219446 -0.26174388 3.00049863
VERTEX2 1015 3.79797422 -0.21716474 3.08495355
VERTEX2 1016 3.02912606 -0.17306751 3.09166995
VERTEX2 1017 2.44469107 -0.15449606 3.03445304
VERTEX2 1018 1.88795842 -0.08771589 3.04170068
VERTEX2 1019 1.29402816 -0.05788195 3.10120578
VERTEX2 1020 0.67990349 -0.01635169 3.08722677
VERTEX2 1021 0.05986011 0.01838976 3.04660344
VERTEX2 1022 0.00701767 0.02323454 3.03935655
VERTEX2 1023 0.01475362 0.02301669 3.12592556
VERTEX2 1024 -0.61070289 0.03626904 -3.13094473
VERTEX2 1025 -1.23877515 0.01135037 -3.11339607
VERTEX2 1026 -1.39892644 0.00732694 -3.10624610
VERTEX2 1027 -1.38249944 0.01519190 -2.18980907
VERTEX2 1028 -1.39729219 -0.15263000 -1.62641164
VERTEX2 1029 -1.43126393 -0.72013991 -1.64800113
VERTEX2 1030 -1.50045740 -1.33916212 -1.72851245
VERTEX2 1031 -1.61898028 -1.98177018 -1.78274725
VERTEX2 1032 -1.75543253 -2.62425606 -1.77877713
VERTEX2 1033 -1.90490301 -3.26539298 -1.82400110
VERTEX2 1034 -1.95079306 -3.43414343 -2.03787818
VERTEX2 1035 -1.95507524 -3.43769129 -2.65736605
VERTEX2 1036 -1.92277964 -3.45298202 3.05491959
VERTEX2 1037 -2.26021971 -3.32076171 2.81645612
VERTEX2 1038 -2.86983595 -3.19282808 2.90759916
VERTEX2 1039 -3.50571671 -3.01737581 2.87599391
VERTEX2 1040 -3.48021482 -3.01824647 -2.77732149
VERTEX2 1041 -3.45090165 -3.02241179 -1.76074338
VERTEX2 1042 -3.45337726 -3.06008384 -0.77320072
VERTEX2 1043 -3.41778067 -3.09359575 0.19599921
VERTEX2 1044 -3.43398080 -3.11226543 1.18945315
VERTEX2 1045 -3.43880319 -3.12257597 1.07538117
VERTEX2 1046 -3.45157860 -3.13935636 0.68977575
VERTEX2 1047 -3.47235717 -3.14812532 0.13391376
VERTEX2 1048 -3.11016617 -3.22164232 -0.17913190
VERTEX2 1049 -2.46554813 -3.32767036 -0.16199182
VERTEX2 1050 -1.81903580 -3.40593197 -0.08631737
VERTEX2 1051 -1.16476040 -3.48706429 -0.16548035
VERTEX2 1052 -0.54209871 -3.57536922 -0.11253625
VERTEX2 1053 -0.12568600 -3.63464924 -0.16516781
VERTEX2 1054 -0.09976679 -3.63769071 0.59699179
VERTEX2 1055 -0.09416857 -3.61290213 1.65256650
VERTEX2 1056 -0.08418017 -3.62799233 2.65615868
VERTEX2 1057 -0.05969047 -3.63100378 -2.63620252
VERTEX2 1058 -0.06093672 -3.63243655 -1.71389765
VERTEX2 1059 -0.16604351 -4.21464937 -1.79462270
VERTEX2 1060 -0.31048153 -4.84356780 -1.78960833
VERTEX2 1061 -0.42335695 -5.28893267 -1.91213499
VERTEX2 1062 -0.42689307 -5.29423833 -2.47636012
VERTEX2 1063 -0.40532928 -5.28226503 -3.07408512
VERTEX2 1064 -0.68452432 -5.22604483 2.94385178
VERTEX2 1065 -1.27072912 -5.15145977 3.06582306
VERTEX2 1066 -1.83260583 -5.09184355 3.00971707
VERTEX2 1067 -1.81760325 -5.09125644 -2.84078860
VERTEX2 1068 -1.80484484 -5.08254014 -2.16798196
VERTEX2 1069 -1.80425302 -5.08100805 -1.99759768
VERTEX2 1070 -1.80277254 -5.07848427 -2.53654195
VERTEX2 1071 -2.27764801 -5.32839767 -2.66375322
VERTEX2 1072 -2.73041509 -5.55512163 -2.73241336
VERTEX2 1073 -2.70076964 -5.55473909 3.03962921
VERTEX2 1074 -3.22915603 -5.47625449 3.00526769
VERTEX2 1075 -3.80513393 -5.39278335 3.02183145
VERTEX2 1076 -3.82249038 -5.39132086 -2.85715948
VERTEX2 1077 -3.83544339 -5.41507120 -2.05138033
VERTEX2 1078 -4.08117402 -6.02140010 -2.00623342
VERTEX2 1079 -4.32070404 -6.58474201 -1.94412314
VERTEX2 1080 -4.32541455 -6.59688224 -2.43173922
VERTEX2 1081 -4.75555489 -6.88317325 -2.55500528
VERTEX2 1082 -4.92601562 -6.99906465 -2.27441396
VERTEX2 1083 -4.92206956 -7.03246027 -1.24414977
VERTEX2 1084 -4.85033554 -7.07048592 -0.27884218
VERTEX2 1085 -4.85850618 -7.07251405 0.70440546
VERTEX2 1086 -4.49375491 -6.58986322 0.93494434
VERTEX2 1087 -4.10943198 -6.08966829 0.92289370
VERTEX2 1088 -3.74357895 -5.58495838 0.90615380
VERTEX2 1089 -3.68758153 -5.51457494 0.81057943
VERTEX2 1090 -3.67832026 -5.50634526 0.19525098
VERTEX2 1091 -3.14281566 -5.48203784 0.01825560
VERTEX2 1092 -2.52163104 -5.47554825 0.00323082
VERTEX2 1093 -1.95417927 -5.48660885 -0.06161869
VERTEX2 1094 -1.94147654 -5.49905283 -0.46558730
VERTEX2 1095 -1.91126387 -5.52660772 -1.05516988
VERTEX2 1096 -1.91138565 -5.52615244 -1.62625545
VERTEX2 1097 -1.99887431 -5.84883642 -1.84162214
VERTEX2 1098 -2.18396651 -6.44173793 -1.89841702
VERTEX2 1099 -2.39958035 -6.99992952 -1.99453188
VERTEX2 1100 -2.40565007 -7.01466085 -1.63151059
VERTEX2 1101 -2.35122036 -7.27791039 -1.36566290
VERTEX2 1102 -2.35204365 -7.28622276 -1.75940655
VERTEX2 1103 -2.48895571 -7.89341564 -1.79321114
VERTEX2 1104 -2.63713066 -8.52674430 -1.82091977
VERTEX2 1105 -2.80238395 -9.14589330 -1.83881689
VERTEX2 1106 -2.93601969 -9.62042826 -1.86404354
VERTEX2 1107 -2.93549812 -9.62780328 -1.60791624
VERTEX2 1108 -2.91526633 -10.25389201 -1.60006077
VERTEX2 1109 -2.97992548 -10.89641714 -1.70396106
VERTEX2 1110 -3.06544288 -11.49907533 -1.75331704
VERTEX2 1111 -3.24394353 -12.02113172 -1.85441427
VERTEX2 1112 -3.28857654 -12.59617799 -1.50772686
VERTEX2 1113 -3.26466784 -13.23268017 -1.60293392
VERTEX2 1114 -3.28351840 -13.84585781 -1.58576007
VERTEX2 1115 -3.28912265 -14.42592604 -1.60181452
VERTEX2 1116 -3.28654192 -15.07131067 -1.56542633
VERTEX2 1117 -3.28517534 -15.16582483 -1.69303807
VERTEX2 1118 -3.28175486 -15.15966235 -2.29991638
VERTEX2 1119 -3.26921016 -15.15124271 -2.73130375
VERTEX2 1120 -3.83132790 -15.34761789 -2.79477587
VERTEX2 1121 -4.01812621 -15.41061761 -2.91318802
VERTEX2 1122 -4.01218820 -15.41274100 2.82000272
VERTEX2 1123 -4.55749908 -15.22163710 2.83708162
VERTEX2 1124 -5.11106430 -15.08661334 2.93601600
VERTEX2 1125 -5.73243007 -14.95410098 2.94969174
VERTEX2 1126 -5.80986800 -14.94069408 -2.99345934
VERTEX2 1127 -5.80565188 -14.94529354 -1.93554443
VERTEX2 1128 -5.80382582 -14.93688187 -0.94758070
VERTEX2 1129 -5.78567267 -14.94728167 0.06864662
VERTEX2 1130 -5.19273703 -14.88819334 0.08254057
VERTEX2 1131 -4.41777318 -15.02147377 -0.34887721
VERTEX2 1132 -3.80765490 -15.24568507 -0.36834643
VERTEX2 1133 -3.26173419 -15.47985797 -0.40682706
VERTEX2 1134 -3.00844041 -15.58924941 -0.50359759
VERTEX2 1135 -2.99774279 -15.59996679 -1.05916843
VERTEX2 1136 -2.99513844 -15.59465337 -1.62025081
VERTEX2 1137 -3.05129352 -15.89249646 -1.80376660
VERTEX2 1138 -3.21079685 -16.51986299 -1.81966361
VERTEX2 1139 -3.33478359 -17.01472336 -1.89270575
VERTEX2 1140 -3.32498948 -16.99188082 -2.37132337
VERTEX2 1141 -3.30376202 -16.97165169 -2.91832772
VERTEX2 1142 -3.66639698 -16.92453236 3.00082565
VERTEX2 1143 -4.26401495 -16.87162747 3.09039601
VERTEX2 1144 -4.84468993 -16.83130055 3.05993301
VERTEX2 1145 -5.42279943 -16.77975573 3.03461693
VERTEX2 1146 -5.99840344 -16.71658777 3.05450719
VERTEX2 1147 -6.57795260 -16.70054975 3.12737599
VERTEX2 1148 -7.15630702 -16.69208633 3.13740768
VERTEX2 1149 -7.19897133 -16.69294664 -2.64752997
VERTEX2 1150 -7.29220985 -16.79442835 -1.83792922
VERTEX2 1151 -7.29011784 -16.80721846 -0.83412648
VERTEX2 1152 -7.27320243 -16.80768942 0.21897614
VERTEX2 1153 -7.25922726 -16.80155075 1.23174500
VERTEX2 1154 -7.31465926 -16.48540414 1.77774451
VERTEX2 1155 -7.44037751 -15.86101423 1.72837317
VERTEX2 1156 -7.53048913 -15.25564040 1.73837167
VERTEX2 1157 -7.65075803 -14.68463174 1.84945872
VERTEX2 1158 -7.76987401 -14.08260219 1.72087860
VERTEX2 1159 -7.82300600 -13.48118223 1.62674064
VERTEX2 1160 -7.83775478 -12.84327305 1.48990809
VERTEX2 1161 -7.73034545 -12.21379031 1.40015940
VERTEX2 1162 -7.63112814 -11.58399173 1.45824235
VERTEX2 1163 -7.56068850 -10.94313920 1.45278211
VERTEX2 1164 -7.50455987 -10.30420899 1.53823790
VERTEX2 1165 -7.48730387 -9.76262541 1.51548795
VERTEX2 1166 -7.48839767 -9.75696243 2.00461606
VERTEX2 1167 -7.43679532 -9.74500349 2.94155528
VERTEX2 1168 -7.39202668 -9.72773652 -2.43789259
VERTEX2 1169 -7.39651081 -9.77893587 -1.61597132
VERTEX2 1170 -7.41297395 -10.36422219 -1.60924537
VERTEX2 1171 -7.41959084 -10.99824636 -1.57745646
VERTEX2 1172 -7.43025049 -11.59633591 -1.63983629
VERTEX2 1173 -7.46677202 -12.21916161 -1.63063421
VERTEX2 1174 -7.51724916 -12.84720398 -1.69925315
VERTEX2 1175 -7.60983186 -13.46019189 -1.73255309
VERTEX2 1176 -7.71330949 -14.07895515 -1.77619474
VERTEX2 1177 -7.83876293 -14.68547509 -1.77411956
VERTEX2 1178 -7.97578077 -15.29581342 -1.82129937
VERTEX2 1179 -8.11915456 -15.89796829 -1.79192175
VERTEX2 1180 -8.17574244 -16.15017269 -1.79887987
VERTEX2 1181 -8.17471666 -16.14339733 -0.97131818
VERTEX2 1182 -8.11949527 -16.15800138 -0.25951627
VERTEX2 1183 -7.50751865 -16.31280626 -0.23418996
VERTEX2 1184 -6.87589368 -16.43367998 -0.16465698
VERTEX2 1185 -6.24912638 -16.55006462 -0.19693534
VERTEX2 1186 -5.61860296 -16.65102235 -0.13078818
VERTEX2 1187 -4.96563448 -16.74281939 -0.16793492
VERTEX2 1188 -4.33930505 -16.83877505 -0.14989284
VERTEX2 1189 -3.67916206 -16.95255504 -0.12830206
VERTEX2 1190 -3.35038966 -16.99569552 -0.12036136
VERTEX2 1191 -3.32145860 -16.99533596 0.79962853
VERTEX2 1192 -3.31553594 -16.91951358 1.59702751
VERTEX2 1193 -3.30392149 -16.32711270 1.46490640
VERTEX2 1194 -3.25835206 -15.76093496 1.50686219
VERTEX2 1195 -3.22495265 -15.14526836 1.55909638
VERTEX2 1196 -3.21398591 -14.52423812 1.38637649
VERTEX2 1197 -3.10609109 -13.91402511 1.39757224
VERTEX2 1198 -3.03083420 -13.29128028 1.65629216
VERTEX2 1199 -3.04288410 -12.68113611 1.44145566
VERTEX2 1200 -2.98071114 -12.05486559 1.51032703
VERTEX2 1201 -2.95062124 -11.43826225 1.56599026
VERTEX2 1202 -2.95549343 -10.81815246 1.58875586
VERTEX2 1203 -2.98067608 -10.23052238 1.49859760
VERTEX2 1204 -2.86158994 -9.64363888 1.35152595
VERTEX2 1205 -2.74845587 -9.08580224 1.38084233
VERTEX2 1206 -2.65643004 -8.49336615 1.44206875
VERTEX2 1207 -2.51203318 -7.88057079 1.35595050
VERTEX2 1208 -2.39245110 -7.25355793 1.42059344
VERTEX2 1209 -2.29844928 -6.62943662 1.41860341
VERTEX2 1210 -2.22666052 -6.00908226 1.43910681
VERTEX2 1211 -2.09392965 -5.39651801 1.36635349
VERTEX2 1212 -1.97245857 -4.78400820 1.41644527
VERTEX2 1213 -1.89883752 -4.16861748 1.48978241
VERTEX2 1214 -1.80965636 -3.44146819 1.26714299
VERTEX2 1215 -1.63939189 -2.85766402 1.32618047
VERTEX2 1216 -1.58370051 -2.30243037 1.54349367
VERTEX2 1217 -1.54402436 -1.72030586 1.52415250
VERTEX2 1218 -1.52474604 -1.13031706 1.47348350
VERTEX2 1219 -1.46802208 -0.48176793 1.50408150
VERTEX2 1220 -1.45554177 0.10520184 1.59481950
VERTEX2 1221 -1.45501556 0.10336795 1.14206650
VERTEX2 1222 -1.44494718 0.11299024 0.54475950
VERTEX2 1223 -1.43308761 0.11568041 -0.01486750
VERTEX2 1224 -0.86000521 0.01808563 -0.19777550
VERTEX2 1225 -0.24573566 -0.10103042 -0.18401150
VERTEX2 1226 -0.14104964 -0.12062513 -0.20074250
VERTEX2 1227 -0.14104964 -0.12062513 -0.20140450
