1 78 122 0.00073528 4 
2 19 166 0.00285382 10 
3 19 172 0.00304405 10 
4 25 172 0.00311975 10 
5 25 178 0.00323857 10 
6 32 178 0.00323782 10 
7 32 183 0.00334094 10 
8 44 189 0.00344981 10 
9 44 195 0.00357729 10 
10 50 195 0.00356625 10 
11 50 201 0.00367943 10 
12 50 203 0.00373414 10 
13 61 203 0.00372294 10 
14 61 209 0.00382729 10 
15 67 209 0.00384160 10 
16 67 220 0.00406471 10 
17 81 220 0.00407458 10 
18 81 226 0.00417871 10 
19 87 226 0.00416128 10 
20 87 231 0.00426466 10 
21 94 231 0.00427050 10 
22 226 231 0.00426228 10 
23 151 240 0.00450445 10 
24 94 241 0.00452431 10 
25 101 241 0.00453683 10 
26 69 242 0.00459775 10 
27 101 247 0.00469604 10 
28 107 247 0.00469846 10 
29 94 252 0.00482851 10 
30 107 254 0.00488679 10 
31 114 254 0.00488871 10 
32 107 256 0.00494759 10 
33 114 256 0.00495542 10 
34 107 258 0.00498147 10 
35 114 258 0.00498833 10 
36 121 266 0.00517092 10 
37 126 266 0.00521037 10 
38 126 272 0.00532107 10 
39 132 272 0.00532941 10 
40 132 278 0.00544445 10 
41 138 278 0.00546335 10 
42 138 284 0.00557580 10 
43 151 284 0.00559149 10 
44 181 288 0.00585222 10 
45 151 291 0.00590360 10 
46 151 297 0.00599229 10 
47 157 297 0.00602923 10 
48 163 297 0.00605555 10 
49 166 297 0.00605772 10 
50 261 298 0.00613613 10 
51 19 305 0.00627723 10 
52 157 305 0.00631125 10 
53 163 305 0.00634148 10 
54 166 305 0.00632302 10 
55 172 305 0.00634563 10 
56 19 315 0.00569962 9 
57 25 315 0.00640015 10 
58 172 315 0.00656568 10 
59 172 328 0.00594653 9 
60 31 331 0.00677594 10 
61 19 337 0.00544233 8 
62 25 337 0.00690551 10 
63 172 337 0.00706727 10 
64 19 342 0.00694341 10 
65 25 342 0.00701008 10 
66 172 342 0.00360422 5 
67 178 342 0.00704133 10 
68 25 367 0.00443606 6 
69 32 367 0.00600797 8 
70 178 367 0.00519263 7 
71 183 367 0.00675714 9 
72 25 374 0.00769858 10 
73 32 374 0.00788727 10 
74 178 374 0.00551345 7 
75 183 374 0.00690157 9 
76 32 382 0.00624394 8 
77 183 382 0.00789172 10 
78 32 387 0.00793407 10 
79 183 387 0.00471806 6 
80 189 400 0.00832392 10 
81 190 404 0.00838149 10 
82 304 412 0.00684745 8 
83 189 414 0.00868121 10 
84 44 437 0.00914702 10 
85 195 437 0.00935464 10 
86 139 447 0.00942609 10 
87 96 453 0.00959496 10 
88 44 454 0.00967700 10 
89 189 454 0.00994474 10 
90 44 467 0.00995605 10 
91 50 467 0.01018156 10 
92 195 467 0.00411317 4 
93 457 478 0.00806652 8 
94 195 484 0.00713910 7 
95 44 494 0.00727058 7 
96 50 494 0.01052237 10 
97 195 494 0.01077060 10 
98 201 494 0.01074911 10 
99 23 499 0.01082488 10 
100 50 500 0.01088230 10 
101 201 500 0.01112580 10 
102 203 500 0.01118405 10 
103 88 504 0.01105968 10 
104 332 505 0.01119045 10 
105 61 508 0.01133528 10 
106 203 508 0.01157308 10 
107 209 508 0.01165998 10 
108 181 513 0.01157201 10 
109 61 522 0.01170019 10 
110 203 522 0.01198016 10 
111 209 522 0.01197808 10 
112 61 528 0.01184620 10 
113 67 528 0.01209349 10 
114 81 528 0.01218973 10 
115 209 528 0.01219874 10 
116 220 528 0.01221772 10 
117 67 532 0.01074934 9 
118 81 532 0.01205114 10 
119 220 532 0.01231004 10 
120 67 556 0.01252555 10 
121 67 564 0.01268544 10 
122 81 564 0.01298325 10 
123 220 564 0.01288100 10 
124 67 567 0.01276693 10 
125 81 567 0.01305394 10 
126 220 567 0.01305371 10 
127 67 570 0.01283882 10 
128 81 570 0.01312667 10 
129 220 570 0.01314118 10 
130 81 575 0.01323698 10 
131 220 575 0.01324115 10 
132 81 588 0.01322102 10 
133 87 588 0.01360464 10 
134 226 588 0.01361719 10 
135 87 597 0.01350170 10 
136 94 597 0.01398798 10 
137 226 597 0.01398302 10 
138 19 600 0.01407262 10 
139 87 604 0.01384051 10 
140 94 604 0.01431514 10 
141 94 616 0.01410532 10 
142 308 622 0.01445533 10 
143 94 632 0.01469568 10 
144 94 637 0.01464220 10 
145 101 637 0.01502350 10 
146 101 642 0.01478879 10 
147 107 642 0.01508096 10 
148 101 645 0.01481017 10 
149 107 645 0.01515436 10 
150 387 654 0.01512917 10 
151 101 657 0.01512037 10 
152 101 663 0.01206799 8 
153 107 663 0.01523671 10 
154 114 663 0.01574375 10 
155 101 665 0.01546815 10 
156 107 665 0.01580599 10 
157 114 665 0.01571423 10 
158 107 680 0.01568221 10 
159 107 683 0.01572093 10 
160 114 683 0.01616257 10 
161 497 685 0.01596832 10 
162 107 704 0.01633927 10 
163 114 704 0.01667903 10 
164 124 711 0.01649806 10 
165 107 714 0.01666512 10 
166 114 714 0.01695928 10 
167 107 730 0.01356516 8 
168 114 730 0.01698855 10 
169 307 734 0.01726383 10 
170 121 754 0.01753390 10 
171 126 754 0.01794522 10 
172 121 759 0.01771646 10 
173 126 759 0.01810004 10 
174 557 759 0.01851460 10 
175 413 761 0.01807718 10 
176 126 762 0.01820847 10 
177 132 762 0.01861846 10 
178 132 778 0.01841662 10 
179 157 778 0.01860773 10 
180 364 786 0.01913923 10 
181 197 791 0.01910935 10 
182 132 792 0.01992051 10 
183 132 800 0.01966120 10 
184 138 800 0.01983351 10 
185 138 806 0.01953662 10 
186 170 811 0.01966167 10 
187 390 816 0.01992816 10 
188 138 821 0.02004947 10 
189 138 823 0.01997573 10 
190 151 828 0.02018438 10 
191 151 847 0.02054267 10 
192 144 847 0.02125041 10 
193 151 855 0.01876715 9 
194 302 868 0.02161756 10 
195 151 895 0.02160040 10 
196 151 897 0.02188335 10 
197 138 903 0.02168125 10 
198 138 904 0.02215753 10 
199 132 907 0.02194456 10 
200 138 907 0.02240780 10 
201 132 911 0.02203855 10 
202 199 915 0.02232198 10 
203 121 923 0.02266329 10 
204 126 923 0.02301210 10 
205 783 927 0.02045812 9 
206 107 929 0.02335661 10 
207 114 929 0.02349495 10 
208 107 935 0.02316382 10 
209 114 935 0.02362590 10 
210 101 939 0.02089584 9 
211 107 939 0.02128818 9 
212 101 944 0.02391287 10 
213 94 947 0.02400432 10 
214 101 947 0.02447796 10 
215 310 950 0.02392192 10 
216 87 953 0.02401399 10 
217 94 953 0.02446618 10 
218 226 953 0.02460950 10 
219 81 959 0.02442837 10 
220 87 959 0.02495075 10 
221 220 959 0.02495105 10 
222 226 959 0.02495999 10 
223 67 965 0.02454678 10 
224 81 965 0.02501556 10 
225 220 965 0.02503228 10 
226 61 976 0.02476425 10 
227 67 976 0.02525794 10 
228 209 976 0.02528770 10 
229 50 982 0.02497268 10 
230 61 982 0.02548534 10 
231 201 982 0.02552234 10 
232 203 982 0.02035864 8 
233 44 988 0.02551238 10 
234 50 988 0.02077587 8 
235 195 988 0.02552030 10 
236 201 988 0.01810048 7 
237 44 994 0.02553508 10 
238 189 994 0.02587144 10 
239 195 994 0.02585916 10 
240 270 994 0.02611476 10 
241 32 1003 0.02592940 10 
242 178 1003 0.02656728 10 
243 183 1003 0.02656089 10 
244 25 1008 0.02619154 10 
245 32 1008 0.02704401 10 
246 178 1008 0.02671090 10 
247 183 1008 0.02669704 10 
248 25 1010 0.02626224 10 
249 32 1010 0.02677044 10 
250 172 1010 0.02893131 10 
251 178 1010 0.02680726 10 
252 66 1011 0.02657052 10 
253 439 1014 0.02681612 10 
254 19 1016 0.03180647 10 
255 166 1016 0.02753247 10 
256 172 1016 0.02197988 8 
257 474 1017 0.02731291 10 
258 830 1019 0.02511568 9 
259 151 1029 0.02814640 10 
260 157 1029 0.02838072 10 
261 163 1029 0.02882057 10 
262 166 1029 0.02874194 10 
263 615 1037 0.02872197 10 
264 223 1042 0.02900930 10 
265 1037 1043 0.01763701 6 
266 410 1047 0.02948043 10 
267 52 1076 0.02997296 10 
268 132 1084 0.03011116 10 
269 985 1109 0.03047369 10 
270 951 1111 0.03073920 10 
271 101 1138 0.03107770 10 
272 107 1147 0.03133378 10 
273 114 1147 0.03192697 10 
274 107 1150 0.04935124 10 
275 114 1150 0.19560141 10 
276 114 1158 0.18205901 10 
277 121 1158 0.18922123 10 
278 136 1158 0.18888709 10 
279 121 1164 0.18537155 10 
280 126 1164 0.19625374 10 
281 114 1175 0.18374087 10 
282 121 1175 0.19390592 10 
283 923 1175 0.10466380 10 
284 929 1175 0.03234909 10 
285 1158 1175 0.02253971 7 
286 415 1175 0.03191790 10 
287 101 1188 0.03209131 10 
288 939 1188 0.03267550 10 
289 1138 1188 0.03268465 10 
290 1147 1188 0.03278945 10 
291 1150 1188 0.03287984 10 
292 1050 1210 0.03565869 10 
293 1061 1210 0.03332852 10 
294 1075 1210 0.03330827 10 
295 1084 1210 0.03331552 10 
296 1088 1210 0.03332934 10 
297 1093 1210 0.03331918 10 
298 1098 1210 0.03334785 10 
299 1128 1215 0.02930224 9 
300 157 1217 0.03303782 10 
301 163 1217 0.03360274 10 
302 1029 1217 0.03320737 10 
303 1044 1217 0.03382746 10 
304 1050 1217 0.03396090 10 
305 1056 1217 0.03395347 10 
306 717 1223 0.03351172 10 
