VERTEX2 0 -0.00002311 0.00000052 -0.00000017
VERTEX2 1 -0.00002311 0.00000052 -0.00064217
VERTEX2 2 -0.00002311 0.00000052 -0.00118017
VERTEX2 3 0.01097874 -0.00097447 -0.00356217
VERTEX2 4 0.64098532 -0.01119972 -0.00744417
VERTEX2 5 0.69599300 -0.01171521 -0.09872617
VERTEX2 6 0.70024611 -0.01543454 -0.89599816
VERTEX2 7 0.69393338 0.00421395 -1.51153516
VERTEX2 8 0.69924024 0.02669472 -2.12506916
VERTEX2 9 0.71609151 0.04112373 -2.76313916
VERTEX2 10 0.72895803 0.04322112 2.90551514
VERTEX2 11 0.73318061 0.04053808 2.23123614
VERTEX2 12 0.73316333 0.04154653 1.58176214
VERTEX2 13 0.73872949 0.05907162 0.92226414
VERTEX2 14 0.75963501 0.07375183 0.31402514
VERTEX2 15 0.76854841 0.07435877 -0.21090285
VERTEX2 16 1.06247046 0.01415328 -0.22959485
VERTEX2 17 1.66362409 -0.13311356 -0.26082285
VERTEX2 18 2.28697820 -0.29647874 -0.27099985
VERTEX2 19 2.91427408 -0.49425268 -0.31957585
VERTEX2 20 3.50729005 -0.68405091 -0.31378294
VERTEX2 21 4.11575466 -0.83628973 -0.20238382
VERTEX2 22 4.72506022 -0.97763391 -0.18513747
VERTEX2 23 5.36460165 -1.02211918 -0.07790719
VERTEX2 24 5.99644114 -1.09359518 -0.13484410
VERTEX2 25 6.63164628 -1.16148033 -0.13199318
VERTEX2 26 7.24095328 -1.26263867 -0.17252732
VERTEX2 27 7.85714598 -1.35459253 -0.15668871
VERTEX2 28 8.43912901 -1.45381361 -0.16111926
VERTEX2 29 8.81849935 -1.51160320 -0.13032648
VERTEX2 30 8.82849456 -1.51426648 -0.66240081
VERTEX2 31 8.93136698 -1.65242514 -0.93072356
VERTEX2 32 9.29525673 -2.16207100 -0.94958760
VERTEX2 33 9.67819782 -2.66952203 -0.89880454
VERTEX2 34 10.09064573 -3.16105471 -0.87782100
VERTEX2 35 10.51330082 -3.64498895 -0.84365810
VERTEX2 36 10.94254898 -4.13020183 -0.85235409
VERTEX2 37 11.22533471 -4.44603544 -0.84481668
VERTEX2 38 11.22407126 -4.44430661 -1.16675887
VERTEX2 39 11.22202343 -4.43483791 -1.33793695
VERTEX2 40 11.36576340 -5.00543602 -1.32085081
VERTEX2 41 11.51493639 -5.60109716 -1.35302751
VERTEX2 42 11.63648054 -6.15991129 -1.37593448
VERTEX2 43 11.74204100 -6.74998351 -1.41635405
VERTEX2 44 11.83068238 -7.33902039 -1.45356332
VERTEX2 45 11.88528739 -7.95838063 -1.50906201
VERTEX2 46 11.91587519 -8.57960171 -1.52844510
VERTEX2 47 11.93559256 -9.20057279 -1.57013188
VERTEX2 48 11.93171712 -9.82576936 -1.57670214
VERTEX2 49 11.92407839 -10.44688123 -1.62757244
VERTEX2 50 11.87038918 -11.03521981 -1.67211650
VERTEX2 51 11.81520315 -11.62987219 -1.70111826
VERTEX2 52 11.71833864 -12.21048573 -1.77779808
VERTEX2 53 11.61835349 -12.76811035 -1.76539701
VERTEX2 54 11.50544367 -13.27945624 -1.82745916
VERTEX2 55 11.51216752 -13.24737030 -1.82216151
VERTEX2 56 11.51173829 -13.24904828 -1.81156635
VERTEX2 57 11.36800206 -13.86640744 -1.82297466
VERTEX2 58 11.22170180 -14.47191324 -1.77679819
VERTEX2 59 11.09263158 -15.07726195 -1.80045795
VERTEX2 60 10.96291791 -15.67890074 -1.77919008
VERTEX2 61 10.82738191 -16.28086731 -1.83008740
VERTEX2 62 10.67753260 -16.83870348 -1.79026094
VERTEX2 63 10.52588073 -17.40135493 -1.82582756
VERTEX2 64 10.39063587 -17.95908020 -1.76257632
VERTEX2 65 10.25576775 -18.51470539 -1.81418988
VERTEX2 66 10.10184128 -19.09997386 -1.82246567
VERTEX2 67 9.93507807 -19.69161382 -1.82112513
VERTEX2 68 9.83314862 -20.10322115 -1.84054958
VERTEX2 69 9.84768462 -20.05750927 -2.00021996
VERTEX2 70 9.83641073 -20.07840869 -2.67291813
VERTEX2 71 9.84911730 -20.07779961 2.96919898
VERTEX2 72 9.85963602 -20.08017267 2.96027099
VERTEX2 73 9.86809083 -20.08232299 2.89595203
VERTEX2 74 9.88054596 -20.09082186 2.27575838
VERTEX2 75 9.89303214 -20.09577229 1.92446926
VERTEX2 76 9.89707370 -20.10015850 2.62011814
VERTEX2 77 9.89913461 -20.10098708 2.85392810
VERTEX2 78 9.60763700 -20.11198246 -3.09121180
VERTEX2 79 8.98147212 -20.15242996 -3.09618173
VERTEX2 80 8.34388674 -20.15237918 3.11269245
VERTEX2 81 7.71547682 -20.12718515 3.08676770
VERTEX2 82 7.11508797 -20.08663993 3.03307422
VERTEX2 83 6.52565395 -20.03572091 3.00993843
VERTEX2 84 5.96254966 -19.95043118 2.93255249
VERTEX2 85 5.41938451 -19.84733238 2.94021233
VERTEX2 86 4.80903585 -19.72770830 2.85093820
VERTEX2 87 4.43416580 -19.62990424 2.79799476
VERTEX2 88 4.09299173 -19.50379493 2.76824283
VERTEX2 89 4.09959235 -19.50413334 -3.11877426
VERTEX2 90 3.49077939 -19.50918465 3.13345874
VERTEX2 91 2.87145371 -19.50668615 -3.10053896
VERTEX2 92 2.26829570 -19.50432849 3.06701622
VERTEX2 93 1.64597206 -19.40337253 2.96614909
VERTEX2 94 1.02469468 -19.26666664 2.92331920
VERTEX2 95 0.40742949 -19.18132790 3.06574308
VERTEX2 96 -0.19917900 -19.13219381 3.08960449
VERTEX2 97 -0.78992018 -19.07072030 3.01917866
VERTEX2 98 -1.37803827 -18.97150810 2.96131508
VERTEX2 99 -2.08279707 -18.84956251 3.00813604
VERTEX2 100 -2.64664258 -18.74344808 2.95635479
VERTEX2 101 -3.25910412 -18.68870161 3.05946756
VERTEX2 102 -3.87196905 -18.60943939 2.95357686
VERTEX2 103 -4.48008122 -18.49569560 3.04953268
VERTEX2 104 -5.09225985 -18.42042883 3.01585396
VERTEX2 105 -5.70464129 -18.35698653 3.06239253
VERTEX2 106 -6.30644586 -18.28757566 3.00750180
VERTEX2 107 -6.92403570 -18.19246981 3.00366069
VERTEX2 108 -7.37941258 -18.14413745 3.06520994
VERTEX2 109 -7.42543867 -18.13253287 2.61666182
VERTEX2 110 -7.44249766 -18.11491486 2.02526174
VERTEX2 111 -7.44275909 -18.03427806 1.51936750
VERTEX2 112 -7.41954019 -17.40055593 1.57376006
VERTEX2 113 -7.43842715 -16.77844139 1.62076028
VERTEX2 114 -7.47204270 -16.16478696 1.65751501
VERTEX2 115 -7.54554842 -15.52561927 1.71762566
VERTEX2 116 -7.66445753 -14.77623818 1.76158949
VERTEX2 117 -7.80019650 -14.16725042 1.85703006
VERTEX2 118 -7.80457077 -14.14782838 1.52222928
VERTEX2 119 -7.74950200 -13.63014327 1.46890148
VERTEX2 120 -7.69782489 -12.97439526 1.55907882
VERTEX2 121 -7.70948392 -12.35606176 1.62666426
VERTEX2 122 -7.74504136 -11.77561727 1.68281063
VERTEX2 123 -7.77024550 -11.59741866 1.66987186
VERTEX2 124 -7.68671358 -11.36401752 1.24639417
VERTEX2 125 -7.47107810 -10.76956515 1.23576289
VERTEX2 126 -7.34003436 -10.15132304 1.44280273
VERTEX2 127 -7.24486669 -9.51662206 1.44129748
VERTEX2 128 -7.17207349 -8.87777358 1.47780817
VERTEX2 129 -7.08845794 -8.24275702 1.44524165
VERTEX2 130 -7.02378795 -7.60966778 1.49800118
VERTEX2 131 -6.98093496 -6.98229635 1.58655826
VERTEX2 132 -6.96609773 -6.36441378 1.53701667
VERTEX2 133 -6.92197563 -5.79821326 1.50021463
VERTEX2 134 -6.87102948 -5.20308175 1.48201962
VERTEX2 135 -6.79203105 -4.62826800 1.45581988
VERTEX2 136 -6.72110944 -3.99655232 1.47547469
VERTEX2 137 -6.62720283 -3.36393660 1.43363578
VERTEX2 138 -6.55396995 -2.73244283 1.51387867
VERTEX2 139 -6.54100975 -2.10296414 1.57921728
VERTEX2 140 -6.57330650 -1.44341992 1.60962642
VERTEX2 141 -6.58295048 -0.79925834 1.56104890
VERTEX2 142 -6.58683379 -0.14541929 1.55706602
VERTEX2 143 -6.50874041 0.49709163 1.44629547
VERTEX2 144 -6.47047174 0.87239235 1.46363591
VERTEX2 145 -6.46617737 0.88559467 0.96546035
VERTEX2 146 -6.46534463 0.88994340 0.37248502
VERTEX2 147 -6.40798186 0.88626810 -0.11381941
VERTEX2 148 -5.97418278 0.82865325 -0.14935778
VERTEX2 149 -5.33125286 0.73863997 -0.12413440
VERTEX2 150 -4.69510266 0.67805365 -0.10984964
VERTEX2 151 -4.05354868 0.63475869 -0.02402850
VERTEX2 152 -3.42670389 0.60434018 -0.08489849
VERTEX2 153 -2.80009854 0.57655851 0.00850855
VERTEX2 154 -2.17701396 0.56054336 -0.06108369
VERTEX2 155 -1.55020952 0.53202049 -0.02772034
VERTEX2 156 -0.92088794 0.52265216 0.00292527
VERTEX2 157 -0.35517711 0.50932906 -0.06158857
VERTEX2 158 -0.16063879 0.49687411 -0.03409685
VERTEX2 159 -0.15514285 0.49515412 0.95321886
VERTEX2 160 -0.14974353 0.50409994 1.98888489
VERTEX2 161 -0.17092363 0.44770135 2.71039552
VERTEX2 162 -0.14518779 0.45357375 -2.53700226
VERTEX2 163 -0.14616169 0.44862129 -1.53993314
VERTEX2 164 -0.22542255 0.54693302 -0.47837554
VERTEX2 165 -0.05025278 0.52966603 -0.07055540
VERTEX2 166 0.64874223 0.48702227 -0.06884492
VERTEX2 167 1.26788939 0.43724740 -0.09840407
VERTEX2 168 1.85846513 0.38832527 -0.08661508
VERTEX2 169 2.45587607 0.31692032 -0.12379339
VERTEX2 170 3.04457535 0.24859085 -0.14470198
VERTEX2 171 3.60095819 0.15076210 -0.18292184
VERTEX2 172 4.22103300 0.04378935 -0.16878771
VERTEX2 173 4.84966313 -0.07679927 -0.19167723
VERTEX2 174 5.47455671 -0.19101747 -0.15162804
VERTEX2 175 6.09063685 -0.28119958 -0.17641670
VERTEX2 176 6.68963822 -0.40145613 -0.16690365
VERTEX2 177 7.31270224 -0.50430850 -0.19466387
VERTEX2 178 7.93354804 -0.65026819 -0.23379570
VERTEX2 179 8.33712292 -0.73439908 -0.18076545
VERTEX2 180 8.38740200 -0.74800175 -0.62336709
VERTEX2 181 8.82764885 -1.06724447 -0.67545689
VERTEX2 182 9.23386539 -1.42806862 -0.84903354
VERTEX2 183 9.57944211 -1.84776433 -0.90605547
VERTEX2 184 9.92395629 -2.36760680 -1.05165854
VERTEX2 185 10.21195820 -2.90890725 -1.14352390
VERTEX2 186 10.43405574 -3.48001546 -1.20933815
VERTEX2 187 10.63163718 -4.02861522 -1.23152316
VERTEX2 188 10.83609908 -4.59673715 -1.23658960
VERTEX2 189 11.03318485 -5.16860155 -1.26302843
VERTEX2 190 11.21588929 -5.76937142 -1.29207318
VERTEX2 191 11.38912740 -6.37270820 -1.31626387
VERTEX2 192 11.54330304 -6.96926495 -1.34475225
VERTEX2 193 11.66650176 -7.51697624 -1.40062851
VERTEX2 194 11.76591111 -8.08512736 -1.42756806
VERTEX2 195 11.84569651 -8.64812849 -1.45638893
VERTEX2 196 11.91173219 -9.26973208 -1.49763382
VERTEX2 197 11.94888873 -9.88661938 -1.52561450
VERTEX2 198 11.97331765 -10.50908608 -1.58347666
VERTEX2 199 11.94443193 -11.11989320 -1.64462225
VERTEX2 200 11.89695959 -11.72338255 -1.66631965
VERTEX2 201 11.82597550 -12.32277474 -1.72284032
VERTEX2 202 11.76213444 -12.82768862 -1.70257019
VERTEX2 203 11.66096873 -13.56102621 -1.75527949
VERTEX2 204 11.53888153 -14.13711487 -1.85712878
VERTEX2 205 11.36961275 -14.69791647 -1.86647391
VERTEX2 206 11.21545233 -15.24393060 -1.86450479
VERTEX2 207 11.05563242 -15.80965033 -1.84854178
VERTEX2 208 10.88224910 -16.40791546 -1.85800460
VERTEX2 209 10.72001058 -17.00782377 -1.81988316
VERTEX2 210 10.55603533 -17.60032992 -1.82863597
VERTEX2 211 10.40611060 -18.19667432 -1.82627598
VERTEX2 212 10.22868333 -18.78253656 -1.87902154
VERTEX2 213 10.03272532 -19.37207061 -1.89970484
VERTEX2 214 9.83200869 -19.94801693 -1.90342682
VERTEX2 215 9.71650660 -20.27020717 -1.93913254
VERTEX2 216 9.72857767 -20.24958550 -2.43756587
VERTEX2 217 9.75524365 -20.24674930 -2.97948044
VERTEX2 218 9.76537358 -20.25064149 -3.03540824
VERTEX2 219 9.20009521 -20.20636785 3.07939580
VERTEX2 220 8.59209307 -20.16208276 3.03962084
VERTEX2 221 7.95655705 -20.09715794 3.09019137
VERTEX2 222 7.33366783 -20.05589683 3.06464476
VERTEX2 223 6.70965869 -20.02789408 -3.12229570
VERTEX2 224 6.09564256 -20.03044982 3.13582896
VERTEX2 225 5.47854341 -20.02711726 -3.09701794
VERTEX2 226 4.86252369 -20.02343760 3.13759682
VERTEX2 227 4.21439353 -20.09536133 -2.98862999
VERTEX2 228 3.69064185 -20.08187576 2.93331179
VERTEX2 229 3.25306065 -20.04840746 3.05382366
VERTEX2 230 2.96175428 -20.03342421 3.02515942
VERTEX2 231 3.16537699 -20.05070301 3.09539278
VERTEX2 232 2.85976281 -19.91475406 2.67016579
VERTEX2 233 2.29926843 -19.65862898 2.77270885
VERTEX2 234 1.72600772 -19.43602296 2.72868811
VERTEX2 235 1.48049283 -19.33122503 2.72379962
VERTEX2 236 1.14220503 -19.33384569 3.12949343
VERTEX2 237 0.51044536 -19.35203469 -3.08326784
VERTEX2 238 -0.11437458 -19.40400339 -3.11604189
VERTEX2 239 -0.73405882 -19.40412869 3.09939491
VERTEX2 240 -1.30344546 -19.28913539 2.88099969
VERTEX2 241 -1.83985811 -19.16125242 2.96612184
VERTEX2 242 -2.42586056 -19.09981580 3.00569358
VERTEX2 243 -3.02325535 -19.01731713 3.00473111
VERTEX2 244 -3.64258190 -18.97231294 3.07589416
VERTEX2 245 -4.25283501 -18.92421866 3.02164664
VERTEX2 246 -4.85178492 -18.83886198 2.94932255
VERTEX2 247 -5.45211408 -18.75737872 3.05538719
VERTEX2 248 -6.00589961 -18.73705357 3.08677787
VERTEX2 249 -5.95622231 -18.74441987 -3.00349276
VERTEX2 250 -5.95204044 -18.74428505 2.69274522
VERTEX2 251 -6.27353394 -18.40655593 2.26942121
VERTEX2 252 -6.62905213 -17.98892118 2.27796339
VERTEX2 253 -7.00420899 -17.54156615 2.26693925
VERTEX2 254 -7.37284925 -17.08186375 2.22570799
VERTEX2 255 -7.44622174 -16.98915245 2.30957310
VERTEX2 256 -7.44939423 -16.91159761 1.83357527
VERTEX2 257 -7.50195955 -16.45192086 1.69809954
VERTEX2 258 -7.58689526 -15.86250347 1.77861260
VERTEX2 259 -7.73132841 -15.26034432 1.81946569
VERTEX2 260 -7.86604671 -14.70249143 1.81132993
VERTEX2 261 -7.86400725 -14.66725134 1.50031826
VERTEX2 262 -7.80275579 -14.01493168 1.50688587
VERTEX2 263 -7.76232889 -13.39616259 1.52025575
VERTEX2 264 -7.74908067 -12.79087606 1.61721108
VERTEX2 265 -7.78235375 -12.18672282 1.63729538
VERTEX2 266 -7.73586025 -11.60759970 1.50803288
VERTEX2 267 -7.68634307 -10.85882044 1.47857067
VERTEX2 268 -7.55547081 -10.25558051 1.36835261
VERTEX2 269 -7.43699070 -9.64189321 1.39819107
VERTEX2 270 -7.36622368 -9.01806165 1.51215884
VERTEX2 271 -7.27214512 -8.39234859 1.40181951
VERTEX2 272 -7.18781712 -7.76204258 1.46710501
VERTEX2 273 -7.19908839 -7.13072283 1.67922330
VERTEX2 274 -7.26836721 -6.51332384 1.70322613
VERTEX2 275 -7.25762384 -5.90487944 1.53180635
VERTEX2 276 -7.25206360 -5.29737292 1.64637499
VERTEX2 277 -7.30012343 -4.73263373 1.62087651
VERTEX2 278 -7.25818414 -4.09239866 1.53226974
VERTEX2 279 -7.21944548 -3.45438414 1.47695087
VERTEX2 280 -7.15229238 -2.82136342 1.47907109
VERTEX2 281 -7.06268442 -2.18623066 1.37875565
VERTEX2 282 -6.94375671 -1.55717399 1.41878049
VERTEX2 283 -6.85797065 -0.92207407 1.41114885
VERTEX2 284 -6.74715666 -0.29710138 1.43856428
VERTEX2 285 -6.68133583 0.35415347 1.45984197
VERTEX2 286 -6.61608923 0.97768742 1.51367906
VERTEX2 287 -6.61333503 1.03039508 1.40955939
VERTEX2 288 -6.60771327 1.04057951 0.80177883
VERTEX2 289 -6.60379873 1.04257540 0.20808470
VERTEX2 290 -6.16131404 1.03510934 -0.01710144
VERTEX2 291 -5.53660393 1.02891908 -0.00339163
VERTEX2 292 -4.91722608 1.01104704 -0.05807058
VERTEX2 293 -4.28976873 0.96753731 -0.08120686
VERTEX2 294 -3.66603091 0.91690890 -0.08063247
VERTEX2 295 -3.04220559 0.83803507 -0.19330490
VERTEX2 296 -2.42474831 0.69474932 -0.23891057
VERTEX2 297 -1.80964285 0.54443656 -0.25084202
VERTEX2 298 -1.19417636 0.39123947 -0.25190637
VERTEX2 299 -0.61765586 0.23565302 -0.19094300
VERTEX2 300 -0.02510349 0.15039958 -0.14907374
VERTEX2 301 0.54186990 0.05099210 -0.20867549
VERTEX2 302 0.84689971 -0.01451596 -0.23003435
VERTEX2 303 0.82380605 -0.00969016 -0.22571711
VERTEX2 304 1.31874084 -0.12456376 -0.21599535
VERTEX2 305 1.92703356 -0.16888270 -0.03206342
VERTEX2 306 2.55334205 -0.17871700 -0.05064791
VERTEX2 307 3.18766894 -0.22576297 -0.08799296
VERTEX2 308 3.81682190 -0.28882169 -0.14423931
VERTEX2 309 4.45187002 -0.34954696 -0.05249464
VERTEX2 310 5.08095561 -0.38063474 -0.08951287
VERTEX2 311 5.36453860 -0.40822681 0.08569222
VERTEX2 312 5.36312732 -0.40892561 1.07438922
VERTEX2 313 5.36822257 -0.19165062 1.57049063
VERTEX2 314 5.34992485 0.43534824 1.61045787
VERTEX2 315 5.32251576 1.06171646 1.60630420
VERTEX2 316 5.28344151 1.70668753 1.65740729
VERTEX2 317 5.22320064 2.34839929 1.66712939
VERTEX2 318 5.12553338 2.98566491 1.76140570
VERTEX2 319 5.04648945 3.33300560 1.83250295
VERTEX2 320 5.04829329 3.33855619 2.80019217
VERTEX2 321 5.03853462 3.33438821 -2.44415417
VERTEX2 322 5.03714574 3.33156042 -1.44876729
VERTEX2 323 5.04676950 3.32224409 -0.45716883
VERTEX2 324 5.04955472 3.32133357 0.20211763
VERTEX2 325 5.04897388 3.32129621 -0.32605403
VERTEX2 326 5.06318070 3.31054059 -0.92181044
VERTEX2 327 5.06645259 3.29482680 -1.54574704
VERTEX2 328 5.04767592 2.65678536 -1.59250657
VERTEX2 329 5.02271626 2.03018191 -1.64960861
VERTEX2 330 4.96496426 1.41441811 -1.67068585
VERTEX2 331 4.90581845 0.79736314 -1.68699052
VERTEX2 332 4.82131642 0.17694846 -1.70719912
VERTEX2 333 4.79881193 0.02410053 -1.64376207
VERTEX2 334 4.83177950 0.03108916 -0.84440269
VERTEX2 335 4.84881725 0.02604378 0.14646852
VERTEX2 336 4.86247796 0.03083144 1.08750049
VERTEX2 337 4.86767394 0.06308217 2.06635334
VERTEX2 338 4.86480503 0.06507473 3.05582389
VERTEX2 339 4.87675154 0.07248353 -2.17744332
VERTEX2 340 4.87688874 0.07133088 -1.15766130
VERTEX2 341 4.99023470 0.00282520 -0.52394662
VERTEX2 342 5.56319866 -0.30234217 -0.42186056
VERTEX2 343 6.14161286 -0.50409964 -0.29027589
VERTEX2 344 6.73081070 -0.68770779 -0.29970453
VERTEX2 345 6.96934448 -0.75809493 -0.32656507
VERTEX2 346 6.95584521 -0.75366518 -0.97224514
VERTEX2 347 6.95819973 -0.84130025 -1.52950184
VERTEX2 348 6.97568020 -1.43114814 -1.54562190
VERTEX2 349 6.97302401 -2.04988362 -1.58526291
VERTEX2 350 6.95933691 -2.83720262 -1.60432245
VERTEX2 351 6.94493043 -3.11017880 -1.63271450
VERTEX2 352 6.94327996 -3.11801740 -1.91959783
VERTEX2 353 6.93210866 -3.13169729 -2.58265025
VERTEX2 354 6.91870881 -3.13552830 3.09934264
VERTEX2 355 6.89852486 -3.13476937 2.38089479
VERTEX2 356 6.89230919 -3.12376595 1.80775982
VERTEX2 357 6.89512537 -3.10701930 1.15701446
VERTEX2 358 6.89666671 -3.10485840 0.54378438
VERTEX2 359 6.88541645 -3.10966468 -0.06801822
VERTEX2 360 6.87069276 -3.10673233 -0.24313899
VERTEX2 361 6.86290846 -3.10875786 0.67939235
VERTEX2 362 6.94862343 -2.87680880 1.21508959
VERTEX2 363 7.05208401 -2.60766263 1.20942952
VERTEX2 364 6.98301762 -2.27016633 1.82606958
VERTEX2 365 6.92911043 -1.98696878 1.33129690
VERTEX2 366 7.03524823 -1.86710385 0.77971024
VERTEX2 367 7.47883228 -1.43483848 0.78280714
VERTEX2 368 7.93554301 -0.99841402 0.73491385
VERTEX2 369 7.95562186 -0.97417757 0.48315624
VERTEX2 370 7.97993900 -0.97029824 -0.10348329
VERTEX2 371 7.98575306 -0.97331671 -0.64883858
VERTEX2 372 8.41423892 -1.32181986 -0.67646991
VERTEX2 373 8.88644318 -1.68659198 -0.67444735
VERTEX2 374 9.36508475 -2.08963390 -0.73554238
VERTEX2 375 9.72441119 -2.40929858 -0.76641394
VERTEX2 376 9.73592749 -2.41633971 -0.07372291
VERTEX2 377 9.78590616 -2.38078118 0.61947794
VERTEX2 378 10.32082427 -1.98326878 0.67239310
VERTEX2 379 10.80003891 -1.55331050 0.75586819
VERTEX2 380 11.23959569 -1.08708667 0.87380694
VERTEX2 381 11.38557881 -0.90727232 1.02223752
VERTEX2 382 11.38675434 -0.90512947 2.06727038
VERTEX2 383 11.38355475 -0.90316683 3.05422721
VERTEX2 384 11.38050274 -0.90605999 -2.26513433
VERTEX2 385 11.37516003 -0.91503391 -1.23494179
VERTEX2 386 11.47885154 -1.04987331 -1.00996578
VERTEX2 387 11.93364432 -1.47135641 -0.67815365
VERTEX2 388 12.39010913 -1.82365216 -0.67117353
VERTEX2 389 12.82177562 -2.19504653 -0.75578559
VERTEX2 390 12.82810945 -2.20046313 -0.28544269
VERTEX2 391 12.64074293 -2.19237263 0.09013169
VERTEX2 392 12.58452430 -2.19304290 1.11975853
VERTEX2 393 12.58538814 -2.12400982 2.35627016
VERTEX2 394 12.51714715 -2.09590481 -2.94579342
VERTEX2 395 12.70989388 -1.99413114 -2.61309315
VERTEX2 396 12.68879467 -2.00477856 -2.61557316
VERTEX2 397 12.65040844 -2.01349108 -2.62903757
VERTEX2 398 12.63573205 -2.02572887 -2.43532248
VERTEX2 399 12.56275601 -2.12917866 -2.14090383
VERTEX2 400 12.20990479 -2.68100724 -2.09334882
VERTEX2 401 11.86737856 -3.21985211 -2.18750977
VERTEX2 402 11.39256189 -3.67405659 -2.45675929
VERTEX2 403 10.88059620 -4.08198113 -2.49213013
VERTEX2 404 10.37756603 -4.43942826 -2.57248635
VERTEX2 405 10.36064982 -4.45451961 -2.04168369
VERTEX2 406 10.35560668 -4.40918532 -1.06867479
VERTEX2 407 10.52987440 -4.65567566 -0.94239018
VERTEX2 408 10.85090182 -5.10980559 -0.98184026
VERTEX2 409 10.97786345 -5.31247473 -1.08306906
VERTEX2 410 10.96797423 -5.27207094 -1.71451910
VERTEX2 411 11.14012637 -4.83588766 -2.57413929
VERTEX2 412 10.58697016 -5.05711277 -2.77900364
VERTEX2 413 9.94790528 -5.27395153 -2.85972028
VERTEX2 414 9.30313770 -5.47906466 -2.75700107
VERTEX2 415 8.69416368 -5.71767458 -2.74909465
VERTEX2 416 8.40612604 -5.84585672 -2.80379299
VERTEX2 417 8.11176474 -5.82999701 3.05587084
VERTEX2 418 7.67097307 -5.78700216 3.01120108
VERTEX2 419 7.67195338 -5.78678342 -2.84004819
VERTEX2 420 7.72370027 -5.76374323 -2.62320258
VERTEX2 421 7.72554054 -5.76083249 -1.65370264
VERTEX2 422 7.72135241 -5.76671154 -0.41208996
VERTEX2 423 7.72206059 -5.76678168 -0.06562789
VERTEX2 424 7.71736445 -5.76677135 -0.06461656
VERTEX2 425 7.70763186 -5.77227004 -0.05223219
VERTEX2 426 7.70279374 -5.77231350 -0.06070424
VERTEX2 427 7.73049216 -5.77374662 -0.05694011
VERTEX2 428 8.38780868 -5.79461176 -0.06182693
VERTEX2 429 9.02754181 -5.84322584 -0.10199326
VERTEX2 430 9.36451230 -5.88311514 -0.14747874
VERTEX2 431 9.33747281 -5.87989772 -0.09494674
VERTEX2 432 9.34553150 -5.88273384 -0.72550018
VERTEX2 433 9.34942212 -5.88806553 -1.40157437
VERTEX2 434 9.31314153 -6.42530394 -1.62909256
VERTEX2 435 9.28134236 -7.06634705 -1.65691215
VERTEX2 436 9.20395713 -7.70474862 -1.66521403
VERTEX2 437 9.15224310 -8.35291964 -1.65677633
VERTEX2 438 9.10100698 -8.81773145 -1.68698724
VERTEX2 439 9.09993442 -8.82174956 -2.12226571
VERTEX2 440 9.10650944 -8.81658728 -2.76413282
VERTEX2 441 9.12087776 -8.81518023 2.89827150
VERTEX2 442 9.12526569 -8.81760217 2.27014445
VERTEX2 443 9.12519187 -8.81639427 1.70440483
VERTEX2 444 9.12863050 -8.79844610 1.11405507
VERTEX2 445 9.13405317 -8.79328573 0.45717656
VERTEX2 446 9.13206275 -8.79451247 0.65927130
VERTEX2 447 9.14437783 -8.77081627 1.29195050
VERTEX2 448 9.29590494 -8.15293185 1.31002183
VERTEX2 449 9.43028430 -7.52038160 1.41200096
VERTEX2 450 9.52580339 -6.88689645 1.42619096
VERTEX2 451 9.57955183 -6.41948277 1.46923096
VERTEX2 452 9.57940031 -6.42123935 1.09194090
VERTEX2 453 9.57425779 -6.43051231 0.47085972
VERTEX2 454 9.83614881 -6.41081432 0.04930950
VERTEX2 455 10.43490325 -6.38655215 0.02886723
VERTEX2 456 11.06707941 -6.38221278 -0.03559820
VERTEX2 457 11.42081024 -6.40478658 -0.12319240
VERTEX2 458 11.41504165 -6.40191924 -0.76916372
VERTEX2 459 11.40627517 -6.36635423 -1.37744599
VERTEX2 460 11.38546373 -6.76405815 -1.63448952
VERTEX2 461 11.31650639 -7.37982089 -1.72245225
VERTEX2 462 11.22887126 -7.88858315 -1.76247580
VERTEX2 463 11.24025140 -7.86632272 -0.92226271
VERTEX2 464 11.49450354 -7.93876242 -0.24419638
VERTEX2 465 12.07710824 -8.07188281 -0.23646114
VERTEX2 466 12.62944168 -8.22322677 -0.29211225
VERTEX2 467 13.19912027 -8.40515650 -0.33558468
VERTEX2 468 13.81153820 -8.62305910 -0.37105737
VERTEX2 469 14.40037566 -8.88791515 -0.45393683
VERTEX2 470 14.85167862 -9.10266001 -0.43499587
VERTEX2 471 14.85737715 -9.10575820 -0.63470397
VERTEX2 472 14.87180129 -9.12595043 -1.26701304
VERTEX2 473 14.87220179 -9.12795933 -1.90724329
VERTEX2 474 14.87289151 -9.12708144 -2.53822240
VERTEX2 475 14.87558618 -9.12672219 -3.11176527
VERTEX2 476 14.87949601 -9.12726895 2.52047206
VERTEX2 477 14.88591885 -9.13992135 1.96117772
VERTEX2 478 14.88698071 -9.15430937 1.33437262
VERTEX2 479 14.88552333 -9.15762788 0.88045191
VERTEX2 480 14.88538177 -9.15793560 1.44291296
VERTEX2 481 14.88236712 -9.14473628 2.44565748
VERTEX2 482 14.88926236 -9.14752038 2.78207272
VERTEX2 483 14.89834302 -9.15089045 2.77683781
VERTEX2 484 14.47507287 -8.99278163 2.81251108
VERTEX2 485 13.87716185 -8.80288547 2.81027114
VERTEX2 486 13.27661034 -8.58903242 2.81987427
VERTEX2 487 12.66731501 -8.40842664 2.84822866
VERTEX2 488 12.05572020 -8.22598333 2.88442671
VERTEX2 489 11.58601122 -8.11759592 2.91493114
VERTEX2 490 11.59089725 -8.11712979 -2.88297284
VERTEX2 491 11.59824911 -8.10745929 -1.94655321
VERTEX2 492 11.58123371 -8.33759885 -1.64338531
VERTEX2 493 11.51877828 -8.94183640 -1.69835440
VERTEX2 494 11.43094794 -9.55334351 -1.75919148
VERTEX2 495 11.36106759 -10.17788815 -1.65192414
VERTEX2 496 11.31667230 -10.80365764 -1.53409383
VERTEX2 497 11.30926928 -11.42284489 -1.62004103
VERTEX2 498 11.24075972 -12.03993308 -1.72191790
VERTEX2 499 11.11059002 -12.66215649 -1.73899186
VERTEX2 500 11.16804606 -13.22877353 -1.41026423
VERTEX2 501 11.24120422 -13.80391727 -1.48262668
VERTEX2 502 11.26369603 -14.49630723 -1.56732495
VERTEX2 503 11.25841660 -14.94073513 -1.58444191
VERTEX2 504 11.26285631 -14.92830235 -0.72955804
VERTEX2 505 11.50805825 -14.95705907 -0.10817050
VERTEX2 506 12.10050108 -15.04108365 -0.25999586
VERTEX2 507 12.68164436 -15.21282276 -0.33793322
VERTEX2 508 13.25056145 -15.42584471 -0.35067681
VERTEX2 509 13.87187245 -15.66100492 -0.40650620
VERTEX2 510 14.22971757 -15.82139823 -0.42034496
VERTEX2 511 14.22759871 -15.80049859 0.45532812
VERTEX2 512 14.25210300 -15.74903777 1.65315928
VERTEX2 513 14.24782649 -15.73641614 2.60905343
VERTEX2 514 14.18014700 -15.71739360 2.83534502
VERTEX2 515 13.56970898 -15.53630702 2.83645484
VERTEX2 516 12.98490810 -15.34214440 2.85234593
VERTEX2 517 12.39189170 -15.19381807 2.88052162
VERTEX2 518 11.79924660 -15.04234338 2.90484324
VERTEX2 519 11.27704812 -14.91812995 2.88910818
VERTEX2 520 11.10905204 -14.87426421 -2.99572943
VERTEX2 521 11.12870596 -14.85265842 -1.99228775
VERTEX2 522 11.06218444 -15.25239099 -1.72806483
VERTEX2 523 10.97030468 -15.87275290 -1.73536767
VERTEX2 524 10.86606948 -16.44674306 -1.77723179
VERTEX2 525 10.76176636 -16.98877968 -1.75354236
VERTEX2 526 10.64525241 -17.55742188 -1.81231513
VERTEX2 527 10.49724309 -18.13591562 -1.84711880
VERTEX2 528 10.31491420 -18.70144701 -1.92310671
VERTEX2 529 10.10211475 -19.30284630 -1.95138994
VERTEX2 530 9.85436361 -19.90134139 -1.98146936
VERTEX2 531 9.58426810 -20.47532912 -2.06129870
VERTEX2 532 9.48637804 -20.66038207 -2.01070014
VERTEX2 533 9.48395383 -20.64849383 -1.01113404
VERTEX2 534 9.48458767 -20.64889864 -0.34422995
VERTEX2 535 9.48789862 -20.64918161 -0.34463184
VERTEX2 536 9.84417359 -20.73348041 -0.21396366
VERTEX2 537 10.45023882 -20.88262051 -0.27200215
VERTEX2 538 11.00959297 -21.05250418 -0.29915609
VERTEX2 539 11.61686679 -21.26228222 -0.36396680
VERTEX2 540 12.20287513 -21.51622399 -0.45690526
VERTEX2 541 12.78926495 -21.74500741 -0.29465409
VERTEX2 542 13.41961191 -21.88782708 -0.23899409
VERTEX2 543 13.54100409 -21.91847486 -0.26869943
VERTEX2 544 13.56199729 -21.91636873 0.36819980
VERTEX2 545 13.58554171 -21.87378309 1.43419746
VERTEX2 546 13.60293128 -21.91930543 2.26108297
VERTEX2 547 13.61099389 -21.91878446 -3.00062251
VERTEX2 548 13.62432456 -21.91027948 -2.07789825
VERTEX2 549 13.62597083 -21.89929823 -1.27143418
VERTEX2 550 13.62483229 -21.87868089 -1.75132144
VERTEX2 551 13.63318359 -21.86188034 -2.37780288
VERTEX2 552 13.65128205 -21.85293443 -3.01037079
VERTEX2 553 13.51441110 -21.80015475 2.69542772
VERTEX2 554 12.92336209 -21.51435717 2.65992512
VERTEX2 555 12.34507818 -21.23766840 2.74874682
VERTEX2 556 11.74166052 -21.01742652 2.88379117
VERTEX2 557 11.14153025 -20.84456117 2.84246105
VERTEX2 558 10.56580218 -20.68579772 2.92381463
VERTEX2 559 10.57336356 -20.68836941 2.51742658
VERTEX2 560 10.56685866 -20.68103003 2.01714846
VERTEX2 561 10.54452195 -20.65928556 2.52302218
VERTEX2 562 10.36561776 -20.65911554 -3.11580836
VERTEX2 563 9.79502816 -20.58067648 2.97595326
VERTEX2 564 9.18982011 -20.48948282 3.02501351
VERTEX2 565 8.60046731 -20.41871730 2.96752121
VERTEX2 566 8.66205002 -20.43781066 -2.53155587
VERTEX2 567 8.56781632 -20.44478702 -1.74031182
VERTEX2 568 8.51809920 -20.94993396 -1.67509789
VERTEX2 569 8.46669562 -21.52670069 -1.71423316
VERTEX2 570 8.39783631 -22.10837970 -1.70949398
VERTEX2 571 8.34523174 -22.46414349 -1.75704305
VERTEX2 572 8.31179223 -22.48858577 -2.00034372
VERTEX2 573 8.27668802 -22.56811119 -1.72413143
VERTEX2 574 8.29798861 -22.59808729 -0.78510810
VERTEX2 575 8.45213270 -22.64836127 0.13849563
VERTEX2 576 8.45270881 -22.64881652 1.16611871
VERTEX2 577 8.44639633 -22.63222557 2.13817888
VERTEX2 578 8.43712196 -22.60109707 1.77399781
VERTEX2 579 8.31126394 -21.95048634 1.78902781
VERTEX2 580 8.14855626 -21.31222174 1.86418740
VERTEX2 581 7.95329247 -20.69004410 1.90658936
VERTEX2 582 7.73065105 -20.07701560 1.94975332
VERTEX2 583 7.60042537 -19.76998245 2.02915670
VERTEX2 584 7.59537608 -19.76023674 2.87310700
VERTEX2 585 7.01272781 -19.62178123 2.99155537
VERTEX2 586 6.41967229 -19.54885056 3.08927452
VERTEX2 587 5.80166462 -19.53953031 3.11483856
VERTEX2 588 5.17268189 -19.51533295 3.11946152
VERTEX2 589 4.63566210 -19.54134054 -3.08852561
VERTEX2 590 4.08776850 -19.58660929 -3.01995158
VERTEX2 591 3.55017962 -19.66652727 -3.02198549
VERTEX2 592 3.00361286 -19.74184223 -3.02485466
VERTEX2 593 2.82763680 -19.76429984 -2.81982722
VERTEX2 594 2.86688764 -19.72181577 -1.89728662
VERTEX2 595 2.75637956 -20.32973350 -1.66465743
VERTEX2 596 2.70646309 -20.95438173 -1.68792230
VERTEX2 597 2.61735648 -21.62982654 -1.72799546
VERTEX2 598 2.51655508 -22.22897741 -1.76983873
VERTEX2 599 2.42955661 -22.60726545 -1.83568042
VERTEX2 600 2.42981919 -22.62313102 -1.02804597
VERTEX2 601 2.47190635 -22.64875359 -0.01042861
VERTEX2 602 2.50812330 -22.63397217 1.00307306
VERTEX2 603 2.47281295 -22.40023542 1.77532199
VERTEX2 604 2.41030491 -21.78889634 1.53106291
VERTEX2 605 2.41706829 -21.14251673 1.61378673
VERTEX2 606 2.37447911 -20.49660088 1.65599742
VERTEX2 607 2.38349057 -19.90802511 1.57512252
VERTEX2 608 2.36902394 -19.52348890 1.61974540
VERTEX2 609 2.36542234 -19.50279392 1.95631191
VERTEX2 610 2.35747664 -19.49995443 2.88949963
VERTEX2 611 1.76139061 -19.35211920 2.89265634
VERTEX2 612 1.28824782 -19.21953440 2.89565742
VERTEX2 613 1.32364879 -19.23017892 -2.92335053
VERTEX2 614 1.32966012 -19.22558572 -1.88459645
VERTEX2 615 1.34401355 -19.71095415 -1.57973857
VERTEX2 616 1.35337839 -20.33435111 -1.63110894
VERTEX2 617 1.21734820 -20.93830960 -1.84818475
VERTEX2 618 1.04986922 -21.54517258 -1.83799486
VERTEX2 619 0.89056598 -22.11749401 -1.83929608
VERTEX2 620 0.70866938 -22.69428228 -1.93530728
VERTEX2 621 0.83607640 -22.36179022 -1.98668577
VERTEX2 622 0.95823630 -22.09840865 -2.06154555
VERTEX2 623 0.95795354 -22.09879545 -2.59806574
VERTEX2 624 0.92924886 -22.09859941 3.04315935
VERTEX2 625 0.88825855 -22.08220460 2.38527802
VERTEX2 626 0.86037683 -22.05041926 1.76786211
VERTEX2 627 0.93190159 -21.67820206 1.35747615
VERTEX2 628 1.10891368 -21.05085307 1.25669123
VERTEX2 629 1.27885089 -20.42287258 1.32775012
VERTEX2 630 1.40272063 -19.81491153 1.41273678
VERTEX2 631 1.47340570 -19.28514032 1.43278349
VERTEX2 632 1.47606339 -19.26912202 2.10851797
VERTEX2 633 1.37989894 -19.26294313 -3.08867215
VERTEX2 634 0.71354602 -19.30265303 -3.06135790
VERTEX2 635 0.06171176 -19.31615591 3.08667676
VERTEX2 636 -0.57827226 -19.29037142 3.06896963
VERTEX2 637 -1.20422948 -19.21893996 2.96950790
VERTEX2 638 -1.59370672 -19.14102233 2.93993062
VERTEX2 639 -2.20210194 -19.04100477 3.02021468
VERTEX2 640 -2.81464702 -18.93480085 2.95223864
VERTEX2 641 -3.41255841 -18.82682424 2.94381007
VERTEX2 642 -3.98584424 -18.69258233 2.89834544
VERTEX2 643 -4.46758861 -18.55764637 2.83088073
VERTEX2 644 -4.47147146 -18.55852602 -2.69554359
VERTEX2 645 -4.50770762 -18.70032223 -1.91812104
VERTEX2 646 -4.64290347 -19.30918992 -1.62274017
VERTEX2 647 -4.59766544 -19.95046962 -1.33387701
VERTEX2 648 -4.37326497 -20.57386432 -1.16758126
VERTEX2 649 -4.19821147 -21.17103198 -1.50516178
VERTEX2 650 -4.29697776 -21.79889286 -1.76250609
VERTEX2 651 -4.31394393 -21.94357499 -0.96306001
VERTEX2 652 -4.25161689 -21.97139542 0.06195875
VERTEX2 653 -4.20538914 -21.92964056 1.09243557
VERTEX2 654 -4.21526621 -21.63256393 1.60563170
VERTEX2 655 -4.22727360 -21.08109568 1.60062270
VERTEX2 656 -4.22822778 -20.48094363 1.58798080
VERTEX2 657 -4.33668500 -19.87121942 1.86458504
VERTEX2 658 -4.52852073 -19.25579780 1.85740334
VERTEX2 659 -4.64449904 -18.76372062 1.78622830
VERTEX2 660 -4.64743416 -18.74927085 2.38630400
VERTEX2 661 -4.82520932 -18.73017698 3.03970305
VERTEX2 662 -5.41810671 -18.67250842 3.10928810
VERTEX2 663 -6.00469511 -18.68851678 -3.07289112
VERTEX2 664 -6.01233782 -18.68657388 -2.54967168
VERTEX2 665 -6.02806580 -18.78801222 -1.71603865
VERTEX2 666 -6.09819139 -19.39641373 -1.67889822
VERTEX2 667 -6.15379236 -19.96263373 -1.67427683
VERTEX2 668 -6.21572277 -20.55632094 -1.64849601
VERTEX2 669 -6.26252741 -21.18172908 -1.67362839
VERTEX2 670 -6.36030711 -21.79944660 -1.73310881
VERTEX2 671 -6.40705739 -22.09195727 -1.67812951
VERTEX2 672 -6.30681152 -21.51086425 -1.76724562
VERTEX2 673 -6.24132828 -21.24393876 -1.89780257
VERTEX2 674 -6.22836674 -21.23018544 -2.54595381
VERTEX2 675 -6.20469100 -21.22511024 3.12860381
VERTEX2 676 -6.19838160 -21.22878031 2.50525695
VERTEX2 677 -6.19365840 -21.23526469 1.88940695
VERTEX2 678 -6.16618876 -21.01304550 1.44345990
VERTEX2 679 -6.10359719 -20.43384205 1.50603598
VERTEX2 680 -6.13229987 -19.98567484 1.85091295
VERTEX2 681 -6.28593973 -19.39464760 1.82339816
VERTEX2 682 -6.45972641 -18.78915024 1.87107209
VERTEX2 683 -6.55271424 -18.50710573 2.03022961
VERTEX2 684 -6.50156403 -18.55892172 3.11122963
VERTEX2 685 -6.90197362 -18.72028420 -2.72772425
VERTEX2 686 -7.34948613 -18.85944454 -2.87196387
VERTEX2 687 -7.94417692 -19.01372600 -2.90696701
VERTEX2 688 -8.54230596 -19.13695628 -2.91873483
VERTEX2 689 -9.10672235 -19.27895583 -2.89106686
VERTEX2 690 -9.64255617 -19.45086825 -2.81689359
VERTEX2 691 -10.03773857 -19.58452875 -2.84492408
VERTEX2 692 -10.02372079 -19.57822040 -2.31074261
VERTEX2 693 -10.00057702 -19.65004986 -1.27047086
VERTEX2 694 -9.97626858 -19.72160027 -0.43511660
VERTEX2 695 -9.95794235 -19.71630334 0.36478893
VERTEX2 696 -9.95178318 -19.71223298 1.39014869
VERTEX2 697 -9.96322704 -19.75038769 1.13712183
VERTEX2 698 -9.63355346 -19.53985852 0.48226291
VERTEX2 699 -9.07089282 -19.22414750 0.59626099
VERTEX2 700 -8.55855721 -18.85977713 0.64975579
VERTEX2 701 -8.12573176 -18.49487459 0.70888930
VERTEX2 702 -7.64735020 -18.17744141 0.59369090
VERTEX2 703 -7.13592214 -17.83860472 0.62791082
VERTEX2 704 -6.64338921 -17.45417922 0.64605622
VERTEX2 705 -6.13139687 -17.02956499 0.71639218
VERTEX2 706 -5.69963241 -16.70801504 0.44755194
VERTEX2 707 -5.67125712 -16.70638435 -0.07243978
VERTEX2 708 -5.66004960 -16.71280781 -0.71060572
VERTEX2 709 -5.69987642 -16.67025615 -1.04254102
VERTEX2 710 -5.70471337 -16.65793611 -1.60340665
VERTEX2 711 -5.69474571 -16.66685631 -2.19986035
VERTEX2 712 -5.67838245 -16.65421126 -2.76095077
VERTEX2 713 -6.15429740 -16.70694853 -3.04666097
VERTEX2 714 -6.71027386 -16.68382459 3.03869400
VERTEX2 715 -7.33549275 -16.64881434 -3.14081120
VERTEX2 716 -7.96802888 -16.62876519 3.00443145
VERTEX2 717 -8.58800886 -16.56294769 3.08928174
VERTEX2 718 -9.35068467 -16.44680055 2.91380915
VERTEX2 719 -9.96807068 -16.33341952 2.98820065
VERTEX2 720 -10.58128623 -16.22287964 2.92892733
VERTEX2 721 -11.19943355 -16.10886782 2.99707835
VERTEX2 722 -11.21605159 -16.10655134 3.06371067
VERTEX2 723 -11.23596765 -16.12721286 -2.12981756
VERTEX2 724 -11.23596802 -16.16999648 -1.06122476
VERTEX2 725 -11.20908036 -16.18798323 -0.42703612
VERTEX2 726 -10.88349799 -16.18343400 0.02702754
VERTEX2 727 -10.24593105 -16.14427463 0.05770624
VERTEX2 728 -9.60559610 -16.11942238 0.05903078
VERTEX2 729 -8.96776091 -16.05831277 0.11659983
VERTEX2 730 -8.34449012 -15.96542816 0.15403224
VERTEX2 731 -7.69206295 -15.86398794 0.16591927
VERTEX2 732 -7.54581540 -15.83443357 0.61184016
VERTEX2 733 -7.54279271 -15.83936529 1.60712541
VERTEX2 734 -7.60082623 -15.28450498 1.68488736
VERTEX2 735 -7.66116772 -14.68233697 1.65294646
VERTEX2 736 -7.66188423 -14.67157374 2.25271122
VERTEX2 737 -7.65752629 -14.67215202 3.05375817
VERTEX2 738 -8.23825162 -14.63152870 3.07291384
VERTEX2 739 -8.84290594 -14.53638970 3.01538042
VERTEX2 740 -9.34745116 -14.49617669 3.07873558
VERTEX2 741 -9.32903275 -14.49596902 2.71003451
VERTEX2 742 -9.32991303 -14.49537197 2.05746996
VERTEX2 743 -9.33166771 -14.48763716 1.44087225
VERTEX2 744 -9.32246480 -14.46650967 0.90170177
VERTEX2 745 -9.30402646 -14.45683883 0.30842200
VERTEX2 746 -8.76250028 -14.47434678 -0.16626464
VERTEX2 747 -8.11802714 -14.58770427 -0.20141764
VERTEX2 748 -7.54173076 -14.72907771 -0.26963126
VERTEX2 749 -7.45927932 -14.74945781 0.15979276
VERTEX2 750 -7.44971471 -14.73172349 1.08728161
VERTEX2 751 -7.48507681 -14.45874319 1.72784397
VERTEX2 752 -7.54554818 -13.83291684 1.62462077
VERTEX2 753 -7.58596210 -13.19148075 1.68791438
VERTEX2 754 -7.59635960 -12.54819951 1.52589225
VERTEX2 755 -7.58058113 -11.91523349 1.61239913
VERTEX2 756 -7.54618363 -11.27966739 1.43608299
VERTEX2 757 -7.47460642 -10.63448083 1.54803261
VERTEX2 758 -7.49792264 -10.05550470 1.69032457
VERTEX2 759 -7.49017215 -9.50829106 1.57048353
VERTEX2 760 -7.53250679 -8.89587955 1.68240268
VERTEX2 761 -7.53557113 -8.85663957 1.86339537
VERTEX2 762 -7.61115945 -8.82338902 2.69725608
VERTEX2 763 -8.18586419 -8.72373627 2.99014452
VERTEX2 764 -8.60623627 -8.65458339 2.96264333
VERTEX2 765 -8.59546298 -8.65431544 -2.68101591
VERTEX2 766 -8.59709702 -8.65973266 -1.68055041
VERTEX2 767 -8.59205172 -8.67228257 -0.74955837
VERTEX2 768 -8.56489096 -8.67377618 -0.02708972
VERTEX2 769 -7.92955868 -8.58047242 0.12985393
VERTEX2 770 -7.27708971 -8.51688229 0.06275763
VERTEX2 771 -7.18842038 -8.50889268 0.62330465
VERTEX2 772 -7.18525840 -8.49862447 1.49094120
VERTEX2 773 -7.16509395 -7.92010083 1.57678644
VERTEX2 774 -7.18093934 -7.37328811 1.59892480
VERTEX2 775 -7.18005401 -7.37700607 2.44394909
VERTEX2 776 -7.38959360 -7.35283564 3.06145426
VERTEX2 777 -8.00321436 -7.31473272 3.12053882
VERTEX2 778 -8.61606483 -7.30781288 3.09963939
VERTEX2 779 -9.23639906 -7.29012407 3.11744669
VERTEX2 780 -9.44880178 -7.27294418 2.98684405
VERTEX2 781 -9.44817437 -7.27316087 2.41269586
VERTEX2 782 -9.57542830 -7.00363304 1.98251472
VERTEX2 783 -9.81096274 -6.43332866 1.98159586
VERTEX2 784 -9.90770313 -6.21345349 1.96010642
VERTEX2 785 -9.90835467 -6.19605240 1.40774547
VERTEX2 786 -9.90250267 -6.17672464 0.81900447
VERTEX2 787 -9.88491369 -6.15868380 0.32862876
VERTEX2 788 -9.85719655 -6.16053665 -0.30016034
VERTEX2 789 -9.84610681 -6.16921721 -0.85182523
VERTEX2 790 -9.53879008 -6.56439738 -0.91884889
VERTEX2 791 -9.13291687 -7.04610289 -0.82003359
VERTEX2 792 -8.89670970 -7.25577207 -0.11517525
VERTEX2 793 -8.28041831 -7.30708828 -0.07028932
VERTEX2 794 -7.63962934 -7.33493547 0.00104858
VERTEX2 795 -7.66125710 -7.35086701 0.43068996
VERTEX2 796 -7.66559116 -7.35259384 1.09041532
VERTEX2 797 -7.59089009 -7.03909539 1.35076858
VERTEX2 798 -7.45625094 -6.40846504 1.40103831
VERTEX2 799 -7.37007099 -5.75995160 1.46690008
VERTEX2 800 -7.31715314 -5.10948210 1.53994580
VERTEX2 801 -7.32935585 -4.47808291 1.62593044
VERTEX2 802 -7.38442087 -3.85342880 1.68369035
VERTEX2 803 -7.36832836 -3.22518937 1.51909356
VERTEX2 804 -7.34934501 -2.59819822 1.57505559
VERTEX2 805 -7.38377890 -1.96830694 1.65140522
VERTEX2 806 -7.44488956 -1.37056356 1.69288067
VERTEX2 807 -7.47202745 -1.18998997 1.98114581
VERTEX2 808 -7.48041395 -1.18981359 2.92986624
VERTEX2 809 -8.07546330 -1.16237500 3.07465285
VERTEX2 810 -8.69576283 -1.04040584 2.93459157
VERTEX2 811 -9.29768649 -0.93015649 2.93136647
VERTEX2 812 -9.29580802 -0.93055760 -2.61969791
VERTEX2 813 -9.30328382 -0.94744067 -1.64391839
VERTEX2 814 -9.29556511 -0.95350570 -0.65121280
VERTEX2 815 -9.26775392 -0.96276126 0.26848503
VERTEX2 816 -9.25366198 -0.95498687 0.94995071
VERTEX2 817 -9.24336266 -0.94842979 0.28053273
VERTEX2 818 -9.02165942 -0.98127311 -0.20885835
VERTEX2 819 -8.43082475 -1.10665410 -0.19495199
VERTEX2 820 -7.83756781 -1.23624077 -0.23640552
VERTEX2 821 -7.29180920 -1.36517041 -0.22081816
VERTEX2 822 -7.23835000 -1.37313169 0.54038631
VERTEX2 823 -7.23688202 -1.35721837 1.45935754
VERTEX2 824 -7.17425996 -0.73371101 1.37998473
VERTEX2 825 -7.03119584 -0.10811686 1.35029966
VERTEX2 826 -6.97524475 0.52526986 1.51324090
VERTEX2 827 -6.91242775 1.15045857 1.46460729
VERTEX2 828 -6.85937006 1.78296286 1.50017100
VERTEX2 829 -6.79972573 2.39134707 1.46057606
VERTEX2 830 -6.72614099 3.00509908 1.45239763
VERTEX2 831 -6.63399505 3.58171380 1.40562621
VERTEX2 832 -6.54575249 4.14399693 1.40208298
VERTEX2 833 -6.50274711 4.39848579 1.53976844
VERTEX2 834 -6.50436501 4.40414250 2.59452541
VERTEX2 835 -6.51673156 4.40552393 -2.91092141
VERTEX2 836 -6.52913068 4.39498135 -1.96777287
VERTEX2 837 -6.52543530 4.37516671 -0.93131699
VERTEX2 838 -6.51281702 4.36736225 -0.06904411
VERTEX2 839 -6.51142529 4.36670330 -0.28728029
VERTEX2 840 -6.49951707 4.35743420 -0.84988014
VERTEX2 841 -6.49124701 4.34094931 -1.46691379
VERTEX2 842 -6.51669056 4.09379130 -1.69771674
VERTEX2 843 -6.59314062 3.52850365 -1.70023739
VERTEX2 844 -6.66635824 2.90122552 -1.70825584
VERTEX2 845 -6.75814674 2.27442416 -1.72298262
VERTEX2 846 -6.84200883 1.64341800 -1.72126307
VERTEX2 847 -6.94984601 1.02019615 -1.74802493
VERTEX2 848 -6.97966987 0.82634155 -1.26782911
VERTEX2 849 -6.98071383 0.82674248 -0.34607325
VERTEX2 850 -6.62681549 0.82437507 0.00711168
VERTEX2 851 -6.00082569 0.80030807 -0.08552962
VERTEX2 852 -5.37770559 0.74105236 -0.07124074
VERTEX2 853 -4.78415481 0.70030903 -0.09929408
VERTEX2 854 -4.19824098 0.63424440 -0.09741740
VERTEX2 855 -3.60464902 0.58497584 -0.09934564
VERTEX2 856 -2.95777061 0.50084643 -0.13996510
VERTEX2 857 -2.31194496 0.41309852 -0.14938602
VERTEX2 858 -1.67149220 0.29313241 -0.20369629
VERTEX2 859 -1.15864626 0.19145596 -0.21032200
VERTEX2 860 -1.14864589 0.19562930 0.64156169
VERTEX2 861 -1.13662339 0.28408411 1.55743593
VERTEX2 862 -1.10313755 0.92474726 1.49802701
VERTEX2 863 -1.05120133 1.54993358 1.46572012
VERTEX2 864 -0.97052761 2.14102282 1.46375244
VERTEX2 865 -0.93423247 2.73342333 1.52151545
VERTEX2 866 -0.89454931 3.30033954 1.52049355
VERTEX2 867 -0.88884020 3.44514445 1.70183640
VERTEX2 868 -0.89011186 3.44654528 2.72608401
VERTEX2 869 -0.87211336 3.44697190 -2.57893589
VERTEX2 870 -0.84194471 3.46343588 -1.57972581
VERTEX2 871 -0.82772609 3.45392124 -0.60613531
VERTEX2 872 -0.81009655 3.44134766 0.07905126
VERTEX2 873 -0.78000657 3.43150759 -0.49360181
VERTEX2 874 -0.76046729 3.41405968 -1.05327854
VERTEX2 875 -0.75700607 3.40610351 -1.63987281
VERTEX2 876 -0.87132861 2.86105425 -1.79751160
VERTEX2 877 -1.01731039 2.32995840 -1.88224045
VERTEX2 878 -1.06379759 2.14195029 -1.49941603
VERTEX2 879 -0.96062632 1.51343702 -1.44847603
VERTEX2 880 -0.92354922 1.07473442 -1.56128513
VERTEX2 881 -0.92427389 1.13520644 -1.55603807
VERTEX2 882 -0.97658489 0.50685347 -1.80274535
VERTEX2 883 -1.18529190 -0.07741405 -1.99365645
VERTEX2 884 -1.33695120 -0.39871742 -2.06077409
VERTEX2 885 -1.33750794 -0.38773381 -1.47956896
VERTEX2 886 -1.32247139 -0.40171112 -0.46225717
VERTEX2 887 -1.29156283 -0.41364429 0.54832103
VERTEX2 888 -1.27535019 -0.37943372 1.53158959
VERTEX2 889 -1.27981562 -0.36645637 2.42904999
VERTEX2 890 -1.59448487 -0.21449748 2.70281721
VERTEX2 891 -2.13096458 0.05185226 2.63244280
VERTEX2 892 -2.66465761 0.37123985 2.59686917
VERTEX2 893 -3.21710816 0.66682726 2.83320004
VERTEX2 894 -3.82587358 0.77734058 3.05434440
VERTEX2 895 -4.41814281 0.72902377 -2.93043281
VERTEX2 896 -4.43667230 0.72457842 -2.45179285
VERTEX2 897 -4.72163712 0.30172271 -2.17941421
VERTEX2 898 -5.07350177 -0.20929682 -2.16378364
VERTEX2 899 -5.36047762 -0.62072531 -2.23139563
VERTEX2 900 -5.77434966 -1.16657642 -2.23367748
VERTEX2 901 -6.14670057 -1.61250810 -2.29793591
VERTEX2 902 -6.56357072 -2.10570959 -2.27259691
VERTEX2 903 -6.88041324 -2.48628620 -2.31725773
VERTEX2 904 -6.88133246 -2.48760320 -1.61399193
VERTEX2 905 -6.86722413 -2.97978646 -1.55845672
VERTEX2 906 -6.83296677 -3.55005537 -1.49266663
VERTEX2 907 -6.77640879 -4.12333177 -1.50077954
VERTEX2 908 -6.72963324 -4.74477524 -1.47594662
VERTEX2 909 -6.66860938 -5.35634305 -1.49381207
VERTEX2 910 -6.69609366 -5.48527433 -1.86360104
VERTEX2 911 -6.85543747 -6.05590604 -1.80266499
VERTEX2 912 -6.97553657 -6.61849282 -1.78998378
VERTEX2 913 -7.08671087 -7.15906298 -1.78198388
VERTEX2 914 -7.21171880 -7.74588846 -1.80556697
VERTEX2 915 -7.33423221 -8.25372061 -1.84219938
VERTEX2 916 -7.26972627 -8.49681327 -1.29480985
VERTEX2 917 -7.12999417 -9.14485144 -1.54929718
VERTEX2 918 -7.14949373 -9.66313523 -1.62486948
VERTEX2 919 -7.18234773 -10.28732212 -1.66821008
VERTEX2 920 -7.24617876 -10.90210723 -1.68580626
VERTEX2 921 -7.31886892 -11.51818701 -1.73914672
VERTEX2 922 -7.42086356 -12.12300793 -1.76634289
VERTEX2 923 -7.54060577 -12.69069614 -1.82977566
VERTEX2 924 -7.67165356 -13.18408496 -1.81313904
VERTEX2 925 -7.67230845 -13.18080669 -1.30840833
VERTEX2 926 -7.51086538 -13.74412077 -1.29221830
VERTEX2 927 -7.34255121 -14.33600729 -1.31554623
VERTEX2 928 -7.18464523 -14.93924557 -1.32446260
VERTEX2 929 -7.03322997 -15.53967562 -1.32533825
VERTEX2 930 -6.88469977 -16.17024973 -1.40794128
VERTEX2 931 -6.79722870 -16.79642866 -1.48818670
VERTEX2 932 -6.74987262 -17.42348850 -1.54763397
VERTEX2 933 -6.74527664 -18.03614958 -1.61222869
VERTEX2 934 -6.75897052 -18.51693985 -1.62204418
VERTEX2 935 -6.75624723 -18.52943320 -0.93978270
VERTEX2 936 -6.75491057 -18.52989937 0.00546647
VERTEX2 937 -6.21322637 -18.50364694 0.06836984
VERTEX2 938 -5.61749037 -18.51846356 -0.10500533
VERTEX2 939 -4.99381542 -18.57697095 -0.07726696
VERTEX2 940 -4.38248232 -18.65094986 -0.16286629
VERTEX2 941 -3.77802613 -18.76513493 -0.21626540
VERTEX2 942 -3.25959798 -18.87957759 -0.21153111
VERTEX2 943 -2.65063507 -19.01181137 -0.12291198
VERTEX2 944 -2.03800905 -19.09307816 -0.17929095
VERTEX2 945 -1.41774698 -19.21982957 -0.23405188
VERTEX2 946 -1.24419076 -19.26346772 -0.16935270
VERTEX2 947 -0.83800322 -19.19946532 0.15947098
VERTEX2 948 -0.27089716 -19.10922213 0.14084375
VERTEX2 949 0.32791247 -19.07283458 -0.01409421
VERTEX2 950 0.95581377 -19.10628659 -0.25271138
VERTEX2 951 1.55269491 -19.27302887 -0.32491889
VERTEX2 952 2.15987011 -19.44584515 -0.07527545
VERTEX2 953 2.79698249 -19.47419603 0.00412137
VERTEX2 954 3.42287358 -19.46443154 -0.00331993
VERTEX2 955 4.01374521 -19.50808911 -0.16475110
VERTEX2 956 4.56519786 -19.58490603 -0.16747010
VERTEX2 957 5.09686556 -19.67959357 -0.25567877
VERTEX2 958 5.56244398 -19.79025878 -0.28289327
VERTEX2 959 5.99097767 -19.90645730 -0.35055423
VERTEX2 960 6.57882669 -20.06806489 -0.27111326
VERTEX2 961 7.15899883 -20.24120884 -0.29851121
VERTEX2 962 7.77502580 -20.36900292 -0.23331778
VERTEX2 963 8.39118569 -20.44941598 -0.04722201
VERTEX2 964 9.01212243 -20.49093768 -0.11151686
VERTEX2 965 9.62870638 -20.57015267 -0.11875243
VERTEX2 966 10.07194604 -20.62894878 -0.17778470
VERTEX2 967 10.10449111 -20.62236332 0.67542891
VERTEX2 968 10.11222087 -20.61506541 1.57196889
VERTEX2 969 10.11458366 -20.64283645 1.63137202
VERTEX2 970 10.11706429 -20.67086033 1.62958251
VERTEX2 971 10.09666444 -20.33767236 1.62965636
VERTEX2 972 10.05809407 -19.75119488 1.63520780
VERTEX2 973 10.13767015 -19.16928836 1.35007714
VERTEX2 974 10.27699458 -18.56784089 1.38178781
VERTEX2 975 10.38850637 -17.96228107 1.38627974
VERTEX2 976 10.49332921 -17.35407171 1.39905593
VERTEX2 977 10.62838420 -16.73742852 1.37282199
VERTEX2 978 10.74870681 -16.12684490 1.41880707
VERTEX2 979 10.86284939 -15.52005520 1.40651369
VERTEX2 980 10.95997724 -14.91616546 1.45338306
VERTEX2 981 11.04803906 -14.32270012 1.46020902
VERTEX2 982 11.10377159 -13.79540686 1.50505416
VERTEX2 983 11.15260611 -13.19843147 1.50167543
VERTEX2 984 11.17911274 -12.60369414 1.55902413
VERTEX2 985 11.18931494 -12.00784009 1.57926658
VERTEX2 986 11.17396423 -11.38661261 1.61549709
VERTEX2 987 11.16095944 -10.76685313 1.57869435
VERTEX2 988 11.16345459 -10.14742352 1.59229724
VERTEX2 989 11.14869155 -9.53412739 1.59986520
VERTEX2 990 11.14180782 -8.92416285 1.58900736
VERTEX2 991 11.12654431 -8.31064585 1.61375655
VERTEX2 992 11.12153966 -7.72508434 1.58108942
VERTEX2 993 11.10799068 -7.11003084 1.61376331
VERTEX2 994 11.09186802 -6.52570542 1.60374124
VERTEX2 995 11.06052453 -5.93619632 1.65117719
VERTEX2 996 11.00147518 -5.33136699 1.67844595
VERTEX2 997 10.95709966 -4.68811778 1.61416233
VERTEX2 998 10.93767105 -4.28727250 1.63613310
VERTEX2 999 10.96419931 -4.30876039 2.35429692
VERTEX2 1000 10.50027346 -3.94784791 2.50306311
VERTEX2 1001 10.06016312 -3.54711258 2.18224022
VERTEX2 1002 9.69346845 -3.07604827 2.27497612
VERTEX2 1003 9.34403829 -2.57805952 2.09542638
VERTEX2 1004 9.00596349 -2.04272675 2.15368427
VERTEX2 1005 8.65309803 -1.54960667 2.21612924
VERTEX2 1006 8.25798432 -1.07250252 2.29351138
VERTEX2 1007 7.84582258 -0.64716121 2.38516820
VERTEX2 1008 7.61055594 -0.43273998 2.54468162
VERTEX2 1009 7.51295563 -0.41797811 3.01769696
VERTEX2 1010 6.94573179 -0.36224673 3.07022878
VERTEX2 1011 6.32842739 -0.32315104 3.02718843
VERTEX2 1012 5.72117103 -0.26036581 3.06936170
VERTEX2 1013 5.08686504 -0.26326726 -3.09857189
VERTEX2 1014 4.47595515 -0.21585546 3.00963096
VERTEX2 1015 3.84784229 -0.17677765 3.09401276
VERTEX2 1016 3.07512887 -0.13950948 3.10066222
VERTEX2 1017 2.49119466 -0.12701214 3.04341130
VERTEX2 1018 1.93342829 -0.06555103 3.05085260
VERTEX2 1019 1.33810617 -0.04153172 3.11054178
VERTEX2 1020 0.72252169 -0.00587649 3.09663119
VERTEX2 1021 0.10102939 0.02287882 3.05606644
VERTEX2 1022 0.04717480 0.02730037 3.04887346
VERTEX2 1023 0.05365657 0.02718059 3.13550531
VERTEX2 1024 -0.57372636 0.03449387 -3.12131782
VERTEX2 1025 -1.20331048 0.00347991 -3.10372025
VERTEX2 1026 -1.36520714 -0.00215286 -3.09652171
VERTEX2 1027 -1.35002571 0.00530062 -2.17990764
VERTEX2 1028 -1.36311625 -0.16204978 -1.61638860
VERTEX2 1029 -1.39143402 -0.72921331 -1.63792131
VERTEX2 1030 -1.45520830 -1.36023563 -1.71800353
VERTEX2 1031 -1.56841084 -2.01466917 -1.77186146
VERTEX2 1032 -1.69951486 -2.66893821 -1.76757736
VERTEX2 1033 -1.84360278 -3.32184813 -1.81249682
VERTEX2 1034 -1.89003937 -3.50075579 -2.02596777
VERTEX2 1035 -1.89598023 -3.50578065 -2.64466314
VERTEX2 1036 -1.85392578 -3.52502919 3.06824058
VERTEX2 1037 -2.18354004 -3.40099991 2.83013813
VERTEX2 1038 -2.79848776 -3.27980908 2.92154539
VERTEX2 1039 -3.44138163 -3.11102799 2.89023259
VERTEX2 1040 -3.41661817 -3.11151122 -2.76229639
VERTEX2 1041 -3.39036843 -3.11482181 -1.74437640
VERTEX2 1042 -3.39120202 -3.13242731 -0.75546122
VERTEX2 1043 -3.37182197 -3.14999579 0.21377899
VERTEX2 1044 -3.38320094 -3.16363642 1.20611608
VERTEX2 1045 -3.38532790 -3.16838721 1.09165388
VERTEX2 1046 -3.39434181 -3.18063580 0.70544513
VERTEX2 1047 -3.41122763 -3.18807737 0.14882338
VERTEX2 1048 -3.04897393 -3.25584350 -0.16446091
VERTEX2 1049 -2.40343544 -3.35182325 -0.14749563
VERTEX2 1050 -1.75600127 -3.42019813 -0.07205190
VERTEX2 1051 -1.09925264 -3.49205960 -0.15121793
VERTEX2 1052 -0.47404599 -3.57157263 -0.09828363
VERTEX2 1053 -0.05548728 -3.62505377 -0.15092926
VERTEX2 1054 -0.02778943 -3.62790822 0.61114244
VERTEX2 1055 -0.02166518 -3.59887896 1.66566290
VERTEX2 1056 -0.01195962 -3.61310449 2.66907103
VERTEX2 1057 0.01420232 -3.61598771 -2.62345073
VERTEX2 1058 0.01227166 -3.61825945 -1.70143834
VERTEX2 1059 -0.08562016 -4.20146355 -1.78223067
VERTEX2 1060 -0.22232933 -4.83195465 -1.77726732
VERTEX2 1061 -0.32973204 -5.27857379 -1.89985141
VERTEX2 1062 -0.33339178 -5.28421099 -2.46413987
VERTEX2 1063 -0.31214602 -5.27207309 -3.06193130
VERTEX2 1064 -0.59191389 -5.21927241 2.95596323
VERTEX2 1065 -1.17892119 -5.15181730 3.07789980
VERTEX2 1066 -1.74142782 -5.09901218 3.02176217
VERTEX2 1067 -1.72643862 -5.09824550 -2.82880299
VERTEX2 1068 -1.71396832 -5.08950621 -2.15607781
VERTEX2 1069 -1.71352595 -5.08832316 -1.98573229
VERTEX2 1070 -1.71224677 -5.08608632 -2.52474424
VERTEX2 1071 -2.18429673 -5.34168347 -2.65199251
VERTEX2 1072 -2.63451776 -5.57380755 -2.72068684
VERTEX2 1073 -2.60486809 -5.57307810 3.05128552
VERTEX2 1074 -3.13406725 -5.50078141 3.01689074
VERTEX2 1075 -3.71091196 -5.42403605 3.03342109
VERTEX2 1076 -3.72769269 -5.42283775 -2.84589344
VERTEX2 1077 -3.74100104 -5.44788905 -2.04029304
VERTEX2 1078 -3.98042076 -6.05760035 -1.99517524
VERTEX2 1079 -4.21414971 -6.62429928 -1.93308523
VERTEX2 1080 -4.21900583 -6.63723633 -2.42075063
VERTEX2 1081 -4.64802382 -6.92953304 -2.54402597
VERTEX2 1082 -4.81923941 -7.04867470 -2.26344563
VERTEX2 1083 -4.81507491 -7.08095392 -1.23326735
VERTEX2 1084 -4.74714384 -7.11600750 -0.26777736
VERTEX2 1085 -4.75058642 -7.11695003 0.71602127
VERTEX2 1086 -4.39069194 -6.62945224 0.94679293
VERTEX2 1087 -4.01149291 -6.12407548 0.93491710
VERTEX2 1088 -3.65102723 -5.61444955 0.91837138
VERTEX2 1089 -3.59595330 -5.54346399 0.82302983
VERTEX2 1090 -3.58633927 -5.53469963 0.20824840
VERTEX2 1091 -3.04839377 -5.50336302 0.03152822
VERTEX2 1092 -2.42906777 -5.48893320 0.01650678
VERTEX2 1093 -1.85970681 -5.49266493 -0.04842980
VERTEX2 1094 -1.84683927 -5.50494086 -0.45226219
VERTEX2 1095 -1.81628988 -5.53206464 -1.04166759
VERTEX2 1096 -1.81624731 -5.53238320 -1.61258118
VERTEX2 1097 -1.89964424 -5.85746457 -1.82784627
VERTEX2 1098 -2.07695824 -6.45410649 -1.88456313
VERTEX2 1099 -2.28217104 -7.00998933 -1.98056163
VERTEX2 1100 -2.28575899 -7.01901644 -1.61736004
VERTEX2 1101 -2.22658515 -7.28543318 -1.35139382
VERTEX2 1102 -2.22719322 -7.29258285 -1.74499323
VERTEX2 1103 -2.35392701 -7.89858294 -1.77877149
VERTEX2 1104 -2.49141041 -8.53077601 -1.80650723
VERTEX2 1105 -2.64599316 -9.14856468 -1.82448165
VERTEX2 1106 -2.77128276 -9.62100917 -1.84982622
VERTEX2 1107 -2.77050303 -9.63014645 -1.59387917
VERTEX2 1108 -2.74067533 -10.25693262 -1.58618760
VERTEX2 1109 -2.79550180 -10.89913760 -1.69034900
VERTEX2 1110 -2.87301759 -11.50680200 -1.74018762
VERTEX2 1111 -3.04519300 -12.03365735 -1.84184050
VERTEX2 1112 -3.08282622 -12.61060372 -1.49532256
VERTEX2 1113 -3.05115793 -13.24770571 -1.59062700
VERTEX2 1114 -3.06264787 -13.86226920 -1.57352506
VERTEX2 1115 -3.06130002 -14.44348293 -1.58964114
VERTEX2 1116 -3.05102980 -15.08985708 -1.55330440
VERTEX2 1117 -3.04849359 -15.18536958 -1.68097559
VERTEX2 1118 -3.04652399 -15.18171400 -2.28798100
VERTEX2 1119 -3.03729698 -15.17536237 -2.71946968
VERTEX2 1120 -3.60088715 -15.37975924 -2.78299583
VERTEX2 1121 -3.79078378 -15.44630951 -2.90146764
VERTEX2 1122 -3.78801283 -15.44725990 2.83160683
VERTEX2 1123 -4.33871702 -15.26151151 2.84863149
VERTEX2 1124 -4.89730752 -15.13216052 2.94749606
VERTEX2 1125 -5.52372901 -15.00616438 2.96110712
VERTEX2 1126 -5.60499593 -14.99305747 -2.98216005
VERTEX2 1127 -5.60204557 -14.99620651 -1.92452984
VERTEX2 1128 -5.60069958 -14.98967093 -0.93683050
VERTEX2 1129 -5.58653454 -14.99759704 0.07938791
VERTEX2 1130 -5.00143885 -14.93302744 0.09328474
VERTEX2 1131 -4.23146220 -15.05723636 -0.33809534
VERTEX2 1132 -3.62422682 -15.27323869 -0.35752954
VERTEX2 1133 -3.08070408 -15.49968108 -0.39595768
VERTEX2 1134 -2.83106077 -15.60434249 -0.49266109
VERTEX2 1135 -2.82227653 -15.61295755 -1.04808897
VERTEX2 1136 -2.82270368 -15.61382865 -1.60943474
VERTEX2 1137 -2.87657655 -15.91714241 -1.79308178
VERTEX2 1138 -3.03097796 -16.55136153 -1.80905314
VERTEX2 1139 -3.14963289 -17.04724027 -1.88205363
VERTEX2 1140 -3.13994647 -17.02396454 -2.36058198
VERTEX2 1141 -3.11860500 -17.00318275 -2.90748397
VERTEX2 1142 -3.48133989 -16.96003748 3.01174495
VERTEX2 1143 -4.07912310 -16.91367876 3.10136014
VERTEX2 1144 -4.65982655 -16.87973236 3.07093808
VERTEX2 1145 -5.23809318 -16.83457122 3.04566313
VERTEX2 1146 -5.81398937 -16.77779080 3.06559403
VERTEX2 1147 -6.39328591 -16.76817564 3.13850909
VERTEX2 1148 -6.97179690 -16.76614603 -3.13464428
VERTEX2 1149 -7.01454438 -16.76748371 -2.63639609
VERTEX2 1150 -7.10637982 -16.86969408 -1.82682173
VERTEX2 1151 -7.10432835 -16.88147446 -0.82303613
VERTEX2 1152 -7.08698416 -16.88176205 0.23004652
VERTEX2 1153 -7.07230274 -16.87511313 1.24279754
VERTEX2 1154 -7.13139452 -16.55868034 1.78879077
VERTEX2 1155 -7.26416168 -15.93485176 1.73941884
VERTEX2 1156 -7.36107764 -15.32961262 1.74941843
VERTEX2 1157 -7.48781772 -14.75910551 1.86050886
VERTEX2 1158 -7.61373917 -14.15755550 1.73193456
VERTEX2 1159 -7.67371243 -13.55587615 1.63787851
VERTEX2 1160 -7.69571222 -12.91744425 1.50112408
VERTEX2 1161 -7.59546097 -12.28657226 1.41143504
VERTEX2 1162 -7.50343877 -11.65543810 1.46956278
VERTEX2 1163 -7.44034653 -11.01345206 1.46413445
VERTEX2 1164 -7.39156554 -10.37348856 1.54961752
VERTEX2 1165 -7.38050587 -9.83326933 1.52682960
VERTEX2 1166 -7.38137110 -9.82906184 2.01587105
VERTEX2 1167 -7.33038647 -9.81664411 2.95265488
VERTEX2 1168 -7.28647707 -9.79915067 -2.42693908
VERTEX2 1169 -7.29037534 -9.85011432 -1.60481146
VERTEX2 1170 -7.30003657 -10.43567362 -1.59804622
VERTEX2 1171 -7.29923509 -11.06997257 -1.56623734
VERTEX2 1172 -7.30290077 -11.66833453 -1.62861748
VERTEX2 1173 -7.33211503 -12.29144629 -1.61943639
VERTEX2 1174 -7.37521591 -12.91977776 -1.68810217
VERTEX2 1175 -7.46053736 -13.53305353 -1.72146776
VERTEX2 1176 -7.55731308 -14.15392372 -1.76511651
VERTEX2 1177 -7.67623996 -14.76279043 -1.76304763
VERTEX2 1178 -7.80670896 -15.37560242 -1.81023402
VERTEX2 1179 -7.94364035 -15.98029866 -1.78086261
VERTEX2 1180 -7.99764924 -16.23410644 -1.78782648
VERTEX2 1181 -7.99684073 -16.22837465 -0.96028779
VERTEX2 1182 -7.94150168 -16.24235878 -0.24850735
VERTEX2 1183 -7.32791982 -16.39044839 -0.22318450
VERTEX2 1184 -6.69512174 -16.50438913 -0.15365178
VERTEX2 1185 -6.06723560 -16.61389351 -0.18592719
VERTEX2 1186 -5.43578748 -16.70792809 -0.11977334
VERTEX2 1187 -4.78201480 -16.79255421 -0.15691050
VERTEX2 1188 -4.15482031 -16.88162229 -0.13885596
VERTEX2 1189 -3.48502934 -16.98915775 -0.11733831
VERTEX2 1190 -3.14710676 -17.02967007 -0.10947782
VERTEX2 1191 -3.10863241 -17.02877886 0.81022072
VERTEX2 1192 -3.10310986 -16.94699391 1.60738222
VERTEX2 1193 -3.09721711 -16.34910805 1.47519844
VERTEX2 1194 -3.05674587 -15.77659663 1.51712591
VERTEX2 1195 -3.02903521 -15.15493641 1.56935905
VERTEX2 1196 -3.02389235 -14.53329272 1.39660180
VERTEX2 1197 -2.92133061 -13.91969400 1.40780336
VERTEX2 1198 -2.85171397 -13.29450754 1.66658617
VERTEX2 1199 -2.86951271 -12.68443509 1.45185830
VERTEX2 1200 -2.81317534 -12.05609925 1.52085184
VERTEX2 1201 -2.78900414 -11.43834394 1.57667197
VERTEX2 1202 -2.79995254 -10.81812241 1.59962064
VERTEX2 1203 -2.83100358 -10.23102885 1.50971006
VERTEX2 1204 -2.71746642 -9.64032066 1.36295401
VERTEX2 1205 -2.60978367 -9.07869253 1.39255559
VERTEX2 1206 -2.52502102 -8.49028271 1.45382968
VERTEX2 1207 -2.38833575 -7.88013747 1.36779351
VERTEX2 1208 -2.27656478 -7.25650499 1.43254617
VERTEX2 1209 -2.19028858 -6.63644858 1.43068091
VERTEX2 1210 -2.12612722 -6.02076387 1.45134031
VERTEX2 1211 -2.00148033 -5.40848285 1.37823666
VERTEX2 1212 -1.88782451 -4.79632375 1.42797692
VERTEX2 1213 -1.82166603 -4.18151871 1.50093112
VERTEX2 1214 -1.74104056 -3.45478070 1.27777330
VERTEX2 1215 -1.57772462 -2.87116193 1.33641111
VERTEX2 1216 -1.52771144 -2.31437908 1.55328800
VERTEX2 1217 -1.49376870 -1.73076532 1.53363755
VERTEX2 1218 -1.48021486 -1.14299458 1.48273895
VERTEX2 1219 -1.42977040 -0.49640974 1.51311072
VERTEX2 1220 -1.42269203 0.08829368 1.60358946
VERTEX2 1221 -1.42166943 0.08484368 1.15037660
VERTEX2 1222 -1.41383670 0.09245605 0.55251366
VERTEX2 1223 -1.40433934 0.09468847 -0.00764311
VERTEX2 1224 -0.83056684 0.00123637 -0.19055111
VERTEX2 1225 -0.21545278 -0.11343889 -0.17678711
VERTEX2 1226 -0.11062794 -0.13227680 -0.19351811
VERTEX2 1227 -0.11062794 -0.13227680 -0.19418011
