5.433593 15.448438
5.405826 18.549472
5.405271 15.907192
5.404086 19.817479
5.485124 34.042964
5.554429 19.069944
5.401602 23.008641
5.510163 18.074019
5.655087 21.908661
5.489410 16.517621
5.492247 19.484404
5.388577 20.897229
5.398041 20.528046
5.673241 34.153468
5.564228 30.361874
5.478824 18.324160
5.429170 16.981734
5.716802 22.318737
5.418407 19.825778
5.431603 20.390311
