VERTEX2 0 0.00000857 0.00000029 -0.00000062
VERTEX2 1 0.00000857 0.00000029 -0.00064262
VERTEX2 2 0.00000857 0.00000029 -0.00118062
VERTEX2 3 0.01101042 -0.00097470 -0.00356262
VERTEX2 4 0.64101699 -0.01120023 -0.00744462
VERTEX2 5 0.69602468 -0.01171575 -0.09872662
VERTEX2 6 0.70027779 -0.01543507 -0.89599862
VERTEX2 7 0.69396506 0.00421343 -1.51153562
VERTEX2 8 0.69979103 0.02888996 -2.12544092
VERTEX2 9 0.72061207 0.04670304 -2.76389264
VERTEX2 10 0.73957891 0.04977897 2.90439092
VERTEX2 11 0.74775257 0.04457178 2.22971292
VERTEX2 12 0.74772513 0.04636234 1.57985175
VERTEX2 13 0.75414639 0.06644416 0.91996320
VERTEX2 14 0.78387522 0.08721759 0.31173543
VERTEX2 15 0.80712180 0.08874762 -0.21318140
VERTEX2 16 1.11524777 0.02491040 -0.23186964
VERTEX2 17 1.73025097 -0.12716740 -0.26309825
VERTEX2 18 2.36733961 -0.29559960 -0.27328100
VERTEX2 19 3.01769325 -0.50191818 -0.32143575
VERTEX2 20 3.61031509 -0.69298531 -0.31538648
VERTEX2 21 4.21833360 -0.84633373 -0.20364191
VERTEX2 22 4.82720553 -0.98856091 -0.18610259
VERTEX2 23 5.46591050 -1.03378298 -0.07848823
VERTEX2 24 6.09632869 -1.10582688 -0.13537672
VERTEX2 25 6.73007888 -1.17425981 -0.13245400
VERTEX2 26 7.33832633 -1.27536741 -0.17296748
VERTEX2 27 7.95352302 -1.36728366 -0.15712003
VERTEX2 28 8.53443341 -1.46643098 -0.16155197
VERTEX2 29 8.91279840 -1.52417234 -0.13076751
VERTEX2 30 8.92142862 -1.52647560 -0.66286037
VERTEX2 31 9.02220592 -1.66193498 -0.93119851
VERTEX2 32 9.38961869 -2.17676877 -0.94972160
VERTEX2 33 9.76704330 -2.67785980 -0.89955788
VERTEX2 34 10.17433638 -3.16450880 -0.87903772
VERTEX2 35 10.59137573 -3.64367870 -0.84532477
VERTEX2 36 11.01468623 -4.12428493 -0.85441737
VERTEX2 37 11.29174928 -4.43519423 -0.84726362
VERTEX2 38 11.28636785 -4.42784617 -1.16990099
VERTEX2 39 11.28371785 -4.41546582 -1.34162256
VERTEX2 40 11.42418244 -4.98373040 -1.32490891
VERTEX2 41 11.57133271 -5.58299071 -1.35688202
VERTEX2 42 11.69111249 -6.14552600 -1.37956940
VERTEX2 43 11.79589823 -6.74615671 -1.41929710
VERTEX2 44 11.88395850 -7.34603242 -1.45579254
VERTEX2 45 11.93766030 -7.96685459 -1.51109540
VERTEX2 46 11.96739998 -8.58919029 -1.53031889
VERTEX2 47 11.98634729 -9.21112112 -1.57186313
VERTEX2 48 11.98175759 -9.83694407 -1.57832304
VERTEX2 49 11.97347300 -10.45863162 -1.62909769
VERTEX2 50 11.91922810 -11.04686356 -1.67357048
VERTEX2 51 11.86316073 -11.64409973 -1.70250200
VERTEX2 52 11.76536030 -12.22681938 -1.77912517
VERTEX2 53 11.66482887 -12.78384581 -1.76672876
VERTEX2 54 11.55146130 -13.29447326 -1.82880289
VERTEX2 55 11.55834190 -13.26185826 -1.82351533
VERTEX2 56 11.55808251 -13.26287617 -1.81293012
VERTEX2 57 11.41378509 -13.87944156 -1.82435591
VERTEX2 58 11.26693699 -14.48412309 -1.77820609
VERTEX2 59 11.13726858 -15.08873001 -1.80189887
VERTEX2 60 11.00694550 -15.68960963 -1.78067158
VERTEX2 61 10.87079031 -16.29077161 -1.83161995
VERTEX2 62 10.72030743 -16.84845786 -1.79168951
VERTEX2 63 10.56808435 -17.41093872 -1.82716754
VERTEX2 64 10.43230063 -17.96864527 -1.76383866
VERTEX2 65 10.29694476 -18.52424569 -1.81539073
VERTEX2 66 10.14258078 -19.10938032 -1.82362617
VERTEX2 67 9.97643150 -19.69771144 -1.82248156
VERTEX2 68 9.86478884 -20.14505496 -1.83834031
VERTEX2 69 9.86795209 -20.13489275 -1.99338547
VERTEX2 70 9.87490114 -20.12173127 -2.66789651
VERTEX2 71 9.89854833 -20.12047183 2.97248775
VERTEX2 72 9.91157046 -20.12214698 2.96295380
VERTEX2 73 9.91931632 -20.12409837 2.89795257
VERTEX2 74 9.91973043 -20.12436786 2.27601563
VERTEX2 75 9.92673600 -20.12714694 1.92357364
VERTEX2 76 9.91532315 -20.11436404 2.61731476
VERTEX2 77 9.91135583 -20.11267502 2.85019525
VERTEX2 78 9.63288152 -20.12168244 -3.09616027
VERTEX2 79 9.01768596 -20.15640926 -3.10158131
VERTEX2 80 8.38859918 -20.15090122 3.10692130
VERTEX2 81 7.76712851 -20.12036701 3.08079311
VERTEX2 82 7.17160915 -20.07583873 3.02655557
VERTEX2 83 6.58705460 -20.02076267 3.00295134
VERTEX2 84 6.02841243 -19.93137296 2.92506278
VERTEX2 85 5.48930790 -19.82398762 2.93231790
VERTEX2 86 4.88359306 -19.69904452 2.84259848
VERTEX2 87 4.50588098 -19.59448382 2.78954001
VERTEX2 88 4.14909149 -19.45916445 2.75954487
VERTEX2 89 4.16278320 -19.45988728 -3.12776730
VERTEX2 90 3.56147013 -19.45876274 3.12435116
VERTEX2 91 2.94942722 -19.45000624 -3.10972362
VERTEX2 92 2.35347074 -19.44153267 3.05778891
VERTEX2 93 1.73691443 -19.33499826 2.95693991
VERTEX2 94 1.11342907 -19.19113744 2.91400981
VERTEX2 95 0.49260835 -19.09889356 3.05667075
VERTEX2 96 -0.11726202 -19.04340071 3.08076031
VERTEX2 97 -0.70652492 -18.97624426 3.01015415
VERTEX2 98 -1.29362269 -18.87119076 2.95215399
VERTEX2 99 -1.99710685 -18.74199716 2.99889936
VERTEX2 100 -2.56008834 -18.63011869 2.94707857
VERTEX2 101 -3.16200928 -18.56988641 3.05046276
VERTEX2 102 -3.77446773 -18.48508161 2.94464260
VERTEX2 103 -4.38182523 -18.36587087 3.04066434
VERTEX2 104 -4.99357816 -18.28515524 3.00703151
VERTEX2 105 -5.60564237 -18.21629485 3.05361828
VERTEX2 106 -6.20706196 -18.14158627 2.99877169
VERTEX2 107 -6.82401714 -18.04106673 2.99496714
VERTEX2 108 -7.27852558 -17.98882683 3.05646124
VERTEX2 109 -7.32400212 -17.97693453 2.60780600
VERTEX2 110 -7.34224494 -17.95776375 2.01664369
VERTEX2 111 -7.34181567 -17.87800494 1.51095747
VERTEX2 112 -7.31348844 -17.24547940 1.56543556
VERTEX2 113 -7.32734972 -16.62396198 1.61250819
VERTEX2 114 -7.35603604 -16.01068873 1.64932282
VERTEX2 115 -7.42505938 -15.37235310 1.71004592
VERTEX2 116 -7.53950094 -14.62276614 1.75452523
VERTEX2 117 -7.67203811 -14.01307012 1.85012995
VERTEX2 118 -7.67626383 -13.99368734 1.51562431
VERTEX2 119 -7.61930615 -13.48447978 1.46236555
VERTEX2 120 -7.56505106 -12.83660714 1.55251308
VERTEX2 121 -7.57359707 -12.22339748 1.61998562
VERTEX2 122 -7.60507647 -11.63978461 1.67572759
VERTEX2 123 -7.62929060 -11.45901421 1.66251033
VERTEX2 124 -7.54385959 -11.22587144 1.24016934
VERTEX2 125 -7.32674198 -10.63906313 1.22945019
VERTEX2 126 -7.19324841 -10.02869884 1.43635925
VERTEX2 127 -7.09550881 -9.40032830 1.43498900
VERTEX2 128 -7.01996960 -8.76719759 1.47159137
VERTEX2 129 -6.93381592 -8.13826508 1.43906107
VERTEX2 130 -6.86646230 -7.51075715 1.49180033
VERTEX2 131 -6.82077224 -6.88835918 1.58026957
VERTEX2 132 -6.80291874 -6.27455478 1.53057727
VERTEX2 133 -6.75558902 -5.71102263 1.49385616
VERTEX2 134 -6.70136096 -5.11869560 1.47571231
VERTEX2 135 -6.61940566 -4.54729773 1.44953225
VERTEX2 136 -6.54518756 -3.91881009 1.46916885
VERTEX2 137 -6.44882857 -3.29298317 1.42727850
VERTEX2 138 -6.37302999 -2.66798811 1.50734363
VERTEX2 139 -6.35591144 -2.04601814 1.57269395
VERTEX2 140 -6.38316822 -1.39922950 1.60326150
VERTEX2 141 -6.38840436 -0.76784362 1.55486227
VERTEX2 142 -6.38803730 -0.12677782 1.55105633
VERTEX2 143 -6.30734281 0.50321720 1.44052431
VERTEX2 144 -6.26678609 0.87932966 1.45823274
VERTEX2 145 -6.26014032 0.89940274 0.96019523
VERTEX2 146 -6.25773031 0.91165412 0.36737538
VERTEX2 147 -6.20592146 0.90807065 -0.11876826
VERTEX2 148 -5.77870433 0.84943664 -0.15425356
VERTEX2 149 -5.14254660 0.75776494 -0.12901440
VERTEX2 150 -4.51254610 0.69522336 -0.11474992
VERTEX2 151 -3.88572415 0.65072338 -0.02835625
VERTEX2 152 -3.26902130 0.61799675 -0.08957176
VERTEX2 153 -2.65261956 0.58765558 0.00347661
VERTEX2 154 -2.03972932 0.56869975 -0.06646335
VERTEX2 155 -1.41871710 0.53742419 -0.03265862
VERTEX2 156 -0.79484692 0.52540142 -0.00160415
VERTEX2 157 -0.22540254 0.50968322 -0.06490121
VERTEX2 158 -0.03095832 0.49658738 -0.03740944
VERTEX2 159 -0.02551401 0.49486364 0.94990648
VERTEX2 160 -0.02010420 0.50376034 1.98557266
VERTEX2 161 -0.04190365 0.44629099 2.70709052
VERTEX2 162 -0.01620184 0.45206647 -2.54030720
VERTEX2 163 -0.01719615 0.44709712 -1.54323810
VERTEX2 164 -0.09566619 0.54498148 -0.48086934
VERTEX2 165 0.07426921 0.52778207 -0.07309965
VERTEX2 166 0.76786456 0.48346022 -0.07139707
VERTEX2 167 1.37978697 0.43264845 -0.10065022
VERTEX2 168 1.96314207 0.38296088 -0.08856570
VERTEX2 169 2.55524122 0.31064714 -0.12548360
VERTEX2 170 3.13860605 0.24157566 -0.14611833
VERTEX2 171 3.69713027 0.14259289 -0.18441588
VERTEX2 172 4.32548007 0.03366171 -0.17018291
VERTEX2 173 4.95279830 -0.08773877 -0.19294610
VERTEX2 174 5.57637212 -0.20268648 -0.15275092
VERTEX2 175 6.19106133 -0.29351360 -0.17739138
VERTEX2 176 6.78883465 -0.41427201 -0.16772162
VERTEX2 177 7.41058522 -0.51757906 -0.19531128
VERTEX2 178 8.03033247 -0.66386188 -0.23425660
VERTEX2 179 8.43060916 -0.74752975 -0.18084534
VERTEX2 180 8.47808727 -0.76036171 -0.62273597
VERTEX2 181 8.91758326 -1.07882472 -0.67443767
VERTEX2 182 9.32333782 -1.43936604 -0.84834725
VERTEX2 183 9.67259813 -1.86391100 -0.90596209
VERTEX2 184 10.00718318 -2.37277026 -1.05281541
VERTEX2 185 10.28797826 -2.90690000 -1.14561455
VERTEX2 186 10.50535030 -3.47605982 -1.21214610
VERTEX2 187 10.69853293 -4.02379217 -1.23483283
VERTEX2 188 10.89810208 -4.59115227 -1.24023095
VERTEX2 189 11.09030725 -5.16287610 -1.26686030
VERTEX2 190 11.27213445 -5.76849043 -1.29564782
VERTEX2 191 11.44365964 -6.37300209 -1.31964526
VERTEX2 192 11.59621390 -6.97052876 -1.34795467
VERTEX2 193 11.71796983 -7.51896056 -1.40365611
VERTEX2 194 11.81660170 -8.09170986 -1.42994483
VERTEX2 195 11.89585137 -8.65930094 -1.45811176
VERTEX2 196 11.96124429 -9.28839116 -1.49872990
VERTEX2 197 11.99784397 -9.91308172 -1.52608805
VERTEX2 198 12.02171933 -10.53501696 -1.58416337
VERTEX2 199 11.99217952 -11.14567858 -1.64550707
VERTEX2 200 11.94452332 -11.74238893 -1.66742324
VERTEX2 201 11.87346704 -12.33512187 -1.72415802
VERTEX2 202 11.80907066 -12.83977128 -1.70394464
VERTEX2 203 11.70710949 -13.57272610 -1.75672263
VERTEX2 204 11.58421650 -14.14825510 -1.85865459
VERTEX2 205 11.41439343 -14.70846263 -1.86797875
VERTEX2 206 11.25967448 -15.25397647 -1.86600072
VERTEX2 207 11.09929164 -15.81918013 -1.85004281
VERTEX2 208 10.92533726 -16.41687039 -1.85952628
VERTEX2 209 10.76249448 -17.01627455 -1.82144536
VERTEX2 210 10.59785209 -17.60801277 -1.83039059
VERTEX2 211 10.44711395 -18.20362979 -1.82822507
VERTEX2 212 10.26882897 -18.78859155 -1.88119754
VERTEX2 213 10.07191181 -19.37708464 -1.90209914
VERTEX2 214 9.87015724 -19.95190269 -1.90603777
VERTEX2 215 9.75409980 -20.27310990 -1.94197988
VERTEX2 216 9.76676379 -20.25163692 -2.44098841
VERTEX2 217 9.79578505 -20.24865796 -2.98351389
VERTEX2 218 9.80798792 -20.25340543 -3.03968581
VERTEX2 219 9.24528878 -20.20689954 3.07481043
VERTEX2 220 8.63987874 -20.15999864 3.03479972
VERTEX2 221 8.00541840 -20.09088963 3.08525841
VERTEX2 222 7.38435542 -20.04549686 3.05968044
VERTEX2 223 6.76265191 -20.01330345 -3.12721198
VERTEX2 224 6.15430373 -20.01087735 3.12995594
VERTEX2 225 5.54228632 -20.00202090 -3.10377360
VERTEX2 226 4.93115669 -19.99229234 3.13006804
VERTEX2 227 4.28675862 -20.05789938 -2.99644984
VERTEX2 228 3.76463236 -20.03950208 2.92518567
VERTEX2 229 3.32334302 -19.99981342 3.04560868
VERTEX2 230 3.03414609 -19.98236052 3.01682508
VERTEX2 231 3.23977148 -20.00150512 3.08691543
VERTEX2 232 2.93278019 -19.86146261 2.66103115
VERTEX2 233 2.37211244 -19.59804531 2.76333314
VERTEX2 234 1.79930681 -19.36845710 2.71916970
VERTEX2 235 1.55233735 -19.26003381 2.71417884
VERTEX2 236 1.21963148 -19.25916591 3.11959780
VERTEX2 237 0.59313586 -19.27015706 -3.09321052
VERTEX2 238 -0.02590863 -19.31464858 -3.12596618
VERTEX2 239 -0.64074682 -19.30784046 3.08956490
VERTEX2 240 -1.20796549 -19.18662278 2.87142741
VERTEX2 241 -1.74512705 -19.05216832 2.95681146
VERTEX2 242 -2.31202689 -18.98445983 2.99629234
VERTEX2 243 -2.90572805 -18.89851099 2.99556363
VERTEX2 244 -3.52424846 -18.84925044 3.06677114
VERTEX2 245 -4.13363074 -18.79685240 3.01244260
VERTEX2 246 -4.74251763 -18.70544096 2.94032428
VERTEX2 247 -5.35285695 -18.61798599 3.04646897
VERTEX2 248 -5.90139304 -18.59315798 3.07742615
VERTEX2 249 -5.85306169 -18.60079109 -3.01271130
VERTEX2 250 -5.85083463 -18.60070079 2.68403789
VERTEX2 251 -6.17489658 -18.25459698 2.26189704
VERTEX2 252 -6.52964669 -17.83217310 2.27024113
VERTEX2 253 -6.90033657 -17.38399450 2.25903272
VERTEX2 254 -7.26421302 -16.92369430 2.21755741
VERTEX2 255 -7.33672748 -16.83051789 2.30143868
VERTEX2 256 -7.33918164 -16.75548639 1.82534809
VERTEX2 257 -7.38554422 -16.30069099 1.68807273
VERTEX2 258 -7.46802805 -15.70792471 1.77014368
VERTEX2 259 -7.60920055 -15.10110935 1.81113095
VERTEX2 260 -7.74098903 -14.53863393 1.80306311
VERTEX2 261 -7.73884758 -14.50631131 1.49217108
VERTEX2 262 -7.67405849 -13.86071837 1.49910779
VERTEX2 263 -7.63026190 -13.24786581 1.51278158
VERTEX2 264 -7.61362925 -12.64728204 1.61001282
VERTEX2 265 -7.64345937 -12.04564192 1.63026249
VERTEX2 266 -7.59485532 -11.47675236 1.50144304
VERTEX2 267 -7.54168528 -10.73352178 1.47236625
VERTEX2 268 -7.40839308 -10.13355494 1.36237931
VERTEX2 269 -7.28734788 -9.52247878 1.39231260
VERTEX2 270 -7.21371386 -8.89982507 1.50631729
VERTEX2 271 -7.11710409 -8.27935177 1.39574210
VERTEX2 272 -7.02995513 -7.65401343 1.46080458
VERTEX2 273 -7.03805075 -7.02126717 1.67303560
VERTEX2 274 -7.10386169 -6.40779951 1.69712765
VERTEX2 275 -7.09026708 -5.80620545 1.52574716
VERTEX2 276 -7.08183919 -5.20536254 1.64027521
VERTEX2 277 -7.12675768 -4.64520209 1.61468417
VERTEX2 278 -7.08220056 -4.01294568 1.52587114
VERTEX2 279 -7.04073585 -3.37844788 1.47077987
VERTEX2 280 -6.97127683 -2.75015567 1.47303533
VERTEX2 281 -6.87971063 -2.12065991 1.37279756
VERTEX2 282 -6.75933786 -1.49843103 1.41281704
VERTEX2 283 -6.67158685 -0.86880111 1.40510917
VERTEX2 284 -6.55916688 -0.25037006 1.43237261
VERTEX2 285 -6.49017265 0.39673857 1.45365838
VERTEX2 286 -6.42190789 1.01608481 1.50747100
VERTEX2 287 -6.41901630 1.06544552 1.40331950
VERTEX2 288 -6.41720267 1.06859884 0.79546941
VERTEX2 289 -6.41904454 1.06747257 0.20280212
VERTEX2 290 -5.98346096 1.05779166 -0.02186376
VERTEX2 291 -5.36537769 1.04870421 -0.00782820
VERTEX2 292 -4.75140031 1.02752288 -0.06248573
VERTEX2 293 -4.12881630 0.98082076 -0.08555467
VERTEX2 294 -3.50979658 0.92710261 -0.08487081
VERTEX2 295 -2.89009102 0.84530084 -0.19735046
VERTEX2 296 -2.27851421 0.69985294 -0.24276442
VERTEX2 297 -1.66908153 0.54751535 -0.25446170
VERTEX2 298 -1.06070258 0.39190505 -0.25512111
VERTEX2 299 -0.48881179 0.23406581 -0.19393781
VERTEX2 300 0.09524366 0.14680369 -0.15175576
VERTEX2 301 0.65481304 0.04578810 -0.21092876
VERTEX2 302 0.95407720 -0.01960355 -0.23183647
VERTEX2 303 0.93410716 -0.01554785 -0.22770258
VERTEX2 304 1.43192532 -0.13221471 -0.21815929
VERTEX2 305 2.04454791 -0.17854240 -0.03431145
VERTEX2 306 2.67946099 -0.19145871 -0.05227259
VERTEX2 307 3.31530498 -0.24107775 -0.08906122
VERTEX2 308 3.93956317 -0.30569226 -0.14474356
VERTEX2 309 4.57113406 -0.36778816 -0.05192577
VERTEX2 310 5.19548153 -0.39960283 -0.08791443
VERTEX2 311 5.47318382 -0.42614757 0.08700622
VERTEX2 312 5.46764707 -0.42908062 1.07461358
VERTEX2 313 5.47270851 -0.20996991 1.57020912
VERTEX2 314 5.45427812 0.41913094 1.60993958
VERTEX2 315 5.42685347 1.04768109 1.60555291
VERTEX2 316 5.38846632 1.68773834 1.65659256
VERTEX2 317 5.32910120 2.32463260 1.66625011
VERTEX2 318 5.23157177 2.96636932 1.76049281
VERTEX2 319 5.15203639 3.31770783 1.83156833
VERTEX2 320 5.15582838 3.32932751 2.79917946
VERTEX2 321 5.15184894 3.32761509 -2.44524569
VERTEX2 322 5.15346727 3.33080407 -1.44994013
VERTEX2 323 5.16283441 3.32171788 -0.45841907
VERTEX2 324 5.16818229 3.31994499 0.20081581
VERTEX2 325 5.17251400 3.32025868 -0.32739970
VERTEX2 326 5.18711019 3.30917658 -0.92320628
VERTEX2 327 5.19049382 3.29277571 -1.54549714
VERTEX2 328 5.17177297 2.65369824 -1.59157684
VERTEX2 329 5.14799244 2.02596903 -1.64798934
VERTEX2 330 5.09182814 1.40974919 -1.66846584
VERTEX2 331 5.03464943 0.79224256 -1.68421573
VERTEX2 332 4.95297596 0.17790832 -1.70420537
VERTEX2 333 4.93055599 0.02241633 -1.64073947
VERTEX2 334 4.93487979 0.02307672 -0.84596584
VERTEX2 335 4.95242631 0.01784700 0.14501946
VERTEX2 336 4.96506217 0.02225757 1.08615940
VERTEX2 337 4.96986552 0.05184121 2.06513376
VERTEX2 338 4.96760863 0.05340828 3.05467608
VERTEX2 339 4.97862484 0.06022052 -2.17851465
VERTEX2 340 4.97902986 0.05748069 -1.15866066
VERTEX2 341 5.09119465 -0.01046391 -0.52492209
VERTEX2 342 5.66284723 -0.31555574 -0.42283169
VERTEX2 343 6.23724137 -0.51710524 -0.29080558
VERTEX2 344 6.82210666 -0.70026624 -0.29984928
VERTEX2 345 7.05632931 -0.76952302 -0.32629798
VERTEX2 346 7.03886434 -0.76380884 -0.97091372
VERTEX2 347 7.04161690 -0.86113710 -1.52721675
VERTEX2 348 7.06046718 -1.46057055 -1.54291101
VERTEX2 349 7.05917291 -2.08919141 -1.58208165
VERTEX2 350 7.04736211 -2.88651454 -1.60066017
VERTEX2 351 7.03334761 -3.17033919 -1.62872044
VERTEX2 352 7.02921596 -3.19039168 -1.91507584
VERTEX2 353 7.00828078 -3.21629399 -2.57721789
VERTEX2 354 6.98485600 -3.22313338 3.10537849
VERTEX2 355 6.95673610 -3.22248707 2.38762003
VERTEX2 356 6.94607407 -3.20389942 1.81380768
VERTEX2 357 6.94979393 -3.18087555 1.16230817
VERTEX2 358 6.95308702 -3.17616511 0.54835419
VERTEX2 359 6.94875428 -3.17804299 -0.06369597
VERTEX2 360 6.93998888 -3.17633694 -0.23894705
VERTEX2 361 6.93939315 -3.17651041 0.68323242
VERTEX2 362 7.02733681 -2.93582055 1.21843376
VERTEX2 363 7.13317365 -2.65790549 1.21256933
VERTEX2 364 7.06235056 -2.31660588 1.82872339
VERTEX2 365 7.00558861 -2.02212161 1.33293396
VERTEX2 366 7.12197471 -1.89020328 0.78023415
VERTEX2 367 7.57437331 -1.44884381 0.78295792
VERTEX2 368 8.03140274 -1.01197060 0.73504122
VERTEX2 369 8.05184160 -0.98729384 0.48324727
VERTEX2 370 8.07648525 -0.98336028 -0.10346790
VERTEX2 371 8.08228032 -0.98636891 -0.64889426
VERTEX2 372 8.51065153 -1.33479408 -0.67655092
VERTEX2 373 8.98274094 -1.69951072 -0.67455350
VERTEX2 374 9.46124173 -2.10248949 -0.73567925
VERTEX2 375 9.81994525 -2.42138065 -0.76647171
VERTEX2 376 9.83205467 -2.42878420 -0.07355704
VERTEX2 377 9.88938189 -2.38801076 0.61985879
VERTEX2 378 10.43122998 -1.98485688 0.67284363
VERTEX2 379 10.91699874 -1.54850273 0.75638651
VERTEX2 380 11.36264123 -1.07525547 0.87439397
VERTEX2 381 11.50142654 -0.90409517 1.02310842
VERTEX2 382 11.49700229 -0.91193852 2.06910538
VERTEX2 383 11.49777010 -0.91242844 3.05610699
VERTEX2 384 11.49305149 -0.91692627 -2.26320655
VERTEX2 385 11.48584595 -0.92911170 -1.23296362
VERTEX2 386 11.59318617 -1.06812316 -1.00796988
VERTEX2 387 12.05255339 -1.49228887 -0.67612349
VERTEX2 388 12.55637836 -1.87896234 -0.66645380
VERTEX2 389 13.03432653 -2.28553616 -0.74802092
VERTEX2 390 13.08521847 -2.33100793 -0.27166295
VERTEX2 391 12.94739379 -2.32713961 0.10928690
VERTEX2 392 12.94465338 -2.32724866 1.15253098
VERTEX2 393 12.94379359 -2.29460708 2.40646873
VERTEX2 394 12.93458095 -2.29142120 -2.88246027
VERTEX2 395 13.14410973 -2.16376394 -2.54478555
VERTEX2 396 13.14470144 -2.16332323 -2.54460699
VERTEX2 397 13.17892281 -2.15984700 -2.92844436
VERTEX2 398 13.18605722 -2.15686011 -2.73100007
VERTEX2 399 13.09781591 -2.22556796 -2.43221035
VERTEX2 400 12.61218704 -2.64652051 -2.38204812
VERTEX2 401 12.14695137 -3.05457330 -2.47497907
VERTEX2 402 11.59342050 -3.34234051 -2.74280555
VERTEX2 403 11.02336547 -3.57686748 -2.77712089
VERTEX2 404 10.47952366 -3.76679774 -2.85648687
VERTEX2 405 10.49190108 -3.76089130 -2.32330756
VERTEX2 406 10.49489409 -3.74333270 -1.34618039
VERTEX2 407 10.61285654 -4.07699504 -1.21876533
VERTEX2 408 10.81697800 -4.64985066 -1.25739074
VERTEX2 409 10.89825844 -4.92647550 -1.35776718
VERTEX2 410 10.89875353 -4.91202652 -1.98800147
VERTEX2 411 10.90748263 -4.89661568 -2.57909979
VERTEX2 412 10.41486184 -5.09257054 -2.78319836
VERTEX2 413 9.84572795 -5.28496360 -2.86363506
VERTEX2 414 9.27157545 -5.46719000 -2.76086429
VERTEX2 415 8.66221416 -5.70330471 -2.75291416
VERTEX2 416 8.37609135 -5.82952891 -2.80752074
VERTEX2 417 8.09209065 -5.81329769 3.05227369
VERTEX2 418 7.65633164 -5.76924374 3.00768238
VERTEX2 419 7.66138615 -5.76810755 -2.84341926
VERTEX2 420 7.71643136 -5.74382043 -2.62646560
VERTEX2 421 7.71871848 -5.74022248 -1.65667762
VERTEX2 422 7.71517569 -5.74517000 -0.41469102
VERTEX2 423 7.72075132 -5.74571382 -0.06809580
VERTEX2 424 7.72087920 -5.74606544 -0.06701089
VERTEX2 425 7.71387181 -5.75000238 -0.05455140
VERTEX2 426 7.71383776 -5.75034323 -0.06294837
VERTEX2 427 7.74633756 -5.75209584 -0.05910962
VERTEX2 428 8.40837660 -5.77463257 -0.06391573
VERTEX2 429 9.05283747 -5.82502957 -0.10399017
VERTEX2 430 9.39460452 -5.86619321 -0.14938016
VERTEX2 431 9.37245002 -5.86351253 -0.09675159
VERTEX2 432 9.38880914 -5.86929039 -0.72724758
VERTEX2 433 9.39731174 -5.88098139 -1.40325770
VERTEX2 434 9.36015194 -6.42151563 -1.63077204
VERTEX2 435 9.32745981 -7.06600792 -1.65861361
VERTEX2 436 9.24900513 -7.70719966 -1.66696123
VERTEX2 437 9.19627055 -8.35853863 -1.65859334
VERTEX2 438 9.14316714 -8.83150263 -1.68863838
VERTEX2 439 9.14151804 -8.83765889 -2.12339727
VERTEX2 440 9.14539083 -8.83465616 -2.76489384
VERTEX2 441 9.15769251 -8.83347469 2.89774988
VERTEX2 442 9.16306465 -8.83643179 2.26985948
VERTEX2 443 9.16328719 -8.84031277 1.70433807
VERTEX2 444 9.16572908 -8.82766815 1.11421727
VERTEX2 445 9.17063591 -8.82300271 0.45717171
VERTEX2 446 9.16797571 -8.82463765 0.65918515
VERTEX2 447 9.18004454 -8.80142363 1.29170532
VERTEX2 448 9.33287357 -8.17867143 1.30915088
VERTEX2 449 9.46881782 -7.54126198 1.41038754
VERTEX2 450 9.56609549 -6.90289570 1.42395309
VERTEX2 451 9.62146933 -6.43053273 1.46633007
VERTEX2 452 9.62193928 -6.42562958 1.08863996
VERTEX2 453 9.62058053 -6.42805095 0.46696982
VERTEX2 454 9.88554903 -6.40910525 0.04567845
VERTEX2 455 10.48396248 -6.38717310 0.02521696
VERTEX2 456 11.11583948 -6.38529975 -0.03925800
VERTEX2 457 11.46941871 -6.40921415 -0.12685552
VERTEX2 458 11.46486621 -6.40693054 -0.77246242
VERTEX2 459 11.45655934 -6.37276801 -1.38039342
VERTEX2 460 11.43452427 -6.77162850 -1.63722639
VERTEX2 461 11.36379665 -7.38834894 -1.72503514
VERTEX2 462 11.27469531 -7.89795545 -1.76492088
VERTEX2 463 11.28579249 -7.87636671 -0.92426990
VERTEX2 464 11.54108280 -7.94966964 -0.24583958
VERTEX2 465 12.12460627 -8.08405442 -0.23797194
VERTEX2 466 12.67788191 -8.23659645 -0.29347557
VERTEX2 467 13.24850893 -8.41972973 -0.33680131
VERTEX2 468 13.85714251 -8.63810623 -0.37166664
VERTEX2 469 14.44381393 -8.90343497 -0.45381236
VERTEX2 470 14.89898946 -9.12005491 -0.43471675
VERTEX2 471 14.90862874 -9.12528972 -0.63420927
VERTEX2 472 14.92622196 -9.14988145 -1.26611717
VERTEX2 473 14.92768169 -9.15709327 -1.90594384
VERTEX2 474 14.92691602 -9.15804389 -2.53652485
VERTEX2 475 14.93088366 -9.15751188 -3.11024871
VERTEX2 476 14.93476673 -9.15804974 2.52178817
VERTEX2 477 14.93937695 -9.16710727 1.96231392
VERTEX2 478 14.94009323 -9.17671903 1.33531349
VERTEX2 479 14.93947194 -9.17813028 0.88105544
VERTEX2 480 14.94018002 -9.17655021 1.44312873
VERTEX2 481 14.93658158 -9.16084622 2.44522837
VERTEX2 482 14.94216429 -9.16310394 2.78136041
VERTEX2 483 14.94999725 -9.16594856 2.77596531
VERTEX2 484 14.52561917 -9.00695059 2.81147392
VERTEX2 485 13.92717907 -8.81599788 2.80916809
VERTEX2 486 13.32600911 -8.60096501 2.81871736
VERTEX2 487 12.71627102 -8.41925007 2.84702928
VERTEX2 488 12.10423653 -8.23566377 2.88319788
VERTEX2 489 11.63423277 -8.12647883 2.91368350
VERTEX2 490 11.64196654 -8.12575304 -2.88427763
VERTEX2 491 11.65075682 -8.11422500 -1.94795552
VERTEX2 492 11.63351285 -8.34333322 -1.64483687
VERTEX2 493 11.57040996 -8.94640465 -1.69984634
VERTEX2 494 11.48127960 -9.56176402 -1.76077301
VERTEX2 495 11.41101954 -10.18646081 -1.65349883
VERTEX2 496 11.36622234 -10.81296096 -1.53571175
VERTEX2 497 11.35834695 -11.42991648 -1.62169311
VERTEX2 498 11.28899503 -12.04942485 -1.72346784
VERTEX2 499 11.15799498 -12.67303457 -1.74048506
VERTEX2 500 11.21507447 -13.24004012 -1.41159940
VERTEX2 501 11.28870888 -13.81954223 -1.48369362
VERTEX2 502 11.31154305 -14.51459910 -1.56819896
VERTEX2 503 11.30626858 -14.96082432 -1.58519851
VERTEX2 504 11.31237225 -14.94371959 -0.72900977
VERTEX2 505 11.55861222 -14.97260101 -0.10737824
VERTEX2 506 12.14838392 -15.05586964 -0.25986508
VERTEX2 507 12.72739292 -15.22702686 -0.33834960
VERTEX2 508 13.29439574 -15.43974836 -0.35155123
VERTEX2 509 13.91315213 -15.67482481 -0.40741164
VERTEX2 510 14.26892428 -15.83476536 -0.42126896
VERTEX2 511 14.26727137 -15.81823703 0.45433064
VERTEX2 512 14.28860742 -15.77351124 1.65215817
VERTEX2 513 14.28534495 -15.76383470 2.60792834
VERTEX2 514 14.21766739 -15.74472644 2.83428531
VERTEX2 515 13.60742213 -15.56283358 2.83544527
VERTEX2 516 13.02272044 -15.36789784 2.85139784
VERTEX2 517 12.42996460 -15.21889337 2.87964592
VERTEX2 518 11.83755607 -15.06678041 2.90404877
VERTEX2 519 11.31560214 -14.94207387 2.88840012
VERTEX2 520 11.14764939 -14.89807599 -2.99624836
VERTEX2 521 11.17310956 -14.87011416 -1.99354606
VERTEX2 522 11.10715324 -15.26411689 -1.72952471
VERTEX2 523 11.01489682 -15.88452912 -1.73682348
VERTEX2 524 10.91034134 -16.45820668 -1.77872345
VERTEX2 525 10.80570974 -16.99982092 -1.75509978
VERTEX2 526 10.68886433 -17.56788725 -1.81397816
VERTEX2 527 10.54065454 -18.14521732 -1.84891125
VERTEX2 528 10.35838537 -18.70884712 -1.92507009
VERTEX2 529 10.14495027 -19.30895011 -1.95348830
VERTEX2 530 9.89664440 -19.90583646 -1.98371897
VERTEX2 531 9.62611029 -20.47793767 -2.06373296
VERTEX2 532 9.52861252 -20.66122998 -2.01331494
VERTEX2 533 9.52490657 -20.64294910 -1.01364650
VERTEX2 534 9.52127276 -20.64051814 -0.34665610
VERTEX2 535 9.52084885 -20.63931396 -0.34702623
VERTEX2 536 9.87356213 -20.72357658 -0.21632675
VERTEX2 537 10.47591193 -20.87307352 -0.27435421
VERTEX2 538 11.03129475 -21.04297038 -0.30151138
VERTEX2 539 11.63438095 -21.25264354 -0.36634137
VERTEX2 540 12.21587442 -21.50602716 -0.45931601
VERTEX2 541 12.80174817 -21.73617472 -0.29680492
VERTEX2 542 13.43494616 -21.88116280 -0.24105381
VERTEX2 543 13.55946942 -21.91288154 -0.27067302
VERTEX2 544 13.58305062 -21.91056233 0.36645969
VERTEX2 545 13.60620982 -21.86882786 1.43288457
VERTEX2 546 13.62474490 -21.91760692 2.26009300
VERTEX2 547 13.63553363 -21.91690315 -3.00123223
VERTEX2 548 13.64975693 -21.90783072 -2.07816477
VERTEX2 549 13.65109015 -21.89903163 -1.27138605
VERTEX2 550 13.65010074 -21.88113090 -1.75107489
VERTEX2 551 13.65799000 -21.86524710 -2.37731666
VERTEX2 552 13.67742682 -21.85562307 -3.00965315
VERTEX2 553 13.54388704 -21.80425017 2.69635843
VERTEX2 554 12.95583234 -21.52062142 2.66093956
VERTEX2 555 12.38053531 -21.24612351 2.74985092
VERTEX2 556 11.78017698 -21.02780967 2.88498665
VERTEX2 557 11.18202571 -20.85655071 2.84386375
VERTEX2 558 10.60616822 -20.69843496 2.92462864
VERTEX2 559 10.60844856 -20.69920412 2.51720927
VERTEX2 560 10.59868229 -20.68939655 2.01516079
VERTEX2 561 10.57302867 -20.66429700 2.51927750
VERTEX2 562 10.39919472 -20.66347743 -3.12022621
VERTEX2 563 9.83413150 -20.58326966 2.97118271
VERTEX2 564 9.23452504 -20.49000818 3.01996938
VERTEX2 565 8.64410484 -20.41612841 2.96228170
VERTEX2 566 8.70598057 -20.43571367 -2.53802832
VERTEX2 567 8.61442768 -20.44208615 -1.74268436
VERTEX2 568 8.56112232 -20.95145276 -1.67889902
VERTEX2 569 8.50736600 -21.52695512 -1.71808256
VERTEX2 570 8.43617576 -22.10744230 -1.71334319
VERTEX2 571 8.38204435 -22.46378332 -1.76059662
VERTEX2 572 8.34503687 -22.49060684 -2.00290655
VERTEX2 573 8.30928223 -22.57103286 -1.72561794
VERTEX2 574 8.32662800 -22.59543462 -0.78319463
VERTEX2 575 8.49855711 -22.65325474 0.11682830
VERTEX2 576 8.51083738 -22.66345410 1.14301074
VERTEX2 577 8.50826472 -22.65616940 2.11369583
VERTEX2 578 8.50211520 -22.63349276 1.74885812
VERTEX2 579 8.39194560 -21.97970494 1.76532533
VERTEX2 580 8.24351486 -21.33678206 1.84205502
VERTEX2 581 8.06092951 -20.70879824 1.88588783
VERTEX2 582 7.84962358 -20.08914280 1.93044216
VERTEX2 583 7.72400271 -19.77675072 2.01131391
VERTEX2 584 7.71709291 -19.76287751 2.85978494
VERTEX2 585 7.12404121 -19.61383271 2.97979017
VERTEX2 586 6.51885196 -19.53236260 3.07899577
VERTEX2 587 5.88751321 -19.51648699 3.10584593
VERTEX2 588 5.24540094 -19.48615664 3.11169519
VERTEX2 589 4.71495660 -19.50784131 -3.09669646
VERTEX2 590 4.16829289 -19.54867164 -3.02804991
VERTEX2 591 3.63139184 -19.62420120 -3.03002741
VERTEX2 592 3.08561999 -19.69509869 -3.03284868
VERTEX2 593 2.91085044 -19.71602038 -2.82774648
VERTEX2 594 2.94969844 -19.67474276 -1.90685949
VERTEX2 595 2.83299066 -20.28390231 -1.67416334
VERTEX2 596 2.77707552 -20.90492482 -1.69737158
VERTEX2 597 2.68152642 -21.57685307 -1.73734865
VERTEX2 598 2.57574195 -22.17249527 -1.77953731
VERTEX2 599 2.48580751 -22.54717449 -1.84574859
VERTEX2 600 2.48589906 -22.56115015 -1.03929159
VERTEX2 601 2.52515615 -22.58564386 -0.02125830
VERTEX2 602 2.56129529 -22.57134381 0.99263718
VERTEX2 603 2.52842996 -22.33730594 1.76522784
VERTEX2 604 2.47207598 -21.72548557 1.52111817
VERTEX2 605 2.48522433 -21.07687633 1.60390126
VERTEX2 606 2.44880172 -20.42810848 1.64616133
VERTEX2 607 2.46358522 -19.83733131 1.56533358
VERTEX2 608 2.45278611 -19.45025511 1.60999708
VERTEX2 609 2.44895769 -19.42691569 1.94662995
VERTEX2 610 2.43857872 -19.42309415 2.87995641
VERTEX2 611 1.84157339 -19.26889242 2.88315557
VERTEX2 612 1.36731774 -19.13107648 2.88620304
VERTEX2 613 1.41126013 -19.14474413 -2.93303410
VERTEX2 614 1.41937059 -19.13867641 -1.89472641
VERTEX2 615 1.42912950 -19.63023812 -1.59007931
VERTEX2 616 1.43207882 -20.25805427 -1.64119912
VERTEX2 617 1.29076684 -20.85824996 -1.85811706
VERTEX2 618 1.11826054 -21.46084130 -1.84783461
VERTEX2 619 0.95430915 -22.02896880 -1.84905990
VERTEX2 620 0.76791343 -22.60121108 -1.94499814
VERTEX2 621 0.89981772 -22.26692785 -1.99630083
VERTEX2 622 1.02611689 -22.00145872 -2.07107452
VERTEX2 623 1.02770639 -21.99934193 -2.60767708
VERTEX2 624 1.00376905 -21.99894716 3.03344988
VERTEX2 625 0.96690776 -21.98378501 2.37546812
VERTEX2 626 0.94304212 -21.95602761 1.75780814
VERTEX2 627 1.01792558 -21.58680635 1.34725798
VERTEX2 628 1.20105551 -20.96312624 1.24639234
VERTEX2 629 1.37716893 -20.33881588 1.31739281
VERTEX2 630 1.50706630 -19.73439576 1.40233671
VERTEX2 631 1.58303425 -19.20797092 1.42235840
VERTEX2 632 1.58543576 -19.19437725 2.09802721
VERTEX2 633 1.49377876 -19.18749049 -3.09917724
VERTEX2 634 0.82539980 -19.21993206 -3.07135890
VERTEX2 635 0.16436395 -19.22724021 3.07714743
VERTEX2 636 -0.48400531 -19.19515315 3.05978677
VERTEX2 637 -1.11186218 -19.11819513 2.96034267
VERTEX2 638 -1.50073465 -19.03676852 2.93078266
VERTEX2 639 -2.10828701 -18.93143985 3.01120804
VERTEX2 640 -2.71989357 -18.81998733 2.94335279
VERTEX2 641 -3.31703637 -18.70663402 2.93494026
VERTEX2 642 -3.88934955 -18.56722884 2.88949487
VERTEX2 643 -4.36965589 -18.42810035 2.82203212
VERTEX2 644 -4.37334621 -18.42890341 -2.70438646
VERTEX2 645 -4.41066707 -18.57005442 -1.92709845
VERTEX2 646 -4.55093204 -19.17632123 -1.63179981
VERTEX2 647 -4.51147815 -19.81703927 -1.34302576
VERTEX2 648 -4.29284155 -20.44203676 -1.17681130
VERTEX2 649 -4.12337553 -21.04025372 -1.51450888
VERTEX2 650 -4.22770221 -21.66583914 -1.77196425
VERTEX2 651 -4.24585992 -21.80904435 -0.97276157
VERTEX2 652 -4.18236431 -21.83814176 0.05190115
VERTEX2 653 -4.13685170 -21.79785854 1.08222005
VERTEX2 654 -4.14363991 -21.50299761 1.59532618
VERTEX2 655 -4.14987840 -20.95136969 1.59029272
VERTEX2 656 -4.14453153 -20.35112620 1.57763277
VERTEX2 657 -4.24651131 -19.74060329 1.85421864
VERTEX2 658 -4.43092698 -19.12536713 1.84677335
VERTEX2 659 -4.54160772 -18.63269874 1.77582424
VERTEX2 660 -4.54425915 -18.61892217 2.37640354
VERTEX2 661 -4.72427530 -18.59778324 3.03034259
VERTEX2 662 -5.31906685 -18.53437383 3.10014915
VERTEX2 663 -5.90842275 -18.54512175 -3.08179878
VERTEX2 664 -5.91750195 -18.54271599 -2.55854181
VERTEX2 665 -5.93376790 -18.64178782 -1.72566313
VERTEX2 666 -6.00873737 -19.23955286 -1.68905042
VERTEX2 667 -6.06919186 -19.79514876 -1.68490961
VERTEX2 668 -6.13649881 -20.37814400 -1.65961582
VERTEX2 669 -6.18960595 -20.99282094 -1.68522480
VERTEX2 670 -6.29432830 -21.60700884 -1.74494101
VERTEX2 671 -6.34418114 -21.89662003 -1.69018671
VERTEX2 672 -6.23805604 -21.32227636 -1.77898020
VERTEX2 673 -6.17090660 -21.06176131 -1.90919207
VERTEX2 674 -6.16224865 -21.05278910 -2.55654649
VERTEX2 675 -6.14332990 -21.04895227 3.11877000
VERTEX2 676 -6.13247604 -21.05538860 2.49515292
VERTEX2 677 -6.12426672 -21.06684391 1.87903075
VERTEX2 678 -6.09510063 -20.84969039 1.43287497
VERTEX2 679 -6.02708753 -20.27654022 1.49568960
VERTEX2 680 -6.05093710 -19.83309847 1.84095133
VERTEX2 681 -6.19833677 -19.24242918 1.81366358
VERTEX2 682 -6.36585691 -18.63704881 1.86156837
VERTEX2 683 -6.45436212 -18.35987225 2.02101996
VERTEX2 684 -6.39819622 -18.41796329 3.10002107
VERTEX2 685 -6.80001378 -18.57473661 -2.73952609
VERTEX2 686 -7.24501817 -18.70733367 -2.88377965
VERTEX2 687 -7.83742908 -18.85348870 -2.91878528
VERTEX2 688 -8.43297519 -18.96877291 -2.93054665
VERTEX2 689 -8.99498480 -19.10305196 -2.90286472
VERTEX2 690 -9.52872069 -19.26731115 -2.82866930
VERTEX2 691 -9.92135288 -19.39494801 -2.85667419
VERTEX2 692 -9.90708171 -19.38872791 -2.32301867
VERTEX2 693 -9.88583891 -19.45767240 -1.28376952
VERTEX2 694 -9.86352232 -19.52644675 -0.44923858
VERTEX2 695 -9.84512303 -19.52141556 0.34993905
VERTEX2 696 -9.84271750 -19.51990766 1.37707716
VERTEX2 697 -9.85359085 -19.55457089 1.12473041
VERTEX2 698 -9.52548714 -19.35054740 0.47100937
VERTEX2 699 -8.96424022 -19.04338150 0.58547311
VERTEX2 700 -8.45179259 -18.68663711 0.63935081
VERTEX2 701 -8.01809966 -18.32814772 0.69884065
VERTEX2 702 -7.54070735 -18.01779732 0.58400589
VERTEX2 703 -7.03022767 -17.68615233 0.61850216
VERTEX2 704 -6.53750183 -17.30838919 0.63688323
VERTEX2 705 -6.02410756 -16.89049891 0.70715624
VERTEX2 706 -5.59208499 -16.57493322 0.43821164
VERTEX2 707 -5.56678704 -16.57372137 -0.08196527
VERTEX2 708 -5.55704351 -16.57942685 -0.72035642
VERTEX2 709 -5.59680329 -16.53611550 -1.05239617
VERTEX2 710 -5.60123421 -16.52447768 -1.61343851
VERTEX2 711 -5.59200886 -16.53290403 -2.21009066
VERTEX2 712 -5.57153178 -16.51739186 -2.77045282
VERTEX2 713 -6.04476819 -16.56517095 -3.05576284
VERTEX2 714 -6.59795614 -16.53696313 3.02993549
VERTEX2 715 -7.22415726 -16.49656079 3.13363754
VERTEX2 716 -7.85789751 -16.47109850 2.99570395
VERTEX2 717 -8.47840488 -16.39991450 3.08054945
VERTEX2 718 -9.23945367 -16.27729551 2.90527646
VERTEX2 719 -9.85523216 -16.15882932 2.97983142
VERTEX2 720 -10.46689103 -16.04333557 2.92071196
VERTEX2 721 -11.08347077 -15.92442719 2.98901696
VERTEX2 722 -11.09950692 -15.92206029 3.05580283
VERTEX2 723 -11.12005290 -15.94304812 -2.13707807
VERTEX2 724 -11.12036509 -15.98714839 -1.06785365
VERTEX2 725 -11.09274465 -16.00588789 -0.43328923
VERTEX2 726 -10.76683814 -16.00338749 0.02107153
VERTEX2 727 -10.12972171 -15.96834784 0.05161491
VERTEX2 728 -9.48978107 -15.94769908 0.05283038
VERTEX2 729 -8.85244562 -15.89090881 0.11029783
VERTEX2 730 -8.22976805 -15.80239693 0.14765147
VERTEX2 731 -7.58439986 -15.70628075 0.15985316
VERTEX2 732 -7.44570685 -15.67911203 0.60642633
VERTEX2 733 -7.44403283 -15.68187485 1.60296196
VERTEX2 734 -7.49992426 -15.12770152 1.68105287
VERTEX2 735 -7.55780236 -14.52719149 1.64899544
VERTEX2 736 -7.55835724 -14.51833615 2.24847546
VERTEX2 737 -7.55426337 -14.51890110 3.04915792
VERTEX2 738 -8.13520020 -14.47565668 3.06819356
VERTEX2 739 -8.73963702 -14.37771604 3.01052519
VERTEX2 740 -9.24436541 -14.33508278 3.07373838
VERTEX2 741 -9.22650012 -14.33497258 2.70480239
VERTEX2 742 -9.22682522 -14.33476201 2.05189349
VERTEX2 743 -9.22815822 -14.32873552 1.43496726
VERTEX2 744 -9.21963022 -14.30947105 0.89549961
VERTEX2 745 -9.20234741 -14.30054539 0.30190056
VERTEX2 746 -8.66142155 -14.32162670 -0.17304958
VERTEX2 747 -8.01795003 -14.43940612 -0.20832549
VERTEX2 748 -7.43479080 -14.58670058 -0.27646486
VERTEX2 749 -7.34463330 -14.60964500 0.15309157
VERTEX2 750 -7.33418309 -14.59057801 1.08053328
VERTEX2 751 -7.36747829 -14.31887632 1.72107979
VERTEX2 752 -7.42338260 -13.69400287 1.61786580
VERTEX2 753 -7.45917371 -13.05350381 1.68118372
VERTEX2 754 -7.46500873 -12.41114579 1.51920949
VERTEX2 755 -7.44757560 -11.79424286 1.60517354
VERTEX2 756 -7.40846953 -11.15767862 1.42889211
VERTEX2 757 -7.33206103 -10.51173022 1.54088373
VERTEX2 758 -7.35122685 -9.93143895 1.68323707
VERTEX2 759 -7.33946912 -9.38291528 1.56362529
VERTEX2 760 -7.37725980 -8.77625859 1.67504443
VERTEX2 761 -7.37961187 -8.74301756 1.85546993
VERTEX2 762 -7.45584228 -8.70879364 2.69009223
VERTEX2 763 -8.03069031 -8.60461855 2.98255819
VERTEX2 764 -8.45136413 -8.53199756 2.95480222
VERTEX2 765 -8.44029536 -8.53181553 -2.68950545
VERTEX2 766 -8.44310741 -8.54087870 -1.68862386
VERTEX2 767 -8.43582173 -8.55942003 -0.75724162
VERTEX2 768 -8.40429909 -8.56139197 -0.03446122
VERTEX2 769 -7.76503392 -8.47256808 0.12264454
VERTEX2 770 -7.11150354 -8.41372787 0.05555551
VERTEX2 771 -7.02215035 -8.40632570 0.61612028
VERTEX2 772 -7.01946061 -8.39781311 1.48378190
VERTEX2 773 -6.99520701 -7.82157134 1.56963826
VERTEX2 774 -7.00706691 -7.27683475 1.59178825
VERTEX2 775 -7.00569512 -7.28279443 2.43685041
VERTEX2 776 -7.21399182 -7.25727893 3.05437923
VERTEX2 777 -7.82637348 -7.21499593 3.11346741
VERTEX2 778 -8.44556120 -7.20401256 3.09225167
VERTEX2 779 -9.05477444 -7.18203454 3.11005092
VERTEX2 780 -9.25623515 -7.16421738 2.97944038
VERTEX2 781 -9.24640814 -7.16778218 2.40527330
VERTEX2 782 -9.37021422 -6.90018757 1.97510037
VERTEX2 783 -9.60009041 -6.33048090 1.97421452
VERTEX2 784 -9.69937882 -6.10029869 1.95288315
VERTEX2 785 -9.70017122 -6.07429614 1.40089357
VERTEX2 786 -9.69243741 -6.04935214 0.81254176
VERTEX2 787 -9.67745563 -6.03418774 0.32184500
VERTEX2 788 -9.65619138 -6.03575906 -0.30732785
VERTEX2 789 -9.64951242 -6.04106943 -0.85933328
VERTEX2 790 -9.34805568 -6.43497452 -0.92650389
VERTEX2 791 -8.94906004 -6.91622443 -0.82782894
VERTEX2 792 -8.71439777 -7.12796285 -0.12326172
VERTEX2 793 -8.10288969 -7.18400562 -0.07842655
VERTEX2 794 -7.46683451 -7.21697885 -0.00713125
VERTEX2 795 -7.49312072 -7.23604706 0.42242146
VERTEX2 796 -7.50269306 -7.23985972 1.08202519
VERTEX2 797 -7.42831907 -6.93853555 1.34262993
VERTEX2 798 -7.29135049 -6.31747607 1.39319415
VERTEX2 799 -7.20146570 -5.67620983 1.45972055
VERTEX2 800 -7.14442598 -5.02920061 1.53317011
VERTEX2 801 -7.15241402 -4.40373361 1.61889478
VERTEX2 802 -7.20309975 -3.78027661 1.67660248
VERTEX2 803 -7.18275371 -3.15408582 1.51192957
VERTEX2 804 -7.15948656 -2.52917278 1.56782112
VERTEX2 805 -7.18942623 -1.90072284 1.64408683
VERTEX2 806 -7.24614915 -1.30407039 1.68547449
VERTEX2 807 -7.27175214 -1.12430807 1.97282790
VERTEX2 808 -7.26479474 -1.12459960 2.91913683
VERTEX2 809 -7.84095155 -1.09177564 3.06352710
VERTEX2 810 -8.44218323 -0.96639483 2.92309680
VERTEX2 811 -9.02511445 -0.85250476 2.91960404
VERTEX2 812 -9.01572549 -0.85454665 -2.63297586
VERTEX2 813 -9.02401784 -0.87260908 -1.65925947
VERTEX2 814 -9.00978676 -0.88418927 -0.66869060
VERTEX2 815 -8.99907229 -0.88789745 0.25049621
VERTEX2 816 -8.99581473 -0.88614896 0.93159296
VERTEX2 817 -8.98907192 -0.88201015 0.26277192
VERTEX2 818 -8.78194700 -0.91639563 -0.22394547
VERTEX2 819 -8.20709368 -1.04719439 -0.20885260
VERTEX2 820 -7.62974138 -1.18145647 -0.24908541
VERTEX2 821 -7.09734977 -1.31395224 -0.23213618
VERTEX2 822 -7.06222271 -1.31953305 0.53219164
VERTEX2 823 -7.06167669 -1.31343147 1.45471417
VERTEX2 824 -6.99708067 -0.69447440 1.37558365
VERTEX2 825 -6.85298998 -0.07491975 1.34608721
VERTEX2 826 -6.79524461 0.55407971 1.50922602
VERTEX2 827 -6.73083910 1.17473808 1.46071852
VERTEX2 828 -6.67617122 1.80292014 1.49637128
VERTEX2 829 -6.61537359 2.40004740 1.45693855
VERTEX2 830 -6.54082440 3.00403863 1.44876544
VERTEX2 831 -6.44733460 3.57632521 1.40212315
VERTEX2 832 -6.35685726 4.14052832 1.39855250
VERTEX2 833 -6.31259393 4.39705172 1.53619855
VERTEX2 834 -6.31504200 4.40575108 2.59082301
VERTEX2 835 -6.32988960 4.40746980 -2.91472115
VERTEX2 836 -6.34232160 4.39698042 -1.97168831
VERTEX2 837 -6.33923627 4.38010852 -0.93536006
VERTEX2 838 -6.32943002 4.37399559 -0.07319334
VERTEX2 839 -6.33085667 4.37468101 -0.29147384
VERTEX2 840 -6.32163289 4.36744481 -0.85414728
VERTEX2 841 -6.31491687 4.35392480 -1.47125971
VERTEX2 842 -6.34119519 4.10924925 -1.70210370
VERTEX2 843 -6.41989642 3.54659170 -1.70464500
VERTEX2 844 -6.49570507 2.92198323 -1.71267720
VERTEX2 845 -6.59003737 2.29785593 -1.72741046
VERTEX2 846 -6.67649123 1.66952551 -1.72569002
VERTEX2 847 -6.78681516 1.04897661 -1.75244317
VERTEX2 848 -6.81839537 0.84958282 -1.27161049
VERTEX2 849 -6.82073057 0.85046644 -0.34873243
VERTEX2 850 -6.47193473 0.84716449 0.00486299
VERTEX2 851 -5.85103048 0.82176437 -0.08750887
VERTEX2 852 -5.23289373 0.76160543 -0.07297956
VERTEX2 853 -4.64436937 0.72005426 -0.10078090
VERTEX2 854 -4.06337371 0.65353844 -0.09865689
VERTEX2 855 -3.47476999 0.60382128 -0.10033275
VERTEX2 856 -2.87063676 0.52543038 -0.13755292
VERTEX2 857 -2.26729149 0.44571167 -0.14383102
VERTEX2 858 -1.66935329 0.33783324 -0.19475299
VERTEX2 859 -1.19851670 0.24936421 -0.19818991
VERTEX2 860 -4.05007051 -3.70194916 1.73279779
VERTEX2 861 -4.15366883 -3.62876109 2.66304094
VERTEX2 862 -4.74484757 -3.29315187 2.60760337
VERTEX2 863 -5.31429573 -2.94950429 2.57901298
VERTEX2 864 -5.83994317 -2.59606710 2.58050792
VERTEX2 865 -6.36855417 -2.29731513 2.64174438
VERTEX2 866 -6.87358068 -2.00838514 2.64377707
VERTEX2 867 -7.01402524 -1.93403990 2.82942427
VERTEX2 868 -7.03526432 -1.93893817 -2.41582975
VERTEX2 869 -7.03992426 -1.95014700 -1.42396852
VERTEX2 870 1.20088544 16.44880575 -1.43524267
VERTEX2 871 -2.13539562 21.44166015 -1.53271453
VERTEX2 872 -2.13532025 21.43898776 -0.83881382
VERTEX2 873 -2.13414414 21.43566433 -1.40409298
VERTEX2 874 -2.13489277 21.42451618 -1.95654958
VERTEX2 875 -2.13963184 21.41574156 -2.53565472
VERTEX2 876 -2.65283331 21.15748963 -2.68896569
VERTEX2 877 -3.17585621 20.93069684 -2.76982154
VERTEX2 878 -3.36837878 20.84014964 -2.38040854
VERTEX2 879 -3.79730491 20.35103672 -2.32531275
VERTEX2 880 -4.12215675 20.03152741 -2.43345987
VERTEX2 881 -4.08900467 20.06008911 -2.42437999
VERTEX2 882 -4.61814665 19.68429056 -2.66507106
VERTEX2 883 -5.22030919 19.45493821 -2.85041923
VERTEX2 884 -5.58696003 19.35261914 -2.91307071
VERTEX2 885 8.83728967 2.12055290 0.66087495
VERTEX2 886 -0.99922114 -0.55307742 -0.56368722
VERTEX2 887 -0.99521753 -0.55508081 0.46348982
VERTEX2 888 -0.99099438 -0.54771513 1.46245376
VERTEX2 889 -0.99414155 -0.53618083 2.37382778
VERTEX2 890 -1.32184483 -0.35539241 2.65326898
VERTEX2 891 -1.86616671 -0.05191905 2.58668280
VERTEX2 892 -2.40378863 0.30268723 2.55455905
VERTEX2 893 -2.96414793 0.63229243 2.79583416
VERTEX2 894 -3.59844103 0.77125420 3.02173166
VERTEX2 895 -4.22262174 0.74046665 -2.95689561
VERTEX2 896 -4.24300528 0.73614474 -2.47292790
VERTEX2 897 -4.53204623 0.32712195 -2.19647215
VERTEX2 898 -4.88964315 -0.17703838 -2.17949327
VERTEX2 899 -5.18053707 -0.58258674 -2.24573955
VERTEX2 900 -5.59770553 -1.12053085 -2.24695893
VERTEX2 901 -5.97052683 -1.55776775 -2.31014619
VERTEX2 902 -6.38750101 -2.04225396 -2.28394150
VERTEX2 903 -6.70368993 -2.41531068 -2.32781767
VERTEX2 904 -6.70312045 -2.41459816 -1.62286162
VERTEX2 905 -6.69171786 -2.90402600 -1.56658820
VERTEX2 906 -6.66004208 -3.47411914 -1.50046289
VERTEX2 907 -6.60577205 -4.04916103 -1.50840124
VERTEX2 908 -6.56229819 -4.67526782 -1.48356286
VERTEX2 909 -6.50480154 -5.28837603 -1.50122646
VERTEX2 910 -6.53116520 -5.40796695 -1.87093545
VERTEX2 911 -6.69269653 -5.97356830 -1.80981394
VERTEX2 912 -6.81663193 -6.53664840 -1.79700165
VERTEX2 913 -6.93147488 -7.07790111 -1.78890399
VERTEX2 914 -7.06033539 -7.66526466 -1.81242004
VERTEX2 915 -7.18612002 -8.17266378 -1.84872373
VERTEX2 916 -7.12199956 -8.42053162 -1.30027685
VERTEX2 917 -6.98609332 -9.06502560 -1.55480612
VERTEX2 918 -7.00771193 -9.57596760 -1.63043767
VERTEX2 919 -7.04299006 -10.19249147 -1.67386593
VERTEX2 920 -7.10878058 -10.79881040 -1.69157640
VERTEX2 921 -7.18334091 -11.40613028 -1.74507237
VERTEX2 922 -7.28667269 -12.00134778 -1.77245115
VERTEX2 923 -7.40714386 -12.55869972 -1.83611693
VERTEX2 924 -7.53941781 -13.04412236 -1.81934407
VERTEX2 925 -7.54153436 -13.03357957 -1.31428712
VERTEX2 926 -7.38522739 -13.59092515 -1.29796310
VERTEX2 927 -7.22022939 -14.18266353 -1.32159542
VERTEX2 928 -7.06460777 -14.78962681 -1.33087815
VERTEX2 929 -6.91574640 -15.39366920 -1.33215879
VERTEX2 930 -6.77145343 -16.02389003 -1.41503671
VERTEX2 931 -6.68832919 -16.64856928 -1.49558749
VERTEX2 932 -6.64550949 -17.27539784 -1.55511178
VERTEX2 933 -6.64534908 -17.88728606 -1.61979674
VERTEX2 934 -6.66255304 -18.36705573 -1.62969979
VERTEX2 935 -6.65995498 -18.37943252 -0.94779130
VERTEX2 936 -6.65800087 -18.38013168 -0.00285732
VERTEX2 937 -6.11556788 -18.35837990 0.05995308
VERTEX2 938 -5.51939818 -18.37824331 -0.11353393
VERTEX2 939 -4.89564242 -18.44214303 -0.08588026
VERTEX2 940 -4.28299027 -18.52117105 -0.17191114
VERTEX2 941 -3.67828770 -18.64059707 -0.22574897
VERTEX2 942 -3.15999795 -18.75980980 -0.22144226
VERTEX2 943 -2.55137487 -18.89780199 -0.13336640
VERTEX2 944 -1.94165991 -18.98479752 -0.19010645
VERTEX2 945 -1.32159359 -19.11782545 -0.24538239
VERTEX2 946 -1.14813074 -19.16348070 -0.18122613
VERTEX2 947 -0.74178138 -19.10407869 0.14721899
VERTEX2 948 -0.16566316 -19.01889919 0.12816515
VERTEX2 949 0.43980761 -18.98898699 -0.02740976
VERTEX2 950 1.06450607 -19.02994705 -0.26677015
VERTEX2 951 1.66018999 -19.20629074 -0.33884296
VERTEX2 952 2.25556477 -19.38556374 -0.08794367
VERTEX2 953 2.87913563 -19.42187722 -0.00757682
VERTEX2 954 3.49988048 -19.41953954 -0.01447326
VERTEX2 955 4.08539821 -19.46936545 -0.17509219
VERTEX2 956 4.63225741 -19.55148109 -0.17721955
VERTEX2 957 5.15976188 -19.65097149 -0.26469206
VERTEX2 958 5.62229569 -19.76570295 -0.29119584
VERTEX2 959 6.04953608 -19.88602458 -0.35801261
VERTEX2 960 6.63293354 -20.05128620 -0.27780440
VERTEX2 961 7.21137021 -20.22851781 -0.30481741
VERTEX2 962 7.82523505 -20.36031481 -0.23915466
VERTEX2 963 8.43890184 -20.44443567 -0.05238378
VERTEX2 964 9.05701094 -20.48937529 -0.11619160
VERTEX2 965 9.67110271 -20.57158616 -0.12298431
VERTEX2 966 10.11076906 -20.63181040 -0.18188440
VERTEX2 967 10.13999277 -20.62601447 0.67175015
VERTEX2 968 10.14589105 -20.62047966 1.56871775
VERTEX2 969 10.14815359 -20.64811414 1.62824843
VERTEX2 970 10.15045265 -20.67609681 1.62657234
VERTEX2 971 10.13100567 -20.34279707 1.62675480
VERTEX2 972 10.09399370 -19.75615006 1.63240713
VERTEX2 973 10.17498374 -19.17504951 1.34742583
VERTEX2 974 10.31555744 -18.57482864 1.37922267
VERTEX2 975 10.42834082 -17.97028718 1.38378707
VERTEX2 976 10.53441100 -17.36304120 1.39662758
VERTEX2 977 10.66972377 -16.74744478 1.37036832
VERTEX2 978 10.79040306 -16.13735619 1.41625245
VERTEX2 979 10.90497746 -15.53077124 1.40379083
VERTEX2 980 11.00265028 -14.92619713 1.45039218
VERTEX2 981 11.09139330 -14.33147206 1.45688145
VERTEX2 982 11.14883530 -13.80655917 1.50239408
VERTEX2 983 11.19879761 -13.21172290 1.49916081
VERTEX2 984 11.22642084 -12.61882132 1.55664749
VERTEX2 985 11.23768298 -12.02063679 1.57704639
VERTEX2 986 11.22294905 -11.39812420 1.61345142
VERTEX2 987 11.21045186 -10.77713918 1.57677764
VERTEX2 988 11.21340655 -10.15689797 1.59045486
VERTEX2 989 11.19957830 -9.54281381 1.59804468
VERTEX2 990 11.19362089 -8.93211692 1.58719858
VERTEX2 991 11.17926570 -8.31779069 1.61194806
VERTEX2 992 11.17514609 -7.73149020 1.57927001
VERTEX2 993 11.16250966 -7.11561258 1.61192014
VERTEX2 994 11.14726635 -6.53042224 1.60186296
VERTEX2 995 11.11718697 -5.93740124 1.64912001
VERTEX2 996 11.05945426 -5.32939418 1.67624484
VERTEX2 997 11.01667516 -4.68271920 1.61183777
VERTEX2 998 10.99816256 -4.27831238 1.63371307
VERTEX2 999 11.02830343 -4.30285749 2.35160072
VERTEX2 1000 10.56956378 -3.94344070 2.50027311
VERTEX2 1001 10.13984453 -3.54917274 2.17989649
VERTEX2 1002 9.78066471 -3.08451188 2.27296669
VERTEX2 1003 9.43794580 -2.59285165 2.09385218
VERTEX2 1004 9.10092439 -2.05762069 2.15220372
VERTEX2 1005 8.74892804 -1.56442275 2.21473319
VERTEX2 1006 8.35448595 -1.08700798 2.29219129
VERTEX2 1007 7.94272115 -0.66114382 2.38391462
VERTEX2 1008 7.70745106 -0.44622553 2.54349834
VERTEX2 1009 7.61083709 -0.43149221 3.01656355
VERTEX2 1010 7.04439008 -0.37516462 3.06910839
VERTEX2 1011 6.42740957 -0.33495454 3.02590534
VERTEX2 1012 5.81655885 -0.27063388 3.06772822
VERTEX2 1013 5.18232923 -0.27236005 -3.10064600
VERTEX2 1014 4.57141647 -0.22354012 3.00707250
VERTEX2 1015 3.94847005 -0.18318539 3.09140062
VERTEX2 1016 3.18091869 -0.14415647 3.09800931
VERTEX2 1017 2.59898186 -0.12903531 3.04066058
VERTEX2 1018 2.04347211 -0.06611408 3.04800098
VERTEX2 1019 1.45060299 -0.04032526 3.10759077
VERTEX2 1020 0.83756070 -0.00306336 3.09367252
VERTEX2 1021 0.21857578 0.02734750 3.05309515
VERTEX2 1022 0.16720260 0.03171924 3.04588987
VERTEX2 1023 0.17607026 0.03152741 3.13250733
VERTEX2 1024 -0.44891593 0.04061766 -3.12433335
VERTEX2 1025 -1.07631489 0.01153063 -3.10675809
VERTEX2 1026 -1.23592928 0.00645776 -3.09958270
VERTEX2 1027 -1.21945190 0.01448341 -2.18305325
VERTEX2 1028 -1.23317304 -0.15422719 -1.61959613
VERTEX2 1029 -1.26329872 -0.72276718 -1.64116171
VERTEX2 1030 -1.32822553 -1.34693374 -1.72104147
VERTEX2 1031 -1.44201311 -1.99419391 -1.77471879
VERTEX2 1032 -1.57339377 -2.64121671 -1.77027947
VERTEX2 1033 -1.71750734 -3.28682075 -1.81504204
VERTEX2 1034 -1.76112336 -3.45312710 -2.02891615
VERTEX2 1035 -1.76251951 -3.45433402 -2.64840799
VERTEX2 1036 -1.73016625 -3.46930012 3.06380102
VERTEX2 1037 -2.06824642 -3.34011636 2.82531428
VERTEX2 1038 -2.67695186 -3.21758075 2.91646707
VERTEX2 1039 -3.31288288 -3.04769036 2.88490017
VERTEX2 1040 -3.29016704 -3.04826342 -2.76847976
VERTEX2 1041 -3.26467462 -3.05165623 -1.75200869
VERTEX2 1042 -3.26627701 -3.08001123 -0.76452993
VERTEX2 1043 -3.23667724 -3.10738373 0.20462620
VERTEX2 1044 -3.24919749 -3.12210186 1.19795820
VERTEX2 1045 -3.25108616 -3.12623075 1.08381049
VERTEX2 1046 -3.26037778 -3.13865181 0.69808910
VERTEX2 1047 -3.27963583 -3.14696827 0.14208298
VERTEX2 1048 -2.92023769 -3.21674894 -0.17108736
VERTEX2 1049 -2.27786016 -3.31673158 -0.15404622
VERTEX2 1050 -1.63351039 -3.38916305 -0.07850968
VERTEX2 1051 -0.97824825 -3.46508692 -0.15766556
VERTEX2 1052 -0.35459176 -3.54843789 -0.10472563
VERTEX2 1053 0.06258710 -3.60445085 -0.15736841
VERTEX2 1054 0.08903600 -3.60734702 0.60472293
VERTEX2 1055 0.09582861 -3.57612897 1.65889572
VERTEX2 1056 0.10417809 -3.58846923 2.66229431
VERTEX2 1057 0.12920827 -3.59139361 -2.63001670
VERTEX2 1058 0.12761921 -3.59324070 -1.70781435
VERTEX2 1059 0.02618732 -4.17456911 -1.78855387
VERTEX2 1060 -0.11429428 -4.80300683 -1.78354122
VERTEX2 1061 -0.22423889 -5.24779707 -1.90606033
VERTEX2 1062 -0.22884939 -5.25478638 -2.47032361
VERTEX2 1063 -0.20915804 -5.24369680 -3.06808725
VERTEX2 1064 -0.48998690 -5.18891475 2.94982167
VERTEX2 1065 -1.07441226 -5.11805558 3.07171716
VERTEX2 1066 -1.63439488 -5.06193810 3.01554755
VERTEX2 1067 -1.61699836 -5.06115438 -2.83507850
VERTEX2 1068 -1.60230357 -5.05099179 -2.16243599
VERTEX2 1069 -1.60116591 -5.04798335 -1.99212727
VERTEX2 1070 -1.59876781 -5.04382638 -2.53120384
VERTEX2 1071 -2.07368004 -5.29711688 -2.65849683
VERTEX2 1072 -2.52659349 -5.52699950 -2.72723811
VERTEX2 1073 -2.49704039 -5.52646746 3.04463647
VERTEX2 1074 -3.02539878 -5.45080704 3.01018898
VERTEX2 1075 -3.60137854 -5.37036631 3.02666026
VERTEX2 1076 -3.61386794 -5.36948823 -2.85326442
VERTEX2 1077 -3.62560071 -5.39123300 -2.04710297
VERTEX2 1078 -3.86795733 -5.99686810 -2.00187274
VERTEX2 1079 -4.10421787 -6.55949256 -1.93967960
VERTEX2 1080 -4.10815130 -6.56976611 -2.42709992
VERTEX2 1081 -4.53494337 -6.85671738 -2.55028059
VERTEX2 1082 -4.70282381 -6.97203469 -2.26956515
VERTEX2 1083 -4.69899027 -7.00310608 -1.23828576
VERTEX2 1084 -4.62639972 -7.04101269 -0.27223379
VERTEX2 1085 -4.63720612 -7.04375493 0.71134659
VERTEX2 1086 -4.27918564 -6.56327645 0.94201029
VERTEX2 1087 -3.90177492 -6.06500805 0.93005506
VERTEX2 1088 -3.54284074 -5.56247682 0.91342171
VERTEX2 1089 -3.48671917 -5.49086987 0.81814048
VERTEX2 1090 -3.47660096 -5.48173462 0.20349778
VERTEX2 1091 -2.94006469 -5.45293780 0.02683778
VERTEX2 1092 -2.32649150 -5.44153947 0.01162313
VERTEX2 1093 -1.75381878 -5.44829162 -0.05345327
VERTEX2 1094 -1.74172796 -5.45994558 -0.45751335
VERTEX2 1095 -1.71210399 -5.48653160 -1.04721306
VERTEX2 1096 -1.71212432 -5.48655884 -1.61841178
VERTEX2 1097 -1.79751831 -5.81147033 -1.83384335
VERTEX2 1098 -1.97857619 -6.40737890 -1.89068117
VERTEX2 1099 -2.19525950 -6.97830477 -1.98662769
VERTEX2 1100 -2.20295787 -6.99744521 -1.62309276
VERTEX2 1101 -2.14546062 -7.26424302 -1.35680031
VERTEX2 1102 -2.14661352 -7.27716919 -1.74999306
VERTEX2 1103 -2.27880127 -7.89018122 -1.78350335
VERTEX2 1104 -2.42185471 -8.52947110 -1.81092043
VERTEX2 1105 -2.58207708 -9.15477085 -1.82853138
VERTEX2 1106 -2.71204883 -9.63517441 -1.85346747
VERTEX2 1107 -2.71146875 -9.64230955 -1.59715457
VERTEX2 1108 -2.68435384 -10.26775873 -1.58919215
VERTEX2 1109 -2.74177907 -10.91009789 -1.69297543
VERTEX2 1110 -2.82100123 -11.51598877 -1.74235905
VERTEX2 1111 -2.99453680 -12.04227812 -1.84348666
VERTEX2 1112 -3.03306480 -12.62009111 -1.49684089
VERTEX2 1113 -3.00216870 -13.25849662 -1.59207164
VERTEX2 1114 -3.01443979 -13.87410474 -1.57491564
VERTEX2 1115 -3.01359281 -14.44807432 -1.59092767
VERTEX2 1116 -3.00386454 -15.08732838 -1.55450940
VERTEX2 1117 -3.00162036 -15.17580663 -1.68208727
VERTEX2 1118 -2.99463325 -15.16289815 -2.28888693
VERTEX2 1119 -2.97622006 -15.15023889 -2.72021132
VERTEX2 1120 -3.53025475 -15.35052001 -2.78363708
VERTEX2 1121 -3.71043058 -15.41349924 -2.90199310
VERTEX2 1122 -3.70236524 -15.41628414 2.83130051
VERTEX2 1123 -4.24756412 -15.23181198 2.84844133
VERTEX2 1124 -4.79966957 -15.10349724 2.94747040
VERTEX2 1125 -5.41933550 -14.97841905 2.96124669
VERTEX2 1126 -5.49348610 -14.96644775 -2.98172103
VERTEX2 1127 -5.49019920 -14.96995019 -1.92335653
VERTEX2 1128 -5.48706165 -14.95455012 -0.93496146
VERTEX2 1129 -5.47155681 -14.96318480 0.08052206
VERTEX2 1130 -4.87908222 -14.89620861 0.09407560
VERTEX2 1131 -4.10861652 -15.01853018 -0.33848162
VERTEX2 1132 -3.50438712 -15.23278691 -0.35856003
VERTEX2 1133 -2.96493257 -15.45739724 -0.39771161
VERTEX2 1134 -2.71958171 -15.56060499 -0.49525158
VERTEX2 1135 -2.71894833 -15.56124556 -1.05239698
VERTEX2 1136 -2.71100666 -15.54485847 -1.61546033
VERTEX2 1137 -2.76311691 -15.82823978 -1.80007576
VERTEX2 1138 -2.91719269 -16.44208403 -1.81675069
VERTEX2 1139 -3.03963365 -16.93739788 -1.89016779
VERTEX2 1140 -3.02971727 -16.91413016 -2.36957103
VERTEX2 1141 -3.00712636 -16.89254720 -2.91744875
VERTEX2 1142 -3.36595953 -16.84624538 3.00106836
VERTEX2 1143 -3.96433997 -16.79352855 3.09099999
VERTEX2 1144 -4.54585245 -16.75359970 3.06085396
VERTEX2 1145 -5.12477386 -16.70262384 3.03584437
VERTEX2 1146 -5.70117066 -16.64018959 3.05602569
VERTEX2 1147 -6.28165271 -16.62511086 3.12921242
VERTEX2 1148 -6.86359479 -16.61813678 3.13882162
VERTEX2 1149 -6.90302466 -16.61900579 -2.64614335
VERTEX2 1150 -6.99551238 -16.72001176 -1.83592449
VERTEX2 1151 -6.99254829 -16.73761920 -0.83325576
VERTEX2 1152 -6.97902960 -16.73800681 0.21991359
VERTEX2 1153 -6.96738262 -16.73289321 1.23274311
VERTEX2 1154 -7.02337108 -16.41618690 1.77998397
VERTEX2 1155 -7.15111416 -15.79137469 1.73107173
VERTEX2 1156 -7.24333020 -15.18603985 1.74145308
VERTEX2 1157 -7.36594091 -14.61458771 1.85297810
VERTEX2 1158 -7.48776580 -14.01228819 1.72481959
VERTEX2 1159 -7.54411297 -13.40457157 1.63131259
VERTEX2 1160 -7.56202536 -12.76766014 1.49474095
VERTEX2 1161 -7.45869822 -12.14216304 1.40503456
VERTEX2 1162 -7.36351739 -11.51628864 1.46313365
VERTEX2 1163 -7.29695103 -10.87920678 1.45766667
VERTEX2 1164 -7.24458226 -10.24400538 1.54308981
VERTEX2 1165 -7.22994300 -9.70385341 1.52030169
VERTEX2 1166 -7.23071244 -9.69998863 2.00934300
VERTEX2 1167 -7.17782704 -9.68747349 2.94610830
VERTEX2 1168 -7.13215014 -9.66962114 -2.43350157
VERTEX2 1169 -7.13637069 -9.72043011 -1.61137486
VERTEX2 1170 -7.14999278 -10.30440930 -1.60467203
VERTEX2 1171 -7.15356323 -10.93712257 -1.57291618
VERTEX2 1172 -7.16136426 -11.53389306 -1.63533951
VERTEX2 1173 -7.19487030 -12.15540119 -1.62618537
VERTEX2 1174 -7.24229765 -12.78211752 -1.69486719
VERTEX2 1175 -7.33180580 -13.39378133 -1.72823445
VERTEX2 1176 -7.43274950 -14.01304433 -1.77204212
VERTEX2 1177 -7.55584365 -14.62024375 -1.77011272
VERTEX2 1178 -7.69059111 -15.23133377 -1.81744164
VERTEX2 1179 -7.83182613 -15.83428108 -1.78820088
VERTEX2 1180 -7.88755006 -16.08692850 -1.79528442
VERTEX2 1181 -7.88653862 -16.08010319 -0.96823266
VERTEX2 1182 -7.83133604 -16.09451628 -0.25631896
VERTEX2 1183 -7.21871576 -16.24698730 -0.23098664
VERTEX2 1184 -6.58605096 -16.36553759 -0.16147870
VERTEX2 1185 -5.95821514 -16.47964313 -0.19380870
VERTEX2 1186 -5.32646110 -16.57835916 -0.12774924
VERTEX2 1187 -4.67212997 -16.66788232 -0.16500774
VERTEX2 1188 -4.04454942 -16.76174347 -0.14710301
VERTEX2 1189 -3.38847219 -16.87283506 -0.12525864
VERTEX2 1190 -3.06389310 -16.91439495 -0.11707515
VERTEX2 1191 -3.03891471 -16.91399084 0.80379202
VERTEX2 1192 -3.03311579 -16.83556194 1.60195012
VERTEX2 1193 -3.02454747 -16.24027775 1.47011730
VERTEX2 1194 -2.98189922 -15.67129639 1.51230598
VERTEX2 1195 -2.95191076 -15.05277802 1.56476561
VERTEX2 1196 -2.94465344 -14.43626127 1.39227142
VERTEX2 1197 -2.84129743 -13.83034736 1.40362676
VERTEX2 1198 -2.77047989 -13.21199864 1.66258138
VERTEX2 1199 -2.78638744 -12.60641193 1.44795007
VERTEX2 1200 -2.72884790 -11.98455457 1.51696972
VERTEX2 1201 -2.70317801 -11.37244888 1.57276760
VERTEX2 1202 -2.71232712 -10.75690448 1.59564945
VERTEX2 1203 -2.74147369 -10.17386763 1.50561238
VERTEX2 1204 -2.62666091 -9.58676034 1.35863178
VERTEX2 1205 -2.51764408 -9.02873308 1.38801848
VERTEX2 1206 -2.43069235 -8.43966076 1.44929630
VERTEX2 1207 -2.29195924 -7.83019997 1.36321303
VERTEX2 1208 -2.17795051 -7.20650853 1.42787040
VERTEX2 1209 -2.08931774 -6.58570575 1.42587601
VERTEX2 1210 -2.02381458 -5.97740997 1.44619329
VERTEX2 1211 -1.89669420 -5.37347722 1.37334437
VERTEX2 1212 -1.78065745 -4.76993073 1.42338466
VERTEX2 1213 -1.71105131 -4.15775756 1.49647303
VERTEX2 1214 -1.62623022 -3.43372116 1.27358061
VERTEX2 1215 -1.45946418 -2.85012197 1.33247574
VERTEX2 1216 -1.40708525 -2.29840468 1.54964995
VERTEX2 1217 -1.37066120 -1.72035262 1.53024771
VERTEX2 1218 -1.35519722 -1.12977580 1.47945229
VERTEX2 1219 -1.30261362 -0.48072826 1.50991028
VERTEX2 1220 -1.29377435 0.10684946 1.60047297
VERTEX2 1221 -1.29387893 0.10720641 1.14740897
VERTEX2 1222 -1.28662130 0.11421817 0.54972525
VERTEX2 1223 -1.28027736 0.11569116 -0.01026107
VERTEX2 1224 -0.71264213 0.02169999 -0.19337449
VERTEX2 1225 -0.09785429 -0.09471151 -0.17961049
VERTEX2 1226 0.00691695 -0.11384531 -0.19634149
VERTEX2 1227 0.00691695 -0.11384531 -0.19700349
