1 19 166 0.00295255 10 
2 19 172 0.00311956 10 
3 25 172 0.00318356 10 
4 25 178 0.00329569 10 
5 32 178 0.00330047 10 
6 32 183 0.00338436 10 
7 44 189 0.00351182 10 
8 44 195 0.00361441 10 
9 50 195 0.00360993 10 
10 50 201 0.00371809 10 
11 50 203 0.00376972 10 
12 61 203 0.00375759 10 
13 61 209 0.00386807 10 
14 67 209 0.00387477 10 
15 67 220 0.00407219 10 
16 81 220 0.00406311 10 
17 81 226 0.00418097 10 
18 87 226 0.00417009 10 
19 87 231 0.00427538 10 
20 94 231 0.00426708 10 
21 226 231 0.00425943 10 
22 94 241 0.00473082 10 
23 101 241 0.00475493 10 
24 101 247 0.00457443 10 
25 107 247 0.00458720 10 
26 107 254 0.00471441 10 
27 114 254 0.00471844 10 
28 107 256 0.00476081 10 
29 114 256 0.00477141 10 
30 107 258 0.00480786 10 
31 114 258 0.00480780 10 
32 7 259 0.00503977 10 
33 121 266 0.00514493 10 
34 126 266 0.00516564 10 
35 59 269 0.00534407 10 
36 126 272 0.00540921 10 
37 132 272 0.00542111 10 
38 132 278 0.00552230 10 
39 138 278 0.00552962 10 
40 138 284 0.00565491 10 
41 151 284 0.00565050 10 
42 151 291 0.00578139 10 
43 151 297 0.00590082 10 
44 157 297 0.00591540 10 
45 163 297 0.00591961 10 
46 166 297 0.00591784 10 
47 19 305 0.00612930 10 
48 157 305 0.00612023 10 
49 163 305 0.00613322 10 
50 166 305 0.00613977 10 
51 172 305 0.00615653 10 
52 19 315 0.00633815 10 
53 25 315 0.00640308 10 
54 172 315 0.00638134 10 
55 284 321 0.00658335 10 
56 172 328 0.00671570 10 
57 95 336 0.00697044 10 
58 19 337 0.00700128 10 
59 25 337 0.00701185 10 
60 172 337 0.00702781 10 
61 19 342 0.00712916 10 
62 25 342 0.00712826 10 
63 172 342 0.00715056 10 
64 178 342 0.00717027 10 
65 167 363 0.00440220 6 
66 25 367 0.00370035 5 
67 32 367 0.00447792 6 
68 178 367 0.00450271 6 
69 183 367 0.00527680 7 
70 25 374 0.00769172 10 
71 32 374 0.00774696 10 
72 178 374 0.00554698 7 
73 183 374 0.00697979 9 
74 32 382 0.00632174 8 
75 183 382 0.00794058 10 
76 269 382 0.00816503 10 
77 32 387 0.00809287 10 
78 183 387 0.00828776 10 
79 189 400 0.00842318 10 
80 189 414 0.00869127 10 
81 44 437 0.00908684 10 
82 195 437 0.00929509 10 
83 67 437 0.00933330 10 
84 135 439 0.00928413 10 
85 194 442 0.00934597 10 
86 286 447 0.00957695 10 
87 44 454 0.00972158 10 
88 189 454 0.00993000 10 
89 429 457 0.00985147 10 
90 44 467 0.00999899 10 
91 50 467 0.01032434 10 
92 195 467 0.01032662 10 
93 195 484 0.01043801 10 
94 122 492 0.01065921 10 
95 44 494 0.01065508 10 
96 50 494 0.01067723 10 
97 195 494 0.01097014 10 
98 201 494 0.01106665 10 
99 50 500 0.01094222 10 
100 201 500 0.01119841 10 
101 203 500 0.01120426 10 
102 61 508 0.01112525 10 
103 203 508 0.01136164 10 
104 209 508 0.01139074 10 
105 61 522 0.01132384 10 
106 203 522 0.01162013 10 
107 209 522 0.01158602 10 
108 61 528 0.01147343 10 
109 67 528 0.01178788 10 
110 81 528 0.01187364 10 
111 209 528 0.01186842 10 
112 220 528 0.01187069 10 
113 67 532 0.01043487 9 
114 81 532 0.01169650 10 
115 220 532 0.01196111 10 
116 67 556 0.01218407 10 
117 149 561 0.01237443 10 
118 396 561 0.01272600 10 
119 67 564 0.01251344 10 
120 81 564 0.01280966 10 
121 220 564 0.01274120 10 
122 77 565 0.00869466 7 
123 67 567 0.01263221 10 
124 81 567 0.01291655 10 
125 220 567 0.01293572 10 
126 67 570 0.01271520 10 
127 81 570 0.01299518 10 
128 220 570 0.01302074 10 
129 81 575 0.01313187 10 
130 220 575 0.01311682 10 
131 81 588 0.01308927 10 
132 87 588 0.01344454 10 
133 226 588 0.01345156 10 
134 446 588 0.01350510 10 
135 87 597 0.01341477 10 
136 94 597 0.01370467 10 
137 226 597 0.01371267 10 
138 87 604 0.01355940 10 
139 94 604 0.01383887 10 
140 94 616 0.01230601 9 
141 94 632 0.01410587 10 
142 94 637 0.01418573 10 
143 101 637 0.01454086 10 
144 590 638 0.01427334 10 
145 101 642 0.01432940 10 
146 107 642 0.01475224 10 
147 101 645 0.01449929 10 
148 107 645 0.01483343 10 
149 101 657 0.01474598 10 
150 268 657 0.01508009 10 
151 571 662 0.01487624 10 
152 101 663 0.01528520 10 
153 107 663 0.01533349 10 
154 114 663 0.01522384 10 
155 388 664 0.01515656 10 
156 101 665 0.01530965 10 
157 107 665 0.01558825 10 
158 114 665 0.01562808 10 
159 187 665 0.01577220 10 
160 649 668 0.01230261 8 
161 107 680 0.01575480 10 
162 107 683 0.01581660 10 
163 114 683 0.01616443 10 
164 332 688 0.01613240 10 
165 107 704 0.01642767 10 
166 114 704 0.01677854 10 
167 107 714 0.01660428 10 
168 114 714 0.01697466 10 
169 107 730 0.01171357 7 
170 114 730 0.01679264 10 
171 121 754 0.01750191 10 
172 126 754 0.01789572 10 
173 202 757 0.01764482 10 
174 121 759 0.01793276 10 
175 126 759 0.01826689 10 
176 126 762 0.01794127 10 
177 132 762 0.01844336 10 
178 717 772 0.01832524 10 
179 730 774 0.01835142 10 
180 132 778 0.01834046 10 
181 767 782 0.01098189 6 
182 115 789 0.01872060 10 
183 652 790 0.01885371 10 
184 132 792 0.01895477 10 
185 594 797 0.01933679 10 
186 653 799 0.01930558 10 
187 132 800 0.01939639 10 
188 138 800 0.01990624 10 
189 23 801 0.01974426 10 
190 681 802 0.01984367 10 
191 65 802 0.02040549 10 
192 138 806 0.02011019 10 
193 680 807 0.02008022 10 
194 138 821 0.14659076 9 
195 138 823 0.16509125 10 
196 151 828 0.16809862 10 
197 544 831 0.16878294 10 
198 151 847 0.17407014 10 
199 594 849 0.17067712 10 
200 151 855 0.16862349 10 
201 575 856 0.17058650 10 
202 743 860 0.02177129 10 
203 579 878 0.02208420 10 
204 334 883 0.02276044 10 
205 43 884 0.02286093 10 
206 349 891 0.02327394 10 
207 151 895 0.02335561 10 
208 116 895 0.02408553 10 
209 151 897 0.02369070 10 
210 65 902 0.02406735 10 
211 138 903 0.02404384 10 
212 138 904 0.02411852 10 
213 132 907 0.02420109 10 
214 138 907 0.02466984 10 
215 132 911 0.02428213 10 
216 876 916 0.02445839 10 
217 206 919 0.02475335 10 
218 121 923 0.02468141 10 
219 126 923 0.02514431 10 
220 107 929 0.02479725 10 
221 114 929 0.02527789 10 
222 182 933 0.02506384 10 
223 319 934 0.02527899 10 
224 107 935 0.02492750 10 
225 114 935 0.02547895 10 
226 915 937 0.02524117 10 
227 101 939 0.02572203 10 
228 107 939 0.02088614 8 
229 550 939 0.02588550 10 
230 101 944 0.02599327 10 
231 94 947 0.02613045 10 
232 101 947 0.02659903 10 
233 87 953 0.02623026 10 
234 94 953 0.02669759 10 
235 226 953 0.02671574 10 
236 81 959 0.02722162 10 
237 87 959 0.02720805 10 
238 220 959 0.02714750 10 
239 226 959 0.02713610 10 
240 121 959 0.02715033 10 
241 67 965 0.02682357 10 
242 81 965 0.02739289 10 
243 220 965 0.02738887 10 
244 800 974 0.02758042 10 
245 61 976 0.02760762 10 
246 67 976 0.02808707 10 
247 209 976 0.02805514 10 
248 220 980 0.02773320 10 
249 50 982 0.02802551 10 
250 61 982 0.02847356 10 
251 201 982 0.02849244 10 
252 203 982 0.01951493 7 
253 235 982 0.02797019 10 
254 44 988 0.02821861 10 
255 50 988 0.02841403 10 
256 195 988 0.02805150 10 
257 201 988 0.02277411 8 
258 44 994 0.02834928 10 
259 189 994 0.02873483 10 
260 195 994 0.02873263 10 
261 280 1001 0.02855788 10 
262 32 1003 0.02853115 10 
263 178 1003 0.02917267 10 
264 183 1003 0.02927518 10 
265 25 1008 0.02894026 10 
266 32 1008 0.02932799 10 
267 178 1008 0.02936875 10 
268 183 1008 0.02944311 10 
269 25 1010 0.02905506 10 
270 32 1010 0.02953183 10 
271 172 1010 0.02947790 10 
272 178 1010 0.02949634 10 
273 19 1016 0.02918830 10 
274 166 1016 0.02974930 10 
275 172 1016 0.02078481 7 
276 547 1024 0.02965484 10 
277 151 1029 0.02968582 10 
278 157 1029 0.03017651 10 
279 163 1029 0.03020337 10 
280 166 1029 0.03016077 10 
281 301 1035 0.01458944 5 
282 508 1036 0.02988816 10 
283 7 1038 0.02993129 10 
284 296 1052 0.02719575 9 
285 402 1057 0.03043986 10 
286 88 1060 0.03092439 10 
287 132 1084 0.03122289 10 
288 753 1085 0.03125433 10 
289 86 1086 0.03144919 10 
290 130 1089 0.03158881 10 
291 876 1094 0.03171743 10 
292 269 1099 0.03163019 10 
293 212 1109 0.03231219 10 
294 398 1132 0.03278287 10 
295 101 1138 0.03289194 10 
296 107 1147 0.03262407 10 
297 114 1147 0.03358436 10 
298 107 1150 0.03327972 10 
299 114 1150 0.03362066 10 
300 114 1158 0.03315658 10 
301 121 1158 0.03371531 10 
302 121 1164 0.03325465 10 
303 126 1164 0.03350200 10 
304 114 1175 0.03312714 10 
305 121 1175 0.03369715 10 
306 923 1175 0.03423522 10 
307 929 1175 0.03424567 10 
308 1158 1175 0.03422379 10 
309 533 1175 0.03429655 10 
310 87 1176 0.03592912 10 
311 419 1177 0.03459125 10 
312 101 1188 0.03427548 10 
313 939 1188 0.03485844 10 
314 1138 1188 0.03483682 10 
315 1147 1188 0.03474049 10 
316 1150 1188 0.03481221 10 
317 644 1207 0.03451421 10 
318 1050 1210 0.03471060 10 
319 1061 1210 0.03554846 10 
320 1075 1210 0.03551966 10 
321 1084 1210 0.03553081 10 
322 1088 1210 0.03607501 10 
323 1093 1210 0.03554735 10 
324 1098 1210 0.03556289 10 
325 157 1217 0.03514156 10 
326 163 1217 0.03573605 10 
327 1029 1217 0.03575647 10 
328 1044 1217 0.03578009 10 
329 1050 1217 0.03580556 10 
330 1056 1217 0.03597677 10 
331 1207 1227 0.03548028 10 
