1 5 67 2 812.58632665 0.00000347 1 
2 89 135 2 274.90175576 0.00000256 1 
3 19 166 0 0.41485034 0.00210184 5 
4 19 172 0 0.02820697 0.00186412 4 
5 25 172 0 0.50366199 0.00188776 4 
6 25 178 0 0.30831851 0.00197302 4 
7 32 178 0 0.01493521 0.00199125 4 
8 106 179 2 482.63423295 0.00000230 1 
9 32 183 0 0.07055611 0.00200877 4 
10 44 189 0 0.52863102 0.00208152 4 
11 44 195 0 0.35755137 0.00216910 4 
12 50 195 0 0.00572854 0.00219492 4 
13 50 201 0 0.04110605 0.00190615 3 
14 50 203 0 0.06975183 0.00187854 3 
15 61 203 0 0.00745912 0.00189572 3 
16 61 209 0 0.37222863 0.00231270 4 
17 67 209 0 0.41032090 0.00232198 4 
18 67 220 0 0.66144083 0.00249453 4 
19 81 220 0 0.48035877 0.00285592 5 
20 81 226 0 0.05402805 0.00256117 4 
21 87 226 0 1.82553139 0.00293941 5 
22 87 231 0 0.34656585 0.00262304 4 
23 94 231 0 0.55778528 0.00255982 4 
24 226 231 0 1.44127402 0.00298387 5 
25 94 241 0 1.33132047 0.00269127 4 
26 101 241 0 0.50961029 0.00271569 4 
27 101 247 0 1.66454674 0.00276395 4 
28 107 247 0 1.80094617 0.00278206 4 
29 107 254 0 1.18346605 0.00284119 4 
30 114 254 0 0.12939160 0.00286162 4 
31 107 256 0 0.93085039 0.00285356 4 
32 114 256 0 0.24629796 0.00286013 4 
33 107 258 0 1.37911724 0.00289945 4 
34 114 258 0 1.15747212 0.00292638 4 
35 217 259 2 4153.46996932 0.00000283 1 
36 121 266 0 0.00938596 0.00300186 4 
37 126 266 0 0.44864328 0.00354570 5 
38 126 272 0 1.03992836 0.00309422 4 
39 132 272 0 0.39070916 0.00364521 5 
40 132 278 0 0.58358145 0.00317483 4 
41 138 278 0 1.06458780 0.00373199 5 
42 138 284 0 0.02201259 0.00270576 3 
43 151 284 0 0.12777228 0.00328575 4 
44 151 291 0 0.60037557 0.00331400 4 
45 151 297 0 0.07972289 0.00284455 3 
46 157 297 0 1.04991834 0.00344022 4 
47 166 297 0 1.30507781 0.00338669 4 
48 19 305 0 0.16044642 0.00357284 4 
49 157 305 0 0.58687353 0.00359722 4 
50 163 305 0 7.56485476 0.00483808 6 
51 166 305 0 0.37495035 0.00360182 4 
52 172 305 0 0.01886255 0.00360297 4 
53 154 313 2 210.06722431 0.00000220 1 
54 19 315 0 0.48455906 0.00309335 3 
55 25 315 0 0.02281386 0.00311357 3 
56 172 315 0 0.05679715 0.00373067 4 
57 172 328 0 0.12482725 0.00324810 3 
58 50 328 2 2860.97652058 0.00000216 3 
59 19 337 0 6.63404991 0.00465829 5 
60 25 337 0 0.96522419 0.00399400 4 
61 172 337 0 0.57611560 0.00333028 3 
62 286 338 2 1673.99402110 0.00000239 1 
63 29 338 2 1993.19898763 0.00000170 1 
64 19 342 0 0.00494520 0.00366428 3 
65 25 342 0 0.12855172 0.00413010 4 
66 172 342 0 0.01223902 0.00411923 4 
67 178 342 0 0.12442988 0.00417240 4 
68 25 367 0 0.11414782 0.00378924 3 
69 32 367 0 0.01267433 0.00594134 6 
70 178 367 0 0.00286807 0.00375003 3 
71 183 367 0 0.06698524 0.00377432 3 
72 25 374 0 0.56424690 0.00459578 4 
73 32 374 0 0.09892849 0.00532906 5 
74 178 374 0 0.03055075 0.00459062 4 
75 183 374 0 0.05309447 0.00457007 4 
76 32 382 0 4.14688582 0.00392212 3 
77 183 382 0 1.28811506 0.00465155 4 
78 32 387 0 2.72468715 0.00473292 4 
79 183 387 0 0.18197642 0.00471516 4 
80 189 414 0 7.69047346 0.00588420 5 
81 411 426 2 1890.86360992 0.00000362 1 
82 138 429 2 802.20118360 0.00000497 1 
83 44 437 0 0.00915802 0.00438148 3 
84 195 437 0 0.01161094 0.00437736 3 
85 44 454 0 0.65644164 0.00451307 3 
86 189 454 0 0.03962740 0.00541168 4 
87 156 465 2 280.66351719 0.00000259 1 
88 44 467 0 0.12345281 0.00640201 5 
89 50 467 0 0.00895575 0.01022295 9 
90 195 467 0 0.00230988 0.00463690 3 
91 403 482 2 622.21136590 0.00000399 1 
92 195 484 0 0.09447226 0.00573399 4 
93 462 486 2 805.38941461 0.00000320 1 
94 44 494 0 0.02880924 0.00576728 4 
95 50 494 0 0.00628832 0.00482790 3 
96 195 494 0 0.00818961 0.00682175 5 
97 201 494 0 0.00469852 0.00681851 5 
98 50 500 0 0.14406209 0.00693801 5 
99 201 500 0 0.05353930 0.00489607 3 
100 203 500 0 0.03252445 0.00487145 3 
101 61 508 0 0.99413579 0.00713645 5 
102 203 508 0 0.26947301 0.01223945 10 
103 209 508 0 0.03711473 0.00604856 4 
104 61 522 0 1.37942234 0.00611206 4 
105 203 522 0 0.12859200 0.00509741 3 
106 209 522 0 0.00542469 0.00510754 3 
107 61 528 0 0.47936102 0.00512823 3 
108 67 528 0 0.22419307 0.00626173 4 
109 81 528 0 0.23233822 0.00839170 6 
110 209 528 0 0.09444678 0.01062227 8 
111 220 528 0 0.13668760 0.00624163 4 
112 67 532 0 0.05459173 0.01180203 9 
113 81 532 0 0.11826401 0.00846736 6 
114 220 532 0 0.05648169 0.00633607 4 
115 479 533 2 667.37891304 0.00000226 1 
116 284 536 2 2226.09774281 0.00000249 1 
117 67 556 0 0.98233216 0.00648966 4 
118 67 564 0 0.40168838 0.01237095 9 
119 81 564 0 0.02280941 0.00662496 4 
120 220 564 0 0.02684857 0.00665435 4 
121 67 567 0 2.67253169 0.00782037 5 
122 81 567 0 0.48923871 0.00901381 6 
123 220 567 0 0.21723258 0.00664691 4 
124 389 569 2 2840.46666077 0.00000311 1 
125 37 569 2 1088.95591304 0.00000145 1 
126 67 570 0 2.40706627 0.00910880 6 
127 81 570 0 0.15671702 0.00907379 6 
128 220 570 0 0.13379867 0.00674196 4 
129 81 575 0 2.76594993 0.00792135 5 
130 220 575 0 1.08612706 0.01034726 7 
131 146 577 2 390.27533103 0.00000267 1 
132 81 588 0 0.01497138 0.00567489 3 
133 87 588 0 0.47937722 0.00817552 5 
134 226 588 0 0.43156268 0.00690759 4 
135 87 597 0 2.27648751 0.00957334 6 
136 94 597 0 0.38888315 0.00700693 4 
137 226 597 0 0.55079633 0.00830580 5 
138 87 604 0 0.47149562 0.00710234 4 
139 94 604 0 0.01542269 0.00841103 5 
140 263 606 2 111.17081683 0.00000246 1 
141 144 609 2 2007.15933608 0.00000262 1 
142 94 616 0 0.01350372 0.01234804 8 
143 94 632 0 2.16969694 0.00880800 5 
144 16 632 2 736.48881603 0.00000294 5 
145 94 637 0 4.44236402 0.01006994 6 
146 101 637 0 0.19098383 0.00752757 4 
147 101 642 0 0.11555601 0.00890267 5 
148 107 642 0 0.04025021 0.01409498 9 
149 101 645 0 6.69527511 0.00763115 4 
150 107 645 0 1.54205090 0.00752719 4 
151 279 647 2 1274.79140942 0.00000437 1 
152 541 652 2 1490.51594107 0.00000357 1 
153 333 652 2 2183.40178746 0.00000126 1 
154 101 657 0 0.73548669 0.01675863 10 
155 651 658 2 4186.90408267 0.00000380 10 
156 101 663 0 0.04971914 0.01674285 10 
157 107 663 0 0.01781179 0.00915292 5 
158 114 663 0 0.00275957 0.00916653 5 
159 101 665 0 1.55112265 0.01349016 8 
160 107 665 0 0.47667103 0.00780807 4 
161 114 665 0 0.13329170 0.00649338 3 
162 107 680 0 1.48615866 0.00936505 5 
163 107 683 0 0.94462224 0.00803167 4 
164 114 683 0 0.32178225 0.00954114 5 
165 432 689 2 457.30772553 0.00000299 1 
166 54 691 2 225.00352729 0.00000282 1 
167 107 704 0 0.34268109 0.01264228 7 
168 114 704 0 0.07528002 0.01554981 9 
169 404 708 2 969.75521203 0.00000353 1 
170 107 714 0 1.79639085 0.01134130 6 
171 114 714 0 0.02860377 0.01439452 8 
172 422 725 2 421.51879703 0.00000356 1 
173 254 726 2 887.88505789 0.00000370 1 
174 107 730 0 0.19656714 0.01015029 5 
175 114 730 0 0.03540690 0.00854644 4 
176 356 743 2 232.41204254 0.00000344 1 
177 650 744 2 771.42242995 0.00000286 1 
178 588 747 2 2323.90448974 0.00000367 1 
179 121 754 0 0.33113739 0.00876213 4 
180 126 754 0 0.07673382 0.01513697 8 
181 121 759 0 2.33625684 0.01196406 6 
182 126 759 0 0.22329988 0.01203998 6 
183 126 762 0 7.08482229 0.01039073 5 
184 132 762 0 2.00372045 0.01536425 8 
185 545 765 2 2965.17998860 0.00000320 1 
186 667 768 2 927.41734064 0.00000386 1 
187 132 778 0 0.06999780 0.00902231 4 
188 132 784 2 564.57669063 0.00000399 1 
189 488 789 2 2060.51894860 0.00000451 1 
190 383 790 2 404.42841321 0.00000383 1 
191 132 792 0 1.26802734 0.00926997 4 
192 132 800 0 3.35686460 0.00916427 4 
193 138 800 0 0.14494330 0.01255455 6 
194 138 806 0 0.25140739 0.00751206 3 
195 673 814 2 225.00634507 0.00000370 1 
196 568 815 2 881.04732491 0.00000352 1 
197 81 818 2 2508.32438660 0.00000359 1 
198 138 821 0 0.40674396 0.01106719 5 
199 695 821 2 1725.30522191 0.00000426 5 
200 138 823 0 6.54725682 0.00936592 4 
201 151 828 0 3.12108818 0.00947493 4 
202 151 847 0 0.08724621 0.01143394 5 
203 727 847 2 496.62101622 0.00000446 5 
204 361 850 2 250.20229144 0.00000308 1 
205 151 855 0 0.11494457 0.01514456 7 
206 150 856 2 8565.92382299 0.00000412 1 
207 522 888 2 543.45552765 0.00000385 1 
208 743 888 2 608.99259514 0.00000231 1 
209 217 892 2 119.02769675 0.00000401 1 
210 151 895 0 2.80701437 0.01762062 8 
211 151 897 0 0.06118057 0.02144064 10 
212 635 897 2 3596.20313863 0.00000413 10 
213 138 903 0 0.08157811 0.01021027 4 
214 138 904 0 7.06392298 0.01400555 6 
215 132 907 0 0.71874717 0.01027854 4 
216 138 907 0 0.22077132 0.01219148 5 
217 574 909 2 3517.46686401 0.00000370 1 
218 132 911 0 0.23128175 0.01222236 5 
219 873 916 2 1321.19100870 0.00000400 1 
220 691 917 2 1098.93299617 0.00000351 1 
221 852 917 2 529.99468598 0.00000115 1 
222 121 923 0 0.62636126 0.01436605 6 
223 126 923 0 0.07130653 0.01050255 4 
224 107 929 0 0.07225325 0.01251502 5 
225 114 929 0 0.00477553 0.01056303 4 
226 526 931 2 2055.71502778 0.00000399 1 
227 107 935 0 4.91438615 0.01651421 7 
228 114 935 0 1.40337639 0.01658083 7 
229 101 939 0 0.48567419 0.01068054 4 
230 107 939 0 0.21174614 0.01069015 4 
231 275 941 2 1319.91738027 0.00000446 1 
232 101 944 0 0.15377935 0.01275238 5 
233 94 947 0 0.23772432 0.01674022 7 
234 101 947 0 0.16826262 0.01483267 6 
235 550 948 2 1570.97361692 0.00000460 1 
236 87 953 0 0.13504795 0.01085881 4 
237 94 953 0 0.06505521 0.01490592 6 
238 226 953 0 0.08268323 0.02296230 10 
239 534 957 2 374.76670860 0.00000372 1 
240 81 959 0 1.83528326 0.02436081 10 
241 87 959 0 1.29172246 0.01715287 7 
242 220 959 0 0.04883629 0.01106566 4 
243 226 959 0 0.12130941 0.01311464 5 
244 6 962 2 1823.75922524 0.00000460 1 
245 764 963 2 980.12169600 0.00000389 1 
246 165 963 2 3660.67130764 0.00000131 1 
247 337 964 2 2787.96865645 0.00000371 1 
248 67 965 0 1.01368609 0.01318783 5 
249 81 965 0 0.31066014 0.01521415 6 
250 220 965 0 0.16483276 0.01932355 8 
251 683 969 2 290.21990940 0.00000453 1 
252 61 976 0 0.16803746 0.01741091 7 
253 67 976 0 0.05676300 0.00920120 3 
254 209 976 0 0.00780965 0.01126186 4 
255 921 981 2 3038.33051326 0.00000448 1 
256 50 982 0 0.38354811 0.01130699 4 
257 61 982 0 0.27147698 0.01135257 4 
258 201 982 0 0.22200943 0.01161199 4 
259 203 982 0 0.10573284 0.02189275 9 
260 629 984 2 2639.60413468 0.00000510 1 
261 560 984 2 2585.63692216 0.00000157 1 
262 44 988 0 0.09550719 0.01143374 4 
263 50 988 0 0.05924873 0.01143054 4 
264 195 988 0 0.04319526 0.01571254 6 
265 201 988 0 0.02685916 0.01361018 5 
266 44 994 0 0.51683435 0.01786569 7 
267 189 994 0 0.29989154 0.02659129 10 
268 195 994 0 0.21957432 0.01381664 5 
269 32 1003 0 0.23901034 0.01382915 5 
270 178 1003 0 0.03356851 0.02602235 10 
271 183 1003 0 0.01433170 0.01609440 6 
272 297 1007 2 5759.81897628 0.00000565 1 
273 25 1008 0 1.23858172 0.01842067 7 
274 32 1008 0 0.53803958 0.01184211 4 
275 178 1008 0 0.34459610 0.01184732 4 
276 183 1008 0 0.22233868 0.01188004 4 
277 25 1010 0 0.60236133 0.01183293 4 
278 32 1010 0 0.30591807 0.01403330 5 
279 172 1010 0 0.10368354 0.01634571 6 
280 178 1010 0 0.19279072 0.02646453 10 
281 562 1010 2 2315.91114116 0.00000420 10 
282 39 1011 2 3031.14725464 0.00000436 10 
283 861 1011 2 458.14431779 0.00000126 10 
284 19 1016 0 0.44047719 0.02055757 8 
285 166 1016 0 0.20189646 0.01191201 4 
286 172 1016 0 0.07393216 0.01410712 5 
287 936 1024 2 216.71721009 0.00000664 1 
288 559 1027 2 1159.52344116 0.00000587 1 
289 151 1029 0 0.03533130 0.01433641 5 
290 157 1029 0 0.02672450 0.01208471 4 
291 163 1029 0 3.39703566 0.01208283 4 
292 166 1029 0 0.49353449 0.01209094 4 
293 878 1052 2 419.86092844 0.00000589 1 
294 1001 1072 2 143.78511546 0.00000679 1 
295 538 1073 2 307.23928220 0.00000569 1 
296 522 1074 2 194.35390758 0.00000536 1 
297 132 1084 0 4.21993706 0.01514280 5 
298 1024 1085 2 2059.22830095 0.00000633 1 
299 46 1093 2 800.33704271 0.00000589 1 
300 244 1097 2 316.12556272 0.00000547 1 
301 260 1107 2 105.83683108 0.00000553 1 
302 654 1110 2 629.05507003 0.00000572 1 
303 548 1115 2 531.98214789 0.00000607 1 
304 527 1116 2 499.22702020 0.00000478 1 
305 164 1125 2 674.88494916 0.00000548 1 
306 608 1130 2 67.60741517 0.00000516 1 
307 101 1138 0 0.63021658 0.01589739 5 
308 753 1142 2 311.41160892 0.00000586 1 
309 597 1145 2 3026.27243722 0.00000568 1 
310 107 1147 0 0.73708347 0.01328483 4 
311 114 1147 0 0.03971358 0.01080102 3 
312 107 1150 0 7.45683387 0.01333845 4 
313 114 1150 0 1.00561260 0.01086072 3 
314 114 1158 0 0.16899687 0.01090954 3 
315 121 1158 0 0.69099743 0.01349897 4 
316 58 1159 2 3397.92960134 0.00000585 1 
317 121 1164 0 0.45182924 0.01609343 5 
318 126 1164 0 0.04418665 0.01362214 4 
319 114 1175 0 0.14266969 0.01365916 4 
320 121 1175 0 0.27324351 0.01370260 4 
321 923 1175 0 0.18719011 0.01372067 4 
322 929 1175 0 0.16073549 0.01367410 4 
323 1158 1175 0 0.00134797 0.01114964 3 
324 226 1175 2 4956.12402626 0.00000584 3 
325 208 1176 2 4251.06804143 0.00000583 1 
326 67 1177 2 2234.39944812 0.00000493 1 
327 726 1178 2 543.88159427 0.00000442 1 
328 101 1188 0 0.32950319 0.01388212 4 
329 939 1188 0 0.55418798 0.01386263 4 
330 1138 1188 0 0.03006025 0.01136666 3 
331 1147 1188 0 0.04063922 0.01128541 3 
332 1150 1188 0 1.83245351 0.01385644 4 
333 862 1194 2 1993.07743549 0.00000587 1 
334 981 1195 2 602.69934806 0.00000538 1 
335 849 1206 2 566.10156241 0.00000546 1 
336 168 1206 2 368.08748594 0.00000236 1 
337 1160 1209 2 172.37145183 0.00000563 1 
338 1050 1210 0 0.00345523 0.01408937 4 
339 1061 1210 0 0.57363906 0.01680049 5 
340 1075 1210 0 0.23107861 0.01682937 5 
341 1084 1210 0 3.13555510 0.01689331 5 
342 1088 1210 0 0.59156319 0.01425184 4 
343 1093 1210 0 0.13111230 0.01954134 6 
344 1098 1210 0 0.04730346 0.01429965 4 
345 157 1217 0 0.32750279 0.01424994 4 
346 163 1217 0 0.19904338 0.01434984 4 
347 1029 1217 0 0.01250493 0.01165784 3 
348 1044 1217 0 3.98258990 0.01437772 4 
349 1050 1217 0 4.97161000 0.01705366 5 
350 75 1218 2 1393.24062386 0.00000527 1 
351 910 1218 2 5996.91636222 0.00000238 1 
352 257 1220 2 4090.67601746 0.00000596 1 
353 584 1223 2 342.25711472 0.00000538 1 
354 163 297 0 0.27920255 0.01523541 4 
355 189 400 0 2.09679271 0.01453513 4 
356 1056 1217 0 9.66143264 0.01724984 5 
