1 19 166 0.00294839 10 
2 19 172 0.00311407 10 
3 25 172 0.00317213 10 
4 25 178 0.00328172 10 
5 32 178 0.00329152 10 
6 32 183 0.00337755 10 
7 44 189 0.00349951 10 
8 44 195 0.00361107 10 
9 50 195 0.00360428 10 
10 50 201 0.00371215 10 
11 50 203 0.00376480 10 
12 61 203 0.00375216 10 
13 61 209 0.00386780 10 
14 67 209 0.00386960 10 
15 67 220 0.00407121 10 
16 81 220 0.00405689 10 
17 81 226 0.00418226 10 
18 87 226 0.00416935 10 
19 87 231 0.00426943 10 
20 94 231 0.00426217 10 
21 226 231 0.00425654 10 
22 94 241 0.00446468 10 
23 101 241 0.00446120 10 
24 101 247 0.00456903 10 
25 107 247 0.00461307 10 
26 107 254 0.00470393 10 
27 114 254 0.00471358 10 
28 107 256 0.00475977 10 
29 114 256 0.00476351 10 
30 107 258 0.00480181 10 
31 114 258 0.00480084 10 
32 121 266 0.00496829 10 
33 126 266 0.00499147 10 
34 126 272 0.00512794 10 
35 132 272 0.00513645 10 
36 132 278 0.00524848 10 
37 138 278 0.00524308 10 
38 138 284 0.00542482 10 
39 151 284 0.00539332 10 
40 151 291 0.00552438 10 
41 151 297 0.00563635 10 
42 157 297 0.00563798 10 
43 163 297 0.00564816 10 
44 166 297 0.00564869 10 
45 19 305 0.00592232 10 
46 157 305 0.00593151 10 
47 163 305 0.00598020 10 
48 166 305 0.00596956 10 
49 172 305 0.00600093 10 
50 19 315 0.00537890 9 
51 25 315 0.00604190 10 
52 172 315 0.00621089 10 
53 172 328 0.00626635 10 
54 19 337 0.00515146 8 
55 25 337 0.00650070 10 
56 172 337 0.00666985 10 
57 19 342 0.00657506 10 
58 25 342 0.00662987 10 
59 172 342 0.00339931 5 
60 178 342 0.00664484 10 
61 25 367 0.00347308 5 
62 32 367 0.00419420 6 
63 178 367 0.00419718 6 
64 183 367 0.00493862 7 
65 25 374 0.00723419 10 
66 32 374 0.00728626 10 
67 178 374 0.00522536 7 
68 183 374 0.00652397 9 
69 32 382 0.00592648 8 
70 183 382 0.00749301 10 
71 32 387 0.00753775 10 
72 183 387 0.00447941 6 
73 189 400 0.00787318 10 
74 189 414 0.00815375 10 
75 44 437 0.00860044 10 
76 195 437 0.00880892 10 
77 44 454 0.00889290 10 
78 189 454 0.00912718 10 
79 44 467 0.00916289 10 
80 50 467 0.00941238 10 
81 195 467 0.00942412 10 
82 195 484 0.00952078 10 
83 44 494 0.00672728 7 
84 50 494 0.00975203 10 
85 195 494 0.00998496 10 
86 201 494 0.01002839 10 
87 50 500 0.00989797 10 
88 201 500 0.01015468 10 
89 203 500 0.01017051 10 
90 61 508 0.01010388 10 
91 203 508 0.01034196 10 
92 209 508 0.01038508 10 
93 61 522 0.01037434 10 
94 203 522 0.01062207 10 
95 209 522 0.01064005 10 
96 61 528 0.01049227 10 
97 67 528 0.01080773 10 
98 81 528 0.01082654 10 
99 209 528 0.01083157 10 
100 220 528 0.01082755 10 
101 67 532 0.00845728 8 
102 81 532 0.01066658 10 
103 220 532 0.01093626 10 
104 67 556 0.01117122 10 
105 67 564 0.01128287 10 
106 81 564 0.01156493 10 
107 220 564 0.01148861 10 
108 67 567 0.01136013 10 
109 81 567 0.01165861 10 
110 220 567 0.01166372 10 
111 67 570 0.01145016 10 
112 81 570 0.01173717 10 
113 220 570 0.01172298 10 
114 81 575 0.01186673 10 
115 220 575 0.01185586 10 
116 81 588 0.01183411 10 
117 87 588 0.01214982 10 
118 226 588 0.01217996 10 
119 87 597 0.01207776 10 
120 94 597 0.01236252 10 
121 226 597 0.01240310 10 
122 87 604 0.01223753 10 
123 94 604 0.01253664 10 
124 94 616 0.00988866 8 
125 94 632 0.01278668 10 
126 94 637 0.01288858 10 
127 101 637 0.01321920 10 
128 101 642 0.01298557 10 
129 107 642 0.01330355 10 
130 101 645 0.01308180 10 
131 107 645 0.01340720 10 
132 101 657 0.01331373 10 
133 101 663 0.01198436 9 
134 107 663 0.01343926 10 
135 114 663 0.01396546 10 
136 101 665 0.01367701 10 
137 107 665 0.01400948 10 
138 114 665 0.01401278 10 
139 107 680 0.01399503 10 
140 139 680 0.01439172 10 
141 107 683 0.01412871 10 
142 114 683 0.01448426 10 
143 107 704 0.01454039 10 
144 114 704 0.01486951 10 
145 328 710 0.01477924 10 
146 107 714 0.01479670 10 
147 114 714 0.01515680 10 
148 107 730 0.01044480 7 
149 114 730 0.01508154 10 
150 121 754 0.01561870 10 
151 126 754 0.01598555 10 
152 121 759 0.01571758 10 
153 126 759 0.01611519 10 
154 126 762 0.01579456 10 
155 132 762 0.01616339 10 
156 132 778 0.01608199 10 
157 132 792 0.01636820 10 
158 132 800 0.01649707 10 
159 138 800 0.01693566 10 
160 138 806 0.01664009 10 
161 138 821 0.01681508 10 
162 138 823 0.01684027 10 
163 151 828 0.01717114 10 
164 151 847 0.01751892 10 
165 151 855 0.01768982 10 
166 359 858 0.01774966 10 
167 151 895 0.01847910 10 
168 151 897 0.01885545 10 
169 138 903 0.01864205 10 
170 138 904 0.01910942 10 
171 132 907 0.01877033 10 
172 138 907 0.01918536 10 
173 132 911 0.01883437 10 
174 121 923 0.01920223 10 
175 126 923 0.01961150 10 
176 107 929 0.01928872 10 
177 114 929 0.02053643 10 
178 107 935 0.01942939 10 
179 114 935 0.01987036 10 
180 101 939 0.01939401 10 
181 107 939 0.01939785 10 
182 101 944 0.01962239 10 
183 94 947 0.01975040 10 
184 101 947 0.02024676 10 
185 87 953 0.01997677 10 
186 94 953 0.02044283 10 
187 226 953 0.02041900 10 
188 81 959 0.02018601 10 
189 87 959 0.02066110 10 
190 220 959 0.02066470 10 
191 226 959 0.02072869 10 
192 67 965 0.02041962 10 
193 81 965 0.02085628 10 
194 220 965 0.02087621 10 
195 61 976 0.02061608 10 
196 67 976 0.02110314 10 
197 209 976 0.02110254 10 
198 50 982 0.02080738 10 
199 61 982 0.02126916 10 
200 201 982 0.02130474 10 
201 203 982 0.02133652 10 
202 44 988 0.02097038 10 
203 50 988 0.02151392 10 
204 195 988 0.02149885 10 
205 201 988 0.01717620 8 
206 172 991 0.02121050 10 
207 44 994 0.02122915 10 
208 189 994 0.02175475 10 
209 195 994 0.02181591 10 
210 32 1003 0.02150735 10 
211 178 1003 0.02203660 10 
212 183 1003 0.02205990 10 
213 25 1008 0.02167436 10 
214 32 1008 0.02220435 10 
215 178 1008 0.02224188 10 
216 183 1008 0.02222748 10 
217 25 1010 0.02173510 10 
218 32 1010 0.02226108 10 
219 172 1010 0.02226005 10 
220 178 1010 0.02226209 10 
221 19 1016 0.02199544 10 
222 166 1016 0.02257377 10 
223 172 1016 0.02022336 9 
224 151 1029 0.02232637 10 
225 157 1029 0.02284657 10 
226 163 1029 0.02281399 10 
227 166 1029 0.02283498 10 
228 132 1084 0.02352122 10 
229 9 1114 0.02409644 10 
230 101 1138 0.02469065 10 
231 107 1147 0.02492124 10 
232 114 1147 0.02550282 10 
233 107 1150 0.02502884 10 
234 114 1150 0.02560667 10 
235 114 1158 0.02523134 10 
236 121 1158 0.02578602 10 
237 121 1164 0.02537882 10 
238 126 1164 0.02601442 10 
239 114 1175 0.02566532 10 
240 121 1175 0.02624436 10 
241 923 1175 0.02623850 10 
242 929 1175 0.02636122 10 
243 1158 1175 0.02095397 8 
244 101 1188 0.02598487 10 
245 939 1188 0.02657187 10 
246 1138 1188 0.02657378 10 
247 1147 1188 0.02660853 10 
248 1150 1188 0.02662856 10 
249 1050 1210 0.02707540 10 
250 1061 1210 0.02707778 10 
251 1075 1210 0.02707007 10 
252 1084 1210 0.02707976 10 
253 1088 1210 0.02715707 10 
254 1093 1210 0.02723683 10 
255 1098 1210 0.02714726 10 
256 157 1217 0.02671438 10 
257 163 1217 0.02742807 10 
258 1029 1217 0.02737198 10 
259 1044 1217 0.02743277 10 
260 1050 1217 0.02741575 10 
261 1056 1217 0.02741254 10 
