1 19 166 0 0.41485034 0.00218576 5 
2 19 172 0 0.02820697 0.00193445 4 
3 25 172 0 0.50366199 0.00194769 4 
4 66 174 2 228.43638402 0.00000204 1 
5 25 178 0 0.30831851 0.00204592 4 
6 32 178 0 0.01493521 0.00205831 4 
7 32 183 0 0.07055611 0.00208177 4 
8 44 189 0 0.52863102 0.00215721 4 
9 44 195 0 0.35755137 0.00224840 4 
10 50 195 0 0.00572854 0.00227334 4 
11 50 201 0 0.04110605 0.00197222 3 
12 50 203 0 0.06975183 0.00195176 3 
13 61 203 0 0.00745912 0.00196662 3 
14 61 209 0 0.37222863 0.00239569 4 
15 67 209 0 0.41032090 0.00241159 4 
16 13 215 2 936.86502663 0.00000271 1 
17 67 220 0 0.66144083 0.00258561 4 
18 81 220 0 0.48035877 0.00295238 5 
19 81 226 0 0.05402805 0.00265985 4 
20 87 226 0 1.82553139 0.00303603 5 
21 87 231 0 0.34656585 0.00271476 4 
22 94 231 0 0.55778528 0.00265825 4 
23 226 231 0 1.44127402 0.00308528 5 
24 94 241 0 1.33132047 0.00278435 4 
25 101 241 0 0.50961029 0.00280308 4 
26 101 247 0 1.66454674 0.00285721 4 
27 107 247 0 1.80094617 0.00287583 4 
28 126 247 2 1104.18077696 0.00000220 4 
29 107 254 0 1.18346605 0.00293856 4 
30 114 254 0 0.12939160 0.00295582 4 
31 107 256 0 0.93085039 0.00294965 4 
32 114 256 0 0.24629796 0.00295823 4 
33 107 258 0 1.37911724 0.00299861 4 
34 114 258 0 1.15747212 0.00302600 4 
35 121 266 0 0.00938596 0.00310424 4 
36 126 266 0 0.44864328 0.00366191 5 
37 203 267 2 1978.73310419 0.00000236 1 
38 126 272 0 1.03992836 0.00320111 4 
39 132 272 0 0.39070916 0.00376367 5 
40 132 278 0 0.58358145 0.00328388 4 
41 138 278 0 1.06458780 0.00385192 5 
42 138 284 0 0.02201259 0.00281064 3 
43 151 284 0 0.12777228 0.00339600 4 
44 151 291 0 0.60037557 0.00342178 4 
45 151 297 0 0.07972289 0.00295364 3 
46 157 297 0 1.04991834 0.00356008 4 
47 166 297 0 1.30507781 0.00350248 4 
48 19 305 0 0.16044642 0.00368866 4 
49 157 305 0 0.58687353 0.00372212 4 
50 163 305 0 7.56485476 0.00498665 6 
51 166 305 0 0.37495035 0.00372261 4 
52 172 305 0 0.01886255 0.00372905 4 
53 19 315 0 0.48455906 0.00321063 3 
54 25 315 0 0.02281386 0.00322171 3 
55 172 315 0 0.05679715 0.00385390 4 
56 172 328 0 0.12482725 0.00336674 3 
57 19 337 0 6.63404991 0.00480542 5 
58 25 337 0 0.96522419 0.00412937 4 
59 172 337 0 0.57611560 0.00345728 3 
60 74 339 2 1215.32910279 0.00000233 1 
61 19 342 0 0.00494520 0.00349601 3 
62 25 342 0 0.12855172 0.00419545 4 
63 172 342 0 0.01223902 0.00424384 4 
64 178 342 0 0.12442988 0.00430560 4 
65 321 359 2 1317.54914481 0.00000331 1 
66 25 367 0 0.11414782 0.00389421 3 
67 32 367 0 0.01267433 0.00611445 6 
68 178 367 0 0.00286807 0.00387981 3 
69 183 367 0 0.06698524 0.00388705 3 
70 25 374 0 0.56424690 0.00470247 4 
71 32 374 0 0.09892849 0.00547069 5 
72 178 374 0 0.03055075 0.00471802 4 
73 183 374 0 0.05309447 0.00468637 4 
74 32 382 0 4.14688582 0.00405623 3 
75 183 382 0 1.28811506 0.00478631 4 
76 32 387 0 2.72468715 0.00484091 4 
77 183 387 0 0.18197642 0.00483688 4 
78 186 410 2 303.77772426 0.00000276 1 
79 189 414 0 7.69047346 0.00599588 5 
80 156 416 2 402.79553999 0.00000317 1 
81 52 417 2 1349.44158958 0.00000303 1 
82 57 420 2 2102.17653424 0.00000321 1 
83 44 437 0 0.00915802 0.00448895 3 
84 195 437 0 0.01161094 0.00447437 3 
85 44 454 0 0.65644164 0.00462721 3 
86 189 454 0 0.03962740 0.00554550 4 
87 219 463 2 894.21851420 0.00000315 1 
88 44 467 0 0.12345281 0.00656645 5 
89 50 467 0 0.00895575 0.01046896 9 
90 195 467 0 0.00230988 0.00473977 3 
91 42 470 2 1209.30943567 0.00000333 1 
92 195 484 0 0.09447226 0.00587372 4 
93 123 486 2 3116.05588854 0.00000346 1 
94 44 494 0 0.02880924 0.00590901 4 
95 50 494 0 0.00628832 0.00493628 3 
96 195 494 0 0.00818961 0.00699086 5 
97 201 494 0 0.00469852 0.00698463 5 
98 50 500 0 0.14406209 0.00713723 5 
99 201 500 0 0.05353930 0.00502590 3 
100 203 500 0 0.03252445 0.00499922 3 
101 61 508 0 0.99413579 0.00729654 5 
102 203 508 0 0.26947301 0.01253337 10 
103 209 508 0 0.03711473 0.00617105 4 
104 61 522 0 1.37942234 0.00628906 4 
105 203 522 0 0.12859200 0.00523672 3 
106 209 522 0 0.00542469 0.00526173 3 
107 121 526 2 1386.27794459 0.00000266 1 
108 61 528 0 0.47936102 0.00529068 3 
109 67 528 0 0.22419307 0.00645261 4 
110 81 528 0 0.23233822 0.00865019 6 
111 209 528 0 0.09444678 0.01089286 8 
112 220 528 0 0.13668760 0.00639361 4 
113 283 529 2 6391.79518333 0.00000290 1 
114 67 532 0 0.05459173 0.01207613 9 
115 81 532 0 0.11826401 0.00869848 6 
116 220 532 0 0.05648169 0.00650018 4 
117 425 533 2 2028.10815372 0.00000274 1 
118 258 535 2 2029.39896402 0.00000229 1 
119 247 540 2 691.69025801 0.00000269 1 
120 482 545 2 1163.79484525 0.00000279 1 
121 292 550 2 631.20331203 0.00000287 1 
122 67 556 0 0.98233216 0.00665943 4 
123 67 564 0 0.40168838 0.01262053 9 
124 81 564 0 0.02280941 0.00680029 4 
125 220 564 0 0.02684857 0.00683202 4 
126 67 567 0 2.67253169 0.00800176 5 
127 81 567 0 0.48923871 0.00930769 6 
128 220 567 0 0.21723258 0.00682054 4 
129 67 570 0 2.40706627 0.00932351 6 
130 81 570 0 0.15671702 0.00925893 6 
131 220 570 0 0.13379867 0.00690949 4 
132 139 573 2 1070.25888560 0.00000268 1 
133 81 575 0 2.76594993 0.00813231 5 
134 220 575 0 1.08612706 0.01060889 7 
135 341 581 2 1294.11522773 0.00000277 1 
136 81 588 0 0.01497138 0.00582684 3 
137 87 588 0 0.47937722 0.00840656 5 
138 226 588 0 0.43156268 0.00709615 4 
139 458 593 2 1795.90525727 0.00000352 1 
140 87 597 0 2.27648751 0.00979270 6 
141 94 597 0 0.38888315 0.00718644 4 
142 226 597 0 0.55079633 0.00851198 5 
143 98 602 2 1929.15206712 0.00000307 1 
144 253 603 2 2277.80911443 0.00000239 1 
145 48 603 2 1928.80914344 0.00000130 1 
146 87 604 0 0.47149562 0.00729358 4 
147 94 604 0 0.01542269 0.00860460 5 
148 425 608 2 1034.58842725 0.00000276 1 
149 524 610 2 1183.94715248 0.00000257 1 
150 109 610 2 153.83468491 0.00000122 1 
151 376 611 2 1220.54829731 0.00000213 1 
152 153 615 2 1511.85679531 0.00000237 1 
153 94 616 0 0.01350372 0.01265406 8 
154 532 618 2 179.73341093 0.00000357 1 
155 94 632 0 2.16969694 0.00901465 5 
156 97 634 2 2683.08699291 0.00000295 1 
157 330 635 2 1221.30688868 0.00000228 1 
158 94 637 0 4.44236402 0.01031940 6 
159 101 637 0 0.19098383 0.00769873 4 
160 108 641 2 3547.96936714 0.00000369 1 
161 101 642 0 0.11555601 0.00910483 5 
162 107 642 0 0.04025021 0.01453432 9 
163 101 645 0 6.69527511 0.00780513 4 
164 107 645 0 1.54205090 0.00770416 4 
165 537 648 2 1297.91614883 0.00000384 1 
166 101 657 0 0.73548669 0.01711243 10 
167 451 662 2 148.00116806 0.00000337 10 
168 101 663 0 0.04971914 0.01711246 10 
169 107 663 0 0.01781179 0.00936180 5 
170 114 663 0 0.00275957 0.00940623 5 
171 101 665 0 1.55112265 0.01376259 8 
172 107 665 0 0.47667103 0.00800573 4 
173 114 665 0 0.13329170 0.00666335 3 
174 594 665 2 7724.55078493 0.00000310 3 
175 661 673 2 599.64923613 0.00000272 1 
176 107 680 0 1.48615866 0.00960865 5 
177 107 683 0 0.94462224 0.00823027 4 
178 114 683 0 0.32178225 0.00975386 5 
179 486 693 2 571.26588400 0.00000317 1 
180 107 704 0 0.34268109 0.01293864 7 
181 114 704 0 0.07528002 0.01590222 9 
182 194 713 2 121.38118584 0.00000307 1 
183 107 714 0 1.79639085 0.01160581 6 
184 114 714 0 0.02860377 0.01566191 8 
185 137 717 2 2293.51698748 0.00000473 1 
186 555 722 2 1218.97527719 0.00000427 1 
187 77 729 2 2248.53102027 0.00000482 1 
188 107 730 0 0.19656714 0.01050194 5 
189 114 730 0 0.03540690 0.00876285 4 
190 387 736 2 1692.99584910 0.00000308 1 
191 159 743 2 1774.28658530 0.00000338 1 
192 468 749 2 978.99173535 0.00000295 1 
193 638 751 2 220.42158334 0.00000309 1 
194 121 754 0 0.33113739 0.00897668 4 
195 126 754 0 0.07673382 0.01548115 8 
196 121 759 0 2.33625684 0.01229474 6 
197 126 759 0 0.22329988 0.01235080 6 
198 33 759 2 5814.51823504 0.00000354 6 
199 126 762 0 7.08482229 0.01064941 5 
200 132 762 0 2.00372045 0.01573453 8 
201 212 764 2 1174.46365643 0.00000363 1 
202 648 765 2 1847.60506254 0.00000303 1 
203 446 767 2 926.92542215 0.00000319 1 
204 67 777 2 145.95465367 0.00000320 1 
205 132 778 0 0.06999780 0.00929918 4 
206 23 779 2 1758.79876278 0.00000502 1 
207 241 779 2 561.60651692 0.00000103 1 
208 85 780 2 2015.95135786 0.00000425 1 
209 433 783 2 3383.72039373 0.00000409 1 
210 330 788 2 195.97514965 0.00000396 1 
211 132 792 0 1.26802734 0.00951729 4 
212 240 792 2 4290.18748990 0.00000445 4 
213 761 794 2 987.39563456 0.00000332 1 
214 132 800 0 3.35686460 0.00943244 4 
215 138 800 0 0.14494330 0.01285936 6 
216 138 806 0 0.25140739 0.00772331 3 
217 788 812 2 1109.32122693 0.00000350 1 
218 138 821 0 0.40674396 0.01135821 5 
219 464 822 2 1980.16672641 0.00000415 1 
220 138 823 0 6.54725682 0.00961209 4 
221 614 826 2 1703.09332351 0.00000390 1 
222 151 828 0 3.12108818 0.00972907 4 
223 151 847 0 0.08724621 0.01194127 5 
224 489 851 2 481.59278702 0.00000411 1 
225 472 854 2 874.74307721 0.00000383 1 
226 151 855 0 0.11494457 0.01547748 7 
227 354 859 2 398.43552705 0.00000426 1 
228 91 878 2 1322.92183157 0.00000370 1 
229 151 895 0 2.80701437 0.01802998 8 
230 151 897 0 0.06118057 0.02185001 10 
231 493 902 2 2261.29630909 0.00000332 1 
232 138 903 0 0.08157811 0.01049401 4 
233 138 904 0 7.06392298 0.01434376 6 
234 132 907 0 0.71874717 0.01060307 4 
235 138 907 0 0.22077132 0.01262247 5 
236 808 907 2 5990.17264415 0.00000470 5 
237 465 908 2 1493.39317419 0.00000366 1 
238 132 911 0 0.23128175 0.01254445 5 
239 410 913 2 1438.12996369 0.00000325 1 
240 861 915 2 1092.54933073 0.00000345 1 
241 121 923 0 0.62636126 0.01469793 6 
242 126 923 0 0.07130653 0.01078143 4 
243 107 929 0 0.07225325 0.01283751 5 
244 114 929 0 0.00477553 0.01085526 4 
245 107 935 0 4.91438615 0.01689319 7 
246 114 935 0 1.40337639 0.01691601 7 
247 210 936 2 1326.14170860 0.00000348 1 
248 101 939 0 0.48567419 0.01095462 4 
249 107 939 0 0.21174614 0.01099776 4 
250 887 943 2 649.40734235 0.00000408 1 
251 246 943 2 900.28765528 0.00000185 1 
252 101 944 0 0.15377935 0.01307369 5 
253 233 946 2 2152.55338994 0.00000406 1 
254 94 947 0 0.23772432 0.01712485 7 
255 101 947 0 0.16826262 0.01514906 6 
256 636 947 2 6329.90393416 0.00000424 6 
257 87 953 0 0.13504795 0.01114367 4 
258 94 953 0 0.06505521 0.01527108 6 
259 226 953 0 0.08268323 0.02344382 10 
260 81 959 0 1.83528326 0.02493928 10 
261 87 959 0 1.29172246 0.01750069 7 
262 220 959 0 0.04883629 0.01138407 4 
263 226 959 0 0.12130941 0.01337546 5 
264 390 959 2 1414.95983369 0.00000382 5 
265 67 965 0 1.01368609 0.01347868 5 
266 81 965 0 0.31066014 0.01555040 6 
267 220 965 0 0.16483276 0.01974077 8 
268 66 967 2 387.60094360 0.00000405 1 
269 841 970 2 1603.71243856 0.00000405 1 
270 129 973 2 2848.43241298 0.00000369 1 
271 614 974 2 2022.70800612 0.00000392 1 
272 61 976 0 0.16803746 0.01805798 7 
273 67 976 0 0.05676300 0.00939153 3 
274 209 976 0 0.00780965 0.01151417 4 
275 79 979 2 208.52120708 0.00000352 1 
276 50 982 0 0.38354811 0.01166185 4 
277 61 982 0 0.27147698 0.01163336 4 
278 201 982 0 0.22200943 0.01163784 4 
279 203 982 0 0.10573284 0.02236870 9 
280 587 983 2 3904.39039179 0.00000435 1 
281 234 983 2 2578.22630859 0.00000138 1 
282 44 988 0 0.09550719 0.01174097 4 
283 50 988 0 0.05924873 0.01175342 4 
284 195 988 0 0.04319526 0.01605017 6 
285 201 988 0 0.02685916 0.01389212 5 
286 639 990 2 2175.21226720 0.00000394 1 
287 372 991 2 2741.84334530 0.00000431 1 
288 44 994 0 0.51683435 0.01829884 7 
289 189 994 0 0.29989154 0.02626990 10 
290 195 994 0 0.21957432 0.01404573 5 
291 315 1001 2 1472.48290715 0.00000515 1 
292 32 1003 0 0.23901034 0.01418634 5 
293 178 1003 0 0.03356851 0.02658678 10 
294 183 1003 0 0.01433170 0.01642208 6 
295 503 1003 2 2973.12964046 0.00000424 6 
296 25 1008 0 1.23858172 0.01879911 7 
297 32 1008 0 0.53803958 0.01205495 4 
298 178 1008 0 0.34459610 0.01205313 4 
299 183 1008 0 0.22233868 0.01210952 4 
300 25 1010 0 0.60236133 0.01210212 4 
301 32 1010 0 0.30591807 0.01433509 5 
302 172 1010 0 0.10368354 0.01666387 6 
303 178 1010 0 0.19279072 0.02698617 10 
304 87 1013 2 484.78573493 0.00000548 4 
305 19 1016 0 0.44047719 0.02103048 8 
306 166 1016 0 0.20189646 0.01214515 4 
307 172 1016 0 0.07393216 0.01438702 5 
308 831 1027 2 737.35633478 0.00000593 1 
309 760 1028 2 534.75473686 0.00000493 1 
310 151 1029 0 0.03533130 0.01466997 5 
311 157 1029 0 0.02672450 0.01229447 4 
312 163 1029 0 3.39703566 0.01232336 4 
313 166 1029 0 0.49353449 0.01230772 4 
314 924 1029 2 2003.34540396 0.00000435 4 
315 320 1039 2 741.13460043 0.00000503 1 
316 842 1039 2 362.32393522 0.00000272 1 
317 119 1039 2 693.53701079 0.00000209 1 
318 1004 1041 2 486.78425507 0.00000438 1 
319 671 1044 2 1085.58269223 0.00000523 1 
320 998 1047 2 971.86047067 0.00000530 1 
321 440 1052 2 644.04223937 0.00000541 1 
322 879 1062 2 897.96353702 0.00000519 1 
323 503 1067 2 243.83419730 0.00000564 1 
324 671 1068 2 611.58272212 0.00000534 1 
325 369 1068 2 56.47656278 0.00000223 1 
326 945 1070 2 275.40387719 0.00000492 1 
327 467 1070 2 835.17697071 0.00000225 1 
328 414 1071 2 250.82757089 0.00000565 1 
329 132 1084 0 4.21993706 0.01546674 5 
330 191 1085 2 2631.32228537 0.00000549 1 
331 484 1087 2 645.61766526 0.00000510 1 
332 1081 1090 2 2373.44197024 0.00000504 1 
333 1006 1093 2 566.07257093 0.00000534 1 
334 66 1094 2 1617.64386265 0.00000581 1 
335 534 1100 2 619.45309102 0.00000533 1 
336 542 1101 2 1242.99029281 0.00000512 1 
337 974 1102 2 2219.80335754 0.00000505 1 
338 925 1118 2 591.91480063 0.00000523 1 
339 568 1120 2 224.91864515 0.00000521 1 
340 623 1120 2 86.66504799 0.00000189 1 
341 535 1122 2 1048.33394274 0.00000580 1 
342 101 1138 0 0.63021658 0.01617522 5 
343 1046 1140 2 587.47940891 0.00000609 1 
344 126 1141 2 2768.40800035 0.00000536 1 
345 514 1143 2 745.74930361 0.00000581 1 
346 137 1144 2 2306.76511571 0.00000557 1 
347 474 1144 2 666.04546347 0.00000207 1 
348 527 1145 2 1934.41867065 0.00000546 1 
349 131 1146 2 1295.94925017 0.00000509 1 
350 107 1147 0 0.73708347 0.01364399 4 
351 114 1147 0 0.03971358 0.01111968 3 
352 507 1147 2 2418.94800251 0.00000583 3 
353 107 1150 0 7.45683387 0.01367704 4 
354 114 1150 0 1.00561260 0.01115945 3 
355 643 1153 2 4136.17316302 0.00000576 1 
356 114 1158 0 0.16899687 0.01121990 3 
357 121 1158 0 0.69099743 0.01384609 4 
358 983 1160 2 6935.07509397 0.00000586 1 
359 567 1161 2 1900.13603782 0.00000516 1 
360 147 1161 2 1326.81145018 0.00000212 1 
361 334 1162 2 4126.13446141 0.00000541 1 
362 121 1164 0 0.45182924 0.01644346 5 
363 126 1164 0 0.04418665 0.01388457 4 
364 956 1164 2 1176.20862877 0.00000554 4 
365 461 1168 2 1882.72091207 0.00000574 1 
366 107 1170 2 1512.66770266 0.00000738 1 
367 789 1170 2 717.98070004 0.00000258 1 
368 114 1175 0 0.14266969 0.01404341 4 
369 121 1175 0 0.27324351 0.01406450 4 
370 923 1175 0 0.18719011 0.01405701 4 
371 929 1175 0 0.16073549 0.01405828 4 
372 1158 1175 0 0.00134797 0.01146935 3 
373 798 1178 2 4231.64271932 0.00000596 1 
374 1126 1180 2 794.47950320 0.00000549 1 
375 53 1184 2 2551.42517440 0.00000512 1 
376 101 1188 0 0.32950319 0.01419076 4 
377 939 1188 0 0.55418798 0.01418345 4 
378 1138 1188 0 0.03006025 0.01164414 3 
379 1147 1188 0 0.04063922 0.01157048 3 
380 1150 1188 0 1.83245351 0.01422586 4 
381 757 1190 2 1421.47910972 0.00000568 1 
382 206 1192 2 1964.74092708 0.00000576 1 
383 283 1195 2 3623.40730454 0.00000476 1 
384 106 1200 2 1796.20912567 0.00000552 1 
385 971 1204 2 236.06123098 0.00000492 1 
386 1125 1205 2 539.59620952 0.00000508 1 
387 774 1205 2 1572.55773175 0.00000190 1 
388 1050 1210 0 0.00345523 0.01443049 4 
389 1061 1210 0 0.57363906 0.01712972 5 
390 1075 1210 0 0.23107861 0.01714138 5 
391 1084 1210 0 3.13555510 0.01712969 5 
392 1088 1210 0 0.59156319 0.01447156 4 
393 1093 1210 0 0.13111230 0.01986062 6 
394 1098 1210 0 0.04730346 0.01446625 4 
395 451 1214 2 232.64198325 0.00000581 1 
396 350 1215 2 1045.45616684 0.00000601 1 
397 157 1217 0 0.32750279 0.01457989 4 
398 163 1217 0 0.19904338 0.01470799 4 
399 1029 1217 0 0.01250493 0.01195711 3 
400 1044 1217 0 3.98258990 0.01471093 4 
401 1050 1217 0 4.97161000 0.01747475 5 
402 1210 1221 2 2443.20724114 0.00000554 1 
403 1180 1226 2 1370.23635894 0.00000580 1 
404 163 297 0 0.27920255 0.01570078 4 
405 189 400 0 2.09679271 0.01510502 4 
406 1056 1217 0 9.66143264 0.02054647 5 
