VERTEX2 0 0.00000009 0.00000053 -0.00000134
VERTEX2 1 0.00000009 0.00000053 -0.00064334
VERTEX2 2 0.00000009 0.00000053 -0.00118134
VERTEX2 3 0.01100195 -0.00097447 -0.00356334
VERTEX2 4 0.64100851 -0.01120046 -0.00744534
VERTEX2 5 0.69601619 -0.01171602 -0.09872734
VERTEX2 6 0.70026930 -0.01543535 -0.89599934
VERTEX2 7 0.69395659 0.00421314 -1.51153634
VERTEX2 8 0.69926348 0.02669390 -2.12507033
VERTEX2 9 0.71611476 0.04112290 -2.76314033
VERTEX2 10 0.72898128 0.04322027 2.90551397
VERTEX2 11 0.73320386 0.04053722 2.23123498
VERTEX2 12 0.73318658 0.04154567 1.58176098
VERTEX2 13 0.73875276 0.05907075 0.92226298
VERTEX2 14 0.76410491 0.07687558 0.31449462
VERTEX2 15 0.77455815 0.07759275 -0.21001134
VERTEX2 16 1.06793248 0.01785425 -0.22852621
VERTEX2 17 1.66841429 -0.12821577 -0.25959618
VERTEX2 18 2.29103170 -0.29018936 -0.26964497
VERTEX2 19 2.91732020 -0.48631209 -0.31810836
VERTEX2 20 3.50612902 -0.67355214 -0.31228601
VERTEX2 21 4.11046184 -0.82352177 -0.20086294
VERTEX2 22 4.71571823 -0.96268635 -0.18361099
VERTEX2 23 5.35169323 -1.00565260 -0.07638652
VERTEX2 24 5.98682095 -1.07658153 -0.13330112
VERTEX2 25 6.62530955 -1.14388091 -0.13042893
VERTEX2 26 7.23309327 -1.24365754 -0.17101632
VERTEX2 27 7.84779384 -1.33428401 -0.15523860
VERTEX2 28 8.42822172 -1.43223508 -0.15973788
VERTEX2 29 8.80601605 -1.48919185 -0.12902390
VERTEX2 30 8.81402013 -1.49131294 -0.66127225
VERTEX2 31 8.91482531 -1.62636412 -0.92971619
VERTEX2 32 9.28280313 -2.14042821 -0.94830552
VERTEX2 33 9.66434565 -2.64527488 -0.89758794
VERTEX2 34 10.07431762 -3.13298507 -0.87660654
VERTEX2 35 10.49434520 -3.61305359 -0.84242669
VERTEX2 36 10.92092384 -4.09437681 -0.85108856
VERTEX2 37 11.20089522 -4.40639094 -0.84350470
VERTEX2 38 11.19706971 -4.40120913 -1.16536580
VERTEX2 39 11.19464320 -4.39013687 -1.33648186
VERTEX2 40 11.33849791 -4.95891162 -1.31932665
VERTEX2 41 11.48784450 -5.55276918 -1.35140978
VERTEX2 42 11.60969088 -6.11002003 -1.37420279
VERTEX2 43 11.71514374 -6.69270363 -1.41477234
VERTEX2 44 11.80375877 -7.27420087 -1.45213853
VERTEX2 45 11.85919533 -7.89386560 -1.50767274
VERTEX2 46 11.89058445 -8.51549579 -1.52708371
VERTEX2 47 11.91107904 -9.13692250 -1.56879415
VERTEX2 48 11.90795276 -9.76267338 -1.57538144
VERTEX2 49 11.90119687 -10.38090182 -1.62598761
VERTEX2 50 11.84872063 -10.96640038 -1.67027176
VERTEX2 51 11.79417683 -11.56385185 -1.69938608
VERTEX2 52 11.69761990 -12.14761856 -1.77617752
VERTEX2 53 11.59779947 -12.70894455 -1.76369203
VERTEX2 54 11.48644507 -13.21690641 -1.82564527
VERTEX2 55 11.49385623 -13.18121036 -1.82024955
VERTEX2 56 11.49430375 -13.17947941 -1.80955333
VERTEX2 57 11.35246752 -13.79361733 -1.82084850
VERTEX2 58 11.20770023 -14.39817045 -1.77443163
VERTEX2 59 11.08027582 -15.00255458 -1.79785754
VERTEX2 60 10.95233462 -15.60329331 -1.77635169
VERTEX2 61 10.81871362 -16.20445179 -1.82699250
VERTEX2 62 10.67066467 -16.76137633 -1.78699039
VERTEX2 63 10.52093218 -17.32305783 -1.82236435
VERTEX2 64 10.38770495 -17.87946738 -1.75888800
VERTEX2 65 10.25498505 -18.43365777 -1.81025480
VERTEX2 66 10.10344901 -19.01758323 -1.81827842
VERTEX2 67 9.93949441 -19.61366580 -1.81681194
VERTEX2 68 9.83057673 -20.06077642 -1.83248303
VERTEX2 69 9.83392645 -20.04978385 -1.98728230
VERTEX2 70 9.84115163 -20.03588347 -2.66124078
VERTEX2 71 9.86440240 -20.03448576 2.97966721
VERTEX2 72 9.87679726 -20.03593728 2.97031648
VERTEX2 73 9.88386325 -20.03766058 2.90552006
VERTEX2 74 9.88348199 -20.03739090 2.28409079
VERTEX2 75 9.89513353 -20.04190905 1.93133833
VERTEX2 76 9.88501804 -20.03074557 2.62457365
VERTEX2 77 9.88549605 -20.03092081 2.85720139
VERTEX2 78 9.61345109 -20.04165570 -3.08890657
VERTEX2 79 9.00468823 -20.08065887 -3.09420491
VERTEX2 80 8.36590009 -20.07990563 3.11462817
VERTEX2 81 7.73464527 -20.05390830 3.08879419
VERTEX2 82 7.13546170 -20.01270953 3.03504195
VERTEX2 83 6.54625318 -19.96093151 3.01198517
VERTEX2 84 5.97946857 -19.87379052 2.93489648
VERTEX2 85 5.42932567 -19.76780491 2.94304195
VERTEX2 86 4.81700964 -19.64560979 2.85416146
VERTEX2 87 4.49012860 -19.56762725 2.79781491
VERTEX2 88 4.13387953 -19.43579908 2.76806452
VERTEX2 89 4.14825342 -19.43643029 -3.11927840
VERTEX2 90 3.54815360 -19.43994711 3.13284443
VERTEX2 91 2.93711247 -19.43593745 -3.10119525
VERTEX2 92 2.34275073 -19.43224944 3.06616449
VERTEX2 93 1.72589819 -19.33068426 2.96519756
VERTEX2 94 1.10898823 -19.19338311 2.92234082
VERTEX2 95 0.49772062 -19.10689940 3.06510903
VERTEX2 96 -0.10126037 -19.05664871 3.08933341
VERTEX2 97 -0.67992696 -18.99490237 3.01892164
VERTEX2 98 -1.26558590 -18.89463271 2.96067201
VERTEX2 99 -1.97295249 -18.77007878 3.00744864
VERTEX2 100 -2.53996886 -18.66187520 2.95570944
VERTEX2 101 -3.15275372 -18.60528260 3.05901266
VERTEX2 102 -3.76445287 -18.52562786 2.95319440
VERTEX2 103 -4.37173102 -18.41155426 3.04925539
VERTEX2 104 -4.98280627 -18.33601519 3.01566807
VERTEX2 105 -5.59401275 -18.27234805 3.06232360
VERTEX2 106 -6.19472257 -18.20280328 3.00756179
VERTEX2 107 -6.81416427 -18.10716614 3.00361794
VERTEX2 108 -7.26459539 -18.05903527 3.06516500
VERTEX2 109 -7.31641536 -18.04599572 2.61780734
VERTEX2 110 -7.33128653 -18.03066339 2.02612126
VERTEX2 111 -7.33161365 -17.95021966 1.51998072
VERTEX2 112 -7.30857722 -17.31653257 1.57427205
VERTEX2 113 -7.32757565 -16.69476175 1.62118641
VERTEX2 114 -7.36123806 -16.08156195 1.65787001
VERTEX2 115 -7.43426224 -15.44389184 1.71814595
VERTEX2 116 -7.55247179 -14.69651688 1.76232097
VERTEX2 117 -7.68748651 -14.09031711 1.85804354
VERTEX2 118 -7.69118082 -14.07387157 1.52370972
VERTEX2 119 -7.63645676 -13.55518739 1.47067793
VERTEX2 120 -7.58567962 -12.90355457 1.56097988
VERTEX2 121 -7.59786370 -12.29057954 1.62872996
VERTEX2 122 -7.63417255 -11.71214373 1.68492512
VERTEX2 123 -7.65935363 -11.53629749 1.67212991
VERTEX2 124 -7.57530756 -11.29980074 1.24927713
VERTEX2 125 -7.36279146 -10.70871879 1.23837960
VERTEX2 126 -7.23426748 -10.09439954 1.44497774
VERTEX2 127 -7.14089056 -9.46469291 1.44345436
VERTEX2 128 -7.06970941 -8.83116105 1.47996088
VERTEX2 129 -6.98778424 -8.20137094 1.44740274
VERTEX2 130 -6.92437820 -7.56993920 1.50018974
VERTEX2 131 -6.88273090 -6.94451802 1.58879757
VERTEX2 132 -6.86928840 -6.33293967 1.53925104
VERTEX2 133 -6.82648810 -5.76842264 1.50256220
VERTEX2 134 -6.77700083 -5.17501919 1.48448245
VERTEX2 135 -6.69957597 -4.60185286 1.45840421
VERTEX2 136 -6.63037988 -3.97195186 1.47819030
VERTEX2 137 -6.53897613 -3.34416554 1.43654936
VERTEX2 138 -6.46865894 -2.71280836 1.51593592
VERTEX2 139 -6.45661351 -2.09031605 1.58112087
VERTEX2 140 -6.48953853 -1.43642723 1.61158752
VERTEX2 141 -6.50002121 -0.79764430 1.56309317
VERTEX2 142 -6.50485272 -0.14910834 1.55920861
VERTEX2 143 -6.42828072 0.48925991 1.44858736
VERTEX2 144 -6.39119442 0.86020319 1.46606696
VERTEX2 145 -6.38588565 0.87666085 0.96753402
VERTEX2 146 -6.38446573 0.88415871 0.37415466
VERTEX2 147 -6.32486420 0.88044148 -0.11250315
VERTEX2 148 -5.89881896 0.82446127 -0.14825343
VERTEX2 149 -5.26361786 0.73631825 -0.12324193
VERTEX2 150 -4.63520934 0.67712133 -0.10916991
VERTEX2 151 -4.00138654 0.63487775 -0.02359947
VERTEX2 152 -3.38024782 0.60481757 -0.08459032
VERTEX2 153 -2.75941126 0.57729591 0.00870290
VERTEX2 154 -2.13748130 0.56150336 -0.06086845
VERTEX2 155 -1.51184431 0.53324019 -0.02749327
VERTEX2 156 -0.88364422 0.52410577 0.00315758
VERTEX2 157 -0.32882726 0.51145211 -0.06084803
VERTEX2 158 -0.13427395 0.49912369 -0.03334750
VERTEX2 159 -0.12776252 0.49709310 0.95400221
VERTEX2 160 -0.12266222 0.50556191 1.98968600
VERTEX2 161 -0.14385417 0.44906235 2.71040290
VERTEX2 162 -0.12060317 0.45437433 -2.53697248
VERTEX2 163 -0.12147880 0.44991721 -1.53988355
VERTEX2 164 -0.20082351 0.54818377 -0.47713367
VERTEX2 165 -0.03063660 0.53160136 -0.06937860
VERTEX2 166 0.66331391 0.48985675 -0.06768356
VERTEX2 167 1.27747944 0.44104660 -0.09702041
VERTEX2 168 1.86308042 0.39321045 -0.08500955
VERTEX2 169 2.45567917 0.32319259 -0.12194708
VERTEX2 170 3.03955028 0.25636711 -0.14261475
VERTEX2 171 3.59840045 0.15954209 -0.18096023
VERTEX2 172 4.22099065 0.05368198 -0.16696219
VERTEX2 173 4.84780129 -0.06533919 -0.18992227
VERTEX2 174 5.47085087 -0.17805756 -0.14995037
VERTEX2 175 6.08529054 -0.26670741 -0.17474970
VERTEX2 176 6.68245265 -0.38533083 -0.16526368
VERTEX2 177 7.30380432 -0.48660850 -0.19306890
VERTEX2 178 7.92269440 -0.63081913 -0.23226470
VERTEX2 179 8.32586642 -0.71418599 -0.17899549
VERTEX2 180 8.37560285 -0.72753636 -0.62115570
VERTEX2 181 8.81568347 -1.04509848 -0.67301743
VERTEX2 182 9.22155418 -1.40438433 -0.84715004
VERTEX2 183 9.56790378 -1.82418546 -0.90460128
VERTEX2 184 9.90799385 -2.33549857 -1.05038395
VERTEX2 185 10.19219208 -2.86779880 -1.14240051
VERTEX2 186 10.41137634 -3.42938014 -1.20834537
VERTEX2 187 10.60752807 -3.97287190 -1.23052810
VERTEX2 188 10.81057757 -4.53589889 -1.23557662
VERTEX2 189 11.00634927 -5.10270927 -1.26198000
VERTEX2 190 11.18886514 -5.70090895 -1.29102379
VERTEX2 191 11.36093694 -6.29830018 -1.31536255
VERTEX2 192 11.51536576 -6.89432351 -1.34396139
VERTEX2 193 11.63877196 -7.44162406 -1.39994484
VERTEX2 194 11.73837056 -8.00957598 -1.42697446
VERTEX2 195 11.81946996 -8.58365990 -1.45486801
VERTEX2 196 11.88651013 -9.20853070 -1.49551697
VERTEX2 197 11.92489879 -9.82907070 -1.52290257
VERTEX2 198 11.95061646 -10.44688760 -1.58100447
VERTEX2 199 11.92320791 -11.05357841 -1.64237140
VERTEX2 200 11.87687244 -11.65487693 -1.66422344
VERTEX2 201 11.80696358 -12.25245117 -1.72088065
VERTEX2 202 11.74408973 -12.75502689 -1.70034073
VERTEX2 203 11.64417161 -13.48634976 -1.75272446
VERTEX2 204 11.52262974 -14.06531817 -1.85421730
VERTEX2 205 11.35362002 -14.62984351 -1.86323839
VERTEX2 206 11.19995163 -15.17953300 -1.86091835
VERTEX2 207 11.04313762 -15.74105814 -1.84501614
VERTEX2 208 10.87280652 -16.33520430 -1.85450434
VERTEX2 209 10.71358550 -16.93071339 -1.81637236
VERTEX2 210 10.55031144 -17.52755284 -1.82470537
VERTEX2 211 10.40290302 -18.12296115 -1.82223275
VERTEX2 212 10.22803276 -18.70820416 -1.87483680
VERTEX2 213 10.03582167 -19.29466882 -1.89584365
VERTEX2 214 9.83866476 -19.86751405 -1.89987655
VERTEX2 215 9.72567438 -20.18624965 -1.93591524
VERTEX2 216 9.73565225 -20.16907140 -2.43453807
VERTEX2 217 9.76210318 -20.16617930 -2.97662849
VERTEX2 218 9.77403073 -20.17072400 -3.03262195
VERTEX2 219 9.20926939 -20.12824435 3.08207893
VERTEX2 220 8.60452211 -20.08632760 3.04228364
VERTEX2 221 7.97386808 -20.02309360 3.09297006
VERTEX2 222 7.35628509 -19.98340751 3.06755539
VERTEX2 223 6.73787134 -19.95694334 -3.11920810
VERTEX2 224 6.13057077 -19.96026817 3.13821168
VERTEX2 225 5.51980512 -19.95735526 -3.09531523
VERTEX2 226 4.90998304 -19.95368859 3.13866969
VERTEX2 227 4.26599509 -20.02535157 -2.98782989
VERTEX2 228 3.74540959 -20.01213030 2.93377345
VERTEX2 229 3.31318638 -19.97954783 3.05397965
VERTEX2 230 3.02531195 -19.96479147 3.02517909
VERTEX2 231 3.23230158 -19.98233146 3.09527182
VERTEX2 232 2.92454532 -19.84500033 2.66938093
VERTEX2 233 2.36206463 -19.58633484 2.77168864
VERTEX2 234 1.79196411 -19.36307293 2.72706355
VERTEX2 235 1.54284115 -19.25593883 2.72205816
VERTEX2 236 1.21269860 -19.25755435 3.12743650
VERTEX2 237 0.58881181 -19.27297704 -3.08535445
VERTEX2 238 -0.02694699 -19.32170125 -3.11806647
VERTEX2 239 -0.63961876 -19.31935101 3.09754850
VERTEX2 240 -1.20744565 -19.20232896 2.87959024
VERTEX2 241 -1.74326477 -19.07255410 2.96514647
VERTEX2 242 -2.31431407 -19.00854886 3.00467063
VERTEX2 243 -2.91233298 -18.92643896 3.00400608
VERTEX2 244 -3.53391576 -18.88170875 3.07535342
VERTEX2 245 -4.14635490 -18.83387362 3.02118282
VERTEX2 246 -4.74646257 -18.74884769 2.94886257
VERTEX2 247 -5.34582933 -18.66820753 3.05521564
VERTEX2 248 -5.89928786 -18.64764877 3.08660601
VERTEX2 249 -5.84976012 -18.65500147 -3.00366732
VERTEX2 250 -5.84491791 -18.65485851 2.69256767
VERTEX2 251 -6.16847486 -18.31472372 2.26922746
VERTEX2 252 -6.52573171 -17.89471719 2.27777432
VERTEX2 253 -6.89921150 -17.44905084 2.26682530
VERTEX2 254 -7.26243623 -16.99616701 2.22583332
VERTEX2 255 -7.33535083 -16.90405695 2.30971206
VERTEX2 256 -7.33849867 -16.82745707 1.83381881
VERTEX2 257 -7.39091813 -16.36912762 1.69821089
VERTEX2 258 -7.47591832 -15.77990498 1.77876697
VERTEX2 259 -7.61970558 -15.17981609 1.81956832
VERTEX2 260 -7.75376846 -14.62403904 1.81139685
VERTEX2 261 -7.75176171 -14.58935856 1.50032122
VERTEX2 262 -7.69061951 -13.94013356 1.50723786
VERTEX2 263 -7.65045589 -13.32456791 1.52097190
VERTEX2 264 -7.63755701 -12.72267462 1.61836815
VERTEX2 265 -7.67117561 -12.12221788 1.63884186
VERTEX2 266 -7.62568120 -11.54628195 1.51007681
VERTEX2 267 -7.57754147 -10.79885375 1.48066746
VERTEX2 268 -7.44838360 -10.19744101 1.37056287
VERTEX2 269 -7.33163225 -9.58545585 1.40048003
VERTEX2 270 -7.26252273 -8.96348108 1.51454477
VERTEX2 271 -7.17042567 -8.34297171 1.40410574
VERTEX2 272 -7.08795406 -7.71785654 1.46933963
VERTEX2 273 -7.10093265 -7.08993227 1.68155233
VERTEX2 274 -7.17175272 -6.47522878 1.70559198
VERTEX2 275 -7.16284147 -5.87048742 1.53418023
VERTEX2 276 -7.15909113 -5.26662266 1.64871884
VERTEX2 277 -7.20856260 -4.70478994 1.62316680
VERTEX2 278 -7.16873784 -4.06866042 1.53444673
VERTEX2 279 -7.13241922 -3.43251568 1.47924256
VERTEX2 280 -7.06790820 -2.80214211 1.48140952
VERTEX2 281 -6.98117083 -2.17023627 1.38108168
VERTEX2 282 -6.86539971 -1.54517306 1.42103475
VERTEX2 283 -6.78239307 -0.91320191 1.41327844
VERTEX2 284 -6.67407647 -0.28873552 1.44041578
VERTEX2 285 -6.61003294 0.36093529 1.46143215
VERTEX2 286 -6.54632614 0.98281804 1.51496009
VERTEX2 287 -6.54370610 1.03416685 1.41048509
VERTEX2 288 -6.54069283 1.03958305 0.80176067
VERTEX2 289 -6.54028870 1.03967205 0.20822352
VERTEX2 290 -6.10314936 1.03238324 -0.01687872
VERTEX2 291 -5.48363944 1.02645519 -0.00312144
VERTEX2 292 -4.86932034 1.00840334 -0.05821716
VERTEX2 293 -4.24566509 0.96480164 -0.08122440
VERTEX2 294 -3.62566370 0.91420231 -0.08051180
VERTEX2 295 -3.00531745 0.83557057 -0.19299341
VERTEX2 296 -2.39068537 0.69284832 -0.23841276
VERTEX2 297 -1.77830949 0.54323030 -0.25015242
VERTEX2 298 -1.16915021 0.39047069 -0.25085199
VERTEX2 299 -0.59658483 0.23530409 -0.18973240
VERTEX2 300 -0.01155073 0.15063322 -0.14762662
VERTEX2 301 0.54888344 0.05205821 -0.20689366
VERTEX2 302 0.84864153 -0.01211025 -0.22789646
VERTEX2 303 0.82882008 -0.00802023 -0.22385526
VERTEX2 304 1.32726500 -0.12264198 -0.21441873
VERTEX2 305 1.94102479 -0.16650829 -0.03074431
VERTEX2 306 2.56819702 -0.17687377 -0.04897363
VERTEX2 307 3.20512616 -0.22444326 -0.08584976
VERTEX2 308 3.83050059 -0.28712294 -0.14162469
VERTEX2 309 4.46317797 -0.34731464 -0.04891021
VERTEX2 310 5.08855656 -0.37727274 -0.08499039
VERTEX2 311 5.36725312 -0.40308739 0.08980599
VERTEX2 312 5.36264642 -0.40552884 1.07692331
VERTEX2 313 5.36721679 -0.18600339 1.57229857
VERTEX2 314 5.34750524 0.44340486 1.61193813
VERTEX2 315 5.31885359 1.07223167 1.60747134
VERTEX2 316 5.27879600 1.71803145 1.65849713
VERTEX2 317 5.21758678 2.36067206 1.66813646
VERTEX2 318 5.11891971 2.99904120 1.76230184
VERTEX2 319 5.03918034 3.34777479 1.83328593
VERTEX2 320 5.04079331 3.35274951 2.80057623
VERTEX2 321 5.03337915 3.34957303 -2.44281036
VERTEX2 322 5.03110745 3.34496346 -1.44608598
VERTEX2 323 5.04192817 3.33452880 -0.45315352
VERTEX2 324 5.04545550 3.33338379 0.20704379
VERTEX2 325 5.04479133 3.33333563 -0.32036674
VERTEX2 326 5.06018270 3.32181271 -0.91528996
VERTEX2 327 5.06400889 3.30398100 -1.53836254
VERTEX2 328 5.04990114 2.66364099 -1.58476950
VERTEX2 329 5.02998584 2.02986583 -1.64039409
VERTEX2 330 4.97779208 1.40714866 -1.66012354
VERTEX2 331 4.92617096 0.79499700 -1.67585506
VERTEX2 332 4.85025079 0.18570896 -1.69582015
VERTEX2 333 4.82990023 0.03569889 -1.63232580
VERTEX2 334 4.83058209 0.03554984 -0.84299788
VERTEX2 335 4.84571077 0.03110266 0.14809629
VERTEX2 336 4.86064023 0.03635982 1.08934095
VERTEX2 337 4.86662434 0.07393166 2.06839739
VERTEX2 338 4.86600121 0.07434505 3.05856972
VERTEX2 339 4.87983799 0.08298818 -2.17393869
VERTEX2 340 4.88037271 0.07960781 -1.15497886
VERTEX2 341 4.99209105 0.01247899 -0.52176956
VERTEX2 342 5.56056691 -0.28893583 -0.42017500
VERTEX2 343 6.13970990 -0.48978486 -0.28880594
VERTEX2 344 6.72961313 -0.67259450 -0.29841043
VERTEX2 345 6.96868177 -0.74278981 -0.32545460
VERTEX2 346 6.95559063 -0.73850563 -0.97160818
VERTEX2 347 6.95796894 -0.82498821 -1.52928755
VERTEX2 348 6.97557303 -1.41369042 -1.54558939
VERTEX2 349 6.97297467 -2.03125935 -1.58542341
VERTEX2 350 6.95923479 -2.81740321 -1.60467155
VERTEX2 351 6.94501459 -3.08530740 -1.63321748
VERTEX2 352 6.94446426 -3.08791017 -1.92034377
VERTEX2 353 6.93670020 -3.09739817 -2.58380804
VERTEX2 354 6.92688440 -3.10019081 3.09780199
VERTEX2 355 6.90232137 -3.09932381 2.38015354
VERTEX2 356 6.89647273 -3.08895694 1.80767596
VERTEX2 357 6.89863105 -3.07618169 1.15765726
VERTEX2 358 6.89712310 -3.07836924 0.54512625
VERTEX2 359 6.88085167 -3.08535231 -0.06597368
VERTEX2 360 6.86646567 -3.08251860 -0.24101940
VERTEX2 361 6.85726862 -3.08493133 0.68171680
VERTEX2 362 6.94110363 -2.85646513 1.21754629
VERTEX2 363 7.04252467 -2.59070327 1.21194435
VERTEX2 364 6.97336994 -2.25712388 1.82872875
VERTEX2 365 6.91802412 -1.97056201 1.33344736
VERTEX2 366 7.02502440 -1.84917017 0.78130254
VERTEX2 367 7.46883696 -1.41508834 0.78416020
VERTEX2 368 7.92339630 -0.97898358 0.73578564
VERTEX2 369 7.94297202 -0.95532937 0.48328479
VERTEX2 370 7.96825558 -0.95128397 -0.10264311
VERTEX2 371 7.97578546 -0.95517068 -0.64735664
VERTEX2 372 8.40630975 -1.30430841 -0.67477526
VERTEX2 373 8.87674236 -1.66641585 -0.67287305
VERTEX2 374 9.35368091 -2.06672209 -0.73410670
VERTEX2 375 9.71329555 -2.38586206 -0.76508416
VERTEX2 376 9.72405327 -2.39242107 -0.07269763
VERTEX2 377 9.77368477 -2.35703178 0.62055925
VERTEX2 378 10.30787795 -1.95919171 0.67349653
VERTEX2 379 10.78631146 -1.52900931 0.75699663
VERTEX2 380 11.22503448 -1.06264511 0.87496356
VERTEX2 381 11.37049614 -0.88305206 1.02342443
VERTEX2 382 11.37138891 -0.88140784 2.06856141
VERTEX2 383 11.36835274 -0.87955215 3.05561719
VERTEX2 384 11.36448018 -0.88323740 -2.26364748
VERTEX2 385 11.35852476 -0.89328408 -1.23335103
VERTEX2 386 11.46279985 -1.02844183 -1.00833830
VERTEX2 387 11.91855435 -1.44950735 -0.67647663
VERTEX2 388 12.37625675 -1.80218642 -0.66905681
VERTEX2 389 12.80985506 -2.17431052 -0.75312236
VERTEX2 390 12.81837554 -2.18174062 -0.28163310
VERTEX2 391 12.61749909 -2.17385240 0.09492919
VERTEX2 392 12.54789856 -2.17510767 1.12747061
VERTEX2 393 12.54804647 -2.11831228 2.36859870
VERTEX2 394 12.47196014 -2.08816920 -2.93063068
VERTEX2 395 12.64969472 -1.99078319 -2.59700891
VERTEX2 396 12.61586065 -2.00956401 -2.59900766
VERTEX2 397 12.56331127 -2.02242194 -2.61198890
VERTEX2 398 12.53768609 -2.04454406 -2.41753441
VERTEX2 399 12.45889202 -2.16050657 -2.12218598
VERTEX2 400 12.10938798 -2.72980198 -2.07403128
VERTEX2 401 11.76953211 -3.28754820 -2.16767092
VERTEX2 402 11.29255700 -3.76219664 -2.43620707
VERTEX2 403 10.77672646 -4.19081266 -2.47110100
VERTEX2 404 10.26837963 -4.56840666 -2.55093242
VERTEX2 405 10.24095056 -4.59398889 -2.01866015
VERTEX2 406 10.23633002 -4.55997748 -1.04304715
VERTEX2 407 10.41935750 -4.80566123 -0.91590055
VERTEX2 408 10.75441702 -5.25499550 -0.95458488
VERTEX2 409 10.88960399 -5.45855155 -1.05493552
VERTEX2 410 10.88105223 -5.42755672 -1.68446060
VERTEX2 411 11.13168840 -4.76269699 -2.57322589
VERTEX2 412 10.57534977 -4.98565181 -2.77788811
VERTEX2 413 9.93311984 -5.20396235 -2.85870920
VERTEX2 414 9.28437301 -5.41086301 -2.75615005
VERTEX2 415 8.67378239 -5.65035131 -2.74817438
VERTEX2 416 8.38199351 -5.78051746 -2.80231438
VERTEX2 417 8.09174634 -5.76537956 3.05790139
VERTEX2 418 7.65002691 -5.72328049 3.01319673
VERTEX2 419 7.64905879 -5.72351132 -2.83811787
VERTEX2 420 7.69838521 -5.70143785 -2.62131821
VERTEX2 421 7.69893250 -5.70058903 -1.65242876
VERTEX2 422 7.69326744 -5.70854821 -0.41160908
VERTEX2 423 7.69111952 -5.70834900 -0.06543056
VERTEX2 424 7.68352484 -5.70818388 -0.06457579
VERTEX2 425 7.67109447 -5.71520649 -0.05235158
VERTEX2 426 7.66730621 -5.71536881 -0.06071213
VERTEX2 427 7.69605496 -5.71685648 -0.05683754
VERTEX2 428 8.35437166 -5.73779933 -0.06160625
VERTEX2 429 8.99520710 -5.78646083 -0.10163873
VERTEX2 430 9.33337715 -5.82639943 -0.14698518
VERTEX2 431 9.30752544 -5.82333617 -0.09431297
VERTEX2 432 9.31715135 -5.82671467 -0.72452491
VERTEX2 433 9.32250915 -5.83403864 -1.40023646
VERTEX2 434 9.28703745 -6.37008434 -1.62768002
VERTEX2 435 9.25621611 -7.00993469 -1.65544836
VERTEX2 436 9.17992374 -7.64720093 -1.66370158
VERTEX2 437 9.12929875 -8.29420585 -1.65521617
VERTEX2 438 9.07868561 -8.76168800 -1.68525888
VERTEX2 439 9.07723452 -8.76717475 -2.12019446
VERTEX2 440 9.08411605 -8.76174607 -2.76193590
VERTEX2 441 9.10411839 -8.75971058 2.90053334
VERTEX2 442 9.11191764 -8.76394734 2.27247304
VERTEX2 443 9.11173700 -8.76102914 1.70679998
VERTEX2 444 9.11568319 -8.74010931 1.11651991
VERTEX2 445 9.12495207 -8.73119706 0.45971393
VERTEX2 446 9.12777003 -8.72948027 0.66184294
VERTEX2 447 9.14162880 -8.70261915 1.29464875
VERTEX2 448 9.29346327 -8.07792120 1.31222814
VERTEX2 449 9.42819235 -7.43887745 1.41365943
VERTEX2 450 9.52395824 -6.79952802 1.42741935
VERTEX2 451 9.57799352 -6.32661589 1.47002648
VERTEX2 452 9.57671249 -6.34089738 1.09275361
VERTEX2 453 9.56473222 -6.36255891 0.47171618
VERTEX2 454 9.81358605 -6.34376626 0.05051816
VERTEX2 455 10.41164623 -6.31885404 0.03023923
VERTEX2 456 11.04319523 -6.31370510 -0.03404436
VERTEX2 457 11.39643198 -6.33571365 -0.12144629
VERTEX2 458 11.39069655 -6.33288226 -0.76660262
VERTEX2 459 11.38228636 -6.29915487 -1.37457407
VERTEX2 460 11.36231617 -6.70057793 -1.63141144
VERTEX2 461 11.29456889 -7.32048673 -1.71920215
VERTEX2 462 11.20838990 -7.83029361 -1.75917891
VERTEX2 463 11.21907392 -7.80921990 -0.91881662
VERTEX2 464 11.46776975 -7.87908339 -0.24138671
VERTEX2 465 12.04796528 -8.00955787 -0.23409512
VERTEX2 466 12.60102995 -8.15918116 -0.29032924
VERTEX2 467 13.17088657 -8.33947534 -0.33441071
VERTEX2 468 13.78472037 -8.55712926 -0.37021302
VERTEX2 469 14.37347236 -8.82121681 -0.45365123
VERTEX2 470 14.82445710 -9.03557272 -0.43520927
VERTEX2 471 14.82681956 -9.03685900 -0.63507766
VERTEX2 472 14.84087284 -9.05654937 -1.26768236
VERTEX2 473 14.84226539 -9.06348771 -1.90788605
VERTEX2 474 14.83847838 -9.06822574 -2.53884043
VERTEX2 475 14.84150773 -9.06782289 -3.11197141
VERTEX2 476 14.84524728 -9.06834432 2.52072012
VERTEX2 477 14.85093168 -9.07953430 1.96182899
VERTEX2 478 14.85186350 -9.09206043 1.33546379
VERTEX2 479 14.85006155 -9.09617917 0.88171006
VERTEX2 480 14.84955912 -9.09729192 1.44436319
VERTEX2 481 14.84657781 -9.08431925 2.44742751
VERTEX2 482 14.85270863 -9.08678115 2.78398218
VERTEX2 483 14.86301613 -9.09051767 2.77890738
VERTEX2 484 14.44064403 -8.93367774 2.81475511
VERTEX2 485 13.83606171 -8.74339866 2.81242494
VERTEX2 486 13.22902866 -8.52897389 2.82192180
VERTEX2 487 12.62234178 -8.35066097 2.85064016
VERTEX2 488 12.01329506 -8.17074647 2.88719640
VERTEX2 489 11.54612124 -8.06440609 2.91804615
VERTEX2 490 11.55866806 -8.06317751 -2.88017197
VERTEX2 491 11.57012867 -8.04802993 -1.94428881
VERTEX2 492 11.55392863 -8.27478827 -1.64137653
VERTEX2 493 11.49336115 -8.87554810 -1.69653448
VERTEX2 494 11.40716122 -9.48650622 -1.75742815
VERTEX2 495 11.33919601 -10.10773946 -1.65013881
VERTEX2 496 11.29657141 -10.73053813 -1.53232634
VERTEX2 497 11.29073529 -11.34725930 -1.61832638
VERTEX2 498 11.22343474 -11.96685114 -1.72011624
VERTEX2 499 11.09448364 -12.59085248 -1.73714296
VERTEX2 500 11.15337338 -13.15729441 -1.40826984
VERTEX2 501 11.22849376 -13.73066321 -1.48087468
VERTEX2 502 11.25345668 -14.41907135 -1.56593477
VERTEX2 503 11.24942972 -14.85859357 -1.58341847
VERTEX2 504 11.25243068 -14.85013820 -0.72599835
VERTEX2 505 11.48932819 -14.87714322 -0.10383943
VERTEX2 506 12.08036947 -14.95859939 -0.25625675
VERTEX2 507 12.66133483 -15.12819860 -0.33467006
VERTEX2 508 13.23602070 -15.34163933 -0.34749881
VERTEX2 509 13.85419085 -15.57363339 -0.40332734
VERTEX2 510 14.20913836 -15.73146296 -0.41715502
VERTEX2 511 14.20735311 -15.71434845 0.45857835
VERTEX2 512 14.22823749 -15.67007045 1.65668723
VERTEX2 513 14.22461431 -15.65949129 2.61260864
VERTEX2 514 14.15524156 -15.64024798 2.83901341
VERTEX2 515 13.54562529 -15.46151607 2.84002439
VERTEX2 516 12.96139655 -15.26955252 2.85583382
VERTEX2 517 12.36959360 -15.12343195 2.88394400
VERTEX2 518 11.77811500 -14.97412054 2.90822012
VERTEX2 519 11.25725837 -14.85186064 2.89245715
VERTEX2 520 11.09071972 -14.80894817 -2.99242739
VERTEX2 521 11.11532811 -14.78169975 -1.98922660
VERTEX2 522 11.05112549 -15.17539254 -1.72506566
VERTEX2 523 10.96312017 -15.78745340 -1.73265427
VERTEX2 524 10.86272835 -16.35276136 -1.77484962
VERTEX2 525 10.75937816 -16.89821103 -1.75070907
VERTEX2 526 10.64412501 -17.47034083 -1.80902303
VERTEX2 527 10.49779052 -18.05229545 -1.84362517
VERTEX2 528 10.31645525 -18.62182714 -1.91962097
VERTEX2 529 10.10620918 -19.22213459 -1.94792300
VERTEX2 530 9.86046382 -19.82130382 -1.97787716
VERTEX2 531 9.59230913 -20.39620773 -2.05755717
VERTEX2 532 9.49503091 -20.58174813 -2.00681313
VERTEX2 533 9.49337507 -20.57381521 -1.00521354
VERTEX2 534 9.49228276 -20.57309210 -0.33709203
VERTEX2 535 9.48864075 -20.57100669 -0.33747359
VERTEX2 536 9.84649990 -20.65300278 -0.20685431
VERTEX2 537 10.45459924 -20.79812976 -0.26493093
VERTEX2 538 11.01923159 -20.96554321 -0.29192077
VERTEX2 539 11.63227404 -21.17269618 -0.35653286
VERTEX2 540 12.22474496 -21.42455251 -0.44923970
VERTEX2 541 12.81011656 -21.64763056 -0.28709326
VERTEX2 542 13.43909793 -21.78498183 -0.23152926
VERTEX2 543 13.56193481 -21.81501663 -0.26131754
VERTEX2 544 13.58554681 -21.81247573 0.37534486
VERTEX2 545 13.61104974 -21.76559367 1.44089584
VERTEX2 546 13.62817241 -21.80950630 2.26780444
VERTEX2 547 13.63526761 -21.80900448 -2.99385871
VERTEX2 548 13.64838596 -21.80050970 -2.07109875
VERTEX2 549 13.65011352 -21.78836403 -1.26461169
VERTEX2 550 13.64874880 -21.76639995 -1.74448500
VERTEX2 551 13.65472893 -21.75417796 -2.37066327
VERTEX2 552 13.66908247 -21.74695541 -3.00293408
VERTEX2 553 13.53131119 -21.69501353 2.70311769
VERTEX2 554 12.93785283 -21.41391711 2.66770317
VERTEX2 555 12.35719496 -21.14186614 2.75660654
VERTEX2 556 11.75303925 -20.92685333 2.89145923
VERTEX2 557 11.15270475 -20.75889450 2.85013099
VERTEX2 558 10.57656480 -20.60458331 2.93103774
VERTEX2 559 10.58452067 -20.60723147 2.52386950
VERTEX2 560 10.57738124 -20.59938542 2.02269644
VERTEX2 561 10.55390052 -20.57676721 2.52768107
VERTEX2 562 10.37639969 -20.57742041 -3.11222790
VERTEX2 563 9.80650737 -20.50099150 2.97899569
VERTEX2 564 9.20194351 -20.41158487 3.02765862
VERTEX2 565 8.61158435 -20.34207550 2.97009790
VERTEX2 566 8.67187575 -20.36061417 -2.52938569
VERTEX2 567 8.58115086 -20.36759338 -1.73671072
VERTEX2 568 8.53207191 -20.87280742 -1.67243782
VERTEX2 569 8.48220768 -21.44996914 -1.71164910
VERTEX2 570 8.41489134 -22.03194053 -1.70695992
VERTEX2 571 8.36359244 -22.38466221 -1.75465838
VERTEX2 572 8.32923437 -22.40989518 -1.99818181
VERTEX2 573 8.29504216 -22.48781380 -1.72220937
VERTEX2 574 8.31795669 -22.51993634 -0.78307983
VERTEX2 575 8.47506524 -22.57089581 0.13982629
VERTEX2 576 8.47665009 -22.57214820 1.16737039
VERTEX2 577 8.47047289 -22.55597179 2.13935538
VERTEX2 578 8.46124777 -22.52513964 1.77513895
VERTEX2 579 8.33475452 -21.87477266 1.79015511
VERTEX2 580 8.17146570 -21.23688899 1.86530529
VERTEX2 581 7.97568302 -20.61521387 1.90770407
VERTEX2 582 7.75360134 -20.00531716 1.95087170
VERTEX2 583 7.62437899 -19.70147492 2.03028493
VERTEX2 584 7.62098943 -19.69494600 2.87426413
VERTEX2 585 7.04298736 -19.55831142 2.99272353
VERTEX2 586 6.45466988 -19.48669444 3.09044978
VERTEX2 587 5.84137765 -19.47822641 3.11601532
VERTEX2 588 5.21357966 -19.45474376 3.12071735
VERTEX2 589 4.67983452 -19.48184997 -3.08720965
VERTEX2 590 4.13479552 -19.52821084 -3.01860903
VERTEX2 591 3.59914684 -19.60914885 -3.02064307
VERTEX2 592 3.05478155 -19.68550749 -3.02354901
VERTEX2 593 2.88114642 -19.70803033 -2.81859621
VERTEX2 594 2.92300055 -19.66245730 -1.89437531
VERTEX2 595 2.81534823 -20.26774498 -1.66261771
VERTEX2 596 2.76736921 -20.89059735 -1.68646764
VERTEX2 597 2.68023067 -21.56364838 -1.72721338
VERTEX2 598 2.58011623 -22.16423482 -1.76921617
VERTEX2 599 2.49338338 -22.54325190 -1.83524686
VERTEX2 600 2.49370061 -22.56251258 -1.02821864
VERTEX2 601 2.54041125 -22.59095854 -0.00947999
VERTEX2 602 2.58010376 -22.57471176 1.00515168
VERTEX2 603 2.54458450 -22.34241417 1.77720489
VERTEX2 604 2.48096916 -21.72786621 1.53178121
VERTEX2 605 2.48763388 -21.09041979 1.61422448
VERTEX2 606 2.44582507 -20.45413855 1.65620355
VERTEX2 607 2.45495710 -19.87444259 1.57510917
VERTEX2 608 2.44100020 -19.49928362 1.61954427
VERTEX2 609 2.43820248 -19.48318665 1.95610635
VERTEX2 610 2.43599864 -19.48239558 2.88928467
VERTEX2 611 1.84357521 -19.33415265 2.89191456
VERTEX2 612 1.37113519 -19.20071328 2.89446227
VERTEX2 613 1.40647658 -19.21138523 -2.92551989
VERTEX2 614 1.42809366 -19.19499141 -1.88867327
VERTEX2 615 1.44027745 -19.66801905 -1.58382347
VERTEX2 616 1.44666589 -20.28182412 -1.63437337
VERTEX2 617 1.30965417 -20.88543041 -1.85089648
VERTEX2 618 1.14182707 -21.49094689 -1.84039004
VERTEX2 619 0.97943937 -22.06912949 -1.84139477
VERTEX2 620 0.79442906 -22.65168799 -1.93705169
VERTEX2 621 0.92013666 -22.32535806 -1.98810123
VERTEX2 622 1.04003704 -22.06782417 -2.06261365
VERTEX2 623 1.03544502 -22.07406157 -2.59867651
VERTEX2 624 1.00643634 -22.07384338 3.04240299
VERTEX2 625 0.96246946 -22.05621654 2.38437829
VERTEX2 626 0.93053076 -22.01973645 1.76683045
VERTEX2 627 1.00384995 -21.64020282 1.35633774
VERTEX2 628 1.18348425 -21.00598070 1.25547784
VERTEX2 629 1.35602665 -20.37108932 1.32645662
VERTEX2 630 1.48212966 -19.75593537 1.41135347
VERTEX2 631 1.55453943 -19.21870975 1.43131599
VERTEX2 632 1.55847178 -19.19523851 2.10681982
VERTEX2 633 1.46043968 -19.18876198 -3.09068099
VERTEX2 634 0.79406957 -19.22633514 -3.06338473
VERTEX2 635 0.14812714 -19.23789229 3.08516031
VERTEX2 636 -0.48532378 -19.21108276 3.06779833
VERTEX2 637 -1.11043047 -19.13861291 2.96879682
VERTEX2 638 -1.50363797 -19.05946907 2.93971469
VERTEX2 639 -2.10867295 -18.95883759 3.01993147
VERTEX2 640 -2.72026375 -18.85172416 2.95216998
VERTEX2 641 -3.31734683 -18.74299543 2.94398546
VERTEX2 642 -3.88339253 -18.60982673 2.89835114
VERTEX2 643 -4.36421834 -18.47533713 2.83112320
VERTEX2 644 -4.36586153 -18.47572435 -2.69525504
VERTEX2 645 -4.40122580 -18.61642998 -1.91889679
VERTEX2 646 -4.53774541 -19.22896461 -1.62381741
VERTEX2 647 -4.49299245 -19.87407898 -1.33525566
VERTEX2 648 -4.26837148 -20.50108722 -1.16920479
VERTEX2 649 -4.09436349 -21.09824188 -1.50675486
VERTEX2 650 -4.19406790 -21.72558802 -1.76407312
VERTEX2 651 -4.21121644 -21.86988459 -0.96457005
VERTEX2 652 -4.14899030 -21.89776991 0.06052768
VERTEX2 653 -4.10246350 -21.85586407 1.09107799
VERTEX2 654 -4.11194630 -21.55844418 1.60431388
VERTEX2 655 -4.12320129 -21.00430747 1.59933589
VERTEX2 656 -4.12329213 -20.40145986 1.58673272
VERTEX2 657 -4.23125895 -19.78936045 1.86341478
VERTEX2 658 -4.42157992 -19.17572519 1.85614564
VERTEX2 659 -4.53640498 -18.68533094 1.78488054
VERTEX2 660 -4.53896871 -18.67261857 2.38475493
VERTEX2 661 -4.71255314 -18.65370795 3.03793264
VERTEX2 662 -5.30830825 -18.59429696 3.10760562
VERTEX2 663 -5.89335661 -18.60776690 -3.07363177
VERTEX2 664 -5.90652182 -18.60436585 -2.55064560
VERTEX2 665 -5.92131083 -18.69977968 -1.71534468
VERTEX2 666 -5.99079230 -19.30164751 -1.67797401
VERTEX2 667 -6.04566665 -19.86114262 -1.67310605
VERTEX2 668 -6.10671121 -20.44817810 -1.64703344
VERTEX2 669 -6.15262365 -21.06656717 -1.67183527
VERTEX2 670 -6.24891024 -21.67834636 -1.73092224
VERTEX2 671 -6.29421251 -21.96492518 -1.67553895
VERTEX2 672 -6.19541339 -21.38168292 -1.76446519
VERTEX2 673 -6.13039958 -21.11320802 -1.89482840
VERTEX2 674 -6.12154167 -21.10376499 -2.54336078
VERTEX2 675 -6.09989603 -21.09907212 3.13084472
VERTEX2 676 -6.09056743 -21.10445713 2.50714264
VERTEX2 677 -6.08229739 -21.11571058 1.89093843
VERTEX2 678 -6.05607234 -20.90104715 1.44470976
VERTEX2 679 -5.99497842 -20.32925756 1.50714329
VERTEX2 680 -6.02368590 -19.88867344 1.85178188
VERTEX2 681 -6.17685663 -19.30194350 1.82408451
VERTEX2 682 -6.34999180 -18.70067500 1.87156134
VERTEX2 683 -6.44184068 -18.42265481 2.03047358
VERTEX2 684 -6.38868881 -18.47652371 3.11066145
VERTEX2 685 -6.79099242 -18.63847012 -2.72865598
VERTEX2 686 -7.23666281 -18.77659348 -2.87277381
VERTEX2 687 -7.82952357 -18.92986719 -2.90767532
VERTEX2 688 -8.42580236 -19.05225109 -2.91934337
VERTEX2 689 -8.98837487 -19.19340391 -2.89157125
VERTEX2 690 -9.52238097 -19.36442033 -2.81728257
VERTEX2 691 -9.91571569 -19.49728030 -2.84520569
VERTEX2 692 -9.89983983 -19.49013845 -2.31078399
VERTEX2 693 -9.87684931 -19.56144269 -1.27005611
VERTEX2 694 -9.85311509 -19.63120955 -0.43472031
VERTEX2 695 -9.83686147 -19.62650516 0.36517562
VERTEX2 696 -9.83204738 -19.62332807 1.39052388
VERTEX2 697 -9.84346619 -19.66145057 1.13749193
VERTEX2 698 -9.51526725 -19.45166065 0.48261536
VERTEX2 699 -8.95427656 -19.13653845 0.59659782
VERTEX2 700 -8.44336364 -18.77281834 0.65007194
VERTEX2 701 -8.01174551 -18.40860361 0.70917800
VERTEX2 702 -7.53482708 -18.09186326 0.59394118
VERTEX2 703 -7.02486092 -17.75371919 0.62812170
VERTEX2 704 -6.53359856 -17.37000682 0.64622218
VERTEX2 705 -6.02423368 -16.94747890 0.71646011
VERTEX2 706 -5.59525978 -16.62801158 0.44746288
VERTEX2 707 -5.56958834 -16.62654423 -0.07280369
VERTEX2 708 -5.55908240 -16.63257147 -0.71131261
VERTEX2 709 -5.59863428 -16.59025440 -1.04341016
VERTEX2 710 -5.60281705 -16.57953730 -1.60455375
VERTEX2 711 -5.59284927 -16.58848077 -2.20131354
VERTEX2 712 -5.57265343 -16.57290247 -2.76178018
VERTEX2 713 -6.04512641 -16.62476921 -3.04714685
VERTEX2 714 -6.60054582 -16.60092262 3.03861073
VERTEX2 715 -7.23238893 -16.56551270 -3.14077112
VERTEX2 716 -7.87158871 -16.54529470 3.00459818
VERTEX2 717 -8.49814365 -16.47892320 3.08955961
VERTEX2 718 -9.25751327 -16.36354793 2.91427183
VERTEX2 719 -9.87161624 -16.25109632 2.98881718
VERTEX2 720 -10.48156681 -16.14156628 2.92969119
VERTEX2 721 -11.09646984 -16.02867161 2.99799236
VERTEX2 722 -11.10976401 -16.02683596 3.06477496
VERTEX2 723 -11.13035628 -16.04825227 -2.12804894
VERTEX2 724 -11.13026854 -16.09344080 -1.05877422
VERTEX2 725 -11.10157287 -16.11253234 -0.42417864
VERTEX2 726 -10.77512895 -16.10706565 0.03021160
VERTEX2 727 -10.13693873 -16.06593793 0.06105732
VERTEX2 728 -9.49589160 -16.03901582 0.06254621
VERTEX2 729 -8.85761837 -15.97571152 0.12030696
VERTEX2 730 -8.23623077 -15.88081493 0.15777979
VERTEX2 731 -7.58629707 -15.77679189 0.17049944
VERTEX2 732 -7.44185659 -15.74687286 0.61812337
VERTEX2 733 -7.44417529 -15.74316600 1.61668523
VERTEX2 734 -7.50873263 -15.17902969 1.69537046
VERTEX2 735 -7.57620026 -14.56861221 1.66387075
VERTEX2 736 -7.57773935 -14.54880480 2.26470947
VERTEX2 737 -7.57140556 -14.54956027 3.06573114
VERTEX2 738 -8.15036359 -14.51586344 3.08488922
VERTEX2 739 -8.75425160 -14.42805977 3.02737096
VERTEX2 740 -9.25707353 -14.39392532 3.09075138
VERTEX2 741 -9.23613789 -14.39343739 2.72209115
VERTEX2 742 -9.23713661 -14.39277500 2.06958842
VERTEX2 743 -9.23971094 -14.38202291 1.45304945
VERTEX2 744 -9.23058271 -14.36036567 0.91301359
VERTEX2 745 -9.20897619 -14.34873202 0.31879988
VERTEX2 746 -8.66218791 -14.36079201 -0.15667786
VERTEX2 747 -8.01152865 -14.46886172 -0.19221506
VERTEX2 748 -7.42885801 -14.60615211 -0.26083700
VERTEX2 749 -7.34109175 -14.62704123 0.16784608
VERTEX2 750 -7.33286980 -14.61152378 1.09308418
VERTEX2 751 -7.36893969 -14.34499529 1.73205271
VERTEX2 752 -7.43070251 -13.73476482 1.62828000
VERTEX2 753 -7.47261794 -13.10899143 1.69104688
VERTEX2 754 -7.48488355 -12.48146411 1.52838198
VERTEX2 755 -7.47034269 -11.84875586 1.61515860
VERTEX2 756 -7.43717372 -11.21327184 1.43950694
VERTEX2 757 -7.36730189 -10.56754613 1.55198486
VERTEX2 758 -7.39266778 -9.99135682 1.69368680
VERTEX2 759 -7.38688980 -9.44665661 1.57261264
VERTEX2 760 -7.43005480 -8.84149154 1.68411233
VERTEX2 761 -7.43266467 -8.80884322 1.86470496
VERTEX2 762 -7.50423634 -8.77750210 2.69912379
VERTEX2 763 -8.06750692 -8.68109366 2.99179595
VERTEX2 764 -8.47637969 -8.61462530 2.96414924
VERTEX2 765 -8.46010113 -8.61420168 -2.67976811
VERTEX2 766 -8.46300620 -8.62389539 -1.67987457
VERTEX2 767 -8.45554916 -8.64241655 -0.74941549
VERTEX2 768 -8.42901735 -8.64387007 -0.02675112
VERTEX2 769 -7.79486040 -8.55063106 0.13029019
VERTEX2 770 -7.14344940 -8.48697510 0.06328578
VERTEX2 771 -7.05580434 -8.47903127 0.62403179
VERTEX2 772 -7.05347388 -8.47145039 1.49195345
VERTEX2 773 -7.03400850 -7.89563391 1.57789255
VERTEX2 774 -7.05040266 -7.35152125 1.60011171
VERTEX2 775 -7.04955259 -7.35506815 2.44534251
VERTEX2 776 -7.26202240 -7.33086587 3.06300256
VERTEX2 777 -7.87865462 -7.29356585 3.12215106
VERTEX2 778 -8.50182501 -7.28710498 3.10106429
VERTEX2 779 -9.10527450 -7.27085022 3.11900415
VERTEX2 780 -9.30834960 -7.25468394 2.98885817
VERTEX2 781 -9.30592542 -7.25552665 2.41565693
VERTEX2 782 -9.43613187 -6.98169423 1.98627777
VERTEX2 783 -9.67565168 -6.40708094 1.98577233
VERTEX2 784 -9.77606738 -6.18139901 1.96430844
VERTEX2 785 -9.77709098 -6.15690567 1.41201101
VERTEX2 786 -9.76945266 -6.13127745 0.82333914
VERTEX2 787 -9.75216605 -6.11340383 0.33236460
VERTEX2 788 -9.72452937 -6.11515477 -0.29713842
VERTEX2 789 -9.71107775 -6.12561851 -0.84917932
VERTEX2 790 -9.40368149 -6.51925609 -0.91636020
VERTEX2 791 -8.99802070 -6.99904157 -0.81767319
VERTEX2 792 -8.75968213 -7.20985378 -0.11304695
VERTEX2 793 -8.14914561 -7.25985877 -0.06822771
VERTEX2 794 -7.51460398 -7.28662334 0.00307747
VERTEX2 795 -7.54466145 -7.30892225 0.43283295
VERTEX2 796 -7.56006266 -7.31528864 1.09273157
VERTEX2 797 -7.48710491 -7.00545322 1.35314897
VERTEX2 798 -7.35520811 -6.37799083 1.40342446
VERTEX2 799 -7.27176947 -5.73274417 1.46922469
VERTEX2 800 -7.22131833 -5.08484795 1.54215100
VERTEX2 801 -7.23524229 -4.45440467 1.62810349
VERTEX2 802 -7.29197198 -3.83029006 1.68580798
VERTEX2 803 -7.27758326 -3.20327175 1.52111278
VERTEX2 804 -7.26024353 -2.57752979 1.57697174
VERTEX2 805 -7.29619372 -1.94837113 1.65318842
VERTEX2 806 -7.35865283 -1.35105486 1.69451705
VERTEX2 807 -7.38678734 -1.16575012 1.98216291
VERTEX2 808 -7.39220055 -1.16565728 2.92927536
VERTEX2 809 -7.98453195 -1.13801160 3.07389201
VERTEX2 810 -8.60206634 -1.01610027 2.93366427
VERTEX2 811 -9.20121928 -0.90578681 2.93031211
VERTEX2 812 -9.20342898 -0.90536291 -2.62134595
VERTEX2 813 -9.21357782 -0.92808689 -1.64564533
VERTEX2 814 -9.20715338 -0.93314929 -0.65301884
VERTEX2 815 -9.18304818 -0.94120653 0.26661275
VERTEX2 816 -9.17507715 -0.93681374 0.94803092
VERTEX2 817 -9.16455924 -0.93014683 0.27952123
VERTEX2 818 -8.94257374 -0.96326130 -0.20916785
VERTEX2 819 -8.35145858 -1.08889302 -0.19495079
VERTEX2 820 -7.75788378 -1.21854832 -0.23607941
VERTEX2 821 -7.21176728 -1.34737428 -0.22018040
VERTEX2 822 -7.16681693 -1.35402409 0.54161452
VERTEX2 823 -7.16612885 -1.34566442 1.46051202
VERTEX2 824 -7.10541989 -0.72935273 1.38111062
VERTEX2 825 -6.96540356 -0.11194280 1.35136827
VERTEX2 826 -6.91124201 0.51436534 1.51419104
VERTEX2 827 -6.84959028 1.13828637 1.46529013
VERTEX2 828 -6.79751140 1.76966642 1.50056284
VERTEX2 829 -6.73927648 2.36592830 1.46065733
VERTEX2 830 -6.66716473 2.96758441 1.45218912
VERTEX2 831 -6.57591706 3.53770595 1.40523724
VERTEX2 832 -6.48824870 4.09577388 1.40160632
VERTEX2 833 -6.44586973 4.34600684 1.53917295
VERTEX2 834 -6.44684420 4.34940416 2.59353138
VERTEX2 835 -6.46305017 4.35123787 -2.91221196
VERTEX2 836 -6.47978901 4.33705917 -1.96942017
VERTEX2 837 -6.47561901 4.31445489 -0.93335461
VERTEX2 838 -6.46448003 4.30753781 -0.07140480
VERTEX2 839 -6.46516967 4.30786841 -0.28977600
VERTEX2 840 -6.45417702 4.29926969 -0.85259874
VERTEX2 841 -6.44535068 4.28155099 -1.46987015
VERTEX2 842 -6.47161196 4.03393522 -1.70018939
VERTEX2 843 -6.54781013 3.48014201 -1.70249667
VERTEX2 844 -6.62098072 2.86431450 -1.71030666
VERTEX2 845 -6.71226721 2.24901159 -1.72482862
VERTEX2 846 -6.79565576 1.62946075 -1.72291542
VERTEX2 847 -6.90245063 1.01773429 -1.74948036
VERTEX2 848 -6.93209179 0.82674499 -1.26875759
VERTEX2 849 -6.92943538 0.82577647 -0.34610899
VERTEX2 850 -6.57066981 0.82339210 0.00749978
VERTEX2 851 -5.93992516 0.79949324 -0.08487807
VERTEX2 852 -5.31701255 0.74040985 -0.07068332
VERTEX2 853 -4.72381820 0.69979059 -0.09881699
VERTEX2 854 -4.13801002 0.63379311 -0.09700183
VERTEX2 855 -3.54721854 0.58484666 -0.09902437
VERTEX2 856 -2.89788226 0.50077673 -0.13986525
VERTEX2 857 -2.24964401 0.41293452 -0.14950478
VERTEX2 858 -1.60698662 0.29265017 -0.20406825
VERTEX2 859 -1.09202448 0.19046489 -0.21093233
VERTEX2 860 -1.06806611 0.20040407 0.63977133
VERTEX2 861 -1.05380972 0.30307728 1.55447153
VERTEX2 862 -1.01700624 0.96072755 1.49463619
VERTEX2 863 -0.96102715 1.60302817 1.46195697
VERTEX2 864 -0.87531184 2.21140546 1.45966279
VERTEX2 865 -0.83507231 2.82080216 1.51708976
VERTEX2 866 -0.79124453 3.40469662 1.51579807
VERTEX2 867 -0.78403779 3.56658152 1.69676529
VERTEX2 868 -0.78959453 3.57352908 2.71961107
VERTEX2 869 -0.77732419 3.57370176 -2.58612626
VERTEX2 870 -0.75721802 3.58447190 -1.58758222
VERTEX2 871 -0.74028905 3.57293824 -0.61476118
VERTEX2 872 -0.71985650 3.55808482 0.06992832
VERTEX2 873 -0.69057442 3.54820867 -0.50311519
VERTEX2 874 -0.66752072 3.52720385 -1.06318304
VERTEX2 875 -0.66027271 3.50991371 -1.65017242
VERTEX2 876 -0.78328269 2.95276021 -1.80797404
VERTEX2 877 -0.93869745 2.41002739 -1.89283941
VERTEX2 878 -0.99074403 2.20899307 -1.51025698
VERTEX2 879 -0.89346347 1.57088356 -1.45924113
VERTEX2 880 -0.86075502 1.12526503 -1.57198562
VERTEX2 881 -0.86083278 1.17894076 -1.56668696
VERTEX2 882 -0.92070671 0.54391598 -1.81329357
VERTEX2 883 -1.13840616 -0.04553545 -2.00410256
VERTEX2 884 -1.29692281 -0.37239663 -2.07113866
VERTEX2 885 -1.29706515 -0.36845444 -1.48974903
VERTEX2 886 -1.28061945 -0.38406674 -0.47211475
VERTEX2 887 -1.25101409 -0.39582590 0.53881362
VERTEX2 888 -1.23887065 -0.37071755 1.52495061
VERTEX2 889 -1.24050640 -0.36593812 2.42480786
VERTEX2 890 -1.55172501 -0.21414840 2.69940586
VERTEX2 891 -2.08447858 0.05225041 2.62955620
VERTEX2 892 -2.61404636 0.37085372 2.59444505
VERTEX2 893 -3.16280135 0.66576605 2.83143168
VERTEX2 894 -3.77048383 0.77679232 3.05317947
VERTEX2 895 -4.36413906 0.72868937 -2.93093955
VERTEX2 896 -4.37969312 0.72496338 -2.45160911
VERTEX2 897 -4.66321821 0.30397709 -2.17872531
VERTEX2 898 -5.01204539 -0.20431197 -2.16277991
VERTEX2 899 -5.29601327 -0.61290847 -2.23007690
VERTEX2 900 -5.70593277 -1.15608575 -2.23211952
VERTEX2 901 -6.07398591 -1.59897969 -2.29614185
VERTEX2 902 -6.48622462 -2.08934834 -2.27061835
VERTEX2 903 -6.79796869 -2.46568046 -2.31502579
VERTEX2 904 -6.79841320 -2.46634711 -1.61081323
VERTEX2 905 -6.78251404 -2.95723542 -1.55502771
VERTEX2 906 -6.74602020 -3.52640839 -1.48900242
VERTEX2 907 -6.68708633 -4.09881755 -1.49692731
VERTEX2 908 -6.63795027 -4.71503571 -1.47204446
VERTEX2 909 -6.57461435 -5.32430212 -1.49016162
VERTEX2 910 -6.60101711 -5.45048121 -1.86041025
VERTEX2 911 -6.75762924 -6.01868337 -1.79975620
VERTEX2 912 -6.87455648 -6.57367537 -1.78729883
VERTEX2 913 -6.98277138 -7.10654387 -1.77950091
VERTEX2 914 -7.10612086 -7.69112954 -1.80338135
VERTEX2 915 -7.22721061 -8.19684014 -1.84029551
VERTEX2 916 -7.16289759 -8.43742642 -1.29302971
VERTEX2 917 -7.02266115 -9.08306864 -1.54757489
VERTEX2 918 -7.04136008 -9.60034883 -1.62317554
VERTEX2 919 -7.07330249 -10.22362024 -1.66652799
VERTEX2 920 -7.13622520 -10.83777077 -1.68412142
VERTEX2 921 -7.20800675 -11.45329701 -1.73744359
VERTEX2 922 -7.30911495 -12.05785088 -1.76460743
VERTEX2 923 -7.42803060 -12.62551155 -1.82798971
VERTEX2 924 -7.55778177 -13.11777494 -1.81157801
VERTEX2 925 -7.55905388 -13.11159116 -1.30724004
VERTEX2 926 -7.39899286 -13.66934162 -1.29105793
VERTEX2 927 -7.23206080 -14.25569712 -1.31435714
VERTEX2 928 -7.07403739 -14.85769684 -1.32325383
VERTEX2 929 -6.92246717 -15.45695219 -1.32408997
VERTEX2 930 -6.77357552 -16.08657586 -1.40679430
VERTEX2 931 -6.68567532 -16.71234102 -1.48712276
VERTEX2 932 -6.63790479 -17.33936450 -1.54663158
VERTEX2 933 -6.63294654 -17.95240324 -1.61126981
VERTEX2 934 -6.64636048 -18.43377824 -1.62111133
VERTEX2 935 -6.64382151 -18.44536101 -0.93897042
VERTEX2 936 -6.64145354 -18.44618485 0.00618999
VERTEX2 937 -6.10120396 -18.41959357 0.06903249
VERTEX2 938 -5.50690672 -18.43396477 -0.10441859
VERTEX2 939 -4.88466317 -18.49195703 -0.07673957
VERTEX2 940 -4.27205878 -18.56578576 -0.16278627
VERTEX2 941 -3.66633224 -18.68018120 -0.21660341
VERTEX2 942 -3.14666559 -18.79509553 -0.21225013
VERTEX2 943 -2.53653494 -18.92806258 -0.12408096
VERTEX2 944 -1.92807773 -19.00939407 -0.18132749
VERTEX2 945 -1.30726143 -19.13704044 -0.23706432
VERTEX2 946 -1.13992491 -19.17962394 -0.17294394
VERTEX2 947 -0.74147661 -19.11815109 0.15546653
VERTEX2 948 -0.17326335 -19.02938636 0.13636896
VERTEX2 949 0.42479607 -18.99499481 -0.01925277
VERTEX2 950 1.04966288 -19.03071899 -0.25874517
VERTEX2 951 1.64609367 -19.20182577 -0.33088135
VERTEX2 952 2.24221063 -19.37589209 -0.08009411
VERTEX2 953 2.86660879 -19.40708576 0.00017117
VERTEX2 954 3.49183936 -19.39944949 -0.00696368
VERTEX2 955 4.08127494 -19.44475618 -0.16799857
VERTEX2 956 4.63110053 -19.52283366 -0.17045380
VERTEX2 957 5.15247206 -19.61661429 -0.25763402
VERTEX2 958 5.60676321 -19.72471876 -0.28385819
VERTEX2 959 6.02253366 -19.83679378 -0.35034990
VERTEX2 960 6.60665126 -19.99711435 -0.27041539
VERTEX2 961 7.18322154 -20.16863907 -0.29743165
VERTEX2 962 7.79577410 -20.29489309 -0.23182700
VERTEX2 963 8.40853520 -20.37377876 -0.04520166
VERTEX2 964 9.02623733 -20.41369788 -0.10915331
VERTEX2 965 9.63954991 -20.49090793 -0.11610636
VERTEX2 966 10.08540169 -20.54882499 -0.17508679
VERTEX2 967 10.12061818 -20.54159962 0.67829679
VERTEX2 968 10.12473540 -20.53767739 1.57494456
VERTEX2 969 10.12639346 -20.55650206 1.63438920
VERTEX2 970 10.12804219 -20.57593672 1.63263858
VERTEX2 971 10.10610185 -20.23784136 1.63257535
VERTEX2 972 10.06553882 -19.65330976 1.63808865
VERTEX2 973 10.14257524 -19.07482758 1.35285369
VERTEX2 974 10.27811366 -18.48081975 1.38475617
VERTEX2 975 10.38657721 -17.88019842 1.38925174
VERTEX2 976 10.48841040 -17.27688506 1.40201168
VERTEX2 977 10.62055433 -16.66125878 1.37558027
VERTEX2 978 10.73819252 -16.05130168 1.42130195
VERTEX2 979 10.84984278 -15.44489465 1.40870063
VERTEX2 980 10.94556600 -14.84172603 1.45546069
VERTEX2 981 11.03231911 -14.24898897 1.46218289
VERTEX2 982 11.08695967 -13.72248729 1.50690949
VERTEX2 983 11.13477026 -13.12133820 1.50330667
VERTEX2 984 11.16047639 -12.52750541 1.56063162
VERTEX2 985 11.16991912 -11.93272032 1.58086583
VERTEX2 986 11.15360209 -11.31432180 1.61714351
VERTEX2 987 11.13959551 -10.69741630 1.58038237
VERTEX2 988 11.14099563 -10.08086458 1.59401759
VERTEX2 989 11.12530301 -9.46783202 1.60162975
VERTEX2 990 11.11746502 -8.85809815 1.59082517
VERTEX2 991 11.10121462 -8.24208815 1.61537920
VERTEX2 992 11.09566881 -7.65849268 1.58283919
VERTEX2 993 11.08153393 -7.04560186 1.61566928
VERTEX2 994 11.06477184 -6.46354848 1.60582794
VERTEX2 995 11.03235218 -5.87828428 1.65322812
VERTEX2 996 10.97237596 -5.27762571 1.68045347
VERTEX2 997 10.92690574 -4.63859555 1.61611359
VERTEX2 998 10.90687573 -4.24196479 1.63802667
VERTEX2 999 10.93708694 -4.26635594 2.35578243
VERTEX2 1000 10.47630470 -3.90901366 2.50436144
VERTEX2 1001 10.03911834 -3.51198521 2.18328732
VERTEX2 1002 9.67696329 -3.04789905 2.27548117
VERTEX2 1003 9.33200398 -2.55693632 2.09528646
VERTEX2 1004 8.98839669 -2.01397603 2.15308788
VERTEX2 1005 8.63743175 -1.52383025 2.21609163
VERTEX2 1006 8.24355401 -1.04906564 2.29401584
VERTEX2 1007 7.83304854 -0.62614064 2.38583662
VERTEX2 1008 7.59953803 -0.41369124 2.54553679
VERTEX2 1009 7.50424858 -0.39936248 3.01913538
VERTEX2 1010 6.93765865 -0.34457010 3.07181650
VERTEX2 1011 6.31884658 -0.30601443 3.02893940
VERTEX2 1012 5.70613234 -0.24346416 3.07106729
VERTEX2 1013 5.06708974 -0.24717869 -3.09689154
VERTEX2 1014 4.46069633 -0.20137250 3.01096137
VERTEX2 1015 3.84211115 -0.16408187 3.09537669
VERTEX2 1016 3.07880396 -0.12885147 3.10203683
VERTEX2 1017 2.49543337 -0.11652474 3.04482096
VERTEX2 1018 1.93958536 -0.05583066 3.05205978
VERTEX2 1019 1.34667155 -0.03236545 3.11154327
VERTEX2 1020 0.73350670 0.00256326 3.09753332
VERTEX2 1021 0.11445053 0.03067524 3.05686550
VERTEX2 1022 0.06302125 0.03485683 3.04957598
VERTEX2 1023 0.07197758 0.03469511 3.13609544
VERTEX2 1024 -0.55293058 0.04163653 -3.12082661
VERTEX2 1025 -1.17999734 0.01045682 -3.10332539
VERTEX2 1026 -1.33939497 0.00484989 -3.09622107
VERTEX2 1027 -1.32202129 0.01338067 -2.17995006
VERTEX2 1028 -1.33524489 -0.15592245 -1.61686132
VERTEX2 1029 -1.36331153 -0.72453578 -1.63829890
VERTEX2 1030 -1.42608333 -1.34603247 -1.71875021
VERTEX2 1031 -1.53779197 -1.99059238 -1.77297667
VERTEX2 1032 -1.66735861 -2.63483492 -1.76904445
VERTEX2 1033 -1.80991858 -3.27757967 -1.81435880
VERTEX2 1034 -1.85400937 -3.44628298 -2.02837568
VERTEX2 1035 -1.85101930 -3.44383323 -2.64814422
VERTEX2 1036 -1.80565181 -3.46481742 3.06371958
VERTEX2 1037 -2.13074791 -3.34063149 2.82503073
VERTEX2 1038 -2.72634410 -3.22076229 2.91602074
VERTEX2 1039 -3.34915319 -3.05425570 2.88430276
VERTEX2 1040 -3.32529688 -3.05485183 -2.76727042
VERTEX2 1041 -3.29807394 -3.05840242 -1.74776746
VERTEX2 1042 -3.29952049 -3.08643065 -0.75849424
VERTEX2 1043 -3.27508794 -3.10870968 0.21247727
VERTEX2 1044 -3.29086524 -3.12751895 1.20760718
VERTEX2 1045 -3.29388016 -3.13428133 1.09339855
VERTEX2 1046 -3.30589288 -3.15066261 0.70758417
VERTEX2 1047 -3.32832381 -3.16060290 0.15218286
VERTEX2 1048 -2.97910915 -3.22473651 -0.16055585
VERTEX2 1049 -2.34659284 -3.31629864 -0.14326041
VERTEX2 1050 -1.71235883 -3.38057899 -0.06744645
VERTEX2 1051 -1.05587208 -3.44910760 -0.14624235
VERTEX2 1052 -0.43093201 -3.52520486 -0.09296739
VERTEX2 1053 -0.01569903 -3.57598874 -0.14556777
VERTEX2 1054 0.00753330 -3.57824876 0.61677418
VERTEX2 1055 0.01342302 -3.54938842 1.67293213
VERTEX2 1056 0.02084083 -3.55995658 2.67690984
VERTEX2 1057 0.04375703 -3.56228501 -2.61565030
VERTEX2 1058 0.04248362 -3.56381056 -1.69367741
VERTEX2 1059 -0.05051733 -4.14475527 -1.77446842
VERTEX2 1060 -0.18188859 -4.77346136 -1.76949375
VERTEX2 1061 -0.28525439 -5.21816189 -1.89205437
VERTEX2 1062 -0.29147056 -5.22785034 -2.45587682
VERTEX2 1063 -0.27659760 -5.21918192 -3.05295023
VERTEX2 1064 -0.55988521 -5.16842023 2.96537124
VERTEX2 1065 -1.15112012 -5.10641007 3.08762041
VERTEX2 1066 -1.71787170 -5.05903228 3.03173714
VERTEX2 1067 -1.70771422 -5.05841214 -2.81834739
VERTEX2 1068 -1.69463888 -5.04903900 -2.14534224
VERTEX2 1069 -1.69282738 -5.04397526 -1.97485665
VERTEX2 1070 -1.69006945 -5.03898747 -2.51362366
VERTEX2 1071 -2.15738468 -5.29841208 -2.64130320
VERTEX2 1072 -2.59711156 -5.53073216 -2.71031577
VERTEX2 1073 -2.56412664 -5.52958863 3.06101347
VERTEX2 1074 -3.09311333 -5.46204433 3.02636607
VERTEX2 1075 -3.66972179 -5.39028019 3.04269077
VERTEX2 1076 -3.69146799 -5.38882380 -2.83621735
VERTEX2 1077 -3.70354960 -5.41213456 -2.03035235
VERTEX2 1078 -3.93622600 -6.02228416 -1.98516803
VERTEX2 1079 -4.16356977 -6.58941122 -1.92300300
VERTEX2 1080 -4.16753652 -6.60031243 -2.41049120
VERTEX2 1081 -4.59286645 -6.89644465 -2.53367779
VERTEX2 1082 -4.75646239 -7.01286630 -2.25337353
VERTEX2 1083 -4.75272922 -7.04015647 -1.22477823
VERTEX2 1084 -4.67837881 -7.07782490 -0.26136638
VERTEX2 1085 -4.68428887 -7.07941866 0.72172153
VERTEX2 1086 -4.32683645 -6.58892432 0.95271514
VERTEX2 1087 -3.95034768 -6.08040649 0.94096644
VERTEX2 1088 -3.59579032 -5.57246347 0.92423700
VERTEX2 1089 -3.53850099 -5.49771516 0.82883556
VERTEX2 1090 -3.52574380 -5.48594849 0.21390606
VERTEX2 1091 -2.99083886 -5.45172428 0.03733348
VERTEX2 1092 -2.37445735 -5.43374971 0.02241834
VERTEX2 1093 -1.80795344 -5.43408947 -0.04240188
VERTEX2 1094 -1.79464129 -5.44663025 -0.44548601
VERTEX2 1095 -1.76848944 -5.46954301 -1.03451728
VERTEX2 1096 -1.76908385 -5.46709711 -1.60505241
VERTEX2 1097 -1.85024739 -5.79321282 -1.82008091
VERTEX2 1098 -2.02346006 -6.39184760 -1.87659893
VERTEX2 1099 -2.22139908 -6.94011873 -1.97215730
VERTEX2 1100 -2.22150640 -6.94027538 -1.60826141
VERTEX2 1101 -2.16124250 -7.20066689 -1.34187478
VERTEX2 1102 -2.16154105 -7.20449372 -1.73544141
VERTEX2 1103 -2.28223856 -7.80746378 -1.76901593
VERTEX2 1104 -2.41334918 -8.43685537 -1.79650828
VERTEX2 1105 -2.56150782 -9.05247039 -1.81420313
VERTEX2 1106 -2.68144631 -9.52273673 -1.83923187
VERTEX2 1107 -2.68133754 -9.52398462 -1.58280744
VERTEX2 1108 -2.64552321 -10.14304889 -1.57477875
VERTEX2 1109 -2.69318958 -10.78004992 -1.67848364
VERTEX2 1110 -2.76289180 -11.38092897 -1.72779816
VERTEX2 1111 -2.92692421 -11.90380700 -1.82884684
VERTEX2 1112 -2.95663938 -12.47600996 -1.48208794
VERTEX2 1113 -2.91662690 -13.10797248 -1.57725049
VERTEX2 1114 -2.91968869 -13.71767913 -1.56003957
VERTEX2 1115 -2.91041530 -14.29395813 -1.57605793
VERTEX2 1116 -2.89130052 -14.93532927 -1.53963397
VERTEX2 1117 -2.88765051 -15.02604713 -1.66720292
VERTEX2 1118 -2.88273382 -15.01662803 -2.27398888
VERTEX2 1119 -2.86660921 -15.00518803 -2.70555352
VERTEX2 1120 -3.41922927 -15.21431750 -2.76911853
VERTEX2 1121 -3.60967700 -15.28409052 -2.88776078
VERTEX2 1122 -3.60296004 -15.28630504 2.84498236
VERTEX2 1123 -4.15557750 -15.10855301 2.86158669
VERTEX2 1124 -4.71627659 -14.98677067 2.95992453
VERTEX2 1125 -5.34501202 -14.86894249 2.97305618
VERTEX2 1126 -5.43266449 -14.85590454 -2.97141652
VERTEX2 1127 -5.42921912 -14.85950804 -1.91561318
VERTEX2 1128 -5.43137007 -14.87049106 -0.92960035
VERTEX2 1129 -5.42075535 -14.87634374 0.08460823
VERTEX2 1130 -4.84901735 -14.81067775 0.09805611
VERTEX2 1131 -4.08814448 -14.93070905 -0.33413966
VERTEX2 1132 -3.48667102 -15.14277164 -0.35393047
VERTEX2 1133 -2.94801157 -15.36559997 -0.39268199
VERTEX2 1134 -2.70347691 -15.46732654 -0.48972322
VERTEX2 1135 -2.69417927 -15.47639204 -1.04584663
VERTEX2 1136 -2.70191045 -15.49260474 -1.60788535
VERTEX2 1137 -2.75798417 -15.81068165 -1.79190319
VERTEX2 1138 -2.91565446 -16.46000811 -1.80811967
VERTEX2 1139 -3.03396746 -16.95785647 -1.88120764
VERTEX2 1140 -3.02439253 -16.93479928 -2.35991655
VERTEX2 1141 -3.00408169 -16.91500122 -2.90715410
VERTEX2 1142 -3.36303054 -16.87257443 3.01194127
VERTEX2 1143 -3.95746685 -16.82699069 3.10144588
VERTEX2 1144 -4.53875792 -16.79354987 3.07089146
VERTEX2 1145 -5.12797327 -16.74800834 3.04570909
VERTEX2 1146 -5.70623702 -16.69153923 3.06581157
VERTEX2 1147 -6.28341400 -16.68242688 3.13863792
VERTEX2 1148 -6.86182224 -16.68047802 -3.13452050
VERTEX2 1149 -6.90446736 -16.68181855 -2.63628393
VERTEX2 1150 -6.99636173 -16.78416628 -1.82626665
VERTEX2 1151 -6.99465206 -16.79407125 -0.82239160
VERTEX2 1152 -6.97509040 -16.79436803 0.23078757
VERTEX2 1153 -6.95768390 -16.78645152 1.24363251
VERTEX2 1154 -7.01644425 -16.47328918 1.78996805
VERTEX2 1155 -7.14938262 -15.85265476 1.74072796
VERTEX2 1156 -7.24665459 -15.25069384 1.75084100
VERTEX2 1157 -7.37360253 -14.68339198 1.86206467
VERTEX2 1158 -7.49989242 -14.08510365 1.73362316
VERTEX2 1159 -7.56020546 -13.48808474 1.64001910
VERTEX2 1160 -7.58316459 -12.85396681 1.50378421
VERTEX2 1161 -7.48529586 -12.22866249 1.41419462
VERTEX2 1162 -7.39421511 -11.59494327 1.47213174
VERTEX2 1163 -7.33238224 -10.95319433 1.46650571
VERTEX2 1164 -7.28473813 -10.31371312 1.55179208
VERTEX2 1165 -7.27481961 -9.76677393 1.52914405
VERTEX2 1166 -7.27712389 -9.75561132 2.01850468
VERTEX2 1167 -7.22720667 -9.74329809 2.95588913
VERTEX2 1168 -7.18328793 -9.72562019 -2.42314382
VERTEX2 1169 -7.18673674 -9.77324056 -1.60086242
VERTEX2 1170 -7.19426254 -10.35516478 -1.59403583
VERTEX2 1171 -7.19138179 -10.99042021 -1.56267069
VERTEX2 1172 -7.19333611 -11.58981050 -1.62548826
VERTEX2 1173 -7.22112296 -12.21441656 -1.61667525
VERTEX2 1174 -7.26306771 -12.84446861 -1.68571998
VERTEX2 1175 -7.34770283 -13.46020610 -1.71940829
VERTEX2 1176 -7.44345411 -14.08052090 -1.76245663
VERTEX2 1177 -7.56103507 -14.68923442 -1.75980661
VERTEX2 1178 -7.68982040 -15.30213164 -1.80633805
VERTEX2 1179 -7.82422808 -15.90591493 -1.77651617
VERTEX2 1180 -7.87685650 -16.15848976 -1.78305164
VERTEX2 1181 -7.87618604 -16.15361913 -0.95586370
VERTEX2 1182 -7.82346376 -16.16668074 -0.24438153
VERTEX2 1183 -7.21186256 -16.31167006 -0.21914687
VERTEX2 1184 -6.58129371 -16.42262166 -0.14970722
VERTEX2 1185 -5.95429909 -16.52980325 -0.18274220
VERTEX2 1186 -5.32408008 -16.62198151 -0.11738743
VERTEX2 1187 -4.67179112 -16.70523327 -0.15523827
VERTEX2 1188 -4.04603069 -16.79340112 -0.13785309
VERTEX2 1189 -3.38371394 -16.89894640 -0.11634991
VERTEX2 1190 -3.05327632 -16.93820461 -0.10850804
VERTEX2 1191 -3.02160406 -16.93742697 0.81199384
VERTEX2 1192 -3.01594005 -16.85119218 1.60983978
VERTEX2 1193 -3.01181846 -16.25624411 1.47773213
VERTEX2 1194 -2.97327355 -15.68697381 1.51970495
VERTEX2 1195 -2.94759619 -15.06842025 1.57196295
VERTEX2 1196 -2.94430911 -14.45166110 1.39915023
VERTEX2 1197 -2.84438398 -13.84329852 1.41029806
VERTEX2 1198 -2.77709192 -13.22325340 1.66897646
VERTEX2 1199 -2.79641163 -12.61793154 1.45412910
VERTEX2 1200 -2.74215135 -11.99469500 1.52301492
VERTEX2 1201 -2.71962311 -11.38305225 1.57900564
VERTEX2 1202 -2.73199414 -10.76890777 1.60210623
VERTEX2 1203 -2.76426745 -10.18786334 1.51235958
VERTEX2 1204 -2.65352947 -9.60320148 1.36577726
VERTEX2 1205 -2.54784683 -9.04209979 1.39553095
VERTEX2 1206 -2.46446598 -8.45102567 1.45735110
VERTEX2 1207 -2.32937455 -7.83798888 1.37189560
VERTEX2 1208 -2.21971612 -7.21152252 1.43720637
VERTEX2 1209 -2.13598220 -6.58872692 1.43584124
VERTEX2 1210 -2.07473383 -5.97041889 1.45702103
VERTEX2 1211 -1.95434068 -5.35931558 1.38328809
VERTEX2 1212 -1.84448418 -4.74826221 1.43239619
VERTEX2 1213 -1.78155753 -4.13414789 1.50466107
VERTEX2 1214 -1.70431204 -3.40805655 1.28056543
VERTEX2 1215 -1.54424564 -2.83110291 1.33882652
VERTEX2 1216 -1.49671985 -2.28908515 1.55480772
VERTEX2 1217 -1.46434930 -1.72027165 1.53453409
VERTEX2 1218 -1.45148649 -1.13843294 1.48307018
VERTEX2 1219 -1.40174205 -0.49779041 1.51289685
VERTEX2 1220 -1.39464626 0.08097031 1.60276249
VERTEX2 1221 -1.39208528 0.07228926 1.14846070
VERTEX2 1222 -1.38661147 0.07759411 0.54975458
VERTEX2 1223 -1.38110113 0.07887713 -0.01120602
VERTEX2 1224 -0.81307446 -0.01586022 -0.19486683
VERTEX2 1225 -0.20376551 -0.13234861 -0.18164447
VERTEX2 1226 -0.10433552 -0.15071952 -0.19891847
VERTEX2 1227 -0.10433552 -0.15071952 -0.19958047
