1 13 21 2 3500.29470930 0.00000281 1 
2 6 33 2 595.30681667 0.00000241 1 
3 15 39 2 1721.66181285 0.00000331 1 
4 56 61 2 4607.12171821 0.00000240 1 
5 21 69 2 253.66161986 0.00000241 1 
6 54 123 2 229.16464276 0.00000241 1 
7 126 144 2 2048.64017289 0.00000240 1 
8 19 166 0 0.41485034 0.00211347 5 
9 134 170 2 230.57171739 0.00000212 1 
10 19 172 0 0.02820697 0.00186525 4 
11 25 172 0 0.50366199 0.00187779 4 
12 114 176 2 324.99602898 0.00000215 1 
13 25 178 0 0.30831851 0.00197254 4 
14 32 178 0 0.01493521 0.00199242 4 
15 32 183 0 0.07055611 0.00200982 4 
16 44 189 0 0.52863102 0.00208014 4 
17 64 189 2 1807.94585253 0.00000200 4 
18 44 195 0 0.35755137 0.00216305 4 
19 50 195 0 0.00572854 0.00219833 4 
20 50 201 0 0.04110605 0.00190294 3 
21 50 203 0 0.06975183 0.00187578 3 
22 61 203 0 0.00745912 0.00189403 3 
23 61 209 0 0.37222863 0.00231056 4 
24 67 209 0 0.41032090 0.00231868 4 
25 67 220 0 0.66144083 0.00249777 4 
26 81 220 0 0.48035877 0.00285532 5 
27 81 226 0 0.05402805 0.00256328 4 
28 87 226 0 1.82553139 0.00298481 5 
29 189 227 2 3039.21238379 0.00000280 1 
30 87 231 0 0.34656585 0.00262370 4 
31 94 231 0 0.55778528 0.00255929 4 
32 226 231 0 1.44127402 0.00298553 5 
33 94 241 0 1.33132047 0.00268880 4 
34 101 241 0 0.50961029 0.00271525 4 
35 101 247 0 1.66454674 0.00275851 4 
36 107 247 0 1.80094617 0.00278285 4 
37 86 249 2 2716.63513990 0.00000225 1 
38 128 253 2 761.23458033 0.00000214 1 
39 107 254 0 1.18346605 0.00284203 4 
40 114 254 0 0.12939160 0.00286309 4 
41 107 256 0 0.93085039 0.00284910 4 
42 114 256 0 0.24629796 0.00285712 4 
43 107 258 0 1.37911724 0.00289804 4 
44 114 258 0 1.15747212 0.00292417 4 
45 180 262 2 2730.86260552 0.00000231 1 
46 121 266 0 0.00938596 0.00300512 4 
47 126 266 0 0.44864328 0.00354935 5 
48 217 269 2 1037.95803208 0.00000235 1 
49 126 272 0 1.03992836 0.00309139 4 
50 132 272 0 0.39070916 0.00364549 5 
51 190 275 2 1151.69091476 0.00000206 1 
52 132 278 0 0.58358145 0.00317476 4 
53 138 278 0 1.06458780 0.00373880 5 
54 138 284 0 0.02201259 0.00270800 3 
55 151 284 0 0.12777228 0.00329050 4 
56 151 291 0 0.60037557 0.00331397 4 
57 104 294 2 875.52986243 0.00000208 1 
58 151 297 0 0.07972289 0.00284432 3 
59 157 297 0 1.04991834 0.00344068 4 
60 166 297 0 1.30507781 0.00338692 4 
61 110 298 2 3271.70571628 0.00000242 1 
62 19 305 0 0.16044642 0.00357040 4 
63 157 305 0 0.58687353 0.00359578 4 
64 163 305 0 7.56485476 0.00484266 6 
65 166 305 0 0.37495035 0.00360310 4 
66 172 305 0 0.01886255 0.00360365 4 
67 201 307 2 1285.69618620 0.00000208 1 
68 69 313 2 1342.48921790 0.00000205 1 
69 19 315 0 0.48455906 0.00309739 3 
70 25 315 0 0.02281386 0.00311069 3 
71 172 315 0 0.05679715 0.00373358 4 
72 172 328 0 0.12482725 0.00324902 3 
73 19 337 0 6.63404991 0.00466223 5 
74 25 337 0 0.96522419 0.00399821 4 
75 172 337 0 0.57611560 0.00333238 3 
76 29 340 2 2675.47982267 0.00000241 1 
77 19 342 0 0.00494520 0.00338086 3 
78 25 342 0 0.12855172 0.00406392 4 
79 172 342 0 0.01223902 0.00411827 4 
80 178 342 0 0.12442988 0.00417443 4 
81 230 344 2 1165.63063403 0.00000291 1 
82 24 365 2 491.18656253 0.00000285 1 
83 25 367 0 0.11414782 0.00378173 3 
84 32 367 0 0.01267433 0.00594825 6 
85 178 367 0 0.00286807 0.00376741 3 
86 183 367 0 0.06698524 0.00374814 3 
87 308 373 2 367.09637170 0.00000266 1 
88 25 374 0 0.56424690 0.00459012 4 
89 32 374 0 0.09892849 0.00531600 5 
90 178 374 0 0.03055075 0.00457444 4 
91 183 374 0 0.05309447 0.00457732 4 
92 32 382 0 4.14688582 0.00392329 3 
93 183 382 0 1.28811506 0.00465704 4 
94 20 384 2 1382.25654891 0.00000317 1 
95 32 387 0 2.72468715 0.00473501 4 
96 183 387 0 0.18197642 0.00474886 4 
97 306 402 2 1793.96656646 0.00000286 1 
98 2 402 2 692.53961932 0.00000154 1 
99 173 411 2 245.28987662 0.00000297 1 
100 189 414 0 7.69047346 0.00585966 5 
101 184 415 2 198.71839480 0.00000327 1 
102 369 423 2 2496.71844601 0.00000309 1 
103 44 437 0 0.00915802 0.00439773 3 
104 195 437 0 0.01161094 0.00436253 3 
105 95 445 2 540.23327475 0.00000347 1 
106 44 454 0 0.65644164 0.00451929 3 
107 189 454 0 0.03962740 0.00541955 4 
108 321 455 2 1433.59021455 0.00000348 1 
109 38 459 2 2805.51506639 0.00000232 1 
110 44 467 0 0.12345281 0.00642209 5 
111 50 467 0 0.00895575 0.01026058 9 
112 195 467 0 0.00230988 0.00463691 3 
113 331 471 2 581.83059946 0.00000318 1 
114 414 476 2 740.62474060 0.00000332 1 
115 25 483 2 539.26173330 0.00000327 1 
116 195 484 0 0.09447226 0.00574531 4 
117 6 487 2 377.34237959 0.00000321 1 
118 316 487 2 691.77812365 0.00000185 1 
119 144 492 2 498.74181239 0.00000251 1 
120 44 494 0 0.02880924 0.00576398 4 
121 50 494 0 0.00628832 0.00482691 3 
122 195 494 0 0.00818961 0.00689656 5 
123 201 494 0 0.00469852 0.00682403 5 
124 102 498 2 655.77215707 0.00000336 1 
125 198 499 2 17.96558329 0.00000281 1 
126 50 500 0 0.14406209 0.00694148 5 
127 201 500 0 0.05353930 0.00491132 3 
128 203 500 0 0.03252445 0.00488116 3 
129 61 508 0 0.99413579 0.00711641 5 
130 203 508 0 0.26947301 0.01229735 10 
131 209 508 0 0.03711473 0.00605179 4 
132 36 509 2 1875.61917896 0.00000308 1 
133 256 511 2 2643.49512488 0.00000268 1 
134 443 517 2 389.18773109 0.00000311 1 
135 61 522 0 1.37942234 0.00613453 4 
136 203 522 0 0.12859200 0.00511565 3 
137 209 522 0 0.00542469 0.00510749 3 
138 376 526 2 1113.35362760 0.00000239 1 
139 61 528 0 0.47936102 0.00516187 3 
140 67 528 0 0.22419307 0.00628385 4 
141 81 528 0 0.23233822 0.00841333 6 
142 209 528 0 0.09444678 0.01061722 8 
143 220 528 0 0.13668760 0.00623086 4 
144 247 529 2 6325.55464146 0.00000295 1 
145 67 532 0 0.05459173 0.01180149 9 
146 81 532 0 0.11826401 0.00846975 6 
147 220 532 0 0.05648169 0.00633397 4 
148 297 532 2 3710.64551070 0.00000236 4 
149 262 534 2 3102.60109049 0.00000245 1 
150 331 537 2 1568.02614680 0.00000225 1 
151 16 537 2 1937.41310996 0.00000093 1 
152 77 541 2 1745.20665682 0.00000254 1 
153 381 547 2 1257.47569337 0.00000228 1 
154 522 554 2 452.76232151 0.00000260 1 
155 370 554 2 1576.30126988 0.00000135 1 
156 67 556 0 0.98233216 0.00649724 4 
157 153 558 2 2785.23502312 0.00000250 1 
158 527 563 2 912.30176110 0.00000215 1 
159 67 564 0 0.40168838 0.01235771 9 
160 81 564 0 0.02280941 0.00665017 4 
161 220 564 0 0.02684857 0.00665405 4 
162 146 564 2 1314.51799638 0.00000246 4 
163 67 567 0 2.67253169 0.00781093 5 
164 81 567 0 0.48923871 0.00901450 6 
165 220 567 0 0.21723258 0.00664676 4 
166 84 567 2 1823.34581369 0.00000269 4 
167 67 570 0 2.40706627 0.00909958 6 
168 81 570 0 0.15671702 0.00902863 6 
169 220 570 0 0.13379867 0.00672968 4 
170 81 575 0 2.76594993 0.00792156 5 
171 220 575 0 1.08612706 0.01035297 7 
172 475 576 2 1509.59549225 0.00000281 1 
173 168 576 2 1163.09793591 0.00000131 1 
174 81 588 0 0.01497138 0.00574532 3 
175 87 588 0 0.47937722 0.00817011 5 
176 226 588 0 0.43156268 0.00691640 4 
177 548 589 2 1486.46564925 0.00000333 1 
178 547 589 2 107.12120680 0.00000119 1 
179 87 597 0 2.27648751 0.00954863 6 
180 94 597 0 0.38888315 0.00699706 4 
181 226 597 0 0.55079633 0.00833084 5 
182 117 598 2 2442.14436818 0.00000271 1 
183 87 604 0 0.47149562 0.00710145 4 
184 94 604 0 0.01542269 0.00840781 5 
185 223 610 2 169.26092359 0.00000240 1 
186 233 612 2 2830.27973198 0.00000226 1 
187 94 616 0 0.01350372 0.01233734 8 
188 476 616 2 880.11624686 0.00000344 8 
189 161 616 2 1607.68519725 0.00000107 8 
190 242 619 2 691.11452435 0.00000311 1 
191 142 620 2 1336.61657743 0.00000317 1 
192 187 622 2 533.87811746 0.00000284 1 
193 315 630 2 857.71827322 0.00000276 1 
194 94 632 0 2.16969694 0.00878270 5 
195 564 633 2 4759.82309873 0.00000267 1 
196 548 636 2 1464.09408430 0.00000285 1 
197 94 637 0 4.44236402 0.01006007 6 
198 101 637 0 0.19098383 0.00750663 4 
199 219 638 2 2460.60175557 0.00000309 1 
200 101 642 0 0.11555601 0.00890946 5 
201 107 642 0 0.04025021 0.01409558 9 
202 291 644 2 1931.06977000 0.00000379 1 
203 101 645 0 6.69527511 0.00762722 4 
204 107 645 0 1.54205090 0.00752608 4 
205 65 645 2 2143.80355258 0.00000318 4 
206 350 653 2 1462.51033522 0.00000335 1 
207 26 653 2 1380.10907871 0.00000179 1 
208 393 656 2 1333.72877626 0.00000329 1 
209 101 657 0 0.73548669 0.01793463 10 
210 46 660 2 4847.21378845 0.00000382 10 
211 101 663 0 0.04971914 0.01677194 10 
212 107 663 0 0.01781179 0.00921905 5 
213 114 663 0 0.00275957 0.00918166 5 
214 645 663 2 6795.64520628 0.00000303 5 
215 314 664 2 1606.03444944 0.00000348 1 
216 101 665 0 1.55112265 0.01348180 8 
217 107 665 0 0.47667103 0.00781125 4 
218 114 665 0 0.13329170 0.00649841 3 
219 381 665 2 2505.37242776 0.00000276 3 
220 641 668 2 4130.85820344 0.00000319 1 
221 107 680 0 1.48615866 0.00937474 5 
222 107 683 0 0.94462224 0.00801774 4 
223 114 683 0 0.32178225 0.00952724 5 
224 20 688 2 1489.56190117 0.00000289 1 
225 209 696 2 2070.19437590 0.00000259 1 
226 415 698 2 623.39710394 0.00000275 1 
227 599 701 2 1560.33177890 0.00000254 1 
228 107 704 0 0.34268109 0.01260779 7 
229 114 704 0 0.07528002 0.01552846 9 
230 314 705 2 1062.99814863 0.00000296 1 
231 460 707 2 2609.41206894 0.00000278 1 
232 107 714 0 1.79639085 0.01133202 6 
233 114 714 0 0.02860377 0.01438905 8 
234 202 715 2 5649.04112038 0.00000459 1 
235 107 730 0 0.19656714 0.01014092 5 
236 114 730 0 0.03540690 0.00855281 4 
237 645 736 2 1196.24833705 0.00000292 1 
238 168 740 2 1926.66325833 0.00000240 1 
239 571 741 2 904.34680045 0.00000261 1 
240 675 745 2 379.62549685 0.00000291 1 
241 565 746 2 2657.62531999 0.00000281 1 
242 121 754 0 0.33113739 0.00874109 4 
243 126 754 0 0.07673382 0.01513849 8 
244 480 754 2 2438.16391479 0.00000342 8 
245 121 759 0 2.33625684 0.01196280 6 
246 126 759 0 0.22329988 0.01203841 6 
247 126 762 0 7.08482229 0.01037619 5 
248 132 762 0 2.00372045 0.01545078 8 
249 331 777 2 234.87532841 0.00000298 1 
250 132 778 0 0.06999780 0.00902439 4 
251 330 783 2 495.06257143 0.00000412 1 
252 592 784 2 807.04984425 0.00000408 1 
253 132 792 0 1.26802734 0.00929069 4 
254 580 792 2 879.57679590 0.00000403 4 
255 132 800 0 3.35686460 0.00937658 4 
256 138 800 0 0.14494330 0.01255913 6 
257 360 804 2 2633.28414964 0.00000417 1 
258 138 806 0 0.25140739 0.00751009 3 
259 222 806 2 4423.45631973 0.00000410 3 
260 411 817 2 375.49634536 0.00000369 1 
261 138 821 0 0.40674396 0.01105647 5 
262 138 823 0 6.54725682 0.00936197 4 
263 457 823 2 1327.43439905 0.00000396 4 
264 163 825 2 2930.12781068 0.00000372 1 
265 151 828 0 3.12108818 0.00952273 4 
266 146 833 2 3575.63945219 0.00000427 1 
267 430 834 2 281.37529682 0.00000413 1 
268 328 835 2 1470.06649292 0.00000399 1 
269 794 836 2 1664.97523787 0.00000336 1 
270 697 837 2 1659.34993436 0.00000354 1 
271 334 840 2 464.35733354 0.00000374 1 
272 170 842 2 166.97216239 0.00000366 1 
273 184 843 2 1663.64672181 0.00000395 1 
274 47 845 2 1518.39023944 0.00000439 1 
275 261 846 2 2548.63884471 0.00000378 1 
276 151 847 0 0.08724621 0.01165336 5 
277 184 848 2 1757.13731567 0.00000447 1 
278 574 851 2 83.94186716 0.00000432 1 
279 151 855 0 0.11494457 0.01531061 7 
280 488 857 2 2208.75957107 0.00000489 1 
281 755 857 2 1780.88539362 0.00000121 1 
282 136 857 2 6949.34382598 0.00000117 1 
283 622 859 2 576.81474685 0.00000413 1 
284 829 860 2 2038.04611351 0.00000426 1 
285 490 866 2 442.13746091 0.00000429 1 
286 191 868 2 545.18447808 0.00000373 1 
287 760 879 2 308.16607853 0.00000374 1 
288 245 880 2 228.07537238 0.00000336 1 
289 221 884 2 643.35471958 0.00000415 1 
290 55 892 2 582.96107653 0.00000435 1 
291 182 893 2 1211.75588276 0.00000406 1 
292 151 895 0 2.80701437 0.01784001 8 
293 151 897 0 0.06118057 0.02156176 10 
294 842 897 2 1183.77999200 0.00000463 10 
295 598 899 2 1560.99407590 0.00000447 1 
296 138 903 0 0.08157811 0.01042531 4 
297 138 904 0 7.06392298 0.01421769 6 
298 771 905 2 287.18201516 0.00000447 1 
299 132 907 0 0.71874717 0.01050332 4 
300 138 907 0 0.22077132 0.01232841 5 
301 132 911 0 0.23128175 0.01243128 5 
302 46 915 2 1689.97671574 0.00000489 1 
303 430 922 2 1345.09045046 0.00000392 1 
304 121 923 0 0.62636126 0.01462355 6 
305 126 923 0 0.07130653 0.01088113 4 
306 455 924 2 1209.90217617 0.00000474 1 
307 866 926 2 330.08596006 0.00000399 1 
308 454 926 2 2916.86235278 0.00000115 1 
309 23 927 2 3295.11824311 0.00000479 1 
310 444 927 2 638.33295543 0.00000134 1 
311 265 928 2 1458.23104834 0.00000419 1 
312 107 929 0 0.07225325 0.01274462 5 
313 114 929 0 0.00477553 0.01076568 4 
314 100 929 2 2648.25635582 0.00000434 4 
315 500 932 2 1995.36636111 0.00000489 1 
316 107 935 0 4.91438615 0.01673682 7 
317 114 935 0 1.40337639 0.01670105 7 
318 614 936 2 1804.27272074 0.00000429 1 
319 333 938 2 435.31740344 0.00000492 1 
320 101 939 0 0.48567419 0.01091321 4 
321 107 939 0 0.21174614 0.01087332 4 
322 885 942 2 1355.20345085 0.00000443 1 
323 342 943 2 2234.31208773 0.00000482 1 
324 496 943 2 1549.74576823 0.00000138 1 
325 101 944 0 0.15377935 0.01295126 5 
326 211 944 2 517.99947060 0.00000483 5 
327 94 947 0 0.23772432 0.01696214 7 
328 101 947 0 0.16826262 0.01491745 6 
329 185 948 2 4684.28853993 0.00000504 1 
330 331 950 2 441.01409105 0.00000464 1 
331 52 952 2 536.29021765 0.00000429 1 
332 233 952 2 2268.43895358 0.00000158 1 
333 69 952 2 206.59995415 0.00000130 1 
334 87 953 0 0.13504795 0.01111828 4 
335 94 953 0 0.06505521 0.01526860 6 
336 226 953 0 0.08268323 0.02329845 10 
337 81 959 0 1.83528326 0.02473263 10 
338 87 959 0 1.29172246 0.01749216 7 
339 220 959 0 0.04883629 0.01130027 4 
340 226 959 0 0.12130941 0.01338771 5 
341 67 965 0 1.01368609 0.01349480 5 
342 81 965 0 0.31066014 0.01549961 6 
343 220 965 0 0.16483276 0.01960935 8 
344 954 967 2 3812.12918277 0.00000455 1 
345 466 970 2 2816.72485539 0.00000504 1 
346 237 974 2 429.47070065 0.00000484 1 
347 61 976 0 0.16803746 0.01767253 7 
348 67 976 0 0.05676300 0.00945652 3 
349 209 976 0 0.00780965 0.01152864 4 
350 185 977 2 1697.10453305 0.00000470 1 
351 845 978 2 2374.17890516 0.00000336 1 
352 864 981 2 602.23011292 0.00000387 1 
353 50 982 0 0.38354811 0.01168642 4 
354 61 982 0 0.27147698 0.01161513 4 
355 201 982 0 0.22200943 0.01166409 4 
356 203 982 0 0.10573284 0.02225571 9 
357 336 983 2 1775.25750882 0.00000482 1 
358 44 988 0 0.09550719 0.01180939 4 
359 50 988 0 0.05924873 0.01175659 4 
360 195 988 0 0.04319526 0.01599896 6 
361 201 988 0 0.02685916 0.01387068 5 
362 246 988 2 4344.23129054 0.00000488 5 
363 237 991 2 590.62208394 0.00000439 1 
364 328 993 2 364.09249786 0.00000444 1 
365 44 994 0 0.51683435 0.01828466 7 
366 189 994 0 0.29989154 0.02600326 10 
367 195 994 0 0.21957432 0.01399698 5 
368 285 995 2 2183.78499124 0.00000414 1 
369 32 1003 0 0.23901034 0.01422439 5 
370 178 1003 0 0.03356851 0.02634191 10 
371 183 1003 0 0.01433170 0.01636704 6 
372 560 1005 2 598.93232823 0.00000521 1 
373 188 1006 2 7991.85562656 0.00000467 1 
374 25 1008 0 1.23858172 0.01876620 7 
375 32 1008 0 0.53803958 0.01208204 4 
376 178 1008 0 0.34459610 0.01208671 4 
377 183 1008 0 0.22233868 0.01212577 4 
378 402 1009 2 1625.03509177 0.00000557 1 
379 25 1010 0 0.60236133 0.01219918 4 
380 32 1010 0 0.30591807 0.01431154 5 
381 172 1010 0 0.10368354 0.01664749 6 
382 178 1010 0 0.19279072 0.02674572 10 
383 605 1010 2 2149.06753495 0.00000456 10 
384 945 1012 2 1988.67898025 0.00000475 10 
385 754 1013 2 416.63056020 0.00000469 4 
386 19 1016 0 0.44047719 0.02096808 8 
387 166 1016 0 0.20189646 0.01217060 4 
388 172 1016 0 0.07393216 0.01438489 5 
389 906 1017 2 2128.84539627 0.00000537 1 
390 603 1018 2 3846.40337893 0.00000487 1 
391 926 1023 2 1980.41489629 0.00000543 1 
392 641 1024 2 1037.91081917 0.00000528 1 
393 656 1026 2 533.36434633 0.00000509 1 
394 151 1029 0 0.03533130 0.01475627 5 
395 157 1029 0 0.02672450 0.01235311 4 
396 163 1029 0 3.39703566 0.01234350 4 
397 166 1029 0 0.49353449 0.01233903 4 
398 330 1030 2 1616.96981648 0.00000475 1 
399 324 1033 2 1409.60160321 0.00000530 1 
400 320 1036 2 1516.54786643 0.00000485 1 
401 484 1037 2 343.48474890 0.00000571 1 
402 166 1042 2 2667.09385777 0.00000569 1 
403 613 1050 2 152.21102131 0.00000537 1 
404 59 1050 2 82.86895400 0.00000239 1 
405 468 1052 2 792.04322167 0.00000538 1 
406 679 1053 2 965.41364916 0.00000536 1 
407 273 1062 2 258.42090179 0.00000567 1 
408 82 1064 2 280.21634048 0.00000569 1 
409 15 1064 2 96.46965721 0.00000212 1 
410 363 1065 2 36.82244466 0.00000569 1 
411 637 1067 2 501.54268485 0.00000681 1 
412 335 1068 2 281.99742895 0.00000573 1 
413 1060 1073 2 855.04576067 0.00000665 1 
414 543 1082 2 80.33836958 0.00000505 1 
415 132 1084 0 4.21993706 0.01549524 5 
416 661 1090 2 441.14704249 0.00000622 1 
417 134 1092 2 845.65300017 0.00000560 1 
418 446 1094 2 318.77473341 0.00000536 1 
419 489 1094 2 1384.00561771 0.00000257 1 
420 165 1094 2 1346.83770297 0.00000229 1 
421 185 1095 2 449.93804531 0.00000505 1 
422 867 1096 2 475.99021037 0.00000466 1 
423 995 1103 2 1059.98122297 0.00000602 1 
424 643 1104 2 238.13982235 0.00000571 1 
425 496 1111 2 223.68228859 0.00000585 1 
426 937 1111 2 109.60904608 0.00000171 1 
427 38 1112 2 849.54724830 0.00000586 1 
428 362 1113 2 59.74034304 0.00000473 1 
429 741 1113 2 1008.35732617 0.00000255 1 
430 863 1115 2 885.75769684 0.00000590 1 
431 257 1121 2 169.77157203 0.00000613 1 
432 396 1130 2 283.03663102 0.00000585 1 
433 966 1132 2 78.90065204 0.00000521 1 
434 338 1132 2 137.32111428 0.00000270 1 
435 261 1136 2 123.90353764 0.00000641 1 
436 101 1138 0 0.63021658 0.01623020 5 
437 625 1140 2 209.97532944 0.00000556 1 
438 239 1141 2 1392.57498020 0.00000566 1 
439 209 1143 2 1014.83920169 0.00000587 1 
440 596 1143 2 2266.86687171 0.00000206 1 
441 107 1147 0 0.73708347 0.01383745 4 
442 114 1147 0 0.03971358 0.01123004 3 
443 107 1150 0 7.45683387 0.01382412 4 
444 114 1150 0 1.00561260 0.01129907 3 
445 98 1150 2 2024.54432566 0.00000490 3 
446 509 1151 2 100.50877529 0.00000495 1 
447 350 1152 2 2119.14799724 0.00000633 1 
448 805 1154 2 407.08430940 0.00000551 1 
449 691 1157 2 505.28129640 0.00000597 1 
450 114 1158 0 0.16899687 0.01148051 3 
451 121 1158 0 0.69099743 0.01385675 4 
452 1131 1158 2 2197.38728427 0.00000513 4 
453 93 1161 2 1146.46163884 0.00000620 1 
454 964 1162 2 1572.18189364 0.00000511 1 
455 121 1164 0 0.45182924 0.01655674 5 
456 126 1164 0 0.04418665 0.01397901 4 
457 443 1164 2 2250.88589768 0.00000441 4 
458 570 1167 2 3691.25214561 0.00000579 1 
459 108 1170 2 2951.47734478 0.00000607 1 
460 1122 1170 2 1495.52689804 0.00000222 1 
461 207 1171 2 1596.51902330 0.00000504 1 
462 114 1175 0 0.14266969 0.01417042 4 
463 121 1175 0 0.27324351 0.01410596 4 
464 923 1175 0 0.18719011 0.01413011 4 
465 929 1175 0 0.16073549 0.01410172 4 
466 1158 1175 0 0.00134797 0.01157376 3 
467 229 1176 2 1673.14373307 0.00000658 1 
468 237 1186 2 1130.40037110 0.00000591 1 
469 101 1188 0 0.32950319 0.01432691 4 
470 939 1188 0 0.55418798 0.01423295 4 
471 1138 1188 0 0.03006025 0.01172366 3 
472 1147 1188 0 0.04063922 0.01167697 3 
473 1150 1188 0 1.83245351 0.01428520 4 
474 129 1194 2 3030.16218550 0.00000601 1 
475 1162 1195 2 169.82386261 0.00000460 1 
476 696 1195 2 257.66954903 0.00000271 1 
477 266 1199 2 1199.54704892 0.00000539 1 
478 373 1199 2 474.27811858 0.00000237 1 
479 873 1200 2 299.55009582 0.00000513 1 
480 1174 1205 2 302.28073723 0.00000509 1 
481 610 1206 2 577.98359312 0.00000615 1 
482 1050 1210 0 0.00345523 0.01459412 4 
483 1061 1210 0 0.57363906 0.01715799 5 
484 1075 1210 0 0.23107861 0.01714069 5 
485 1084 1210 0 3.13555510 0.01725176 5 
486 1088 1210 0 0.59156319 0.01456198 4 
487 1093 1210 0 0.13111230 0.01986616 6 
488 1098 1210 0 0.04730346 0.01456350 4 
489 655 1213 2 855.11403937 0.00000545 1 
490 958 1213 2 1474.02225712 0.00000244 1 
491 333 1214 2 668.79585258 0.00000557 1 
492 37 1216 2 322.10749207 0.00000584 1 
493 410 1216 2 116.41633133 0.00000254 1 
494 157 1217 0 0.32750279 0.01475799 4 
495 163 1217 0 0.19904338 0.01482911 4 
496 1029 1217 0 0.01250493 0.01208541 3 
497 1044 1217 0 3.98258990 0.01483965 4 
498 1050 1217 0 4.97161000 0.01753700 5 
499 1165 1219 2 3431.77072237 0.00000502 1 
500 1045 1227 2 501.27453220 0.00000545 1 
501 367 1227 2 1628.69689136 0.00000320 1 
502 163 297 0 0.27920255 0.01564812 4 
503 189 400 0 2.09679271 0.01736391 4 
504 117 784 1 14.86282515 0.00000549 4 
505 150 816 0 10.38250075 0.02018680 6 
506 1056 1217 0 9.89198976 0.01753245 5 
