VERTEX2 0 0.00008246 -0.00000055 0.00000008
VERTEX2 1 0.00008246 -0.00000055 -0.00064192
VERTEX2 2 0.00008246 -0.00000055 -0.00117992
VERTEX2 3 0.00846807 -0.00074360 -0.00356213
VERTEX2 4 0.63596676 -0.01085253 -0.00744916
VERTEX2 5 0.68847690 -0.01134430 -0.09873758
VERTEX2 6 0.69045507 -0.01307378 -0.89602696
VERTEX2 7 0.68098610 0.01637738 -1.51008108
VERTEX2 8 0.68879412 0.04970677 -2.12213582
VERTEX2 9 0.71175783 0.06949517 -2.75868465
VERTEX2 10 0.72751122 0.07213763 2.91144420
VERTEX2 11 0.72751871 0.07212790 2.23875092
VERTEX2 12 0.72721573 0.08427856 1.59081801
VERTEX2 13 0.73585187 0.11237714 0.93287933
VERTEX2 14 0.76326668 0.13207456 0.32606939
VERTEX2 15 0.77253103 0.13281797 -0.19757698
VERTEX2 16 0.89258924 0.11055842 -0.22104850
VERTEX2 17 1.31998615 0.01110492 -0.25725531
VERTEX2 18 1.76942280 -0.10369471 -0.27224739
VERTEX2 19 2.22170513 -0.24601903 -0.32609486
VERTEX2 20 2.81756015 -0.44107190 -0.31950871
VERTEX2 21 3.42715649 -0.59720049 -0.20751061
VERTEX2 22 4.03277377 -0.74105629 -0.19025574
VERTEX2 23 4.66866054 -0.78862542 -0.08299964
VERTEX2 24 5.29539006 -0.86274875 -0.13990869
VERTEX2 25 5.91356035 -0.93189812 -0.13781668
VERTEX2 26 6.52030859 -1.03649036 -0.17836993
VERTEX2 27 7.13601405 -1.13198197 -0.16253240
VERTEX2 28 7.71743445 -1.23454371 -0.16696835
VERTEX2 29 8.09650965 -1.29453271 -0.13618422
VERTEX2 30 8.10036987 -1.29558413 -0.66804262
VERTEX2 31 8.19719778 -1.42715609 -0.93621844
VERTEX2 32 8.55883909 -1.93940150 -0.95463313
VERTEX2 33 8.91922561 -2.42223783 -0.90454256
VERTEX2 34 9.31075252 -2.89454161 -0.88414486
VERTEX2 35 9.71166608 -3.35966319 -0.85055137
VERTEX2 36 10.11866957 -3.82634627 -0.85975132
VERTEX2 37 10.37618835 -4.11834950 -0.85344091
VERTEX2 38 10.36005051 -4.09604566 -1.17695530
VERTEX2 39 10.35444716 -4.06931894 -1.34939839
VERTEX2 40 10.48529003 -4.61814602 -1.33293737
VERTEX2 41 10.62085286 -5.19210032 -1.36568204
VERTEX2 42 10.72983932 -5.72926444 -1.38908294
VERTEX2 43 10.82299002 -6.29799006 -1.42994308
VERTEX2 44 10.89965001 -6.86593332 -1.46751310
VERTEX2 45 10.94493041 -7.48502679 -1.52282172
VERTEX2 46 10.96634072 -8.10613187 -1.54198952
VERTEX2 47 10.97711064 -8.71914008 -1.58370680
VERTEX2 48 10.96438159 -9.34099397 -1.59006762
VERTEX2 49 10.94809666 -9.95877233 -1.64068128
VERTEX2 50 10.88655420 -10.54390854 -1.68494442
VERTEX2 51 10.82278185 -11.13931342 -1.71368709
VERTEX2 52 10.71730562 -11.72148340 -1.79002765
VERTEX2 53 10.61147550 -12.27001231 -1.77752215
VERTEX2 54 10.49357344 -12.77275014 -1.83942566
VERTEX2 55 10.50220799 -12.73386170 -1.83404303
VERTEX2 56 10.50257992 -12.73251088 -1.82350638
VERTEX2 57 10.35257733 -13.34111295 -1.83515281
VERTEX2 58 10.20006557 -13.93788658 -1.78918728
VERTEX2 59 10.06457792 -14.53429807 -1.81300721
VERTEX2 60 9.92448574 -15.14395926 -1.79108053
VERTEX2 61 9.77882328 -15.75414474 -1.84125058
VERTEX2 62 9.62224240 -16.31080060 -1.80086712
VERTEX2 63 9.46414123 -16.87209346 -1.83584555
VERTEX2 64 9.32291174 -17.42815964 -1.77193125
VERTEX2 65 9.18166964 -17.98628953 -1.82292792
VERTEX2 66 9.02319825 -18.56628131 -1.83116692
VERTEX2 67 8.85291646 -19.14954451 -1.82998876
VERTEX2 68 8.74035960 -19.58639253 -1.84618089
VERTEX2 69 8.74662353 -19.56687915 -2.00166104
VERTEX2 70 8.75151877 -19.55776577 -2.67570124
VERTEX2 71 8.77647838 -19.55662628 2.96515181
VERTEX2 72 8.79191609 -19.55898091 2.95578293
VERTEX2 73 8.80248497 -19.56172469 2.89096653
VERTEX2 74 8.80675010 -19.56466212 2.26948484
VERTEX2 75 8.81712495 -19.56885600 1.91734906
VERTEX2 76 8.80945937 -19.56013572 2.61157748
VERTEX2 77 8.80893958 -19.55988916 2.84470442
VERTEX2 78 8.52441528 -19.56768658 -3.10110767
VERTEX2 79 7.90274352 -19.60035868 -3.10626885
VERTEX2 80 7.26826924 -19.59253448 3.10248460
VERTEX2 81 6.64210144 -19.55968125 3.07653993
VERTEX2 82 6.04028519 -19.51125218 3.02234338
VERTEX2 83 5.46502721 -19.45464069 2.99900433
VERTEX2 84 4.91605862 -19.36462108 2.92144748
VERTEX2 85 4.37444000 -19.25449912 2.92931752
VERTEX2 86 3.76363600 -19.12580407 2.84055840
VERTEX2 87 3.40524777 -19.02882994 2.78694419
VERTEX2 88 3.05445457 -18.89490033 2.75731491
VERTEX2 89 3.06798313 -18.89564243 -3.12978041
VERTEX2 90 2.46620094 -18.89365142 3.12242130
VERTEX2 91 1.85383027 -18.88405549 -3.11159109
VERTEX2 92 1.25757640 -18.87478932 3.05596521
VERTEX2 93 0.64196642 -18.76757026 2.95513148
VERTEX2 94 0.03429182 -18.62624159 2.91207908
VERTEX2 95 -0.58334138 -18.53355320 3.05526992
VERTEX2 96 -1.19103664 -18.47772534 3.07957957
VERTEX2 97 -1.77789022 -18.41043931 3.00919837
VERTEX2 98 -2.36208401 -18.30561635 2.95139161
VERTEX2 99 -3.05348796 -18.17817486 2.99797292
VERTEX2 100 -3.60429122 -18.06819636 2.94595274
VERTEX2 101 -4.19692941 -18.00842193 3.04857793
VERTEX2 102 -4.79660055 -17.92498925 2.94266171
VERTEX2 103 -5.40163763 -17.80561852 3.03863709
VERTEX2 104 -6.01198871 -17.72442605 3.00491751
VERTEX2 105 -6.62248496 -17.65526248 3.05120012
VERTEX2 106 -7.22211937 -17.58007837 2.99599427
VERTEX2 107 -7.83669417 -17.47897820 2.99182220
VERTEX2 108 -8.28902298 -17.42546234 3.05294555
VERTEX2 109 -8.33485894 -17.41330380 2.60427931
VERTEX2 110 -8.35175747 -17.39541263 2.01273648
VERTEX2 111 -8.35102791 -17.31686449 1.50658151
VERTEX2 112 -8.31987687 -16.68565117 1.56085023
VERTEX2 113 -8.33075999 -16.06542594 1.60772502
VERTEX2 114 -8.35635390 -15.45343700 1.64435355
VERTEX2 115 -8.42134466 -14.79961401 1.70208626
VERTEX2 116 -8.52822422 -14.03577870 1.74385993
VERTEX2 117 -8.65386051 -13.41364631 1.83696369
VERTEX2 118 -8.65301123 -13.41680937 1.50436110
VERTEX2 119 -8.59324068 -12.93220542 1.45201219
VERTEX2 120 -8.53460070 -12.30913617 1.54311767
VERTEX2 121 -8.53738807 -11.71971025 1.61149787
VERTEX2 122 -8.56369093 -11.14460190 1.66764198
VERTEX2 123 -8.58539189 -10.97185620 1.65479635
VERTEX2 124 -8.49921137 -10.74222832 1.23198061
VERTEX2 125 -8.27824320 -10.15975216 1.22109750
VERTEX2 126 -8.14027908 -9.55321254 1.42773422
VERTEX2 127 -8.03932872 -8.94065381 1.42631869
VERTEX2 128 -7.95998688 -8.32338350 1.46286364
VERTEX2 129 -7.86968197 -7.70644927 1.43055906
VERTEX2 130 -7.79736487 -7.08314667 1.48313446
VERTEX2 131 -7.74653821 -6.46480237 1.57141902
VERTEX2 132 -7.72335175 -5.85483257 1.52154429
VERTEX2 133 -7.66906786 -5.28667169 1.48528289
VERTEX2 134 -7.60759606 -4.68966068 1.46775718
VERTEX2 135 -7.52136321 -4.12736032 1.44120538
VERTEX2 136 -7.44177080 -3.50889205 1.46056109
VERTEX2 137 -7.33990441 -2.89246876 1.41825978
VERTEX2 138 -7.25803490 -2.27847515 1.49801285
VERTEX2 139 -7.23488431 -1.65659162 1.56313462
VERTEX2 140 -7.25570505 -1.00981669 1.59350419
VERTEX2 141 -7.25454814 -0.37848591 1.54491590
VERTEX2 142 -7.24756565 0.26251325 1.54095162
VERTEX2 143 -7.15956750 0.89691196 1.43003923
VERTEX2 144 -7.11586423 1.26459275 1.44727930
VERTEX2 145 -7.11149697 1.27730707 0.94868255
VERTEX2 146 -7.11045553 1.28228904 0.35523051
VERTEX2 147 -7.06391905 1.27849526 -0.13078675
VERTEX2 148 -6.64198952 1.21520015 -0.16619034
VERTEX2 149 -6.01148953 1.11617964 -0.14084131
VERTEX2 150 -5.38722528 1.04630194 -0.12644102
VERTEX2 151 -4.72732221 0.98999499 -0.03981727
VERTEX2 152 -4.10327098 0.94886895 -0.10045216
VERTEX2 153 -3.47957986 0.91051636 -0.00670730
VERTEX2 154 -2.86159029 0.88432853 -0.07576911
VERTEX2 155 -2.23966037 0.84597779 -0.04187446
VERTEX2 156 -1.61556452 0.82694799 -0.01062418
VERTEX2 157 -1.05517843 0.80538670 -0.07436291
VERTEX2 158 -0.86032076 0.79040818 -0.04685379
VERTEX2 159 -0.85430876 0.78844337 0.94053060
VERTEX2 160 -0.84883138 0.79726400 1.97626977
VERTEX2 161 -0.87390260 0.73325284 2.69489750
VERTEX2 162 -0.84625899 0.73910982 -2.55183934
VERTEX2 163 -0.84648461 0.73802220 -1.55413392
VERTEX2 164 -0.91783244 0.82853857 -0.48839377
VERTEX2 165 -0.74284042 0.80950962 -0.08071537
VERTEX2 166 -0.04659107 0.75997189 -0.07899032
VERTEX2 167 0.57353841 0.70269533 -0.10744542
VERTEX2 168 1.16514215 0.64730652 -0.09452373
VERTEX2 169 1.75711796 0.57059389 -0.13117262
VERTEX2 170 2.34030488 0.49736740 -0.15149312
VERTEX2 171 2.89869681 0.39487883 -0.18984974
VERTEX2 172 3.52065866 0.28265089 -0.17581475
VERTEX2 173 4.14749517 0.15814094 -0.19815453
VERTEX2 174 4.76805905 0.04128595 -0.15784369
VERTEX2 175 5.38049675 -0.05155390 -0.18243534
VERTEX2 176 5.97494003 -0.17394701 -0.17277651
VERTEX2 177 6.59496924 -0.27917603 -0.20029509
VERTEX2 178 7.21141158 -0.42687848 -0.23924293
VERTEX2 179 7.61424623 -0.51308480 -0.18580635
VERTEX2 180 7.66408433 -0.52681928 -0.62765858
VERTEX2 181 8.10044753 -0.84580476 -0.67940713
VERTEX2 182 8.50215832 -1.20574236 -0.85341093
VERTEX2 183 8.84468917 -1.62575721 -0.91097673
VERTEX2 184 9.13711810 -2.07199672 -1.05790845
VERTEX2 185 9.40340035 -2.58207100 -1.15143058
VERTEX2 186 9.60550058 -3.11771020 -1.21924199
VERTEX2 187 9.78343729 -3.63110380 -1.24314383
VERTEX2 188 9.96584609 -4.16254459 -1.25024493
VERTEX2 189 10.14078200 -4.70010374 -1.27859229
VERTEX2 190 10.31296981 -5.30212838 -1.30696132
VERTEX2 191 10.47404438 -5.89705172 -1.33111707
VERTEX2 192 10.61797247 -6.49224574 -1.35934838
VERTEX2 193 10.73204476 -7.03847193 -1.41490786
VERTEX2 194 10.82239898 -7.60540215 -1.44149827
VERTEX2 195 10.89351667 -8.16741568 -1.46991145
VERTEX2 196 10.94929611 -8.79137011 -1.51127852
VERTEX2 197 10.97620425 -9.41211374 -1.53925402
VERTEX2 198 10.99014779 -10.03060923 -1.59786667
VERTEX2 199 10.95448019 -10.63641612 -1.65840937
VERTEX2 200 10.90060568 -11.23537957 -1.67961747
VERTEX2 201 10.82391982 -11.82873395 -1.73571188
VERTEX2 202 10.75426956 -12.32663734 -1.71514205
VERTEX2 203 10.64471824 -13.05228755 -1.76735288
VERTEX2 204 10.51581165 -13.62379707 -1.86897518
VERTEX2 205 10.33988226 -14.18069418 -1.87808749
VERTEX2 206 10.17942538 -14.72281761 -1.87583996
VERTEX2 207 10.01316585 -15.28467185 -1.85953638
VERTEX2 208 9.83234757 -15.88211193 -1.86872356
VERTEX2 209 9.66285097 -16.48128731 -1.83025388
VERTEX2 210 9.48879060 -17.08439029 -1.83847736
VERTEX2 211 9.32940063 -17.69142110 -1.83557514
VERTEX2 212 9.14856486 -18.26787048 -1.88834138
VERTEX2 213 8.94926771 -18.84808441 -1.90901837
VERTEX2 214 8.74541758 -19.41481649 -1.91270964
VERTEX2 215 8.62942901 -19.72874120 -1.94836710
VERTEX2 216 8.64489664 -19.70288088 -2.44669192
VERTEX2 217 8.66701222 -19.70073405 -2.98857045
VERTEX2 218 8.67409494 -19.70353017 -3.04474663
VERTEX2 219 8.10997200 -19.65351986 3.06980199
VERTEX2 220 7.51129086 -19.60325832 3.02991473
VERTEX2 221 6.88385932 -19.53122212 3.08073605
VERTEX2 222 6.27270443 -19.48320305 3.05547029
VERTEX2 223 5.66196641 -19.44849801 -3.13109670
VERTEX2 224 5.05121290 -19.44433052 3.12636975
VERTEX2 225 4.43702180 -19.43387438 -3.10708459
VERTEX2 226 3.82378979 -19.42271235 3.12699830
VERTEX2 227 3.18379745 -19.48661120 -2.99966479
VERTEX2 228 2.66251119 -19.46720564 2.92183996
VERTEX2 229 2.22952105 -19.42930659 3.04195321
VERTEX2 230 1.94772874 -19.41191657 3.01301529
VERTEX2 231 2.14589833 -19.43113953 3.08425186
VERTEX2 232 1.84364228 -19.29257949 2.65959477
VERTEX2 233 1.28781112 -19.03130005 2.76243532
VERTEX2 234 0.72812091 -18.80681976 2.71770653
VERTEX2 235 0.49423076 -18.70386508 2.71219213
VERTEX2 236 0.17392932 -18.70271838 3.11608608
VERTEX2 237 -0.44237640 -18.71200880 -3.09740008
VERTEX2 238 -1.06974595 -18.75518084 -3.12990175
VERTEX2 239 -1.69143334 -18.74660310 3.08584055
VERTEX2 240 -2.26366002 -18.62234494 2.86869182
VERTEX2 241 -2.80535307 -18.48543181 2.95479907
VERTEX2 242 -3.38335332 -18.41532594 2.99454749
VERTEX2 243 -3.97520271 -18.32935647 2.99415817
VERTEX2 244 -4.59320860 -18.27983479 3.06561336
VERTEX2 245 -5.20220073 -18.22722983 3.01145506
VERTEX2 246 -5.78851255 -18.13937329 2.93852623
VERTEX2 247 -6.38161219 -18.05367302 3.04412548
VERTEX2 248 -6.93184619 -18.02712675 3.07553866
VERTEX2 249 -6.87932544 -18.03550820 -3.01469734
VERTEX2 250 -6.87677178 -18.03542679 2.68102351
VERTEX2 251 -7.19452689 -17.69376781 2.25740392
VERTEX2 252 -7.54505871 -17.27191025 2.26585152
VERTEX2 253 -7.91147650 -16.82421326 2.25478496
VERTEX2 254 -8.27034826 -16.36579704 2.21323556
VERTEX2 255 -8.34193428 -16.27298194 2.29706118
VERTEX2 256 -8.34411058 -16.19600865 1.82085120
VERTEX2 257 -8.39128847 -15.73262441 1.68465773
VERTEX2 258 -8.46814936 -15.14707755 1.76546529
VERTEX2 259 -8.60228814 -14.55338423 1.80563723
VERTEX2 260 -8.72691262 -14.00400870 1.79685546
VERTEX2 261 -8.72507013 -13.97874812 1.48472937
VERTEX2 262 -8.65469086 -13.34123683 1.49157201
VERTEX2 263 -8.60558812 -12.73551283 1.50502173
VERTEX2 264 -8.58340868 -12.14306928 1.60207935
VERTEX2 265 -8.60688485 -11.55125979 1.62225735
VERTEX2 266 -8.55253712 -10.98407337 1.49293090
VERTEX2 267 -8.49236997 -10.24260381 1.46385956
VERTEX2 268 -8.35428095 -9.64816454 1.35417898
VERTEX2 269 -8.22846228 -9.04247217 1.38438062
VERTEX2 270 -8.15083309 -8.43071276 1.49800928
VERTEX2 271 -8.05033506 -7.82100962 1.38710894
VERTEX2 272 -7.95891490 -7.20629739 1.45194197
VERTEX2 273 -7.96078447 -6.58449422 1.66427136
VERTEX2 274 -8.02048239 -5.97255076 1.68838188
VERTEX2 275 -8.00116324 -5.37183182 1.51706775
VERTEX2 276 -7.98743405 -4.78013859 1.63141455
VERTEX2 277 -8.02645695 -4.22909712 1.60568757
VERTEX2 278 -7.97658146 -3.60612504 1.51670641
VERTEX2 279 -7.92911909 -2.97638787 1.46144430
VERTEX2 280 -7.85374685 -2.35262515 1.46357698
VERTEX2 281 -7.75624124 -1.72749089 1.36323041
VERTEX2 282 -7.62998399 -1.10937768 1.40318753
VERTEX2 283 -7.53617472 -0.48414959 1.39545354
VERTEX2 284 -7.41785201 0.13010931 1.42272353
VERTEX2 285 -7.34260570 0.77344008 1.44396462
VERTEX2 286 -7.26860357 1.38876872 1.49759013
VERTEX2 287 -7.26545700 1.43457963 1.39322674
VERTEX2 288 -7.26458598 1.43599962 0.78481980
VERTEX2 289 -7.26561326 1.43533084 0.19159744
VERTEX2 290 -6.82715271 1.42059107 -0.03333961
VERTEX2 291 -6.20636402 1.40417128 -0.01946181
VERTEX2 292 -5.59196241 1.37526145 -0.07400925
VERTEX2 293 -4.96878116 1.32071933 -0.09693833
VERTEX2 294 -4.34911096 1.25926931 -0.09608633
VERTEX2 295 -3.72887488 1.16995843 -0.20825504
VERTEX2 296 -3.11359394 1.01628997 -0.25334137
VERTEX2 297 -2.50045458 0.85588796 -0.26471491
VERTEX2 298 -1.89174474 0.69309807 -0.26521360
VERTEX2 299 -1.31866126 0.52841860 -0.20370323
VERTEX2 300 -0.73332683 0.43483774 -0.16118800
VERTEX2 301 -0.17240723 0.32785227 -0.22000311
VERTEX2 302 0.12879032 0.25908706 -0.24057147
VERTEX2 303 0.11145054 0.26249691 -0.23610527
VERTEX2 304 0.61083576 0.14082477 -0.22621092
VERTEX2 305 1.22482139 0.08911648 -0.04183454
VERTEX2 306 1.85285518 0.07163558 -0.06036579
VERTEX2 307 2.48582525 0.01675260 -0.09745813
VERTEX2 308 3.10338417 -0.05254503 -0.15348416
VERTEX2 309 3.74003434 -0.12065980 -0.06070002
VERTEX2 310 4.36982385 -0.15820586 -0.09672456
VERTEX2 311 4.65295278 -0.18777883 0.07814310
VERTEX2 312 4.65329085 -0.18752837 1.06555051
VERTEX2 313 4.66044750 0.03360198 1.56105960
VERTEX2 314 4.64802886 0.66756263 1.60079433
VERTEX2 315 4.62758838 1.29415417 1.59760341
VERTEX2 316 4.59422405 1.94352743 1.64862848
VERTEX2 317 4.54055012 2.58094450 1.65846024
VERTEX2 318 4.44970403 3.21362368 1.75290495
VERTEX2 319 4.37510820 3.55546183 1.82418336
VERTEX2 320 4.37699850 3.56112270 2.79250673
VERTEX2 321 4.36977225 3.55809436 -2.45147267
VERTEX2 322 4.36658330 3.55177523 -1.45668908
VERTEX2 323 4.37641489 3.54210599 -0.46569091
VERTEX2 324 4.37789227 3.54161946 0.19318699
VERTEX2 325 4.37874557 3.54167904 -0.33537106
VERTEX2 326 4.39316337 3.53055161 -0.93155104
VERTEX2 327 4.39612290 3.51563121 -1.55592811
VERTEX2 328 4.37095867 2.87896172 -1.60287037
VERTEX2 329 4.33869077 2.23900652 -1.66098472
VERTEX2 330 4.27240229 1.61021862 -1.68299393
VERTEX2 331 4.20491887 0.98617394 -1.70007858
VERTEX2 332 4.11336261 0.37707623 -1.72125852
VERTEX2 333 4.08883115 0.22554939 -1.65908478
VERTEX2 334 4.10823383 0.22939256 -0.84543396
VERTEX2 335 4.12666121 0.22391330 0.14447733
VERTEX2 336 4.15437751 0.23351296 1.08366329
VERTEX2 337 4.16480303 0.29643710 2.06207181
VERTEX2 338 4.16218113 0.29826375 3.05364490
VERTEX2 339 4.17068078 0.30349816 -2.18071613
VERTEX2 340 4.17012698 0.30650198 -1.16197908
VERTEX2 341 4.28324733 0.23745966 -0.52940569
VERTEX2 342 4.85433424 -0.07091003 -0.42781059
VERTEX2 343 5.41956243 -0.27248382 -0.29618878
VERTEX2 344 5.99514827 -0.45620848 -0.30555271
VERTEX2 345 6.22927614 -0.52682270 -0.33248778
VERTEX2 346 6.21199107 -0.52103366 -0.97836176
VERTEX2 347 6.21386246 -0.61133261 -1.53578908
VERTEX2 348 6.22750016 -1.20391805 -1.55196706
VERTEX2 349 6.22067762 -1.82543360 -1.59165320
VERTEX2 350 6.20155044 -2.61551936 -1.61073727
VERTEX2 351 6.18535870 -2.88907734 -1.63899917
VERTEX2 352 6.18353664 -2.89747248 -1.92567766
VERTEX2 353 6.17215318 -2.91124441 -2.58838478
VERTEX2 354 6.15905488 -2.91491151 3.09392785
VERTEX2 355 6.13944755 -2.91409220 2.37584882
VERTEX2 356 6.13370865 -2.90381385 1.80302100
VERTEX2 357 6.13650664 -2.88765487 1.15261515
VERTEX2 358 6.13791960 -2.88569867 0.53970975
VERTEX2 359 6.12686963 -2.89036975 -0.07176853
VERTEX2 360 6.11282046 -2.88751869 -0.24671865
VERTEX2 361 6.10484791 -2.88956643 0.67619875
VERTEX2 362 6.18972788 -2.66218551 1.21214932
VERTEX2 363 6.29309556 -2.39543822 1.20579892
VERTEX2 364 6.22687565 -2.06507639 1.82195998
VERTEX2 365 6.17423553 -1.78165068 1.32617802
VERTEX2 366 6.29227809 -1.64975349 0.77480219
VERTEX2 367 6.75121151 -1.20769783 0.77802086
VERTEX2 368 7.20812556 -0.77522251 0.73054017
VERTEX2 369 7.22673774 -0.75294276 0.47943201
VERTEX2 370 7.25557920 -0.74844378 -0.10717062
VERTEX2 371 7.26235248 -0.75198405 -0.65277011
VERTEX2 372 7.68985940 -1.10236706 -0.68049214
VERTEX2 373 8.16105090 -1.46925111 -0.67856203
VERTEX2 374 8.62922599 -1.86712410 -0.74053323
VERTEX2 375 8.98891487 -2.19051958 -0.77158629
VERTEX2 376 9.00197289 -2.19860154 -0.07941833
VERTEX2 377 9.04989402 -2.16490419 0.61299083
VERTEX2 378 9.58516116 -1.77222819 0.66560463
VERTEX2 379 10.06551211 -1.34681637 0.74874399
VERTEX2 380 10.50698700 -0.88487452 0.86630701
VERTEX2 381 10.65338063 -0.70724336 1.01433324
VERTEX2 382 10.65723227 -0.70046693 2.06053018
VERTEX2 383 10.65641368 -0.69997330 3.04869490
VERTEX2 384 10.65594764 -0.70039628 -2.26948711
VERTEX2 385 10.65425748 -0.70314504 -1.23847669
VERTEX2 386 10.76017559 -0.84182879 -1.01323646
VERTEX2 387 11.21817540 -1.26855633 -0.68115319
VERTEX2 388 11.71364070 -1.65284608 -0.67143344
VERTEX2 389 12.18344200 -2.05661960 -0.75293838
VERTEX2 390 12.22818124 -2.09698045 -0.27646183
VERTEX2 391 12.08317732 -2.09219920 0.10459677
VERTEX2 392 12.07346797 -2.09252454 1.14808501
VERTEX2 393 12.12427857 -1.76062605 2.02384058
VERTEX2 394 12.10768659 -1.74616746 3.01783015
VERTEX2 395 12.34305837 -1.70706708 -2.92781473
VERTEX2 396 12.33762746 -1.70791185 -2.92771030
VERTEX2 397 12.32527957 -1.70682645 -2.93868613
VERTEX2 398 12.31796105 -1.70980958 -2.74146400
VERTEX2 399 12.21824349 -1.78575165 -2.44292406
VERTEX2 400 11.71793801 -2.20944617 -2.39288860
VERTEX2 401 11.25014809 -2.61159847 -2.48576961
VERTEX2 402 10.69817307 -2.89163668 -2.75358293
VERTEX2 403 10.13383610 -3.11682937 -2.78847825
VERTEX2 404 9.59632477 -3.29779201 -2.86848031
VERTEX2 405 9.61674138 -3.28836516 -2.33659688
VERTEX2 406 9.62056462 -3.26770194 -1.36162442
VERTEX2 407 9.73516861 -3.60828433 -1.23477108
VERTEX2 408 9.93205813 -4.18941822 -1.27388870
VERTEX2 409 10.01017536 -4.47225702 -1.37482803
VERTEX2 410 10.01058336 -4.46443784 -2.00567231
VERTEX2 411 10.02322601 -4.44304516 -2.59824554
VERTEX2 412 9.52312816 -4.63070429 -2.80286932
VERTEX2 413 8.94079342 -4.81446299 -2.88381504
VERTEX2 414 8.35334447 -4.98753463 -2.78154773
VERTEX2 415 7.75126613 -5.20743438 -2.77513530
VERTEX2 416 7.47033356 -5.32365205 -2.83011116
VERTEX2 417 7.18106898 -5.30026952 3.02908834
VERTEX2 418 6.74547428 -5.24562779 2.98420371
VERTEX2 419 6.75503761 -5.24370659 -2.86745014
VERTEX2 420 6.81779497 -5.21778596 -2.65090137
VERTEX2 421 6.82859184 -5.20153451 -1.68218567
VERTEX2 422 6.83380061 -5.19467922 -0.44159242
VERTEX2 423 6.83839420 -5.19525284 -0.09549399
VERTEX2 424 6.83227473 -5.19458337 -0.09425290
VERTEX2 425 6.82796708 -5.19685135 -0.08163396
VERTEX2 426 6.82188222 -5.19626796 -0.08987135
VERTEX2 427 6.84825799 -5.19840507 -0.08587714
VERTEX2 428 7.50375078 -5.23754946 -0.09057364
VERTEX2 429 8.14030356 -5.30373307 -0.13057847
VERTEX2 430 8.47387253 -5.35274527 -0.17592332
VERTEX2 431 8.44398691 -5.34833004 -0.12207169
VERTEX2 432 8.45014684 -5.35069671 -0.74936461
VERTEX2 433 8.45479910 -5.35738150 -1.42198302
VERTEX2 434 8.40706244 -5.89845544 -1.64766950
VERTEX2 435 8.36290904 -6.54335561 -1.67420374
VERTEX2 436 8.27371085 -7.18506407 -1.68125941
VERTEX2 437 8.21101916 -7.83694878 -1.67156925
VERTEX2 438 8.15321398 -8.29981093 -1.70205959
VERTEX2 439 8.15266526 -8.30173549 -2.13790260
VERTEX2 440 8.16148527 -8.29500539 -2.78086881
VERTEX2 441 8.17795045 -8.29365422 2.88046593
VERTEX2 442 8.18291742 -8.29649785 2.25125987
VERTEX2 443 8.18279472 -8.29342097 1.68453383
VERTEX2 444 8.18889993 -8.26450065 1.09350485
VERTEX2 445 8.19487838 -8.25903826 0.43726990
VERTEX2 446 8.19311011 -8.26008429 0.63995780
VERTEX2 447 8.20163219 -8.24452592 1.27447699
VERTEX2 448 8.36307519 -7.63246747 1.29262692
VERTEX2 449 8.50767579 -7.00543737 1.39469529
VERTEX2 450 8.61357398 -6.37673911 1.40895606
VERTEX2 451 8.67493888 -5.91333676 1.45206795
VERTEX2 452 8.67442639 -5.91814633 1.07491254
VERTEX2 453 8.66738855 -5.93034896 0.45403254
VERTEX2 454 8.92242386 -5.91552831 0.03293982
VERTEX2 455 9.50895503 -5.90106265 0.01216742
VERTEX2 456 10.13996722 -5.90720863 -0.05223987
VERTEX2 457 10.49204455 -5.93554737 -0.13977547
VERTEX2 458 10.48834065 -5.93362768 -0.78528409
VERTEX2 459 10.47930272 -5.89427001 -1.39312634
VERTEX2 460 10.45243899 -6.29076635 -1.64969619
VERTEX2 461 10.37473442 -6.90122475 -1.73740471
VERTEX2 462 10.28034215 -7.40437889 -1.77719979
VERTEX2 463 10.29414668 -7.37830484 -0.93626131
VERTEX2 464 10.54834596 -7.45456022 -0.25760629
VERTEX2 465 11.13035934 -7.59560789 -0.24967259
VERTEX2 466 11.68171352 -7.75437757 -0.30511897
VERTEX2 467 12.24902389 -7.94337396 -0.34837718
VERTEX2 468 12.85867829 -8.16880481 -0.38321127
VERTEX2 469 13.44047730 -8.43900746 -0.46545274
VERTEX2 470 13.88552524 -8.65707749 -0.44595076
VERTEX2 471 13.88751053 -8.65818697 -0.64487570
VERTEX2 472 13.90463279 -8.68266439 -1.27561571
VERTEX2 473 13.90626094 -8.69110599 -1.91426239
VERTEX2 474 13.90322736 -8.69484704 -2.54367806
VERTEX2 475 13.90366129 -8.69478381 -3.11631897
VERTEX2 476 13.90572598 -8.69507447 2.51720501
VERTEX2 477 13.90933770 -8.70225512 1.95748716
VERTEX2 478 13.90982041 -8.70922357 1.33022181
VERTEX2 479 13.91029895 -8.70813064 0.87575347
VERTEX2 480 13.91214982 -8.70406923 1.43758526
VERTEX2 481 13.90913554 -8.69054976 2.43968618
VERTEX2 482 13.91697871 -8.69377319 2.77581927
VERTEX2 483 13.92705244 -8.69755659 2.77042478
VERTEX2 484 13.51172261 -8.53951185 2.80549160
VERTEX2 485 12.92060595 -8.34679307 2.80287461
VERTEX2 486 12.32676620 -8.12993887 2.81212049
VERTEX2 487 11.72450456 -7.94591960 2.84012875
VERTEX2 488 11.10809321 -7.75622555 2.87585289
VERTEX2 489 10.63658333 -7.64293051 2.90581511
VERTEX2 490 10.64378660 -7.64231809 -2.89331078
VERTEX2 491 10.65225832 -7.63142214 -1.95761272
VERTEX2 492 10.63303245 -7.85718585 -1.65476316
VERTEX2 493 10.56444825 -8.45651004 -1.71048753
VERTEX2 494 10.47015290 -9.06253611 -1.77210581
VERTEX2 495 10.39474194 -9.67891759 -1.66477029
VERTEX2 496 10.34444853 -10.29825366 -1.54701025
VERTEX2 497 10.33008065 -10.91526519 -1.63304919
VERTEX2 498 10.25426119 -11.53314787 -1.73491913
VERTEX2 499 10.11692315 -12.15570955 -1.75155699
VERTEX2 500 10.16484194 -12.71985661 -1.42274917
VERTEX2 501 10.23126505 -13.29526336 -1.49495216
VERTEX2 502 10.24589555 -13.98609203 -1.57954482
VERTEX2 503 10.23553711 -14.42809250 -1.59660461
VERTEX2 504 10.24301742 -14.40787622 -0.74107766
VERTEX2 505 10.47877705 -14.43824793 -0.11969275
VERTEX2 506 11.06808599 -14.52859652 -0.27237757
VERTEX2 507 11.64466508 -14.70661936 -0.35105559
VERTEX2 508 12.20830245 -14.92599094 -0.36444358
VERTEX2 509 12.81525565 -15.16460274 -0.42266651
VERTEX2 510 13.16474906 -15.32816690 -0.43640164
VERTEX2 511 13.16318676 -15.30984729 0.43977030
VERTEX2 512 13.18659901 -15.26256392 1.63772019
VERTEX2 513 13.18258887 -15.25009714 2.59360242
VERTEX2 514 13.11461236 -15.22984325 2.81999878
VERTEX2 515 12.50647836 -15.03894351 2.82119127
VERTEX2 516 11.92398974 -14.83534883 2.83718559
VERTEX2 517 11.33295590 -14.67768925 2.86548464
VERTEX2 518 10.75015882 -14.51956325 2.89016218
VERTEX2 519 10.23732473 -14.38975716 2.87475754
VERTEX2 520 10.07763153 -14.34563985 -3.00939610
VERTEX2 521 10.09652638 -14.32538550 -2.00404252
VERTEX2 522 10.02446097 -14.72975275 -1.73926222
VERTEX2 523 9.92683874 -15.34397894 -1.74633750
VERTEX2 524 9.81765017 -15.91162385 -1.78797595
VERTEX2 525 9.70885462 -16.44744620 -1.76409630
VERTEX2 526 9.58776084 -17.00976358 -1.82267693
VERTEX2 527 9.43373612 -17.58849073 -1.85748590
VERTEX2 528 9.24279883 -18.16156057 -1.93322385
VERTEX2 529 9.02432040 -18.75997875 -1.96140995
VERTEX2 530 8.77099983 -19.35553375 -1.99125277
VERTEX2 531 8.49581924 -19.92625559 -2.07083471
VERTEX2 532 8.39664023 -20.10954817 -2.02000363
VERTEX2 533 8.39441589 -20.09806629 -1.02079784
VERTEX2 534 8.38432294 -20.09123142 -0.35415277
VERTEX2 535 8.37839808 -20.08853558 -0.35434317
VERTEX2 536 8.72293120 -20.17376035 -0.22337344
VERTEX2 537 9.31672259 -20.32634870 -0.28110892
VERTEX2 538 9.86791966 -20.49986904 -0.30787028
VERTEX2 539 10.46735178 -20.71357836 -0.37220323
VERTEX2 540 11.04654228 -20.97107468 -0.46457840
VERTEX2 541 11.62584134 -21.20300289 -0.30161348
VERTEX2 542 12.25126603 -21.34988723 -0.24542030
VERTEX2 543 12.36900095 -21.38043279 -0.27461699
VERTEX2 544 12.38720557 -21.37870385 0.36363388
VERTEX2 545 12.40349563 -21.34945783 1.43202218
VERTEX2 546 12.42586602 -21.40868947 2.26067784
VERTEX2 547 12.43148634 -21.40832600 -2.99883810
VERTEX2 548 12.44970712 -21.39666853 -2.07797867
VERTEX2 549 12.45256632 -21.37734913 -1.27263046
VERTEX2 550 12.45120105 -21.35195323 -1.75318523
VERTEX2 551 12.46535820 -21.32358405 -2.38054700
VERTEX2 552 12.49945606 -21.30685147 -3.01401501
VERTEX2 553 12.37489847 -21.25830821 2.69104767
VERTEX2 554 11.79590993 -20.97457020 2.65528528
VERTEX2 555 11.22880953 -20.69973616 2.74403450
VERTEX2 556 10.63709950 -20.48040561 2.87900975
VERTEX2 557 10.04006943 -20.30504222 2.83783681
VERTEX2 558 9.46712046 -20.14374520 2.91892861
VERTEX2 559 9.47786577 -20.14746949 2.51187935
VERTEX2 560 9.47218632 -20.14035501 2.01083626
VERTEX2 561 9.44922543 -20.11770530 2.51576913
VERTEX2 562 9.27340602 -20.11624365 -3.12419270
VERTEX2 563 8.70592501 -20.03314561 2.96700717
VERTEX2 564 8.10432455 -19.93634189 3.01540830
VERTEX2 565 7.51289707 -19.85947525 2.95765458
VERTEX2 566 7.57476404 -19.87934968 -2.54202329
VERTEX2 567 7.48430843 -19.88517511 -1.74900244
VERTEX2 568 7.42922720 -20.39061136 -1.68426779
VERTEX2 569 7.37243237 -20.96572892 -1.72334764
VERTEX2 570 7.29817635 -21.54588565 -1.71854888
VERTEX2 571 7.24270195 -21.89802336 -1.76569948
VERTEX2 572 7.20755408 -21.92323944 -2.00882712
VERTEX2 573 7.17199599 -22.00197479 -1.73242544
VERTEX2 574 7.19018501 -22.02799636 -0.79272391
VERTEX2 575 7.35100557 -22.08196078 0.12947845
VERTEX2 576 7.35167909 -22.08250287 1.15743468
VERTEX2 577 7.34515653 -22.06488776 2.12847355
VERTEX2 578 7.33575777 -22.03217600 1.76380686
VERTEX2 579 7.21642937 -21.37809927 1.77858928
VERTEX2 580 7.06024712 -20.73632249 1.85349272
VERTEX2 581 6.87265399 -20.11438522 1.89587910
VERTEX2 582 6.65778727 -19.50152180 1.93904721
VERTEX2 583 6.53210529 -19.19594633 2.01846527
VERTEX2 584 6.52877579 -19.18934353 2.86245906
VERTEX2 585 5.95432040 -19.04628939 2.98093048
VERTEX2 586 5.36899472 -18.96795446 3.07867313
VERTEX2 587 4.75811412 -18.95226241 3.10425665
VERTEX2 588 4.13641432 -18.92174615 3.10889741
VERTEX2 589 3.62025967 -18.94012554 -3.09940575
VERTEX2 590 3.06813248 -18.97935646 -3.03074513
VERTEX2 591 2.52653371 -19.05357416 -3.03269507
VERTEX2 592 1.97583756 -19.12311168 -3.03546015
VERTEX2 593 1.80255967 -19.14340488 -2.83044791
VERTEX2 594 1.84458346 -19.09884681 -1.90827467
VERTEX2 595 1.72735160 -19.70625854 -1.67562890
VERTEX2 596 1.67057857 -20.33136238 -1.69889501
VERTEX2 597 1.57430864 -21.00648304 -1.73910842
VERTEX2 598 1.46648591 -21.60616548 -1.78107791
VERTEX2 599 1.37560831 -21.98228437 -1.84735806
VERTEX2 600 1.37568058 -21.99783664 -1.04101817
VERTEX2 601 1.41885933 -22.02489925 -0.02316724
VERTEX2 602 1.45838218 -22.00935994 0.99055838
VERTEX2 603 1.42587104 -21.77408032 1.76299818
VERTEX2 604 1.37117616 -21.16359171 1.51880806
VERTEX2 605 1.38562154 -20.51742955 1.60113085
VERTEX2 606 1.35142878 -19.87599754 1.64301096
VERTEX2 607 1.36791756 -19.29263588 1.56177784
VERTEX2 608 1.35869298 -18.91294095 1.60606436
VERTEX2 609 1.35613766 -18.89695488 1.94207982
VERTEX2 610 1.34910354 -18.89433009 2.87411417
VERTEX2 611 0.76087055 -18.73864387 2.87772008
VERTEX2 612 0.29512385 -18.60049032 2.88117737
VERTEX2 613 0.32960041 -18.61140010 -2.93602900
VERTEX2 614 0.34228545 -18.60195501 -1.89666211
VERTEX2 615 0.35078280 -19.08234323 -1.59137710
VERTEX2 616 0.35269687 -19.69904468 -1.64206903
VERTEX2 617 0.20954805 -20.30506037 -1.85841536
VERTEX2 618 0.03531383 -20.91337848 -1.84774419
VERTEX2 619 -0.13014947 -21.48727816 -1.84859190
VERTEX2 620 -0.31814639 -22.06449564 -1.94399491
VERTEX2 621 -0.19034085 -21.73943840 -1.99444511
VERTEX2 622 -0.06900741 -21.48307651 -2.06833216
VERTEX2 623 -0.06514739 -21.47790510 -2.60552576
VERTEX2 624 -0.07732376 -21.47772560 3.03491891
VERTEX2 625 -0.10271886 -21.46731526 2.37623730
VERTEX2 626 -0.13159399 -21.43380819 1.75943453
VERTEX2 627 -0.05608493 -21.05804911 1.34951133
VERTEX2 628 0.12715211 -20.42800514 1.24900884
VERTEX2 629 0.30310011 -19.79720926 1.32033622
VERTEX2 630 0.43240044 -19.18601127 1.40560064
VERTEX2 631 0.50771265 -18.65262463 1.42537271
VERTEX2 632 0.51125803 -18.63223317 2.10036555
VERTEX2 633 0.42485218 -18.62593266 -3.09838830
VERTEX2 634 -0.23929607 -18.65875731 -3.07121745
VERTEX2 635 -0.88890144 -18.66553383 3.07666769
VERTEX2 636 -1.52664451 -18.63317216 3.05886250
VERTEX2 637 -2.15620501 -18.55449020 2.95887592
VERTEX2 638 -2.53690964 -18.47407123 2.92946009
VERTEX2 639 -3.14355623 -18.36811047 3.00958455
VERTEX2 640 -3.75423546 -18.25584055 2.94142976
VERTEX2 641 -4.35021147 -18.14184446 2.93282298
VERTEX2 642 -4.91402762 -18.00391734 2.88702646
VERTEX2 643 -5.39067779 -17.86447603 2.81934409
VERTEX2 644 -5.39405695 -17.86520456 -2.70737515
VERTEX2 645 -5.43357766 -18.00734641 -1.92878968
VERTEX2 646 -5.57416942 -18.60988893 -1.63327218
VERTEX2 647 -5.53597531 -19.24641865 -1.34426675
VERTEX2 648 -5.31966542 -19.86726741 -1.17785367
VERTEX2 649 -5.15209759 -20.46120589 -1.51528286
VERTEX2 650 -5.25640248 -21.08305166 -1.77249456
VERTEX2 651 -5.27414409 -21.22245265 -0.97275218
VERTEX2 652 -5.21487812 -21.24958281 0.05271067
VERTEX2 653 -5.16579111 -21.20605675 1.08355577
VERTEX2 654 -5.17305536 -20.91044258 1.59695770
VERTEX2 655 -5.18041809 -20.35815550 1.59203447
VERTEX2 656 -5.17617504 -19.76215850 1.57927559
VERTEX2 657 -5.27688201 -19.16726752 1.85501118
VERTEX2 658 -5.46090337 -18.55558341 1.84759546
VERTEX2 659 -5.57069137 -18.06772145 1.77616798
VERTEX2 660 -5.57247659 -18.05845179 2.37567835
VERTEX2 661 -5.74375437 -18.03825658 3.02823600
VERTEX2 662 -6.33655231 -17.97433996 3.09772118
VERTEX2 663 -6.92555887 -17.98418988 -3.08460700
VERTEX2 664 -6.93070826 -17.98283782 -2.56303095
VERTEX2 665 -6.94802657 -18.08581444 -1.72699673
VERTEX2 666 -7.02545004 -18.69918507 -1.68968386
VERTEX2 667 -7.08771056 -19.27058317 -1.68490653
VERTEX2 668 -7.15652848 -19.86937925 -1.65896874
VERTEX2 669 -7.20982970 -20.49354140 -1.68406333
VERTEX2 670 -7.31394619 -21.10950905 -1.74350232
VERTEX2 671 -7.36362009 -21.40082476 -1.68848195
VERTEX2 672 -7.25724983 -20.82010948 -1.77755458
VERTEX2 673 -7.18885349 -20.55321371 -1.90806499
VERTEX2 674 -7.17544517 -20.53927394 -2.55611013
VERTEX2 675 -7.15172170 -20.53443955 3.11854662
VERTEX2 676 -7.14414095 -20.53894587 2.49475162
VERTEX2 677 -7.14001850 -20.54473833 1.87845781
VERTEX2 678 -7.10948215 -20.31818308 1.43217902
VERTEX2 679 -7.03968958 -19.73516603 1.49459694
VERTEX2 680 -7.06332342 -19.28536997 1.83887074
VERTEX2 681 -7.20982498 -18.69228734 1.81102620
VERTEX2 682 -7.37608460 -18.08449247 1.85835862
VERTEX2 683 -7.46549284 -17.80119352 2.01709729
VERTEX2 684 -7.41401507 -17.85492262 3.09489424
VERTEX2 685 -7.80751866 -18.00608774 -2.74536016
VERTEX2 686 -8.24410523 -18.13334706 -2.89003696
VERTEX2 687 -8.82824312 -18.27345827 -2.92537108
VERTEX2 688 -9.41540100 -18.38296353 -2.93742993
VERTEX2 689 -9.97465365 -18.51250840 -2.90956512
VERTEX2 690 -10.50587231 -18.67210170 -2.83516861
VERTEX2 691 -10.89575891 -18.79605190 -2.86298742
VERTEX2 692 -10.87924225 -18.78896979 -2.32817497
VERTEX2 693 -10.85887650 -18.85601484 -1.28673569
VERTEX2 694 -10.83736537 -18.92276608 -0.45044449
VERTEX2 695 -10.81722706 -18.91726951 0.35033858
VERTEX2 696 -10.80848924 -18.91166361 1.37681097
VERTEX2 697 -10.82116455 -18.95197895 1.12398335
VERTEX2 698 -10.49476736 -18.74948621 0.46948027
VERTEX2 699 -9.93926632 -18.44691996 0.58358315
VERTEX2 700 -9.43244309 -18.09584372 0.63715293
VERTEX2 701 -9.00422066 -17.74373137 0.69634225
VERTEX2 702 -8.53496227 -17.44056581 0.58103829
VERTEX2 703 -8.03238433 -17.11643136 0.61514255
VERTEX2 704 -7.54703996 -16.74715715 0.63315024
VERTEX2 705 -7.03011535 -16.32992712 0.70324995
VERTEX2 706 -6.59836905 -16.01697738 0.43501777
VERTEX2 707 -6.57709707 -16.01601989 -0.08387000
VERTEX2 708 -6.56652218 -16.02224570 -0.72258597
VERTEX2 709 -6.60536738 -15.97973226 -1.05478402
VERTEX2 710 -6.60924243 -15.96944808 -1.61609870
VERTEX2 711 -6.59916926 -15.97869960 -2.21304500
VERTEX2 712 -6.57920798 -15.96367555 -2.77368855
VERTEX2 713 -7.05245453 -16.00994777 -3.05915045
VERTEX2 714 -7.60519687 -15.97993242 3.02641827
VERTEX2 715 -8.22886956 -15.93744705 3.13001326
VERTEX2 716 -8.86281734 -15.90961718 2.99190549
VERTEX2 717 -9.48343546 -15.83597524 3.07659581
VERTEX2 718 -10.24441996 -15.71019395 2.90114665
VERTEX2 719 -10.86016327 -15.58903923 2.97555759
VERTEX2 720 -11.47177530 -15.47078948 2.91630284
VERTEX2 721 -12.08827735 -15.34901779 2.98447272
VERTEX2 722 -12.10471031 -15.34651575 3.05112386
VERTEX2 723 -12.12485610 -15.36689703 -2.14232386
VERTEX2 724 -12.12539152 -15.40976472 -1.07365258
VERTEX2 725 -12.09858965 -15.42817993 -0.43941778
VERTEX2 726 -11.77283980 -15.42766315 0.01468216
VERTEX2 727 -11.13470846 -15.39637592 0.04537889
VERTEX2 728 -10.49398446 -15.37942011 0.04672072
VERTEX2 729 -9.85532088 -15.32616132 0.10430945
VERTEX2 730 -9.23083828 -15.24093291 0.14176115
VERTEX2 731 -8.58142775 -15.14804611 0.15378379
VERTEX2 732 -8.43898922 -15.12104539 0.59998422
VERTEX2 733 -8.43746904 -15.12359476 1.59580424
VERTEX2 734 -8.48945769 -14.56709716 1.67370301
VERTEX2 735 -8.54295918 -13.96422134 1.64148043
VERTEX2 736 -8.54355981 -13.95327461 2.24055709
VERTEX2 737 -8.53055559 -13.95513206 3.04114186
VERTEX2 738 -9.10232080 -13.90804011 3.06014120
VERTEX2 739 -9.69710572 -13.80679695 3.00242997
VERTEX2 740 -10.19265211 -13.76095662 3.06559447
VERTEX2 741 -10.16569408 -13.76101460 2.69634678
VERTEX2 742 -10.16174202 -13.76386553 2.04362798
VERTEX2 743 -10.16137084 -13.76565091 1.42688514
VERTEX2 744 -10.15559379 -13.75287068 0.88758667
VERTEX2 745 -10.14095719 -13.74545576 0.29416938
VERTEX2 746 -9.60330331 -13.77092272 -0.18054336
VERTEX2 747 -8.96457797 -13.89331220 -0.21579959
VERTEX2 748 -8.39351770 -14.04266193 -0.28408224
VERTEX2 749 -8.31436830 -14.06344965 0.14522731
VERTEX2 750 -8.31142738 -14.05816821 1.07251070
VERTEX2 751 -8.34149895 -13.79628176 1.71289113
VERTEX2 752 -8.39195562 -13.18145839 1.60956100
VERTEX2 753 -8.42243555 -12.55157472 1.67273161
VERTEX2 754 -8.42333682 -11.92061503 1.51053732
VERTEX2 755 -8.39879695 -11.28696562 1.59781797
VERTEX2 756 -8.35668058 -10.65795570 1.42188713
VERTEX2 757 -8.27805035 -10.02121902 1.53385517
VERTEX2 758 -8.29435967 -9.44517284 1.67593484
VERTEX2 759 -8.28036081 -8.90320761 1.55497308
VERTEX2 760 -8.31217476 -8.31189080 1.66605259
VERTEX2 761 -8.31343658 -8.29169581 1.84647073
VERTEX2 762 -8.38869739 -8.25712842 2.68192040
VERTEX2 763 -8.96204434 -8.14902375 2.97473060
VERTEX2 764 -9.38158431 -8.07356395 2.94716072
VERTEX2 765 -9.37285113 -8.07348263 -2.69667312
VERTEX2 766 -9.37744078 -8.08791890 -1.69646516
VERTEX2 767 -9.36970429 -8.10808580 -0.76571190
VERTEX2 768 -9.34385348 -8.10992872 -0.04343555
VERTEX2 769 -8.71015535 -8.02781731 0.11345547
VERTEX2 770 -8.05939385 -7.97556556 0.04634455
VERTEX2 771 -7.97323800 -7.96923257 0.60686862
VERTEX2 772 -7.97423803 -7.97234778 1.47545107
VERTEX2 773 -7.94605683 -7.40602753 1.56158431
VERTEX2 774 -7.95376935 -6.87025217 1.58395072
VERTEX2 775 -7.95100464 -6.88270376 2.42972382
VERTEX2 776 -8.16899679 -6.85449035 3.04776028
VERTEX2 777 -8.79158417 -6.80780818 3.10703359
VERTEX2 778 -9.41344871 -6.79318807 3.08617693
VERTEX2 779 -10.06190020 -6.76756194 3.10469015
VERTEX2 780 -10.30048231 -6.74543013 2.97491272
VERTEX2 781 -10.31513006 -6.74003189 2.40236614
VERTEX2 782 -10.43231818 -6.48591082 1.97339958
VERTEX2 783 -10.65663645 -5.93279297 1.97296433
VERTEX2 784 -10.74775680 -5.72154031 1.95178009
VERTEX2 785 -10.74870257 -5.68932319 1.39959154
VERTEX2 786 -10.73716640 -5.65228939 0.81104851
VERTEX2 787 -10.70842707 -5.62329329 0.32019947
VERTEX2 788 -10.66749185 -5.62638144 -0.30916561
VERTEX2 789 -10.65191435 -5.63880174 -0.86136828
VERTEX2 790 -10.34677590 -6.03829627 -0.92868508
VERTEX2 791 -9.94344036 -6.52560279 -0.83023162
VERTEX2 792 -9.70159655 -6.74460245 -0.12627769
VERTEX2 793 -9.07561815 -6.80371976 -0.08182592
VERTEX2 794 -8.42487304 -6.83953282 -0.01094513
VERTEX2 795 -8.44068592 -6.85085950 0.41783534
VERTEX2 796 -8.43590482 -6.84888298 1.07634659
VERTEX2 797 -8.35693698 -6.53756817 1.33606387
VERTEX2 798 -8.21279243 -5.91038656 1.38594623
VERTEX2 799 -8.11661107 -5.26559117 1.45144950
VERTEX2 800 -8.05337476 -4.61896504 1.52417324
VERTEX2 801 -8.05564002 -3.99621395 1.60962794
VERTEX2 802 -8.09997443 -3.37938685 1.66688174
VERTEX2 803 -8.07373250 -2.76032541 1.50165793
VERTEX2 804 -8.04427529 -2.14257332 1.55711472
VERTEX2 805 -8.06734257 -1.51621744 1.63330066
VERTEX2 806 -8.11772598 -0.91380395 1.67540531
VERTEX2 807 -8.14124905 -0.73580776 1.96350034
VERTEX2 808 -8.13339494 -0.73618857 2.91176367
VERTEX2 809 -8.71227946 -0.69901789 3.05641180
VERTEX2 810 -9.31514256 -0.56894259 2.91622284
VERTEX2 811 -9.89983191 -0.45065026 2.91290626
VERTEX2 812 -9.88925718 -0.45301182 -2.63863241
VERTEX2 813 -9.89926496 -0.47443230 -1.66347567
VERTEX2 814 -9.88281108 -0.48792476 -0.67144289
VERTEX2 815 -9.84587496 -0.50109419 0.24764579
VERTEX2 816 -9.82974372 -0.49263513 0.92868605
VERTEX2 817 -9.82330040 -0.48870419 0.26016738
VERTEX2 818 -9.62330144 -0.52237794 -0.22825890
VERTEX2 819 -9.05607984 -0.65376471 -0.21395923
VERTEX2 820 -8.48651888 -0.78903108 -0.25503744
VERTEX2 821 -7.96449699 -0.92222086 -0.23912095
VERTEX2 822 -7.92666180 -0.92855563 0.52240015
VERTEX2 823 -7.92603132 -0.92203726 1.44146887
VERTEX2 824 -7.85446893 -0.31134719 1.36186239
VERTEX2 825 -7.70421450 0.29809610 1.33191063
VERTEX2 826 -7.63801497 0.92568774 1.49479441
VERTEX2 827 -7.56512287 1.54473651 1.44605325
VERTEX2 828 -7.50169646 2.17158000 1.48145170
VERTEX2 829 -7.43256850 2.76475343 1.44119199
VERTEX2 830 -7.34995387 3.35795166 1.43235615
VERTEX2 831 -7.24889452 3.91905412 1.38499368
VERTEX2 832 -7.15165305 4.46585622 1.38089668
VERTEX2 833 -7.10590886 4.70576842 1.51785843
VERTEX2 834 -7.10526928 4.70322833 2.56999653
VERTEX2 835 -7.11570879 4.70465070 -2.93595648
VERTEX2 836 -7.12203712 4.69951807 -1.99238686
VERTEX2 837 -7.12074947 4.69170154 -0.95592100
VERTEX2 838 -7.11077321 4.68519122 -0.09253546
VERTEX2 839 -7.11074739 4.68517915 -0.31030382
VERTEX2 840 -7.10230164 4.67829235 -0.87213215
VERTEX2 841 -7.09531612 4.66356731 -1.48958542
VERTEX2 842 -7.12616022 4.41867070 -1.72062679
VERTEX2 843 -7.21475607 3.86004935 -1.72296855
VERTEX2 844 -7.30065695 3.24483672 -1.73045346
VERTEX2 845 -7.40448699 2.63049184 -1.74464636
VERTEX2 846 -7.49940042 2.01812407 -1.74227687
VERTEX2 847 -7.61663276 1.41600320 -1.76841577
VERTEX2 848 -7.64891907 1.23100800 -1.28754056
VERTEX2 849 -7.64550337 1.22968547 -0.36501365
VERTEX2 850 -7.28526560 1.22050912 -0.01146725
VERTEX2 851 -6.65356521 1.18465857 -0.10389134
VERTEX2 852 -6.02818479 1.11426001 -0.08889236
VERTEX2 853 -5.43164194 1.06333069 -0.11626170
VERTEX2 854 -4.84378884 0.98753244 -0.11377209
VERTEX2 855 -4.24752664 0.92882472 -0.11512954
VERTEX2 856 -3.56821463 0.82974612 -0.15510702
VERTEX2 857 -2.89003805 0.72732671 -0.16394063
VERTEX2 858 -2.22613513 0.59340643 -0.21748805
VERTEX2 859 -1.68968563 0.47963846 -0.22344862
VERTEX2 860 -1.66142208 0.49099870 0.63073072
VERTEX2 861 -1.64657727 0.59129928 1.54876582
VERTEX2 862 -1.60611115 1.24126026 1.48994455
VERTEX2 863 -1.54741692 1.87606478 1.45824695
VERTEX2 864 -1.45970848 2.47999736 1.45681950
VERTEX2 865 -1.41846016 3.07856041 1.51469958
VERTEX2 866 -1.37404474 3.65167594 1.51380770
VERTEX2 867 -1.36682353 3.80766697 1.69494371
VERTEX2 868 -1.36835739 3.80940466 2.71749005
VERTEX2 869 -1.35890785 3.80951012 -2.58696299
VERTEX2 870 -1.34198736 3.81856875 -1.58709012
VERTEX2 871 -1.32576178 3.80754006 -0.61301533
VERTEX2 872 -1.30578446 3.79308036 0.07249368
VERTEX2 873 -1.27791488 3.78376937 -0.49987063
VERTEX2 874 -1.26249542 3.76984131 -1.06010754
VERTEX2 875 -1.25866302 3.76084906 -1.64728901
VERTEX2 876 -1.37952149 3.20740206 -1.80515292
VERTEX2 877 -1.53277915 2.66767737 -1.89004202
VERTEX2 878 -1.58335237 2.47019890 -1.50748331
VERTEX2 879 -1.48521292 1.83614740 -1.45664917
VERTEX2 880 -1.45132118 1.38868398 -1.56951646
VERTEX2 881 -1.45152765 1.44059278 -1.56465497
VERTEX2 882 -1.51099464 0.80248658 -1.81189839
VERTEX2 883 -1.73053955 0.20709238 -2.00322514
VERTEX2 884 -1.89211424 -0.12637160 -2.07064223
VERTEX2 885 -1.89229414 -0.12144234 -1.49060889
VERTEX2 886 -1.88587935 -0.12746810 -0.47491059
VERTEX2 887 -1.87069683 -0.13351065 0.53417417
VERTEX2 888 -1.85901249 -0.10972976 1.51602932
VERTEX2 889 -1.86421006 -0.09377138 2.41215252
VERTEX2 890 -2.18923058 0.06986652 2.68546848
VERTEX2 891 -2.73374031 0.35157831 2.61476554
VERTEX2 892 -3.27317419 0.68687191 2.57884953
VERTEX2 893 -3.83641803 1.00096598 2.81504441
VERTEX2 894 -4.46522939 1.12680407 3.03629527
VERTEX2 895 -5.08115283 1.08787541 -2.94832945
VERTEX2 896 -5.10773643 1.08201104 -2.46970839
VERTEX2 897 -5.39740990 0.66947543 -2.19728333
VERTEX2 898 -5.75405005 0.17202769 -2.18176062
VERTEX2 899 -6.04388779 -0.22721612 -2.24944778
VERTEX2 900 -6.46175911 -0.75648325 -2.25168854
VERTEX2 901 -6.83629483 -1.18779476 -2.31583833
VERTEX2 902 -7.25632409 -1.66562569 -2.29033310
VERTEX2 903 -7.57391595 -2.03279025 -2.33477216
VERTEX2 904 -7.57370541 -2.03256860 -1.63108930
VERTEX2 905 -7.56830033 -2.51330989 -1.57544095
VERTEX2 906 -7.54407488 -3.07004061 -1.50964607
VERTEX2 907 -7.49792537 -3.63876269 -1.51752741
VERTEX2 908 -7.46188375 -4.25401741 -1.49251611
VERTEX2 909 -7.41148014 -4.85968747 -1.51020956
VERTEX2 910 -7.43948458 -4.98124005 -1.87968363
VERTEX2 911 -7.60600343 -5.54246278 -1.81855503
VERTEX2 912 -7.73213844 -6.09103891 -1.80567955
VERTEX2 913 -7.84901809 -6.61786015 -1.79748088
VERTEX2 914 -7.98025756 -7.19079184 -1.82084900
VERTEX2 915 -8.10737960 -7.68490763 -1.85725089
VERTEX2 916 -8.04829459 -7.92178070 -1.30967829
VERTEX2 917 -7.91953057 -8.56452373 -1.56404380
VERTEX2 918 -7.94619767 -9.07501254 -1.63952457
VERTEX2 919 -7.98758941 -9.69117238 -1.68277474
VERTEX2 920 -8.05938373 -10.29747648 -1.70028113
VERTEX2 921 -8.13989316 -10.90494209 -1.75352003
VERTEX2 922 -8.24910452 -11.50073438 -1.78061538
VERTEX2 923 -8.37453479 -12.05566125 -1.84367035
VERTEX2 924 -8.51073107 -12.54050040 -1.82672785
VERTEX2 925 -8.51433679 -12.52201273 -1.32088589
VERTEX2 926 -8.36422734 -13.07217991 -1.30420312
VERTEX2 927 -8.20585070 -13.65526599 -1.32750897
VERTEX2 928 -8.05709633 -14.25060038 -1.33689782
VERTEX2 929 -7.91486294 -14.84393907 -1.33809827
VERTEX2 930 -7.77525888 -15.47140666 -1.42039862
VERTEX2 931 -7.69606090 -16.09328195 -1.50035253
VERTEX2 932 -7.65648432 -16.71527891 -1.55952772
VERTEX2 933 -7.65916444 -17.32635637 -1.62397046
VERTEX2 934 -7.67843465 -17.80538012 -1.63364894
VERTEX2 935 -7.67620979 -17.81615041 -0.95080156
VERTEX2 936 -7.68117787 -17.81435630 -0.00528511
VERTEX2 937 -7.14643867 -17.79411502 0.05771667
VERTEX2 938 -6.54431747 -17.81577130 -0.11570908
VERTEX2 939 -5.92296579 -17.88079144 -0.08793872
VERTEX2 940 -5.31549188 -17.96024653 -0.17302599
VERTEX2 941 -4.71612206 -18.07915005 -0.22598825
VERTEX2 942 -4.20314287 -18.19715124 -0.22088806
VERTEX2 943 -3.60072661 -18.33340485 -0.13188117
VERTEX2 944 -2.98599080 -18.42029967 -0.18843172
VERTEX2 945 -2.37139292 -18.55145406 -0.24381050
VERTEX2 946 -2.20496885 -18.59502369 -0.17955744
VERTEX2 947 -1.80414733 -18.53597162 0.14853513
VERTEX2 948 -1.23894693 -18.45175981 0.12942070
VERTEX2 949 -0.63912708 -18.42171284 -0.02695501
VERTEX2 950 -0.01231839 -18.46267814 -0.26729374
VERTEX2 951 0.58079148 -18.63848060 -0.33992339
VERTEX2 952 1.17349724 -18.81753309 -0.08979439
VERTEX2 953 1.78839591 -18.85433569 -0.00956082
VERTEX2 954 2.40825264 -18.85286540 -0.01647903
VERTEX2 955 2.98840351 -18.90305336 -0.17722643
VERTEX2 956 3.52910178 -18.98492584 -0.17942338
VERTEX2 957 4.04955909 -19.08363130 -0.26696833
VERTEX2 958 4.50266897 -19.19614061 -0.29351984
VERTEX2 959 4.93367235 -19.31937884 -0.36113804
VERTEX2 960 5.51574545 -19.48633465 -0.28181252
VERTEX2 961 6.09029848 -19.66479254 -0.30927906
VERTEX2 962 6.70059093 -19.79855242 -0.24414848
VERTEX2 963 7.31093101 -19.88521280 -0.05812084
VERTEX2 964 7.92634317 -19.93336245 -0.12244949
VERTEX2 965 8.54151807 -20.01963689 -0.12955698
VERTEX2 966 8.98189380 -20.08283120 -0.18885231
VERTEX2 967 9.00993720 -20.07747064 0.66484113
VERTEX2 968 9.01712110 -20.07082772 1.56167775
VERTEX2 969 9.01925867 -20.09941592 1.62116821
VERTEX2 970 9.02148286 -20.12827402 1.61945603
VERTEX2 971 9.00468272 -19.79947630 1.61953467
VERTEX2 972 8.97227773 -19.21721398 1.62508830
VERTEX2 973 9.05707614 -18.64071937 1.33996236
VERTEX2 974 9.20143443 -18.04515268 1.37167747
VERTEX2 975 9.32015633 -17.43659240 1.37601639
VERTEX2 976 9.43225395 -16.82538571 1.38865638
VERTEX2 977 9.57321093 -16.21388479 1.36222846
VERTEX2 978 9.70045320 -15.60486077 1.40789353
VERTEX2 979 9.82144940 -15.00168732 1.39542552
VERTEX2 980 9.92554306 -14.40165309 1.44214585
VERTEX2 981 10.02056242 -13.81217887 1.44886938
VERTEX2 982 10.08325097 -13.28117728 1.49306580
VERTEX2 983 10.14034581 -12.67854349 1.48931472
VERTEX2 984 10.17455189 -12.08727564 1.54628603
VERTEX2 985 10.19277808 -11.49500270 1.56620927
VERTEX2 986 10.18591062 -10.87903294 1.60218402
VERTEX2 987 10.18150713 -10.26453772 1.56513271
VERTEX2 988 10.19262018 -9.65042720 1.57851315
VERTEX2 989 10.18670812 -9.03618761 1.58614652
VERTEX2 990 10.18859696 -8.42529620 1.57538398
VERTEX2 991 10.18210331 -7.81088795 1.60026074
VERTEX2 992 10.18598327 -7.23220099 1.56782173
VERTEX2 993 10.18180724 -6.62439946 1.60079834
VERTEX2 994 10.17498972 -6.05019424 1.59089995
VERTEX2 995 10.15275113 -5.48785298 1.63834521
VERTEX2 996 10.10500168 -4.91743082 1.66615239
VERTEX2 997 10.07117480 -4.30863186 1.60246672
VERTEX2 998 10.05801815 -3.94231550 1.62499485
VERTEX2 999 10.11206920 -3.98701759 2.34484505
VERTEX2 1000 9.67899286 -3.64431600 2.49429373
VERTEX2 1001 9.26899346 -3.26505808 2.17428941
VERTEX2 1002 8.92905089 -2.82146887 2.26753475
VERTEX2 1003 8.60506122 -2.35257043 2.08853662
VERTEX2 1004 8.27253035 -1.81984534 2.14679070
VERTEX2 1005 7.92454500 -1.32802950 2.20916172
VERTEX2 1006 7.53371567 -0.85060960 2.28682636
VERTEX2 1007 7.12486314 -0.42379606 2.37876288
VERTEX2 1008 6.89109264 -0.20818392 2.53857578
VERTEX2 1009 6.79163635 -0.19254409 3.01222862
VERTEX2 1010 6.23141675 -0.13537177 3.06510087
VERTEX2 1011 5.61552360 -0.09340842 3.02175317
VERTEX2 1012 5.00642924 -0.02737095 3.06339245
VERTEX2 1013 4.37270407 -0.02655252 -3.10521630
VERTEX2 1014 3.76630863 0.02404194 3.00248765
VERTEX2 1015 3.14759625 0.06630718 3.08675891
VERTEX2 1016 2.38410717 0.10769307 3.09327410
VERTEX2 1017 1.79062173 0.12468497 3.03595347
VERTEX2 1018 1.23229046 0.19024230 3.04270495
VERTEX2 1019 0.63536500 0.21910983 3.10161046
VERTEX2 1020 0.01845477 0.26002517 3.08704740
VERTEX2 1021 -0.60449529 0.29448049 3.04577252
VERTEX2 1022 -0.65976445 0.29958139 3.03791258
VERTEX2 1023 -0.65523479 0.29944290 3.12376963
VERTEX2 1024 -1.28238626 0.31390702 -3.13364567
VERTEX2 1025 -1.91546195 0.29054615 -3.11665952
VERTEX2 1026 -2.08058782 0.28693399 -3.11005951
VERTEX2 1027 -2.06029710 0.29654781 -2.19394254
VERTEX2 1028 -2.07501978 0.13705269 -1.63075640
VERTEX2 1029 -2.11090621 -0.42202743 -1.65243612
VERTEX2 1030 -2.18188073 -1.03095734 -1.73330954
VERTEX2 1031 -2.30304052 -1.67020123 -1.78796121
VERTEX2 1032 -2.44233337 -2.30923035 -1.78436547
VERTEX2 1033 -2.59483157 -2.94682706 -1.82998643
VERTEX2 1034 -2.64244874 -3.11778813 -2.04441463
VERTEX2 1035 -2.65059373 -3.12440816 -2.66495092
VERTEX2 1036 -2.62385121 -3.13733327 3.04630082
VERTEX2 1037 -2.95773515 -3.00311465 2.80687330
VERTEX2 1038 -3.57095084 -2.86835854 2.89731890
VERTEX2 1039 -4.20966711 -2.68514578 2.86509487
VERTEX2 1040 -4.18915108 -2.68608621 -2.79002185
VERTEX2 1041 -4.16423942 -2.68998659 -1.77665535
VERTEX2 1042 -4.16756036 -2.72997414 -0.79226717
VERTEX2 1043 -4.13822871 -2.75867530 0.17571459
VERTEX2 1044 -4.15818607 -2.78070880 1.16783009
VERTEX2 1045 -4.16386126 -2.79218838 1.05369516
VERTEX2 1046 -4.18224966 -2.81528103 0.66796419
VERTEX2 1047 -4.21334994 -2.82761023 0.11194436
VERTEX2 1048 -3.86279467 -2.90689074 -0.20120155
VERTEX2 1049 -3.23085839 -3.02540962 -0.18411029
VERTEX2 1050 -2.59663986 -3.11663266 -0.10847924
VERTEX2 1051 -2.10657077 -3.18860751 -0.18898024
VERTEX2 1052 -1.64680815 -3.26508906 -0.13723869
VERTEX2 1053 -1.37877468 -3.30980277 -0.19011067
VERTEX2 1054 -1.52548882 -3.28872538 0.57331444
VERTEX2 1055 -1.52758090 -3.29783601 1.64499377
VERTEX2 1056 -1.56853641 -3.23263695 2.65697129
VERTEX2 1057 -1.76355084 -3.20728742 -2.63943855
VERTEX2 1058 -2.24073671 -12.34923988 -0.37654139
VERTEX2 1059 -1.84929883 -12.52368114 -0.44946506
VERTEX2 1060 -1.41211099 -12.73985276 -0.43750240
VERTEX2 1061 -1.14265031 -12.87780459 -0.55144784
VERTEX2 1062 -1.20080410 -12.81836305 -1.10317246
VERTEX2 1063 -1.21420935 -12.77723104 -1.68853148
VERTEX2 1064 -1.34977391 -13.10966352 -1.94584292
VERTEX2 1065 -1.54164735 -13.72136606 -1.82357372
VERTEX2 1066 -1.71397551 -14.31157576 -1.87863854
VERTEX2 1067 2.86689610 -24.89695165 -0.35664309
VERTEX2 1068 -2.25250318 -4.75916741 -2.21233804
VERTEX2 1069 -2.25888155 -4.77389212 -2.04044830
VERTEX2 1070 -2.26971622 -4.79091526 -2.57678730
VERTEX2 1071 -2.78748737 -5.03669813 -2.70255733
VERTEX2 1072 -3.28243455 -5.26042730 -2.76988691
VERTEX2 1073 -3.29225568 -5.26019687 3.00484450
VERTEX2 1074 -3.85800070 -5.15657454 2.97154712
VERTEX2 1075 -4.47137512 -5.04720316 2.98909213
VERTEX2 1076 -4.48415943 -5.04575707 -2.88894551
VERTEX2 1077 -4.49565663 -5.06538690 -2.08115369
VERTEX2 1078 -4.75782478 -5.66118001 -2.03553941
VERTEX2 1079 -5.01220459 -6.21427409 -1.97295157
VERTEX2 1080 -5.01589094 -6.22302966 -2.45947168
VERTEX2 1081 -5.44973840 -6.49480966 -2.58221738
VERTEX2 1082 -5.61930098 -6.60349351 -2.30087926
VERTEX2 1083 -5.61714936 -6.62689982 -1.26671291
VERTEX2 1084 -5.55488859 -6.66158024 -0.29779205
VERTEX2 1085 -5.58367398 -6.66794662 0.68427934
VERTEX2 1086 -5.22089103 -6.20681437 0.91431351
VERTEX2 1087 -4.83811640 -5.72864260 0.90190361
VERTEX2 1088 -4.47301413 -5.24584720 0.88478094
VERTEX2 1089 -4.41960511 -5.18159252 0.78887630
VERTEX2 1090 -4.41583724 -5.17839321 0.17279433
VERTEX2 1091 -3.88098991 -5.16593309 -0.00441615
VERTEX2 1092 -3.26574012 -5.17332682 -0.01981860
VERTEX2 1093 -2.69500262 -5.19717813 -0.08467722
VERTEX2 1094 -2.67940656 -5.21318022 -0.48910818
VERTEX2 1095 -2.64814920 -5.24306467 -1.07911666
VERTEX2 1096 -2.64849065 -5.24135408 -1.65009551
VERTEX2 1097 -2.74264525 -5.55809187 -1.86474588
VERTEX2 1098 -2.94057830 -6.14309301 -1.92098259
VERTEX2 1099 -3.16972784 -6.69846816 -2.01658227
VERTEX2 1100 -3.17710478 -6.71532025 -1.65275258
VERTEX2 1101 -3.12814502 -6.98052001 -1.38620765
VERTEX2 1102 -3.12934431 -6.99056224 -1.77908539
VERTEX2 1103 -3.27877722 -7.59693110 -1.81242250
VERTEX2 1104 -3.43799908 -8.22254260 -1.83976329
VERTEX2 1105 -3.61397983 -8.83587879 -1.85714802
VERTEX2 1106 -3.75540024 -9.30524794 -1.88186295
VERTEX2 1107 -3.75508904 -9.31119583 -1.62496112
VERTEX2 1108 -3.74537482 -9.93595436 -1.61662840
VERTEX2 1109 -3.82024309 -10.57523711 -1.71996162
VERTEX2 1110 -3.91558191 -11.17753587 -1.76894110
VERTEX2 1111 -4.10261757 -11.69783194 -1.86962189
VERTEX2 1112 -4.15493028 -12.25953056 -1.52266489
VERTEX2 1113 -4.14112143 -12.87620439 -1.61719916
VERTEX2 1114 -4.16759744 -13.46955538 -1.59947106
VERTEX2 1115 -4.18047126 -14.03013120 -1.61498490
VERTEX2 1116 -4.18593743 -14.65895624 -1.57801004
VERTEX2 1117 -4.18580797 -14.73698398 -1.70492006
VERTEX2 1118 -4.17330268 -14.71505852 -2.31028508
VERTEX2 1119 -4.14812616 -14.69851091 -2.74049801
VERTEX2 1120 -4.70109096 -14.88539917 -2.80330490
VERTEX2 1121 -4.87739022 -14.94309448 -2.92096405
VERTEX2 1122 -4.86963504 -14.94593224 2.81320065
VERTEX2 1123 -5.40865144 -14.75189100 2.83073533
VERTEX2 1124 -5.95393406 -14.61426513 2.93028233
VERTEX2 1125 -6.56635265 -14.47883206 2.94454773
VERTEX2 1126 -6.63461174 -14.46660156 -2.99753260
VERTEX2 1127 -6.63540188 -14.46574403 -1.93691084
VERTEX2 1128 -6.62822283 -14.43258782 -0.94632522
VERTEX2 1129 -6.60924802 -14.44340968 0.07249378
VERTEX2 1130 -6.00138275 -14.37968558 0.08693763
VERTEX2 1131 -5.21375635 -14.51019858 -0.34405803
VERTEX2 1132 -4.60055504 -14.73083345 -0.36374035
VERTEX2 1133 -4.04590987 -14.96404030 -0.40226686
VERTEX2 1134 -3.78505206 -15.07493369 -0.49915393
VERTEX2 1135 -3.78009535 -15.07986959 -1.05498424
VERTEX2 1136 -3.75919970 -15.03697217 -1.61661001
VERTEX2 1137 -3.80756375 -15.29904282 -1.80092155
VERTEX2 1138 -3.95604989 -15.89106083 -1.81740957
VERTEX2 1139 -4.07748217 -16.37945529 -1.88996578
VERTEX2 1140 -4.06535079 -16.35090229 -2.36753284
VERTEX2 1141 -4.03854951 -16.32516552 -2.91434735
VERTEX2 1142 -4.39173898 -16.28084198 3.00387315
VERTEX2 1143 -4.98023684 -16.23095002 3.09286038
VERTEX2 1144 -5.56060858 -16.19264543 3.06179376
VERTEX2 1145 -6.13817733 -16.14279222 3.03584237
VERTEX2 1146 -6.71297401 -16.08098191 3.05507768
VERTEX2 1147 -7.29276554 -16.06583335 3.12716952
VERTEX2 1148 -7.86881920 -16.05737766 3.13720792
VERTEX2 1149 -7.90923268 -16.05819652 -2.64771341
VERTEX2 1150 -8.00304693 -16.16017867 -1.83898825
VERTEX2 1151 -7.99838055 -16.18796276 -0.83512774
VERTEX2 1152 -7.97936896 -16.18849758 0.21770239
VERTEX2 1153 -7.96600860 -16.18265349 1.23042097
VERTEX2 1154 -8.02137225 -15.86454465 1.77639446
VERTEX2 1155 -8.14565744 -15.24497645 1.72665931
VERTEX2 1156 -8.23428933 -14.64490100 1.73630297
VERTEX2 1157 -8.35269571 -14.07855673 1.84692081
VERTEX2 1158 -8.46911890 -13.48275598 1.71792864
VERTEX2 1159 -8.51892688 -12.89131486 1.62339853
VERTEX2 1160 -8.53056880 -12.26251611 1.48620870
VERTEX2 1161 -8.42096618 -11.63918235 1.39620706
VERTEX2 1162 -8.32003903 -11.01781650 1.45406166
VERTEX2 1163 -8.24794291 -10.38514624 1.44879471
VERTEX2 1164 -8.19011871 -9.75432826 1.53446558
VERTEX2 1165 -8.17092057 -9.20964195 1.51163514
VERTEX2 1166 -8.17168170 -9.20563562 2.00082683
VERTEX2 1167 -8.12400271 -9.19477250 2.93792002
VERTEX2 1168 -8.08388827 -9.17946616 -2.44137646
VERTEX2 1169 -8.08842678 -9.22933473 -1.61901821
VERTEX2 1170 -8.10654444 -9.81338301 -1.61217431
VERTEX2 1171 -8.11481534 -10.44197056 -1.58055692
VERTEX2 1172 -8.12714802 -11.03056316 -1.64271733
VERTEX2 1173 -8.16492432 -11.64389279 -1.63330934
VERTEX2 1174 -8.21635266 -12.26244219 -1.70169007
VERTEX2 1175 -8.30918373 -12.86702246 -1.73511428
VERTEX2 1176 -8.41412731 -13.48544243 -1.77892120
VERTEX2 1177 -8.54003873 -14.08525871 -1.77672452
VERTEX2 1178 -8.67736286 -14.68894669 -1.82376196
VERTEX2 1179 -8.82086786 -15.28451959 -1.79423479
VERTEX2 1180 -8.87663969 -15.53033880 -1.80104814
VERTEX2 1181 -8.87458671 -15.51671204 -0.97291345
VERTEX2 1182 -8.82299075 -15.53042585 -0.26060985
VERTEX2 1183 -8.21450399 -15.68476054 -0.23514611
VERTEX2 1184 -7.58601231 -15.80534622 -0.16548427
VERTEX2 1185 -6.96232288 -15.92138714 -0.19766490
VERTEX2 1186 -6.33472137 -16.02203680 -0.13143357
VERTEX2 1187 -5.68970902 -16.11260266 -0.16825624
VERTEX2 1188 -5.07141841 -16.20703533 -0.14992968
VERTEX2 1189 -4.44105932 -16.31614882 -0.12870240
VERTEX2 1190 -4.14250567 -16.35553914 -0.12110698
VERTEX2 1191 -4.14474116 -16.35556466 0.79761853
VERTEX2 1192 -4.13923209 -16.28628037 1.59385725
VERTEX2 1193 -4.12713122 -15.69855082 1.46117185
VERTEX2 1194 -4.08115049 -15.13896252 1.50256643
VERTEX2 1195 -4.04720595 -14.53662349 1.55462138
VERTEX2 1196 -4.03423260 -13.92961861 1.38093642
VERTEX2 1197 -3.92612286 -13.33510898 1.39139255
VERTEX2 1198 -3.84929312 -12.72759866 1.64892337
VERTEX2 1199 -3.85715034 -12.13089598 1.43292816
VERTEX2 1200 -3.79140145 -11.51991885 1.50078291
VERTEX2 1201 -3.75663137 -10.92607861 1.55522825
VERTEX2 1202 -3.75484228 -10.32849237 1.57684820
VERTEX2 1203 -3.77231357 -9.76311409 1.48537843
VERTEX2 1204 -3.64983851 -9.19911470 1.33687156
VERTEX2 1205 -3.53293584 -8.66419848 1.36504765
VERTEX2 1206 -3.43621398 -8.10084196 1.42507820
VERTEX2 1207 -3.28601120 -7.50964415 1.33773072
VERTEX2 1208 -3.15886998 -6.90428276 1.40120772
VERTEX2 1209 -3.05595007 -6.30169947 1.39818338
VERTEX2 1210 -2.97405888 -5.70269654 1.41762321
VERTEX2 1211 -2.82961869 -5.09570162 1.34677330
VERTEX2 1212 -2.69750314 -4.48813910 1.39864163
VERTEX2 1213 -2.61391005 -3.87550060 1.47377562
VERTEX2 1214 -2.51364442 -3.14063183 1.25361267
VERTEX2 1215 -2.33750511 -2.56109896 1.31425724
VERTEX2 1216 -2.27601982 -2.00284280 1.53357447
VERTEX2 1217 -2.23208193 -1.42163529 1.51509841
VERTEX2 1218 -2.20806489 -0.84346808 1.46458808
VERTEX2 1219 -2.14681750 -0.20717060 1.49533149
VERTEX2 1220 -2.12964630 0.37357310 1.58574927
VERTEX2 1221 -2.12811741 0.36805447 1.13242876
VERTEX2 1222 -2.12462326 0.37133425 0.53443524
VERTEX2 1223 -2.12062881 0.37219930 -0.02584572
VERTEX2 1224 -1.55442151 0.26909882 -0.20910446
VERTEX2 1225 -0.94713805 0.14386453 -0.19557769
VERTEX2 1226 -0.84827262 0.12416461 -0.21254399
VERTEX2 1227 -0.85376972 0.12514590 -0.21343409
