1 19 166 0 0.41485034 0.00212114 5 
2 19 172 0 0.02820697 0.00187291 4 
3 25 172 0 0.50366199 0.00187932 4 
4 25 178 0 0.30831851 0.00198239 4 
5 32 178 0 0.01493521 0.00198975 4 
6 32 183 0 0.07055611 0.00201811 4 
7 44 189 0 0.52863102 0.00208037 4 
8 44 195 0 0.35755137 0.00217030 4 
9 50 195 0 0.00572854 0.00219854 4 
10 50 201 0 0.04110605 0.00190165 3 
11 50 203 0 0.06975183 0.00187834 3 
12 61 203 0 0.00745912 0.00190443 3 
13 37 206 2 3772.15289113 0.00000219 1 
14 61 209 0 0.37222863 0.00231793 4 
15 67 209 0 0.41032090 0.00233198 4 
16 67 220 0 0.66144083 0.00250359 4 
17 81 220 0 0.48035877 0.00286351 5 
18 81 226 0 0.05402805 0.00257415 4 
19 87 226 0 1.82553139 0.00294399 5 
20 87 231 0 0.34656585 0.00263182 4 
21 94 231 0 0.55778528 0.00258603 4 
22 226 231 0 1.44127402 0.00299230 5 
23 94 241 0 1.33132047 0.00269710 4 
24 101 241 0 0.50961029 0.00271769 4 
25 101 247 0 1.66454674 0.00276494 4 
26 107 247 0 1.80094617 0.00279243 4 
27 107 254 0 1.18346605 0.00284537 4 
28 114 254 0 0.12939160 0.00287131 4 
29 107 256 0 0.93085039 0.00285282 4 
30 114 256 0 0.24629796 0.00287580 4 
31 107 258 0 1.37911724 0.00290275 4 
32 114 258 0 1.15747212 0.00293210 4 
33 121 266 0 0.00938596 0.00301475 4 
34 126 266 0 0.44864328 0.00355473 5 
35 126 272 0 1.03992836 0.00310234 4 
36 132 272 0 0.39070916 0.00365640 5 
37 132 278 0 0.58358145 0.00318373 4 
38 138 278 0 1.06458780 0.00373735 5 
39 138 284 0 0.02201259 0.00271643 3 
40 151 284 0 0.12777228 0.00329945 4 
41 151 291 0 0.60037557 0.00331963 4 
42 151 297 0 0.07972289 0.00285342 3 
43 157 297 0 1.04991834 0.00345292 4 
44 166 297 0 1.30507781 0.00339438 4 
45 19 305 0 0.16044642 0.00357420 4 
46 157 305 0 0.58687353 0.00361260 4 
47 163 305 0 7.56485476 0.00484900 6 
48 166 305 0 0.37495035 0.00360957 4 
49 172 305 0 0.01886255 0.00361871 4 
50 19 315 0 0.48455906 0.00310804 3 
51 25 315 0 0.02281386 0.00312340 3 
52 172 315 0 0.05679715 0.00374360 4 
53 172 328 0 0.12482725 0.00325972 3 
54 19 337 0 6.63404991 0.00466700 5 
55 25 337 0 0.96522419 0.00400896 4 
56 172 337 0 0.57611560 0.00334704 3 
57 19 342 0 0.00494520 0.00338971 3 
58 25 342 0 0.12855172 0.00407488 4 
59 172 342 0 0.01223902 0.00412511 4 
60 178 342 0 0.12442988 0.00418139 4 
61 25 367 0 0.11414782 0.00379155 3 
62 32 367 0 0.01267433 0.00596366 6 
63 178 367 0 0.00286807 0.00374919 3 
64 183 367 0 0.06698524 0.00377501 3 
65 25 374 0 0.56424690 0.00459880 4 
66 32 374 0 0.09892849 0.00532806 5 
67 178 374 0 0.03055075 0.00458950 4 
68 183 374 0 0.05309447 0.00459058 4 
69 32 382 0 4.14688582 0.00392921 3 
70 183 382 0 1.28811506 0.00466806 4 
71 32 387 0 2.72468715 0.00476254 4 
72 183 387 0 0.18197642 0.00473995 4 
73 189 414 0 7.69047346 0.00586613 5 
74 44 437 0 0.00915802 0.00438581 3 
75 195 437 0 0.01161094 0.00437324 3 
76 44 454 0 0.65644164 0.00451654 3 
77 189 454 0 0.03962740 0.00542998 4 
78 44 467 0 0.12345281 0.00643185 5 
79 50 467 0 0.00895575 0.01024642 9 
80 195 467 0 0.00230988 0.00463792 3 
81 195 484 0 0.09447226 0.00574230 4 
82 44 494 0 0.02880924 0.00582988 4 
83 50 494 0 0.00628832 0.00483024 3 
84 195 494 0 0.00818961 0.00684701 5 
85 201 494 0 0.00469852 0.00684605 5 
86 50 500 0 0.14406209 0.00694998 5 
87 201 500 0 0.05353930 0.00491954 3 
88 203 500 0 0.03252445 0.00488894 3 
89 61 508 0 0.99413579 0.00712256 5 
90 203 508 0 0.26947301 0.01226326 10 
91 209 508 0 0.03711473 0.00606518 4 
92 61 522 0 1.37942234 0.00612359 4 
93 203 522 0 0.12859200 0.00514250 3 
94 209 522 0 0.00542469 0.00511369 3 
95 61 528 0 0.47936102 0.00513105 3 
96 67 528 0 0.22419307 0.00630230 4 
97 81 528 0 0.23233822 0.00844819 6 
98 209 528 0 0.09444678 0.01064932 8 
99 220 528 0 0.13668760 0.00623188 4 
100 67 532 0 0.05459173 0.01180970 9 
101 81 532 0 0.11826401 0.00848809 6 
102 220 532 0 0.05648169 0.00634879 4 
103 67 556 0 0.98233216 0.00650739 4 
104 67 564 0 0.40168838 0.01236783 9 
105 81 564 0 0.02280941 0.00664874 4 
106 220 564 0 0.02684857 0.00666399 4 
107 67 567 0 2.67253169 0.00784056 5 
108 81 567 0 0.48923871 0.00902855 6 
109 220 567 0 0.21723258 0.00666537 4 
110 67 570 0 2.40706627 0.00910846 6 
111 81 570 0 0.15671702 0.00905487 6 
112 220 570 0 0.13379867 0.00674518 4 
113 81 575 0 2.76594993 0.00797843 5 
114 220 575 0 1.08612706 0.01036009 7 
115 81 588 0 0.01497138 0.00568347 3 
116 87 588 0 0.47937722 0.00818149 5 
117 226 588 0 0.43156268 0.00691569 4 
118 87 597 0 2.27648751 0.00956301 6 
119 94 597 0 0.38888315 0.00700846 4 
120 226 597 0 0.55079633 0.00831086 5 
121 87 604 0 0.47149562 0.00711795 4 
122 94 604 0 0.01542269 0.00841490 5 
123 94 616 0 0.01350372 0.01234505 8 
124 368 618 2 1374.34886364 0.00000364 1 
125 94 632 0 2.16969694 0.00881204 5 
126 94 637 0 4.44236402 0.01007038 6 
127 101 637 0 0.19098383 0.00751145 4 
128 101 642 0 0.11555601 0.00890351 5 
129 107 642 0 0.04025021 0.01410623 9 
130 101 645 0 6.69527511 0.00762007 4 
131 107 645 0 1.54205090 0.00751798 4 
132 101 657 0 0.73548669 0.01670619 10 
133 101 663 0 0.04971914 0.01675730 10 
134 107 663 0 0.01781179 0.00917443 5 
135 114 663 0 0.00275957 0.00918716 5 
136 101 665 0 1.55112265 0.01350033 8 
137 107 665 0 0.47667103 0.00786981 4 
138 114 665 0 0.13329170 0.00651156 3 
139 107 680 0 1.48615866 0.00940220 5 
140 107 683 0 0.94462224 0.00805196 4 
141 114 683 0 0.32178225 0.00955966 5 
142 107 704 0 0.34268109 0.01265344 7 
143 114 704 0 0.07528002 0.01556906 9 
144 107 714 0 1.79639085 0.01136032 6 
145 114 714 0 0.02860377 0.01437469 8 
146 107 730 0 0.19656714 0.01014157 5 
147 114 730 0 0.03540690 0.00855812 4 
148 592 749 2 201.77117087 0.00000353 1 
149 121 754 0 0.33113739 0.00874268 4 
150 126 754 0 0.07673382 0.01513783 8 
151 121 759 0 2.33625684 0.01197680 6 
152 126 759 0 0.22329988 0.01203085 6 
153 126 762 0 7.08482229 0.01038907 5 
154 132 762 0 2.00372045 0.01536171 8 
155 132 778 0 0.06999780 0.00903884 4 
156 132 792 0 1.26802734 0.00928910 4 
157 132 800 0 3.35686460 0.00918441 4 
158 138 800 0 0.14494330 0.01255713 6 
159 138 806 0 0.25140739 0.00751337 3 
160 138 821 0 0.40674396 0.01109390 5 
161 138 823 0 6.54725682 0.00937783 4 
162 151 828 0 3.12108818 0.00950092 4 
163 151 847 0 0.08724621 0.01143435 5 
164 151 855 0 0.11494457 0.01510309 7 
165 151 895 0 2.80701437 0.01761914 8 
166 151 897 0 0.06118057 0.02137072 10 
167 138 903 0 0.08157811 0.01022029 4 
168 138 904 0 7.06392298 0.01399341 6 
169 132 907 0 0.71874717 0.01028948 4 
170 138 907 0 0.22077132 0.01217865 5 
171 132 911 0 0.23128175 0.01222266 5 
172 121 923 0 0.62636126 0.01468401 6 
173 126 923 0 0.07130653 0.01048610 4 
174 107 929 0 0.07225325 0.01253456 5 
175 114 929 0 0.00477553 0.01057218 4 
176 107 935 0 4.91438615 0.01651085 7 
177 114 935 0 1.40337639 0.01677789 7 
178 101 939 0 0.48567419 0.01072500 4 
179 107 939 0 0.21174614 0.01072797 4 
180 101 944 0 0.15377935 0.01273373 5 
181 94 947 0 0.23772432 0.01674771 7 
182 101 947 0 0.16826262 0.01478159 6 
183 87 953 0 0.13504795 0.01088792 4 
184 94 953 0 0.06505521 0.01490556 6 
185 226 953 0 0.08268323 0.02339048 10 
186 81 959 0 1.83528326 0.02437449 10 
187 87 959 0 1.29172246 0.01709903 7 
188 220 959 0 0.04883629 0.01101869 4 
189 226 959 0 0.12130941 0.01304230 5 
190 67 965 0 1.01368609 0.01316236 5 
191 81 965 0 0.31066014 0.01520281 6 
192 220 965 0 0.16483276 0.01928381 8 
193 61 976 0 0.16803746 0.01740312 7 
194 67 976 0 0.05676300 0.00917500 3 
195 209 976 0 0.00780965 0.01122440 4 
196 50 982 0 0.38354811 0.01134080 4 
197 61 982 0 0.27147698 0.01131412 4 
198 201 982 0 0.22200943 0.01135215 4 
199 203 982 0 0.10573284 0.02186713 9 
200 44 988 0 0.09550719 0.01144655 4 
201 50 988 0 0.05924873 0.01145950 4 
202 195 988 0 0.04319526 0.01568373 6 
203 201 988 0 0.02685916 0.01354275 5 
204 44 994 0 0.51683435 0.01787100 7 
205 189 994 0 0.29989154 0.02570841 10 
206 195 994 0 0.21957432 0.01369690 5 
207 32 1003 0 0.23901034 0.01384086 5 
208 178 1003 0 0.03356851 0.02602616 10 
209 183 1003 0 0.01433170 0.01609068 6 
210 25 1008 0 1.23858172 0.01832650 7 
211 32 1008 0 0.53803958 0.01176499 4 
212 178 1008 0 0.34459610 0.01178550 4 
213 183 1008 0 0.22233868 0.01181275 4 
214 25 1010 0 0.60236133 0.01180955 4 
215 32 1010 0 0.30591807 0.01397139 5 
216 172 1010 0 0.10368354 0.01628485 6 
217 178 1010 0 0.19279072 0.02644858 10 
218 19 1016 0 0.44047719 0.02062104 8 
219 166 1016 0 0.20189646 0.01192806 4 
220 172 1016 0 0.07393216 0.01413045 5 
221 151 1029 0 0.03533130 0.01432074 5 
222 157 1029 0 0.02672450 0.01199742 4 
223 163 1029 0 3.39703566 0.01200973 4 
224 166 1029 0 0.49353449 0.01199986 4 
225 132 1084 0 4.21993706 0.01504195 5 
226 645 1097 2 70.95074547 0.00000574 1 
227 101 1138 0 0.63021658 0.01574977 5 
228 107 1147 0 0.73708347 0.01330251 4 
229 114 1147 0 0.03971358 0.01082329 3 
230 107 1150 0 7.45683387 0.01335181 4 
231 114 1150 0 1.00561260 0.01087032 3 
232 114 1158 0 0.16899687 0.01091312 3 
233 121 1158 0 0.69099743 0.01349925 4 
234 121 1164 0 0.45182924 0.01600922 5 
235 126 1164 0 0.04418665 0.01353035 4 
236 114 1175 0 0.14266969 0.01365872 4 
237 121 1175 0 0.27324351 0.01367474 4 
238 923 1175 0 0.18719011 0.01372342 4 
239 929 1175 0 0.16073549 0.01365683 4 
240 1158 1175 0 0.00134797 0.01113846 3 
241 101 1188 0 0.32950319 0.01387885 4 
242 939 1188 0 0.55418798 0.01381660 4 
243 1138 1188 0 0.03006025 0.01137334 3 
244 1147 1188 0 0.04063922 0.01129073 3 
245 1150 1188 0 1.83245351 0.01390287 4 
246 474 1199 2 559.32446552 0.00000532 1 
247 1050 1210 0 0.00345523 0.01406250 4 
248 1061 1210 0 0.57363906 0.01671635 5 
249 1075 1210 0 0.23107861 0.01670875 5 
250 1084 1210 0 3.13555510 0.01673210 5 
251 1088 1210 0 0.59156319 0.01409587 4 
252 1093 1210 0 0.13111230 0.01940296 6 
253 1098 1210 0 0.04730346 0.01414581 4 
254 157 1217 0 0.32750279 0.01422915 4 
255 163 1217 0 0.19904338 0.01437600 4 
256 1029 1217 0 0.01250493 0.01166536 3 
257 1044 1217 0 3.98258990 0.01442912 4 
258 1050 1217 0 4.97161000 0.01710127 5 
259 163 297 0 0.27920255 0.01523793 4 
260 189 400 0 2.09679271 0.01454592 4 
261 1056 1217 0 9.66143264 0.01719718 5 
