1 19 166 0 0.41485034 0.00212189 5 
2 19 172 0 0.02820697 0.00187294 4 
3 25 172 0 0.50366199 0.00188234 4 
4 25 178 0 0.30831851 0.00198967 4 
5 32 178 0 0.01493521 0.00199106 4 
6 32 183 0 0.07055611 0.00202035 4 
7 44 189 0 0.52863102 0.00208027 4 
8 44 195 0 0.35755137 0.00217639 4 
9 50 195 0 0.00572854 0.00220364 4 
10 50 201 0 0.04110605 0.00190729 3 
11 50 203 0 0.06975183 0.00188016 3 
12 61 203 0 0.00745912 0.00190826 3 
13 61 209 0 0.37222863 0.00231410 4 
14 67 209 0 0.41032090 0.00233689 4 
15 67 220 0 0.66144083 0.00250752 4 
16 81 220 0 0.48035877 0.00286183 5 
17 81 226 0 0.05402805 0.00257197 4 
18 87 226 0 1.82553139 0.00294436 5 
19 87 231 0 0.34656585 0.00262574 4 
20 94 231 0 0.55778528 0.00257344 4 
21 226 231 0 1.44127402 0.00299315 5 
22 94 241 0 1.33132047 0.00270357 4 
23 101 241 0 0.50961029 0.00271896 4 
24 101 247 0 1.66454674 0.00278665 4 
25 107 247 0 1.80094617 0.00279591 4 
26 107 254 0 1.18346605 0.00285059 4 
27 114 254 0 0.12939160 0.00286811 4 
28 107 256 0 0.93085039 0.00285704 4 
29 114 256 0 0.24629796 0.00286437 4 
30 107 258 0 1.37911724 0.00290651 4 
31 114 258 0 1.15747212 0.00292862 4 
32 121 266 0 0.00938596 0.00302011 4 
33 126 266 0 0.44864328 0.00355542 5 
34 126 272 0 1.03992836 0.00309922 4 
35 132 272 0 0.39070916 0.00365884 5 
36 132 278 0 0.58358145 0.00318544 4 
37 138 278 0 1.06458780 0.00374232 5 
38 138 284 0 0.02201259 0.00271986 3 
39 151 284 0 0.12777228 0.00329638 4 
40 151 291 0 0.60037557 0.00332243 4 
41 151 297 0 0.07972289 0.00285369 3 
42 157 297 0 1.04991834 0.00345559 4 
43 166 297 0 1.30507781 0.00339289 4 
44 19 305 0 0.16044642 0.00357674 4 
45 157 305 0 0.58687353 0.00361496 4 
46 163 305 0 7.56485476 0.00485038 6 
47 166 305 0 0.37495035 0.00360994 4 
48 172 305 0 0.01886255 0.00361465 4 
49 19 315 0 0.48455906 0.00311289 3 
50 25 315 0 0.02281386 0.00312246 3 
51 172 315 0 0.05679715 0.00373797 4 
52 172 328 0 0.12482725 0.00326065 3 
53 19 337 0 6.63404991 0.00466731 5 
54 25 337 0 0.96522419 0.00400263 4 
55 172 337 0 0.57611560 0.00334496 3 
56 19 342 0 0.00494520 0.00340384 3 
57 25 342 0 0.12855172 0.00407978 4 
58 172 342 0 0.01223902 0.00413161 4 
59 178 342 0 0.12442988 0.00418825 4 
60 25 367 0 0.11414782 0.00379057 3 
61 32 367 0 0.01267433 0.00597627 6 
62 178 367 0 0.00286807 0.00377356 3 
63 183 367 0 0.06698524 0.00377728 3 
64 25 374 0 0.56424690 0.00461953 4 
65 32 374 0 0.09892849 0.00533605 5 
66 178 374 0 0.03055075 0.00458954 4 
67 183 374 0 0.05309447 0.00457884 4 
68 32 382 0 4.14688582 0.00392902 3 
69 183 382 0 1.28811506 0.00466348 4 
70 32 387 0 2.72468715 0.00474261 4 
71 183 387 0 0.18197642 0.00474823 4 
72 189 414 0 7.69047346 0.00586513 5 
73 44 437 0 0.00915802 0.00438797 3 
74 195 437 0 0.01161094 0.00438306 3 
75 44 454 0 0.65644164 0.00453112 3 
76 189 454 0 0.03962740 0.00542461 4 
77 44 467 0 0.12345281 0.00642827 5 
78 50 467 0 0.00895575 0.01023928 9 
79 195 467 0 0.00230988 0.00466090 3 
80 195 484 0 0.09447226 0.00574999 4 
81 44 494 0 0.02880924 0.00577792 4 
82 50 494 0 0.00628832 0.00483071 3 
83 195 494 0 0.00818961 0.00683994 5 
84 201 494 0 0.00469852 0.00683875 5 
85 50 500 0 0.14406209 0.00695292 5 
86 201 500 0 0.05353930 0.00491120 3 
87 203 500 0 0.03252445 0.00491846 3 
88 61 508 0 0.99413579 0.00714620 5 
89 203 508 0 0.26947301 0.01226016 10 
90 209 508 0 0.03711473 0.00606770 4 
91 61 522 0 1.37942234 0.00614993 4 
92 203 522 0 0.12859200 0.00513731 3 
93 209 522 0 0.00542469 0.00510633 3 
94 61 528 0 0.47936102 0.00513766 3 
95 67 528 0 0.22419307 0.00626662 4 
96 81 528 0 0.23233822 0.00841536 6 
97 209 528 0 0.09444678 0.01065792 8 
98 220 528 0 0.13668760 0.00624321 4 
99 67 532 0 0.05459173 0.01181959 9 
100 81 532 0 0.11826401 0.00848798 6 
101 220 532 0 0.05648169 0.00634172 4 
102 67 556 0 0.98233216 0.00652454 4 
103 67 564 0 0.40168838 0.01247511 9 
104 81 564 0 0.02280941 0.00664022 4 
105 220 564 0 0.02684857 0.00666466 4 
106 67 567 0 2.67253169 0.00782269 5 
107 81 567 0 0.48923871 0.00902651 6 
108 220 567 0 0.21723258 0.00665854 4 
109 67 570 0 2.40706627 0.00911244 6 
110 81 570 0 0.15671702 0.00903947 6 
111 220 570 0 0.13379867 0.00677940 4 
112 81 575 0 2.76594993 0.00792952 5 
113 220 575 0 1.08612706 0.01036849 7 
114 81 588 0 0.01497138 0.00644137 3 
115 87 588 0 0.47937722 0.00819353 5 
116 226 588 0 0.43156268 0.00692300 4 
117 87 597 0 2.27648751 0.00958244 6 
118 94 597 0 0.38888315 0.00701090 4 
119 226 597 0 0.55079633 0.00831088 5 
120 87 604 0 0.47149562 0.00711888 4 
121 94 604 0 0.01542269 0.00840923 5 
122 94 616 0 0.01350372 0.01236127 8 
123 94 632 0 2.16969694 0.00880061 5 
124 94 637 0 4.44236402 0.01008286 6 
125 101 637 0 0.19098383 0.00751774 4 
126 101 642 0 0.11555601 0.00889433 5 
127 107 642 0 0.04025021 0.01412708 9 
128 101 645 0 6.69527511 0.00763333 4 
129 107 645 0 1.54205090 0.00751928 4 
130 101 657 0 0.73548669 0.01687899 10 
131 101 663 0 0.04971914 0.01675287 10 
132 107 663 0 0.01781179 0.00914890 5 
133 114 663 0 0.00275957 0.00916279 5 
134 101 665 0 1.55112265 0.01347979 8 
135 107 665 0 0.47667103 0.00780987 4 
136 114 665 0 0.13329170 0.00649735 3 
137 107 680 0 1.48615866 0.00938466 5 
138 107 683 0 0.94462224 0.00810331 4 
139 114 683 0 0.32178225 0.00953197 5 
140 107 704 0 0.34268109 0.01264013 7 
141 114 704 0 0.07528002 0.01553913 9 
142 107 714 0 1.79639085 0.01133907 6 
143 114 714 0 0.02860377 0.01438991 8 
144 107 730 0 0.19656714 0.01015395 5 
145 114 730 0 0.03540690 0.00855313 4 
146 121 754 0 0.33113739 0.00874240 4 
147 126 754 0 0.07673382 0.01515603 8 
148 121 759 0 2.33625684 0.01197080 6 
149 126 759 0 0.22329988 0.01202985 6 
150 126 762 0 7.08482229 0.01040111 5 
151 132 762 0 2.00372045 0.01544404 8 
152 132 778 0 0.06999780 0.00904186 4 
153 132 792 0 1.26802734 0.00928308 4 
154 132 800 0 3.35686460 0.00919964 4 
155 138 800 0 0.14494330 0.01256775 6 
156 138 806 0 0.25140739 0.00752610 3 
157 138 821 0 0.40674396 0.01108393 5 
158 138 823 0 6.54725682 0.00937813 4 
159 151 828 0 3.12108818 0.00948623 4 
160 151 847 0 0.08724621 0.01143848 5 
161 151 855 0 0.11494457 0.01510239 7 
162 151 895 0 2.80701437 0.01765877 8 
163 151 897 0 0.06118057 0.02140105 10 
164 138 903 0 0.08157811 0.01022297 4 
165 138 904 0 7.06392298 0.01400901 6 
166 132 907 0 0.71874717 0.01028955 4 
167 138 907 0 0.22077132 0.01219679 5 
168 132 911 0 0.23128175 0.01222080 5 
169 121 923 0 0.62636126 0.01433552 6 
170 126 923 0 0.07130653 0.01046948 4 
171 107 929 0 0.07225325 0.01255195 5 
172 114 929 0 0.00477553 0.01058951 4 
173 107 935 0 4.91438615 0.01650753 7 
174 114 935 0 1.40337639 0.01651989 7 
175 101 939 0 0.48567419 0.01068994 4 
176 107 939 0 0.21174614 0.01072906 4 
177 101 944 0 0.15377935 0.01273196 5 
178 94 947 0 0.23772432 0.01674894 7 
179 101 947 0 0.16826262 0.01478344 6 
180 87 953 0 0.13504795 0.01086509 4 
181 94 953 0 0.06505521 0.01490376 6 
182 226 953 0 0.08268323 0.02297378 10 
183 81 959 0 1.83528326 0.02433719 10 
184 87 959 0 1.29172246 0.01707731 7 
185 220 959 0 0.04883629 0.01101568 4 
186 226 959 0 0.12130941 0.01303374 5 
187 67 965 0 1.01368609 0.01315281 5 
188 81 965 0 0.31066014 0.01518469 6 
189 220 965 0 0.16483276 0.01928916 8 
190 61 976 0 0.16803746 0.01782533 7 
191 67 976 0 0.05676300 0.00915908 3 
192 209 976 0 0.00780965 0.01122019 4 
193 50 982 0 0.38354811 0.01134322 4 
194 61 982 0 0.27147698 0.01131389 4 
195 201 982 0 0.22200943 0.01134008 4 
196 203 982 0 0.10573284 0.02182933 9 
197 44 988 0 0.09550719 0.01143275 4 
198 50 988 0 0.05924873 0.01144182 4 
199 195 988 0 0.04319526 0.01566891 6 
200 201 988 0 0.02685916 0.01354150 5 
201 44 994 0 0.51683435 0.01785710 7 
202 189 994 0 0.29989154 0.02570875 10 
203 195 994 0 0.21957432 0.01371072 5 
204 32 1003 0 0.23901034 0.01384729 5 
205 178 1003 0 0.03356851 0.02601187 10 
206 183 1003 0 0.01433170 0.01617600 6 
207 25 1008 0 1.23858172 0.01832022 7 
208 32 1008 0 0.53803958 0.01176554 4 
209 178 1008 0 0.34459610 0.01176092 4 
210 183 1008 0 0.22233868 0.01180114 4 
211 25 1010 0 0.60236133 0.01180424 4 
212 32 1010 0 0.30591807 0.01397641 5 
213 172 1010 0 0.10368354 0.01628083 6 
214 178 1010 0 0.19279072 0.02640908 10 
215 19 1016 0 0.44047719 0.02056409 8 
216 166 1016 0 0.20189646 0.01184806 4 
217 172 1016 0 0.07393216 0.01405644 5 
218 151 1029 0 0.03533130 0.01430347 5 
219 157 1029 0 0.02672450 0.01199467 4 
220 163 1029 0 3.39703566 0.01199747 4 
221 166 1029 0 0.49353449 0.01199374 4 
222 132 1084 0 4.21993706 0.01504231 5 
223 101 1138 0 0.63021658 0.01575070 5 
224 107 1147 0 0.73708347 0.01328734 4 
225 114 1147 0 0.03971358 0.01084889 3 
226 107 1150 0 7.45683387 0.01334486 4 
227 114 1150 0 1.00561260 0.01090448 3 
228 114 1158 0 0.16899687 0.01092096 3 
229 121 1158 0 0.69099743 0.01345283 4 
230 121 1164 0 0.45182924 0.01601154 5 
231 126 1164 0 0.04418665 0.01353944 4 
232 114 1175 0 0.14266969 0.01364486 4 
233 121 1175 0 0.27324351 0.01368731 4 
234 923 1175 0 0.18719011 0.01369650 4 
235 929 1175 0 0.16073549 0.01367148 4 
236 1158 1175 0 0.00134797 0.01111931 3 
237 101 1188 0 0.32950319 0.01383113 4 
238 939 1188 0 0.55418798 0.01382812 4 
239 1138 1188 0 0.03006025 0.01135951 3 
240 1147 1188 0 0.04063922 0.01128420 3 
241 1150 1188 0 1.83245351 0.01384177 4 
242 1050 1210 0 0.00345523 0.01406525 4 
243 1061 1210 0 0.57363906 0.01669222 5 
244 1075 1210 0 0.23107861 0.01672716 5 
245 1084 1210 0 3.13555510 0.01671029 5 
246 1088 1210 0 0.59156319 0.01410265 4 
247 1093 1210 0 0.13111230 0.01934487 6 
248 1098 1210 0 0.04730346 0.01409393 4 
249 157 1217 0 0.32750279 0.01422276 4 
250 163 1217 0 0.19904338 0.01487979 4 
251 1029 1217 0 0.01250493 0.01165030 3 
252 1044 1217 0 3.98258990 0.01443066 4 
253 1050 1217 0 4.97161000 0.01710239 5 
254 163 297 0 0.27920255 0.01530440 4 
255 189 400 0 2.09679271 0.01479097 4 
256 1056 1217 0 9.66143264 0.01733673 5 
