1 19 166 0.00295871 10 
2 19 172 0.00312759 10 
3 25 172 0.00318184 10 
4 25 178 0.00330302 10 
5 32 178 0.00330613 10 
6 32 183 0.00339819 10 
7 44 189 0.00351376 10 
8 44 195 0.00362291 10 
9 50 195 0.00361724 10 
10 50 201 0.00372587 10 
11 50 203 0.00377785 10 
12 61 203 0.00376804 10 
13 61 209 0.00388040 10 
14 67 209 0.00388541 10 
15 67 220 0.00409097 10 
16 81 220 0.00407241 10 
17 81 226 0.00420312 10 
18 87 226 0.00418105 10 
19 87 231 0.00428470 10 
20 94 231 0.00427815 10 
21 226 231 0.00427166 10 
22 94 241 0.00447896 10 
23 101 241 0.00448455 10 
24 101 247 0.00458436 10 
25 107 247 0.00459356 10 
26 107 254 0.00472283 10 
27 114 254 0.00472571 10 
28 107 256 0.00477047 10 
29 114 256 0.00477561 10 
30 107 258 0.00481911 10 
31 114 258 0.00481829 10 
32 121 266 0.00497989 10 
33 126 266 0.00500775 10 
34 126 272 0.00513889 10 
35 132 272 0.00515087 10 
36 132 278 0.00526915 10 
37 138 278 0.00526318 10 
38 138 284 0.00540273 10 
39 151 284 0.00540466 10 
40 151 291 0.00552803 10 
41 151 297 0.00564953 10 
42 157 297 0.00565333 10 
43 163 297 0.00565697 10 
44 166 297 0.00567010 10 
45 19 305 0.00593662 10 
46 157 305 0.00594668 10 
47 163 305 0.00599755 10 
48 166 305 0.00598609 10 
49 172 305 0.00602014 10 
50 19 315 0.00538685 9 
51 25 315 0.00606314 10 
52 172 315 0.00621993 10 
53 172 328 0.00628098 10 
54 19 337 0.00515754 8 
55 25 337 0.00651984 10 
56 172 337 0.00668549 10 
57 19 342 0.00658674 10 
58 25 342 0.00664574 10 
59 172 342 0.00341492 5 
60 178 342 0.00665647 10 
61 25 367 0.00348258 5 
62 32 367 0.00420516 6 
63 178 367 0.00420989 6 
64 183 367 0.00494746 7 
65 25 374 0.00725025 10 
66 32 374 0.00730763 10 
67 178 374 0.00524051 7 
68 183 374 0.00654229 9 
69 32 382 0.00593848 8 
70 183 382 0.00751653 10 
71 32 387 0.00755458 10 
72 183 387 0.00449061 6 
73 189 400 0.00789216 10 
74 189 414 0.00815344 10 
75 44 437 0.00863489 10 
76 195 437 0.00881536 10 
77 44 454 0.00891214 10 
78 189 454 0.00915148 10 
79 44 467 0.00917961 10 
80 50 467 0.00944042 10 
81 195 467 0.00944943 10 
82 195 484 0.00955421 10 
83 44 494 0.00673848 7 
84 50 494 0.00977229 10 
85 195 494 0.00999927 10 
86 201 494 0.01005240 10 
87 50 500 0.00992211 10 
88 201 500 0.01016405 10 
89 203 500 0.01018662 10 
90 61 508 0.01011548 10 
91 203 508 0.01036143 10 
92 209 508 0.01039493 10 
93 61 522 0.01039033 10 
94 203 522 0.01064406 10 
95 209 522 0.01066748 10 
96 61 528 0.01052346 10 
97 67 528 0.01082785 10 
98 81 528 0.01085150 10 
99 209 528 0.01085452 10 
100 220 528 0.01112111 10 
101 67 532 0.00845216 8 
102 81 532 0.01069272 10 
103 220 532 0.01095265 10 
104 67 556 0.01117328 10 
105 67 564 0.01131220 10 
106 81 564 0.01158617 10 
107 220 564 0.01151349 10 
108 67 567 0.01139405 10 
109 81 567 0.01168732 10 
110 220 567 0.01169129 10 
111 67 570 0.01147728 10 
112 81 570 0.01176165 10 
113 220 570 0.01174833 10 
114 81 575 0.01189119 10 
115 220 575 0.01187817 10 
116 81 588 0.01186424 10 
117 87 588 0.01379825 10 
118 226 588 0.01222151 10 
119 87 597 0.01210644 10 
120 94 597 0.01240021 10 
121 226 597 0.01243182 10 
122 87 604 0.01226343 10 
123 94 604 0.01255773 10 
124 94 616 0.00990364 8 
125 94 632 0.01281878 10 
126 94 637 0.01291032 10 
127 101 637 0.01324307 10 
128 101 642 0.01301902 10 
129 107 642 0.01333468 10 
130 101 645 0.01309375 10 
131 107 645 0.01342387 10 
132 101 657 0.01333204 10 
133 101 663 0.01199990 9 
134 107 663 0.01346262 10 
135 114 663 0.01397722 10 
136 101 665 0.01369424 10 
137 107 665 0.01402242 10 
138 114 665 0.01403237 10 
139 107 680 0.01399739 10 
140 107 683 0.01408848 10 
141 114 683 0.01441263 10 
142 107 704 0.01447610 10 
143 114 704 0.01481617 10 
144 107 714 0.01465473 10 
145 114 714 0.01499039 10 
146 107 730 0.01183924 8 
147 114 730 0.01494472 10 
148 121 754 0.01536976 10 
149 126 754 0.01587105 10 
150 121 759 0.01553230 10 
151 126 759 0.01592473 10 
152 126 762 0.01561335 10 
153 132 762 0.01605348 10 
154 132 778 0.01595054 10 
155 132 792 0.01618728 10 
156 132 800 0.01638040 10 
157 138 800 0.01679410 10 
158 138 806 0.01651468 10 
159 138 821 0.01680536 10 
160 138 823 0.01676689 10 
161 151 828 0.01695394 10 
162 151 847 0.01737002 10 
163 151 855 0.01746527 10 
164 151 895 0.01849139 10 
165 151 897 0.01863368 10 
166 138 903 0.01840960 10 
167 138 904 0.01886507 10 
168 132 907 0.01852847 10 
169 138 907 0.01896152 10 
170 132 911 0.01857901 10 
171 121 923 0.01889028 10 
172 126 923 0.01936769 10 
173 107 929 0.01914074 10 
174 114 929 0.01959984 10 
175 107 935 0.01922668 10 
176 114 935 0.01985837 10 
177 101 939 0.01919119 10 
178 107 939 0.01919598 10 
179 101 944 0.01941623 10 
180 94 947 0.01948803 10 
181 101 947 0.01993718 10 
182 87 953 0.01967575 10 
183 94 953 0.02013754 10 
184 226 953 0.02014038 10 
185 81 959 0.01985367 10 
186 87 959 0.02031914 10 
187 220 959 0.02039348 10 
188 226 959 0.02035031 10 
189 67 965 0.02008107 10 
190 81 965 0.02051631 10 
191 220 965 0.02052733 10 
192 61 976 0.02027159 10 
193 67 976 0.02081250 10 
194 209 976 0.02077026 10 
195 50 982 0.02050957 10 
196 61 982 0.02099559 10 
197 201 982 0.02103089 10 
198 203 982 0.02106214 10 
199 44 988 0.02086963 10 
200 50 988 0.02119916 10 
201 195 988 0.02122116 10 
202 201 988 0.01687867 8 
203 44 994 0.02083987 10 
204 189 994 0.02142648 10 
205 195 994 0.02143201 10 
206 32 1003 0.02114984 10 
207 178 1003 0.02165756 10 
208 183 1003 0.02168292 10 
209 25 1008 0.02137461 10 
210 32 1008 0.02181895 10 
211 178 1008 0.02183974 10 
212 183 1008 0.02192851 10 
213 25 1010 0.02146515 10 
214 32 1010 0.02188279 10 
215 172 1010 0.02201605 10 
216 178 1010 0.02199676 10 
217 19 1016 0.02152931 10 
218 166 1016 0.02190925 10 
219 172 1016 0.01962098 9 
220 151 1029 0.02202643 10 
221 157 1029 0.02220818 10 
222 163 1029 0.02224049 10 
223 166 1029 0.02223171 10 
224 132 1084 0.02327213 10 
225 101 1138 0.02406272 10 
226 107 1147 0.02422160 10 
227 114 1147 0.02484216 10 
228 107 1150 0.02428328 10 
229 114 1150 0.02489082 10 
230 114 1158 0.02450720 10 
231 121 1158 0.02509847 10 
232 121 1164 0.02466326 10 
233 126 1164 0.02525925 10 
234 114 1175 0.02494830 10 
235 121 1175 0.02557057 10 
236 923 1175 0.02560498 10 
237 929 1175 0.02553954 10 
238 1158 1175 0.01782718 7 
239 101 1188 0.02524327 10 
240 939 1188 0.02583098 10 
241 1138 1188 0.02588501 10 
242 1147 1188 0.02598848 10 
243 1150 1188 0.02596833 10 
244 1050 1210 0.02577942 10 
245 1061 1210 0.02640073 10 
246 1075 1210 0.02639827 10 
247 1084 1210 0.02639673 10 
248 1088 1210 0.02640462 10 
249 1093 1210 0.02643989 10 
250 1098 1210 0.02644505 10 
251 157 1217 0.02597912 10 
252 163 1217 0.02688438 10 
253 1029 1217 0.02684286 10 
254 1044 1217 0.02695937 10 
255 1050 1217 0.02691268 10 
256 1056 1217 0.02693278 10 
