1 19 166 0 0.41485034 0.00210617 5 
2 19 172 0 0.02820697 0.00187250 4 
3 25 172 0 0.50366199 0.00187962 4 
4 25 178 0 0.30831851 0.00198400 4 
5 32 178 0 0.01493521 0.00198959 4 
6 32 183 0 0.07055611 0.00202052 4 
7 44 189 0 0.52863102 0.00207994 4 
8 44 195 0 0.35755137 0.00217463 4 
9 50 195 0 0.00572854 0.00220040 4 
10 50 201 0 0.04110605 0.00190119 3 
11 50 203 0 0.06975183 0.00188244 3 
12 61 203 0 0.00745912 0.00189923 3 
13 61 209 0 0.37222863 0.00231532 4 
14 67 209 0 0.41032090 0.00233199 4 
15 67 220 0 0.66144083 0.00250798 4 
16 81 220 0 0.48035877 0.00286434 5 
17 81 226 0 0.05402805 0.00257080 4 
18 87 226 0 1.82553139 0.00293685 5 
19 87 231 0 0.34656585 0.00262757 4 
20 94 231 0 0.55778528 0.00257002 4 
21 226 231 0 1.44127402 0.00298674 5 
22 94 241 0 1.33132047 0.00268968 4 
23 101 241 0 0.50961029 0.00272207 4 
24 101 247 0 1.66454674 0.00275910 4 
25 107 247 0 1.80094617 0.00278868 4 
26 107 254 0 1.18346605 0.00284116 4 
27 114 254 0 0.12939160 0.00286784 4 
28 107 256 0 0.93085039 0.00285870 4 
29 114 256 0 0.24629796 0.00286655 4 
30 107 258 0 1.37911724 0.00290277 4 
31 114 258 0 1.15747212 0.00293164 4 
32 121 266 0 0.00938596 0.00300971 4 
33 126 266 0 0.44864328 0.00355075 5 
34 126 272 0 1.03992836 0.00309903 4 
35 132 272 0 0.39070916 0.00364673 5 
36 132 278 0 0.58358145 0.00317690 4 
37 138 278 0 1.06458780 0.00373771 5 
38 138 284 0 0.02201259 0.00271496 3 
39 151 284 0 0.12777228 0.00329256 4 
40 151 291 0 0.60037557 0.00331484 4 
41 151 297 0 0.07972289 0.00285563 3 
42 157 297 0 1.04991834 0.00345007 4 
43 166 297 0 1.30507781 0.00338830 4 
44 19 305 0 0.16044642 0.00357546 4 
45 157 305 0 0.58687353 0.00361887 4 
46 163 305 0 7.56485476 0.00486317 6 
47 166 305 0 0.37495035 0.00361077 4 
48 172 305 0 0.01886255 0.00361038 4 
49 19 315 0 0.48455906 0.00310685 3 
50 25 315 0 0.02281386 0.00311626 3 
51 172 315 0 0.05679715 0.00373787 4 
52 172 328 0 0.12482725 0.00325719 3 
53 19 337 0 6.63404991 0.00466772 5 
54 25 337 0 0.96522419 0.00400940 4 
55 172 337 0 0.57611560 0.00334105 3 
56 19 342 0 0.00494520 0.00338120 3 
57 25 342 0 0.12855172 0.00406958 4 
58 172 342 0 0.01223902 0.00412760 4 
59 178 342 0 0.12442988 0.00420359 4 
60 188 350 2 2603.92883671 0.00000287 1 
61 25 367 0 0.11414782 0.00379470 3 
62 32 367 0 0.01267433 0.00599266 6 
63 178 367 0 0.00286807 0.00376466 3 
64 183 367 0 0.06698524 0.00375401 3 
65 25 374 0 0.56424690 0.00459479 4 
66 32 374 0 0.09892849 0.00534807 5 
67 178 374 0 0.03055075 0.00460059 4 
68 183 374 0 0.05309447 0.00458551 4 
69 32 382 0 4.14688582 0.00392897 3 
70 183 382 0 1.28811506 0.00465726 4 
71 32 387 0 2.72468715 0.00473627 4 
72 183 387 0 0.18197642 0.00472480 4 
73 189 414 0 7.69047346 0.00585610 5 
74 44 437 0 0.00915802 0.00438289 3 
75 195 437 0 0.01161094 0.00437370 3 
76 44 454 0 0.65644164 0.00451969 3 
77 189 454 0 0.03962740 0.00543422 4 
78 44 467 0 0.12345281 0.00642122 5 
79 50 467 0 0.00895575 0.01023144 9 
80 195 467 0 0.00230988 0.00463446 3 
81 436 475 2 258.43413714 0.00000341 1 
82 195 484 0 0.09447226 0.00574626 4 
83 44 494 0 0.02880924 0.00576881 4 
84 50 494 0 0.00628832 0.00481803 3 
85 195 494 0 0.00818961 0.00682406 5 
86 201 494 0 0.00469852 0.00683508 5 
87 50 500 0 0.14406209 0.00695434 5 
88 201 500 0 0.05353930 0.00493555 3 
89 203 500 0 0.03252445 0.00488681 3 
90 395 503 2 651.87975894 0.00000345 1 
91 326 504 2 1075.81771961 0.00000287 1 
92 61 508 0 0.99413579 0.00712818 5 
93 203 508 0 0.26947301 0.01220910 10 
94 209 508 0 0.03711473 0.00603183 4 
95 61 522 0 1.37942234 0.00614442 4 
96 203 522 0 0.12859200 0.00511688 3 
97 209 522 0 0.00542469 0.00509951 3 
98 61 528 0 0.47936102 0.00515800 3 
99 67 528 0 0.22419307 0.00629061 4 
100 81 528 0 0.23233822 0.00841663 6 
101 209 528 0 0.09444678 0.01061591 8 
102 220 528 0 0.13668760 0.00623182 4 
103 107 531 2 3887.46580643 0.00000308 1 
104 67 532 0 0.05459173 0.01181021 9 
105 81 532 0 0.11826401 0.00847341 6 
106 220 532 0 0.05648169 0.00633780 4 
107 67 556 0 0.98233216 0.00650915 4 
108 67 564 0 0.40168838 0.01234526 9 
109 81 564 0 0.02280941 0.00663529 4 
110 220 564 0 0.02684857 0.00666752 4 
111 67 567 0 2.67253169 0.00784344 5 
112 81 567 0 0.48923871 0.00902021 6 
113 220 567 0 0.21723258 0.00665197 4 
114 67 570 0 2.40706627 0.00909939 6 
115 81 570 0 0.15671702 0.00903776 6 
116 220 570 0 0.13379867 0.00673857 4 
117 81 575 0 2.76594993 0.00793076 5 
118 220 575 0 1.08612706 0.01036449 7 
119 81 588 0 0.01497138 0.00568255 3 
120 87 588 0 0.47937722 0.00817669 5 
121 226 588 0 0.43156268 0.00692081 4 
122 87 597 0 2.27648751 0.00955458 6 
123 94 597 0 0.38888315 0.00699980 4 
124 226 597 0 0.55079633 0.00831072 5 
125 531 597 2 3041.07333879 0.00000251 5 
126 87 604 0 0.47149562 0.00711283 4 
127 94 604 0 0.01542269 0.00840718 5 
128 94 616 0 0.01350372 0.01233959 8 
129 94 632 0 2.16969694 0.00878294 5 
130 94 637 0 4.44236402 0.01006721 6 
131 101 637 0 0.19098383 0.00754307 4 
132 101 642 0 0.11555601 0.00891229 5 
133 107 642 0 0.04025021 0.01407956 9 
134 101 645 0 6.69527511 0.00762111 4 
135 107 645 0 1.54205090 0.00751156 4 
136 355 645 2 1080.05652352 0.00000351 4 
137 101 657 0 0.73548669 0.01667116 10 
138 101 663 0 0.04971914 0.01669969 10 
139 107 663 0 0.01781179 0.00913686 5 
140 114 663 0 0.00275957 0.00915394 5 
141 101 665 0 1.55112265 0.01347957 8 
142 107 665 0 0.47667103 0.00780357 4 
143 114 665 0 0.13329170 0.00650591 3 
144 107 680 0 1.48615866 0.00938198 5 
145 437 681 2 358.39670544 0.00000347 1 
146 107 683 0 0.94462224 0.00803595 4 
147 114 683 0 0.32178225 0.00953750 5 
148 437 688 2 1951.75905149 0.00000341 1 
149 107 704 0 0.34268109 0.01263297 7 
150 114 704 0 0.07528002 0.01550980 9 
151 107 714 0 1.79639085 0.01133742 6 
152 114 714 0 0.02860377 0.01438591 8 
153 107 730 0 0.19656714 0.01021724 5 
154 114 730 0 0.03540690 0.00855442 4 
155 228 741 2 656.51541147 0.00000356 1 
156 121 754 0 0.33113739 0.00876891 4 
157 126 754 0 0.07673382 0.01515197 8 
158 121 759 0 2.33625684 0.01196439 6 
159 126 759 0 0.22329988 0.01206811 6 
160 126 762 0 7.08482229 0.01040715 5 
161 132 762 0 2.00372045 0.01554425 8 
162 132 778 0 0.06999780 0.00905055 4 
163 132 792 0 1.26802734 0.00933099 4 
164 0 796 2 179.71927050 0.00000368 1 
165 132 800 0 3.35686460 0.00920532 4 
166 138 800 0 0.14494330 0.01256930 6 
167 138 806 0 0.25140739 0.00754778 3 
168 462 816 2 1038.16098415 0.00000318 1 
169 138 821 0 0.40674396 0.01109917 5 
170 138 823 0 6.54725682 0.00943035 4 
171 151 828 0 3.12108818 0.00950948 4 
172 384 846 2 634.52857506 0.00000415 1 
173 151 847 0 0.08724621 0.01147956 5 
174 151 855 0 0.11494457 0.01559198 7 
175 590 869 2 1932.84937776 0.00000467 1 
176 151 895 0 2.80701437 0.01763290 8 
177 151 897 0 0.06118057 0.02141547 10 
178 138 903 0 0.08157811 0.01026080 4 
179 138 904 0 7.06392298 0.01402974 6 
180 132 907 0 0.71874717 0.01033832 4 
181 138 907 0 0.22077132 0.01225173 5 
182 132 911 0 0.23128175 0.01225307 5 
183 121 923 0 0.62636126 0.01440957 6 
184 126 923 0 0.07130653 0.01050696 4 
185 107 929 0 0.07225325 0.01256779 5 
186 114 929 0 0.00477553 0.01064114 4 
187 107 935 0 4.91438615 0.01654395 7 
188 114 935 0 1.40337639 0.01657924 7 
189 101 939 0 0.48567419 0.01072917 4 
190 107 939 0 0.21174614 0.01078217 4 
191 101 944 0 0.15377935 0.01278173 5 
192 94 947 0 0.23772432 0.01684668 7 
193 101 947 0 0.16826262 0.01486443 6 
194 87 953 0 0.13504795 0.01093568 4 
195 94 953 0 0.06505521 0.01497891 6 
196 226 953 0 0.08268323 0.02295885 10 
197 234 953 2 4358.32091247 0.00000439 10 
198 81 959 0 1.83528326 0.02441687 10 
199 87 959 0 1.29172246 0.01707786 7 
200 220 959 0 0.04883629 0.01101253 4 
201 226 959 0 0.12130941 0.01305502 5 
202 782 963 2 2176.08620197 0.00000436 1 
203 67 965 0 1.01368609 0.01313942 5 
204 81 965 0 0.31066014 0.01516536 6 
205 220 965 0 0.16483276 0.01927379 8 
206 61 976 0 0.16803746 0.01749399 7 
207 67 976 0 0.05676300 0.00921451 3 
208 209 976 0 0.00780965 0.01121123 4 
209 549 981 2 1347.98815334 0.00000491 1 
210 50 982 0 0.38354811 0.01138362 4 
211 61 982 0 0.27147698 0.01139111 4 
212 201 982 0 0.22200943 0.01138983 4 
213 203 982 0 0.10573284 0.02183982 9 
214 44 988 0 0.09550719 0.01148859 4 
215 50 988 0 0.05924873 0.01151510 4 
216 195 988 0 0.04319526 0.01569541 6 
217 201 988 0 0.02685916 0.01357230 5 
218 44 994 0 0.51683435 0.01797607 7 
219 189 994 0 0.29989154 0.02581231 10 
220 195 994 0 0.21957432 0.01378314 5 
221 965 1002 2 1147.38620993 0.00000591 1 
222 32 1003 0 0.23901034 0.01393025 5 
223 178 1003 0 0.03356851 0.02608480 10 
224 183 1003 0 0.01433170 0.01606688 6 
225 25 1008 0 1.23858172 0.01842882 7 
226 32 1008 0 0.53803958 0.01180103 4 
227 178 1008 0 0.34459610 0.01176017 4 
228 183 1008 0 0.22233868 0.01180567 4 
229 25 1010 0 0.60236133 0.01180179 4 
230 32 1010 0 0.30591807 0.01398388 5 
231 172 1010 0 0.10368354 0.01626724 6 
232 178 1010 0 0.19279072 0.02639559 10 
233 19 1016 0 0.44047719 0.02052341 8 
234 166 1016 0 0.20189646 0.01181556 4 
235 172 1016 0 0.07393216 0.01402084 5 
236 151 1029 0 0.03533130 0.01443117 5 
237 157 1029 0 0.02672450 0.01207050 4 
238 163 1029 0 3.39703566 0.01200644 4 
239 166 1029 0 0.49353449 0.01202544 4 
240 132 1084 0 4.21993706 0.01502360 5 
241 172 1102 2 546.09813726 0.00000510 1 
242 366 1111 2 595.72339719 0.00000563 1 
243 531 1122 2 1185.43371663 0.00000566 1 
244 101 1138 0 0.63021658 0.01602400 5 
245 107 1147 0 0.73708347 0.01338303 4 
246 114 1147 0 0.03971358 0.01080854 3 
247 107 1150 0 7.45683387 0.01333028 4 
248 114 1150 0 1.00561260 0.01087002 3 
249 752 1154 2 382.27137140 0.00000522 1 
250 114 1158 0 0.16899687 0.01094211 3 
251 121 1158 0 0.69099743 0.01344879 4 
252 557 1158 2 5430.95263994 0.00000514 4 
253 121 1164 0 0.45182924 0.01603738 5 
254 126 1164 0 0.04418665 0.01354738 4 
255 114 1175 0 0.14266969 0.01363270 4 
256 121 1175 0 0.27324351 0.01367355 4 
257 923 1175 0 0.18719011 0.01393336 4 
258 929 1175 0 0.16073549 0.01367122 4 
259 1158 1175 0 0.00134797 0.01111688 3 
260 101 1188 0 0.32950319 0.01379859 4 
261 939 1188 0 0.55418798 0.01380772 4 
262 1138 1188 0 0.03006025 0.01138655 3 
263 1147 1188 0 0.04063922 0.01126694 3 
264 1150 1188 0 1.83245351 0.01383893 4 
265 24 1208 2 217.84873834 0.00000521 1 
266 1050 1210 0 0.00345523 0.01408453 4 
267 1061 1210 0 0.57363906 0.01672656 5 
268 1075 1210 0 0.23107861 0.01666749 5 
269 1084 1210 0 3.13555510 0.01669940 5 
270 1088 1210 0 0.59156319 0.01407516 4 
271 1093 1210 0 0.13111230 0.01933086 6 
272 1098 1210 0 0.04730346 0.01408942 4 
273 157 1217 0 0.32750279 0.01422170 4 
274 163 1217 0 0.19904338 0.01433185 4 
275 1029 1217 0 0.01250493 0.01163682 3 
276 1044 1217 0 3.98258990 0.01435432 4 
277 1050 1217 0 4.97161000 0.01700798 5 
278 850 1225 2 529.48394761 0.00000506 1 
279 163 297 0 0.27920255 0.01514711 4 
280 189 400 0 2.09679271 0.01456175 4 
281 1056 1217 0 9.66143264 0.01723186 5 
