1 33 80 0.07144660 5 
2 72 86 0.03821020 3 
3 69 93 0.07178543 5 
4 79 100 0.07388910 5 
5 90 136 0.08922625 6 
6 72 165 0.16231998 10 
7 19 166 0.16945642 10 
8 19 172 0.12051643 10 
9 25 172 0.00349785 10 
10 25 178 0.00327299 10 
11 32 178 0.00731391 10 
12 32 183 0.00337109 10 
13 44 189 0.00350988 10 
14 44 195 0.00362113 10 
15 50 195 0.00363992 10 
16 50 201 0.00374217 10 
17 50 203 0.00379035 10 
18 61 203 0.00380739 10 
19 11 204 0.00394948 10 
20 61 209 0.00404684 10 
21 67 209 0.00406054 10 
22 67 220 0.00426604 10 
23 81 220 0.00429847 10 
24 81 226 0.00450567 10 
25 87 226 0.00453454 10 
26 87 231 0.00452525 10 
27 94 231 0.00463214 10 
28 226 231 0.00462576 10 
29 94 241 0.00481351 10 
30 101 241 0.00483480 10 
31 101 247 0.00494921 10 
32 107 247 0.00496975 10 
33 165 249 0.00504111 10 
34 107 254 0.00514211 10 
35 114 254 0.00516126 10 
36 107 256 0.00520339 10 
37 114 256 0.00520520 10 
38 107 258 0.00523832 10 
39 114 258 0.00526671 10 
40 121 266 0.00541196 10 
41 126 266 0.00542928 10 
42 126 272 0.00553754 10 
43 132 272 0.00553981 10 
44 99 272 0.00563025 10 
45 96 275 0.00570110 10 
46 132 278 0.00579011 10 
47 138 278 0.00581570 10 
48 138 284 0.00593109 10 
49 151 284 0.00594110 10 
50 151 291 0.00607803 10 
51 240 291 0.00611959 10 
52 198 292 0.00622952 10 
53 151 297 0.00640572 10 
54 157 297 0.00639039 10 
55 163 297 0.00640172 10 
56 166 297 0.00648962 10 
57 19 305 0.00664177 10 
58 157 305 0.00667397 10 
59 163 305 0.00668306 10 
60 166 305 0.00667641 10 
61 172 305 0.00674793 10 
62 50 309 0.00684106 10 
63 19 315 0.00697048 10 
64 25 315 0.00699623 10 
65 172 315 0.00701470 10 
66 282 316 0.00707395 10 
67 312 317 0.00717620 10 
68 172 328 0.00740018 10 
69 19 337 0.00755498 10 
70 25 337 0.00758827 10 
71 172 337 0.00757881 10 
72 19 342 0.00768632 10 
73 25 342 0.00770563 10 
74 172 342 0.00770218 10 
75 178 342 0.00774040 10 
76 25 367 0.00822473 10 
77 32 367 0.00823533 10 
78 178 367 0.00824761 10 
79 183 367 0.00825236 10 
80 224 370 0.00848707 10 
81 25 374 0.00862292 10 
82 32 374 0.00863688 10 
83 178 374 0.00864537 10 
84 183 374 0.00865313 10 
85 82 378 0.00881746 10 
86 32 382 0.00891380 10 
87 183 382 0.00895089 10 
88 32 387 0.00906994 10 
89 183 387 0.00904801 10 
90 331 397 0.00937951 10 
91 189 400 0.00950531 10 
92 155 405 0.00972408 10 
93 189 414 0.00989304 10 
94 303 417 0.00994980 10 
95 44 437 0.01034002 10 
96 195 437 0.01030391 10 
97 190 437 0.01032357 10 
98 381 438 0.01041258 10 
99 60 446 0.01061988 10 
100 44 454 0.01091578 10 
101 189 454 0.01087823 10 
102 403 466 0.01119796 10 
103 44 467 0.01122079 10 
104 50 467 0.01124498 10 
105 195 467 0.01124778 10 
106 246 468 0.01150145 10 
107 431 468 0.01162542 10 
108 286 471 0.01155745 10 
109 195 484 0.01202263 10 
110 44 494 0.01225624 10 
111 50 494 0.01226530 10 
112 195 494 0.01226109 10 
113 201 494 0.01231969 10 
114 70 499 0.01245113 10 
115 50 500 0.01248605 10 
116 201 500 0.01251765 10 
117 203 500 0.01252237 10 
118 16 503 0.01286233 10 
119 61 508 0.01273838 10 
120 203 508 0.01287259 10 
121 209 508 0.01288475 10 
122 479 513 0.01309384 10 
123 61 522 0.01326854 10 
124 203 522 0.01322640 10 
125 209 522 0.01321233 10 
126 102 527 0.01379419 10 
127 61 528 0.01393997 10 
128 67 528 0.01401648 10 
129 81 528 0.01477085 10 
130 209 528 0.01410535 10 
131 220 528 0.01410719 10 
132 67 532 0.01416154 10 
133 81 532 0.01418957 10 
134 220 532 0.01418555 10 
135 473 546 0.01430774 10 
136 67 556 0.01489105 10 
137 460 559 0.01482344 10 
138 67 564 0.01517681 10 
139 81 564 0.01517629 10 
140 220 564 0.01518680 10 
141 67 567 0.01523872 10 
142 81 567 0.01526818 10 
143 220 567 0.01526633 10 
144 67 570 0.01533036 10 
145 81 570 0.01534441 10 
146 220 570 0.01536153 10 
147 81 575 0.01546018 10 
148 220 575 0.01549142 10 
149 508 576 0.01545356 10 
150 136 577 0.01544215 10 
151 353 581 0.01574463 10 
152 81 588 0.01588614 10 
153 87 588 0.01591820 10 
154 226 588 0.01581612 10 
155 402 591 0.01622594 10 
156 471 592 0.01639660 10 
157 432 595 0.01668315 10 
158 87 597 0.01676114 10 
159 94 597 0.01680055 10 
160 226 597 0.01684883 10 
161 87 604 0.01696726 10 
162 94 604 0.01696353 10 
163 480 606 0.01725748 10 
164 221 606 0.01737457 10 
165 497 613 0.01762958 10 
166 94 616 0.01761207 10 
167 521 618 0.01811402 10 
168 326 628 0.01781739 10 
169 368 630 0.01797407 10 
170 52 631 0.01837721 10 
171 94 632 0.01849122 10 
172 94 637 0.01857988 10 
173 101 637 0.01861906 10 
174 101 642 0.01873469 10 
175 107 642 0.01875464 10 
176 101 645 0.01879941 10 
177 107 645 0.01879637 10 
178 517 652 0.01926731 10 
179 100 656 0.01934020 10 
180 101 657 0.01937245 10 
181 277 662 0.01939442 10 
182 101 663 0.01944228 10 
183 107 663 0.01944102 10 
184 114 663 0.01962143 10 
185 101 665 0.01964543 10 
186 107 665 0.01969533 10 
187 114 665 0.02011655 10 
188 591 668 0.01984933 10 
189 107 680 0.02007990 10 
190 107 683 0.02012934 10 
191 114 683 0.02012046 10 
192 323 687 0.02045062 10 
193 532 696 0.02152022 10 
194 335 702 0.02148863 10 
195 107 704 0.02145533 10 
196 114 704 0.02154873 10 
197 518 709 0.02150812 10 
198 107 714 0.02214446 10 
199 114 714 0.02213006 10 
200 41 714 0.02245574 10 
201 689 717 0.02227569 10 
202 126 725 0.02241283 10 
203 85 725 0.02277318 10 
204 316 727 0.02279173 10 
205 133 728 0.02296234 10 
206 107 730 0.02302431 10 
207 114 730 0.02303498 10 
208 500 732 0.02328386 10 
209 706 735 0.02384993 10 
210 66 743 0.02405823 10 
211 257 749 0.02416735 10 
212 714 752 0.02474523 10 
213 121 754 0.02451708 10 
214 126 754 0.02458149 10 
215 378 755 0.02488448 10 
216 13 756 0.02519853 10 
217 121 759 0.02587460 10 
218 126 759 0.02566510 10 
219 126 762 0.02570952 10 
220 132 762 0.02574021 10 
221 676 765 0.02601042 10 
222 528 772 0.02606259 10 
223 132 778 0.02619628 10 
224 331 781 0.02734959 10 
225 435 786 0.02765730 10 
226 568 787 0.02788932 10 
227 699 789 0.02854772 10 
228 132 792 0.02755968 10 
229 199 798 0.02755901 10 
230 132 800 0.02769366 10 
231 138 800 0.02780612 10 
232 138 806 0.02793818 10 
233 315 807 0.02862781 10 
234 193 819 0.02898245 10 
235 138 821 0.02902971 10 
236 138 823 0.02905556 10 
237 151 828 0.02954106 10 
238 278 833 0.02889914 10 
239 600 842 0.02978254 10 
240 799 846 0.02968021 10 
241 151 847 0.02975165 10 
242 220 847 0.02967684 10 
243 151 855 0.02976228 10 
244 793 858 0.02993880 10 
245 83 860 0.03056495 10 
246 662 863 0.03106180 10 
247 168 878 0.03122945 10 
248 849 889 0.03174895 10 
249 151 895 0.03189509 10 
250 151 897 0.03247305 10 
251 138 903 0.03196011 10 
252 138 904 0.03202903 10 
253 257 906 0.03351382 10 
254 132 907 0.03193365 10 
255 138 907 0.03194491 10 
256 132 911 0.03198391 10 
257 496 914 0.03261543 10 
258 539 917 0.03207963 10 
259 121 923 0.03237484 10 
260 126 923 0.03246347 10 
261 107 929 0.03262294 10 
262 114 929 0.03256731 10 
263 107 935 0.03275180 10 
264 114 935 0.03274478 10 
265 599 935 0.03319247 10 
266 101 939 0.03328243 10 
267 107 939 0.03326076 10 
268 101 944 0.03330256 10 
269 94 947 0.03336784 10 
270 101 947 0.03342378 10 
271 87 953 0.03357446 10 
272 94 953 0.03358033 10 
273 226 953 0.03350890 10 
274 489 957 0.03426293 10 
275 81 959 0.03423582 10 
276 87 959 0.03365819 10 
277 220 959 0.03369490 10 
278 226 959 0.03433108 10 
279 67 965 0.03438642 10 
280 81 965 0.03439452 10 
281 220 965 0.03443215 10 
282 581 966 0.03430913 10 
283 789 970 0.03395147 10 
284 951 970 0.03401515 10 
285 653 974 0.03398045 10 
286 803 974 0.03427521 10 
287 61 976 0.03438387 10 
288 67 976 0.03419398 10 
289 209 976 0.03422933 10 
290 471 980 0.03438336 10 
291 50 982 0.03438022 10 
292 61 982 0.03440524 10 
293 201 982 0.03504062 10 
294 203 982 0.03518737 10 
295 44 988 0.03517606 10 
296 50 988 0.03516769 10 
297 195 988 0.03465076 10 
298 201 988 0.03515443 10 
299 44 994 0.03524672 10 
300 189 994 0.03497746 10 
301 195 994 0.03500666 10 
302 784 994 0.03548002 10 
303 910 997 0.03540098 10 
304 920 1001 0.03591095 10 
305 32 1003 0.03590870 10 
306 178 1003 0.03618430 10 
307 183 1003 0.03640401 10 
308 25 1008 0.03693465 10 
309 32 1008 0.03678000 10 
310 178 1008 0.03677328 10 
311 183 1008 0.03676151 10 
312 25 1010 0.03683400 10 
313 32 1010 0.03681614 10 
314 172 1010 0.03622839 10 
315 178 1010 0.03620293 10 
316 160 1011 0.03729200 10 
317 19 1016 0.03740431 10 
318 166 1016 0.03701749 10 
319 172 1016 0.03741304 10 
320 689 1024 0.03720032 10 
321 493 1028 0.03813259 10 
322 151 1029 0.03820984 10 
323 157 1029 0.03815056 10 
324 163 1029 0.03812450 10 
325 166 1029 0.03812834 10 
326 753 1029 0.03865133 10 
327 942 1032 0.03871491 10 
328 536 1032 0.03893178 10 
329 436 1036 0.03926289 10 
330 705 1038 0.03950556 10 
331 833 1043 0.03936588 10 
332 975 1049 0.03988324 10 
333 650 1049 0.04036526 10 
334 888 1059 0.04037186 10 
335 345 1068 0.04314425 10 
336 24 1079 0.04170224 10 
337 132 1084 0.04113429 10 
338 268 1093 0.04165027 10 
339 493 1096 0.04172384 10 
340 223 1096 0.04277208 10 
341 913 1104 0.04236202 10 
342 496 1108 0.04260261 10 
343 508 1111 0.04298101 10 
344 795 1115 0.04293568 10 
345 990 1119 0.04378644 10 
346 446 1119 0.04415451 10 
347 139 1121 0.04422992 10 
348 675 1123 0.04399023 10 
349 592 1128 0.04383492 10 
350 1055 1130 0.04511897 10 
351 700 1131 0.04560321 10 
352 101 1138 0.04571207 10 
353 37 1141 0.04570433 10 
354 110 1143 0.04609723 10 
355 1084 1144 0.04595617 10 
356 408 1145 0.04586629 10 
357 107 1147 0.04591757 10 
358 114 1147 0.04597707 10 
359 107 1150 0.04605369 10 
360 114 1150 0.04602293 10 
361 929 1156 0.04701840 10 
362 114 1158 0.04704927 10 
363 121 1158 0.04941641 10 
364 308 1158 0.21550209 10 
365 816 1159 0.20954558 10 
366 121 1164 0.21318770 10 
367 126 1164 0.21202688 10 
368 517 1165 0.08497256 10 
369 315 1174 0.04789194 10 
370 114 1175 0.04783308 10 
371 121 1175 0.04791206 10 
372 923 1175 0.04718487 10 
373 929 1175 0.04719931 10 
374 1158 1175 0.04721609 10 
375 678 1185 0.04888696 10 
376 51 1185 0.04807137 10 
377 643 1186 0.04874777 10 
378 101 1188 0.04883044 10 
379 939 1188 0.04865322 10 
380 1138 1188 0.05003331 10 
381 1147 1188 0.05000389 10 
382 1150 1188 0.05001202 10 
383 234 1192 0.05019250 10 
384 439 1194 0.05140268 10 
385 633 1196 0.05102125 10 
386 666 1204 0.05088352 10 
387 296 1207 0.05057103 10 
388 857 1208 0.05125942 10 
389 1050 1210 0.05219014 10 
390 1061 1210 0.05126973 10 
391 1075 1210 0.05213276 10 
392 1084 1210 0.05220649 10 
393 1088 1210 0.05182120 10 
394 1093 1210 0.05182337 10 
395 1098 1210 0.05191931 10 
396 1049 1214 0.05213390 10 
397 157 1217 0.05252574 10 
398 163 1217 0.05255316 10 
399 1029 1217 0.05222144 10 
400 1044 1217 0.05221471 10 
401 1050 1217 0.05287242 10 
402 1056 1217 0.05288998 10 
403 104 1217 0.05288379 10 
404 977 1219 0.05288230 10 
405 366 1221 0.05398615 10 
406 437 1224 0.05495917 10 
