VERTEX2 0 -0.00000668 -0.00000079 -0.00000024
VERTEX2 1 -0.00000668 -0.00000079 -0.00064224
VERTEX2 2 -0.00000669 -0.00000079 -0.00118024
VERTEX2 3 0.01099517 -0.00097577 -0.00356224
VERTEX2 4 0.64100174 -0.01120107 -0.00744424
VERTEX2 5 0.69600942 -0.01171657 -0.09872624
VERTEX2 6 0.70026254 -0.01543590 -0.89599824
VERTEX2 7 0.69394981 0.00421257 -1.51153524
VERTEX2 8 0.69925667 0.02669332 -2.12506924
VERTEX2 9 0.71610793 0.04112233 -2.76313924
VERTEX2 10 0.72897444 0.04321972 2.90551507
VERTEX2 11 0.73319703 0.04053667 2.23123607
VERTEX2 12 0.73317975 0.04154510 1.58176207
VERTEX2 13 0.73874591 0.05907018 0.92226407
VERTEX2 14 0.75965142 0.07375038 0.31402507
VERTEX2 15 0.76856482 0.07435731 -0.21090293
VERTEX2 16 1.06248686 0.01415180 -0.22959493
VERTEX2 17 1.66364048 -0.13311508 -0.26082293
VERTEX2 18 2.28699458 -0.29648031 -0.27099993
VERTEX2 19 2.91429045 -0.49425430 -0.31957593
VERTEX2 20 3.50799122 -0.68431940 -0.31366316
VERTEX2 21 4.11715744 -0.83670962 -0.20210619
VERTEX2 22 4.72716953 -0.97808941 -0.18472905
VERTEX2 23 5.36729214 -1.02240922 -0.07733121
VERTEX2 24 5.99901220 -1.09374021 -0.13441932
VERTEX2 25 6.63404902 -1.16157528 -0.13168881
VERTEX2 26 7.24308942 -1.26232109 -0.17226046
VERTEX2 27 7.85907331 -1.35389531 -0.15646961
VERTEX2 28 8.44075956 -1.45277217 -0.16095789
VERTEX2 29 8.81987640 -1.51039273 -0.13023357
VERTEX2 30 8.82916425 -1.51286657 -0.66245935
VERTEX2 31 8.93015082 -1.64848853 -0.93088962
VERTEX2 32 9.29789016 -2.16338236 -0.94947440
VERTEX2 33 9.68343023 -2.67465467 -0.89871433
VERTEX2 34 10.09846121 -3.16965617 -0.87773671
VERTEX2 35 10.52369333 -3.65693494 -0.84356245
VERTEX2 36 10.95552203 -4.14545469 -0.85223055
VERTEX2 37 11.24100206 -4.46443800 -0.84465502
VERTEX2 38 11.24256689 -4.46653685 -1.16652920
VERTEX2 39 11.24206055 -4.46394003 -1.33763315
VERTEX2 40 11.38744481 -5.04129390 -1.32048172
VERTEX2 41 11.53829445 -5.64376528 -1.35258076
VERTEX2 42 11.66140120 -6.20961780 -1.37540017
VERTEX2 43 11.76835740 -6.80703370 -1.41571540
VERTEX2 44 11.85828482 -7.40363780 -1.45280873
VERTEX2 45 11.91325784 -8.02332028 -1.50837109
VERTEX2 46 11.94416712 -8.64499053 -1.52780541
VERTEX2 47 11.96416778 -9.26646705 -1.56953716
VERTEX2 48 11.96052895 -9.89228766 -1.57614150
VERTEX2 49 11.95310089 -10.51404196 -1.62704034
VERTEX2 50 11.89953113 -11.10325705 -1.67160467
VERTEX2 51 11.84411978 -11.69957841 -1.70069757
VERTEX2 52 11.74674891 -12.28246032 -1.77745211
VERTEX2 53 11.64654451 -12.83980325 -1.76513325
VERTEX2 54 11.53332338 -13.35131845 -1.82725434
VERTEX2 55 11.54004043 -13.31923505 -1.82201077
VERTEX2 56 11.53946863 -13.32146324 -1.81147040
VERTEX2 57 11.39512906 -13.93907526 -1.82289941
VERTEX2 58 11.24820165 -14.54492901 -1.77670846
VERTEX2 59 11.11860448 -15.15032754 -1.80031974
VERTEX2 60 10.98838776 -15.75206078 -1.77896873
VERTEX2 61 10.85236080 -16.35425620 -1.82974108
VERTEX2 62 10.70159226 -16.91373925 -1.78988401
VERTEX2 63 10.54902213 -17.47801376 -1.82536924
VERTEX2 64 10.41302828 -18.03688948 -1.76197589
VERTEX2 65 10.27748844 -18.59357531 -1.81338937
VERTEX2 66 10.12285187 -19.18009167 -1.82141669
VERTEX2 67 9.95641072 -19.77008884 -1.81997823
VERTEX2 68 9.84586864 -20.21774013 -1.83577963
VERTEX2 69 9.84898833 -20.20762379 -1.99074976
VERTEX2 70 9.85584634 -20.19454692 -2.66509310
VERTEX2 71 9.87907116 -20.19324366 2.97545070
VERTEX2 72 9.89166870 -20.19480856 2.96597293
VERTEX2 73 9.89900170 -20.19663179 2.90103456
VERTEX2 74 9.89909267 -20.19668014 2.27925318
VERTEX2 75 9.90571956 -20.19928354 1.92691571
VERTEX2 76 9.89403876 -20.18628994 2.62082583
VERTEX2 77 9.88968778 -20.18445744 2.85379118
VERTEX2 78 9.60811271 -20.19465344 -3.09224350
VERTEX2 79 8.98977593 -20.23230249 -3.09750579
VERTEX2 80 8.35781358 -20.22967992 3.11115688
VERTEX2 81 7.73363749 -20.20199401 3.08515325
VERTEX2 82 7.13379334 -20.16013368 3.03104323
VERTEX2 83 6.54494451 -20.10768808 3.00752828
VERTEX2 84 5.98225630 -20.02070046 2.92970994
VERTEX2 85 5.43937301 -19.91564705 2.93698950
VERTEX2 86 4.83002165 -19.79373697 2.84720401
VERTEX2 87 4.43850106 -19.68602333 2.79479470
VERTEX2 88 4.08049382 -19.55244899 2.76499496
VERTEX2 89 4.08984003 -19.55292399 -3.12240710
VERTEX2 90 3.48437861 -19.55499711 3.12968104
VERTEX2 91 2.86815823 -19.54942722 -3.10441724
VERTEX2 92 2.26803892 -19.54404476 3.06307869
VERTEX2 93 1.64678187 -19.44006185 2.96221373
VERTEX2 94 1.02594397 -19.30021636 2.91943171
VERTEX2 95 0.40289928 -19.21083616 3.06207942
VERTEX2 96 -0.20868145 -19.15826211 3.08617768
VERTEX2 97 -0.79985213 -19.09388701 3.01560339
VERTEX2 98 -1.38941636 -18.99146741 2.95765792
VERTEX2 99 -2.09550074 -18.86544974 3.00448623
VERTEX2 100 -2.66111327 -18.75610061 2.95277517
VERTEX2 101 -3.27349804 -18.69815646 3.05606809
VERTEX2 102 -3.88727823 -18.61654408 2.95021153
VERTEX2 103 -4.49627982 -18.50041096 3.04621318
VERTEX2 104 -5.10928446 -18.42287761 3.01257786
VERTEX2 105 -5.72250150 -18.35721991 3.05917348
VERTEX2 106 -6.32512395 -18.28565717 3.00434526
VERTEX2 107 -6.94347881 -18.18834311 3.00056444
VERTEX2 108 -7.39896882 -18.13857354 3.06213964
VERTEX2 109 -7.44521947 -18.12676227 2.61364184
VERTEX2 110 -7.46234946 -18.10896457 2.02230161
VERTEX2 111 -7.46237178 -18.02834444 1.51646025
VERTEX2 112 -7.43732380 -17.39471044 1.57087648
VERTEX2 113 -7.45442868 -16.77254331 1.61789911
VERTEX2 114 -7.48630029 -16.15878680 1.65467495
VERTEX2 115 -7.55824454 -15.51848907 1.71487782
VERTEX2 116 -7.67546893 -14.76774633 1.75891944
VERTEX2 117 -7.81000035 -14.15718352 1.85443725
VERTEX2 118 -7.81461320 -14.13649234 1.51977069
VERTEX2 119 -7.75834007 -13.61871340 1.46651022
VERTEX2 120 -7.70522348 -12.96276812 1.55674662
VERTEX2 121 -7.71559327 -12.34378507 1.62437725
VERTEX2 122 -7.74971515 -11.76195190 1.68061535
VERTEX2 123 -7.77464699 -11.58256887 1.66785635
VERTEX2 124 -7.68888441 -11.34447696 1.24493546
VERTEX2 125 -7.47305533 -10.75257887 1.23402612
VERTEX2 126 -7.34140434 -10.13731498 1.44061931
VERTEX2 127 -7.24490128 -9.50241314 1.43914731
VERTEX2 128 -7.17079491 -8.86323332 1.47568677
VERTEX2 129 -7.08588798 -8.22794742 1.44314270
VERTEX2 130 -7.01995472 -7.59447573 1.49591813
VERTEX2 131 -6.97587712 -6.96658326 1.58448403
VERTEX2 132 -6.95987198 -6.34799253 1.53494179
VERTEX2 133 -6.91451217 -5.78081068 1.49814143
VERTEX2 134 -6.86226104 -5.18469190 1.47994956
VERTEX2 135 -6.78194098 -4.60893615 1.45375700
VERTEX2 136 -6.70961201 -3.97622039 1.47341943
VERTEX2 137 -6.61490076 -3.34557733 1.43162616
VERTEX2 138 -6.54086705 -2.71594261 1.51188599
VERTEX2 139 -6.52640169 -2.08415336 1.57729924
VERTEX2 140 -6.55711845 -1.42770294 1.60792418
VERTEX2 141 -6.56546270 -0.78656522 1.55958187
VERTEX2 142 -6.56820417 -0.13572844 1.55582550
VERTEX2 143 -6.48943957 0.50417016 1.44534665
VERTEX2 144 -6.45102140 0.87685181 1.46293867
VERTEX2 145 -6.44536278 0.89421134 0.96464914
VERTEX2 146 -6.44363827 0.90318179 0.37154469
VERTEX2 147 -6.38802769 0.89956745 -0.11487524
VERTEX2 148 -5.95634494 0.84187335 -0.15047961
VERTEX2 149 -5.31558616 0.75165873 -0.12533534
VERTEX2 150 -4.68138717 0.69071309 -0.11114227
VERTEX2 151 -4.04164283 0.64693748 -0.02544282
VERTEX2 152 -3.41646567 0.61548556 -0.08622488
VERTEX2 153 -2.79156978 0.58671826 0.00729529
VERTEX2 154 -2.17027821 0.56976644 -0.06216553
VERTEX2 155 -1.54517072 0.54041417 -0.02867023
VERTEX2 156 -0.91768297 0.53024661 0.00212529
VERTEX2 157 -0.35382394 0.51632082 -0.06219748
VERTEX2 158 -0.15920803 0.50374154 -0.03470259
VERTEX2 159 -0.15361453 0.50198752 0.95262565
VERTEX2 160 -0.14822714 0.51090183 1.98830502
VERTEX2 161 -0.17032253 0.45221502 2.70930493
VERTEX2 162 -0.14451938 0.45807307 -2.53808006
VERTEX2 163 -0.14551154 0.45305663 -1.54099865
VERTEX2 164 -0.22267689 0.54885437 -0.47873749
VERTEX2 165 -0.04879503 0.53164445 -0.07094512
VERTEX2 166 0.64886405 0.48872865 -0.06924251
VERTEX2 167 1.26565751 0.43859745 -0.09860839
VERTEX2 168 1.85389584 0.38947451 -0.08661586
VERTEX2 169 2.44919801 0.31803766 -0.12356256
VERTEX2 170 3.03576788 0.24981684 -0.14422944
VERTEX2 171 3.59741836 0.15146233 -0.18256481
VERTEX2 172 4.22278201 0.04396030 -0.16854730
VERTEX2 173 4.85151972 -0.07669000 -0.19145875
VERTEX2 174 5.47648457 -0.19097508 -0.15141815
VERTEX2 175 6.09249059 -0.28119959 -0.17620136
VERTEX2 176 6.69163590 -0.40153093 -0.16666973
VERTEX2 177 7.31470441 -0.50442540 -0.19439721
VERTEX2 178 7.93583281 -0.65047434 -0.23348109
VERTEX2 179 8.33908329 -0.73439692 -0.18020782
VERTEX2 180 8.38908813 -0.74788415 -0.62235994
VERTEX2 181 8.82950921 -1.06658527 -0.67421303
VERTEX2 182 9.23575314 -1.42717176 -0.84832969
VERTEX2 183 9.58249735 -1.84860719 -0.90576266
VERTEX2 184 9.93092705 -2.37543686 -1.05139260
VERTEX2 185 10.22288077 -2.92539328 -1.14323723
VERTEX2 186 10.44857801 -3.50725501 -1.20899830
VERTEX2 187 10.64968025 -4.06695232 -1.23109922
VERTEX2 188 10.85766259 -4.64612615 -1.23604794
VERTEX2 189 11.05824895 -5.22923456 -1.26232716
VERTEX2 190 11.24231555 -5.83353623 -1.29124489
VERTEX2 191 11.41593771 -6.43711127 -1.31546189
VERTEX2 192 11.57049699 -7.03405120 -1.34396288
VERTEX2 193 11.69407740 -7.58232100 -1.39983860
VERTEX2 194 11.79387238 -8.15132534 -1.42676135
VERTEX2 195 11.87403714 -8.71541536 -1.45554796
VERTEX2 196 11.94045771 -9.34101434 -1.49636166
VERTEX2 197 11.97811330 -9.96249839 -1.52389125
VERTEX2 198 12.00299831 -10.58134506 -1.58212871
VERTEX2 199 11.97457666 -11.18947374 -1.64361616
VERTEX2 200 11.92710156 -11.79234396 -1.66556517
VERTEX2 201 11.85590568 -12.39166018 -1.72231058
VERTEX2 202 11.79166806 -12.89676417 -1.70214484
VERTEX2 203 11.68942719 -13.63059034 -1.75490789
VERTEX2 204 11.56703879 -14.20692533 -1.85683933
VERTEX2 205 11.39709188 -14.76887290 -1.86621747
VERTEX2 206 11.24233091 -15.31585756 -1.86425039
VERTEX2 207 11.08186202 -15.88257548 -1.84825284
VERTEX2 208 10.90774685 -16.48194535 -1.85764237
VERTEX2 209 10.74487097 -17.08282775 -1.81939510
VERTEX2 210 10.58106921 -17.67566840 -1.82825379
VERTEX2 211 10.43126955 -18.27229870 -1.82599381
VERTEX2 212 10.25387949 -18.85848472 -1.87884912
VERTEX2 213 10.05788083 -19.44834037 -1.89963154
VERTEX2 214 9.85705871 -20.02459601 -1.90344595
VERTEX2 215 9.74142455 -20.34709662 -1.93924907
VERTEX2 216 9.75318315 -20.32701966 -2.43792442
VERTEX2 217 9.77867993 -20.32432062 -2.98010120
VERTEX2 218 9.78788728 -20.32786532 -3.03613019
VERTEX2 219 9.22156494 -20.28310725 3.07854385
VERTEX2 220 8.61254252 -20.23823353 3.03866934
VERTEX2 221 7.97336070 -20.17120778 3.08919128
VERTEX2 222 7.34765426 -20.12804297 3.06367651
VERTEX2 223 6.72134927 -20.09821501 -3.12314026
VERTEX2 224 6.10669083 -20.09856002 3.13428521
VERTEX2 225 5.48844903 -20.09257745 -3.09918036
VERTEX2 226 4.87114072 -20.08586773 3.13492356
VERTEX2 227 4.22586257 -20.15463881 -2.99154229
VERTEX2 228 3.70186684 -20.13853055 2.93017840
VERTEX2 229 3.25537268 -20.09961669 3.05074035
VERTEX2 230 2.96437647 -20.08346202 3.02199173
VERTEX2 231 3.16851851 -20.10140655 3.09210936
VERTEX2 232 2.85862977 -19.96198048 2.66629882
VERTEX2 233 2.29460284 -19.70064304 2.76863123
VERTEX2 234 1.71854808 -19.47332005 2.72449067
VERTEX2 235 1.46904265 -19.36536540 2.71951926
VERTEX2 236 1.13376262 -19.36626099 3.12499475
VERTEX2 237 0.50499413 -19.38067162 -3.08778955
VERTEX2 238 -0.11610551 -19.42867630 -3.12052362
VERTEX2 239 -0.73331540 -19.42518972 3.09503150
VERTEX2 240 -1.30353274 -19.30659340 2.87692751
VERTEX2 241 -1.84367003 -19.17455732 2.96233446
VERTEX2 242 -2.41868074 -19.10849156 3.00192841
VERTEX2 243 -3.02034634 -19.02418778 3.00128631
VERTEX2 244 -3.64556353 -18.97749907 3.07266430
VERTEX2 245 -4.26145376 -18.92772859 3.01850458
VERTEX2 246 -4.86479942 -18.84057440 2.94616925
VERTEX2 247 -5.46956412 -18.75725428 3.05214709
VERTEX2 248 -6.02455126 -18.73500417 3.08355104
VERTEX2 249 -5.97646036 -18.74229871 -3.00670191
VERTEX2 250 -5.97372402 -18.74219190 2.68960787
VERTEX2 251 -6.29616485 -18.40132599 2.26629936
VERTEX2 252 -6.65204076 -17.98059135 2.27484895
VERTEX2 253 -7.02406664 -17.53416861 2.26389483
VERTEX2 254 -7.38959686 -17.07550182 2.22273828
VERTEX2 255 -7.46270767 -16.98255618 2.30661397
VERTEX2 256 -7.46563674 -16.90539355 1.83065293
VERTEX2 257 -7.51715635 -16.44533913 1.69520038
VERTEX2 258 -7.60047711 -15.85565461 1.77568439
VERTEX2 259 -7.74410174 -15.24982199 1.81642111
VERTEX2 260 -7.87806089 -14.68829281 1.80816609
VERTEX2 261 -7.87578243 -14.65087788 1.49695277
VERTEX2 262 -7.81271191 -13.99942549 1.50375982
VERTEX2 263 -7.77066610 -13.38127984 1.51735398
VERTEX2 264 -7.75593850 -12.77626578 1.61455206
VERTEX2 265 -7.78789528 -12.17177622 1.63482673
VERTEX2 266 -7.74027027 -11.59338813 1.50578008
VERTEX2 267 -7.68921900 -10.84278389 1.47644606
VERTEX2 268 -7.55700104 -10.23851195 1.36635980
VERTEX2 269 -7.43723182 -9.62368234 1.39627115
VERTEX2 270 -7.36526122 -8.99823398 1.51030958
VERTEX2 271 -7.27018522 -8.37453257 1.39981747
VERTEX2 272 -7.18473668 -7.74623848 1.46499042
VERTEX2 273 -7.19477010 -7.11462778 1.67714867
VERTEX2 274 -7.26291291 -6.49664344 1.70117269
VERTEX2 275 -7.25100367 -5.88802332 1.52977584
VERTEX2 276 -7.24429628 -5.28031459 1.64435699
VERTEX2 277 -7.29133326 -4.71507743 1.61886244
VERTEX2 278 -7.24819761 -4.07482269 1.53025255
VERTEX2 279 -7.20843740 -3.43644016 1.47499821
VERTEX2 280 -7.14032034 -2.80337989 1.47715857
VERTEX2 281 -7.04979789 -2.16845649 1.37686933
VERTEX2 282 -6.93003713 -1.53994014 1.41689798
VERTEX2 283 -6.84334958 -0.90500375 1.40925146
VERTEX2 284 -6.73168214 -0.28048959 1.43663243
VERTEX2 285 -6.66486380 0.37052117 1.45781051
VERTEX2 286 -6.59859345 0.99377828 1.51152261
VERTEX2 287 -6.59572007 1.04658963 1.40725851
VERTEX2 288 -6.59123959 1.05463704 0.79908589
VERTEX2 289 -6.58739565 1.05657522 0.20606801
VERTEX2 290 -6.14666297 1.04831636 -0.01878512
VERTEX2 291 -5.52357785 1.04123056 -0.00487585
VERTEX2 292 -4.90680896 1.02205133 -0.05954325
VERTEX2 293 -4.28159571 0.97728891 -0.08263862
VERTEX2 294 -3.65999501 0.92545848 -0.08199646
VERTEX2 295 -3.03789596 0.84545267 -0.19454870
VERTEX2 296 -2.42120795 0.70103457 -0.24001599
VERTEX2 297 -1.80675056 0.54965773 -0.25178709
VERTEX2 298 -1.19577570 0.39532510 -0.25247863
VERTEX2 299 -0.62137660 0.23860885 -0.19134605
VERTEX2 300 -0.03448211 0.15264293 -0.14922318
VERTEX2 301 0.52782020 0.05276113 -0.20846877
VERTEX2 302 0.82952980 -0.01233994 -0.22944984
VERTEX2 303 0.81177283 -0.00873717 -0.22538732
VERTEX2 304 1.31209652 -0.12463769 -0.21592613
VERTEX2 305 1.92773123 -0.16964188 -0.03220926
VERTEX2 306 2.55757501 -0.18101430 -0.05037452
VERTEX2 307 3.19715847 -0.22971699 -0.08718193
VERTEX2 308 3.82518143 -0.29353730 -0.14288347
VERTEX2 309 4.46052231 -0.35482120 -0.05008624
VERTEX2 310 5.08857135 -0.38568342 -0.08609183
VERTEX2 311 5.36999763 -0.41207600 0.08880631
VERTEX2 312 5.36735888 -0.41344256 1.07632685
VERTEX2 313 5.37205628 -0.19469936 1.57188470
VERTEX2 314 5.35274883 0.43381982 1.61161086
VERTEX2 315 5.32445999 1.06172604 1.60723099
VERTEX2 316 5.28486927 1.70680313 1.65840993
VERTEX2 317 5.22406731 2.34853384 1.66820783
VERTEX2 318 5.12580812 2.98566262 1.76258034
VERTEX2 319 5.04642375 3.33273303 1.83377338
VERTEX2 320 5.04848354 3.33910046 2.80179913
VERTEX2 321 5.04052163 3.33567946 -2.44218390
VERTEX2 322 5.03963573 3.33385263 -1.44645099
VERTEX2 323 5.05018847 3.32367508 -0.45450657
VERTEX2 324 5.05470144 3.32220085 0.20501547
VERTEX2 325 5.05612400 3.32231295 -0.32295984
VERTEX2 326 5.07151095 3.31073343 -0.91850160
VERTEX2 327 5.07486543 3.29488080 -1.54221674
VERTEX2 328 5.05844073 2.65709412 -1.58889239
VERTEX2 329 5.03638139 2.03056113 -1.64529895
VERTEX2 330 4.98197373 1.41543387 -1.66576919
VERTEX2 331 4.92656054 0.79901595 -1.68151218
VERTEX2 332 4.84669391 0.18568744 -1.70149401
VERTEX2 333 4.82486755 0.03135272 -1.63801932
VERTEX2 334 4.83413143 0.03312529 -0.84475175
VERTEX2 335 4.85117723 0.02806999 0.14626582
VERTEX2 336 4.86404300 0.03257826 1.08743685
VERTEX2 337 4.86900470 0.06338081 2.06643998
VERTEX2 338 4.86623963 0.06530005 3.05594122
VERTEX2 339 4.87808790 0.07264974 -2.17729312
VERTEX2 340 4.87826178 0.07128242 -1.15747962
VERTEX2 341 4.99171800 0.00273803 -0.52374467
VERTEX2 342 5.56483106 -0.30237044 -0.42164907
VERTEX2 343 6.14353867 -0.50414322 -0.29002038
VERTEX2 344 6.73300372 -0.68772023 -0.29941086
VERTEX2 345 6.97177560 -0.75811063 -0.32623064
VERTEX2 346 6.95852039 -0.75376696 -0.97180555
VERTEX2 347 6.96094431 -0.84249295 -1.52896815
VERTEX2 348 6.97876955 -1.43342009 -1.54504791
VERTEX2 349 6.97646279 -2.05324917 -1.58464633
VERTEX2 350 6.96324026 -2.84166907 -1.60366454
VERTEX2 351 6.94895738 -3.11574709 -1.63201435
VERTEX2 352 6.94708948 -3.12465127 -1.91883099
VERTEX2 353 6.93535287 -3.13904765 -2.58177056
VERTEX2 354 6.92157637 -3.14300037 3.10032676
VERTEX2 355 6.90133750 -3.14229081 2.38199883
VERTEX2 356 6.89555258 -3.13207647 1.80896317
VERTEX2 357 6.89817184 -3.11639684 1.15832821
VERTEX2 358 6.89916846 -3.11500764 0.54520427
VERTEX2 359 6.88744890 -3.12003491 -0.06649224
VERTEX2 360 6.87283922 -3.11714902 -0.24155746
VERTEX2 361 6.86469857 -3.11928172 0.68112436
VERTEX2 362 6.94965532 -2.88816260 1.21691738
VERTEX2 363 7.05225826 -2.61979194 1.21129872
VERTEX2 364 6.98276517 -2.28343184 1.82804450
VERTEX2 365 6.92709404 -1.99408020 1.33273202
VERTEX2 366 7.03579204 -1.87092753 0.78054829
VERTEX2 367 7.48152330 -1.43551056 0.78338463
VERTEX2 368 7.93793877 -0.99887689 0.73546191
VERTEX2 369 7.95793621 -0.97471285 0.48365828
VERTEX2 370 7.98230161 -0.97081402 -0.10307026
VERTEX2 371 7.98829095 -0.97391891 -0.64850714
VERTEX2 372 8.41704694 -1.32240965 -0.67616583
VERTEX2 373 8.88951597 -1.68716175 -0.67416843
VERTEX2 374 9.36842192 -2.09020313 -0.73529213
VERTEX2 375 9.72804142 -2.40996065 -0.76617195
VERTEX2 376 9.73983460 -2.41716750 -0.07350481
VERTEX2 377 9.79003426 -2.38143634 0.61967281
VERTEX2 378 10.32509815 -1.98366790 0.67258030
VERTEX2 379 10.80442440 -1.55346328 0.75604815
VERTEX2 380 11.24406127 -1.08700470 0.87398021
VERTEX2 381 11.39014409 -0.90700688 1.02240415
VERTEX2 382 11.39139620 -0.90472693 2.06741423
VERTEX2 383 11.38876690 -0.90311755 3.05435501
VERTEX2 384 11.38632016 -0.90543470 -2.26502155
VERTEX2 385 11.38132184 -0.91382709 -1.23484516
VERTEX2 386 11.48525904 -1.04895310 -1.00987594
VERTEX2 387 11.94049369 -1.47072126 -0.67807591
VERTEX2 388 12.40135132 -1.82609039 -0.67132053
VERTEX2 389 12.83693413 -2.20068296 -0.75621054
VERTEX2 390 12.84679901 -2.20931258 -0.28646272
VERTEX2 391 12.66035372 -2.20107703 0.08890385
VERTEX2 392 12.60439182 -2.20165738 1.11784480
VERTEX2 393 12.60531442 -2.13710501 2.35346074
VERTEX2 394 12.53917330 -2.10963005 -2.94918952
VERTEX2 395 12.73104565 -2.00916752 -2.61668587
VERTEX2 396 12.70868254 -2.02056627 -2.61926537
VERTEX2 397 12.67000798 -2.02919220 -2.63283068
VERTEX2 398 12.65363469 -2.04273673 -2.43926624
VERTEX2 399 12.57851576 -2.14833357 -2.14502706
VERTEX2 400 12.22184538 -2.70135213 -2.09758830
VERTEX2 401 11.87571210 -3.24097204 -2.19184954
VERTEX2 402 11.39746948 -3.69464884 -2.46124745
VERTEX2 403 10.88226830 -4.10153429 -2.49672347
VERTEX2 404 10.37622663 -4.45776424 -2.57720243
VERTEX2 405 10.35838672 -4.47353062 -2.04626852
VERTEX2 406 10.35423924 -4.43469195 -1.07299180
VERTEX2 407 10.53178059 -4.68813241 -0.94661218
VERTEX2 408 10.85521844 -5.14979191 -0.98598101
VERTEX2 409 10.98530107 -5.35936378 -1.08711855
VERTEX2 410 10.97718785 -5.32563542 -1.71837285
VERTEX2 411 11.14571343 -4.90078237 -2.57373147
VERTEX2 412 10.59483625 -5.12142554 -2.77862676
VERTEX2 413 9.95845591 -5.33746618 -2.85965520
VERTEX2 414 9.31565657 -5.54203719 -2.75733428
VERTEX2 415 8.69875504 -5.78337862 -2.74985488
VERTEX2 416 8.41139308 -5.91102594 -2.80450244
VERTEX2 417 8.11887803 -5.89507346 3.05524958
VERTEX2 418 7.68001164 -5.85202752 3.01062359
VERTEX2 419 7.68223912 -5.85152375 -2.84054325
VERTEX2 420 7.73475659 -5.82817253 -2.62363719
VERTEX2 421 7.73624425 -5.82583159 -1.65397606
VERTEX2 422 7.73175472 -5.83213130 -0.41215423
VERTEX2 423 7.73435445 -5.83238011 -0.06561812
VERTEX2 424 7.73149959 -5.83253859 -0.06456592
VERTEX2 425 7.72228475 -5.83774555 -0.05213972
VERTEX2 426 7.71926561 -5.83793280 -0.06057019
VERTEX2 427 7.74878410 -5.83945553 -0.05676469
VERTEX2 428 8.40788591 -5.86034756 -0.06160446
VERTEX2 429 9.04948107 -5.90903753 -0.10171488
VERTEX2 430 9.38837977 -5.94907946 -0.14714105
VERTEX2 431 9.36325960 -5.94609846 -0.09454923
VERTEX2 432 9.37344146 -5.94967404 -0.72495667
VERTEX2 433 9.37882793 -5.95704521 -1.40087513
VERTEX2 434 9.34286544 -6.49605611 -1.62831677
VERTEX2 435 9.31155868 -7.13890235 -1.65608830
VERTEX2 436 9.23458965 -7.77900901 -1.66434957
VERTEX2 437 9.18372234 -8.42310486 -1.65582586
VERTEX2 438 9.13310156 -8.88777224 -1.68572397
VERTEX2 439 9.13233165 -8.89066255 -2.12036408
VERTEX2 440 9.14030516 -8.88436481 -2.76170603
VERTEX2 441 9.15618057 -8.88276484 2.90120754
VERTEX2 442 9.16119427 -8.88550753 2.27359617
VERTEX2 443 9.16105073 -8.88325275 1.70832912
VERTEX2 444 9.16362683 -8.86959741 1.11830814
VERTEX2 445 9.16836230 -8.86506293 0.46179123
VERTEX2 446 9.16677762 -8.86605303 0.66406050
VERTEX2 447 9.17766773 -8.84487811 1.29708566
VERTEX2 448 9.32653995 -8.22490866 1.31472931
VERTEX2 449 9.45840136 -7.59053465 1.41621901
VERTEX2 450 9.55159510 -6.95570516 1.43001250
VERTEX2 451 9.60375955 -6.48728075 1.47264278
VERTEX2 452 9.60367807 -6.48828943 1.09459336
VERTEX2 453 9.59982929 -6.49526258 0.47240630
VERTEX2 454 9.86127144 -6.47519529 0.05033828
VERTEX2 455 10.45935668 -6.45046309 0.02975997
VERTEX2 456 11.09097861 -6.44569776 -0.03484380
VERTEX2 457 11.44438233 -6.46802596 -0.12257671
VERTEX2 458 11.43940369 -6.46555367 -0.76849674
VERTEX2 459 11.43082407 -6.43085012 -1.37672911
VERTEX2 460 11.41027380 -6.82927981 -1.63374439
VERTEX2 461 11.34173396 -7.44576119 -1.72168832
VERTEX2 462 11.25440618 -7.95520867 -1.76169659
VERTEX2 463 11.26559864 -7.93327190 -0.92143503
VERTEX2 464 11.52068139 -8.00572681 -0.24332697
VERTEX2 465 12.10414764 -8.13853629 -0.23557544
VERTEX2 466 12.65737702 -8.28962225 -0.29120726
VERTEX2 467 13.22799377 -8.47130686 -0.33465944
VERTEX2 468 13.84300006 -8.68971833 -0.36995670
VERTEX2 469 14.43476391 -8.95533009 -0.45262921
VERTEX2 470 14.88907253 -9.17090878 -0.43349568
VERTEX2 471 14.89768450 -9.17557215 -0.63293522
VERTEX2 472 14.91496137 -9.19965760 -1.26474331
VERTEX2 473 14.91644242 -9.20692277 -1.90446884
VERTEX2 474 14.91490380 -9.20885258 -2.53495020
VERTEX2 475 14.91730861 -9.20852360 -3.10858173
VERTEX2 476 14.91973239 -9.20885259 2.52355703
VERTEX2 477 14.92419200 -9.21757623 1.96417414
VERTEX2 478 14.92494604 -9.22744270 1.33727358
VERTEX2 479 14.92394623 -9.22973355 0.88309489
VERTEX2 480 14.92425377 -9.22903999 1.44525932
VERTEX2 481 14.92062662 -9.21336365 2.44750978
VERTEX2 482 14.92502257 -9.21512907 2.78370782
VERTEX2 483 14.93162991 -9.21752144 2.77835011
VERTEX2 484 14.50564028 -9.05910045 2.81389634
VERTEX2 485 13.90716210 -8.86991013 2.81159899
VERTEX2 486 13.30600736 -8.65671448 2.82114567
VERTEX2 487 12.69618508 -8.47676849 2.84944324
VERTEX2 488 12.08406965 -8.29495184 2.88558540
VERTEX2 489 11.61396231 -8.18703022 2.91603594
VERTEX2 490 11.61876605 -8.18656704 -2.88198044
VERTEX2 491 11.62637029 -8.17654690 -1.94575287
VERTEX2 492 11.60958537 -8.40605439 -1.64267092
VERTEX2 493 11.54761857 -9.00969600 -1.69769575
VERTEX2 494 11.46027066 -9.62063146 -1.75858842
VERTEX2 495 11.39129305 -10.24255646 -1.65152815
VERTEX2 496 11.34755326 -10.86591853 -1.53392944
VERTEX2 497 11.34052021 -11.48302781 -1.62011136
VERTEX2 498 11.27182698 -12.10334041 -1.72207077
VERTEX2 499 11.14121081 -12.72831971 -1.73922747
VERTEX2 500 11.19879218 -13.29945474 -1.40987745
VERTEX2 501 11.27320305 -13.87865565 -1.48198402
VERTEX2 502 11.29696014 -14.57394521 -1.56648014
VERTEX2 503 11.29233263 -15.02065737 -1.58345979
VERTEX2 504 11.29746630 -15.00619116 -0.72700176
VERTEX2 505 11.53501781 -15.03346795 -0.10524089
VERTEX2 506 12.12665025 -15.11565101 -0.25779727
VERTEX2 507 12.70741111 -15.28594562 -0.33634755
VERTEX2 508 13.27608227 -15.49791225 -0.34961165
VERTEX2 509 13.89535913 -15.73178809 -0.40551949
VERTEX2 510 14.25146175 -15.89105962 -0.41942106
VERTEX2 511 14.24972131 -15.87396133 0.45594677
VERTEX2 512 14.27143171 -15.82828881 1.65330225
VERTEX2 513 14.26799818 -15.81814080 2.60880983
VERTEX2 514 14.20038722 -15.79911626 2.83509728
VERTEX2 515 13.59006486 -15.61771331 2.83621555
VERTEX2 516 13.00526484 -15.42322002 2.85212690
VERTEX2 517 12.41248935 -15.27464584 2.88033429
VERTEX2 518 11.82006003 -15.12293797 2.90469857
VERTEX2 519 11.29811376 -14.99857317 2.88901411
VERTEX2 520 11.13022023 -14.95469962 -2.99570897
VERTEX2 521 11.15235535 -14.93034578 -1.99201483
VERTEX2 522 11.08657987 -15.32641778 -1.72771538
VERTEX2 523 10.99454017 -15.94669628 -1.73507317
VERTEX2 524 10.89010860 -16.52083610 -1.77696685
VERTEX2 525 10.78561280 -17.06307968 -1.75328066
VERTEX2 526 10.66886191 -17.63201113 -1.81203243
VERTEX2 527 10.52049261 -18.21115768 -1.84679451
VERTEX2 528 10.33761498 -18.77780557 -1.92271530
VERTEX2 529 10.12482365 -19.37951591 -1.95102647
VERTEX2 530 9.87698356 -19.97846350 -1.98112434
VERTEX2 531 9.60670315 -20.55302776 -2.06096367
VERTEX2 532 9.50851670 -20.73875461 -2.01037193
VERTEX2 533 9.50602996 -20.72659780 -1.01061399
VERTEX2 534 9.50663664 -20.72698453 -0.34358080
VERTEX2 535 9.51000621 -20.72727513 -0.34393823
VERTEX2 536 9.86643862 -20.81134482 -0.21321351
VERTEX2 537 10.47271537 -20.96003883 -0.27120417
VERTEX2 538 11.03228612 -21.12948629 -0.29831409
VERTEX2 539 11.63980597 -21.33875911 -0.36307854
VERTEX2 540 12.22608358 -21.59218079 -0.45596941
VERTEX2 541 12.81274529 -21.82042050 -0.29366489
VERTEX2 542 13.44334725 -21.96262554 -0.23796242
VERTEX2 543 13.56487405 -21.99317342 -0.26762806
VERTEX2 544 13.58608452 -21.99102177 0.36937997
VERTEX2 545 13.60974913 -21.94809399 1.43556501
VERTEX2 546 13.62712308 -21.99338970 2.26259032
VERTEX2 547 13.63540128 -21.99283972 -2.99893763
VERTEX2 548 13.64899957 -21.98412770 -2.07605620
VERTEX2 549 13.65066980 -21.97281405 -1.26945626
VERTEX2 550 13.64947184 -21.95189890 -1.74925816
VERTEX2 551 13.65795371 -21.93474117 -2.37563460
VERTEX2 552 13.67633395 -21.92560451 -3.00809668
VERTEX2 553 13.53943789 -21.87317162 2.69780067
VERTEX2 554 12.94778617 -21.58879256 2.66233945
VERTEX2 555 12.36891205 -21.31351773 2.75120873
VERTEX2 556 11.76506666 -21.09478453 2.88630622
VERTEX2 557 11.16491761 -20.92361082 2.84509624
VERTEX2 558 10.58886888 -20.76627785 2.92612601
VERTEX2 559 10.59626620 -20.76877834 2.51917247
VERTEX2 560 10.58903086 -20.76085597 2.01824661
VERTEX2 561 10.56572787 -20.73821197 2.52347735
VERTEX2 562 10.38726080 -20.73812397 -3.11613711
VERTEX2 563 9.81687491 -20.65941726 2.97523386
VERTEX2 564 9.21187620 -20.56768765 3.02400519
VERTEX2 565 8.62137037 -20.49615631 2.96642007
VERTEX2 566 8.68221438 -20.51511470 -2.53320698
VERTEX2 567 8.58800871 -20.52203571 -1.73981719
VERTEX2 568 8.53660377 -21.03026346 -1.67581120
VERTEX2 569 8.48472382 -21.60556645 -1.71497247
VERTEX2 570 8.41542710 -22.18595780 -1.71022326
VERTEX2 571 8.36261160 -22.54126612 -1.75769983
VERTEX2 572 8.32874181 -22.56598537 -2.00089268
VERTEX2 573 8.29363832 -22.64539036 -1.72456279
VERTEX2 574 8.31412151 -22.67422844 -0.78513406
VERTEX2 575 8.46814414 -22.72464856 0.13604057
VERTEX2 576 8.46746670 -22.72410642 1.16371106
VERTEX2 577 8.46077988 -22.70640672 2.13581731
VERTEX2 578 8.45127397 -22.67422630 1.77165804
VERTEX2 579 8.32669736 -22.02240596 1.78669598
VERTEX2 580 8.16516798 -21.38278674 1.86186019
VERTEX2 581 7.97097247 -20.75913148 1.90426268
VERTEX2 582 7.74931649 -20.14452864 1.94742350
VERTEX2 583 7.61932488 -19.83608791 2.02682168
VERTEX2 584 7.61370456 -19.82517934 2.87075664
VERTEX2 585 7.02980396 -19.68496644 2.98919977
VERTEX2 586 6.43535075 -19.61042545 3.08691548
VERTEX2 587 5.81584076 -19.59959506 3.11247844
VERTEX2 588 5.18537821 -19.57382551 3.11710221
VERTEX2 589 4.64689391 -19.59858535 -3.09072382
VERTEX2 590 4.09750547 -19.64271382 -3.02198929
VERTEX2 591 3.55847499 -19.72167834 -3.02388710
VERTEX2 592 3.01043376 -19.79608768 -3.02661694
VERTEX2 593 2.83279288 -19.81840710 -2.82136032
VERTEX2 594 2.87474846 -19.77325909 -1.90196605
VERTEX2 595 2.76144097 -20.38020189 -1.66912273
VERTEX2 596 2.70874351 -21.00413426 -1.69224908
VERTEX2 597 2.61672862 -21.67875068 -1.73217188
VERTEX2 598 2.51363901 -22.27699138 -1.77434008
VERTEX2 599 2.42515073 -22.65421000 -1.84052878
VERTEX2 600 2.42533362 -22.67018375 -1.03400134
VERTEX2 601 2.46480677 -22.69452239 -0.01587175
VERTEX2 602 2.49915898 -22.68070878 0.99812938
VERTEX2 603 2.46479117 -22.44540525 1.77072978
VERTEX2 604 2.40487025 -21.83256264 1.52661742
VERTEX2 605 2.41444668 -21.18416358 1.60908920
VERTEX2 606 2.37467279 -20.53585750 1.65106057
VERTEX2 607 2.38655575 -19.94528520 1.56992185
VERTEX2 608 2.37398996 -19.55852607 1.61429489
VERTEX2 609 2.37010510 -19.53544438 1.95045240
VERTEX2 610 2.35969957 -19.53165869 2.88278640
VERTEX2 611 1.76220844 -19.37914640 2.88571750
VERTEX2 612 1.29230536 -19.24405039 2.88877567
VERTEX2 613 1.33002712 -19.25567599 -2.93010950
VERTEX2 614 1.33483162 -19.25205351 -1.89111769
VERTEX2 615 1.34615063 -19.74183688 -1.58616719
VERTEX2 616 1.35126071 -20.36799545 -1.63707049
VERTEX2 617 1.21176634 -20.97071387 -1.85393354
VERTEX2 618 1.04096834 -21.57614672 -1.84359961
VERTEX2 619 0.87862579 -22.14710096 -1.84476155
VERTEX2 620 0.69377171 -22.72239419 -1.94060857
VERTEX2 621 0.82316215 -22.39004159 -1.99183485
VERTEX2 622 0.94695675 -22.12671415 -2.06653462
VERTEX2 623 0.94627932 -22.12762837 -2.60298464
VERTEX2 624 0.91706310 -22.12728641 3.03832186
VERTEX2 625 0.87586460 -22.11057836 2.38052349
VERTEX2 626 0.84813698 -22.07866596 1.76318591
VERTEX2 627 0.92129261 -21.70730450 1.35285737
VERTEX2 628 1.10102929 -21.08131216 1.25210628
VERTEX2 629 1.27367972 -20.45464701 1.32319610
VERTEX2 630 1.40019164 -19.84777191 1.40821336
VERTEX2 631 1.47318997 -19.31882143 1.42828618
VERTEX2 632 1.47583298 -19.30332088 2.10409125
VERTEX2 633 1.37798166 -19.29659727 -3.09288572
VERTEX2 634 0.71079212 -19.33311436 -3.06550131
VERTEX2 635 0.05789397 -19.34352805 3.08265287
VERTEX2 636 -0.58350650 -19.31470117 3.06506590
VERTEX2 637 -1.21130623 -19.24017673 2.96577188
VERTEX2 638 -1.60304067 -19.16014078 2.93622626
VERTEX2 639 -2.21331477 -19.05713786 3.01657228
VERTEX2 640 -2.82777337 -18.94793633 2.94868371
VERTEX2 641 -3.42764419 -18.83705959 2.94035623
VERTEX2 642 -4.00315226 -18.69988443 2.89502467
VERTEX2 643 -4.48462959 -18.56329572 2.82755914
VERTEX2 644 -4.48866113 -18.56419403 -2.69886759
VERTEX2 645 -4.52518133 -18.70534691 -1.92138504
VERTEX2 646 -4.66252469 -19.31452358 -1.62601569
VERTEX2 647 -4.61933276 -19.95677421 -1.33716537
VERTEX2 648 -4.39671336 -20.58169142 -1.17088052
VERTEX2 649 -4.22340474 -21.18024272 -1.50847519
VERTEX2 650 -4.32436948 -21.80855379 -1.76583210
VERTEX2 651 -4.34191669 -21.95398293 -0.96641490
VERTEX2 652 -4.27918293 -21.98223948 0.05855735
VERTEX2 653 -4.23317251 -21.94096443 1.08900014
VERTEX2 654 -4.24200330 -21.64467853 1.60217611
VERTEX2 655 -4.25205031 -21.09165321 1.59717250
VERTEX2 656 -4.25083535 -20.48993797 1.58454311
VERTEX2 657 -4.35727340 -19.87871205 1.86118086
VERTEX2 658 -4.54726419 -19.26188846 1.85401684
VERTEX2 659 -4.66176112 -18.76867898 1.78286087
VERTEX2 660 -4.66479455 -18.75348408 2.38297937
VERTEX2 661 -4.84317298 -18.73372188 3.03642644
VERTEX2 662 -5.43653678 -18.67401949 3.10603341
VERTEX2 663 -6.02376095 -18.68810440 -3.07612038
VERTEX2 664 -6.03174787 -18.68604377 -2.55291368
VERTEX2 665 -6.04779023 -18.78736854 -1.71915053
VERTEX2 666 -6.11982468 -19.39551365 -1.68200588
VERTEX2 667 -6.17719802 -19.96151569 -1.67737933
VERTEX2 668 -6.24098478 -20.55496775 -1.65159180
VERTEX2 669 -6.28974203 -21.18017462 -1.67671601
VERTEX2 670 -6.38944682 -21.79756974 -1.73618621
VERTEX2 671 -6.43709969 -22.08992072 -1.68119619
VERTEX2 672 -6.33508775 -21.50912680 -1.77030221
VERTEX2 673 -6.26879819 -21.24242523 -1.90084900
VERTEX2 674 -6.25596864 -21.22889501 -2.54897754
VERTEX2 675 -6.23270083 -21.22398165 3.12560144
VERTEX2 676 -6.22678612 -21.22744776 2.50227702
VERTEX2 677 -6.22228614 -21.23366792 1.88644960
VERTEX2 678 -6.19415794 -21.01149924 1.44051897
VERTEX2 679 -6.12987581 -20.43244443 1.50310203
VERTEX2 680 -6.15728047 -19.98407969 1.84798892
VERTEX2 681 -6.30924632 -19.39249394 1.82047383
VERTEX2 682 -6.48132472 -18.78636630 1.86814550
VERTEX2 683 -6.57354222 -18.50389886 2.02729913
VERTEX2 684 -6.52280095 -18.55560418 3.10826975
VERTEX2 685 -6.92796223 -18.71751972 -2.73070490
VERTEX2 686 -7.37664091 -18.85550375 -2.87460859
VERTEX2 687 -7.97266724 -19.00832645 -2.90933263
VERTEX2 688 -8.57217447 -19.13024023 -2.92082813
VERTEX2 689 -9.13787767 -19.27119193 -2.89287505
VERTEX2 690 -9.67485897 -19.44229516 -2.81838379
VERTEX2 691 -10.07104227 -19.57557491 -2.84611800
VERTEX2 692 -10.05754970 -19.56952062 -2.31127477
VERTEX2 693 -10.03522299 -19.63878059 -1.26975075
VERTEX2 694 -10.00944602 -19.71455722 -0.43501207
VERTEX2 695 -9.98889473 -19.70862018 0.36432414
VERTEX2 696 -9.98173976 -19.70388915 1.38896245
VERTEX2 697 -9.99377062 -19.74379954 1.13565476
VERTEX2 698 -9.66264261 -19.53309908 0.48032982
VERTEX2 699 -9.09791904 -19.21786775 0.59413473
VERTEX2 700 -8.58377176 -18.85407432 0.64746978
VERTEX2 701 -8.14938988 -18.48975613 0.70645357
VERTEX2 702 -7.66906265 -18.17288967 0.59110106
VERTEX2 703 -7.15556118 -17.83479170 0.62520242
VERTEX2 704 -6.66107890 -17.45122944 0.64324521
VERTEX2 705 -6.15048748 -17.03021850 0.71348092
VERTEX2 706 -5.72060885 -16.71204813 0.44447787
VERTEX2 707 -5.69523925 -16.71067447 -0.07580120
VERTEX2 708 -5.68516177 -16.71649478 -0.71432716
VERTEX2 709 -5.72489322 -16.67373176 -1.04643226
VERTEX2 710 -5.72920753 -16.66258918 -1.60758717
VERTEX2 711 -5.71962663 -16.67123862 -2.20436118
VERTEX2 712 -5.69941964 -16.65574995 -2.76483903
VERTEX2 713 -6.17231435 -16.70619101 -3.05021105
VERTEX2 714 -6.72551425 -16.68107698 3.03543476
VERTEX2 715 -7.35218765 -16.64409108 3.13904707
VERTEX2 716 -7.98630702 -16.62203573 3.00101939
VERTEX2 717 -8.60744968 -16.55411003 3.08577968
VERTEX2 718 -9.36940035 -16.43541393 2.91040789
VERTEX2 719 -9.98605388 -16.32004633 2.98488063
VERTEX2 720 -10.59856054 -16.20758120 2.92568252
VERTEX2 721 -11.21599441 -16.09167686 2.99390744
VERTEX2 722 -11.23230310 -16.08935105 3.06061346
VERTEX2 723 -11.25274472 -16.11042958 -2.13260430
VERTEX2 724 -11.25286396 -16.15430201 -1.06371029
VERTEX2 725 -11.22542683 -16.17275376 -0.42934155
VERTEX2 726 -10.89972373 -16.16896608 0.02486627
VERTEX2 727 -10.26201539 -16.13123052 0.05561858
VERTEX2 728 -9.62155031 -16.10776148 0.05701556
VERTEX2 729 -8.98357547 -16.04798557 0.11466905
VERTEX2 730 -8.36016578 -15.95635919 0.15218587
VERTEX2 731 -7.71270844 -15.85682918 0.16440458
VERTEX2 732 -7.57151000 -15.82850058 0.61100987
VERTEX2 733 -7.57038295 -15.83034351 1.60761280
VERTEX2 734 -7.62901471 -15.27410229 1.68572955
VERTEX2 735 -7.68984114 -14.67152503 1.65370285
VERTEX2 736 -7.69059997 -14.66024085 2.25325865
VERTEX2 737 -7.68466047 -14.66102171 3.05403703
VERTEX2 738 -8.26378186 -14.62064329 3.07311005
VERTEX2 739 -8.86692356 -14.52582441 3.01549066
VERTEX2 740 -9.36986873 -14.48577190 3.07876044
VERTEX2 741 -9.34977170 -14.48554627 2.70991757
VERTEX2 742 -9.34983614 -14.48551872 2.05714679
VERTEX2 743 -9.35164768 -14.47751895 1.44035259
VERTEX2 744 -9.34192458 -14.45523352 0.90100344
VERTEX2 745 -9.32189001 -14.44474579 0.30753105
VERTEX2 746 -8.77873576 -14.46277240 -0.16732380
VERTEX2 747 -8.13288629 -14.57703638 -0.20256209
VERTEX2 748 -7.55533953 -14.71938011 -0.27086973
VERTEX2 749 -7.47150520 -14.74021437 0.15838311
VERTEX2 750 -7.46124593 -14.72126264 1.08555714
VERTEX2 751 -7.49618135 -14.44775898 1.72590092
VERTEX2 752 -7.55541254 -13.82129536 1.62258613
VERTEX2 753 -7.59448112 -13.17920122 1.68579990
VERTEX2 754 -7.60345362 -12.53524517 1.52368909
VERTEX2 755 -7.58625282 -11.90196561 1.61015708
VERTEX2 756 -7.55039882 -11.26605644 1.43377021
VERTEX2 757 -7.47726312 -10.62058732 1.54567732
VERTEX2 758 -7.49922719 -10.04112056 1.68790147
VERTEX2 759 -7.49016663 -9.49336024 1.56792140
VERTEX2 760 -7.53080562 -8.88143270 1.67932312
VERTEX2 761 -7.53369986 -8.84278745 1.85972959
VERTEX2 762 -7.60998700 -8.80896270 2.69512682
VERTEX2 763 -8.18447862 -8.70808946 2.98797925
VERTEX2 764 -8.60470008 -8.63802819 2.96045515
VERTEX2 765 -8.59393959 -8.63778467 -2.68326239
VERTEX2 766 -8.59560374 -8.64325781 -1.68288348
VERTEX2 767 -8.59056922 -8.65586693 -0.75197218
VERTEX2 768 -8.56342019 -8.65742627 -0.02956790
VERTEX2 769 -7.92787604 -8.56570249 0.12734698
VERTEX2 770 -7.27526427 -8.50375243 0.06022634
VERTEX2 771 -7.18659048 -8.49598918 0.62072139
VERTEX2 772 -7.18341840 -8.48578241 1.48828367
VERTEX2 773 -7.16171883 -7.90736887 1.57410386
VERTEX2 774 -7.17609620 -7.36056912 1.59621999
VERTEX2 775 -7.17521017 -7.36433674 2.44117145
VERTEX2 776 -7.38468623 -7.33958473 3.05862038
VERTEX2 777 -7.99820183 -7.29974524 3.11768075
VERTEX2 778 -8.61103762 -7.29107622 3.09675865
VERTEX2 779 -9.22707369 -7.27150934 3.11487910
VERTEX2 780 -9.43545593 -7.25408069 2.98466918
VERTEX2 781 -9.43240854 -7.25515858 2.41128169
VERTEX2 782 -9.56022568 -6.98332040 1.98174266
VERTEX2 783 -9.79609230 -6.41033903 1.98115395
VERTEX2 784 -9.89573296 -6.18360131 1.95984140
VERTEX2 785 -9.89666178 -6.15879152 1.40789669
VERTEX2 786 -9.88893140 -6.13322477 0.81959496
VERTEX2 787 -9.87194262 -6.11578401 0.32894599
VERTEX2 788 -9.84531391 -6.11755909 -0.30016909
VERTEX2 789 -9.83485379 -6.12574859 -0.85212700
VERTEX2 790 -9.52804077 -6.52056656 -0.91928540
VERTEX2 791 -9.12281425 -7.00198914 -0.82060938
VERTEX2 792 -8.88318414 -7.21504952 -0.11605168
VERTEX2 793 -8.26749110 -7.26703185 -0.07127214
VERTEX2 794 -7.62744043 -7.29566099 -0.00003253
VERTEX2 795 -7.65165535 -7.31347968 0.42941596
VERTEX2 796 -7.65828468 -7.31615223 1.08887034
VERTEX2 797 -7.58406770 -7.00685482 1.34907578
VERTEX2 798 -7.44922616 -6.38050002 1.39924631
VERTEX2 799 -7.36244309 -5.73623087 1.46500446
VERTEX2 800 -7.30864992 -5.08995255 1.53794308
VERTEX2 801 -7.31958439 -4.45835118 1.62390437
VERTEX2 802 -7.37339085 -3.83341970 1.68164275
VERTEX2 803 -7.35600049 -3.20502944 1.51701980
VERTEX2 804 -7.33570469 -2.57789512 1.57296129
VERTEX2 805 -7.36882125 -1.94776207 1.64929012
VERTEX2 806 -7.42867699 -1.34972848 1.69074666
VERTEX2 807 -7.45600001 -1.16507191 1.97885546
VERTEX2 808 -7.46074359 -1.16497833 2.92717174
VERTEX2 809 -8.05231922 -1.13592027 3.07185272
VERTEX2 810 -8.66963384 -1.01250923 2.93170768
VERTEX2 811 -9.26853886 -0.90081130 2.92843307
VERTEX2 812 -9.27085017 -0.90036175 -2.62296516
VERTEX2 813 -9.28052222 -0.92193718 -1.64764435
VERTEX2 814 -9.27431922 -0.92684552 -0.65540610
VERTEX2 815 -9.25008740 -0.93501076 0.26386988
VERTEX2 816 -9.24122792 -0.93016394 0.94502737
VERTEX2 817 -9.22980915 -0.92297820 0.27626623
VERTEX2 818 -9.00758169 -0.95686342 -0.21262052
VERTEX2 819 -8.41662542 -1.08454799 -0.19849474
VERTEX2 820 -7.82324126 -1.21631847 -0.23972231
VERTEX2 821 -7.27734586 -1.34715211 -0.22392135
VERTEX2 822 -7.22793073 -1.35465962 0.53758690
VERTEX2 823 -7.22649434 -1.33948507 1.45685659
VERTEX2 824 -7.16255687 -0.71698429 1.37754593
VERTEX2 825 -7.01841071 -0.09298007 1.34790688
VERTEX2 826 -6.96117932 0.53945918 1.51089282
VERTEX2 827 -6.89713902 1.16364526 1.46228436
VERTEX2 828 -6.84284199 1.79522548 1.49786160
VERTEX2 829 -6.78224645 2.39911181 1.45813353
VERTEX2 830 -6.70770815 3.00832819 1.44982922
VERTEX2 831 -6.61391831 3.58589171 1.40305028
VERTEX2 832 -6.52406588 4.14913521 1.39949812
VERTEX2 833 -6.48020627 4.40468737 1.53717084
VERTEX2 834 -6.48219738 4.41172817 2.59188510
VERTEX2 835 -6.49529671 4.41322779 -2.91359298
VERTEX2 836 -6.50742142 4.40297315 -1.97048163
VERTEX2 837 -6.50403067 4.38453242 -0.93406679
VERTEX2 838 -6.49245377 4.37733058 -0.07182807
VERTEX2 839 -6.49205514 4.37714140 -0.29007853
VERTEX2 840 -6.48117815 4.36862814 -0.85270214
VERTEX2 841 -6.47359580 4.35341171 -1.46976132
VERTEX2 842 -6.49961636 4.10756247 -1.70057772
VERTEX2 843 -6.57754372 3.54370464 -1.70310531
VERTEX2 844 -6.65244598 2.91786448 -1.71112865
VERTEX2 845 -6.74589006 2.29252926 -1.72585813
VERTEX2 846 -6.83143574 1.66297854 -1.72413904
VERTEX2 847 -6.94089389 1.04124510 -1.75089898
VERTEX2 848 -6.97152630 0.84583388 -1.27049923
VERTEX2 849 -6.97082136 0.84558640 -0.34838132
VERTEX2 850 -6.61563098 0.84236141 0.00498209
VERTEX2 851 -5.98836923 0.81682823 -0.08753960
VERTEX2 852 -5.36396851 0.75610924 -0.07314246
VERTEX2 853 -4.76913838 0.71407196 -0.10108027
VERTEX2 854 -4.18192830 0.64673349 -0.09908897
VERTEX2 855 -3.58705243 0.59628859 -0.10089851
VERTEX2 856 -2.93346071 0.51115498 -0.14158274
VERTEX2 857 -2.28104142 0.42233673 -0.15112613
VERTEX2 858 -1.63503312 0.30108796 -0.20563875
VERTEX2 859 -1.11690790 0.19790350 -0.21249753
VERTEX2 860 -1.09077721 0.20869525 0.63829510
VERTEX2 861 -1.07529878 0.31864568 1.55309076
VERTEX2 862 -1.03752874 0.97846366 1.49346644
VERTEX2 863 -0.98067577 1.62286134 1.46098143
VERTEX2 864 -0.89414041 2.23322030 1.45886525
VERTEX2 865 -0.85332781 2.84477123 1.51648957
VERTEX2 866 -0.80904048 3.43080209 1.51536792
VERTEX2 867 -0.80166538 3.59489716 1.69657953
VERTEX2 868 -0.80901721 3.60418086 2.72038190
VERTEX2 869 -0.79839905 3.60433649 -2.58444825
VERTEX2 870 -0.77864795 3.61497174 -1.58498131
VERTEX2 871 -0.76391550 3.60500133 -0.61126398
VERTEX2 872 -0.74548537 3.59171202 0.07400871
VERTEX2 873 -0.71813761 3.58262009 -0.49855514
VERTEX2 874 -0.69687047 3.56343110 -1.05815573
VERTEX2 875 -0.69053469 3.54854952 -1.64466310
VERTEX2 876 -0.81014908 2.99251444 -1.80222708
VERTEX2 877 -0.96204293 2.45055288 -1.88688028
VERTEX2 878 -1.01246710 2.25090926 -1.50391828
VERTEX2 879 -0.91103873 1.61248801 -1.45288988
VERTEX2 880 -0.87529325 1.16348482 -1.56558051
VERTEX2 881 -0.87569072 1.21338083 -1.56023870
VERTEX2 882 -0.93195472 0.57390645 -1.80676423
VERTEX2 883 -1.14742489 -0.02122221 -1.99749200
VERTEX2 884 -1.30579133 -0.35328716 -2.06446270
VERTEX2 885 -1.30576799 -0.35322914 -1.48291759
VERTEX2 886 -1.28865630 -0.36925427 -0.46498474
VERTEX2 887 -1.26014076 -0.38033889 0.54625980
VERTEX2 888 -1.25008288 -0.35916910 1.53029244
VERTEX2 889 -1.25165457 -0.35466415 2.42828521
VERTEX2 890 -1.56724292 -0.20217242 2.70219975
VERTEX2 891 -2.10459856 0.06443776 2.63188244
VERTEX2 892 -2.63832120 0.38359544 2.59632161
VERTEX2 893 -3.19131485 0.67920677 2.83261397
VERTEX2 894 -3.80438785 0.79032203 3.05367778
VERTEX2 895 -4.40395383 0.74137151 -2.93123133
VERTEX2 896 -4.42285232 0.73685419 -2.45270830
VERTEX2 897 -4.70734224 0.31568150 -2.18041176
VERTEX2 898 -5.05949988 -0.19514190 -2.16480746
VERTEX2 899 -5.34673467 -0.60634870 -2.23246461
VERTEX2 900 -5.76075872 -1.15172869 -2.23480577
VERTEX2 901 -6.13305926 -1.59694608 -2.29915015
VERTEX2 902 -6.54990542 -2.08935645 -2.27391112
VERTEX2 903 -6.86674782 -2.46918524 -2.31869023
VERTEX2 904 -6.86781414 -2.47069993 -1.61569766
VERTEX2 905 -6.85455798 -2.96304312 -1.56024141
VERTEX2 906 -6.82133337 -3.53347613 -1.49453108
VERTEX2 907 -6.76585845 -4.10693386 -1.50271293
VERTEX2 908 -6.72025065 -4.72883957 -1.47793886
VERTEX2 909 -6.66040292 -5.34090119 -1.49586280
VERTEX2 910 -6.68821607 -5.47008333 -1.86575837
VERTEX2 911 -6.84885972 -6.04065800 -1.80488719
VERTEX2 912 -6.97040361 -6.60420304 -1.79227750
VERTEX2 913 -7.08300808 -7.14573784 -1.78435366
VERTEX2 914 -7.20958551 -7.73345645 -1.80802180
VERTEX2 915 -7.33355607 -8.24210279 -1.84474716
VERTEX2 916 -7.26924557 -8.48687775 -1.29722942
VERTEX2 917 -7.13059152 -9.13647823 -1.55165899
VERTEX2 918 -7.15115396 -9.65465793 -1.62720438
VERTEX2 919 -7.18522100 -10.27862849 -1.67053575
VERTEX2 920 -7.25019597 -10.89286366 -1.68813845
VERTEX2 921 -7.32401408 -11.50829243 -1.74150251
VERTEX2 922 -7.42704414 -12.11212196 -1.76873752
VERTEX2 923 -7.54768467 -12.67853458 -1.83222930
VERTEX2 924 -7.68006918 -13.17187608 -1.81560294
VERTEX2 925 -7.68081235 -13.16813107 -1.31089833
VERTEX2 926 -7.52098448 -13.73131491 -1.29471504
VERTEX2 927 -7.35436464 -14.32309399 -1.31804517
VERTEX2 928 -7.19686268 -14.93029546 -1.32700417
VERTEX2 929 -7.04591190 -15.53465234 -1.32793396
VERTEX2 930 -6.89894546 -16.16581326 -1.41057794
VERTEX2 931 -6.81307803 -16.79236863 -1.49086681
VERTEX2 932 -6.76736590 -17.41965766 -1.55035860
VERTEX2 933 -6.76440850 -18.03238297 -1.61500155
VERTEX2 934 -6.77941667 -18.51315971 -1.62486177
VERTEX2 935 -6.77668322 -18.52587850 -0.94278818
VERTEX2 936 -6.77463709 -18.52659910 0.00232443
VERTEX2 937 -6.23207135 -18.50201232 0.06518718
VERTEX2 938 -5.63558209 -18.51874501 -0.10823746
VERTEX2 939 -5.01130180 -18.57934034 -0.08053717
VERTEX2 940 -4.39904453 -18.65534604 -0.16640494
VERTEX2 941 -3.79400021 -18.77173951 -0.22006441
VERTEX2 942 -3.27510010 -18.88826227 -0.21557493
VERTEX2 943 -2.66576153 -19.02303343 -0.12725499
VERTEX2 944 -2.05236194 -19.10699708 -0.18391944
VERTEX2 945 -1.43011023 -19.23701306 -0.23905032
VERTEX2 946 -1.25437170 -19.28212387 -0.17473327
VERTEX2 947 -0.84434475 -19.21972930 0.15348342
VERTEX2 948 -0.27017172 -19.13141931 0.13432668
VERTEX2 949 0.33433633 -19.09810863 -0.02135527
VERTEX2 950 0.96604833 -19.13575709 -0.26090083
VERTEX2 951 1.56948232 -19.31041568 -0.33307076
VERTEX2 952 2.17262979 -19.48809885 -0.08231863
VERTEX2 953 2.80378036 -19.52124092 -0.00206194
VERTEX2 954 3.42933681 -19.51537719 -0.00908703
VERTEX2 955 4.01980026 -19.56245616 -0.16994783
VERTEX2 956 4.57145929 -19.64242232 -0.17226953
VERTEX2 957 5.10385441 -19.74016411 -0.25999860
VERTEX2 958 5.57153891 -19.85395816 -0.28676361
VERTEX2 959 6.00430466 -19.97395154 -0.35389971
VERTEX2 960 6.59352743 -20.13807872 -0.27401964
VERTEX2 961 7.17502239 -20.31348850 -0.30106519
VERTEX2 962 7.79249041 -20.44326193 -0.23546529
VERTEX2 963 8.41024326 -20.52525920 -0.04881003
VERTEX2 964 9.03264209 -20.56792305 -0.11271807
VERTEX2 965 9.65062629 -20.64812435 -0.11962187
VERTEX2 966 10.09440570 -20.70737702 -0.17860398
VERTEX2 967 10.12759959 -20.70068693 0.67477226
VERTEX2 968 10.13579804 -20.69295772 1.57148415
VERTEX2 969 10.13812924 -20.72050685 1.63093893
VERTEX2 970 10.14060157 -20.74829483 1.62919511
VERTEX2 971 10.12032617 -20.41486501 1.62931573
VERTEX2 972 10.08196714 -19.82814450 1.63491610
VERTEX2 973 10.16178365 -19.24591660 1.34986777
VERTEX2 974 10.30134493 -18.64412281 1.38163281
VERTEX2 975 10.41304025 -18.03822660 1.38617776
VERTEX2 976 10.51800961 -17.42968164 1.39900940
VERTEX2 977 10.65380860 -16.81161341 1.37272100
VERTEX2 978 10.77484233 -16.19977638 1.41868071
VERTEX2 979 10.88969234 -15.59180604 1.40639288
VERTEX2 980 10.98748340 -14.98699424 1.45330204
VERTEX2 981 11.07616885 -14.39276270 1.46019888
VERTEX2 982 11.13236961 -13.86521493 1.50516034
VERTEX2 983 11.18153235 -13.26669438 1.50178585
VERTEX2 984 11.20830357 -12.67065288 1.55916110
VERTEX2 985 11.21872433 -12.07368327 1.57944912
VERTEX2 986 11.20330891 -11.45314123 1.61579057
VERTEX2 987 11.19017067 -10.83408874 1.57910340
VERTEX2 988 11.19244396 -10.21536444 1.59281686
VERTEX2 989 11.17740141 -9.60132920 1.60045502
VERTEX2 990 11.17020635 -8.99061420 1.58967442
VERTEX2 991 11.15457579 -8.37638135 1.61450787
VERTEX2 992 11.14918019 -7.79008632 1.58193427
VERTEX2 993 11.13516015 -7.17433858 1.61470682
VERTEX2 994 11.11852670 -6.58934349 1.60478716
VERTEX2 995 11.08609718 -5.99004906 1.65208110
VERTEX2 996 11.02563284 -5.37562169 1.67922597
VERTEX2 997 10.98015612 -4.72263244 1.61482202
VERTEX2 998 10.95999567 -4.31195804 1.63669019
VERTEX2 999 10.98258214 -4.33023924 2.35456100
VERTEX2 1000 10.51495392 -3.96615814 2.50322888
VERTEX2 1001 10.07092436 -3.56149816 2.18231816
VERTEX2 1002 9.70022092 -3.08487759 2.27502041
VERTEX2 1003 9.34687191 -2.58085227 2.09546153
VERTEX2 1004 9.00835765 -2.04452683 2.15369184
VERTEX2 1005 8.65512738 -1.55062023 2.21612096
VERTEX2 1006 8.25978287 -1.07296026 2.29350049
VERTEX2 1007 7.84755850 -0.64732301 2.38516920
VERTEX2 1008 7.61232749 -0.43287932 2.54470521
VERTEX2 1009 7.51497442 -0.41814858 3.01777596
VERTEX2 1010 6.94787706 -0.36239099 3.07032494
VERTEX2 1011 6.33164054 -0.32322090 3.02726966
VERTEX2 1012 5.72166166 -0.26006881 3.06921967
VERTEX2 1013 5.08495744 -0.26274655 -3.09895607
VERTEX2 1014 4.47149277 -0.21476556 3.00897972
VERTEX2 1015 3.84598517 -0.17543551 3.09348304
VERTEX2 1016 3.07584875 -0.13786916 3.10023873
VERTEX2 1017 2.49023611 -0.12442570 3.04307697
VERTEX2 1018 1.93221659 -0.06250284 3.05036561
VERTEX2 1019 1.33707427 -0.03792506 3.10990557
VERTEX2 1020 0.72169520 -0.00184543 3.09594857
VERTEX2 1021 0.10041557 0.02736924 3.05533783
VERTEX2 1022 0.04671794 0.03181754 3.04810199
VERTEX2 1023 0.05341437 0.03168808 3.13468401
VERTEX2 1024 -0.57373881 0.03955863 -3.12218075
VERTEX2 1025 -1.20307026 0.00914626 -3.10462134
VERTEX2 1026 -1.36470573 0.00367168 -3.09745950
VERTEX2 1027 -1.34894493 0.01138939 -2.18097900
VERTEX2 1028 -1.36213562 -0.15496090 -1.61754867
VERTEX2 1029 -1.39105298 -0.72110639 -1.63911965
VERTEX2 1030 -1.45493073 -1.34241331 -1.71958142
VERTEX2 1031 -1.56801103 -1.98773754 -1.77376904
VERTEX2 1032 -1.69903383 -2.63309788 -1.76975599
VERTEX2 1033 -1.84309139 -3.27722840 -1.81493397
VERTEX2 1034 -1.88788847 -3.44804996 -2.02874807
VERTEX2 1035 -1.89319448 -3.45251756 -2.64811167
VERTEX2 1036 -1.86203731 -3.46691667 3.06422160
VERTEX2 1037 -2.20169738 -3.33737736 2.82579587
VERTEX2 1038 -2.81282807 -3.21486939 2.91698109
VERTEX2 1039 -3.45091052 -3.04500420 2.88542695
VERTEX2 1040 -3.42506382 -3.04564103 -2.76775216
VERTEX2 1041 -3.39589611 -3.04949793 -1.75093869
VERTEX2 1042 -3.39773427 -3.08256940 -0.76313473
VERTEX2 1043 -3.36391890 -3.11375729 0.20631655
VERTEX2 1044 -3.37753863 -3.12980929 1.20000063
VERTEX2 1045 -3.38071349 -3.13678829 1.08594908
VERTEX2 1046 -3.39129364 -3.15099497 0.70037573
VERTEX2 1047 -3.41018386 -3.15920427 0.14455507
VERTEX2 1048 -3.04749933 -3.22875308 -0.16847199
VERTEX2 1049 -2.40189629 -3.32770287 -0.15133245
VERTEX2 1050 -1.75453866 -3.39889165 -0.07567166
VERTEX2 1051 -1.09875367 -3.47302552 -0.15481740
VERTEX2 1052 -0.47454142 -3.55467354 -0.10186506
VERTEX2 1053 -0.05688126 -3.60954959 -0.15449410
VERTEX2 1054 -0.03008481 -3.61240543 0.60767489
VERTEX2 1055 -0.02384985 -3.58328694 1.66290171
VERTEX2 1056 -0.01480151 -3.59659181 2.66654816
VERTEX2 1057 0.01057680 -3.59944929 -2.62580330
VERTEX2 1058 0.00855561 -3.60181608 -1.70363756
VERTEX2 1059 -0.09059651 -4.18451111 -1.78438801
VERTEX2 1060 -0.22864340 -4.81444894 -1.77938609
VERTEX2 1061 -0.33695161 -5.26060181 -1.90191980
VERTEX2 1062 -0.34046071 -5.26598471 -2.46614019
VERTEX2 1063 -0.31921094 -5.25389991 -3.06385994
VERTEX2 1064 -0.59933419 -5.20046561 2.95408068
VERTEX2 1065 -1.18663395 -5.13183242 3.07605531
VERTEX2 1066 -1.74945184 -5.07792837 3.01995263
VERTEX2 1067 -1.73479705 -5.07720493 -2.83054687
VERTEX2 1068 -1.72228354 -5.06846670 -2.15773233
VERTEX2 1069 -1.72169482 -5.06689449 -1.98734452
VERTEX2 1070 -1.72025250 -5.06437714 -2.52628258
VERTEX2 1071 -2.19274321 -5.31924656 -2.65348940
VERTEX2 1072 -2.64337054 -5.55070284 -2.72214476
VERTEX2 1073 -2.61407892 -5.55002380 3.04990781
VERTEX2 1074 -3.14360853 -5.47691952 3.01555120
VERTEX2 1075 -3.72077841 -5.39932156 3.03212004
VERTEX2 1076 -3.73964251 -5.39790167 -2.84688593
VERTEX2 1077 -3.75301720 -5.42301777 -2.04117505
VERTEX2 1078 -3.99301081 -6.03285016 -1.99604035
VERTEX2 1079 -4.22726976 -6.59964677 -1.93393948
VERTEX2 1080 -4.23227276 -6.61294157 -2.42157948
VERTEX2 1081 -4.66078814 -6.90445357 -2.54485037
VERTEX2 1082 -4.83138665 -7.02297615 -2.26426628
VERTEX2 1083 -4.82699992 -7.05711172 -1.23413754
VERTEX2 1084 -4.75621285 -7.09372916 -0.26881159
VERTEX2 1085 -4.76108347 -7.09502112 0.71466542
VERTEX2 1086 -4.39996402 -6.60701871 0.94530462
VERTEX2 1087 -4.01947469 -6.10123998 0.93332830
VERTEX2 1088 -3.65762501 -5.59112728 0.91667027
VERTEX2 1089 -3.60191648 -5.51957330 0.82127199
VERTEX2 1090 -3.59189785 -5.51047314 0.20635482
VERTEX2 1091 -3.05464648 -5.48013628 0.02956211
VERTEX2 1092 -2.43610962 -5.46686197 0.01448303
VERTEX2 1093 -1.86762383 -5.47167153 -0.05052193
VERTEX2 1094 -1.85527854 -5.48350056 -0.45453391
VERTEX2 1095 -1.82529059 -5.51025099 -1.04417226
VERTEX2 1096 -1.82549111 -5.50945981 -1.61531065
VERTEX2 1097 -1.90945834 -5.83309543 -1.83070707
VERTEX2 1098 -2.08811770 -6.42801509 -1.88752184
VERTEX2 1099 -2.29615041 -6.98456396 -1.98362155
VERTEX2 1100 -2.30048786 -6.99539996 -1.62057633
VERTEX2 1101 -2.24389897 -7.25468509 -1.35471432
VERTEX2 1102 -2.24464918 -7.26321494 -1.74832354
VERTEX2 1103 -2.37473091 -7.87186828 -1.78206230
VERTEX2 1104 -2.51573221 -8.50677735 -1.80971217
VERTEX2 1105 -2.67391919 -9.12765081 -1.82755769
VERTEX2 1106 -2.80211471 -9.60353805 -1.85273667
VERTEX2 1107 -2.80146447 -9.61144823 -1.59653758
VERTEX2 1108 -2.77400513 -10.23772733 -1.58864214
VERTEX2 1109 -2.83124977 -10.88116294 -1.69250097
VERTEX2 1110 -2.91039926 -11.48821443 -1.74194767
VERTEX2 1111 -3.08420988 -12.01591634 -1.84314088
VERTEX2 1112 -3.12267001 -12.59477566 -1.49658536
VERTEX2 1113 -3.09165229 -13.23400805 -1.59186906
VERTEX2 1114 -3.10389105 -13.85056814 -1.57475323
VERTEX2 1115 -3.10320750 -14.43381978 -1.59085875
VERTEX2 1116 -3.09363733 -15.08225824 -1.55451495
VERTEX2 1117 -3.09116091 -15.17984290 -1.68217843
VERTEX2 1118 -3.08976709 -15.17726000 -2.28916818
VERTEX2 1119 -3.08064763 -15.17099837 -2.72064394
VERTEX2 1120 -3.64400826 -15.37466526 -2.78417006
VERTEX2 1121 -3.83351718 -15.44084139 -2.90264451
VERTEX2 1122 -3.82899871 -15.44240217 2.83042573
VERTEX2 1123 -4.37777892 -15.25664035 2.84744445
VERTEX2 1124 -4.93461112 -15.12706328 2.94629666
VERTEX2 1125 -5.55931953 -15.00071295 2.95989204
VERTEX2 1126 -5.63904287 -14.98775462 -2.98340424
VERTEX2 1127 -5.63446759 -14.99264728 -1.92584704
VERTEX2 1128 -5.63347366 -14.98786353 -0.93821829
VERTEX2 1129 -5.61597779 -14.99767416 0.07766595
VERTEX2 1130 -5.02659789 -14.93367691 0.09148586
VERTEX2 1131 -4.25266974 -15.05990658 -0.34005717
VERTEX2 1132 -3.64205386 -15.27839488 -0.35957610
VERTEX2 1133 -3.09533519 -15.50741673 -0.39809678
VERTEX2 1134 -2.84227751 -15.61412963 -0.49490613
VERTEX2 1135 -2.83128999 -15.62494761 -1.05055529
VERTEX2 1136 -2.83095582 -15.62423394 -1.61212498
VERTEX2 1137 -2.88548600 -15.92677153 -1.79590579
VERTEX2 1138 -3.04126925 -16.55971379 -1.81198725
VERTEX2 1139 -3.16138800 -17.05521223 -1.88498806
VERTEX2 1140 -3.15165629 -17.03201982 -2.36351748
VERTEX2 1141 -3.13045300 -17.01149344 -2.91042248
VERTEX2 1142 -3.49360001 -16.96721752 3.00880319
VERTEX2 1143 -4.09176953 -16.91905519 3.09841691
VERTEX2 1144 -4.67289278 -16.88336444 3.06799390
VERTEX2 1145 -5.25154742 -16.83645572 3.04271836
VERTEX2 1146 -5.82779801 -16.77792408 3.06264898
VERTEX2 1147 -6.40758381 -16.76658858 3.13556419
VERTEX2 1148 -6.98460913 -16.76306528 -3.13750622
VERTEX2 1149 -7.02940004 -16.76432734 -2.63924975
VERTEX2 1150 -7.12152748 -16.86626534 -1.82977027
VERTEX2 1151 -7.11961826 -16.87746351 -0.82583281
VERTEX2 1152 -7.10280827 -16.87779252 0.22741224
VERTEX2 1153 -7.08834888 -16.87129107 1.24031526
VERTEX2 1154 -7.14676216 -16.55417005 1.78637910
VERTEX2 1155 -7.27815168 -15.92950435 1.73703469
VERTEX2 1156 -7.37372134 -15.32353247 1.74705799
VERTEX2 1157 -7.49924488 -14.75220418 1.85817651
VERTEX2 1158 -7.62388813 -14.14984056 1.72963047
VERTEX2 1159 -7.68270274 -13.54674209 1.63561193
VERTEX2 1160 -7.70341023 -12.90712759 1.49888722
VERTEX2 1161 -7.60177243 -12.27584741 1.40921397
VERTEX2 1162 -7.50837481 -11.64425529 1.46734661
VERTEX2 1163 -7.44390518 -11.00162888 1.46191423
VERTEX2 1164 -7.39375944 -10.36093209 1.54738277
VERTEX2 1165 -7.38147895 -9.82137818 1.52458420
VERTEX2 1166 -7.38217382 -9.81797118 2.01360110
VERTEX2 1167 -7.33039501 -9.80548589 2.95033199
VERTEX2 1168 -7.28584750 -9.78785911 -2.42931044
VERTEX2 1169 -7.28991501 -9.83939945 -1.60721960
VERTEX2 1170 -7.30096683 -10.42556304 -1.60046738
VERTEX2 1171 -7.30166534 -11.06050598 -1.56867509
VERTEX2 1172 -7.30676243 -11.65949518 -1.63107556
VERTEX2 1173 -7.33750061 -12.28313552 -1.62191572
VERTEX2 1174 -7.38216137 -12.91194125 -1.69060849
VERTEX2 1175 -7.46905190 -13.52551777 -1.72400231
VERTEX2 1176 -7.56741002 -14.14641638 -1.76767459
VERTEX2 1177 -7.68790830 -14.75522281 -1.76562982
VERTEX2 1178 -7.81997394 -15.36792858 -1.81284484
VERTEX2 1179 -7.95849954 -15.97248747 -1.78350379
VERTEX2 1180 -8.01322111 -16.22637790 -1.79049718
VERTEX2 1181 -8.01243627 -16.22093619 -0.96307717
VERTEX2 1182 -7.95634919 -16.23527994 -0.25139760
VERTEX2 1183 -7.34244931 -16.38533668 -0.22610535
VERTEX2 1184 -6.70923992 -16.50127574 -0.15660540
VERTEX2 1185 -6.08093538 -16.61277994 -0.18891000
VERTEX2 1186 -5.44902751 -16.70882510 -0.12278705
VERTEX2 1187 -4.79477443 -16.79553497 -0.15995203
VERTEX2 1188 -4.16711353 -16.88663218 -0.14192378
VERTEX2 1189 -3.50210298 -16.99543226 -0.12028360
VERTEX2 1190 -3.16872037 -17.03638042 -0.11230641
VERTEX2 1191 -3.13442169 -17.03567550 0.80781289
VERTEX2 1192 -3.12858874 -16.95224297 1.60533132
VERTEX2 1193 -3.12162222 -16.35246000 1.47327575
VERTEX2 1194 -3.08009454 -15.77837053 1.51530043
VERTEX2 1195 -3.05135867 -15.15499803 1.56762033
VERTEX2 1196 -3.04530536 -14.53145733 1.39495585
VERTEX2 1197 -2.94172015 -13.91677854 1.40621440
VERTEX2 1198 -2.87114216 -13.29022106 1.66506706
VERTEX2 1199 -2.88825319 -12.67807257 1.45038840
VERTEX2 1200 -2.83104917 -12.04824907 1.51940690
VERTEX2 1201 -2.80610375 -11.42875000 1.57523882
VERTEX2 1202 -2.81638542 -10.80650588 1.59818694
VERTEX2 1203 -2.84687562 -10.21722184 1.50826347
VERTEX2 1204 -2.73245010 -9.62553206 1.36147887
VERTEX2 1205 -2.62388803 -9.06291814 1.39104597
VERTEX2 1206 -2.53822277 -8.47328308 1.45227041
VERTEX2 1207 -2.40055992 -7.86232435 1.36616751
VERTEX2 1208 -2.28776368 -7.23765391 1.43084227
VERTEX2 1209 -2.20043796 -6.61635268 1.42889529
VERTEX2 1210 -2.13521134 -5.99923585 1.44945782
VERTEX2 1211 -2.00896486 -5.38732397 1.37647893
VERTEX2 1212 -1.89382096 -4.77567979 1.42637111
VERTEX2 1213 -1.82632109 -4.16206728 1.49951608
VERTEX2 1214 -1.74413730 -3.43654616 1.27665402
VERTEX2 1215 -1.57959897 -2.85263088 1.33554367
VERTEX2 1216 -1.52912450 -2.29939647 1.55267863
VERTEX2 1217 -1.49472341 -1.71958562 1.53322616
VERTEX2 1218 -1.48079916 -1.12944619 1.48255716
VERTEX2 1219 -1.42996218 -0.48040907 1.51315516
VERTEX2 1220 -1.42280828 0.10664978 1.60389316
VERTEX2 1221 -1.42226546 0.10482074 1.15114016
VERTEX2 1222 -1.41228480 0.11453399 0.55383316
VERTEX2 1223 -1.40045013 0.11733166 -0.00579384
VERTEX2 1224 -0.82650579 0.02494079 -0.18870184
VERTEX2 1225 -0.21118071 -0.08859677 -0.17493784
VERTEX2 1226 -0.10632122 -0.10724079 -0.19166884
VERTEX2 1227 -0.10632122 -0.10724079 -0.19233084
