1 19 166 0.00295807 10 
2 19 172 0.00311660 10 
3 25 172 0.00317702 10 
4 25 178 0.00328996 10 
5 32 178 0.00328934 10 
6 32 183 0.00337934 10 
7 44 189 0.00349800 10 
8 44 195 0.00361457 10 
9 50 195 0.00361196 10 
10 50 201 0.00371991 10 
11 50 203 0.00377411 10 
12 61 203 0.00375468 10 
13 61 209 0.00387240 10 
14 67 209 0.00387802 10 
15 67 220 0.00407587 10 
16 81 220 0.00406628 10 
17 81 226 0.00418327 10 
18 87 226 0.00417585 10 
19 87 231 0.00427325 10 
20 94 231 0.00426651 10 
21 226 231 0.00426231 10 
22 94 241 0.00446811 10 
23 101 241 0.00446618 10 
24 101 247 0.00457897 10 
25 107 247 0.00458739 10 
26 107 254 0.00471409 10 
27 114 254 0.00471950 10 
28 107 256 0.00476712 10 
29 114 256 0.00477110 10 
30 107 258 0.00481092 10 
31 114 258 0.00480970 10 
32 121 266 0.00497343 10 
33 126 266 0.00499488 10 
34 126 272 0.00513042 10 
35 132 272 0.00514749 10 
36 132 278 0.00525929 10 
37 138 278 0.00525073 10 
38 138 284 0.00539644 10 
39 151 284 0.00540144 10 
40 151 291 0.00553299 10 
41 151 297 0.00564195 10 
42 157 297 0.00565868 10 
43 163 297 0.00565295 10 
44 166 297 0.00565817 10 
45 19 305 0.00593219 10 
46 157 305 0.00594222 10 
47 163 305 0.00599205 10 
48 166 305 0.00597464 10 
49 172 305 0.00601423 10 
50 19 315 0.00538734 9 
51 25 315 0.00605581 10 
52 172 315 0.00621653 10 
53 172 328 0.00627263 10 
54 19 337 0.00515574 8 
55 25 337 0.00651476 10 
56 172 337 0.00667437 10 
57 19 342 0.00656967 10 
58 25 342 0.00663665 10 
59 172 342 0.00340791 5 
60 178 342 0.00665029 10 
61 25 367 0.00347550 5 
62 32 367 0.00420113 6 
63 178 367 0.00421720 6 
64 183 367 0.00494222 7 
65 25 374 0.00723854 10 
66 32 374 0.00729605 10 
67 178 374 0.00523082 7 
68 183 374 0.00653378 9 
69 32 382 0.00592590 8 
70 183 382 0.00750769 10 
71 32 387 0.00754804 10 
72 183 387 0.00448029 6 
73 189 400 0.00788170 10 
74 189 414 0.00814569 10 
75 44 437 0.00860729 10 
76 195 437 0.00879892 10 
77 44 454 0.00889608 10 
78 189 454 0.00913126 10 
79 44 467 0.00916505 10 
80 50 467 0.00941437 10 
81 195 467 0.00942852 10 
82 195 484 0.00952667 10 
83 44 494 0.00672812 7 
84 50 494 0.00976004 10 
85 195 494 0.00998092 10 
86 201 494 0.01004202 10 
87 50 500 0.00990490 10 
88 201 500 0.01016018 10 
89 203 500 0.01017501 10 
90 61 508 0.01010496 10 
91 203 508 0.01034333 10 
92 209 508 0.01038687 10 
93 61 522 0.01037667 10 
94 203 522 0.01062340 10 
95 209 522 0.01064906 10 
96 61 528 0.01050903 10 
97 67 528 0.01081497 10 
98 81 528 0.01083727 10 
99 209 528 0.01211260 10 
100 220 528 0.01085317 10 
101 67 532 0.00844354 8 
102 81 532 0.01067449 10 
103 220 532 0.01093709 10 
104 67 556 0.01115404 10 
105 67 564 0.01129484 10 
106 81 564 0.01156521 10 
107 220 564 0.01150059 10 
108 67 567 0.01136971 10 
109 81 567 0.01167380 10 
110 220 567 0.01168176 10 
111 67 570 0.01145454 10 
112 81 570 0.01174131 10 
113 220 570 0.01173069 10 
114 81 575 0.01187279 10 
115 220 575 0.01185926 10 
116 81 588 0.01184427 10 
117 87 588 0.01216056 10 
118 226 588 0.01218926 10 
119 87 597 0.01208084 10 
120 94 597 0.01238759 10 
121 226 597 0.01240176 10 
122 87 604 0.01223771 10 
123 94 604 0.01253707 10 
124 94 616 0.00988665 8 
125 94 632 0.01279594 10 
126 94 637 0.01289835 10 
127 101 637 0.01321892 10 
128 101 642 0.01298854 10 
129 107 642 0.01330408 10 
130 101 645 0.01306379 10 
131 107 645 0.01339252 10 
132 101 657 0.01329932 10 
133 101 663 0.01196688 9 
134 107 663 0.01343439 10 
135 114 663 0.01393705 10 
136 101 665 0.01366514 10 
137 107 665 0.01397910 10 
138 114 665 0.01399496 10 
139 107 680 0.01396772 10 
140 107 683 0.01404042 10 
141 114 683 0.01437541 10 
142 107 704 0.01443682 10 
143 114 704 0.01476714 10 
144 107 714 0.01462089 10 
145 114 714 0.01497137 10 
146 107 730 0.01181316 8 
147 114 730 0.01492071 10 
148 121 754 0.01532589 10 
149 126 754 0.01577664 10 
150 121 759 0.01548922 10 
151 126 759 0.01587444 10 
152 126 762 0.01557185 10 
153 132 762 0.01599795 10 
154 132 778 0.01590637 10 
155 132 792 0.01613873 10 
156 132 800 0.01633915 10 
157 138 800 0.01675221 10 
158 138 806 0.01647824 10 
159 138 821 0.01676249 10 
160 138 823 0.01669110 10 
161 151 828 0.01690512 10 
162 151 847 0.01727825 10 
163 151 855 0.01741539 10 
164 151 895 0.01821432 10 
165 151 897 0.01851800 10 
166 138 903 0.01834879 10 
167 138 904 0.01879624 10 
168 132 907 0.01844121 10 
169 138 907 0.01888696 10 
170 132 911 0.01850185 10 
171 121 923 0.01881713 10 
172 126 923 0.01924176 10 
173 107 929 0.01902399 10 
174 114 929 0.01989555 10 
175 107 935 0.01912389 10 
176 114 935 0.01959853 10 
177 101 939 0.01910319 10 
178 107 939 0.01909742 10 
179 101 944 0.01934088 10 
180 94 947 0.01938666 10 
181 101 947 0.01984841 10 
182 87 953 0.01957622 10 
183 94 953 0.02003958 10 
184 226 953 0.02007676 10 
185 81 959 0.01979398 10 
186 87 959 0.02025310 10 
187 220 959 0.02030730 10 
188 226 959 0.02026872 10 
189 67 965 0.01993919 10 
190 81 965 0.02042967 10 
191 220 965 0.02044667 10 
192 61 976 0.02017458 10 
193 67 976 0.02069677 10 
194 209 976 0.02069620 10 
195 50 982 0.02038598 10 
196 61 982 0.02084800 10 
197 201 982 0.02089410 10 
198 203 982 0.02092203 10 
199 44 988 0.02059170 10 
200 50 988 0.02107048 10 
201 195 988 0.02107385 10 
202 201 988 0.01679895 8 
203 44 994 0.02070979 10 
204 189 994 0.02130537 10 
205 195 994 0.02130843 10 
206 32 1003 0.02103122 10 
207 178 1003 0.02154093 10 
208 183 1003 0.02155658 10 
209 25 1008 0.02126894 10 
210 32 1008 0.02170488 10 
211 178 1008 0.02172662 10 
212 183 1008 0.02180617 10 
213 25 1010 0.02134360 10 
214 32 1010 0.02175233 10 
215 172 1010 0.02189766 10 
216 178 1010 0.02187174 10 
217 19 1016 0.02142228 10 
218 166 1016 0.02182525 10 
219 172 1016 0.01953598 9 
220 151 1029 0.02189747 10 
221 157 1029 0.02208278 10 
222 163 1029 0.02214630 10 
223 166 1029 0.02210953 10 
224 132 1084 0.02304827 10 
225 101 1138 0.02393941 10 
226 107 1147 0.02414655 10 
227 114 1147 0.02470718 10 
228 107 1150 0.02417950 10 
229 114 1150 0.02477916 10 
230 114 1158 0.02439350 10 
231 121 1158 0.02521277 10 
232 121 1164 0.02455306 10 
233 126 1164 0.02518349 10 
234 114 1175 0.02486201 10 
235 121 1175 0.02541290 10 
236 923 1175 0.02543182 10 
237 929 1175 0.02542129 10 
238 1158 1175 0.01776074 7 
239 101 1188 0.02507742 10 
240 939 1188 0.02564956 10 
241 1138 1188 0.02571429 10 
242 1147 1188 0.02582409 10 
243 1150 1188 0.02588890 10 
244 1050 1210 0.02564694 10 
245 1061 1210 0.02629106 10 
246 1075 1210 0.02664276 10 
247 1084 1210 0.02628100 10 
248 1088 1210 0.02630922 10 
249 1093 1210 0.02629161 10 
250 1098 1210 0.02629590 10 
251 157 1217 0.02582719 10 
252 163 1217 0.02672376 10 
253 1029 1217 0.02669090 10 
254 1044 1217 0.02677688 10 
255 1050 1217 0.02675879 10 
256 1056 1217 0.02677357 10 
