1 50 102 0.00063448 4 
2 30 119 0.00099383 5 
3 10 127 0.00223301 10 
4 62 139 0.00260507 10 
5 19 166 0.00305489 10 
6 19 172 0.00315009 10 
7 25 172 0.00319297 10 
8 25 178 0.00329988 10 
9 32 178 0.00331984 10 
10 54 180 0.00336973 10 
11 32 183 0.00345140 10 
12 44 189 0.00356952 10 
13 175 189 0.00360463 10 
14 44 195 0.00371961 10 
15 50 195 0.00374418 10 
16 50 201 0.00385603 10 
17 50 203 0.00390789 10 
18 61 203 0.00392718 10 
19 41 208 0.00403634 10 
20 61 209 0.00407010 10 
21 67 209 0.00413105 10 
22 67 220 0.00434623 10 
23 81 220 0.00438386 10 
24 124 225 0.00452909 10 
25 81 226 0.00457862 10 
26 87 226 0.00457761 10 
27 87 231 0.00467889 10 
28 94 231 0.00469310 10 
29 226 231 0.00469783 10 
30 78 236 0.00484500 10 
31 154 240 0.00497519 10 
32 94 241 0.00503846 10 
33 101 241 0.00504267 10 
34 159 243 0.00512727 10 
35 101 247 0.00522339 10 
36 107 247 0.00524727 10 
37 5 251 0.00541359 10 
38 107 254 0.00550924 10 
39 114 254 0.00552499 10 
40 107 256 0.00555219 10 
41 114 256 0.00555522 10 
42 131 257 0.00560167 10 
43 107 258 0.00564801 10 
44 114 258 0.00565920 10 
45 85 260 0.00581436 10 
46 121 266 0.00596401 10 
47 126 266 0.00597648 10 
48 235 271 0.00621650 10 
49 126 272 0.00617851 10 
50 132 272 0.00638197 10 
51 132 278 0.00636097 10 
52 138 278 0.00643569 10 
53 138 284 0.00573058 9 
54 151 284 0.00658014 10 
55 151 291 0.00671285 10 
56 151 297 0.00680375 10 
57 157 297 0.00699344 10 
58 163 297 0.00701371 10 
59 166 297 0.00708382 10 
60 15 299 0.00718205 10 
61 19 305 0.00723726 10 
62 157 305 0.00733419 10 
63 163 305 0.00734479 10 
64 166 305 0.00737831 10 
65 172 305 0.00737626 10 
66 19 315 0.00756680 10 
67 25 315 0.00755433 10 
68 172 315 0.00759106 10 
69 255 320 0.00765259 10 
70 172 328 0.00782671 10 
71 19 337 0.00800408 10 
72 25 337 0.00816839 10 
73 172 337 0.00818460 10 
74 66 341 0.00838087 10 
75 19 342 0.00837908 10 
76 25 342 0.00837980 10 
77 172 342 0.00842004 10 
78 178 342 0.00849944 10 
79 99 350 0.00850882 10 
80 171 366 0.00890215 10 
81 25 367 0.00917658 10 
82 32 367 0.00924549 10 
83 178 367 0.00927176 10 
84 183 367 0.00937763 10 
85 267 368 0.00944699 10 
86 230 373 0.00966913 10 
87 25 374 0.00966104 10 
88 32 374 0.00981863 10 
89 178 374 0.00982106 10 
90 183 374 0.00988491 10 
91 32 382 0.00986207 10 
92 183 382 0.01004665 10 
93 32 387 0.00998212 10 
94 183 387 0.01017138 10 
95 108 390 0.00996946 10 
96 159 397 0.01041517 10 
97 189 400 0.01045219 10 
98 314 402 0.01065361 10 
99 28 405 0.01102536 10 
100 189 414 0.01097577 10 
101 21 418 0.01129004 10 
102 233 422 0.01157602 10 
103 94 429 0.01135638 10 
104 103 432 0.01170632 10 
105 407 432 0.01187752 10 
106 326 435 0.01200099 10 
107 44 437 0.01209772 10 
108 195 437 0.01211016 10 
109 44 454 0.01220751 10 
110 189 454 0.01243804 10 
111 349 454 0.01249394 10 
112 164 457 0.01278817 10 
113 375 458 0.01278327 10 
114 44 467 0.01272956 10 
115 50 467 0.01296282 10 
116 195 467 0.01325330 10 
117 224 467 0.01323224 10 
118 387 474 0.01313887 10 
119 94 481 0.01327412 10 
120 195 484 0.01334933 10 
121 20 485 0.01367540 10 
122 125 486 0.01407939 10 
123 169 488 0.01418812 10 
124 44 494 0.01447916 10 
125 50 494 0.01444087 10 
126 195 494 0.01446876 10 
127 201 494 0.01441389 10 
128 329 498 0.01463971 10 
129 50 500 0.01463775 10 
130 201 500 0.01470573 10 
131 203 500 0.01477642 10 
132 284 504 0.01500537 10 
133 61 508 0.01509143 10 
134 203 508 0.01533496 10 
135 209 508 0.01536964 10 
136 411 518 0.01531845 10 
137 269 521 0.01600238 10 
138 61 522 0.01645861 10 
139 203 522 0.01647368 10 
140 209 522 0.01631133 10 
141 414 526 0.01662142 10 
142 61 528 0.01650214 10 
143 67 528 0.01729764 10 
144 81 528 0.01721046 10 
145 209 528 0.01722569 10 
146 220 528 0.01913955 10 
147 67 532 0.01729388 10 
148 81 532 0.01729143 10 
149 220 532 0.01739568 10 
150 79 542 0.01690216 10 
151 12 546 0.01709345 10 
152 67 556 0.01728155 10 
153 483 557 0.01783361 10 
154 421 561 0.01801026 10 
155 67 564 0.01808529 10 
156 81 564 0.01821733 10 
157 220 564 0.01823132 10 
158 67 567 0.01828272 10 
159 81 567 0.01851747 10 
160 220 567 0.01830865 10 
161 339 567 0.01865864 10 
162 529 569 0.01897056 10 
163 67 570 0.01871480 10 
164 81 570 0.01902089 10 
165 220 570 0.01904087 10 
166 205 571 0.01914887 10 
167 81 575 0.01890716 10 
168 220 575 0.01923231 10 
169 421 576 0.01883008 10 
170 367 585 0.01907781 10 
171 81 588 0.01913484 10 
172 87 588 0.01978569 10 
173 226 588 0.01991869 10 
174 216 595 0.02009312 10 
175 87 597 0.02014603 10 
176 94 597 0.02017272 10 
177 226 597 0.02017903 10 
178 87 604 0.02030918 10 
179 94 604 0.02033529 10 
180 585 607 0.02046174 10 
181 213 615 0.02060998 10 
182 94 616 0.02064703 10 
183 163 630 0.02088933 10 
184 94 632 0.02123304 10 
185 94 637 0.02099417 10 
186 101 637 0.02152481 10 
187 176 638 0.02186239 10 
188 111 640 0.02211434 10 
189 101 642 0.02257730 10 
190 107 642 0.02215755 10 
191 101 645 0.02221657 10 
192 107 645 0.02227034 10 
193 244 654 0.02214437 10 
194 101 657 0.02254950 10 
195 580 658 0.02342118 10 
196 137 660 0.02342259 10 
197 101 663 0.02380463 10 
198 107 663 0.02380338 10 
199 114 663 0.02382586 10 
200 18 664 0.02398767 10 
201 101 665 0.02407983 10 
202 107 665 0.02409721 10 
203 114 665 0.02407499 10 
204 561 666 0.02421187 10 
205 6 672 0.02414194 10 
206 367 679 0.02482488 10 
207 164 679 0.02493702 10 
208 107 680 0.02497081 10 
209 107 683 0.02502821 10 
210 114 683 0.02505470 10 
211 607 686 0.02479741 10 
212 406 687 0.02510954 10 
213 662 692 0.02573343 10 
214 684 695 0.01006855 4 
215 73 695 0.02559718 10 
216 23 701 0.02660965 10 
217 165 701 0.02682072 10 
218 107 704 0.02683804 10 
219 114 704 0.02683834 10 
220 118 706 0.02712014 10 
221 107 714 0.02724042 10 
222 114 714 0.02733004 10 
223 12 716 0.02746376 10 
224 464 720 0.02778840 10 
225 107 730 0.02761482 10 
226 114 730 0.02799801 10 
227 606 738 0.02791722 10 
228 725 742 0.02809911 10 
229 561 743 0.02813388 10 
230 121 754 0.02794545 10 
231 126 754 0.02815539 10 
232 121 759 0.02821561 10 
233 126 759 0.02815228 10 
234 500 759 0.02834152 10 
235 540 759 0.02894534 10 
236 126 762 0.02897721 10 
237 132 762 0.02886646 10 
238 385 762 0.02908501 10 
239 42 764 0.02930360 10 
240 153 771 0.02953955 10 
241 132 778 0.02916662 10 
242 264 789 0.02960576 10 
243 132 792 0.02965198 10 
244 132 800 0.02977770 10 
245 138 800 0.02997251 10 
246 256 801 0.03045994 10 
247 222 803 0.03091536 10 
248 138 806 0.03097071 10 
249 206 810 0.03119274 10 
250 631 812 0.03130589 10 
251 667 814 0.03154685 10 
252 284 819 0.03263974 10 
253 138 821 0.03138083 10 
254 403 821 0.03143101 10 
255 138 823 0.03147019 10 
256 334 827 0.03152041 10 
257 151 828 0.03252399 10 
258 78 837 0.03263347 10 
259 151 847 0.03232805 10 
260 8 848 0.03300828 10 
261 625 849 0.03310684 10 
262 757 852 0.03332629 10 
263 151 855 0.03337729 10 
264 359 864 0.03385370 10 
265 735 869 0.03383575 10 
266 365 878 0.03441483 10 
267 711 879 0.03419477 10 
268 328 883 0.03547468 10 
269 445 888 0.03483207 10 
270 539 889 0.03495448 10 
271 205 890 0.03565471 10 
272 151 895 0.03569003 10 
273 151 897 0.03569052 10 
274 265 899 0.03578370 10 
275 182 900 0.03631042 10 
276 138 903 0.03568352 10 
277 138 904 0.03566758 10 
278 132 907 0.03630463 10 
279 138 907 0.03627937 10 
280 132 911 0.03637442 10 
281 38 913 0.03612198 10 
282 321 915 0.03525585 10 
283 760 921 0.03530006 10 
284 412 922 0.03688029 10 
285 121 923 0.03634305 10 
286 126 923 0.03702527 10 
287 107 929 0.03714036 10 
288 114 929 0.03726855 10 
289 107 935 0.03738813 10 
290 114 935 0.03739248 10 
291 101 939 0.03744246 10 
292 107 939 0.03744596 10 
293 482 940 0.03688114 10 
294 499 940 0.03747489 10 
295 101 944 0.03793454 10 
296 93 946 0.03790958 10 
297 876 946 0.03814009 10 
298 94 947 0.03813537 10 
299 101 947 0.03816193 10 
300 916 947 0.03815694 10 
301 847 947 0.03865439 10 
302 707 949 0.03847974 10 
303 87 953 0.03834862 10 
304 94 953 0.03836235 10 
305 226 953 0.03839832 10 
306 81 959 0.03852686 10 
307 87 959 0.03853150 10 
308 220 959 0.03859116 10 
309 226 959 0.03859711 10 
310 67 965 0.03873322 10 
311 81 965 0.03869483 10 
312 220 965 0.03870895 10 
313 678 974 0.03940990 10 
314 952 974 0.03946526 10 
315 61 976 0.03955451 10 
316 67 976 0.03963582 10 
317 209 976 0.03957083 10 
318 50 982 0.03989207 10 
319 61 982 0.04083422 10 
320 201 982 0.03964192 10 
321 203 982 0.03979401 10 
322 548 983 0.04065745 10 
323 44 988 0.04063835 10 
324 50 988 0.04063037 10 
325 195 988 0.04069242 10 
326 201 988 0.04071845 10 
327 794 989 0.04133711 10 
328 169 993 0.04122909 10 
329 44 994 0.04130024 10 
330 189 994 0.04063686 10 
331 195 994 0.04065000 10 
332 886 994 0.04209380 10 
333 372 998 0.04165960 10 
334 766 1001 0.04219356 10 
335 32 1003 0.04220128 10 
336 178 1003 0.04205574 10 
337 183 1003 0.04212807 10 
338 177 1003 0.04191491 10 
339 25 1008 0.04253483 10 
340 32 1008 0.04255307 10 
341 178 1008 0.04255161 10 
342 183 1008 0.04256544 10 
343 25 1010 0.04261583 10 
344 32 1010 0.04262414 10 
345 172 1010 0.04271256 10 
346 178 1010 0.04269783 10 
347 771 1013 0.04274012 10 
348 243 1013 0.04317727 10 
349 185 1013 0.04326999 10 
350 725 1014 0.04335063 10 
351 476 1014 0.04294403 10 
352 19 1016 0.04308810 10 
353 166 1016 0.04395952 10 
354 172 1016 0.04371715 10 
355 547 1018 0.04389372 10 
356 129 1020 0.04440978 10 
357 919 1026 0.04498446 10 
358 151 1029 0.04511735 10 
359 157 1029 0.04543307 10 
360 163 1029 0.04545696 10 
361 166 1029 0.04545173 10 
362 929 1032 0.04502449 10 
363 15 1034 0.04524302 10 
364 196 1039 0.04623368 10 
365 44 1040 0.04717580 10 
366 539 1041 0.04635406 10 
367 836 1044 0.04100400 9 
368 332 1047 0.04554131 10 
369 550 1048 0.04694247 10 
370 267 1050 0.04759748 10 
371 1048 1054 0.01873488 4 
372 502 1054 0.04719972 10 
373 385 1055 0.04918575 10 
374 207 1056 0.04769035 10 
375 595 1066 0.04807410 10 
376 597 1067 0.04802477 10 
377 855 1070 0.04340029 9 
378 781 1071 0.04898438 10 
379 542 1078 0.05030474 10 
380 132 1084 0.05033129 10 
381 691 1088 0.04967828 10 
382 197 1089 0.05094016 10 
383 642 1090 0.05084022 10 
384 350 1092 0.05179399 10 
385 247 1093 0.05218614 10 
386 607 1095 0.05139736 10 
387 340 1096 0.05265451 10 
388 414 1097 0.05275155 10 
389 169 1097 0.05306430 10 
390 963 1103 0.05245297 10 
391 879 1110 0.05175974 10 
392 983 1114 0.05214794 10 
393 186 1121 0.05269043 10 
394 1010 1124 0.05415989 10 
395 1121 1131 0.03228372 6 
396 149 1131 0.05367641 10 
397 377 1132 0.05456009 10 
398 185 1133 0.05349660 10 
399 1126 1135 0.02613840 5 
400 101 1138 0.05298297 10 
401 429 1143 0.05570340 10 
402 242 1144 0.05477510 10 
403 371 1145 0.05545628 10 
404 1097 1145 0.05547699 10 
405 107 1147 0.05570376 10 
406 114 1147 0.05839033 10 
407 120 1147 0.05581118 10 
408 107 1150 0.22560060 10 
409 114 1150 0.21891349 10 
410 114 1158 0.05585813 10 
411 121 1158 0.05726316 10 
412 121 1164 0.05745116 10 
413 126 1164 0.05696288 10 
414 200 1166 0.05688529 10 
415 65 1174 0.05817890 10 
416 114 1175 0.05786166 10 
417 121 1175 0.05794239 10 
418 923 1175 0.06027048 10 
419 929 1175 0.05892413 10 
420 1158 1175 0.05889406 10 
421 1081 1177 0.05887741 10 
422 196 1178 0.05871660 10 
423 122 1179 0.05959486 10 
424 269 1182 0.06017085 10 
425 1146 1186 0.06061082 10 
426 101 1188 0.06062729 10 
427 939 1188 0.06076688 10 
428 1138 1188 0.06121567 10 
429 1147 1188 0.06119509 10 
430 1150 1188 0.06142136 10 
431 322 1191 0.06143284 10 
432 637 1192 0.06196373 10 
433 146 1193 0.06251703 10 
434 279 1199 0.06371906 10 
435 458 1200 0.06373121 10 
436 340 1203 0.06442228 10 
437 55 1203 0.06380464 10 
438 357 1206 0.06470081 10 
439 1050 1210 0.06362380 10 
440 1061 1210 0.06374708 10 
441 1075 1210 0.06520989 10 
442 1084 1210 0.06458338 10 
443 1088 1210 0.06525092 10 
444 1093 1210 0.06469128 10 
445 1098 1210 0.06370134 10 
446 784 1211 0.06514005 10 
447 334 1213 0.06560331 10 
448 157 1217 0.06478407 10 
449 163 1217 0.06405367 10 
450 1029 1217 0.06498513 10 
451 1044 1217 0.06517658 10 
452 1050 1217 0.06579524 10 
453 1056 1217 0.06692156 10 
454 353 1217 0.06697491 10 
455 987 1221 0.06700528 10 
456 171 1226 0.06727468 10 
