1 147 165 0.00224180 10 
2 19 166 0.00290659 10 
3 19 172 0.00309940 10 
4 25 172 0.00312781 10 
5 25 178 0.00324433 10 
6 32 178 0.00324378 10 
7 32 183 0.00333761 10 
8 44 189 0.00344384 10 
9 44 195 0.00355718 10 
10 50 195 0.00355284 10 
11 50 201 0.00369403 10 
12 50 203 0.00381198 10 
13 61 203 0.00370792 10 
14 61 209 0.00381496 10 
15 67 209 0.00382524 10 
16 67 220 0.00411263 10 
17 81 220 0.00410120 10 
18 81 226 0.00413949 10 
19 87 226 0.00413575 10 
20 87 231 0.00424271 10 
21 94 231 0.00424654 10 
22 226 231 0.00424574 10 
23 167 236 0.00444172 10 
24 94 241 0.00454001 10 
25 101 241 0.00455488 10 
26 101 247 0.00468462 10 
27 107 247 0.00469455 10 
28 107 254 0.00480754 10 
29 114 254 0.00482061 10 
30 107 256 0.00488009 10 
31 114 256 0.00489122 10 
32 107 258 0.00496976 10 
33 114 258 0.00502107 10 
34 121 266 0.00511057 10 
35 126 266 0.00512328 10 
36 126 272 0.00524460 10 
37 132 272 0.00524862 10 
38 132 278 0.00536786 10 
39 138 278 0.00537683 10 
40 138 284 0.00548610 10 
41 151 284 0.00550343 10 
42 151 291 0.00605906 10 
43 151 297 0.00576171 10 
44 157 297 0.00583911 10 
45 163 297 0.00576319 10 
46 166 297 0.00579969 10 
47 19 305 0.00606146 10 
48 157 305 0.00606856 10 
49 163 305 0.00608506 10 
50 166 305 0.00607629 10 
51 172 305 0.00614193 10 
52 19 315 0.00632897 10 
53 25 315 0.00634203 10 
54 172 315 0.00635315 10 
55 309 322 0.00650061 10 
56 172 328 0.00663568 10 
57 315 333 0.00672400 10 
58 19 337 0.00682823 10 
59 25 337 0.00684858 10 
60 172 337 0.00684887 10 
61 19 342 0.00695792 10 
62 25 342 0.00696361 10 
63 172 342 0.00696188 10 
64 178 342 0.00699108 10 
65 25 367 0.00747315 10 
66 32 367 0.00751881 10 
67 178 367 0.00762115 10 
68 183 367 0.00765541 10 
69 357 367 0.00766250 10 
70 25 374 0.00764955 10 
71 32 374 0.00766751 10 
72 178 374 0.00768791 10 
73 183 374 0.00769014 10 
74 32 382 0.00783574 10 
75 183 382 0.00784025 10 
76 32 387 0.00795448 10 
77 183 387 0.00797902 10 
78 189 400 0.00823699 10 
79 189 414 0.00851005 10 
80 44 437 0.00899601 10 
81 195 437 0.00900708 10 
82 173 437 0.00902103 10 
83 415 439 0.00908979 10 
84 44 454 0.00940818 10 
85 189 454 0.00940237 10 
86 44 467 0.00964804 10 
87 50 467 0.00969198 10 
88 195 467 0.00971957 10 
89 195 484 0.01003447 10 
90 54 487 0.01014754 10 
91 129 487 0.01022127 10 
92 273 489 0.01028044 10 
93 44 494 0.01040054 10 
94 50 494 0.01041834 10 
95 195 494 0.01044344 10 
96 201 494 0.01044515 10 
97 50 500 0.01057776 10 
98 201 500 0.01057325 10 
99 203 500 0.01059556 10 
100 61 508 0.01078987 10 
101 203 508 0.01079199 10 
102 209 508 0.01082110 10 
103 61 522 0.01105754 10 
104 203 522 0.01106282 10 
105 209 522 0.01104789 10 
106 61 528 0.01118581 10 
107 67 528 0.01123693 10 
108 81 528 0.01127330 10 
109 209 528 0.01124489 10 
110 220 528 0.01124743 10 
111 67 532 0.01133452 10 
112 81 532 0.01136506 10 
113 220 532 0.01139217 10 
114 202 550 0.01180421 10 
115 67 556 0.01193346 10 
116 67 564 0.01209131 10 
117 81 564 0.01211190 10 
118 220 564 0.01211633 10 
119 67 567 0.01217293 10 
120 81 567 0.01219208 10 
121 220 567 0.01222252 10 
122 67 570 0.01227235 10 
123 81 570 0.01230566 10 
124 220 570 0.01229645 10 
125 81 575 0.01245755 10 
126 220 575 0.01248752 10 
127 81 588 0.01268773 10 
128 87 588 0.01280682 10 
129 226 588 0.01279210 10 
130 95 588 0.01285844 10 
131 87 597 0.01300539 10 
132 94 597 0.01301316 10 
133 226 597 0.01304253 10 
134 87 604 0.01319630 10 
135 94 604 0.01320709 10 
136 11 606 0.01330730 10 
137 53 607 0.01340129 10 
138 94 616 0.01400190 10 
139 94 632 0.01385877 10 
140 500 635 0.01398037 10 
141 94 637 0.01400472 10 
142 101 637 0.01404552 10 
143 101 642 0.01418225 10 
144 107 642 0.01425803 10 
145 101 645 0.01430201 10 
146 107 645 0.01435875 10 
147 101 657 0.01460651 10 
148 101 663 0.01464055 10 
149 107 663 0.01466115 10 
150 114 663 0.01469207 10 
151 101 665 0.01474648 10 
152 107 665 0.01476655 10 
153 114 665 0.01474242 10 
154 634 667 0.01485649 10 
155 107 680 0.01517224 10 
156 107 683 0.01518512 10 
157 114 683 0.01521642 10 
158 107 704 0.01561686 10 
159 114 704 0.01560812 10 
160 107 714 0.01579282 10 
161 114 714 0.01576455 10 
162 637 728 0.01606152 10 
163 107 730 0.01610092 10 
164 114 730 0.01610054 10 
165 581 734 0.01823431 10 
166 121 754 0.01686043 10 
167 126 754 0.01680567 10 
168 121 759 0.01684956 10 
169 126 759 0.01685565 10 
170 126 762 0.01694495 10 
171 132 762 0.01699457 10 
172 196 770 0.01731495 10 
173 737 772 0.01729212 10 
174 6 776 0.01753792 10 
175 132 778 0.01760609 10 
176 132 792 0.01791253 10 
177 132 800 0.01806591 10 
178 138 800 0.01811901 10 
179 138 806 0.01821041 10 
180 138 821 0.01850688 10 
181 138 823 0.01899735 10 
182 151 828 0.01869037 10 
183 151 847 0.01905181 10 
184 151 855 0.01923632 10 
185 151 895 0.02006609 10 
186 151 897 0.02014404 10 
187 138 903 0.02020763 10 
188 138 904 0.02023140 10 
189 857 904 0.02026171 10 
190 132 907 0.02036621 10 
191 138 907 0.02036471 10 
192 698 908 0.02057606 10 
193 575 910 0.02069529 10 
194 132 911 0.02094905 10 
195 459 912 0.02088559 10 
196 704 913 0.02108856 10 
197 775 914 0.02124806 10 
198 121 923 0.02133859 10 
199 126 923 0.02134383 10 
200 107 929 0.02156076 10 
201 114 929 0.02165188 10 
202 107 935 0.02180068 10 
203 114 935 0.02178618 10 
204 101 939 0.02192722 10 
205 107 939 0.02187286 10 
206 101 944 0.02195384 10 
207 94 947 0.02201962 10 
208 101 947 0.02204646 10 
209 87 953 0.02226158 10 
210 94 953 0.02229206 10 
211 226 953 0.02228744 10 
212 91 958 0.02236773 10 
213 81 959 0.02193115 10 
214 87 959 0.02242510 10 
215 220 959 0.02253913 10 
216 226 959 0.02256132 10 
217 758 960 0.02290013 10 
218 67 965 0.02249956 10 
219 81 965 0.02297975 10 
220 220 965 0.02301887 10 
221 484 970 0.02274431 10 
222 61 976 0.02305522 10 
223 67 976 0.02370489 10 
224 209 976 0.02369691 10 
225 50 982 0.02330783 10 
226 61 982 0.02368727 10 
227 201 982 0.02333560 10 
228 203 982 0.02137602 9 
229 44 988 0.02398575 10 
230 50 988 0.01210464 5 
231 195 988 0.01876496 8 
232 201 988 0.01163617 5 
233 44 994 0.02383633 10 
234 189 994 0.02438412 10 
235 195 994 0.02438925 10 
236 32 1003 0.02412466 10 
237 178 1003 0.02464698 10 
238 183 1003 0.01728639 7 
239 25 1008 0.02434186 10 
240 32 1008 0.02487841 10 
241 178 1008 0.02489875 10 
242 183 1008 0.02485811 10 
243 25 1010 0.02438425 10 
244 32 1010 0.02495324 10 
245 172 1010 0.02496423 10 
246 178 1010 0.02497452 10 
247 19 1016 0.02472118 10 
248 166 1016 0.02558411 10 
249 172 1016 0.02041832 8 
250 546 1028 0.02538343 10 
251 151 1029 0.02544377 10 
252 157 1029 0.02633769 10 
253 163 1029 0.02601477 10 
254 166 1029 0.01820764 7 
255 288 1044 0.01788072 7 
256 1 1051 0.02628381 10 
257 950 1057 0.02636819 10 
258 938 1058 0.02692960 10 
259 767 1078 0.17206143 10 
260 132 1084 0.17697438 10 
261 163 1108 0.02788767 10 
262 770 1108 0.02839663 10 
263 1019 1111 0.02841912 10 
264 874 1115 0.02930517 10 
265 173 1121 0.02891533 10 
266 101 1138 0.02904321 10 
267 107 1147 0.02933076 10 
268 114 1147 0.02983285 10 
269 107 1150 0.02944854 10 
270 114 1150 0.02989569 10 
271 114 1158 0.02956857 10 
272 121 1158 0.03027367 10 
273 121 1164 0.02994487 10 
274 126 1164 0.03055518 10 
275 237 1166 0.02999107 10 
276 746 1167 0.03024523 10 
277 995 1169 0.03002193 10 
278 114 1175 0.03030767 10 
279 121 1175 0.03085406 10 
280 923 1175 0.03116816 10 
281 929 1175 0.03107807 10 
282 1158 1175 0.02164848 7 
283 915 1184 0.03020460 10 
284 101 1188 0.03035826 10 
285 939 1188 0.03097995 10 
286 1138 1188 0.03116573 10 
287 1147 1188 0.03117068 10 
288 1150 1188 0.03116746 10 
289 736 1189 0.02760392 9 
290 760 1194 0.03130327 10 
291 647 1199 0.02160387 7 
292 402 1208 0.03160298 10 
293 1050 1210 0.03169494 10 
294 1061 1210 0.03241774 10 
295 1075 1210 0.03241129 10 
296 1084 1210 0.03248025 10 
297 1088 1210 0.03247897 10 
298 1093 1210 0.03251380 10 
299 1098 1210 0.03251303 10 
300 157 1217 0.03197786 10 
301 163 1217 0.03261230 10 
302 1029 1217 0.02921131 9 
303 1044 1217 0.03203264 10 
304 1050 1217 0.03266811 10 
305 1056 1217 0.03270676 10 
306 51 1225 0.03231730 10 
