1 19 166 0 0.41485034 0.00210738 5 
2 19 172 0 0.02820697 0.00187102 4 
3 25 172 0 0.50366199 0.00188672 4 
4 25 178 0 0.30831851 0.00198095 4 
5 32 178 0 0.01493521 0.00199488 4 
6 32 183 0 0.07055611 0.00201171 4 
7 44 189 0 0.52863102 0.00208301 4 
8 44 195 0 0.35755137 0.00217464 4 
9 50 195 0 0.00572854 0.00220042 4 
10 50 201 0 0.04110605 0.00191526 3 
11 50 203 0 0.06975183 0.00188209 3 
12 61 203 0 0.00745912 0.00190246 3 
13 61 209 0 0.37222863 0.00232009 4 
14 67 209 0 0.41032090 0.00233302 4 
15 67 220 0 0.66144083 0.00250486 4 
16 81 220 0 0.48035877 0.00285897 5 
17 81 226 0 0.05402805 0.00256879 4 
18 87 226 0 1.82553139 0.00294789 5 
19 87 231 0 0.34656585 0.00263004 4 
20 94 231 0 0.55778528 0.00256890 4 
21 226 231 0 1.44127402 0.00299205 5 
22 94 241 0 1.33132047 0.00269079 4 
23 101 241 0 0.50961029 0.00272186 4 
24 101 247 0 1.66454674 0.00276499 4 
25 107 247 0 1.80094617 0.00278707 4 
26 107 254 0 1.18346605 0.00284822 4 
27 114 254 0 0.12939160 0.00286801 4 
28 107 256 0 0.93085039 0.00285593 4 
29 114 256 0 0.24629796 0.00286312 4 
30 107 258 0 1.37911724 0.00290456 4 
31 114 258 0 1.15747212 0.00293120 4 
32 121 266 0 0.00938596 0.00299141 4 
33 126 266 0 0.44864328 0.00365742 5 
34 126 272 0 1.03992836 0.00310068 4 
35 132 272 0 0.39070916 0.00364515 5 
36 132 278 0 0.58358145 0.00318049 4 
37 138 278 0 1.06458780 0.00373372 5 
38 138 284 0 0.02201259 0.00271484 3 
39 151 284 0 0.12777228 0.00328669 4 
40 151 291 0 0.60037557 0.00332258 4 
41 151 297 0 0.07972289 0.00285388 3 
42 157 297 0 1.04991834 0.00345104 4 
43 166 297 0 1.30507781 0.00338699 4 
44 19 305 0 0.16044642 0.00357746 4 
45 157 305 0 0.58687353 0.00361258 4 
46 163 305 0 7.56485476 0.00484726 6 
47 166 305 0 0.37495035 0.00360916 4 
48 172 305 0 0.01886255 0.00361206 4 
49 19 315 0 0.48455906 0.00310678 3 
50 25 315 0 0.02281386 0.00311338 3 
51 172 315 0 0.05679715 0.00373441 4 
52 172 328 0 0.12482725 0.00326034 3 
53 19 337 0 6.63404991 0.00466047 5 
54 25 337 0 0.96522419 0.00402684 4 
55 172 337 0 0.57611560 0.00445952 3 
56 19 342 0 0.00494520 0.00340474 3 
57 25 342 0 0.12855172 0.00407337 4 
58 172 342 0 0.01223902 0.00413571 4 
59 178 342 0 0.12442988 0.00418103 4 
60 322 346 2 1590.50550058 0.00000330 1 
61 25 367 0 0.11414782 0.00379662 3 
62 32 367 0 0.01267433 0.00597137 6 
63 178 367 0 0.00286807 0.00376737 3 
64 183 367 0 0.06698524 0.00378557 3 
65 25 374 0 0.56424690 0.00459788 4 
66 32 374 0 0.09892849 0.00533107 5 
67 178 374 0 0.03055075 0.00458195 4 
68 183 374 0 0.05309447 0.00457397 4 
69 32 382 0 4.14688582 0.00393403 3 
70 183 382 0 1.28811506 0.00470141 4 
71 32 387 0 2.72468715 0.00475439 4 
72 183 387 0 0.18197642 0.00475055 4 
73 189 414 0 7.69047346 0.00586079 5 
74 44 437 0 0.00915802 0.00440832 3 
75 195 437 0 0.01161094 0.00436472 3 
76 44 454 0 0.65644164 0.00452005 3 
77 189 454 0 0.03962740 0.00543709 4 
78 44 467 0 0.12345281 0.00642844 5 
79 50 467 0 0.00895575 0.01023233 9 
80 195 467 0 0.00230988 0.00464366 3 
81 195 484 0 0.09447226 0.00574626 4 
82 44 494 0 0.02880924 0.00576979 4 
83 50 494 0 0.00628832 0.00483070 3 
84 195 494 0 0.00818961 0.00683176 5 
85 201 494 0 0.00469852 0.00684166 5 
86 50 500 0 0.14406209 0.00695123 5 
87 201 500 0 0.05353930 0.00491132 3 
88 203 500 0 0.03252445 0.00488521 3 
89 61 508 0 0.99413579 0.00711933 5 
90 203 508 0 0.26947301 0.01225325 10 
91 209 508 0 0.03711473 0.00603588 4 
92 61 522 0 1.37942234 0.00614394 4 
93 203 522 0 0.12859200 0.00515546 3 
94 209 522 0 0.00542469 0.00510300 3 
95 61 528 0 0.47936102 0.00512919 3 
96 67 528 0 0.22419307 0.00627231 4 
97 81 528 0 0.23233822 0.00840097 6 
98 209 528 0 0.09444678 0.01063667 8 
99 220 528 0 0.13668760 0.00623321 4 
100 67 532 0 0.05459173 0.01181980 9 
101 81 532 0 0.11826401 0.00847685 6 
102 220 532 0 0.05648169 0.00635198 4 
103 73 551 2 76.08213410 0.00000328 1 
104 67 556 0 0.98233216 0.00651204 4 
105 67 564 0 0.40168838 0.01232987 9 
106 81 564 0 0.02280941 0.00663211 4 
107 220 564 0 0.02684857 0.00666566 4 
108 67 567 0 2.67253169 0.00781711 5 
109 81 567 0 0.48923871 0.00902283 6 
110 220 567 0 0.21723258 0.00665386 4 
111 67 570 0 2.40706627 0.00909206 6 
112 81 570 0 0.15671702 0.00904291 6 
113 220 570 0 0.13379867 0.00674858 4 
114 81 575 0 2.76594993 0.00792551 5 
115 220 575 0 1.08612706 0.01035139 7 
116 81 588 0 0.01497138 0.00569896 3 
117 87 588 0 0.47937722 0.00817679 5 
118 226 588 0 0.43156268 0.00690978 4 
119 87 597 0 2.27648751 0.00955652 6 
120 94 597 0 0.38888315 0.00699913 4 
121 226 597 0 0.55079633 0.00831577 5 
122 87 604 0 0.47149562 0.00710870 4 
123 94 604 0 0.01542269 0.00841041 5 
124 94 616 0 0.01350372 0.01233366 8 
125 94 632 0 2.16969694 0.00879204 5 
126 94 637 0 4.44236402 0.01006334 6 
127 101 637 0 0.19098383 0.00751207 4 
128 101 642 0 0.11555601 0.00889348 5 
129 107 642 0 0.04025021 0.01408271 9 
130 101 645 0 6.69527511 0.00762485 4 
131 107 645 0 1.54205090 0.00752219 4 
132 398 653 2 806.99035515 0.00000372 1 
133 101 657 0 0.73548669 0.01667414 10 
134 101 663 0 0.04971914 0.01672318 10 
135 107 663 0 0.01781179 0.00914708 5 
136 114 663 0 0.00275957 0.00915143 5 
137 101 665 0 1.55112265 0.01346315 8 
138 107 665 0 0.47667103 0.00779333 4 
139 114 665 0 0.13329170 0.00666949 3 
140 107 680 0 1.48615866 0.00937715 5 
141 107 683 0 0.94462224 0.00801954 4 
142 114 683 0 0.32178225 0.00952037 5 
143 107 704 0 0.34268109 0.01261393 7 
144 114 704 0 0.07528002 0.01557332 9 
145 107 714 0 1.79639085 0.01133893 6 
146 114 714 0 0.02860377 0.01438489 8 
147 107 730 0 0.19656714 0.01014177 5 
148 114 730 0 0.03540690 0.00854216 4 
149 121 754 0 0.33113739 0.00876500 4 
150 126 754 0 0.07673382 0.01512378 8 
151 121 759 0 2.33625684 0.01195095 6 
152 126 759 0 0.22329988 0.01201209 6 
153 126 762 0 7.08482229 0.01037257 5 
154 132 762 0 2.00372045 0.01530722 8 
155 132 778 0 0.06999780 0.00902403 4 
156 132 792 0 1.26802734 0.00938980 4 
157 132 800 0 3.35686460 0.00918012 4 
158 138 800 0 0.14494330 0.01256903 6 
159 138 806 0 0.25140739 0.00751213 3 
160 138 821 0 0.40674396 0.01104720 5 
161 138 823 0 6.54725682 0.00934233 4 
162 418 823 2 917.35897571 0.00000380 4 
163 151 828 0 3.12108818 0.00946560 4 
164 151 847 0 0.08724621 0.01144535 5 
165 151 855 0 0.11494457 0.01507173 7 
166 151 895 0 2.80701437 0.01757545 8 
167 151 897 0 0.06118057 0.02136087 10 
168 138 903 0 0.08157811 0.01019730 4 
169 138 904 0 7.06392298 0.01398186 6 
170 132 907 0 0.71874717 0.01027146 4 
171 138 907 0 0.22077132 0.01216611 5 
172 132 911 0 0.23128175 0.01221662 5 
173 121 923 0 0.62636126 0.01433250 6 
174 126 923 0 0.07130653 0.01045682 4 
175 107 929 0 0.07225325 0.01250410 5 
176 114 929 0 0.00477553 0.01058616 4 
177 107 935 0 4.91438615 0.01647957 7 
178 114 935 0 1.40337639 0.01649538 7 
179 101 939 0 0.48567419 0.01067233 4 
180 107 939 0 0.21174614 0.01068843 4 
181 101 944 0 0.15377935 0.01269481 5 
182 94 947 0 0.23772432 0.01670550 7 
183 101 947 0 0.16826262 0.01476868 6 
184 87 953 0 0.13504795 0.01088032 4 
185 94 953 0 0.06505521 0.01488630 6 
186 226 953 0 0.08268323 0.02290122 10 
187 81 959 0 1.83528326 0.02432830 10 
188 87 959 0 1.29172246 0.01706479 7 
189 220 959 0 0.04883629 0.01101115 4 
190 226 959 0 0.12130941 0.01302823 5 
191 67 965 0 1.01368609 0.01311633 5 
192 81 965 0 0.31066014 0.01517278 6 
193 220 965 0 0.16483276 0.01925964 8 
194 61 976 0 0.16803746 0.01736689 7 
195 67 976 0 0.05676300 0.00914068 3 
196 209 976 0 0.00780965 0.01121149 4 
197 50 982 0 0.38354811 0.01131241 4 
198 61 982 0 0.27147698 0.01131847 4 
199 201 982 0 0.22200943 0.01134866 4 
200 203 982 0 0.10573284 0.02183498 9 
201 44 988 0 0.09550719 0.01140931 4 
202 50 988 0 0.05924873 0.01145826 4 
203 195 988 0 0.04319526 0.01565718 6 
204 201 988 0 0.02685916 0.01353857 5 
205 44 994 0 0.51683435 0.01783524 7 
206 189 994 0 0.29989154 0.02572640 10 
207 195 994 0 0.21957432 0.01366898 5 
208 32 1003 0 0.23901034 0.01379322 5 
209 178 1003 0 0.03356851 0.02594654 10 
210 183 1003 0 0.01433170 0.01599251 6 
211 25 1008 0 1.23858172 0.01828424 7 
212 32 1008 0 0.53803958 0.01175558 4 
213 178 1008 0 0.34459610 0.01176739 4 
214 183 1008 0 0.22233868 0.01180030 4 
215 25 1010 0 0.60236133 0.01176816 4 
216 32 1010 0 0.30591807 0.01397159 5 
217 172 1010 0 0.10368354 0.01632290 6 
218 178 1010 0 0.19279072 0.02648534 10 
219 19 1016 0 0.44047719 0.02058387 8 
220 166 1016 0 0.20189646 0.01192134 4 
221 172 1016 0 0.07393216 0.01412084 5 
222 151 1029 0 0.03533130 0.01428460 5 
223 157 1029 0 0.02672450 0.01197900 4 
224 163 1029 0 3.39703566 0.01198959 4 
225 166 1029 0 0.49353449 0.01198682 4 
226 132 1084 0 4.21993706 0.01504244 5 
227 78 1131 2 355.66734073 0.00000640 1 
228 101 1138 0 0.63021658 0.01576029 5 
229 107 1147 0 0.73708347 0.01328050 4 
230 114 1147 0 0.03971358 0.01083640 3 
231 107 1150 0 7.45683387 0.01333508 4 
232 114 1150 0 1.00561260 0.01088857 3 
233 114 1158 0 0.16899687 0.01096670 3 
234 121 1158 0 0.69099743 0.01346710 4 
235 121 1164 0 0.45182924 0.01603206 5 
236 126 1164 0 0.04418665 0.01354919 4 
237 114 1175 0 0.14266969 0.01365868 4 
238 121 1175 0 0.27324351 0.01373713 4 
239 923 1175 0 0.18719011 0.01372998 4 
240 929 1175 0 0.16073549 0.01367533 4 
241 1158 1175 0 0.00134797 0.01114659 3 
242 101 1188 0 0.32950319 0.01384093 4 
243 939 1188 0 0.55418798 0.01384797 4 
244 1138 1188 0 0.03006025 0.01137037 3 
245 1147 1188 0 0.04063922 0.01129916 3 
246 1150 1188 0 1.83245351 0.01385603 4 
247 1050 1210 0 0.00345523 0.01408490 4 
248 1061 1210 0 0.57363906 0.01670886 5 
249 1075 1210 0 0.23107861 0.01674783 5 
250 1084 1210 0 3.13555510 0.01673641 5 
251 1088 1210 0 0.59156319 0.01411992 4 
252 1093 1210 0 0.13111230 0.01942084 6 
253 1098 1210 0 0.04730346 0.01413556 4 
254 157 1217 0 0.32750279 0.01423255 4 
255 163 1217 0 0.19904338 0.01437434 4 
256 1029 1217 0 0.01250493 0.01166397 3 
257 1044 1217 0 3.98258990 0.01437943 4 
258 1050 1217 0 4.97161000 0.01706384 5 
259 163 297 0 0.27920255 0.01523532 4 
260 189 400 0 2.09679271 0.01455720 4 
261 1056 1217 0 9.66143264 0.01724303 5 
