1 19 166 0.00295062 10 
2 19 172 0.00312271 10 
3 25 172 0.00318169 10 
4 25 178 0.00329188 10 
5 32 178 0.00330287 10 
6 32 183 0.00339571 10 
7 44 189 0.00351279 10 
8 44 195 0.00361855 10 
9 50 195 0.00361272 10 
10 50 201 0.00372200 10 
11 50 203 0.00377774 10 
12 61 203 0.00376627 10 
13 61 209 0.00387653 10 
14 67 209 0.00387976 10 
15 67 220 0.00408379 10 
16 81 220 0.00407678 10 
17 81 226 0.00418653 10 
18 87 226 0.00417920 10 
19 87 231 0.00428318 10 
20 94 231 0.00427888 10 
21 226 231 0.00427093 10 
22 94 241 0.00447594 10 
23 101 241 0.00447987 10 
24 101 247 0.00458389 10 
25 107 247 0.00459602 10 
26 107 254 0.00471904 10 
27 114 254 0.00472629 10 
28 107 256 0.00477580 10 
29 114 256 0.00478019 10 
30 107 258 0.00481740 10 
31 114 258 0.00481741 10 
32 121 266 0.00498653 10 
33 126 266 0.00500737 10 
34 126 272 0.00514532 10 
35 132 272 0.00515878 10 
36 132 278 0.00527310 10 
37 138 278 0.00526584 10 
38 138 284 0.00541020 10 
39 151 284 0.00540671 10 
40 151 291 0.00553844 10 
41 151 297 0.00575180 10 
42 157 297 0.00566144 10 
43 163 297 0.00567131 10 
44 166 297 0.00567550 10 
45 19 305 0.00595328 10 
46 157 305 0.00595175 10 
47 163 305 0.00601363 10 
48 166 305 0.00599056 10 
49 172 305 0.00603392 10 
50 19 315 0.00540167 9 
51 25 315 0.00606174 10 
52 172 315 0.00623226 10 
53 172 328 0.00629642 10 
54 19 337 0.00516319 8 
55 25 337 0.00652836 10 
56 172 337 0.00668879 10 
57 19 342 0.00659198 10 
58 25 342 0.00665028 10 
59 172 342 0.00557412 5 
60 178 342 0.00668865 10 
61 322 346 0.00263687 4 
62 25 367 0.00423075 6 
63 32 367 0.00497812 7 
64 178 367 0.00427010 6 
65 183 367 0.00501344 7 
66 25 374 0.00733944 10 
67 32 374 0.00739552 10 
68 178 374 0.00530876 7 
69 183 374 0.00665548 9 
70 32 382 0.00599168 8 
71 183 382 0.00756374 10 
72 32 387 0.00760674 10 
73 183 387 0.00453485 6 
74 189 400 0.00793637 10 
75 189 414 0.00821849 10 
76 44 437 0.00869541 10 
77 195 437 0.00888810 10 
78 44 454 0.00900979 10 
79 189 454 0.00924478 10 
80 44 467 0.00924396 10 
81 50 467 0.00950602 10 
82 195 467 0.00951821 10 
83 195 484 0.00964047 10 
84 44 494 0.00778739 8 
85 50 494 0.00984893 10 
86 195 494 0.01010021 10 
87 201 494 0.01012522 10 
88 50 500 0.01000709 10 
89 201 500 0.01024373 10 
90 203 500 0.01025558 10 
91 61 508 0.01020281 10 
92 203 508 0.01046923 10 
93 209 508 0.01049452 10 
94 61 522 0.01047461 10 
95 203 522 0.01072487 10 
96 209 522 0.01073906 10 
97 61 528 0.01059101 10 
98 67 528 0.01090005 10 
99 81 528 0.01093488 10 
100 209 528 0.01094567 10 
101 220 528 0.01094449 10 
102 67 532 0.00959934 9 
103 81 532 0.01078473 10 
104 220 532 0.01106122 10 
105 73 551 0.00771362 7 
106 67 556 0.01126530 10 
107 67 564 0.01142473 10 
108 81 564 0.01171129 10 
109 220 564 0.01165465 10 
110 67 567 0.01151611 10 
111 81 567 0.01178890 10 
112 220 567 0.01181060 10 
113 67 570 0.01163568 10 
114 81 570 0.01190017 10 
115 220 570 0.01190200 10 
116 81 575 0.01200015 10 
117 220 575 0.01200489 10 
118 81 588 0.01195729 10 
119 87 588 0.01225299 10 
120 226 588 0.01235038 10 
121 87 597 0.01218842 10 
122 94 597 0.01263840 10 
123 226 597 0.01252375 10 
124 87 604 0.01234991 10 
125 94 604 0.01270066 10 
126 94 616 0.01000568 8 
127 94 632 0.01294803 10 
128 94 637 0.01303069 10 
129 101 637 0.01336491 10 
130 101 642 0.01316817 10 
131 107 642 0.01346294 10 
132 101 645 0.01319899 10 
133 107 645 0.01354016 10 
134 398 653 0.01349173 10 
135 101 657 0.01367777 10 
136 101 663 0.00813838 6 
137 107 663 0.01231711 9 
138 114 663 0.00955771 7 
139 101 665 0.01387538 10 
140 107 665 0.01420930 10 
141 114 665 0.01420468 10 
142 107 680 0.01416214 10 
143 107 683 0.01423013 10 
144 114 683 0.01467515 10 
145 107 704 0.01463983 10 
146 114 704 0.01498635 10 
147 107 714 0.01483907 10 
148 114 714 0.01507307 10 
149 107 730 0.01044911 7 
150 114 730 0.01511025 10 
151 121 754 0.01552235 10 
152 126 754 0.01598993 10 
153 121 759 0.01573778 10 
154 126 759 0.01611462 10 
155 126 762 0.01582954 10 
156 132 762 0.01621966 10 
157 132 778 0.00954343 6 
158 132 792 0.01643730 10 
159 132 800 0.01657728 10 
160 138 800 0.01704808 10 
161 138 806 0.01672528 10 
162 138 821 0.01348751 8 
163 138 823 0.01694483 10 
164 418 823 0.01708585 10 
165 151 828 0.01727077 10 
166 151 847 0.01395042 8 
167 151 855 0.01228909 7 
168 151 895 0.01859251 10 
169 151 897 0.01891416 10 
170 138 903 0.01867230 10 
171 138 904 0.01872615 10 
172 132 907 0.01885738 10 
173 138 907 0.01927277 10 
174 132 911 0.01891802 10 
175 121 923 0.01918280 10 
176 126 923 0.01972126 10 
177 107 929 0.01935228 10 
178 114 929 0.01980379 10 
179 107 935 0.01949686 10 
180 114 935 0.01995913 10 
181 101 939 0.01746963 9 
182 107 939 0.01551033 8 
183 101 944 0.01955659 10 
184 94 947 0.01975677 10 
185 101 947 0.02023792 10 
186 87 953 0.01999073 10 
187 94 953 0.02043068 10 
188 226 953 0.02046659 10 
189 81 959 0.02017252 10 
190 87 959 0.02064811 10 
191 220 959 0.02070261 10 
192 226 959 0.02070089 10 
193 67 965 0.02036165 10 
194 81 965 0.02087774 10 
195 220 965 0.02084843 10 
196 61 976 0.02067898 10 
197 67 976 0.02113223 10 
198 209 976 0.02109334 10 
199 50 982 0.02081158 10 
200 61 982 0.02122897 10 
201 201 982 0.02133484 10 
202 203 982 0.01280182 6 
203 44 988 0.02190275 10 
204 50 988 0.01078580 5 
205 195 988 0.01452137 7 
206 201 988 0.01029525 5 
207 44 994 0.02114383 10 
208 189 994 0.02165361 10 
209 195 994 0.02170403 10 
210 32 1003 0.02140697 10 
211 178 1003 0.02202982 10 
212 183 1003 0.01970532 9 
213 25 1008 0.02168168 10 
214 32 1008 0.02217879 10 
215 178 1008 0.02219456 10 
216 183 1008 0.02222153 10 
217 25 1010 0.02177113 10 
218 32 1010 0.02225790 10 
219 172 1010 0.02216139 10 
220 178 1010 0.02218080 10 
221 19 1016 0.02199543 10 
222 166 1016 0.02256385 10 
223 172 1016 0.01799187 8 
224 151 1029 0.02231663 10 
225 157 1029 0.02278995 10 
226 163 1029 0.02262723 10 
227 166 1029 0.01360094 6 
228 132 1084 0.02346411 10 
229 78 1131 0.02452997 10 
230 101 1138 0.02481134 10 
231 107 1147 0.02499631 10 
232 114 1147 0.02560487 10 
233 107 1150 0.02505711 10 
234 114 1150 0.02565751 10 
235 114 1158 0.02528865 10 
236 121 1158 0.02581825 10 
237 121 1164 0.02537969 10 
238 126 1164 0.02605904 10 
239 114 1175 0.02571750 10 
240 121 1175 0.02624495 10 
241 923 1175 0.02627651 10 
242 929 1175 0.02632441 10 
243 1158 1175 0.01840332 7 
244 101 1188 0.02603351 10 
245 939 1188 0.02662872 10 
246 1138 1188 0.02651399 10 
247 1147 1188 0.02652815 10 
248 1150 1188 0.02655437 10 
249 1050 1210 0.02648706 10 
250 1061 1210 0.02707023 10 
251 1075 1210 0.02712661 10 
252 1084 1210 0.02709109 10 
253 1088 1210 0.02712611 10 
254 1093 1210 0.02710670 10 
255 1098 1210 0.02709591 10 
256 157 1217 0.02668889 10 
257 163 1217 0.02730157 10 
258 1029 1217 0.02446244 9 
259 1044 1217 0.02673748 10 
260 1050 1217 0.02736314 10 
261 1056 1217 0.02734960 10 
