1 19 166 0.00295781 10 
2 19 172 0.00311417 10 
3 25 172 0.00318266 10 
4 25 178 0.00329106 10 
5 32 178 0.00329731 10 
6 32 183 0.00339497 10 
7 44 189 0.00350823 10 
8 44 195 0.00361683 10 
9 50 195 0.00361076 10 
10 50 201 0.00371538 10 
11 50 203 0.00377159 10 
12 61 203 0.00375800 10 
13 61 209 0.00387140 10 
14 67 209 0.00387850 10 
15 67 220 0.00407568 10 
16 81 220 0.00406235 10 
17 81 226 0.00418596 10 
18 87 226 0.00417078 10 
19 87 231 0.00428011 10 
20 94 231 0.00427861 10 
21 226 231 0.00426523 10 
22 94 241 0.00447219 10 
23 101 241 0.00447087 10 
24 101 247 0.00458195 10 
25 107 247 0.00458475 10 
26 107 254 0.00471526 10 
27 114 254 0.00471744 10 
28 107 256 0.00476625 10 
29 114 256 0.00477462 10 
30 107 258 0.00481769 10 
31 114 258 0.00481092 10 
32 121 266 0.00497922 10 
33 126 266 0.00500267 10 
34 126 272 0.00513790 10 
35 132 272 0.00514959 10 
36 132 278 0.00526259 10 
37 138 278 0.00525942 10 
38 138 284 0.00540113 10 
39 151 284 0.00540466 10 
40 151 291 0.00553234 10 
41 151 297 0.00574522 10 
42 157 297 0.00564821 10 
43 163 297 0.00566046 10 
44 166 297 0.00566687 10 
45 19 305 0.00593859 10 
46 157 305 0.00594624 10 
47 163 305 0.00599634 10 
48 166 305 0.00598376 10 
49 172 305 0.00601822 10 
50 19 315 0.00551561 9 
51 25 315 0.00605555 10 
52 172 315 0.00621730 10 
53 172 328 0.00627544 10 
54 19 337 0.00515641 8 
55 25 337 0.00652134 10 
56 172 337 0.00668161 10 
57 19 342 0.00658068 10 
58 25 342 0.00664701 10 
59 172 342 0.00358956 5 
60 178 342 0.00666362 10 
61 25 367 0.00347895 5 
62 32 367 0.00426337 6 
63 178 367 0.00420638 6 
64 183 367 0.00495048 7 
65 25 374 0.00724385 10 
66 32 374 0.00730538 10 
67 178 374 0.00523638 7 
68 183 374 0.00654488 9 
69 32 382 0.00593522 8 
70 183 382 0.00750768 10 
71 32 387 0.00765030 10 
72 183 387 0.00448791 6 
73 189 400 0.00788553 10 
74 189 414 0.00815192 10 
75 44 437 0.00862073 10 
76 195 437 0.00880604 10 
77 44 454 0.00890950 10 
78 189 454 0.00914391 10 
79 44 467 0.00919181 10 
80 50 467 0.00942560 10 
81 195 467 0.00944055 10 
82 195 484 0.00954074 10 
83 44 494 0.00673416 7 
84 50 494 0.00976324 10 
85 195 494 0.00998830 10 
86 201 494 0.01004412 10 
87 50 500 0.00990276 10 
88 201 500 0.01016025 10 
89 203 500 0.01018593 10 
90 61 508 0.01011282 10 
91 203 508 0.01034788 10 
92 209 508 0.01038858 10 
93 61 522 0.01038232 10 
94 203 522 0.01063034 10 
95 209 522 0.01065599 10 
96 61 528 0.01051602 10 
97 67 528 0.01082593 10 
98 81 528 0.01083521 10 
99 209 528 0.01083711 10 
100 220 528 0.01084638 10 
101 67 532 0.00844471 8 
102 81 532 0.01067713 10 
103 220 532 0.01094370 10 
104 67 556 0.01115214 10 
105 67 564 0.01132210 10 
106 81 564 0.01175205 10 
107 220 564 0.01151119 10 
108 332 565 0.01142711 10 
109 67 567 0.01155207 10 
110 81 567 0.01179599 10 
111 220 567 0.01184007 10 
112 67 570 0.01162264 10 
113 81 570 0.01187847 10 
114 220 570 0.01190296 10 
115 81 575 0.01199232 10 
116 220 575 0.01199304 10 
117 81 588 0.01195614 10 
118 87 588 0.01237995 10 
119 226 588 0.01235048 10 
120 87 597 0.01225662 10 
121 94 597 0.01259860 10 
122 226 597 0.01257574 10 
123 87 604 0.01242381 10 
124 94 604 0.01277753 10 
125 94 616 0.01005115 8 
126 94 632 0.01299494 10 
127 94 637 0.01311364 10 
128 101 637 0.01342580 10 
129 101 642 0.01319660 10 
130 107 642 0.01355956 10 
131 101 645 0.01329524 10 
132 107 645 0.01362552 10 
133 101 657 0.01350953 10 
134 101 663 0.01218377 9 
135 107 663 0.01365403 10 
136 114 663 0.01404719 10 
137 101 665 0.01376271 10 
138 107 665 0.01411355 10 
139 114 665 0.01414871 10 
140 107 680 0.01408423 10 
141 107 683 0.01418337 10 
142 114 683 0.01446586 10 
143 245 702 0.01149294 8 
144 107 704 0.01457786 10 
145 114 704 0.01492017 10 
146 380 709 0.01481856 10 
147 107 714 0.01492306 10 
148 114 714 0.01527355 10 
149 107 730 0.01202622 8 
150 114 730 0.01518981 10 
151 143 749 0.01567815 10 
152 121 754 0.01584893 10 
153 126 754 0.01621049 10 
154 121 759 0.01596968 10 
155 126 759 0.01633888 10 
156 126 762 0.01602579 10 
157 132 762 0.01639558 10 
158 132 778 0.01632821 10 
159 132 792 0.01659465 10 
160 132 800 0.01674531 10 
161 138 800 0.01722144 10 
162 138 806 0.01694713 10 
163 138 821 0.01713415 10 
164 138 823 0.01715336 10 
165 151 828 0.01736941 10 
166 151 847 0.01769434 10 
167 575 852 0.01789774 10 
168 151 855 0.01797239 10 
169 778 866 0.01824005 10 
170 151 895 0.01880107 10 
171 151 897 0.01912176 10 
172 138 903 0.01898006 10 
173 138 904 0.01941178 10 
174 132 907 0.01906554 10 
175 138 907 0.01953097 10 
176 132 911 0.01916767 10 
177 121 923 0.01950907 10 
178 126 923 0.01989698 10 
179 107 929 0.01970496 10 
180 114 929 0.02012581 10 
181 868 929 0.02013060 10 
182 107 935 0.01981400 10 
183 114 935 0.02025115 10 
184 101 939 0.01776750 9 
185 107 939 0.01979461 10 
186 101 944 0.02002062 10 
187 94 947 0.02092898 10 
188 101 947 0.02063205 10 
189 87 953 0.02029227 10 
190 94 953 0.02075352 10 
191 226 953 0.02076931 10 
192 81 959 0.02049797 10 
193 87 959 0.02092774 10 
194 220 959 0.02097500 10 
195 226 959 0.02093556 10 
196 67 965 0.02069775 10 
197 81 965 0.02114942 10 
198 220 965 0.02117405 10 
199 61 976 0.02105073 10 
200 67 976 0.02151156 10 
201 209 976 0.02146313 10 
202 50 982 0.02118800 10 
203 61 982 0.02160385 10 
204 201 982 0.02171322 10 
205 203 982 0.02170998 10 
206 44 988 0.02134055 10 
207 50 988 0.02184998 10 
208 195 988 0.02185026 10 
209 201 988 0.01741457 8 
210 44 994 0.02151586 10 
211 189 994 0.02208765 10 
212 195 994 0.02214221 10 
213 32 1003 0.04985068 10 
214 178 1003 0.18588813 10 
215 183 1003 0.13920468 10 
216 25 1008 0.04393053 10 
217 32 1008 0.02258162 10 
218 178 1008 0.02257534 10 
219 183 1008 0.02267190 10 
220 25 1010 0.02218916 10 
221 32 1010 0.02269215 10 
222 172 1010 0.02274419 10 
223 178 1010 0.02273748 10 
224 19 1016 0.02238306 10 
225 166 1016 0.02287873 10 
226 172 1016 0.02046217 9 
227 151 1029 0.02272607 10 
228 157 1029 0.02321391 10 
229 163 1029 0.02326390 10 
230 166 1029 0.02320923 10 
231 314 1052 0.02320763 10 
232 132 1084 0.02403165 10 
233 846 1091 0.02406194 10 
234 101 1138 0.02504612 10 
235 107 1147 0.02523198 10 
236 114 1147 0.02578610 10 
237 107 1150 0.02526223 10 
238 114 1150 0.02587550 10 
239 114 1158 0.02544716 10 
240 121 1158 0.02603674 10 
241 121 1164 0.02577158 10 
242 126 1164 0.02630423 10 
243 114 1175 0.02597261 10 
244 121 1175 0.02652171 10 
245 923 1175 0.02658421 10 
246 929 1175 0.02687842 10 
247 1158 1175 0.01866270 7 
248 101 1188 0.02643660 10 
249 939 1188 0.02690336 10 
250 1138 1188 0.02701647 10 
251 1147 1188 0.02696676 10 
252 1150 1188 0.02696282 10 
253 1050 1210 0.02685992 10 
254 1061 1210 0.02754862 10 
255 1075 1210 0.02742526 10 
256 1084 1210 0.02745769 10 
257 1088 1210 0.02745255 10 
258 1093 1210 0.02750418 10 
259 1098 1210 0.02753079 10 
260 157 1217 0.02705306 10 
261 163 1217 0.02478903 9 
262 1029 1217 0.02709025 10 
263 1044 1217 0.02773769 10 
264 1050 1217 0.02772631 10 
265 1056 1217 0.02776009 10 
266 155 1223 0.02735105 10 
