1 19 166 0.00297975 10 
2 19 172 0.00312673 10 
3 25 172 0.00318949 10 
4 25 178 0.00329772 10 
5 32 178 0.00330665 10 
6 32 183 0.00339805 10 
7 44 189 0.00351667 10 
8 44 195 0.00362362 10 
9 50 195 0.00361309 10 
10 50 201 0.00372943 10 
11 50 203 0.00377739 10 
12 61 203 0.00376560 10 
13 61 209 0.00388612 10 
14 67 209 0.00388614 10 
15 67 220 0.00408290 10 
16 81 220 0.00407653 10 
17 81 226 0.00419454 10 
18 87 226 0.00418379 10 
19 87 231 0.00428702 10 
20 94 231 0.00427833 10 
21 226 231 0.00427171 10 
22 94 241 0.00448487 10 
23 101 241 0.00447936 10 
24 101 247 0.00458961 10 
25 107 247 0.00459555 10 
26 107 254 0.00472458 10 
27 114 254 0.00472451 10 
28 107 256 0.00477672 10 
29 114 256 0.00478160 10 
30 107 258 0.00481756 10 
31 114 258 0.00482037 10 
32 121 266 0.00498748 10 
33 126 266 0.00501328 10 
34 126 272 0.00514763 10 
35 132 272 0.00515626 10 
36 229 277 0.00532158 10 
37 132 278 0.00534668 10 
38 138 278 0.00536499 10 
39 138 284 0.00549475 10 
40 151 284 0.00551199 10 
41 151 291 0.00566152 10 
42 151 297 0.00577053 10 
43 157 297 0.00576811 10 
44 163 297 0.00576699 10 
45 166 297 0.00576826 10 
46 19 305 0.00598771 10 
47 157 305 0.00602547 10 
48 163 305 0.00607068 10 
49 166 305 0.00607383 10 
50 172 305 0.00610827 10 
51 19 315 0.00627483 10 
52 25 315 0.00628713 10 
53 172 315 0.00631138 10 
54 172 328 0.00657034 10 
55 19 337 0.00676211 10 
56 25 337 0.00675839 10 
57 172 337 0.00675480 10 
58 19 342 0.00687266 10 
59 25 342 0.00689019 10 
60 172 342 0.00345847 5 
61 178 342 0.00676984 10 
62 25 367 0.00353550 5 
63 32 367 0.00428578 6 
64 178 367 0.00427610 6 
65 183 367 0.00505212 7 
66 25 374 0.00735969 10 
67 32 374 0.00739920 10 
68 178 374 0.00530275 7 
69 183 374 0.00663219 9 
70 32 382 0.00599515 8 
71 183 382 0.00760316 10 
72 32 387 0.00764923 10 
73 183 387 0.00455082 6 
74 189 400 0.00799236 10 
75 189 414 0.00824779 10 
76 44 437 0.00869526 10 
77 195 437 0.00890648 10 
78 44 454 0.00903164 10 
79 189 454 0.00925234 10 
80 44 467 0.00926790 10 
81 50 467 0.00955134 10 
82 195 467 0.00955874 10 
83 195 484 0.00963759 10 
84 44 494 0.00679575 7 
85 50 494 0.00983376 10 
86 195 494 0.01007797 10 
87 201 494 0.01015642 10 
88 50 500 0.01000130 10 
89 201 500 0.01025531 10 
90 203 500 0.01030087 10 
91 61 508 0.01023598 10 
92 203 508 0.01048607 10 
93 209 508 0.01050116 10 
94 61 522 0.01049198 10 
95 203 522 0.01073787 10 
96 209 522 0.01074690 10 
97 61 528 0.01061078 10 
98 67 528 0.01088550 10 
99 81 528 0.01096966 10 
100 209 528 0.01097397 10 
101 220 528 0.01093987 10 
102 67 532 0.00851676 8 
103 81 532 0.01079144 10 
104 220 532 0.01107675 10 
105 362 555 0.01129839 10 
106 67 556 0.01159364 10 
107 222 562 0.01148164 10 
108 67 564 0.01153683 10 
109 81 564 0.01182541 10 
110 220 564 0.01176732 10 
111 67 567 0.01162767 10 
112 81 567 0.01189834 10 
113 220 567 0.01194984 10 
114 67 570 0.01171634 10 
115 81 570 0.01199848 10 
116 220 570 0.01200758 10 
117 81 575 0.01211730 10 
118 220 575 0.01211298 10 
119 81 588 0.01207473 10 
120 87 588 0.01241653 10 
121 226 588 0.01244057 10 
122 87 597 0.01233720 10 
123 94 597 0.01264879 10 
124 226 597 0.01265862 10 
125 87 604 0.01252728 10 
126 94 604 0.01282274 10 
127 98 614 0.01278853 10 
128 94 616 0.01145232 9 
129 94 632 0.01312625 10 
130 94 637 0.01321097 10 
131 101 637 0.01355336 10 
132 101 642 0.01332437 10 
133 107 642 0.01367511 10 
134 101 645 0.01340577 10 
135 107 645 0.01374496 10 
136 101 657 0.01364238 10 
137 101 663 0.01227903 9 
138 107 663 0.01380310 10 
139 114 663 0.01419879 10 
140 101 665 0.01388023 10 
141 107 665 0.01420458 10 
142 114 665 0.01420108 10 
143 107 680 0.01416650 10 
144 107 683 0.01422643 10 
145 114 683 0.01460684 10 
146 107 704 0.01466382 10 
147 114 704 0.01498825 10 
148 107 714 0.01486766 10 
149 114 714 0.01518008 10 
150 107 730 0.01047666 7 
151 114 730 0.01514893 10 
152 121 754 0.01563688 10 
153 126 754 0.01599453 10 
154 121 759 0.01572925 10 
155 126 759 0.01611145 10 
156 126 762 0.01581416 10 
157 132 762 0.01618165 10 
158 132 778 0.01612562 10 
159 132 792 0.01637688 10 
160 132 800 0.01653321 10 
161 138 800 0.01705328 10 
162 138 806 0.01678489 10 
163 138 821 0.01698665 10 
164 138 823 0.01699780 10 
165 476 826 0.01734444 10 
166 151 828 0.01736064 10 
167 151 847 0.01766135 10 
168 151 855 0.01781502 10 
169 151 895 0.01867415 10 
170 151 897 0.01894483 10 
171 138 903 0.01875815 10 
172 138 904 0.01920687 10 
173 132 907 0.01887328 10 
174 138 907 0.01932146 10 
175 132 911 0.01894515 10 
176 121 923 0.01927663 10 
177 126 923 0.01975320 10 
178 107 929 0.01944396 10 
179 114 929 0.01990873 10 
180 107 935 0.01956745 10 
181 114 935 0.02006946 10 
182 101 939 0.01954277 10 
183 107 939 0.01951389 10 
184 101 944 0.01974214 10 
185 94 947 0.01988608 10 
186 101 947 0.02032639 10 
187 87 953 0.02000141 10 
188 94 953 0.02045115 10 
189 226 953 0.02049092 10 
190 81 959 0.02022047 10 
191 87 959 0.02071948 10 
192 220 959 0.02078942 10 
193 226 959 0.02079613 10 
194 67 965 0.02049900 10 
195 81 965 0.02096552 10 
196 220 965 0.02098261 10 
197 61 976 0.02077122 10 
198 67 976 0.02123524 10 
199 209 976 0.02128110 10 
200 50 982 0.02092623 10 
201 61 982 0.02137816 10 
202 201 982 0.02148983 10 
203 203 982 0.02146373 10 
204 661 983 0.02120091 10 
205 44 988 0.02138994 10 
206 50 988 0.02188714 10 
207 195 988 0.02205821 10 
208 201 988 0.01747702 8 
209 44 994 0.02157493 10 
210 189 994 0.02197650 10 
211 195 994 0.02197723 10 
212 32 1003 0.02172430 10 
213 178 1003 0.02222179 10 
214 183 1003 0.02222254 10 
215 25 1008 0.02186213 10 
216 32 1008 0.02233980 10 
217 178 1008 0.02266168 10 
218 183 1008 0.02239730 10 
219 25 1010 0.02193442 10 
220 32 1010 0.02242661 10 
221 172 1010 0.02263032 10 
222 178 1010 0.02262163 10 
223 19 1016 0.02230292 10 
224 166 1016 0.02284320 10 
225 172 1016 0.02046943 9 
226 151 1029 0.02257808 10 
227 157 1029 0.02308114 10 
228 163 1029 0.02310624 10 
229 166 1029 0.02307487 10 
230 132 1084 0.02369743 10 
231 308 1094 0.02395037 10 
232 721 1109 0.02438992 10 
233 657 1131 0.02506989 10 
234 101 1138 0.02512841 10 
235 107 1147 0.02536063 10 
236 114 1147 0.02593107 10 
237 107 1150 0.02538840 10 
238 114 1150 0.02600903 10 
239 114 1158 0.02558052 10 
240 121 1158 0.02628054 10 
241 121 1164 0.02582164 10 
242 126 1164 0.02636001 10 
243 114 1175 0.02604888 10 
244 121 1175 0.02668886 10 
245 923 1175 0.02783669 10 
246 929 1175 0.02677434 10 
247 1158 1175 0.02391612 9 
248 101 1188 0.02641530 10 
249 939 1188 0.02698168 10 
250 1138 1188 0.02702588 10 
251 1147 1188 0.02703877 10 
252 1150 1188 0.02705623 10 
253 1050 1210 0.02706907 10 
254 1061 1210 0.02764856 10 
255 1075 1210 0.02771839 10 
256 1084 1210 0.02768937 10 
257 1088 1210 0.02771947 10 
258 1093 1210 0.02773311 10 
259 1098 1210 0.02773316 10 
260 142 1213 0.02782615 10 
261 157 1217 0.02797354 10 
262 163 1217 0.02797612 10 
263 1029 1217 0.02799469 10 
264 1044 1217 0.02799411 10 
265 1050 1217 0.02800351 10 
266 1056 1217 0.02802570 10 
