VERTEX2 0 -0.00000717 -0.00000090 -0.00000042
VERTEX2 1 -0.00000717 -0.00000090 -0.00064242
VERTEX2 2 -0.00000717 -0.00000090 -0.00118042
VERTEX2 3 0.01099469 -0.00097588 -0.00356242
VERTEX2 4 0.64100125 -0.01120129 -0.00744442
VERTEX2 5 0.69600894 -0.01171680 -0.09872642
VERTEX2 6 0.70026205 -0.01543613 -0.89599842
VERTEX2 7 0.69394932 0.00421236 -1.51153542
VERTEX2 8 0.69925619 0.02669313 -2.12506942
VERTEX2 9 0.71610746 0.04112214 -2.76313942
VERTEX2 10 0.72897398 0.04321953 2.90551489
VERTEX2 11 0.73319656 0.04053649 2.23123589
VERTEX2 12 0.73317928 0.04154494 1.58176189
VERTEX2 13 0.73874544 0.05907003 0.92226389
VERTEX2 14 0.75965097 0.07375023 0.31402489
VERTEX2 15 0.76856438 0.07435717 -0.21090311
VERTEX2 16 1.06248640 0.01415160 -0.22959511
VERTEX2 17 1.66364000 -0.13311539 -0.26082311
VERTEX2 18 2.28699406 -0.29648073 -0.27100011
VERTEX2 19 2.91428989 -0.49425483 -0.31957611
VERTEX2 20 3.50803888 -0.68434388 -0.31366365
VERTEX2 21 4.11724517 -0.83675296 -0.20210648
VERTEX2 22 4.72729460 -0.97814995 -0.18472862
VERTEX2 23 5.36742989 -1.02247880 -0.07732925
VERTEX2 24 5.99917015 -1.09381928 -0.13441534
VERTEX2 25 6.63422650 -1.16166243 -0.13168239
VERTEX2 26 7.24327717 -1.26240872 -0.17225295
VERTEX2 27 7.85927039 -1.35398244 -0.15646087
VERTEX2 28 8.44096749 -1.45285846 -0.16094777
VERTEX2 29 8.82009404 -1.51047764 -0.13022188
VERTEX2 30 8.82939790 -1.51295564 -0.66244419
VERTEX2 31 8.93041822 -1.64861895 -0.93087203
VERTEX2 32 9.29819657 -2.16355150 -0.94945513
VERTEX2 33 9.68374485 -2.67486994 -0.89869519
VERTEX2 34 10.09876222 -3.16988835 -0.87771545
VERTEX2 35 10.52397268 -3.65717266 -0.84353664
VERTEX2 36 10.95577864 -4.14569320 -0.85219817
VERTEX2 37 11.24124500 -4.46466232 -0.84461459
VERTEX2 38 11.24283818 -4.46679937 -1.16647451
VERTEX2 39 11.24241039 -4.46455361 -1.33756628
VERTEX2 40 11.38788571 -5.04224317 -1.32040364
VERTEX2 41 11.53883273 -5.64505463 -1.35248910
VERTEX2 42 11.66204033 -6.21127492 -1.37529305
VERTEX2 43 11.76909821 -6.80909574 -1.41558975
VERTEX2 44 11.85913077 -7.40613314 -1.45266223
VERTEX2 45 11.91413572 -8.02593042 -1.50821679
VERTEX2 46 11.94508031 -8.64777545 -1.52763950
VERTEX2 47 11.96512139 -9.26945390 -1.56935462
VERTEX2 48 11.96152542 -9.89553552 -1.57593922
VERTEX2 49 11.95415091 -10.51756086 -1.62681200
VERTEX2 50 11.90061897 -11.10716917 -1.67134637
VERTEX2 51 11.84534424 -11.70362263 -1.70043735
VERTEX2 52 11.74809759 -12.28665659 -1.77718944
VERTEX2 53 11.64801069 -12.84415414 -1.76486815
VERTEX2 54 11.53489068 -13.35583219 -1.82698628
VERTEX2 55 11.54157158 -13.32387865 -1.82174014
VERTEX2 56 11.54096498 -13.32624378 -1.81119723
VERTEX2 57 11.39675546 -13.94402995 -1.82262337
VERTEX2 58 11.24995534 -14.55006020 -1.77642903
VERTEX2 59 11.12049175 -15.15562861 -1.80003674
VERTEX2 60 10.99040928 -15.75753315 -1.77868187
VERTEX2 61 10.85451729 -16.35990366 -1.82944980
VERTEX2 62 10.70391037 -16.91947070 -1.78959301
VERTEX2 63 10.55150321 -17.48383031 -1.82507906
VERTEX2 64 10.41567019 -18.04279349 -1.76168717
VERTEX2 65 10.28028963 -18.59956841 -1.81310271
VERTEX2 66 10.12582058 -19.18617752 -1.82113258
VERTEX2 67 9.95954658 -19.77626917 -1.81969737
VERTEX2 68 9.84912717 -20.22396514 -1.83549993
VERTEX2 69 9.85224007 -20.21386079 -1.99047159
VERTEX2 70 9.85908898 -20.20079246 -2.66481835
VERTEX2 71 9.88231939 -20.19948251 2.97572224
VERTEX2 72 9.89492674 -20.20104596 2.96624334
VERTEX2 73 9.90227059 -20.20286979 2.90130371
VERTEX2 74 9.90237388 -20.20292646 2.27951921
VERTEX2 75 9.90901288 -20.20553260 1.92717965
VERTEX2 76 9.89733986 -20.19255446 2.62108637
VERTEX2 77 9.89299984 -20.19072785 2.85405002
VERTEX2 78 9.61143356 -20.20099668 -3.09198673
VERTEX2 79 8.99311232 -20.23880486 -3.09725022
VERTEX2 80 8.36115612 -20.23634455 3.11141102
VERTEX2 81 7.73698038 -20.20881829 3.08540605
VERTEX2 82 7.13712408 -20.16710709 3.03129574
VERTEX2 83 6.54825927 -20.11480741 3.00778066
VERTEX2 84 5.98554154 -20.02795755 2.92996244
VERTEX2 85 5.44261981 -19.92303522 2.93724237
VERTEX2 86 4.83321625 -19.80126769 2.84745825
VERTEX2 87 4.44213794 -19.69387311 2.79501326
VERTEX2 88 4.08413489 -19.56039001 2.76519982
VERTEX2 89 4.09350940 -19.56086473 -3.12223323
VERTEX2 90 3.48805591 -19.56304618 3.12984079
VERTEX2 91 2.87183991 -19.55757803 -3.10427233
VERTEX2 92 2.27172253 -19.55228570 3.06320695
VERTEX2 93 1.65046074 -19.44838705 2.96232607
VERTEX2 94 1.02961644 -19.30861681 2.91952979
VERTEX2 95 0.40635240 -19.21919714 3.06213168
VERTEX2 96 -0.20535951 -19.16657270 3.08619843
VERTEX2 97 -0.79670250 -19.10212500 3.01559345
VERTEX2 98 -1.38653692 -18.99958772 2.95762325
VERTEX2 99 -2.09289107 -18.87339976 3.00443474
VERTEX2 100 -2.65880834 -18.76389990 2.95271112
VERTEX2 101 -3.27134254 -18.70582168 3.05599766
VERTEX2 102 -3.88517773 -18.62411493 2.95011342
VERTEX2 103 -4.49428354 -18.50786019 3.04609358
VERTEX2 104 -5.10735119 -18.43020822 3.01244651
VERTEX2 105 -5.72062181 -18.36442760 3.05903306
VERTEX2 106 -6.32330818 -18.29273840 3.00419955
VERTEX2 107 -6.94174855 -18.19528567 3.00041690
VERTEX2 108 -7.39728518 -18.14544108 3.06199090
VERTEX2 109 -7.44359968 -18.13360617 2.61349082
VERTEX2 110 -7.46079841 -18.11573186 2.02214763
VERTEX2 111 -7.46080872 -18.03500659 1.51630309
VERTEX2 112 -7.43565905 -17.40127529 1.57071769
VERTEX2 113 -7.45266944 -16.77900217 1.61773860
VERTEX2 114 -7.48444922 -16.16513690 1.65451264
VERTEX2 115 -7.55637567 -15.52447301 1.71475099
VERTEX2 116 -7.67363065 -14.77332695 1.75882356
VERTEX2 117 -7.80824686 -14.16231015 1.85437318
VERTEX2 118 -7.81296288 -14.14116364 1.51976171
VERTEX2 119 -7.75669888 -13.62324271 1.46652985
VERTEX2 120 -7.70362928 -12.96712489 1.55679300
VERTEX2 121 -7.71407615 -12.34787981 1.62444576
VERTEX2 122 -7.74826858 -11.76581630 1.68068871
VERTEX2 123 -7.77325279 -11.58617631 1.66793378
VERTEX2 124 -7.68748446 -11.34799958 1.24502711
VERTEX2 125 -7.47170329 -10.75600978 1.23412113
VERTEX2 126 -7.34010283 -10.14059693 1.44071721
VERTEX2 127 -7.24369150 -9.50540783 1.43925993
VERTEX2 128 -7.16969384 -8.86588983 1.47581076
VERTEX2 129 -7.08489912 -8.23028815 1.44327389
VERTEX2 130 -7.01908940 -7.59645484 1.49605195
VERTEX2 131 -6.97514796 -6.96814172 1.58461506
VERTEX2 132 -6.95929748 -6.34904859 1.53506409
VERTEX2 133 -6.91402278 -5.78143360 1.49827147
VERTEX2 134 -6.86186816 -5.18487876 1.48008411
VERTEX2 135 -6.78162495 -4.60873550 1.45389405
VERTEX2 136 -6.70940318 -3.97558335 1.47355366
VERTEX2 137 -6.61478960 -3.34451985 1.43175196
VERTEX2 138 -6.54086983 -2.71437169 1.51198988
VERTEX2 139 -6.52647626 -2.08270717 1.57739726
VERTEX2 140 -6.55725565 -1.42638053 1.60801644
VERTEX2 141 -6.56566101 -0.78536715 1.55966793
VERTEX2 142 -6.56846158 -0.13465486 1.55590563
VERTEX2 143 -6.48976735 0.50511805 1.44541931
VERTEX2 144 -6.45139074 0.87767122 1.46300495
VERTEX2 145 -6.44577756 0.89489498 0.96470155
VERTEX2 146 -6.44407941 0.90373045 0.37158141
VERTEX2 147 -6.38853988 0.90012271 -0.11485207
VERTEX2 148 -5.95691800 0.84244407 -0.15046274
VERTEX2 149 -5.31621944 0.75224263 -0.12532421
VERTEX2 150 -4.68208738 0.69130457 -0.11113638
VERTEX2 151 -4.04241400 0.64753166 -0.02544250
VERTEX2 152 -3.41712863 0.61602345 -0.08623507
VERTEX2 153 -2.79213057 0.58719339 0.00727886
VERTEX2 154 -2.17075947 0.57017757 -0.06218325
VERTEX2 155 -1.54555401 0.54075790 -0.02868489
VERTEX2 156 -0.91800375 0.53052733 0.00211807
VERTEX2 157 -0.35407500 0.51655201 -0.06219167
VERTEX2 158 -0.15945013 0.50397326 -0.03469684
VERTEX2 159 -0.15384684 0.50221622 0.95263116
VERTEX2 160 -0.14846012 0.51112954 1.98831030
VERTEX2 161 -0.17060215 0.45231691 2.70932154
VERTEX2 162 -0.14479234 0.45817691 -2.53806372
VERTEX2 163 -0.14578538 0.45315562 -1.54098256
VERTEX2 164 -0.22293302 0.54892982 -0.47873923
VERTEX2 165 -0.04901257 0.53171593 -0.07094599
VERTEX2 166 0.64868565 0.48879883 -0.06924309
VERTEX2 167 1.26550863 0.43865590 -0.09861015
VERTEX2 168 1.85377700 0.38952126 -0.08661823
VERTEX2 169 2.44911584 0.31807027 -0.12356498
VERTEX2 170 3.03572173 0.24983575 -0.14423136
VERTEX2 171 3.59741868 0.15146462 -0.18256567
VERTEX2 172 4.22282787 0.04394507 -0.16854656
VERTEX2 173 4.85159759 -0.07671960 -0.19145799
VERTEX2 174 5.47659316 -0.19101841 -0.15141674
VERTEX2 175 6.09262387 -0.28125386 -0.17619873
VERTEX2 176 6.69180300 -0.40159826 -0.16666532
VERTEX2 177 7.31489962 -0.50450299 -0.19439037
VERTEX2 178 7.93606780 -0.65056543 -0.23347115
VERTEX2 179 8.33938503 -0.73449624 -0.18019467
VERTEX2 180 8.38944701 -0.74799803 -0.62234101
VERTEX2 181 8.82988645 -1.06669470 -0.67419144
VERTEX2 182 9.23614149 -1.42726934 -0.84830518
VERTEX2 183 9.58288707 -1.84867667 -0.90573609
VERTEX2 184 9.93163278 -2.37587295 -1.05134536
VERTEX2 185 10.22383095 -2.92613054 -1.14317581
VERTEX2 186 10.44970224 -3.50820172 -1.20892734
VERTEX2 187 10.65096415 -4.06808861 -1.23102283
VERTEX2 188 10.85911316 -4.64744953 -1.23596950
VERTEX2 189 11.05986090 -5.23073405 -1.26224985
VERTEX2 190 11.24376036 -5.83494387 -1.29118401
VERTEX2 191 11.41722091 -6.43848982 -1.31540495
VERTEX2 192 11.57164333 -7.03551028 -1.34389702
VERTEX2 193 11.69513858 -7.58399038 -1.39975037
VERTEX2 194 11.79486846 -8.15344133 -1.42663707
VERTEX2 195 11.87498919 -8.71816726 -1.45537131
VERTEX2 196 11.94146327 -9.34383461 -1.49617891
VERTEX2 197 11.97917573 -9.96545437 -1.52369851
VERTEX2 198 12.00412163 -10.58446815 -1.58192111
VERTEX2 199 11.97574640 -11.19289708 -1.64338941
VERTEX2 200 11.92831453 -11.79611982 -1.66531681
VERTEX2 201 11.85715168 -12.39585484 -1.72203498
VERTEX2 202 11.79290866 -12.90149820 -1.70185986
VERTEX2 203 11.69064087 -13.63591782 -1.75460656
VERTEX2 204 11.56843345 -14.21234534 -1.85653563
VERTEX2 205 11.39867286 -14.77436143 -1.86591328
VERTEX2 206 11.24409079 -15.32141753 -1.86394706
VERTEX2 207 11.08380831 -15.88820787 -1.84795199
VERTEX2 208 10.90989206 -16.48765009 -1.85734564
VERTEX2 209 10.74721181 -17.08860779 -1.81910485
VERTEX2 210 10.58357496 -17.68152821 -1.82796505
VERTEX2 211 10.43394094 -18.27823488 -1.82570664
VERTEX2 212 10.25671149 -18.86450326 -1.87856385
VERTEX2 213 10.06087296 -19.45444497 -1.89934815
VERTEX2 214 9.86020573 -20.03078696 -1.90316449
VERTEX2 215 9.74465270 -20.35334896 -1.93896973
VERTEX2 216 9.75639276 -20.33329090 -2.43765027
VERTEX2 217 9.78190933 -20.33058275 -2.97983231
VERTEX2 218 9.79115292 -20.33413856 -3.03586337
VERTEX2 219 9.22484656 -20.28953519 3.07880788
VERTEX2 220 8.61583986 -20.24482590 3.03893110
VERTEX2 221 7.97671024 -20.17798505 3.08944984
VERTEX2 222 7.35105323 -20.13499637 3.06393125
VERTEX2 223 6.72479507 -20.10534109 -3.12289079
VERTEX2 224 6.11017831 -20.10585037 3.13452924
VERTEX2 225 5.49197733 -20.10003033 -3.09894287
VERTEX2 226 4.87470797 -20.09347923 3.13515354
VERTEX2 227 4.22936549 -20.16242672 -2.99131889
VERTEX2 228 3.70535765 -20.14645661 2.93038944
VERTEX2 229 3.25904167 -20.10772195 3.05093532
VERTEX2 230 2.96804443 -20.09163091 3.02217934
VERTEX2 231 3.17218877 -20.10953798 3.09229002
VERTEX2 232 2.86216409 -19.97011232 2.66644583
VERTEX2 233 2.29798595 -19.70878972 2.76876337
VERTEX2 234 1.72180048 -19.48148768 2.72461131
VERTEX2 235 1.47216935 -19.37351088 2.71962988
VERTEX2 236 1.13690935 -19.37443888 3.12507792
VERTEX2 237 0.50815656 -19.38888605 -3.08771714
VERTEX2 238 -0.11290959 -19.43691842 -3.12045968
VERTEX2 239 -0.73011591 -19.43345630 3.09508752
VERTEX2 240 -1.30039946 -19.31486516 2.87697414
VERTEX2 241 -1.84061367 -19.18282407 2.96237525
VERTEX2 242 -2.41592783 -19.11662571 3.00190848
VERTEX2 243 -3.01786421 -19.03216716 3.00123077
VERTEX2 244 -3.64319140 -18.98535352 3.07258467
VERTEX2 245 -4.25918004 -18.93545643 3.01841044
VERTEX2 246 -4.86269846 -18.84814810 2.94606540
VERTEX2 247 -5.46761255 -18.76467816 3.05203901
VERTEX2 248 -6.02260086 -18.74236055 3.08343960
VERTEX2 249 -5.97453861 -18.74965632 -3.00681856
VERTEX2 250 -5.97179850 -18.74954989 2.68947181
VERTEX2 251 -6.29431218 -18.40850916 2.26615196
VERTEX2 252 -6.65022402 -17.98759895 2.27469855
VERTEX2 253 -7.02228016 -17.54099523 2.26374174
VERTEX2 254 -7.38783720 -17.08214243 2.22258275
VERTEX2 255 -7.46095726 -16.98915538 2.30645836
VERTEX2 256 -7.46387446 -16.91198413 1.83049273
VERTEX2 257 -7.51532780 -16.45177437 1.69505981
VERTEX2 258 -7.59855512 -15.86206519 1.77553968
VERTEX2 259 -7.74227747 -15.25564917 1.81631156
VERTEX2 260 -7.87635491 -14.69354076 1.80808702
VERTEX2 261 -7.87405910 -14.65588004 1.49692652
VERTEX2 262 -7.81101023 -14.00422106 1.50376033
VERTEX2 263 -7.76900126 -13.38583496 1.51737822
VERTEX2 264 -7.75433185 -12.78052937 1.61460039
VERTEX2 265 -7.78638839 -12.17566330 1.63489243
VERTEX2 266 -7.73883003 -11.59704922 1.50586358
VERTEX2 267 -7.68791076 -10.84608963 1.47655054
VERTEX2 268 -7.55579398 -10.24165570 1.36648171
VERTEX2 269 -7.43613051 -9.62663424 1.39639920
VERTEX2 270 -7.36427006 -9.00088703 1.51043834
VERTEX2 271 -7.26930145 -8.37693296 1.39993977
VERTEX2 272 -7.18395631 -7.74837516 1.46510189
VERTEX2 273 -7.19411978 -7.11632886 1.67726970
VERTEX2 274 -7.26244850 -6.49782683 1.70129683
VERTEX2 275 -7.25065711 -5.88879819 1.52990140
VERTEX2 276 -7.24407223 -5.28067143 1.64447985
VERTEX2 277 -7.29126868 -4.71492366 1.61897926
VERTEX2 278 -7.24824088 -4.07429711 1.53035898
VERTEX2 279 -7.20855084 -3.43582790 1.47510276
VERTEX2 280 -7.14049930 -2.80268515 1.47726096
VERTEX2 281 -7.05003957 -2.16768263 1.37696857
VERTEX2 282 -6.93033712 -1.53909220 1.41699390
VERTEX2 283 -6.84370843 -0.90407655 1.40934382
VERTEX2 284 -6.73209481 -0.27948786 1.43672058
VERTEX2 285 -6.66534629 0.37141084 1.45789128
VERTEX2 286 -6.59913911 0.99455493 1.51159546
VERTEX2 287 -6.59627579 1.04724700 1.40732234
VERTEX2 288 -6.59185478 1.05518721 0.79912606
VERTEX2 289 -6.58807907 1.05708897 0.20608550
VERTEX2 290 -6.14736612 1.04883531 -0.01877851
VERTEX2 291 -5.52430337 1.04174840 -0.00487567
VERTEX2 292 -4.90754217 1.02254338 -0.05954756
VERTEX2 293 -4.28231420 0.97775038 -0.08264545
VERTEX2 294 -3.66069242 0.92588736 -0.08200407
VERTEX2 295 -3.03854806 0.84584421 -0.19455526
VERTEX2 296 -2.42176108 0.70137188 -0.24001983
VERTEX2 297 -1.80719868 0.54993994 -0.25178670
VERTEX2 298 -1.19616906 0.39557534 -0.25248136
VERTEX2 299 -0.62170808 0.23882397 -0.19135106
VERTEX2 300 -0.03479405 0.15283586 -0.14922922
VERTEX2 301 0.52753930 0.05292988 -0.20847464
VERTEX2 302 0.82929569 -0.01218786 -0.22945494
VERTEX2 303 0.81159068 -0.00860809 -0.22539168
VERTEX2 304 1.31196469 -0.12453486 -0.21592879
VERTEX2 305 1.92759431 -0.16955804 -0.03220794
VERTEX2 306 2.55746697 -0.18093148 -0.05037348
VERTEX2 307 3.19708082 -0.22963711 -0.08718110
VERTEX2 308 3.82513479 -0.29346127 -0.14288277
VERTEX2 309 4.46050664 -0.35474897 -0.05008558
VERTEX2 310 5.08858541 -0.38561352 -0.08609112
VERTEX2 311 5.37004288 -0.41200914 0.08880714
VERTEX2 312 5.36741503 -0.41336977 1.07632808
VERTEX2 313 5.37211156 -0.19465583 1.57188614
VERTEX2 314 5.35280528 0.43383365 1.61161248
VERTEX2 315 5.32451791 1.06170987 1.60723285
VERTEX2 316 5.28492589 1.70678696 1.65841178
VERTEX2 317 5.22412265 2.34851770 1.66820965
VERTEX2 318 5.12586218 2.98564653 1.76258213
VERTEX2 319 5.04647708 3.33271717 1.83377514
VERTEX2 320 5.04853668 3.33908403 2.80180075
VERTEX2 321 5.04057318 3.33566234 -2.44218241
VERTEX2 322 5.03968691 3.33383475 -1.44644963
VERTEX2 323 5.05023872 3.32365813 -0.45450534
VERTEX2 324 5.05475003 3.32218446 0.20501661
VERTEX2 325 5.05617075 3.32229642 -0.32295877
VERTEX2 326 5.07155654 3.31071780 -0.91850061
VERTEX2 327 5.07491096 3.29486552 -1.54221584
VERTEX2 328 5.05848676 2.65707875 -1.58889151
VERTEX2 329 5.03642797 2.03054482 -1.64529808
VERTEX2 330 4.98202080 1.41541664 -1.66576832
VERTEX2 331 4.92660810 0.79899780 -1.68151133
VERTEX2 332 4.84674192 0.18566838 -1.70149316
VERTEX2 333 4.82491558 0.03133282 -1.63801849
VERTEX2 334 4.83419994 0.03310999 -0.84474855
VERTEX2 335 4.85124671 0.02805446 0.14626896
VERTEX2 336 4.86411286 0.03256291 1.08743994
VERTEX2 337 4.86907434 0.06336468 2.06644302
VERTEX2 338 4.86632141 0.06527539 3.05594449
VERTEX2 339 4.87817305 0.07262723 -2.17728958
VERTEX2 340 4.87834895 0.07124815 -1.15747585
VERTEX2 341 4.99181784 0.00269673 -0.52374074
VERTEX2 342 5.56494447 -0.30241628 -0.42164506
VERTEX2 343 6.14366715 -0.50419180 -0.29001603
VERTEX2 344 6.73314734 -0.68777083 -0.29940623
VERTEX2 345 6.97193394 -0.75816439 -0.32622571
VERTEX2 346 6.95869304 -0.75382549 -0.97179986
VERTEX2 347 6.96111768 -0.84255889 -1.52896179
VERTEX2 348 6.97894743 -1.43349334 -1.54504129
VERTEX2 349 6.97664533 -2.05332943 -1.58463948
VERTEX2 350 6.96342903 -2.84175626 -1.60365753
VERTEX2 351 6.94914786 -3.11584071 -1.63200718
VERTEX2 352 6.94727917 -3.12474894 -1.91882358
VERTEX2 353 6.93554460 -3.13914304 -2.58176275
VERTEX2 354 6.92177882 -3.14309281 3.10033494
VERTEX2 355 6.90155381 -3.14238416 2.38200742
VERTEX2 356 6.89577509 -3.13218094 1.80897212
VERTEX2 357 6.89839343 -3.11650595 1.15833756
VERTEX2 358 6.89939119 -3.11511511 0.54521401
VERTEX2 359 6.88768060 -3.12013868 -0.06648213
VERTEX2 360 6.87308530 -3.11725578 -0.24154716
VERTEX2 361 6.86495570 -3.11938571 0.68113519
VERTEX2 362 6.94990939 -2.88826751 1.21692860
VERTEX2 363 7.05250885 -2.61989734 1.21131012
VERTEX2 364 6.98301400 -2.28354731 1.82805642
VERTEX2 365 6.92734130 -1.99420548 1.33274442
VERTEX2 366 7.03604025 -1.87104873 0.78056124
VERTEX2 367 7.48176977 -1.43562311 0.78339785
VERTEX2 368 7.93817762 -0.99898641 0.73547548
VERTEX2 369 7.95817090 -0.97482674 0.48367239
VERTEX2 370 7.98254723 -0.97092577 -0.10305496
VERTEX2 371 7.98855564 -0.97404028 -0.64849081
VERTEX2 372 8.41733381 -1.32253769 -0.67614915
VERTEX2 373 8.88982553 -1.68729505 -0.67415142
VERTEX2 374 9.36875465 -2.09034233 -0.73527471
VERTEX2 375 9.72839280 -2.41010492 -0.76615411
VERTEX2 376 9.74020237 -2.41732149 -0.07348575
VERTEX2 377 9.79041262 -2.38158140 0.61969314
VERTEX2 378 10.32547946 -1.98379480 0.67260113
VERTEX2 379 10.80480602 -1.55357287 0.75606958
VERTEX2 380 11.24444059 -1.08709783 0.87400234
VERTEX2 381 11.39052528 -0.90708976 1.02242705
VERTEX2 382 11.39178039 -0.90480435 2.06743978
VERTEX2 383 11.38918739 -0.90321753 3.05438292
VERTEX2 384 11.38675607 -0.90552013 -2.26499129
VERTEX2 385 11.38176304 -0.91390412 -1.23481238
VERTEX2 386 11.48572649 -1.04905488 -1.00984235
VERTEX2 387 11.94100475 -1.47083384 -0.67804144
VERTEX2 388 12.40226172 -1.82648119 -0.67126824
VERTEX2 389 12.83823398 -2.20136314 -0.75613802
VERTEX2 390 12.84848784 -2.21034949 -0.28634632
VERTEX2 391 12.66252761 -2.20215956 0.08905555
VERTEX2 392 12.60718523 -2.20274521 1.11811233
VERTEX2 393 12.60808219 -2.13849004 2.35388132
VERTEX2 394 12.54257860 -2.11131692 -2.94865461
VERTEX2 395 12.73468599 -2.01060567 -2.61612052
VERTEX2 396 12.71258520 -2.02188131 -2.61868483
VERTEX2 397 12.67430253 -2.03044351 -2.63223399
VERTEX2 398 12.65811425 -2.04385168 -2.43864758
VERTEX2 399 12.58312937 -2.14940023 -2.14438303
VERTEX2 400 12.22688317 -2.70258209 -2.09693039
VERTEX2 401 11.88120697 -3.24231281 -2.19118159
VERTEX2 402 11.40348260 -3.69613363 -2.46056789
VERTEX2 403 10.88881879 -4.10318710 -2.49603767
VERTEX2 404 10.38331071 -4.45957962 -2.57651123
VERTEX2 405 10.36570267 -4.47516301 -2.04556685
VERTEX2 406 10.36154997 -4.43653602 -1.07227187
VERTEX2 407 10.53953674 -4.69021439 -0.94588634
VERTEX2 408 10.86358066 -5.15199800 -0.98525111
VERTEX2 409 10.99404381 -5.36183380 -1.08638464
VERTEX2 410 10.98596980 -5.32837687 -1.71763064
VERTEX2 411 11.15607310 -4.89883099 -2.57332623
VERTEX2 412 10.60568686 -5.11954883 -2.77821829
VERTEX2 413 9.96982279 -5.33571856 -2.85924534
VERTEX2 414 9.32754389 -5.54042809 -2.75692425
VERTEX2 415 8.72047076 -5.77812656 -2.74941199
VERTEX2 416 8.43200960 -5.90640900 -2.80406637
VERTEX2 417 8.13811449 -5.89051109 3.05567265
VERTEX2 418 7.69786828 -5.84752062 3.01103929
VERTEX2 419 7.69878476 -5.84731699 -2.84014140
VERTEX2 420 7.75014028 -5.82445835 -2.62324557
VERTEX2 421 7.75123600 -5.82274365 -1.65361192
VERTEX2 422 7.74627723 -5.82970522 -0.41182564
VERTEX2 423 7.74751452 -5.82982506 -0.06530236
VERTEX2 424 7.74329207 -5.82989824 -0.06425730
VERTEX2 425 7.73303217 -5.83569997 -0.05183833
VERTEX2 426 7.72864335 -5.83581978 -0.06027616
VERTEX2 427 7.75679274 -5.83726423 -0.05647799
VERTEX2 428 8.41452813 -5.85792842 -0.06132505
VERTEX2 429 9.05477069 -5.90634280 -0.10144303
VERTEX2 430 9.39232567 -5.94613645 -0.14687666
VERTEX2 431 9.36585085 -5.94300237 -0.09429248
VERTEX2 432 9.37480886 -5.94614713 -0.72471885
VERTEX2 433 9.37971951 -5.95286416 -1.40065775
VERTEX2 434 9.34382533 -6.49197796 -1.62810513
VERTEX2 435 9.31259037 -7.13490163 -1.65587649
VERTEX2 436 9.23567640 -7.77518791 -1.66413359
VERTEX2 437 9.18454258 -8.42524686 -1.65565267
VERTEX2 438 9.13361507 -8.89377414 -1.68558390
VERTEX2 439 9.13189304 -8.90028439 -2.12029109
VERTEX2 440 9.13824175 -8.89528405 -2.76172206
VERTEX2 441 9.15427979 -8.89366694 2.90110357
VERTEX2 442 9.16145583 -8.89756618 2.27340049
VERTEX2 443 9.16156517 -8.89939016 1.70805214
VERTEX2 444 9.16448392 -8.88389687 1.11810962
VERTEX2 445 9.16945311 -8.87913731 0.46167938
VERTEX2 446 9.16763155 -8.88027338 0.66399092
VERTEX2 447 9.17906978 -8.85802488 1.29709678
VERTEX2 448 9.32824032 -8.23636184 1.31476289
VERTEX2 449 9.46034642 -7.60021482 1.41627158
VERTEX2 450 9.55369165 -6.96348903 1.43007510
VERTEX2 451 9.60599548 -6.49310124 1.47271154
VERTEX2 452 9.60609238 -6.49208340 1.09467328
VERTEX2 453 9.60278666 -6.49807237 0.47250231
VERTEX2 454 9.86272921 -6.47808044 0.05044255
VERTEX2 455 10.46069733 -6.45329209 0.02986722
VERTEX2 456 11.09220565 -6.44846171 -0.03473313
VERTEX2 457 11.44550257 -6.47074451 -0.12246235
VERTEX2 458 11.44045184 -6.46823741 -0.76837386
VERTEX2 459 11.43187292 -6.43355551 -1.37659797
VERTEX2 460 11.41136965 -6.83204360 -1.63360789
VERTEX2 461 11.34290204 -7.44859556 -1.72154747
VERTEX2 462 11.25563106 -7.95812214 -1.76155150
VERTEX2 463 11.26677599 -7.93627032 -0.92127642
VERTEX2 464 11.52177973 -8.00865960 -0.24315713
VERTEX2 465 12.10517279 -8.14135098 -0.23540138
VERTEX2 466 12.65833675 -8.29231836 -0.29102836
VERTEX2 467 13.22889834 -8.47387623 -0.33447557
VERTEX2 468 13.84393634 -8.69217244 -0.36977210
VERTEX2 469 14.43574222 -8.95767268 -0.45244377
VERTEX2 470 14.89008433 -9.17316458 -0.43330946
VERTEX2 471 14.89869190 -9.17782349 -0.63274789
VERTEX2 472 14.91597469 -9.20190765 -1.26455391
VERTEX2 473 14.91745908 -9.20918214 -1.90427736
VERTEX2 474 14.91590930 -9.21112681 -2.53475666
VERTEX2 475 14.91829886 -9.21079940 -3.10838627
VERTEX2 476 14.92071099 -9.21112629 2.52375459
VERTEX2 477 14.92517469 -9.21985367 1.96437359
VERTEX2 478 14.92593161 -9.22973174 1.33747508
VERTEX2 479 14.92492539 -9.23203865 0.88329803
VERTEX2 480 14.92522569 -9.23136089 1.44546433
VERTEX2 481 14.92159749 -9.21569456 2.44771790
VERTEX2 482 14.92598648 -9.21745611 2.78391731
VERTEX2 483 14.93258635 -9.21984462 2.77856037
VERTEX2 484 14.50655544 -9.06151067 2.81410738
VERTEX2 485 13.90797863 -8.87243731 2.81181395
VERTEX2 486 13.30672610 -8.65936214 2.82136401
VERTEX2 487 12.69680206 -8.47954023 2.84966452
VERTEX2 488 12.08458426 -8.29785004 2.88580907
VERTEX2 489 11.61437922 -8.19002197 2.91626154
VERTEX2 490 11.61905232 -8.18957022 -2.88175083
VERTEX2 491 11.62652884 -8.17971344 -1.94551647
VERTEX2 492 11.60978447 -8.40940405 -1.64243127
VERTEX2 493 11.54793953 -9.01324176 -1.69745369
VERTEX2 494 11.46070917 -9.62438231 -1.75834364
VERTEX2 495 11.39156115 -10.24755948 -1.65118542
VERTEX2 496 11.34777154 -10.87199569 -1.53347112
VERTEX2 497 11.34082005 -11.48990939 -1.61953116
VERTEX2 498 11.27217545 -12.11143420 -1.72135179
VERTEX2 499 11.14151729 -12.73800697 -1.73837944
VERTEX2 500 11.19936987 -13.30478009 -1.40946399
VERTEX2 501 11.27403174 -13.88401323 -1.48157563
VERTEX2 502 11.29807973 -14.57934850 -1.56607736
VERTEX2 503 11.29363379 -15.02611387 -1.58306198
VERTEX2 504 11.29875994 -15.01165203 -0.72666187
VERTEX2 505 11.53641809 -15.03886026 -0.10492318
VERTEX2 506 12.12817182 -15.12087083 -0.25748595
VERTEX2 507 12.70908267 -15.29101477 -0.33604146
VERTEX2 508 13.27791478 -15.50284449 -0.34930995
VERTEX2 509 13.89726796 -15.73653571 -0.40521798
VERTEX2 510 14.25342421 -15.89570240 -0.41911972
VERTEX2 511 14.25167896 -15.87860783 0.45624727
VERTEX2 512 14.27337630 -15.83292749 1.65360101
VERTEX2 513 14.26994118 -15.82278475 2.60910763
VERTEX2 514 14.20233051 -15.80378204 2.83539480
VERTEX2 515 13.59195997 -15.62256243 2.83651289
VERTEX2 516 13.00710785 -15.42824495 2.85242405
VERTEX2 517 12.41429402 -15.27984841 2.88063125
VERTEX2 518 11.82182545 -15.12831799 2.90499534
VERTEX2 519 11.29984805 -15.00410950 2.88931068
VERTEX2 520 11.13194751 -14.96028733 -2.99541281
VERTEX2 521 11.15407735 -14.93592482 -1.99171977
VERTEX2 522 11.08841864 -15.33201757 -1.72742064
VERTEX2 523 10.99656474 -15.95237291 -1.73477835
VERTEX2 524 10.89230377 -16.52658598 -1.77667282
VERTEX2 525 10.78796775 -17.06889986 -1.75298805
VERTEX2 526 10.67138459 -17.63790235 -1.81174208
VERTEX2 527 10.52318655 -18.21711813 -1.84650696
VERTEX2 528 10.34047811 -18.78383176 -1.92243150
VERTEX2 529 10.12785248 -19.38562940 -1.95074445
VERTEX2 530 9.88017711 -19.98466876 -1.98084443
VERTEX2 531 9.61005431 -20.55932594 -2.06068646
VERTEX2 532 9.51191401 -20.74509111 -2.01009740
VERTEX2 533 9.50942397 -20.73293516 -1.01033981
VERTEX2 534 9.51003104 -20.73332191 -0.34330685
VERTEX2 535 9.51340101 -20.73361171 -0.34366437
VERTEX2 536 9.86985675 -20.81758386 -0.21293975
VERTEX2 537 10.47617450 -20.96611198 -0.27093051
VERTEX2 538 11.03579191 -21.13540639 -0.29804051
VERTEX2 539 11.64336931 -21.34451311 -0.36280506
VERTEX2 540 12.22971650 -21.59777457 -0.45569602
VERTEX2 541 12.81644089 -21.82585401 -0.29339162
VERTEX2 542 13.44708199 -21.96788679 -0.23768923
VERTEX2 543 13.56861743 -21.99840154 -0.26735496
VERTEX2 544 13.58982762 -21.99624407 0.36965283
VERTEX2 545 13.61348058 -21.95330972 1.43583746
VERTEX2 546 13.63086694 -21.99860086 2.26286247
VERTEX2 547 13.63914530 -21.99804860 -2.99866587
VERTEX2 548 13.65274141 -21.98933277 -2.07578480
VERTEX2 549 13.65440858 -21.97801868 -1.26918515
VERTEX2 550 13.65320495 -21.95710396 -1.74898724
VERTEX2 551 13.66168220 -21.93994389 -2.37536391
VERTEX2 552 13.68006014 -21.93080217 -3.00782622
VERTEX2 553 13.54315013 -21.87840639 2.69807091
VERTEX2 554 12.95142178 -21.59418733 2.66260960
VERTEX2 555 12.37247352 -21.31906899 2.75147879
VERTEX2 556 11.76856928 -21.10049894 2.88657617
VERTEX2 557 11.16837303 -20.92948887 2.84536554
VERTEX2 558 10.59228044 -20.77231239 2.92639447
VERTEX2 559 10.59967984 -20.77481138 2.51943950
VERTEX2 560 10.59245239 -20.76689939 2.01851197
VERTEX2 561 10.56915684 -20.74427461 2.52374100
VERTEX2 562 10.39067661 -20.74423398 -3.11587567
VERTEX2 563 9.82026276 -20.66567712 2.97549404
VERTEX2 564 9.21523325 -20.57410578 3.02426428
VERTEX2 565 8.62470268 -20.50272668 2.96667795
VERTEX2 566 8.68555594 -20.52167101 -2.53295679
VERTEX2 567 8.59138264 -20.52861447 -1.73954280
VERTEX2 568 8.54010748 -21.03687717 -1.67554380
VERTEX2 569 8.48838111 -21.61219094 -1.71470605
VERTEX2 570 8.41923941 -22.19259680 -1.70995738
VERTEX2 571 8.36651729 -22.54792504 -1.75743246
VERTEX2 572 8.33264159 -22.57266240 -2.00062307
VERTEX2 573 8.29755542 -22.65208602 -1.72429077
VERTEX2 574 8.31804059 -22.68091005 -0.78485402
VERTEX2 575 8.47212107 -22.73130511 0.13627375
VERTEX2 576 8.47146203 -22.73077790 1.16394541
VERTEX2 577 8.46478144 -22.71310718 2.13605274
VERTEX2 578 8.45527630 -22.68095719 1.77189397
VERTEX2 579 8.33055157 -22.02919505 1.78693220
VERTEX2 580 8.16887838 -21.38964250 1.86209672
VERTEX2 581 7.97454410 -20.76606125 1.90449949
VERTEX2 582 7.75275247 -20.15153850 1.94766060
VERTEX2 583 7.62269905 -19.84315545 2.02705907
VERTEX2 584 7.61708939 -19.83227391 2.87099489
VERTEX2 585 7.03316892 -19.69220444 2.98943826
VERTEX2 586 6.43870895 -19.61780770 3.08715410
VERTEX2 587 5.81920461 -19.60712653 3.11271710
VERTEX2 588 5.18874476 -19.58150908 3.11734083
VERTEX2 589 4.65031526 -19.60639704 -3.09048377
VERTEX2 590 4.10098452 -19.65065563 -3.02174789
VERTEX2 591 3.56201623 -19.72974598 -3.02364458
VERTEX2 592 3.01403715 -19.80428435 -3.02637340
VERTEX2 593 2.83644624 -19.82664207 -2.82111516
VERTEX2 594 2.87845544 -19.78141470 -1.90175490
VERTEX2 595 2.76527487 -20.38839644 -1.66890953
VERTEX2 596 2.71271020 -21.01236088 -1.69203481
VERTEX2 597 2.62083925 -21.68701562 -1.73195664
VERTEX2 598 2.51788154 -22.28536895 -1.77410827
VERTEX2 599 2.42947402 -22.66266975 -1.84028050
VERTEX2 600 2.42966270 -22.67881818 -1.03370020
VERTEX2 601 2.46954898 -22.70339565 -0.01550370
VERTEX2 602 2.50422245 -22.68943844 0.99856510
VERTEX2 603 2.46978843 -22.45438233 1.77121741
VERTEX2 604 2.40960771 -21.84178078 1.52713017
VERTEX2 605 2.41890790 -21.19540687 1.60976719
VERTEX2 606 2.37890749 -20.54928865 1.65189707
VERTEX2 607 2.39032817 -19.96072844 1.57093476
VERTEX2 608 2.37746922 -19.57610084 1.61547581
VERTEX2 609 2.37394783 -19.55533806 1.95190838
VERTEX2 610 2.36587748 -19.55241448 2.88481622
VERTEX2 611 1.77034571 -19.40175307 2.88789755
VERTEX2 612 1.29769478 -19.26687752 2.89082327
VERTEX2 613 1.33289852 -19.27764895 -2.92834524
VERTEX2 614 1.33885283 -19.27314896 -1.88990318
VERTEX2 615 1.35062592 -19.75854472 -1.58517242
VERTEX2 616 1.35625895 -20.38034162 -1.63621384
VERTEX2 617 1.21733579 -20.98285398 -1.85311049
VERTEX2 618 1.04709922 -21.58812581 -1.84279848
VERTEX2 619 0.88527944 -22.15891099 -1.84398083
VERTEX2 620 0.70094411 -22.73406695 -1.93985090
VERTEX2 621 0.83017049 -22.40137350 -1.99109927
VERTEX2 622 0.95386287 -22.13774998 -2.06582289
VERTEX2 623 0.95325913 -22.13856604 -2.60232181
VERTEX2 624 0.92367947 -22.13823851 3.03892849
VERTEX2 625 0.88201164 -22.12136843 2.38107296
VERTEX2 626 0.85390278 -22.08905173 1.76368111
VERTEX2 627 0.92693222 -21.71733050 1.35331016
VERTEX2 628 1.10644601 -21.09097300 1.25253160
VERTEX2 629 1.27888870 -20.46394625 1.32359390
VERTEX2 630 1.40520802 -19.85670320 1.40858144
VERTEX2 631 1.47804791 -19.32737809 1.42862690
VERTEX2 632 1.48074235 -19.31154619 2.10435794
VERTEX2 633 1.38247298 -19.30482031 -3.09276841
VERTEX2 634 0.71499804 -19.34138272 -3.06541260
VERTEX2 635 0.06177844 -19.35181289 3.08271000
VERTEX2 636 -0.57999765 -19.32296109 3.06510060
VERTEX2 637 -1.20823290 -19.24836320 2.96578333
VERTEX2 638 -1.60020985 -19.16826506 2.93621023
VERTEX2 639 -2.21069096 -19.06517462 3.01652919
VERTEX2 640 -2.82536318 -18.95586465 2.94861709
VERTEX2 641 -3.42545279 -18.84486487 2.94027137
VERTEX2 642 -4.00122087 -18.70753830 2.89492298
VERTEX2 643 -4.48268454 -18.57090045 2.82745748
VERTEX2 644 -4.48671471 -18.57179804 -2.69896915
VERTEX2 645 -4.52321898 -18.71287330 -1.92148818
VERTEX2 646 -4.66061848 -19.32202164 -1.62611660
VERTEX2 647 -4.61748749 -19.96428352 -1.33726442
VERTEX2 648 -4.39491732 -20.58924883 -1.17097838
VERTEX2 649 -4.22165777 -21.18783955 -1.50857186
VERTEX2 650 -4.32267810 -21.81613127 -1.76592805
VERTEX2 651 -4.34023818 -21.96155164 -0.96650942
VERTEX2 652 -4.27742965 -21.98984899 0.05846369
VERTEX2 653 -4.23137007 -21.94853770 1.08890791
VERTEX2 654 -4.24017255 -21.65225614 1.60208513
VERTEX2 655 -4.25016640 -21.09923445 1.59708223
VERTEX2 656 -4.24889391 -20.49752242 1.58445378
VERTEX2 657 -4.35527100 -19.88630283 1.86109338
VERTEX2 658 -4.54524044 -19.26936653 1.85392686
VERTEX2 659 -4.65971689 -18.77605253 1.78276792
VERTEX2 660 -4.66276750 -18.76076398 2.38287981
VERTEX2 661 -4.84124106 -18.74097306 3.03631996
VERTEX2 662 -5.43469481 -18.68119485 3.10592427
VERTEX2 663 -6.02200832 -18.69521436 -3.07623209
VERTEX2 664 -6.03001523 -18.69314746 -2.55302016
VERTEX2 665 -6.04607157 -18.79447835 -1.71931557
VERTEX2 666 -6.11821046 -19.40264865 -1.68218141
VERTEX2 667 -6.17568666 -19.96867765 -1.67756470
VERTEX2 668 -6.23958714 -20.56215489 -1.65178745
VERTEX2 669 -6.28846938 -21.18738939 -1.67692204
VERTEX2 670 -6.38830691 -21.80480053 -1.73640339
VERTEX2 671 -6.43602905 -22.09717759 -1.68142431
VERTEX2 672 -6.33389066 -21.51644344 -1.77054214
VERTEX2 673 -6.26754576 -21.24979336 -1.90110171
VERTEX2 674 -6.25473384 -21.23628888 -2.54925949
VERTEX2 675 -6.23147473 -21.23138435 3.12529190
VERTEX2 676 -6.22554552 -21.23486133 2.50193936
VERTEX2 677 -6.22102955 -21.24110758 1.88608407
VERTEX2 678 -6.19282478 -21.01898754 1.44013167
VERTEX2 679 -6.12832223 -20.43999392 1.50270367
VERTEX2 680 -6.15554590 -19.99165576 1.84757224
VERTEX2 681 -6.30722722 -19.40009994 1.82005456
VERTEX2 682 -6.47900812 -18.79400042 1.86772457
VERTEX2 683 -6.57106617 -18.51160910 2.02687677
VERTEX2 684 -6.51831483 -18.56547205 3.10682811
VERTEX2 685 -6.92303285 -18.72660336 -2.73258686
VERTEX2 686 -7.37100819 -18.86353115 -2.87676876
VERTEX2 687 -7.96621262 -19.01491169 -2.91172583
VERTEX2 688 -8.56468840 -19.13526101 -2.92345046
VERTEX2 689 -9.12955450 -19.27455738 -2.89573914
VERTEX2 690 -9.66599808 -19.44391734 -2.82151948
VERTEX2 691 -10.06161866 -19.57569657 -2.84950801
VERTEX2 692 -10.04743670 -19.56939190 -2.31523294
VERTEX2 693 -10.02447939 -19.64172996 -1.27477849
VERTEX2 694 -10.00034125 -19.71377826 -0.43927757
VERTEX2 695 -9.98183459 -19.70851133 0.36075771
VERTEX2 696 -9.97562063 -19.70444107 1.38628218
VERTEX2 697 -9.98726891 -19.74274452 1.13332009
VERTEX2 698 -9.65676312 -19.53345604 0.47857292
VERTEX2 699 -9.09289002 -19.21981228 0.59262215
VERTEX2 700 -8.57921457 -18.85731539 0.64616385
VERTEX2 701 -8.14508965 -18.49399452 0.70534598
VERTEX2 702 -7.66556845 -18.17826261 0.59020331
VERTEX2 703 -7.15294606 -17.84121943 0.62447179
VERTEX2 704 -6.65910208 -17.45851729 0.64266556
VERTEX2 705 -6.14817941 -17.03771570 0.71291937
VERTEX2 706 -5.71803134 -16.71970948 0.44394451
VERTEX2 707 -5.69269239 -16.71835054 -0.07628551
VERTEX2 708 -5.68277982 -16.72408083 -0.71474703
VERTEX2 709 -5.72265286 -16.68113091 -1.04682082
VERTEX2 710 -5.72706804 -16.66972121 -1.60792174
VERTEX2 711 -5.71765926 -16.67822071 -2.20463744
VERTEX2 712 -5.69733467 -16.66264982 -2.76505950
VERTEX2 713 -6.17026328 -16.71298147 -3.05040148
VERTEX2 714 -6.72352151 -16.68774988 3.03526994
VERTEX2 715 -7.35019828 -16.65065873 3.13888284
VERTEX2 716 -7.98432284 -16.62849751 3.00085590
VERTEX2 717 -8.60546534 -16.56046768 3.08561696
VERTEX2 718 -9.36740886 -16.44164360 2.91024623
VERTEX2 719 -9.98405679 -16.32617248 2.98471995
VERTEX2 720 -10.59655840 -16.21360516 2.92552286
VERTEX2 721 -11.21398693 -16.09759836 2.99374894
VERTEX2 722 -11.23030747 -16.09526819 3.06045611
VERTEX2 723 -11.25073969 -16.11633051 -2.13275673
VERTEX2 724 -11.25086540 -16.16016863 -1.06385772
VERTEX2 725 -11.22345199 -16.17861023 -0.42948609
VERTEX2 726 -10.89775647 -16.17486935 0.02472381
VERTEX2 727 -10.26004933 -16.13722360 0.05547704
VERTEX2 728 -9.61958820 -16.11384407 0.05687480
VERTEX2 729 -8.98161051 -16.05415705 0.11452905
VERTEX2 730 -8.35819195 -15.96261712 0.15204649
VERTEX2 731 -7.71071517 -15.86316720 0.16426954
VERTEX2 732 -7.56949734 -15.83485412 0.61088351
VERTEX2 733 -7.56846784 -15.83653852 1.60750328
VERTEX2 734 -7.62706014 -15.28008906 1.68562478
VERTEX2 735 -7.68784404 -14.67730369 1.65360241
VERTEX2 736 -7.68861526 -14.66581692 2.25316882
VERTEX2 737 -7.68272575 -14.66659177 3.05396096
VERTEX2 738 -8.26188104 -14.62615873 3.07303884
VERTEX2 739 -8.86506870 -14.53127992 3.01542527
VERTEX2 740 -9.36805025 -14.49118531 3.07870146
VERTEX2 741 -9.34797492 -14.49096100 2.70986918
VERTEX2 742 -9.34814990 -14.49085633 2.05711393
VERTEX2 743 -9.35000530 -14.48266104 1.44033448
VERTEX2 744 -9.34021195 -14.46021564 0.90099865
VERTEX2 745 -9.32011313 -14.44969425 0.30754059
VERTEX2 746 -8.77698895 -14.46770844 -0.16730296
VERTEX2 747 -8.13119235 -14.58194023 -0.20253631
VERTEX2 748 -7.55370850 -14.72424535 -0.27083926
VERTEX2 749 -7.46994243 -14.74505970 0.15842195
VERTEX2 750 -7.45960520 -14.72596213 1.08561106
VERTEX2 751 -7.49458061 -14.45226181 1.72596578
VERTEX2 752 -7.55387151 -13.82560351 1.62265585
VERTEX2 753 -7.59299757 -13.18331340 1.68587415
VERTEX2 754 -7.60202168 -12.53915965 1.52376867
VERTEX2 755 -7.58486150 -11.90579815 1.61023328
VERTEX2 756 -7.54904252 -11.26978789 1.43384234
VERTEX2 757 -7.47593242 -10.62420450 1.54574892
VERTEX2 758 -7.49793201 -10.04465830 1.68797325
VERTEX2 759 -7.48889805 -9.49679158 1.56800170
VERTEX2 760 -7.52960849 -8.88437910 1.67940224
VERTEX2 761 -7.53254174 -8.84524790 1.85980745
VERTEX2 762 -7.60905203 -8.81133271 2.69524387
VERTEX2 763 -8.18359147 -8.71051269 2.98809667
VERTEX2 764 -8.60385625 -8.64049069 2.96057319
VERTEX2 765 -8.59309601 -8.64024589 -2.68314280
VERTEX2 766 -8.59470686 -8.64554522 -1.68276155
VERTEX2 767 -8.58973754 -8.65798671 -0.75184811
VERTEX2 768 -8.56260388 -8.65954178 -0.02944212
VERTEX2 769 -7.92704953 -8.56772660 0.12747283
VERTEX2 770 -7.27443268 -8.50568453 0.06035160
VERTEX2 771 -7.18574760 -8.49790900 0.62084520
VERTEX2 772 -7.18252310 -8.48752864 1.48840543
VERTEX2 773 -7.16088757 -7.90892172 1.57422490
VERTEX2 774 -7.17533644 -7.36193253 1.59634040
VERTEX2 775 -7.17449280 -7.36551710 2.44128983
VERTEX2 776 -7.38399868 -7.34078561 3.05873773
VERTEX2 777 -7.99753545 -7.30100848 3.11779826
VERTEX2 778 -8.61037940 -7.29240285 3.09687684
VERTEX2 779 -9.22642416 -7.27290551 3.11499753
VERTEX2 780 -9.43481847 -7.25550032 2.98478798
VERTEX2 781 -9.43179659 -7.25656869 2.41140119
VERTEX2 782 -9.55967323 -6.98468802 1.98186285
VERTEX2 783 -9.79563268 -6.41167470 1.98127455
VERTEX2 784 -9.89532650 -6.18489008 1.95996245
VERTEX2 785 -9.89626095 -6.16001126 1.40801885
VERTEX2 786 -9.88851480 -6.13438096 0.81971831
VERTEX2 787 -9.87149530 -6.11690434 0.32907038
VERTEX2 788 -9.84487515 -6.11867551 -0.30004356
VERTEX2 789 -9.83444981 -6.12683571 -0.85200045
VERTEX2 790 -9.52762057 -6.52156958 -0.91915845
VERTEX2 791 -9.12236686 -7.00289752 -0.82048214
VERTEX2 792 -8.88274554 -7.21589479 -0.11592393
VERTEX2 793 -8.26713467 -7.26778287 -0.07114499
VERTEX2 794 -7.62716207 -7.29631813 0.00009334
VERTEX2 795 -7.65132514 -7.31410299 0.42953957
VERTEX2 796 -7.65794596 -7.31677299 1.08899063
VERTEX2 797 -7.58372560 -7.00729043 1.34919431
VERTEX2 798 -7.44892527 -6.38074113 1.39936327
VERTEX2 799 -7.36219698 -5.73627295 1.46511947
VERTEX2 800 -7.30846635 -5.08979396 1.53805582
VERTEX2 801 -7.31946579 -4.45798264 1.62401360
VERTEX2 802 -7.37334696 -3.83286190 1.68174943
VERTEX2 803 -7.35600820 -3.20424922 1.51712408
VERTEX2 804 -7.33576138 -2.57689241 1.57306430
VERTEX2 805 -7.36894332 -1.94656036 1.64939256
VERTEX2 806 -7.42886983 -1.34834206 1.69084928
VERTEX2 807 -7.45621457 -1.16366922 1.97895698
VERTEX2 808 -7.46095497 -1.16357622 2.92727045
VERTEX2 809 -8.05253090 -1.13457589 3.07195065
VERTEX2 810 -8.66985788 -1.01122433 2.93180491
VERTEX2 811 -9.26877381 -0.89958377 2.92852983
VERTEX2 812 -9.27108565 -0.89913435 -2.62286996
VERTEX2 813 -9.28074719 -0.92069208 -1.64755129
VERTEX2 814 -9.27455156 -0.92559362 -0.65531522
VERTEX2 815 -9.25032196 -0.93375565 0.26395874
VERTEX2 816 -9.24145150 -0.92890184 0.94511475
VERTEX2 817 -9.23002154 -0.92170773 0.27635220
VERTEX2 818 -9.00779067 -0.95557381 -0.21253571
VERTEX2 819 -8.41682412 -1.08320732 -0.19841049
VERTEX2 820 -7.82342952 -1.21492682 -0.23963872
VERTEX2 821 -7.27752419 -1.34571387 -0.22383844
VERTEX2 822 -7.22826246 -1.35319416 0.53765730
VERTEX2 823 -7.22684107 -1.33815243 1.45690844
VERTEX2 824 -7.16295594 -0.71577752 1.37759444
VERTEX2 825 -7.01887959 -0.09191033 1.34795190
VERTEX2 826 -6.96169524 0.54040447 1.51093272
VERTEX2 827 -6.89769984 1.16446467 1.46231958
VERTEX2 828 -6.84344294 1.79592095 1.49789174
VERTEX2 829 -6.78286735 2.39979957 1.45816302
VERTEX2 830 -6.70834904 3.00900824 1.44985805
VERTEX2 831 -6.61457830 3.58656389 1.40307835
VERTEX2 832 -6.52474405 4.14979938 1.39952545
VERTEX2 833 -6.48089343 4.40534191 1.53719716
VERTEX2 834 -6.48288423 4.41238089 2.59190808
VERTEX2 835 -6.49600294 4.41388246 -2.91357248
VERTEX2 836 -6.50814326 4.40361425 -1.97046411
VERTEX2 837 -6.50475149 4.38516976 -0.93405254
VERTEX2 838 -6.49318581 4.37797516 -0.07181654
VERTEX2 839 -6.49280084 4.37779251 -0.29006813
VERTEX2 840 -6.48193272 4.36928640 -0.85269363
VERTEX2 841 -6.47435125 4.35407205 -1.46975482
VERTEX2 842 -6.50037138 4.10821294 -1.70057234
VERTEX2 843 -6.57829782 3.54434449 -1.70310062
VERTEX2 844 -6.65319921 2.91849411 -1.71112461
VERTEX2 845 -6.74664317 2.29314817 -1.72585469
VERTEX2 846 -6.83218895 1.66358702 -1.72413613
VERTEX2 847 -6.94164804 1.04184248 -1.75089658
VERTEX2 848 -6.97228077 0.84642634 -1.27049731
VERTEX2 849 -6.97157813 0.84617972 -0.34838023
VERTEX2 850 -6.61639178 0.84295510 0.00498279
VERTEX2 851 -5.98913388 0.81742231 -0.08753913
VERTEX2 852 -5.36473673 0.75670376 -0.07314218
VERTEX2 853 -4.76991029 0.71466673 -0.10108017
VERTEX2 854 -4.18270370 0.64732853 -0.09908903
VERTEX2 855 -3.58783145 0.59688371 -0.10089871
VERTEX2 856 -2.93425095 0.51175103 -0.14158359
VERTEX2 857 -2.28184288 0.42293334 -0.15112755
VERTEX2 858 -1.63584538 0.30168521 -0.20564077
VERTEX2 859 -1.11773085 0.19850153 -0.21250006
VERTEX2 860 -1.09161400 0.20928746 0.63829028
VERTEX2 861 -1.07613647 0.31922813 1.55308331
VERTEX2 862 -1.03836254 0.97903767 1.49345836
VERTEX2 863 -0.98150564 1.62342645 1.46097271
VERTEX2 864 -0.89496669 2.23377572 1.45885591
VERTEX2 865 -0.85414939 2.84531808 1.51647947
VERTEX2 866 -0.80985721 3.43134026 1.51535713
VERTEX2 867 -0.80248074 3.59542729 1.69656772
VERTEX2 868 -0.80983333 3.60471217 2.72036622
VERTEX2 869 -0.79922780 3.60486730 -2.58446749
VERTEX2 870 -0.77948932 3.61549519 -1.58500419
VERTEX2 871 -0.76476215 3.60552784 -0.61129044
VERTEX2 872 -0.74633709 3.59224144 0.07397990
VERTEX2 873 -0.71899870 3.58315175 -0.49858585
VERTEX2 874 -0.69773545 3.56396508 -1.05818832
VERTEX2 875 -0.69139952 3.54908178 -1.64469766
VERTEX2 876 -0.81103553 2.99304174 -1.80226255
VERTEX2 877 -0.96295169 2.45107602 -1.88691651
VERTEX2 878 -1.01338558 2.25142471 -1.50395583
VERTEX2 879 -0.91198106 1.61299479 -1.45292810
VERTEX2 880 -0.87625259 1.16398437 -1.56561945
VERTEX2 881 -0.87664808 1.21387370 -1.56027823
VERTEX2 882 -0.93293864 0.57439364 -1.80680463
VERTEX2 883 -1.14843698 -0.02073630 -1.99753315
VERTEX2 884 -1.30682224 -0.35280514 -2.06450441
VERTEX2 885 -1.30679857 -0.35275344 -1.48296080
VERTEX2 886 -1.28969091 -0.36877619 -0.46503097
VERTEX2 887 -1.26118492 -0.37985862 0.54621064
VERTEX2 888 -1.25113117 -0.35870024 1.53024048
VERTEX2 889 -1.25270188 -0.35419742 2.42823074
VERTEX2 890 -1.56828978 -0.20168488 2.70214439
VERTEX2 891 -2.10563847 0.06495839 2.63182645
VERTEX2 892 -2.63935000 0.38414936 2.59626499
VERTEX2 893 -3.19233434 0.67979536 2.83255637
VERTEX2 894 -3.80541222 0.79094759 3.05361919
VERTEX2 895 -4.40499430 0.74203091 -2.93129108
VERTEX2 896 -4.42417225 0.73744841 -2.45277532
VERTEX2 897 -4.70882344 0.31610794 -2.18048295
VERTEX2 898 -5.06085845 -0.19425218 -2.16488073
VERTEX2 899 -5.34793739 -0.60503748 -2.23253287
VERTEX2 900 -5.76191970 -1.15004434 -2.23486077
VERTEX2 901 -6.13420437 -1.59502811 -2.29918161
VERTEX2 902 -6.55105514 -2.08720978 -2.27391165
VERTEX2 903 -6.86783354 -2.46684147 -2.31865193
VERTEX2 904 -6.86875867 -2.46816333 -1.61554244
VERTEX2 905 -6.85531663 -2.96121281 -1.56005986
VERTEX2 906 -6.82182529 -3.53242706 -1.49433158
VERTEX2 907 -6.76603507 -4.10675585 -1.50250553
VERTEX2 908 -6.72019461 -4.72920898 -1.47772653
VERTEX2 909 -6.66009898 -5.34184620 -1.49564965
VERTEX2 910 -6.68791107 -5.47117602 -1.86554557
VERTEX2 911 -6.84838358 -6.04184622 -1.80467916
VERTEX2 912 -6.96982623 -6.60560135 -1.79207326
VERTEX2 913 -7.08233754 -7.14734686 -1.78415484
VERTEX2 914 -7.20881152 -7.73527292 -1.80783042
VERTEX2 915 -7.33270439 -8.24410699 -1.84456509
VERTEX2 916 -7.26823075 -8.48931769 -1.29706923
VERTEX2 917 -7.12936299 -9.13931364 -1.55151633
VERTEX2 918 -7.14984709 -9.65776771 -1.62707620
VERTEX2 919 -7.18382474 -10.28200353 -1.67042331
VERTEX2 920 -7.24872991 -10.89647434 -1.68804297
VERTEX2 921 -7.32248914 -11.51212697 -1.74142748
VERTEX2 922 -7.42547722 -12.11614664 -1.76868418
VERTEX2 923 -7.54609249 -12.68271650 -1.83220174
VERTEX2 924 -7.67853407 -13.17635160 -1.81558339
VERTEX2 925 -7.67920035 -13.17297674 -1.31089772
VERTEX2 926 -7.51926862 -13.73652141 -1.29472267
VERTEX2 927 -7.35255033 -14.32866282 -1.31806125
VERTEX2 928 -7.19496252 -14.93622870 -1.32702865
VERTEX2 929 -7.04393420 -15.54095147 -1.32796698
VERTEX2 930 -6.89698022 -16.17222275 -1.41061755
VERTEX2 931 -6.81113485 -16.79891673 -1.49091191
VERTEX2 932 -6.76545566 -17.42636378 -1.55040795
VERTEX2 933 -6.76254346 -18.03926802 -1.61505414
VERTEX2 934 -6.77759330 -18.52023315 -1.62491658
VERTEX2 935 -6.77483533 -18.53307165 -0.94285558
VERTEX2 936 -6.77273635 -18.53381103 0.00224630
VERTEX2 937 -6.23021124 -18.50927730 0.06510654
VERTEX2 938 -5.63374771 -18.52606790 -0.10832021
VERTEX2 939 -5.00947982 -18.58672578 -0.08062078
VERTEX2 940 -4.39715738 -18.66282274 -0.16648638
VERTEX2 941 -3.79200869 -18.77931860 -0.22014163
VERTEX2 942 -3.27298325 -18.89593512 -0.21564659
VERTEX2 943 -2.66352233 -19.03081128 -0.12731772
VERTEX2 944 -2.05004646 -19.11485603 -0.18397180
VERTEX2 945 -1.42751170 -19.24500700 -0.23908870
VERTEX2 946 -1.25143959 -19.29021408 -0.17475634
VERTEX2 947 -0.84144325 -19.22785425 0.15348805
VERTEX2 948 -0.26724138 -19.13955099 0.13434569
VERTEX2 949 0.33733038 -19.10624013 -0.02131613
VERTEX2 950 0.96914795 -19.14388601 -0.26083675
VERTEX2 951 1.57276269 -19.31857020 -0.33298745
VERTEX2 952 2.17609612 -19.49626867 -0.08220759
VERTEX2 953 2.80735329 -19.52936194 -0.00192938
VERTEX2 954 3.43293200 -19.52338920 -0.00893654
VERTEX2 955 4.02338065 -19.57034910 -0.16977528
VERTEX2 956 4.57501816 -19.65019122 -0.17208309
VERTEX2 957 5.10738290 -19.74779986 -0.25979689
VERTEX2 958 5.57501263 -19.86145443 -0.28654861
VERTEX2 959 6.00769612 -19.98129378 -0.35367049
VERTEX2 960 6.59690501 -20.14525960 -0.27378111
VERTEX2 961 7.17838654 -20.32050305 -0.30082019
VERTEX2 962 7.79585085 -20.45010571 -0.23521420
VERTEX2 963 8.41360637 -20.53193316 -0.04855224
VERTEX2 964 9.03601333 -20.57442469 -0.11245666
VERTEX2 965 9.65400058 -20.65445110 -0.11935820
VERTEX2 966 10.09775495 -20.71358077 -0.17834008
VERTEX2 967 10.13091848 -20.70688766 0.67503682
VERTEX2 968 10.13911286 -20.69915818 1.57174926
VERTEX2 969 10.14144819 -20.72666929 1.63120425
VERTEX2 970 10.14392478 -20.75442010 1.62946063
VERTEX2 971 10.12355810 -20.42095913 1.62958139
VERTEX2 972 10.08503931 -19.83421218 1.63518183
VERTEX2 973 10.16470336 -19.25193408 1.35013341
VERTEX2 974 10.30410852 -18.65007838 1.38189828
VERTEX2 975 10.41564601 -18.04412563 1.38644295
VERTEX2 976 10.52045676 -17.43552545 1.39927420
VERTEX2 977 10.65610443 -16.81736199 1.37298098
VERTEX2 978 10.77698991 -16.20543180 1.41893580
VERTEX2 979 10.89169503 -15.59736753 1.40664337
VERTEX2 980 10.98934277 -14.99246144 1.45354751
VERTEX2 981 11.07788964 -14.39813335 1.46043953
VERTEX2 982 11.13396732 -13.87048636 1.50539521
VERTEX2 983 11.18301158 -13.27170485 1.50200583
VERTEX2 984 11.20966451 -12.67540723 1.55936487
VERTEX2 985 11.21996980 -12.07818475 1.57963810
VERTEX2 986 11.20443313 -11.45739474 1.61596447
VERTEX2 987 11.19118384 -10.83808945 1.57926226
VERTEX2 988 11.19336155 -10.21910476 1.59296200
VERTEX2 989 11.17829625 -9.60488135 1.60057351
VERTEX2 990 11.17109648 -8.99395416 1.58977028
VERTEX2 991 11.15547477 -8.37952931 1.61458572
VERTEX2 992 11.15009761 -7.79301320 1.58199833
VERTEX2 993 11.13610860 -7.17706750 1.61476286
VERTEX2 994 11.11950614 -6.59188435 1.60484052
VERTEX2 995 11.08702990 -5.99216632 1.65212662
VERTEX2 996 11.02650661 -5.37733012 1.67926493
VERTEX2 997 10.98098534 -4.72392146 1.61485497
VERTEX2 998 10.96079360 -4.31282069 1.63671824
VERTEX2 999 10.98329831 -4.33103502 2.35457518
VERTEX2 1000 10.51560451 -3.96688619 2.50323857
VERTEX2 1001 10.07148797 -3.56212637 2.18232421
VERTEX2 1002 9.70066766 -3.08533131 2.27502545
VERTEX2 1003 9.34719873 -2.58110828 2.09546716
VERTEX2 1004 9.00865541 -2.04473087 2.15369631
VERTEX2 1005 8.65539808 -1.55078038 2.21612469
VERTEX2 1006 8.26003042 -1.07308585 2.29350392
VERTEX2 1007 7.84778815 -0.64742453 2.38517286
VERTEX2 1008 7.61254267 -0.43296698 2.54470942
VERTEX2 1009 7.51516597 -0.41823280 3.01777956
VERTEX2 1010 6.94805149 -0.36247233 3.07032850
VERTEX2 1011 6.33178173 -0.32329528 3.02727140
VERTEX2 1012 5.72176451 -0.26013330 3.06922009
VERTEX2 1013 5.08503790 -0.26280436 -3.09895654
VERTEX2 1014 4.47153935 -0.21481364 3.00897879
VERTEX2 1015 3.84600045 -0.17547416 3.09348222
VERTEX2 1016 3.07583460 -0.13789551 3.10023848
VERTEX2 1017 2.49019292 -0.12444985 3.04307742
VERTEX2 1018 1.93214169 -0.06252255 3.05036677
VERTEX2 1019 1.33696974 -0.03794283 3.10990763
VERTEX2 1020 0.72156048 -0.00186122 3.09595155
VERTEX2 1021 0.10025102 0.02735452 3.05534189
VERTEX2 1022 0.04652242 0.03180519 3.04810706
VERTEX2 1023 0.05318993 0.03167634 3.13469026
VERTEX2 1024 -0.57399187 0.03954493 -3.12217334
VERTEX2 1025 -1.20334953 0.00912833 -3.10461268
VERTEX2 1026 -1.36501187 0.00365157 -3.09744958
VERTEX2 1027 -1.34925958 0.01136536 -2.18096452
VERTEX2 1028 -1.36244537 -0.15495175 -1.61753109
VERTEX2 1029 -1.39135212 -0.72106360 -1.63910067
VERTEX2 1030 -1.45524875 -1.34267339 -1.71955569
VERTEX2 1031 -1.56836294 -1.98829648 -1.77373706
VERTEX2 1032 -1.69942283 -2.63395415 -1.76971849
VERTEX2 1033 -1.84351940 -3.27838153 -1.81489077
VERTEX2 1034 -1.88838487 -3.44949247 -2.02869712
VERTEX2 1035 -1.89384775 -3.45409136 -2.64804523
VERTEX2 1036 -1.86257777 -3.46853986 3.06430203
VERTEX2 1037 -2.20215289 -3.33906982 2.82588385
VERTEX2 1038 -2.81324416 -3.21664027 2.91707398
VERTEX2 1039 -3.45127545 -3.04686862 2.88552314
VERTEX2 1040 -3.42543124 -3.04750277 -2.76764612
VERTEX2 1041 -3.39623374 -3.05136024 -1.75081585
VERTEX2 1042 -3.39808627 -3.08475830 -0.76299786
VERTEX2 1043 -3.36410737 -3.11608845 0.20646739
VERTEX2 1044 -3.37788904 -3.13233439 1.20016754
VERTEX2 1045 -3.38120742 -3.13963212 1.08611910
VERTEX2 1046 -3.39196741 -3.15408539 0.70055050
VERTEX2 1047 -3.41098870 -3.16235559 0.14473575
VERTEX2 1048 -3.04820978 -3.23186023 -0.16828605
VERTEX2 1049 -2.40252187 -3.33071823 -0.15114219
VERTEX2 1050 -1.75509939 -3.40180748 -0.07547528
VERTEX2 1051 -1.09926124 -3.47582629 -0.15462165
VERTEX2 1052 -0.47499140 -3.55736608 -0.10166922
VERTEX2 1053 -0.05727845 -3.61216962 -0.15429772
VERTEX2 1054 -0.03043721 -3.61502493 0.60787426
VERTEX2 1055 -0.02429427 -3.58630865 1.66319044
VERTEX2 1056 -0.01509803 -3.59983190 2.66684758
VERTEX2 1057 0.01031763 -3.60268612 -2.62552004
VERTEX2 1058 0.00816402 -3.60520874 -1.70336907
VERTEX2 1059 -0.09087263 -4.18817916 -1.78412356
VERTEX2 1060 -0.22880399 -4.81839704 -1.77912532
VERTEX2 1061 -0.33705358 -5.26482019 -1.90166383
VERTEX2 1062 -0.34056859 -5.27021510 -2.46589113
VERTEX2 1063 -0.31932456 -5.25812666 -3.06361814
VERTEX2 1064 -0.59944910 -5.20476260 2.95431792
VERTEX2 1065 -1.18675506 -5.13627082 3.07628889
VERTEX2 1066 -1.74957591 -5.08249999 3.02018295
VERTEX2 1067 -1.73491398 -5.08177288 -2.83032269
VERTEX2 1068 -1.72240622 -5.07303461 -2.15751658
VERTEX2 1069 -1.72182343 -5.07147741 -1.98713278
VERTEX2 1070 -1.72038820 -5.06897143 -2.52607782
VERTEX2 1071 -2.19282859 -5.32393948 -2.65328841
VERTEX2 1072 -2.64341095 -5.55548791 -2.72194721
VERTEX2 1073 -2.61411117 -5.55480298 3.05009831
VERTEX2 1074 -3.14364433 -5.48180170 3.01573841
VERTEX2 1075 -3.72081846 -5.40431399 3.03230402
VERTEX2 1076 -3.73956530 -5.40290838 -2.84671143
VERTEX2 1077 -3.75277025 -5.42772020 -2.04101659
VERTEX2 1078 -3.99255043 -6.03729968 -1.99588527
VERTEX2 1079 -4.22659931 -6.60384200 -1.93378790
VERTEX2 1080 -4.23148282 -6.61682474 -2.42143561
VERTEX2 1081 -4.65973301 -6.90824223 -2.54471085
VERTEX2 1082 -4.83008273 -7.02662813 -2.26413265
VERTEX2 1083 -4.82574180 -7.06039270 -1.23401878
VERTEX2 1084 -4.75493206 -7.09701249 -0.26872424
VERTEX2 1085 -4.75987500 -7.09832372 0.71479588
VERTEX2 1086 -4.39921817 -6.61085888 0.94545302
VERTEX2 1087 -4.01919937 -6.10559881 0.93349130
VERTEX2 1088 -3.65782595 -5.59602959 0.91685038
VERTEX2 1089 -3.60234310 -5.52473978 0.82146470
VERTEX2 1090 -3.59252394 -5.51581723 0.20657795
VERTEX2 1091 -3.05517071 -5.48537345 0.02980230
VERTEX2 1092 -2.43650829 -5.47197268 0.01473721
VERTEX2 1093 -1.86787691 -5.47666003 -0.05025078
VERTEX2 1094 -1.85521272 -5.48878734 -0.45421326
VERTEX2 1095 -1.82490165 -5.51580738 -1.04378738
VERTEX2 1096 -1.82495229 -5.51570048 -1.61486465
VERTEX2 1097 -1.90896549 -5.84010998 -1.83022594
VERTEX2 1098 -2.08755365 -6.43584466 -1.88701480
VERTEX2 1099 -2.29645409 -6.99575581 -1.98306867
VERTEX2 1100 -2.30205393 -7.00979635 -1.61995229
VERTEX2 1101 -2.24451085 -7.27266726 -1.35402711
VERTEX2 1102 -2.24521299 -7.28070066 -1.74767488
VERTEX2 1103 -2.37480934 -7.88897237 -1.78143360
VERTEX2 1104 -2.51531841 -8.52350613 -1.80910253
VERTEX2 1105 -2.67302142 -9.14402116 -1.82696608
VERTEX2 1106 -2.80082088 -9.61953449 -1.85216282
VERTEX2 1107 -2.80020913 -9.62693372 -1.59599060
VERTEX2 1108 -2.77243279 -10.25269075 -1.58811198
VERTEX2 1109 -2.82929906 -10.89566259 -1.69199072
VERTEX2 1110 -2.90808233 -11.50226849 -1.74145484
VERTEX2 1111 -3.08149975 -12.02962351 -1.84266649
VERTEX2 1112 -3.11965741 -12.60800098 -1.49613814
VERTEX2 1113 -3.08838183 -13.24671116 -1.59143946
VERTEX2 1114 -3.10035024 -13.86277361 -1.57433833
VERTEX2 1115 -3.09942897 -14.44552008 -1.59045837
VERTEX2 1116 -3.08961074 -15.09344865 -1.55412928
VERTEX2 1117 -3.08711035 -15.19052467 -1.68181034
VERTEX2 1118 -3.08552403 -15.18758425 -2.28883671
VERTEX2 1119 -3.07622980 -15.18119810 -2.72034123
VERTEX2 1120 -3.63945168 -15.38498551 -2.78388137
VERTEX2 1121 -3.82886292 -15.45118623 -2.90237076
VERTEX2 1122 -3.82458371 -15.45266276 2.83066965
VERTEX2 1123 -4.37363668 -15.26693993 2.84767726
VERTEX2 1124 -4.93069074 -15.13743002 2.94651795
VERTEX2 1125 -5.55560568 -15.01115941 2.96010498
VERTEX2 1126 -5.63549877 -14.99819087 -2.98320581
VERTEX2 1127 -5.63122520 -15.00275961 -1.92568492
VERTEX2 1128 -5.63013328 -14.99749657 -0.93808916
VERTEX2 1129 -5.61292807 -15.00714229 0.07776032
VERTEX2 1130 -5.02358878 -14.94307366 0.09157069
VERTEX2 1131 -4.24981343 -15.06917819 -0.33999569
VERTEX2 1132 -3.63941720 -15.28752409 -0.35952756
VERTEX2 1133 -3.09293795 -15.51639682 -0.39806294
VERTEX2 1134 -2.84013331 -15.62298956 -0.49488936
VERTEX2 1135 -2.82944900 -15.63350954 -1.05057393
VERTEX2 1136 -2.82893096 -15.63241455 -1.61217885
VERTEX2 1137 -2.88339342 -15.93447023 -1.79597907
VERTEX2 1138 -3.03911967 -16.56693943 -1.81207406
VERTEX2 1139 -3.15924022 -17.06223926 -1.88508918
VERTEX2 1140 -3.14944061 -17.03889244 -2.36364897
VERTEX2 1141 -3.12817578 -17.01831271 -2.91058860
VERTEX2 1142 -3.49144625 -16.97395774 3.00861143
VERTEX2 1143 -4.08972033 -16.92566255 3.09821097
VERTEX2 1144 -4.67094505 -16.88983680 3.06777587
VERTEX2 1145 -5.24970210 -16.84278427 3.04248899
VERTEX2 1146 -5.82605564 -16.78410023 3.06240918
VERTEX2 1147 -6.40593916 -16.77261485 3.13531346
VERTEX2 1148 -6.98459570 -16.76873091 -3.13784080
VERTEX2 1149 -7.02750018 -16.76993546 -2.63959473
VERTEX2 1150 -7.12000359 -16.87224559 -1.82989919
VERTEX2 1151 -7.11812040 -16.88330924 -0.82594162
VERTEX2 1152 -7.10125392 -16.88364077 0.22732497
VERTEX2 1153 -7.08668931 -16.87709279 1.24024828
VERTEX2 1154 -7.14510393 -16.55984366 1.78632194
VERTEX2 1155 -7.27647900 -15.93505393 1.73698178
VERTEX2 1156 -7.37203293 -15.32895627 1.74700914
VERTEX2 1157 -7.49755134 -14.75750579 1.85813295
VERTEX2 1158 -7.62218973 -14.15501911 1.72959280
VERTEX2 1159 -7.68107952 -13.55147217 1.63560761
VERTEX2 1160 -7.70185794 -12.91149119 1.49891346
VERTEX2 1161 -7.60028293 -12.28009676 1.40926217
VERTEX2 1162 -7.50696006 -11.64837217 1.46740997
VERTEX2 1163 -7.44257558 -11.00555314 1.46198693
VERTEX2 1164 -7.39252200 -10.36463400 1.54746133
VERTEX2 1165 -7.38027966 -9.82526153 1.52466010
VERTEX2 1166 -7.38092838 -9.82208595 2.01367083
VERTEX2 1167 -7.32892057 -9.80954196 2.95038805
VERTEX2 1168 -7.28419347 -9.79184149 -2.42926682
VERTEX2 1169 -7.28827251 -9.84354891 -1.60718515
VERTEX2 1170 -7.29929814 -10.42989262 -1.60043630
VERTEX2 1171 -7.29996622 -11.06501972 -1.56864841
VERTEX2 1172 -7.30503911 -11.66419144 -1.63105437
VERTEX2 1173 -7.33576139 -12.28800422 -1.62190035
VERTEX2 1174 -7.38041257 -12.91697671 -1.69060057
VERTEX2 1175 -7.46730681 -13.53070028 -1.72400226
VERTEX2 1176 -7.56569926 -14.15183516 -1.76767934
VERTEX2 1177 -7.68624280 -14.76087251 -1.76563928
VERTEX2 1178 -7.81836003 -15.37380669 -1.81285968
VERTEX2 1179 -7.95694302 -15.97859132 -1.78352418
VERTEX2 1180 -8.01171866 -16.23270919 -1.79052290
VERTEX2 1181 -8.01096796 -16.22751702 -0.96312436
VERTEX2 1182 -7.95478276 -16.24188928 -0.25146338
VERTEX2 1183 -7.34080371 -16.39201892 -0.22617615
VERTEX2 1184 -6.70752510 -16.50802823 -0.15668089
VERTEX2 1185 -6.07915288 -16.61960440 -0.18898904
VERTEX2 1186 -5.44718159 -16.71572142 -0.12286913
VERTEX2 1187 -4.79286901 -16.80250568 -0.16003615
VERTEX2 1188 -4.16514641 -16.89367671 -0.14200915
VERTEX2 1189 -3.50033403 -17.00249756 -0.12035544
VERTEX2 1190 -3.16714011 -17.04344550 -0.11236525
VERTEX2 1191 -3.13301019 -17.04274523 0.80780100
VERTEX2 1192 -3.12716795 -16.95919416 1.60535982
VERTEX2 1193 -3.12022431 -16.35928244 1.47331975
VERTEX2 1194 -3.07872034 -15.78507364 1.51535708
VERTEX2 1195 -3.05002221 -15.16157780 1.56768936
VERTEX2 1196 -3.04401856 -14.53790941 1.39503970
VERTEX2 1197 -2.94047683 -13.92312330 1.40630872
VERTEX2 1198 -2.86995422 -13.29645074 1.66517688
VERTEX2 1199 -2.88714361 -12.68417233 1.45051206
VERTEX2 1200 -2.83001585 -12.05423028 1.51954069
VERTEX2 1201 -2.80515647 -11.43460788 1.57538199
VERTEX2 1202 -2.81553718 -10.81223611 1.59833846
VERTEX2 1203 -2.84613057 -10.22282239 1.50842403
VERTEX2 1204 -2.73179056 -9.63102289 1.36164886
VERTEX2 1205 -2.62331401 -9.06829955 1.39122302
VERTEX2 1206 -2.53774648 -8.47854947 1.45245443
VERTEX2 1207 -2.40018590 -7.86748049 1.36635828
VERTEX2 1208 -2.28750107 -7.24269533 1.43103890
VERTEX2 1209 -2.20029211 -6.62127645 1.42909663
VERTEX2 1210 -2.13518687 -6.00403965 1.44966350
VERTEX2 1211 -2.00898517 -5.39154091 1.37667260
VERTEX2 1212 -1.89388596 -4.77930097 1.42655148
VERTEX2 1213 -1.82646029 -4.16504602 1.49968107
VERTEX2 1214 -1.74436941 -3.43887928 1.27679644
VERTEX2 1215 -1.57980540 -2.85443516 1.33566706
VERTEX2 1216 -1.52936742 -2.30054975 1.55277521
VERTEX2 1217 -1.49501192 -1.72006545 1.53330274
VERTEX2 1218 -1.48113287 -1.12992495 1.48263374
VERTEX2 1219 -1.43034558 -0.48088394 1.51323174
VERTEX2 1220 -1.42323664 0.10617546 1.60396974
VERTEX2 1221 -1.42269368 0.10434646 1.15121674
VERTEX2 1222 -1.41271376 0.11406047 0.55390974
VERTEX2 1223 -1.40087931 0.11685904 -0.00571726
VERTEX2 1224 -0.82692789 0.02451212 -0.18862526
VERTEX2 1225 -0.21159413 -0.08897831 -0.17486126
VERTEX2 1226 -0.10673320 -0.10761431 -0.19159226
VERTEX2 1227 -0.10673320 -0.10761431 -0.19225426
