1 32 123 2 49.51168885 0.00000324 1 
2 88 125 2 315.91100704 0.00000204 1 
3 19 166 0 0.41485034 0.00209609 5 
4 19 172 0 0.02820697 0.00187004 4 
5 25 172 0 0.50366199 0.00187516 4 
6 7 172 2 421.82878862 0.00000195 4 
7 25 178 0 0.30831851 0.00198120 4 
8 32 178 0 0.01493521 0.00198461 4 
9 32 183 0 0.07055611 0.00200956 4 
10 44 189 0 0.52863102 0.00207426 4 
11 51 189 2 915.23403607 0.00000201 4 
12 44 195 0 0.35755137 0.00216891 4 
13 50 195 0 0.00572854 0.00219426 4 
14 50 201 0 0.04110605 0.00190364 3 
15 50 203 0 0.06975183 0.00187844 3 
16 61 203 0 0.00745912 0.00189453 3 
17 61 209 0 0.37222863 0.00231107 4 
18 67 209 0 0.41032090 0.00232485 4 
19 67 220 0 0.66144083 0.00250131 4 
20 81 220 0 0.48035877 0.00284960 5 
21 86 223 2 5290.46891314 0.00000261 1 
22 125 224 2 16.70948347 0.00000282 1 
23 81 226 0 0.05402805 0.00255952 4 
24 87 226 0 1.82553139 0.00294056 5 
25 87 231 0 0.34656585 0.00262109 4 
26 94 231 0 0.55778528 0.00256431 4 
27 226 231 0 1.44127402 0.00298176 5 
28 129 231 2 784.43620478 0.00000218 5 
29 187 234 2 2160.95209639 0.00000229 1 
30 94 241 0 1.33132047 0.00268601 4 
31 101 241 0 0.50961029 0.00271682 4 
32 178 241 2 3566.91282080 0.00000232 4 
33 101 247 0 1.66454674 0.00276388 4 
34 107 247 0 1.80094617 0.00278440 4 
35 107 254 0 1.18346605 0.00284333 4 
36 114 254 0 0.12939160 0.00286104 4 
37 107 256 0 0.93085039 0.00284772 4 
38 114 256 0 0.24629796 0.00285594 4 
39 107 258 0 1.37911724 0.00289681 4 
40 114 258 0 1.15747212 0.00292396 4 
41 78 264 2 1333.55267031 0.00000265 1 
42 120 265 2 713.46421332 0.00000223 1 
43 121 266 0 0.00938596 0.00300904 4 
44 126 266 0 0.44864328 0.00354166 5 
45 126 272 0 1.03992836 0.00309590 4 
46 132 272 0 0.39070916 0.00364690 5 
47 132 278 0 0.58358145 0.00317541 4 
48 138 278 0 1.06458780 0.00373296 5 
49 138 284 0 0.02201259 0.00271032 3 
50 151 284 0 0.12777228 0.00328444 4 
51 141 287 2 1456.28299483 0.00000258 1 
52 211 288 2 1439.81703952 0.00000256 1 
53 151 291 0 0.60037557 0.00331595 4 
54 151 297 0 0.07972289 0.00285018 3 
55 157 297 0 1.04991834 0.00344651 4 
56 166 297 0 1.30507781 0.00337825 4 
57 19 305 0 0.16044642 0.00357136 4 
58 157 305 0 0.58687353 0.00360397 4 
59 163 305 0 7.56485476 0.00483892 6 
60 166 305 0 0.37495035 0.00359885 4 
61 172 305 0 0.01886255 0.00360450 4 
62 78 310 2 1270.43479821 0.00000235 1 
63 19 315 0 0.48455906 0.00310212 3 
64 25 315 0 0.02281386 0.00310818 3 
65 172 315 0 0.05679715 0.00372785 4 
66 145 317 2 2172.24377601 0.00000248 1 
67 172 328 0 0.12482725 0.00324927 3 
68 243 331 2 902.40784760 0.00000283 1 
69 19 337 0 6.63404991 0.00465475 5 
70 25 337 0 0.96522419 0.00399903 4 
71 172 337 0 0.57611560 0.00333688 3 
72 79 341 2 681.76731946 0.00000254 1 
73 19 342 0 0.00494520 0.00338629 3 
74 25 342 0 0.12855172 0.00406412 4 
75 172 342 0 0.01223902 0.00411674 4 
76 178 342 0 0.12442988 0.00417625 4 
77 169 347 2 2194.63307306 0.00000335 1 
78 256 361 2 624.46887348 0.00000318 1 
79 318 364 2 980.32314577 0.00000288 1 
80 25 367 0 0.11414782 0.00379107 3 
81 32 367 0 0.01267433 0.00595334 6 
82 178 367 0 0.00286807 0.00376180 3 
83 183 367 0 0.06698524 0.00374957 3 
84 115 369 2 3703.50055982 0.00000336 1 
85 25 374 0 0.56424690 0.00459230 4 
86 32 374 0 0.09892849 0.00533436 5 
87 178 374 0 0.03055075 0.00458378 4 
88 183 374 0 0.05309447 0.00459284 4 
89 264 378 2 586.51974082 0.00000329 1 
90 32 382 0 4.14688582 0.00392567 3 
91 183 382 0 1.28811506 0.00465338 4 
92 32 387 0 2.72468715 0.00473253 4 
93 183 387 0 0.18197642 0.00473697 4 
94 112 395 2 537.83986728 0.00000375 1 
95 258 395 2 715.39757390 0.00000200 1 
96 401 405 2 751.48597085 0.00000300 1 
97 189 414 0 7.69047346 0.00585795 5 
98 252 417 2 443.83735945 0.00000417 1 
99 214 429 2 227.38306023 0.00000337 1 
100 44 437 0 0.00915802 0.00438965 3 
101 195 437 0 0.01161094 0.00438068 3 
102 310 440 2 1433.95535440 0.00000402 1 
103 44 454 0 0.65644164 0.00452508 3 
104 189 454 0 0.03962740 0.00541621 4 
105 44 467 0 0.12345281 0.00641261 5 
106 50 467 0 0.00895575 0.01024314 9 
107 195 467 0 0.00230988 0.00464409 3 
108 205 483 2 252.71418857 0.00000374 1 
109 195 484 0 0.09447226 0.00575286 4 
110 223 484 2 1788.49353874 0.00000250 4 
111 44 494 0 0.02880924 0.00577467 4 
112 50 494 0 0.00628832 0.00482976 3 
113 195 494 0 0.00818961 0.00682806 5 
114 201 494 0 0.00469852 0.00683483 5 
115 133 496 2 3902.43985924 0.00000428 1 
116 50 500 0 0.14406209 0.00695730 5 
117 201 500 0 0.05353930 0.00491054 3 
118 203 500 0 0.03252445 0.00489298 3 
119 153 500 2 5903.76392731 0.00000327 3 
120 471 503 2 628.41796129 0.00000345 1 
121 10 503 2 1590.40113934 0.00000232 1 
122 86 507 2 1519.93673603 0.00000365 1 
123 61 508 0 0.99413579 0.00712546 5 
124 203 508 0 0.26947301 0.01238102 10 
125 209 508 0 0.03711473 0.00605481 4 
126 367 513 2 248.37295742 0.00000342 1 
127 461 517 2 766.02412339 0.00000261 1 
128 365 518 2 486.09680059 0.00000236 1 
129 193 520 2 695.43698769 0.00000297 1 
130 461 521 2 183.27945554 0.00000256 1 
131 360 521 2 342.21494213 0.00000142 1 
132 61 522 0 1.37942234 0.00614457 4 
133 203 522 0 0.12859200 0.00511809 3 
134 209 522 0 0.00542469 0.00514357 3 
135 289 523 2 2317.17758980 0.00000283 1 
136 26 524 2 1195.46290775 0.00000237 1 
137 61 528 0 0.47936102 0.00513229 3 
138 67 528 0 0.22419307 0.00627858 4 
139 81 528 0 0.23233822 0.00846095 6 
140 209 528 0 0.09444678 0.01063206 8 
141 220 528 0 0.13668760 0.00623564 4 
142 180 529 2 2313.13527168 0.00000305 1 
143 172 530 2 2082.61436907 0.00000306 1 
144 67 532 0 0.05459173 0.01179044 9 
145 81 532 0 0.11826401 0.00847068 6 
146 220 532 0 0.05648169 0.00634140 4 
147 497 532 2 101.20543711 0.00000244 4 
148 345 538 2 1433.71342313 0.00000333 1 
149 81 539 2 4255.87188410 0.00000265 1 
150 285 542 2 1591.97941252 0.00000318 1 
151 67 556 0 0.98233216 0.00649251 4 
152 52 563 2 829.20527097 0.00000318 1 
153 67 564 0 0.40168838 0.01233682 9 
154 81 564 0 0.02280941 0.00664089 4 
155 220 564 0 0.02684857 0.00665748 4 
156 495 564 2 1837.53396351 0.00000256 4 
157 221 564 2 8486.24117856 0.00000118 4 
158 67 567 0 2.67253169 0.00779861 5 
159 81 567 0 0.48923871 0.00901834 6 
160 220 567 0 0.21723258 0.00665380 4 
161 67 570 0 2.40706627 0.00909593 6 
162 81 570 0 0.15671702 0.00903351 6 
163 220 570 0 0.13379867 0.00674184 4 
164 81 575 0 2.76594993 0.00792822 5 
165 220 575 0 1.08612706 0.01037084 7 
166 380 577 2 1016.66232205 0.00000272 1 
167 299 580 2 761.38410724 0.00000330 1 
168 295 580 2 1925.40375701 0.00000108 1 
169 76 580 2 2177.59384919 0.00000115 1 
170 207 586 2 3040.19582630 0.00000340 1 
171 81 588 0 0.01497138 0.00568573 3 
172 87 588 0 0.47937722 0.00818044 5 
173 226 588 0 0.43156268 0.00693620 4 
174 402 595 2 143.56675460 0.00000449 1 
175 87 597 0 2.27648751 0.00958005 6 
176 94 597 0 0.38888315 0.00699304 4 
177 226 597 0 0.55079633 0.00833227 5 
178 264 600 2 169.34183596 0.00000359 1 
179 577 603 2 168.58006145 0.00000272 1 
180 87 604 0 0.47149562 0.00709951 4 
181 94 604 0 0.01542269 0.00839494 5 
182 54 605 2 1127.96782166 0.00000316 1 
183 478 606 2 1519.83210953 0.00000288 1 
184 314 606 2 1503.43768154 0.00000106 1 
185 94 616 0 0.01350372 0.01233139 8 
186 128 622 2 934.90647500 0.00000422 1 
187 276 631 2 2145.97706929 0.00000426 1 
188 475 631 2 673.16983268 0.00000130 1 
189 94 632 0 2.16969694 0.00877823 5 
190 94 637 0 4.44236402 0.01005733 6 
191 101 637 0 0.19098383 0.00750949 4 
192 238 639 2 746.35674448 0.00000444 1 
193 101 642 0 0.11555601 0.00887167 5 
194 107 642 0 0.04025021 0.01407915 9 
195 101 645 0 6.69527511 0.00761094 4 
196 107 645 0 1.54205090 0.00751308 4 
197 200 654 2 397.12698001 0.00000379 1 
198 101 657 0 0.73548669 0.01667209 10 
199 292 657 2 1393.05911498 0.00000340 10 
200 182 658 2 2623.70111402 0.00000407 10 
201 101 663 0 0.04971914 0.01671638 10 
202 107 663 0 0.01781179 0.00915354 5 
203 114 663 0 0.00275957 0.00917644 5 
204 271 663 2 3486.67225040 0.00000376 5 
205 101 665 0 1.55112265 0.01344603 8 
206 107 665 0 0.47667103 0.00779500 4 
207 114 665 0 0.13329170 0.00649601 3 
208 569 666 2 5043.53369518 0.00000371 1 
209 537 670 2 769.59372524 0.00000366 1 
210 107 680 0 1.48615866 0.00937162 5 
211 486 682 2 1143.49132943 0.00000358 1 
212 107 683 0 0.94462224 0.00801043 4 
213 114 683 0 0.32178225 0.00952007 5 
214 247 688 2 1253.64417094 0.00000349 1 
215 430 692 2 1138.89391877 0.00000375 1 
216 132 692 2 821.27950274 0.00000110 1 
217 111 697 2 366.60724890 0.00000341 1 
218 107 704 0 0.34268109 0.01258722 7 
219 114 704 0 0.07528002 0.01551332 9 
220 645 708 2 4071.65907749 0.00000438 1 
221 582 709 2 1551.36350429 0.00000344 1 
222 307 711 2 1404.99425848 0.00000337 1 
223 107 714 0 1.79639085 0.01131715 6 
224 114 714 0 0.02860377 0.01437012 8 
225 673 716 2 3092.71418392 0.00000453 1 
226 158 722 2 2074.60273749 0.00000401 1 
227 457 722 2 856.24021839 0.00000113 1 
228 283 722 2 2959.05370947 0.00000178 1 
229 208 722 2 1552.62996157 0.00000108 1 
230 107 730 0 0.19656714 0.01013795 5 
231 114 730 0 0.03540690 0.00856342 4 
232 253 737 2 427.13436654 0.00000383 1 
233 372 739 2 1423.98508154 0.00000361 1 
234 555 740 2 250.33476193 0.00000356 1 
235 112 742 2 917.90275128 0.00000302 1 
236 7 746 2 750.99007121 0.00000432 1 
237 96 750 2 79.12246405 0.00000421 1 
238 121 754 0 0.33113739 0.00874950 4 
239 126 754 0 0.07673382 0.01511133 8 
240 225 754 2 1092.27829744 0.00000342 8 
241 231 755 2 782.48821359 0.00000370 1 
242 190 756 2 1756.67126941 0.00000311 1 
243 121 759 0 2.33625684 0.01193754 6 
244 126 759 0 0.22329988 0.01201238 6 
245 126 762 0 7.08482229 0.01038580 5 
246 132 762 0 2.00372045 0.01531915 8 
247 5 764 2 367.55812745 0.00000401 1 
248 382 765 2 1542.23881992 0.00000362 1 
249 411 771 2 280.63313281 0.00000436 1 
250 420 773 2 533.80330960 0.00000378 1 
251 186 776 2 917.00616064 0.00000362 1 
252 132 778 0 0.06999780 0.00902293 4 
253 351 783 2 176.43021456 0.00000507 1 
254 132 792 0 1.26802734 0.00927909 4 
255 319 793 2 1336.97358141 0.00000470 1 
256 20 793 2 1853.06738864 0.00000127 1 
257 589 798 2 3976.00107534 0.00000439 1 
258 132 800 0 3.35686460 0.00922501 4 
259 138 800 0 0.14494330 0.01254537 6 
260 167 800 2 2513.00120242 0.00000422 6 
261 260 805 2 3550.59880455 0.00000385 1 
262 138 806 0 0.25140739 0.00752247 3 
263 569 806 2 2549.80839323 0.00000424 3 
264 608 806 2 2355.46615426 0.00000144 3 
265 717 816 2 947.08907077 0.00000404 1 
266 746 820 2 926.95626845 0.00000449 1 
267 138 821 0 0.40674396 0.01106435 5 
268 539 821 2 1338.58272318 0.00000423 5 
269 138 823 0 6.54725682 0.00935596 4 
270 151 828 0 3.12108818 0.00948517 4 
271 315 832 2 542.79580200 0.00000431 1 
272 444 838 2 354.09155889 0.00000420 1 
273 672 841 2 1336.76523140 0.00000402 1 
274 516 842 2 1335.50896313 0.00000433 1 
275 151 847 0 0.08724621 0.01142201 5 
276 788 851 2 747.70091477 0.00000511 1 
277 28 852 2 2339.89976684 0.00000383 1 
278 151 855 0 0.11494457 0.01508760 7 
279 76 860 2 1178.92263830 0.00000487 1 
280 616 863 2 749.13721460 0.00000421 1 
281 107 867 2 1244.34081751 0.00000436 1 
282 310 873 2 415.41770355 0.00000487 1 
283 563 878 2 336.49196256 0.00000492 1 
284 647 879 2 543.92115263 0.00000420 1 
285 323 883 2 231.04531944 0.00000455 1 
286 744 886 2 315.41176831 0.00000430 1 
287 725 886 2 659.73348455 0.00000204 1 
288 849 889 2 245.65529145 0.00000429 1 
289 42 893 2 154.15604668 0.00000436 1 
290 151 895 0 2.80701437 0.01759270 8 
291 691 895 2 568.65243426 0.00000497 8 
292 151 897 0 0.06118057 0.02132060 10 
293 609 898 2 2065.17285082 0.00000434 1 
294 198 899 2 3267.54762211 0.00000391 1 
295 379 900 2 1261.58477406 0.00000435 1 
296 40 900 2 702.77414883 0.00000119 1 
297 138 903 0 0.08157811 0.01020434 4 
298 138 904 0 7.06392298 0.01397726 6 
299 448 906 2 2560.63770319 0.00000458 1 
300 132 907 0 0.71874717 0.01027318 4 
301 138 907 0 0.22077132 0.01217249 5 
302 602 908 2 3233.30784850 0.00000456 1 
303 132 911 0 0.23128175 0.01219390 5 
304 121 923 0 0.62636126 0.01432829 6 
305 126 923 0 0.07130653 0.01047099 4 
306 414 923 2 812.87476838 0.00000491 4 
307 858 923 2 1688.06996461 0.00000151 4 
308 395 924 2 553.85221019 0.00000437 1 
309 107 929 0 0.07225325 0.01252275 5 
310 114 929 0 0.00477553 0.01055279 4 
311 428 929 2 1462.08864457 0.00000446 4 
312 81 934 2 4798.28109987 0.00000431 1 
313 107 935 0 4.91438615 0.01648196 7 
314 114 935 0 1.40337639 0.01648469 7 
315 765 938 2 474.77144282 0.00000439 1 
316 101 939 0 0.48567419 0.01068903 4 
317 107 939 0 0.21174614 0.01069065 4 
318 314 939 2 3208.59040861 0.00000492 4 
319 101 944 0 0.15377935 0.01270813 5 
320 94 947 0 0.23772432 0.01672598 7 
321 101 947 0 0.16826262 0.01475325 6 
322 388 947 2 2629.65334470 0.00000435 6 
323 771 948 2 3376.95692249 0.00000475 1 
324 38 949 2 5392.25777657 0.00000449 1 
325 87 953 0 0.13504795 0.01085569 4 
326 94 953 0 0.06505521 0.01487963 6 
327 226 953 0 0.08268323 0.02290838 10 
328 843 958 2 3016.04583264 0.00000395 1 
329 81 959 0 1.83528326 0.02430669 10 
330 87 959 0 1.29172246 0.01706934 7 
331 220 959 0 0.04883629 0.01102192 4 
332 226 959 0 0.12130941 0.01303296 5 
333 468 961 2 832.89316236 0.00000415 1 
334 67 965 0 1.01368609 0.01313167 5 
335 81 965 0 0.31066014 0.01517587 6 
336 220 965 0 0.16483276 0.01926812 8 
337 881 965 2 2450.38776326 0.00000453 8 
338 300 967 2 885.69593438 0.00000417 1 
339 420 969 2 779.22787020 0.00000447 1 
340 77 969 2 3522.92066049 0.00000124 1 
341 236 971 2 2755.12884909 0.00000429 1 
342 37 974 2 1965.47828437 0.00000467 1 
343 61 976 0 0.16803746 0.01735757 7 
344 67 976 0 0.05676300 0.00914060 3 
345 209 976 0 0.00780965 0.01120348 4 
346 125 977 2 2662.00697384 0.00000461 1 
347 399 978 2 474.59214235 0.00000419 1 
348 50 982 0 0.38354811 0.01131046 4 
349 61 982 0 0.27147698 0.01133153 4 
350 201 982 0 0.22200943 0.01133463 4 
351 203 982 0 0.10573284 0.02185484 9 
352 844 982 2 2018.61936782 0.00000540 9 
353 22 982 2 6153.07237844 0.00000146 9 
354 396 985 2 102.74243454 0.00000460 1 
355 46 986 2 549.59474440 0.00000406 1 
356 554 986 2 941.72099799 0.00000124 1 
357 44 988 0 0.09550719 0.01140747 4 
358 50 988 0 0.05924873 0.01143553 4 
359 195 988 0 0.04319526 0.01565756 6 
360 201 988 0 0.02685916 0.01353580 5 
361 631 993 2 1349.84039668 0.00000481 1 
362 44 994 0 0.51683435 0.01780804 7 
363 189 994 0 0.29989154 0.02562291 10 
364 195 994 0 0.21957432 0.01365508 5 
365 107 994 2 1414.77579217 0.00000491 5 
366 630 994 2 4104.56686803 0.00000131 5 
367 829 996 2 1587.93232442 0.00000462 1 
368 859 999 2 1841.48402653 0.00000482 1 
369 807 1001 2 769.31310782 0.00000545 1 
370 684 1002 2 21.78692502 0.00000524 1 
371 32 1003 0 0.23901034 0.01380872 5 
372 178 1003 0 0.03356851 0.02598671 10 
373 183 1003 0 0.01433170 0.01610320 6 
374 189 1003 2 6749.49872306 0.00000464 6 
375 775 1004 2 994.90448308 0.00000525 1 
376 142 1006 2 382.56604269 0.00000561 1 
377 39 1007 2 662.97479977 0.00000523 1 
378 25 1008 0 1.23858172 0.01828419 7 
379 32 1008 0 0.53803958 0.01178322 4 
380 178 1008 0 0.34459610 0.01177022 4 
381 183 1008 0 0.22233868 0.01181956 4 
382 49 1009 2 4684.61318869 0.00000598 1 
383 921 1009 2 2589.61016165 0.00000167 1 
384 25 1010 0 0.60236133 0.01177718 4 
385 32 1010 0 0.30591807 0.01396181 5 
386 172 1010 0 0.10368354 0.01624941 6 
387 178 1010 0 0.19279072 0.02640718 10 
388 443 1012 2 2824.48578396 0.00000486 10 
389 19 1016 0 0.44047719 0.02058999 8 
390 166 1016 0 0.20189646 0.01180800 4 
391 172 1016 0 0.07393216 0.01402416 5 
392 122 1018 2 4148.92034587 0.00000627 1 
393 719 1025 2 554.13598144 0.00000588 1 
394 151 1029 0 0.03533130 0.01427432 5 
395 157 1029 0 0.02672450 0.01197993 4 
396 163 1029 0 3.39703566 0.01201760 4 
397 166 1029 0 0.49353449 0.01199143 4 
398 73 1032 2 2440.35433376 0.00000617 1 
399 200 1034 2 4234.47728306 0.00000532 1 
400 898 1039 2 522.59687942 0.00000560 1 
401 195 1043 2 719.23489434 0.00000619 1 
402 331 1044 2 524.34580129 0.00000570 1 
403 372 1050 2 937.59179949 0.00000577 1 
404 387 1052 2 644.40970382 0.00000570 1 
405 310 1055 2 591.54536690 0.00000524 1 
406 341 1058 2 525.70602968 0.00000570 1 
407 500 1060 2 128.28435082 0.00000482 1 
408 400 1061 2 87.29462294 0.00000490 1 
409 1013 1062 2 806.93748222 0.00000534 1 
410 128 1063 2 194.07272443 0.00000514 1 
411 856 1063 2 82.62645786 0.00000212 1 
412 203 1074 2 30.31774404 0.00000558 1 
413 928 1075 2 140.93793092 0.00000544 1 
414 126 1076 2 162.51105366 0.00000507 1 
415 172 1077 2 146.97335116 0.00000494 1 
416 739 1081 2 218.58965766 0.00000497 1 
417 251 1083 2 350.34442117 0.00000531 1 
418 132 1084 0 4.21993706 0.01504073 5 
419 0 1084 2 280.11250805 0.00000555 5 
420 364 1090 2 453.47724935 0.00000625 1 
421 583 1090 2 2779.88532141 0.00000184 1 
422 192 1093 2 2825.75828762 0.00000572 1 
423 723 1096 2 550.63077468 0.00000556 1 
424 1083 1097 2 661.43473123 0.00000520 1 
425 321 1102 2 151.15980788 0.00000589 1 
426 135 1104 2 1205.27385002 0.00000573 1 
427 841 1107 2 435.37316449 0.00000535 1 
428 505 1107 2 225.43038851 0.00000955 1 
429 234 1122 2 221.83793433 0.00000596 1 
430 716 1127 2 147.24044045 0.00000590 1 
431 101 1138 0 0.63021658 0.01570272 5 
432 952 1138 2 2643.42096671 0.00000530 5 
433 786 1140 2 182.54635826 0.00000525 1 
434 653 1145 2 296.06826032 0.00000563 1 
435 107 1147 0 0.73708347 0.01326922 4 
436 114 1147 0 0.03971358 0.01082993 3 
437 891 1148 2 1318.36414788 0.00000694 1 
438 107 1150 0 7.45683387 0.01330111 4 
439 114 1150 0 1.00561260 0.01088360 3 
440 469 1155 2 348.40061392 0.00000575 1 
441 114 1158 0 0.16899687 0.01092803 3 
442 121 1158 0 0.69099743 0.01346314 4 
443 214 1158 2 3619.14821274 0.00000616 4 
444 7 1159 2 332.93483005 0.00000595 1 
445 720 1161 2 148.74997040 0.00000550 1 
446 344 1163 2 3436.16148222 0.00000605 1 
447 121 1164 0 0.45182924 0.01600263 5 
448 126 1164 0 0.04418665 0.01357751 4 
449 792 1164 2 6731.76605679 0.00000568 4 
450 705 1164 2 3031.50323261 0.00000148 4 
451 59 1167 2 2214.15408405 0.00000565 1 
452 252 1168 2 1181.04264165 0.00000561 1 
453 133 1169 2 503.19072410 0.00000543 1 
454 703 1170 2 226.84119268 0.00000511 1 
455 114 1175 0 0.14266969 0.01365732 4 
456 121 1175 0 0.27324351 0.01369545 4 
457 923 1175 0 0.18719011 0.01369267 4 
458 929 1175 0 0.16073549 0.01370921 4 
459 1158 1175 0 0.00134797 0.01111498 3 
460 615 1175 2 2598.20308064 0.00000577 3 
461 640 1176 2 2918.57906843 0.00000600 1 
462 46 1178 2 1734.76089245 0.00000536 1 
463 1007 1178 2 1112.15928044 0.00000196 1 
464 860 1179 2 1960.87972859 0.00000497 1 
465 1049 1180 2 1185.00262898 0.00000544 1 
466 905 1180 2 2131.38016109 0.00000258 1 
467 905 1185 2 1615.65698389 0.00000646 1 
468 101 1188 0 0.32950319 0.01387247 4 
469 939 1188 0 0.55418798 0.01381551 4 
470 1138 1188 0 0.03006025 0.01134474 3 
471 1147 1188 0 0.04063922 0.01127175 3 
472 1150 1188 0 1.83245351 0.01386056 4 
473 66 1193 2 3073.86833868 0.00000658 1 
474 893 1193 2 2639.67270731 0.00000191 1 
475 841 1195 2 783.73843169 0.00000502 1 
476 542 1196 2 289.34631511 0.00000522 1 
477 701 1197 2 588.95364696 0.00000512 1 
478 908 1206 2 497.81366454 0.00000547 1 
479 151 1207 2 728.01888339 0.00000563 1 
480 790 1209 2 583.50182602 0.00000550 1 
481 1050 1210 0 0.00345523 0.01406070 4 
482 1061 1210 0 0.57363906 0.01670811 5 
483 1075 1210 0 0.23107861 0.01668866 5 
484 1084 1210 0 3.13555510 0.01671061 5 
485 1088 1210 0 0.59156319 0.01412588 4 
486 1093 1210 0 0.13111230 0.01935785 6 
487 1098 1210 0 0.04730346 0.01412249 4 
488 600 1210 2 1488.18790653 0.00000573 4 
489 302 1210 2 129.83625960 0.00000150 4 
490 902 1210 2 2625.29920114 0.00000101 4 
491 1011 1210 2 733.02758608 0.00000108 4 
492 470 1213 2 2179.17915378 0.00000567 1 
493 419 1216 2 878.18987460 0.00000607 1 
494 157 1217 0 0.32750279 0.01422328 4 
495 163 1217 0 0.19904338 0.01437208 4 
496 1029 1217 0 0.01250493 0.01165279 3 
497 1044 1217 0 3.98258990 0.01435704 4 
498 1050 1217 0 4.97161000 0.01709872 5 
499 299 1218 2 3012.41106573 0.00000551 1 
500 607 1220 2 649.83691877 0.00000595 1 
501 767 1223 2 1984.89954088 0.00000605 1 
502 387 1227 2 2690.41646981 0.00000569 1 
503 163 297 0 0.27920255 0.01518027 4 
504 189 400 0 2.09679271 0.01700864 4 
505 102 1112 1 13.17187095 0.00000611 4 
506 1056 1217 0 9.66143264 0.01725643 5 
