1 32 123 0.00124691 6 
2 88 125 0.00123694 6 
3 19 166 0.00291852 10 
4 19 172 0.00267544 9 
5 25 172 0.00303632 10 
6 7 172 0.00189624 6 
7 25 178 0.00320092 10 
8 32 178 0.00229137 7 
9 32 183 0.00194923 6 
10 44 189 0.00341093 10 
11 51 189 0.00346544 10 
12 44 195 0.00352427 10 
13 50 195 0.00358676 10 
14 50 201 0.00324832 9 
15 50 203 0.00179941 5 
16 61 203 0.00369355 10 
17 61 209 0.00385080 10 
18 67 209 0.00394751 10 
19 67 220 0.00405548 10 
20 81 220 0.00417010 10 
21 86 223 0.00378598 9 
22 125 224 0.00331904 8 
23 81 226 0.00378095 9 
24 87 226 0.00422387 10 
25 87 231 0.00433212 10 
26 94 231 0.00440857 10 
27 226 231 0.00450728 10 
28 129 231 0.00452726 10 
29 187 234 0.00450063 10 
30 94 241 0.00464733 10 
31 101 241 0.00482291 10 
32 178 241 0.00480287 10 
33 101 247 0.00481008 10 
34 107 247 0.00494781 10 
35 107 254 0.00496001 10 
36 114 254 0.00508049 10 
37 107 256 0.00502016 10 
38 114 256 0.00516329 10 
39 107 258 0.00507696 10 
40 114 258 0.00520715 10 
41 78 264 0.00529852 10 
42 120 265 0.00548223 10 
43 121 266 0.00551784 10 
44 126 266 0.00556820 10 
45 126 272 0.00554515 10 
46 132 272 0.00570486 10 
47 132 278 0.00577906 10 
48 138 278 0.00580326 10 
49 138 284 0.00400691 7 
50 151 284 0.00578874 10 
51 141 287 0.00287307 5 
52 211 288 0.00598249 10 
53 151 291 0.00606451 10 
54 151 297 0.00550865 9 
55 157 297 0.00618278 10 
56 163 297 0.00632724 10 
57 166 297 0.00631918 10 
58 19 305 0.00639102 10 
59 157 305 0.00652360 10 
60 163 305 0.00653570 10 
61 166 305 0.00652942 10 
62 172 305 0.00654638 10 
63 78 310 0.00671314 10 
64 19 315 0.00684833 10 
65 25 315 0.00685503 10 
66 172 315 0.00687723 10 
67 145 317 0.00702490 10 
68 172 328 0.00700849 10 
69 243 331 0.00724206 10 
70 19 337 0.00585618 8 
71 25 337 0.00737134 10 
72 172 337 0.00755258 10 
73 79 341 0.00755432 10 
74 19 342 0.00678936 9 
75 25 342 0.00760845 10 
76 172 342 0.00391215 5 
77 178 342 0.00771083 10 
78 169 347 0.00386730 5 
79 256 361 0.00822462 10 
80 318 364 0.00325191 4 
81 25 367 0.00495957 6 
82 32 367 0.00499445 6 
83 178 367 0.00416041 5 
84 183 367 0.00589461 7 
85 115 369 0.00590131 7 
86 25 374 0.00860538 10 
87 32 374 0.00866219 10 
88 178 374 0.00624331 7 
89 183 374 0.00780969 9 
90 264 378 0.00883839 10 
91 32 382 0.00709783 8 
92 183 382 0.00896440 10 
93 32 387 0.00900801 10 
94 183 387 0.00540079 6 
95 112 395 0.00921904 10 
96 258 395 0.00921664 10 
97 189 400 0.00950837 10 
98 401 405 0.00373801 4 
99 189 414 0.00977152 10 
100 252 417 0.00986318 10 
101 214 429 0.01013778 10 
102 44 437 0.01032249 10 
103 195 437 0.01058471 10 
104 310 440 0.01052443 10 
105 44 454 0.01079905 10 
106 189 454 0.01100338 10 
107 44 467 0.01102256 10 
108 50 467 0.01129707 10 
109 195 467 0.00906079 8 
110 205 483 0.01143292 10 
111 195 484 0.00796048 7 
112 223 484 0.01160776 10 
113 44 494 0.00941103 8 
114 50 494 0.01187374 10 
115 195 494 0.01213164 10 
116 201 494 0.00848271 7 
117 133 496 0.01208928 10 
118 50 500 0.01229110 10 
119 201 500 0.01245920 10 
120 203 500 0.01257154 10 
121 153 500 0.01264631 10 
122 471 503 0.00863599 7 
123 10 503 0.01271640 10 
124 86 507 0.01294636 10 
125 61 508 0.01280533 10 
126 203 508 0.01305982 10 
127 209 508 0.01320072 10 
128 367 513 0.01318543 10 
129 461 517 0.01196196 9 
130 365 518 0.01359112 10 
131 193 520 0.01371276 10 
132 461 521 0.01359843 10 
133 360 521 0.01379311 10 
134 61 522 0.01396215 10 
135 203 522 0.01432209 10 
136 209 522 0.01433397 10 
137 289 523 0.01411299 10 
138 26 524 0.01455468 10 
139 61 528 0.01425967 10 
140 67 528 0.01453084 10 
141 81 528 0.01454665 10 
142 209 528 0.01453035 10 
143 220 528 0.01460490 10 
144 180 529 0.01499151 10 
145 172 530 0.01471747 10 
146 67 532 0.01180141 8 
147 81 532 0.01484245 10 
148 220 532 0.01514418 10 
149 497 532 0.01522899 10 
150 345 538 0.01508193 10 
151 81 539 0.01192069 8 
152 285 542 0.01543615 10 
153 67 556 0.01561130 10 
154 52 563 0.01598061 10 
155 67 564 0.01600870 10 
156 81 564 0.01644057 10 
157 220 564 0.01638264 10 
158 495 564 0.01619274 10 
159 221 564 0.01646036 10 
160 67 567 0.01631866 10 
161 81 567 0.01662831 10 
162 220 567 0.01666737 10 
163 67 570 0.01640621 10 
164 81 570 0.01669411 10 
165 220 570 0.01672323 10 
166 81 575 0.01683424 10 
167 220 575 0.01682921 10 
168 380 577 0.07518239 10 
169 299 580 0.17688778 10 
170 295 580 0.18057131 10 
171 76 580 0.17654199 10 
172 207 586 0.16880872 10 
173 81 588 0.16716420 10 
174 87 588 0.10445128 10 
175 226 588 0.02152105 10 
176 402 595 0.01846524 10 
177 87 597 0.01853406 10 
178 94 597 0.01872577 10 
179 226 597 0.01887663 10 
180 264 600 0.01864386 10 
181 577 603 0.01873222 10 
182 87 604 0.01907755 10 
183 94 604 0.01898341 10 
184 54 605 0.01900115 10 
185 478 606 0.01901897 10 
186 314 606 0.01941410 10 
187 94 616 0.01339991 7 
188 128 622 0.01965325 10 
189 276 631 0.01985992 10 
190 475 631 0.02106656 10 
191 94 632 0.02046533 10 
192 94 637 0.02056893 10 
193 101 637 0.01659856 8 
194 238 639 0.01845701 9 
195 101 642 0.01851052 9 
196 107 642 0.02081530 10 
197 101 645 0.01858974 9 
198 107 645 0.02077200 10 
199 200 654 0.02206091 10 
200 101 657 0.02217541 10 
201 292 657 0.02266971 10 
202 182 658 0.02229161 10 
203 101 663 0.01323916 6 
204 107 663 0.02241460 10 
205 114 663 0.01345974 6 
206 271 663 0.02297076 10 
207 101 665 0.02301564 10 
208 107 665 0.02338476 10 
209 114 665 0.02347722 10 
210 569 666 0.02365549 10 
211 537 670 0.02360800 10 
212 107 680 0.02381091 10 
213 486 682 0.02438421 10 
214 107 683 0.02442726 10 
215 114 683 0.02484601 10 
216 247 688 0.02471206 10 
217 430 692 0.02499227 10 
218 132 692 0.02536860 10 
219 111 697 0.02550563 10 
220 107 704 0.02572072 10 
221 114 704 0.02608012 10 
222 645 708 0.01536113 6 
223 582 709 0.02603158 10 
224 307 711 0.02570480 10 
225 107 714 0.02585121 10 
226 114 714 0.02621259 10 
227 673 716 0.02635755 10 
228 158 722 0.02646922 10 
229 457 722 0.02725839 10 
230 283 722 0.02811629 10 
231 208 722 0.02744548 10 
232 107 730 0.01897096 7 
233 114 730 0.02708396 10 
234 253 737 0.01916291 7 
235 372 739 0.02978952 10 
236 555 740 0.02782673 10 
237 112 742 0.01374392 5 
238 7 746 0.02802577 10 
239 96 750 0.02828066 10 
240 121 754 0.02863208 10 
241 126 754 0.02902538 10 
242 225 754 0.02930798 10 
243 231 755 0.02888913 10 
244 190 756 0.02876927 10 
245 121 759 0.02922300 10 
246 126 759 0.02960349 10 
247 126 762 0.02929012 10 
248 132 762 0.02983724 10 
249 5 764 0.02964258 10 
250 382 765 0.02958652 10 
251 411 771 0.02982817 10 
252 420 773 0.02964704 10 
253 186 776 0.03027016 10 
254 132 778 0.03030342 10 
255 351 783 0.03239781 10 
256 132 792 0.03102810 10 
257 319 793 0.03136663 10 
258 20 793 0.03141150 10 
259 589 798 0.03145619 10 
260 132 800 0.03155638 10 
261 138 800 0.03202869 10 
262 167 800 0.03221957 10 
263 260 805 0.03182113 10 
264 138 806 0.03186469 10 
265 569 806 0.03159031 10 
266 608 806 0.03305882 10 
267 717 816 0.03292773 10 
268 746 820 0.03201336 10 
269 138 821 0.02556861 8 
270 539 821 0.03252757 10 
271 138 823 0.03242334 10 
272 151 828 0.03268933 10 
273 315 832 0.03256595 10 
274 444 838 0.03332514 10 
275 672 841 0.03399127 10 
276 516 842 0.03385009 10 
277 151 847 0.03385891 10 
278 788 851 0.03093527 9 
279 28 852 0.03473089 10 
280 151 855 0.02419580 7 
281 76 860 0.03516221 10 
282 616 863 0.03585601 10 
283 107 867 0.03525303 10 
284 310 873 0.03545949 10 
285 563 878 0.03642479 10 
286 647 879 0.03657070 10 
287 323 883 0.03714818 10 
288 744 886 0.03319375 9 
289 725 886 0.03698209 10 
290 849 889 0.02567218 7 
291 42 893 0.03733992 10 
292 151 895 0.03740387 10 
293 691 895 0.03800219 10 
294 151 897 0.02607689 7 
295 609 898 0.03755581 10 
296 198 899 0.03788354 10 
297 379 900 0.03875993 10 
298 40 900 0.03901425 10 
299 138 903 0.03886469 10 
300 138 904 0.03889416 10 
301 448 906 0.03888002 10 
302 132 907 0.03893370 10 
303 138 907 0.03936808 10 
304 602 908 0.03923874 10 
305 132 911 0.03929673 10 
306 121 923 0.03952503 10 
307 126 923 0.03989868 10 
308 414 923 0.03967221 10 
309 858 923 0.04041095 10 
310 395 924 0.04010735 10 
311 107 929 0.04021337 10 
312 114 929 0.04240403 10 
313 428 929 0.04049269 10 
314 81 934 0.03238646 8 
315 107 935 0.04072863 10 
316 114 935 0.04127548 10 
317 765 938 0.04139598 10 
318 101 939 0.03707072 9 
319 107 939 0.02459323 6 
320 314 939 0.04152734 10 
321 101 944 0.03719103 9 
322 94 947 0.04167569 10 
323 101 947 0.03778360 9 
324 388 947 0.04127426 10 
325 771 948 0.04161324 10 
326 38 949 0.04243737 10 
327 87 953 0.04247536 10 
328 94 953 0.04404530 10 
329 226 953 0.04373480 10 
330 843 958 0.04116985 10 
331 81 959 0.04124889 10 
332 87 959 0.04182077 10 
333 220 959 0.04187228 10 
334 226 959 0.04273753 10 
335 468 961 0.04272724 10 
336 67 965 0.04305342 10 
337 81 965 0.04358394 10 
338 220 965 0.04364695 10 
339 881 965 0.04291095 10 
340 300 967 0.04341335 10 
341 420 969 0.04385108 10 
342 77 969 0.04401282 10 
343 236 971 0.04367782 10 
344 37 974 0.04410979 10 
345 61 976 0.04423225 10 
346 67 976 0.04487624 10 
347 209 976 0.04027628 9 
348 125 977 0.04458420 10 
349 399 978 0.04473813 10 
350 50 982 0.04485080 10 
351 61 982 0.04607119 10 
352 201 982 0.04597798 10 
353 203 982 0.03205922 7 
354 844 982 0.04697752 10 
355 22 982 0.04752463 10 
356 396 985 0.04713931 10 
357 46 986 0.04636366 10 
358 554 986 0.04724970 10 
359 44 988 0.04672814 10 
360 50 988 0.04239713 9 
361 195 988 0.03710197 8 
362 201 988 0.02790462 6 
363 631 993 0.04684234 10 
364 44 994 0.04689033 10 
365 189 994 0.04749000 10 
366 195 994 0.04749096 10 
367 107 994 0.04751186 10 
368 630 994 0.04773444 10 
369 829 996 0.04775847 10 
370 859 999 0.04835368 10 
371 807 1001 0.04914129 10 
372 684 1002 0.04872473 10 
373 32 1003 0.04915585 10 
374 178 1003 0.04916408 10 
375 183 1003 0.04432540 9 
376 189 1003 0.04875236 10 
377 775 1004 0.04940116 10 
378 142 1006 0.04976163 10 
379 39 1007 0.04458205 9 
380 25 1008 0.05013110 10 
381 32 1008 0.05073392 10 
382 178 1008 0.05077432 10 
383 183 1008 0.05136516 10 
384 49 1009 0.04987148 10 
385 921 1009 0.05061009 10 
386 25 1010 0.05015287 10 
387 32 1010 0.05072290 10 
388 172 1010 0.05174754 10 
389 178 1010 0.05074196 10 
390 443 1012 0.04537028 9 
391 19 1016 0.05074431 10 
392 166 1016 0.05250331 10 
393 172 1016 0.04190017 8 
394 122 1018 0.04616110 9 
395 719 1025 0.05247466 10 
396 151 1029 0.05246709 10 
397 157 1029 0.04770996 9 
398 163 1029 0.05260683 10 
399 166 1029 0.04243857 8 
400 73 1032 0.05221967 10 
401 200 1034 0.05207194 10 
402 898 1039 0.03682911 7 
403 195 1043 0.04218116 8 
404 331 1044 0.03686880 7 
405 372 1050 0.03152032 6 
406 387 1052 0.04861447 9 
407 310 1055 0.03236045 6 
408 341 1058 0.03242361 6 
409 500 1060 0.05395876 10 
410 400 1061 0.05491764 10 
411 1013 1062 0.03865974 7 
412 128 1063 0.04434060 8 
413 856 1063 0.04495697 8 
414 203 1074 0.05660040 10 
415 928 1075 0.05564946 10 
416 126 1076 0.05573772 10 
417 172 1077 0.05585878 10 
418 739 1081 0.05677748 10 
419 251 1083 0.05713205 10 
420 132 1084 0.05639716 10 
421 0 1084 0.05823108 10 
422 364 1090 0.05729324 10 
423 583 1090 0.05777259 10 
424 192 1093 0.05884536 10 
425 723 1096 0.05915408 10 
426 1083 1097 0.06042453 10 
427 321 1102 0.05950234 10 
428 135 1104 0.06050939 10 
429 841 1107 0.06179538 10 
430 505 1107 0.06188252 10 
431 102 1112 0.06124099 10 
432 234 1122 0.06207950 10 
433 716 1127 0.06235115 10 
434 101 1138 0.06254133 10 
435 952 1138 0.06303953 10 
436 786 1140 0.06366663 10 
437 653 1145 0.06484073 10 
438 107 1147 0.06451365 10 
439 114 1147 0.06380202 10 
440 891 1148 0.06357402 10 
441 107 1150 0.06360813 10 
442 114 1150 0.06368850 10 
443 469 1155 0.06399298 10 
444 114 1158 0.06622038 10 
445 121 1158 0.06573771 10 
446 214 1158 0.06586599 10 
447 7 1159 0.06766421 10 
448 720 1161 0.06705512 10 
449 344 1163 0.06663634 10 
450 121 1164 0.06704431 10 
451 126 1164 0.06634427 10 
452 792 1164 0.06752607 10 
453 705 1164 0.06782959 10 
454 59 1167 0.06871958 10 
455 252 1168 0.06848233 10 
456 133 1169 0.06947615 10 
457 703 1170 0.07005029 10 
458 114 1175 0.07060392 10 
459 121 1175 0.06874569 10 
460 923 1175 0.07021261 10 
461 929 1175 0.07091042 10 
462 1158 1175 0.06938533 10 
463 615 1175 0.07069534 10 
464 640 1176 0.07230611 10 
465 46 1178 0.07121108 10 
466 1007 1178 0.07039417 10 
467 860 1179 0.07140767 10 
468 1049 1180 0.07106295 10 
469 905 1180 0.07247735 10 
470 905 1185 0.07197047 10 
471 101 1188 0.07163368 10 
472 939 1188 0.07350619 10 
473 1138 1188 0.07412607 10 
474 1147 1188 0.07231991 10 
475 1150 1188 0.07240258 10 
476 66 1193 0.07267993 10 
477 893 1193 0.07344359 10 
478 841 1195 0.07484721 10 
479 542 1196 0.07524290 10 
480 701 1197 0.07352273 10 
481 908 1206 0.07414989 10 
482 151 1207 0.07488641 10 
483 790 1209 0.07462727 10 
484 1050 1210 0.07523498 10 
485 1061 1210 0.07366536 10 
486 1075 1210 0.07456255 10 
487 1084 1210 0.07469557 10 
488 1088 1210 0.07535899 10 
489 1093 1210 0.07534776 10 
490 1098 1210 0.07543841 10 
491 600 1210 0.07533781 10 
492 302 1210 0.07587559 10 
493 902 1210 0.07660546 10 
494 1011 1210 0.07670908 10 
495 470 1213 0.07587317 10 
496 419 1216 0.07543734 10 
497 157 1217 0.07761427 10 
498 163 1217 0.07912763 10 
499 1029 1217 0.07794362 10 
500 1044 1217 0.07743167 10 
501 1050 1217 0.07740719 10 
502 1056 1217 0.08272647 10 
503 299 1218 0.07723840 10 
504 607 1220 0.07901487 10 
505 767 1223 0.07982539 10 
506 387 1227 0.07939028 10 
