1 82 123 2 177.20684984 0.00000336 1 
2 37 160 2 25.36271742 0.00000241 1 
3 19 166 0 0.41485034 0.00209786 5 
4 89 170 2 562.84364530 0.00000244 1 
5 19 172 0 0.02820697 0.00186998 4 
6 25 172 0 0.50366199 0.00187463 4 
7 25 178 0 0.30831851 0.00197820 4 
8 32 178 0 0.01493521 0.00198478 4 
9 32 183 0 0.07055611 0.00200727 4 
10 44 189 0 0.52863102 0.00207474 4 
11 44 195 0 0.35755137 0.00216870 4 
12 50 195 0 0.00572854 0.00219381 4 
13 50 201 0 0.04110605 0.00190367 3 
14 50 203 0 0.06975183 0.00187850 3 
15 61 203 0 0.00745912 0.00189981 3 
16 54 204 2 4723.28451630 0.00000222 1 
17 61 209 0 0.37222863 0.00230886 4 
18 67 209 0 0.41032090 0.00232943 4 
19 67 220 0 0.66144083 0.00249870 4 
20 81 220 0 0.48035877 0.00285029 5 
21 117 220 2 1230.37684940 0.00000247 5 
22 81 226 0 0.05402805 0.00256164 4 
23 87 226 0 1.82553139 0.00293966 5 
24 87 231 0 0.34656585 0.00261961 4 
25 94 231 0 0.55778528 0.00256429 4 
26 226 231 0 1.44127402 0.00297704 5 
27 94 241 0 1.33132047 0.00268742 4 
28 101 241 0 0.50961029 0.00271471 4 
29 101 247 0 1.66454674 0.00276090 4 
30 107 247 0 1.80094617 0.00278110 4 
31 167 251 2 812.41248365 0.00000218 1 
32 107 254 0 1.18346605 0.00284022 4 
33 114 254 0 0.12939160 0.00286248 4 
34 107 256 0 0.93085039 0.00285047 4 
35 114 256 0 0.24629796 0.00285780 4 
36 110 256 2 2695.74278678 0.00000188 4 
37 107 258 0 1.37911724 0.00289686 4 
38 114 258 0 1.15747212 0.00292262 4 
39 121 266 0 0.00938596 0.00300458 4 
40 126 266 0 0.44864328 0.00354514 5 
41 126 272 0 1.03992836 0.00309246 4 
42 132 272 0 0.39070916 0.00364253 5 
43 122 275 2 2289.72787287 0.00000201 1 
44 179 277 2 960.10641550 0.00000237 1 
45 132 278 0 0.58358145 0.00321204 4 
46 138 278 0 1.06458780 0.00373423 5 
47 138 284 0 0.02201259 0.00270994 3 
48 151 284 0 0.12777228 0.00327830 4 
49 144 286 2 252.38194006 0.00000206 1 
50 151 291 0 0.60037557 0.00331536 4 
51 151 297 0 0.07972289 0.00284809 3 
52 157 297 0 1.04991834 0.00344875 4 
53 166 297 0 1.30507781 0.00337652 4 
54 85 299 2 2781.09106806 0.00000252 1 
55 124 301 2 748.04863544 0.00000219 1 
56 243 302 2 2772.05570045 0.00000207 1 
57 19 305 0 0.16044642 0.00356485 4 
58 157 305 0 0.58687353 0.00360607 4 
59 163 305 0 7.56485476 0.00483921 6 
60 166 305 0 0.37495035 0.00360031 4 
61 172 305 0 0.01886255 0.00360562 4 
62 200 310 2 2117.40887865 0.00000238 1 
63 19 315 0 0.48455906 0.00311691 3 
64 25 315 0 0.02281386 0.00311025 3 
65 172 315 0 0.05679715 0.00372837 4 
66 110 315 2 985.32760659 0.00000211 4 
67 172 328 0 0.12482725 0.00325304 3 
68 310 332 2 242.59640640 0.00000231 1 
69 19 337 0 6.63404991 0.00465024 5 
70 25 337 0 0.96522419 0.00399173 4 
71 172 337 0 0.57611560 0.00333331 3 
72 19 342 0 0.00494520 0.00338156 3 
73 25 342 0 0.12855172 0.00406778 4 
74 172 342 0 0.01223902 0.00411730 4 
75 178 342 0 0.12442988 0.00417180 4 
76 113 342 2 3120.47740797 0.00000304 4 
77 287 360 2 22.46315385 0.00000308 1 
78 25 367 0 0.11414782 0.00378500 3 
79 32 367 0 0.01267433 0.00593806 6 
80 178 367 0 0.00286807 0.00377297 3 
81 183 367 0 0.06698524 0.00376876 3 
82 25 374 0 0.56424690 0.00458895 4 
83 32 374 0 0.09892849 0.00531154 5 
84 178 374 0 0.03055075 0.00457680 4 
85 183 374 0 0.05309447 0.00457537 4 
86 32 382 0 4.14688582 0.00392110 3 
87 183 382 0 1.28811506 0.00465895 4 
88 155 382 2 1613.07801789 0.00000253 4 
89 32 387 0 2.72468715 0.00472921 4 
90 183 387 0 0.18197642 0.00471418 4 
91 90 388 2 2564.73869311 0.00000350 1 
92 247 389 2 3345.36934282 0.00000249 1 
93 319 403 2 971.13096619 0.00000303 1 
94 164 404 2 308.12327634 0.00000285 1 
95 189 414 0 7.69047346 0.00586057 5 
96 49 417 2 1675.96997516 0.00000354 1 
97 261 426 2 2553.61757891 0.00000319 1 
98 44 437 0 0.00915802 0.00438921 3 
99 195 437 0 0.01161094 0.00435511 3 
100 136 445 2 248.92223233 0.00000351 1 
101 380 448 2 1647.23106989 0.00000326 1 
102 242 449 2 1429.86001466 0.00000303 1 
103 44 454 0 0.65644164 0.00451647 3 
104 189 454 0 0.03962740 0.00542413 4 
105 420 455 2 536.04327870 0.00000358 1 
106 299 463 2 1106.20882887 0.00000281 1 
107 44 467 0 0.12345281 0.00641671 5 
108 50 467 0 0.00895575 0.01024030 9 
109 195 467 0 0.00230988 0.00464020 3 
110 35 467 2 1122.65081485 0.00000282 3 
111 194 474 2 28.16266318 0.00000337 1 
112 300 481 2 1630.12337527 0.00000361 1 
113 195 484 0 0.09447226 0.00573421 4 
114 356 485 2 2083.82834487 0.00000296 1 
115 44 494 0 0.02880924 0.00581137 4 
116 50 494 0 0.00628832 0.00482441 3 
117 195 494 0 0.00818961 0.00682704 5 
118 201 494 0 0.00469852 0.00681633 5 
119 122 494 2 4799.18810555 0.00000328 5 
120 77 497 2 2678.89966736 0.00000379 1 
121 163 499 2 716.78978933 0.00000343 1 
122 50 500 0 0.14406209 0.00697011 5 
123 201 500 0 0.05353930 0.00490425 3 
124 203 500 0 0.03252445 0.00488711 3 
125 211 500 2 5671.90468357 0.00000289 3 
126 167 501 2 1559.49752365 0.00000370 1 
127 61 508 0 0.99413579 0.00711166 5 
128 203 508 0 0.26947301 0.01224241 10 
129 209 508 0 0.03711473 0.00605294 4 
130 45 512 2 791.29969384 0.00000295 1 
131 6 518 2 364.02770940 0.00000291 1 
132 61 522 0 1.37942234 0.00611411 4 
133 203 522 0 0.12859200 0.00509970 3 
134 209 522 0 0.00542469 0.00511745 3 
135 61 528 0 0.47936102 0.00516599 3 
136 67 528 0 0.22419307 0.00628651 4 
137 81 528 0 0.23233822 0.00841291 6 
138 209 528 0 0.09444678 0.01062504 8 
139 220 528 0 0.13668760 0.00624489 4 
140 67 532 0 0.05459173 0.01181021 9 
141 81 532 0 0.11826401 0.00848512 6 
142 220 532 0 0.05648169 0.00634370 4 
143 84 534 2 585.63066033 0.00000283 1 
144 211 552 2 1527.17785746 0.00000319 1 
145 67 556 0 0.98233216 0.00649485 4 
146 67 564 0 0.40168838 0.01233577 9 
147 81 564 0 0.02280941 0.00664424 4 
148 220 564 0 0.02684857 0.00666370 4 
149 67 567 0 2.67253169 0.00781843 5 
150 81 567 0 0.48923871 0.00902255 6 
151 220 567 0 0.21723258 0.00666167 4 
152 67 570 0 2.40706627 0.00910528 6 
153 81 570 0 0.15671702 0.00903212 6 
154 220 570 0 0.13379867 0.00674743 4 
155 406 572 2 937.86955667 0.00000294 1 
156 179 573 2 2270.69179830 0.00000272 1 
157 81 575 0 2.76594993 0.00792775 5 
158 220 575 0 1.08612706 0.01037730 7 
159 401 584 2 253.49867358 0.00000301 1 
160 81 588 0 0.01497138 0.00568382 3 
161 87 588 0 0.47937722 0.00819589 5 
162 226 588 0 0.43156268 0.00692759 4 
163 531 588 2 2272.23397211 0.00000320 4 
164 138 592 2 1172.94085890 0.00000374 1 
165 223 595 2 87.20259078 0.00000392 1 
166 87 597 0 2.27648751 0.00956885 6 
167 94 597 0 0.38888315 0.00702308 4 
168 226 597 0 0.55079633 0.00832727 5 
169 207 603 2 3525.26533978 0.00000319 1 
170 87 604 0 0.47149562 0.00711154 4 
171 94 604 0 0.01542269 0.00841627 5 
172 94 616 0 0.01350372 0.01233918 8 
173 275 618 2 1630.52200485 0.00000364 1 
174 334 628 2 113.13856374 0.00000384 1 
175 94 632 0 2.16969694 0.00881188 5 
176 201 636 2 2288.36796083 0.00000313 1 
177 94 637 0 4.44236402 0.01006856 6 
178 101 637 0 0.19098383 0.00752145 4 
179 68 639 2 1953.12699867 0.00000403 1 
180 101 642 0 0.11555601 0.00890766 5 
181 107 642 0 0.04025021 0.01413154 9 
182 512 642 2 2475.40794415 0.00000365 9 
183 101 645 0 6.69527511 0.00763427 4 
184 107 645 0 1.54205090 0.00752548 4 
185 245 653 2 818.74850886 0.00000398 1 
186 337 653 2 1662.37586104 0.00000129 1 
187 101 657 0 0.73548669 0.01669642 10 
188 166 661 2 2093.48814690 0.00000343 10 
189 621 662 2 397.53675429 0.00000322 10 
190 101 663 0 0.04971914 0.01672614 10 
191 107 663 0 0.01781179 0.00913125 5 
192 114 663 0 0.00275957 0.00914463 5 
193 364 663 2 2730.68089998 0.00000410 5 
194 101 665 0 1.55112265 0.01345685 8 
195 107 665 0 0.47667103 0.00786184 4 
196 114 665 0 0.13329170 0.00648151 3 
197 156 665 2 2939.58155019 0.00000318 3 
198 177 668 2 3555.08839961 0.00000380 1 
199 107 680 0 1.48615866 0.00937222 5 
200 107 683 0 0.94462224 0.00802995 4 
201 114 683 0 0.32178225 0.00954870 5 
202 50 686 2 1644.39495725 0.00000372 1 
203 220 687 2 921.45572395 0.00000344 1 
204 200 697 2 569.24730274 0.00000435 1 
205 366 698 2 1555.01028523 0.00000305 1 
206 5 699 2 78.05020631 0.00000342 1 
207 107 704 0 0.34268109 0.01263695 7 
208 114 704 0 0.07528002 0.01553801 9 
209 107 714 0 1.79639085 0.01135327 6 
210 114 714 0 0.02860377 0.01441146 8 
211 114 715 2 2781.21405125 0.00000463 1 
212 663 727 2 1070.75875256 0.00000445 1 
213 107 730 0 0.19656714 0.01019018 5 
214 114 730 0 0.03540690 0.00856656 4 
215 107 731 2 2302.01416454 0.00000350 1 
216 534 739 2 802.77181175 0.00000352 1 
217 42 750 2 1652.08996223 0.00000396 1 
218 121 754 0 0.33113739 0.00876626 4 
219 126 754 0 0.07673382 0.01516320 8 
220 121 759 0 2.33625684 0.01200900 6 
221 126 759 0 0.22329988 0.01206453 6 
222 126 762 0 7.08482229 0.01040891 5 
223 132 762 0 2.00372045 0.01536838 8 
224 506 771 2 1171.38505550 0.00000436 1 
225 468 772 2 323.51949300 0.00000405 1 
226 86 772 2 2231.86649337 0.00000174 1 
227 93 774 2 602.12909525 0.00000366 1 
228 611 774 2 138.64526066 0.00000130 1 
229 132 778 0 0.06999780 0.00905903 4 
230 596 778 2 206.83050468 0.00000465 4 
231 316 783 2 573.32252085 0.00000432 1 
232 490 789 2 769.75769515 0.00000429 1 
233 132 792 0 1.26802734 0.00932439 4 
234 702 794 2 2156.01106153 0.00000376 1 
235 132 800 0 3.35686460 0.00921056 4 
236 138 800 0 0.14494330 0.01256688 6 
237 784 802 2 800.39766080 0.00000321 1 
238 549 805 2 1016.62407834 0.00000357 1 
239 138 806 0 0.25140739 0.00754598 3 
240 627 810 2 1090.52408656 0.00000387 1 
241 532 814 2 1281.06316821 0.00000412 1 
242 269 816 2 996.12844011 0.00000328 1 
243 67 818 2 1743.55533503 0.00000357 1 
244 138 821 0 0.40674396 0.01110434 5 
245 138 823 0 6.54725682 0.00941805 4 
246 340 825 2 2640.32279466 0.00000361 1 
247 151 828 0 3.12108818 0.00950881 4 
248 364 832 2 764.13478531 0.00000372 1 
249 560 838 2 815.86274971 0.00000386 1 
250 526 841 2 824.79415954 0.00000349 1 
251 151 847 0 0.08724621 0.01146437 5 
252 151 855 0 0.11494457 0.01514476 7 
253 330 872 2 732.57090153 0.00000394 1 
254 837 885 2 404.81780820 0.00000390 1 
255 752 888 2 442.03932349 0.00000380 1 
256 127 890 2 188.48609995 0.00000380 1 
257 230 892 2 882.01595292 0.00000398 1 
258 151 895 0 2.80701437 0.01764022 8 
259 695 895 2 240.56042360 0.00000409 8 
260 595 895 2 1153.96811137 0.00000145 8 
261 834 896 2 414.39795900 0.00000363 1 
262 151 897 0 0.06118057 0.02141329 10 
263 243 901 2 1581.29710870 0.00000407 1 
264 138 903 0 0.08157811 0.01026813 4 
265 138 904 0 7.06392298 0.01408254 6 
266 132 907 0 0.71874717 0.01033115 4 
267 138 907 0 0.22077132 0.01224118 5 
268 532 909 2 2176.42225126 0.00000496 1 
269 132 911 0 0.23128175 0.01224978 5 
270 381 914 2 1698.33894913 0.00000377 1 
271 752 914 2 365.28480389 0.00000151 1 
272 121 923 0 0.62636126 0.01438484 6 
273 126 923 0 0.07130653 0.01052362 4 
274 147 926 2 243.33113274 0.00000382 1 
275 161 928 2 816.31848023 0.00000349 1 
276 107 929 0 0.07225325 0.01257355 5 
277 114 929 0 0.00477553 0.01064542 4 
278 107 935 0 4.91438615 0.01653752 7 
279 114 935 0 1.40337639 0.01657921 7 
280 101 939 0 0.48567419 0.01073588 4 
281 107 939 0 0.21174614 0.01078283 4 
282 111 940 2 4269.21882355 0.00000488 1 
283 67 941 2 3340.78355603 0.00000358 1 
284 763 941 2 3729.75834673 0.00000185 1 
285 933 942 2 3236.15074191 0.00000384 1 
286 101 944 0 0.15377935 0.01276587 5 
287 908 944 2 588.82218993 0.00000378 5 
288 94 947 0 0.23772432 0.01678407 7 
289 101 947 0 0.16826262 0.01483481 6 
290 562 947 2 4467.55857473 0.00000423 6 
291 766 947 2 1800.52847558 0.00000145 6 
292 87 953 0 0.13504795 0.01092062 4 
293 94 953 0 0.06505521 0.01495788 6 
294 226 953 0 0.08268323 0.02301448 10 
295 506 957 2 265.86700994 0.00000348 1 
296 81 959 0 1.83528326 0.02439132 10 
297 87 959 0 1.29172246 0.01719829 7 
298 220 959 0 0.04883629 0.01107071 4 
299 226 959 0 0.12130941 0.01312727 5 
300 67 965 0 1.01368609 0.01319394 5 
301 81 965 0 0.31066014 0.01526629 6 
302 220 965 0 0.16483276 0.01934910 8 
303 460 970 2 1143.53467479 0.00000398 1 
304 468 971 2 942.74382830 0.00000374 1 
305 385 975 2 351.59700737 0.00000357 1 
306 61 976 0 0.16803746 0.01746080 7 
307 67 976 0 0.05676300 0.00920499 3 
308 209 976 0 0.00780965 0.01129684 4 
309 935 978 2 3712.86567863 0.00000405 1 
310 811 979 2 2212.37009821 0.00000377 1 
311 874 979 2 1337.41786520 0.00000151 1 
312 232 980 2 3233.44053904 0.00000332 1 
313 50 982 0 0.38354811 0.01137753 4 
314 61 982 0 0.27147698 0.01140477 4 
315 201 982 0 0.22200943 0.01143721 4 
316 203 982 0 0.10573284 0.02192375 9 
317 426 982 2 1896.98215762 0.00000371 9 
318 32 984 2 2578.57987832 0.00000367 1 
319 44 988 0 0.09550719 0.01149502 4 
320 50 988 0 0.05924873 0.01153270 4 
321 195 988 0 0.04319526 0.01578972 6 
322 201 988 0 0.02685916 0.01364105 5 
323 638 992 2 794.23354694 0.00000395 1 
324 96 993 2 1945.97524323 0.00000398 1 
325 44 994 0 0.51683435 0.01791678 7 
326 189 994 0 0.29989154 0.02574592 10 
327 195 994 0 0.21957432 0.01379478 5 
328 32 1003 0 0.23901034 0.01391135 5 
329 178 1003 0 0.03356851 0.02608714 10 
330 183 1003 0 0.01433170 0.01610978 6 
331 25 1008 0 1.23858172 0.01847285 7 
332 32 1008 0 0.53803958 0.01184891 4 
333 178 1008 0 0.34459610 0.01184135 4 
334 183 1008 0 0.22233868 0.01188059 4 
335 426 1008 2 1474.80752361 0.00000414 4 
336 25 1010 0 0.60236133 0.01187097 4 
337 32 1010 0 0.30591807 0.01406060 5 
338 172 1010 0 0.10368354 0.01637652 6 
339 178 1010 0 0.19279072 0.02649292 10 
340 101 1012 2 3254.25504714 0.00000448 10 
341 19 1016 0 0.44047719 0.02067673 8 
342 166 1016 0 0.20189646 0.01190159 4 
343 172 1016 0 0.07393216 0.01413870 5 
344 566 1020 2 1566.74291899 0.00000575 1 
345 275 1022 2 856.03477738 0.00000539 1 
346 524 1023 2 1842.47355375 0.00000450 1 
347 370 1024 2 3183.11321730 0.00000498 1 
348 354 1026 2 790.22920616 0.00000499 1 
349 151 1029 0 0.03533130 0.01432534 5 
350 157 1029 0 0.02672450 0.01205640 4 
351 163 1029 0 3.39703566 0.01214668 4 
352 166 1029 0 0.49353449 0.01211207 4 
353 995 1030 2 2937.92323650 0.00000659 1 
354 376 1031 2 1098.15884135 0.00000481 1 
355 681 1039 2 379.25029322 0.00000561 1 
356 142 1044 2 299.41099470 0.00000541 1 
357 627 1050 2 76.85003031 0.00000504 1 
358 816 1055 2 352.95867244 0.00000537 1 
359 237 1057 2 749.16617150 0.00000550 1 
360 761 1058 2 274.69315032 0.00000573 1 
361 753 1058 2 740.74743917 0.00000190 1 
362 337 1058 2 240.97769792 0.00000165 1 
363 138 1065 2 118.91599081 0.00000585 1 
364 267 1067 2 177.58693113 0.00000538 1 
365 311 1074 2 414.51448998 0.00000500 1 
366 667 1076 2 255.08835791 0.00000544 1 
367 396 1079 2 569.86308222 0.00000564 1 
368 946 1079 2 586.52839872 0.00000191 1 
369 222 1080 2 328.29543814 0.00000559 1 
370 855 1081 2 83.18064929 0.00000468 1 
371 132 1084 0 4.21993706 0.01504846 5 
372 1071 1084 2 894.07839052 0.00000468 5 
373 755 1086 2 74.63151570 0.00000509 1 
374 350 1087 2 143.37879344 0.00000521 1 
375 570 1087 2 1931.64328589 0.00000192 1 
376 1083 1088 2 66.99272214 0.00000418 1 
377 926 1094 2 1440.82995866 0.00000563 1 
378 242 1096 2 1287.10543026 0.00000568 1 
379 203 1105 2 755.37302314 0.00000529 1 
380 24 1113 2 201.64887050 0.00000560 1 
381 570 1113 2 266.29910533 0.00000247 1 
382 450 1117 2 257.63387861 0.00000498 1 
383 177 1118 2 534.97251876 0.00000523 1 
384 495 1119 2 46.85453384 0.00000536 1 
385 288 1120 2 722.14506767 0.00000546 1 
386 1048 1122 2 266.70082413 0.00000558 1 
387 683 1123 2 94.82670818 0.00000536 1 
388 977 1130 2 651.75489374 0.00000575 1 
389 113 1131 2 1028.21215886 0.00000576 1 
390 969 1133 2 223.72741196 0.00000526 1 
391 101 1138 0 0.63021658 0.01576774 5 
392 763 1138 2 1515.34084870 0.00000580 5 
393 392 1139 2 1176.99143845 0.00000527 1 
394 564 1142 2 3502.84128793 0.00000565 1 
395 613 1143 2 3790.05995685 0.00000462 1 
396 357 1146 2 210.80041667 0.00000550 1 
397 107 1147 0 0.73708347 0.01333724 4 
398 114 1147 0 0.03971358 0.01089925 3 
399 107 1150 0 7.45683387 0.01340651 4 
400 114 1150 0 1.00561260 0.01101147 3 
401 387 1155 2 1888.34142834 0.00000504 1 
402 480 1157 2 523.11829969 0.00000527 1 
403 114 1158 0 0.16899687 0.01109949 3 
404 121 1158 0 0.69099743 0.01364448 4 
405 106 1161 2 2500.91219884 0.00000555 1 
406 272 1162 2 732.40603931 0.00000449 1 
407 121 1164 0 0.45182924 0.01615622 5 
408 126 1164 0 0.04418665 0.01373364 4 
409 65 1164 2 5224.00653190 0.00000493 4 
410 985 1168 2 1230.28945158 0.00000518 1 
411 95 1174 2 303.81791550 0.00000535 1 
412 114 1175 0 0.14266969 0.01377999 4 
413 121 1175 0 0.27324351 0.01381645 4 
414 923 1175 0 0.18719011 0.01386044 4 
415 929 1175 0 0.16073549 0.01379885 4 
416 1158 1175 0 0.00134797 0.01131560 3 
417 766 1176 2 1897.16196052 0.00000514 1 
418 413 1177 2 2550.11572191 0.00000560 1 
419 274 1179 2 3485.02083545 0.00000535 1 
420 932 1180 2 8854.00869945 0.00000535 1 
421 886 1185 2 451.58377927 0.00000583 1 
422 956 1186 2 725.36446913 0.00000470 1 
423 357 1187 2 287.62333807 0.00000478 1 
424 101 1188 0 0.32950319 0.01396488 4 
425 939 1188 0 0.55418798 0.01397393 4 
426 1138 1188 0 0.03006025 0.01148183 3 
427 1147 1188 0 0.04063922 0.01139954 3 
428 1150 1188 0 1.83245351 0.01400616 4 
429 755 1189 2 5004.74316002 0.00000573 1 
430 143 1193 2 2495.72701014 0.00000473 1 
431 207 1193 2 2451.84292212 0.00000259 1 
432 991 1193 2 1443.09011174 0.00000241 1 
433 22 1197 2 1938.73526347 0.00000597 1 
434 185 1198 2 1014.34326065 0.00000523 1 
435 115 1204 2 626.47138395 0.00000537 1 
436 970 1207 2 1259.21371860 0.00000553 1 
437 1050 1210 0 0.00345523 0.01409689 4 
438 1061 1210 0 0.57363906 0.01681425 5 
439 1075 1210 0 0.23107861 0.01685648 5 
440 1084 1210 0 3.13555510 0.01688545 5 
441 1088 1210 0 0.59156319 0.01430926 4 
442 1093 1210 0 0.13111230 0.01952996 6 
443 1098 1210 0 0.04730346 0.01425323 4 
444 550 1214 2 2107.08178526 0.00000520 1 
445 974 1216 2 816.28913589 0.00000470 1 
446 157 1217 0 0.32750279 0.01435314 4 
447 163 1217 0 0.19904338 0.01447662 4 
448 1029 1217 0 0.01250493 0.01181277 3 
449 1044 1217 0 3.98258990 0.01450768 4 
450 1050 1217 0 4.97161000 0.01715724 5 
451 675 1224 2 1043.38716485 0.00000607 1 
452 747 1226 2 222.38983354 0.00000442 1 
453 1165 1227 2 1197.74344477 0.00000451 1 
454 163 297 0 0.27920255 0.01541302 4 
455 189 400 0 2.09679271 0.01475379 4 
456 1056 1217 0 9.66143264 0.01739391 5 
