VERTEX2 0 -0.00000524 -0.00000072 0.00000004
VERTEX2 1 -0.00000525 -0.00000072 -0.00064196
VERTEX2 2 -0.00000525 -0.00000072 -0.00117996
VERTEX2 3 0.01099661 -0.00097570 -0.00356196
VERTEX2 4 0.64378234 -0.01116575 -0.00764066
VERTEX2 5 0.70158012 -0.01171846 -0.09915566
VERTEX2 6 0.70653911 -0.01605934 -0.89706003
VERTEX2 7 0.69999207 0.00439422 -1.51310717
VERTEX2 8 0.70588538 0.02918181 -2.12714942
VERTEX2 9 0.72527128 0.04571011 -2.76574310
VERTEX2 10 0.74115868 0.04825671 2.90240226
VERTEX2 11 0.74655742 0.04480235 2.22757575
VERTEX2 12 0.74652163 0.04755287 1.57757038
VERTEX2 13 0.75294536 0.06748540 0.91753505
VERTEX2 14 0.77664717 0.08396142 0.30879146
VERTEX2 15 0.78847160 0.08470388 -0.21659036
VERTEX2 16 1.08438035 0.02235924 -0.23548808
VERTEX2 17 1.68690111 -0.12890643 -0.26693396
VERTEX2 18 2.31144744 -0.29655287 -0.27732721
VERTEX2 19 2.93954114 -0.49882766 -0.32614445
VERTEX2 20 3.53208378 -0.69288701 -0.32026000
VERTEX2 21 4.14025520 -0.84936267 -0.20873448
VERTEX2 22 4.74931979 -0.99484669 -0.19137848
VERTEX2 23 5.38893017 -1.04346770 -0.08400167
VERTEX2 24 6.02001373 -1.11905557 -0.14110304
VERTEX2 25 6.65442857 -1.19117897 -0.13837988
VERTEX2 26 7.26265807 -1.29600018 -0.17896255
VERTEX2 27 7.87788194 -1.39170409 -0.16318059
VERTEX2 28 8.45877084 -1.49448274 -0.16767604
VERTEX2 29 8.83736321 -1.55463746 -0.13695825
VERTEX2 30 8.84656935 -1.55715596 -0.66919840
VERTEX2 31 8.94681825 -1.69370187 -0.93763788
VERTEX2 32 9.31123706 -2.21133587 -0.95622719
VERTEX2 33 9.69353500 -2.72565907 -0.90548908
VERTEX2 34 10.10537581 -3.22382551 -0.88452606
VERTEX2 35 10.52744275 -3.71431030 -0.85036029
VERTEX2 36 10.95608527 -4.20607468 -0.85903003
VERTEX2 37 11.23956884 -4.52726094 -0.85145228
VERTEX2 38 11.24142278 -4.52978679 -1.17332276
VERTEX2 39 11.24122557 -4.52852627 -1.34441976
VERTEX2 40 11.38291751 -5.10817540 -1.32725795
VERTEX2 41 11.52990411 -5.71299360 -1.35934092
VERTEX2 42 11.64938953 -6.28107845 -1.38213922
VERTEX2 43 11.75247897 -6.88071588 -1.42242634
VERTEX2 44 11.83853097 -7.47949981 -1.45948575
VERTEX2 45 11.88927967 -8.09979753 -1.51503900
VERTEX2 46 11.91595149 -8.72200911 -1.53445818
VERTEX2 47 11.93172095 -9.34399330 -1.57616724
VERTEX2 48 11.92382016 -9.97024861 -1.58274394
VERTEX2 49 11.91217256 -10.59242686 -1.63360572
VERTEX2 50 11.85457669 -11.18193364 -1.67812701
VERTEX2 51 11.79475587 -11.78087152 -1.70714849
VERTEX2 52 11.69283199 -12.36642448 -1.78381219
VERTEX2 53 11.58825286 -12.92648855 -1.77140254
VERTEX2 54 11.47084212 -13.44082154 -1.83341296
VERTEX2 55 11.47700080 -13.41227830 -1.82807252
VERTEX2 56 11.47703061 -13.41218776 -1.81761753
VERTEX2 57 11.32938128 -14.02650502 -1.82912522
VERTEX2 58 11.17918979 -14.62904813 -1.78301096
VERTEX2 59 11.04623874 -15.23116241 -1.80668846
VERTEX2 60 10.91265894 -15.82959608 -1.78539662
VERTEX2 61 10.77324952 -16.42845910 -1.83622410
VERTEX2 62 10.61887004 -16.98691534 -1.79637541
VERTEX2 63 10.46265290 -17.55015348 -1.83186938
VERTEX2 64 10.32304022 -18.10810540 -1.76848575
VERTEX2 65 10.18388996 -18.66387382 -1.81990948
VERTEX2 66 10.02544418 -19.24934896 -1.82794692
VERTEX2 67 9.85516608 -19.83822915 -1.82651932
VERTEX2 68 9.74169994 -20.28514946 -1.84232538
VERTEX2 69 9.74488679 -20.27505078 -1.99730160
VERTEX2 70 9.75183798 -20.26200514 -2.67165854
VERTEX2 71 9.77514435 -20.26085080 2.96887240
VERTEX2 72 9.78780656 -20.26251177 2.95939009
VERTEX2 73 9.79520151 -20.26440226 2.89444665
VERTEX2 74 9.79535209 -20.26449242 2.27265263
VERTEX2 75 9.80203196 -20.26716773 1.92030669
VERTEX2 76 9.79048027 -20.25414536 2.61420302
VERTEX2 77 9.78621050 -20.25231333 2.84716149
VERTEX2 78 9.50464693 -20.26064029 -3.09888141
VERTEX2 79 8.88614606 -20.29418103 -3.10414833
VERTEX2 80 8.25428853 -20.28736218 3.10450894
VERTEX2 81 7.63038416 -20.25553171 3.07850036
VERTEX2 82 7.03131663 -20.20966685 3.02436232
VERTEX2 83 6.44330744 -20.15328153 3.00082481
VERTEX2 84 5.88163861 -20.06253573 2.92298413
VERTEX2 85 5.33985292 -19.95384577 2.93024810
VERTEX2 86 4.73171803 -19.82780641 2.84045233
VERTEX2 87 4.34189730 -19.71774879 2.78798659
VERTEX2 88 3.98477923 -19.58170632 2.75815791
VERTEX2 89 3.99458328 -19.58226792 -3.12931129
VERTEX2 90 3.38961782 -19.58009027 3.12274899
VERTEX2 91 2.77391510 -19.57018381 -3.11137360
VERTEX2 92 2.17430153 -19.56056623 3.05610016
VERTEX2 93 1.55400586 -19.45222320 2.95521999
VERTEX2 94 0.93430430 -19.30800838 2.91242882
VERTEX2 95 0.31211530 -19.21416639 3.05502247
VERTEX2 96 -0.29870968 -19.15717871 3.07908651
VERTEX2 97 -0.88910407 -19.08852277 3.00848202
VERTEX2 98 -1.47779734 -18.98180607 2.95051567
VERTEX2 99 -2.18282863 -18.85058989 2.99733642
VERTEX2 100 -2.74756728 -18.73709522 2.94562618
VERTEX2 101 -3.35912000 -18.67466016 3.04893580
VERTEX2 102 -3.97226894 -18.58864940 2.94306107
VERTEX2 103 -4.58042848 -18.46813827 3.03904860
VERTEX2 104 -5.19284154 -18.38619461 3.00540532
VERTEX2 105 -5.80554506 -18.31612056 3.05199455
VERTEX2 106 -6.40762044 -18.24021461 2.99716236
VERTEX2 107 -7.02526129 -18.13844023 2.99337987
VERTEX2 108 -7.48037020 -18.08540025 3.05495186
VERTEX2 109 -7.52652588 -18.07325907 2.60644784
VERTEX2 110 -7.54353239 -18.05533329 2.01510013
VERTEX2 111 -7.54297410 -17.97468910 1.50925202
VERTEX2 112 -7.51335756 -17.34122719 1.56366517
VERTEX2 113 -7.52597513 -16.71892923 1.61068481
VERTEX2 114 -7.55341840 -16.10493575 1.64745778
VERTEX2 115 -7.62071299 -15.46415524 1.70768300
VERTEX2 116 -7.73249068 -14.71263145 1.75174883
VERTEX2 117 -7.86259733 -14.10119893 1.84729610
VERTEX2 118 -7.86704087 -14.08057022 1.51267909
VERTEX2 119 -7.80707254 -13.56311584 1.45944814
VERTEX2 120 -7.74929297 -12.90749007 1.54971892
VERTEX2 121 -7.75528838 -12.28843530 1.61738461
VERTEX2 122 -7.78536084 -11.70600291 1.67364059
VERTEX2 123 -7.80909070 -11.52608367 1.66089815
VERTEX2 124 -7.72153559 -11.28820861 1.23803130
VERTEX2 125 -7.50150474 -10.69747366 1.22714064
VERTEX2 126 -7.36554106 -10.08275311 1.43376392
VERTEX2 127 -7.26480036 -9.44775821 1.43237400
VERTEX2 128 -7.18649549 -8.80816265 1.46898702
VERTEX2 129 -7.09745577 -8.17261666 1.43650343
VERTEX2 130 -7.02745631 -7.53860885 1.48932626
VERTEX2 131 -6.97940848 -6.90984762 1.57792637
VERTEX2 132 -6.95957355 -6.28994347 1.52839836
VERTEX2 133 -6.91061270 -5.72246451 1.49165486
VERTEX2 134 -6.85462413 -5.12611161 1.47350694
VERTEX2 135 -6.77070832 -4.55051031 1.44734966
VERTEX2 136 -6.69448830 -3.91776270 1.46702880
VERTEX2 137 -6.59592531 -3.28736001 1.42523479
VERTEX2 138 -6.51808301 -2.65759867 1.50545642
VERTEX2 139 -6.49960126 -2.02596240 1.57087769
VERTEX2 140 -6.52615053 -1.36930765 1.60150699
VERTEX2 141 -6.53042560 -0.72814167 1.55316602
VERTEX2 142 -6.52903814 -0.07732139 1.54940791
VERTEX2 143 -6.44623273 0.56191650 1.43892338
VERTEX2 144 -6.40545061 0.93421686 1.45650889
VERTEX2 145 -6.39978748 0.95121809 0.95820505
VERTEX2 146 -6.39804743 0.95996457 0.36508433
VERTEX2 147 -6.34347050 0.95606283 -0.12134963
VERTEX2 148 -5.91316403 0.89571120 -0.15696045
VERTEX2 149 -5.27399557 0.80148459 -0.13182193
VERTEX2 150 -4.64120867 0.73652426 -0.11763412
VERTEX2 151 -4.00277062 0.68866809 -0.03194034
VERTEX2 152 -3.37861435 0.65320822 -0.09272690
VERTEX2 153 -2.75472668 0.62042886 0.00078723
VERTEX2 154 -2.13436232 0.59946979 -0.06868083
VERTEX2 155 -1.51025881 0.56609637 -0.03519308
VERTEX2 156 -0.88364395 0.55186361 -0.00440627
VERTEX2 157 -0.32069522 0.53428711 -0.06874037
VERTEX2 158 -0.12622406 0.52043902 -0.04124545
VERTEX2 159 -0.12070105 0.51866723 0.94608288
VERTEX2 160 -0.11526196 0.52753556 1.98176226
VERTEX2 161 -0.13775580 0.46895575 2.70276087
VERTEX2 162 -0.11196590 0.47463371 -2.54462401
VERTEX2 163 -0.11298903 0.46963281 -1.54754254
VERTEX2 164 -0.18889569 0.56513068 -0.48532546
VERTEX2 165 -0.01550229 0.54681329 -0.07753167
VERTEX2 166 0.68147628 0.49930869 -0.07582699
VERTEX2 167 1.29770907 0.44507214 -0.10521150
VERTEX2 168 1.88539799 0.39202655 -0.09323327
VERTEX2 169 2.48005226 0.31661210 -0.13019098
VERTEX2 170 3.06599064 0.24446657 -0.15086472
VERTEX2 171 3.62688935 0.14234871 -0.18920338
VERTEX2 172 4.25143144 0.03064695 -0.17518493
VERTEX2 173 4.87930753 -0.09423295 -0.19812006
VERTEX2 174 5.50343898 -0.21273476 -0.15809956
VERTEX2 175 6.11872221 -0.30712051 -0.18289704
VERTEX2 176 6.71701587 -0.43151618 -0.17337490
VERTEX2 177 7.33930006 -0.53863804 -0.20110730
VERTEX2 178 7.95944581 -0.68892248 -0.24019127
VERTEX2 179 8.36193535 -0.77551721 -0.18692672
VERTEX2 180 8.41170436 -0.78930060 -0.62909435
VERTEX2 181 8.85003241 -1.11103574 -0.68095374
VERTEX2 182 9.25394031 -1.47448038 -0.85507620
VERTEX2 183 9.59798883 -1.89848646 -0.91251206
VERTEX2 184 9.94354498 -2.42884600 -1.05815311
VERTEX2 185 10.23241150 -2.98212550 -1.15000421
VERTEX2 186 10.45469757 -3.56706765 -1.21576916
VERTEX2 187 10.65251049 -4.12970991 -1.23787091
VERTEX2 188 10.85706523 -4.71186992 -1.24281757
VERTEX2 189 11.05418208 -5.29793266 -1.26909186
VERTEX2 190 11.23393712 -5.90350920 -1.29802763
VERTEX2 191 11.40325847 -6.50836555 -1.32224760
VERTEX2 192 11.55358976 -7.10659220 -1.35073600
VERTEX2 193 11.67333509 -7.65609867 -1.40658273
VERTEX2 194 11.76917021 -8.22646744 -1.43345997
VERTEX2 195 11.84542968 -8.79202164 -1.46218126
VERTEX2 196 11.90765014 -9.41825686 -1.50298483
VERTEX2 197 11.94113420 -10.04025271 -1.53050038
VERTEX2 198 11.96186962 -10.65955773 -1.58871857
VERTEX2 199 11.92934795 -11.26792242 -1.65018231
VERTEX2 200 11.87780349 -11.87095439 -1.67210540
VERTEX2 201 11.80254874 -12.47034087 -1.72881886
VERTEX2 202 11.73488746 -12.97572466 -1.70863920
VERTEX2 203 11.62769191 -13.70960769 -1.76138466
VERTEX2 204 11.50159085 -14.28529276 -1.86330885
VERTEX2 205 11.32805228 -14.84617975 -1.87268492
VERTEX2 206 11.16978873 -15.39222291 -1.87071943
VERTEX2 207 11.00569417 -15.95796026 -1.85472780
VERTEX2 208 10.82774985 -16.55624955 -1.86412766
VERTEX2 209 10.66102511 -17.15614146 -1.82589703
VERTEX2 210 10.49337012 -17.74792631 -1.83476176
VERTEX2 211 10.33968871 -18.34359265 -1.83250791
VERTEX2 212 10.15848181 -18.92863083 -1.88537041
VERTEX2 213 9.95863896 -19.51721342 -1.90615978
VERTEX2 214 9.75405752 -20.09216204 -1.90998112
VERTEX2 215 9.63631425 -20.41391508 -1.94579181
VERTEX2 216 9.64820148 -20.39392018 -2.44448564
VERTEX2 217 9.67378224 -20.39138206 -2.98668183
VERTEX2 218 9.68304249 -20.39501734 -3.04271854
VERTEX2 219 9.11710234 -20.34653672 3.07194559
VERTEX2 220 8.50846388 -20.29765286 3.03206336
VERTEX2 221 7.87013832 -20.22636817 3.08255150
VERTEX2 222 7.24518084 -20.17900389 3.05700917
VERTEX2 223 6.61956569 -20.14494596 -3.12983422
VERTEX2 224 6.00547069 -20.14109795 3.12757201
VERTEX2 225 5.38781574 -20.13089191 -3.10590941
VERTEX2 226 4.77109767 -20.11995550 3.12818285
VERTEX2 227 4.12557397 -20.18434539 -2.99830502
VERTEX2 228 3.60192324 -20.16471135 2.92338444
VERTEX2 229 3.15623716 -20.12289755 3.04391436
VERTEX2 230 2.86560170 -20.10477986 3.01515111
VERTEX2 231 3.06985066 -20.12414218 3.08525433
VERTEX2 232 2.76080439 -19.98250928 2.65936143
VERTEX2 233 2.19847038 -19.71711355 2.76166158
VERTEX2 234 1.62395882 -19.48567415 2.71749945
VERTEX2 235 1.37508457 -19.37590208 2.71251096
VERTEX2 236 1.04041973 -19.37442992 3.11793982
VERTEX2 237 0.41214304 -19.38432129 -3.09485847
VERTEX2 238 -0.20863046 -19.42781845 -3.12759976
VERTEX2 239 -0.82527556 -19.41989865 3.08795396
VERTEX2 240 -1.39444355 -19.29723800 2.86985842
VERTEX2 241 -1.93350373 -19.16135289 2.95527817
VERTEX2 242 -2.50807174 -19.09099904 2.99479179
VERTEX2 243 -3.10917656 -19.00219137 2.99411099
VERTEX2 244 -3.73381317 -18.95087239 3.06547206
VERTEX2 245 -4.34911592 -18.89655028 3.01131297
VERTEX2 246 -4.95179557 -18.80491635 2.93899047
VERTEX2 247 -5.55590095 -18.71712686 3.04499285
VERTEX2 248 -6.11120035 -18.69051269 3.07647748
VERTEX2 249 -6.06483748 -18.69788458 -3.01365898
VERTEX2 250 -6.06198004 -18.69779380 2.68311892
VERTEX2 251 -6.38125882 -18.35549975 2.25938658
VERTEX2 252 -6.73353396 -17.93269456 2.26782622
VERTEX2 253 -7.10173602 -17.48400334 2.25678257
VERTEX2 254 -7.46341011 -17.02297164 2.21555576
VERTEX2 255 -7.53576774 -16.92960991 2.29941982
VERTEX2 256 -7.53816015 -16.85181605 1.82344766
VERTEX2 257 -7.58633419 -16.39131711 1.68799630
VERTEX2 258 -7.66539235 -15.80102238 1.76848294
VERTEX2 259 -7.80462598 -15.19415776 1.80924690
VERTEX2 260 -7.93453188 -14.63167124 1.80101923
VERTEX2 261 -7.93197422 -14.59409669 1.48985299
VERTEX2 262 -7.86423419 -13.94291782 1.49668891
VERTEX2 263 -7.81778168 -13.32490990 1.51031404
VERTEX2 264 -7.79876713 -12.71986423 1.60755065
VERTEX2 265 -7.82647150 -12.11506002 1.62786024
VERTEX2 266 -7.77478125 -11.53683869 1.49885932
VERTEX2 267 -7.71868722 -10.78573082 1.46959906
VERTEX2 268 -7.58240880 -10.18197620 1.35958524
VERTEX2 269 -7.45853253 -9.56749769 1.38953279
VERTEX2 270 -7.38240627 -8.94181149 1.50360054
VERTEX2 271 -7.28319631 -8.31813762 1.39312136
VERTEX2 272 -7.19358951 -7.68977378 1.45829180
VERTEX2 273 -7.19958753 -7.05726212 1.67053419
VERTEX2 274 -7.26395753 -6.43765049 1.69460344
VERTEX2 275 -7.24820902 -5.82840768 1.52325745
VERTEX2 276 -7.23770722 -5.22001041 1.63786826
VERTEX2 277 -7.28132909 -4.65336492 1.61238551
VERTEX2 278 -7.23421104 -4.01287013 1.52377517
VERTEX2 279 -7.19050519 -3.37429196 1.46856623
VERTEX2 280 -7.11850710 -2.74142350 1.47075395
VERTEX2 281 -7.02412736 -2.10699072 1.37048102
VERTEX2 282 -6.90059701 -1.47936030 1.41050947
VERTEX2 283 -6.81005824 -0.84486125 1.40284890
VERTEX2 284 -6.69462293 -0.22113188 1.43020092
VERTEX2 285 -6.62366320 0.42956394 1.45137666
VERTEX2 286 -6.55342378 1.05250448 1.50508199
VERTEX2 287 -6.55019968 1.10548003 1.40080969
VERTEX2 288 -6.54586446 1.11314458 0.79261431
VERTEX2 289 -6.54293279 1.11456668 0.19957954
VERTEX2 290 -6.10354748 1.10348315 -0.02528009
VERTEX2 291 -5.48177473 1.09238280 -0.01137562
VERTEX2 292 -4.86578879 1.06918618 -0.06605427
VERTEX2 293 -4.24149577 1.02036679 -0.08915821
VERTEX2 294 -3.62085277 0.96450418 -0.08852228
VERTEX2 295 -2.99986089 0.88048085 -0.20107977
VERTEX2 296 -2.38461522 0.73211531 -0.24654932
VERTEX2 297 -1.77163611 0.57680753 -0.25832025
VERTEX2 298 -1.16187322 0.41841695 -0.25903810
VERTEX2 299 -0.58865522 0.25786814 -0.19792730
VERTEX2 300 -0.00276462 0.16800370 -0.15581819
VERTEX2 301 0.55851903 0.06438340 -0.21507004
VERTEX2 302 0.85955129 -0.00268381 -0.23605283
VERTEX2 303 0.84161078 0.00101628 -0.23199223
VERTEX2 304 1.34094312 -0.11821412 -0.22252683
VERTEX2 305 1.95567525 -0.16734343 -0.03879466
VERTEX2 306 2.58533881 -0.18286751 -0.05696419
VERTEX2 307 3.22450419 -0.23578378 -0.09377556
VERTEX2 308 3.85201330 -0.30374184 -0.14948070
VERTEX2 309 4.48685571 -0.36921454 -0.05668686
VERTEX2 310 5.11460051 -0.40422325 -0.09269496
VERTEX2 311 5.39576596 -0.43246670 0.08220011
VERTEX2 312 5.39296829 -0.43389613 1.06970805
VERTEX2 313 5.39910792 -0.21534048 1.56526012
VERTEX2 314 5.38396319 0.41315199 1.60498351
VERTEX2 315 5.35983685 1.04109281 1.60060081
VERTEX2 316 5.32452414 1.68641706 1.65177952
VERTEX2 317 5.26797867 2.32853557 1.66157720
VERTEX2 318 5.17394652 2.96630045 1.75594948
VERTEX2 319 5.09686564 3.31388802 1.82714230
VERTEX2 320 5.09896763 3.32024170 2.79516726
VERTEX2 321 5.09098552 3.31687455 -2.44881661
VERTEX2 322 5.09008776 3.31505411 -1.45308451
VERTEX2 323 5.10057484 3.30480473 -0.46114089
VERTEX2 324 5.10508101 3.30329955 0.19838060
VERTEX2 325 5.10650729 3.30340242 -0.32959516
VERTEX2 326 5.12181950 3.29171920 -0.92513742
VERTEX2 327 5.12506903 3.27584310 -1.54885308
VERTEX2 328 5.10441227 2.63817855 -1.59552895
VERTEX2 329 5.07819537 2.01180711 -1.65193552
VERTEX2 330 5.01970659 1.39705570 -1.67240577
VERTEX2 331 4.96020376 0.78102032 -1.68814877
VERTEX2 332 4.87626855 0.16823647 -1.70813059
VERTEX2 333 4.85341858 0.01405108 -1.64465589
VERTEX2 334 4.86261577 0.01574516 -0.85139086
VERTEX2 335 4.87962508 0.01057758 0.13962677
VERTEX2 336 4.89251884 0.01499978 1.08079787
VERTEX2 337 4.89768510 0.04576972 2.05980108
VERTEX2 338 4.89493284 0.04770727 3.04930011
VERTEX2 339 4.90677575 0.05494501 -2.18393668
VERTEX2 340 4.90694849 0.05352826 -1.16412555
VERTEX2 341 5.01994242 -0.01576620 -0.53039190
VERTEX2 342 5.59100588 -0.32467633 -0.42829664
VERTEX2 343 6.16834464 -0.53028749 -0.29667007
VERTEX2 344 6.75656028 -0.71777629 -0.30606217
VERTEX2 345 6.99484290 -0.78974869 -0.33288360
VERTEX2 346 6.98160216 -0.78531195 -0.97846279
VERTEX2 347 6.98343571 -0.87406933 -1.53562919
VERTEX2 348 6.99732395 -1.46511930 -1.55171050
VERTEX2 349 6.99088651 -2.08493724 -1.59131047
VERTEX2 350 6.97240828 -2.87326978 -1.61033010
VERTEX2 351 6.95629758 -3.14726559 -1.63868131
VERTEX2 352 6.95436563 -3.15617884 -1.92550016
VERTEX2 353 6.94251534 -3.17051830 -2.58844343
VERTEX2 354 6.92868723 -3.17438610 3.09365047
VERTEX2 355 6.90843207 -3.17354093 2.37531858
VERTEX2 356 6.90271804 -3.16329266 1.80227959
VERTEX2 357 6.90543832 -3.14765235 1.15164097
VERTEX2 358 6.90642800 -3.14629257 0.53851355
VERTEX2 359 6.89464941 -3.15125207 -0.07318643
VERTEX2 360 6.88004154 -3.14826477 -0.24825349
VERTEX2 361 6.87186140 -3.15034927 0.67442339
VERTEX2 362 6.95835599 -2.91982823 1.21021324
VERTEX2 363 7.06274640 -2.65217515 1.20459321
VERTEX2 364 6.99551275 -2.31537044 1.82133533
VERTEX2 365 6.94178657 -2.02566605 1.32601963
VERTEX2 366 7.05128946 -1.90326731 0.77383244
VERTEX2 367 7.49991369 -1.47087384 0.77666736
VERTEX2 368 7.95922204 -1.03734745 0.72874312
VERTEX2 369 7.97934797 -1.01335821 0.47693711
VERTEX2 370 8.00373655 -1.00962365 -0.10979557
VERTEX2 371 8.00974491 -1.01278953 -0.65523620
VERTEX2 372 8.43618592 -1.36419239 -0.68289606
VERTEX2 373 8.90622858 -1.73214924 -0.68089961
VERTEX2 374 9.38245015 -2.13844146 -0.74202425
VERTEX2 375 9.73994476 -2.46064628 -0.77290447
VERTEX2 376 9.75172565 -2.46795504 -0.08023849
VERTEX2 377 9.80214560 -2.43257612 0.61293811
VERTEX2 378 10.33985822 -2.03843669 0.66584539
VERTEX2 379 10.82205069 -1.61149119 0.74931322
VERTEX2 380 11.26479763 -1.14802987 0.86724543
VERTEX2 381 11.41206602 -0.96904876 1.01566959
VERTEX2 382 11.41331075 -0.96681703 2.06068040
VERTEX2 383 11.41075467 -0.96522912 3.04762097
VERTEX2 384 11.40828725 -0.96753457 -2.27175572
VERTEX2 385 11.40321810 -0.97591719 -1.24157949
VERTEX2 386 11.50628945 -1.11180118 -1.01661036
VERTEX2 387 11.95872857 -1.53667782 -0.68481037
VERTEX2 388 12.41785543 -1.89567258 -0.67802909
VERTEX2 389 12.85156638 -2.27374782 -0.76288908
VERTEX2 390 12.86206256 -2.28308572 -0.29307595
VERTEX2 391 12.67639671 -2.27365812 0.08234122
VERTEX2 392 12.62133028 -2.27387252 1.11144724
VERTEX2 393 12.62264345 -2.21003640 2.34728738
VERTEX2 394 12.55771646 -2.18260156 -2.95519658
VERTEX2 395 12.75051851 -2.08313188 -2.62264962
VERTEX2 396 12.72836931 -2.09426038 -2.62520749
VERTEX2 397 12.69016175 -2.10254462 -2.63874974
VERTEX2 398 12.67385834 -2.11587008 -2.44515405
VERTEX2 399 12.59811404 -2.22103216 -2.15087865
VERTEX2 400 12.23821846 -2.77201463 -2.10342040
VERTEX2 401 11.88904363 -3.30951613 -2.19766886
VERTEX2 402 11.40842093 -3.76021046 -2.46705257
VERTEX2 403 10.89118266 -4.16388925 -2.50252141
VERTEX2 404 10.38344066 -4.51696198 -2.58299474
VERTEX2 405 10.36576750 -4.53239984 -2.05205007
VERTEX2 406 10.36188342 -4.49392709 -1.07875385
VERTEX2 407 10.53837101 -4.74896682 -0.95236769
VERTEX2 408 10.85956597 -5.21305217 -0.99173212
VERTEX2 409 10.98879949 -5.42394431 -1.09286541
VERTEX2 410 10.98098924 -5.39063503 -1.72411109
VERTEX2 411 11.15210988 -4.96678169 -2.58016220
VERTEX2 412 10.60033841 -5.18369698 -2.78505250
VERTEX2 413 9.96313707 -5.39548492 -2.86607893
VERTEX2 414 9.31960427 -5.59577049 -2.76375805
VERTEX2 415 8.71089195 -5.82933244 -2.75624514
VERTEX2 416 8.42152542 -5.95565781 -2.81089899
VERTEX2 417 8.12777000 -5.93775493 3.04884060
VERTEX2 418 7.68785744 -5.89176366 3.00420725
VERTEX2 419 7.68876201 -5.89156925 -2.84697338
VERTEX2 420 7.74023634 -5.86907791 -2.63007746
VERTEX2 421 7.74128679 -5.86746072 -1.66044351
VERTEX2 422 7.73622132 -5.87447008 -0.41865686
VERTEX2 423 7.73748726 -5.87460135 -0.07213350
VERTEX2 424 7.73328985 -5.87465123 -0.07108840
VERTEX2 425 7.72294535 -5.88040790 -0.05866938
VERTEX2 426 7.71857954 -5.88050284 -0.06710716
VERTEX2 427 7.74674225 -5.88214093 -0.06330894
VERTEX2 428 8.40434198 -5.90730490 -0.06815554
VERTEX2 429 9.04426532 -5.96009963 -0.10827262
VERTEX2 430 9.38157278 -6.00220342 -0.15370511
VERTEX2 431 9.35515243 -5.99889269 -0.10111981
VERTEX2 432 9.36414596 -6.00211898 -0.73154340
VERTEX2 433 9.36908058 -6.00896635 -1.40747931
VERTEX2 434 9.32950074 -6.54795685 -1.63492515
VERTEX2 435 9.29387546 -7.19078707 -1.66269551
VERTEX2 436 9.21258201 -7.83066582 -1.67095174
VERTEX2 437 9.15700713 -8.48049456 -1.66247003
VERTEX2 438 9.10289108 -8.94861339 -1.69240146
VERTEX2 439 9.10113577 -8.95507086 -2.12710907
VERTEX2 440 9.10751527 -8.95011640 -2.76854059
VERTEX2 441 9.12351919 -8.94861312 2.89428455
VERTEX2 442 9.13060470 -8.95252654 2.26658098
VERTEX2 443 9.13069828 -8.95429072 1.70123211
VERTEX2 444 9.13373152 -8.93877114 1.11128900
VERTEX2 445 9.13873559 -8.93404315 0.45485813
VERTEX2 446 9.13689510 -8.93517358 0.65716938
VERTEX2 447 9.14849780 -8.91297856 1.29027460
VERTEX2 448 9.30191346 -8.29230527 1.30794030
VERTEX2 449 9.43836324 -7.65702980 1.40944828
VERTEX2 450 9.53605549 -7.02090764 1.42325103
VERTEX2 451 9.59157251 -6.55083763 1.46588652
VERTEX2 452 9.59168127 -6.54976853 1.08784651
VERTEX2 453 9.58834736 -6.55571225 0.46567302
VERTEX2 454 9.84837461 -6.53749883 0.04361128
VERTEX2 455 10.44649598 -6.51680111 0.02303635
VERTEX2 456 11.07802466 -6.51629030 -0.04156315
VERTEX2 457 11.43117208 -6.54098820 -0.12929126
VERTEX2 458 11.42619240 -6.53847372 -0.77520015
VERTEX2 459 11.41788069 -6.50386037 -1.38342163
VERTEX2 460 11.39465118 -6.90233140 -1.64042997
VERTEX2 461 11.32196444 -7.51853239 -1.72836843
VERTEX2 462 11.23119807 -8.02757982 -1.76837150
VERTEX2 463 11.24243814 -8.00590787 -0.92809338
VERTEX2 464 11.49697943 -8.08004575 -0.24997129
VERTEX2 465 12.07948485 -8.21672175 -0.24221422
VERTEX2 466 12.63164234 -8.37146896 -0.29783939
VERTEX2 467 13.20099323 -8.55692686 -0.34128446
VERTEX2 468 13.81452707 -8.77940511 -0.37658083
VERTEX2 469 14.40450906 -9.04892819 -0.45925226
VERTEX2 470 14.85737141 -9.26750788 -0.44011770
VERTEX2 471 14.86594588 -9.27222464 -0.63955580
VERTEX2 472 14.88306720 -9.29642999 -1.27136118
VERTEX2 473 14.88450400 -9.30372430 -1.91108399
VERTEX2 474 14.88293206 -9.30566954 -2.54156265
VERTEX2 475 14.88531436 -9.30535960 -3.11519168
VERTEX2 476 14.88771799 -9.30570200 2.51694984
VERTEX2 477 14.89212534 -9.31446579 1.95756941
VERTEX2 478 14.89281584 -9.32436005 1.33067155
VERTEX2 479 14.89178824 -9.32667298 0.87649499
VERTEX2 480 14.89208727 -9.32601017 1.43866187
VERTEX2 481 14.88856791 -9.31032913 2.44091640
VERTEX2 482 14.89294208 -9.31211938 2.77711622
VERTEX2 483 14.89952233 -9.31455190 2.77175952
VERTEX2 484 14.47457485 -9.15332340 2.80730675
VERTEX2 485 13.87728838 -8.96018428 2.80501432
VERTEX2 486 13.27749170 -8.74302699 2.81456519
VERTEX2 487 12.66879361 -8.55906288 2.84286630
VERTEX2 488 12.05781454 -8.37321534 2.87901122
VERTEX2 489 11.58833855 -8.26219195 2.90946390
VERTEX2 490 11.59297701 -8.26177533 -2.88854805
VERTEX2 491 11.60047438 -8.25202930 -1.95231301
VERTEX2 492 11.58216339 -8.48167318 -1.64922745
VERTEX2 493 11.51620712 -9.08514942 -1.70424956
VERTEX2 494 11.42481366 -9.69575633 -1.76513914
VERTEX2 495 11.35142340 -10.31856304 -1.65797819
VERTEX2 496 11.30338841 -10.94280391 -1.54026130
VERTEX2 497 11.29224315 -11.56077648 -1.62631905
VERTEX2 498 11.21937248 -12.18193214 -1.72813762
VERTEX2 499 11.08444819 -12.80770541 -1.74516377
VERTEX2 500 11.13846954 -13.37498463 -1.41624561
VERTEX2 501 11.20921565 -13.95480996 -1.48835693
VERTEX2 502 11.22855378 -14.65038668 -1.57285864
VERTEX2 503 11.22107822 -15.09720194 -1.58984341
VERTEX2 504 11.22627251 -15.08285783 -0.73344607
VERTEX2 505 11.46382718 -15.11168999 -0.11170713
VERTEX2 506 12.05508659 -15.19772819 -0.26426951
VERTEX2 507 12.63491319 -15.37183761 -0.34282436
VERTEX2 508 13.20238047 -15.58755662 -0.35609207
VERTEX2 509 13.82013910 -15.82544464 -0.41200009
VERTEX2 510 14.17521202 -15.98702509 -0.42590183
VERTEX2 511 14.17358277 -15.96991944 0.44946524
VERTEX2 512 14.19559082 -15.92438442 1.64681903
VERTEX2 513 14.19222511 -15.91422023 2.60232575
VERTEX2 514 14.12474985 -15.89476089 2.82861292
VERTEX2 515 13.51562720 -15.70940740 2.82973102
VERTEX2 516 12.93211109 -15.51112955 2.84564220
VERTEX2 517 12.34032228 -15.35871730 2.87384942
VERTEX2 518 11.74889992 -15.20317360 2.89821353
VERTEX2 519 11.22778187 -15.07542920 2.88252889
VERTEX2 520 11.06018741 -15.03047075 -3.00219454
VERTEX2 521 11.08248483 -15.00625575 -1.99850136
VERTEX2 522 11.01414181 -15.40189302 -1.73420220
VERTEX2 523 10.91809555 -16.02163185 -1.74156182
VERTEX2 524 10.80995364 -16.59513473 -1.78345947
VERTEX2 525 10.70195047 -17.13673445 -1.75977855
VERTEX2 526 10.58151917 -17.70493457 -1.81853777
VERTEX2 527 10.42940688 -18.28311670 -1.85330841
VERTEX2 528 10.24287492 -18.84854230 -1.92924011
VERTEX2 529 10.02616787 -19.44884538 -1.95756031
VERTEX2 530 9.77442768 -20.04615107 -1.98766752
VERTEX2 531 9.50040386 -20.61892133 -2.06751749
VERTEX2 532 9.40101233 -20.80398298 -2.01693600
VERTEX2 533 9.39860556 -20.79181074 -1.01717691
VERTEX2 534 9.39920530 -20.79219850 -0.35014294
VERTEX2 535 9.40256678 -20.79250911 -0.35050011
VERTEX2 536 9.75843311 -20.87891423 -0.21977504
VERTEX2 537 10.36371444 -21.03158157 -0.27776538
VERTEX2 538 10.92215496 -21.20469498 -0.30487498
VERTEX2 539 11.52828255 -21.41794715 -0.36963908
VERTEX2 540 12.11287928 -21.67520736 -0.46252955
VERTEX2 541 12.69802514 -21.90728856 -0.30022456
VERTEX2 542 13.32767392 -22.05362562 -0.24452168
VERTEX2 543 13.44899111 -22.08496825 -0.27418694
VERTEX2 544 13.47020714 -22.08295652 0.36282215
VERTEX2 545 13.49414948 -22.04019060 1.42900907
VERTEX2 546 13.51122597 -22.08559894 2.25603574
VERTEX2 547 13.51949936 -22.08510374 -3.00549046
VERTEX2 548 13.53314741 -22.07648547 -2.08260745
VERTEX2 549 13.53489114 -22.06518681 -1.27600615
VERTEX2 550 13.53383029 -22.04426636 -1.75580721
VERTEX2 551 13.54242171 -22.02716977 -2.38218259
VERTEX2 552 13.56085413 -22.01815720 -3.01464360
VERTEX2 553 13.42429866 -21.96482699 2.69125468
VERTEX2 554 12.83451609 -21.67657892 2.65579383
VERTEX2 555 12.25745115 -21.39751875 2.74466350
VERTEX2 556 11.65504466 -21.17483610 2.87976141
VERTEX2 557 11.05596867 -20.99972855 2.83855157
VERTEX2 558 10.48089997 -20.83861885 2.91958101
VERTEX2 559 10.48823199 -20.84115079 2.51262704
VERTEX2 560 10.48104309 -20.83318293 2.01170074
VERTEX2 561 10.45790427 -20.81040208 2.51693097
VERTEX2 562 10.27933495 -20.80914637 -3.12268487
VERTEX2 563 9.70939214 -20.72670124 2.96868495
VERTEX2 564 9.10492459 -20.63100610 3.01745497
VERTEX2 565 8.51493662 -20.55557832 2.95986811
VERTEX2 566 8.57555099 -20.57490232 -2.53977175
VERTEX2 567 8.48207745 -20.58115225 -1.74638779
VERTEX2 568 8.42734792 -21.08903972 -1.68238304
VERTEX2 569 8.37169841 -21.66400400 -1.72154729
VERTEX2 570 8.29859783 -22.24393204 -1.71680099
VERTEX2 571 8.24344685 -22.59887530 -1.76426677
VERTEX2 572 8.20937025 -22.62340377 -2.00744358
VERTEX2 573 8.17374175 -22.70258935 -1.73109625
VERTEX2 574 8.19398041 -22.73147946 -0.79160941
VERTEX2 575 8.34806368 -22.78305382 0.12923330
VERTEX2 576 8.34755276 -22.78263874 1.15691089
VERTEX2 577 8.34100656 -22.76494830 2.12902384
VERTEX2 578 8.33172908 -22.73273732 1.76486784
VERTEX2 579 8.21159660 -22.08008703 1.77990856
VERTEX2 580 8.05443191 -21.43940433 1.85507695
VERTEX2 581 7.86449658 -20.81447986 1.89748436
VERTEX2 582 7.64704308 -20.19843443 1.94065110
VERTEX2 583 7.51917348 -19.88918372 2.02005615
VERTEX2 584 7.51366940 -19.87832097 2.86401154
VERTEX2 585 6.93101357 -19.73423735 2.98246260
VERTEX2 586 6.33737988 -19.65572866 3.08018625
VERTEX2 587 5.71827151 -19.64073391 3.10575632
VERTEX2 588 5.08830955 -19.61073797 3.11038708
VERTEX2 589 4.54996074 -19.63187747 -3.09743179
VERTEX2 590 4.00057051 -19.67230715 -3.02869035
VERTEX2 591 3.46128694 -19.74762952 -3.03058233
VERTEX2 592 2.91302808 -19.81834216 -3.03330664
VERTEX2 593 2.73551366 -19.83944364 -2.82804121
VERTEX2 594 2.77829168 -19.79402203 -1.90882745
VERTEX2 595 2.66082948 -20.40018325 -1.67597184
VERTEX2 596 2.60386504 -21.02378108 -1.69909147
VERTEX2 597 2.50724319 -21.69778142 -1.73900806
VERTEX2 598 2.40008365 -22.29536172 -1.78116045
VERTEX2 599 2.30903220 -22.67198468 -1.84733390
VERTEX2 600 2.30910697 -22.68814009 -1.04075759
VERTEX2 601 2.34899026 -22.71310650 -0.02256755
VERTEX2 602 2.38396280 -22.69931585 0.99149505
VERTEX2 603 2.35119780 -22.46405738 1.76414432
VERTEX2 604 2.29536326 -21.85106926 1.52005666
VERTEX2 605 2.30924603 -21.20473285 1.60269092
VERTEX2 606 2.27382709 -20.55831946 1.64481893
VERTEX2 607 2.28942262 -19.96980927 1.56385527
VERTEX2 608 2.27928943 -19.58506604 1.60839548
VERTEX2 609 2.27591447 -19.56427467 1.94482671
VERTEX2 610 2.26804495 -19.56136059 2.87773178
VERTEX2 611 1.67379235 -19.40653092 2.88081260
VERTEX2 612 1.20230102 -19.26836335 2.88373803
VERTEX2 613 1.23761586 -19.27944299 -2.93543117
VERTEX2 614 1.24376318 -19.27486528 -1.89699046
VERTEX2 615 1.25210133 -19.76029575 -1.59226108
VERTEX2 616 1.25333632 -20.38207709 -1.64330407
VERTEX2 617 1.11015733 -20.98357162 -1.86020146
VERTEX2 618 0.93564912 -21.58759560 -1.84989048
VERTEX2 619 0.76980072 -22.15719275 -1.85107435
VERTEX2 620 0.58140844 -22.73099535 -1.94694684
VERTEX2 621 0.71301205 -22.39918442 -1.99819711
VERTEX2 622 0.83859953 -22.13639279 -2.07292246
VERTEX2 623 0.83804600 -22.13713016 -2.60942497
VERTEX2 624 0.80866238 -22.13659598 3.03182104
VERTEX2 625 0.76729046 -22.11950237 2.37396110
VERTEX2 626 0.73950651 -22.08709652 1.75656515
VERTEX2 627 0.81518476 -21.71589140 1.34619181
VERTEX2 628 0.99916923 -21.09080145 1.24541246
VERTEX2 629 1.17608719 -20.46499377 1.31647460
VERTEX2 630 1.30673735 -19.85865138 1.40146259
VERTEX2 631 1.38334959 -19.32985589 1.42150890
VERTEX2 632 1.38615819 -19.31403482 2.09724228
VERTEX2 633 1.28812242 -19.30662253 -3.09987826
VERTEX2 634 0.62063540 -19.33840618 -3.07251988
VERTEX2 635 -0.03243005 -19.34417094 3.07560794
VERTEX2 636 -0.67380402 -19.31075057 3.05800430
VERTEX2 637 -1.30134971 -19.23169325 2.95869558
VERTEX2 638 -1.69245443 -19.14886540 2.92912475
VERTEX2 639 -2.30186063 -19.04147405 3.00944852
VERTEX2 640 -2.91541919 -18.92783782 2.94154338
VERTEX2 641 -3.51438875 -18.81262211 2.93320581
VERTEX2 642 -4.08889053 -18.67126633 2.88786820
VERTEX2 643 -4.56932494 -18.53125102 2.82040273
VERTEX2 644 -4.57331431 -18.53211033 -2.70602381
VERTEX2 645 -4.61079376 -18.67289525 -1.92854102
VERTEX2 646 -4.75249106 -19.28106891 -1.63317072
VERTEX2 647 -4.71389485 -19.92361170 -1.34431954
VERTEX2 648 -4.49574991 -20.55010914 -1.17803404
VERTEX2 649 -4.32672601 -21.14988767 -1.51562794
VERTEX2 650 -4.43218096 -21.77745689 -1.77298423
VERTEX2 651 -4.45076739 -21.92275369 -0.97356572
VERTEX2 652 -4.38822323 -21.95146451 0.05140813
VERTEX2 653 -4.34190931 -21.91051094 1.08185258
VERTEX2 654 -4.34862201 -21.61416901 1.59502950
VERTEX2 655 -4.35471600 -21.06108549 1.59002633
VERTEX2 656 -4.34920050 -20.45939353 1.57739744
VERTEX2 657 -4.45126722 -19.84742445 1.85403604
VERTEX2 658 -4.63685464 -19.22922553 1.84687012
VERTEX2 659 -4.74783119 -18.73517397 1.77571209
VERTEX2 660 -4.75076312 -18.71992017 2.37582602
VERTEX2 661 -4.92897757 -18.69888445 3.02926826
VERTEX2 662 -5.52188010 -18.63493618 3.09887335
VERTEX2 663 -6.10916571 -18.64481390 -3.08328230
VERTEX2 664 -6.11711466 -18.64270240 -2.56006987
VERTEX2 665 -6.13388685 -18.74392796 -1.72636866
VERTEX2 666 -6.21031143 -19.35157560 -1.68923416
VERTEX2 667 -6.27177662 -19.91718719 -1.68461725
VERTEX2 668 -6.33985919 -20.51020080 -1.65883995
VERTEX2 669 -6.39314771 -21.13507820 -1.68397463
VERTEX2 670 -6.49733473 -21.75176930 -1.74345623
VERTEX2 671 -6.54711707 -22.04380159 -1.68847746
VERTEX2 672 -6.44088319 -21.46380099 -1.77759548
VERTEX2 673 -6.37265757 -21.19762069 -1.90815517
VERTEX2 674 -6.35973057 -21.18418594 -2.55631316
VERTEX2 675 -6.33639153 -21.17943614 3.11823803
VERTEX2 676 -6.33044728 -21.18297832 2.49488522
VERTEX2 677 -6.32595517 -21.18928446 1.87902963
VERTEX2 678 -6.29618403 -20.96736968 1.43307712
VERTEX2 679 -6.22759699 -20.38884711 1.49564921
VERTEX2 680 -6.25165565 -19.94033783 1.84051811
VERTEX2 681 -6.39915079 -19.34774999 1.81300108
VERTEX2 682 -6.56664146 -18.74047894 1.86067207
VERTEX2 683 -6.65669566 -18.45747428 2.01982563
VERTEX2 684 -6.60433553 -18.51169738 3.09977668
VERTEX2 685 -7.01018822 -18.66997399 -2.73963827
VERTEX2 686 -7.45912731 -18.80374210 -2.88382013
VERTEX2 687 -8.05539423 -18.95092396 -2.91877717
VERTEX2 688 -8.65471407 -19.06705191 -2.93050175
VERTEX2 689 -9.22055823 -19.20236384 -2.90279036
VERTEX2 690 -9.75819190 -19.36793955 -2.82857061
VERTEX2 691 -10.15474086 -19.49692869 -2.85655904
VERTEX2 692 -10.14052268 -19.49072762 -2.32228375
VERTEX2 693 -10.11807861 -19.56321718 -1.28182895
VERTEX2 694 -10.09445188 -19.63542516 -0.44632773
VERTEX2 695 -10.07591805 -19.63029147 0.35370785
VERTEX2 696 -10.06968163 -19.62626907 1.37923272
VERTEX2 697 -10.08159945 -19.66448888 1.12627077
VERTEX2 698 -9.74963292 -19.45753925 0.47152382
VERTEX2 699 -9.18357008 -19.14788153 0.58557310
VERTEX2 700 -8.66735808 -18.78901817 0.63911483
VERTEX2 701 -8.23068787 -18.42877009 0.69829695
VERTEX2 702 -7.74895928 -18.11642984 0.58315422
VERTEX2 703 -7.23398011 -17.78301218 0.61742263
VERTEX2 704 -6.73745613 -17.40380432 0.63561630
VERTEX2 705 -6.22359488 -16.98662867 0.70587032
VERTEX2 706 -5.79123119 -16.67167480 0.43689597
VERTEX2 707 -5.76588314 -16.67049448 -0.08333300
VERTEX2 708 -5.75599246 -16.67630554 -0.72179296
VERTEX2 709 -5.79554341 -16.63309571 -1.05386602
VERTEX2 710 -5.79986513 -16.62168859 -1.61496581
VERTEX2 711 -5.79049622 -16.63027267 -2.21168016
VERTEX2 712 -5.77007963 -16.61485828 -2.77210128
VERTEX2 713 -6.24335295 -16.66185963 -3.05744284
VERTEX2 714 -6.79641672 -16.63273442 3.02822879
VERTEX2 715 -7.42280592 -16.59123344 3.13184074
VERTEX2 716 -8.05674826 -16.56460871 2.99381270
VERTEX2 717 -8.67738426 -16.49220816 3.07857270
VERTEX2 718 -9.43845906 -16.36802332 2.90320061
VERTEX2 719 -10.05426471 -16.24821403 2.97767313
VERTEX2 720 -10.66594447 -16.13133689 2.91847483
VERTEX2 721 -11.28252652 -16.01098499 2.98669958
VERTEX2 722 -11.29881731 -16.00854179 3.05340544
VERTEX2 723 -11.31940479 -16.02946682 -2.13981298
VERTEX2 724 -11.31984021 -16.07332809 -1.07091958
VERTEX2 725 -11.29253949 -16.09197533 -0.43655124
VERTEX2 726 -10.96681538 -16.09053583 0.01765625
VERTEX2 727 -10.32884900 -16.05739858 0.04840837
VERTEX2 728 -9.68822898 -16.03854754 0.04980514
VERTEX2 729 -9.04983689 -15.98337258 0.10745838
VERTEX2 730 -8.42577948 -15.89624291 0.14497493
VERTEX2 731 -7.77757120 -15.80138721 0.15719321
VERTEX2 732 -7.63613387 -15.77407063 0.60379795
VERTEX2 733 -7.63490178 -15.77611766 1.60039979
VERTEX2 734 -7.68949594 -15.21969024 1.67851644
VERTEX2 735 -7.74595102 -14.61691184 1.64648978
VERTEX2 736 -7.74661528 -14.60584387 2.24604569
VERTEX2 737 -7.74057205 -14.60668240 3.04682390
VERTEX2 738 -8.31929020 -14.56214365 3.06589631
VERTEX2 739 -8.92161950 -14.46300381 3.00827564
VERTEX2 740 -9.42416350 -14.41933861 3.07154358
VERTEX2 741 -9.40398450 -14.41925774 2.70269771
VERTEX2 742 -9.40389196 -14.41934067 2.04992249
VERTEX2 743 -9.40559690 -14.41155163 1.43312417
VERTEX2 744 -9.39578045 -14.38948862 0.89377136
VERTEX2 745 -9.37569493 -14.37915863 0.30029496
VERTEX2 746 -8.83259506 -14.40112538 -0.17456227
VERTEX2 747 -8.18747378 -14.52009190 -0.20980112
VERTEX2 748 -7.61084605 -14.66665233 -0.27810880
VERTEX2 749 -7.52703597 -14.68812615 0.15114411
VERTEX2 750 -7.51671343 -14.66938278 1.07831870
VERTEX2 751 -7.54964106 -14.39585663 1.71866295
VERTEX2 752 -7.60431431 -13.76920193 1.61534855
VERTEX2 753 -7.63871968 -13.12706146 1.67856289
VERTEX2 754 -7.64302654 -12.48327408 1.51645304
VERTEX2 755 -7.62175646 -11.86165112 1.60192764
VERTEX2 756 -7.58101016 -11.22292412 1.42601921
VERTEX2 757 -7.50317733 -10.57578582 1.53818246
VERTEX2 758 -7.52153326 -9.99182633 1.68062569
VERTEX2 759 -7.50895953 -9.43996934 1.56097116
VERTEX2 760 -7.54542089 -8.82584265 1.67236673
VERTEX2 761 -7.54817490 -8.78525390 1.85276651
VERTEX2 762 -7.62564874 -8.75026494 2.68842585
VERTEX2 763 -8.19952004 -8.64551053 2.98126085
VERTEX2 764 -8.61932699 -8.57260460 2.95372679
VERTEX2 765 -8.60853468 -8.57243325 -2.69001614
VERTEX2 766 -8.61008441 -8.57740702 -1.68967488
VERTEX2 767 -8.60531309 -8.58959744 -0.75879880
VERTEX2 768 -8.57818720 -8.59134160 -0.03642256
VERTEX2 769 -7.94193723 -8.50394101 0.12047774
VERTEX2 770 -7.28884740 -8.44644561 0.05334291
VERTEX2 771 -7.20005673 -8.43928760 0.61380712
VERTEX2 772 -7.19665874 -8.42861397 1.48132532
VERTEX2 773 -7.17091216 -7.84983406 1.56713067
VERTEX2 774 -7.18148621 -7.30241627 1.58923377
VERTEX2 775 -7.18074082 -7.30568649 2.43414262
VERTEX2 776 -7.39008125 -7.27945443 3.05156026
VERTEX2 777 -8.00331347 -7.23525964 3.11060891
VERTEX2 778 -8.61605955 -7.22223355 3.08967743
VERTEX2 779 -9.23079698 -7.19834786 3.10770358
VERTEX2 780 -9.43791459 -7.17952705 2.97737699
VERTEX2 781 -9.43387089 -7.18099565 2.40376228
VERTEX2 782 -9.55942101 -6.90865380 1.97403815
VERTEX2 783 -9.79065920 -6.33426852 1.97336187
VERTEX2 784 -9.88833927 -6.10718634 1.95195917
VERTEX2 785 -9.88906890 -6.08243323 1.39980449
VERTEX2 786 -9.88103813 -6.05663679 0.81128276
VERTEX2 787 -9.86335504 -6.03878640 0.32044069
VERTEX2 788 -9.83563849 -6.04087288 -0.30890468
VERTEX2 789 -9.82541807 -6.04901911 -0.86061201
VERTEX2 790 -9.52178206 -6.44677933 -0.92764685
VERTEX2 791 -9.12048583 -6.93187419 -0.82883216
VERTEX2 792 -8.88266863 -7.14688590 -0.12392847
VERTEX2 793 -8.26799407 -7.20379044 -0.07897878
VERTEX2 794 -7.62888747 -7.23745098 -0.00754947
VERTEX2 795 -7.65523528 -7.25654723 0.42225680
VERTEX2 796 -7.66368642 -7.25990191 1.08222364
VERTEX2 797 -7.58722575 -6.95000600 1.34253530
VERTEX2 798 -7.44833164 -6.32325248 1.39275334
VERTEX2 799 -7.35743557 -5.67771234 1.45853648
VERTEX2 800 -7.29958810 -5.02959482 1.53147624
VERTEX2 801 -7.30652443 -4.39757932 1.61746041
VERTEX2 802 -7.35642041 -3.77184053 1.67521459
VERTEX2 803 -7.33506434 -3.14329466 1.51060388
VERTEX2 804 -7.31081691 -2.51603235 1.56654929
VERTEX2 805 -7.33999298 -1.88528154 1.64287613
VERTEX2 806 -7.39613105 -1.28637912 1.68432549
VERTEX2 807 -7.42230276 -1.10130238 1.97243417
VERTEX2 808 -7.42717194 -1.10117399 2.92075010
VERTEX2 809 -8.01867470 -1.06830139 3.06543180
VERTEX2 810 -8.63533808 -0.94088764 2.92528825
VERTEX2 811 -9.23366487 -0.82530911 2.92201538
VERTEX2 812 -9.23613417 -0.82481070 -2.62937707
VERTEX2 813 -9.24587121 -0.84616526 -1.65404835
VERTEX2 814 -9.23989271 -0.85095775 -0.66180182
VERTEX2 815 -9.21589552 -0.85921436 0.25748156
VERTEX2 816 -9.20699502 -0.85441874 0.93864429
VERTEX2 817 -9.19550686 -0.84729140 0.26988817
VERTEX2 818 -8.97364982 -0.88256786 -0.21899515
VERTEX2 819 -8.38367541 -1.01397361 -0.20486842
VERTEX2 820 -7.79130004 -1.14947885 -0.24609563
VERTEX2 821 -7.24640915 -1.28374230 -0.23029485
VERTEX2 822 -7.19902971 -1.29124796 0.53126957
VERTEX2 823 -7.19751107 -1.27620550 1.45057377
VERTEX2 824 -7.12976353 -0.65428279 1.37126210
VERTEX2 825 -6.98187092 -0.03156816 1.34161664
VERTEX2 826 -6.92076059 0.60035663 1.50458724
VERTEX2 827 -6.85288555 1.22396441 1.45596065
VERTEX2 828 -6.79469204 1.85505653 1.49151458
VERTEX2 829 -6.73027831 2.45851689 1.45178425
VERTEX2 830 -6.65188843 3.06721342 1.44347712
VERTEX2 831 -6.55444872 3.64412596 1.39669442
VERTEX2 832 -6.46103449 4.20674401 1.39313818
VERTEX2 833 -6.41556074 4.46196506 1.53080522
VERTEX2 834 -6.41752411 4.46908088 2.58550044
VERTEX2 835 -6.43086522 4.47069496 -2.91999177
VERTEX2 836 -6.44320846 4.46039081 -1.97689730
VERTEX2 837 -6.43994314 4.44196913 -0.94050100
VERTEX2 838 -6.42859410 4.43480787 -0.07827768
VERTEX2 839 -6.42840155 4.43471563 -0.29653457
VERTEX2 840 -6.41773462 4.42625554 -0.85916882
VERTEX2 841 -6.41029877 4.41108856 -1.47623935
VERTEX2 842 -6.43791672 4.16538149 -1.70706184
VERTEX2 843 -6.51951330 3.60200261 -1.70959281
VERTEX2 844 -6.59848966 2.97662790 -1.71761885
VERTEX2 845 -6.69600800 2.35187188 -1.73235034
VERTEX2 846 -6.78565584 1.72285243 -1.73063250
VERTEX2 847 -6.89916869 1.10179645 -1.75739300
VERTEX2 848 -6.93107280 0.90656853 -1.27699356
VERTEX2 849 -6.93039319 0.90632547 -0.35487608
VERTEX2 850 -6.57526332 0.90079396 -0.00151288
VERTEX2 851 -5.94821206 0.87118800 -0.09403465
VERTEX2 852 -5.32424919 0.80641710 -0.07963754
VERTEX2 853 -4.72973543 0.76051891 -0.10757533
VERTEX2 854 -4.14300500 0.68937076 -0.10558397
VERTEX2 855 -3.54849979 0.63506525 -0.10739340
VERTEX2 856 -2.89548698 0.54569152 -0.14807500
VERTEX2 857 -2.24367028 0.45264264 -0.15761599
VERTEX2 858 -1.59847602 0.32720794 -0.21212609
VERTEX2 859 -1.08104485 0.22066815 -0.21898265
VERTEX2 860 -1.05484364 0.23129078 0.63181989
VERTEX2 861 -1.03864911 0.34116833 1.54662625
VERTEX2 862 -0.99661307 1.00075787 1.48700431
VERTEX2 863 -0.93559486 1.64480376 1.45452150
VERTEX2 864 -0.84511477 2.25461920 1.45240737
VERTEX2 865 -0.80035198 2.86592301 1.51003398
VERTEX2 866 -0.75228042 3.45168474 1.50891432
VERTEX2 867 -0.74384496 3.61575818 1.69012880
VERTEX2 868 -0.75115600 3.62511446 2.71394218
VERTEX2 869 -0.74054784 3.62520165 -2.59087756
VERTEX2 870 -0.72072473 3.63571198 -1.59140003
VERTEX2 871 -0.70607827 3.62566222 -0.61767238
VERTEX2 872 -0.68775391 3.61226997 0.06760706
VERTEX2 873 -0.66048183 3.60300899 -0.50495121
VERTEX2 874 -0.63935707 3.58370205 -1.06454637
VERTEX2 875 -0.63312802 3.56880806 -1.65104813
VERTEX2 876 -0.75628502 3.01357360 -1.80860935
VERTEX2 877 -0.91162822 2.47261680 -1.89326011
VERTEX2 878 -0.96331862 2.27332374 -1.51029376
VERTEX2 879 -0.86596691 1.63429729 -1.45926299
VERTEX2 880 -0.83308580 1.18510387 -1.57195096
VERTEX2 881 -0.83316542 1.23502932 -1.56660700
VERTEX2 882 -0.89349843 0.59595345 -1.81312903
VERTEX2 883 -1.11274455 0.00223076 -2.00385358
VERTEX2 884 -1.27321089 -0.32880015 -2.07082172
VERTEX2 885 -1.27318846 -0.32871335 -1.48926992
VERTEX2 886 -1.25620031 -0.34482629 -0.47132328
VERTEX2 887 -1.22777674 -0.35608284 0.53993501
VERTEX2 888 -1.21757625 -0.33495846 1.52398044
VERTEX2 889 -1.21912900 -0.33041503 2.42198441
VERTEX2 890 -1.53376699 -0.17592924 2.69590302
VERTEX2 891 -2.06944910 0.09406823 2.62558846
VERTEX2 892 -2.60116872 0.41658972 2.59003024
VERTEX2 893 -3.15230811 0.71568430 2.82632664
VERTEX2 894 -3.76468223 0.83065536 3.04739448
VERTEX2 895 -4.36454983 0.78547383 -2.93750987
VERTEX2 896 -4.38337092 0.78109962 -2.45896419
VERTEX2 897 -4.67037641 0.36188570 -2.18665095
VERTEX2 898 -5.02537985 -0.14623461 -2.17100870
VERTEX2 899 -5.31481931 -0.55516160 -2.23862334
VERTEX2 900 -5.73184919 -1.09750988 -2.24092624
VERTEX2 901 -6.10650739 -1.53999824 -2.30522621
VERTEX2 902 -6.52597899 -2.02942717 -2.27994456
VERTEX2 903 -6.84474563 -2.40689760 -2.32467892
VERTEX2 904 -6.84572773 -2.40827930 -1.62140891
VERTEX2 905 -6.83514107 -2.90166497 -1.56588569
VERTEX2 906 -6.80492110 -3.47336658 -1.50011890
VERTEX2 907 -6.75238404 -4.04834773 -1.50826185
VERTEX2 908 -6.71019527 -4.67015034 -1.48338547
VERTEX2 909 -6.65365614 -5.28221711 -1.50121199
VERTEX2 910 -6.68201307 -5.41059013 -1.87093176
VERTEX2 911 -6.84535824 -5.97962489 -1.80995804
VERTEX2 912 -6.96903880 -6.53877906 -1.79719977
VERTEX2 913 -7.08508992 -7.08209214 -1.78950084
VERTEX2 914 -7.21553868 -7.67149071 -1.81338434
VERTEX2 915 -7.34310847 -8.18192471 -1.85031487
VERTEX2 916 -7.28043183 -8.42616532 -1.30323933
VERTEX2 917 -7.14609773 -9.07606727 -1.55792724
VERTEX2 918 -7.17016380 -9.59516935 -1.63364134
VERTEX2 919 -7.20862049 -10.22005356 -1.67711297
VERTEX2 920 -7.27810598 -10.83529534 -1.69483143
VERTEX2 921 -7.35655072 -11.45174079 -1.74830107
VERTEX2 922 -7.46433381 -12.05668370 -1.77561835
VERTEX2 923 -7.58963655 -12.62433821 -1.83918021
VERTEX2 924 -7.72559347 -13.11715981 -1.82257308
VERTEX2 925 -7.72632341 -13.11334370 -1.31791524
VERTEX2 926 -7.57052776 -13.67751609 -1.30174879
VERTEX2 927 -7.40815427 -14.27033679 -1.32509266
VERTEX2 928 -7.25500947 -14.87853831 -1.33406183
VERTEX2 929 -7.10839808 -15.48385968 -1.33499858
VERTEX2 930 -6.96592761 -16.11606653 -1.41764729
VERTEX2 931 -6.88451769 -16.74330973 -1.49793799
VERTEX2 932 -6.84327233 -17.37105549 -1.55742866
VERTEX2 933 -6.84468743 -17.98399463 -1.62206746
VERTEX2 934 -6.86312757 -18.46489090 -1.63192207
VERTEX2 935 -6.86047845 -18.47765544 -0.94982901
VERTEX2 936 -6.85850189 -18.47836721 -0.00470501
VERTEX2 937 -6.31587394 -18.45760076 0.05816129
VERTEX2 938 -5.71960999 -18.47852336 -0.11525880
VERTEX2 939 -5.09585885 -18.54349456 -0.08755483
VERTEX2 940 -4.48427293 -18.62384362 -0.17345123
VERTEX2 941 -3.88009354 -18.74455730 -0.22713292
VERTEX2 942 -3.36201318 -18.86479866 -0.22266011
VERTEX2 943 -2.75363541 -19.00395393 -0.13435496
VERTEX2 944 -2.14094805 -19.09232171 -0.19102872
VERTEX2 945 -1.51970469 -19.22683986 -0.24616055
VERTEX2 946 -1.34424530 -19.27321900 -0.18184234
VERTEX2 947 -0.93455505 -19.21389348 0.14638180
VERTEX2 948 -0.36046448 -19.12981478 0.12723186
VERTEX2 949 0.24368726 -19.10087827 -0.02843575
VERTEX2 950 0.87469340 -19.14303565 -0.26795789
VERTEX2 951 1.47677466 -19.32198740 -0.34010570
VERTEX2 952 2.07855653 -19.50394968 -0.08931646
VERTEX2 953 2.70903290 -19.54154623 -0.00902777
VERTEX2 954 3.33410154 -19.54004674 -0.01603026
VERTEX2 955 3.92373160 -19.59117724 -0.17685344
VERTEX2 956 4.47437933 -19.67488297 -0.17914636
VERTEX2 957 5.00565342 -19.77619924 -0.26683854
VERTEX2 958 5.47211799 -19.89307860 -0.29356696
VERTEX2 959 5.90362808 -20.01588760 -0.36065908
VERTEX2 960 6.49148742 -20.18394059 -0.28075691
VERTEX2 961 7.07156082 -20.36320968 -0.30778357
VERTEX2 962 7.68788092 -20.49708767 -0.24216155
VERTEX2 963 8.30477594 -20.58319302 -0.05547563
VERTEX2 964 8.92656708 -20.62999617 -0.11936199
VERTEX2 965 9.54371817 -20.71427772 -0.12624618
VERTEX2 966 9.98701342 -20.77645698 -0.18522108
VERTEX2 967 10.02017354 -20.77000137 0.66817830
VERTEX2 968 10.02838916 -20.76235748 1.56491402
VERTEX2 969 10.03053741 -20.78989576 1.62437593
VERTEX2 970 10.03282400 -20.81767625 1.62263845
VERTEX2 971 10.01473288 -20.48409763 1.62276529
VERTEX2 972 9.98021329 -19.89711535 1.62837175
VERTEX2 973 10.06383610 -19.31541484 1.34333296
VERTEX2 974 10.20732316 -18.71454639 1.37510388
VERTEX2 975 10.32296879 -18.10938964 1.37965417
VERTEX2 976 10.43190270 -17.50153904 1.39249100
VERTEX2 977 10.57171083 -16.88429127 1.36620460
VERTEX2 978 10.69671290 -16.27316302 1.41216437
VERTEX2 979 10.81550599 -15.66585272 1.39987464
VERTEX2 980 10.91721895 -15.06156274 1.44677937
VERTEX2 981 11.00975906 -14.46777537 1.45366968
VERTEX2 982 11.06938373 -13.94040435 1.49862079
VERTEX2 983 11.12246851 -13.34188562 1.49522968
VERTEX2 984 11.15314423 -12.74567894 1.55258521
VERTEX2 985 11.16747802 -12.14842133 1.57285367
VERTEX2 986 11.15612494 -11.52739688 1.60917336
VERTEX2 987 11.14705344 -10.90787172 1.57246261
VERTEX2 988 11.15341521 -10.28878310 1.58615274
VERTEX2 989 11.14254061 -9.67426849 1.59375359
VERTEX2 990 11.13951765 -9.06309757 1.58294037
VERTEX2 991 11.12810052 -8.44837284 1.60774656
VERTEX2 992 11.12674452 -7.86161889 1.57515054
VERTEX2 993 11.11698212 -7.24537880 1.60790757
VERTEX2 994 11.10439780 -6.65988242 1.59797889
VERTEX2 995 11.07599101 -6.05864003 1.64525809
VERTEX2 996 11.01959384 -5.44211958 1.67239207
VERTEX2 997 10.97850257 -4.78710875 1.60797983
VERTEX2 998 10.96108759 -4.37456184 1.62984251
VERTEX2 999 10.98306653 -4.39260208 2.34769832
VERTEX2 1000 10.51754432 -4.02490060 2.49636604
VERTEX2 1001 10.07583011 -3.61666220 2.17546362
VERTEX2 1002 9.70785043 -3.13668405 2.26817688
VERTEX2 1003 9.35740595 -2.62933791 2.08863731
VERTEX2 1004 9.02249113 -2.09055003 2.14687105
VERTEX2 1005 8.67257826 -1.59411496 2.20930565
VERTEX2 1006 8.28045817 -1.11367894 2.28669316
VERTEX2 1007 7.87112673 -0.68519474 2.37837261
VERTEX2 1008 7.63736072 -0.46915027 2.53792262
VERTEX2 1009 7.54023815 -0.45377759 3.01103546
VERTEX2 1010 6.97356108 -0.39418198 3.06359622
VERTEX2 1011 6.35765765 -0.35083599 3.02054516
VERTEX2 1012 5.74814259 -0.28355202 3.06250173
VERTEX2 1013 5.11153809 -0.28191886 -3.10566363
VERTEX2 1014 4.49845165 -0.22979459 3.00228707
VERTEX2 1015 3.87327174 -0.18624892 3.08680513
VERTEX2 1016 3.10346045 -0.14349298 3.09357591
VERTEX2 1017 2.51802781 -0.12613573 3.03641802
VERTEX2 1018 1.96047966 -0.06049032 3.04371107
VERTEX2 1019 1.36558540 -0.03194101 3.10325699
VERTEX2 1020 0.75052532 0.00824111 3.08930647
VERTEX2 1021 0.12952320 0.04159444 3.04870363
VERTEX2 1022 0.07591183 0.04639420 3.04147526
VERTEX2 1023 0.08268574 0.04621837 3.12806594
VERTEX2 1024 -0.54431948 0.05825433 -3.12879003
VERTEX2 1025 -1.17373525 0.03202294 -3.11122097
VERTEX2 1026 -1.33530496 0.02761931 -3.10404942
VERTEX2 1027 -1.31927978 0.03533634 -2.18753354
VERTEX2 1028 -1.33352968 -0.13056409 -1.62407991
VERTEX2 1029 -1.36612054 -0.69615122 -1.64564110
VERTEX2 1030 -1.43398188 -1.31634717 -1.72605110
VERTEX2 1031 -1.55112707 -1.96027276 -1.78018852
VERTEX2 1032 -1.68616803 -2.60413858 -1.77612856
VERTEX2 1033 -1.83419469 -3.24670525 -1.82125480
VERTEX2 1034 -1.87990322 -3.41662190 -2.03499727
VERTEX2 1035 -1.88499748 -3.42085877 -2.65422723
VERTEX2 1036 -1.85439530 -3.43522678 3.05823480
VERTEX2 1037 -2.19368672 -3.30348234 2.81988633
VERTEX2 1038 -2.80440411 -3.17726554 2.91113313
VERTEX2 1039 -3.44183417 -3.00353987 2.87963514
VERTEX2 1040 -3.41624774 -3.00431664 -2.77338775
VERTEX2 1041 -3.38749308 -3.00828009 -1.75630678
VERTEX2 1042 -3.38945666 -3.04055774 -0.76824364
VERTEX2 1043 -3.35636414 -3.07138575 0.20146556
VERTEX2 1044 -3.36980299 -3.08707336 1.19540408
VERTEX2 1045 -3.37277100 -3.09351899 1.08137820
VERTEX2 1046 -3.38311754 -3.10728046 0.69584464
VERTEX2 1047 -3.40183423 -3.11531373 0.14007430
VERTEX2 1048 -3.03960831 -3.18644935 -0.17291867
VERTEX2 1049 -2.39457003 -3.28822057 -0.15576055
VERTEX2 1050 -1.74762775 -3.36223487 -0.08008109
VERTEX2 1051 -1.09248439 -3.43920687 -0.15922090
VERTEX2 1052 -0.46895018 -3.52354558 -0.10626395
VERTEX2 1053 -0.05184842 -3.58020874 -0.15888920
VERTEX2 1054 -0.02544713 -3.58313911 0.60330218
VERTEX2 1055 -0.01899479 -3.55361987 1.65861855
VERTEX2 1056 -0.01035352 -3.56642140 2.66230797
VERTEX2 1057 0.01469998 -3.56934853 -2.63008839
VERTEX2 1058 0.01310403 -3.57120323 -1.70796369
VERTEX2 1059 -0.08841764 -4.15253706 -1.78872324
VERTEX2 1060 -0.22900915 -4.78097021 -1.78372802
VERTEX2 1061 -0.33904112 -5.22575879 -1.90626901
VERTEX2 1062 -0.34253994 -5.23107578 -2.47048419
VERTEX2 1063 -0.32121734 -5.21907178 -3.06819847
VERTEX2 1064 -0.60114472 -5.16441413 2.94974578
VERTEX2 1065 -1.18817400 -5.09322809 3.07172355
VERTEX2 1066 -1.75078400 -5.03688009 3.01562388
VERTEX2 1067 -1.73614530 -5.03622089 -2.83487001
VERTEX2 1068 -1.72356868 -5.02751911 -2.16204786
VERTEX2 1069 -1.72294750 -5.02588107 -1.99165643
VERTEX2 1070 -1.72146255 -5.02331430 -2.53058816
VERTEX2 1071 -2.19502914 -5.27613448 -2.65779134
VERTEX2 1072 -2.64663214 -5.50563893 -2.72644321
VERTEX2 1073 -2.61735999 -5.50508612 3.04561656
VERTEX2 1074 -3.14660529 -5.42970231 3.01126348
VERTEX2 1075 -3.72347109 -5.34962212 3.02783597
VERTEX2 1076 -3.74249101 -5.34810563 -2.85114966
VERTEX2 1077 -3.75622761 -5.37363235 -2.04540168
VERTEX2 1078 -3.99897803 -5.98289375 -2.00025905
VERTEX2 1079 -4.23581578 -6.54914507 -1.93815002
VERTEX2 1080 -4.24105797 -6.56290045 -2.42577166
VERTEX2 1081 -4.67112786 -6.85284735 -2.54903283
VERTEX2 1082 -4.84257150 -6.97089573 -2.26843526
VERTEX2 1083 -4.83825332 -7.00560365 -1.23825149
VERTEX2 1084 -4.76765627 -7.04248864 -0.27284964
VERTEX2 1085 -4.77230163 -7.04370361 0.71059388
VERTEX2 1086 -4.40865328 -6.55639829 0.94121895
VERTEX2 1087 -4.02555864 -6.05141299 0.92923035
VERTEX2 1088 -3.66108595 -5.54198954 0.91255735
VERTEX2 1089 -3.60482584 -5.47033427 0.81725718
VERTEX2 1090 -3.59451172 -5.46103893 0.20256995
VERTEX2 1091 -3.05729081 -5.43272006 0.02588811
VERTEX2 1092 -2.43886211 -5.42169117 0.01088793
VERTEX2 1093 -1.87056668 -5.42851721 -0.05403194
VERTEX2 1094 -1.85960185 -5.43909602 -0.45763511
VERTEX2 1095 -1.83102904 -5.46474226 -1.04674301
VERTEX2 1096 -1.83170451 -5.46177468 -1.61735712
VERTEX2 1097 -1.91585089 -5.78331515 -1.83243887
VERTEX2 1098 -2.09503749 -6.37608406 -1.88901397
VERTEX2 1099 -2.30400729 -6.93296791 -1.98477635
VERTEX2 1100 -2.30856960 -6.94432739 -1.62120312
VERTEX2 1101 -2.25163805 -7.20586845 -1.35489474
VERTEX2 1102 -2.25215521 -7.21165040 -1.74806620
VERTEX2 1103 -2.38137921 -7.81744031 -1.78157748
VERTEX2 1104 -2.52134031 -8.44951695 -1.80900854
VERTEX2 1105 -2.67826293 -9.06757191 -1.82664492
VERTEX2 1106 -2.80518560 -9.54062793 -1.85161571
VERTEX2 1107 -2.80472114 -9.54624727 -1.59510252
VERTEX2 1108 -2.77646044 -10.17441492 -1.58743391
VERTEX2 1109 -2.83332533 -10.82036020 -1.69155436
VERTEX2 1110 -2.91239506 -11.43006575 -1.74122504
VERTEX2 1111 -3.08695928 -11.96098865 -1.84265572
VERTEX2 1112 -3.12544367 -12.54223225 -1.49643728
VERTEX2 1113 -3.09443128 -13.18336416 -1.59192803
VERTEX2 1114 -3.10692256 -13.80209801 -1.57497701
VERTEX2 1115 -3.10652366 -14.38744072 -1.59123695
VERTEX2 1116 -3.09736385 -15.03791942 -1.55503971
VERTEX2 1117 -3.09489185 -15.13749331 -1.68287639
VERTEX2 1118 -3.09533579 -15.13830015 -2.29022996
VERTEX2 1119 -3.09002782 -15.13466731 -2.72199239
VERTEX2 1120 -3.65798337 -15.33915860 -2.78567551
VERTEX2 1121 -3.85193406 -15.40656711 -2.90432482
VERTEX2 1122 -3.85049510 -15.40706236 2.82840156
VERTEX2 1123 -4.40201388 -15.21926650 2.84526882
VERTEX2 1124 -4.96205566 -15.08777668 2.94393428
VERTEX2 1125 -5.59005706 -14.95935524 2.95736283
VERTEX2 1126 -5.67347485 -14.94558971 -2.98623120
VERTEX2 1127 -5.66983709 -14.94950546 -1.92940802
VERTEX2 1128 -5.66942881 -14.94759630 -0.94245961
VERTEX2 1129 -5.65430859 -14.95616824 0.07272176
VERTEX2 1130 -5.06892085 -14.89559690 0.08637835
VERTEX2 1131 -4.29940758 -15.02533613 -0.34547989
VERTEX2 1132 -3.69303567 -15.24618660 -0.36514471
VERTEX2 1133 -3.15042200 -15.47719607 -0.40380666
VERTEX2 1134 -2.90075117 -15.58419736 -0.50076871
VERTEX2 1135 -2.89090135 -15.59401332 -1.05673147
VERTEX2 1136 -2.89218493 -15.59661629 -1.61861738
VERTEX2 1137 -2.94922299 -15.90150618 -1.80256822
VERTEX2 1138 -3.11011421 -16.53625164 -1.81876341
VERTEX2 1139 -3.23363102 -17.03107324 -1.89180216
VERTEX2 1140 -3.22382254 -17.00813972 -2.37041272
VERTEX2 1141 -3.20268306 -16.98795748 -2.91741032
VERTEX2 1142 -3.56576412 -16.94111705 3.00174719
VERTEX2 1143 -4.16381809 -16.88872076 3.09132074
VERTEX2 1144 -4.74491298 -16.84889652 3.06086130
VERTEX2 1145 -5.32345612 -16.79784662 3.03554937
VERTEX2 1146 -5.89950762 -16.73516578 3.05544428
VERTEX2 1147 -6.47944630 -16.71965210 3.12831907
VERTEX2 1148 -7.05800590 -16.71172415 3.13834978
VERTEX2 1149 -7.10086318 -16.71262773 -2.64659021
VERTEX2 1150 -7.19410689 -16.81432048 -1.83686992
VERTEX2 1151 -7.19225365 -16.82566660 -0.83293444
VERTEX2 1152 -7.17507578 -16.82612233 0.22030935
VERTEX2 1153 -7.16029314 -16.81959956 1.23321139
VERTEX2 1154 -7.21642548 -16.50219830 1.77927562
VERTEX2 1155 -7.34333476 -15.87674026 1.72993240
VERTEX2 1156 -7.43456831 -15.27021607 1.73995770
VERTEX2 1157 -7.55599278 -14.69813943 1.85107975
VERTEX2 1158 -7.67631971 -14.09503168 1.72253861
VERTEX2 1159 -7.73088676 -13.49133884 1.62855078
VERTEX2 1160 -7.74709745 -12.85142040 1.49185815
VERTEX2 1161 -7.64102377 -12.22076316 1.40221225
VERTEX2 1162 -7.54320550 -11.58972897 1.46036850
VERTEX2 1163 -7.47425580 -10.94744052 1.45495634
VERTEX2 1164 -7.41965797 -10.30697184 1.54044718
VERTEX2 1165 -7.40363633 -9.76761408 1.51764563
VERTEX2 1166 -7.40428649 -9.76431127 2.00665576
VERTEX2 1167 -7.35237278 -9.75217470 2.94337367
VERTEX2 1168 -7.30767369 -9.73484702 -2.43628095
VERTEX2 1169 -7.31210868 -9.78645060 -1.61420040
VERTEX2 1170 -7.32725237 -10.37261843 -1.60745130
VERTEX2 1171 -7.33238347 -11.00763780 -1.57566254
VERTEX2 1172 -7.34166504 -11.60667307 -1.63806697
VERTEX2 1173 -7.37676512 -12.23017670 -1.62891095
VERTEX2 1174 -7.42582768 -12.85874651 -1.69760826
VERTEX2 1175 -7.51702059 -13.47178593 -1.73100659
VERTEX2 1176 -7.61973510 -14.09201312 -1.77467733
VERTEX2 1177 -7.74450538 -14.69999669 -1.77263086
VERTEX2 1178 -7.88087006 -15.31180022 -1.81984373
VERTEX2 1179 -8.02363686 -15.91541321 -1.79050031
VERTEX2 1180 -8.08014277 -16.16895263 -1.79749134
VERTEX2 1181 -8.07932499 -16.16355132 -0.97006185
VERTEX2 1182 -8.02343180 -16.17826172 -0.25837431
VERTEX2 1183 -7.41068307 -16.33257696 -0.23307946
VERTEX2 1184 -6.77839048 -16.45291303 -0.16357652
VERTEX2 1185 -6.15097143 -16.56877872 -0.19587827
VERTEX2 1186 -5.51984251 -16.66921110 -0.12975209
VERTEX2 1187 -4.86630428 -16.76046377 -0.16691397
VERTEX2 1188 -4.23938725 -16.85591534 -0.14888257
VERTEX2 1189 -3.57400401 -16.96946583 -0.12717457
VERTEX2 1190 -3.23970909 -17.01285041 -0.11913353
VERTEX2 1191 -3.20400202 -17.01235612 0.80121659
VERTEX2 1192 -3.19751329 -16.92760582 1.59893628
VERTEX2 1193 -3.18663686 -16.32659810 1.46696537
VERTEX2 1194 -3.14133773 -15.75143540 1.50906531
VERTEX2 1195 -3.10859364 -15.12693966 1.56146607
VERTEX2 1196 -3.09862717 -14.50217992 1.38890753
VERTEX2 1197 -2.99103269 -13.88671704 1.40024796
VERTEX2 1198 -2.91650501 -13.25922198 1.65923332
VERTEX2 1199 -2.93001485 -12.64577745 1.44468455
VERTEX2 1200 -2.86903822 -12.01495064 1.51380732
VERTEX2 1201 -2.84051237 -11.39431897 1.56974517
VERTEX2 1202 -2.84733149 -10.77081831 1.59279692
VERTEX2 1203 -2.87464468 -10.18022088 1.50299650
VERTEX2 1204 -2.75678272 -9.58773045 1.35635264
VERTEX2 1205 -2.64502222 -9.02427301 1.38603555
VERTEX2 1206 -2.55615552 -8.43370940 1.44738698
VERTEX2 1207 -2.41514106 -7.82201081 1.36142216
VERTEX2 1208 -2.29907836 -7.19649909 1.42623267
VERTEX2 1209 -2.20864577 -6.57426067 1.42441016
VERTEX2 1210 -2.14045798 -5.95613323 1.44510500
VERTEX2 1211 -2.01147812 -5.34623463 1.37179819
VERTEX2 1212 -1.89340041 -4.73668473 1.42140062
VERTEX2 1213 -1.82272856 -4.12552932 1.49426720
VERTEX2 1214 -1.73647795 -3.40253663 1.27108243
VERTEX2 1215 -1.56856566 -2.82030022 1.32975777
VERTEX2 1216 -1.51480392 -2.26949077 1.54663482
VERTEX2 1217 -1.47673158 -1.69223589 1.52702179
VERTEX2 1218 -1.45914618 -1.10219421 1.47635279
VERTEX2 1219 -1.40428333 -0.45348499 1.50695079
VERTEX2 1220 -1.39348725 0.13351818 1.59768879
VERTEX2 1221 -1.39295579 0.13168580 1.14493579
VERTEX2 1222 -1.38291506 0.14133694 0.54762879
VERTEX2 1223 -1.37106326 0.14406113 -0.01199821
VERTEX2 1224 -0.79770319 0.04811109 -0.19490621
VERTEX2 1225 -0.18309438 -0.06924196 -0.18114221
VERTEX2 1226 -0.07835258 -0.08853622 -0.19787321
VERTEX2 1227 -0.07835258 -0.08853622 -0.19853521
