1 23 60 2 188.27875275 0.00000300 1 
2 26 156 2 184.15487577 0.00000317 1 
3 77 157 2 89.92298797 0.00000209 1 
4 19 166 0 0.41485034 0.00211649 5 
5 19 172 0 0.02820697 0.00186001 4 
6 25 172 0 0.50366199 0.00187665 4 
7 25 178 0 0.30831851 0.00196926 4 
8 32 178 0 0.01493521 0.00198573 4 
9 32 183 0 0.07055611 0.00200641 4 
10 44 189 0 0.52863102 0.00207339 4 
11 44 195 0 0.35755137 0.00215762 4 
12 50 195 0 0.00572854 0.00219325 4 
13 50 201 0 0.04110605 0.00189958 3 
14 50 203 0 0.06975183 0.00187320 3 
15 61 203 0 0.00745912 0.00189227 3 
16 61 209 0 0.37222863 0.00230658 4 
17 67 209 0 0.41032090 0.00231517 4 
18 67 220 0 0.66144083 0.00249216 4 
19 81 220 0 0.48035877 0.00285065 5 
20 195 220 2 4447.43867607 0.00000252 5 
21 81 226 0 0.05402805 0.00255886 4 
22 87 226 0 1.82553139 0.00294101 5 
23 87 231 0 0.34656585 0.00261938 4 
24 94 231 0 0.55778528 0.00255883 4 
25 226 231 0 1.44127402 0.00297965 5 
26 94 241 0 1.33132047 0.00268410 4 
27 101 241 0 0.50961029 0.00270867 4 
28 101 247 0 1.66454674 0.00275338 4 
29 107 247 0 1.80094617 0.00277028 4 
30 219 249 2 932.76692902 0.00000230 1 
31 107 254 0 1.18346605 0.00283418 4 
32 114 254 0 0.12939160 0.00285819 4 
33 107 256 0 0.93085039 0.00284268 4 
34 114 256 0 0.24629796 0.00285344 4 
35 107 258 0 1.37911724 0.00289407 4 
36 114 258 0 1.15747212 0.00291411 4 
37 121 266 0 0.00938596 0.00300075 4 
38 126 266 0 0.44864328 0.00354423 5 
39 126 272 0 1.03992836 0.00308863 4 
40 132 272 0 0.39070916 0.00363406 5 
41 132 278 0 0.58358145 0.00316711 4 
42 138 278 0 1.06458780 0.00372289 5 
43 138 284 0 0.02201259 0.00270226 3 
44 151 284 0 0.12777228 0.00328363 4 
45 151 291 0 0.60037557 0.00330956 4 
46 151 297 0 0.07972289 0.00283804 3 
47 157 297 0 1.04991834 0.00344306 4 
48 166 297 0 1.30507781 0.00338078 4 
49 19 305 0 0.16044642 0.00356033 4 
50 157 305 0 0.58687353 0.00359652 4 
51 163 305 0 7.56485476 0.00482861 6 
52 166 305 0 0.37495035 0.00359753 4 
53 172 305 0 0.01886255 0.00360200 4 
54 200 314 2 974.03719930 0.00000248 1 
55 19 315 0 0.48455906 0.00309466 3 
56 25 315 0 0.02281386 0.00310862 3 
57 172 315 0 0.05679715 0.00372348 4 
58 172 328 0 0.12482725 0.00324737 3 
59 187 334 2 302.95203750 0.00000248 1 
60 19 337 0 6.63404991 0.00465122 5 
61 25 337 0 0.96522419 0.00398556 4 
62 172 337 0 0.57611560 0.00333134 3 
63 19 342 0 0.00494520 0.00338156 3 
64 25 342 0 0.12855172 0.00405788 4 
65 172 342 0 0.01223902 0.00411062 4 
66 178 342 0 0.12442988 0.00416623 4 
67 341 355 2 497.62978649 0.00000307 1 
68 25 367 0 0.11414782 0.00378350 3 
69 32 367 0 0.01267433 0.00593000 6 
70 178 367 0 0.00286807 0.00373698 3 
71 183 367 0 0.06698524 0.00376114 3 
72 25 374 0 0.56424690 0.00459005 4 
73 32 374 0 0.09892849 0.00533727 5 
74 178 374 0 0.03055075 0.00459009 4 
75 183 374 0 0.05309447 0.00458006 4 
76 32 382 0 4.14688582 0.00392641 3 
77 183 382 0 1.28811506 0.00468050 4 
78 32 387 0 2.72468715 0.00473931 4 
79 183 387 0 0.18197642 0.00473597 4 
80 19 410 2 512.78625593 0.00000331 1 
81 189 414 0 7.69047346 0.00585201 5 
82 44 437 0 0.00915802 0.00438905 3 
83 195 437 0 0.01161094 0.00436556 3 
84 44 454 0 0.65644164 0.00451715 3 
85 189 454 0 0.03962740 0.00542203 4 
86 44 467 0 0.12345281 0.00640646 5 
87 50 467 0 0.00895575 0.01021902 9 
88 195 467 0 0.00230988 0.00463959 3 
89 118 479 2 1412.08699626 0.00000425 1 
90 195 484 0 0.09447226 0.00573069 4 
91 44 494 0 0.02880924 0.00575852 4 
92 50 494 0 0.00628832 0.00482505 3 
93 195 494 0 0.00818961 0.00682115 5 
94 201 494 0 0.00469852 0.00681728 5 
95 50 500 0 0.14406209 0.00693063 5 
96 201 500 0 0.05353930 0.00489778 3 
97 203 500 0 0.03252445 0.00486900 3 
98 61 508 0 0.99413579 0.00710687 5 
99 203 508 0 0.26947301 0.01222128 10 
100 209 508 0 0.03711473 0.00605177 4 
101 61 522 0 1.37942234 0.00611343 4 
102 203 522 0 0.12859200 0.00510133 3 
103 209 522 0 0.00542469 0.00511889 3 
104 61 528 0 0.47936102 0.00512743 3 
105 67 528 0 0.22419307 0.00626701 4 
106 81 528 0 0.23233822 0.00839376 6 
107 209 528 0 0.09444678 0.01062231 8 
108 220 528 0 0.13668760 0.00622602 4 
109 67 532 0 0.05459173 0.01180314 9 
110 81 532 0 0.11826401 0.00847053 6 
111 220 532 0 0.05648169 0.00633628 4 
112 67 556 0 0.98233216 0.00650968 4 
113 67 564 0 0.40168838 0.01232440 9 
114 81 564 0 0.02280941 0.00663544 4 
115 220 564 0 0.02684857 0.00665950 4 
116 67 567 0 2.67253169 0.00781753 5 
117 81 567 0 0.48923871 0.00912211 6 
118 220 567 0 0.21723258 0.00666327 4 
119 67 570 0 2.40706627 0.00911589 6 
120 81 570 0 0.15671702 0.00903122 6 
121 220 570 0 0.13379867 0.00674144 4 
122 81 575 0 2.76594993 0.00792098 5 
123 220 575 0 1.08612706 0.01034892 7 
124 187 587 2 1262.11454875 0.00000318 1 
125 81 588 0 0.01497138 0.00567034 3 
126 87 588 0 0.47937722 0.00816896 5 
127 226 588 0 0.43156268 0.00689939 4 
128 87 597 0 2.27648751 0.00954910 6 
129 94 597 0 0.38888315 0.00699721 4 
130 226 597 0 0.55079633 0.00829496 5 
131 87 604 0 0.47149562 0.00709371 4 
132 94 604 0 0.01542269 0.00839104 5 
133 94 616 0 0.01350372 0.01233049 8 
134 94 632 0 2.16969694 0.00877360 5 
135 94 637 0 4.44236402 0.01004612 6 
136 101 637 0 0.19098383 0.00750566 4 
137 101 642 0 0.11555601 0.00887767 5 
138 107 642 0 0.04025021 0.01407737 9 
139 571 642 2 1019.23982387 0.00000380 9 
140 101 645 0 6.69527511 0.00762210 4 
141 107 645 0 1.54205090 0.00751005 4 
142 101 657 0 0.73548669 0.01665614 10 
143 101 663 0 0.04971914 0.01671088 10 
144 107 663 0 0.01781179 0.00912199 5 
145 114 663 0 0.00275957 0.00919217 5 
146 101 665 0 1.55112265 0.01343794 8 
147 107 665 0 0.47667103 0.00779384 4 
148 114 665 0 0.13329170 0.00648435 3 
149 406 665 2 1747.36082602 0.00000323 3 
150 205 669 2 2466.88625915 0.00000380 1 
151 107 680 0 1.48615866 0.00935596 5 
152 107 683 0 0.94462224 0.00801522 4 
153 114 683 0 0.32178225 0.00952233 5 
154 295 688 2 1572.40860376 0.00000358 1 
155 613 703 2 519.91385323 0.00000402 1 
156 107 704 0 0.34268109 0.01259772 7 
157 114 704 0 0.07528002 0.01551221 9 
158 107 714 0 1.79639085 0.01131260 6 
159 114 714 0 0.02860377 0.01435356 8 
160 100 727 2 1834.52519193 0.00000381 1 
161 381 728 2 602.34185277 0.00000347 1 
162 107 730 0 0.19656714 0.01012311 5 
163 114 730 0 0.03540690 0.00853985 4 
164 228 735 2 4235.23248453 0.00000355 1 
165 121 754 0 0.33113739 0.00877083 4 
166 126 754 0 0.07673382 0.01510260 8 
167 121 759 0 2.33625684 0.01193832 6 
168 126 759 0 0.22329988 0.01201057 6 
169 126 762 0 7.08482229 0.01036531 5 
170 132 762 0 2.00372045 0.01531675 8 
171 140 771 2 950.42724608 0.00000786 1 
172 132 778 0 0.06999780 0.00906834 4 
173 132 792 0 1.26802734 0.00931206 4 
174 132 800 0 3.35686460 0.00919506 4 
175 138 800 0 0.14494330 0.01254860 6 
176 138 806 0 0.25140739 0.00753097 3 
177 758 807 2 1103.03340317 0.00000293 1 
178 743 807 2 146.97687824 0.00000147 1 
179 441 813 2 642.43250152 0.00000350 1 
180 138 821 0 0.40674396 0.01107024 5 
181 138 823 0 6.54725682 0.00938735 4 
182 477 824 2 2549.10949955 0.00000370 1 
183 151 828 0 3.12108818 0.00949002 4 
184 151 847 0 0.08724621 0.01144036 5 
185 565 850 2 646.08611225 0.00000474 1 
186 151 855 0 0.11494457 0.01512818 7 
187 242 871 2 774.42686717 0.00000475 1 
188 29 876 2 413.80785759 0.00000467 1 
189 151 895 0 2.80701437 0.01761350 8 
190 151 897 0 0.06118057 0.02132560 10 
191 291 898 2 1526.49504358 0.00000367 1 
192 138 903 0 0.08157811 0.01024642 4 
193 138 904 0 7.06392298 0.01400555 6 
194 132 907 0 0.71874717 0.01029443 4 
195 138 907 0 0.22077132 0.01220690 5 
196 132 911 0 0.23128175 0.01222012 5 
197 246 919 2 4737.15413457 0.00000469 1 
198 121 923 0 0.62636126 0.01433661 6 
199 126 923 0 0.07130653 0.01048598 4 
200 107 929 0 0.07225325 0.01252539 5 
201 114 929 0 0.00477553 0.01058191 4 
202 158 930 2 3054.44283601 0.00000503 1 
203 107 935 0 4.91438615 0.01651363 7 
204 114 935 0 1.40337639 0.01653093 7 
205 101 939 0 0.48567419 0.01071154 4 
206 107 939 0 0.21174614 0.01075368 4 
207 101 944 0 0.15377935 0.01273125 5 
208 94 947 0 0.23772432 0.01672733 7 
209 101 947 0 0.16826262 0.01476851 6 
210 704 950 2 987.75431378 0.00000413 1 
211 87 953 0 0.13504795 0.01088128 4 
212 94 953 0 0.06505521 0.01504140 6 
213 226 953 0 0.08268323 0.02287911 10 
214 81 959 0 1.83528326 0.02430603 10 
215 87 959 0 1.29172246 0.01710306 7 
216 220 959 0 0.04883629 0.01104279 4 
217 226 959 0 0.12130941 0.01306289 5 
218 526 961 2 688.59253461 0.00000410 1 
219 530 964 2 292.69406423 0.00000421 1 
220 490 964 2 1405.63722251 0.00000167 1 
221 67 965 0 1.01368609 0.01317040 5 
222 81 965 0 0.31066014 0.01519535 6 
223 220 965 0 0.16483276 0.01927404 8 
224 61 976 0 0.16803746 0.01738810 7 
225 67 976 0 0.05676300 0.00920366 3 
226 209 976 0 0.00780965 0.01124166 4 
227 627 980 2 1322.13058989 0.00000387 1 
228 50 982 0 0.38354811 0.01135363 4 
229 61 982 0 0.27147698 0.01134312 4 
230 201 982 0 0.22200943 0.01141402 4 
231 203 982 0 0.10573284 0.02186339 9 
232 44 988 0 0.09550719 0.01145549 4 
233 50 988 0 0.05924873 0.01147233 4 
234 195 988 0 0.04319526 0.01568304 6 
235 201 988 0 0.02685916 0.01358601 5 
236 44 994 0 0.51683435 0.01787128 7 
237 189 994 0 0.29989154 0.02567567 10 
238 195 994 0 0.21957432 0.01372107 5 
239 18 997 2 2769.58692841 0.00000449 1 
240 32 1003 0 0.23901034 0.01384178 5 
241 178 1003 0 0.03356851 0.02598872 10 
242 183 1003 0 0.01433170 0.01610618 6 
243 25 1008 0 1.23858172 0.01829739 7 
244 32 1008 0 0.53803958 0.01178501 4 
245 178 1008 0 0.34459610 0.01179833 4 
246 183 1008 0 0.22233868 0.01183404 4 
247 25 1010 0 0.60236133 0.01180691 4 
248 32 1010 0 0.30591807 0.01396817 5 
249 172 1010 0 0.10368354 0.01623880 6 
250 178 1010 0 0.19279072 0.02633245 10 
251 19 1016 0 0.44047719 0.02047238 8 
252 166 1016 0 0.20189646 0.01182261 4 
253 172 1016 0 0.07393216 0.01406348 5 
254 30 1016 2 15082.34829675 0.00000536 5 
255 151 1029 0 0.03533130 0.01426518 5 
256 157 1029 0 0.02672450 0.01197701 4 
257 163 1029 0 3.39703566 0.01200300 4 
258 166 1029 0 0.49353449 0.01199599 4 
259 49 1029 2 335.56955877 0.00000494 4 
260 25 1060 2 824.95270298 0.00000620 1 
261 798 1062 2 137.11104304 0.00000474 1 
262 280 1068 2 545.81601513 0.00000604 1 
263 132 1084 0 4.21993706 0.01502286 5 
264 741 1084 2 50.83938319 0.00000540 5 
265 724 1089 2 1000.77106589 0.00000550 1 
266 1012 1124 2 55.55544807 0.00000544 1 
267 749 1132 2 95.31604223 0.00000546 1 
268 707 1133 2 403.33343879 0.00000538 1 
269 101 1138 0 0.63021658 0.01572861 5 
270 107 1147 0 0.73708347 0.01321821 4 
271 114 1147 0 0.03971358 0.01080699 3 
272 107 1150 0 7.45683387 0.01331072 4 
273 114 1150 0 1.00561260 0.01085313 3 
274 114 1158 0 0.16899687 0.01086949 3 
275 121 1158 0 0.69099743 0.01342022 4 
276 862 1159 2 1236.43620010 0.00000518 1 
277 121 1164 0 0.45182924 0.01596468 5 
278 126 1164 0 0.04418665 0.01349672 4 
279 114 1175 0 0.14266969 0.01363215 4 
280 121 1175 0 0.27324351 0.01364887 4 
281 923 1175 0 0.18719011 0.01369946 4 
282 929 1175 0 0.16073549 0.01364373 4 
283 1158 1175 0 0.00134797 0.01111588 3 
284 101 1188 0 0.32950319 0.01383061 4 
285 939 1188 0 0.55418798 0.01378326 4 
286 1138 1188 0 0.03006025 0.01136424 3 
287 1147 1188 0 0.04063922 0.01126708 3 
288 1150 1188 0 1.83245351 0.01382585 4 
289 872 1197 2 508.69172809 0.00000588 1 
290 1050 1210 0 0.00345523 0.01404434 4 
291 1061 1210 0 0.57363906 0.01667463 5 
292 1075 1210 0 0.23107861 0.01665692 5 
293 1084 1210 0 3.13555510 0.01667836 5 
294 1088 1210 0 0.59156319 0.01408896 4 
295 1093 1210 0 0.13111230 0.01929625 6 
296 1098 1210 0 0.04730346 0.01408358 4 
297 157 1217 0 0.32750279 0.01419916 4 
298 163 1217 0 0.19904338 0.01432812 4 
299 1029 1217 0 0.01250493 0.01162131 3 
300 1044 1217 0 3.98258990 0.01435066 4 
301 1050 1217 0 4.97161000 0.01700476 5 
302 606 1223 2 893.22494753 0.00000564 1 
303 1099 1226 2 628.92615518 0.00000521 1 
304 163 297 0 0.27920255 0.01523414 4 
305 189 400 0 2.09679271 0.01463755 4 
306 1056 1217 0 9.66143264 0.01734247 5 
