VERTEX2 0 0.00000406 -0.00000013 -0.00000015
VERTEX2 1 0.00000406 -0.00000013 -0.00064215
VERTEX2 2 0.00000405 -0.00000013 -0.00118015
VERTEX2 3 0.01100591 -0.00097511 -0.00356215
VERTEX2 4 0.64101247 -0.01120035 -0.00744415
VERTEX2 5 0.69602016 -0.01171585 -0.09872615
VERTEX2 6 0.70027327 -0.01543517 -0.89599815
VERTEX2 7 0.69396053 0.00421331 -1.51153515
VERTEX2 8 0.69926739 0.02669408 -2.12506915
VERTEX2 9 0.71611866 0.04112309 -2.76313915
VERTEX2 10 0.72898517 0.04322048 2.90551516
VERTEX2 11 0.73320775 0.04053744 2.23123616
VERTEX2 12 0.73319047 0.04154589 1.58176216
VERTEX2 13 0.73875663 0.05907098 0.92226416
VERTEX2 14 0.75966215 0.07375118 0.31402516
VERTEX2 15 0.76857555 0.07435812 -0.21090284
VERTEX2 16 1.06249759 0.01415264 -0.22959484
VERTEX2 17 1.66365122 -0.13311420 -0.26082284
VERTEX2 18 2.28700533 -0.29647936 -0.27099984
VERTEX2 19 2.91086127 -0.49319375 -0.31957404
VERTEX2 20 3.50226739 -0.68228118 -0.31374789
VERTEX2 21 4.10929840 -0.83394011 -0.20231914
VERTEX2 22 4.71723964 -0.97473080 -0.18506076
VERTEX2 23 5.35596325 -1.01890924 -0.07782915
VERTEX2 24 5.99398169 -1.09081087 -0.13433703
VERTEX2 25 6.63546730 -1.15881062 -0.13111642
VERTEX2 26 7.23985826 -1.25788891 -0.17184170
VERTEX2 27 7.85715573 -1.34892393 -0.15581158
VERTEX2 28 8.43996101 -1.44717188 -0.16009540
VERTEX2 29 8.82034061 -1.50447229 -0.12917550
VERTEX2 30 8.83426460 -1.50816564 -0.66107901
VERTEX2 31 8.93614862 -1.64453432 -0.92937029
VERTEX2 32 9.30561687 -2.15930001 -0.94789868
VERTEX2 33 9.68723467 -2.66349784 -0.89761601
VERTEX2 34 10.09779589 -3.15184752 -0.87709204
VERTEX2 35 10.51819878 -3.63272558 -0.84339059
VERTEX2 36 10.94490742 -4.11503912 -0.85250862
VERTEX2 37 11.22498716 -4.42802938 -0.84539012
VERTEX2 38 11.22151069 -4.42329301 -1.16808960
VERTEX2 39 11.21907451 -4.41196906 -1.33985954
VERTEX2 40 11.36105042 -4.98104037 -1.32320005
VERTEX2 41 11.50812989 -5.57520695 -1.35579740
VERTEX2 42 11.62754035 -6.13260851 -1.37910464
VERTEX2 43 11.73070717 -6.72139146 -1.41992702
VERTEX2 44 11.81677894 -7.30922243 -1.45752256
VERTEX2 45 11.86956351 -7.92900437 -1.51329552
VERTEX2 46 11.89812337 -8.55005602 -1.53297282
VERTEX2 47 11.91562943 -9.17058146 -1.57500676
VERTEX2 48 11.90934029 -9.79472624 -1.58193870
VERTEX2 49 11.89908459 -10.41467076 -1.63324369
VERTEX2 50 11.84149112 -11.00727468 -1.67693602
VERTEX2 51 11.78325441 -11.60292624 -1.70603533
VERTEX2 52 11.68324742 -12.18439722 -1.78281921
VERTEX2 53 11.58053212 -12.74021957 -1.77054501
VERTEX2 54 11.46509498 -13.24985289 -1.83273433
VERTEX2 55 11.47224403 -13.21661895 -1.82755011
VERTEX2 56 11.47206517 -13.21731908 -1.81706936
VERTEX2 57 11.32497700 -13.83276203 -1.82857900
VERTEX2 58 11.17533847 -14.43634927 -1.78249642
VERTEX2 59 11.04288022 -15.03973289 -1.80623213
VERTEX2 60 10.90975827 -15.63939544 -1.78502645
VERTEX2 61 10.76860952 -16.24703036 -1.83581720
VERTEX2 62 10.61510128 -16.80447155 -1.79598145
VERTEX2 63 10.45975986 -17.36670605 -1.83151490
VERTEX2 64 10.32092690 -17.92387975 -1.76820223
VERTEX2 65 10.18251718 -18.47891281 -1.81972728
VERTEX2 66 10.02485716 -19.06356757 -1.82789187
VERTEX2 67 9.85535710 -19.65153873 -1.82662754
VERTEX2 68 9.74343213 -20.09403386 -1.84385058
VERTEX2 69 9.74837787 -20.07855240 -2.00066928
VERTEX2 70 9.75942155 -20.05815478 -2.67902412
VERTEX2 71 9.80029118 -20.05648310 2.95769246
VERTEX2 72 9.82995419 -20.06134471 2.94682227
VERTEX2 73 9.85359225 -20.06773897 2.88032796
VERTEX2 74 9.86502948 -20.07586428 2.25480352
VERTEX2 75 9.88619039 -20.08482233 1.89990860
VERTEX2 76 9.88190886 -20.07977039 2.58976521
VERTEX2 77 9.89176562 -20.08423477 2.82063935
VERTEX2 78 9.58255609 -20.08586328 -3.11424880
VERTEX2 79 8.93649588 -20.11324763 -3.11453400
VERTEX2 80 8.28033643 -20.10183164 3.09978468
VERTEX2 81 7.63419379 -20.06822694 3.07863222
VERTEX2 82 7.03407519 -20.02298426 3.02500441
VERTEX2 83 6.44505777 -19.96750642 3.00191939
VERTEX2 84 5.88295836 -19.87798369 2.92457638
VERTEX2 85 5.34121554 -19.77094299 2.93225736
VERTEX2 86 4.73287545 -19.64716711 2.84296307
VERTEX2 87 4.34530771 -19.54008126 2.79108731
VERTEX2 88 3.99095700 -19.40657771 2.76162050
VERTEX2 89 3.99914419 -19.40702344 -3.12506640
VERTEX2 90 3.39207727 -19.40816269 3.12731910
VERTEX2 91 2.77454120 -19.40179940 -3.10651681
VERTEX2 92 2.17318610 -19.39577715 3.06122090
VERTEX2 93 1.55299322 -19.29139231 2.96053374
VERTEX2 94 0.93394814 -19.15144204 2.91786709
VERTEX2 95 0.31213149 -19.06186247 3.06081132
VERTEX2 96 -0.29902676 -19.00916694 3.08510186
VERTEX2 97 -0.88943736 -18.94481492 3.01470169
VERTEX2 98 -1.47736615 -18.84270439 2.95688095
VERTEX2 99 -2.18181640 -18.71726466 3.00376762
VERTEX2 100 -2.74552382 -18.60841034 2.95207315
VERTEX2 101 -3.35700708 -18.55062082 3.05521859
VERTEX2 102 -3.97095464 -18.46910597 2.94955240
VERTEX2 103 -4.57929354 -18.35329207 3.04565723
VERTEX2 104 -5.19236637 -18.27597079 3.01204594
VERTEX2 105 -5.80583313 -18.21051611 3.05861541
VERTEX2 106 -6.40852388 -18.13912664 3.00371351
VERTEX2 107 -7.02651326 -18.04199662 2.99982796
VERTEX2 108 -7.48212441 -17.99188833 3.06140957
VERTEX2 109 -7.52842002 -17.98002983 2.61292338
VERTEX2 110 -7.54530389 -17.96246189 2.02159631
VERTEX2 111 -7.54526784 -17.88254516 1.51576931
VERTEX2 112 -7.51982210 -17.24962918 1.57019174
VERTEX2 113 -7.53649614 -16.62813201 1.61721966
VERTEX2 114 -7.56793013 -16.01502633 1.65399994
VERTEX2 115 -7.63932240 -15.37925934 1.71433372
VERTEX2 116 -7.75607086 -14.63267718 1.75846301
VERTEX2 117 -7.88994599 -14.02569156 1.85404505
VERTEX2 118 -7.89370344 -14.00868943 1.51949167
VERTEX2 119 -7.83837416 -13.49865932 1.46637098
VERTEX2 120 -7.78622204 -12.85025942 1.55670993
VERTEX2 121 -7.79689447 -12.23775507 1.62440266
VERTEX2 122 -7.83090091 -11.65899305 1.68066787
VERTEX2 123 -7.85543263 -11.48250996 1.66793330
VERTEX2 124 -7.77099526 -11.24813045 1.24502949
VERTEX2 125 -7.55643982 -10.65955522 1.23412171
VERTEX2 126 -7.42562199 -10.04783445 1.44071857
VERTEX2 127 -7.33074084 -9.42083451 1.43933344
VERTEX2 128 -7.25801254 -8.78929041 1.47592729
VERTEX2 129 -7.17467573 -8.16186206 1.44339490
VERTEX2 130 -7.11008090 -7.53605512 1.49614042
VERTEX2 131 -7.06706479 -6.91560402 1.58462664
VERTEX2 132 -7.05175702 -6.30406611 1.53496198
VERTEX2 133 -7.00704145 -5.74018765 1.49829722
VERTEX2 134 -6.95560967 -5.14750936 1.48019593
VERTEX2 135 -6.87639025 -4.57585207 1.45404793
VERTEX2 136 -6.80522241 -3.94701733 1.47369766
VERTEX2 137 -6.71194443 -3.32089651 1.43180016
VERTEX2 138 -6.63924052 -2.69549882 1.51182024
VERTEX2 139 -6.62603949 -2.06652107 1.57587025
VERTEX2 140 -6.65712635 -1.41096019 1.60512988
VERTEX2 141 -6.66466638 -0.77249900 1.55534519
VERTEX2 142 -6.66569625 -0.12457786 1.55020031
VERTEX2 143 -6.58507262 0.50922777 1.43794261
VERTEX2 144 -6.54482334 0.87626861 1.45400581
VERTEX2 145 -6.54222287 0.88402298 0.95238373
VERTEX2 146 -13.77010391 -18.67345659 0.05547577
VERTEX2 147 -15.51064805 -18.16008551 -0.24914778
VERTEX2 148 -15.11209954 -18.26936708 -0.28394421
VERTEX2 149 -14.51053449 -18.43847439 -0.25798134
VERTEX2 150 -13.91205174 -18.57801586 -0.24296300
VERTEX2 151 -13.30604375 -18.70131120 -0.15629157
VERTEX2 152 -12.70231558 -18.81234532 -0.22340849
VERTEX2 153 -12.09890808 -18.92460697 -0.13646216
VERTEX2 154 -11.49810543 -19.02884313 -0.21237221
VERTEX2 155 -10.89576534 -19.14965459 -0.18462665
VERTEX2 156 -10.28895709 -19.25566789 -0.15953729
VERTEX2 157 -9.75168242 -19.35733010 -0.22993392
VERTEX2 158 -9.57195482 -19.39982616 -0.20080916
VERTEX2 159 -9.57894897 -19.39631588 0.79351161
VERTEX2 160 -9.57060222 -19.38645728 1.83652782
VERTEX2 161 -0.17041795 0.44585919 2.69603082
VERTEX2 162 -0.15233300 0.44972951 -2.54598438
VERTEX2 163 -0.15175121 0.45256650 -1.54374446
VERTEX2 164 -0.23207680 0.55275823 -0.48001661
VERTEX2 165 -0.05642947 0.53515252 -0.07227811
VERTEX2 166 0.64301621 0.49127698 -0.07060720
VERTEX2 167 1.26070727 0.44050740 -0.09963636
VERTEX2 168 1.84982573 0.39095934 -0.08733485
VERTEX2 169 2.44577099 0.31927621 -0.12397493
VERTEX2 170 3.03301220 0.25098983 -0.14436149
VERTEX2 171 3.59498209 0.15274273 -0.18242368
VERTEX2 172 4.22071151 0.04556511 -0.16816398
VERTEX2 173 4.85038427 -0.07490763 -0.19097213
VERTEX2 174 5.47631503 -0.18894988 -0.15082969
VERTEX2 175 6.09336149 -0.27885784 -0.17552415
VERTEX2 176 6.69345066 -0.39885863 -0.16591228
VERTEX2 177 7.31754060 -0.50133427 -0.19356540
VERTEX2 178 7.93957725 -0.64694247 -0.23258107
VERTEX2 179 8.34436650 -0.73076854 -0.17919709
VERTEX2 180 8.39564768 -0.74453925 -0.62114840
VERTEX2 181 8.83668617 -1.06275514 -0.67290494
VERTEX2 182 9.24343212 -1.42269719 -0.84690989
VERTEX2 183 9.59052981 -1.84314269 -0.90425839
VERTEX2 184 9.93216676 -2.35732101 -1.05118015
VERTEX2 185 10.21746606 -2.89373683 -1.14418356
VERTEX2 186 10.43713004 -3.46083594 -1.21103900
VERTEX2 187 10.63190132 -4.00563951 -1.23414030
VERTEX2 188 10.83088202 -4.56357423 -1.24013796
VERTEX2 189 11.02208579 -5.12533390 -1.26752563
VERTEX2 190 11.20414887 -5.73232862 -1.29626818
VERTEX2 191 11.37581107 -6.33836066 -1.32035246
VERTEX2 192 11.52840020 -6.93733864 -1.34876119
VERTEX2 193 11.65009453 -7.48712282 -1.40458009
VERTEX2 194 11.74784941 -8.05681297 -1.43149582
VERTEX2 195 11.82595141 -8.62094864 -1.46032530
VERTEX2 196 11.88961356 -9.24826437 -1.50117208
VERTEX2 197 11.92444317 -9.87123711 -1.52874109
VERTEX2 198 11.94646321 -10.49146525 -1.58702788
VERTEX2 199 11.91510467 -11.10052616 -1.64857293
VERTEX2 200 11.86465854 -11.70415289 -1.67058256
VERTEX2 201 11.79138467 -12.29588485 -1.72750610
VERTEX2 202 11.72492277 -12.79995995 -1.70759467
VERTEX2 203 11.61944370 -13.53230449 -1.76065880
VERTEX2 204 11.49563126 -14.10165351 -1.86326623
VERTEX2 205 11.32478888 -14.65544927 -1.87324098
VERTEX2 206 11.16605534 -15.20339166 -1.87103904
VERTEX2 207 11.00163743 -15.77110556 -1.85483397
VERTEX2 208 10.82355151 -16.37136655 -1.86406225
VERTEX2 209 10.65675818 -16.97349573 -1.82567997
VERTEX2 210 10.48937789 -17.56447511 -1.83458907
VERTEX2 211 10.33593889 -18.15927666 -1.83237261
VERTEX2 212 10.15496538 -18.74353915 -1.88527094
VERTEX2 213 9.95533722 -19.33139358 -1.90608753
VERTEX2 214 9.75095807 -19.90563737 -1.90992920
VERTEX2 215 9.63344908 -20.22671120 -1.94575808
VERTEX2 216 9.64550404 -20.20643491 -2.44449914
VERTEX2 217 9.66949158 -20.20405652 -2.98675732
VERTEX2 218 9.67688515 -20.20695939 -3.04281698
VERTEX2 219 9.10919493 -20.15823429 3.07182178
VERTEX2 220 8.50952076 -20.11021227 3.03238997
VERTEX2 221 7.87247685 -20.03993533 3.08326081
VERTEX2 222 7.24837984 -19.99370885 3.05803652
VERTEX2 223 6.62340443 -19.96096078 -3.12849146
VERTEX2 224 6.00938859 -19.95857394 3.12915146
VERTEX2 225 5.39199325 -19.94998080 -3.10412462
VERTEX2 226 4.77558692 -19.94078252 3.13013243
VERTEX2 227 4.12815746 -20.00658416 -2.99579442
VERTEX2 228 3.60099642 -19.98767787 2.92673150
VERTEX2 229 3.15982541 -19.94916093 3.04730112
VERTEX2 230 2.86966812 -19.93218759 3.01861367
VERTEX2 231 3.07433991 -19.95088258 3.08880810
VERTEX2 232 2.76752018 -19.81182854 2.66366437
VERTEX2 233 2.20679289 -19.55081462 2.76627557
VERTEX2 234 1.63338497 -19.32354557 2.72233362
VERTEX2 235 1.38668744 -19.21630194 2.71752662
VERTEX2 236 1.04916576 -19.21669015 3.12344329
VERTEX2 237 0.41823370 -19.23070614 -3.08919036
VERTEX2 238 -0.20561433 -19.27855898 -3.12182811
VERTEX2 239 -0.82459349 -19.27477919 3.09378634
VERTEX2 240 -1.39412653 -19.15610297 2.87569518
VERTEX2 241 -1.93316072 -19.02409931 2.96106751
VERTEX2 242 -2.50956412 -18.95834862 3.00171240
VERTEX2 243 -3.10901790 -18.87504998 3.00106142
VERTEX2 244 -3.73317904 -18.82895804 3.07233753
VERTEX2 245 -4.34797125 -18.77966802 3.01803288
VERTEX2 246 -4.94939564 -18.69314022 2.94551941
VERTEX2 247 -5.55268444 -18.61044022 3.05136874
VERTEX2 248 -6.10351324 -18.58840922 3.08271161
VERTEX2 249 -6.04962854 -18.59661151 -3.00762131
VERTEX2 250 -6.05534535 -18.59658713 2.68894227
VERTEX2 251 -6.37824333 -18.25518254 2.26570881
VERTEX2 252 -6.73420448 -17.83433384 2.27425757
VERTEX2 253 -7.10629846 -17.38784166 2.26327484
VERTEX2 254 -7.47178095 -16.92922851 2.22205762
VERTEX2 255 -7.54488779 -16.83615872 2.30594202
VERTEX2 256 -7.54773445 -16.75978810 1.82995974
VERTEX2 257 -7.59907582 -16.30071530 1.69460188
VERTEX2 258 -7.68204657 -15.71145969 1.77504814
VERTEX2 259 -7.82443397 -15.11017045 1.81590648
VERTEX2 260 -7.95721375 -14.55319379 1.80775072
VERTEX2 261 -7.95528662 -14.52195041 1.49670318
VERTEX2 262 -7.89282190 -13.87675647 1.50359241
VERTEX2 263 -7.85124458 -13.26477785 1.51725764
VERTEX2 264 -7.83676103 -12.66578389 1.61452462
VERTEX2 265 -7.86857951 -12.06696747 1.63484469
VERTEX2 266 -7.82160631 -11.49483550 1.50583840
VERTEX2 267 -7.77138506 -10.74930669 1.47655858
VERTEX2 268 -7.64084632 -10.15105378 1.36653812
VERTEX2 269 -7.52254905 -9.54175501 1.39646984
VERTEX2 270 -7.45159253 -8.92152530 1.51049616
VERTEX2 271 -7.35773381 -8.30318244 1.39997112
VERTEX2 272 -7.27335598 -7.68000039 1.46509453
VERTEX2 273 -7.28389090 -7.05401596 1.67739166
VERTEX2 274 -7.35226975 -6.44043786 1.70146988
VERTEX2 275 -7.34114250 -5.83796548 1.53008405
VERTEX2 276 -7.33518057 -5.23629641 1.64462050
VERTEX2 277 -7.38244700 -4.67585386 1.61904718
VERTEX2 278 -7.34043715 -4.04243038 1.53027046
VERTEX2 279 -7.30093051 -3.40481900 1.47503377
VERTEX2 280 -7.23312808 -2.77270528 1.47719802
VERTEX2 281 -7.14393039 -2.14410475 1.37713757
VERTEX2 282 -7.02598735 -1.52221545 1.41734447
VERTEX2 283 -6.94083636 -0.89352560 1.40983852
VERTEX2 284 -6.83108722 -0.27553193 1.43733998
VERTEX2 285 -6.76319178 0.38403366 1.45701373
VERTEX2 286 -6.69489676 1.01577667 1.50916336
VERTEX2 287 -6.69144892 1.07642500 1.40313458
VERTEX2 288 -6.68022513 1.09651018 0.79058627
VERTEX2 289 -6.66075315 1.10666839 0.19324248
VERTEX2 290 -6.20493525 1.09249911 -0.03392237
VERTEX2 291 -5.56728943 1.07594451 -0.02151379
VERTEX2 292 -4.93632988 1.04862580 -0.07380571
VERTEX2 293 -4.29958461 0.99681216 -0.09485563
VERTEX2 294 -3.66708240 0.93917067 -0.09244149
VERTEX2 295 -3.03693492 0.85436515 -0.20300805
VERTEX2 296 -2.42210374 0.70803245 -0.24709193
VERTEX2 297 -1.81000192 0.55577698 -0.25776376
VERTEX2 298 -1.20098426 0.39914531 -0.25751841
VERTEX2 299 -0.62882264 0.24091464 -0.19539071
VERTEX2 300 -0.04116563 0.15336053 -0.15237891
VERTEX2 301 0.52124115 0.05251782 -0.21079070
VERTEX2 302 0.82225494 -0.01289461 -0.23103940
VERTEX2 303 0.80365854 -0.00842161 -0.22625712
VERTEX2 304 1.30310432 -0.12384948 -0.21612482
VERTEX2 305 1.92146380 -0.16814664 -0.03153797
VERTEX2 306 2.55184218 -0.17900472 -0.04969787
VERTEX2 307 3.19185916 -0.22719878 -0.08650718
VERTEX2 308 3.82026923 -0.29052653 -0.14221832
VERTEX2 309 4.45600591 -0.35131592 -0.04943999
VERTEX2 310 5.08453096 -0.38169321 -0.08546918
VERTEX2 311 5.36632516 -0.40792237 0.08939266
VERTEX2 312 5.36520003 -0.40846450 1.07677609
VERTEX2 313 5.36986115 -0.18739144 1.57227241
VERTEX2 314 5.35027487 0.44333285 1.61197414
VERTEX2 315 5.32216185 1.06494784 1.60758323
VERTEX2 316 5.28234372 1.70996538 1.65876047
VERTEX2 317 5.22131789 2.35163139 1.66855659
VERTEX2 318 5.12283940 2.98868654 1.76292677
VERTEX2 319 5.04334148 3.33569583 1.83411745
VERTEX2 320 5.04537858 3.34200051 2.80213490
VERTEX2 321 5.03734640 3.33854637 -2.44185710
VERTEX2 322 5.03642884 3.33665416 -1.44613271
VERTEX2 323 5.04697709 3.32648749 -0.45419680
VERTEX2 324 5.05144850 3.32502855 0.20531942
VERTEX2 325 5.05280481 3.32513606 -0.32266073
VERTEX2 326 5.06817897 3.31357343 -0.91820776
VERTEX2 327 5.07154543 3.29768688 -1.54192834
VERTEX2 328 5.05530053 2.65984451 -1.58860600
VERTEX2 329 5.03343858 2.03410679 -1.64503339
VERTEX2 330 4.97925168 1.41975019 -1.66552226
VERTEX2 331 4.92404903 0.80410274 -1.68128295
VERTEX2 332 4.84440951 0.19152529 -1.70128175
VERTEX2 333 4.82272342 0.03794924 -1.63782544
VERTEX2 334 4.83233904 0.03981993 -0.84171333
VERTEX2 335 4.85133982 0.03424010 0.14856816
VERTEX2 336 4.86364412 0.03858392 1.08904089
VERTEX2 337 4.86792231 0.06539904 2.06732491
VERTEX2 338 4.86662655 0.06628675 3.05666663
VERTEX2 339 4.87928712 0.07415433 -2.17673459
VERTEX2 340 4.87964354 0.07173449 -1.15708689
VERTEX2 341 4.99465210 0.00231981 -0.52345583
VERTEX2 342 5.56514766 -0.30083346 -0.42121343
VERTEX2 343 6.14321710 -0.50192849 -0.28946214
VERTEX2 344 6.73216820 -0.68480937 -0.29876551
VERTEX2 345 6.97037802 -0.75483701 -0.32549955
VERTEX2 346 6.95638660 -0.75026543 -0.97085198
VERTEX2 347 6.95878458 -0.83520307 -1.52781752
VERTEX2 348 6.97718700 -1.42232781 -1.54381575
VERTEX2 349 6.97566546 -2.03835626 -1.58333048
VERTEX2 350 6.96355828 -2.82298221 -1.60227004
VERTEX2 351 6.94984942 -3.09325995 -1.63054045
VERTEX2 352 6.94877446 -3.09842011 -1.91723317
VERTEX2 353 6.93911988 -3.11030191 -2.57996568
VERTEX2 354 6.92679242 -3.11386560 3.10232451
VERTEX2 355 6.90684864 -3.11310249 2.38422177
VERTEX2 356 6.90325677 -3.10678937 1.81106544
VERTEX2 357 6.90523616 -3.09481865 1.16030169
VERTEX2 358 6.90489295 -3.09534012 0.54705574
VERTEX2 359 6.89323919 -3.10036347 -0.06476495
VERTEX2 360 6.88118563 -3.09800409 -0.23989717
VERTEX2 361 6.87377662 -3.09995836 0.68260588
VERTEX2 362 6.95729676 -2.87177301 1.21829639
VERTEX2 363 7.05841819 -2.60626478 1.21263823
VERTEX2 364 6.98938481 -2.27430771 1.82928456
VERTEX2 365 6.93419989 -1.98933269 1.33389067
VERTEX2 366 7.04151016 -1.86749132 0.78162819
VERTEX2 367 7.48577020 -1.43284007 0.78444376
VERTEX2 368 7.94160503 -0.99586862 0.73654227
VERTEX2 369 7.96141618 -0.97187633 0.48477158
VERTEX2 370 7.98598742 -0.96791550 -0.10188806
VERTEX2 371 7.99244491 -0.97124971 -0.64726331
VERTEX2 372 8.42205223 -1.31955679 -0.67490098
VERTEX2 373 8.89540123 -1.68404687 -0.67288331
VERTEX2 374 9.37523947 -2.08683429 -0.73398303
VERTEX2 375 9.73927019 -2.40969375 -0.76467535
VERTEX2 376 9.75548435 -2.41956662 -0.07146869
VERTEX2 377 9.80592038 -2.38351557 0.62226139
VERTEX2 378 10.34030827 -1.98442795 0.67538927
VERTEX2 379 10.81840169 -1.55323238 0.75910925
VERTEX2 380 11.25630435 -1.08611194 0.87732938
VERTEX2 381 11.40111763 -0.90650183 1.02606507
VERTEX2 382 11.40378612 -0.90166178 2.07120157
VERTEX2 383 11.40543573 -0.90269009 3.05814624
VERTEX2 384 11.40531283 -0.90279382 -2.26122267
VERTEX2 385 11.40130742 -0.90956173 -1.23103909
VERTEX2 386 11.50817655 -1.04738140 -1.00607310
VERTEX2 387 11.96839745 -1.47034760 -0.67429154
VERTEX2 388 12.47554432 -1.85796422 -0.66457747
VERTEX2 389 12.95668133 -2.26555390 -0.74610219
VERTEX2 390 13.00992466 -2.31294609 -0.26966593
VERTEX2 391 12.87609679 -2.30946119 0.11135196
VERTEX2 392 12.87737831 -2.30941663 1.15474798
VERTEX2 393 12.89907097 -2.14075944 2.03143381
VERTEX2 394 12.89367811 -2.13615001 3.02584708
VERTEX2 395 13.13879272 -2.09349556 -2.91959343
VERTEX2 396 13.14282983 -2.09257465 -2.91937599
VERTEX2 397 13.14523943 -2.09276727 -2.93006694
VERTEX2 398 13.14528425 -2.09275184 -2.73244465
VERTEX2 399 13.04885126 -2.16761993 -2.43345081
VERTEX2 400 12.55488101 -2.59522539 -2.38318072
VERTEX2 401 12.09383209 -2.99885079 -2.47613622
VERTEX2 402 11.54581145 -3.28301347 -2.74400141
VERTEX2 403 10.98112017 -3.51442728 -2.77861028
VERTEX2 404 10.44262314 -3.70147758 -2.85828751
VERTEX2 405 10.46070988 -3.69289376 -2.32574214
VERTEX2 406 10.46468631 -3.66996895 -1.34966992
VERTEX2 407 10.58378814 -4.01031008 -1.22232197
VERTEX2 408 10.78839639 -4.59009395 -1.26102801
VERTEX2 409 10.87047959 -4.87298880 -1.36150850
VERTEX2 410 10.87076135 -4.86558739 -1.99133336
VERTEX2 411 10.87830513 -4.85237032 -2.58232874
VERTEX2 412 10.38149679 -5.04810381 -2.78636485
VERTEX2 413 9.80286882 -5.24154793 -2.86685915
VERTEX2 414 9.21915080 -5.42463010 -2.76414146
VERTEX2 415 8.61383454 -5.65680186 -2.75655462
VERTEX2 416 8.32765244 -5.78167428 -2.81113290
VERTEX2 417 8.03872850 -5.76401280 3.04874130
VERTEX2 418 7.60369158 -5.71852215 3.00417707
VERTEX2 419 7.60865401 -5.71742516 -2.84687349
VERTEX2 420 7.66332533 -5.69352988 -2.62988216
VERTEX2 421 7.66478729 -5.69126481 -1.65999323
VERTEX2 422 7.66036076 -5.69740104 -0.41787577
VERTEX2 423 7.66649003 -5.69801818 -0.07123463
VERTEX2 424 7.66711009 -5.69846168 -0.07012438
VERTEX2 425 7.65948307 -5.70271575 -0.05763894
VERTEX2 426 7.65991421 -5.70313984 -0.06601019
VERTEX2 427 7.69287613 -5.70501863 -0.06214574
VERTEX2 428 8.35526565 -5.72968027 -0.06691983
VERTEX2 429 9.00007811 -5.78214777 -0.10695357
VERTEX2 430 9.34231360 -5.82442294 -0.15229902
VERTEX2 431 9.32076340 -5.82175132 -0.09962566
VERTEX2 432 9.33459551 -5.82668266 -0.72983328
VERTEX2 433 9.34215348 -5.83712879 -1.40553825
VERTEX2 434 9.30364748 -6.37793986 -1.63287907
VERTEX2 435 9.26945444 -7.02267049 -1.66059059
VERTEX2 436 9.18954334 -7.66420726 -1.66880468
VERTEX2 437 9.13544578 -8.31583944 -1.66029524
VERTEX2 438 9.08194013 -8.78814241 -1.68978985
VERTEX2 439 9.07920220 -8.79835175 -2.12359205
VERTEX2 440 9.08420831 -8.79445888 -2.76378463
VERTEX2 441 9.10104817 -8.79279679 2.90023904
VERTEX2 442 9.10762809 -8.79638279 2.27213001
VERTEX2 443 9.10765787 -8.79693045 1.70640983
VERTEX2 444 9.11082840 -8.78022285 1.11608143
VERTEX2 445 9.11640868 -8.77488899 0.45922634
VERTEX2 446 9.11507236 -8.77572047 0.66133208
VERTEX2 447 9.12706884 -8.75252598 1.29403477
VERTEX2 448 9.27840124 -8.13017874 1.31155514
VERTEX2 449 9.41277494 -7.49329446 1.41289056
VERTEX2 450 9.50843669 -6.85570050 1.42654773
VERTEX2 451 9.56253008 -6.38430002 1.46902846
VERTEX2 452 9.56274269 -6.38206003 1.09070415
VERTEX2 453 9.55992829 -6.38710789 0.46812120
VERTEX2 454 9.81996803 -6.36824269 0.04575160
VERTEX2 455 10.41864922 -6.34625405 0.02515955
VERTEX2 456 11.05078893 -6.34441243 -0.03945795
VERTEX2 457 11.40461362 -6.36841302 -0.12720457
VERTEX2 458 11.40021488 -6.36620150 -0.77315611
VERTEX2 459 11.39192138 -6.33197008 -1.38141847
VERTEX2 460 11.36949202 -6.73068674 -1.63845360
VERTEX2 461 11.29803462 -7.34719472 -1.72641419
VERTEX2 462 11.20826312 -7.85654414 -1.76643910
VERTEX2 463 11.21949972 -7.83477801 -0.92623068
VERTEX2 464 11.47480068 -7.90862321 -0.24816538
VERTEX2 465 12.05817634 -8.04439760 -0.24042841
VERTEX2 466 12.61123004 -8.19833522 -0.29607547
VERTEX2 467 13.18152210 -8.38299078 -0.33954192
VERTEX2 468 13.79403757 -8.60386074 -0.37483179
VERTEX2 469 14.38308607 -8.87168656 -0.45749792
VERTEX2 470 14.83492740 -9.08878211 -0.43835984
VERTEX2 471 14.84211558 -9.09272024 -0.63779301
VERTEX2 472 14.85834113 -9.11557665 -1.26958883
VERTEX2 473 14.85952665 -9.12154616 -1.90930152
VERTEX2 474 14.85804742 -9.12338250 -2.53976991
VERTEX2 475 14.85939902 -9.12320151 -3.11338981
VERTEX2 476 14.86047247 -9.12334897 2.51876163
VERTEX2 477 14.86419483 -9.13071990 1.95939037
VERTEX2 478 14.86496515 -9.14145895 1.33275845
VERTEX2 479 14.86373435 -9.14424702 0.87879326
VERTEX2 480 14.86451572 -9.14251434 1.44089104
VERTEX2 481 14.86111597 -9.12751623 2.44303174
VERTEX2 482 14.86802280 -9.13032752 2.77918219
VERTEX2 483 14.87719233 -9.13369522 2.77379749
VERTEX2 484 14.45450402 -8.97428153 2.80931725
VERTEX2 485 13.85740315 -8.78233351 2.80702784
VERTEX2 486 13.25760972 -8.56633943 2.81659380
VERTEX2 487 12.64919154 -8.38360817 2.84492300
VERTEX2 488 12.03847783 -8.19901293 2.88110907
VERTEX2 489 11.56965036 -8.08906857 2.91161178
VERTEX2 490 11.57641821 -8.08844686 -2.88629561
VERTEX2 491 11.58278567 -8.08013413 -1.95043707
VERTEX2 492 11.56492223 -8.30925142 -1.64751298
VERTEX2 493 11.49986969 -8.91238462 -1.70262853
VERTEX2 494 11.40932217 -9.52284206 -1.76359963
VERTEX2 495 11.33718910 -10.14487889 -1.65646457
VERTEX2 496 11.29035073 -10.76848259 -1.53879074
VERTEX2 497 11.28032128 -11.38601640 -1.62490348
VERTEX2 498 11.20861864 -12.00642221 -1.72679325
VERTEX2 499 11.07498127 -12.63117054 -1.74389200
VERTEX2 500 11.12991254 -13.19842698 -1.41512261
VERTEX2 501 11.20124198 -13.77750739 -1.48726310
VERTEX2 502 11.22133590 -14.47237011 -1.57179561
VERTEX2 503 11.21435249 -14.91850383 -1.58880695
VERTEX2 504 11.21990633 -14.90312206 -0.73271693
VERTEX2 505 11.45756182 -14.93178221 -0.11109914
VERTEX2 506 12.04898873 -15.01744602 -0.26370013
VERTEX2 507 12.62892920 -15.19119546 -0.34229063
VERTEX2 508 13.19648177 -15.40656524 -0.35559127
VERTEX2 509 13.81441938 -15.64417367 -0.41150178
VERTEX2 510 14.16963904 -15.80560971 -0.42540558
VERTEX2 511 14.16801742 -15.78866896 0.44995284
VERTEX2 512 14.18993692 -15.74326060 1.64729120
VERTEX2 513 14.18661754 -15.73325103 2.60278713
VERTEX2 514 14.11918625 -15.71383845 2.82907088
VERTEX2 515 13.51002942 -15.52878612 2.83018644
VERTEX2 516 12.92647725 -15.33079875 2.84609459
VERTEX2 517 12.33466563 -15.17867240 2.87429827
VERTEX2 518 11.74322011 -15.02341273 2.89865847
VERTEX2 519 11.22209013 -14.89591612 2.88296970
VERTEX2 520 11.05452787 -14.85104637 -3.00176276
VERTEX2 521 11.07674722 -14.82689618 -1.99809182
VERTEX2 522 11.00854228 -15.22270172 -1.73379924
VERTEX2 523 10.91204371 -15.84683458 -1.74130428
VERTEX2 524 10.80322121 -16.42463204 -1.78336427
VERTEX2 525 10.69442312 -16.97038993 -1.75983660
VERTEX2 526 10.57307193 -17.54267575 -1.81876823
VERTEX2 527 10.42353319 -18.11094828 -1.85338782
VERTEX2 528 10.24029539 -18.66654723 -1.92913481
VERTEX2 529 10.02028838 -19.27515138 -1.95749930
VERTEX2 530 9.76465490 -19.88089628 -1.98763122
VERTEX2 531 9.49576827 -20.44266369 -2.06749620
VERTEX2 532 9.40202747 -20.61723621 -2.01692314
VERTEX2 533 9.39960279 -20.60497627 -1.01715922
VERTEX2 534 9.40014550 -20.60532581 -0.35012179
VERTEX2 535 9.40345790 -20.60561634 -0.35047774
VERTEX2 536 9.75928251 -20.69200170 -0.21975124
VERTEX2 537 10.36452384 -20.84464025 -0.27774057
VERTEX2 538 10.92292207 -21.01772241 -0.30484941
VERTEX2 539 11.52900678 -21.23093855 -0.36961292
VERTEX2 540 12.11355877 -21.48815736 -0.46250298
VERTEX2 541 12.69866052 -21.72019966 -0.30019779
VERTEX2 542 13.32827063 -21.86650630 -0.24449496
VERTEX2 543 13.44954397 -21.89783395 -0.27416031
VERTEX2 544 13.47074146 -21.89582339 0.36284854
VERTEX2 545 13.49471487 -21.85299958 1.42903436
VERTEX2 546 13.51176066 -21.89832114 2.25606021
VERTEX2 547 13.52001246 -21.89782714 -3.00546642
VERTEX2 548 13.53368104 -21.88919535 -2.08258402
VERTEX2 549 13.53543681 -21.87781315 -1.27598362
VERTEX2 550 13.53437093 -21.85680424 -1.75578523
VERTEX2 551 13.54299195 -21.83964751 -2.38216124
VERTEX2 552 13.56143677 -21.83062838 -3.01462265
VERTEX2 553 13.42482814 -21.77728039 2.69127546
VERTEX2 554 12.83498691 -21.48901551 2.65581473
VERTEX2 555 12.25786350 -21.20993877 2.74468478
VERTEX2 556 11.65540325 -20.98724746 2.87978337
VERTEX2 557 11.05646703 -20.81213182 2.83858102
VERTEX2 558 10.48155190 -20.65102491 2.91962259
VERTEX2 559 10.48894180 -20.65357643 2.51268897
VERTEX2 560 10.48151210 -20.64539073 2.01178664
VERTEX2 561 10.45800404 -20.62225118 2.51704196
VERTEX2 562 10.27996189 -20.62100861 -3.12253867
VERTEX2 563 9.71034943 -20.53863971 2.96885347
VERTEX2 564 9.10619311 -20.44303512 3.01764439
VERTEX2 565 8.51075076 -20.36673720 2.96024383
VERTEX2 566 8.57396035 -20.38686599 -2.53955907
VERTEX2 567 8.48323390 -20.39294467 -1.74629758
VERTEX2 568 8.43025933 -20.89774446 -1.68057629
VERTEX2 569 8.37504274 -21.47514739 -1.71957627
VERTEX2 570 8.30237886 -22.05765448 -1.71471129
VERTEX2 571 8.24715305 -22.41733532 -1.76126022
VERTEX2 572 8.21321315 -22.44191873 -2.00420851
VERTEX2 573 8.17842912 -22.51990849 -1.72760994
VERTEX2 574 8.19685583 -22.54598962 -0.78728610
VERTEX2 575 8.35194798 -22.59756104 0.12828196
VERTEX2 576 8.35177590 -22.59741953 1.15629565
VERTEX2 577 8.34536840 -22.58007511 2.12872612
VERTEX2 578 8.33620100 -22.54821310 1.76472109
VERTEX2 579 8.21623986 -21.89588191 1.77984554
VERTEX2 580 8.05921382 -21.25553760 1.85510885
VERTEX2 581 7.86937933 -20.63097685 1.89760622
VERTEX2 582 7.65199073 -20.01532145 1.94086379
VERTEX2 583 7.52421156 -19.70646879 2.02036649
VERTEX2 584 7.51889100 -19.69597843 2.86461260
VERTEX2 585 6.93655616 -19.55235249 2.98316818
VERTEX2 586 6.34326194 -19.47432334 3.08099176
VERTEX2 587 5.72451314 -19.45984746 3.10664816
VERTEX2 588 5.09235090 -19.43044102 3.11161522
VERTEX2 589 4.55442539 -19.45224242 -3.09643191
VERTEX2 590 4.00550124 -19.49320678 -3.02791664
VERTEX2 591 3.46664719 -19.56890685 -3.03000006
VERTEX2 592 2.91884269 -19.63989844 -3.03291811
VERTEX2 593 2.74208971 -19.66100288 -2.82797048
VERTEX2 594 2.77959964 -19.62103877 -1.90413333
VERTEX2 595 2.66491352 -20.22816023 -1.67159220
VERTEX2 596 2.61065385 -20.85231664 -1.69490920
VERTEX2 597 2.51681471 -21.52702368 -1.73503513
VERTEX2 598 2.41195654 -22.12543158 -1.77715948
VERTEX2 599 2.32231569 -22.50281963 -1.84330350
VERTEX2 600 2.32245855 -22.51938585 -1.03663286
VERTEX2 601 2.36253690 -22.54424359 -0.01831874
VERTEX2 602 2.39718638 -22.53040795 0.99586905
VERTEX2 603 2.36344716 -22.29568919 1.76860788
VERTEX2 604 2.30490897 -21.68335696 1.52455979
VERTEX2 605 2.31567272 -21.03749191 1.60727391
VERTEX2 606 2.27710160 -20.39144748 1.64946188
VERTEX2 607 2.28985008 -19.80661294 1.56854571
VERTEX2 608 2.27801063 -19.42560843 1.61312800
VERTEX2 609 2.27511456 -19.40828713 1.94962765
VERTEX2 610 2.26753792 -19.40552246 2.88267490
VERTEX2 611 1.67242940 -19.25377622 2.88578344
VERTEX2 612 1.20028367 -19.11807097 2.88872812
VERTEX2 613 1.23578153 -19.12901411 -2.93039867
VERTEX2 614 1.24393495 -19.12287844 -1.89188545
VERTEX2 615 1.25473403 -19.60579173 -1.58713148
VERTEX2 616 1.25920067 -20.22506974 -1.63816238
VERTEX2 617 1.11949597 -20.82588420 -1.85510753
VERTEX2 618 0.94852613 -21.42934765 -1.84483299
VERTEX2 619 0.78601771 -21.99833307 -1.84605597
VERTEX2 620 0.60102351 -22.57161227 -1.94197921
VERTEX2 621 0.73157983 -22.23765396 -1.99327464
VERTEX2 622 0.85659688 -21.97273525 -2.06804613
VERTEX2 623 0.85713464 -21.97201590 -2.60464380
VERTEX2 624 0.82931926 -21.97164157 3.03649124
VERTEX2 625 0.78883342 -21.95513273 2.37851848
VERTEX2 626 0.76101147 -21.92297740 1.76101663
VERTEX2 627 0.83533036 -21.55007258 1.35056832
VERTEX2 628 1.01589463 -20.92626777 1.24994175
VERTEX2 629 1.18932146 -20.30173631 1.32114375
VERTEX2 630 1.31664046 -19.69679656 1.40627031
VERTEX2 631 1.39038159 -19.16955587 1.42643506
VERTEX2 632 1.39277242 -19.15568117 2.10248848
VERTEX2 633 1.29424860 -19.14876655 -3.09407757
VERTEX2 634 0.62529285 -19.18501729 -3.06663383
VERTEX2 635 -0.02898540 -19.19513331 3.08155507
VERTEX2 636 -0.67116012 -19.16598137 3.06396624
VERTEX2 637 -1.29902328 -19.09116842 2.96463724
VERTEX2 638 -1.68923572 -19.01114822 2.93518378
VERTEX2 639 -2.29830859 -18.90809691 3.01560160
VERTEX2 640 -2.91149678 -18.79891583 2.94775485
VERTEX2 641 -3.51004144 -18.68810032 2.93943938
VERTEX2 642 -4.08378624 -18.55115091 2.89409453
VERTEX2 643 -4.56611618 -18.41383327 2.82662592
VERTEX2 644 -4.57103135 -18.41491810 -2.69980960
VERTEX2 645 -4.60847448 -18.55763759 -1.92218338
VERTEX2 646 -4.74632180 -19.16673722 -1.62681752
VERTEX2 647 -4.70365658 -19.80899363 -1.33796959
VERTEX2 648 -4.48157915 -20.43400612 -1.17168574
VERTEX2 649 -4.30878232 -21.03262336 -1.50928063
VERTEX2 650 -4.41026688 -21.66087292 -1.76663677
VERTEX2 651 -4.42793326 -21.80630067 -0.96721750
VERTEX2 652 -4.36545462 -21.83450237 0.05776089
VERTEX2 653 -4.31954168 -21.79338030 1.08820784
VERTEX2 654 -4.32814074 -21.49706583 1.60138445
VERTEX2 655 -4.33775831 -20.94401334 1.59638056
VERTEX2 656 -4.33607620 -20.34228421 1.58375026
VERTEX2 657 -4.44204905 -19.73092214 1.86038559
VERTEX2 658 -4.63126742 -19.11490888 1.85323016
VERTEX2 659 -4.74515082 -18.62260823 1.78208306
VERTEX2 660 -4.74797112 -18.60842391 2.38222088
VERTEX2 661 -4.92623726 -18.58854229 3.03568596
VERTEX2 662 -5.51947555 -18.52845574 3.10529723
VERTEX2 663 -6.10675841 -18.54215569 -3.07685541
VERTEX2 664 -6.11179132 -18.54087493 -2.55332717
VERTEX2 665 -6.12833977 -18.64438805 -1.72251176
VERTEX2 666 -6.20304032 -19.25857540 -1.68531115
VERTEX2 667 -6.26282753 -19.83072485 -1.68064048
VERTEX2 668 -6.32911618 -20.43028981 -1.65481595
VERTEX2 669 -6.38027331 -21.06176169 -1.67991183
VERTEX2 670 -6.48147064 -21.67605979 -1.73928746
VERTEX2 671 -6.52956663 -21.96548496 -1.68420557
VERTEX2 672 -6.42529510 -21.38221998 -1.77321033
VERTEX2 673 -6.35753363 -21.11293309 -1.90364675
VERTEX2 674 -6.34276657 -21.09743898 -2.55152220
VERTEX2 675 -6.31790259 -21.09224978 3.12329121
VERTEX2 676 -6.31239587 -21.09549607 2.50020324
VERTEX2 677 -6.30884804 -21.10043882 1.88461134
VERTEX2 678 -6.27995368 -20.87549634 1.43886956
VERTEX2 679 -6.21438398 -20.29379166 1.50155070
VERTEX2 680 -6.24123180 -19.84274345 1.84660433
VERTEX2 681 -6.39262811 -19.24962554 1.81920961
VERTEX2 682 -6.56420612 -18.64200103 1.86701340
VERTEX2 683 -6.65646332 -18.35824771 2.02633280
VERTEX2 684 -6.60638444 -18.40939860 3.10690737
VERTEX2 685 -7.01136972 -18.57058987 -2.73221462
VERTEX2 686 -7.45988637 -18.70776756 -2.87620674
VERTEX2 687 -8.05580477 -18.85952082 -2.91100030
VERTEX2 688 -8.65518266 -18.98034038 -2.92255999
VERTEX2 689 -9.21905178 -19.11996589 -2.89488955
VERTEX2 690 -9.75455014 -19.28956910 -2.82071702
VERTEX2 691 -10.14928632 -19.42142978 -2.84875040
VERTEX2 692 -10.13445624 -19.41482335 -2.31457490
VERTEX2 693 -10.11112658 -19.48819264 -1.27430465
VERTEX2 694 -10.08660288 -19.56129649 -0.43895315
VERTEX2 695 -10.06724274 -19.55578101 0.36094340
VERTEX2 696 -10.06053488 -19.55138219 1.38629153
VERTEX2 697 -10.07226535 -19.58995049 1.13326101
VERTEX2 698 -9.74121200 -19.38036117 0.47840097
VERTEX2 699 -9.17666110 -19.06651989 0.59240406
VERTEX2 700 -8.66240985 -18.70384327 0.64590811
VERTEX2 701 -8.22779444 -18.34035481 0.70505551
VERTEX2 702 -7.74764335 -18.02445386 0.58987786
VERTEX2 703 -7.23436700 -17.68727293 0.62412012
VERTEX2 704 -6.74432755 -17.30810191 0.64204209
VERTEX2 705 -6.23507695 -16.88908914 0.71216884
VERTEX2 706 -5.80687093 -16.57295224 0.44297648
VERTEX2 707 -5.78527359 -16.57182246 -0.07764644
VERTEX2 708 -5.77448688 -16.57807981 -0.71597748
VERTEX2 709 -5.81431964 -16.53506457 -1.04799058
VERTEX2 710 -5.81919200 -16.52245897 -1.60898804
VERTEX2 711 -5.80957932 -16.53116012 -2.20558831
VERTEX2 712 -5.78645553 -16.51347121 -2.76587473
VERTEX2 713 -6.25685159 -16.56307865 -3.05113993
VERTEX2 714 -6.80786366 -16.53744842 3.03460251
VERTEX2 715 -7.43288052 -16.49999123 3.13815373
VERTEX2 716 -8.06532284 -16.47738255 3.00006578
VERTEX2 717 -8.68483328 -16.40898667 3.08477523
VERTEX2 718 -9.44515178 -16.28967800 2.90935036
VERTEX2 719 -10.06022038 -16.17387568 2.98378317
VERTEX2 720 -10.67113440 -16.06095297 2.92455099
VERTEX2 721 -11.28697168 -15.94456855 2.99274558
VERTEX2 722 -11.30175336 -15.94244576 3.05942168
VERTEX2 723 -11.32080313 -15.96204511 -2.13391187
VERTEX2 724 -11.32097559 -16.00478985 -1.06513287
VERTEX2 725 -11.29433622 -16.02275370 -0.43030948
VERTEX2 726 -10.97047028 -16.01931123 0.02425276
VERTEX2 727 -10.33461368 -15.98212484 0.05518107
VERTEX2 728 -9.69693142 -15.95927564 0.05667919
VERTEX2 729 -9.06158487 -15.90048036 0.11399184
VERTEX2 730 -8.44128762 -15.81024034 0.15121501
VERTEX2 731 -7.78970656 -15.71043660 0.16306789
VERTEX2 732 -7.64407298 -15.68142393 0.60890563
VERTEX2 733 -7.64528037 -15.67945239 1.60402957
VERTEX2 734 -7.70247375 -15.11630235 1.68174019
VERTEX2 735 -7.76140127 -14.50676374 1.64935498
VERTEX2 736 -7.76291961 -14.48257518 2.24939779
VERTEX2 737 -7.75796497 -14.48324356 3.05081153
VERTEX2 738 -8.33710172 -14.44046687 3.07011959
VERTEX2 739 -8.94115477 -14.34307947 3.01279183
VERTEX2 740 -9.44426580 -14.30125001 3.07639043
VERTEX2 741 -9.42330503 -14.30105901 2.70808952
VERTEX2 742 -9.42193398 -14.30203012 2.05601797
VERTEX2 743 -9.41997838 -14.31075135 1.43988887
VERTEX2 744 -9.41275526 -14.29421076 0.90046074
VERTEX2 745 -9.39653853 -14.28573291 0.30690383
VERTEX2 746 -8.85483277 -14.30423879 -0.16799320
VERTEX2 747 -8.20964293 -14.41912041 -0.20323276
VERTEX2 748 -7.63236484 -14.56205002 -0.27152282
VERTEX2 749 -7.54865275 -14.58291508 0.15776679
VERTEX2 750 -7.54444544 -14.57514049 1.08527035
VERTEX2 751 -7.57814014 -14.31131776 1.72581535
VERTEX2 752 -7.63670413 -13.69481085 1.62256341
VERTEX2 753 -7.67546091 -13.06294158 1.68581125
VERTEX2 754 -7.68459612 -12.42955138 1.52371372
VERTEX2 755 -7.66803244 -11.79765219 1.61012374
VERTEX2 756 -7.63298533 -11.16368315 1.43346125
VERTEX2 757 -7.56066420 -10.52099194 1.54504882
VERTEX2 758 -7.58309895 -9.94153857 1.68664345
VERTEX2 759 -7.57403571 -9.40158686 1.56797981
VERTEX2 760 -7.61425149 -8.79997453 1.67939478
VERTEX2 761 -7.61638928 -8.77159579 1.85981508
VERTEX2 762 -7.69226439 -8.73795199 2.69498182
VERTEX2 763 -8.26489354 -8.63749101 2.98773306
VERTEX2 764 -8.68326734 -8.56772555 2.96013664
VERTEX2 765 -8.67145498 -8.56746436 -2.68376470
VERTEX2 766 -8.67424529 -8.57664121 -1.68365956
VERTEX2 767 -8.66754999 -8.59345033 -0.75300296
VERTEX2 768 -8.63899647 -8.59512177 -0.03080191
VERTEX2 769 -8.00280321 -8.50430281 0.12603853
VERTEX2 770 -7.34935846 -8.44333900 0.05886940
VERTEX2 771 -7.25990798 -8.43563310 0.61926513
VERTEX2 772 -7.25818494 -8.43012946 1.48720840
VERTEX2 773 -7.23618102 -7.85555389 1.57314245
VERTEX2 774 -7.25010446 -7.31226231 1.59534671
VERTEX2 775 -7.24865899 -7.31843811 2.44058687
VERTEX2 776 -7.46251925 -7.29306825 3.05824328
VERTEX2 777 -8.08066302 -7.25287214 3.11737993
VERTEX2 778 -8.69833562 -7.24411438 3.09651806
VERTEX2 779 -9.31494450 -7.22438956 3.11465729
VERTEX2 780 -9.52388737 -7.20686892 2.98447042
VERTEX2 781 -9.52130227 -7.20778204 2.41112805
VERTEX2 782 -9.64912706 -6.93583293 1.98162489
VERTEX2 783 -9.88497716 -6.36276501 1.98105204
VERTEX2 784 -9.98463322 -6.13593924 1.95975536
VERTEX2 785 -9.98555506 -6.11126614 1.40784745
VERTEX2 786 -9.97791694 -6.08600777 0.81958395
VERTEX2 787 -9.96129419 -6.06894249 0.32896828
VERTEX2 788 -9.93522954 -6.07067920 -0.30010688
VERTEX2 789 -9.92504510 -6.07865201 -0.85202816
VERTEX2 790 -9.61834085 -6.47327415 -0.91916790
VERTEX2 791 -9.21323152 -6.95447918 -0.82047033
VERTEX2 792 -8.97381248 -7.16729965 -0.11585838
VERTEX2 793 -8.35879065 -7.21907714 -0.07105942
VERTEX2 794 -7.71939053 -7.24750919 0.00019826
VERTEX2 795 -7.74365062 -7.26536961 0.42968152
VERTEX2 796 -7.75056012 -7.26816006 1.08918505
VERTEX2 797 -7.67631333 -6.95826735 1.34941587
VERTEX2 798 -7.54159361 -6.33127815 1.39960094
VERTEX2 799 -7.45570645 -5.69312334 1.46522587
VERTEX2 800 -7.40243861 -5.05316027 1.53803923
VERTEX2 801 -7.41389613 -4.42316290 1.62412962
VERTEX2 802 -7.46825329 -3.79912193 1.68195447
VERTEX2 803 -7.45159781 -3.17278163 1.51739703
VERTEX2 804 -7.43208401 -2.54772958 1.57335711
VERTEX2 805 -7.46587366 -1.91882233 1.64966875
VERTEX2 806 -7.52632803 -1.32152701 1.69107699
VERTEX2 807 -7.55534132 -1.12573666 1.97951052
VERTEX2 808 -7.56310682 -1.12556340 2.92818716
VERTEX2 809 -8.15761040 -1.09696173 3.07297776
VERTEX2 810 -8.77787999 -0.97370021 2.93293854
VERTEX2 811 -9.37973817 -0.86223076 2.92974375
VERTEX2 812 -9.38494225 -0.86119597 -2.62138907
VERTEX2 813 -9.39503920 -0.88380212 -1.64570640
VERTEX2 814 -9.38712332 -0.89004344 -0.65246781
VERTEX2 815 -9.36259193 -0.89822891 0.26772767
VERTEX2 816 -9.35715629 -0.89521523 0.94956108
VERTEX2 817 -9.34925225 -0.89017691 0.28145204
VERTEX2 818 -9.12752484 -0.92283776 -0.20691523
VERTEX2 819 -8.53622032 -1.04729263 -0.19254219
VERTEX2 820 -7.94240657 -1.17567894 -0.23349505
VERTEX2 821 -7.39595997 -1.30324375 -0.21741608
VERTEX2 822 -7.38892535 -1.30424287 0.54876667
VERTEX2 823 -7.38339857 -1.26175077 1.31106455
VERTEX2 824 -7.23034696 -0.65107404 1.23058028
VERTEX2 825 -6.99786614 -0.05385029 1.19978967
VERTEX2 826 -6.84829774 0.56920576 1.36115391
VERTEX2 827 -6.69221659 1.18240050 1.31111344
VERTEX2 828 -6.54375251 1.80477818 1.34517802
VERTEX2 829 -6.39147170 2.39333921 1.30499844
VERTEX2 830 -6.22426391 2.98511290 1.29629018
VERTEX2 831 -6.04253056 3.54285275 1.24909630
VERTEX2 832 -5.86667541 4.08695804 1.24518178
VERTEX2 833 -5.78351321 4.33417875 1.38239617
VERTEX2 834 -5.78419083 4.33974172 2.43556329
VERTEX2 835 -5.78981454 4.34128336 -3.07106063
VERTEX2 836 -5.79831751 4.33611227 -2.12933022
VERTEX2 837 -5.79786480 4.31638352 -1.09443795
VERTEX2 838 -5.78298414 4.30339420 -0.23346453
VERTEX2 839 -5.77729082 4.29943684 -0.45224130
VERTEX2 840 -5.76414847 4.28515991 -1.01574024
VERTEX2 841 -5.75826954 4.26608828 -1.63373956
VERTEX2 842 -5.82371857 4.02887750 -1.86510693
VERTEX2 843 -5.99228628 3.48663242 -1.86801664
VERTEX2 844 -6.16825338 2.88268559 -1.87644709
VERTEX2 845 -6.36257355 2.28254427 -1.89161019
VERTEX2 846 -6.55010027 1.67694677 -1.89033599
VERTEX2 847 -6.76004956 1.08334151 -1.91758303
VERTEX2 848 -6.80760414 0.94051679 -1.43673010
VERTEX2 849 -6.79896671 0.93556261 -0.51393824
VERTEX2 850 -6.42407546 0.87009635 -0.16037726
VERTEX2 851 -5.79206080 0.74031057 -0.25292764
VERTEX2 852 -5.17144777 0.57602686 -0.23870066
VERTEX2 853 -4.57571721 0.43480964 -0.26695108
VERTEX2 854 -3.99390207 0.26959131 -0.26539158
VERTEX2 855 -3.40033877 0.11959294 -0.26776280
VERTEX2 856 -2.78960381 -0.06654002 -0.30674698
VERTEX2 857 -2.18026460 -0.25497462 -0.31471337
VERTEX2 858 -1.58223433 -0.47234553 -0.36751397
VERTEX2 859 -1.10706834 -0.65014275 -0.37283079
VERTEX2 860 -1.09533613 -0.64733877 0.48420833
VERTEX2 861 -1.06142993 -0.53517905 1.40565129
VERTEX2 862 -0.92634869 0.12038150 1.34764270
VERTEX2 863 -0.77466708 0.76054547 1.31671623
VERTEX2 864 -0.59912998 1.36201301 1.31602146
VERTEX2 865 -0.46998102 1.97275196 1.37519812
VERTEX2 866 -0.34181060 2.55777395 1.37540694
VERTEX2 867 -0.30951686 2.73068921 1.55849807
VERTEX2 868 -0.32558221 2.75841222 2.58874319
VERTEX2 869 -0.33180658 2.75902211 -2.70990175
VERTEX2 870 -0.31957056 2.76379203 -1.70409760
VERTEX2 871 -0.32174678 2.76567849 -0.72428519
VERTEX2 872 -0.32371735 2.76749642 -0.03495346
VERTEX2 873 -0.32216456 2.76680949 -0.60444867
VERTEX2 874 -0.32380795 2.76870437 -1.16106761
VERTEX2 875 -0.32782104 2.78189519 -1.74450301
VERTEX2 876 -0.49725469 2.25892733 -1.90043434
VERTEX2 877 -0.69475135 1.75494786 -1.98330858
VERTEX2 878 -0.75677471 1.58210280 -1.59724136
VERTEX2 879 -0.71815823 0.96932483 -1.54443772
VERTEX2 880 -0.72366211 0.54982774 -1.65509924
VERTEX2 881 -0.71720250 0.62878483 -1.64810049
VERTEX2 882 -0.82581381 0.02339285 -1.89192084
VERTEX2 883 -1.08439119 -0.53319105 -2.08005265
VERTEX2 884 -1.26196605 -0.83689290 -2.14490028
VERTEX2 885 -1.26109535 -0.80652198 -1.55825199
VERTEX2 886 -1.27114317 -0.79555234 -0.53095164
VERTEX2 887 -1.27413829 -0.79412430 0.48968418
VERTEX2 888 -1.25556481 -0.75989119 1.48268338
VERTEX2 889 -1.26678228 -0.72148459 2.38861285
VERTEX2 890 -1.60452630 -0.54109377 2.66576286
VERTEX2 891 -2.15971468 -0.23916501 2.59768559
VERTEX2 892 -2.70972981 0.11654611 2.56425463
VERTEX2 893 -3.28086113 0.44664241 2.80376853
VERTEX2 894 -3.91598426 0.58195892 3.02808858
VERTEX2 895 -4.53589405 0.54864936 -2.95295654
VERTEX2 896 -4.54435527 0.54680725 -2.47385885
VERTEX2 897 -4.84223471 0.12377117 -2.20121458
VERTEX2 898 -5.18324253 -0.34641764 -2.18453297
VERTEX2 899 -5.46026880 -0.72467543 -2.25097603
VERTEX2 900 -5.86714591 -1.23657544 -2.25210433
VERTEX2 901 -6.22977862 -1.65253456 -2.31493410
VERTEX2 902 -6.63744205 -2.11554586 -2.28812878
VERTEX2 903 -6.94196299 -2.46822908 -2.33118090
VERTEX2 904 -6.94062469 -2.46648812 -1.62475938
VERTEX2 905 -6.93257197 -2.94967381 -1.56813596
VERTEX2 906 -6.90507055 -3.51089569 -1.50117053
VERTEX2 907 -6.85500898 -4.07481516 -1.50819670
VERTEX2 908 -6.81189092 -4.69718788 -1.48283504
VERTEX2 909 -6.75409402 -5.31026052 -1.50023675
VERTEX2 910 -6.78127754 -5.43408446 -1.86920322
VERTEX2 911 -6.94128743 -5.99797273 -1.80782942
VERTEX2 912 -7.06252205 -6.55507639 -1.79484609
VERTEX2 913 -7.17470556 -7.09045351 -1.78658584
VERTEX2 914 -7.30064214 -7.67200914 -1.80993908
VERTEX2 915 -7.42355293 -8.17429141 -1.84637101
VERTEX2 916 -7.35941615 -8.41971548 -1.29823517
VERTEX2 917 -7.22083723 -9.06923718 -1.55232258
VERTEX2 918 -7.24118490 -9.58403421 -1.62765578
VERTEX2 919 -7.27471781 -10.20442757 -1.67082369
VERTEX2 920 -7.33836499 -10.81112275 -1.68830376
VERTEX2 921 -7.41063108 -11.41881163 -1.74157286
VERTEX2 922 -7.51151636 -12.01420706 -1.76875476
VERTEX2 923 -7.62952339 -12.57157203 -1.83222756
VERTEX2 924 -7.75977364 -13.05746449 -1.81557716
VERTEX2 925 -7.76159544 -13.04852588 -1.31080073
VERTEX2 926 -7.60271849 -13.60707683 -1.29460553
VERTEX2 927 -7.43700874 -14.19418736 -1.31794417
VERTEX2 928 -7.28035357 -14.79655275 -1.32693173
VERTEX2 929 -7.13024614 -15.39600147 -1.32790961
VERTEX2 930 -6.98447581 -16.02110682 -1.41041477
VERTEX2 931 -6.89848601 -16.64705792 -1.49073519
VERTEX2 932 -6.85264080 -17.27360829 -1.55026499
VERTEX2 933 -6.84952602 -17.88544108 -1.61495472
VERTEX2 934 -6.86441261 -18.36524950 -1.62486142
VERTEX2 935 -6.86177852 -18.37750106 -0.94296799
VERTEX2 936 -6.85944757 -18.37832251 0.00194318
VERTEX2 937 -6.31587497 -18.35383996 0.06474128
VERTEX2 938 -5.71851290 -18.37079212 -0.10876831
VERTEX2 939 -5.09350070 -18.43171239 -0.08113831
VERTEX2 940 -4.48152204 -18.50766847 -0.16695923
VERTEX2 941 -3.87731546 -18.62385701 -0.22060227
VERTEX2 942 -3.35951632 -18.74012954 -0.21611911
VERTEX2 943 -2.75125542 -18.87460555 -0.12783604
VERTEX2 944 -2.13826660 -18.95848256 -0.18456100
VERTEX2 945 -1.51857754 -19.08766109 -0.23978414
VERTEX2 946 -1.34616654 -19.13199390 -0.17557760
VERTEX2 947 -0.93319062 -19.06917807 0.15241266
VERTEX2 948 -0.35659675 -18.98042665 0.13308230
VERTEX2 949 0.24854800 -18.94706851 -0.02289753
VERTEX2 950 0.87873760 -18.98475732 -0.26287245
VERTEX2 951 1.47986108 -19.15965449 -0.33521293
VERTEX2 952 2.08062790 -19.33765715 -0.08472960
VERTEX2 953 2.71142795 -19.37193516 -0.00469832
VERTEX2 954 3.33739164 -19.36764852 -0.01186639
VERTEX2 955 3.92791396 -19.41631413 -0.17293143
VERTEX2 956 4.47915839 -19.49776662 -0.17539839
VERTEX2 957 5.01080368 -19.59691876 -0.26330660
VERTEX2 958 5.47702799 -19.71173431 -0.29024167
VERTEX2 959 5.90739095 -19.83226741 -0.35757851
VERTEX2 960 6.49448906 -19.99813599 -0.27754322
VERTEX2 961 7.07389099 -20.17515375 -0.30446443
VERTEX2 962 7.69196346 -20.30801193 -0.23936010
VERTEX2 963 8.30930880 -20.39318313 -0.05328068
VERTEX2 964 8.93057569 -20.43928541 -0.11752065
VERTEX2 965 9.54520237 -20.52356968 -0.12484518
VERTEX2 966 9.98861335 -20.58515024 -0.18384531
VERTEX2 967 10.02150105 -20.57870154 0.66947423
VERTEX2 968 10.02919296 -20.57152491 1.56612615
VERTEX2 969 10.03144766 -20.59998709 1.62556171
VERTEX2 970 10.03381353 -20.62869373 1.62380080
VERTEX2 971 10.01538427 -20.29606371 1.62390386
VERTEX2 972 9.98024720 -19.71004675 1.62948581
VERTEX2 973 10.06309336 -19.12917636 1.34440742
VERTEX2 974 10.20573086 -18.52904455 1.37615331
VERTEX2 975 10.32057565 -17.92466962 1.38067998
VERTEX2 976 10.42873026 -17.31761207 1.39349291
VERTEX2 977 10.56752702 -16.70250073 1.36734847
VERTEX2 978 10.69148744 -16.09362735 1.41345734
VERTEX2 979 10.80917315 -15.48867894 1.40131249
VERTEX2 980 10.90976923 -14.88700604 1.44838246
VERTEX2 981 11.00166382 -14.29216965 1.45520976
VERTEX2 982 11.06070280 -13.76389042 1.50010035
VERTEX2 983 11.11289949 -13.16581887 1.49680958
VERTEX2 984 11.14264987 -12.57014400 1.55427975
VERTEX2 985 11.15600451 -11.97348593 1.57465814
VERTEX2 986 11.14359807 -11.35317148 1.61109607
VERTEX2 987 11.13340267 -10.73437455 1.57451000
VERTEX2 988 11.13854708 -10.11597711 1.58832077
VERTEX2 989 11.12623098 -9.50213402 1.59618829
VERTEX2 990 11.12160736 -8.89169574 1.58564190
VERTEX2 991 11.10842541 -8.27773217 1.61071319
VERTEX2 992 11.10522777 -7.69180412 1.57838681
VERTEX2 993 11.09336857 -7.07641916 1.61140287
VERTEX2 994 11.07865185 -6.49181111 1.60172079
VERTEX2 995 11.04865539 -5.90495393 1.64942759
VERTEX2 996 10.99094094 -5.30274772 1.67695590
VERTEX2 997 10.94772988 -4.66218146 1.61295053
VERTEX2 998 10.92903025 -4.26486180 1.63513499
VERTEX2 999 10.95998721 -4.28996750 2.35392197
VERTEX2 1000 10.50076332 -3.93239085 2.50296601
VERTEX2 1001 10.06496750 -3.53542643 2.18250977
VERTEX2 1002 9.70158044 -3.06872098 2.27549523
VERTEX2 1003 9.35509007 -2.57528015 2.09624089
VERTEX2 1004 9.01642056 -2.04045804 2.15459012
VERTEX2 1005 8.66278347 -1.54760632 2.21710885
VERTEX2 1006 8.26659920 -1.07053645 2.29454629
VERTEX2 1007 7.85305200 -0.64495023 2.38623811
VERTEX2 1008 7.61637790 -0.42977664 2.54577830
VERTEX2 1009 7.51726893 -0.41491041 3.01871861
VERTEX2 1010 6.94884904 -0.35975925 3.07122848
VERTEX2 1011 6.32781358 -0.32118350 3.02809707
VERTEX2 1012 5.71338843 -0.25842538 3.06994188
VERTEX2 1013 5.07785880 -0.26151822 -3.09842453
VERTEX2 1014 4.46547916 -0.21391018 3.00930305
VERTEX2 1015 3.84110680 -0.17481991 3.09364025
VERTEX2 1016 3.07214455 -0.13738467 3.10025844
VERTEX2 1017 2.48550613 -0.12398774 3.04301414
VERTEX2 1018 1.92659171 -0.06198702 3.05022428
VERTEX2 1019 1.33044975 -0.03734472 3.10967318
VERTEX2 1020 0.71409884 -0.00113032 3.09562868
VERTEX2 1021 0.09182984 0.02826374 3.05492156
VERTEX2 1022 0.03719281 0.03281083 3.04759517
VERTEX2 1023 0.04285331 0.03269813 3.13407203
VERTEX2 1024 -0.58534556 0.04090032 -3.12289056
VERTEX2 1025 -1.21582872 0.01081707 -3.10543114
VERTEX2 1026 -1.37858309 0.00543023 -3.09836813
VERTEX2 1027 -1.36423797 0.01243487 -2.18224725
VERTEX2 1028 -1.37775686 -0.15533416 -1.61905303
VERTEX2 1029 -1.40763801 -0.72283678 -1.64072229
VERTEX2 1030 -1.47259602 -1.34518919 -1.72124796
VERTEX2 1031 -1.58689662 -1.99139086 -1.77549978
VERTEX2 1032 -1.71920140 -2.63755526 -1.77154876
VERTEX2 1033 -1.86459357 -3.28243656 -1.81679740
VERTEX2 1034 -1.90996291 -3.45413614 -2.03071010
VERTEX2 1035 -1.91538139 -3.45867972 -2.65025786
VERTEX2 1036 -1.88297461 -3.47374449 3.06189431
VERTEX2 1037 -2.22112482 -3.34390075 2.82336030
VERTEX2 1038 -2.83086722 -3.22018090 2.91445907
VERTEX2 1039 -3.46739046 -3.04906857 2.88282577
VERTEX2 1040 -3.44054814 -3.04980284 -2.77057359
VERTEX2 1041 -3.41015339 -3.05391526 -1.75414021
VERTEX2 1042 -3.41218351 -3.08832881 -0.76670076
VERTEX2 1043 -3.37717893 -3.12085793 0.20238150
VERTEX2 1044 -3.39108792 -3.13711700 1.19570995
VERTEX2 1045 -3.39434921 -3.14420566 1.08173756
VERTEX2 1046 -3.40512222 -3.15854524 0.69628669
VERTEX2 1047 -3.42439823 -3.16682857 0.14062047
VERTEX2 1048 -3.06242434 -3.23771917 -0.17229649
VERTEX2 1049 -2.41764299 -3.33906932 -0.15509080
VERTEX2 1050 -1.77099923 -3.41264036 -0.07935605
VERTEX2 1051 -1.11775582 -3.48891487 -0.15847806
VERTEX2 1052 -0.49610362 -3.57253505 -0.10550253
VERTEX2 1053 -0.08090083 -3.62861743 -0.15810866
VERTEX2 1054 -0.05692264 -3.63125547 0.60419901
VERTEX2 1055 -0.05080979 -3.60313340 1.66026703
VERTEX2 1056 -0.04291137 -3.61474325 2.66418538
VERTEX2 1057 -0.02055385 -3.61729930 -2.62787832
VERTEX2 1058 -0.02454424 -3.62194410 -1.70545756
VERTEX2 1059 -0.12514753 -4.20609495 -1.78613350
VERTEX2 1060 -0.26480345 -4.83752395 -1.78105892
VERTEX2 1061 -0.37266561 -5.27847619 -1.90332154
VERTEX2 1062 -0.37918070 -5.28837921 -2.46678490
VERTEX2 1063 -0.36021973 -5.27760616 -3.06400801
VERTEX2 1064 -0.64400895 -5.22341692 2.95424296
VERTEX2 1065 -1.23498131 -5.15441955 3.07646425
VERTEX2 1066 -1.80147008 -5.10036553 3.02058010
VERTEX2 1067 -1.79039143 -5.09981153 -2.82950867
VERTEX2 1068 -1.77985991 -5.09243699 -2.15613351
VERTEX2 1069 -1.77720176 -5.08525238 -1.98601398
VERTEX2 1070 -1.77282414 -5.07753500 -2.52542203
VERTEX2 1071 -2.24122443 -5.33057175 -2.65286519
VERTEX2 1072 -2.68786571 -5.56019958 -2.72172148
VERTEX2 1073 -2.65639837 -5.55946305 3.04992217
VERTEX2 1074 -3.18476424 -5.48632051 3.01539499
VERTEX2 1075 -3.76073735 -5.40854780 3.03181425
VERTEX2 1076 -3.78503039 -5.40662514 -2.84729906
VERTEX2 1077 -3.79929175 -5.43335339 -2.04193319
VERTEX2 1078 -4.04033684 -6.04387243 -1.99685708
VERTEX2 1079 -4.27566955 -6.61142287 -1.93480096
VERTEX2 1080 -4.28103785 -6.62564982 -2.42254828
VERTEX2 1081 -4.71294440 -6.91869232 -2.54584876
VERTEX2 1082 -4.88674240 -7.03912962 -2.26530310
VERTEX2 1083 -4.88265910 -7.07131480 -1.23543425
VERTEX2 1084 -4.81846962 -7.10460743 -0.26995714
VERTEX2 1085 -4.81358742 -7.10345926 0.71324496
VERTEX2 1086 -4.44985138 -6.61416983 0.94384294
VERTEX2 1087 -4.06659297 -6.10710818 0.93187334
VERTEX2 1088 -3.70223065 -5.59589207 0.91525650
VERTEX2 1089 -3.64830401 -5.52683460 0.81997057
VERTEX2 1090 -3.63702328 -5.51661415 0.20503858
VERTEX2 1091 -3.09586192 -5.48684921 0.02823876
VERTEX2 1092 -2.47338289 -5.47441282 0.01315940
VERTEX2 1093 -1.90091934 -5.48009311 -0.05184122
VERTEX2 1094 -1.88954989 -5.49101636 -0.45579445
VERTEX2 1095 -1.86056008 -5.51694342 -1.04535665
VERTEX2 1096 -1.86112403 -5.51448771 -1.61641632
VERTEX2 1097 -1.94505127 -5.83646611 -1.83176284
VERTEX2 1098 -2.12391087 -6.42967304 -1.88853777
VERTEX2 1099 -2.33100195 -6.98078830 -1.98450125
VERTEX2 1100 -2.33443214 -6.98931485 -1.62142550
VERTEX2 1101 -2.27860230 -7.24616058 -1.35553938
VERTEX2 1102 -2.27876736 -7.24783754 -1.74923335
VERTEX2 1103 -2.40807316 -7.84983448 -1.78301201
VERTEX2 1104 -2.54830687 -8.47809496 -1.81069585
VERTEX2 1105 -2.70555364 -9.09239613 -1.82856879
VERTEX2 1106 -2.83256816 -9.56179145 -1.85377076
VERTEX2 1107 -2.83249224 -9.56285253 -1.59760727
VERTEX2 1108 -2.80599185 -10.18231968 -1.58973436
VERTEX2 1109 -2.86336687 -10.81889868 -1.69361706
VERTEX2 1110 -2.94235712 -11.41914072 -1.74308166
VERTEX2 1111 -3.11481644 -11.94048168 -1.84428689
VERTEX2 1112 -3.15350755 -12.51244745 -1.49774687
VERTEX2 1113 -3.12355178 -13.14487198 -1.59304133
VERTEX2 1114 -3.13638438 -13.75458252 -1.57593333
VERTEX2 1115 -3.13639719 -14.33099507 -1.59204606
VERTEX2 1116 -3.12769461 -14.97260403 -1.55570922
VERTEX2 1117 -3.12550719 -15.06334250 -1.68338072
VERTEX2 1118 -3.12124152 -15.05548386 -2.29038466
VERTEX2 1119 -3.10900746 -15.04710332 -2.72187282
VERTEX2 1120 -3.67066310 -15.24908825 -2.78538634
VERTEX2 1121 -3.85827305 -15.31430912 -2.90383943
VERTEX2 1122 -3.85605290 -15.31507479 2.82926901
VERTEX2 1123 -4.40676431 -15.12769136 2.84632104
VERTEX2 1124 -4.96506046 -14.99685926 2.94523322
VERTEX2 1125 -5.59545447 -14.86880090 2.95893262
VERTEX2 1126 -5.68113885 -14.85480209 -2.98418048
VERTEX2 1127 -5.67878161 -14.85732872 -1.92616018
VERTEX2 1128 -5.67837548 -14.85539904 -0.93810100
VERTEX2 1129 -5.66513245 -14.86283465 0.07822494
VERTEX2 1130 -5.08223582 -14.79925163 0.09215075
VERTEX2 1131 -4.31423458 -14.92417672 -0.33915426
VERTEX2 1132 -3.70860404 -15.14044420 -0.35854429
VERTEX2 1133 -3.16371138 -15.36794815 -0.39711060
VERTEX2 1134 -2.91634490 -15.47199152 -0.49411761
VERTEX2 1135 -2.90919772 -15.47902708 -1.05017293
VERTEX2 1136 -2.90959021 -15.47982378 -1.61215073
VERTEX2 1137 -2.96418308 -15.78227915 -1.79614793
VERTEX2 1138 -3.12049594 -16.41543739 -1.81236814
VERTEX2 1139 -3.24094660 -16.91144090 -1.88539825
VERTEX2 1140 -3.23145549 -16.88885025 -2.36399102
VERTEX2 1141 -3.21075168 -16.86882763 -2.91096928
VERTEX2 1142 -3.57427907 -16.82431583 3.00820222
VERTEX2 1143 -4.17282848 -16.77578538 3.09778255
VERTEX2 1144 -4.75434601 -16.73972279 3.06732802
VERTEX2 1145 -5.33337739 -16.69241831 3.04201982
VERTEX2 1146 -5.90998489 -16.63346655 3.06191725
VERTEX2 1147 -6.49020829 -16.62171986 3.13479353
VERTEX2 1148 -7.06845361 -16.61755684 -3.13836143
VERTEX2 1149 -7.11095913 -16.61873027 -2.64011681
VERTEX2 1150 -7.20404689 -16.72158864 -1.83037789
VERTEX2 1151 -7.20155025 -16.73606128 -0.82637172
VERTEX2 1152 -7.18588234 -16.73638423 0.22695256
VERTEX2 1153 -7.17375700 -16.73095415 1.23992772
VERTEX2 1154 -7.23149311 -16.41685404 1.78601875
VERTEX2 1155 -7.36212560 -15.79501091 1.73667969
VERTEX2 1156 -7.45707171 -15.19196915 1.74670321
VERTEX2 1157 -7.58182422 -14.62345643 1.85781610
VERTEX2 1158 -7.70571645 -14.02394304 1.72925756
VERTEX2 1159 -7.76378493 -13.42369425 1.63518928
VERTEX2 1160 -7.78396986 -12.78892542 1.49854081
VERTEX2 1161 -7.68267398 -12.16200571 1.40894952
VERTEX2 1162 -7.58961999 -11.53477741 1.46716676
VERTEX2 1163 -7.52535975 -10.89661669 1.46181912
VERTEX2 1164 -7.47539065 -10.26046498 1.54739602
VERTEX2 1165 -7.46310317 -9.71835639 1.52458807
VERTEX2 1166 -7.46434767 -9.71220864 2.01358818
VERTEX2 1167 -7.41321196 -9.69987984 2.95029439
VERTEX2 1168 -7.36885760 -9.68233237 -2.42937861
VERTEX2 1169 -7.37271649 -9.73133686 -1.60732107
VERTEX2 1170 -7.38381776 -10.31493888 -1.60057382
VERTEX2 1171 -7.38462471 -10.94729471 -1.56878226
VERTEX2 1172 -7.38980276 -11.54369928 -1.63117908
VERTEX2 1173 -7.42052897 -12.16480409 -1.62201160
VERTEX2 1174 -7.46512385 -12.79109549 -1.69069062
VERTEX2 1175 -7.55178498 -13.40226799 -1.72406660
VERTEX2 1176 -7.64962198 -14.01962800 -1.76776402
VERTEX2 1177 -7.76948766 -14.62492717 -1.76574184
VERTEX2 1178 -7.90087791 -15.23413111 -1.81298039
VERTEX2 1179 -8.03869960 -15.83520004 -1.78366122
VERTEX2 1180 -8.09270764 -16.08560424 -1.79067481
VERTEX2 1181 -8.09140039 -16.07639092 -0.96333726
VERTEX2 1182 -8.03578451 -16.09062585 -0.25171874
VERTEX2 1183 -7.42229954 -16.24062771 -0.22645647
VERTEX2 1184 -6.78930737 -16.35658984 -0.15700181
VERTEX2 1185 -6.16120581 -16.46815130 -0.18935909
VERTEX2 1186 -5.52941819 -16.56430462 -0.12330584
VERTEX2 1187 -4.87522191 -16.65117846 -0.16054748
VERTEX2 1188 -4.24767139 -16.74248018 -0.14260511
VERTEX2 1189 -3.57451496 -16.85319835 -0.12114979
VERTEX2 1190 -3.23300142 -16.89547550 -0.11334775
VERTEX2 1191 -3.19098468 -16.89466946 0.80614114
VERTEX2 1192 -3.18522671 -16.81431587 1.60312842
VERTEX2 1193 -3.17666616 -16.21808196 1.47088675
VERTEX2 1194 -3.13369408 -15.64715894 1.51277465
VERTEX2 1195 -3.10319106 -15.02712558 1.56497781
VERTEX2 1196 -3.09518567 -14.40713348 1.39219595
VERTEX2 1197 -2.98993927 -13.79506314 1.40338910
VERTEX2 1198 -2.91826061 -13.17852218 1.66216838
VERTEX2 1199 -2.93293182 -12.57742784 1.44745228
VERTEX2 1200 -2.87436073 -11.95781412 1.51646834
VERTEX2 1201 -2.84762554 -11.34891963 1.57232336
VERTEX2 1202 -2.85553720 -10.73767758 1.59531573
VERTEX2 1203 -2.88342460 -10.15962993 1.50546575
VERTEX2 1204 -2.76864811 -9.57726183 1.35879188
VERTEX2 1205 -2.65991647 -9.02393837 1.38847339
VERTEX2 1206 -2.57370917 -8.44407362 1.44984811
VERTEX2 1207 -2.43603597 -7.84215137 1.36393549
VERTEX2 1208 -2.32302186 -7.22695960 1.42882403
VERTEX2 1209 -2.23533712 -6.61550707 1.42709462
VERTEX2 1210 -2.16961775 -6.00857632 1.44790870
VERTEX2 1211 -2.04022433 -5.39443417 1.37527648
VERTEX2 1212 -1.92232702 -4.78116371 1.42561903
VERTEX2 1213 -1.85277469 -4.16861173 1.49935320
VERTEX2 1214 -1.76823169 -3.44422520 1.27743066
VERTEX2 1215 -1.60134652 -2.85571033 1.33713395
VERTEX2 1216 -1.55052723 -2.30439103 1.55548708
VERTEX2 1217 -1.51638531 -1.72787812 1.53698570
VERTEX2 1218 -1.50441423 -1.14671768 1.48671648
VERTEX2 1219 -1.45633648 -0.50588074 1.51773524
VERTEX2 1220 -1.45150503 0.07203997 1.60897931
VERTEX2 1221 -1.44743728 0.05860980 1.15712394
VERTEX2 1222 -1.43642872 0.06945314 0.56090242
VERTEX2 1223 -1.41612009 0.07441078 0.00231329
VERTEX2 1224 -0.83296310 -0.01479800 -0.18032925
VERTEX2 1225 -0.20816197 -0.12488277 -0.16635713
VERTEX2 1226 -0.09458652 -0.14407759 -0.18287635
VERTEX2 1227 -0.09458652 -0.14407759 -0.18353835
