VERTEX2 0 0.00000543 0.00000010 -0.00000035
VERTEX2 1 0.00000543 0.00000010 -0.00064235
VERTEX2 2 0.00000543 0.00000010 -0.00118035
VERTEX2 3 0.01100728 -0.00097489 -0.00356235
VERTEX2 4 0.64101385 -0.01120025 -0.00744435
VERTEX2 5 0.69602154 -0.01171576 -0.09872635
VERTEX2 6 0.70027465 -0.01543508 -0.89599835
VERTEX2 7 0.69396192 0.00421341 -1.51153535
VERTEX2 8 0.69926878 0.02669418 -2.12506935
VERTEX2 9 0.71612005 0.04112319 -2.76313935
VERTEX2 10 0.72898657 0.04322058 2.90551496
VERTEX2 11 0.73320915 0.04053753 2.23123596
VERTEX2 12 0.73319187 0.04154599 1.58176196
VERTEX2 13 0.73875804 0.05907108 0.92226396
VERTEX2 14 0.75966356 0.07375128 0.31402496
VERTEX2 15 0.76424037 0.07406390 -0.21142370
VERTEX2 16 1.05410035 0.01451898 -0.23034604
VERTEX2 17 1.65119052 -0.13229723 -0.26180545
VERTEX2 18 2.26481924 -0.29364644 -0.27253384
VERTEX2 19 2.88228561 -0.48926991 -0.32170967
VERTEX2 20 3.47391231 -0.68010312 -0.31575615
VERTEX2 21 4.08098199 -0.83335348 -0.20414098
VERTEX2 22 4.68892186 -0.97558892 -0.18671240
VERTEX2 23 5.32697682 -1.02105579 -0.07924304
VERTEX2 24 5.95663184 -1.09339537 -0.13626564
VERTEX2 25 6.58961511 -1.16221567 -0.13347175
VERTEX2 26 7.19744747 -1.26385522 -0.17406151
VERTEX2 27 7.81224196 -1.35636351 -0.15828914
VERTEX2 28 8.39271775 -1.45610329 -0.16279655
VERTEX2 29 8.77070114 -1.51425448 -0.13209313
VERTEX2 30 8.77893721 -1.51646423 -0.66436492
VERTEX2 31 8.87902934 -1.65142201 -0.93282628
VERTEX2 32 9.24514276 -2.16617498 -0.95142980
VERTEX2 33 9.62513845 -2.67224844 -0.90054312
VERTEX2 34 10.03435466 -3.16219973 -0.87943501
VERTEX2 35 10.45370375 -3.64444450 -0.84511601
VERTEX2 36 10.87966925 -4.12789827 -0.85363861
VERTEX2 37 11.15958375 -4.44154749 -0.84590900
VERTEX2 38 11.15664820 -4.43754888 -1.16751053
VERTEX2 39 11.15481287 -4.42902641 -1.33841592
VERTEX2 40 11.29807809 -5.00059165 -1.32109660
VERTEX2 41 11.44688105 -5.59726994 -1.35300561
VERTEX2 42 11.56830286 -6.15738936 -1.37562063
VERTEX2 43 11.67327530 -6.74481153 -1.41595457
VERTEX2 44 11.76147488 -7.33138985 -1.45305452
VERTEX2 45 11.81571705 -7.94857967 -1.50873069
VERTEX2 46 11.84593136 -8.56804183 -1.52824832
VERTEX2 47 11.86522721 -9.18744026 -1.57004315
VERTEX2 48 11.86091069 -9.81146386 -1.57668367
VERTEX2 49 11.85279872 -10.43146707 -1.62759737
VERTEX2 50 11.79866113 -11.01952732 -1.67215286
VERTEX2 51 11.74256694 -11.61601123 -1.70135009
VERTEX2 52 11.64434995 -12.19956744 -1.77819477
VERTEX2 53 11.54326593 -12.75765999 -1.76593496
VERTEX2 54 11.42910585 -13.27020529 -1.82810066
VERTEX2 55 11.43638799 -13.23557193 -1.82291541
VERTEX2 56 11.43633779 -13.23578189 -1.81243314
VERTEX2 57 11.29139144 -13.85092197 -1.82388682
VERTEX2 58 11.14386503 -14.45439350 -1.77768646
VERTEX2 59 11.01369473 -15.05713307 -1.80125498
VERTEX2 60 10.88293626 -15.65624593 -1.77982753
VERTEX2 61 10.74640184 -16.25593937 -1.83048311
VERTEX2 62 10.59532257 -16.81295912 -1.79054848
VERTEX2 63 10.44247793 -17.37471525 -1.82592668
VERTEX2 64 10.30628010 -17.93064259 -1.76238504
VERTEX2 65 10.17062932 -18.48424695 -1.81361469
VERTEX2 66 10.01593584 -19.06775529 -1.82143344
VERTEX2 67 9.84911490 -19.65746303 -1.81999699
VERTEX2 68 9.73841012 -20.10522880 -1.83561338
VERTEX2 69 9.74140221 -20.09550997 -1.99034160
VERTEX2 70 9.74758949 -20.08369299 -2.66459476
VERTEX2 71 9.76913153 -20.08247419 2.97603584
VERTEX2 72 9.78027540 -20.08381795 2.96658910
VERTEX2 73 9.78626375 -20.08530183 2.90168581
VERTEX2 74 9.78557718 -20.08482397 2.27999316
VERTEX2 75 9.79105414 -20.08697010 1.92771486
VERTEX2 76 9.77899389 -20.07357864 2.62172211
VERTEX2 77 9.77352799 -20.07128825 2.85473549
VERTEX2 78 9.49031371 -20.08182223 -3.09124488
VERTEX2 79 8.87499023 -20.11994924 -3.09673443
VERTEX2 80 8.24606246 -20.11786113 3.11166346
VERTEX2 81 7.62493399 -20.09065532 3.08541657
VERTEX2 82 7.02333266 -20.04882815 3.03132697
VERTEX2 83 6.43269014 -19.99638477 3.00782788
VERTEX2 84 5.86808122 -19.90924969 2.93002895
VERTEX2 85 5.32315851 -19.80394469 2.93732650
VERTEX2 86 4.71134606 -19.68166257 2.84757235
VERTEX2 87 4.32929118 -19.57904084 2.79423525
VERTEX2 88 3.97257703 -19.44579413 2.76439350
VERTEX2 89 3.98167721 -19.44626672 -3.12311086
VERTEX2 90 3.37562171 -19.44816534 3.12892066
VERTEX2 91 2.75887965 -19.44237393 -3.10525328
VERTEX2 92 2.15824106 -19.43672149 3.06214100
VERTEX2 93 1.53730417 -19.33242108 2.96116117
VERTEX2 94 0.91706616 -19.19224840 2.91826249
VERTEX2 95 0.29447545 -19.10256594 3.06089410
VERTEX2 96 -0.31714667 -19.04963407 3.08495347
VERTEX2 97 -0.90818395 -18.98489861 3.01430685
VERTEX2 98 -1.49707223 -18.88216163 2.95626165
VERTEX2 99 -2.20247361 -18.75577476 3.00295358
VERTEX2 100 -2.76726846 -18.64602845 2.95107029
VERTEX2 101 -3.37986869 -18.58746547 3.05411987
VERTEX2 102 -3.99477550 -18.50505426 2.94806186
VERTEX2 103 -4.60412004 -18.38803529 3.04379146
VERTEX2 104 -5.21822938 -18.30937003 3.00992381
VERTEX2 105 -5.83274232 -18.24243413 3.05622548
VERTEX2 106 -6.42360988 -18.17096098 3.00033556
VERTEX2 107 -7.04475336 -18.07089439 2.99782871
VERTEX2 108 -7.49336222 -18.02016491 3.05954720
VERTEX2 109 -7.53651952 -18.00902683 2.61135955
VERTEX2 110 -7.56301290 -17.98141016 2.02022523
VERTEX2 111 -7.56286215 -17.90379775 1.51373815
VERTEX2 112 -7.53574380 -17.27291137 1.56788377
VERTEX2 113 -7.55047999 -16.65399747 1.61467042
VERTEX2 114 -7.57978908 -16.04367042 1.65124374
VERTEX2 115 -7.64872355 -15.40627141 1.71111467
VERTEX2 116 -7.76192479 -14.65858802 1.75486971
VERTEX2 117 -7.89263861 -14.05152395 1.85009660
VERTEX2 118 -7.89622901 -14.03496028 1.51492898
VERTEX2 119 -7.83726533 -13.51841986 1.46140914
VERTEX2 120 -7.78042713 -12.86400177 1.55140764
VERTEX2 121 -7.78702253 -12.24715166 1.61884547
VERTEX2 122 -7.81757714 -11.66765791 1.67503646
VERTEX2 123 -7.84108742 -11.49099980 1.66223896
VERTEX2 124 -7.75414336 -11.25393882 1.23918186
VERTEX2 125 -7.53486053 -10.66380982 1.22824489
VERTEX2 126 -7.39967484 -10.05060660 1.43482498
VERTEX2 127 -7.29950042 -9.41957547 1.43330468
VERTEX2 128 -7.22156875 -8.78452876 1.46982199
VERTEX2 129 -7.13289296 -8.15329187 1.43728372
VERTEX2 130 -7.06311557 -7.52413009 1.49009880
VERTEX2 131 -7.01511950 -6.90091060 1.57874834
VERTEX2 132 -6.99540938 -6.28115224 1.52904837
VERTEX2 133 -6.94688944 -5.71837359 1.49200870
VERTEX2 134 -6.89118722 -5.12670717 1.47357873
VERTEX2 135 -6.80762690 -4.55546025 1.44712396
VERTEX2 136 -6.73069487 -3.92284278 1.46705023
VERTEX2 137 -6.63143379 -3.29221034 1.42564197
VERTEX2 138 -6.55297506 -2.66298595 1.50649148
VERTEX2 139 -6.53501623 -2.03489346 1.57177881
VERTEX2 140 -6.56175750 -1.38216893 1.60229843
VERTEX2 141 -6.56627985 -0.74475028 1.55386004
VERTEX2 142 -6.56510866 -0.09762859 1.55002781
VERTEX2 143 -6.48260470 0.54091592 1.43979251
VERTEX2 144 -6.44217175 0.91243948 1.45759415
VERTEX2 145 -6.43649842 0.92953774 0.95976133
VERTEX2 146 -6.43485837 0.93785740 0.36717374
VERTEX2 147 -6.37611718 0.93378265 -0.11879601
VERTEX2 148 -5.94147663 0.87393921 -0.15418065
VERTEX2 149 -5.30488105 0.78158684 -0.12914220
VERTEX2 150 -4.67504247 0.71833940 -0.11503342
VERTEX2 151 -4.03977855 0.67208846 -0.02940872
VERTEX2 152 -3.41637317 0.63800794 -0.09008336
VERTEX2 153 -2.79329022 0.60667224 0.00357177
VERTEX2 154 -2.17387373 0.58722314 -0.06573481
VERTEX2 155 -1.55057148 0.55548525 -0.03208690
VERTEX2 156 -0.92499033 0.54296809 -0.00111952
VERTEX2 157 -0.36307371 0.52705964 -0.06522396
VERTEX2 158 -0.16882300 0.51391402 -0.03772904
VERTEX2 159 -0.16356064 0.51224579 0.94959933
VERTEX2 160 -0.15819101 0.52107080 1.98527833
VERTEX2 161 -0.18081123 0.46153541 2.70629688
VERTEX2 162 -0.15528117 0.46725150 -2.54108804
VERTEX2 163 -0.15628193 0.46227014 -1.54400682
VERTEX2 164 -0.23378785 0.55906187 -0.48143849
VERTEX2 165 -0.06362609 0.54174206 -0.07367346
VERTEX2 166 0.63017773 0.49700733 -0.07197319
VERTEX2 167 1.24425270 0.44531555 -0.10128909
VERTEX2 168 1.82978038 0.39475208 -0.08924394
VERTEX2 169 2.42238934 0.32196619 -0.12613056
VERTEX2 170 3.00626629 0.25244908 -0.14673457
VERTEX2 171 3.56472762 0.15322379 -0.18491403
VERTEX2 172 4.18688594 0.04478586 -0.17075063
VERTEX2 173 4.81354586 -0.07656227 -0.19354731
VERTEX2 174 5.43650696 -0.19149407 -0.15340940
VERTEX2 175 6.05079912 -0.28239908 -0.17812388
VERTEX2 176 6.64783845 -0.40319648 -0.16854662
VERTEX2 177 7.26905917 -0.50665711 -0.19625094
VERTEX2 178 7.88783983 -0.65303247 -0.23533501
VERTEX2 179 8.29154459 -0.73763201 -0.18206810
VERTEX2 180 8.34128150 -0.75114674 -0.62423946
VERTEX2 181 8.77963966 -1.06980688 -0.67614154
VERTEX2 182 9.18417076 -1.43050827 -0.85030085
VERTEX2 183 9.52969085 -1.85249962 -0.90775259
VERTEX2 184 9.86875319 -2.36797639 -1.05315976
VERTEX2 185 10.15298827 -2.90648306 -1.14476109
VERTEX2 186 10.37284651 -3.47711938 -1.21024618
VERTEX2 187 10.56873015 -4.02569192 -1.23206119
VERTEX2 188 10.77163209 -4.59376095 -1.23670200
VERTEX2 189 10.96750527 -5.16578930 -1.26262419
VERTEX2 190 11.15007445 -5.76724336 -1.29162690
VERTEX2 191 11.32222184 -6.36808646 -1.31589597
VERTEX2 192 11.47541125 -6.96250387 -1.34441658
VERTEX2 193 11.59783390 -7.50849077 -1.40028047
VERTEX2 194 11.69661330 -8.07569688 -1.42715569
VERTEX2 195 11.77588308 -8.63835562 -1.45585503
VERTEX2 196 11.84152574 -9.26166857 -1.49677669
VERTEX2 197 11.87845984 -9.88117769 -1.52438705
VERTEX2 198 11.90262032 -10.49818774 -1.58268468
VERTEX2 199 11.87356170 -11.10510477 -1.64420737
VERTEX2 200 11.82544524 -11.70699813 -1.66616574
VERTEX2 201 11.75359323 -12.30563961 -1.72289609
VERTEX2 202 11.68885399 -12.80804800 -1.70276683
VERTEX2 203 11.58536445 -13.53938539 -1.75551374
VERTEX2 204 11.46240062 -14.11511040 -1.85749831
VERTEX2 205 11.29167425 -14.67708194 -1.86689471
VERTEX2 206 11.13619633 -15.22396997 -1.86492240
VERTEX2 207 10.97496459 -15.79060135 -1.84889208
VERTEX2 208 10.80000992 -16.38994755 -1.85822046
VERTEX2 209 10.63814469 -16.98383317 -1.82024749
VERTEX2 210 10.46876622 -17.59374585 -1.83047013
VERTEX2 211 10.31299056 -18.20714454 -1.82951869
VERTEX2 212 10.12796815 -18.80996320 -1.88382583
VERTEX2 213 9.92296574 -19.41601838 -1.90594644
VERTEX2 214 9.71217483 -20.00811608 -1.91103416
VERTEX2 215 9.60955588 -20.28680245 -1.94592616
VERTEX2 216 9.64556321 -20.22620325 -2.44225289
VERTEX2 217 9.68057304 -20.22261597 -2.98259088
VERTEX2 218 9.67860584 -20.22185122 -3.03795903
VERTEX2 219 9.11325439 -20.17441275 3.07776384
VERTEX2 220 8.50540949 -20.12720181 3.03883460
VERTEX2 221 7.86645987 -20.06083038 3.08936217
VERTEX2 222 7.24059940 -20.01827501 3.06381897
VERTEX2 223 6.61389334 -19.98904330 -3.12306833
VERTEX2 224 5.99827157 -19.98997324 3.13426194
VERTEX2 225 5.37914053 -19.98451555 -3.09933794
VERTEX2 226 4.76090123 -19.97825574 3.13459395
VERTEX2 227 4.11437024 -20.04830319 -2.99301558
VERTEX2 228 3.59067849 -20.03162406 2.92895769
VERTEX2 229 3.14531701 -19.99265557 3.04971280
VERTEX2 230 2.85424466 -19.97623541 3.02109298
VERTEX2 231 3.05818195 -19.99434744 3.09134795
VERTEX2 232 2.74737060 -19.85421322 2.66553515
VERTEX2 233 2.18259402 -19.59199987 2.76786614
VERTEX2 234 1.60575520 -19.36385031 2.72372458
VERTEX2 235 1.35539070 -19.25529243 2.71875229
VERTEX2 236 1.01908780 -19.25591843 3.12422668
VERTEX2 237 0.38937719 -19.26984051 -3.08855672
VERTEX2 238 -0.23265545 -19.31740962 -3.12128848
VERTEX2 239 -0.84868730 -19.31371298 3.09411583
VERTEX2 240 -1.41648685 -19.19531545 2.87575943
VERTEX2 241 -1.95410358 -19.06343888 2.96095876
VERTEX2 242 -2.53678853 -18.99520827 3.00135543
VERTEX2 243 -3.14635442 -18.90872302 3.00128207
VERTEX2 244 -3.77863427 -18.86092959 3.07332837
VERTEX2 245 -4.38826312 -18.81118680 3.01893165
VERTEX2 246 -4.97758051 -18.72586854 2.94561205
VERTEX2 247 -5.57648611 -18.64238426 3.05000821
VERTEX2 248 -6.13382074 -18.61860056 3.08138113
VERTEX2 249 -6.08392995 -18.62627339 -3.00898598
VERTEX2 250 -6.07903909 -18.62615804 2.68689850
VERTEX2 251 -6.39961155 -18.28535184 2.26337399
VERTEX2 252 -6.75345644 -17.86444495 2.27186097
VERTEX2 253 -7.12335320 -17.41777749 2.26084642
VERTEX2 254 -7.48672157 -16.95886053 2.21962957
VERTEX2 255 -7.55937576 -16.86590015 2.30348830
VERTEX2 256 -7.56206537 -16.78859622 1.82745067
VERTEX2 257 -7.61235876 -16.32795498 1.69173930
VERTEX2 258 -7.69388202 -15.73743578 1.77226101
VERTEX2 259 -7.83612914 -15.12647919 1.81260194
VERTEX2 260 -7.96646513 -14.56838172 1.80376605
VERTEX2 261 -7.96436984 -14.53647437 1.49186222
VERTEX2 262 -7.89742027 -13.89018587 1.49833429
VERTEX2 263 -7.85147142 -13.27769094 1.51164868
VERTEX2 264 -7.83257637 -12.67909943 1.60858608
VERTEX2 265 -7.85965330 -12.08232184 1.62869552
VERTEX2 266 -7.80753613 -11.50180667 1.50003877
VERTEX2 267 -7.75175255 -10.75411739 1.47057757
VERTEX2 268 -7.61580599 -10.15189620 1.36039074
VERTEX2 269 -7.49222234 -9.53923462 1.39027149
VERTEX2 270 -7.41634475 -8.91643186 1.50431819
VERTEX2 271 -7.31740424 -8.29518435 1.39388258
VERTEX2 272 -7.22809715 -7.66936023 1.45913891
VERTEX2 273 -7.23403125 -7.04043187 1.67127401
VERTEX2 274 -7.29780858 -6.42544811 1.69530740
VERTEX2 275 -7.28203507 -5.81942910 1.52394624
VERTEX2 276 -7.27146584 -5.21437097 1.63858763
VERTEX2 277 -7.31464537 -4.65220535 1.61317184
VERTEX2 278 -7.26761658 -4.01444828 1.52467986
VERTEX2 279 -7.22437695 -3.37853333 1.46947592
VERTEX2 280 -7.15293123 -2.74801809 1.47168635
VERTEX2 281 -7.05916384 -2.11569636 1.37146292
VERTEX2 282 -6.93631312 -1.48984124 1.41155588
VERTEX2 283 -6.84645240 -0.85748724 1.40397412
VERTEX2 284 -6.73178035 -0.23560142 1.43142767
VERTEX2 285 -6.66184774 0.41287968 1.45268834
VERTEX2 286 -6.59266326 1.03361327 1.50648639
VERTEX2 287 -6.58964830 1.08425853 1.40231983
VERTEX2 288 -6.58635947 1.09006385 0.79442011
VERTEX2 289 -6.58441562 1.09096215 0.20167987
VERTEX2 290 -6.14482655 1.08073886 -0.02303066
VERTEX2 291 -5.52266407 1.07109311 -0.00895272
VERTEX2 292 -4.90720016 1.04923453 -0.06353751
VERTEX2 293 -4.28321742 1.00183897 -0.08654192
VERTEX2 294 -3.66282313 0.94745607 -0.08580028
VERTEX2 295 -3.04184007 0.86497347 -0.19821308
VERTEX2 296 -2.42603914 0.71815670 -0.24354305
VERTEX2 297 -1.81242900 0.56446679 -0.25517183
VERTEX2 298 -1.20137228 0.40759972 -0.25576409
VERTEX2 299 -0.62958086 0.24951120 -0.19454055
VERTEX2 300 -0.04526325 0.16196484 -0.15232781
VERTEX2 301 0.51447682 0.06069516 -0.21147819
VERTEX2 302 0.81381587 -0.00485229 -0.23236958
VERTEX2 303 0.79392224 -0.00072592 -0.22821943
VERTEX2 304 1.29176191 -0.11758152 -0.21866650
VERTEX2 305 1.90485995 -0.16413476 -0.03481508
VERTEX2 306 2.53191846 -0.17678979 -0.05295208
VERTEX2 307 3.16826383 -0.22658990 -0.08975123
VERTEX2 308 3.79285626 -0.29138906 -0.14546539
VERTEX2 309 4.42478793 -0.35368852 -0.05270547
VERTEX2 310 5.04979503 -0.38574491 -0.08876411
VERTEX2 311 5.32786305 -0.41250389 0.08604989
VERTEX2 312 5.32959909 -0.41149228 1.07319043
VERTEX2 313 5.33491536 -0.19494137 1.56987622
VERTEX2 314 5.31702226 0.43277192 1.60975770
VERTEX2 315 5.29006182 1.05984912 1.60552820
VERTEX2 316 5.25198483 1.69999593 1.65700429
VERTEX2 317 5.19240731 2.33782603 1.66701617
VERTEX2 318 5.09544304 2.97117246 1.76163630
VERTEX2 319 5.01598337 3.32008226 1.83273071
VERTEX2 320 5.01850606 3.32784699 2.80040980
VERTEX2 321 5.01063754 3.32447860 -2.44394547
VERTEX2 322 5.01032282 3.32380302 -1.44856915
VERTEX2 323 5.01965591 3.31477439 -0.45698090
VERTEX2 324 5.02308016 3.31365139 0.20229915
VERTEX2 325 5.02400382 3.31372346 -0.32587786
VERTEX2 326 5.03812460 3.30303749 -0.92164117
VERTEX2 327 5.04106289 3.28896029 -1.54558630
VERTEX2 328 5.02250852 2.65292401 -1.59235342
VERTEX2 329 4.99788334 2.02504534 -1.64907348
VERTEX2 330 4.94065844 1.40832466 -1.66981420
VERTEX2 331 4.88270837 0.79148599 -1.68557373
VERTEX2 332 4.80028481 0.17785479 -1.70557338
VERTEX2 333 4.77773931 0.02298614 -1.64211853
VERTEX2 334 4.79441569 0.02637808 -0.84552343
VERTEX2 335 4.81199632 0.02114681 0.14541723
VERTEX2 336 4.82643137 0.02618638 1.08619125
VERTEX2 337 4.83236457 0.06266035 2.06475667
VERTEX2 338 4.82922587 0.06484969 3.05420936
VERTEX2 339 4.84045766 0.07178821 -2.17907855
VERTEX2 340 4.84064718 0.07031564 -1.15931602
VERTEX2 341 4.95354970 0.00181968 -0.52561154
VERTEX2 342 5.52562066 -0.30413461 -0.42352738
VERTEX2 343 6.09965573 -0.50564235 -0.29208446
VERTEX2 344 6.68430413 -0.68919176 -0.30161469
VERTEX2 345 6.91845617 -0.75880789 -0.32857582
VERTEX2 346 6.90090019 -0.75300354 -0.97451704
VERTEX2 347 6.90305786 -0.84074589 -1.53190527
VERTEX2 348 6.91911060 -1.43073747 -1.54808017
VERTEX2 349 6.91491871 -2.04957999 -1.58777764
VERTEX2 350 6.89922690 -2.83698251 -1.60689023
VERTEX2 351 6.88410953 -3.11005436 -1.63533589
VERTEX2 352 6.88239998 -3.11806827 -1.92230342
VERTEX2 353 6.87100002 -3.13194984 -2.58549739
VERTEX2 354 6.85725040 -3.13583698 3.09636432
VERTEX2 355 6.83674596 -3.13500608 2.37776496
VERTEX2 356 6.83054166 -3.12394101 1.80450352
VERTEX2 357 6.83296021 -3.10987185 1.15411575
VERTEX2 358 6.83405925 -3.10835340 0.54122777
VERTEX2 359 6.82444662 -3.11243547 -0.07023550
VERTEX2 360 6.81359429 -3.11025131 -0.24517876
VERTEX2 361 6.80815335 -3.11166558 0.67783422
VERTEX2 362 6.89359359 -2.88165925 1.21384940
VERTEX2 363 6.99676393 -2.61437606 1.20833079
VERTEX2 364 6.92887117 -2.28057366 1.82534744
VERTEX2 365 6.87452691 -1.99379860 1.33027646
VERTEX2 366 6.98395860 -1.87045058 0.77836109
VERTEX2 367 7.43144353 -1.43548113 0.78131905
VERTEX2 368 7.88931663 -0.99831263 0.73330622
VERTEX2 369 7.90878262 -0.97489367 0.48152191
VERTEX2 370 7.93240693 -0.97116603 -0.10516369
VERTEX2 371 7.93814602 -0.97415841 -0.65055682
VERTEX2 372 8.36611137 -1.32350445 -0.67819828
VERTEX2 373 8.83774312 -1.68918623 -0.67618235
VERTEX2 374 9.31576752 -2.09318330 -0.73728173
VERTEX2 375 9.67538650 -2.41429042 -0.76831184
VERTEX2 376 9.68765815 -2.42182922 -0.07607933
VERTEX2 377 9.73654086 -2.38721951 0.61666654
VERTEX2 378 10.27145381 -1.99213173 0.66942138
VERTEX2 379 10.75080795 -1.56469594 0.75273102
VERTEX2 380 11.19070600 -1.10111342 0.87049763
VERTEX2 381 11.33616760 -0.92315564 1.01874758
VERTEX2 382 11.33924075 -0.91768393 2.06398825
VERTEX2 383 11.33619888 -0.91580636 3.05123206
VERTEX2 384 11.33483395 -0.91708442 -2.26784975
VERTEX2 385 11.33067668 -0.92400487 -1.23735581
VERTEX2 386 11.43365759 -1.05858053 -1.01227923
VERTEX2 387 11.88735398 -1.48086488 -0.68035932
VERTEX2 388 12.34738218 -1.83748585 -0.67393666
VERTEX2 389 12.78210155 -2.21353729 -0.75919933
VERTEX2 390 12.79192685 -2.22215574 -0.29026538
VERTEX2 391 12.60375856 -2.21310686 0.08478754
VERTEX2 392 12.54523859 -2.21344237 1.11267886
VERTEX2 393 12.54665738 -2.14367988 2.34668623
VERTEX2 394 12.47660595 -2.11397841 -2.95702349
VERTEX2 395 12.66940897 -2.01491400 -2.62479434
VERTEX2 396 12.64725113 -2.02584987 -2.62751164
VERTEX2 397 12.60781573 -2.03430182 -2.64122107
VERTEX2 398 12.59206636 -2.04710770 -2.44786099
VERTEX2 399 12.51709872 -2.15059469 -2.15386754
VERTEX2 400 12.15647698 -2.69877395 -2.10656888
VERTEX2 401 11.80580612 -3.23465895 -2.20091014
VERTEX2 402 11.32355923 -3.68377962 -2.47040767
VERTEX2 403 10.80462260 -4.08584189 -2.50594311
VERTEX2 404 10.29520842 -4.43737463 -2.58648066
VERTEX2 405 10.27731085 -4.45289702 -2.05566612
VERTEX2 406 10.27336359 -4.41227871 -1.08260532
VERTEX2 407 10.44727267 -4.66568540 -0.95629631
VERTEX2 408 10.76503716 -5.12873965 -0.99572439
VERTEX2 409 10.89199887 -5.33780525 -1.09692811
VERTEX2 410 10.88380527 -5.30219943 -1.72832713
VERTEX2 411 11.07185742 -4.83256494 -2.57017411
VERTEX2 412 10.52180001 -5.05506411 -2.77515918
VERTEX2 413 9.88608318 -5.27322892 -2.85625155
VERTEX2 414 9.24385155 -5.47991783 -2.75398882
VERTEX2 415 8.63912915 -5.71932397 -2.74619172
VERTEX2 416 8.35206520 -5.84822916 -2.80055112
VERTEX2 417 8.06192080 -5.83363105 3.05980818
VERTEX2 418 7.62561403 -5.79301551 3.01548997
VERTEX2 419 7.62791499 -5.79248502 -2.83509644
VERTEX2 420 7.67888052 -5.76949849 -2.61776880
VERTEX2 421 7.67716909 -5.77234111 -1.64697938
VERTEX2 422 7.66942668 -5.78337959 -0.40368909
VERTEX2 423 7.67468759 -5.78383454 -0.05663805
VERTEX2 424 7.67424347 -5.78437919 -0.05530234
VERTEX2 425 7.66299074 -5.79087811 -0.04258553
VERTEX2 426 7.66226672 -5.79141666 -0.05072785
VERTEX2 427 7.69408999 -5.79274437 -0.04663654
VERTEX2 428 8.34456370 -5.80689285 -0.05227694
VERTEX2 429 8.97791812 -5.84915531 -0.09323754
VERTEX2 430 9.30865344 -5.88543754 -0.13951809
VERTEX2 431 9.27504403 -5.88170786 -0.08779032
VERTEX2 432 9.27805966 -5.88274538 -0.72028828
VERTEX2 433 9.28142246 -5.88731140 -1.39841885
VERTEX2 434 9.24644113 -6.42286284 -1.62681027
VERTEX2 435 9.21579495 -7.06297838 -1.65508922
VERTEX2 436 9.13926443 -7.70107559 -1.66380976
VERTEX2 437 9.08815201 -8.34856255 -1.65576593
VERTEX2 438 9.03688817 -8.81879655 -1.68567064
VERTEX2 439 9.03456284 -8.82759701 -2.12032232
VERTEX2 440 9.04015963 -8.82319664 -2.76197164
VERTEX2 441 9.05487255 -8.82172302 2.90064277
VERTEX2 442 9.06093011 -8.82502679 2.27272591
VERTEX2 443 9.06102399 -8.82661909 1.70718070
VERTEX2 444 9.06393773 -8.81122633 1.11703395
VERTEX2 445 9.06828705 -8.80707722 0.46038014
VERTEX2 446 9.06555533 -8.80876890 0.66258381
VERTEX2 447 9.07680308 -8.78696925 1.29547675
VERTEX2 448 9.22687964 -8.16570753 1.31306257
VERTEX2 449 9.35997735 -7.52990772 1.41447169
VERTEX2 450 9.45422499 -6.89553570 1.42849438
VERTEX2 451 9.50706209 -6.42747695 1.47136705
VERTEX2 452 9.50695404 -6.42877961 1.09376561
VERTEX2 453 9.50566585 -6.43110228 0.47186234
VERTEX2 454 9.76794664 -6.41106597 0.04999204
VERTEX2 455 10.36244501 -6.38683784 0.02949575
VERTEX2 456 10.99060211 -6.38243779 -0.03500528
VERTEX2 457 11.34083261 -6.40467860 -0.12262257
VERTEX2 458 11.33471601 -6.40164635 -0.76827485
VERTEX2 459 11.32577000 -6.36550033 -1.37641034
VERTEX2 460 11.30551203 -6.76165667 -1.63337403
VERTEX2 461 11.23756976 -7.37576774 -1.72128671
VERTEX2 462 11.15094316 -7.88274882 -1.76127166
VERTEX2 463 11.16351014 -7.85808912 -0.92093607
VERTEX2 464 11.42034228 -7.93088344 -0.24277125
VERTEX2 465 12.00576443 -8.06369259 -0.23500684
VERTEX2 466 12.56083858 -8.21484363 -0.29063239
VERTEX2 467 13.12880423 -8.39515463 -0.33441897
VERTEX2 468 13.74118949 -8.61234792 -0.36965377
VERTEX2 469 14.33027516 -8.87643127 -0.45226552
VERTEX2 470 14.78187267 -9.09045715 -0.43308344
VERTEX2 471 14.78764602 -9.09358106 -0.63245527
VERTEX2 472 14.80271793 -9.11457817 -1.26413646
VERTEX2 473 14.80451865 -9.12337734 -1.90395019
VERTEX2 474 14.80305524 -9.12521442 -2.53451913
VERTEX2 475 14.80702593 -9.12467384 -3.10823149
VERTEX2 476 14.81134675 -9.12526407 2.52381839
VERTEX2 477 14.81667573 -9.13567904 1.96435591
VERTEX2 478 14.81753756 -9.14690880 1.33736788
VERTEX2 479 14.81636605 -9.14959635 0.88311927
VERTEX2 480 14.81650692 -9.14927567 1.44520328
VERTEX2 481 14.81324551 -9.13516198 2.44732116
VERTEX2 482 14.81958211 -9.13770941 2.78346128
VERTEX2 483 14.82812914 -9.14084458 2.77807079
VERTEX2 484 14.40412534 -8.98303965 2.81358118
VERTEX2 485 13.80476633 -8.79345579 2.81124362
VERTEX2 486 13.20281721 -8.57983568 2.82074384
VERTEX2 487 12.59208452 -8.39944818 2.84898743
VERTEX2 488 11.98161871 -8.21778501 2.88513157
VERTEX2 489 11.51318489 -8.11000683 2.91558522
VERTEX2 490 11.51973791 -8.10937905 -2.88242466
VERTEX2 491 11.52807145 -8.09840868 -1.94618590
VERTEX2 492 11.51121986 -8.32762057 -1.64310235
VERTEX2 493 11.44910139 -8.93090350 -1.69813130
VERTEX2 494 11.36162082 -9.54140627 -1.75903338
VERTEX2 495 11.29216876 -10.16263507 -1.65194318
VERTEX2 496 11.24796043 -10.78508402 -1.53429389
VERTEX2 497 11.24044536 -11.40096089 -1.62041133
VERTEX2 498 11.17137624 -12.02057949 -1.72228471
VERTEX2 499 11.04039246 -12.64537212 -1.73935196
VERTEX2 500 11.09741007 -13.21004013 -1.41050658
VERTEX2 501 11.16965500 -13.77717396 -1.48300969
VERTEX2 502 11.19229877 -14.46994762 -1.56747585
VERTEX2 503 11.18713089 -14.91638367 -1.58439812
VERTEX2 504 11.19168061 -14.90362729 -0.72893107
VERTEX2 505 11.42689086 -14.93107357 -0.10761300
VERTEX2 506 12.01855445 -15.01505695 -0.25985716
VERTEX2 507 12.60026496 -15.18731544 -0.33810980
VERTEX2 508 13.17031325 -15.40132662 -0.35109251
VERTEX2 509 13.78841810 -15.63580927 -0.40719313
VERTEX2 510 14.14344962 -15.79531659 -0.42127056
VERTEX2 511 14.14168039 -15.77751889 0.45315123
VERTEX2 512 14.16411614 -15.73076236 1.64853302
VERTEX2 513 14.16164589 -15.72334779 2.60523078
VERTEX2 514 14.09427932 -15.70413127 2.83183787
VERTEX2 515 13.48477103 -15.52094220 2.83314758
VERTEX2 516 12.90087807 -15.32488711 2.84924739
VERTEX2 517 12.30866229 -15.17476459 2.87763967
VERTEX2 518 11.71679600 -15.02162539 2.90217824
VERTEX2 519 11.19529177 -14.89607259 2.88665465
VERTEX2 520 11.02766442 -14.85185524 -2.99773532
VERTEX2 521 11.04767541 -14.82991065 -1.99310215
VERTEX2 522 10.98096835 -15.22879955 -1.72852832
VERTEX2 523 10.88836657 -15.84685528 -1.73588839
VERTEX2 524 10.78347927 -16.41903064 -1.77775227
VERTEX2 525 10.67860814 -16.95942413 -1.75401295
VERTEX2 526 10.56146150 -17.52660183 -1.81267963
VERTEX2 527 10.41268377 -18.10438400 -1.84733627
VERTEX2 528 10.22936818 -18.67014607 -1.92311614
VERTEX2 529 10.01668621 -19.26977424 -1.95124460
VERTEX2 530 9.76898781 -19.86707296 -1.98113312
VERTEX2 531 9.49888798 -20.44040657 -2.06071216
VERTEX2 532 9.40109623 -20.62541889 -2.00986382
VERTEX2 533 9.39363879 -20.58985101 -1.00728657
VERTEX2 534 9.38229407 -20.58241768 -0.33829323
VERTEX2 535 9.38176920 -20.58108693 -0.33847938
VERTEX2 536 9.73544061 -20.66234095 -0.20754970
VERTEX2 537 10.33932961 -20.80646037 -0.26538803
VERTEX2 538 10.89629909 -20.97126606 -0.29237614
VERTEX2 539 11.50125942 -21.17525543 -0.35703468
VERTEX2 540 12.08485294 -21.42295285 -0.44983944
VERTEX2 541 12.66887133 -21.64567184 -0.28746466
VERTEX2 542 13.29561372 -21.78277026 -0.23134837
VERTEX2 543 13.41256093 -21.81133319 -0.26062595
VERTEX2 544 13.43201702 -21.80921226 0.37747557
VERTEX2 545 13.45574434 -21.76527019 1.44552351
VERTEX2 546 13.47251642 -21.80772895 2.27393584
VERTEX2 547 13.47897466 -21.80722209 -2.98582737
VERTEX2 548 13.49210961 -21.79853726 -2.06136674
VERTEX2 549 13.49384211 -21.78519781 -1.25340540
VERTEX2 550 13.49222301 -21.76318794 -1.73302541
VERTEX2 551 13.50306911 -21.74034501 -2.36063520
VERTEX2 552 13.53082181 -21.72604248 -2.99435299
VERTEX2 553 13.40235072 -21.67886930 2.71044092
VERTEX2 554 12.81543876 -21.40555376 2.67455302
VERTEX2 555 12.24154914 -21.14091793 2.76296183
VERTEX2 556 11.64420704 -20.93222273 2.89757111
VERTEX2 557 11.04265274 -20.76977261 2.85583975
VERTEX2 558 10.46501659 -20.62033824 2.93618834
VERTEX2 559 10.47531936 -20.62371994 2.52806925
VERTEX2 560 10.47891357 -20.62474067 2.02579541
VERTEX2 561 10.47146733 -20.61759328 2.52916386
VERTEX2 562 10.28468848 -20.61885888 -3.11282792
VERTEX2 563 9.71129467 -20.54336061 2.97716542
VERTEX2 564 9.10383319 -20.45433893 3.02476330
VERTEX2 565 8.51407001 -20.38350153 2.96720927
VERTEX2 566 8.57632776 -20.40283876 -2.53224406
VERTEX2 567 8.48100102 -20.40989721 -1.73963020
VERTEX2 568 8.43034331 -20.91668748 -1.67577412
VERTEX2 569 8.37903461 -21.49092058 -1.71507418
VERTEX2 570 8.31028951 -22.06999455 -1.71044221
VERTEX2 571 8.25981962 -22.41082895 -1.75825216
VERTEX2 572 8.24459875 -22.42204263 -2.00201544
VERTEX2 573 8.21721454 -22.48398471 -1.72624988
VERTEX2 574 8.28891565 -22.59233992 -0.85084427
VERTEX2 575 8.35116401 -22.61505768 0.13976171
VERTEX2 576 8.34981910 -22.61399130 1.16712844
VERTEX2 577 8.34192900 -22.59332140 2.13895165
VERTEX2 578 8.33185051 -22.55959352 1.77474170
VERTEX2 579 8.20541096 -21.90782096 1.78953423
VERTEX2 580 8.04225555 -21.26856448 1.86443789
VERTEX2 581 7.84670323 -20.64552939 1.90660940
VERTEX2 582 7.62392587 -20.03173414 1.94955272
VERTEX2 583 7.49365389 -19.72443248 2.02881078
VERTEX2 584 7.48847422 -19.71442345 2.87233006
VERTEX2 585 6.90542804 -19.57539838 2.99062183
VERTEX2 586 6.31556456 -19.50231198 3.08785113
VERTEX2 587 5.70066649 -19.49218956 3.11298564
VERTEX2 588 5.07482942 -19.46697519 3.11719462
VERTEX2 589 4.53667616 -19.49179916 -3.09052176
VERTEX2 590 3.98758265 -19.53604674 -3.02168041
VERTEX2 591 3.44881798 -19.61517427 -3.02348880
VERTEX2 592 2.90104705 -19.68980242 -3.02613034
VERTEX2 593 2.72353155 -19.71219388 -2.82073090
VERTEX2 594 2.76763831 -19.66476156 -1.90361886
VERTEX2 595 2.65327520 -20.27186964 -1.67063398
VERTEX2 596 2.59961045 -20.89618673 -1.69367406
VERTEX2 597 2.50659261 -21.57111036 -1.73350749
VERTEX2 598 2.40298101 -22.16818842 -1.77589115
VERTEX2 599 2.31422299 -22.54411053 -1.84231053
VERTEX2 600 2.31440456 -22.56410153 -1.03620869
VERTEX2 601 2.35051134 -22.58646191 -0.01811760
VERTEX2 602 2.38621382 -22.57220301 0.99581573
VERTEX2 603 2.35241718 -22.33698457 1.76942791
VERTEX2 604 2.29331632 -21.72430212 1.52577348
VERTEX2 605 2.30343479 -21.07402549 1.60858639
VERTEX2 606 2.26384177 -20.42377377 1.65087210
VERTEX2 607 2.27584513 -19.83132430 1.57006964
VERTEX2 608 2.26314775 -19.44265739 1.61475547
VERTEX2 609 2.25892068 -19.41763611 1.95142488
VERTEX2 610 2.24734893 -19.41343886 2.88482774
VERTEX2 611 1.64853239 -19.26181784 2.88805136
VERTEX2 612 1.17880492 -19.12777738 2.89097040
VERTEX2 613 1.21686717 -19.13941677 -2.92821380
VERTEX2 614 1.22271196 -19.13500083 -1.89005375
VERTEX2 615 1.23459180 -19.62463320 -1.58544914
VERTEX2 616 1.23997493 -20.25627770 -1.63664874
VERTEX2 617 1.09885990 -20.86620247 -1.85354880
VERTEX2 618 0.92602531 -21.47899133 -1.84322463
VERTEX2 619 0.76410590 -22.04892151 -1.84443371
VERTEX2 620 0.57965744 -22.62327353 -1.94032992
VERTEX2 621 0.70923942 -22.29006711 -1.99160584
VERTEX2 622 0.83325098 -22.02606995 -2.06636129
VERTEX2 623 0.83269334 -22.02682276 -2.60292555
VERTEX2 624 0.80147785 -22.02645694 3.03825051
VERTEX2 625 0.75795588 -22.00880037 2.38032007
VERTEX2 626 0.72852349 -21.97490867 1.76285692
VERTEX2 627 0.80201317 -21.60233663 1.35242554
VERTEX2 628 0.98221161 -20.97538140 1.25160348
VERTEX2 629 1.15536447 -20.34773918 1.32261830
VERTEX2 630 1.28229898 -19.74104412 1.40752616
VERTEX2 631 1.35569331 -19.21239690 1.42750770
VERTEX2 632 1.35831900 -19.19707858 2.10306690
VERTEX2 633 1.26294118 -19.19042137 -3.09437900
VERTEX2 634 0.59745117 -19.22613207 -3.06711049
VERTEX2 635 -0.05348461 -19.23573696 3.08088079
VERTEX2 636 -0.69252800 -19.20614714 3.06314916
VERTEX2 637 -1.31963962 -19.13091128 2.96408864
VERTEX2 638 -1.71047611 -19.05052071 2.93447678
VERTEX2 639 -2.32012059 -18.94687990 3.01472411
VERTEX2 640 -2.93388149 -18.83699144 2.94671330
VERTEX2 641 -3.53299753 -18.72537713 2.93825497
VERTEX2 642 -4.10733110 -18.58752612 2.89275954
VERTEX2 643 -4.58851246 -18.44984425 2.82529926
VERTEX2 644 -4.59258083 -18.45074088 -2.70111196
VERTEX2 645 -4.62966295 -18.59244542 -1.92405728
VERTEX2 646 -4.76826362 -19.19969706 -1.62889175
VERTEX2 647 -4.72698569 -19.84054838 -1.34024492
VERTEX2 648 -4.50669883 -20.46485833 -1.17413005
VERTEX2 649 -4.33503133 -21.06454318 -1.51185341
VERTEX2 650 -4.43780609 -21.69160493 -1.76933840
VERTEX2 651 -4.45574922 -21.83615138 -0.97020592
VERTEX2 652 -4.39236202 -21.86497553 0.05521659
VERTEX2 653 -4.34660138 -21.82418603 1.08611304
VERTEX2 654 -4.35454093 -21.52898672 1.59951932
VERTEX2 655 -4.36307930 -20.97705562 1.59461400
VERTEX2 656 -4.36030351 -20.37645995 1.58208539
VERTEX2 657 -4.46501527 -19.76615650 1.85888622
VERTEX2 658 -4.65247736 -19.15219648 1.85175791
VERTEX2 659 -4.76504738 -18.66195944 1.78064750
VERTEX2 660 -4.76878849 -18.64300416 2.38086291
VERTEX2 661 -4.95273903 -18.62223293 3.03426453
VERTEX2 662 -5.54336861 -18.56128711 3.10375239
VERTEX2 663 -6.12739488 -18.57375448 -3.07851308
VERTEX2 664 -6.13554943 -18.57162845 -2.55538815
VERTEX2 665 -6.15159156 -18.67157176 -1.72088263
VERTEX2 666 -6.22468773 -19.27821845 -1.68386168
VERTEX2 667 -6.28311191 -19.84267555 -1.67934048
VERTEX2 668 -6.34807153 -20.43458406 -1.65365166
VERTEX2 669 -6.39817229 -21.05815506 -1.67886351
VERTEX2 670 -6.49918889 -21.67412064 -1.73841479
VERTEX2 671 -6.54734109 -21.96517774 -1.68349817
VERTEX2 672 -6.44394066 -21.38346529 -1.77269671
VERTEX2 673 -6.37683476 -21.11608205 -1.90335062
VERTEX2 674 -6.36558303 -21.10427976 -2.55155579
VERTEX2 675 -6.34405934 -21.09979691 3.12295330
VERTEX2 676 -6.33843367 -21.10311506 2.49956000
VERTEX2 677 -6.33357971 -21.10985655 1.88366410
VERTEX2 678 -6.30508864 -20.88973980 1.43767511
VERTEX2 679 -6.23941947 -20.31279116 1.50022485
VERTEX2 680 -6.26546207 -19.86607087 1.84505119
VERTEX2 681 -6.41563268 -19.27463665 1.81750418
VERTEX2 682 -6.58585808 -18.66854826 1.86513581
VERTEX2 683 -6.67710584 -18.38624794 2.02423659
VERTEX2 684 -6.63291748 -18.43153250 3.10542302
VERTEX2 685 -7.04098480 -18.59309459 -2.73336790
VERTEX2 686 -7.49307705 -18.73061907 -2.87714254
VERTEX2 687 -8.09292271 -18.88248291 -2.91174462
VERTEX2 688 -8.69651308 -19.00340132 -2.92310758
VERTEX2 689 -9.26601355 -19.14363408 -2.89500132
VERTEX2 690 -9.80637399 -19.31427501 -2.82032384
VERTEX2 691 -10.20567877 -19.44758685 -2.84787472
VERTEX2 692 -10.19264173 -19.44176782 -2.31401805
VERTEX2 693 -10.16980140 -19.51354138 -1.27436864
VERTEX2 694 -10.14214972 -19.59608360 -0.43966118
VERTEX2 695 -10.11618290 -19.58871262 0.35962343
VERTEX2 696 -10.10590318 -19.58197319 1.38419690
VERTEX2 697 -10.11856115 -19.62324812 1.13086609
VERTEX2 698 -9.78406189 -19.41271849 0.47585039
VERTEX2 699 -9.21524639 -19.09873166 0.58981038
VERTEX2 700 -8.69736881 -18.73587115 0.64329857
VERTEX2 701 -8.25972384 -18.37212253 0.70245137
VERTEX2 702 -7.77584825 -18.05586360 0.58730472
VERTEX2 703 -7.25877906 -17.71842691 0.62159586
VERTEX2 704 -6.76100574 -17.33542259 0.63983747
VERTEX2 705 -6.24909210 -16.91604154 0.71024584
VERTEX2 706 -5.81837155 -16.59926989 0.44150676
VERTEX2 707 -5.79510305 -16.59807722 -0.07831378
VERTEX2 708 -5.78805540 -16.60215551 -0.71622522
VERTEX2 709 -5.82847281 -16.55850002 -1.04821892
VERTEX2 710 -5.83261043 -16.54774623 -1.60917981
VERTEX2 711 -5.82417238 -16.55538818 -2.20574826
VERTEX2 712 -5.80733541 -16.54252573 -2.76606153
VERTEX2 713 -6.27568866 -16.59196396 -3.05197829
VERTEX2 714 -6.82389845 -16.56616213 3.03321123
VERTEX2 715 -7.44853363 -16.52820030 3.13684481
VERTEX2 716 -8.07522037 -16.50498640 2.99864030
VERTEX2 717 -8.68895683 -16.43633358 3.08324548
VERTEX2 718 -9.44345634 -16.31671862 2.90770295
VERTEX2 719 -10.05275758 -16.20093361 2.98204090
VERTEX2 720 -10.66672860 -16.08622864 2.92277058
VERTEX2 721 -11.28562107 -15.96801283 2.99093281
VERTEX2 722 -11.30603167 -15.96503271 3.05755891
VERTEX2 723 -11.32656752 -15.98607449 -2.13600336
VERTEX2 724 -11.32681325 -16.02623305 -1.06742347
VERTEX2 725 -11.30369716 -16.04190008 -0.43324172
VERTEX2 726 -10.98161903 -16.03936617 0.02080100
VERTEX2 727 -10.34718355 -16.00424537 0.05146067
VERTEX2 728 -9.71012441 -15.98339016 0.05275937
VERTEX2 729 -9.07517892 -15.92644994 0.11028981
VERTEX2 730 -8.45442850 -15.83781316 0.14767551
VERTEX2 731 -7.81032410 -15.74164922 0.15945981
VERTEX2 732 -7.67257979 -15.71472021 0.60516062
VERTEX2 733 -7.67354015 -15.71314037 1.59999396
VERTEX2 734 -7.72831325 -15.15393729 1.67760306
VERTEX2 735 -7.78463250 -14.54836764 1.64510286
VERTEX2 736 -7.78590577 -14.52664321 2.24536354
VERTEX2 737 -7.77507962 -14.52812700 3.04704501
VERTEX2 738 -8.34822622 -14.48367962 3.06643283
VERTEX2 739 -8.94604357 -14.38507660 3.00918668
VERTEX2 740 -9.44435780 -14.34200663 3.07252186
VERTEX2 741 -9.41923693 -14.34188037 2.70378510
VERTEX2 742 -9.41924974 -14.34188749 2.05117426
VERTEX2 743 -9.42169155 -14.33079774 1.43519270
VERTEX2 744 -9.41084977 -14.30628103 0.89658629
VERTEX2 745 -9.39169198 -14.29635097 0.30391316
VERTEX2 746 -8.85207370 -14.31608206 -0.17027819
VERTEX2 747 -8.21044378 -14.43138811 -0.20520175
VERTEX2 748 -7.63731050 -14.57411959 -0.27318356
VERTEX2 749 -7.55352571 -14.59515331 0.15574003
VERTEX2 750 -7.54571141 -14.58081016 1.08231310
VERTEX2 751 -7.57880738 -14.31518973 1.72167301
VERTEX2 752 -7.63441688 -13.70080081 1.61796826
VERTEX2 753 -7.66994665 -13.07097196 1.68080842
VERTEX2 754 -7.67569234 -12.43955449 1.51824215
VERTEX2 755 -7.65461054 -11.80643070 1.60475201
VERTEX2 756 -7.61529076 -11.17198181 1.42828826
VERTEX2 757 -7.53863681 -10.52801237 1.54014882
VERTEX2 758 -7.55722724 -9.94995370 1.68234340
VERTEX2 759 -7.54504115 -9.40385003 1.56230726
VERTEX2 760 -7.58189091 -8.79573166 1.67376918
VERTEX2 761 -7.58407011 -8.76438495 1.85414448
VERTEX2 762 -7.65797035 -8.73106458 2.68810634
VERTEX2 763 -8.22870060 -8.62673916 2.98068843
VERTEX2 764 -8.64535576 -8.55415958 2.95299228
VERTEX2 765 -8.63166375 -8.55395808 -2.69116278
VERTEX2 766 -8.63340388 -8.55952552 -1.69143478
VERTEX2 767 -8.62858415 -8.57190827 -0.76088218
VERTEX2 768 -8.60607734 -8.57340533 -0.03876508
VERTEX2 769 -7.97060932 -8.48794912 0.11790973
VERTEX2 770 -7.31801649 -8.43251953 0.05060701
VERTEX2 771 -7.22982728 -8.42566036 0.61071947
VERTEX2 772 -7.22853588 -8.42165694 1.47773600
VERTEX2 773 -7.20096558 -7.84320902 1.56405177
VERTEX2 774 -7.21007452 -7.29560615 1.58659054
VERTEX2 775 -7.20900954 -7.30032539 2.43243309
VERTEX2 776 -7.42193927 -7.27328819 3.05055781
VERTEX2 777 -8.03895410 -7.22831831 3.10989971
VERTEX2 778 -8.65565566 -7.21488009 3.08923401
VERTEX2 779 -9.28013139 -7.19039240 3.10734743
VERTEX2 780 -9.49689260 -7.17063410 2.97712825
VERTEX2 781 -9.50129383 -7.16901521 2.40372639
VERTEX2 782 -9.62846123 -6.89335938 1.97415817
VERTEX2 783 -9.86133658 -6.31614403 1.97353288
VERTEX2 784 -9.96047302 -6.08594144 1.95217325
VERTEX2 785 -9.96114433 -6.06346987 1.40071871
VERTEX2 786 -9.95326186 -6.03804062 0.81293564
VERTEX2 787 -9.93391857 -6.01843607 0.32274994
VERTEX2 788 -9.90043328 -6.02086732 -0.30580728
VERTEX2 789 -9.88487001 -6.03318560 -0.85726905
VERTEX2 790 -9.57650488 -6.43407045 -0.92420731
VERTEX2 791 -9.17240153 -6.91872440 -0.82552978
VERTEX2 792 -8.93208801 -7.13446577 -0.12098350
VERTEX2 793 -8.31400702 -7.18960943 -0.07623648
VERTEX2 794 -7.67135034 -7.22143798 -0.00503972
VERTEX2 795 -7.69259586 -7.23688874 0.42433225
VERTEX2 796 -7.69582805 -7.23813626 1.08367531
VERTEX2 797 -7.61927117 -6.92630817 1.34382783
VERTEX2 798 -7.48041872 -6.29782769 1.39397025
VERTEX2 799 -7.39073715 -5.65965463 1.45965795
VERTEX2 800 -7.33427232 -5.02373764 1.53239257
VERTEX2 801 -7.34128389 -4.39367343 1.61841386
VERTEX2 802 -7.39109934 -3.77060529 1.67623697
VERTEX2 803 -7.36995340 -3.14353834 1.51175425
VERTEX2 804 -7.34600387 -2.51768997 1.56783643
VERTEX2 805 -7.37540895 -1.88927516 1.64434093
VERTEX2 806 -7.43173748 -1.29321171 1.68598692
VERTEX2 807 -7.45767359 -1.11167299 1.97502962
VERTEX2 808 -7.45019972 -1.11193251 2.92566298
VERTEX2 809 -8.02973789 -1.08264566 3.07106266
VERTEX2 810 -8.63515681 -0.96109696 2.93162481
VERTEX2 811 -9.23277743 -0.84985546 2.92854765
VERTEX2 812 -9.23668931 -0.84907883 -2.62295957
VERTEX2 813 -9.24787846 -0.87399451 -1.64779170
VERTEX2 814 -9.24448239 -0.87667188 -0.65610999
VERTEX2 815 -9.22376653 -0.88365291 0.26265806
VERTEX2 816 -9.21693911 -0.87992021 0.94344344
VERTEX2 817 -9.20732283 -0.87388181 0.27432294
VERTEX2 818 -8.98864058 -0.90764734 -0.21484297
VERTEX2 819 -8.40138402 -1.03586980 -0.20084259
VERTEX2 820 -7.81172621 -1.16823708 -0.24220313
VERTEX2 821 -7.27603518 -1.29797334 -0.22680775
VERTEX2 822 -7.22586128 -1.30574968 0.53449270
VERTEX2 823 -7.22463241 -1.29293643 1.45351273
VERTEX2 824 -7.15882291 -0.67292098 1.37410981
VERTEX2 825 -7.01298888 -0.05155069 1.34438911
VERTEX2 826 -6.95371515 0.57841600 1.50727196
VERTEX2 827 -6.88762275 1.20011354 1.45858111
VERTEX2 828 -6.83115916 1.82922750 1.49407906
VERTEX2 829 -6.76845526 2.42904479 1.45431012
VERTEX2 830 -6.69182323 3.03426105 1.44598295
VERTEX2 831 -6.59597155 3.60956286 1.39922276
VERTEX2 832 -6.50412722 4.17055127 1.39569834
VERTEX2 833 -6.45958995 4.42409712 1.53341313
VERTEX2 834 -6.46158809 4.43126779 2.58780011
VERTEX2 835 -6.47347325 4.43267551 -2.91792037
VERTEX2 836 -6.48464408 4.42330601 -1.97510075
VERTEX2 837 -6.48138285 4.40510356 -0.93900776
VERTEX2 838 -6.46914443 4.39740423 -0.07703655
VERTEX2 839 -6.46790331 4.39680454 -0.29539880
VERTEX2 840 -6.45652333 4.38779842 -0.85820794
VERTEX2 841 -6.44896895 4.37242680 -1.47546642
VERTEX2 842 -6.47631376 4.12734649 -1.70639938
VERTEX2 843 -6.55738532 3.56459681 -1.70900702
VERTEX2 844 -6.63584700 2.93983418 -1.71711474
VERTEX2 845 -6.73287679 2.31572462 -1.73193317
VERTEX2 846 -6.82172857 1.69131142 -1.72996026
VERTEX2 847 -6.93413627 1.07468907 -1.75644509
VERTEX2 848 -6.96546853 0.88176245 -1.27590163
VERTEX2 849 -6.96513475 0.88164974 -0.35316800
VERTEX2 850 -6.60862085 0.87677962 0.00047596
VERTEX2 851 -5.98030444 0.84859410 -0.09188303
VERTEX2 852 -5.35527751 0.78530044 -0.07735982
VERTEX2 853 -4.75961578 0.74088452 -0.10518268
VERTEX2 854 -4.17188953 0.67124559 -0.10309499
VERTEX2 855 -3.57628461 0.61854092 -0.10482167
VERTEX2 856 -2.91334525 0.52970996 -0.14538456
VERTEX2 857 -2.25161403 0.43722944 -0.15482772
VERTEX2 858 -1.59666560 0.31198195 -0.20924578
VERTEX2 859 -1.06961983 0.20516167 -0.21603121
VERTEX2 860 -1.03289815 0.22017303 0.63506070
VERTEX2 861 -1.01639067 0.33450105 1.55030993
VERTEX2 862 -0.97687709 0.98926500 1.49073452
VERTEX2 863 -0.91849669 1.62871026 1.45830970
VERTEX2 864 -0.83079034 2.23431096 1.45626353
VERTEX2 865 -0.78854930 2.84085946 1.51398019
VERTEX2 866 -0.74300525 3.42194071 1.51295156
VERTEX2 867 -0.73546807 3.58100732 1.69430111
VERTEX2 868 -0.74040993 3.58720934 2.71895551
VERTEX2 869 -0.72820374 3.58739468 -2.58506876
VERTEX2 870 -0.70873495 3.59787379 -1.58475463
VERTEX2 871 -0.69235980 3.58680443 -0.61018712
VERTEX2 872 -0.67230973 3.57238163 0.07564726
VERTEX2 873 -0.64291271 3.56266432 -0.49645564
VERTEX2 874 -0.62019492 3.54225152 -1.05560304
VERTEX2 875 -0.61330694 3.52617802 -1.64163636
VERTEX2 876 -0.73117561 2.96969638 -1.79897530
VERTEX2 877 -0.88121445 2.42728168 -1.88343956
VERTEX2 878 -0.93121882 2.22651634 -1.50107601
VERTEX2 879 -0.82842892 1.58959833 -1.45034971
VERTEX2 880 -0.79173758 1.14152225 -1.56336365
VERTEX2 881 -0.79224989 1.19186794 -1.55828553
VERTEX2 882 -0.84753899 0.55222397 -1.80520376
VERTEX2 883 -1.06280686 -0.04412634 -1.99619931
VERTEX2 884 -1.22166805 -0.37802611 -2.06336279
VERTEX2 885 -1.22176088 -0.37563899 -1.48233265
VERTEX2 886 -1.21034526 -0.38628239 -0.46541583
VERTEX2 887 -1.19332265 -0.39287682 0.54493062
VERTEX2 888 -1.18412224 -0.37358477 1.52804278
VERTEX2 889 -1.18787588 -0.36256596 2.42522008
VERTEX2 890 -1.51303933 -0.20422404 2.69886697
VERTEX2 891 -2.05935575 0.06900994 2.62836682
VERTEX2 892 -2.60121176 0.39546863 2.59262620
VERTEX2 893 -3.16284259 0.69825418 2.82863726
VERTEX2 894 -3.78654208 0.81392146 3.04943907
VERTEX2 895 -4.39702242 0.76687587 -2.93574919
VERTEX2 896 -4.42010647 0.76147533 -2.45759848
VERTEX2 897 -4.70549269 0.34394769 -2.18555076
VERTEX2 898 -5.05905095 -0.16283240 -2.17020098
VERTEX2 899 -5.34720582 -0.57034679 -2.23812097
VERTEX2 900 -5.76322126 -1.11140158 -2.24067169
VERTEX2 901 -6.13707762 -1.55280218 -2.30523351
VERTEX2 902 -6.55592433 -2.04104013 -2.28017640
VERTEX2 903 -6.87403041 -2.41728400 -2.32512619
VERTEX2 904 -6.87457802 -2.41808476 -1.62306419
VERTEX2 905 -6.86499281 -2.90738506 -1.56752971
VERTEX2 906 -6.83606393 -3.47494331 -1.50173596
VERTEX2 907 -6.78497140 -4.04572457 -1.50984169
VERTEX2 908 -6.74390990 -4.66428039 -1.48509878
VERTEX2 909 -6.68864014 -5.27316625 -1.50306083
VERTEX2 910 -6.71753255 -5.40285214 -1.87275410
VERTEX2 911 -6.88214625 -5.97279840 -1.81177278
VERTEX2 912 -7.00734225 -6.53367938 -1.79907258
VERTEX2 913 -7.12339451 -7.07261428 -1.79104670
VERTEX2 914 -7.25370520 -7.65770432 -1.81459487
VERTEX2 915 -7.38076664 -8.16391186 -1.85118423
VERTEX2 916 -7.31899553 -8.40534571 -1.30335608
VERTEX2 917 -7.18463135 -9.05408755 -1.55768074
VERTEX2 918 -7.20820829 -9.57037810 -1.63315003
VERTEX2 919 -7.24584656 -10.19237847 -1.67640894
VERTEX2 920 -7.31420203 -10.80446469 -1.69394197
VERTEX2 921 -7.39134157 -11.41770291 -1.74723006
VERTEX2 922 -7.49749309 -12.01918370 -1.77439166
VERTEX2 923 -7.62092965 -12.58316351 -1.83780281
VERTEX2 924 -7.75577152 -13.07422183 -1.82106306
VERTEX2 925 -7.75714693 -13.06725093 -1.31609556
VERTEX2 926 -7.60126606 -13.62797243 -1.29979240
VERTEX2 927 -7.43867321 -14.21731258 -1.32299387
VERTEX2 928 -7.28512417 -14.82204826 -1.33181943
VERTEX2 929 -7.13799591 -15.42390570 -1.33260843
VERTEX2 930 -6.99387336 -16.05494705 -1.41506220
VERTEX2 931 -6.91070687 -16.68055665 -1.49518058
VERTEX2 932 -6.86752595 -17.30634413 -1.55452727
VERTEX2 933 -6.86683536 -17.91697573 -1.61904212
VERTEX2 934 -6.88351536 -18.39539250 -1.62880089
VERTEX2 935 -6.88100655 -18.40727259 -0.94626511
VERTEX2 936 -6.87879192 -18.40806121 -0.00082805
VERTEX2 937 -6.33595086 -18.38517586 0.06213162
VERTEX2 938 -5.73932003 -18.40373569 -0.11117502
VERTEX2 939 -5.11503133 -18.46618114 -0.08338441
VERTEX2 940 -4.50308706 -18.54358576 -0.16896204
VERTEX2 941 -3.89890440 -18.66108149 -0.22237276
VERTEX2 942 -3.38106935 -18.77836839 -0.21767405
VERTEX2 943 -2.77276720 -18.91390411 -0.12913132
VERTEX2 944 -2.15972430 -18.99865401 -0.18561165
VERTEX2 945 -1.53860726 -19.12920114 -0.24056819
VERTEX2 946 -1.36423479 -19.17421662 -0.17607965
VERTEX2 947 -0.95258267 -19.11199377 0.15238644
VERTEX2 948 -0.37753863 -19.02403066 0.13339110
VERTEX2 949 0.22737739 -18.99108299 -0.02209718
VERTEX2 950 0.85895578 -19.02899200 -0.26143847
VERTEX2 951 1.46130862 -19.20348730 -0.33347280
VERTEX2 952 2.06337733 -19.38091304 -0.08255453
VERTEX2 953 2.69446126 -19.41400314 -0.00219187
VERTEX2 954 3.32040560 -19.40805372 -0.00910143
VERTEX2 955 3.91097268 -19.45497462 -0.16982280
VERTEX2 956 4.46266822 -19.53473513 -0.17205831
VERTEX2 957 4.99504341 -19.63221243 -0.25969369
VERTEX2 958 5.46258801 -19.74567714 -0.28637849
VERTEX2 959 5.89510626 -19.86526019 -0.35342967
VERTEX2 960 6.48315334 -20.02870995 -0.27335400
VERTEX2 961 7.06352217 -20.20331656 -0.30024705
VERTEX2 962 7.67990216 -20.33228449 -0.23448272
VERTEX2 963 8.29658376 -20.41346401 -0.04761685
VERTEX2 964 8.91795235 -20.45526211 -0.11138599
VERTEX2 965 9.54265041 -20.53578322 -0.11866160
VERTEX2 966 9.98780243 -20.59476727 -0.17775894
VERTEX2 967 10.02261198 -20.58772729 0.67524507
VERTEX2 968 10.03200275 -20.57887115 1.57157466
VERTEX2 969 10.03425528 -20.60551851 1.63068801
VERTEX2 970 10.03681795 -20.63222623 1.62864129
VERTEX2 971 10.01674429 -20.29770411 1.62846759
VERTEX2 972 9.97891549 -19.71326311 1.63419971
VERTEX2 973 10.05867160 -19.13388315 1.34935532
VERTEX2 974 10.19776985 -18.53509710 1.38124482
VERTEX2 975 10.30907426 -17.93212259 1.38590087
VERTEX2 976 10.41362114 -17.32647104 1.39883850
VERTEX2 977 10.54943552 -16.71158984 1.37276906
VERTEX2 978 10.67039014 -16.10330205 1.41898822
VERTEX2 979 10.78502899 -15.49915006 1.40698075
VERTEX2 980 10.88333318 -14.89432266 1.45356732
VERTEX2 981 10.97271445 -14.30023083 1.46021197
VERTEX2 982 11.02958964 -13.77350795 1.50493876
VERTEX2 983 11.07961298 -13.17623595 1.50151637
VERTEX2 984 11.10730091 -12.58218111 1.55889988
VERTEX2 985 11.11870151 -11.98776369 1.57925385
VERTEX2 986 11.10447209 -11.37069188 1.61573047
VERTEX2 987 11.09243594 -10.75512248 1.57924759
VERTEX2 988 11.09505119 -10.13485753 1.59282982
VERTEX2 989 11.08076329 -9.51691122 1.60052004
VERTEX2 990 11.07433170 -8.90205837 1.58985548
VERTEX2 991 11.05914702 -8.29263521 1.61454754
VERTEX2 992 11.05417346 -7.71102654 1.58184764
VERTEX2 993 11.04076581 -7.10012584 1.61452131
VERTEX2 994 11.02479662 -6.52005484 1.60452800
VERTEX2 995 10.99319827 -5.92934244 1.65176448
VERTEX2 996 10.93400073 -5.32362589 1.67886328
VERTEX2 997 10.88960794 -4.67925683 1.61442151
VERTEX2 998 10.87013506 -4.27712406 1.63626075
VERTEX2 999 10.90049044 -4.30171919 2.35404284
VERTEX2 1000 10.44087894 -3.94359533 2.50265779
VERTEX2 1001 10.00449439 -3.54550256 2.18166295
VERTEX2 1002 9.64032211 -3.07659060 2.27430248
VERTEX2 1003 9.29315130 -2.58052310 2.09466538
VERTEX2 1004 8.95574043 -2.04475741 2.15273755
VERTEX2 1005 8.60380559 -1.55147206 2.21501653
VERTEX2 1006 8.21002784 -1.07445680 2.29225118
VERTEX2 1007 7.79962314 -0.64950097 2.38378076
VERTEX2 1008 7.56615662 -0.43604704 2.54316165
VERTEX2 1009 7.46960602 -0.42132535 3.01579724
VERTEX2 1010 6.90396210 -0.36498761 3.06821354
VERTEX2 1011 6.28481885 -0.32503693 3.02491684
VERTEX2 1012 5.67269001 -0.26092864 3.06657888
VERTEX2 1013 5.03205077 -0.26263674 -3.10198466
VERTEX2 1014 4.41605962 -0.21353488 3.00528722
VERTEX2 1015 3.79945589 -0.17299556 3.08963117
VERTEX2 1016 3.04414158 -0.13403712 3.09654573
VERTEX2 1017 2.46034633 -0.11877188 3.03924895
VERTEX2 1018 1.90492438 -0.05524700 3.04639724
VERTEX2 1019 1.31177013 -0.02869498 3.10576020
VERTEX2 1020 0.69854619 0.00948878 3.09162050
VERTEX2 1021 0.07931699 0.04096573 3.05079555
VERTEX2 1022 0.02783173 0.04546132 3.04335731
VERTEX2 1023 0.03699906 0.04524130 3.13013705
VERTEX2 1024 -0.58766774 0.05578405 -3.12656048
VERTEX2 1025 -1.21486534 0.02808089 -3.10884614
VERTEX2 1026 -1.37421625 0.02334893 -3.10153493
VERTEX2 1027 -1.35769206 0.03136391 -2.18451039
VERTEX2 1028 -1.37170494 -0.13787365 -1.62072701
VERTEX2 1029 -1.40249344 -0.70694781 -1.64215436
VERTEX2 1030 -1.46842489 -1.33256920 -1.72243266
VERTEX2 1031 -1.58326787 -1.97926303 -1.77634330
VERTEX2 1032 -1.71587079 -2.62577620 -1.77210252
VERTEX2 1033 -1.86134876 -3.27090742 -1.81706279
VERTEX2 1034 -1.90673588 -3.44258463 -2.03058676
VERTEX2 1035 -1.90885733 -3.44438749 -2.64940495
VERTEX2 1036 -1.86962145 -3.46257319 3.06340129
VERTEX2 1037 -2.20091858 -3.33593772 2.82525660
VERTEX2 1038 -2.80556598 -3.21424752 2.91634149
VERTEX2 1039 -3.43743305 -3.04541439 2.88471235
VERTEX2 1040 -3.40700461 -3.04619867 -2.76927548
VERTEX2 1041 -3.37834508 -3.05005891 -1.75436178
VERTEX2 1042 -3.37982760 -3.07514024 -0.76832568
VERTEX2 1043 -3.35239478 -3.10069341 0.20101604
VERTEX2 1044 -3.36480177 -3.11517441 1.19451433
VERTEX2 1045 -3.36630254 -3.11842587 1.08049178
VERTEX2 1046 -3.37530227 -3.13037420 0.69496427
VERTEX2 1047 -3.39504948 -3.13882864 0.13920306
VERTEX2 1048 -3.03735924 -3.20932664 -0.17379666
VERTEX2 1049 -2.39671267 -3.31075148 -0.15665731
VERTEX2 1050 -1.76162639 -3.38392199 -0.08105717
VERTEX2 1051 -1.10686741 -3.46137565 -0.16014869
VERTEX2 1052 -0.48375904 -3.54613515 -0.10715410
VERTEX2 1053 -0.06706044 -3.60307263 -0.15974849
VERTEX2 1054 -0.04108877 -3.60597537 0.60261621
VERTEX2 1055 -0.03385937 -3.57287071 1.65866240
VERTEX2 1056 -0.02687269 -3.58311161 2.66279917
VERTEX2 1057 -0.00417937 -3.58573998 -2.62944965
VERTEX2 1058 -0.00723465 -3.58928677 -1.70719545
VERTEX2 1059 -0.10859266 -4.17183360 -1.78791491
VERTEX2 1060 -0.24904605 -4.80159221 -1.78287858
VERTEX2 1061 -0.35906395 -5.24774050 -1.90536256
VERTEX2 1062 -0.36360701 -5.25463516 -2.46923669
VERTEX2 1063 -0.34382432 -5.24346102 -3.06659235
VERTEX2 1064 -0.62650278 -5.18869393 2.95110551
VERTEX2 1065 -1.21602728 -5.11784342 3.07290297
VERTEX2 1066 -1.78103107 -5.06176615 3.01665676
VERTEX2 1067 -1.76808888 -5.06117562 -2.83411550
VERTEX2 1068 -1.75470393 -5.05190388 -2.16168518
VERTEX2 1069 -1.75288086 -5.04706359 -1.99147969
VERTEX2 1070 -1.74995743 -5.04198404 -2.53073636
VERTEX2 1071 -2.22329343 -5.29440643 -2.65809506
VERTEX2 1072 -2.67477307 -5.52351141 -2.72687395
VERTEX2 1073 -2.64589566 -5.52298371 3.04479157
VERTEX2 1074 -3.17534729 -5.44716512 3.01025523
VERTEX2 1075 -3.75240598 -5.36651180 3.02664675
VERTEX2 1076 -3.77414501 -5.36470303 -2.85208951
VERTEX2 1077 -3.78846579 -5.39124649 -2.04588195
VERTEX2 1078 -4.03192947 -6.00116034 -2.00062676
VERTEX2 1079 -4.26941476 -6.56813097 -1.93839254
VERTEX2 1080 -4.27495568 -6.58266722 -2.42572525
VERTEX2 1081 -4.70079621 -6.86978530 -2.54908201
VERTEX2 1082 -4.86789756 -6.98486255 -2.26861899
VERTEX2 1083 -4.86415135 -7.01534099 -1.23903095
VERTEX2 1084 -4.79051348 -7.05393340 -0.27458355
VERTEX2 1085 -4.79318670 -7.05466029 0.70902319
VERTEX2 1086 -4.43026291 -6.57031947 0.93973307
VERTEX2 1087 -4.04786582 -6.06824194 0.92782184
VERTEX2 1088 -3.68417386 -5.56185157 0.91124646
VERTEX2 1089 -3.62857745 -5.49123918 0.81580153
VERTEX2 1090 -3.61882324 -5.48247715 0.20077746
VERTEX2 1091 -3.08021005 -5.45514991 0.02393787
VERTEX2 1092 -2.46034500 -5.44542988 0.00883025
VERTEX2 1093 -1.89057440 -5.45355127 -0.05620052
VERTEX2 1094 -1.87697491 -5.46673193 -0.46044154
VERTEX2 1095 -1.84580605 -5.49486842 -1.05037674
VERTEX2 1096 -1.84560398 -5.49593129 -1.62180991
VERTEX2 1097 -1.93203653 -5.82046130 -1.83738564
VERTEX2 1098 -2.11598653 -6.41806537 -1.89451522
VERTEX2 1099 -2.33068331 -6.98149158 -1.99115193
VERTEX2 1100 -2.33834697 -7.00029792 -1.62894439
VERTEX2 1101 -2.28133778 -7.27223584 -1.36380284
VERTEX2 1102 -2.28280462 -7.28748098 -1.75842300
VERTEX2 1103 -2.42002594 -7.90060588 -1.79272619
VERTEX2 1104 -2.56773580 -8.53523988 -1.82085641
VERTEX2 1105 -2.73276660 -9.15535336 -1.83919430
VERTEX2 1106 -2.86654088 -9.63062174 -1.86488969
VERTEX2 1107 -2.86575488 -9.64180014 -1.60946810
VERTEX2 1108 -2.84601511 -10.27136307 -1.60208627
VERTEX2 1109 -2.91179622 -10.91608283 -1.70659361
VERTEX2 1110 -2.99945815 -11.52377427 -1.75664611
VERTEX2 1111 -3.18091283 -12.04936501 -1.85852970
VERTEX2 1112 -3.22819863 -12.62979839 -1.51304025
VERTEX2 1113 -3.20730878 -13.27240764 -1.60905026
VERTEX2 1114 -3.22945729 -13.88521986 -1.59220080
VERTEX2 1115 -3.23840090 -14.46520462 -1.60860939
VERTEX2 1116 -3.23971707 -15.11068571 -1.57261931
VERTEX2 1117 -3.23907206 -15.19937772 -1.70016667
VERTEX2 1118 -3.23146005 -15.18590196 -2.30690008
VERTEX2 1119 -3.21156346 -15.17274310 -2.73817085
VERTEX2 1120 -3.76744373 -15.36250593 -2.80156986
VERTEX2 1121 -3.94703667 -15.42165963 -2.91971464
VERTEX2 1122 -3.94054871 -15.42402544 2.81399114
VERTEX2 1123 -4.48816517 -15.22784748 2.83150300
VERTEX2 1124 -5.04323853 -15.08862206 2.93099119
VERTEX2 1125 -5.66553100 -14.95209971 2.94512947
VERTEX2 1126 -5.74415125 -14.93810618 -2.99718638
VERTEX2 1127 -5.74551298 -14.93662227 -1.93713696
VERTEX2 1128 -5.74114774 -14.91652995 -0.94716404
VERTEX2 1129 -5.72740788 -14.92440255 0.07109697
VERTEX2 1130 -5.13277213 -14.86323928 0.08542922
VERTEX2 1131 -4.35841786 -14.99333076 -0.34516941
VERTEX2 1132 -3.75031153 -15.21371758 -0.36427113
VERTEX2 1133 -3.20675316 -15.44381682 -0.40240143
VERTEX2 1134 -2.95309501 -15.55196456 -0.49905759
VERTEX2 1135 -2.94464248 -15.56036158 -1.05439352
VERTEX2 1136 -2.93886248 -15.54845590 -1.61563137
VERTEX2 1137 -2.99230598 -15.83928246 -1.79923545
VERTEX2 1138 -3.14717741 -16.46019556 -1.81519611
VERTEX2 1139 -3.26839827 -16.95208038 -1.88833716
VERTEX2 1140 -3.25793294 -16.92738018 -2.36716954
VERTEX2 1141 -3.23881675 -16.90900544 -2.91396788
VERTEX2 1142 -3.60813360 -16.86265212 3.00532600
VERTEX2 1143 -4.20302026 -16.81268398 3.09502864
VERTEX2 1144 -4.78092731 -16.77523955 3.06468363
VERTEX2 1145 -5.35632485 -16.72668919 3.03948352
VERTEX2 1146 -5.92928230 -16.66662838 3.05948595
VERTEX2 1147 -6.50593865 -16.65354925 3.13247938
VERTEX2 1148 -7.08162117 -16.64818513 -3.14067672
VERTEX2 1149 -7.12163533 -16.64921094 -2.64243377
VERTEX2 1150 -7.21733383 -16.75447605 -1.83278412
VERTEX2 1151 -7.21177581 -16.78624468 -0.82889017
VERTEX2 1152 -7.18932564 -16.78671473 0.22427634
VERTEX2 1153 -7.17775774 -16.78157646 1.23664688
VERTEX2 1154 -7.23549861 -16.46181091 1.78244969
VERTEX2 1155 -7.36508666 -15.83425112 1.73298689
VERTEX2 1156 -7.45869802 -15.22566750 1.74289264
VERTEX2 1157 -7.58249958 -14.65140186 1.85385404
VERTEX2 1158 -7.70517444 -14.04611853 1.72512879
VERTEX2 1159 -7.76032919 -13.44683292 1.63077592
VERTEX2 1160 -7.77721164 -12.81035758 1.49374555
VERTEX2 1161 -7.67176326 -12.18020292 1.40385232
VERTEX2 1162 -7.57444135 -11.54988556 1.46183427
VERTEX2 1163 -7.50591810 -10.90901897 1.45631074
VERTEX2 1164 -7.45236230 -10.26980267 1.54174857
VERTEX2 1165 -7.43709617 -9.72986207 1.51897208
VERTEX2 1166 -7.43794785 -9.72554750 2.00803833
VERTEX2 1167 -7.38827493 -9.71385915 2.94488164
VERTEX2 1168 -7.34553527 -9.69721459 -2.43465621
VERTEX2 1169 -7.34985178 -9.74841815 -1.61248885
VERTEX2 1170 -7.36406360 -10.33407354 -1.60570895
VERTEX2 1171 -7.36818318 -10.96852822 -1.57388069
VERTEX2 1172 -7.37647821 -11.56702405 -1.63623648
VERTEX2 1173 -7.41037256 -12.18735670 -1.62711733
VERTEX2 1174 -7.45818280 -12.81282841 -1.69584565
VERTEX2 1175 -7.54798649 -13.42306113 -1.72926313
VERTEX2 1176 -7.65007047 -14.04619773 -1.77317821
VERTEX2 1177 -7.77447927 -14.65707581 -1.77135887
VERTEX2 1178 -7.91066014 -15.27175110 -1.81881879
VERTEX2 1179 -8.05167591 -15.87054214 -1.78924308
VERTEX2 1180 -8.10676003 -16.11916950 -1.79601426
VERTEX2 1181 -8.10520245 -16.10850370 -0.96771132
VERTEX2 1182 -8.05036951 -16.12279015 -0.25527284
VERTEX2 1183 -7.43807322 -16.27474051 -0.22975904
VERTEX2 1184 -6.80604283 -16.39261282 -0.16003355
VERTEX2 1185 -6.17913455 -16.50531875 -0.19217498
VERTEX2 1186 -5.54816627 -16.60255953 -0.12593177
VERTEX2 1187 -4.89449774 -16.69046617 -0.16304042
VERTEX2 1188 -4.26763142 -16.78266736 -0.14500921
VERTEX2 1189 -3.59682847 -16.89487588 -0.12361466
VERTEX2 1190 -3.25768130 -16.93775762 -0.11586457
VERTEX2 1191 -3.21858129 -16.93710974 0.80343880
VERTEX2 1192 -3.21294511 -16.86129159 1.60025988
VERTEX2 1193 -3.20284449 -16.26947094 1.46794241
VERTEX2 1194 -3.15861920 -15.70318173 1.50975906
VERTEX2 1195 -3.12657379 -15.08769459 1.56188124
VERTEX2 1196 -3.11682104 -14.47209990 1.38898776
VERTEX2 1197 -3.01048913 -13.86498719 1.40009203
VERTEX2 1198 -2.93666199 -13.24617382 1.65872875
VERTEX2 1199 -2.94949203 -12.64199382 1.44386567
VERTEX2 1200 -2.88862612 -12.01998204 1.51275765
VERTEX2 1201 -2.85966033 -11.40059710 1.56880084
VERTEX2 1202 -2.86604060 -10.77811528 1.59194074
VERTEX2 1203 -2.89295373 -10.18839956 1.50222934
VERTEX2 1204 -2.77511118 -9.59769783 1.35567192
VERTEX2 1205 -2.66342768 -9.03601716 1.38541455
VERTEX2 1206 -2.57456642 -8.44707427 1.44681895
VERTEX2 1207 -2.43441445 -7.83855720 1.36086488
VERTEX2 1208 -2.31901419 -7.21578217 1.42564873
VERTEX2 1209 -2.22905745 -6.59586636 1.42376962
VERTEX2 1210 -2.16118783 -5.97968617 1.44437218
VERTEX2 1211 -2.03271493 -5.36964225 1.37179112
VERTEX2 1212 -1.91552345 -4.75957844 1.42202135
VERTEX2 1213 -1.84598584 -4.14633821 1.49547424
VERTEX2 1214 -1.76174647 -3.42125198 1.27294258
VERTEX2 1215 -1.59623196 -2.84016060 1.33203625
VERTEX2 1216 -1.54431495 -2.28704991 1.54939010
VERTEX2 1217 -1.50853335 -1.70689070 1.53005396
VERTEX2 1218 -1.49317202 -1.12189618 1.47920981
VERTEX2 1219 -1.44096033 -0.47850750 1.50961671
VERTEX2 1220 -1.43210553 0.10350488 1.60011680
VERTEX2 1221 -1.43086656 0.09927102 1.14694226
VERTEX2 1222 -1.42735336 0.10266473 0.54912513
VERTEX2 1223 -1.42401756 0.10343842 -0.01098784
VERTEX2 1224 -0.85742390 0.00897708 -0.19415336
VERTEX2 1225 -0.24943432 -0.10691513 -0.18056074
VERTEX2 1226 -0.15138585 -0.12492488 -0.19746126
VERTEX2 1227 -0.15138585 -0.12492488 -0.19812326
