1 66 142 0.00112695 5 
2 19 166 0.00288388 10 
3 19 172 0.00307005 10 
4 25 172 0.00315584 10 
5 25 178 0.00326659 10 
6 32 178 0.00327618 10 
7 32 183 0.00338095 10 
8 44 189 0.00347586 10 
9 44 195 0.00359589 10 
10 50 195 0.00358333 10 
11 50 201 0.00369623 10 
12 50 203 0.00374589 10 
13 61 203 0.00374634 10 
14 61 209 0.00386344 10 
15 67 209 0.00387922 10 
16 67 220 0.00406716 10 
17 81 220 0.00405942 10 
18 81 226 0.00418158 10 
19 87 226 0.00416937 10 
20 87 231 0.00427070 10 
21 94 231 0.00426938 10 
22 226 231 0.00426338 10 
23 94 241 0.00449008 10 
24 101 241 0.00447372 10 
25 101 247 0.00462829 10 
26 107 247 0.00459244 10 
27 107 254 0.00471491 10 
28 114 254 0.00472710 10 
29 107 256 0.00478928 10 
30 114 256 0.00478828 10 
31 107 258 0.00482694 10 
32 114 258 0.00483171 10 
33 246 260 0.00492018 10 
34 121 266 0.00502858 10 
35 126 266 0.00509200 10 
36 126 272 0.00519205 10 
37 132 272 0.00521276 10 
38 132 278 0.00532387 10 
39 138 278 0.00532863 10 
40 138 284 0.00544876 10 
41 151 284 0.00553313 10 
42 151 291 0.00566338 10 
43 151 297 0.00580292 10 
44 157 297 0.00579865 10 
45 163 297 0.00583147 10 
46 166 297 0.00582581 10 
47 19 305 0.00600740 10 
48 157 305 0.00601292 10 
49 163 305 0.00610894 10 
50 166 305 0.00611152 10 
51 172 305 0.00614784 10 
52 19 315 0.00551883 9 
53 25 315 0.00615424 10 
54 172 315 0.00635367 10 
55 172 328 0.00641097 10 
56 19 337 0.00523461 8 
57 25 337 0.00661808 10 
58 172 337 0.00678855 10 
59 19 342 0.00669099 10 
60 25 342 0.00673090 10 
61 172 342 0.00347679 5 
62 178 342 0.00679752 10 
63 25 367 0.00427769 6 
64 32 367 0.00430756 6 
65 178 367 0.00429932 6 
66 183 367 0.00505583 7 
67 106 368 0.00740509 10 
68 25 374 0.00761793 10 
69 32 374 0.00753405 10 
70 178 374 0.00539110 7 
71 183 374 0.00674690 9 
72 69 381 0.00766516 10 
73 32 382 0.00615851 8 
74 183 382 0.00779802 10 
75 32 387 0.00783562 10 
76 183 387 0.00466316 6 
77 189 400 0.00816559 10 
78 189 414 0.00857928 10 
79 203 433 0.00879419 10 
80 44 437 0.00887179 10 
81 195 437 0.00909650 10 
82 44 454 0.00920426 10 
83 189 454 0.00943720 10 
84 44 467 0.00945038 10 
85 50 467 0.00971309 10 
86 195 467 0.00972773 10 
87 195 484 0.00980173 10 
88 44 494 0.00691556 7 
89 50 494 0.01000015 10 
90 195 494 0.01026996 10 
91 201 494 0.01027558 10 
92 50 500 0.01016682 10 
93 201 500 0.01039578 10 
94 203 500 0.01041593 10 
95 434 500 0.01048202 10 
96 265 501 0.01039972 10 
97 335 505 0.01052100 10 
98 61 508 0.01066959 10 
99 203 508 0.01091298 10 
100 209 508 0.01093700 10 
101 61 522 0.01091982 10 
102 203 522 0.01112319 10 
103 209 522 0.01120372 10 
104 61 528 0.01106112 10 
105 67 528 0.01134746 10 
106 81 528 0.01137775 10 
107 209 528 0.01137002 10 
108 220 528 0.01137910 10 
109 67 532 0.00999571 9 
110 81 532 0.01127341 10 
111 220 532 0.01164372 10 
112 227 534 0.01133889 10 
113 416 541 0.01153287 10 
114 346 541 0.01190335 10 
115 297 550 0.01182463 10 
116 67 556 0.01195167 10 
117 214 556 0.01221894 10 
118 67 564 0.01218624 10 
119 81 564 0.01247073 10 
120 220 564 0.01241676 10 
121 67 567 0.01227787 10 
122 81 567 0.01258081 10 
123 220 567 0.01257704 10 
124 54 567 0.01268091 10 
125 67 570 0.01245984 10 
126 81 570 0.01275925 10 
127 220 570 0.01276475 10 
128 290 574 0.01287226 10 
129 81 575 0.01295307 10 
130 220 575 0.01297432 10 
131 487 582 0.01337896 10 
132 316 585 0.01313359 10 
133 81 588 0.01328697 10 
134 87 588 0.01364876 10 
135 226 588 0.01365481 10 
136 87 597 0.01354548 10 
137 94 597 0.01387321 10 
138 226 597 0.01385831 10 
139 87 604 0.01369871 10 
140 94 604 0.01406612 10 
141 452 613 0.01424374 10 
142 94 616 0.01132530 8 
143 458 616 0.01432105 10 
144 110 618 0.01448208 10 
145 466 629 0.01486284 10 
146 94 632 0.01481535 10 
147 94 637 0.01490514 10 
148 101 637 0.01536378 10 
149 101 642 0.01526318 10 
150 107 642 0.01546272 10 
151 101 645 0.01519807 10 
152 107 645 0.01555181 10 
153 109 648 0.01368224 9 
154 439 651 0.01551727 10 
155 101 657 0.01564811 10 
156 248 659 0.00928431 6 
157 549 660 0.01588216 10 
158 101 663 0.01425809 9 
159 107 663 0.01599155 10 
160 114 663 0.01634192 10 
161 101 665 0.01604322 10 
162 107 665 0.01639483 10 
163 114 665 0.01640544 10 
164 381 665 0.01645046 10 
165 107 680 0.01640615 10 
166 107 683 0.01647680 10 
167 114 683 0.01682898 10 
168 342 691 0.01672714 10 
169 427 693 0.01689813 10 
170 543 697 0.01705347 10 
171 107 704 0.01719451 10 
172 114 704 0.01757388 10 
173 42 708 0.01737716 10 
174 107 714 0.01764206 10 
175 114 714 0.01785566 10 
176 208 714 0.01811843 10 
177 575 721 0.01791541 10 
178 107 730 0.01443231 8 
179 114 730 0.01806155 10 
180 135 739 0.01832564 10 
181 101 743 0.01100499 6 
182 600 748 0.01870386 10 
183 172 750 0.01899965 10 
184 121 754 0.01918260 10 
185 126 754 0.01953117 10 
186 121 759 0.01926953 10 
187 126 759 0.01966680 10 
188 259 761 0.01951761 10 
189 126 762 0.01963335 10 
190 132 762 0.02023517 10 
191 32 762 0.02034766 10 
192 330 766 0.01983753 10 
193 17 768 0.02020472 10 
194 318 774 0.02047747 10 
195 636 774 0.02112385 10 
196 132 778 0.02064887 10 
197 132 792 0.02091804 10 
198 25 798 0.02103287 10 
199 244 799 0.02167704 10 
200 132 800 0.02126296 10 
201 138 800 0.02173590 10 
202 138 806 0.02180652 10 
203 291 810 0.02207112 10 
204 673 811 0.02197631 10 
205 751 813 0.02251454 10 
206 611 820 0.02251003 10 
207 138 821 0.02282289 10 
208 138 823 0.02226900 10 
209 151 828 0.02269122 10 
210 502 830 0.02255004 10 
211 121 833 0.02271133 10 
212 472 845 0.02335828 10 
213 151 847 0.02387810 10 
214 556 848 0.02331646 10 
215 151 855 0.02350438 10 
216 715 861 0.02367040 10 
217 560 867 0.02408186 10 
218 244 877 0.02467645 10 
219 503 882 0.02494703 10 
220 578 886 0.02497741 10 
221 151 895 0.02513196 10 
222 151 897 0.02564233 10 
223 138 903 0.02588276 10 
224 138 904 0.02580867 10 
225 132 907 0.02546440 10 
226 138 907 0.02590724 10 
227 132 911 0.02555356 10 
228 810 916 0.02595695 10 
229 121 923 0.02628196 10 
230 126 923 0.02671227 10 
231 107 929 0.02661219 10 
232 114 929 0.02686067 10 
233 214 929 0.02717832 10 
234 107 935 0.02738871 10 
235 114 935 0.02734265 10 
236 101 939 0.02741658 10 
237 107 939 0.02745324 10 
238 101 944 0.02712783 10 
239 94 947 0.02729298 10 
240 101 947 0.02765069 10 
241 87 953 0.02736043 10 
242 94 953 0.02778785 10 
243 226 953 0.02790548 10 
244 170 953 0.02792710 10 
245 81 959 0.02810926 10 
246 87 959 0.02807348 10 
247 220 959 0.02835189 10 
248 226 959 0.02812610 10 
249 772 964 0.02915419 10 
250 67 965 0.02902812 10 
251 81 965 0.02866601 10 
252 220 965 0.02860184 10 
253 14 968 0.02870984 10 
254 661 971 0.02865966 10 
255 61 976 0.02894233 10 
256 67 976 0.02930810 10 
257 209 976 0.02926497 10 
258 50 982 0.02904742 10 
259 61 982 0.02951576 10 
260 201 982 0.02982466 10 
261 203 982 0.02974274 10 
262 105 987 0.02940665 10 
263 44 988 0.02992168 10 
264 50 988 0.02993529 10 
265 195 988 0.03002892 10 
266 201 988 0.03001429 10 
267 735 990 0.02958704 10 
268 44 994 0.02964164 10 
269 189 994 0.03020449 10 
270 195 994 0.03041868 10 
271 32 1003 0.17749766 10 
272 178 1003 0.13380214 10 
273 183 1003 0.03092203 10 
274 390 1003 0.03060844 10 
275 25 1008 0.03030715 10 
276 32 1008 0.03079362 10 
277 178 1008 0.03082079 10 
278 183 1008 0.03089049 10 
279 25 1010 0.03039204 10 
280 32 1010 0.03088393 10 
281 172 1010 0.03093955 10 
282 178 1010 0.03093548 10 
283 78 1013 0.03048860 10 
284 904 1014 0.03076144 10 
285 180 1014 0.03134338 10 
286 755 1015 0.03085387 10 
287 19 1016 0.03157360 10 
288 166 1016 0.03174894 10 
289 172 1016 0.03174076 10 
290 549 1022 0.03138824 10 
291 151 1029 0.03151101 10 
292 157 1029 0.03239744 10 
293 163 1029 0.03241739 10 
294 166 1029 0.03241825 10 
295 577 1030 0.03184195 10 
296 909 1037 0.03177785 10 
297 449 1039 0.03276683 10 
298 760 1040 0.03353144 10 
299 313 1042 0.03329147 10 
300 979 1049 0.03485446 10 
301 311 1056 0.03336969 10 
302 602 1063 0.03341327 10 
303 298 1072 0.02348591 7 
304 131 1075 0.03401553 10 
305 742 1080 0.03424532 10 
306 132 1084 0.03427986 10 
307 458 1097 0.03470056 10 
308 599 1103 0.03551122 10 
309 615 1113 0.03583032 10 
310 1013 1116 0.03704472 10 
311 238 1120 0.03667255 10 
312 356 1122 0.03679114 10 
313 870 1124 0.03709155 10 
314 923 1133 0.03701727 10 
315 101 1138 0.03710617 10 
316 790 1140 0.03764825 10 
317 719 1142 0.03800123 10 
318 107 1147 0.03748926 10 
319 114 1147 0.03746427 10 
320 107 1150 0.03711222 10 
321 114 1150 0.03753251 10 
322 110 1152 0.03323377 9 
323 114 1158 0.04020414 10 
324 121 1158 0.03807301 10 
325 784 1163 0.03762481 10 
326 121 1164 0.03766901 10 
327 126 1164 0.03827974 10 
328 512 1172 0.03836284 10 
329 114 1175 0.03832978 10 
330 121 1175 0.03895938 10 
331 923 1175 0.03866822 10 
332 929 1175 0.03873937 10 
333 1158 1175 0.03513732 9 
334 246 1178 0.03872417 10 
335 312 1184 0.03896584 10 
336 101 1188 0.03908150 10 
337 939 1188 0.04098115 10 
338 1138 1188 0.04174090 10 
339 1147 1188 0.03985702 10 
340 1150 1188 0.03987496 10 
341 245 1200 0.03957498 10 
342 712 1206 0.04027454 10 
343 1050 1210 0.04069989 10 
344 1061 1210 0.04096489 10 
345 1075 1210 0.04126561 10 
346 1084 1210 0.04124245 10 
347 1088 1210 0.04095608 10 
348 1093 1210 0.04103118 10 
349 1098 1210 0.04112464 10 
350 157 1217 0.04042760 10 
351 163 1217 0.04104663 10 
352 1029 1217 0.04109886 10 
353 1044 1217 0.04160725 10 
354 1050 1217 0.04187690 10 
355 1056 1217 0.04164490 10 
356 148 1226 0.04126127 10 
