1 19 166 0 0.41485034 0.00212193 5 
2 19 172 0 0.02820697 0.00186651 4 
3 25 172 0 0.50366199 0.00188071 4 
4 25 178 0 0.30831851 0.00197345 4 
5 32 178 0 0.01493521 0.00199422 4 
6 32 183 0 0.07055611 0.00201213 4 
7 44 189 0 0.52863102 0.00208002 4 
8 44 195 0 0.35755137 0.00216450 4 
9 50 195 0 0.00572854 0.00219998 4 
10 50 201 0 0.04110605 0.00190521 3 
11 50 203 0 0.06975183 0.00187260 3 
12 61 203 0 0.00745912 0.00190216 3 
13 61 209 0 0.37222863 0.00231537 4 
14 67 209 0 0.41032090 0.00232345 4 
15 67 220 0 0.66144083 0.00249753 4 
16 81 220 0 0.48035877 0.00286245 5 
17 81 226 0 0.05402805 0.00257071 4 
18 87 226 0 1.82553139 0.00294464 5 
19 87 231 0 0.34656585 0.00262578 4 
20 94 231 0 0.55778528 0.00256531 4 
21 226 231 0 1.44127402 0.00298777 5 
22 77 233 2 1854.47273193 0.00000225 1 
23 94 241 0 1.33132047 0.00269392 4 
24 101 241 0 0.50961029 0.00271820 4 
25 101 247 0 1.66454674 0.00276048 4 
26 107 247 0 1.80094617 0.00277715 4 
27 107 254 0 1.18346605 0.00284288 4 
28 114 254 0 0.12939160 0.00286268 4 
29 107 256 0 0.93085039 0.00285310 4 
30 114 256 0 0.24629796 0.00286004 4 
31 39 257 2 4212.42693916 0.00000234 1 
32 107 258 0 1.37911724 0.00289922 4 
33 114 258 0 1.15747212 0.00292316 4 
34 121 266 0 0.00938596 0.00300706 4 
35 126 266 0 0.44864328 0.00355073 5 
36 126 272 0 1.03992836 0.00309468 4 
37 132 272 0 0.39070916 0.00364864 5 
38 132 278 0 0.58358145 0.00317495 4 
39 138 278 0 1.06458780 0.00373242 5 
40 138 284 0 0.02201259 0.00270569 3 
41 151 284 0 0.12777228 0.00328621 4 
42 151 291 0 0.60037557 0.00332068 4 
43 151 297 0 0.07972289 0.00284793 3 
44 157 297 0 1.04991834 0.00344346 4 
45 166 297 0 1.30507781 0.00338639 4 
46 19 305 0 0.16044642 0.00357056 4 
47 157 305 0 0.58687353 0.00360027 4 
48 163 305 0 7.56485476 0.00484114 6 
49 166 305 0 0.37495035 0.00360268 4 
50 172 305 0 0.01886255 0.00360403 4 
51 19 315 0 0.48455906 0.00310090 3 
52 25 315 0 0.02281386 0.00311520 3 
53 172 315 0 0.05679715 0.00373086 4 
54 172 328 0 0.12482725 0.00324978 3 
55 19 337 0 6.63404991 0.00465911 5 
56 25 337 0 0.96522419 0.00399387 4 
57 172 337 0 0.57611560 0.00333106 3 
58 19 342 0 0.00494520 0.00338468 3 
59 25 342 0 0.12855172 0.00407131 4 
60 172 342 0 0.01223902 0.00411628 4 
61 178 342 0 0.12442988 0.00417318 4 
62 180 354 2 226.44479590 0.00000315 1 
63 25 367 0 0.11414782 0.00378083 3 
64 32 367 0 0.01267433 0.00595712 6 
65 178 367 0 0.00286807 0.00377045 3 
66 183 367 0 0.06698524 0.00376700 3 
67 25 374 0 0.56424690 0.00459359 4 
68 32 374 0 0.09892849 0.00531017 5 
69 178 374 0 0.03055075 0.00457828 4 
70 183 374 0 0.05309447 0.00457068 4 
71 32 382 0 4.14688582 0.00392312 3 
72 183 382 0 1.28811506 0.00465788 4 
73 32 387 0 2.72468715 0.00473653 4 
74 183 387 0 0.18197642 0.00473279 4 
75 189 414 0 7.69047346 0.00586662 5 
76 311 430 2 809.23774170 0.00000310 1 
77 44 437 0 0.00915802 0.00439545 3 
78 195 437 0 0.01161094 0.00435937 3 
79 44 454 0 0.65644164 0.00452683 3 
80 189 454 0 0.03962740 0.00542818 4 
81 44 467 0 0.12345281 0.00642006 5 
82 50 467 0 0.00895575 0.01023214 9 
83 195 467 0 0.00230988 0.00463657 3 
84 195 484 0 0.09447226 0.00577526 4 
85 44 494 0 0.02880924 0.00577401 4 
86 50 494 0 0.00628832 0.00483586 3 
87 195 494 0 0.00818961 0.00682848 5 
88 201 494 0 0.00469852 0.00684896 5 
89 50 500 0 0.14406209 0.00698906 5 
90 201 500 0 0.05353930 0.00491076 3 
91 203 500 0 0.03252445 0.00488535 3 
92 61 508 0 0.99413579 0.00712005 5 
93 203 508 0 0.26947301 0.01224243 10 
94 209 508 0 0.03711473 0.00605567 4 
95 61 522 0 1.37942234 0.00614592 4 
96 203 522 0 0.12859200 0.00511750 3 
97 209 522 0 0.00542469 0.00513544 3 
98 61 528 0 0.47936102 0.00515501 3 
99 67 528 0 0.22419307 0.00628225 4 
100 81 528 0 0.23233822 0.00841320 6 
101 209 528 0 0.09444678 0.01065486 8 
102 220 528 0 0.13668760 0.00621943 4 
103 67 532 0 0.05459173 0.01179951 9 
104 81 532 0 0.11826401 0.00847443 6 
105 220 532 0 0.05648169 0.00633964 4 
106 67 556 0 0.98233216 0.00651621 4 
107 67 564 0 0.40168838 0.01232069 9 
108 81 564 0 0.02280941 0.00663084 4 
109 220 564 0 0.02684857 0.00665037 4 
110 67 567 0 2.67253169 0.00780592 5 
111 81 567 0 0.48923871 0.00900349 6 
112 220 567 0 0.21723258 0.00664915 4 
113 67 570 0 2.40706627 0.00909309 6 
114 81 570 0 0.15671702 0.00902891 6 
115 220 570 0 0.13379867 0.00673453 4 
116 81 575 0 2.76594993 0.00792424 5 
117 220 575 0 1.08612706 0.01035415 7 
118 81 588 0 0.01497138 0.00567080 3 
119 87 588 0 0.47937722 0.00821665 5 
120 226 588 0 0.43156268 0.00694446 4 
121 87 597 0 2.27648751 0.00957545 6 
122 94 597 0 0.38888315 0.00700175 4 
123 226 597 0 0.55079633 0.00829962 5 
124 87 604 0 0.47149562 0.00711121 4 
125 94 604 0 0.01542269 0.00839854 5 
126 94 616 0 0.01350372 0.01233386 8 
127 94 632 0 2.16969694 0.00878175 5 
128 94 637 0 4.44236402 0.01005723 6 
129 101 637 0 0.19098383 0.00753676 4 
130 101 642 0 0.11555601 0.00888028 5 
131 107 642 0 0.04025021 0.01419550 9 
132 101 645 0 6.69527511 0.00760913 4 
133 107 645 0 1.54205090 0.00752235 4 
134 101 657 0 0.73548669 0.01668070 10 
135 101 663 0 0.04971914 0.01672964 10 
136 107 663 0 0.01781179 0.00913828 5 
137 114 663 0 0.00275957 0.00915220 5 
138 101 665 0 1.55112265 0.01344894 8 
139 107 665 0 0.47667103 0.00779629 4 
140 114 665 0 0.13329170 0.00647887 3 
141 107 680 0 1.48615866 0.00936821 5 
142 107 683 0 0.94462224 0.00813181 4 
143 114 683 0 0.32178225 0.00976464 5 
144 107 704 0 0.34268109 0.01265863 7 
145 114 704 0 0.07528002 0.01551493 9 
146 107 714 0 1.79639085 0.01131803 6 
147 114 714 0 0.02860377 0.01434946 8 
148 107 730 0 0.19656714 0.01015668 5 
149 114 730 0 0.03540690 0.00856381 4 
150 121 754 0 0.33113739 0.00876439 4 
151 126 754 0 0.07673382 0.01510078 8 
152 121 759 0 2.33625684 0.01194893 6 
153 126 759 0 0.22329988 0.01212032 6 
154 126 762 0 7.08482229 0.01038239 5 
155 132 762 0 2.00372045 0.01531988 8 
156 132 778 0 0.06999780 0.00902963 4 
157 132 792 0 1.26802734 0.00936151 4 
158 132 800 0 3.35686460 0.00921601 4 
159 138 800 0 0.14494330 0.01258558 6 
160 98 803 2 3102.69045311 0.00000396 1 
161 138 806 0 0.25140739 0.00754227 3 
162 487 806 2 1441.04408660 0.00000355 3 
163 138 821 0 0.40674396 0.01106483 5 
164 138 823 0 6.54725682 0.00937398 4 
165 151 828 0 3.12108818 0.00950720 4 
166 613 829 2 2135.32078897 0.00000427 1 
167 151 847 0 0.08724621 0.01144731 5 
168 151 855 0 0.11494457 0.01512174 7 
169 151 895 0 2.80701437 0.01761412 8 
170 151 897 0 0.06118057 0.02135424 10 
171 138 903 0 0.08157811 0.01022724 4 
172 138 904 0 7.06392298 0.01399798 6 
173 132 907 0 0.71874717 0.01028133 4 
174 138 907 0 0.22077132 0.01218934 5 
175 132 911 0 0.23128175 0.01227132 5 
176 121 923 0 0.62636126 0.01435307 6 
177 126 923 0 0.07130653 0.01046901 4 
178 107 929 0 0.07225325 0.01253570 5 
179 114 929 0 0.00477553 0.01058842 4 
180 107 935 0 4.91438615 0.01650265 7 
181 114 935 0 1.40337639 0.01653339 7 
182 101 939 0 0.48567419 0.01068765 4 
183 107 939 0 0.21174614 0.01071301 4 
184 101 944 0 0.15377935 0.01273838 5 
185 94 947 0 0.23772432 0.01677905 7 
186 101 947 0 0.16826262 0.01477899 6 
187 87 953 0 0.13504795 0.01087866 4 
188 94 953 0 0.06505521 0.01490599 6 
189 226 953 0 0.08268323 0.02297525 10 
190 81 959 0 1.83528326 0.02439644 10 
191 87 959 0 1.29172246 0.01711169 7 
192 220 959 0 0.04883629 0.01102984 4 
193 226 959 0 0.12130941 0.01305001 5 
194 67 965 0 1.01368609 0.01315658 5 
195 81 965 0 0.31066014 0.01519627 6 
196 220 965 0 0.16483276 0.01930693 8 
197 61 976 0 0.16803746 0.01746030 7 
198 67 976 0 0.05676300 0.00915035 3 
199 209 976 0 0.00780965 0.01121733 4 
200 50 982 0 0.38354811 0.01131647 4 
201 61 982 0 0.27147698 0.01135553 4 
202 201 982 0 0.22200943 0.01134650 4 
203 203 982 0 0.10573284 0.02186477 9 
204 44 988 0 0.09550719 0.01143394 4 
205 50 988 0 0.05924873 0.01144468 4 
206 195 988 0 0.04319526 0.01568221 6 
207 201 988 0 0.02685916 0.01353874 5 
208 44 994 0 0.51683435 0.01885333 7 
209 189 994 0 0.29989154 0.02573017 10 
210 195 994 0 0.21957432 0.01369412 5 
211 32 1003 0 0.23901034 0.01382527 5 
212 178 1003 0 0.03356851 0.02601526 10 
213 183 1003 0 0.01433170 0.01601456 6 
214 25 1008 0 1.23858172 0.01830960 7 
215 32 1008 0 0.53803958 0.01175245 4 
216 178 1008 0 0.34459610 0.01175210 4 
217 183 1008 0 0.22233868 0.01179418 4 
218 25 1010 0 0.60236133 0.01178574 4 
219 32 1010 0 0.30591807 0.01397227 5 
220 172 1010 0 0.10368354 0.01626321 6 
221 178 1010 0 0.19279072 0.02645767 10 
222 865 1014 2 1230.13817725 0.00000569 1 
223 19 1016 0 0.44047719 0.02053356 8 
224 166 1016 0 0.20189646 0.01185337 4 
225 172 1016 0 0.07393216 0.01400337 5 
226 151 1029 0 0.03533130 0.01430041 5 
227 157 1029 0 0.02672450 0.01199734 4 
228 163 1029 0 3.39703566 0.01201525 4 
229 166 1029 0 0.49353449 0.01204943 4 
230 132 1084 0 4.21993706 0.01506622 5 
231 463 1112 2 158.41805691 0.00000539 1 
232 101 1138 0 0.63021658 0.01577361 5 
233 107 1147 0 0.73708347 0.01331721 4 
234 114 1147 0 0.03971358 0.01081232 3 
235 107 1150 0 7.45683387 0.01335173 4 
236 114 1150 0 1.00561260 0.01086913 3 
237 114 1158 0 0.16899687 0.01094567 3 
238 121 1158 0 0.69099743 0.01349072 4 
239 121 1164 0 0.45182924 0.01608554 5 
240 126 1164 0 0.04418665 0.01353926 4 
241 396 1171 2 635.40034469 0.00000598 1 
242 114 1175 0 0.14266969 0.01365443 4 
243 121 1175 0 0.27324351 0.01369074 4 
244 923 1175 0 0.18719011 0.01372335 4 
245 929 1175 0 0.16073549 0.01367379 4 
246 1158 1175 0 0.00134797 0.01115149 3 
247 101 1188 0 0.32950319 0.01385375 4 
248 939 1188 0 0.55418798 0.01384012 4 
249 1138 1188 0 0.03006025 0.01137913 3 
250 1147 1188 0 0.04063922 0.01130230 3 
251 1150 1188 0 1.83245351 0.01389024 4 
252 1050 1210 0 0.00345523 0.01406883 4 
253 1061 1210 0 0.57363906 0.01672189 5 
254 1075 1210 0 0.23107861 0.01675977 5 
255 1084 1210 0 3.13555510 0.01673585 5 
256 1088 1210 0 0.59156319 0.01414466 4 
257 1093 1210 0 0.13111230 0.01939816 6 
258 1098 1210 0 0.04730346 0.01413333 4 
259 157 1217 0 0.32750279 0.01426205 4 
260 163 1217 0 0.19904338 0.01441318 4 
261 1029 1217 0 0.01250493 0.01166341 3 
262 1044 1217 0 3.98258990 0.01442731 4 
263 1050 1217 0 4.97161000 0.01707273 5 
264 163 297 0 0.27920255 0.01519511 4 
265 189 400 0 2.09679271 0.01455322 4 
266 1056 1217 0 9.66143264 0.01728205 5 
