1 41 53 2 1965.44201074 0.00000285 1 
2 19 166 0 0.41485034 0.00209914 5 
3 19 172 0 0.02820697 0.00187799 4 
4 25 172 0 0.50366199 0.00191491 4 
5 25 178 0 0.30831851 0.00198409 4 
6 32 178 0 0.01493521 0.00198552 4 
7 32 183 0 0.07055611 0.00201513 4 
8 44 189 0 0.52863102 0.00207524 4 
9 44 195 0 0.35755137 0.00217234 4 
10 50 195 0 0.00572854 0.00219627 4 
11 50 201 0 0.04110605 0.00190279 3 
12 50 203 0 0.06975183 0.00188064 3 
13 61 203 0 0.00745912 0.00189528 3 
14 61 209 0 0.37222863 0.00231080 4 
15 67 209 0 0.41032090 0.00232848 4 
16 67 220 0 0.66144083 0.00250251 4 
17 81 220 0 0.48035877 0.00285848 5 
18 81 226 0 0.05402805 0.00256254 4 
19 87 226 0 1.82553139 0.00294291 5 
20 87 231 0 0.34656585 0.00262137 4 
21 94 231 0 0.55778528 0.00256761 4 
22 226 231 0 1.44127402 0.00298073 5 
23 94 241 0 1.33132047 0.00269063 4 
24 101 241 0 0.50961029 0.00271776 4 
25 101 247 0 1.66454674 0.00276140 4 
26 107 247 0 1.80094617 0.00278510 4 
27 107 254 0 1.18346605 0.00284646 4 
28 114 254 0 0.12939160 0.00286668 4 
29 107 256 0 0.93085039 0.00284576 4 
30 114 256 0 0.24629796 0.00285844 4 
31 107 258 0 1.37911724 0.00289607 4 
32 114 258 0 1.15747212 0.00292678 4 
33 121 266 0 0.00938596 0.00300911 4 
34 126 266 0 0.44864328 0.00354495 5 
35 126 272 0 1.03992836 0.00309504 4 
36 132 272 0 0.39070916 0.00364728 5 
37 132 278 0 0.58358145 0.00317291 4 
38 138 278 0 1.06458780 0.00373368 5 
39 138 284 0 0.02201259 0.00271378 3 
40 151 284 0 0.12777228 0.00328963 4 
41 151 291 0 0.60037557 0.00330988 4 
42 278 293 2 1673.56353448 0.00000233 1 
43 151 297 0 0.07972289 0.00285003 3 
44 157 297 0 1.04991834 0.00344944 4 
45 166 297 0 1.30507781 0.00338546 4 
46 19 305 0 0.16044642 0.00356954 4 
47 157 305 0 0.58687353 0.00360533 4 
48 163 305 0 7.56485476 0.00484245 6 
49 166 305 0 0.37495035 0.00360037 4 
50 172 305 0 0.01886255 0.00360598 4 
51 83 314 2 646.70351718 0.00000225 1 
52 19 315 0 0.48455906 0.00310491 3 
53 25 315 0 0.02281386 0.00310880 3 
54 172 315 0 0.05679715 0.00372785 4 
55 86 317 2 1006.27179918 0.00000232 1 
56 172 328 0 0.12482725 0.00325619 3 
57 19 337 0 6.63404991 0.00465993 5 
58 25 337 0 0.96522419 0.00399759 4 
59 172 337 0 0.57611560 0.00333800 3 
60 19 342 0 0.00494520 0.00337837 3 
61 25 342 0 0.12855172 0.00407229 4 
62 172 342 0 0.01223902 0.00412141 4 
63 178 342 0 0.12442988 0.00418305 4 
64 25 367 0 0.11414782 0.00379104 3 
65 32 367 0 0.01267433 0.00595255 6 
66 178 367 0 0.00286807 0.00375416 3 
67 183 367 0 0.06698524 0.00378524 3 
68 25 374 0 0.56424690 0.00459841 4 
69 32 374 0 0.09892849 0.00533311 5 
70 178 374 0 0.03055075 0.00458836 4 
71 183 374 0 0.05309447 0.00457276 4 
72 32 382 0 4.14688582 0.00392747 3 
73 183 382 0 1.28811506 0.00466238 4 
74 32 387 0 2.72468715 0.00474009 4 
75 183 387 0 0.18197642 0.00472351 4 
76 189 414 0 7.69047346 0.00585542 5 
77 228 429 2 406.89172701 0.00000374 1 
78 44 437 0 0.00915802 0.00437899 3 
79 195 437 0 0.01161094 0.00437240 3 
80 44 454 0 0.65644164 0.00453262 3 
81 189 454 0 0.03962740 0.00542569 4 
82 44 467 0 0.12345281 0.00641681 5 
83 50 467 0 0.00895575 0.01023269 9 
84 195 467 0 0.00230988 0.00463979 3 
85 195 484 0 0.09447226 0.00574080 4 
86 44 494 0 0.02880924 0.00577851 4 
87 50 494 0 0.00628832 0.00482768 3 
88 195 494 0 0.00818961 0.00683113 5 
89 201 494 0 0.00469852 0.00682710 5 
90 50 500 0 0.14406209 0.00694594 5 
91 201 500 0 0.05353930 0.00491324 3 
92 203 500 0 0.03252445 0.00488159 3 
93 61 508 0 0.99413579 0.00712369 5 
94 203 508 0 0.26947301 0.01224643 10 
95 209 508 0 0.03711473 0.00605040 4 
96 27 514 2 325.13079833 0.00000366 1 
97 61 522 0 1.37942234 0.00613849 4 
98 203 522 0 0.12859200 0.00511513 3 
99 209 522 0 0.00542469 0.00516550 3 
100 61 528 0 0.47936102 0.00514855 3 
101 67 528 0 0.22419307 0.00629715 4 
102 81 528 0 0.23233822 0.00844320 6 
103 209 528 0 0.09444678 0.01061968 8 
104 220 528 0 0.13668760 0.00624056 4 
105 194 528 2 6835.11301469 0.00000290 4 
106 67 532 0 0.05459173 0.01181374 9 
107 81 532 0 0.11826401 0.00847809 6 
108 220 532 0 0.05648169 0.00634655 4 
109 67 556 0 0.98233216 0.00650777 4 
110 67 564 0 0.40168838 0.01232714 9 
111 81 564 0 0.02280941 0.00663601 4 
112 220 564 0 0.02684857 0.00666642 4 
113 67 567 0 2.67253169 0.00782095 5 
114 81 567 0 0.48923871 0.00902656 6 
115 220 567 0 0.21723258 0.00665014 4 
116 67 570 0 2.40706627 0.00910772 6 
117 81 570 0 0.15671702 0.00903717 6 
118 220 570 0 0.13379867 0.00673333 4 
119 81 575 0 2.76594993 0.00792264 5 
120 220 575 0 1.08612706 0.01035212 7 
121 81 588 0 0.01497138 0.00568400 3 
122 87 588 0 0.47937722 0.00817985 5 
123 226 588 0 0.43156268 0.00691312 4 
124 87 597 0 2.27648751 0.00955800 6 
125 94 597 0 0.38888315 0.00700049 4 
126 226 597 0 0.55079633 0.00831343 5 
127 87 604 0 0.47149562 0.00711510 4 
128 94 604 0 0.01542269 0.00841761 5 
129 94 616 0 0.01350372 0.01235081 8 
130 94 632 0 2.16969694 0.00880198 5 
131 94 637 0 4.44236402 0.01007343 6 
132 101 637 0 0.19098383 0.00752040 4 
133 101 642 0 0.11555601 0.00890277 5 
134 107 642 0 0.04025021 0.01413041 9 
135 101 645 0 6.69527511 0.00763528 4 
136 107 645 0 1.54205090 0.00752634 4 
137 502 650 2 1585.28728076 0.00000408 1 
138 101 657 0 0.73548669 0.01667289 10 
139 101 663 0 0.04971914 0.01686769 10 
140 107 663 0 0.01781179 0.00914854 5 
141 114 663 0 0.00275957 0.00916238 5 
142 101 665 0 1.55112265 0.01347532 8 
143 107 665 0 0.47667103 0.00780825 4 
144 114 665 0 0.13329170 0.00650077 3 
145 212 677 2 2363.87763358 0.00000340 1 
146 107 680 0 1.48615866 0.00938094 5 
147 107 683 0 0.94462224 0.00804047 4 
148 114 683 0 0.32178225 0.00956448 5 
149 107 704 0 0.34268109 0.01262277 7 
150 114 704 0 0.07528002 0.01555141 9 
151 107 714 0 1.79639085 0.01135440 6 
152 114 714 0 0.02860377 0.01442919 8 
153 107 730 0 0.19656714 0.01017730 5 
154 114 730 0 0.03540690 0.00857366 4 
155 535 751 2 411.44974234 0.00000359 1 
156 121 754 0 0.33113739 0.00878032 4 
157 126 754 0 0.07673382 0.01514623 8 
158 121 759 0 2.33625684 0.01197924 6 
159 126 759 0 0.22329988 0.01209256 6 
160 126 762 0 7.08482229 0.01040183 5 
161 132 762 0 2.00372045 0.01537894 8 
162 132 778 0 0.06999780 0.00905712 4 
163 683 783 2 1212.60899410 0.00000477 1 
164 132 792 0 1.26802734 0.00931985 4 
165 132 800 0 3.35686460 0.00919511 4 
166 138 800 0 0.14494330 0.01257176 6 
167 138 806 0 0.25140739 0.00755085 3 
168 138 821 0 0.40674396 0.01109629 5 
169 138 823 0 6.54725682 0.00940179 4 
170 151 828 0 3.12108818 0.00950320 4 
171 151 847 0 0.08724621 0.01149060 5 
172 151 855 0 0.11494457 0.01513319 7 
173 55 870 2 962.15111853 0.00000429 1 
174 562 876 2 554.47057829 0.00000384 1 
175 151 895 0 2.80701437 0.01763447 8 
176 151 897 0 0.06118057 0.02136072 10 
177 138 903 0 0.08157811 0.01025669 4 
178 138 904 0 7.06392298 0.01403355 6 
179 860 904 2 4416.43789267 0.00000452 6 
180 132 907 0 0.71874717 0.01032140 4 
181 138 907 0 0.22077132 0.01221800 5 
182 132 911 0 0.23128175 0.01223588 5 
183 121 923 0 0.62636126 0.01443504 6 
184 126 923 0 0.07130653 0.01050495 4 
185 107 929 0 0.07225325 0.01255043 5 
186 114 929 0 0.00477553 0.01060059 4 
187 107 935 0 4.91438615 0.01661038 7 
188 114 935 0 1.40337639 0.01655338 7 
189 101 939 0 0.48567419 0.01071948 4 
190 107 939 0 0.21174614 0.01074976 4 
191 101 944 0 0.15377935 0.01277160 5 
192 94 947 0 0.23772432 0.01674905 7 
193 101 947 0 0.16826262 0.01481029 6 
194 87 953 0 0.13504795 0.01089749 4 
195 94 953 0 0.06505521 0.01492451 6 
196 226 953 0 0.08268323 0.02296029 10 
197 360 955 2 1009.14212962 0.00000394 1 
198 81 959 0 1.83528326 0.02435320 10 
199 87 959 0 1.29172246 0.01712918 7 
200 220 959 0 0.04883629 0.01105879 4 
201 226 959 0 0.12130941 0.01310085 5 
202 670 960 2 1374.25007173 0.00000452 1 
203 67 965 0 1.01368609 0.01316413 5 
204 81 965 0 0.31066014 0.01521465 6 
205 220 965 0 0.16483276 0.01928901 8 
206 61 976 0 0.16803746 0.01744600 7 
207 67 976 0 0.05676300 0.00919719 3 
208 209 976 0 0.00780965 0.01126533 4 
209 50 982 0 0.38354811 0.01136514 4 
210 61 982 0 0.27147698 0.01135895 4 
211 201 982 0 0.22200943 0.01137706 4 
212 203 982 0 0.10573284 0.02185480 9 
213 44 988 0 0.09550719 0.01149225 4 
214 50 988 0 0.05924873 0.01151610 4 
215 195 988 0 0.04319526 0.01572325 6 
216 201 988 0 0.02685916 0.01358245 5 
217 44 994 0 0.51683435 0.01787275 7 
218 189 994 0 0.29989154 0.02575263 10 
219 195 994 0 0.21957432 0.01373196 5 
220 764 995 2 1822.70961680 0.00000441 1 
221 32 1003 0 0.23901034 0.01389209 5 
222 178 1003 0 0.03356851 0.02602154 10 
223 183 1003 0 0.01433170 0.01606751 6 
224 25 1008 0 1.23858172 0.01838213 7 
225 32 1008 0 0.53803958 0.01182467 4 
226 178 1008 0 0.34459610 0.01182602 4 
227 183 1008 0 0.22233868 0.01186412 4 
228 25 1010 0 0.60236133 0.01184552 4 
229 32 1010 0 0.30591807 0.01403114 5 
230 172 1010 0 0.10368354 0.01632238 6 
231 178 1010 0 0.19279072 0.02642353 10 
232 19 1016 0 0.44047719 0.02065755 8 
233 166 1016 0 0.20189646 0.01191126 4 
234 172 1016 0 0.07393216 0.01409410 5 
235 151 1029 0 0.03533130 0.01441494 5 
236 157 1029 0 0.02672450 0.01207740 4 
237 163 1029 0 3.39703566 0.01210720 4 
238 166 1029 0 0.49353449 0.01207025 4 
239 351 1030 2 336.94427522 0.00000479 1 
240 23 1031 2 1869.31315235 0.00000557 1 
241 425 1044 2 491.42561585 0.00000614 1 
242 771 1066 2 181.32317428 0.00000619 1 
243 92 1082 2 381.84270023 0.00000608 1 
244 132 1084 0 4.21993706 0.01519596 5 
245 410 1091 2 366.83600185 0.00000577 1 
246 101 1138 0 0.63021658 0.01607740 5 
247 107 1147 0 0.73708347 0.01340070 4 
248 114 1147 0 0.03971358 0.01092492 3 
249 107 1150 0 7.45683387 0.01344082 4 
250 114 1150 0 1.00561260 0.01098489 3 
251 114 1158 0 0.16899687 0.01101103 3 
252 121 1158 0 0.69099743 0.01359827 4 
253 121 1164 0 0.45182924 0.01613030 5 
254 126 1164 0 0.04418665 0.01365996 4 
255 114 1175 0 0.14266969 0.01376285 4 
256 121 1175 0 0.27324351 0.01386973 4 
257 923 1175 0 0.18719011 0.01381837 4 
258 929 1175 0 0.16073549 0.01375790 4 
259 1158 1175 0 0.00134797 0.01124736 3 
260 101 1188 0 0.32950319 0.01428905 4 
261 939 1188 0 0.55418798 0.01392374 4 
262 1138 1188 0 0.03006025 0.01147361 3 
263 1147 1188 0 0.04063922 0.01138563 3 
264 1150 1188 0 1.83245351 0.01395384 4 
265 1149 1205 2 650.28947746 0.00000654 1 
266 1050 1210 0 0.00345523 0.01416478 4 
267 1061 1210 0 0.57363906 0.01705576 5 
268 1075 1210 0 0.23107861 0.01682142 5 
269 1084 1210 0 3.13555510 0.01685185 5 
270 1088 1210 0 0.59156319 0.01419065 4 
271 1093 1210 0 0.13111230 0.01947293 6 
272 1098 1210 0 0.04730346 0.01420431 4 
273 157 1217 0 0.32750279 0.01433832 4 
274 163 1217 0 0.19904338 0.01444749 4 
275 1029 1217 0 0.01250493 0.01175621 3 
276 1044 1217 0 3.98258990 0.01448636 4 
277 1050 1217 0 4.97161000 0.01715251 5 
278 704 1219 2 3681.83618377 0.00000611 1 
279 163 297 0 0.27920255 0.01520596 4 
280 189 400 0 2.09679271 0.01455880 4 
281 1056 1217 0 9.66143264 0.01723383 5 
