VERTEX2 0 -0.00004639 -0.00000085 -0.00000368
VERTEX2 1 -0.00004639 -0.00000085 -0.00064568
VERTEX2 2 -0.00004639 -0.00000085 -0.00118368
VERTEX2 3 0.01095547 -0.00097588 -0.00356568
VERTEX2 4 0.64096201 -0.01120334 -0.00744768
VERTEX2 5 0.69596969 -0.01171903 -0.09872968
VERTEX2 6 0.70022279 -0.01543837 -0.89600168
VERTEX2 7 0.69391013 0.00421014 -1.51153868
VERTEX2 8 0.69921707 0.02669090 -2.12507268
VERTEX2 9 0.71606839 0.04111985 -2.76314268
VERTEX2 10 0.72893492 0.04321720 2.90551162
VERTEX2 11 0.73315749 0.04053414 2.23123262
VERTEX2 12 0.73314021 0.04154259 1.58175862
VERTEX2 13 0.73870644 0.05906767 0.92226062
VERTEX2 14 0.75961201 0.07374780 0.31402162
VERTEX2 15 0.76852542 0.07435471 -0.21090638
VERTEX2 16 1.06244726 0.01414819 -0.22959838
VERTEX2 17 1.66360037 -0.13312077 -0.26082638
VERTEX2 18 2.28695391 -0.29648814 -0.27100338
VERTEX2 19 2.91424910 -0.49426429 -0.31957938
VERTEX2 20 3.50794950 -0.68444994 -0.31367162
VERTEX2 21 4.11697111 -0.83692700 -0.20211147
VERTEX2 22 4.72680211 -0.97838339 -0.18472356
VERTEX2 23 5.36636484 -1.02277193 -0.07730164
VERTEX2 24 5.99763592 -1.09414608 -0.13435938
VERTEX2 25 6.63221478 -1.16200773 -0.13159241
VERTEX2 26 7.24133470 -1.26270339 -0.17214557
VERTEX2 27 7.85740054 -1.35421449 -0.15633729
VERTEX2 28 8.43916993 -1.45302356 -0.16080874
VERTEX2 29 8.81836691 -1.51059734 -0.13006680
VERTEX2 30 8.82771760 -1.51308622 -0.66225371
VERTEX2 31 8.92873414 -1.64868983 -0.93065745
VERTEX2 32 9.29659750 -2.16349666 -0.94922543
VERTEX2 33 9.68216075 -2.67453848 -0.89846130
VERTEX2 34 10.09720405 -3.16930305 -0.87747953
VERTEX2 35 10.52244504 -3.65634153 -0.84330070
VERTEX2 36 10.95428401 -4.14461772 -0.85196423
VERTEX2 37 11.23973141 -4.46339411 -0.84438388
VERTEX2 38 11.24119465 -4.46535440 -1.16624951
VERTEX2 39 11.24065904 -4.46263158 -1.33734714
VERTEX2 40 11.38617169 -5.03981806 -1.32019048
VERTEX2 41 11.53715983 -5.64212032 -1.35228370
VERTEX2 42 11.66040299 -6.20781411 -1.37509693
VERTEX2 43 11.76751325 -6.80507986 -1.41540518
VERTEX2 44 11.85760233 -7.40154215 -1.45249098
VERTEX2 45 11.91272869 -8.02122328 -1.50804881
VERTEX2 46 11.94379596 -8.64293618 -1.52747608
VERTEX2 47 11.96395866 -9.26447531 -1.56919756
VERTEX2 48 11.96048639 -9.89040208 -1.57578957
VERTEX2 49 11.95323102 -10.51226990 -1.62667201
VERTEX2 50 11.89982105 -11.10168851 -1.67121739
VERTEX2 51 11.84465964 -11.69804277 -1.70031425
VERTEX2 52 11.74753632 -12.28093981 -1.77707458
VERTEX2 53 11.64756643 -12.83829202 -1.76476204
VERTEX2 54 11.53456251 -13.34980173 -1.82689134
VERTEX2 55 11.54127700 -13.31767288 -1.82165502
VERTEX2 56 11.54072299 -13.31983607 -1.81112197
VERTEX2 57 11.39663573 -13.93744417 -1.82255968
VERTEX2 58 11.24995236 -14.54328866 -1.77637950
VERTEX2 59 11.12058797 -15.14868122 -1.80000241
VERTEX2 60 10.99059642 -15.75040459 -1.77866439
VERTEX2 61 10.85478920 -16.35258423 -1.82945194
VERTEX2 62 10.70428358 -16.91184443 -1.78960590
VERTEX2 63 10.55197222 -17.47589950 -1.82510502
VERTEX2 64 10.41621705 -18.03457305 -1.76172954
VERTEX2 65 10.28090533 -18.59106291 -1.81316431
VERTEX2 66 10.12650387 -19.17738138 -1.82121521
VERTEX2 67 9.96029398 -19.76717649 -1.81980462
VERTEX2 68 9.84984715 -20.21478211 -1.83561413
VERTEX2 69 9.85298606 -20.20459820 -1.99059486
VERTEX2 70 9.85987823 -20.19145209 -2.66496191
VERTEX2 71 9.88317430 -20.19014190 2.97555914
VERTEX2 72 9.89583122 -20.19171356 2.96607336
VERTEX2 73 9.90321704 -20.19354922 2.90112602
VERTEX2 74 9.90333061 -20.19361292 2.27932241
VERTEX2 75 9.90999865 -20.19623205 1.92697001
VERTEX2 76 9.89832164 -20.18324401 2.62085602
VERTEX2 77 9.89400928 -20.18142777 2.85380927
VERTEX2 78 9.61250388 -20.19162577 -3.09223965
VERTEX2 79 8.99423809 -20.22927053 -3.09750969
VERTEX2 80 8.36234328 -20.22664313 3.11114422
VERTEX2 81 7.73823278 -20.19894949 3.08513280
VERTEX2 82 7.13865459 -20.15705682 3.03099888
VERTEX2 83 6.55006692 -20.10456921 3.00746392
VERTEX2 84 5.98760320 -20.01753730 2.92962488
VERTEX2 85 5.44491318 -19.91242621 2.93688878
VERTEX2 86 4.83576005 -19.79041841 2.84708895
VERTEX2 87 4.44481902 -19.68282854 2.79463032
VERTEX2 88 4.08680365 -19.54916895 2.76480972
VERTEX2 89 4.09644380 -19.54965827 -3.12264040
VERTEX2 90 3.49129704 -19.55154140 3.12942769
VERTEX2 91 2.87537213 -19.54577026 -3.10468834
VERTEX2 92 2.27554122 -19.54018296 3.06279110
VERTEX2 93 1.65444707 -19.43600038 2.96191433
VERTEX2 94 1.03373277 -19.29594531 2.91912473
VERTEX2 95 0.41081331 -19.20627743 3.06172860
VERTEX2 96 -0.20052208 -19.15339753 3.08579936
VERTEX2 97 -0.79149594 -19.08871324 3.01520122
VERTEX2 98 -1.38099524 -18.98595780 2.95723986
VERTEX2 99 -2.08699744 -18.85949759 3.00406348
VERTEX2 100 -2.65258226 -18.74980647 2.95235495
VERTEX2 101 -3.26469291 -18.69149955 3.05566389
VERTEX2 102 -3.87835101 -18.60957181 2.94978098
VERTEX2 103 -4.48731637 -18.49310012 3.04576722
VERTEX2 104 -5.10021990 -18.41523361 3.01212684
VERTEX2 105 -5.71332016 -18.34924150 3.05872321
VERTEX2 106 -6.31584592 -18.27735250 3.00390155
VERTEX2 107 -6.93414458 -18.17970305 3.00013133
VERTEX2 108 -7.38954459 -18.12974269 3.06170769
VERTEX2 109 -7.43573206 -18.11792630 2.61321227
VERTEX2 110 -7.45284251 -18.10013359 2.02187522
VERTEX2 111 -7.45283044 -18.01946798 1.51603664
VERTEX2 112 -7.42750858 -17.38579619 1.57045436
VERTEX2 113 -7.44434850 -16.76357820 1.61747868
VERTEX2 114 -7.47596077 -16.14976647 1.65425638
VERTEX2 115 -7.54761026 -15.50961804 1.71447220
VERTEX2 116 -7.66449235 -14.75901299 1.75852698
VERTEX2 117 -7.79873486 -14.14859072 1.85406011
VERTEX2 118 -7.80329273 -14.12810259 1.51941932
VERTEX2 119 -7.74685009 -13.61050610 1.46617292
VERTEX2 120 -7.69351750 -12.95474853 1.55642515
VERTEX2 121 -7.70367766 -12.33594740 1.62407162
VERTEX2 122 -7.73760928 -11.75421569 1.68031245
VERTEX2 123 -7.76246881 -11.57494526 1.66755613
VERTEX2 124 -7.67665476 -11.33693973 1.24464163
VERTEX2 125 -7.46066504 -10.74516155 1.23373507
VERTEX2 126 -7.32884475 -10.13001932 1.44033388
VERTEX2 127 -7.23215077 -9.49527996 1.43886339
VERTEX2 128 -7.15784941 -8.85627986 1.47540636
VERTEX2 129 -7.07275250 -8.22116798 1.44286771
VERTEX2 130 -7.00662946 -7.58788740 1.49565096
VERTEX2 131 -6.96236237 -6.96020962 1.58422805
VERTEX2 132 -6.94616648 -6.34186688 1.53469941
VERTEX2 133 -6.89993594 -5.77199941 1.49826709
VERTEX2 134 -6.84690354 -5.17317574 1.48050591
VERTEX2 135 -6.76582542 -4.59392653 1.45484695
VERTEX2 136 -6.69451788 -3.96415940 1.47419215
VERTEX2 137 -6.60080758 -3.33656799 1.43197803
VERTEX2 138 -6.52750447 -2.70996584 1.51168060
VERTEX2 139 -6.51296284 -2.07880985 1.57711408
VERTEX2 140 -6.54357565 -1.42292249 1.60775505
VERTEX2 141 -6.55184480 -0.78238254 1.55942648
VERTEX2 142 -6.55452470 -0.13215229 1.55568004
VERTEX2 143 -6.47579197 0.50702735 1.44521042
VERTEX2 144 -6.43740755 0.87900788 1.46280872
VERTEX2 145 -6.43201409 0.89554613 0.96453275
VERTEX2 146 -6.43043430 0.90375844 0.37144360
VERTEX2 147 -6.37569189 0.90019441 -0.11496253
VERTEX2 148 -5.94483057 0.84255638 -0.15055868
VERTEX2 149 -5.30489200 0.75237135 -0.12540412
VERTEX2 150 -4.67154387 0.69143217 -0.11119894
VERTEX2 151 -4.03266831 0.64764906 -0.02548335
VERTEX2 152 -3.40816122 0.61611999 -0.08627942
VERTEX2 153 -2.78395206 0.58726366 0.00723348
VERTEX2 154 -2.16338420 0.57020749 -0.06222696
VERTEX2 155 -1.53896212 0.54076273 -0.02872497
VERTEX2 156 -0.91221804 0.53048611 0.00208406
VERTEX2 157 -0.34910621 0.51648215 -0.06221634
VERTEX2 158 -0.15458127 0.50390521 -0.03472146
VERTEX2 159 -0.14907797 0.50217921 0.95260673
VERTEX2 160 -0.14370382 0.51107139 1.98828591
VERTEX2 161 -0.16592835 0.45204413 2.70929581
VERTEX2 162 -0.14020653 0.45788367 -2.53808926
VERTEX2 163 -0.14119741 0.45287393 -1.54100801
VERTEX2 164 -0.21818465 0.54844879 -0.47875761
VERTEX2 165 -0.04524310 0.53132487 -0.07096835
VERTEX2 166 0.65145680 0.48841028 -0.06926437
VERTEX2 167 1.26759173 0.43825164 -0.09863276
VERTEX2 168 1.85517558 0.38910725 -0.08663897
VERTEX2 169 2.44987526 0.31766466 -0.12358033
VERTEX2 170 3.03583730 0.24944166 -0.14423821
VERTEX2 171 3.59696629 0.15111438 -0.18256039
VERTEX2 172 4.22180055 0.04363360 -0.16852615
VERTEX2 173 4.85038511 -0.07701294 -0.19142467
VERTEX2 174 5.47519090 -0.19128568 -0.15136740
VERTEX2 175 6.09101012 -0.28148747 -0.17613221
VERTEX2 176 6.69001615 -0.40178363 -0.16657979
VERTEX2 177 7.31291747 -0.50463076 -0.19428335
VERTEX2 178 7.93394087 -0.65062001 -0.23333982
VERTEX2 179 8.33735141 -0.73451316 -0.18004463
VERTEX2 180 8.38749192 -0.74802719 -0.62215658
VERTEX2 181 8.82802157 -1.06666101 -0.67398936
VERTEX2 182 9.23437399 -1.42717076 -0.84808124
VERTEX2 183 9.58122754 -1.84851066 -0.90549425
VERTEX2 184 9.92993685 -2.37526048 -1.05110294
VERTEX2 185 10.22207837 -2.92496015 -1.14293711
VERTEX2 186 10.44790120 -3.50632929 -1.20869555
VERTEX2 187 10.64910693 -4.06549282 -1.23080062
VERTEX2 188 10.85720281 -4.64413163 -1.23575980
VERTEX2 189 11.05789484 -5.22668092 -1.26205658
VERTEX2 190 11.24191200 -5.83080137 -1.29099332
VERTEX2 191 11.41548789 -6.43425367 -1.31521790
VERTEX2 192 11.57002122 -7.03117323 -1.34371481
VERTEX2 193 11.69361301 -7.57954503 -1.39957449
VERTEX2 194 11.79344207 -8.14886893 -1.42646856
VERTEX2 195 11.87365888 -8.71345191 -1.45521174
VERTEX2 196 11.94025009 -9.33900805 -1.49602059
VERTEX2 197 11.97808107 -9.96049485 -1.52354305
VERTEX2 198 12.00314532 -10.57936558 -1.58177044
VERTEX2 199 11.97489848 -11.18760836 -1.64324526
VERTEX2 200 11.92759804 -11.79062797 -1.66518025
VERTEX2 201 11.85657343 -12.39013835 -1.72190820
VERTEX2 202 11.79247050 -12.89551343 -1.70176020
VERTEX2 203 11.69040020 -13.62963884 -1.75453934
VERTEX2 204 11.56829784 -14.20582856 -1.85648529
VERTEX2 205 11.39865956 -14.76758903 -1.86587786
VERTEX2 206 11.24418542 -15.31438585 -1.86392736
VERTEX2 207 11.08400558 -15.88090938 -1.84794956
VERTEX2 208 10.91018781 -16.48007661 -1.85736092
VERTEX2 209 10.74759221 -17.08075180 -1.81914092
VERTEX2 210 10.58399387 -17.67346032 -1.82801377
VERTEX2 211 10.43438560 -18.26995409 -1.82576788
VERTEX2 212 10.25718532 -18.85600540 -1.87863938
VERTEX2 213 10.06137315 -19.44572639 -1.89943712
VERTEX2 214 9.86072858 -20.02184483 -1.90326650
VERTEX2 215 9.74521707 -20.34418894 -1.93908581
VERTEX2 216 9.75707384 -20.32393853 -2.43780062
VERTEX2 217 9.78272225 -20.32122067 -2.98002036
VERTEX2 218 9.79200038 -20.32479187 -3.03606658
VERTEX2 219 9.22580248 -20.28007340 3.07858637
VERTEX2 220 8.61690640 -20.23522762 3.03869620
VERTEX2 221 7.97791391 -20.16818153 3.08918748
VERTEX2 222 7.35243217 -20.12497450 3.06364698
VERTEX2 223 6.72637090 -20.09508390 -3.12319562
VERTEX2 224 6.11200549 -20.09533849 3.13421015
VERTEX2 225 5.49404171 -20.08925621 -3.09927293
VERTEX2 226 4.87700811 -20.08243637 3.13481642
VERTEX2 227 4.23177388 -20.15112567 -2.99167127
VERTEX2 228 3.70784646 -20.13495506 2.93001758
VERTEX2 229 3.26159261 -20.09603272 3.05054890
VERTEX2 230 2.97069852 -20.07983190 3.02178402
VERTEX2 231 3.17493612 -20.09782781 3.09188519
VERTEX2 232 2.86352833 -19.95761150 2.66573221
VERTEX2 233 2.29810872 -19.69518985 2.76790530
VERTEX2 234 1.72304301 -19.46784291 2.72381365
VERTEX2 235 1.47447878 -19.36011208 2.71888483
VERTEX2 236 1.13953722 -19.36081975 3.12447617
VERTEX2 237 0.51108537 -19.37497324 -3.08826311
VERTEX2 238 -0.10979318 -19.42273991 -3.12096242
VERTEX2 239 -0.72662605 -19.41905852 3.09462429
VERTEX2 240 -1.29611616 -19.30043912 2.87655630
VERTEX2 241 -1.83548907 -19.16843760 2.96198488
VERTEX2 242 -2.41039886 -19.10210867 3.00154439
VERTEX2 243 -3.01195866 -19.01752352 3.00088396
VERTEX2 244 -3.63699796 -18.97054629 3.07224993
VERTEX2 245 -4.25271481 -18.92049170 3.01808457
VERTEX2 246 -4.85592683 -18.83305664 2.94574792
VERTEX2 247 -5.46055329 -18.74945766 3.05172816
VERTEX2 248 -6.01542727 -18.72697274 3.08313131
VERTEX2 249 -5.96725345 -18.73430022 -3.00712285
VERTEX2 250 -5.96437641 -18.73419318 2.68918249
VERTEX2 251 -6.28670847 -18.39314322 2.26587202
VERTEX2 252 -6.64243922 -17.97220450 2.27442158
VERTEX2 253 -7.01430873 -17.52556912 2.26346804
VERTEX2 254 -7.37967899 -17.06668856 2.22231281
VERTEX2 255 -7.45273213 -16.97373472 2.30618784
VERTEX2 256 -7.45563002 -16.89652860 1.83022948
VERTEX2 257 -7.50692474 -16.43639970 1.69478019
VERTEX2 258 -7.58998410 -15.84666842 1.77526631
VERTEX2 259 -7.73329994 -15.24098035 1.81601548
VERTEX2 260 -7.86697622 -14.67960225 1.80777257
VERTEX2 261 -7.86469278 -14.64235325 1.49657985
VERTEX2 262 -7.80138485 -13.99108330 1.50339933
VERTEX2 263 -7.75911868 -13.37311795 1.51700663
VERTEX2 264 -7.74417689 -12.76828355 1.61422083
VERTEX2 265 -7.77591567 -12.16397140 1.63450989
VERTEX2 266 -7.72811295 -11.58576389 1.50548181
VERTEX2 267 -7.67683906 -10.83533075 1.47615104
VERTEX2 268 -7.54446483 -10.23123330 1.36607067
VERTEX2 269 -7.42453604 -9.61656880 1.39598672
VERTEX2 270 -7.35239779 -8.99128671 1.51003171
VERTEX2 271 -7.25716287 -8.36775039 1.39954720
VERTEX2 272 -7.17155648 -7.73961510 1.46472693
VERTEX2 273 -7.18150781 -7.10818624 1.67689036
VERTEX2 274 -7.24958160 -6.49019011 1.70091157
VERTEX2 275 -7.23760021 -5.88182580 1.52950232
VERTEX2 276 -7.23081237 -5.27435296 1.64406458
VERTEX2 277 -7.27775935 -4.70914586 1.61854743
VERTEX2 278 -7.23453912 -4.06924852 1.52990127
VERTEX2 279 -7.19477991 -3.43090012 1.47471415
VERTEX2 280 -7.12672893 -2.79808830 1.47692137
VERTEX2 281 -7.03633510 -2.16357323 1.37667165
VERTEX2 282 -6.91678582 -1.53567623 1.41672076
VERTEX2 283 -6.83025830 -0.90111541 1.40907929
VERTEX2 284 -6.71879926 -0.27716631 1.43645109
VERTEX2 285 -6.65195767 0.37336771 1.45764116
VERTEX2 286 -6.58567465 0.99614448 1.51136273
VERTEX2 287 -6.58281537 1.04853177 1.40710901
VERTEX2 288 -6.57876502 1.05579235 0.79896619
VERTEX2 289 -6.57598628 1.05715486 0.20598366
VERTEX2 290 -6.13635484 1.04886710 -0.01884924
VERTEX2 291 -5.51434288 1.04173501 -0.00492622
VERTEX2 292 -4.89833670 1.02246044 -0.05960614
VERTEX2 293 -4.27381135 0.97761618 -0.08270772
VERTEX2 294 -3.65287699 0.92570699 -0.08206616
VERTEX2 295 -3.03136037 0.84563881 -0.19461243
VERTEX2 296 -2.41505751 0.70117239 -0.24006835
VERTEX2 297 -1.80096229 0.54975339 -0.25182296
VERTEX2 298 -1.19034696 0.39536692 -0.25253251
VERTEX2 299 -0.61625905 0.23859270 -0.19141206
VERTEX2 300 -0.02996701 0.15257119 -0.14929368
VERTEX2 301 0.53181103 0.05264392 -0.20853602
VERTEX2 302 0.83310852 -0.01241936 -0.22950999
VERTEX2 303 0.81497877 -0.00879915 -0.22544076
VERTEX2 304 1.31491575 -0.12471867 -0.21596655
VERTEX2 305 1.92978081 -0.16980197 -0.03222176
VERTEX2 306 2.55919177 -0.18117621 -0.05038454
VERTEX2 307 3.19834651 -0.22985572 -0.08718913
VERTEX2 308 3.82594339 -0.29364069 -0.14288745
VERTEX2 309 4.46085668 -0.35488920 -0.05008638
VERTEX2 310 5.08847541 -0.38573272 -0.08608844
VERTEX2 311 5.36947229 -0.41208390 0.08881461
VERTEX2 312 5.36644350 -0.41366309 1.07635388
VERTEX2 313 5.37113105 -0.19497564 1.57191992
VERTEX2 314 5.35178294 0.43351134 1.61164817
VERTEX2 315 5.32345237 1.06139095 1.60726891
VERTEX2 316 5.28383722 1.70647112 1.65844728
VERTEX2 317 5.22301119 2.34820392 1.66824466
VERTEX2 318 5.12472825 2.98533302 1.76261660
VERTEX2 319 5.04533063 3.33240392 1.83380910
VERTEX2 320 5.04739230 3.33877789 2.80183294
VERTEX2 321 5.03943774 3.33535971 -2.44215213
VERTEX2 322 5.03855518 3.33353946 -1.44642118
VERTEX2 323 5.04910897 3.32336150 -0.45447870
VERTEX2 324 5.05362619 3.32188601 0.20504201
VERTEX2 325 5.05505539 3.32199865 -0.32293441
VERTEX2 326 5.07044425 3.31041831 -0.91847738
VERTEX2 327 5.07379837 3.29456929 -1.54219379
VERTEX2 328 5.05738873 2.65678733 -1.58886997
VERTEX2 329 5.03534314 2.03026172 -1.64527680
VERTEX2 330 4.98094915 1.41514045 -1.66574726
VERTEX2 331 4.92554954 0.79872848 -1.68149043
VERTEX2 332 4.84569651 0.18540486 -1.70147240
VERTEX2 333 4.82387435 0.03107608 -1.63799786
VERTEX2 334 4.83273846 0.03275952 -0.84471230
VERTEX2 335 4.84977122 0.02770890 0.14630491
VERTEX2 336 4.86262885 0.03221490 1.08747562
VERTEX2 337 4.86759040 0.06302404 2.06647841
VERTEX2 338 4.86425310 0.06534438 3.05597645
VERTEX2 339 4.87533814 0.07221916 -2.17726354
VERTEX2 340 4.87551023 0.07086254 -1.15745406
VERTEX2 341 4.98833722 0.00269853 -0.52372003
VERTEX2 342 5.56077798 -0.30206489 -0.42162279
VERTEX2 343 6.13509912 -0.50261522 -0.29043929
VERTEX2 344 6.71983823 -0.68530865 -0.30016619
VERTEX2 345 6.95387202 -0.75454921 -0.32732666
VERTEX2 346 6.93623354 -0.74873576 -0.97378243
VERTEX2 347 6.93860231 -0.84234462 -1.53172586
VERTEX2 348 6.95468268 -1.43819744 -1.54811835
VERTEX2 349 6.95063464 -2.05861422 -1.58761613
VERTEX2 350 6.93532876 -2.84754199 -1.60655187
VERTEX2 351 6.92026492 -3.12198125 -1.63482262
VERTEX2 352 6.91841617 -3.13067441 -1.92151518
VERTEX2 353 6.90791380 -3.14348777 -2.58424785
VERTEX2 354 6.89761003 -3.14641997 3.09803871
VERTEX2 355 6.88132668 -3.14584501 2.37992881
VERTEX2 356 6.87675945 -3.13774076 1.80707806
VERTEX2 357 6.87941814 -3.12201200 1.15664921
VERTEX2 358 6.88143447 -3.11918149 0.54372111
VERTEX2 359 6.87282059 -3.12286542 -0.06778216
VERTEX2 360 6.86210281 -3.12073556 -0.24274590
VERTEX2 361 6.85750699 -3.12194510 0.68021073
VERTEX2 362 6.94297986 -2.89015839 1.21619000
VERTEX2 363 7.04612171 -2.62107191 1.21065577
VERTEX2 364 6.97716287 -2.28597171 1.82763558
VERTEX2 365 6.92188767 -1.99785375 1.33253499
VERTEX2 366 7.03204833 -1.87311128 0.78058509
VERTEX2 367 7.47958656 -1.43609801 0.78352645
VERTEX2 368 7.93488892 -1.00068970 0.73572848
VERTEX2 369 7.95344548 -0.97825140 0.48411808
VERTEX2 370 7.97958572 -0.97404903 -0.10219090
VERTEX2 371 7.98964746 -0.97922073 -0.64725357
VERTEX2 372 8.41749171 -1.32598918 -0.67521532
VERTEX2 373 8.88897626 -1.68915955 -0.67350597
VERTEX2 374 9.36679604 -2.09062963 -0.73496659
VERTEX2 375 9.72654564 -2.41029091 -0.76584809
VERTEX2 376 9.73838101 -2.41751833 -0.07318585
VERTEX2 377 9.78863335 -2.38172581 0.61998697
VERTEX2 378 10.32363429 -1.98374427 0.67289276
VERTEX2 379 10.80288246 -1.55334085 0.75635893
VERTEX2 380 11.24242504 -1.08669395 0.87428930
VERTEX2 381 11.38849653 -0.90659681 1.02271153
VERTEX2 382 11.38977948 -0.90426030 2.06771571
VERTEX2 383 11.38719098 -0.90267721 3.05464861
VERTEX2 384 11.38478816 -0.90495386 -2.26473557
VERTEX2 385 11.37981668 -0.91330623 -1.23456737
VERTEX2 386 11.48380825 -1.04842481 -1.00960106
VERTEX2 387 11.93918795 -1.47009133 -0.67780478
VERTEX2 388 12.40038110 -1.82551218 -0.67103411
VERTEX2 389 12.83629630 -2.20016475 -0.75590696
VERTEX2 390 12.84639955 -2.20900860 -0.28612205
VERTEX2 391 12.66030980 -2.20085402 0.08927533
VERTEX2 392 12.60482331 -2.20145295 1.11831778
VERTEX2 393 12.60571106 -2.13701011 2.35406682
VERTEX2 394 12.54000486 -2.10976640 -2.94848535
VERTEX2 395 12.73206479 -2.00903695 -2.61595479
VERTEX2 396 12.70994303 -2.02032373 -2.61852084
VERTEX2 397 12.67158563 -2.02890921 -2.63207194
VERTEX2 398 12.65540442 -2.04231592 -2.43848793
VERTEX2 399 12.58046667 -2.14783348 -2.14422608
VERTEX2 400 12.22433278 -2.70101676 -2.09677456
VERTEX2 401 11.87873915 -3.24079271 -2.19102624
VERTEX2 402 11.40106271 -3.69470108 -2.46041259
VERTEX2 403 10.88642952 -4.10185317 -2.49588201
VERTEX2 404 10.38093804 -4.45834595 -2.57635478
VERTEX2 405 10.36330998 -4.47395198 -2.04540864
VERTEX2 406 10.35914150 -4.43523579 -1.07211099
VERTEX2 407 10.53709117 -4.68877584 -0.94572474
VERTEX2 408 10.86113065 -5.15039830 -0.98508878
VERTEX2 409 10.99155829 -5.36010220 -1.08622143
VERTEX2 410 10.98345441 -5.32654579 -1.71746533
VERTEX2 411 11.15437887 -4.89471068 -2.57314660
VERTEX2 412 10.60396319 -5.11555099 -2.77803839
VERTEX2 413 9.96806149 -5.33185611 -2.85906483
VERTEX2 414 9.32574063 -5.53670179 -2.75674269
VERTEX2 415 8.71872578 -5.77450129 -2.74923096
VERTEX2 416 8.43030625 -5.90282702 -2.80388581
VERTEX2 417 8.13639675 -5.88698092 3.05585253
VERTEX2 418 7.69612852 -5.84406682 3.01121895
VERTEX2 419 7.69705229 -5.84386133 -2.83996215
VERTEX2 420 7.74842244 -5.82098510 -2.62306666
VERTEX2 421 7.74954640 -5.81922437 -1.65343391
VERTEX2 422 7.74461866 -5.82614506 -0.41164879
VERTEX2 423 7.74584181 -5.82626335 -0.06512590
VERTEX2 424 7.74160725 -5.82633461 -0.06408105
VERTEX2 425 7.73137158 -5.83212502 -0.05166231
VERTEX2 426 7.72697154 -5.83224316 -0.06010035
VERTEX2 427 7.75510988 -5.83368208 -0.05630240
VERTEX2 428 8.41283909 -5.85422718 -0.06114988
VERTEX2 429 9.05307753 -5.90252535 -0.10126853
VERTEX2 430 9.39062397 -5.94225740 -0.14670293
VERTEX2 431 9.36413297 -5.93912607 -0.09411953
VERTEX2 432 9.37306332 -5.94225943 -0.72454781
VERTEX2 433 9.37793983 -5.94892741 -1.40048876
VERTEX2 434 9.34214080 -6.48797971 -1.62793720
VERTEX2 435 9.31101654 -7.13084087 -1.65570928
VERTEX2 436 9.23421686 -7.77107353 -1.66396702
VERTEX2 437 9.18319595 -8.42107371 -1.65548670
VERTEX2 438 9.13234436 -8.88963339 -1.68541761
VERTEX2 439 9.13061839 -8.89616304 -2.12012413
VERTEX2 440 9.13696916 -8.89115933 -2.76155421
VERTEX2 441 9.15303065 -8.88953700 2.90127227
VERTEX2 442 9.16023983 -8.89345240 2.27357003
VERTEX2 443 9.16035129 -8.89530550 1.70822250
VERTEX2 444 9.16326337 -8.87983366 1.11828084
VERTEX2 445 9.16823172 -8.87507328 0.46185154
VERTEX2 446 9.16641736 -8.87620534 0.66416353
VERTEX2 447 9.17784610 -8.85396600 1.29727031
VERTEX2 448 9.32690551 -8.23229692 1.31493684
VERTEX2 449 9.45889814 -7.59614787 1.41644614
VERTEX2 450 9.55213029 -6.95942855 1.43025027
VERTEX2 451 9.60434984 -6.48905537 1.47288742
VERTEX2 452 9.60444439 -6.48806221 1.09485047
VERTEX2 453 9.60113430 -6.49406163 0.47268139
VERTEX2 454 9.86109747 -6.47402147 0.05062307
VERTEX2 455 10.45905073 -6.44912325 0.03004713
VERTEX2 456 11.09054586 -6.44417675 -0.03455408
VERTEX2 457 11.44383050 -6.46639442 -0.12228430
VERTEX2 458 11.43874574 -6.46387162 -0.76819815
VERTEX2 459 11.43014602 -6.42913166 -1.37642456
VERTEX2 460 11.40971461 -6.82756442 -1.63343583
VERTEX2 461 11.34135856 -7.44407065 -1.72137635
VERTEX2 462 11.25418355 -7.95355644 -1.76138118
VERTEX2 463 11.26534617 -7.93166078 -0.92110865
VERTEX2 464 11.52033463 -8.00399896 -0.24299159
VERTEX2 465 12.10372506 -8.13658586 -0.23523679
VERTEX2 466 12.65688731 -8.28745281 -0.29086495
VERTEX2 467 13.22745031 -8.46890613 -0.33431345
VERTEX2 468 13.84214855 -8.68698524 -0.36960530
VERTEX2 469 14.43365824 -8.95225164 -0.45227065
VERTEX2 470 14.88770964 -9.16752022 -0.43312993
VERTEX2 471 14.89601979 -9.17201628 -0.63255940
VERTEX2 472 14.91322422 -9.19598197 -1.26434840
VERTEX2 473 14.91472401 -9.20332382 -1.90405457
VERTEX2 474 14.91290915 -9.20560459 -2.53451688
VERTEX2 475 14.91480748 -9.20534271 -3.10813081
VERTEX2 476 14.91677392 -9.20560748 2.52402737
VERTEX2 477 14.92120934 -9.21427380 1.96466199
VERTEX2 478 14.92197934 -9.22428259 1.33778059
VERTEX2 479 14.92083691 -9.22690577 0.88361711
VERTEX2 480 14.92099474 -9.22654637 1.44579899
VERTEX2 481 14.91737418 -9.21093620 2.44807830
VERTEX2 482 14.92141189 -9.21255486 2.78428893
VERTEX2 483 14.92899263 -9.21524071 2.77889588
VERTEX2 484 14.50389029 -9.05735770 2.81440949
VERTEX2 485 13.90541805 -8.86849262 2.81210152
VERTEX2 486 13.30424844 -8.65561660 2.82163833
VERTEX2 487 12.69444634 -8.47598848 2.84992657
VERTEX2 488 12.08235121 -8.29448501 2.88606017
VERTEX2 489 11.61231870 -8.18680727 2.91650292
VERTEX2 490 11.61733640 -8.18632131 -2.88152970
VERTEX2 491 11.62513400 -8.17603735 -1.94532975
VERTEX2 492 11.60846749 -8.40527463 -1.64226057
VERTEX2 493 11.54678426 -9.00866057 -1.69729426
VERTEX2 494 11.45972926 -9.61934533 -1.75819635
VERTEX2 495 11.39072347 -10.24231722 -1.65103770
VERTEX2 496 11.34706649 -10.86656797 -1.53332545
VERTEX2 497 11.34023400 -11.48432565 -1.61938961
VERTEX2 498 11.27172628 -12.10564879 -1.72121652
VERTEX2 499 11.14123162 -12.73198064 -1.73825120
VERTEX2 500 11.19917327 -13.29865849 -1.40935143
VERTEX2 501 11.27387994 -13.87769791 -1.48146734
VERTEX2 502 11.29800014 -14.57283835 -1.56597367
VERTEX2 503 11.29360392 -15.01941277 -1.58296230
VERTEX2 504 11.29882398 -15.00468174 -0.72660741
VERTEX2 505 11.53650621 -15.03187759 -0.10488631
VERTEX2 506 12.12828757 -15.11386102 -0.25745514
VERTEX2 507 12.70920023 -15.28397663 -0.33601662
VERTEX2 508 13.27802170 -15.49577667 -0.34929090
VERTEX2 509 13.89739158 -15.72945898 -0.40519937
VERTEX2 510 14.25356036 -15.88862274 -0.41910159
VERTEX2 511 14.25181157 -15.87149692 0.45626279
VERTEX2 512 14.27353104 -15.82576871 1.65361040
VERTEX2 513 14.27008812 -15.81560329 2.60911426
VERTEX2 514 14.20249240 -15.79660530 2.83540071
VERTEX2 515 13.59213545 -15.61539185 2.83651846
VERTEX2 516 13.00729562 -15.42108036 2.85242938
VERTEX2 517 12.41449713 -15.27268941 2.88063643
VERTEX2 518 11.82204362 -15.12116450 2.90500047
VERTEX2 519 11.30008190 -14.99696133 2.88931586
VERTEX2 520 11.13219665 -14.95314397 -2.99540746
VERTEX2 521 11.15435606 -14.92874853 -1.99171455
VERTEX2 522 11.08870558 -15.32480780 -1.72741543
VERTEX2 523 10.99691288 -15.94497810 -1.73478284
VERTEX2 524 10.89271306 -16.51898766 -1.77668922
VERTEX2 525 10.78843224 -17.06109219 -1.75301678
VERTEX2 526 10.67190338 -17.62987647 -1.81178572
VERTEX2 527 10.52377164 -18.20884370 -1.84656580
VERTEX2 528 10.34115054 -18.77527006 -1.92250797
VERTEX2 529 10.12854936 -19.37685429 -1.95083758
VERTEX2 530 9.88089878 -19.97567668 -1.98095429
VERTEX2 531 9.61080271 -20.55011344 -2.06081480
VERTEX2 532 9.51273725 -20.73568031 -2.01024335
VERTEX2 533 9.51025344 -20.72354502 -1.01049035
VERTEX2 534 9.51086287 -20.72393345 -0.34346051
VERTEX2 535 9.51422908 -20.72422324 -0.34381911
VERTEX2 536 9.87066522 -20.80824937 -0.21309582
VERTEX2 537 10.47695322 -20.95687165 -0.27108765
VERTEX2 538 11.03653887 -21.12625348 -0.29819858
VERTEX2 539 11.64407894 -21.33545606 -0.36296404
VERTEX2 540 12.23038351 -21.58881107 -0.45585587
VERTEX2 541 12.81706813 -21.81698429 -0.29355237
VERTEX2 542 13.44767914 -21.95911803 -0.23785063
VERTEX2 543 13.56920327 -21.98965084 -0.26751694
VERTEX2 544 13.59039823 -21.98749838 0.36948926
VERTEX2 545 13.61404410 -21.94459350 1.43567133
VERTEX2 546 13.63142954 -21.98990503 2.26269435
VERTEX2 547 13.63969275 -21.98935527 -2.99883655
VERTEX2 548 13.65326906 -21.98065554 -2.07595765
VERTEX2 549 13.65493445 -21.96936856 -1.26935986
VERTEX2 550 13.65373590 -21.94847778 -1.74916314
VERTEX2 551 13.66220344 -21.93134514 -2.37554124
VERTEX2 552 13.68056195 -21.92221719 -3.00800504
VERTEX2 553 13.54365765 -21.86979560 2.69789061
VERTEX2 554 12.95197844 -21.58547030 2.66242862
VERTEX2 555 12.37307777 -21.31024752 2.75129693
VERTEX2 556 11.76920861 -21.09156731 2.88639327
VERTEX2 557 11.16907462 -20.92045214 2.84517772
VERTEX2 558 10.59304303 -20.76317224 2.92620160
VERTEX2 559 10.60046544 -20.76568069 2.51923780
VERTEX2 560 10.59324056 -20.75776499 2.01830010
VERTEX2 561 10.56993980 -20.73512539 2.52351903
VERTEX2 562 10.39150884 -20.73504476 -3.11610964
VERTEX2 563 9.82115240 -20.65635633 2.97525415
VERTEX2 564 9.21618275 -20.56464162 3.02402012
VERTEX2 565 8.62560648 -20.49310818 2.96642665
VERTEX2 566 8.68643608 -20.51206355 -2.53325248
VERTEX2 567 8.59239272 -20.51897666 -1.73968731
VERTEX2 568 8.54096438 -21.02737785 -1.67573898
VERTEX2 569 8.48911725 -21.60264784 -1.71490670
VERTEX2 570 8.41985525 -22.18300624 -1.71016012
VERTEX2 571 8.36706526 -22.53828967 -1.75762733
VERTEX2 572 8.33315896 -22.56303900 -2.00080629
VERTEX2 573 8.29806343 -22.64244446 -1.72446126
VERTEX2 574 8.31848285 -22.67118500 -0.78498174
VERTEX2 575 8.47274760 -22.72168201 0.13589673
VERTEX2 576 8.47214201 -22.72119703 1.16357436
VERTEX2 577 8.46546761 -22.70352297 2.13568736
VERTEX2 578 8.45597117 -22.67135920 1.77153134
VERTEX2 579 8.33148440 -22.01952739 1.78657149
VERTEX2 580 8.17004402 -21.37989963 1.86173861
VERTEX2 581 7.97593637 -20.75623886 1.90414427
VERTEX2 582 7.75436799 -20.14163291 1.94730868
VERTEX2 583 7.62442633 -19.83320774 2.02671093
VERTEX2 584 7.61882719 -19.82233740 2.87065797
VERTEX2 585 7.03506373 -19.68209406 2.98910570
VERTEX2 586 6.44074809 -19.60751170 3.08682594
VERTEX2 587 5.82137377 -19.59662693 3.11239293
VERTEX2 588 5.19104757 -19.57080750 3.11702062
VERTEX2 589 4.65272855 -19.59552007 -3.09079972
VERTEX2 590 4.10349930 -19.63959852 -3.02205968
VERTEX2 591 3.56461554 -19.71850776 -3.02395282
VERTEX2 592 3.01672397 -19.79286521 -3.02667816
VERTEX2 593 2.83923621 -19.81515609 -2.82141432
VERTEX2 594 2.88153239 -19.76964697 -1.90215637
VERTEX2 595 2.76811394 -20.37657189 -1.66930381
VERTEX2 596 2.71530680 -21.00051719 -1.69242495
VERTEX2 597 2.62317757 -21.67513305 -1.73234276
VERTEX2 598 2.51999808 -22.27342187 -1.77449479
VERTEX2 599 2.43145423 -22.65065680 -1.84066767
VERTEX2 600 2.43163662 -22.66680136 -1.03408949
VERTEX2 601 2.47160537 -22.69145151 -0.01589645
VERTEX2 602 2.50639817 -22.67746253 0.99816899
VERTEX2 603 2.47205988 -22.44240516 1.77081970
VERTEX2 604 2.41212873 -21.82978584 1.52673227
VERTEX2 605 2.42169248 -21.18338863 1.60936820
VERTEX2 606 2.38195489 -20.53723735 1.65149748
VERTEX2 607 2.39361622 -19.94865404 1.57053494
VERTEX2 608 2.38091244 -19.56400058 1.61507603
VERTEX2 609 2.37739895 -19.54323403 1.95150868
VERTEX2 610 2.36944013 -19.54034721 2.88441671
VERTEX2 611 1.77408922 -19.38947582 2.88749824
VERTEX2 612 1.30160998 -19.25444336 2.89042429
VERTEX2 613 1.33692488 -19.26526419 -2.92874356
VERTEX2 614 1.34297902 -19.26069258 -1.89030022
VERTEX2 615 1.35456258 -19.74607087 -1.58556945
VERTEX2 616 1.35995454 -20.36784580 -1.63661127
VERTEX2 617 1.22080167 -20.97028936 -1.85350755
VERTEX2 618 1.05033716 -21.57547379 -1.84319570
VERTEX2 619 0.88830246 -22.14617444 -1.84437861
VERTEX2 620 0.70375248 -22.72123262 -1.94024981
VERTEX2 621 0.83312677 -22.38855719 -1.99149897
VERTEX2 622 0.95694545 -22.12494172 -2.06622321
VERTEX2 623 0.95638501 -22.12569877 -2.60272344
VERTEX2 624 0.92695778 -22.12536109 3.03852523
VERTEX2 625 0.88543529 -22.10853032 2.38066802
VERTEX2 626 0.85741465 -22.07628864 1.76327464
VERTEX2 627 0.93059945 -21.70458695 1.35290309
VERTEX2 628 1.11038118 -21.07828192 1.25212468
VERTEX2 629 1.28309132 -20.45130606 1.32318759
VERTEX2 630 1.40966591 -19.84410328 1.40817625
VERTEX2 631 1.48272502 -19.31480588 1.42822306
VERTEX2 632 1.48542701 -19.29896814 2.10395776
VERTEX2 633 1.38729423 -19.29221123 -3.09316164
VERTEX2 634 0.71998090 -19.32848300 -3.06580320
VERTEX2 635 0.06691660 -19.33863744 3.08232441
VERTEX2 636 -0.57471539 -19.30952604 3.06472036
VERTEX2 637 -1.20282076 -19.23468279 2.96541090
VERTEX2 638 -1.59452342 -19.15447544 2.93584511
VERTEX2 639 -2.20469320 -19.05117842 3.01617405
VERTEX2 640 -2.81905634 -18.94166761 2.94827364
VERTEX2 641 -3.41884076 -18.83048168 2.93993997
VERTEX2 642 -3.99432747 -18.69299239 2.89460626
VERTEX2 643 -4.47571356 -18.55621184 2.82714078
VERTEX2 644 -4.47971257 -18.55710135 -2.69928579
VERTEX2 645 -4.51622617 -18.69808949 -1.92180290
VERTEX2 646 -4.65382447 -19.30720851 -1.62643334
VERTEX2 647 -4.61090138 -19.94947421 -1.33758277
VERTEX2 648 -4.38854503 -20.57447917 -1.17129767
VERTEX2 649 -4.21548782 -21.17309797 -1.50889196
VERTEX2 650 -4.31671476 -21.80136619 -1.76624850
VERTEX2 651 -4.33432241 -21.94678696 -0.96683047
VERTEX2 652 -4.27161156 -21.97506449 0.05814307
VERTEX2 653 -4.22558912 -21.93381301 1.08858702
VERTEX2 654 -4.23429767 -21.63752109 1.60176352
VERTEX2 655 -4.24411690 -21.08448944 1.59676011
VERTEX2 656 -4.24265421 -20.48277274 1.58413090
VERTEX2 657 -4.34884136 -19.87149942 1.86076890
VERTEX2 658 -4.53859918 -19.25451081 1.85360381
VERTEX2 659 -4.65291153 -18.76115828 1.78244694
VERTEX2 660 -4.65595847 -18.74586266 2.38256351
VERTEX2 661 -4.83425140 -18.72603419 3.03600881
VERTEX2 662 -5.42751078 -18.66608608 3.10561544
VERTEX2 663 -6.01464527 -18.67991794 -3.07653834
VERTEX2 664 -6.02258826 -18.67786542 -2.55332889
VERTEX2 665 -6.03867441 -18.77918816 -1.71959575
VERTEX2 666 -6.11097730 -19.38733028 -1.68245763
VERTEX2 667 -6.16860454 -19.95333747 -1.67783753
VERTEX2 668 -6.23266105 -20.54679071 -1.65205711
VERTEX2 669 -6.28170596 -21.17200907 -1.67718889
VERTEX2 670 -6.38170050 -21.78938093 -1.73666763
VERTEX2 671 -6.42949639 -22.08173194 -1.68168617
VERTEX2 672 -6.32719872 -21.50101016 -1.77080103
VERTEX2 673 -6.26077806 -21.23435396 -1.90135716
VERTEX2 674 -6.24790413 -21.22079084 -2.54950694
VERTEX2 675 -6.22452104 -21.21586590 3.12505202
VERTEX2 676 -6.21849325 -21.21940214 2.50170700
VERTEX2 677 -6.21393062 -21.22571525 1.88585908
VERTEX2 678 -6.18567407 -21.00359202 1.43991277
VERTEX2 679 -6.12103944 -20.42460576 1.50248824
VERTEX2 680 -6.14816295 -19.97627592 1.84736303
VERTEX2 681 -6.29969884 -19.38474309 1.81984610
VERTEX2 682 -6.47132874 -18.77866616 1.86751748
VERTEX2 683 -6.56330509 -18.49632198 2.02667170
VERTEX2 684 -6.51024941 -18.55050289 3.10687819
VERTEX2 685 -6.91427097 -18.71137933 -2.73243678
VERTEX2 686 -7.36154339 -18.84816287 -2.87655590
VERTEX2 687 -7.95604083 -18.99949162 -2.91146113
VERTEX2 688 -8.55381738 -19.11985664 -2.92313539
VERTEX2 689 -9.11797644 -19.25916095 -2.89537186
VERTEX2 690 -9.65370176 -19.42850641 -2.82109470
VERTEX2 691 -10.04861702 -19.56023535 -2.84902999
VERTEX2 692 -10.03380508 -19.55364112 -2.31463590
VERTEX2 693 -10.01084187 -19.62581784 -1.27395404
VERTEX2 694 -9.98668700 -19.69769606 -0.43827099
VERTEX2 695 -9.96756722 -19.69223217 0.36192935
VERTEX2 696 -9.96082256 -19.68780075 1.38766299
VERTEX2 697 -9.97226202 -19.72561323 1.13478196
VERTEX2 698 -9.64153735 -19.51550535 0.48017558
VERTEX2 699 -9.07763298 -19.20065342 0.59428781
VERTEX2 700 -8.56406319 -18.83694494 0.64788612
VERTEX2 701 -8.13225076 -18.47465059 0.70672790
VERTEX2 702 -7.65433488 -18.15935830 0.59122419
VERTEX2 703 -7.14318310 -17.82291191 0.62520544
VERTEX2 704 -6.65107560 -17.44139809 0.64314049
VERTEX2 705 -6.14062673 -17.02061219 0.71336203
VERTEX2 706 -5.71090612 -16.70265048 0.44433737
VERTEX2 707 -5.68558983 -16.70128372 -0.07597863
VERTEX2 708 -5.67535304 -16.70719951 -0.71455187
VERTEX2 709 -5.71489053 -16.66462417 -1.04668006
VERTEX2 710 -5.71906384 -16.65382912 -1.60787495
VERTEX2 711 -5.70929462 -16.66265381 -2.20469192
VERTEX2 712 -5.68930743 -16.64734516 -2.76521266
VERTEX2 713 -6.16228603 -16.69762746 -3.05060827
VERTEX2 714 -6.71548303 -16.67230742 3.03501675
VERTEX2 715 -7.34213723 -16.63506111 3.13862970
VERTEX2 716 -7.97624434 -16.61274256 3.00060259
VERTEX2 717 -8.59735358 -16.54455985 3.08536330
VERTEX2 718 -9.35924857 -16.42554948 2.90999187
VERTEX2 719 -9.97584697 -16.30992803 2.98446482
VERTEX2 720 -10.58829982 -16.19721084 2.92526681
VERTEX2 721 -11.20567833 -16.08105253 2.99349175
VERTEX2 722 -11.22197996 -16.07872083 3.06019779
VERTEX2 723 -11.24244489 -16.09980581 -2.13301997
VERTEX2 724 -11.24258251 -16.14370986 -1.06412608
VERTEX2 725 -11.21513751 -16.16218349 -0.42975734
VERTEX2 726 -10.88943126 -16.15853156 0.02445062
VERTEX2 727 -10.25170711 -16.12106240 0.05520309
VERTEX2 728 -9.61123153 -16.09786078 0.05660030
VERTEX2 729 -8.97323273 -16.03835124 0.11425415
VERTEX2 730 -8.34978736 -15.94698517 0.15177139
VERTEX2 731 -7.70229064 -15.84772924 0.16399286
VERTEX2 732 -7.56108886 -15.81946058 0.61060401
VERTEX2 733 -7.55990469 -15.82139831 1.60721820
VERTEX2 734 -7.61830422 -15.26525385 1.68533817
VERTEX2 735 -7.67888253 -14.66277270 1.65331440
VERTEX2 736 -7.67962899 -14.65160895 2.25287733
VERTEX2 737 -7.67365917 -14.65239593 3.05366471
VERTEX2 738 -8.25274145 -14.61180830 3.07274025
VERTEX2 739 -8.85581459 -14.51677678 3.01512320
VERTEX2 740 -9.35871967 -14.47654508 3.07839505
VERTEX2 741 -9.33860781 -14.47632661 2.70955564
VERTEX2 742 -9.33860483 -14.47634600 2.05678987
VERTEX2 743 -9.34038693 -14.46846367 1.44000051
VERTEX2 744 -9.33069797 -14.44627761 0.90065581
VERTEX2 745 -9.31069732 -14.43581643 0.30718816
VERTEX2 746 -8.76752905 -14.45403363 -0.16766204
VERTEX2 747 -8.12168241 -14.56852777 -0.20289771
VERTEX2 748 -7.54414077 -14.71108023 -0.27120222
VERTEX2 749 -7.46026958 -14.73195332 0.15805639
VERTEX2 750 -7.45005209 -14.71309323 1.08524126
VERTEX2 751 -7.48488572 -14.43970020 1.72559273
VERTEX2 752 -7.54391210 -13.81333991 1.62228136
VERTEX2 753 -7.58277713 -13.17135556 1.68549834
VERTEX2 754 -7.59155306 -12.52751832 1.52339139
VERTEX2 755 -7.57417237 -11.89429292 1.60986278
VERTEX2 756 -7.53814228 -11.25845601 1.43348041
VERTEX2 757 -7.46483594 -10.61308040 1.54538874
VERTEX2 758 -7.48663972 -10.03365218 1.68761345
VERTEX2 759 -7.47743239 -9.48595806 1.56762818
VERTEX2 760 -7.51788101 -8.87426306 1.67902976
VERTEX2 761 -7.52074600 -8.83586031 1.85943603
VERTEX2 762 -7.59692629 -8.80205771 2.69486356
VERTEX2 763 -8.17137430 -8.70104010 2.98771697
VERTEX2 764 -8.59156081 -8.63087349 2.96019332
VERTEX2 765 -8.58080121 -8.63063280 -2.68352312
VERTEX2 766 -8.58249335 -8.63619321 -1.68314257
VERTEX2 767 -8.57742871 -8.64888725 -0.75222972
VERTEX2 768 -8.55027334 -8.65045396 -0.02982423
VERTEX2 769 -7.91471774 -8.55889900 0.12709157
VERTEX2 770 -7.26209777 -8.49712069 0.05997203
VERTEX2 771 -7.17342928 -8.48938065 0.62046950
VERTEX2 772 -7.17028179 -8.47926219 1.48803527
VERTEX2 773 -7.14844184 -7.90095016 1.57385664
VERTEX2 774 -7.16268143 -7.35424315 1.59597382
VERTEX2 775 -7.16177481 -7.35810295 2.44092866
VERTEX2 776 -7.37123239 -7.33330210 3.05837994
VERTEX2 777 -7.98473126 -7.29331988 3.11744101
VERTEX2 778 -8.59756253 -7.28450827 3.09651928
VERTEX2 779 -9.21362193 -7.26479346 3.11464056
VERTEX2 780 -9.42202740 -7.24731289 2.98443165
VERTEX2 781 -9.41900268 -7.24838348 2.41104613
VERTEX2 782 -9.54675814 -6.97651084 1.98150867
VERTEX2 783 -9.78249313 -6.40347152 1.98092064
VERTEX2 784 -9.88208272 -6.17670684 1.95960877
VERTEX2 785 -9.88300553 -6.15190357 1.40766564
VERTEX2 786 -9.87527381 -6.12635365 0.81936554
VERTEX2 787 -9.85829887 -6.10893507 0.32871799
VERTEX2 788 -9.83169797 -6.11071438 -0.30039539
VERTEX2 789 -9.82125310 -6.11889577 -0.85235173
VERTEX2 790 -9.51453596 -6.51377467 -0.91950932
VERTEX2 791 -9.10942566 -6.99527975 -0.82083236
VERTEX2 792 -8.86985473 -7.20838354 -0.11627227
VERTEX2 793 -8.25423051 -7.26049607 -0.07149228
VERTEX2 794 -7.61424290 -7.28926262 -0.00025225
VERTEX2 795 -7.63848683 -7.30709460 0.42919703
VERTEX2 796 -7.64515749 -7.30978255 1.08865253
VERTEX2 797 -7.57087130 -7.00049085 1.34885848
VERTEX2 798 -7.43589373 -6.37415330 1.39902916
VERTEX2 799 -7.34897121 -5.72988641 1.46478726
VERTEX2 800 -7.29503868 -5.08360030 1.53772565
VERTEX2 801 -7.30587834 -4.45208659 1.62369874
VERTEX2 802 -7.35959763 -3.82716954 1.68144510
VERTEX2 803 -7.34213027 -3.19891364 1.51682825
VERTEX2 804 -7.32176189 -2.57191764 1.57277156
VERTEX2 805 -7.35479982 -1.94183394 1.64909899
VERTEX2 806 -7.41457995 -1.34380023 1.69055135
VERTEX2 807 -7.44186673 -1.15914171 1.97866454
VERTEX2 808 -7.44669022 -1.15904496 2.92699217
VERTEX2 809 -8.03833665 -1.12987751 3.07167651
VERTEX2 810 -8.65570082 -1.00634463 2.93153465
VERTEX2 811 -9.25465801 -0.89453083 2.92826240
VERTEX2 812 -9.25704241 -0.89406589 -2.62312796
VERTEX2 813 -9.26673748 -0.91568269 -1.64779644
VERTEX2 814 -9.26057734 -0.92055844 -0.65554717
VERTEX2 815 -9.23641406 -0.92870406 0.26373890
VERTEX2 816 -9.22762139 -0.92389501 0.94490373
VERTEX2 817 -9.21626536 -0.91675043 0.27614967
VERTEX2 818 -8.99411604 -0.95065017 -0.21273152
VERTEX2 819 -8.40324442 -1.07838628 -0.19860319
VERTEX2 820 -7.80994484 -1.21020670 -0.23982799
VERTEX2 821 -7.26413272 -1.34108244 -0.22402429
VERTEX2 822 -7.21629067 -1.34835348 0.53757399
VERTEX2 823 -7.21493763 -1.33398094 1.45692583
VERTEX2 824 -7.15118989 -0.71228199 1.37762277
VERTEX2 825 -7.00737366 -0.08922223 1.34798637
VERTEX2 826 -6.95033011 0.54243192 1.51096968
VERTEX2 827 -6.88648434 1.16581759 1.46235438
VERTEX2 828 -6.83236476 1.79661907 1.49792026
VERTEX2 829 -6.77182331 2.40041105 1.45819442
VERTEX2 830 -6.69734357 3.00952991 1.44989162
VERTEX2 831 -6.60361560 3.58698980 1.40311371
VERTEX2 832 -6.51382394 4.15012999 1.39956197
VERTEX2 833 -6.47000153 4.40557270 1.53723491
VERTEX2 834 -6.47198940 4.41260022 2.59194985
VERTEX2 835 -6.48530251 4.41412380 -2.91352775
VERTEX2 836 -6.49759705 4.40372479 -1.97041576
VERTEX2 837 -6.49419865 4.38524870 -0.93400014
VERTEX2 838 -6.48274877 4.37812728 -0.07176076
VERTEX2 839 -6.48250291 4.37801112 -0.29001093
VERTEX2 840 -6.47172706 4.36957842 -0.85263405
VERTEX2 841 -6.46415737 4.35439007 -1.46969264
VERTEX2 842 -6.49017319 4.10843918 -1.70050833
VERTEX2 843 -6.56808375 3.54447081 -1.70303491
VERTEX2 844 -6.64296371 2.91852390 -1.71105662
VERTEX2 845 -6.73638829 2.29307503 -1.72578383
VERTEX2 846 -6.82191110 1.66341349 -1.72406192
VERTEX2 847 -6.93135040 1.04155999 -1.75081830
VERTEX2 848 -6.96205474 0.84557887 -1.27037601
VERTEX2 849 -6.96087343 0.84515423 -0.34818157
VERTEX2 850 -6.60536654 0.84198793 0.00522039
VERTEX2 851 -5.97777133 0.81656436 -0.08727474
VERTEX2 852 -5.35299987 0.75595094 -0.07285298
VERTEX2 853 -4.75781729 0.71403847 -0.10076398
VERTEX2 854 -4.17022507 0.64682222 -0.09874559
VERTEX2 855 -3.57672161 0.59678486 -0.10073316
VERTEX2 856 -2.92317327 0.51176493 -0.14142049
VERTEX2 857 -2.27079678 0.42305845 -0.15096662
VERTEX2 858 -1.62482391 0.30192097 -0.20548212
VERTEX2 859 -1.10673656 0.19882716 -0.21234338
VERTEX2 860 -1.08067675 0.20959424 0.63843825
VERTEX2 861 -1.06522069 0.31950172 1.55322122
VERTEX2 862 -1.02754174 0.97928702 1.49359383
VERTEX2 863 -0.97077700 1.62365282 1.46110573
VERTEX2 864 -0.88432577 2.23398084 1.45898649
VERTEX2 865 -0.84359226 2.84549893 1.51660713
VERTEX2 866 -0.79937891 3.43149692 1.51548208
VERTEX2 867 -0.79202440 3.59555621 1.69668869
VERTEX2 868 -0.79938373 3.60484736 2.72047211
VERTEX2 869 -0.78882987 3.60500224 -2.58437545
VERTEX2 870 -0.76914319 3.61560434 -1.58492636
VERTEX2 871 -0.75443785 3.60565332 -0.61122654
VERTEX2 872 -0.73603317 3.59238337 0.07403467
VERTEX2 873 -0.70873266 3.58330791 -0.49853850
VERTEX2 874 -0.68748395 3.56413618 -1.05814830
VERTEX2 875 -0.68114620 3.54925021 -1.64466530
VERTEX2 876 -0.80077323 2.99317273 -1.80223372
VERTEX2 877 -0.95268543 2.45116716 -1.88689062
VERTEX2 878 -1.00312342 2.25147924 -1.50393504
VERTEX2 879 -0.90170566 1.61303518 -1.45290992
VERTEX2 880 -0.86596870 1.16400519 -1.56560403
VERTEX2 881 -0.86636480 1.21387085 -1.56026507
VERTEX2 882 -0.92265188 0.57436151 -1.80679483
VERTEX2 883 -1.13816008 -0.02080798 -1.99752617
VERTEX2 884 -1.29656261 -0.35291738 -2.06449958
VERTEX2 885 -1.29653785 -0.35288763 -1.48296166
VERTEX2 886 -1.27944595 -0.36889564 -0.46504329
VERTEX2 887 -1.25097858 -0.37996347 0.54618722
VERTEX2 888 -1.24094400 -0.35884669 1.53020644
VERTEX2 889 -1.24251269 -0.35434930 2.42818720
VERTEX2 890 -1.55812743 -0.20180751 2.70209746
VERTEX2 891 -2.09549688 0.06487545 2.63177715
VERTEX2 892 -2.62922174 0.38410770 2.59621334
VERTEX2 893 -3.18222258 0.67979695 2.83250096
VERTEX2 894 -3.79534095 0.79099016 3.05356004
VERTEX2 895 -4.39497968 0.74210384 -2.93135460
VERTEX2 896 -4.41388617 0.73758709 -2.45284473
VERTEX2 897 -4.69836012 0.31657188 -2.18055775
VERTEX2 898 -5.04995513 -0.19313625 -2.16496442
VERTEX2 899 -5.33659312 -0.60326202 -2.23262848
VERTEX2 900 -5.75009221 -1.14759870 -2.23496940
VERTEX2 901 -6.12184524 -1.59189804 -2.29930734
VERTEX2 902 -6.53816579 -2.08338759 -2.27405576
VERTEX2 903 -6.85442599 -2.46232374 -2.31881684
VERTEX2 904 -6.85523550 -2.46348765 -1.61574177
VERTEX2 905 -6.84185381 -2.95613675 -1.56027568
VERTEX2 906 -6.80844451 -3.52698745 -1.49456799
VERTEX2 907 -6.75275850 -4.10100936 -1.50276319
VERTEX2 908 -6.70703324 -4.72339439 -1.47799772
VERTEX2 909 -6.64705939 -5.33599367 -1.49593737
VERTEX2 910 -6.67482269 -5.46493227 -1.86586450
VERTEX2 911 -6.83530878 -6.03511854 -1.80501987
VERTEX2 912 -6.95692776 -6.59854984 -1.79243007
VERTEX2 913 -7.06961203 -7.13996218 -1.78452438
VERTEX2 914 -7.19628954 -7.72755382 -1.80820972
VERTEX2 915 -7.32034985 -8.23608203 -1.84495125
VERTEX2 916 -7.25618200 -8.48052548 -1.29746862
VERTEX2 917 -7.11777000 -9.12983784 -1.55191869
VERTEX2 918 -7.13847150 -9.64780785 -1.62747738
VERTEX2 919 -7.17271717 -10.27156952 -1.67081970
VERTEX2 920 -7.23786754 -10.88560891 -1.68843134
VERTEX2 921 -7.31186537 -11.50084336 -1.74180338
VERTEX2 922 -7.41507250 -12.10449157 -1.76904450
VERTEX2 923 -7.53587876 -12.67073542 -1.83254129
VERTEX2 924 -7.66840000 -13.16393851 -1.81591476
VERTEX2 925 -7.66918649 -13.15997857 -1.31120991
VERTEX2 926 -7.50960297 -13.72299482 -1.29502596
VERTEX2 927 -7.34323620 -14.31460873 -1.31835484
VERTEX2 928 -7.18598639 -14.92164471 -1.32731203
VERTEX2 929 -7.03528342 -15.52583496 -1.32823944
VERTEX2 930 -6.88861102 -16.15655340 -1.41084175
VERTEX2 931 -6.80296781 -16.78262734 -1.49108913
VERTEX2 932 -6.75742344 -17.40941486 -1.55054088
VERTEX2 933 -6.75457283 -18.02162317 -1.61514287
VERTEX2 934 -6.76977547 -18.50396930 -1.62501918
VERTEX2 935 -6.76681447 -18.51777730 -0.94303995
VERTEX2 936 -6.76485588 -18.51846760 0.00200611
VERTEX2 937 -6.22258028 -18.49408401 0.06485030
VERTEX2 938 -5.62635868 -18.51103136 -0.10859512
VERTEX2 939 -5.00232650 -18.57185196 -0.08090924
VERTEX2 940 -4.39017867 -18.64812909 -0.16679422
VERTEX2 941 -3.78518400 -18.76481170 -0.22046600
VERTEX2 942 -3.26629679 -18.88159167 -0.21598475
VERTEX2 943 -2.65698533 -19.01667513 -0.12767046
VERTEX2 944 -2.04368350 -19.10093942 -0.18433650
VERTEX2 945 -1.42146519 -19.23129609 -0.23946461
VERTEX2 946 -1.24563461 -19.27651438 -0.17514299
VERTEX2 947 -0.83612414 -19.21440340 0.15308564
VERTEX2 948 -0.26237767 -19.12643177 0.13393661
VERTEX2 949 0.34177481 -19.09342139 -0.02173103
VERTEX2 950 0.97322382 -19.13134283 -0.26125476
VERTEX2 951 1.57658870 -19.30626643 -0.33340495
VERTEX2 952 2.17967317 -19.48420403 -0.08262061
VERTEX2 953 2.81056191 -19.51757302 -0.00233659
VERTEX2 954 3.43579457 -19.51188843 -0.00934067
VERTEX2 955 4.02593865 -19.55909088 -0.17016848
VERTEX2 956 4.57731518 -19.63914415 -0.17246564
VERTEX2 957 5.10944236 -19.73694942 -0.26016375
VERTEX2 958 5.57688740 -19.85077412 -0.28689852
VERTEX2 959 6.00945196 -19.97078708 -0.35399860
VERTEX2 960 6.59853846 -20.13495554 -0.27409196
VERTEX2 961 7.17991050 -20.31039054 -0.30111491
VERTEX2 962 7.79722618 -20.44018129 -0.23548829
VERTEX2 963 8.41479980 -20.52218515 -0.04879569
VERTEX2 964 9.03699960 -20.56484312 -0.11267711
VERTEX2 965 9.65480915 -20.64501291 -0.11955700
VERTEX2 966 10.09847773 -20.70422350 -0.17852493
VERTEX2 967 10.13151787 -20.69756096 0.67489706
VERTEX2 968 10.13959255 -20.68994600 1.57165614
VERTEX2 969 10.14193685 -20.71759095 1.63112485
VERTEX2 970 10.14441680 -20.74547907 1.62939338
VERTEX2 971 10.12407969 -20.41215398 1.62952615
VERTEX2 972 10.08559841 -19.82554221 1.63513843
VERTEX2 973 10.16526425 -19.24341970 1.35010900
VERTEX2 974 10.30464576 -18.64172333 1.38188586
VERTEX2 975 10.41615965 -18.03592736 1.38644168
VERTEX2 976 10.52094180 -17.42748276 1.39928402
VERTEX2 977 10.65648845 -16.80962152 1.37301252
VERTEX2 978 10.77726980 -16.19798726 1.41898716
VERTEX2 979 10.89186227 -15.59022197 1.40671113
VERTEX2 980 10.98939743 -14.98561266 1.45363072
VERTEX2 981 11.07782734 -14.39158601 1.46053507
VERTEX2 982 11.13380707 -13.86424166 1.50550317
VERTEX2 983 11.18274826 -13.26567044 1.50212746
VERTEX2 984 11.20929865 -12.66956860 1.55949994
VERTEX2 985 11.21949822 -12.07253090 1.57978402
VERTEX2 986 11.20385030 -11.45190811 1.61611985
VERTEX2 987 11.19048359 -10.83277356 1.57942539
VERTEX2 988 11.19253520 -10.21397211 1.59313057
VERTEX2 989 11.17735071 -9.59988721 1.60075201
VERTEX2 990 11.17002491 -8.98910443 1.58995763
VERTEX2 991 11.15427229 -8.37482128 1.61478066
VERTEX2 992 11.14876471 -7.78845376 1.58219976
VERTEX2 993 11.13463501 -7.17265327 1.61496914
VERTEX2 994 11.11789757 -6.58761409 1.60505008
VERTEX2 995 11.08532091 -5.98856743 1.65234138
VERTEX2 996 11.02471650 -5.37438919 1.67948331
VERTEX2 997 10.97908498 -4.72164858 1.61507580
VERTEX2 998 10.95883121 -4.31121811 1.63694043
VERTEX2 999 10.98149817 -4.32955537 2.35480098
VERTEX2 1000 10.51384819 -3.96565074 2.50346339
VERTEX2 1001 10.06979695 -3.56117513 2.18254434
VERTEX2 1002 9.69906722 -3.08475690 2.27524025
VERTEX2 1003 9.34568815 -2.58093882 2.09567313
VERTEX2 1004 9.00704087 -2.04466999 2.15389457
VERTEX2 1005 8.65368454 -1.55081187 2.21631395
VERTEX2 1006 8.25821153 -1.07319650 2.29368250
VERTEX2 1007 7.84586070 -0.64759347 2.38533890
VERTEX2 1008 7.61053504 -0.43313850 2.54485993
VERTEX2 1009 7.51311904 -0.41841011 3.01787848
VERTEX2 1010 6.94608540 -0.36267779 3.07041454
VERTEX2 1011 6.33012169 -0.32352848 3.02733485
VERTEX2 1012 5.72037109 -0.26038843 3.06926543
VERTEX2 1013 5.08402350 -0.26304310 -3.09892820
VERTEX2 1014 4.47082377 -0.21505006 3.00899282
VERTEX2 1015 3.84559807 -0.17569611 3.09348814
VERTEX2 1016 3.07575754 -0.13807387 3.10024104
VERTEX2 1017 2.49060592 -0.12463637 3.04307745
VERTEX2 1018 1.93303137 -0.06275613 3.05036484
VERTEX2 1019 1.33834737 -0.03819028 3.10990381
VERTEX2 1020 0.72342381 -0.00212894 3.09594630
VERTEX2 1021 0.10260173 0.02707286 3.05533544
VERTEX2 1022 0.04935429 0.03148428 3.04809949
VERTEX2 1023 0.05651201 0.03134564 3.13468133
VERTEX2 1024 -0.57017844 0.03921868 -3.12218322
VERTEX2 1025 -1.19904062 0.00883591 -3.10462334
VERTEX2 1026 -1.36020797 0.00337818 -3.09746097
VERTEX2 1027 -1.34402070 0.01130456 -2.18097860
VERTEX2 1028 -1.35719714 -0.15488733 -1.61754809
VERTEX2 1029 -1.38608950 -0.72088722 -1.63912017
VERTEX2 1030 -1.44997137 -1.34224461 -1.71957358
VERTEX2 1031 -1.56305330 -1.98761746 -1.77375340
VERTEX2 1032 -1.69407371 -2.63302663 -1.76973332
VERTEX2 1033 -1.83812513 -3.27720640 -1.81490388
VERTEX2 1034 -1.88292841 -3.44807295 -2.02870780
VERTEX2 1035 -1.88824487 -3.45254961 -2.64805205
VERTEX2 1036 -1.85704435 -3.46696618 3.06429929
VERTEX2 1037 -2.19667177 -3.33747031 2.82588410
VERTEX2 1038 -2.80777588 -3.21502615 2.91707732
VERTEX2 1039 -3.44583484 -3.04523559 2.88553004
VERTEX2 1040 -3.41996252 -3.04587015 -2.76762966
VERTEX2 1041 -3.39076806 -3.04972649 -1.75078294
VERTEX2 1042 -3.39260365 -3.08285038 -0.76294722
VERTEX2 1043 -3.35874414 -3.11406656 0.20653519
VERTEX2 1044 -3.37237967 -3.13014416 1.20025134
VERTEX2 1045 -3.37557528 -3.13717346 1.08620462
VERTEX2 1046 -3.38617360 -3.15141217 0.70063874
VERTEX2 1047 -3.40505057 -3.15962161 0.14482747
VERTEX2 1048 -3.04228509 -3.22908455 -0.16819271
VERTEX2 1049 -2.39659510 -3.32786656 -0.15104881
VERTEX2 1050 -1.74916069 -3.39888146 -0.07538288
VERTEX2 1051 -1.09329318 -3.47283551 -0.15452908
VERTEX2 1052 -0.46899564 -3.55431400 -0.10157701
VERTEX2 1053 -0.05125784 -3.60907899 -0.15420620
VERTEX2 1054 -0.02438597 -3.61193516 0.60796164
VERTEX2 1055 -0.01817964 -3.58291001 1.66320744
VERTEX2 1056 -0.00906416 -3.59630883 2.66685343
VERTEX2 1057 0.01640383 -3.59916899 -2.62550635
VERTEX2 1058 0.01440718 -3.60150855 -1.70334801
VERTEX2 1059 -0.08457471 -4.18424225 -1.78410063
VERTEX2 1060 -0.22243806 -4.81422603 -1.77910085
VERTEX2 1061 -0.33061803 -5.26041389 -1.90163747
VERTEX2 1062 -0.33411528 -5.26578217 -2.46586244
VERTEX2 1063 -0.31283993 -5.25367506 -3.06358703
VERTEX2 1064 -0.59293833 -5.20032477 2.95435057
VERTEX2 1065 -1.18021676 -5.13185476 3.07632284
VERTEX2 1066 -1.74300921 -5.07810514 3.02021809
VERTEX2 1067 -1.72831443 -5.07737581 -2.83028533
VERTEX2 1068 -1.71577754 -5.06861642 -2.15747612
VERTEX2 1069 -1.71518551 -5.06703406 -1.98709081
VERTEX2 1070 -1.71373546 -5.06450162 -2.52603324
VERTEX2 1071 -2.18613264 -5.31947361 -2.65324247
VERTEX2 1072 -2.63667219 -5.55102625 -2.72190004
VERTEX2 1073 -2.60734003 -5.55033915 3.05014799
VERTEX2 1074 -3.13684757 -5.47736748 3.01578931
VERTEX2 1075 -3.71399630 -5.39991221 3.03235614
VERTEX2 1076 -3.73234056 -5.39854419 -2.84665691
VERTEX2 1077 -3.74534217 -5.42298246 -2.04094699
VERTEX2 1078 -3.98493926 -6.03226041 -1.99581305
VERTEX2 1079 -4.21880041 -6.59849764 -1.93371378
VERTEX2 1080 -4.22355411 -6.61113780 -2.42135648
VERTEX2 1081 -4.65140549 -6.90233836 -2.54463112
VERTEX2 1082 -4.82136380 -7.02047591 -2.26405193
VERTEX2 1083 -4.81705623 -7.05396660 -1.23390410
VERTEX2 1084 -4.74590505 -7.09075359 -0.26861821
VERTEX2 1085 -4.75154131 -7.09223904 0.71488442
VERTEX2 1086 -4.39136319 -6.60531448 0.94553277
VERTEX2 1087 -4.01182470 -6.10059115 0.93356480
VERTEX2 1088 -3.65091022 -5.59157028 0.91691717
VERTEX2 1089 -3.59543940 -5.52028601 0.82153003
VERTEX2 1090 -3.58564684 -5.51138652 0.20663980
VERTEX2 1091 -3.04840269 -5.48091277 0.02986237
VERTEX2 1092 -2.42985062 -5.46747367 0.01479579
VERTEX2 1093 -1.86133071 -5.47212389 -0.05019402
VERTEX2 1094 -1.84869744 -5.48422029 -0.45416183
VERTEX2 1095 -1.81841686 -5.51121048 -1.04374287
VERTEX2 1096 -1.81848099 -5.51104212 -1.61482673
VERTEX2 1097 -1.90246583 -5.83539225 -1.83019182
VERTEX2 1098 -2.08101582 -6.43107122 -1.88698348
VERTEX2 1099 -2.28977119 -6.99064160 -1.98304301
VERTEX2 1100 -2.29523388 -7.00433693 -1.61993545
VERTEX2 1101 -2.23775709 -7.26687978 -1.35401826
VERTEX2 1102 -2.23842783 -7.27454418 -1.74767581
VERTEX2 1103 -2.36794692 -7.88245240 -1.78143976
VERTEX2 1104 -2.50837923 -8.51662255 -1.80911387
VERTEX2 1105 -2.66599793 -9.13677554 -1.82698247
VERTEX2 1106 -2.79370909 -9.61192780 -1.85218429
VERTEX2 1107 -2.79312716 -9.61897485 -1.59601983
VERTEX2 1108 -2.76538039 -10.24437680 -1.58814640
VERTEX2 1109 -2.82223388 -10.88698079 -1.69203161
VERTEX2 1110 -2.90099276 -11.49321753 -1.74150168
VERTEX2 1111 -3.07432004 -12.02021155 -1.84271976
VERTEX2 1112 -3.11248218 -12.59822021 -1.49620142
VERTEX2 1113 -3.08125966 -13.23657656 -1.59150969
VERTEX2 1114 -3.09326088 -13.85227629 -1.57441469
VERTEX2 1115 -3.09238134 -14.43466264 -1.59054113
VERTEX2 1116 -3.08261779 -15.08223300 -1.55421894
VERTEX2 1117 -3.08013554 -15.17895092 -1.68190830
VERTEX2 1118 -3.07837574 -15.17569103 -2.28895187
VERTEX2 1119 -3.06884988 -15.16914724 -2.72046985
VERTEX2 1120 -3.63190708 -15.37277952 -2.78401632
VERTEX2 1121 -3.82113478 -15.43888563 -2.90251239
VERTEX2 1122 -3.81688872 -15.44035139 2.83051465
VERTEX2 1123 -4.36593736 -15.25452020 2.84751773
VERTEX2 1124 -4.92296194 -15.12490917 2.94635428
VERTEX2 1125 -5.54783642 -14.99852267 2.95993890
VERTEX2 1126 -5.62769641 -14.98554552 -2.98337591
VERTEX2 1127 -5.62356580 -14.98996315 -1.92586531
VERTEX2 1128 -5.62239612 -14.98432787 -0.93827869
VERTEX2 1129 -5.60528078 -14.99392776 0.07756096
VERTEX2 1130 -5.01580233 -14.92994949 0.09136813
VERTEX2 1131 -4.24201844 -15.05619100 -0.34020769
VERTEX2 1132 -3.63169828 -15.27463776 -0.35974538
VERTEX2 1133 -3.08531645 -15.50359449 -0.39828787
VERTEX2 1134 -2.83258847 -15.61021880 -0.49512281
VERTEX2 1135 -2.82204393 -15.62060643 -1.05082509
VERTEX2 1136 -2.82136567 -15.61917996 -1.61244755
VERTEX2 1137 -2.87584308 -15.92085401 -1.79625769
VERTEX2 1138 -3.03165637 -16.55291780 -1.81235989
VERTEX2 1139 -3.15189729 -17.04810381 -1.88537532
VERTEX2 1140 -3.14205444 -17.02467269 -2.36393562
VERTEX2 1141 -3.12070575 -17.00402371 -2.91087552
VERTEX2 1142 -3.48389090 -16.95957172 3.00832441
VERTEX2 1143 -4.08207661 -16.91110739 3.09792414
VERTEX2 1144 -4.66321526 -16.87511642 3.06748942
VERTEX2 1145 -5.24188439 -16.82790094 3.04220313
VERTEX2 1146 -5.81814820 -16.76905629 3.06212409
VERTEX2 1147 -6.39794881 -16.75740409 3.13502947
VERTEX2 1148 -6.97653009 -16.75335924 -3.13812487
VERTEX2 1149 -7.01936208 -16.75454998 -2.63987895
VERTEX2 1150 -7.11186896 -16.85680484 -1.83018752
VERTEX2 1151 -7.10992388 -16.86822693 -0.82623963
VERTEX2 1152 -7.09289903 -16.86856558 0.22701762
VERTEX2 1153 -7.07833512 -16.86202334 1.23993207
VERTEX2 1154 -7.13658567 -16.54508898 1.78600160
VERTEX2 1155 -7.26768992 -15.92057499 1.73666000
VERTEX2 1156 -7.36299483 -15.31476258 1.74668631
VERTEX2 1157 -7.48825531 -14.74359087 1.85780904
VERTEX2 1158 -7.61262855 -14.14138383 1.72926803
VERTEX2 1159 -7.67120121 -13.53842735 1.63525814
VERTEX2 1160 -7.69166873 -12.89895822 1.49854376
VERTEX2 1161 -7.58982230 -12.26782598 1.40888069
VERTEX2 1162 -7.49622138 -11.63637985 1.46702335
VERTEX2 1163 -7.43154684 -10.99389812 1.46160068
VERTEX2 1164 -7.38120090 -10.35334588 1.54708131
VERTEX2 1165 -7.36875798 -9.81371206 1.52428164
VERTEX2 1166 -7.36947079 -9.81021008 2.01329622
VERTEX2 1167 -7.31773228 -9.79775130 2.95002323
VERTEX2 1168 -7.27320649 -9.78014914 -2.42962318
VERTEX2 1169 -7.27728320 -9.83160596 -1.60753619
VERTEX2 1170 -7.28852114 -10.41768166 -1.60078484
VERTEX2 1171 -7.28942360 -11.05253868 -1.56899326
VERTEX2 1172 -7.29471274 -11.65144080 -1.63139426
VERTEX2 1173 -7.32564820 -12.27498847 -1.62223469
VERTEX2 1174 -7.37050650 -12.90369826 -1.69092751
VERTEX2 1175 -7.45758496 -13.51717064 -1.72432115
VERTEX2 1176 -7.55614409 -14.13802465 -1.76799704
VERTEX2 1177 -7.67684196 -14.74678323 -1.76595529
VERTEX2 1178 -7.80911067 -15.35943882 -1.81317322
VERTEX2 1179 -7.94783860 -15.96394650 -1.78383467
VERTEX2 1180 -8.00264377 -16.21781264 -1.79083027
VERTEX2 1181 -8.00185474 -16.21235445 -0.96341925
VERTEX2 1182 -7.94588740 -16.22668741 -0.25174720
VERTEX2 1183 -7.33215001 -16.37693142 -0.22645728
VERTEX2 1184 -6.69909277 -16.49307216 -0.15695990
VERTEX2 1185 -6.07093901 -16.60477856 -0.18926688
VERTEX2 1186 -5.43917717 -16.70103133 -0.12314656
VERTEX2 1187 -4.78506694 -16.78796054 -0.16031403
VERTEX2 1188 -4.15755070 -16.87926782 -0.14228824
VERTEX2 1189 -3.49287213 -16.98828053 -0.12062016
VERTEX2 1190 -3.15981090 -17.02930652 -0.11261521
VERTEX2 1191 -3.12587623 -17.02861779 0.80760477
VERTEX2 1192 -3.12005243 -16.94556991 1.60520990
VERTEX2 1193 -3.11303035 -16.34615509 1.47318753
VERTEX2 1194 -3.07149094 -15.77245561 1.51523938
VERTEX2 1195 -3.04274797 -15.14946489 1.56758592
VERTEX2 1196 -3.03669078 -14.52629489 1.39495326
VERTEX2 1197 -2.93318446 -13.91202790 1.40623453
VERTEX2 1198 -2.86267653 -13.28587049 1.66512105
VERTEX2 1199 -2.87982453 -12.67408518 1.45047258
VERTEX2 1200 -2.82272251 -12.04465521 1.51951328
VERTEX2 1201 -2.79787174 -11.42553908 1.57536581
VERTEX2 1202 -2.80824078 -10.80366482 1.59833223
VERTEX2 1203 -2.83881158 -10.21474276 1.50842848
VERTEX2 1204 -2.72457535 -9.62345835 1.36166463
VERTEX2 1205 -2.61620844 -9.06124905 1.39124754
VERTEX2 1206 -2.53073282 -8.47201354 1.45248789
VERTEX2 1207 -2.39330990 -7.86145634 1.36640082
VERTEX2 1208 -2.28074721 -7.23718482 1.43108977
VERTEX2 1209 -2.19364556 -6.61627993 1.42915456
VERTEX2 1210 -2.12863431 -5.99955718 1.44972830
VERTEX2 1211 -2.00264758 -5.38767833 1.37674458
VERTEX2 1212 -1.88775306 -4.77604154 1.42662657
VERTEX2 1213 -1.82048027 -4.16232059 1.49975531
VERTEX2 1214 -1.73857082 -3.43668681 1.27686382
VERTEX2 1215 -1.57427706 -2.85291152 1.33572616
VERTEX2 1216 -1.52395763 -2.29954124 1.55281845
VERTEX2 1217 -1.48969911 -1.71953760 1.53333163
VERTEX2 1218 -1.47583711 -1.12939670 1.48266263
VERTEX2 1219 -1.42506858 -0.48035423 1.51326063
VERTEX2 1220 -1.41797659 0.10670538 1.60399863
VERTEX2 1221 -1.41743358 0.10487640 1.15124563
VERTEX2 1222 -1.40745394 0.11459069 0.55393863
VERTEX2 1223 -1.39561957 0.11738961 -0.00568837
VERTEX2 1224 -0.82166549 0.02505927 -0.18859637
VERTEX2 1225 -0.20632844 -0.08841338 -0.17483237
VERTEX2 1226 -0.10146698 -0.10704635 -0.19156337
VERTEX2 1227 -0.10146698 -0.10704635 -0.19222537
