VERTEX2 0 -0.00000749 -0.00000078 -0.00000011
VERTEX2 1 -0.00000748 -0.00000078 -0.00064211
VERTEX2 2 -0.00000748 -0.00000078 -0.00118011
VERTEX2 3 0.01099438 -0.00097577 -0.00356211
VERTEX2 4 0.64100095 -0.01120098 -0.00744411
VERTEX2 5 0.69600864 -0.01171648 -0.09872612
VERTEX2 6 0.70026175 -0.01543580 -0.89599812
VERTEX2 7 0.69394902 0.00421268 -1.51153512
VERTEX2 8 0.69925588 0.02669345 -2.12506912
VERTEX2 9 0.71610715 0.04112247 -2.76313913
VERTEX2 10 0.72897367 0.04321986 2.90551518
VERTEX2 11 0.73319626 0.04053682 2.23123618
VERTEX2 12 0.73317897 0.04154527 1.58176217
VERTEX2 13 0.73874513 0.05907036 0.92226417
VERTEX2 14 0.75965066 0.07375057 0.31402517
VERTEX2 15 0.76856406 0.07435751 -0.21090283
VERTEX2 16 1.06248611 0.01415203 -0.22959483
VERTEX2 17 1.66363975 -0.13311480 -0.26082284
VERTEX2 18 2.28699387 -0.29647996 -0.27099984
VERTEX2 19 2.91428975 -0.49425390 -0.31957584
VERTEX2 20 3.50777800 -0.68422490 -0.31366368
VERTEX2 21 4.11675373 -0.83654113 -0.20210932
VERTEX2 22 4.72658372 -0.97785454 -0.18473591
VERTEX2 23 5.36659790 -1.02214428 -0.07734464
VERTEX2 24 5.99818620 -1.09344212 -0.13444056
VERTEX2 25 6.63309318 -1.16124980 -0.13171901
VERTEX2 26 7.24204019 -1.26198500 -0.17229007
VERTEX2 27 7.85793593 -1.35355043 -0.15649959
VERTEX2 28 8.43952735 -1.45241626 -0.16098909
VERTEX2 29 8.81855474 -1.51002992 -0.13026665
VERTEX2 30 8.82772182 -1.51247188 -0.66249660
VERTEX2 31 8.92852657 -1.64785879 -0.93092995
VERTEX2 32 9.29607699 -2.16251798 -0.94951719
VERTEX2 33 9.67898704 -2.67014929 -0.89854847
VERTEX2 34 10.09138644 -3.16164619 -0.87737721
VERTEX2 35 10.51404256 -3.64542142 -0.84300765
VERTEX2 36 10.94338439 -4.13038163 -0.85149649
VERTEX2 37 11.22628896 -4.44592010 -0.84374180
VERTEX2 38 11.22517443 -4.44439823 -1.16529764
VERTEX2 39 11.22505613 -4.44352608 -1.33643683
VERTEX2 40 11.37178222 -5.02243355 -1.31932847
VERTEX2 41 11.52399177 -5.62643857 -1.35148830
VERTEX2 42 11.64827134 -6.19372684 -1.37438332
VERTEX2 43 11.75632369 -6.79240992 -1.41479585
VERTEX2 44 11.84723049 -7.39015188 -1.45200483
VERTEX2 45 11.90249664 -8.01069825 -1.50752269
VERTEX2 46 11.93370631 -8.63348317 -1.52689779
VERTEX2 47 11.95402885 -9.25618729 -1.56854934
VERTEX2 48 11.95071618 -9.88348153 -1.57506163
VERTEX2 49 11.94366186 -10.50675064 -1.62584164
VERTEX2 50 11.89132502 -11.09206761 -1.67066307
VERTEX2 51 11.83645688 -11.68860740 -1.69975584
VERTEX2 52 11.73960434 -12.27174945 -1.77651021
VERTEX2 53 11.63989234 -12.82935533 -1.76419117
VERTEX2 54 11.52711383 -13.34114626 -1.82631206
VERTEX2 55 11.53376546 -13.30922540 -1.82106838
VERTEX2 56 11.53315216 -13.31162333 -1.81052797
VERTEX2 57 11.38935262 -13.92954062 -1.82195691
VERTEX2 58 11.24295280 -14.53570217 -1.77576588
VERTEX2 59 11.11388752 -15.14139204 -1.79937705
VERTEX2 60 10.98419889 -15.74341739 -1.77802590
VERTEX2 61 10.84869886 -16.34591070 -1.82879809
VERTEX2 62 10.69846380 -16.90564455 -1.78893870
VERTEX2 63 10.54643373 -17.47017262 -1.82442364
VERTEX2 64 10.41097364 -18.02931098 -1.76103226
VERTEX2 65 10.27596430 -18.58626389 -1.81245001
VERTEX2 66 10.12188822 -19.17305721 -1.82048372
VERTEX2 67 9.95600879 -19.76333484 -1.81905427
VERTEX2 68 9.84587503 -20.21111482 -1.83485839
VERTEX2 69 9.84897811 -20.20101933 -1.98983209
VERTEX2 70 9.85581619 -20.18795144 -2.66418340
VERTEX2 71 9.87907471 -20.18662510 2.97635293
VERTEX2 72 9.89171548 -20.18818641 2.96687254
VERTEX2 73 9.89909348 -20.19001383 2.90193123
VERTEX2 74 9.89922732 -20.19009107 2.28014255
VERTEX2 75 9.90590092 -20.19270602 1.92780018
VERTEX2 76 9.89424400 -20.17976178 2.62170232
VERTEX2 77 9.88993548 -20.17795138 2.85466368
VERTEX2 78 9.60840453 -20.18839207 -3.09137583
VERTEX2 79 8.99013486 -20.22657717 -3.09664092
VERTEX2 80 8.35820697 -20.22450290 3.11201841
VERTEX2 81 7.73404500 -20.19735788 3.08601164
VERTEX2 82 7.13419020 -20.15600466 3.03190052
VERTEX2 83 6.54531743 -20.10405575 3.00838522
VERTEX2 84 5.98255798 -20.01753878 2.93056751
VERTEX2 85 5.43957206 -19.91293424 2.93784877
VERTEX2 86 4.83007101 -19.79151073 2.84806903
VERTEX2 87 4.44001474 -19.68485378 2.79554527
VERTEX2 88 4.07963909 -19.55072961 2.76571112
VERTEX2 89 4.08967090 -19.55122542 -3.12170716
VERTEX2 90 3.48469078 -19.55385470 3.13036637
VERTEX2 91 2.86897999 -19.54884650 -3.10375715
VERTEX2 92 2.26937052 -19.54399098 3.06370000
VERTEX2 93 1.64894795 -19.44066240 2.96278892
VERTEX2 94 1.02904177 -19.30151621 2.91995762
VERTEX2 95 0.40612095 -19.21245793 3.06256036
VERTEX2 96 -0.20528188 -19.16016503 3.08662466
VERTEX2 97 -0.79629831 -19.09604611 3.01601317
VERTEX2 98 -1.38576538 -18.99386471 2.95803254
VERTEX2 99 -2.09175969 -18.86809622 3.00482891
VERTEX2 100 -2.65728957 -18.75893846 2.95308553
VERTEX2 101 -3.26951176 -18.70117044 3.05634438
VERTEX2 102 -3.88321064 -18.61973296 2.95045640
VERTEX2 103 -4.49215609 -18.50375729 3.04642868
VERTEX2 104 -5.10509964 -18.42636048 3.01277303
VERTEX2 105 -5.71825170 -18.36082543 3.05934737
VERTEX2 106 -6.32081643 -18.28937113 3.00449970
VERTEX2 107 -6.93912708 -18.19215760 3.00070277
VERTEX2 108 -7.39464129 -18.14244810 3.06227103
VERTEX2 109 -7.44091400 -18.13063745 2.61375973
VERTEX2 110 -7.45807434 -18.11281239 2.02240308
VERTEX2 111 -7.45810521 -18.03214246 1.51654684
VERTEX2 112 -7.43311086 -17.39846056 1.57095615
VERTEX2 113 -7.45026694 -16.77624905 1.61797195
VERTEX2 114 -7.48218593 -16.16244952 1.65474109
VERTEX2 115 -7.55419014 -15.52204752 1.71495482
VERTEX2 116 -7.67149693 -14.77120193 1.75900673
VERTEX2 117 -7.80611208 -14.16053490 1.85453591
VERTEX2 118 -7.81075389 -14.13972686 1.51988882
VERTEX2 119 -7.75453642 -13.62185529 1.46663927
VERTEX2 120 -7.70150304 -12.96581327 1.55688707
VERTEX2 121 -7.71196653 -12.34673321 1.62452824
VERTEX2 122 -7.74618708 -11.76479216 1.68076784
VERTEX2 123 -7.77116372 -11.58529491 1.66801011
VERTEX2 124 -7.68541125 -11.34711173 1.24509444
VERTEX2 125 -7.46965633 -10.75510880 1.23418652
VERTEX2 126 -7.33809022 -10.13973163 1.44078127
VERTEX2 127 -7.24170282 -9.50462085 1.43931656
VERTEX2 128 -7.16772279 -8.86520434 1.47586129
VERTEX2 129 -7.08294238 -8.22969327 1.44332007
VERTEX2 130 -7.01714218 -7.59597093 1.49609564
VERTEX2 131 -6.97320475 -6.96779447 1.58465839
VERTEX2 132 -6.95735029 -6.34887357 1.53510955
VERTEX2 133 -6.91208304 -5.78136409 1.49831084
VERTEX2 134 -6.85993044 -5.18491245 1.48011955
VERTEX2 135 -6.77968952 -4.60883758 1.45392721
VERTEX2 136 -6.70746185 -3.97577795 1.47358777
VERTEX2 137 -6.61284039 -3.34478575 1.43179091
VERTEX2 138 -6.53890784 -2.71475259 1.51204155
VERTEX2 139 -6.52454876 -2.08316758 1.57744885
VERTEX2 140 -6.55535854 -1.42692250 1.60806795
VERTEX2 141 -6.56379601 -0.78598976 1.55971933
VERTEX2 142 -6.56662981 -0.13535784 1.55595692
VERTEX2 143 -6.48797782 0.50433969 1.44547050
VERTEX2 144 -6.44962840 0.87681516 1.46305606
VERTEX2 145 -6.44403997 0.89396588 0.96475251
VERTEX2 146 -6.44235723 0.90272354 0.37163220
VERTEX2 147 -6.38681495 0.89911843 -0.11480138
VERTEX2 148 -5.95518241 0.84145892 -0.15041193
VERTEX2 149 -5.31447126 0.75128513 -0.12527304
VERTEX2 150 -4.68033135 0.69037542 -0.11108463
VERTEX2 151 -4.04065307 0.64663174 -0.02538982
VERTEX2 152 -3.41534462 0.61514174 -0.08619428
VERTEX2 153 -2.79032499 0.58632243 0.00730836
VERTEX2 154 -2.16893879 0.56931076 -0.06216357
VERTEX2 155 -1.54371333 0.53988859 -0.02867267
VERTEX2 156 -0.91615290 0.52965137 0.00212400
VERTEX2 157 -0.35221119 0.51566739 -0.06219184
VERTEX2 158 -0.15756480 0.50308717 -0.03469641
VERTEX2 159 -0.15193924 0.50132319 0.95263394
VERTEX2 160 -0.14655141 0.51023840 1.98831559
VERTEX2 161 -0.16874003 0.45131001 2.70922651
VERTEX2 162 -0.14291112 0.45717173 -2.53815629
VERTEX2 163 -0.14390564 0.45214544 -1.54107277
VERTEX2 164 -0.22146480 0.54844519 -0.47871882
VERTEX2 165 -0.04777030 0.53125639 -0.07093154
VERTEX2 166 0.64970108 0.48835579 -0.06923095
VERTEX2 167 1.26633706 0.43828004 -0.09859417
VERTEX2 168 1.85441590 0.38921115 -0.08660125
VERTEX2 169 2.44953257 0.31783819 -0.12354984
VERTEX2 170 3.03591952 0.24967812 -0.14422076
VERTEX2 171 3.59734600 0.15139689 -0.18256248
VERTEX2 172 4.22248920 0.04397028 -0.16855333
VERTEX2 173 4.85104447 -0.07662465 -0.19146778
VERTEX2 174 5.47582977 -0.19085868 -0.15143218
VERTEX2 175 6.09167272 -0.28104502 -0.17622178
VERTEX2 176 6.69062986 -0.40132921 -0.16669803
VERTEX2 177 7.31352535 -0.50418956 -0.19443525
VERTEX2 178 7.93444851 -0.65019127 -0.23353082
VERTEX2 179 8.33748433 -0.73409151 -0.18026376
VERTEX2 180 8.38729704 -0.74753018 -0.62242694
VERTEX2 181 8.82758968 -1.06618956 -0.67428519
VERTEX2 182 9.23371961 -1.42673487 -0.84840759
VERTEX2 183 9.58037097 -1.84813590 -0.90584471
VERTEX2 184 9.92613281 -2.37166430 -1.05140575
VERTEX2 185 10.21615897 -2.91878092 -1.14315620
VERTEX2 186 10.44066828 -3.49851931 -1.20879787
VERTEX2 187 10.64080943 -4.05624741 -1.23076457
VERTEX2 188 10.84789695 -4.63344543 -1.23555929
VERTEX2 189 11.04774084 -5.21464849 -1.26165168
VERTEX2 190 11.23193571 -5.81873223 -1.29059310
VERTEX2 191 11.40569171 -6.42217827 -1.31481731
VERTEX2 192 11.56041236 -7.01914478 -1.34330861
VERTEX2 193 11.68419333 -7.56762981 -1.39915706
VERTEX2 194 11.78422565 -8.13717433 -1.42603444
VERTEX2 195 11.86465145 -8.70206454 -1.45475426
VERTEX2 196 11.93148948 -9.32777325 -1.49556315
VERTEX2 197 11.96956078 -9.94948102 -1.52308211
VERTEX2 198 11.99486265 -10.56860384 -1.58130209
VERTEX2 199 11.96682489 -11.17723127 -1.64276583
VERTEX2 200 11.91972241 -11.78068589 -1.66468726
VERTEX2 201 11.84887845 -12.38069475 -1.72139717
VERTEX2 202 11.78493965 -12.88648750 -1.70121335
VERTEX2 203 11.68312227 -13.62108663 -1.75395045
VERTEX2 204 11.56127892 -14.19765642 -1.85588087
VERTEX2 205 11.39186689 -14.75984520 -1.86525959
VERTEX2 206 11.23762409 -15.30706425 -1.86329450
VERTEX2 207 11.07769296 -15.87402149 -1.84730062
VERTEX2 208 10.90414808 -16.47363952 -1.85669544
VERTEX2 209 10.74184041 -17.07476642 -1.81845602
VERTEX2 210 10.57857466 -17.66786077 -1.82731702
VERTEX2 211 10.42931463 -18.26473481 -1.82505970
VERTEX2 212 10.25244986 -18.85118331 -1.87791849
VERTEX2 213 10.05697684 -19.44131361 -1.89870461
VERTEX2 214 9.85666479 -20.01784515 -1.90252300
VERTEX2 215 9.74129960 -20.34053995 -1.93833066
VERTEX2 216 9.75300471 -20.32051231 -2.43701700
VERTEX2 217 9.77859421 -20.31778006 -2.97920450
VERTEX2 218 9.78794262 -20.32136949 -3.03523777
VERTEX2 219 9.22169783 -20.27713039 3.07943036
VERTEX2 220 8.61275155 -20.23281013 3.03955091
VERTEX2 221 7.97378537 -20.16641135 3.09006689
VERTEX2 222 7.34828558 -20.12384538 3.06454370
VERTEX2 223 6.72217944 -20.09460646 -3.12228584
VERTEX2 224 6.10770391 -20.09551299 3.13512565
VERTEX2 225 5.48964344 -20.09008906 -3.09835746
VERTEX2 226 4.87251161 -20.08392748 3.13572566
VERTEX2 227 4.22723347 -20.15325777 -2.99075591
VERTEX2 228 3.70332432 -20.13761339 2.93093673
VERTEX2 229 3.25742155 -20.09926678 3.05146151
VERTEX2 230 2.96652867 -20.08334533 3.02269732
VERTEX2 231 3.17078496 -20.10115616 3.09280050
VERTEX2 232 2.86096154 -19.96201455 2.66693839
VERTEX2 233 2.29689928 -19.70108687 2.76924727
VERTEX2 234 1.72084723 -19.47416386 2.72508772
VERTEX2 235 1.47140557 -19.36641166 2.72009939
VERTEX2 236 1.13639596 -19.36750091 3.12552797
VERTEX2 237 0.50786886 -19.38223477 -3.08727613
VERTEX2 238 -0.11296835 -19.43053394 -3.12002720
VERTEX2 239 -0.72995168 -19.42734820 3.09551000
VERTEX2 240 -1.30002733 -19.30905791 2.87738135
VERTEX2 241 -1.84004472 -19.17730311 2.96277065
VERTEX2 242 -2.41504427 -19.11140195 3.00229186
VERTEX2 243 -3.01667618 -19.02725615 3.00160469
VERTEX2 244 -3.64173464 -18.98072475 3.07294473
VERTEX2 245 -4.25746172 -18.93109805 3.01875693
VERTEX2 246 -4.86070077 -18.84407340 2.94639865
VERTEX2 247 -5.46534092 -18.76087536 3.05235782
VERTEX2 248 -6.02025718 -18.73874120 3.08375378
VERTEX2 249 -5.97210113 -18.74603547 -3.00651130
VERTEX2 250 -5.96927292 -18.74592741 2.68975272
VERTEX2 251 -6.29178660 -18.40507793 2.26641974
VERTEX2 252 -6.64772870 -17.98436045 2.27496228
VERTEX2 253 -7.01982069 -17.53795307 2.26400126
VERTEX2 254 -7.38541652 -17.07929558 2.22283771
VERTEX2 255 -7.45853765 -16.98635574 2.30671192
VERTEX2 256 -7.46147442 -16.90918003 1.83074116
VERTEX2 257 -7.51300826 -16.44907668 1.69528155
VERTEX2 258 -7.59637099 -15.85936990 1.77576961
VERTEX2 259 -7.74009115 -15.25339213 1.81651564
VERTEX2 260 -7.87414669 -14.69171817 1.80826912
VERTEX2 261 -7.87186518 -14.65418560 1.49707054
VERTEX2 262 -7.80886942 -14.00261447 1.50388558
VERTEX2 263 -7.76690129 -13.38434753 1.51748737
VERTEX2 264 -7.75225876 -12.77920817 1.61469393
VERTEX2 265 -7.78431552 -12.17458822 1.63497545
VERTEX2 266 -7.73677423 -11.59607965 1.50593686
VERTEX2 267 -7.68587236 -10.84524873 1.47661268
VERTEX2 268 -7.55376491 -10.24083753 1.36653405
VERTEX2 269 -7.43411050 -9.62585772 1.39644770
VERTEX2 270 -7.36226058 -9.00020971 1.51048554
VERTEX2 271 -7.26730168 -8.37632987 1.39998917
VERTEX2 272 -7.18196895 -7.74785432 1.46515584
VERTEX2 273 -7.19213786 -7.11593490 1.67731712
VERTEX2 274 -7.26044939 -6.49761071 1.70134155
VERTEX2 275 -7.24866214 -5.88869025 1.52994417
VERTEX2 276 -7.24207897 -5.28067691 1.64452304
VERTEX2 277 -7.28926213 -4.71509748 1.61902473
VERTEX2 278 -7.24624024 -4.07455384 1.53040920
VERTEX2 279 -7.20657933 -3.43617771 1.47515156
VERTEX2 280 -7.13855905 -2.80311809 1.47730903
VERTEX2 281 -7.04813202 -2.16819101 1.37701642
VERTEX2 282 -6.92846375 -1.53966536 1.41704216
VERTEX2 283 -6.84186758 -0.90472642 1.40939302
VERTEX2 284 -6.73028857 -0.28020500 1.43677135
VERTEX2 285 -6.66357944 0.37062241 1.45794188
VERTEX2 286 -6.59741049 0.99369522 1.51164599
VERTEX2 287 -6.59455384 1.04631077 1.40737278
VERTEX2 288 -6.59016350 1.05419601 0.79917664
VERTEX2 289 -6.58640661 1.05608784 0.20613632
VERTEX2 290 -6.14567187 1.04785433 -0.01872743
VERTEX2 291 -5.52258841 1.04079545 -0.00482419
VERTEX2 292 -4.90583365 1.02162550 -0.05949976
VERTEX2 293 -4.28061345 0.97686624 -0.08260131
VERTEX2 294 -3.65899987 0.92503465 -0.08196361
VERTEX2 295 -3.03686535 0.84502147 -0.19451962
VERTEX2 296 -2.42009226 0.70057867 -0.23998865
VERTEX2 297 -1.80554466 0.54917377 -0.25175989
VERTEX2 298 -1.19462675 0.39487340 -0.25245432
VERTEX2 299 -0.62028503 0.23818793 -0.19132505
VERTEX2 300 -0.03345071 0.15224387 -0.14920541
VERTEX2 301 0.52879157 0.05238340 -0.20845429
VERTEX2 302 0.83044097 -0.01269995 -0.22943840
VERTEX2 303 0.81262312 -0.00908292 -0.22537887
VERTEX2 304 1.31288701 -0.12496494 -0.21592071
VERTEX2 305 1.92845956 -0.16996052 -0.03220829
VERTEX2 306 2.55814695 -0.18132506 -0.05037308
VERTEX2 307 3.19756945 -0.23001038 -0.08718029
VERTEX2 308 3.82542968 -0.29380922 -0.14288190
VERTEX2 309 4.46060765 -0.35507234 -0.05008504
VERTEX2 310 5.08849769 -0.38592178 -0.08609124
VERTEX2 311 5.36975986 -0.41229765 0.08880591
VERTEX2 312 5.36703280 -0.41371229 1.07632264
VERTEX2 313 5.37173268 -0.19487321 1.57187867
VERTEX2 314 5.35241939 0.43374656 1.61160355
VERTEX2 315 5.32412407 1.06175522 1.60722206
VERTEX2 316 5.28453956 1.70683054 1.65840104
VERTEX2 317 5.22374385 2.34855946 1.66819899
VERTEX2 318 5.12549102 2.98568639 1.76257159
VERTEX2 319 5.04611050 3.33275431 1.83376472
VERTEX2 320 5.04817054 3.33912229 2.80179080
VERTEX2 321 5.04021417 3.33570374 -2.44219187
VERTEX2 322 5.03932901 3.33387844 -1.44645862
VERTEX2 323 5.04988632 3.32369628 -0.45451386
VERTEX2 324 5.05440638 3.32221968 0.20500841
VERTEX2 325 5.05583604 3.32233230 -0.32296670
VERTEX2 326 5.07122839 3.31074854 -0.91850825
VERTEX2 327 5.07458341 3.29489277 -1.54222318
VERTEX2 328 5.05815490 2.65710468 -1.58889876
VERTEX2 329 5.03609156 2.03057631 -1.64530531
VERTEX2 330 4.98168018 1.41545366 -1.66577553
VERTEX2 331 4.92626328 0.79904034 -1.68151849
VERTEX2 332 4.84639312 0.18571640 -1.70150027
VERTEX2 333 4.82456635 0.03138583 -1.63802554
VERTEX2 334 4.83372565 0.03313489 -0.84476790
VERTEX2 335 4.85076660 0.02808075 0.14624991
VERTEX2 336 4.86363043 0.03258812 1.08742117
VERTEX2 337 4.86859324 0.06339446 2.06642454
VERTEX2 338 4.86576517 0.06535794 3.05592460
VERTEX2 339 4.87758009 0.07268658 -2.17731116
VERTEX2 340 4.87774597 0.07136595 -1.15749886
VERTEX2 341 4.99113526 0.00285879 -0.52376466
VERTEX2 342 5.56417546 -0.30222564 -0.42166938
VERTEX2 343 6.14280253 -0.50398316 -0.29004196
VERTEX2 344 6.73218670 -0.68754844 -0.29943350
VERTEX2 345 6.97087975 -0.75792142 -0.32625438
VERTEX2 346 6.95754778 -0.75355219 -0.97183215
VERTEX2 347 6.95996822 -0.84224092 -1.52899730
VERTEX2 348 6.97777229 -1.43313117 -1.54507795
VERTEX2 349 6.97544390 -2.05292512 -1.58467708
VERTEX2 350 6.96219261 -2.84131040 -1.60369572
VERTEX2 351 6.94790218 -3.11535655 -1.63204587
VERTEX2 352 6.94603801 -3.12424151 -1.91886304
VERTEX2 353 6.93428906 -3.13865209 -2.58180348
VERTEX2 354 6.92045363 -3.14262118 3.10029310
VERTEX2 355 6.90013961 -3.14190703 2.38196435
VERTEX2 356 6.89432217 -3.13163448 1.80892794
VERTEX2 357 6.89694571 -3.11593237 1.15829209
VERTEX2 358 6.89793485 -3.11455391 0.54516731
VERTEX2 359 6.88616564 -3.11960192 -0.06652999
VERTEX2 360 6.87147848 -3.11670013 -0.24159561
VERTEX2 361 6.86327712 -3.11884824 0.68108513
VERTEX2 362 6.94824511 -2.88772483 1.21687719
VERTEX2 363 7.05086050 -2.61935170 1.21125801
VERTEX2 364 6.98137035 -2.28294087 1.82800221
VERTEX2 365 6.92570175 -1.99353975 1.33268816
VERTEX2 366 7.03439041 -1.87040812 0.78050261
VERTEX2 367 7.48011923 -1.43502848 0.78333799
VERTEX2 368 7.93657043 -0.99839322 0.73541454
VERTEX2 369 7.95659746 -0.97419578 0.48360985
VERTEX2 370 7.98089682 -0.97030886 -0.10312173
VERTEX2 371 7.98676367 -0.97335160 -0.64856096
VERTEX2 372 8.41539413 -1.32177676 -0.67622045
VERTEX2 373 8.88773595 -1.68646948 -0.67422393
VERTEX2 374 9.36651395 -2.08944622 -0.73534874
VERTEX2 375 9.72608340 -2.40919089 -0.76623553
VERTEX2 376 9.73786079 -2.41638924 -0.07358860
VERTEX2 377 9.78817387 -2.38058415 0.61956872
VERTEX2 378 10.32338496 -1.98278826 0.67246855
VERTEX2 379 10.80286228 -1.55254101 0.75592811
VERTEX2 380 11.24265347 -1.08602766 0.87385116
VERTEX2 381 11.38885343 -0.90593285 1.02226554
VERTEX2 382 11.39018289 -0.90351599 2.06724267
VERTEX2 383 11.38753969 -0.90189730 3.05415958
VERTEX2 384 11.38539282 -0.90392793 -2.26524025
VERTEX2 385 11.38061329 -0.91194541 -1.23508879
VERTEX2 386 11.48441712 -1.04696415 -1.01012860
VERTEX2 387 11.93948538 -1.46876721 -0.67834141
VERTEX2 388 12.39926782 -1.82322441 -0.67189268
VERTEX2 389 12.83344867 -2.19676157 -0.75715643
VERTEX2 390 12.84147013 -2.20367902 -0.28823303
VERTEX2 391 12.65639447 -2.19515395 0.08650008
VERTEX2 392 12.60063157 -2.19554038 1.11325723
VERTEX2 393 12.60211758 -2.12320696 2.34523539
VERTEX2 394 12.53386850 -2.09411742 -2.95954390
VERTEX2 395 12.72951390 -1.99423434 -2.62761472
VERTEX2 396 12.70979389 -2.00374705 -2.63048327
VERTEX2 397 12.67328340 -2.01145617 -2.64434473
VERTEX2 398 12.65952875 -2.02256883 -2.45121935
VERTEX2 399 12.58552160 -2.12402614 -2.15751997
VERTEX2 400 12.22410391 -2.66923366 -2.11040553
VERTEX2 401 11.87314672 -3.20112193 -2.20490721
VERTEX2 402 11.39148088 -3.64609660 -2.47462026
VERTEX2 403 10.87339061 -4.04398714 -2.51029582
VERTEX2 404 10.36506813 -4.39147254 -2.59098477
VERTEX2 405 10.34952483 -4.40482832 -2.06048615
VERTEX2 406 10.34557362 -4.36190003 -1.08799800
VERTEX2 407 10.52236067 -4.62240269 -0.96174232
VERTEX2 408 10.84193246 -5.09327888 -1.00122428
VERTEX2 409 10.97149201 -5.30920911 -1.10249400
VERTEX2 410 10.96468810 -5.27885234 -1.73404797
VERTEX2 411 11.12381537 -4.88545460 -2.57154784
VERTEX2 412 10.57826609 -5.10547444 -2.77658472
VERTEX2 413 9.94746839 -5.32120710 -2.85773930
VERTEX2 414 9.31029247 -5.52547831 -2.75556357
VERTEX2 415 8.70375040 -5.76392668 -2.74806997
VERTEX2 416 8.41565886 -5.89250937 -2.80274504
VERTEX2 417 8.12199067 -5.87701279 3.05695616
VERTEX2 418 7.68193641 -5.83461122 3.01230255
VERTEX2 419 7.68308290 -5.83435308 -2.83891621
VERTEX2 420 7.73460817 -5.81134296 -2.62204777
VERTEX2 421 7.73576132 -5.80953040 -1.65248653
VERTEX2 422 7.73088460 -5.81639229 -0.41079453
VERTEX2 423 7.73237257 -5.81653409 -0.06430477
VERTEX2 424 7.72840097 -5.81662776 -0.06327816
VERTEX2 425 7.71832560 -5.82233804 -0.05087810
VERTEX2 426 7.71418820 -5.82247509 -0.05933470
VERTEX2 427 7.74259047 -5.82390555 -0.05555505
VERTEX2 428 8.40059635 -5.84397090 -0.06042068
VERTEX2 429 9.04113446 -5.89182503 -0.10055853
VERTEX2 430 9.37897589 -5.93134918 -0.14601221
VERTEX2 431 9.35274998 -5.92826742 -0.09344828
VERTEX2 432 9.36194456 -5.93148617 -0.72392379
VERTEX2 433 9.36696143 -5.93833730 -1.39991461
VERTEX2 434 9.33147495 -6.47748821 -1.62739060
VERTEX2 435 9.30070982 -7.12044971 -1.65518274
VERTEX2 436 9.22425158 -7.76078753 -1.66346059
VERTEX2 437 9.17356614 -8.41088918 -1.65500111
VERTEX2 438 9.12294476 -8.87945161 -1.68493341
VERTEX2 439 9.12122814 -8.88595849 -2.11964279
VERTEX2 440 9.12759725 -8.88093510 -2.76107679
VERTEX2 441 9.14367717 -8.87930303 2.90174588
VERTEX2 442 9.15089286 -8.88321749 2.27403981
VERTEX2 443 9.15100396 -8.88505085 1.70868879
VERTEX2 444 9.15391307 -8.86955446 1.11874350
VERTEX2 445 9.15889852 -8.86477297 0.46231019
VERTEX2 446 9.15710582 -8.86589280 0.66462025
VERTEX2 447 9.16853632 -8.84362477 1.29772323
VERTEX2 448 9.31732008 -8.22186560 1.31538844
VERTEX2 449 9.44903063 -7.58563451 1.41689623
VERTEX2 450 9.54198000 -6.94885135 1.43069913
VERTEX2 451 9.59399114 -6.47843318 1.47333500
VERTEX2 452 9.59408713 -6.47741831 1.09529571
VERTEX2 453 9.59079239 -6.48339616 0.47312324
VERTEX2 454 9.85076504 -6.46323950 0.05106234
VERTEX2 455 10.44870503 -6.43808186 0.03048635
VERTEX2 456 11.08019825 -6.43286151 -0.03411466
VERTEX2 457 11.43349836 -6.45492544 -0.12184453
VERTEX2 458 11.42844485 -6.45242084 -0.76775754
VERTEX2 459 11.41984895 -6.41776190 -1.37598306
VERTEX2 460 11.39958936 -6.81628496 -1.63299381
VERTEX2 461 11.33149739 -7.43290177 -1.72093397
VERTEX2 462 11.24453478 -7.94250505 -1.76093851
VERTEX2 463 11.25565501 -7.92066865 -0.92066506
VERTEX2 464 11.51069724 -7.99290058 -0.24254706
VERTEX2 465 12.09416402 -8.12523538 -0.23479172
VERTEX2 466 12.64741380 -8.27586474 -0.29041907
VERTEX2 467 13.21808073 -8.45707431 -0.33386656
VERTEX2 468 13.83359330 -8.67508239 -0.36919331
VERTEX2 469 14.42583365 -8.94032931 -0.45190054
VERTEX2 470 14.88055183 -9.15567483 -0.43279930
VERTEX2 471 14.88937030 -9.16044219 -0.63228393
VERTEX2 472 14.90659652 -9.18442446 -1.26417659
VERTEX2 473 14.90799809 -9.19128213 -1.90398758
VERTEX2 474 14.90693449 -9.19261335 -2.53455314
VERTEX2 475 14.90995289 -9.19220109 -3.10826296
VERTEX2 476 14.91284553 -9.19259432 2.52378939
VERTEX2 477 14.91720279 -9.20111352 1.96432932
VERTEX2 478 14.91791993 -9.21048566 1.33734461
VERTEX2 479 14.91720493 -9.21212072 0.88309909
VERTEX2 480 14.91780615 -9.21077081 1.44518672
VERTEX2 481 14.91408821 -9.19470089 2.44730988
VERTEX2 482 14.91877104 -9.19658298 2.78345204
VERTEX2 483 14.92569122 -9.19907354 2.77806270
VERTEX2 484 14.50006103 -9.04062919 2.81357699
VERTEX2 485 13.90423472 -8.85181122 2.81114494
VERTEX2 486 13.30556876 -8.63892044 2.82057097
VERTEX2 487 12.69854962 -8.45916222 2.84875933
VERTEX2 488 12.08924720 -8.27746471 2.88480683
VERTEX2 489 11.61351634 -8.16792055 2.91540506
VERTEX2 490 11.61219924 -8.16804234 -2.88230336
VERTEX2 491 11.61729750 -8.16132058 -1.94554903
VERTEX2 492 11.60044630 -8.39180404 -1.64221831
VERTEX2 493 11.53837511 -8.99660346 -1.69706184
VERTEX2 494 11.45095239 -9.60894318 -1.75775270
VERTEX2 495 11.38212938 -10.23231179 -1.65059022
VERTEX2 496 11.33867561 -10.85690073 -1.53286927
VERTEX2 497 11.33206776 -11.47491010 -1.61892105
VERTEX2 498 11.26376053 -12.09662239 -1.72073117
VERTEX2 499 11.13342562 -12.72346973 -1.73774824
VERTEX2 500 11.19161290 -13.29022824 -1.40881120
VERTEX2 501 11.26665895 -13.86946512 -1.48092298
VERTEX2 502 11.29116197 -14.56483861 -1.56542481
VERTEX2 503 11.28700679 -15.01166056 -1.58240950
VERTEX2 504 11.29209930 -14.99726402 -0.72601045
VERTEX2 505 11.52977127 -15.02431747 -0.10427243
VERTEX2 506 12.12157620 -15.10594510 -0.25683514
VERTEX2 507 12.70260338 -15.27571522 -0.33539036
VERTEX2 508 13.27158242 -15.48718058 -0.34865842
VERTEX2 509 13.89108852 -15.72046891 -0.40456639
VERTEX2 510 14.24734968 -15.87940421 -0.41846806
VERTEX2 511 14.24559420 -15.86231950 0.45689939
VERTEX2 512 14.26725698 -15.81663495 1.65425421
VERTEX2 513 14.26381781 -15.80650195 2.60976130
VERTEX2 514 14.19619505 -15.78754354 2.83604858
VERTEX2 515 13.58570648 -15.60672351 2.83716671
VERTEX2 516 13.00072800 -15.41278903 2.85307789
VERTEX2 517 12.40781730 -15.26478050 2.88128508
VERTEX2 518 11.81524984 -15.11363788 2.90564914
VERTEX2 519 11.29319132 -14.98977096 2.88996443
VERTEX2 520 11.12526242 -14.94605867 -2.99475918
VERTEX2 521 11.14737095 -14.92168767 -1.99106633
VERTEX2 522 11.08196968 -15.31783137 -1.72676727
VERTEX2 523 10.99052783 -15.93834463 -1.73412263
VERTEX2 524 10.88664672 -16.51270966 -1.77601637
VERTEX2 525 10.78266787 -17.05517037 -1.75233236
VERTEX2 526 10.66646072 -17.62432256 -1.81108871
VERTEX2 527 10.51864766 -18.20368723 -1.84585716
VERTEX2 528 10.33632028 -18.77054573 -1.92178699
VERTEX2 529 10.12407837 -19.37253039 -1.95010100
VERTEX2 530 9.87678832 -19.97176477 -1.98020298
VERTEX2 531 9.60703815 -20.54661788 -2.06004826
VERTEX2 532 9.50901517 -20.73245114 -2.00946259
VERTEX2 533 9.50651783 -20.72029870 -1.00970564
VERTEX2 534 9.50712544 -20.72068525 -0.34267311
VERTEX2 535 9.51049532 -20.72097289 -0.34303077
VERTEX2 536 9.86700366 -20.80471909 -0.21230634
VERTEX2 537 10.47341485 -20.95286310 -0.27029725
VERTEX2 538 11.03313895 -21.12180308 -0.29740739
VERTEX2 539 11.64084830 -21.33052509 -0.36217208
VERTEX2 540 12.22735553 -21.58341542 -0.45506318
VERTEX2 541 12.81422391 -21.81112353 -0.29275893
VERTEX2 542 13.44495415 -21.95275726 -0.23705666
VERTEX2 543 13.56650835 -21.98319500 -0.26672249
VERTEX2 544 13.58771582 -21.98102425 0.37028501
VERTEX2 545 13.61134041 -21.93807721 1.43646915
VERTEX2 546 13.62875597 -21.98335894 2.26349378
VERTEX2 547 13.63703267 -21.98280155 -2.99803503
VERTEX2 548 13.65062141 -21.97407836 -2.07515437
VERTEX2 549 13.65228112 -21.96276562 -1.26855508
VERTEX2 550 13.65106445 -21.94185384 -1.74835739
VERTEX2 551 13.65952975 -21.92469076 -2.37473434
VERTEX2 552 13.67790006 -21.91553841 -3.00719693
VERTEX2 553 13.54095678 -21.86322869 2.69869994
VERTEX2 554 12.94904958 -21.57938194 2.66323851
VERTEX2 555 12.36992821 -21.30462779 2.75210756
VERTEX2 556 11.76588624 -21.08643748 2.88720478
VERTEX2 557 11.16558804 -20.91580762 2.84599325
VERTEX2 558 10.58940199 -20.75899542 2.92702112
VERTEX2 559 10.59680994 -20.76149215 2.52006431
VERTEX2 560 10.58958977 -20.75359430 2.01913463
VERTEX2 561 10.56629407 -20.73099749 2.52436147
VERTEX2 562 10.38781014 -20.73106784 -3.11525793
VERTEX2 563 9.81734847 -20.65286471 2.97611026
VERTEX2 564 9.21226353 -20.56166776 3.02487926
VERTEX2 565 8.62168810 -20.49065177 2.96729109
VERTEX2 566 8.68257039 -20.50956462 -2.53235567
VERTEX2 567 8.58847517 -20.51656077 -1.73890813
VERTEX2 568 8.53752090 -21.02487274 -1.67491149
VERTEX2 569 8.48615935 -21.60022753 -1.71407452
VERTEX2 570 8.41738536 -22.18068273 -1.70932653
VERTEX2 571 8.36488561 -22.53605367 -1.75679824
VERTEX2 572 8.33100326 -22.56082869 -1.99998382
VERTEX2 573 8.29596088 -22.64029041 -1.72364607
VERTEX2 574 8.31645245 -22.66908363 -0.78419123
VERTEX2 575 8.47069257 -22.71942631 0.13683282
VERTEX2 576 8.47009759 -22.71895070 1.16450729
VERTEX2 577 8.46343061 -22.70134579 2.13661721
VERTEX2 578 8.45392508 -22.66926098 1.77245968
VERTEX2 579 8.32884521 -22.01762477 1.78749876
VERTEX2 580 8.16682714 -21.37822166 1.86266444
VERTEX2 581 7.97216015 -20.75481045 1.90506846
VERTEX2 582 7.75004348 -20.14047481 1.94823097
VERTEX2 583 7.61984126 -19.83222848 2.02763102
VERTEX2 584 7.61425836 -19.82141399 2.87157152
VERTEX2 585 7.03033345 -19.68170044 2.99001653
VERTEX2 586 6.43590510 -19.60765806 3.08773383
VERTEX2 587 5.81646578 -19.59733898 3.11329798
VERTEX2 588 5.18606316 -19.57209240 3.11792268
VERTEX2 589 4.64782559 -19.59729214 -3.08989642
VERTEX2 590 4.09869173 -19.64186675 -3.02115535
VERTEX2 591 3.55992701 -19.72126071 -3.02304776
VERTEX2 592 3.01215250 -19.79611185 -3.02577261
VERTEX2 593 2.83473628 -19.81855817 -2.82050809
VERTEX2 594 2.87696431 -19.77304195 -1.90127733
VERTEX2 595 2.76406962 -20.38012985 -1.66842413
VERTEX2 596 2.71180721 -21.00419307 -1.69154522
VERTEX2 597 2.62026474 -21.67895802 -1.73146322
VERTEX2 598 2.51760903 -22.27736023 -1.77361581
VERTEX2 599 2.42939265 -22.65469316 -1.83978937
VERTEX2 600 2.42958951 -22.67086798 -1.03321340
VERTEX2 601 2.46961919 -22.69550751 -0.01502347
VERTEX2 602 2.50441937 -22.68148035 0.99903908
VERTEX2 603 2.46988165 -22.44648694 1.77168778
VERTEX2 604 2.40942313 -21.83395162 1.52759958
VERTEX2 605 2.41842749 -21.18756776 1.61023371
VERTEX2 606 2.37813361 -20.54147483 1.65236143
VERTEX2 607 2.38928729 -19.95290285 1.57139731
VERTEX2 608 2.37625311 -19.56828337 1.61593697
VERTEX2 609 2.37272629 -19.54754652 1.95236732
VERTEX2 610 2.36480140 -19.54467971 2.88527051
VERTEX2 611 1.76935824 -19.39432637 2.88835069
VERTEX2 612 1.29680048 -19.25970740 2.89127537
VERTEX2 613 1.33216105 -19.27050933 -2.92789539
VERTEX2 614 1.33822215 -19.26592443 -1.88945773
VERTEX2 615 1.35021608 -19.75131518 -1.58472940
VERTEX2 616 1.35613205 -20.37310724 -1.63577291
VERTEX2 617 1.21747797 -20.97568418 -1.85267014
VERTEX2 618 1.04751247 -21.58103027 -1.84235879
VERTEX2 619 0.88594779 -22.15188562 -1.84354204
VERTEX2 620 0.70187005 -22.72711874 -1.93941349
VERTEX2 621 0.83095603 -22.39435905 -1.99066295
VERTEX2 622 0.95454142 -22.13066646 -2.06538759
VERTEX2 623 0.95395864 -22.13145497 -2.60188860
VERTEX2 624 0.92447160 -22.13114120 3.03935921
VERTEX2 625 0.88288529 -22.11432492 2.38150112
VERTEX2 626 0.85481476 -22.08208011 1.76410687
VERTEX2 627 0.92768618 -21.71033373 1.35373446
VERTEX2 628 1.10693888 -21.08389920 1.25295534
VERTEX2 629 1.27912024 -20.45679940 1.32401741
VERTEX2 630 1.40518514 -19.84950827 1.40900502
VERTEX2 631 1.47780202 -19.32016364 1.42905077
VERTEX2 632 1.48048837 -19.30433869 2.10478261
VERTEX2 633 1.38244959 -19.29767038 -3.09234643
VERTEX2 634 0.71511546 -19.33455074 -3.06499377
VERTEX2 635 0.06205929 -19.34529326 3.08312162
VERTEX2 636 -0.57951869 -19.31675558 3.06550398
VERTEX2 637 -1.20751462 -19.24248324 2.96617433
VERTEX2 638 -1.59917637 -19.16261966 2.93659257
VERTEX2 639 -2.20937276 -19.05984436 3.01689977
VERTEX2 640 -2.82375806 -18.95084781 2.94897389
VERTEX2 641 -3.42355712 -18.84014930 2.94061397
VERTEX2 642 -3.99901731 -18.70312825 2.89524826
VERTEX2 643 -4.48049807 -18.56665502 2.82778291
VERTEX2 644 -4.48450654 -18.56754928 -2.69864330
VERTEX2 645 -4.52099701 -18.70872497 -1.92117305
VERTEX2 646 -4.65821047 -19.31792570 -1.62580177
VERTEX2 647 -4.61488192 -19.96015976 -1.33694950
VERTEX2 648 -4.39213084 -20.58502035 -1.17066300
VERTEX2 649 -4.21869465 -21.18352550 -1.50825547
VERTEX2 650 -4.31952089 -21.81185358 -1.76561041
VERTEX2 651 -4.33703521 -21.95728121 -0.96618892
VERTEX2 652 -4.27430819 -21.98551745 0.05878942
VERTEX2 653 -4.22831050 -21.94423438 1.08923800
VERTEX2 654 -4.23721201 -21.64794481 1.60241688
VERTEX2 655 -4.24739255 -21.09491658 1.59741449
VERTEX2 656 -4.24632352 -20.49319597 1.58478631
VERTEX2 657 -4.35291163 -19.88198970 1.86142598
VERTEX2 658 -4.54305210 -19.26520774 1.85425706
VERTEX2 659 -4.65766784 -18.77201661 1.78309571
VERTEX2 660 -4.66070702 -18.75681121 2.38320223
VERTEX2 661 -4.83903199 -18.73709519 3.03663641
VERTEX2 662 -5.43235016 -18.67752186 3.10623809
VERTEX2 663 -6.01950964 -18.69172446 -3.07592126
VERTEX2 664 -6.02745492 -18.68967657 -2.55270650
VERTEX2 665 -6.04348277 -18.79102683 -1.71903090
VERTEX2 666 -6.11544690 -19.39922330 -1.68189795
VERTEX2 667 -6.17276133 -19.96527503 -1.67728250
VERTEX2 668 -6.23649281 -20.55877648 -1.65150672
VERTEX2 669 -6.28519774 -21.18403239 -1.67664295
VERTEX2 670 -6.38486112 -21.80147499 -1.73612623
VERTEX2 671 -6.43250217 -22.09386852 -1.68114911
VERTEX2 672 -6.33052212 -21.51310916 -1.77026890
VERTEX2 673 -6.26424941 -21.24643999 -1.90083050
VERTEX2 674 -6.25142239 -21.23291224 -2.54899288
VERTEX2 675 -6.22811704 -21.22799138 3.12555419
VERTEX2 676 -6.22214268 -21.23149251 2.50219717
VERTEX2 677 -6.21760116 -21.23777028 1.88633740
VERTEX2 678 -6.18945303 -21.01564842 1.44038164
VERTEX2 679 -6.12509395 -20.43664459 1.50295208
VERTEX2 680 -6.15242697 -19.98832795 1.84781827
VERTEX2 681 -6.30424608 -19.39682656 1.82030059
VERTEX2 682 -6.47616722 -18.79078806 1.86797087
VERTEX2 683 -6.56828682 -18.50844166 2.02712352
VERTEX2 684 -6.51552749 -18.56228618 3.10707473
VERTEX2 685 -6.92021344 -18.72352027 -2.73234024
VERTEX2 686 -7.36816305 -18.86056091 -2.87652212
VERTEX2 687 -7.96333840 -19.01209022 -2.91147919
VERTEX2 688 -8.56179294 -19.13258873 -2.92320382
VERTEX2 689 -9.12663294 -19.27202635 -2.89549248
VERTEX2 690 -9.66304270 -19.44152101 -2.82127281
VERTEX2 691 -10.05863862 -19.57340036 -2.84926133
VERTEX2 692 -10.04446548 -19.56709543 -2.31498622
VERTEX2 693 -10.02149113 -19.63942527 -1.27453173
VERTEX2 694 -9.99733611 -19.71146493 -0.43903076
VERTEX2 695 -9.97883884 -19.70619574 0.36100456
VERTEX2 696 -9.97263205 -19.70212802 1.38652911
VERTEX2 697 -9.98427181 -19.74043741 1.13356703
VERTEX2 698 -9.65382403 -19.53107128 0.47881989
VERTEX2 699 -9.09003516 -19.21729189 0.59286910
VERTEX2 700 -8.57645524 -18.85467219 0.64641079
VERTEX2 701 -8.14242542 -18.49124843 0.70559288
VERTEX2 702 -7.66298843 -18.17540210 0.59045014
VERTEX2 703 -7.15045549 -17.83823636 0.62471854
VERTEX2 704 -6.65671165 -17.45541656 0.64291223
VERTEX2 705 -6.14590153 -17.03449703 0.71316693
VERTEX2 706 -5.71584097 -16.71639145 0.44419360
VERTEX2 707 -5.69050246 -16.71502617 -0.07603360
VERTEX2 708 -5.68057803 -16.72075998 -0.71449127
VERTEX2 709 -5.72045204 -16.67783091 -1.04656322
VERTEX2 710 -5.72486292 -16.66644060 -1.60766108
VERTEX2 711 -5.71544068 -16.67494775 -2.20437334
VERTEX2 712 -5.69512962 -16.65937870 -2.76479242
VERTEX2 713 -6.16804643 -16.70983736 -3.05013287
VERTEX2 714 -6.72131034 -16.68475512 3.03553973
VERTEX2 715 -7.34795592 -16.64783514 3.13914743
VERTEX2 716 -7.98204464 -16.62584284 3.00111501
VERTEX2 717 -8.60316390 -16.55797799 3.08587111
VERTEX2 718 -9.36509719 -16.43935305 2.91049463
VERTEX2 719 -9.98173398 -16.32404198 2.98496359
VERTEX2 720 -10.59422296 -16.21163068 2.92576196
VERTEX2 721 -11.21163907 -16.09577847 2.99398342
VERTEX2 722 -11.22791907 -16.09345807 3.06068601
VERTEX2 723 -11.24832208 -16.11449976 -2.13254603
VERTEX2 724 -11.24843884 -16.15833306 -1.06366605
VERTEX2 725 -11.22099346 -16.17678870 -0.42930578
VERTEX2 726 -10.89525328 -16.17298853 0.02489538
VERTEX2 727 -10.25750743 -16.13523039 0.05564433
VERTEX2 728 -9.61700505 -16.11174169 0.05703804
VERTEX2 729 -8.97899168 -16.05194602 0.11468778
VERTEX2 730 -8.35554226 -15.96030029 0.15220089
VERTEX2 731 -7.70719270 -15.86067644 0.16440195
VERTEX2 732 -7.56516269 -15.83218474 0.61097242
VERTEX2 733 -7.56329507 -15.83523498 1.60750912
VERTEX2 734 -7.62172089 -15.28008518 1.68560999
VERTEX2 735 -7.68232651 -14.67859348 1.65357140
VERTEX2 736 -7.68301258 -14.66837897 2.25309813
VERTEX2 737 -7.67589675 -14.66931221 3.05383704
VERTEX2 738 -8.25389008 -14.62893325 3.07289513
VERTEX2 739 -8.85583099 -14.53420700 3.01525716
VERTEX2 740 -9.35763804 -14.49415519 3.07850570
VERTEX2 741 -9.33649079 -14.49392358 2.70962772
VERTEX2 742 -9.33537386 -14.49471996 2.05680574
VERTEX2 743 -9.33691791 -14.48789467 1.43996353
VERTEX2 744 -9.32738476 -14.46606800 0.90057112
VERTEX2 745 -9.30832301 -14.45609872 0.30720278
VERTEX2 746 -8.76722583 -14.47418909 -0.16756982
VERTEX2 747 -8.12357922 -14.58817427 -0.20277113
VERTEX2 748 -7.54827047 -14.73005542 -0.27104205
VERTEX2 749 -7.46666313 -14.75034804 0.15827685
VERTEX2 750 -7.45624679 -14.73110938 1.08556882
VERTEX2 751 -7.49141253 -14.45593543 1.72599088
VERTEX2 752 -7.55093293 -13.82786776 1.62270489
VERTEX2 753 -7.59025862 -13.18422465 1.68593953
VERTEX2 754 -7.59943067 -12.53879889 1.52384617
VERTEX2 755 -7.58236176 -11.90535952 1.61032558
VERTEX2 756 -7.54664702 -11.26928741 1.43395383
VERTEX2 757 -7.47366066 -10.62370607 1.54586590
VERTEX2 758 -7.49579087 -10.04398541 1.68808529
VERTEX2 759 -7.48688204 -9.49597857 1.56807755
VERTEX2 760 -7.52763295 -8.88370063 1.67947863
VERTEX2 761 -7.53055949 -8.84470056 1.85988443
VERTEX2 762 -7.60703927 -8.81080486 2.69529544
VERTEX2 763 -8.18156982 -8.71001927 2.98814792
VERTEX2 764 -8.60182435 -8.64002240 2.96062412
VERTEX2 765 -8.59106089 -8.63977698 -2.68309267
VERTEX2 766 -8.59268732 -8.64512875 -1.68271262
VERTEX2 767 -8.58769655 -8.65762215 -0.75180029
VERTEX2 768 -8.56055490 -8.65917638 -0.02939518
VERTEX2 769 -7.92500839 -8.56733445 0.12751958
VERTEX2 770 -7.27239523 -8.50526460 0.06039840
VERTEX2 771 -7.18371112 -8.49748500 0.62089215
VERTEX2 772 -7.18050324 -8.48715655 1.48845260
VERTEX2 773 -7.15889683 -7.90860680 1.57427215
VERTEX2 774 -7.17336981 -7.36167681 1.59638774
VERTEX2 775 -7.17251274 -7.36531794 2.44133743
VERTEX2 776 -7.38200844 -7.34059810 3.05878538
VERTEX2 777 -7.99553889 -7.30085335 3.11784574
VERTEX2 778 -8.60837788 -7.29227949 3.09692402
VERTEX2 779 -9.22441761 -7.27281215 3.11504461
VERTEX2 780 -9.43280592 -7.25541743 2.98483492
VERTEX2 781 -9.42977377 -7.25648931 2.41144788
VERTEX2 782 -9.55765557 -6.98463061 1.98190930
VERTEX2 783 -9.79363489 -6.41164470 1.98132088
VERTEX2 784 -9.89333208 -6.18488091 1.96000865
VERTEX2 785 -9.89426702 -6.16001948 1.40806474
VERTEX2 786 -9.88652637 -6.13440316 0.81976387
VERTEX2 787 -9.86951368 -6.11693194 0.32911566
VERTEX2 788 -9.84288692 -6.11870234 -0.29999860
VERTEX2 789 -9.83244963 -6.12687112 -0.85195578
VERTEX2 790 -9.52559269 -6.52160456 -0.91911390
VERTEX2 791 -9.12030722 -7.00292720 -0.82043771
VERTEX2 792 -8.88066509 -7.21592403 -0.11587973
VERTEX2 793 -8.26501942 -7.26778978 -0.07110064
VERTEX2 794 -7.62501490 -7.29630037 0.00013802
VERTEX2 795 -7.64918467 -7.31409189 0.42958483
VERTEX2 796 -7.65579976 -7.31675985 1.08903674
VERTEX2 797 -7.58160398 -7.00731910 1.34924089
VERTEX2 798 -7.44684093 -6.38080963 1.39941029
VERTEX2 799 -7.36014791 -5.73638686 1.46516707
VERTEX2 800 -7.30645076 -5.08995672 1.53810411
VERTEX2 801 -7.31747159 -4.45820681 1.62406268
VERTEX2 802 -7.37136950 -3.83316071 1.68179981
VERTEX2 803 -7.35405574 -3.20460057 1.51717681
VERTEX2 804 -7.33383560 -2.57729496 1.57311948
VERTEX2 805 -7.36704093 -1.94703126 1.64945088
VERTEX2 806 -7.42698790 -1.34889039 1.69091104
VERTEX2 807 -7.45430613 -1.16447861 1.97903375
VERTEX2 808 -7.45900067 -1.16438718 2.92738578
VERTEX2 809 -8.05052960 -1.13546772 3.07207674
VERTEX2 810 -8.66778786 -1.01222212 2.93194062
VERTEX2 811 -9.26663764 -0.90068852 2.92867221
VERTEX2 812 -9.26886060 -0.90025758 -2.62270536
VERTEX2 813 -9.27861328 -0.92202562 -1.64735631
VERTEX2 814 -9.27226159 -0.92704913 -0.65508935
VERTEX2 815 -9.24791368 -0.93524537 0.26421302
VERTEX2 816 -9.23912621 -0.93043373 0.94538995
VERTEX2 817 -9.22778987 -0.92329377 0.27664760
VERTEX2 818 -9.00547271 -0.95710737 -0.21222411
VERTEX2 819 -8.41437944 -1.08458560 -0.19809101
VERTEX2 820 -7.82085463 -1.21614528 -0.23931025
VERTEX2 821 -7.27481452 -1.34678368 -0.22350071
VERTEX2 822 -7.22357031 -1.35454341 0.53816951
VERTEX2 823 -7.22218086 -1.33974282 1.45767148
VERTEX2 824 -7.15870568 -0.71753157 1.37840213
VERTEX2 825 -7.01503965 -0.09353478 1.34880598
VERTEX2 826 -6.95832761 0.53858867 1.51185345
VERTEX2 827 -6.89490448 1.16288759 1.46312278
VERTEX2 828 -6.84115484 1.79457855 1.49857929
VERTEX2 829 -6.78098850 2.39851765 1.45883403
VERTEX2 830 -6.70687230 3.00779712 1.45051380
VERTEX2 831 -6.61347257 3.58543869 1.40371790
VERTEX2 832 -6.52399113 4.14875581 1.40015039
VERTEX2 833 -6.48029502 4.40435158 1.53780333
VERTEX2 834 -6.48228522 4.41137238 2.59245141
VERTEX2 835 -6.49530650 4.41285546 -2.91307574
VERTEX2 836 -6.50737779 4.40263504 -1.97002338
VERTEX2 837 -6.50397638 4.38418416 -0.93367355
VERTEX2 838 -6.49234020 4.37695167 -0.07148887
VERTEX2 839 -6.49187766 4.37673215 -0.28976193
VERTEX2 840 -6.48094978 4.36818458 -0.85242300
VERTEX2 841 -6.47334829 4.35294036 -1.46952237
VERTEX2 842 -6.49930845 4.10709509 -1.70036200
VERTEX2 843 -6.57710961 3.54323260 -1.70290514
VERTEX2 844 -6.65188180 2.91738818 -1.71094443
VERTEX2 845 -6.74520521 2.29204861 -1.72569030
VERTEX2 846 -6.83064005 1.66249542 -1.72398746
VERTEX2 847 -6.93999784 1.04076007 -1.75076465
VERTEX2 848 -6.97061023 0.84530695 -1.27037840
VERTEX2 849 -6.96989350 0.84505522 -0.34828344
VERTEX2 850 -6.61470169 0.84186452 0.00506917
VERTEX2 851 -5.98743472 0.81638428 -0.08745927
VERTEX2 852 -5.36302390 0.75571342 -0.07306787
VERTEX2 853 -4.76818601 0.71371881 -0.10101143
VERTEX2 854 -4.18096499 0.64641871 -0.09902551
VERTEX2 855 -3.58608032 0.59600971 -0.10084031
VERTEX2 856 -2.93249383 0.51091485 -0.14152559
VERTEX2 857 -2.28007959 0.42213467 -0.15106991
VERTEX2 858 -1.63407388 0.30092334 -0.20558352
VERTEX2 859 -1.11595218 0.19776894 -0.21244315
VERTEX2 860 -1.08983681 0.20855598 0.63834568
VERTEX2 861 -1.07436600 0.31849309 1.55313707
VERTEX2 862 -1.03662776 0.97830034 1.49351175
VERTEX2 863 -0.97980560 1.62268788 1.46102576
VERTEX2 864 -0.89329958 2.23303753 1.45890863
VERTEX2 865 -0.85251478 2.84457776 1.51653183
VERTEX2 866 -0.80825358 3.43059800 1.51540917
VERTEX2 867 -0.80088584 3.59468112 1.69661930
VERTEX2 868 -0.80823640 3.60396235 2.72041604
VERTEX2 869 -0.79763009 3.60411801 -2.58441933
VERTEX2 870 -0.77789332 3.61474619 -1.58495772
VERTEX2 871 -0.76316307 3.60477774 -0.61124561
VERTEX2 872 -0.74473500 3.59149040 0.07402365
VERTEX2 873 -0.71739446 3.58240131 -0.49854299
VERTEX2 874 -0.69612802 3.56321340 -1.05814633
VERTEX2 875 -0.68978990 3.54832664 -1.64465657
VERTEX2 876 -0.80940385 2.99227784 -1.80222189
VERTEX2 877 -0.96129897 2.45030225 -1.88687624
VERTEX2 878 -1.01172577 2.25064515 -1.50391624
VERTEX2 879 -0.91029537 1.61221525 -1.45288888
VERTEX2 880 -0.87454898 1.16320220 -1.56558064
VERTEX2 881 -0.87494637 1.21308749 -1.56023976
VERTEX2 882 -0.93121266 0.57360127 -1.80676669
VERTEX2 883 -1.14668962 -0.02154033 -1.99749570
VERTEX2 884 -1.30506392 -0.35361826 -2.06446735
VERTEX2 885 -1.30504005 -0.35357068 -1.48292476
VERTEX2 886 -1.28792914 -0.36959535 -0.46499703
VERTEX2 887 -1.25942045 -0.38067775 0.54624250
VERTEX2 888 -1.24936880 -0.35952204 1.53027040
VERTEX2 889 -1.25093833 -0.35502312 2.42825896
VERTEX2 890 -1.56652876 -0.20252041 2.70217199
VERTEX2 891 -2.10388315 0.06410705 2.63185364
VERTEX2 892 -2.63760158 0.38328227 2.59629178
VERTEX2 893 -3.19059207 0.67891234 2.83258254
VERTEX2 894 -3.80367191 0.79004817 3.05364475
VERTEX2 895 -4.40325267 0.74111599 -2.93126624
VERTEX2 896 -4.42245431 0.73652736 -2.45275361
VERTEX2 897 -4.70710594 0.31516755 -2.18046346
VERTEX2 898 -5.05907827 -0.19509639 -2.16486500
VERTEX2 899 -5.34609417 -0.60578812 -2.23252033
VERTEX2 900 -5.76002517 -1.15071056 -2.23484987
VERTEX2 901 -6.13226346 -1.59562739 -2.29917147
VERTEX2 902 -6.54907129 -2.08774215 -2.27390105
VERTEX2 903 -6.86580096 -2.46730816 -2.31863994
VERTEX2 904 -6.86672586 -2.46862975 -1.61553620
VERTEX2 905 -6.85329137 -2.96156167 -1.56005463
VERTEX2 906 -6.81981398 -3.53265190 -1.49432653
VERTEX2 907 -6.76404306 -4.10684911 -1.50249992
VERTEX2 908 -6.71822412 -4.72917396 -1.47772149
VERTEX2 909 -6.65815371 -5.34167502 -1.49564418
VERTEX2 910 -6.68596060 -5.47097943 -1.86553886
VERTEX2 911 -6.84644413 -6.04164483 -1.80467059
VERTEX2 912 -6.96788716 -6.60534508 -1.79206283
VERTEX2 913 -7.08039635 -7.14703339 -1.78414147
VERTEX2 914 -7.20686935 -7.73490633 -1.80781278
VERTEX2 915 -7.33075756 -8.24369989 -1.84454196
VERTEX2 916 -7.26634278 -8.48866731 -1.29703304
VERTEX2 917 -7.12751401 -9.13843824 -1.55146939
VERTEX2 918 -7.14798040 -9.65677546 -1.62702026
VERTEX2 919 -7.18193446 -10.28090292 -1.67035749
VERTEX2 920 -7.24680806 -10.89529029 -1.68796641
VERTEX2 921 -7.32052960 -11.51086892 -1.74133789
VERTEX2 922 -7.42347415 -12.11484198 -1.76858069
VERTEX2 923 -7.54404316 -12.68139035 -1.83208166
VERTEX2 924 -7.67641143 -13.17494696 -1.81545785
VERTEX2 925 -7.67712860 -13.17132962 -1.31075962
VERTEX2 926 -7.51719947 -13.73460343 -1.29457848
VERTEX2 927 -7.35047654 -14.32647274 -1.31791018
VERTEX2 928 -7.19287187 -14.93377062 -1.32687012
VERTEX2 929 -7.04181977 -15.53822700 -1.32780027
VERTEX2 930 -6.89478182 -16.16937862 -1.41044154
VERTEX2 931 -6.80883878 -16.79596199 -1.49072652
VERTEX2 932 -6.76305000 -17.42330578 -1.55021338
VERTEX2 933 -6.76001916 -18.03611601 -1.61485007
VERTEX2 934 -6.77496796 -18.51699243 -1.62470392
VERTEX2 935 -6.77222959 -18.52972412 -0.94260522
VERTEX2 936 -6.77025372 -18.53041956 0.00252306
VERTEX2 937 -6.22779621 -18.50573178 0.06539063
VERTEX2 938 -5.63140285 -18.52234308 -0.10802791
VERTEX2 939 -5.00720454 -18.58280173 -0.08032276
VERTEX2 940 -4.39498061 -18.65867357 -0.16616625
VERTEX2 941 -3.78995309 -18.77491780 -0.21980271
VERTEX2 942 -3.27106471 -18.89129818 -0.21529198
VERTEX2 943 -2.66172974 -19.02589160 -0.12694656
VERTEX2 944 -2.04835279 -19.10966297 -0.18358714
VERTEX2 945 -1.42620767 -19.23944821 -0.23869055
VERTEX2 946 -1.25059372 -19.28446022 -0.17434517
VERTEX2 947 -0.84078593 -19.22193842 0.15391651
VERTEX2 948 -0.26689650 -19.13341024 0.13478758
VERTEX2 949 0.33733089 -19.09982869 -0.02085863
VERTEX2 950 0.96877914 -19.13714042 -0.26036325
VERTEX2 951 1.57201595 -19.31138714 -0.33250332
VERTEX2 952 2.17497139 -19.48863867 -0.08171063
VERTEX2 953 2.80586633 -19.52137637 -0.00142483
VERTEX2 954 3.43131953 -19.51505893 -0.00841694
VERTEX2 955 4.02161523 -19.56166167 -0.16923600
VERTEX2 956 4.57309179 -19.64114185 -0.17153096
VERTEX2 957 5.10527520 -19.73837393 -0.25923031
VERTEX2 958 5.57265612 -19.85163941 -0.28596900
VERTEX2 959 6.00499595 -19.97104905 -0.35307664
VERTEX2 960 6.59415922 -20.13460989 -0.27317946
VERTEX2 961 7.17560129 -20.30944583 -0.30021357
VERTEX2 962 7.79302401 -20.43863305 -0.23460374
VERTEX2 963 8.41073023 -20.52005413 -0.04793882
VERTEX2 964 9.03308793 -20.56214309 -0.11184262
VERTEX2 965 9.65103114 -20.64176333 -0.11874473
VERTEX2 966 10.09446386 -20.70057074 -0.17773105
VERTEX2 967 10.12733498 -20.69391579 0.67563061
VERTEX2 968 10.13543883 -20.68626239 1.57232600
VERTEX2 969 10.13777208 -20.71356304 1.63177614
VERTEX2 970 10.14024343 -20.74111149 1.63002829
VERTEX2 971 10.11967021 -20.40746047 1.63014435
VERTEX2 972 10.08079385 -19.82053240 1.63573922
VERTEX2 973 10.16018934 -19.23839944 1.35069125
VERTEX2 974 10.29934455 -18.63648521 1.38246228
VERTEX2 975 10.41061079 -18.03057303 1.38701819
VERTEX2 976 10.51513981 -17.42203761 1.39986637
VERTEX2 977 10.65042507 -16.80371040 1.37357937
VERTEX2 978 10.77094714 -16.19162062 1.41954001
VERTEX2 979 10.88528720 -15.58339875 1.40725255
VERTEX2 980 10.98256685 -14.97833688 1.45416141
VERTEX2 981 11.07074836 -14.38385392 1.46105729
VERTEX2 982 11.12649779 -13.85605636 1.50601659
VERTEX2 983 11.17514608 -13.25721922 1.50262056
VERTEX2 984 11.20140808 -12.66085574 1.55997026
VERTEX2 985 11.21132566 -12.06355874 1.58023290
VERTEX2 986 11.19538640 -11.44267977 1.61654611
VERTEX2 987 11.18174347 -10.82328264 1.57982829
VERTEX2 988 11.18353994 -10.20421029 1.59351132
VERTEX2 989 11.16813973 -9.59002422 1.60108054
VERTEX2 990 11.16063178 -8.97912263 1.59023371
VERTEX2 991 11.14472656 -8.36472059 1.61500439
VERTEX2 992 11.13910410 -7.77821428 1.58237002
VERTEX2 993 11.12488602 -7.16227467 1.61508773
VERTEX2 994 11.10809280 -6.57709121 1.60511921
VERTEX2 995 11.07560827 -5.97902147 1.65232895
VERTEX2 996 11.01519946 -5.36589044 1.67939790
VERTEX2 997 10.96978806 -4.71413953 1.61491813
VERTEX2 998 10.94968333 -4.30465783 1.63671968
VERTEX2 999 10.97408847 -4.32441573 2.35439793
VERTEX2 1000 10.50840031 -3.96168210 2.50298032
VERTEX2 1001 10.06618227 -3.55841786 2.18195868
VERTEX2 1002 9.69697544 -3.08328120 2.27458793
VERTEX2 1003 9.34505418 -2.58072714 2.09494676
VERTEX2 1004 9.01034195 -2.04978034 2.15301395
VERTEX2 1005 8.65656993 -1.55441532 2.21551542
VERTEX2 1006 8.26052929 -1.07532520 2.29296802
VERTEX2 1007 7.84743119 -0.64832462 2.38471066
VERTEX2 1008 7.61110494 -0.43267418 2.54433110
VERTEX2 1009 7.51413610 -0.41796738 3.01762178
VERTEX2 1010 6.94690463 -0.36215213 3.07022784
VERTEX2 1011 6.33085301 -0.32298123 3.02719479
VERTEX2 1012 5.72109354 -0.25985263 3.06916320
VERTEX2 1013 5.08449550 -0.26254124 -3.09899556
VERTEX2 1014 4.47121571 -0.21459594 3.00895552
VERTEX2 1015 3.84587311 -0.17530689 3.09346803
VERTEX2 1016 3.07588736 -0.13780417 3.10022826
VERTEX2 1017 2.49046831 -0.12438367 3.04306674
VERTEX2 1018 1.93269258 -0.06250399 3.05035407
VERTEX2 1019 1.33775448 -0.03795308 3.10989075
VERTEX2 1020 0.72258956 -0.00190375 3.09592902
VERTEX2 1021 0.10151731 0.02728584 3.05531145
VERTEX2 1022 0.04804948 0.03171624 3.04806906
VERTEX2 1023 0.05493821 0.03158265 3.13464345
VERTEX2 1024 -0.57202824 0.03944795 -3.12222992
VERTEX2 1025 -1.20121131 0.00904451 -3.10468083
VERTEX2 1026 -1.36268907 0.00358262 -3.09752955
VERTEX2 1027 -1.34703096 0.01124823 -2.18108759
VERTEX2 1028 -1.36028645 -0.15570386 -1.61768335
VERTEX2 1029 -1.38930398 -0.72245428 -1.63926604
VERTEX2 1030 -1.45329521 -1.34397918 -1.71971867
VERTEX2 1031 -1.56650134 -1.98951009 -1.77389778
VERTEX2 1032 -1.69764985 -2.63507344 -1.76987713
VERTEX2 1033 -1.84183209 -3.27940489 -1.81504715
VERTEX2 1034 -1.88670501 -3.45043592 -2.02885039
VERTEX2 1035 -1.89212268 -3.45499568 -2.64819283
VERTEX2 1036 -1.86087170 -3.46944089 3.06415989
VERTEX2 1037 -2.20043960 -3.33991685 2.82574512
VERTEX2 1038 -2.81151288 -3.21739910 2.91693810
VERTEX2 1039 -3.44952435 -3.04753578 2.88539001
VERTEX2 1040 -3.42366808 -3.04817358 -2.76777162
VERTEX2 1041 -3.39446951 -3.05203473 -1.75092826
VERTEX2 1042 -3.39632095 -3.08535059 -0.76309711
VERTEX2 1043 -3.36237981 -3.11665175 0.20638101
VERTEX2 1044 -3.37611893 -3.13284525 1.20009380
VERTEX2 1045 -3.37940492 -3.14007036 1.08604848
VERTEX2 1046 -3.39012299 -3.15446523 0.70048473
VERTEX2 1047 -3.40910752 -3.16271796 0.14467610
VERTEX2 1048 -3.04634021 -3.23224155 -0.16834157
VERTEX2 1049 -2.40066185 -3.33113080 -0.15119548
VERTEX2 1050 -1.75324388 -3.40225055 -0.07552636
VERTEX2 1051 -1.09742184 -3.47629951 -0.15467235
VERTEX2 1052 -0.47316906 -3.55786747 -0.10171971
VERTEX2 1053 -0.05547188 -3.61268960 -0.15434808
VERTEX2 1054 -0.02864573 -3.61554464 0.60782458
VERTEX2 1055 -0.02248708 -3.58676071 1.66313910
VERTEX2 1056 -0.01332301 -3.60023615 2.66679682
VERTEX2 1057 0.01208125 -3.60309033 -2.62556893
VERTEX2 1058 0.00995768 -3.60557767 -1.70341624
VERTEX2 1059 -0.08909698 -4.18848520 -1.78417022
VERTEX2 1060 -0.22704595 -4.81863976 -1.77917149
VERTEX2 1061 -0.33530275 -5.26500146 -1.90170933
VERTEX2 1062 -0.33881459 -5.27039104 -2.46593576
VERTEX2 1063 -0.31756610 -5.25830130 -3.06366186
VERTEX2 1064 -0.59768793 -5.20492498 2.95427477
VERTEX2 1065 -1.18499004 -5.13640769 3.07624623
VERTEX2 1066 -1.74780758 -5.08261269 3.02014073
VERTEX2 1067 -1.73314374 -5.08188609 -2.83036409
VERTEX2 1068 -1.72063164 -5.07314554 -2.15755685
VERTEX2 1069 -1.72004658 -5.07158241 -1.98717250
VERTEX2 1070 -1.71860822 -5.06907112 -2.52611660
VERTEX2 1071 -2.19105475 -5.32401864 -2.65332668
VERTEX2 1072 -2.64164225 -5.55554775 -2.72198501
VERTEX2 1073 -2.61234079 -5.55486388 3.05006148
VERTEX2 1074 -3.14187051 -5.48184298 3.01570205
VERTEX2 1075 -3.71904103 -5.40433411 3.03226812
VERTEX2 1076 -3.73775251 -5.40293103 -2.84674648
VERTEX2 1077 -3.75094351 -5.42771495 -2.04104902
VERTEX2 1078 -3.99073322 -6.03726427 -1.99591719
VERTEX2 1079 -4.22478950 -6.60377637 -1.93381937
VERTEX2 1080 -4.22966433 -6.61673476 -2.42146598
VERTEX2 1081 -4.65789356 -6.90811955 -2.54474085
VERTEX2 1082 -4.82821671 -7.02647973 -2.26416211
VERTEX2 1083 -4.82387904 -7.06022657 -1.23404249
VERTEX2 1084 -4.75304074 -7.09686324 -0.26874604
VERTEX2 1085 -4.75804473 -7.09818959 0.71476942
VERTEX2 1086 -4.39740720 -6.61077550 0.94542460
VERTEX2 1087 -4.01740672 -6.10556714 0.93346149
VERTEX2 1088 -3.65604916 -5.59604983 0.91681908
VERTEX2 1089 -3.60056015 -5.52475667 0.82143363
VERTEX2 1090 -3.59073869 -5.51583258 0.20654740
VERTEX2 1091 -3.05339660 -5.48540522 0.02977196
VERTEX2 1092 -2.43474643 -5.47202264 0.01470697
VERTEX2 1093 -1.86612837 -5.47672637 -0.05028096
VERTEX2 1094 -1.85348088 -5.48883841 -0.45424200
VERTEX2 1095 -1.82318691 -5.51584479 -1.04381426
VERTEX2 1096 -1.82324406 -5.51570838 -1.61488964
VERTEX2 1097 -1.90725813 -5.84008728 -1.83024976
VERTEX2 1098 -2.08585263 -6.43578990 -1.88703770
VERTEX2 1099 -2.29472831 -6.99558228 -1.98308918
VERTEX2 1100 -2.30028484 -7.00951261 -1.61996902
VERTEX2 1101 -2.24278135 -7.27222586 -1.35404060
VERTEX2 1102 -2.24347119 -7.28011294 -1.74768429
VERTEX2 1103 -2.37304923 -7.88825075 -1.78144053
VERTEX2 1104 -2.51353818 -8.52265176 -1.80910672
VERTEX2 1105 -2.67121603 -9.14303815 -1.82696727
VERTEX2 1106 -2.79898518 -9.61842551 -1.85216073
VERTEX2 1107 -2.79838656 -9.62566864 -1.59598357
VERTEX2 1108 -2.77061518 -10.25127209 -1.58810165
VERTEX2 1109 -2.82746567 -10.89409974 -1.69197608
VERTEX2 1110 -2.90622533 -11.50056596 -1.74143607
VERTEX2 1111 -3.07959783 -12.02780552 -1.84264281
VERTEX2 1112 -3.11773502 -12.60603675 -1.49610673
VERTEX2 1113 -3.08644951 -13.24459251 -1.59140278
VERTEX2 1114 -3.09839528 -13.86050609 -1.57429695
VERTEX2 1115 -3.09745258 -14.44310196 -1.59041209
VERTEX2 1116 -3.08760957 -15.09087877 -1.55407776
VERTEX2 1117 -3.08510832 -15.18780249 -1.68175247
VERTEX2 1118 -3.08347288 -15.18477085 -2.28876552
VERTEX2 1119 -3.07415146 -15.17836497 -2.72025962
VERTEX2 1120 -3.63736681 -15.38219487 -2.78379365
VERTEX2 1121 -3.82678196 -15.44841474 -2.90227608
VERTEX2 1122 -3.82260622 -15.44985488 2.83077799
VERTEX2 1123 -4.37178012 -15.26415262 2.84779159
VERTEX2 1124 -4.92894095 -15.13468005 2.94663970
VERTEX2 1125 -5.55395984 -15.00846135 2.96023343
VERTEX2 1126 -5.63393984 -14.99548923 -2.98306537
VERTEX2 1127 -5.62977162 -14.99994411 -1.92551462
VERTEX2 1128 -5.62865301 -14.99454662 -0.93789098
VERTEX2 1129 -5.61155890 -15.00412581 0.07798703
VERTEX2 1130 -5.02228107 -14.93992279 0.09180375
VERTEX2 1131 -4.24856011 -15.06582410 -0.33975062
VERTEX2 1132 -3.63821174 -15.28397847 -0.35927691
VERTEX2 1133 -3.09178024 -15.51266564 -0.39780682
VERTEX2 1134 -2.83905487 -15.61914784 -0.49462730
VERTEX2 1135 -2.82847501 -15.62955975 -1.05029955
VERTEX2 1136 -2.82791058 -15.62836754 -1.61189191
VERTEX2 1137 -2.88226347 -15.93030565 -1.79568493
VERTEX2 1138 -3.03777743 -16.56269445 -1.81177435
VERTEX2 1139 -3.15775752 -17.05807952 -1.88479098
VERTEX2 1140 -3.14797693 -17.03475866 -2.36335394
VERTEX2 1141 -3.12670015 -17.01415528 -2.91029677
VERTEX2 1142 -3.48986258 -16.96992168 3.00890116
VERTEX2 1143 -4.08803440 -16.92181183 3.09849922
VERTEX2 1144 -4.66915466 -16.88616326 3.06806258
VERTEX2 1145 -5.24780939 -16.83928853 3.04277396
VERTEX2 1146 -5.82406291 -16.78078295 3.06269228
VERTEX2 1147 -6.40383760 -16.76946673 3.13559420
VERTEX2 1148 -6.98245711 -16.76574676 -3.13755994
VERTEX2 1149 -7.02532371 -16.76696249 -2.63931357
VERTEX2 1150 -7.11774188 -16.86923349 -1.82963742
VERTEX2 1151 -7.11582161 -16.88048376 -0.82570647
VERTEX2 1152 -7.09883909 -16.88081283 0.22753191
VERTEX2 1153 -7.08424767 -16.87424906 1.24042878
VERTEX2 1154 -7.14268593 -16.55718372 1.78649016
VERTEX2 1155 -7.27412785 -15.93258133 1.73714523
VERTEX2 1156 -7.36975164 -15.32666205 1.74716850
VERTEX2 1157 -7.49532157 -14.75539787 1.85828748
VERTEX2 1158 -7.62001528 -14.15309674 1.72974248
VERTEX2 1159 -7.67892357 -13.54986753 1.63573443
VERTEX2 1160 -7.69972783 -12.91013659 1.49901980
VERTEX2 1161 -7.59817976 -12.27878486 1.40935427
VERTEX2 1162 -7.50487673 -11.64711773 1.46749278
VERTEX2 1163 -7.44050845 -11.00440553 1.46206468
VERTEX2 1164 -7.39046745 -10.36361738 1.54753701
VERTEX2 1165 -7.37826992 -9.82412485 1.52473798
VERTEX2 1166 -7.37895088 -9.82078990 2.01375377
VERTEX2 1167 -7.32713661 -9.80828775 2.95048226
VERTEX2 1168 -7.28256752 -9.79064474 -2.42916229
VERTEX2 1169 -7.28663244 -9.84224656 -1.60707301
VERTEX2 1170 -7.29759780 -10.42847460 -1.60032139
VERTEX2 1171 -7.29820170 -11.06348139 -1.56852991
VERTEX2 1172 -7.30321059 -11.66253482 -1.63093140
VERTEX2 1173 -7.33385981 -12.28624100 -1.62177266
VERTEX2 1174 -7.37843268 -12.91511348 -1.69046685
VERTEX2 1175 -7.46524188 -13.52875853 -1.72386219
VERTEX2 1176 -7.56353075 -14.14975992 -1.76753244
VERTEX2 1177 -7.68396390 -14.75867444 -1.76548557
VERTEX2 1178 -7.81596443 -15.37149126 -1.81269808
VERTEX2 1179 -7.95442584 -15.97616307 -1.78335438
VERTEX2 1180 -8.00913014 -16.23015408 -1.79034518
VERTEX2 1181 -8.00835926 -16.22480721 -0.96291473
VERTEX2 1182 -7.95233710 -16.23912437 -0.25122649
VERTEX2 1183 -7.33847809 -16.38906404 -0.22593125
VERTEX2 1184 -6.70532125 -16.50488369 -0.15642770
VERTEX2 1185 -6.07707001 -16.61626731 -0.18872871
VERTEX2 1186 -5.44522043 -16.71219037 -0.12260153
VERTEX2 1187 -4.79102870 -16.79877274 -0.15976228
VERTEX2 1188 -4.16342668 -16.88974368 -0.14172962
VERTEX2 1189 -3.49835001 -16.99842707 -0.12009098
VERTEX2 1190 -3.16491817 -17.03931722 -0.11211509
VERTEX2 1191 -3.13059483 -17.03860531 0.80799952
VERTEX2 1192 -3.12478525 -16.95528461 1.60551395
VERTEX2 1193 -3.11792811 -16.35561542 1.47345686
VERTEX2 1194 -3.07651091 -15.78163118 1.51548034
VERTEX2 1195 -3.04789066 -15.15836733 1.56779909
VERTEX2 1196 -3.04194831 -14.53494058 1.39513327
VERTEX2 1197 -2.93848795 -13.92035118 1.40639093
VERTEX2 1198 -2.86803088 -13.29389212 1.66524236
VERTEX2 1199 -2.88524455 -12.68186268 1.45056263
VERTEX2 1200 -2.82815834 -12.05214113 1.51958040
VERTEX2 1201 -2.80332321 -11.43275176 1.57541168
VERTEX2 1202 -2.81370900 -10.81062522 1.59835927
VERTEX2 1203 -2.84429346 -10.22146306 1.50843524
VERTEX2 1204 -2.72998776 -9.62986008 1.36165014
VERTEX2 1205 -2.62154039 -9.06733396 1.39121695
VERTEX2 1206 -2.53598967 -8.47779364 1.45244119
VERTEX2 1207 -2.39845198 -7.86691600 1.36633822
VERTEX2 1208 -2.28577920 -7.24233390 1.43101306
VERTEX2 1209 -2.19857269 -6.62112770 1.42906626
VERTEX2 1210 -2.13346123 -6.00411164 1.44962908
VERTEX2 1211 -2.00725008 -5.39172459 1.37663346
VERTEX2 1212 -1.89213734 -4.77959951 1.42650841
VERTEX2 1213 -1.82468910 -4.16547408 1.49963447
VERTEX2 1214 -1.74256488 -3.43943751 1.27674620
VERTEX2 1215 -1.57798663 -2.85509008 1.33561480
VERTEX2 1216 -1.52752329 -2.30133563 1.55272090
VERTEX2 1217 -1.49313542 -1.72098801 1.53324745
VERTEX2 1218 -1.47922374 -1.13084828 1.48257845
VERTEX2 1219 -1.42840057 -0.48181008 1.51317645
VERTEX2 1220 -1.42125916 0.10524892 1.60391445
VERTEX2 1221 -1.42071630 0.10341990 1.15116145
VERTEX2 1222 -1.41073585 0.11313335 0.55385445
VERTEX2 1223 -1.39890124 0.11593127 -0.00577255
VERTEX2 1224 -0.82495493 0.02355262 -0.18868055
VERTEX2 1225 -0.20962744 -0.08997184 -0.17491655
VERTEX2 1226 -0.10476755 -0.10861364 -0.19164755
VERTEX2 1227 -0.10476755 -0.10861364 -0.19230955
