VERTEX2 0 -0.00002321 -0.00000076 -0.00000155
VERTEX2 1 -0.00002321 -0.00000076 -0.00064355
VERTEX2 2 -0.00002321 -0.00000076 -0.00118155
VERTEX2 3 0.01097864 -0.00097576 -0.00356355
VERTEX2 4 0.64098520 -0.01120187 -0.00744555
VERTEX2 5 0.69599289 -0.01171745 -0.09872755
VERTEX2 6 0.70024600 -0.01543678 -0.89599955
VERTEX2 7 0.69393329 0.00421172 -1.51153655
VERTEX2 8 0.69924018 0.02669248 -2.12507055
VERTEX2 9 0.71609148 0.04112148 -2.76314055
VERTEX2 10 0.72895800 0.04321885 2.90551376
VERTEX2 11 0.73318058 0.04053580 2.23123476
VERTEX2 12 0.73316330 0.04154425 1.58176076
VERTEX2 13 0.73872948 0.05906934 0.92226276
VERTEX2 14 0.75963503 0.07374952 0.31402376
VERTEX2 15 0.76854844 0.07435644 -0.21090424
VERTEX2 16 1.06205231 0.01417072 -0.22958529
VERTEX2 17 1.66510084 -0.13409381 -0.26089415
VERTEX2 18 2.29050141 -0.29862859 -0.27111275
VERTEX2 19 2.92034247 -0.49789556 -0.31969437
VERTEX2 20 3.51459182 -0.68871721 -0.31378875
VERTEX2 21 4.12372676 -0.84168292 -0.20220075
VERTEX2 22 4.73355401 -0.98357220 -0.18476421
VERTEX2 23 5.36700347 -1.02794908 -0.07744791
VERTEX2 24 5.99259588 -1.09917680 -0.13456168
VERTEX2 25 6.62144879 -1.16696251 -0.13181069
VERTEX2 26 7.22816056 -1.26751787 -0.17232681
VERTEX2 27 7.84177227 -1.35889980 -0.15647466
VERTEX2 28 8.42115881 -1.45749749 -0.16089525
VERTEX2 29 8.79793515 -1.51478183 -0.13009420
VERTEX2 30 8.80525372 -1.51672932 -0.66214998
VERTEX2 31 8.90646847 -1.65259341 -0.93045892
VERTEX2 32 9.27452812 -2.16775995 -0.94895470
VERTEX2 33 9.64777931 -2.66324645 -0.89839932
VERTEX2 34 10.04910641 -3.14251078 -0.87755679
VERTEX2 35 10.46003098 -3.61408564 -0.84346406
VERTEX2 36 10.87731981 -4.08692952 -0.85215469
VERTEX2 37 11.14833344 -4.38999337 -0.84456543
VERTEX2 38 11.13775195 -4.37566110 -1.16642122
VERTEX2 39 11.13460916 -4.36136390 -1.33752579
VERTEX2 40 11.27612662 -4.92703267 -1.32029783
VERTEX2 41 11.42309429 -5.51788160 -1.35224040
VERTEX2 42 11.54302380 -6.07270949 -1.37483210
VERTEX2 43 11.64738481 -6.65994774 -1.41482478
VERTEX2 44 11.73527442 -7.24704769 -1.45151061
VERTEX2 45 11.79073200 -7.86611914 -1.50674053
VERTEX2 46 11.82236650 -8.48741679 -1.52584795
VERTEX2 47 11.84330441 -9.10863157 -1.56722083
VERTEX2 48 11.84083999 -9.73445219 -1.57347361
VERTEX2 49 11.83479834 -10.35625377 -1.62397149
VERTEX2 50 11.78274732 -10.94610155 -1.66812297
VERTEX2 51 11.72924362 -11.54267396 -1.69686739
VERTEX2 52 11.63387937 -12.12628477 -1.77322880
VERTEX2 53 11.53579373 -12.68449376 -1.76055422
VERTEX2 54 11.42463836 -13.19715180 -1.82227312
VERTEX2 55 11.43106435 -13.16565621 -1.81667158
VERTEX2 56 11.43029107 -13.16870845 -1.80576893
VERTEX2 57 11.28909687 -13.78790021 -1.81682336
VERTEX2 58 11.14545468 -14.39547528 -1.77021999
VERTEX2 59 11.01942848 -15.00249061 -1.79342640
VERTEX2 60 10.89298982 -15.60594973 -1.77166000
VERTEX2 61 10.76228084 -16.20564459 -1.82257983
VERTEX2 62 10.61547069 -16.76669823 -1.78245214
VERTEX2 63 10.46706073 -17.33248548 -1.81766827
VERTEX2 64 10.33534984 -17.89269731 -1.75398901
VERTEX2 65 10.20424827 -18.45062059 -1.80511419
VERTEX2 66 10.05447600 -19.03844145 -1.81287016
VERTEX2 67 9.89310252 -19.62974925 -1.81115458
VERTEX2 68 9.78657412 -20.07822950 -1.82691121
VERTEX2 69 9.78966345 -20.06788572 -1.98182252
VERTEX2 70 9.79660391 -20.05435771 -2.65603271
VERTEX2 71 9.82096972 -20.05276668 2.98463988
VERTEX2 72 9.83469543 -20.05438896 2.97520691
VERTEX2 73 9.84313630 -20.05640551 2.91031839
VERTEX2 74 9.84408484 -20.05702177 2.28865865
VERTEX2 75 9.85177310 -20.05995909 1.93640321
VERTEX2 76 9.84056400 -20.04772184 2.63044375
VERTEX2 77 9.83721764 -20.04634433 2.86347535
VERTEX2 78 9.55689792 -20.05921208 -3.08248004
VERTEX2 79 8.94007896 -20.10282365 -3.08769906
VERTEX2 80 8.30926013 -20.10639521 3.12101281
VERTEX2 81 7.68598286 -20.08490277 3.09505347
VERTEX2 82 7.08676694 -20.04856705 3.04111760
VERTEX2 83 6.49811578 -20.00159976 3.01780795
VERTEX2 84 5.93410490 -19.91967391 2.94029710
VERTEX2 85 5.38866865 -19.81931083 2.94792819
VERTEX2 86 4.77404180 -19.70163679 2.85883131
VERTEX2 87 4.42808043 -19.61924111 2.80343858
VERTEX2 88 4.07262091 -19.49004737 2.77350064
VERTEX2 89 4.08710384 -19.49061236 -3.11427727
VERTEX2 90 3.48653633 -19.49741044 3.13763939
VERTEX2 91 2.87502899 -19.49660853 -3.09663215
VERTEX2 92 2.27956087 -19.49577100 3.07067546
VERTEX2 93 1.66162443 -19.39702413 2.96964763
VERTEX2 94 1.04362500 -19.26249837 2.92672872
VERTEX2 95 0.42632352 -19.17837334 3.06935419
VERTEX2 96 -0.17907502 -19.13061435 3.09343939
VERTEX2 97 -0.76413273 -19.07104867 3.02284822
VERTEX2 98 -1.34801106 -18.97380931 2.96488003
VERTEX2 99 -2.04932972 -18.85383670 3.01158795
VERTEX2 100 -2.61002293 -18.74952903 2.95973926
VERTEX2 101 -3.21697920 -18.69634433 3.06287614
VERTEX2 102 -3.82678363 -18.61908119 2.95708778
VERTEX2 103 -4.43267643 -18.50747226 3.05321235
VERTEX2 104 -5.04200400 -18.43437212 3.01968355
VERTEX2 105 -5.65134504 -18.37315226 3.06641786
VERTEX2 106 -6.25031539 -18.30608639 3.01174739
VERTEX2 107 -6.86558924 -18.21357366 3.00812731
VERTEX2 108 -7.31877437 -18.16752644 3.06981870
VERTEX2 109 -7.36255170 -18.15670625 2.62155056
VERTEX2 110 -7.37835560 -18.14054070 2.03050029
VERTEX2 111 -7.37902632 -18.06043212 1.52492453
VERTEX2 112 -7.35922829 -17.42694638 1.57947109
VERTEX2 113 -7.38154516 -16.80544123 1.62662958
VERTEX2 114 -7.41862829 -16.19252826 1.66354568
VERTEX2 115 -7.49877575 -15.53924263 1.72221735
VERTEX2 116 -7.62506611 -14.77501095 1.76469671
VERTEX2 117 -7.76749669 -14.14983136 1.85840391
VERTEX2 118 -7.77596499 -14.11301547 1.52079457
VERTEX2 119 -7.71969030 -13.58456103 1.46580058
VERTEX2 120 -7.66619969 -12.91734596 1.55410086
VERTEX2 121 -7.67603688 -12.28503850 1.61980281
VERTEX2 122 -7.70696178 -11.70436835 1.67572692
VERTEX2 123 -7.73040309 -11.52910845 1.66316216
VERTEX2 124 -7.64436039 -11.29389435 1.24075485
VERTEX2 125 -7.42667697 -10.70521056 1.23003844
VERTEX2 126 -7.29301346 -10.09371904 1.43698831
VERTEX2 127 -7.19352033 -9.46323113 1.43529067
VERTEX2 128 -7.11617238 -8.82936843 1.47167092
VERTEX2 129 -7.02797758 -8.19899738 1.43904685
VERTEX2 130 -6.95861475 -7.57126932 1.49183118
VERTEX2 131 -6.91095105 -6.95021262 1.58051545
VERTEX2 132 -6.89110974 -6.34001568 1.53120525
VERTEX2 133 -6.84399138 -5.77252413 1.49468667
VERTEX2 134 -6.79009804 -5.17621824 1.47674169
VERTEX2 135 -6.70836650 -4.60094855 1.45077942
VERTEX2 136 -6.63468321 -3.96842064 1.47062760
VERTEX2 137 -6.53881426 -3.33845353 1.42900937
VERTEX2 138 -6.46375818 -2.70904863 1.50940681
VERTEX2 139 -6.44799927 -2.07879586 1.57502772
VERTEX2 140 -6.47743259 -1.42341224 1.60582999
VERTEX2 141 -6.48466347 -0.78356939 1.55765438
VERTEX2 142 -6.48639775 -0.13408485 1.55403497
VERTEX2 143 -6.40697346 0.50368570 1.44370535
VERTEX2 144 -6.36822296 0.87439593 1.46141347
VERTEX2 145 -6.36346836 0.88890627 0.96337560
VERTEX2 146 -6.36218379 0.89554473 0.37055557
VERTEX2 147 -6.31189310 0.89222291 -0.11561518
VERTEX2 148 -5.88526083 0.83493680 -0.15103578
VERTEX2 149 -5.24956185 0.74519270 -0.12571894
VERTEX2 150 -4.62031052 0.68460350 -0.11136469
VERTEX2 151 -3.98543636 0.64115132 -0.02548984
VERTEX2 152 -3.36430595 0.61011009 -0.08622735
VERTEX2 153 -2.74345202 0.58176657 0.00731493
VERTEX2 154 -2.12609053 0.56517596 -0.06214910
VERTEX2 155 -1.50496480 0.53626134 -0.02867844
VERTEX2 156 -0.88128738 0.52640100 0.00207000
VERTEX2 157 -0.32133071 0.51274217 -0.06233003
VERTEX2 158 -0.12690169 0.50015944 -0.03464735
VERTEX2 159 -0.12259872 0.49880801 0.95261998
VERTEX2 160 -0.11733399 0.50752069 1.98823334
VERTEX2 161 -0.13883138 0.45020568 2.71186917
VERTEX2 162 -0.11415301 0.45587760 -2.53557940
VERTEX2 163 -0.11509077 0.45107210 -1.53855985
VERTEX2 164 -0.18833085 0.54169590 -0.47864985
VERTEX2 165 -0.02088684 0.52511538 -0.07078492
VERTEX2 166 0.67020030 0.48243382 -0.06902828
VERTEX2 167 1.28681826 0.43170896 -0.09822671
VERTEX2 168 1.86981959 0.38259369 -0.08640746
VERTEX2 169 2.46045349 0.31116556 -0.12349295
VERTEX2 170 3.04229940 0.24287784 -0.14425333
VERTEX2 171 3.60013584 0.14455964 -0.18264407
VERTEX2 172 4.22159492 0.03691657 -0.16863486
VERTEX2 173 4.84735528 -0.08356202 -0.19159758
VERTEX2 174 5.46926941 -0.19771444 -0.15158588
VERTEX2 175 6.08197782 -0.28787536 -0.17637327
VERTEX2 176 6.67822222 -0.40804294 -0.16682238
VERTEX2 177 7.29813415 -0.51083987 -0.19450672
VERTEX2 178 7.91660940 -0.65668358 -0.23352067
VERTEX2 179 8.31497091 -0.73972395 -0.18020243
VERTEX2 180 8.36088139 -0.75210440 -0.62225948
VERTEX2 181 8.80091099 -1.07089645 -0.67403150
VERTEX2 182 9.20758214 -1.43226932 -0.84800979
VERTEX2 183 9.55584856 -1.85605848 -0.90529468
VERTEX2 184 9.87818476 -2.34729173 -1.05161602
VERTEX2 185 10.15135627 -2.86791256 -1.14393182
VERTEX2 186 10.36309054 -3.42244361 -1.21006859
VERTEX2 187 10.55220874 -3.95734506 -1.23237409
VERTEX2 188 10.74793941 -4.51182034 -1.23735515
VERTEX2 189 10.93677536 -5.07072839 -1.26349634
VERTEX2 190 11.11992011 -5.67700064 -1.29187043
VERTEX2 191 11.29300085 -6.28280445 -1.31549598
VERTEX2 192 11.44744699 -6.88244826 -1.34334205
VERTEX2 193 11.57070621 -7.42846129 -1.39876876
VERTEX2 194 11.67057447 -7.99548370 -1.42523970
VERTEX2 195 11.75114088 -8.55787266 -1.45353847
VERTEX2 196 11.81887876 -9.18348283 -1.49407719
VERTEX2 197 11.85800458 -9.80501769 -1.52134246
VERTEX2 198 11.88451318 -10.42395387 -1.57930313
VERTEX2 199 11.85784267 -11.03227507 -1.64051429
VERTEX2 200 11.81226469 -11.63541499 -1.66220954
VERTEX2 201 11.74310023 -12.23509714 -1.71868558
VERTEX2 202 11.68057217 -12.74047589 -1.69762252
VERTEX2 203 11.58138104 -13.47507811 -1.74940993
VERTEX2 204 11.46225048 -14.05239829 -1.85090428
VERTEX2 205 11.29580082 -14.61537844 -1.85993034
VERTEX2 206 11.14459799 -15.16346750 -1.85761684
VERTEX2 207 10.98800489 -15.73142795 -1.84126787
VERTEX2 208 10.81821081 -16.33220515 -1.85032680
VERTEX2 209 10.65982836 -16.93459506 -1.81172196
VERTEX2 210 10.50055687 -17.52827634 -1.82032888
VERTEX2 211 10.35547218 -18.12561965 -1.81781579
VERTEX2 212 10.18285431 -18.71288561 -1.87037652
VERTEX2 213 9.99181320 -19.30410842 -1.89087665
VERTEX2 214 9.79599067 -19.88187132 -1.89441180
VERTEX2 215 9.68278788 -20.20691184 -1.93012121
VERTEX2 216 9.69381007 -20.18768218 -2.42856327
VERTEX2 217 9.72086268 -20.18455807 -2.97047133
VERTEX2 218 9.73232364 -20.18884380 -3.02639571
VERTEX2 219 9.16746326 -20.14980214 3.08840350
VERTEX2 220 8.55985906 -20.11113785 3.04861769
VERTEX2 221 7.92783075 -20.05247904 3.09931400
VERTEX2 222 7.30852788 -20.01728691 3.07386838
VERTEX2 223 6.68815814 -19.99534031 -3.11297637
VERTEX2 224 6.07835881 -20.00317629 -3.13885359
VERTEX2 225 5.46515165 -20.00471035 -3.08935373
VERTEX2 226 4.85282917 -20.00539494 -3.13875770
VERTEX2 227 4.20902524 -20.08066436 -2.98219101
VERTEX2 228 3.68786074 -20.07025166 2.93924480
VERTEX2 229 3.25382616 -20.03950718 3.05932641
VERTEX2 230 2.96563939 -20.02625305 3.03043535
VERTEX2 231 3.17256103 -20.04269418 3.10043184
VERTEX2 232 2.86458100 -19.90712400 2.67425736
VERTEX2 233 2.30118147 -19.65121988 2.77644278
VERTEX2 234 1.72634672 -19.42928881 2.73219686
VERTEX2 235 1.47868503 -19.32434052 2.72713832
VERTEX2 236 1.14895235 -19.32771341 3.13236471
VERTEX2 237 0.52534962 -19.34644076 -3.08051040
VERTEX2 238 -0.09021905 -19.39838072 -3.11331235
VERTEX2 239 -0.70253047 -19.39917116 3.10218453
VERTEX2 240 -1.26950174 -19.28527860 2.88402566
VERTEX2 241 -1.80680963 -19.15778401 2.96941134
VERTEX2 242 -2.37554716 -19.09632299 3.00891216
VERTEX2 243 -2.97156694 -19.01690716 3.00826263
VERTEX2 244 -3.59086472 -18.97485003 3.07963790
VERTEX2 245 -4.20117480 -18.92968831 3.02551461
VERTEX2 246 -4.79956662 -18.84742848 2.95326648
VERTEX2 247 -5.39952414 -18.76900837 3.05935437
VERTEX2 248 -5.95189182 -18.75074826 3.09113372
VERTEX2 249 -5.90113412 -18.75804013 -2.99854265
VERTEX2 250 -5.89202619 -18.75779287 2.69774718
VERTEX2 251 -6.21537845 -18.42124128 2.27446644
VERTEX2 252 -6.57332005 -18.00471567 2.28303734
VERTEX2 253 -6.94763696 -17.56262330 2.27212171
VERTEX2 254 -7.31565274 -17.10820646 2.23102463
VERTEX2 255 -7.38876826 -17.01681878 2.31488923
VERTEX2 256 -7.39238472 -16.93875793 1.83908385
VERTEX2 257 -7.44880719 -16.47488184 1.70398624
VERTEX2 258 -7.53761590 -15.88504092 1.78391946
VERTEX2 259 -7.68956533 -15.26873541 1.82335713
VERTEX2 260 -7.83071302 -14.69640882 1.81385107
VERTEX2 261 -7.82816106 -14.64995415 1.50050943
VERTEX2 262 -7.76723109 -13.98960485 1.50604390
VERTEX2 263 -7.72656409 -13.36229740 1.51831246
VERTEX2 264 -7.71272353 -12.74762149 1.61391286
VERTEX2 265 -7.74535477 -12.13257270 1.63277599
VERTEX2 266 -7.69629423 -11.54524920 1.50193269
VERTEX2 267 -7.64158192 -10.79954185 1.47242865
VERTEX2 268 -7.50659865 -10.19807998 1.36223562
VERTEX2 269 -7.38401730 -9.58632961 1.39214338
VERTEX2 270 -7.30917247 -8.96514576 1.50626260
VERTEX2 271 -7.21132657 -8.34519958 1.39593965
VERTEX2 272 -7.12318965 -7.72074373 1.46131801
VERTEX2 273 -7.13093364 -7.09175067 1.67364108
VERTEX2 274 -7.19672737 -6.47596913 1.69777282
VERTEX2 275 -7.18286513 -5.87018656 1.52651382
VERTEX2 276 -7.17427051 -5.26529840 1.64120689
VERTEX2 277 -7.21937717 -4.70251875 1.61580261
VERTEX2 278 -7.17454992 -4.06538222 1.52728256
VERTEX2 279 -7.13369888 -3.42683803 1.47233859
VERTEX2 280 -7.06476606 -2.79444607 1.47472861
VERTEX2 281 -6.97368070 -2.16080969 1.37465363
VERTEX2 282 -6.85370109 -1.53439673 1.41481931
VERTEX2 283 -6.76665098 -0.90060873 1.40724926
VERTEX2 284 -6.65529736 -0.27922998 1.43456692
VERTEX2 285 -6.58749427 0.37106778 1.45591650
VERTEX2 286 -6.52038246 0.99360275 1.50979043
VERTEX2 287 -6.51743497 1.04613027 1.40570814
VERTEX2 288 -6.51454188 1.05126256 0.79803083
VERTEX2 289 -6.51625485 1.05019743 0.20553435
VERTEX2 290 -6.08233455 1.04181343 -0.01905051
VERTEX2 291 -5.46582651 1.03463191 -0.00497464
VERTEX2 292 -4.85270902 1.01530940 -0.05964219
VERTEX2 293 -4.23097781 0.97052664 -0.08272587
VERTEX2 294 -3.61280939 0.91872031 -0.08206111
VERTEX2 295 -2.99394372 0.83887281 -0.19457063
VERTEX2 296 -2.37998863 0.69484587 -0.23998644
VERTEX2 297 -1.76820220 0.54391008 -0.25169589
VERTEX2 298 -1.15991227 0.38980402 -0.25248290
VERTEX2 299 -0.58799339 0.23330013 -0.19142378
VERTEX2 300 -0.00400290 0.14741809 -0.14931276
VERTEX2 301 0.55562780 0.04768132 -0.20854815
VERTEX2 302 0.85499774 -0.01702406 -0.22950808
VERTEX2 303 0.83501165 -0.01310080 -0.22542571
VERTEX2 304 1.33307997 -0.12872948 -0.21592672
VERTEX2 305 1.94531528 -0.17379311 -0.03213089
VERTEX2 306 2.57237062 -0.18509570 -0.05031868
VERTEX2 307 3.20921906 -0.23359289 -0.08714657
VERTEX2 308 3.83453365 -0.29715598 -0.14286621
VERTEX2 309 4.46715204 -0.35820662 -0.05008542
VERTEX2 310 5.09244128 -0.38896620 -0.08610294
VERTEX2 311 5.37113072 -0.41510795 0.08878097
VERTEX2 312 5.36575310 -0.41796580 1.07624064
VERTEX2 313 5.37043246 -0.20001608 1.57176967
VERTEX2 314 5.35108866 0.42788968 1.61147440
VERTEX2 315 5.32278400 1.05522380 1.60706662
VERTEX2 316 5.28333627 1.70002562 1.65819610
VERTEX2 317 5.22271862 2.34147445 1.66794966
VERTEX2 318 5.12469103 2.97831274 1.76227139
VERTEX2 319 5.04549695 3.32506673 1.83341651
VERTEX2 320 5.04752777 3.33133554 2.80127374
VERTEX2 321 5.03985554 3.32804268 -2.44289106
VERTEX2 322 5.03895627 3.32619118 -1.44733189
VERTEX2 323 5.04986004 3.31565459 -0.45556019
VERTEX2 324 5.05485179 3.31401648 0.20384404
VERTEX2 325 5.05669902 3.31415858 -0.32422980
VERTEX2 326 5.07399250 3.30110168 -0.91868982
VERTEX2 327 5.07654292 3.28905721 -1.54128766
VERTEX2 328 5.06072218 2.65131345 -1.58800759
VERTEX2 329 5.03945019 2.02612216 -1.64428494
VERTEX2 330 4.98598059 1.41250127 -1.66464626
VERTEX2 331 4.93109945 0.79401590 -1.68038879
VERTEX2 332 4.85168803 0.17861851 -1.70037152
VERTEX2 333 4.82975896 0.02229057 -1.63689817
VERTEX2 334 4.82986245 0.02201452 -0.84320719
VERTEX2 335 4.84598504 0.01726843 0.14735495
VERTEX2 336 4.85979057 0.02211965 1.08809602
VERTEX2 337 4.86524875 0.05609248 2.06663744
VERTEX2 338 4.86251199 0.05799163 3.05601005
VERTEX2 339 4.87236058 0.06409619 -2.17736437
VERTEX2 340 4.87284809 0.06089881 -1.15768746
VERTEX2 341 4.98615772 -0.00759565 -0.52403131
VERTEX2 342 5.55508493 -0.31029376 -0.42195732
VERTEX2 343 6.12472378 -0.50955042 -0.29093319
VERTEX2 344 6.70463006 -0.69116937 -0.30078081
VERTEX2 345 6.93385347 -0.75916166 -0.32806385
VERTEX2 346 6.91572142 -0.75318217 -0.97359345
VERTEX2 347 6.91806109 -0.84469223 -1.53037503
VERTEX2 348 6.93512527 -1.43840960 -1.54629228
VERTEX2 349 6.93202702 -2.06101110 -1.58571928
VERTEX2 350 6.91835073 -2.84856862 -1.60474442
VERTEX2 351 6.90387139 -3.12158072 -1.63310835
VERTEX2 352 6.90238468 -3.12862770 -1.91994789
VERTEX2 353 6.89324589 -3.13980995 -2.58292954
VERTEX2 354 6.88485879 -3.14220835 3.09912580
VERTEX2 355 6.87019673 -3.14167569 2.38074947
VERTEX2 356 6.86544269 -3.13325525 1.80767841
VERTEX2 357 6.86835690 -3.11593205 1.15700620
VERTEX2 358 6.87156406 -3.11140412 0.54384458
VERTEX2 359 6.86486126 -3.11427195 -0.06789279
VERTEX2 360 6.85548742 -3.11240761 -0.24297947
VERTEX2 361 6.84544186 -3.11502220 0.67994972
VERTEX2 362 6.92979975 -2.88635560 1.21589640
VERTEX2 363 7.03177505 -2.62042504 1.21034283
VERTEX2 364 6.96294293 -2.28576496 1.82724909
VERTEX2 365 6.90782762 -1.99815830 1.33206932
VERTEX2 366 7.01491428 -1.87699978 0.78003202
VERTEX2 367 7.46226021 -1.44053242 0.78317011
VERTEX2 368 7.91839369 -1.00431687 0.73529355
VERTEX2 369 7.93813725 -0.98046632 0.48356209
VERTEX2 370 7.96167883 -0.97670175 -0.10302517
VERTEX2 371 7.96688705 -0.97940770 -0.64832798
VERTEX2 372 8.39512313 -1.32736647 -0.67593994
VERTEX2 373 8.86707715 -1.69156996 -0.67389798
VERTEX2 374 9.34552163 -2.09402558 -0.73496886
VERTEX2 375 9.70961077 -2.41760683 -0.76568583
VERTEX2 376 9.72613724 -2.42769362 -0.07254903
VERTEX2 377 9.77604097 -2.39210273 0.62111294
VERTEX2 378 10.31034083 -1.99407749 0.67421792
VERTEX2 379 10.78838952 -1.56397440 0.75791559
VERTEX2 380 11.22631141 -1.09798585 0.87611379
VERTEX2 381 11.37189393 -0.91785282 1.02456203
VERTEX2 382 11.37274816 -0.91627297 2.06965555
VERTEX2 383 11.37691153 -0.91885170 3.05659413
VERTEX2 384 11.37448017 -0.92116459 -2.26278123
VERTEX2 385 11.37100009 -0.92701179 -1.23234201
VERTEX2 386 11.47584687 -1.06259498 -1.00728777
VERTEX2 387 11.93336776 -1.48408700 -0.67540340
VERTEX2 388 12.43431568 -1.86799864 -0.66570798
VERTEX2 389 12.90954852 -2.27168256 -0.74724374
VERTEX2 390 12.95754183 -2.31449178 -0.27082604
VERTEX2 391 12.81626720 -2.31063736 0.11017861
VERTEX2 392 12.81020188 -2.31087658 1.15354561
VERTEX2 393 12.84182064 -2.07979662 2.03555977
VERTEX2 394 12.83103462 -2.07062882 3.02991584
VERTEX2 395 13.06917852 -2.02815882 -2.91555594
VERTEX2 396 13.06665509 -2.02861921 -2.91535579
VERTEX2 397 13.06157490 -2.02823710 -2.92606436
VERTEX2 398 13.05612725 -2.03053968 -2.72846657
VERTEX2 399 12.95644558 -2.10854824 -2.42949561
VERTEX2 400 12.46084103 -2.54059384 -2.37921942
VERTEX2 401 11.99823281 -2.94883995 -2.47204566
VERTEX2 402 11.44781310 -3.23716838 -2.73974219
VERTEX2 403 10.88052167 -3.47254919 -2.77424363
VERTEX2 404 10.33926397 -3.66328374 -2.85380910
VERTEX2 405 10.35369280 -3.65635483 -2.32103549
VERTEX2 406 10.35698619 -3.63679821 -1.34458438
VERTEX2 407 10.47648615 -3.97315324 -1.21724696
VERTEX2 408 10.68246152 -4.54858423 -1.25593547
VERTEX2 409 10.76501149 -4.82806501 -1.35638180
VERTEX2 410 10.76526012 -4.82049795 -1.98613050
VERTEX2 411 10.77448991 -4.80413180 -2.57721906
VERTEX2 412 10.27614196 -5.00308930 -2.78127442
VERTEX2 413 9.70340559 -5.19741426 -2.86214131
VERTEX2 414 9.12533276 -5.38132439 -2.75978403
VERTEX2 415 8.51650443 -5.61766604 -2.75244781
VERTEX2 416 8.22986373 -5.74406941 -2.80728930
VERTEX2 417 7.93708530 -5.72725392 3.05211712
VERTEX2 418 7.49791618 -5.68272097 3.00731256
VERTEX2 419 7.50071231 -5.68209555 -2.84419006
VERTEX2 420 7.55438825 -5.65845984 -2.62752736
VERTEX2 421 7.55828909 -5.65230005 -1.65855571
VERTEX2 422 7.55640602 -5.65491952 -0.41762984
VERTEX2 423 7.56080876 -5.65536265 -0.07141220
VERTEX2 424 7.56501274 -5.65621159 -0.07010332
VERTEX2 425 7.55742576 -5.66044438 -0.05741482
VERTEX2 426 7.56136442 -5.66122020 -0.06558381
VERTEX2 427 7.59783478 -5.66328201 -0.06151853
VERTEX2 428 8.26362461 -5.68791749 -0.06607362
VERTEX2 429 8.91231028 -5.74017954 -0.10554712
VERTEX2 430 9.25420516 -5.78187785 -0.15059646
VERTEX2 431 9.23223860 -5.77919244 -0.09762360
VERTEX2 432 9.24496934 -5.78370222 -0.72710011
VERTEX2 433 9.25085586 -5.79178658 -1.40203284
VERTEX2 434 9.21441641 -6.33200688 -1.62861347
VERTEX2 435 9.18317664 -6.97620560 -1.65580632
VERTEX2 436 9.10661421 -7.61719654 -1.66353252
VERTEX2 437 9.05618601 -8.26832759 -1.65454779
VERTEX2 438 9.00587288 -8.73567968 -1.68452863
VERTEX2 439 9.00441983 -8.74119090 -2.11933768
VERTEX2 440 9.01068897 -8.73624365 -2.76090670
VERTEX2 441 9.02563611 -8.73472943 2.90178614
VERTEX2 442 9.03125511 -8.73779043 2.27394948
VERTEX2 443 9.03127364 -8.73814257 1.70847690
VERTEX2 444 9.03439394 -8.72151471 1.11840474
VERTEX2 445 9.03942138 -8.71669488 0.46183199
VERTEX2 446 9.03732082 -8.71800304 0.66407496
VERTEX2 447 9.04906618 -8.69514510 1.29704475
VERTEX2 448 9.19816473 -8.07433187 1.31468575
VERTEX2 449 9.33023024 -7.43910486 1.41617221
VERTEX2 450 9.42358121 -6.80341548 1.42996307
VERTEX2 451 9.47586605 -6.33412642 1.47259068
VERTEX2 452 9.47586198 -6.33425574 1.09453629
VERTEX2 453 9.47242346 -6.34048358 0.47234172
VERTEX2 454 9.73409179 -6.32040833 0.05026632
VERTEX2 455 10.33249772 -6.29567255 0.02975588
VERTEX2 456 10.96441300 -6.29086977 -0.03477676
VERTEX2 457 11.31805332 -6.31317705 -0.12243707
VERTEX2 458 11.31297119 -6.31065591 -0.76818930
VERTEX2 459 11.30419027 -6.27519450 -1.37626122
VERTEX2 460 11.28387710 -6.67272778 -1.63317980
VERTEX2 461 11.21579570 -7.28833015 -1.72105216
VERTEX2 462 11.12895371 -7.79691132 -1.76099549
VERTEX2 463 11.14054843 -7.77414038 -0.92052728
VERTEX2 464 11.39576778 -7.84637683 -0.24225089
VERTEX2 465 11.97950085 -7.97854843 -0.23444184
VERTEX2 466 12.53298891 -8.12899528 -0.29001337
VERTEX2 467 13.10387606 -8.30997575 -0.33340932
VERTEX2 468 13.71543156 -8.52585096 -0.36931204
VERTEX2 469 14.30311669 -8.78873547 -0.45267666
VERTEX2 470 14.75533279 -9.00314705 -0.43399955
VERTEX2 471 14.76152012 -9.00650363 -0.63407525
VERTEX2 472 14.77564772 -9.02625459 -1.26706853
VERTEX2 473 14.77576234 -9.02684082 -1.90798959
VERTEX2 474 14.77308888 -9.03017882 -2.53772807
VERTEX2 475 14.77541791 -9.02986405 -3.11066822
VERTEX2 476 14.77844221 -9.03027943 2.52223392
VERTEX2 477 14.78396947 -9.04111876 1.96353028
VERTEX2 478 14.78491398 -9.05352762 1.33736986
VERTEX2 479 14.78302742 -9.05786295 0.88377878
VERTEX2 480 14.78242893 -9.05919704 1.44661916
VERTEX2 481 14.77936903 -9.04601882 2.44999584
VERTEX2 482 14.78841135 -9.04962436 2.78651867
VERTEX2 483 14.79971243 -9.05371980 2.78134442
VERTEX2 484 14.37794326 -8.89828928 2.81708548
VERTEX2 485 13.77927744 -8.71132506 2.81508679
VERTEX2 486 13.17758822 -8.50018648 2.82450714
VERTEX2 487 12.56748572 -8.32227482 2.85268057
VERTEX2 488 11.95510029 -8.14242206 2.88870372
VERTEX2 489 11.48510214 -8.03600479 2.91904177
VERTEX2 490 11.49104001 -8.03541616 -2.87920905
VERTEX2 491 11.50000111 -8.02354769 -1.94338134
VERTEX2 492 11.48392408 -8.25086586 -1.64048097
VERTEX2 493 11.42341085 -8.85559946 -1.69522812
VERTEX2 494 11.33796147 -9.46549112 -1.75581205
VERTEX2 495 11.27042754 -10.08881138 -1.64841728
VERTEX2 496 11.22839959 -10.71333222 -1.53046690
VERTEX2 497 11.22333170 -11.33123086 -1.61631101
VERTEX2 498 11.15672701 -11.95285158 -1.71791390
VERTEX2 499 11.02828604 -12.57967452 -1.73475960
VERTEX2 500 11.08820411 -13.14618343 -1.40552878
VERTEX2 501 11.16472213 -13.72142909 -1.47723704
VERTEX2 502 11.19184170 -14.41760041 -1.56162882
VERTEX2 503 11.18938534 -14.86528705 -1.57852140
VERTEX2 504 11.19400525 -14.85204386 -0.72112989
VERTEX2 505 11.43268406 -14.87805808 -0.09895342
VERTEX2 506 12.02547635 -14.95665084 -0.25138295
VERTEX2 507 12.60805013 -15.12346765 -0.32982276
VERTEX2 508 13.17884075 -15.33203130 -0.34298993
VERTEX2 509 13.80017101 -15.56201655 -0.39890207
VERTEX2 510 14.15784970 -15.71916957 -0.41280688
VERTEX2 511 14.15607542 -15.70280036 0.46255502
VERTEX2 512 14.17727327 -15.65743319 1.65990155
VERTEX2 513 14.17403071 -15.64804952 2.61539968
VERTEX2 514 14.10680796 -15.62961392 2.84168118
VERTEX2 515 13.49580177 -15.45240063 2.84279432
VERTEX2 516 12.91024091 -15.26194449 2.85869897
VERTEX2 517 12.31698675 -15.11740976 2.88689786
VERTEX2 518 11.72406040 -14.96973680 2.91125221
VERTEX2 519 11.20179082 -14.84892400 2.89555682
VERTEX2 520 11.03039264 -14.80531271 -2.98907514
VERTEX2 521 11.05207318 -14.78113323 -1.98515983
VERTEX2 522 10.98922060 -15.17598744 -1.72079375
VERTEX2 523 10.90165084 -15.79706701 -1.72790951
VERTEX2 524 10.80148911 -16.37203969 -1.76956291
VERTEX2 525 10.70113123 -16.91516732 -1.74567104
VERTEX2 526 10.58884573 -17.48509468 -1.80421245
VERTEX2 527 10.44517367 -18.06539337 -1.83878969
VERTEX2 528 10.26706201 -18.63332668 -1.91452216
VERTEX2 529 10.05945274 -19.23689100 -1.94265441
VERTEX2 530 9.81700428 -19.83774783 -1.97259150
VERTEX2 531 9.55212471 -20.41420532 -2.05227340
VERTEX2 532 9.45596326 -20.60006267 -2.00153673
VERTEX2 533 9.45210388 -20.58202038 -1.00306772
VERTEX2 534 9.45072210 -20.58110505 -0.33687034
VERTEX2 535 9.45323460 -20.58089887 -0.33751311
VERTEX2 536 9.80990592 -20.66252154 -0.20716938
VERTEX2 537 10.41674835 -20.80721003 -0.26550938
VERTEX2 538 10.97664484 -20.97304709 -0.29296490
VERTEX2 539 11.58804296 -21.17967056 -0.35810959
VERTEX2 540 12.17776798 -21.43075684 -0.45142863
VERTEX2 541 12.76792057 -21.65693885 -0.28964805
VERTEX2 542 13.40263651 -21.79708637 -0.23439956
VERTEX2 543 13.52755459 -21.82801008 -0.26449558
VERTEX2 544 13.55467581 -21.82519100 0.37129207
VERTEX2 545 13.58279230 -21.77408755 1.43524269
VERTEX2 546 13.59857908 -21.81513513 2.26067722
VERTEX2 547 13.60463940 -21.81475082 -3.00027950
VERTEX2 548 13.61660855 -21.80710485 -2.07688250
VERTEX2 549 13.61769928 -21.79981145 -1.26880219
VERTEX2 550 13.61666281 -21.78207448 -1.74767184
VERTEX2 551 13.62304777 -21.76909374 -2.37289548
VERTEX2 552 13.63729535 -21.76195315 -3.00420434
VERTEX2 553 13.49846682 -21.70940517 2.70273631
VERTEX2 554 12.90401265 -21.42750745 2.66769118
VERTEX2 555 12.32226467 -21.15488774 2.75701121
VERTEX2 556 11.71535350 -20.93921977 2.89258414
VERTEX2 557 11.11414331 -20.77188620 2.85161322
VERTEX2 558 10.53709472 -20.61837573 2.93289577
VERTEX2 559 10.54468200 -20.62088048 2.52638292
VERTEX2 560 10.53785349 -20.61338017 2.02596196
VERTEX2 561 10.51495736 -20.59147924 2.53169444
VERTEX2 562 10.33640568 -20.59285355 -3.10730646
VERTEX2 563 9.76537873 -20.51924660 2.98437262
VERTEX2 564 9.15961915 -20.43312364 3.03337375
VERTEX2 565 8.57526289 -20.36843523 2.97470751
VERTEX2 566 8.63407315 -20.38623277 -2.52503547
VERTEX2 567 8.53819120 -20.39411014 -1.73074314
VERTEX2 568 8.49484864 -20.89081250 -1.66540225
VERTEX2 569 8.44802801 -21.47267931 -1.70497339
VERTEX2 570 8.38372211 -22.05878212 -1.70047868
VERTEX2 571 8.33452101 -22.41378198 -1.74816168
VERTEX2 572 8.30294888 -22.43730375 -1.99166624
VERTEX2 573 8.26759742 -22.51928826 -1.71537361
VERTEX2 574 8.28959149 -22.54966908 -0.77608699
VERTEX2 575 8.44456096 -22.59880182 0.14579681
VERTEX2 576 8.44666526 -22.60044488 1.17337371
VERTEX2 577 8.44072159 -22.58515450 2.14538865
VERTEX2 578 8.43158185 -22.55526411 1.78118621
VERTEX2 579 8.30134013 -21.90659736 1.79620963
VERTEX2 580 8.13442385 -21.27061841 1.87136736
VERTEX2 581 7.93515152 -20.65102298 1.91377251
VERTEX2 582 7.70863926 -20.04081838 1.95694444
VERTEX2 583 7.57678060 -19.73600277 2.03635875
VERTEX2 584 7.57236750 -19.72763132 2.88034139
VERTEX2 585 6.99070352 -19.59385364 2.99880153
VERTEX2 586 6.39910720 -19.52546553 3.09653046
VERTEX2 587 5.78297533 -19.52067109 3.12210099
VERTEX2 588 5.15577404 -19.50112804 3.12672827
VERTEX2 589 4.62531922 -19.53096573 -3.08099414
VERTEX2 590 4.08385496 -19.58011188 -3.01216897
VERTEX2 591 3.54732533 -19.66415000 -3.01398231
VERTEX2 592 3.00176480 -19.74378482 -3.01662886
VERTEX2 593 2.82601737 -19.76766702 -2.81123788
VERTEX2 594 2.87260085 -19.71654400 -1.89416210
VERTEX2 595 2.76411629 -20.32421530 -1.66116065
VERTEX2 596 2.71644087 -20.94863606 -1.68419366
VERTEX2 597 2.62993387 -21.62398499 -1.72402357
VERTEX2 598 2.53231239 -22.21902432 -1.76619797
VERTEX2 599 2.44774146 -22.59309672 -1.83238873
VERTEX2 600 2.44807221 -22.61010786 -1.02589506
VERTEX2 601 2.49130753 -22.63629942 -0.00783445
VERTEX2 602 2.52844402 -22.62102782 1.00617103
VERTEX2 603 2.49290157 -22.39056672 1.77879134
VERTEX2 604 2.42868129 -21.78248722 1.53470663
VERTEX2 605 2.43329631 -21.13515967 1.61727598
VERTEX2 606 2.38861656 -20.48879895 1.65935781
VERTEX2 607 2.39582675 -19.89924451 1.57835792
VERTEX2 608 2.38015680 -19.51403832 1.62287262
VERTEX2 609 2.37647320 -19.49325126 1.95926290
VERTEX2 610 2.37220951 -19.49174121 2.89208276
VERTEX2 611 1.77878688 -19.34620150 2.89503598
VERTEX2 612 1.30835339 -19.21558503 2.89783310
VERTEX2 613 1.34678179 -19.22704994 -2.92160982
VERTEX2 614 1.35418354 -19.22138327 -1.88370122
VERTEX2 615 1.36908664 -19.70781773 -1.57920034
VERTEX2 616 1.37858773 -20.33064156 -1.63040053
VERTEX2 617 1.24433996 -20.93039520 -1.84781924
VERTEX2 618 1.07874804 -21.53269954 -1.83789056
VERTEX2 619 0.91968477 -22.10479219 -1.83903017
VERTEX2 620 0.73816211 -22.68129651 -1.93485641
VERTEX2 621 0.86565448 -22.34823572 -1.98606027
VERTEX2 622 0.98798646 -22.08410952 -2.06073379
VERTEX2 623 0.98759483 -22.08464572 -2.59713021
VERTEX2 624 0.96018094 -22.08448635 3.04423674
VERTEX2 625 0.92069876 -22.06874666 2.38649957
VERTEX2 626 0.89392275 -22.03830022 1.76922067
VERTEX2 627 0.96479816 -21.66684670 1.35894331
VERTEX2 628 1.14075495 -21.03997018 1.25822998
VERTEX2 629 1.30959450 -20.41247537 1.32936177
VERTEX2 630 1.43237335 -19.80515846 1.41442817
VERTEX2 631 1.50207862 -19.27621189 1.43454902
VERTEX2 632 1.50456127 -19.26107571 2.11048422
VERTEX2 633 1.40905328 -19.25511501 -3.08619456
VERTEX2 634 0.74467922 -19.29584097 -3.05874128
VERTEX2 635 0.09431669 -19.31051553 3.08950916
VERTEX2 636 -0.54498952 -19.28607254 3.07200800
VERTEX2 637 -1.17122557 -19.21603131 2.97282495
VERTEX2 638 -1.55849827 -19.13981915 2.94341846
VERTEX2 639 -2.16460521 -19.04219527 3.02389974
VERTEX2 640 -2.77490654 -18.93853882 2.95612651
VERTEX2 641 -3.37060880 -18.83320005 2.94788619
VERTEX2 642 -3.93760796 -18.70267314 2.90235547
VERTEX2 643 -4.41873882 -18.56999227 2.83489991
VERTEX2 644 -4.42162290 -18.57066432 -2.69149768
VERTEX2 645 -4.45684961 -18.71196018 -1.91470949
VERTEX2 646 -4.59052533 -19.32387155 -1.61963561
VERTEX2 647 -4.54329259 -19.96654156 -1.33080690
VERTEX2 648 -4.31679915 -20.59009478 -1.16452963
VERTEX2 649 -4.13973689 -21.18773361 -1.50212205
VERTEX2 650 -4.23699750 -21.81786066 -1.75946676
VERTEX2 651 -4.25375875 -21.96453656 -0.96002037
VERTEX2 652 -4.19278357 -21.99153054 0.06501930
VERTEX2 653 -4.14890772 -21.95164971 1.09552178
VERTEX2 654 -4.15978546 -21.65265773 1.60899880
VERTEX2 655 -4.17372933 -21.09701388 1.60411978
VERTEX2 656 -4.17677554 -20.49264273 1.59161332
VERTEX2 657 -4.28810131 -19.87934933 1.86844778
VERTEX2 658 -4.48187602 -19.26497912 1.86131951
VERTEX2 659 -4.59960867 -18.77323657 1.79022316
VERTEX2 660 -4.60266460 -18.75849779 2.39047574
VERTEX2 661 -4.77356794 -18.74084295 3.04407100
VERTEX2 662 -5.36369470 -18.68608060 3.11356593
VERTEX2 663 -5.94730188 -18.70455834 -3.06871313
VERTEX2 664 -5.95385747 -18.70292948 -2.54554526
VERTEX2 665 -5.96913032 -18.80432523 -1.71131465
VERTEX2 666 -6.03627813 -19.41262202 -1.67412168
VERTEX2 667 -6.08908767 -19.97869324 -1.66945458
VERTEX2 668 -6.14806033 -20.57225781 -1.64362973
VERTEX2 669 -6.19173577 -21.19750870 -1.66872168
VERTEX2 670 -6.28635317 -21.81522363 -1.72816281
VERTEX2 671 -6.33156876 -22.10747969 -1.67314693
VERTEX2 672 -6.23409042 -21.52540205 -1.76221931
VERTEX2 673 -6.16980254 -21.25757299 -1.89272679
VERTEX2 674 -6.15611584 -21.24289854 -2.54076310
VERTEX2 675 -6.13109059 -21.23739440 3.13390270
VERTEX2 676 -6.12385495 -21.24154782 2.51066392
VERTEX2 677 -6.11875077 -21.24847119 1.89492008
VERTEX2 678 -6.09244862 -21.02565387 1.44905977
VERTEX2 679 -6.03301241 -20.44569398 1.51168387
VERTEX2 680 -6.06423115 -19.99749732 1.85664522
VERTEX2 681 -6.22145420 -19.40631229 1.82912901
VERTEX2 682 -6.39724875 -18.80586769 1.87657703
VERTEX2 683 -6.49028997 -18.52865243 2.03546780
VERTEX2 684 -6.43511618 -18.58408644 3.11452300
VERTEX2 685 -6.83306564 -18.74610715 -2.72527097
VERTEX2 686 -7.27430066 -18.88453769 -2.86968312
VERTEX2 687 -7.86257859 -19.03863037 -2.90482385
VERTEX2 688 -8.45428130 -19.16188934 -2.91671983
VERTEX2 689 -9.01232910 -19.30352238 -2.88918194
VERTEX2 690 -9.54755482 -19.47611674 -2.81479313
VERTEX2 691 -9.94206472 -19.61034224 -2.84261389
VERTEX2 692 -9.92710973 -19.60356776 -2.30796422
VERTEX2 693 -9.90592120 -19.66860510 -1.26684829
VERTEX2 694 -9.88258682 -19.73648941 -0.43158333
VERTEX2 695 -9.86603176 -19.73164180 0.36825812
VERTEX2 696 -9.86056732 -19.72800647 1.39353652
VERTEX2 697 -9.87140302 -19.76458168 1.14047520
VERTEX2 698 -9.54319069 -19.55336701 0.48554696
VERTEX2 699 -8.98255141 -19.23619350 0.59950143
VERTEX2 700 -8.47203827 -18.87043545 0.65294615
VERTEX2 701 -8.04568374 -18.50819923 0.71247423
VERTEX2 702 -7.57513061 -18.19315250 0.59768315
VERTEX2 703 -7.07179829 -17.85634591 0.63221857
VERTEX2 704 -6.58679098 -17.47389410 0.65064002
VERTEX2 705 -6.07958703 -17.04934807 0.72088247
VERTEX2 706 -5.65234963 -16.72821989 0.45189121
VERTEX2 707 -5.62718220 -16.72666994 -0.06836569
VERTEX2 708 -5.61701649 -16.73244072 -0.70685962
VERTEX2 709 -5.65696002 -16.69008700 -1.03894931
VERTEX2 710 -5.66124596 -16.67925209 -1.60007846
VERTEX2 711 -5.65149773 -16.68792029 -2.19682392
VERTEX2 712 -5.63170412 -16.67251064 -2.75727908
VERTEX2 713 -6.10440639 -16.72655878 -3.04264001
VERTEX2 714 -6.65792979 -16.70564200 3.04301350
VERTEX2 715 -7.28818388 -16.67341035 -3.13682012
VERTEX2 716 -7.92585591 -16.65607666 3.00804565
VERTEX2 717 -8.54679454 -16.59262708 3.09280543
VERTEX2 718 -9.30886008 -16.47945325 2.91742892
VERTEX2 719 -9.92558466 -16.36858933 2.99189501
VERTEX2 720 -10.53814276 -16.26059142 2.93268790
VERTEX2 721 -11.15564701 -16.14918784 3.00090091
VERTEX2 722 -11.17127238 -16.14707223 3.06759522
VERTEX2 723 -11.19178261 -16.16851778 -2.12567220
VERTEX2 724 -11.19159545 -16.21342760 -1.05683300
VERTEX2 725 -11.16315723 -16.23227141 -0.42249536
VERTEX2 726 -10.83691648 -16.22625526 0.03169352
VERTEX2 727 -10.19896186 -16.18417684 0.06243975
VERTEX2 728 -9.55813176 -16.15635991 0.06383391
VERTEX2 729 -8.92009534 -16.09223227 0.12148766
VERTEX2 730 -8.29689541 -15.99633662 0.15900798
VERTEX2 731 -7.64715233 -15.89167430 0.17081924
VERTEX2 732 -7.50283418 -15.86176006 0.61657198
VERTEX2 733 -7.50374268 -15.86030391 1.61152617
VERTEX2 734 -7.56506687 -15.29872120 1.68918712
VERTEX2 735 -7.62845332 -14.69076493 1.65675371
VERTEX2 736 -7.62964285 -14.67371529 2.25531321
VERTEX2 737 -7.62227215 -14.67467663 3.05481860
VERTEX2 738 -8.20378052 -14.63423801 3.07367097
VERTEX2 739 -8.81002274 -14.53890168 3.01584153
VERTEX2 740 -9.31543764 -14.49856439 3.07892078
VERTEX2 741 -9.29701157 -14.49835723 2.70976013
VERTEX2 742 -9.30249255 -14.49455599 2.05652653
VERTEX2 743 -9.30631597 -14.47757791 1.43928414
VERTEX2 744 -9.29349982 -14.44830813 0.89952501
VERTEX2 745 -9.27109266 -14.43662664 0.30561544
VERTEX2 746 -8.73007452 -14.45534541 -0.16965566
VERTEX2 747 -8.08927095 -14.56986724 -0.20501278
VERTEX2 748 -7.51731030 -14.71200784 -0.27347081
VERTEX2 749 -7.43885742 -14.73171354 0.15550422
VERTEX2 750 -7.42538060 -14.70700746 1.08214436
VERTEX2 751 -7.46057008 -14.42389174 1.72210196
VERTEX2 752 -7.51838617 -13.78780505 1.61860802
VERTEX2 753 -7.55522717 -13.13626721 1.68179184
VERTEX2 754 -7.56153126 -12.48276915 1.51966261
VERTEX2 755 -7.54211614 -11.84896722 1.60640809
VERTEX2 756 -7.50418676 -11.21276266 1.43050649
VERTEX2 757 -7.42933978 -10.56767948 1.54268419
VERTEX2 758 -7.44997258 -9.98704487 1.68523268
VERTEX2 759 -7.44005723 -9.44581541 1.56397239
VERTEX2 760 -7.47793587 -8.84201351 1.67537426
VERTEX2 761 -7.48010088 -8.81160427 1.85577989
VERTEX2 762 -7.55210882 -8.77936482 2.69168254
VERTEX2 763 -8.12253420 -8.67727145 2.98471899
VERTEX2 764 -8.53882204 -8.60652127 2.95730653
VERTEX2 765 -8.52480051 -8.60624636 -2.68612661
VERTEX2 766 -8.52702935 -8.61351021 -1.68532871
VERTEX2 767 -8.52055106 -8.62984121 -0.75402553
VERTEX2 768 -8.48991984 -8.63165941 -0.03130788
VERTEX2 769 -7.85138467 -8.54078393 0.12576096
VERTEX2 770 -7.19566995 -8.47973406 0.05878269
VERTEX2 771 -7.10395695 -8.47183502 0.61958573
VERTEX2 772 -7.10208807 -8.46585299 1.48660819
VERTEX2 773 -7.07970107 -7.89096015 1.57223387
VERTEX2 774 -7.09311463 -7.34736580 1.59416676
VERTEX2 775 -7.09171734 -7.35338726 2.43851865
VERTEX2 776 -7.30484775 -7.32765932 3.05549379
VERTEX2 777 -7.92215803 -7.28579777 3.11434034
VERTEX2 778 -8.53905830 -7.27516198 3.09320937
VERTEX2 779 -9.15094036 -7.25371623 3.11114248
VERTEX2 780 -9.35500164 -7.23589956 2.98069645
VERTEX2 781 -9.34725057 -7.23869595 2.40684941
VERTEX2 782 -9.47166576 -6.97095623 1.97693355
VERTEX2 783 -9.70278500 -6.40148374 1.97616599
VERTEX2 784 -9.79925385 -6.17891007 1.95466878
VERTEX2 785 -9.79992051 -6.15811570 1.40229204
VERTEX2 786 -9.79280770 -6.13507546 0.81353685
VERTEX2 787 -9.77574119 -6.11777338 0.32249086
VERTEX2 788 -9.74497382 -6.12002804 -0.30709291
VERTEX2 789 -9.73564583 -6.12743642 -0.85881135
VERTEX2 790 -9.43174018 -6.52416297 -0.92584579
VERTEX2 791 -9.03011248 -7.00802411 -0.82702357
VERTEX2 792 -8.79781568 -7.21728844 -0.12182411
VERTEX2 793 -8.18589099 -7.27263830 -0.07674159
VERTEX2 794 -7.54958142 -7.30471716 -0.00517285
VERTEX2 795 -7.57759963 -7.32513529 0.42489960
VERTEX2 796 -7.59216318 -7.33101604 1.08502741
VERTEX2 797 -7.51584240 -7.01761244 1.34556832
VERTEX2 798 -7.37837199 -6.38701767 1.39592027
VERTEX2 799 -7.28924587 -5.73729177 1.46182270
VERTEX2 800 -7.23341885 -5.08479834 1.53486476
VERTEX2 801 -7.24249819 -4.45316884 1.62097754
VERTEX2 802 -7.29457377 -3.82795208 1.67885254
VERTEX2 803 -7.27552135 -3.19969507 1.51439127
VERTEX2 804 -7.25366788 -2.57270094 1.57045600
VERTEX2 805 -7.28529802 -1.94240937 1.64690627
VERTEX2 806 -7.34382443 -1.34406565 1.68847013
VERTEX2 807 -7.37044831 -1.16113336 1.97696739
VERTEX2 808 -7.37415256 -1.16106064 2.92587408
VERTEX2 809 -7.96466425 -1.13130691 3.07073361
VERTEX2 810 -8.58077813 -1.00743474 2.93076233
VERTEX2 811 -9.17851912 -0.89538449 2.92761976
VERTEX2 812 -9.17974981 -0.89515408 -2.62334028
VERTEX2 813 -9.18945784 -0.91678832 -1.64742092
VERTEX2 814 -9.18236273 -0.92240137 -0.65457272
VERTEX2 815 -9.15704653 -0.93091185 0.26526076
VERTEX2 816 -9.14764495 -0.92575316 0.94682790
VERTEX2 817 -9.13835569 -0.91987454 0.27768798
VERTEX2 818 -8.91759424 -0.95322238 -0.21148644
VERTEX2 819 -8.32786456 -1.08002487 -0.19748218
VERTEX2 820 -7.73570607 -1.21097826 -0.23883063
VERTEX2 821 -7.19321547 -1.34054337 -0.22301913
VERTEX2 822 -7.13962542 -1.34858783 0.54034394
VERTEX2 823 -7.13821661 -1.33333770 1.46194692
VERTEX2 824 -7.07723060 -0.71056516 1.38302911
VERTEX2 825 -6.93616391 -0.08527007 1.35376223
VERTEX2 826 -6.88358799 0.54072893 1.51597221
VERTEX2 827 -6.82374845 1.15841572 1.46670726
VERTEX2 828 -6.77296382 1.78835088 1.50157705
VERTEX2 829 -6.71476731 2.39087124 1.46173647
VERTEX2 830 -6.64261254 2.99876906 1.45332646
VERTEX2 831 -6.55109090 3.57508367 1.40643374
VERTEX2 832 -6.46338847 4.13705403 1.40277728
VERTEX2 833 -6.42063172 4.39117792 1.54031513
VERTEX2 834 -6.42223749 4.39678100 2.59457658
VERTEX2 835 -6.43533660 4.39824488 -2.91123741
VERTEX2 836 -6.44832731 4.38720838 -1.96853004
VERTEX2 837 -6.44462292 4.36726093 -0.93256019
VERTEX2 838 -6.43244905 4.35971160 -0.07069096
VERTEX2 839 -6.43397275 4.36043901 -0.28905704
VERTEX2 840 -6.42482586 4.35329937 -0.85187238
VERTEX2 841 -6.41813595 4.33990970 -1.46913700
VERTEX2 842 -6.44388463 4.09527880 -1.70006823
VERTEX2 843 -6.52142995 3.53255870 -1.70266696
VERTEX2 844 -6.59599465 2.90789956 -1.71075701
VERTEX2 845 -6.68911769 2.28368762 -1.72554865
VERTEX2 846 -6.77439204 1.65529371 -1.72388510
VERTEX2 847 -6.88358316 1.03463937 -1.75069753
VERTEX2 848 -6.91412648 0.83955446 -1.27033518
VERTEX2 849 -6.91414292 0.83957547 -0.34828391
VERTEX2 850 -6.55960967 0.83639762 0.00504579
VERTEX2 851 -5.93300812 0.81094846 -0.08749876
VERTEX2 852 -5.30928125 0.75033590 -0.07312248
VERTEX2 853 -4.71511810 0.70837215 -0.10108275
VERTEX2 854 -4.12858627 0.64112287 -0.09911385
VERTEX2 855 -3.53438063 0.59073389 -0.10094675
VERTEX2 856 -2.88488525 0.50578015 -0.14163423
VERTEX2 857 -2.23652087 0.41715758 -0.15115787
VERTEX2 858 -1.59420116 0.29624602 -0.20562366
VERTEX2 859 -1.07964542 0.19356935 -0.21242141
VERTEX2 860 -1.06085542 0.20134000 0.63867839
VERTEX2 861 -1.04658948 0.30334799 1.55375920
VERTEX2 862 -1.00987207 0.95627183 1.49418121
VERTEX2 863 -0.95429385 1.59369162 1.46172555
VERTEX2 864 -0.86938997 2.19694219 1.45962548
VERTEX2 865 -0.82968576 2.80158604 1.51725181
VERTEX2 866 -0.78653124 3.38070675 1.51611926
VERTEX2 867 -0.77960892 3.53790705 1.69730850
VERTEX2 868 -0.78546778 3.54524491 2.72100093
VERTEX2 869 -0.78041815 3.54527394 -2.58388480
VERTEX2 870 -0.76601342 3.55302612 -1.58535599
VERTEX2 871 -0.75067878 3.54262968 -0.61258572
VERTEX2 872 -0.73159256 3.52882126 0.07207243
VERTEX2 873 -0.70550716 3.52008979 -0.50098658
VERTEX2 874 -0.68315866 3.49981688 -1.06107722
VERTEX2 875 -0.67524477 3.48103576 -1.64809357
VERTEX2 876 -0.79823085 2.91917802 -1.80589002
VERTEX2 877 -0.95203962 2.37761586 -1.89110218
VERTEX2 878 -1.00331079 2.17807957 -1.50914319
VERTEX2 879 -0.90490587 1.53786829 -1.45865718
VERTEX2 880 -0.87161059 1.08759312 -1.57196260
VERTEX2 881 -0.87168747 1.13661024 -1.56711814
VERTEX2 882 -0.93041512 0.51045742 -1.81381868
VERTEX2 883 -1.14394300 -0.06809424 -2.00476313
VERTEX2 884 -1.29711139 -0.38376981 -2.07192216
VERTEX2 885 -1.29756591 -0.37228227 -1.49079072
VERTEX2 886 -1.27831597 -0.39062071 -0.47366710
VERTEX2 887 -1.24467185 -0.40403346 0.53890997
VERTEX2 888 -1.22997195 -0.37367883 1.52418081
VERTEX2 889 -1.23270549 -0.36559547 2.42332840
VERTEX2 890 -1.54318407 -0.21351523 2.69767549
VERTEX2 891 -2.07497938 0.05379376 2.62767472
VERTEX2 892 -2.60379674 0.37356790 2.59243937
VERTEX2 893 -3.15159127 0.66964753 2.82926340
VERTEX2 894 -3.75715721 0.78186548 3.05086956
VERTEX2 895 -4.34785728 0.73554910 -2.93339668
VERTEX2 896 -4.36261665 0.73205022 -2.45427545
VERTEX2 897 -4.64738559 0.31154005 -2.18155432
VERTEX2 898 -4.99816602 -0.19681679 -2.16581844
VERTEX2 899 -5.28393028 -0.60554301 -2.23335670
VERTEX2 900 -5.69603588 -1.14826919 -2.23562490
VERTEX2 901 -6.06599957 -1.59054974 -2.29991585
VERTEX2 902 -6.48039978 -2.08003619 -2.27465742
VERTEX2 903 -6.79491188 -2.45693591 -2.31944029
VERTEX2 904 -6.79516969 -2.45734559 -1.61598636
VERTEX2 905 -6.78164062 -2.95138560 -1.56092179
VERTEX2 906 -6.74821543 -3.52371670 -1.49564954
VERTEX2 907 -6.69270002 -4.09944254 -1.50424664
VERTEX2 908 -6.64784892 -4.72201252 -1.47974723
VERTEX2 909 -6.58889531 -5.33484298 -1.49795177
VERTEX2 910 -6.61687760 -5.46357480 -1.86836138
VERTEX2 911 -6.77943270 -6.03448589 -1.80816926
VERTEX2 912 -6.90352712 -6.59935560 -1.79616540
VERTEX2 913 -7.01885184 -7.14199784 -1.78882088
VERTEX2 914 -7.14738889 -7.72460510 -1.81266194
VERTEX2 915 -7.27289757 -8.22833767 -1.84953899
VERTEX2 916 -7.21188575 -8.46524015 -1.30234347
VERTEX2 917 -7.07842741 -9.10768523 -1.55694324
VERTEX2 918 -7.10163334 -9.61972693 -1.63258671
VERTEX2 919 -7.13898062 -10.23756493 -1.67598280
VERTEX2 920 -7.20697329 -10.84587280 -1.69362118
VERTEX2 921 -7.28377891 -11.45541185 -1.74699474
VERTEX2 922 -7.38954654 -12.05357654 -1.77421163
VERTEX2 923 -7.51255076 -12.61456033 -1.83765509
VERTEX2 924 -7.64633611 -13.10811774 -1.81984230
VERTEX2 925 -7.64258649 -13.12635626 -1.31241693
VERTEX2 926 -7.47531298 -13.71348224 -1.29516900
VERTEX2 927 -7.30263146 -14.32144820 -1.31702841
VERTEX2 928 -7.13859232 -14.94396541 -1.32467847
VERTEX2 929 -6.98052112 -15.56321545 -1.32442915
VERTEX2 930 -6.83206751 -16.18988203 -1.40788348
VERTEX2 931 -6.74492216 -16.81170322 -1.48900581
VERTEX2 932 -6.69825157 -17.43485985 -1.54895801
VERTEX2 933 -6.69436735 -18.04332474 -1.61408057
VERTEX2 934 -6.70873338 -18.51978582 -1.62437071
VERTEX2 935 -6.70694321 -18.52803331 -0.94413589
VERTEX2 936 -6.71296855 -18.52589691 0.00013024
VERTEX2 937 -6.17162301 -18.50188772 0.06268614
VERTEX2 938 -5.57783353 -18.51924007 -0.11118389
VERTEX2 939 -4.95133192 -18.58137282 -0.08392304
VERTEX2 940 -4.33823405 -18.65763270 -0.16812440
VERTEX2 941 -3.73500336 -18.77276978 -0.22035255
VERTEX2 942 -3.21908276 -18.88727853 -0.21465730
VERTEX2 943 -2.61226762 -19.01885455 -0.12505874
VERTEX2 944 -1.99795811 -19.09957488 -0.18066781
VERTEX2 945 -1.38352334 -19.22490178 -0.23507277
VERTEX2 946 -1.21692416 -19.26688278 -0.17003250
VERTEX2 947 -0.80779462 -19.20217606 0.15924912
VERTEX2 948 -0.23997904 -19.11108048 0.14068486
VERTEX2 949 0.35739440 -19.07393202 -0.01425725
VERTEX2 950 0.98134680 -19.10625059 -0.25298181
VERTEX2 951 1.57677003 -19.27314613 -0.32457195
VERTEX2 952 2.17617040 -19.44417038 -0.07397145
VERTEX2 953 2.80247881 -19.47172948 0.00616656
VERTEX2 954 3.41736029 -19.46134174 -0.00006760
VERTEX2 955 3.99861882 -19.50266474 -0.15966046
VERTEX2 956 4.54370109 -19.57649227 -0.16105457
VERTEX2 957 5.07079267 -19.66778550 -0.24760558
VERTEX2 958 5.53574773 -19.77568596 -0.27323082
VERTEX2 959 5.95852247 -19.88724927 -0.33900768
VERTEX2 960 6.52485182 -20.04095933 -0.25628505
VERTEX2 961 7.08650166 -20.20443482 -0.28064763
VERTEX2 962 7.67316508 -20.32054759 -0.21174601
VERTEX2 963 8.24992969 -20.38837974 -0.02046966
VERTEX2 964 8.82193040 -20.41669276 -0.08076137
VERTEX2 965 9.59086976 -20.50034402 -0.09754384
VERTEX2 966 10.04089006 -20.55034106 -0.15743829
VERTEX2 967 10.07974280 -20.54170428 0.69291092
VERTEX2 968 10.09104191 -20.53068923 1.58649405
VERTEX2 969 10.09373350 -20.55779909 1.64504744
VERTEX2 970 10.09668737 -20.58494875 1.64250589
VERTEX2 971 10.07199448 -20.25119605 1.64183518
VERTEX2 972 10.02645265 -19.66436148 1.64665041
VERTEX2 973 10.09902210 -19.08712030 1.36041654
VERTEX2 974 10.23152904 -18.48879192 1.39145143
VERTEX2 975 10.33672554 -17.88708234 1.39532709
VERTEX2 976 10.43562620 -17.28291456 1.40750105
VERTEX2 977 10.56633227 -16.66410731 1.38064060
VERTEX2 978 10.68265390 -16.05156690 1.42601798
VERTEX2 979 10.79316513 -15.44277728 1.41318243
VERTEX2 980 10.88693894 -14.83707069 1.45949629
VERTEX2 981 10.97201498 -14.24174407 1.46582576
VERTEX2 982 11.02523956 -13.71278250 1.51012792
VERTEX2 983 11.07170080 -13.11335582 1.50630277
VERTEX2 984 11.09601860 -12.51665889 1.56319366
VERTEX2 985 11.10425928 -11.91919752 1.58304423
VERTEX2 986 11.08684773 -11.29842027 1.61894547
VERTEX2 987 11.07198630 -10.67903262 1.58182286
VERTEX2 988 11.07281337 -10.05974136 1.59514065
VERTEX2 989 11.05673752 -9.44085564 1.60235799
VERTEX2 990 11.04882324 -8.82503478 1.59118324
VERTEX2 991 11.03256362 -8.21294042 1.61594737
VERTEX2 992 11.02690900 -7.63010028 1.58306352
VERTEX2 993 11.01289503 -7.01799774 1.61556713
VERTEX2 994 10.99643429 -6.43671851 1.60541828
VERTEX2 995 10.96524748 -5.85295138 1.65256149
VERTEX2 996 10.90689705 -5.25474545 1.67960658
VERTEX2 997 10.86318872 -4.61751283 1.61514905
VERTEX2 998 10.84402132 -4.22222013 1.63699693
VERTEX2 999 10.88755300 -4.25743839 2.35479638
VERTEX2 1000 10.44146176 -3.90996930 2.50343164
VERTEX2 1001 10.01722028 -3.52302901 2.18248487
VERTEX2 1002 9.66203847 -3.06570099 2.27517614
VERTEX2 1003 9.32296309 -2.58121152 2.09562665
VERTEX2 1004 8.98517983 -2.04612613 2.15382168
VERTEX2 1005 8.63282354 -1.55348937 2.21622128
VERTEX2 1006 8.23852960 -1.07712095 2.29357697
VERTEX2 1007 7.82755030 -0.65278089 2.38522789
VERTEX2 1008 7.59372286 -0.43963892 2.54474821
VERTEX2 1009 7.49922874 -0.42532905 3.01780156
VERTEX2 1010 6.93458675 -0.36970131 3.07034664
VERTEX2 1011 6.32135362 -0.33052119 3.02729681
VERTEX2 1012 5.71415279 -0.26745638 3.06927204
VERTEX2 1013 5.08074964 -0.26994771 -3.09885763
VERTEX2 1014 4.47017150 -0.22204518 3.00915684
VERTEX2 1015 3.84757594 -0.18280025 3.09374300
VERTEX2 1016 3.08038268 -0.14526215 3.10058744
VERTEX2 1017 2.49445785 -0.13257729 3.04354401
VERTEX2 1018 1.93727340 -0.07152586 3.05090501
VERTEX2 1019 1.34492602 -0.04783341 3.11074304
VERTEX2 1020 0.73250097 -0.01292106 3.09702866
VERTEX2 1021 0.11405508 0.01500084 3.05664073
VERTEX2 1022 0.06363098 0.01910929 3.04961100
VERTEX2 1023 0.07388776 0.01892681 3.13637720
VERTEX2 1024 -0.54960477 0.02621183 -3.12029106
VERTEX2 1025 -1.17456008 -0.00465992 -3.10250723
VERTEX2 1026 -1.33666332 -0.01044927 -3.09528293
VERTEX2 1027 -1.31601919 -0.00027489 -2.17807393
VERTEX2 1028 -1.32817046 -0.15938147 -1.61416565
VERTEX2 1029 -1.35474274 -0.71842151 -1.63553800
VERTEX2 1030 -1.41097240 -1.29040689 -1.71261352
VERTEX2 1031 -1.51080969 -1.88692422 -1.76359184
VERTEX2 1032 -1.62538398 -2.48416240 -1.75664778
VERTEX2 1033 -1.75031015 -3.08082102 -1.79868369
VERTEX2 1034 -1.78024385 -3.20323385 -2.00823153
VERTEX2 1035 -1.75302344 -3.17937972 -2.61987143
VERTEX2 1036 -1.71887230 -3.19385544 3.10048383
VERTEX2 1037 -2.05595913 -3.07809025 2.86710491
VERTEX2 1038 -2.65527490 -2.98109435 2.96240267
VERTEX2 1039 -3.28697475 -2.84054246 2.93463109
VERTEX2 1040 -3.23663924 -2.83907056 -2.70871729
VERTEX2 1041 -3.18859734 -2.84220011 -1.67641016
VERTEX2 1042 -3.18893787 -2.82901293 -0.67367815
VERTEX2 1043 -3.16192157 -2.84954577 0.31050201
VERTEX2 1044 -3.14557735 -2.82545117 1.31917887
VERTEX2 1045 -3.13555388 -2.79384681 1.20629271
VERTEX2 1046 -3.12145114 -2.76913921 0.82253967
VERTEX2 1047 -3.09602734 -2.75411478 0.26903844
VERTEX2 1048 -2.68988830 -2.78001692 -0.04244452
VERTEX2 1049 -1.99803170 -2.79654388 -0.02447650
VERTEX2 1050 -1.30663159 -2.78314310 0.05200728
VERTEX2 1051 -0.62953639 -2.77282324 -0.02092733
VERTEX2 1052 0.01730992 -2.77026395 0.03805671
VERTEX2 1053 0.45599936 -2.76613115 -0.00867789
VERTEX2 1054 0.49654982 -2.76416095 0.77400835
VERTEX2 1055 0.49674445 -2.75507160 1.86680888
VERTEX2 1056 0.52010567 -2.77791327 2.90120087
VERTEX2 1057 0.56825060 -2.77190610 -2.37839328
VERTEX2 1058 0.57839486 -2.75119825 -1.44442860
VERTEX2 1059 0.63127278 -3.32321652 -1.52179009
VERTEX2 1060 0.66166412 -3.94981384 -1.51389154
VERTEX2 1061 0.67422789 -4.39076459 -1.63288843
VERTEX2 1062 0.67479451 -4.38901943 -2.19360709
VERTEX2 1063 0.69521684 -4.36835503 -2.78765856
VERTEX2 1064 0.40275281 -4.39391369 -3.05019348
VERTEX2 1065 -0.18819882 -4.49029902 -2.92603551
VERTEX2 1066 -0.75100987 -4.59547267 -2.98018344
VERTEX2 1067 -0.74226740 -4.59242079 -2.54385690
VERTEX2 1068 -0.73135284 -4.57867734 -1.86607304
VERTEX2 1069 -0.73064621 -4.56731378 -1.69328386
VERTEX2 1070 -0.72829168 -4.55672986 -2.22807896
VERTEX2 1071 -1.10483452 -4.93824434 -2.35302076
VERTEX2 1072 -1.46669419 -5.29200498 -2.41960576
VERTEX2 1073 -1.44430833 -5.28439630 -2.92657414
VERTEX2 1074 -1.97851005 -5.37540206 -2.95896077
VERTEX2 1075 -2.56317030 -5.47832430 -2.94028209
VERTEX2 1076 -2.61470051 -5.49004862 -2.52628061
VERTEX2 1077 -2.61555539 -5.49507250 -1.70342332
VERTEX2 1078 -2.64062477 -6.12283022 -1.65303758
VERTEX2 1079 -2.67084555 -6.70892600 -1.58535805
VERTEX2 1080 -2.67076802 -6.69434566 -2.06167674
VERTEX2 1081 -2.97079416 -7.11760827 -2.17861876
VERTEX2 1082 -3.08821472 -7.28957662 -1.88933322
VERTEX2 1083 -3.09942901 -7.27012356 -0.83005646
VERTEX2 1084 -3.08137236 -7.27123519 0.16255735
VERTEX2 1085 -3.04357211 -7.24099181 1.14376745
VERTEX2 1086 -2.91611756 -6.65354184 1.37391664
VERTEX2 1087 -2.77771859 -6.04119210 1.36187172
VERTEX2 1088 -2.65847630 -5.43503492 1.34540311
VERTEX2 1089 -2.63786309 -5.34829476 1.24841725
VERTEX2 1090 -2.62941501 -5.32873989 0.62991834
VERTEX2 1091 -2.11577118 -5.06283866 0.45142584
VERTEX2 1092 -1.51877196 -4.78120778 0.43519692
VERTEX2 1093 -0.95356327 -4.53570154 0.36872812
VERTEX2 1094 -0.93384964 -4.54278849 -0.03635935
VERTEX2 1095 -0.89286496 -4.55593752 -0.62737601
VERTEX2 1096 -0.88289599 -4.56956853 -1.19986781
VERTEX2 1097 -0.82525636 -4.92408288 -1.41606592
VERTEX2 1098 -0.74647393 -5.56555359 -1.47346082
VERTEX2 1099 -0.71257100 -6.15840182 -1.57114319
VERTEX2 1100 -0.71220924 -6.16950413 -1.21054575
VERTEX2 1101 -0.55352927 -6.38934131 -0.94680442
VERTEX2 1102 -0.55172993 -6.39477555 -1.34224229
VERTEX2 1103 -0.43107924 -7.00037454 -1.37701441
VERTEX2 1104 -0.31067247 -7.63436941 -1.40573307
VERTEX2 1105 -0.21221284 -8.26183510 -1.42467227
VERTEX2 1106 -0.14394485 -8.74407722 -1.45099631
VERTEX2 1107 -0.14247293 -8.74688565 -1.19636393
VERTEX2 1108 0.12506581 -9.30787875 -1.18950809
VERTEX2 1109 0.32076455 -9.91591058 -1.29467388
VERTEX2 1110 0.48309253 -10.50682446 -1.34503448
VERTEX2 1111 0.52731975 -11.06782410 -1.44726784
VERTEX2 1112 0.71711573 -11.62309848 -1.10225381
VERTEX2 1113 0.99389663 -12.20711635 -1.19854464
VERTEX2 1114 1.22115268 -12.78739816 -1.18227991
VERTEX2 1115 1.44626400 -13.33012428 -1.19923881
VERTEX2 1116 1.70396153 -13.92981819 -1.16375414
VERTEX2 1117 1.74508370 -14.02288057 -1.29244111
VERTEX2 1118 1.74461299 -14.02719294 -1.90155277
VERTEX2 1119 1.74607490 -14.02497604 -2.33470076
VERTEX2 1120 1.29259264 -14.43314550 -2.39921842
VERTEX2 1121 1.13348576 -14.57296485 -2.51879166
VERTEX2 1122 1.12960109 -14.57315016 -3.07105230
VERTEX2 1123 0.55034881 -14.60539064 -3.05500086
VERTEX2 1124 -0.01592106 -14.69235542 -2.95729286
VERTEX2 1125 -0.64422889 -14.80690686 -2.94468113
VERTEX2 1126 -0.72456429 -14.82467193 -2.60652826
VERTEX2 1127 29.38177502 -11.54501233 -0.44902745
VERTEX2 1128 27.97924406 -10.27396690 -0.34024366
VERTEX2 1129 27.99415543 -10.27269023 0.66689549
VERTEX2 1130 28.44646040 -9.89350457 0.67852473
VERTEX2 1131 29.15707397 -9.57131050 0.24252021
VERTEX2 1132 29.78273665 -9.41874667 0.22074665
VERTEX2 1133 30.36086279 -9.31126723 0.17987770
VERTEX2 1134 30.62644060 -9.26322430 0.08044254
VERTEX2 1135 30.47359622 -9.23228830 -0.47298308
VERTEX2 1136 30.47448753 -9.23925074 -1.03436789
VERTEX2 1137 30.58075867 -9.49489656 -1.21774810
VERTEX2 1138 30.78263824 -10.09171685 -1.23311802
VERTEX2 1139 30.98063102 -10.65387532 -1.30827859
VERTEX2 1140 30.99272143 -10.72123472 -1.79118690
VERTEX2 1141 30.97690557 -10.78812761 -2.34304537
VERTEX2 1142 30.59873680 -10.97069325 -2.71111892
VERTEX2 1143 30.01913322 -11.27853516 -2.62424505
VERTEX2 1144 29.45921892 -11.58752176 -2.65736810
VERTEX2 1145 28.89673260 -11.88193038 -2.68548020
VERTEX2 1146 28.33334370 -12.16046365 -2.66852543
VERTEX2 1147 27.78752614 -12.48584433 -2.59915944
VERTEX2 1148 27.26147009 -12.80732956 -2.58919447
VERTEX2 1149 27.19049361 -12.85334065 -2.09118581
VERTEX2 1150 27.17585849 -13.00029744 -1.11502085
VERTEX2 1151 27.18232749 -13.00556977 -0.12694180
VERTEX2 1152 27.17573074 -13.01091266 0.91120277
VERTEX2 1153 27.17094333 -13.02045859 1.90971417
VERTEX2 1154 26.93079281 -12.81051340 2.44781979
VERTEX2 1155 26.44352487 -12.39951535 2.39478161
VERTEX2 1156 25.99829311 -11.98028052 2.40139181
VERTEX2 1157 25.55114418 -11.60444581 2.50828744
VERTEX2 1158 25.08767612 -11.20175659 2.37523286
VERTEX2 1159 24.67598637 -10.75161514 2.27524375
VERTEX2 1160 24.27489355 -10.24524204 2.13216115
VERTEX2 1161 23.97908255 -9.66530912 2.03678356
VERTEX2 1162 23.67973219 -9.08862100 2.08975395
VERTEX2 1163 23.35359992 -8.51957005 2.07968507
VERTEX2 1164 23.01964556 -7.95947033 2.15991120
VERTEX2 1165 22.72031244 -7.51424041 2.13900842
VERTEX2 1166 22.71429864 -7.50856696 2.63212903
VERTEX2 1167 22.72340112 -7.49802011 -2.70697119
VERTEX2 1168 22.72875678 -7.48956162 -1.79635460
VERTEX2 1169 22.75911673 -7.53874616 -0.96798944
VERTEX2 1170 23.10087550 -8.01959374 -0.95928053
VERTEX2 1171 23.48056861 -8.53233041 -0.92531628
VERTEX2 1172 23.83659506 -9.01827459 -0.98532071
VERTEX2 1173 24.18873912 -9.53986251 -0.97387009
VERTEX2 1174 24.53644773 -10.07718847 -1.03967800
VERTEX2 1175 24.84359727 -10.62952744 -1.07026126
VERTEX2 1176 25.15426802 -11.20248526 -1.11042897
VERTEX2 1177 25.44121055 -11.77856660 -1.10513135
VERTEX2 1178 25.72293641 -12.36401938 -1.14884580
VERTEX2 1179 25.99632080 -12.94612993 -1.11609706
VERTEX2 1180 26.12059456 -13.20001825 -1.11987872
VERTEX2 1181 26.13008176 -13.21586996 -0.28106799
VERTEX2 1182 26.18753059 -13.18941485 0.44049253
VERTEX2 1183 26.76094281 -12.91202611 0.46923044
VERTEX2 1184 27.32508890 -12.59453658 0.54256763
VERTEX2 1185 27.88124227 -12.27469676 0.51385640
VERTEX2 1186 28.43347472 -11.93663369 0.58403247
VERTEX2 1187 28.99458224 -11.57511755 0.55076704
VERTEX2 1188 29.53724665 -11.23186609 0.57271279
VERTEX2 1189 30.01891179 -10.93362474 0.59793096
VERTEX2 1190 30.20921846 -10.80432593 0.60934172
VERTEX2 1191 30.16070481 -10.84937999 1.54230469
VERTEX2 1192 30.08458811 -10.75267113 2.35030489
VERTEX2 1193 29.65048645 -10.27697836 2.22185828
VERTEX2 1194 29.26323859 -9.80060175 2.26663271
VERTEX2 1195 28.82880617 -9.29710103 2.32145143
VERTEX2 1196 28.37298777 -8.80846767 2.15153438
VERTEX2 1197 28.00635673 -8.26845233 2.16451571
VERTEX2 1198 27.60202548 -7.73983524 2.42561251
VERTEX2 1199 27.13044596 -7.27701835 2.21265003
VERTEX2 1200 26.71028347 -6.75576563 2.28265765
VERTEX2 1201 26.26912771 -6.26230435 2.33915528
VERTEX2 1202 25.79503748 -5.78953016 2.36245342
VERTEX2 1203 25.32590514 -5.35344905 2.27263542
VERTEX2 1204 24.98071405 -4.82648626 2.12559764
VERTEX2 1205 24.65188640 -4.32430790 2.15468863
VERTEX2 1206 24.28426448 -3.81561659 2.21510897
VERTEX2 1207 23.94689960 -3.26269668 2.12812241
VERTEX2 1208 23.57957700 -2.71406375 2.19164482
VERTEX2 1209 23.19404371 -2.18272301 2.18840089
VERTEX2 1210 22.79351626 -1.66729016 2.20735281
VERTEX2 1211 22.45152885 -1.12630844 2.13734106
VERTEX2 1212 22.09865934 -0.59243770 2.18968923
VERTEX2 1213 21.70175678 -0.08417358 2.26498541
VERTEX2 1214 21.23519679 0.51263220 2.04427027
VERTEX2 1215 20.94042619 1.04990398 2.10437130
VERTEX2 1216 20.56947666 1.50288643 2.32263350
VERTEX2 1217 20.16429519 1.96543519 2.30362457
VERTEX2 1218 19.76389200 2.39731690 2.25288763
VERTEX2 1219 19.34926477 2.89660621 2.28338379
VERTEX2 1220 18.94614594 3.32173843 2.37397056
VERTEX2 1221 18.94573695 3.32197113 1.92094940
VERTEX2 1222 18.94604528 3.33254935 1.32380709
VERTEX2 1223 18.95003475 3.33879379 0.76433706
VERTEX2 1224 19.42231543 3.66922680 0.58152118
VERTEX2 1225 19.93894237 4.01343139 0.59535458
VERTEX2 1226 20.02310219 4.07031018 0.57869366
VERTEX2 1227 20.01899599 4.06760625 0.57809952
