1 123 138 0.00074349 4 
2 62 138 0.00085395 4 
3 68 144 0.00089973 4 
4 19 166 0.00292209 10 
5 19 172 0.00302593 10 
6 25 172 0.00315160 10 
7 25 178 0.00318204 10 
8 32 178 0.00326825 10 
9 11 181 0.00326037 10 
10 32 183 0.00333477 10 
11 44 189 0.00345225 10 
12 44 195 0.00355345 10 
13 50 195 0.00366385 10 
14 50 201 0.00368012 10 
15 50 203 0.00332936 9 
16 61 203 0.00374097 10 
17 61 209 0.00384608 10 
18 67 209 0.00396781 10 
19 67 220 0.00404624 10 
20 81 220 0.00419834 10 
21 81 226 0.00420193 10 
22 87 226 0.00433666 10 
23 87 231 0.00432818 10 
24 94 231 0.00443036 10 
25 226 231 0.00444421 10 
26 94 241 0.00451959 10 
27 101 241 0.00464232 10 
28 101 247 0.00463763 10 
29 107 247 0.00475962 10 
30 107 254 0.00477497 10 
31 114 254 0.00488718 10 
32 176 255 0.00501265 10 
33 107 256 0.00501474 10 
34 114 256 0.00505677 10 
35 107 258 0.00498114 10 
36 114 258 0.00511389 10 
37 121 266 0.00523056 10 
38 126 266 0.00538042 10 
39 126 272 0.00536849 10 
40 132 272 0.00550740 10 
41 132 278 0.00548400 10 
42 138 278 0.00558484 10 
43 138 284 0.00555475 10 
44 151 284 0.00584977 10 
45 147 287 0.00593190 10 
46 151 291 0.00583069 10 
47 151 297 0.00594987 10 
48 157 297 0.00612196 10 
49 163 297 0.00612455 10 
50 166 297 0.00613203 10 
51 237 300 0.00613901 10 
52 19 305 0.00632857 10 
53 157 305 0.00643344 10 
54 163 305 0.00648064 10 
55 166 305 0.00648672 10 
56 172 305 0.00649361 10 
57 99 311 0.00667223 10 
58 19 315 0.00674895 10 
59 25 315 0.00676317 10 
60 172 315 0.00680219 10 
61 113 316 0.00689556 10 
62 172 328 0.00692544 10 
63 19 337 0.00566547 8 
64 25 337 0.00717484 10 
65 172 337 0.00732250 10 
66 19 342 0.00723562 10 
67 25 342 0.00728591 10 
68 172 342 0.00374790 5 
69 178 342 0.00733272 10 
70 190 350 0.00748271 10 
71 25 367 0.00464700 6 
72 32 367 0.00623767 8 
73 178 367 0.00466517 6 
74 183 367 0.00546100 7 
75 25 374 0.00796201 10 
76 32 374 0.00801782 10 
77 178 374 0.00573957 7 
78 183 374 0.00719516 9 
79 315 378 0.00564034 7 
80 32 382 0.00735589 9 
81 183 382 0.00825619 10 
82 32 387 0.00852951 10 
83 183 387 0.00512235 6 
84 232 388 0.00847115 10 
85 307 394 0.00679459 8 
86 189 400 0.00883907 10 
87 125 406 0.00896662 10 
88 189 414 0.00926031 10 
89 104 416 0.00954869 10 
90 44 437 0.00678149 7 
91 195 437 0.00679550 7 
92 187 453 0.00909845 9 
93 44 454 0.00810212 8 
94 189 454 0.00813010 8 
95 0 458 0.01040882 10 
96 53 459 0.00627732 6 
97 422 465 0.00420665 4 
98 44 467 0.00748630 7 
99 50 467 0.00862877 8 
100 195 467 0.00313194 3 
101 195 484 0.00547041 5 
102 310 488 0.01127059 10 
103 44 494 0.00561585 5 
104 50 494 0.00678783 6 
105 195 494 0.00675934 6 
106 201 494 0.00907417 8 
107 50 500 0.01156854 10 
108 201 500 0.00943344 8 
109 203 500 0.00569389 5 
110 61 508 0.01178051 10 
111 203 508 0.01196232 10 
112 209 508 0.00938065 8 
113 12 519 0.01196170 10 
114 436 520 0.00595104 5 
115 61 522 0.01217192 10 
116 203 522 0.01244390 10 
117 209 522 0.01115221 9 
118 158 524 0.01234364 10 
119 202 527 0.00625834 5 
120 61 528 0.00998945 8 
121 67 528 0.01275073 10 
122 81 528 0.01297741 10 
123 209 528 0.01289510 10 
124 220 528 0.01274102 10 
125 67 532 0.00758448 6 
126 81 532 0.01287317 10 
127 220 532 0.01301710 10 
128 79 542 0.00771963 6 
129 493 545 0.00924231 7 
130 67 556 0.01348384 10 
131 328 558 0.01239129 9 
132 420 560 0.00821009 6 
133 130 562 0.01409057 10 
134 67 564 0.01417017 10 
135 81 564 0.01287098 9 
136 220 564 0.01416823 10 
137 67 567 0.01431013 10 
138 81 567 0.01446345 10 
139 220 567 0.01461155 10 
140 197 567 0.01337109 9 
141 472 569 0.01148385 8 
142 67 570 0.01466007 10 
143 81 570 0.01499350 10 
144 220 570 0.01524745 10 
145 81 575 0.01519683 10 
146 220 575 0.01511960 10 
147 34 576 0.01525901 10 
148 314 580 0.01544603 10 
149 81 588 0.01550093 10 
150 87 588 0.01580240 10 
151 226 588 0.01596966 10 
152 466 588 0.01603612 10 
153 76 588 0.01622141 10 
154 87 597 0.01606711 10 
155 94 597 0.01644484 10 
156 226 597 0.01642894 10 
157 238 601 0.01469052 9 
158 87 604 0.01629025 10 
159 94 604 0.01659940 10 
160 178 607 0.01638307 10 
161 94 616 0.01155403 7 
162 80 617 0.01687334 10 
163 603 624 0.00665428 4 
164 577 631 0.01716306 10 
165 246 631 0.01757280 10 
166 94 632 0.01738610 10 
167 94 637 0.01782127 10 
168 101 637 0.01806113 10 
169 101 642 0.01593417 9 
170 107 642 0.01784508 10 
171 101 645 0.01789669 10 
172 107 645 0.01824911 10 
173 565 646 0.01817622 10 
174 101 657 0.01802530 10 
175 101 663 0.00893153 5 
176 107 663 0.01622473 9 
177 114 663 0.01262859 7 
178 101 665 0.01821218 10 
179 107 665 0.01861228 10 
180 114 665 0.01859847 10 
181 555 665 0.01861389 10 
182 285 670 0.01856871 10 
183 571 673 0.01895817 10 
184 614 675 0.01926285 10 
185 129 676 0.01946483 10 
186 107 680 0.01956031 10 
187 107 683 0.01961946 10 
188 114 683 0.02004747 10 
189 352 693 0.01981133 10 
190 461 698 0.02031688 10 
191 107 704 0.02046460 10 
192 114 704 0.02075104 10 
193 45 704 0.02095591 10 
194 107 714 0.02077875 10 
195 114 714 0.02102727 10 
196 610 714 0.01903212 9 
197 562 725 0.02123592 10 
198 524 726 0.02141850 10 
199 346 726 0.02185587 10 
200 107 730 0.01711689 8 
201 114 730 0.02172712 10 
202 143 744 0.02208210 10 
203 174 751 0.02237717 10 
204 121 754 0.02257344 10 
205 126 754 0.02289902 10 
206 121 759 0.02267215 10 
207 126 759 0.02304784 10 
208 3 761 0.02300871 10 
209 126 762 0.02293873 10 
210 132 762 0.02394120 10 
211 337 762 0.02406654 10 
212 571 769 0.02401567 10 
213 152 771 0.02457529 10 
214 132 778 0.01700454 7 
215 638 783 0.02480710 10 
216 443 786 0.02509051 10 
217 268 788 0.02528122 10 
218 117 788 0.02551923 10 
219 516 789 0.02573151 10 
220 132 792 0.02609322 10 
221 307 792 0.02600098 10 
222 264 795 0.01777398 7 
223 453 795 0.02622376 10 
224 162 796 0.02605038 10 
225 366 798 0.02365322 9 
226 132 800 0.02711743 10 
227 138 800 0.02707740 10 
228 97 803 0.02740375 10 
229 138 806 0.02729115 10 
230 600 806 0.02753198 10 
231 787 811 0.01916209 7 
232 138 821 0.02226936 8 
233 138 823 0.02778186 10 
234 151 828 0.02810795 10 
235 151 847 0.02261915 8 
236 476 853 0.02874324 10 
237 151 855 0.01990785 7 
238 125 860 0.02879652 10 
239 511 867 0.02898319 10 
240 584 872 0.02968935 10 
241 292 876 0.01472908 5 
242 317 878 0.03011476 10 
243 607 881 0.03029401 10 
244 290 890 0.02127423 7 
245 151 895 0.03026947 10 
246 151 897 0.03063718 10 
247 189 897 0.03094651 10 
248 779 899 0.03026947 10 
249 386 900 0.02429434 8 
250 873 900 0.01821579 6 
251 138 903 0.03086554 10 
252 138 904 0.02759846 9 
253 751 904 0.03073920 10 
254 825 905 0.02141186 7 
255 784 905 0.02471943 8 
256 132 907 0.03119295 10 
257 138 907 0.03168066 10 
258 132 911 0.03125870 10 
259 610 911 0.03181681 10 
260 570 911 0.03247790 10 
261 771 912 0.01898986 6 
262 66 915 0.03234942 10 
263 321 917 0.02895676 9 
264 121 923 0.03270651 10 
265 126 923 0.02952755 9 
266 107 929 0.03306649 10 
267 114 929 0.03308116 10 
268 62 933 0.03333948 10 
269 107 935 0.03305953 10 
270 114 935 0.03364800 10 
271 101 939 0.02630579 8 
272 107 939 0.01966196 6 
273 370 943 0.03393646 10 
274 101 944 0.02692331 8 
275 94 947 0.03368286 10 
276 101 947 0.03402100 10 
277 340 948 0.03350356 10 
278 721 948 0.03439994 10 
279 107 949 0.02360301 7 
280 87 953 0.03422295 10 
281 94 953 0.03468798 10 
282 226 953 0.03476375 10 
283 818 953 0.03527256 10 
284 901 958 0.03504834 10 
285 81 959 0.03508064 10 
286 87 959 0.03558056 10 
287 220 959 0.03559395 10 
288 226 959 0.03539147 10 
289 67 965 0.03500719 10 
290 81 965 0.03550481 10 
291 220 965 0.03551597 10 
292 61 976 0.03512419 10 
293 67 976 0.03559940 10 
294 209 976 0.03592833 10 
295 27 977 0.03549858 10 
296 50 982 0.03599751 10 
297 61 982 0.03653514 10 
298 201 982 0.03664041 10 
299 203 982 0.02194863 6 
300 44 988 0.03625469 10 
301 50 988 0.01838697 5 
302 195 988 0.02512979 7 
303 201 988 0.01786319 5 
304 893 992 0.03670410 10 
305 44 994 0.03673463 10 
306 189 994 0.03733228 10 
307 195 994 0.03736313 10 
308 178 997 0.03687614 10 
309 820 998 0.03740289 10 
310 270 1002 0.03792825 10 
311 32 1003 0.03856502 10 
312 178 1003 0.03822230 10 
313 183 1003 0.03072483 8 
314 826 1004 0.03767955 10 
315 224 1006 0.03794356 10 
316 310 1007 0.02635160 7 
317 25 1008 0.03805046 10 
318 32 1008 0.03861138 10 
319 178 1008 0.03870373 10 
320 183 1008 0.03870577 10 
321 25 1010 0.03824387 10 
322 32 1010 0.03875418 10 
323 172 1010 0.03913598 10 
324 178 1010 0.03909796 10 
325 496 1010 0.03976794 10 
326 799 1010 0.03945606 10 
327 692 1013 0.03894201 10 
328 517 1013 0.03967578 10 
329 19 1016 0.03914474 10 
330 166 1016 0.03985456 10 
331 172 1016 0.03661187 9 
332 750 1017 0.03527744 9 
333 587 1021 0.03961665 10 
334 834 1022 0.03982750 10 
335 151 1029 0.04017317 10 
336 157 1029 0.03652183 9 
337 163 1029 0.04102916 10 
338 166 1029 0.03303537 8 
339 3 1036 0.02431804 6 
340 115 1050 0.03703384 9 
341 273 1052 0.03724992 9 
342 179 1055 0.04147555 10 
343 238 1055 0.04220974 10 
344 520 1068 0.04233700 10 
345 888 1072 0.03742516 9 
346 121 1072 0.04265088 10 
347 932 1076 0.04269462 10 
348 251 1078 0.04269246 10 
349 795 1082 0.04269122 10 
350 132 1084 0.04249754 10 
351 1001 1093 0.04288126 10 
352 525 1099 0.04349858 10 
353 380 1108 0.04412846 10 
354 510 1108 0.04453030 10 
355 312 1125 0.04415232 10 
356 601 1131 0.04427910 10 
357 101 1138 0.04438830 10 
358 107 1147 0.04461264 10 
359 114 1147 0.04520151 10 
360 650 1148 0.03144803 7 
361 107 1150 0.04536856 10 
362 114 1150 0.04603989 10 
363 418 1152 0.04596189 10 
364 273 1152 0.04685309 10 
365 114 1158 0.04644134 10 
366 121 1158 0.04639402 10 
367 121 1164 0.04579962 10 
368 126 1164 0.04641057 10 
369 745 1167 0.02724299 6 
370 1018 1169 0.04592473 10 
371 873 1170 0.04187867 9 
372 958 1172 0.04702687 10 
373 344 1172 0.04839581 10 
374 944 1173 0.04675666 10 
375 114 1175 0.04677524 10 
376 121 1175 0.04748372 10 
377 923 1175 0.04782495 10 
378 929 1175 0.04985448 10 
379 1158 1175 0.02947898 6 
380 1068 1187 0.04800570 10 
381 101 1188 0.04799214 10 
382 939 1188 0.04917760 10 
383 1138 1188 0.04923579 10 
384 1147 1188 0.04914928 10 
385 1150 1188 0.04863250 10 
386 882 1190 0.04821079 10 
387 871 1192 0.04362052 9 
388 977 1195 0.04972696 10 
389 1043 1204 0.05037939 10 
390 418 1204 0.05027883 10 
391 1050 1210 0.04972698 10 
392 1061 1210 0.05113532 10 
393 1075 1210 0.05108497 10 
394 1084 1210 0.05197296 10 
395 1088 1210 0.05148111 10 
396 1093 1210 0.05173277 10 
397 1098 1210 0.05186194 10 
398 150 1215 0.07153142 10 
399 157 1217 0.06512390 10 
400 163 1217 0.06363204 10 
401 1029 1217 0.05320900 8 
402 1044 1217 0.06294452 10 
403 1050 1217 0.06412142 10 
404 1056 1217 0.06702582 10 
405 1136 1220 0.06675856 10 
406 124 1221 0.06408265 10 
