1 115 125 2 565.43381655 0.00000307 1 
2 19 166 0 0.41485034 0.00209914 5 
3 19 172 0 0.02820697 0.00186738 4 
4 25 172 0 0.50366199 0.00188092 4 
5 25 178 0 0.30831851 0.00197901 4 
6 32 178 0 0.01493521 0.00199096 4 
7 119 178 2 798.51976465 0.00000237 4 
8 32 183 0 0.07055611 0.00201918 4 
9 44 189 0 0.52863102 0.00208169 4 
10 44 195 0 0.35755137 0.00216945 4 
11 50 195 0 0.00572854 0.00220448 4 
12 50 201 0 0.04110605 0.00190206 3 
13 50 203 0 0.06975183 0.00187623 3 
14 61 203 0 0.00745912 0.00190536 3 
15 50 208 2 1243.28059545 0.00000225 1 
16 61 209 0 0.37222863 0.00231725 4 
17 67 209 0 0.41032090 0.00232676 4 
18 67 220 0 0.66144083 0.00250201 4 
19 81 220 0 0.48035877 0.00286202 5 
20 81 226 0 0.05402805 0.00257796 4 
21 87 226 0 1.82553139 0.00294613 5 
22 87 231 0 0.34656585 0.00262363 4 
23 94 231 0 0.55778528 0.00256961 4 
24 226 231 0 1.44127402 0.00298905 5 
25 94 241 0 1.33132047 0.00269488 4 
26 101 241 0 0.50961029 0.00271622 4 
27 83 244 2 3753.00601436 0.00000239 1 
28 101 247 0 1.66454674 0.00276317 4 
29 107 247 0 1.80094617 0.00278073 4 
30 40 252 2 2127.93021264 0.00000239 1 
31 107 254 0 1.18346605 0.00284655 4 
32 114 254 0 0.12939160 0.00286512 4 
33 107 256 0 0.93085039 0.00285846 4 
34 114 256 0 0.24629796 0.00286018 4 
35 107 258 0 1.37911724 0.00290687 4 
36 114 258 0 1.15747212 0.00292783 4 
37 121 266 0 0.00938596 0.00301572 4 
38 126 266 0 0.44864328 0.00355460 5 
39 126 272 0 1.03992836 0.00309668 4 
40 132 272 0 0.39070916 0.00364815 5 
41 132 278 0 0.58358145 0.00318288 4 
42 138 278 0 1.06458780 0.00374288 5 
43 138 284 0 0.02201259 0.00271894 3 
44 151 284 0 0.12777228 0.00329774 4 
45 151 291 0 0.60037557 0.00331783 4 
46 151 297 0 0.07972289 0.00284686 3 
47 157 297 0 1.04991834 0.00344761 4 
48 166 297 0 1.30507781 0.00339286 4 
49 19 305 0 0.16044642 0.00357194 4 
50 157 305 0 0.58687353 0.00360691 4 
51 163 305 0 7.56485476 0.00483876 6 
52 166 305 0 0.37495035 0.00360274 4 
53 172 305 0 0.01886255 0.00361002 4 
54 19 315 0 0.48455906 0.00310431 3 
55 25 315 0 0.02281386 0.00311771 3 
56 172 315 0 0.05679715 0.00373542 4 
57 89 320 2 198.26930160 0.00000227 1 
58 172 328 0 0.12482725 0.00325805 3 
59 19 337 0 6.63404991 0.00466712 5 
60 25 337 0 0.96522419 0.00399924 4 
61 172 337 0 0.57611560 0.00334091 3 
62 19 342 0 0.00494520 0.00338708 3 
63 25 342 0 0.12855172 0.00410778 4 
64 172 342 0 0.01223902 0.00412678 4 
65 178 342 0 0.12442988 0.00417896 4 
66 207 362 2 414.92727406 0.00000322 1 
67 25 367 0 0.11414782 0.00379600 3 
68 32 367 0 0.01267433 0.00596443 6 
69 178 367 0 0.00286807 0.00378253 3 
70 183 367 0 0.06698524 0.00379342 3 
71 252 370 2 2904.80549263 0.00000297 1 
72 25 374 0 0.56424690 0.00460557 4 
73 32 374 0 0.09892849 0.00533088 5 
74 178 374 0 0.03055075 0.00460982 4 
75 183 374 0 0.05309447 0.00458024 4 
76 327 378 2 1341.68001177 0.00000316 1 
77 21 380 2 1956.72848025 0.00000288 1 
78 183 381 2 1601.24696946 0.00000291 1 
79 32 382 0 4.14688582 0.00392651 3 
80 183 382 0 1.28811506 0.00466802 4 
81 89 384 2 2137.53437801 0.00000323 1 
82 32 387 0 2.72468715 0.00473736 4 
83 183 387 0 0.18197642 0.00472360 4 
84 282 389 2 2436.59874158 0.00000317 1 
85 189 414 0 7.69047346 0.00586776 5 
86 145 419 2 892.86500068 0.00000335 1 
87 379 421 2 570.03980390 0.00000308 1 
88 150 429 2 1018.27267002 0.00000283 1 
89 394 435 2 145.19342566 0.00000269 1 
90 44 437 0 0.00915802 0.00437977 3 
91 195 437 0 0.01161094 0.00438416 3 
92 273 452 2 537.35724328 0.00000359 1 
93 44 454 0 0.65644164 0.00452327 3 
94 189 454 0 0.03962740 0.00543136 4 
95 247 464 2 1097.07005662 0.00000293 1 
96 17 465 2 812.17692307 0.00000216 1 
97 44 467 0 0.12345281 0.00642249 5 
98 50 467 0 0.00895575 0.01026737 9 
99 195 467 0 0.00230988 0.00464528 3 
100 388 482 2 773.28304648 0.00000379 1 
101 195 484 0 0.09447226 0.00575223 4 
102 39 490 2 2621.37984202 0.00000325 1 
103 44 494 0 0.02880924 0.00577711 4 
104 50 494 0 0.00628832 0.00483326 3 
105 195 494 0 0.00818961 0.00682929 5 
106 201 494 0 0.00469852 0.00684523 5 
107 50 500 0 0.14406209 0.00698429 5 
108 201 500 0 0.05353930 0.00491267 3 
109 203 500 0 0.03252445 0.00489392 3 
110 61 508 0 0.99413579 0.00712759 5 
111 203 508 0 0.26947301 0.01226265 10 
112 209 508 0 0.03711473 0.00603153 4 
113 146 519 2 1254.90526941 0.00000291 1 
114 394 520 2 411.94500953 0.00000293 1 
115 61 522 0 1.37942234 0.00614551 4 
116 203 522 0 0.12859200 0.00513031 3 
117 209 522 0 0.00542469 0.00510706 3 
118 61 528 0 0.47936102 0.00517000 3 
119 67 528 0 0.22419307 0.00629928 4 
120 81 528 0 0.23233822 0.00843114 6 
121 209 528 0 0.09444678 0.01062262 8 
122 220 528 0 0.13668760 0.00624456 4 
123 500 529 2 1757.99532120 0.00000321 1 
124 67 532 0 0.05459173 0.01181687 9 
125 81 532 0 0.11826401 0.00850809 6 
126 220 532 0 0.05648169 0.00634155 4 
127 146 533 2 1065.72440803 0.00000258 1 
128 254 533 2 2956.30738180 0.00000096 1 
129 160 536 2 1500.51016821 0.00000266 1 
130 369 543 2 230.37235338 0.00000272 1 
131 430 544 2 2494.20737728 0.00000229 1 
132 62 554 2 449.40110042 0.00000281 1 
133 67 556 0 0.98233216 0.00650453 4 
134 554 562 2 3102.62586367 0.00000292 1 
135 67 564 0 0.40168838 0.01235127 9 
136 81 564 0 0.02280941 0.00664025 4 
137 220 564 0 0.02684857 0.00666264 4 
138 67 567 0 2.67253169 0.00782816 5 
139 81 567 0 0.48923871 0.00902175 6 
140 220 567 0 0.21723258 0.00666575 4 
141 67 570 0 2.40706627 0.00911446 6 
142 81 570 0 0.15671702 0.00905717 6 
143 220 570 0 0.13379867 0.00676176 4 
144 37 571 2 863.62515940 0.00000279 1 
145 81 575 0 2.76594993 0.00793900 5 
146 220 575 0 1.08612706 0.01037297 7 
147 526 576 2 1716.14089546 0.00000330 1 
148 30 579 2 1887.89049451 0.00000244 1 
149 81 588 0 0.01497138 0.00569140 3 
150 87 588 0 0.47937722 0.00820282 5 
151 226 588 0 0.43156268 0.00693995 4 
152 87 597 0 2.27648751 0.00957084 6 
153 94 597 0 0.38888315 0.00701061 4 
154 226 597 0 0.55079633 0.00833382 5 
155 199 598 2 918.23032903 0.00000294 1 
156 87 604 0 0.47149562 0.00712374 4 
157 94 604 0 0.01542269 0.00841422 5 
158 94 616 0 0.01350372 0.01238127 8 
159 276 618 2 3323.41256957 0.00000354 1 
160 94 632 0 2.16969694 0.00880117 5 
161 94 637 0 4.44236402 0.01008559 6 
162 101 637 0 0.19098383 0.00752344 4 
163 101 642 0 0.11555601 0.00891169 5 
164 107 642 0 0.04025021 0.01414847 9 
165 638 643 2 2737.58043227 0.00000352 1 
166 101 645 0 6.69527511 0.00764205 4 
167 107 645 0 1.54205090 0.00753920 4 
168 379 647 2 1965.13183969 0.00000334 1 
169 83 653 2 341.23199835 0.00000434 1 
170 101 657 0 0.73548669 0.01671370 10 
171 215 657 2 3126.59550406 0.00000330 10 
172 101 663 0 0.04971914 0.01678512 10 
173 107 663 0 0.01781179 0.00914700 5 
174 114 663 0 0.00275957 0.00917590 5 
175 101 665 0 1.55112265 0.01349187 8 
176 107 665 0 0.47667103 0.00782775 4 
177 114 665 0 0.13329170 0.00650222 3 
178 589 667 2 1623.51229611 0.00000336 1 
179 366 668 2 2411.70588508 0.00000330 1 
180 599 671 2 595.59717433 0.00000308 1 
181 107 680 0 1.48615866 0.01022598 5 
182 107 683 0 0.94462224 0.00807257 4 
183 114 683 0 0.32178225 0.00955737 5 
184 607 686 2 1354.97396066 0.00000344 1 
185 36 689 2 1034.82404313 0.00000344 1 
186 517 692 2 932.66436824 0.00000329 1 
187 660 695 2 1886.10385940 0.00000312 1 
188 107 704 0 0.34268109 0.01265285 7 
189 114 704 0 0.07528002 0.01558268 9 
190 107 714 0 1.79639085 0.01136858 6 
191 114 714 0 0.02860377 0.01443213 8 
192 464 715 2 167.93754979 0.00000457 1 
193 711 722 2 1400.60363898 0.00000424 1 
194 501 723 2 597.29666965 0.00000393 1 
195 107 730 0 0.19656714 0.01016951 5 
196 114 730 0 0.03540690 0.00857762 4 
197 447 731 2 2490.65240208 0.00000441 1 
198 654 733 2 2082.16745204 0.00000345 1 
199 366 736 2 897.15419793 0.00000335 1 
200 289 737 2 1144.89793212 0.00000274 1 
201 288 738 2 1740.93991667 0.00000401 1 
202 702 739 2 1515.80627957 0.00000303 1 
203 408 745 2 153.64555739 0.00000342 1 
204 434 750 2 354.23110514 0.00000411 1 
205 113 753 2 1222.47973556 0.00000376 1 
206 121 754 0 0.33113739 0.00876612 4 
207 126 754 0 0.07673382 0.01516361 8 
208 121 759 0 2.33625684 0.01200553 6 
209 126 759 0 0.22329988 0.01205037 6 
210 126 762 0 7.08482229 0.01043336 5 
211 132 762 0 2.00372045 0.01538873 8 
212 406 769 2 542.90379429 0.00000420 1 
213 132 778 0 0.06999780 0.00909624 4 
214 464 782 2 702.73827452 0.00000507 1 
215 637 786 2 2180.53900301 0.00000443 1 
216 620 791 2 1054.18596055 0.00000435 1 
217 132 792 0 1.26802734 0.00930344 4 
218 264 793 2 1110.86511513 0.00000410 1 
219 132 800 0 3.35686460 0.00921592 4 
220 138 800 0 0.14494330 0.01256524 6 
221 613 801 2 1802.31175905 0.00000388 1 
222 220 801 2 335.10169089 0.00000109 1 
223 138 806 0 0.25140739 0.00753093 3 
224 147 806 2 5930.43925491 0.00000411 3 
225 138 817 2 741.38843003 0.00000358 1 
226 138 821 0 0.40674396 0.01107879 5 
227 138 823 0 6.54725682 0.00939116 4 
228 151 828 0 3.12108818 0.00949672 4 
229 52 830 2 1053.68519093 0.00000371 1 
230 687 835 2 897.40521559 0.00000341 1 
231 151 847 0 0.08724621 0.01145221 5 
232 151 855 0 0.11494457 0.01513043 7 
233 542 856 2 3236.15057065 0.00000431 1 
234 712 856 2 2409.87870189 0.00000143 1 
235 829 856 2 5007.87229373 0.00000127 1 
236 852 858 2 1306.77062832 0.00000366 1 
237 444 860 2 372.62118418 0.00000323 1 
238 229 864 2 702.47201638 0.00000376 1 
239 650 867 2 1843.49843044 0.00000399 1 
240 728 872 2 593.33714662 0.00000367 1 
241 360 879 2 312.52511389 0.00000394 1 
242 35 879 2 95.83164772 0.00000120 1 
243 527 879 2 867.45804744 0.00000141 1 
244 25 881 2 346.54237241 0.00000337 1 
245 126 882 2 283.49421862 0.00000331 1 
246 699 885 2 535.08167127 0.00000360 1 
247 501 888 2 798.27034922 0.00000403 1 
248 131 894 2 505.09581443 0.00000353 1 
249 151 895 0 2.80701437 0.01769221 8 
250 151 897 0 0.06118057 0.02146438 10 
251 171 898 2 2912.22379178 0.00000455 1 
252 138 903 0 0.08157811 0.01023641 4 
253 138 904 0 7.06392298 0.01402822 6 
254 132 907 0 0.71874717 0.01029571 4 
255 138 907 0 0.22077132 0.01220107 5 
256 410 910 2 901.22487996 0.00000409 1 
257 143 910 2 2290.54119604 0.00000842 1 
258 132 911 0 0.23128175 0.01223567 5 
259 694 913 2 246.22786678 0.00000386 1 
260 390 913 2 2120.88201941 0.00000125 1 
261 127 921 2 1143.10033964 0.00000418 1 
262 121 923 0 0.62636126 0.01435320 6 
263 126 923 0 0.07130653 0.01046285 4 
264 312 924 2 2633.59625209 0.00000448 1 
265 107 929 0 0.07225325 0.01252453 5 
266 114 929 0 0.00477553 0.01057353 4 
267 107 935 0 4.91438615 0.01653002 7 
268 114 935 0 1.40337639 0.01652103 7 
269 101 939 0 0.48567419 0.01069453 4 
270 107 939 0 0.21174614 0.01071859 4 
271 349 943 2 887.12510568 0.00000454 1 
272 101 944 0 0.15377935 0.01275652 5 
273 27 945 2 1684.19434478 0.00000462 1 
274 94 947 0 0.23772432 0.01674346 7 
275 101 947 0 0.16826262 0.01479503 6 
276 87 953 0 0.13504795 0.01087888 4 
277 94 953 0 0.06505521 0.01491346 6 
278 226 953 0 0.08268323 0.02295517 10 
279 744 954 2 618.59743940 0.00000481 1 
280 202 956 2 749.90085538 0.00000377 1 
281 555 957 2 7575.18616247 0.00000348 1 
282 520 958 2 1821.66918881 0.00000379 1 
283 81 959 0 1.83528326 0.02434398 10 
284 87 959 0 1.29172246 0.01711023 7 
285 220 959 0 0.04883629 0.01100672 4 
286 226 959 0 0.12130941 0.01305140 5 
287 67 965 0 1.01368609 0.01313533 5 
288 81 965 0 0.31066014 0.01519125 6 
289 220 965 0 0.16483276 0.01929167 8 
290 245 967 2 433.09372865 0.00000385 1 
291 9 971 2 490.79782322 0.00000427 1 
292 694 974 2 446.12567778 0.00000366 1 
293 61 976 0 0.16803746 0.01746463 7 
294 67 976 0 0.05676300 0.00916222 3 
295 209 976 0 0.00780965 0.01124884 4 
296 726 976 2 1245.70437918 0.00000480 4 
297 50 982 0 0.38354811 0.01133633 4 
298 61 982 0 0.27147698 0.01134186 4 
299 201 982 0 0.22200943 0.01134690 4 
300 203 982 0 0.10573284 0.02185653 9 
301 44 988 0 0.09550719 0.01143183 4 
302 50 988 0 0.05924873 0.01145024 4 
303 195 988 0 0.04319526 0.01567494 6 
304 201 988 0 0.02685916 0.01355350 5 
305 44 994 0 0.51683435 0.01784815 7 
306 189 994 0 0.29989154 0.02586331 10 
307 195 994 0 0.21957432 0.01370579 5 
308 503 994 2 1132.25998896 0.00000505 5 
309 743 996 2 1956.13515824 0.00000426 1 
310 32 999 2 485.22021015 0.00000443 1 
311 632 1002 2 1010.67454300 0.00000546 1 
312 32 1003 0 0.23901034 0.01385204 5 
313 178 1003 0 0.03356851 0.02601272 10 
314 183 1003 0 0.01433170 0.01605687 6 
315 25 1008 0 1.23858172 0.01836908 7 
316 32 1008 0 0.53803958 0.01177510 4 
317 178 1008 0 0.34459610 0.01177086 4 
318 183 1008 0 0.22233868 0.01181683 4 
319 25 1010 0 0.60236133 0.01181125 4 
320 32 1010 0 0.30591807 0.01399097 5 
321 172 1010 0 0.10368354 0.01631661 6 
322 178 1010 0 0.19279072 0.02644659 10 
323 409 1013 2 234.57203307 0.00000539 4 
324 19 1016 0 0.44047719 0.02063956 8 
325 166 1016 0 0.20189646 0.01183917 4 
326 172 1016 0 0.07393216 0.01405979 5 
327 151 1029 0 0.03533130 0.01432565 5 
328 157 1029 0 0.02672450 0.01201497 4 
329 163 1029 0 3.39703566 0.01202957 4 
330 166 1029 0 0.49353449 0.01203078 4 
331 544 1032 2 110.44198665 0.00000570 1 
332 894 1033 2 1372.26490003 0.00000541 1 
333 884 1033 2 425.87983422 0.00000159 1 
334 755 1033 2 624.67773534 0.00000173 1 
335 663 1035 2 660.42956439 0.00000505 1 
336 141 1041 2 739.22281062 0.00000570 1 
337 563 1043 2 1207.30751656 0.00000527 1 
338 276 1051 2 469.70318630 0.00000575 1 
339 960 1053 2 210.57151986 0.00000604 1 
340 370 1056 2 80.56881512 0.00000595 1 
341 917 1064 2 510.11156205 0.00000604 1 
342 763 1066 2 233.49780664 0.00000511 1 
343 673 1068 2 122.64373999 0.00000511 1 
344 999 1070 2 217.40412001 0.00000544 1 
345 950 1079 2 530.31202107 0.00000550 1 
346 132 1084 0 4.21993706 0.01518045 5 
347 160 1090 2 1600.88548820 0.00000598 1 
348 17 1093 2 438.41796659 0.00000552 1 
349 584 1101 2 489.06407734 0.00000601 1 
350 247 1102 2 249.72461747 0.00000546 1 
351 377 1107 2 644.99658768 0.00000567 1 
352 601 1108 2 748.11211951 0.00000589 1 
353 154 1121 2 416.47479722 0.00000547 1 
354 1014 1121 2 62.32968690 0.00000198 1 
355 437 1121 2 758.53708124 0.00000181 1 
356 832 1128 2 180.30437516 0.00000547 1 
357 37 1133 2 354.08459078 0.00000578 1 
358 101 1138 0 0.63021658 0.01576054 5 
359 329 1142 2 2063.56498875 0.00000613 1 
360 372 1144 2 1127.45596044 0.00000724 1 
361 107 1147 0 0.73708347 0.01327282 4 
362 114 1147 0 0.03971358 0.01083512 3 
363 329 1147 2 6313.73867005 0.00000454 3 
364 107 1150 0 7.45683387 0.01331169 4 
365 114 1150 0 1.00561260 0.01087923 3 
366 1038 1150 2 443.54418540 0.00000524 3 
367 738 1156 2 1086.07539013 0.00000583 1 
368 114 1158 0 0.16899687 0.01091186 3 
369 121 1158 0 0.69099743 0.01345622 4 
370 60 1161 2 2497.62890976 0.00000652 1 
371 121 1164 0 0.45182924 0.01602423 5 
372 126 1164 0 0.04418665 0.01353985 4 
373 407 1165 2 1666.41848400 0.00000528 1 
374 287 1168 2 936.07604221 0.00000581 1 
375 114 1175 0 0.14266969 0.01365805 4 
376 121 1175 0 0.27324351 0.01376030 4 
377 923 1175 0 0.18719011 0.01370727 4 
378 929 1175 0 0.16073549 0.01366759 4 
379 1158 1175 0 0.00134797 0.01114668 3 
380 445 1179 2 3789.60170324 0.00000600 1 
381 101 1188 0 0.32950319 0.01383977 4 
382 939 1188 0 0.55418798 0.01382552 4 
383 1138 1188 0 0.03006025 0.01135079 3 
384 1147 1188 0 0.04063922 0.01128049 3 
385 1150 1188 0 1.83245351 0.01383639 4 
386 1118 1197 2 741.34588540 0.00000636 1 
387 710 1199 2 1721.00592706 0.00000601 1 
388 977 1204 2 1400.33817122 0.00000539 1 
389 96 1206 2 378.01555752 0.00000556 1 
390 1050 1210 0 0.00345523 0.01408651 4 
391 1061 1210 0 0.57363906 0.01669903 5 
392 1075 1210 0 0.23107861 0.01670404 5 
393 1084 1210 0 3.13555510 0.01673205 5 
394 1088 1210 0 0.59156319 0.01411754 4 
395 1093 1210 0 0.13111230 0.01936461 6 
396 1098 1210 0 0.04730346 0.01410178 4 
397 355 1213 2 267.22025541 0.00000559 1 
398 1116 1214 2 3059.10438608 0.00000554 1 
399 157 1217 0 0.32750279 0.01421309 4 
400 163 1217 0 0.19904338 0.01437154 4 
401 1029 1217 0 0.01250493 0.01167806 3 
402 1044 1217 0 3.98258990 0.01438639 4 
403 1050 1217 0 4.97161000 0.01705929 5 
404 163 297 0 0.27920255 0.01527492 4 
405 189 400 0 2.09679271 0.01466227 4 
406 1056 1217 0 9.66143264 0.01738372 5 
