1 19 166 0.00293370 10 
2 19 172 0.00311397 10 
3 25 172 0.00317860 10 
4 25 178 0.00329401 10 
5 32 178 0.00329697 10 
6 32 183 0.00338810 10 
7 44 189 0.00350768 10 
8 44 195 0.00361686 10 
9 50 195 0.00361633 10 
10 50 201 0.00372130 10 
11 50 203 0.00377389 10 
12 61 203 0.00376177 10 
13 61 209 0.00387104 10 
14 67 209 0.00387443 10 
15 67 220 0.00407624 10 
16 81 220 0.00406529 10 
17 81 226 0.00418336 10 
18 87 226 0.00417179 10 
19 87 231 0.00427515 10 
20 94 231 0.00426803 10 
21 226 231 0.00426170 10 
22 94 241 0.00447211 10 
23 101 241 0.00447853 10 
24 101 247 0.00457749 10 
25 107 247 0.00459187 10 
26 107 254 0.00471553 10 
27 114 254 0.00471394 10 
28 107 256 0.00479090 10 
29 114 256 0.00477389 10 
30 107 258 0.00481083 10 
31 114 258 0.00481912 10 
32 121 266 0.00498001 10 
33 126 266 0.00500295 10 
34 126 272 0.00513312 10 
35 132 272 0.00514196 10 
36 132 278 0.00525900 10 
37 138 278 0.00524722 10 
38 138 284 0.00540396 10 
39 151 284 0.00539612 10 
40 151 291 0.00553211 10 
41 151 297 0.00565010 10 
42 157 297 0.00564852 10 
43 163 297 0.00565776 10 
44 166 297 0.00565954 10 
45 19 305 0.00593881 10 
46 157 305 0.00593792 10 
47 163 305 0.00599151 10 
48 166 305 0.00597630 10 
49 172 305 0.00601588 10 
50 19 315 0.00539007 9 
51 25 315 0.00604991 10 
52 172 315 0.00621508 10 
53 172 328 0.00628029 10 
54 19 337 0.00514807 8 
55 25 337 0.00651431 10 
56 172 337 0.00667852 10 
57 19 342 0.00658029 10 
58 25 342 0.00663084 10 
59 172 342 0.00340766 5 
60 178 342 0.00665881 10 
61 25 367 0.00347794 5 
62 32 367 0.00420359 6 
63 178 367 0.00420305 6 
64 183 367 0.00494475 7 
65 25 374 0.00724970 10 
66 32 374 0.00730258 10 
67 178 374 0.00523528 7 
68 183 374 0.00654095 9 
69 32 382 0.00592960 8 
70 183 382 0.00753615 10 
71 32 387 0.00754969 10 
72 183 387 0.00448555 6 
73 189 400 0.00788026 10 
74 189 414 0.00814342 10 
75 44 437 0.00861805 10 
76 195 437 0.00880679 10 
77 44 454 0.00890166 10 
78 189 454 0.00914460 10 
79 44 467 0.00917603 10 
80 50 467 0.00941516 10 
81 195 467 0.00943655 10 
82 195 484 0.00954289 10 
83 44 494 0.00673781 7 
84 50 494 0.00976886 10 
85 195 494 0.00999710 10 
86 201 494 0.01004163 10 
87 50 500 0.00991059 10 
88 201 500 0.01017036 10 
89 203 500 0.01018752 10 
90 61 508 0.01011105 10 
91 203 508 0.01035372 10 
92 209 508 0.01039132 10 
93 61 522 0.01038548 10 
94 203 522 0.01063164 10 
95 209 522 0.01065596 10 
96 61 528 0.01050870 10 
97 67 528 0.01082369 10 
98 81 528 0.01083858 10 
99 209 528 0.01083833 10 
100 220 528 0.01084382 10 
101 67 532 0.00844738 8 
102 81 532 0.01068074 10 
103 220 532 0.01095221 10 
104 67 556 0.01116628 10 
105 67 564 0.01130412 10 
106 81 564 0.01158372 10 
107 220 564 0.01150903 10 
108 67 567 0.01138742 10 
109 81 567 0.01168561 10 
110 220 567 0.01169192 10 
111 67 570 0.01147245 10 
112 81 570 0.01175603 10 
113 220 570 0.01174538 10 
114 81 575 0.01188443 10 
115 220 575 0.01187859 10 
116 81 588 0.01185456 10 
117 87 588 0.01217000 10 
118 226 588 0.01220483 10 
119 87 597 0.01209619 10 
120 94 597 0.01240194 10 
121 226 597 0.01242612 10 
122 87 604 0.01225427 10 
123 94 604 0.01255854 10 
124 94 616 0.00989754 8 
125 363 621 0.01272247 10 
126 94 632 0.01290301 10 
127 94 637 0.01301663 10 
128 101 637 0.01334561 10 
129 101 642 0.01312221 10 
130 107 642 0.01347036 10 
131 101 645 0.01326239 10 
132 107 645 0.01355308 10 
133 328 654 0.01344889 10 
134 101 657 0.01352962 10 
135 101 663 0.01355910 10 
136 107 663 0.01366358 10 
137 114 663 0.01409708 10 
138 101 665 0.01376379 10 
139 107 665 0.01412241 10 
140 114 665 0.01411488 10 
141 107 680 0.01406857 10 
142 107 683 0.01413786 10 
143 114 683 0.01447580 10 
144 107 704 0.01453335 10 
145 114 704 0.01486776 10 
146 107 714 0.01471561 10 
147 114 714 0.01505745 10 
148 140 723 0.01497197 10 
149 107 730 0.01045078 7 
150 114 730 0.01514933 10 
151 121 754 0.01563602 10 
152 126 754 0.01601343 10 
153 121 759 0.01576690 10 
154 126 759 0.01613944 10 
155 126 762 0.01583799 10 
156 132 762 0.01622692 10 
157 132 778 0.01701207 10 
158 132 792 0.01641951 10 
159 132 800 0.01651613 10 
160 138 800 0.01700406 10 
161 138 806 0.01669103 10 
162 138 821 0.01687023 10 
163 138 823 0.01695545 10 
164 151 828 0.01712535 10 
165 151 847 0.01747284 10 
166 151 855 0.01761110 10 
167 151 895 0.01839936 10 
168 151 897 0.01871035 10 
169 138 903 0.01852721 10 
170 138 904 0.01896550 10 
171 132 907 0.01861272 10 
172 138 907 0.01907060 10 
173 132 911 0.01871467 10 
174 222 921 0.01920935 10 
175 121 923 0.01919531 10 
176 126 923 0.01967227 10 
177 107 929 0.01936192 10 
178 114 929 0.01983455 10 
179 107 935 0.01949998 10 
180 114 935 0.02000021 10 
181 101 939 0.01942077 10 
182 107 939 0.01943559 10 
183 101 944 0.01982048 10 
184 94 947 0.01977321 10 
185 101 947 0.02023389 10 
186 87 953 0.01992418 10 
187 94 953 0.02038928 10 
188 226 953 0.02042875 10 
189 81 959 0.02011204 10 
190 87 959 0.02057812 10 
191 220 959 0.02058321 10 
192 226 959 0.02062680 10 
193 67 965 0.02032005 10 
194 81 965 0.02083596 10 
195 220 965 0.02082889 10 
196 164 974 0.02063655 10 
197 61 976 0.02068374 10 
198 67 976 0.02124650 10 
199 209 976 0.02121207 10 
200 50 982 0.02084644 10 
201 61 982 0.02135162 10 
202 201 982 0.02136470 10 
203 203 982 0.02140405 10 
204 44 988 0.02105989 10 
205 50 988 0.02155399 10 
206 195 988 0.02155726 10 
207 201 988 0.01512591 7 
208 44 994 0.02123076 10 
209 189 994 0.02180790 10 
210 195 994 0.02179750 10 
211 32 1003 0.02154805 10 
212 178 1003 0.02207716 10 
213 183 1003 0.02209210 10 
214 25 1008 0.02172767 10 
215 32 1008 0.02220483 10 
216 178 1008 0.02220917 10 
217 183 1008 0.02224122 10 
218 25 1010 0.02180938 10 
219 32 1010 0.02226387 10 
220 172 1010 0.02234377 10 
221 178 1010 0.02234212 10 
222 19 1016 0.02202656 10 
223 166 1016 0.02266520 10 
224 172 1016 0.02030121 9 
225 151 1029 0.02243551 10 
226 157 1029 0.02287697 10 
227 163 1029 0.02287654 10 
228 166 1029 0.02296680 10 
229 132 1084 0.02371346 10 
230 61 1086 0.02363025 10 
231 569 1097 0.02393699 10 
232 813 1107 0.02427025 10 
233 622 1125 0.02486245 10 
234 101 1138 0.02507513 10 
235 107 1147 0.02534344 10 
236 114 1147 0.02582349 10 
237 107 1150 0.02532817 10 
238 114 1150 0.02591957 10 
239 114 1158 0.02552276 10 
240 121 1158 0.02610088 10 
241 121 1164 0.02561711 10 
242 126 1164 0.02621269 10 
243 114 1175 0.02588415 10 
244 121 1175 0.02643910 10 
245 923 1175 0.02644463 10 
246 929 1175 0.02657721 10 
247 1158 1175 0.01855406 7 
248 101 1188 0.02628661 10 
249 939 1188 0.02685727 10 
250 1138 1188 0.02689529 10 
251 1147 1188 0.02700854 10 
252 1150 1188 0.02691539 10 
253 1050 1210 0.02693634 10 
254 1061 1210 0.02754005 10 
255 1075 1210 0.02755991 10 
256 1084 1210 0.02753303 10 
257 1088 1210 0.02758153 10 
258 1093 1210 0.02756990 10 
259 1098 1210 0.02867696 10 
260 1143 1211 0.02757201 10 
261 157 1217 0.02739706 10 
262 163 1217 0.02807375 10 
263 1029 1217 0.02815008 10 
264 1044 1217 0.02818774 10 
265 1050 1217 0.02824076 10 
266 1056 1217 0.02821651 10 
