VERTEX2 0 0.00005839 -0.00000159 -0.00000025
VERTEX2 1 -0.00675548 -0.00022320 -0.00090049
VERTEX2 2 -0.01356232 -0.00043884 -0.00169692
VERTEX2 3 -0.00861171 -0.00087933 -0.00433807
VERTEX2 4 0.61470507 -0.01183739 -0.00845734
VERTEX2 5 0.67028652 -0.01241601 -0.10025369
VERTEX2 6 0.68186954 -0.02257746 -0.89744605
VERTEX2 7 0.67683690 -0.00685433 -1.51547477
VERTEX2 8 0.68007117 0.00663208 -2.13023890
VERTEX2 9 0.69186603 0.01663129 -2.76949966
VERTEX2 10 0.70196198 0.01821270 2.89799929
VERTEX2 11 0.70559222 0.01586833 2.22165470
VERTEX2 12 0.70553425 0.02484232 1.57064739
VERTEX2 13 0.71379190 0.04985932 0.91000274
VERTEX2 14 0.73052089 0.06130716 0.30027665
VERTEX2 15 0.73821647 0.06172568 -0.22598715
VERTEX2 16 1.03215088 -0.00320070 -0.24526332
VERTEX2 17 1.63210361 -0.16053444 -0.27706617
VERTEX2 18 2.25401305 -0.33475183 -0.28777105
VERTEX2 19 2.87953165 -0.54396772 -0.33689002
VERTEX2 20 3.46108020 -0.74115979 -0.33102633
VERTEX2 21 4.05851991 -0.90150741 -0.21953138
VERTEX2 22 4.65705990 -1.05108533 -0.20220676
VERTEX2 23 5.28744350 -1.10557385 -0.09486876
VERTEX2 24 5.90887044 -1.18657818 -0.15202131
VERTEX2 25 6.55284632 -1.26686774 -0.14898893
VERTEX2 26 7.15735603 -1.37828373 -0.18914637
VERTEX2 27 7.76876644 -1.48040813 -0.17291688
VERTEX2 28 8.34613005 -1.58893724 -0.17693630
VERTEX2 29 8.72145077 -1.65237483 -0.14569000
VERTEX2 30 8.73008831 -1.65481961 -0.67876659
VERTEX2 31 8.82644960 -1.78869706 -0.94778598
VERTEX2 32 9.18319809 -2.30613561 -0.96676198
VERTEX2 33 9.53743701 -2.79319939 -0.91656180
VERTEX2 34 9.91951016 -3.26565814 -0.89607890
VERTEX2 35 10.31098391 -3.73104980 -0.86238703
VERTEX2 36 10.71642827 -4.20771090 -0.87077695
VERTEX2 37 10.97769835 -4.51085939 -0.86277556
VERTEX2 38 10.96342752 -4.49080004 -1.18389917
VERTEX2 39 10.95877860 -4.46803014 -1.35444844
VERTEX2 40 11.08639564 -5.01674709 -1.33834339
VERTEX2 41 11.21837550 -5.59066010 -1.37143282
VERTEX2 42 11.32388943 -6.12787151 -1.39515454
VERTEX2 43 11.41430032 -6.70504806 -1.43699936
VERTEX2 44 11.48748364 -7.28179052 -1.47552068
VERTEX2 45 11.52814261 -7.89892555 -1.53050795
VERTEX2 46 11.54519006 -8.51748112 -1.54940627
VERTEX2 47 11.55172833 -9.13559974 -1.59057868
VERTEX2 48 11.53501957 -9.75756265 -1.59666068
VERTEX2 49 11.51533674 -10.37526729 -1.64733900
VERTEX2 50 11.45082861 -10.95931227 -1.69207901
VERTEX2 51 11.38411330 -11.55072159 -1.72087660
VERTEX2 52 11.27629204 -12.12717614 -1.79733742
VERTEX2 53 11.16635086 -12.67799113 -1.78478545
VERTEX2 54 11.04464059 -13.18240450 -1.84667439
VERTEX2 55 11.05304295 -13.14581335 -1.84122071
VERTEX2 56 11.05384227 -13.14295890 -1.83046516
VERTEX2 57 10.89950821 -13.75449803 -1.84179809
VERTEX2 58 10.74290590 -14.35412001 -1.79555528
VERTEX2 59 10.60345144 -14.95404668 -1.81916542
VERTEX2 60 10.46346015 -15.55024986 -1.79786172
VERTEX2 61 10.31773468 -16.14731991 -1.84842899
VERTEX2 62 10.15966949 -16.69576406 -1.80832624
VERTEX2 63 9.99990087 -17.24889403 -1.84363949
VERTEX2 64 9.85660113 -17.79726553 -1.78014018
VERTEX2 65 9.71388332 -18.34340470 -1.83152795
VERTEX2 66 9.55192221 -18.91872634 -1.83961931
VERTEX2 67 9.37822245 -19.49885001 -1.83846400
VERTEX2 68 9.26080743 -19.93976064 -1.85400145
VERTEX2 69 9.26666935 -19.92194788 -2.00888668
VERTEX2 70 9.27769860 -19.90183659 -2.68303681
VERTEX2 71 9.30343560 -19.90085150 2.95766409
VERTEX2 72 9.31669936 -19.90254360 2.94823902
VERTEX2 73 9.32403044 -19.90450470 2.88335837
VERTEX2 74 9.32185903 -19.90296352 2.26171887
VERTEX2 75 9.33589555 -19.90877053 1.90909222
VERTEX2 76 9.32640266 -19.89781083 2.60252278
VERTEX2 77 9.33584476 -19.90193025 2.83439733
VERTEX2 78 9.05078251 -19.90690213 -3.11151887
VERTEX2 79 8.42811865 -19.93356926 -3.11676599
VERTEX2 80 7.79713161 -19.91962104 3.09186611
VERTEX2 81 7.17285162 -19.88115362 3.06572159
VERTEX2 82 6.58419062 -19.82798310 3.01135361
VERTEX2 83 6.00667619 -19.76447790 2.98765200
VERTEX2 84 5.45560089 -19.66741480 2.90966823
VERTEX2 85 4.92434370 -19.55283800 2.91686052
VERTEX2 86 4.32595939 -19.41942674 2.82746365
VERTEX2 87 3.95797601 -19.31165334 2.77480601
VERTEX2 88 3.60753325 -19.17268065 2.74501832
VERTEX2 89 3.62566435 -19.17387279 3.14072763
VERTEX2 90 3.02933047 -19.16342738 3.10960239
VERTEX2 91 2.42215072 -19.14520850 -3.12449872
VERTEX2 92 1.83338073 -19.12805484 3.04299229
VERTEX2 93 1.21717912 -19.01215699 2.94231391
VERTEX2 94 0.60209398 -18.86068502 2.89969352
VERTEX2 95 -0.00597746 -18.76111823 3.04238713
VERTEX2 96 -0.60327653 -18.69787686 3.06651220
VERTEX2 97 -1.17978033 -18.62355688 2.99594488
VERTEX2 98 -1.76295026 -18.51036079 2.93823724
VERTEX2 99 -2.46208491 -18.37148407 2.98529372
VERTEX2 100 -3.02104560 -18.25220169 2.93381932
VERTEX2 101 -3.62748054 -18.18314057 3.03739286
VERTEX2 102 -4.23627712 -18.09035835 2.93204362
VERTEX2 103 -4.84000942 -17.96359468 3.02857167
VERTEX2 104 -5.44814565 -17.87550944 2.99532176
VERTEX2 105 -6.05401283 -17.79997576 3.04199793
VERTEX2 106 -6.64932322 -17.71882231 2.98724717
VERTEX2 107 -7.26016988 -17.61187676 2.98353781
VERTEX2 108 -7.71262440 -17.55461469 3.04544125
VERTEX2 109 -7.75577552 -17.54283021 2.59743537
VERTEX2 110 -7.76982298 -17.52774629 2.00670372
VERTEX2 111 -7.76860455 -17.44947933 1.50106031
VERTEX2 112 -7.73378918 -16.81682794 1.55552869
VERTEX2 113 -7.74129906 -16.19504283 1.60260511
VERTEX2 114 -7.76372340 -15.58145628 1.63943600
VERTEX2 115 -7.82673709 -14.95770421 1.69853618
VERTEX2 116 -7.93330673 -14.22030536 1.74126096
VERTEX2 117 -8.05744225 -13.61882429 1.83508504
VERTEX2 118 -8.05943243 -13.60881116 1.49765399
VERTEX2 119 -7.99690815 -13.12195877 1.44260548
VERTEX2 120 -7.93341558 -12.49564778 1.53070739
VERTEX2 121 -7.93027366 -11.89915321 1.59596179
VERTEX2 122 -7.94765618 -11.32348090 1.65245726
VERTEX2 123 -7.96675598 -11.15017595 1.63993816
VERTEX2 124 -7.87887218 -10.92618026 1.21663807
VERTEX2 125 -7.65068570 -10.35015235 1.20577272
VERTEX2 126 -7.50441407 -9.74745383 1.41236987
VERTEX2 127 -7.39059585 -9.12317243 1.41041639
VERTEX2 128 -7.29902412 -8.50078968 1.44672022
VERTEX2 129 -7.19683898 -7.88230136 1.41398378
VERTEX2 130 -7.11319700 -7.26594109 1.46661874
VERTEX2 131 -7.05101156 -6.65567259 1.55510291
VERTEX2 132 -7.01638297 -6.05544207 1.50556554
VERTEX2 133 -6.95576682 -5.49877156 1.46918365
VERTEX2 134 -6.88782615 -4.91368901 1.45134440
VERTEX2 135 -6.79321001 -4.35072168 1.42544399
VERTEX2 136 -6.70502906 -3.73053971 1.44532823
VERTEX2 137 -6.59526101 -3.11419507 1.40367961
VERTEX2 138 -6.50602409 -2.49853555 1.48400083
VERTEX2 139 -6.47478546 -1.88038402 1.54983168
VERTEX2 140 -6.48744972 -1.23603251 1.58083207
VERTEX2 141 -6.47880649 -0.60775256 1.53286480
VERTEX2 142 -6.46465442 0.03004358 1.52943941
VERTEX2 143 -6.37113858 0.65445610 1.41935633
VERTEX2 144 -6.32479776 1.01283971 1.43727504
VERTEX2 145 -6.32105144 1.02339896 0.93973418
VERTEX2 146 -6.32051248 1.02586605 0.34747676
VERTEX2 147 -6.26973033 1.02132977 -0.13820180
VERTEX2 148 -5.84378979 0.95411891 -0.17343396
VERTEX2 149 -5.21389058 0.85080619 -0.14775020
VERTEX2 150 -4.58972510 0.77685258 -0.13304035
VERTEX2 151 -3.96217705 0.71975882 -0.04797839
VERTEX2 152 -3.34377821 0.67377769 -0.10843245
VERTEX2 153 -2.72580544 0.63066394 -0.01448499
VERTEX2 154 -2.11158986 0.59961702 -0.08344442
VERTEX2 155 -1.49358203 0.55686455 -0.04954189
VERTEX2 156 -0.87317757 0.53331310 -0.01829665
VERTEX2 157 -0.31253555 0.50761053 -0.08205892
VERTEX2 158 -0.11274248 0.49058758 -0.05414437
VERTEX2 159 -0.10289597 0.48728714 0.93200317
VERTEX2 160 -0.09825020 0.49463825 1.96756520
VERTEX2 161 -0.12516945 0.42695049 2.69317270
VERTEX2 162 -0.11003381 0.43015976 -2.55470329
VERTEX2 163 -0.10772516 0.44077585 -1.55810681
VERTEX2 164 -0.18734933 0.54338336 -0.49692842
VERTEX2 165 -0.02279359 0.52403716 -0.08913769
VERTEX2 166 0.66484573 0.46882917 -0.08741244
VERTEX2 167 1.28378802 0.40750071 -0.11619671
VERTEX2 168 1.86454487 0.34874656 -0.10406616
VERTEX2 169 2.45195488 0.26787293 -0.14087391
VERTEX2 170 3.03069224 0.19042347 -0.16141178
VERTEX2 171 3.57594936 0.08517667 -0.19968224
VERTEX2 172 4.18473244 -0.03032220 -0.18560517
VERTEX2 173 4.81016640 -0.16105317 -0.20798914
VERTEX2 174 5.43206200 -0.28505473 -0.16741599
VERTEX2 175 6.04171545 -0.38400780 -0.19216844
VERTEX2 176 6.63373046 -0.51246619 -0.18262827
VERTEX2 177 7.25013656 -0.62405962 -0.21037045
VERTEX2 178 7.85509036 -0.77608861 -0.25059182
VERTEX2 179 8.25738310 -0.86695608 -0.19735237
VERTEX2 180 8.30299027 -0.88011194 -0.64002522
VERTEX2 181 8.73494657 -1.20452256 -0.69214332
VERTEX2 182 9.13329556 -1.57118400 -0.86619083
VERTEX2 183 9.47151103 -1.99771718 -0.92355697
VERTEX2 184 9.78273789 -2.48822163 -1.07129958
VERTEX2 185 10.04079995 -3.00046620 -1.16492743
VERTEX2 186 10.23371066 -3.53301112 -1.23216333
VERTEX2 187 10.40319191 -4.04283632 -1.25554371
VERTEX2 188 10.57856304 -4.57204741 -1.26169363
VERTEX2 189 10.74650691 -5.10497260 -1.28917706
VERTEX2 190 10.91389306 -5.70710135 -1.31744963
VERTEX2 191 11.07114196 -6.31002004 -1.34088176
VERTEX2 192 11.21002659 -6.90539833 -1.36862053
VERTEX2 193 11.31958657 -7.45092111 -1.42371458
VERTEX2 194 11.40553616 -8.01575159 -1.44992783
VERTEX2 195 11.47315071 -8.58446172 -1.47776497
VERTEX2 196 11.52665728 -9.21382518 -1.51816905
VERTEX2 197 11.55169792 -9.83427790 -1.54548945
VERTEX2 198 11.56418182 -10.45141070 -1.60357203
VERTEX2 199 11.52427981 -11.04939440 -1.66503606
VERTEX2 200 11.46582031 -11.64110755 -1.68700982
VERTEX2 201 11.38231777 -12.24026866 -1.74288148
VERTEX2 202 11.30989963 -12.73509155 -1.72200874
VERTEX2 203 11.19444846 -13.46493350 -1.77425809
VERTEX2 204 11.06199240 -14.03526564 -1.87594602
VERTEX2 205 10.88282892 -14.59002936 -1.88513725
VERTEX2 206 10.71912830 -15.13021399 -1.88299110
VERTEX2 207 10.55081307 -15.68581561 -1.86680631
VERTEX2 208 10.36941609 -16.27272754 -1.87615644
VERTEX2 209 10.19906547 -16.86144814 -1.83792055
VERTEX2 210 10.02608988 -17.44402211 -1.84665703
VERTEX2 211 9.86699611 -18.03047846 -1.84425798
VERTEX2 212 9.68083758 -18.60634893 -1.89693320
VERTEX2 213 9.47621275 -19.18583356 -1.91752576
VERTEX2 214 9.26718500 -19.75181025 -1.92113613
VERTEX2 215 9.14818120 -20.06574048 -1.95670697
VERTEX2 216 9.16181482 -20.04338255 -2.45562301
VERTEX2 217 9.18690060 -20.04117863 -2.99808264
VERTEX2 218 9.19756288 -20.04550858 -3.05457508
VERTEX2 219 8.63950080 -19.99065568 3.05964868
VERTEX2 220 8.03879691 -19.93454350 3.01945580
VERTEX2 221 7.39975925 -19.85466341 3.06999164
VERTEX2 222 6.77925690 -19.79926214 3.04418491
VERTEX2 223 6.15809953 -19.75691995 3.14025478
VERTEX2 224 5.56279677 -19.74477118 3.11456044
VERTEX2 225 4.96398865 -19.72644854 -3.11883126
VERTEX2 226 4.36748571 -19.70763088 3.11540261
VERTEX2 227 3.72498280 -19.76364599 -3.01109103
VERTEX2 228 3.20665930 -19.73808256 2.91057896
VERTEX2 229 2.77501851 -19.69455179 3.03092943
VERTEX2 230 2.48922979 -19.67321798 3.00219033
VERTEX2 231 2.69741149 -19.69566783 3.07233929
VERTEX2 232 2.39434165 -19.55189603 2.64636241
VERTEX2 233 1.83929335 -19.28065521 2.74865764
VERTEX2 234 1.27205953 -19.04315331 2.70451629
VERTEX2 235 1.02841888 -18.93181620 2.69955891
VERTEX2 236 0.70141915 -18.92610506 3.10506185
VERTEX2 237 0.08020716 -18.92765450 -3.10768012
VERTEX2 238 -0.53374119 -18.96256430 -3.14035478
VERTEX2 239 -1.14329048 -18.94672531 3.07529373
VERTEX2 240 -1.70516413 -18.81789431 2.85737542
VERTEX2 241 -2.23719561 -18.67643400 2.94295557
VERTEX2 242 -2.79992960 -18.60065125 2.98342677
VERTEX2 243 -3.39324087 -18.50661554 2.98307428
VERTEX2 244 -4.01156623 -18.44930013 3.05469346
VERTEX2 245 -4.62092609 -18.38917309 3.00075332
VERTEX2 246 -5.21718486 -18.29238174 2.92866151
VERTEX2 247 -5.81032975 -18.20074586 3.03427538
VERTEX2 248 -6.36145581 -18.16890198 3.06564224
VERTEX2 249 -6.30963764 -18.17770138 -3.02466160
VERTEX2 250 -6.30291782 -18.17767532 2.67144788
VERTEX2 251 -6.61519390 -17.83526574 2.24808342
VERTEX2 252 -6.96400855 -17.40763421 2.25724915
VERTEX2 253 -7.32877663 -16.95428518 2.24691592
VERTEX2 254 -7.68290737 -16.49496942 2.20650963
VERTEX2 255 -7.75363700 -16.40198063 2.29038954
VERTEX2 256 -7.75529977 -16.32564145 1.81455701
VERTEX2 257 -7.80050683 -15.86365180 1.67929286
VERTEX2 258 -7.87473206 -15.27269436 1.75964648
VERTEX2 259 -8.00768360 -14.67459077 1.79896534
VERTEX2 260 -8.13072846 -14.12067602 1.78929671
VERTEX2 261 -8.12912817 -14.10068934 1.47567203
VERTEX2 262 -8.05603910 -13.47773773 1.48103340
VERTEX2 263 -8.00294308 -12.88338955 1.49352813
VERTEX2 264 -7.97578322 -12.30064840 1.58935217
VERTEX2 265 -7.99296082 -11.71545682 1.60836639
VERTEX2 266 -7.93334240 -11.16143814 1.47767163
VERTEX2 267 -7.85999936 -10.40389918 1.44916659
VERTEX2 268 -7.70965423 -9.79851172 1.34011965
VERTEX2 269 -7.57728387 -9.20803972 1.36929003
VERTEX2 270 -7.49071275 -8.60827762 1.48251520
VERTEX2 271 -7.38127887 -8.01002720 1.37133911
VERTEX2 272 -7.27999092 -7.40348121 1.43629208
VERTEX2 273 -7.27234226 -6.78441192 1.64876700
VERTEX2 274 -7.32232690 -6.17634956 1.67298065
VERTEX2 275 -7.29413463 -5.58140478 1.50178308
VERTEX2 276 -7.27118523 -4.98717276 1.61649557
VERTEX2 277 -7.30205703 -4.43301539 1.59108808
VERTEX2 278 -7.24336027 -3.81298809 1.50184081
VERTEX2 279 -7.18887955 -3.19355074 1.44666885
VERTEX2 280 -7.10657441 -2.57640129 1.44887424
VERTEX2 281 -7.00097152 -1.95250761 1.34908585
VERTEX2 282 -6.86728623 -1.33704483 1.38946906
VERTEX2 283 -6.76592643 -0.71462349 1.38205226
VERTEX2 284 -6.64057882 -0.10411108 1.40960339
VERTEX2 285 -6.55763543 0.53594664 1.43113123
VERTEX2 286 -6.47621321 1.14828332 1.48519852
VERTEX2 287 -6.47264017 1.19228693 1.38133666
VERTEX2 288 -6.47387784 1.19003244 0.77432276
VERTEX2 289 -6.48035336 1.18658802 0.18250155
VERTEX2 290 -6.04740778 1.16802623 -0.04174763
VERTEX2 291 -5.43185548 1.14648219 -0.02743866
VERTEX2 292 -4.82524741 1.11333658 -0.08245801
VERTEX2 293 -4.21456644 1.05484941 -0.10565605
VERTEX2 294 -3.59571367 0.98810087 -0.10449759
VERTEX2 295 -2.97629847 0.89344277 -0.21634968
VERTEX2 296 -2.36526508 0.73538998 -0.26130805
VERTEX2 297 -1.75637214 0.57072357 -0.27255211
VERTEX2 298 -1.15598499 0.40574627 -0.27268627
VERTEX2 299 -0.59210026 0.23959654 -0.21091896
VERTEX2 300 -0.01086523 0.14304712 -0.16853482
VERTEX2 301 0.54538566 0.03334177 -0.22753256
VERTEX2 302 0.84158693 -0.03643592 -0.24829457
VERTEX2 303 0.81963574 -0.03125829 -0.24401707
VERTEX2 304 1.31345850 -0.15521487 -0.23435248
VERTEX2 305 1.92461971 -0.21095151 -0.05036886
VERTEX2 306 2.54776051 -0.23343023 -0.06844139
VERTEX2 307 3.17988700 -0.29298529 -0.10515765
VERTEX2 308 3.80016276 -0.36723071 -0.16076930
VERTEX2 309 4.42779313 -0.43904306 -0.06787908
VERTEX2 310 5.04875118 -0.48055445 -0.10380925
VERTEX2 311 5.32311294 -0.51116844 0.07118734
VERTEX2 312 5.31600235 -0.51481416 1.05909587
VERTEX2 313 5.32451841 -0.29416079 1.55482756
VERTEX2 314 5.31562754 0.33687855 1.59460748
VERTEX2 315 5.29767929 0.96753738 1.59025800
VERTEX2 316 5.26830221 1.61064810 1.64150645
VERTEX2 317 5.21765390 2.25137126 1.65131308
VERTEX2 318 5.12943195 2.88918032 1.74563017
VERTEX2 319 5.05557235 3.23806111 1.81673528
VERTEX2 320 5.05701649 3.24227517 2.78359644
VERTEX2 321 5.03726749 3.23426049 -2.46165305
VERTEX2 322 5.03484140 3.22956174 -1.46607952
VERTEX2 323 5.04799722 3.21634187 -0.47274112
VERTEX2 324 5.05608238 3.21352202 0.18773458
VERTEX2 325 5.06055275 3.21378755 -0.33944337
VERTEX2 326 5.07890287 3.19948617 -0.93411306
VERTEX2 327 5.08064827 3.19067304 -1.55858887
VERTEX2 328 5.05402716 2.56025410 -1.60556902
VERTEX2 329 5.02124634 1.93412875 -1.66164843
VERTEX2 330 4.95648836 1.31963973 -1.68179711
VERTEX2 331 4.89090010 0.70385108 -1.69720524
VERTEX2 332 4.80152653 0.09254500 -1.71716106
VERTEX2 333 4.77739512 -0.06073383 -1.65365803
VERTEX2 334 4.80057008 -0.05628785 -0.86495672
VERTEX2 335 4.81129239 -0.05967308 0.12638423
VERTEX2 336 4.82038641 -0.05667859 1.06787460
VERTEX2 337 4.82669215 -0.02180701 2.04818559
VERTEX2 338 4.82168203 -0.01817697 3.03792762
VERTEX2 339 4.83266379 -0.01163732 -2.19505576
VERTEX2 340 4.83251651 -0.01107857 -1.17499196
VERTEX2 341 4.94240986 -0.08013450 -0.54110124
VERTEX2 342 5.50778030 -0.39382058 -0.43893852
VERTEX2 343 6.06995360 -0.60084028 -0.30747224
VERTEX2 344 6.64300557 -0.79035827 -0.31699226
VERTEX2 345 6.86732168 -0.86080338 -0.34394666
VERTEX2 346 6.84110656 -0.85168557 -0.98987085
VERTEX2 347 6.84187345 -0.93619715 -1.54734437
VERTEX2 348 6.84852619 -1.52480666 -1.56357396
VERTEX2 349 6.83447736 -2.14217841 -1.60330799
VERTEX2 350 6.80630732 -2.92333284 -1.62240377
VERTEX2 351 6.78729513 -3.19049314 -1.65082458
VERTEX2 352 6.78647834 -3.19404811 -1.93775427
VERTEX2 353 6.77523716 -3.20731352 -2.60088348
VERTEX2 354 6.75879286 -3.21169791 3.08171013
VERTEX2 355 6.73809374 -3.21078778 2.36395025
VERTEX2 356 6.73853899 -3.21159823 1.79090852
VERTEX2 357 6.74151797 -3.19555120 1.14023419
VERTEX2 358 6.74467636 -3.19124827 0.52707069
VERTEX2 359 6.73895512 -3.19358466 -0.08466961
VERTEX2 360 6.72931117 -3.19149587 -0.26001169
VERTEX2 361 6.72916539 -3.19155137 0.66264942
VERTEX2 362 6.81643288 -2.96732962 1.19847464
VERTEX2 363 6.92211876 -2.70593641 1.19285435
VERTEX2 364 6.86158410 -2.38211900 1.80964410
VERTEX2 365 6.81373207 -2.10542885 1.31440650
VERTEX2 366 6.92549373 -1.98348546 0.76233449
VERTEX2 367 7.38526152 -1.55149181 0.76542426
VERTEX2 368 7.84745013 -1.12458657 0.71715897
VERTEX2 369 7.86673245 -1.10214800 0.46482537
VERTEX2 370 7.89255367 -1.09850455 -0.12123670
VERTEX2 371 7.89689601 -1.10087027 -0.66607517
VERTEX2 372 8.31767145 -1.45516532 -0.69354320
VERTEX2 373 8.78117268 -1.82587100 -0.69165562
VERTEX2 374 9.25257336 -2.23659697 -0.75276304
VERTEX2 375 9.60660692 -2.56287737 -0.78389752
VERTEX2 376 9.61743160 -2.56976287 -0.09196749
VERTEX2 377 9.66577624 -2.53666656 0.60018434
VERTEX2 378 10.20604101 -2.15090061 0.65270782
VERTEX2 379 10.69181530 -1.73177117 0.73575320
VERTEX2 380 11.14146830 -1.27340248 0.85347985
VERTEX2 381 11.29327311 -1.09399639 1.00208069
VERTEX2 382 11.29627973 -1.08884375 2.04769984
VERTEX2 383 11.29368584 -1.08718786 3.03533322
VERTEX2 384 11.29269367 -1.08808315 -2.28336852
VERTEX2 385 11.28864637 -1.09458396 -1.25246544
VERTEX2 386 11.38978054 -1.23096445 -1.02725049
VERTEX2 387 11.84356854 -1.66612426 -0.69410524
VERTEX2 388 12.32320231 -2.04855512 -0.68453849
VERTEX2 389 12.77753653 -2.44992130 -0.76619504
VERTEX2 390 12.81213492 -2.48195445 -0.29000128
VERTEX2 391 12.65550737 -2.47465629 0.09101706
VERTEX2 392 12.63401432 -2.47507621 1.13441706
VERTEX2 393 12.66314753 -2.28292802 2.01398518
VERTEX2 394 12.64440921 -2.26627343 3.00854013
VERTEX2 395 12.88771366 -2.22804103 -2.93785648
VERTEX2 396 12.89466773 -2.22547358 -2.93762543
VERTEX2 397 12.88843692 -2.22486495 -2.94830166
VERTEX2 398 12.90229760 -2.21938437 -2.75133849
VERTEX2 399 12.82573306 -2.27649681 -2.45310728
VERTEX2 400 12.34355168 -2.67513995 -2.40345921
VERTEX2 401 11.87221577 -3.07216361 -2.49694093
VERTEX2 402 11.31934175 -3.34527974 -2.76559724
VERTEX2 403 10.74451033 -3.56690321 -2.80119528
VERTEX2 404 10.19699440 -3.74371583 -2.88197844
VERTEX2 405 10.21558646 -3.73544100 -2.35060533
VERTEX2 406 10.22141169 -3.70632977 -1.37652312
VERTEX2 407 10.32766039 -4.03830329 -1.24999364
VERTEX2 408 10.51239658 -4.61208937 -1.28938330
VERTEX2 409 10.58141882 -4.87852137 -1.39068674
VERTEX2 410 10.58258739 -4.86112069 -2.02084889
VERTEX2 411 10.59635422 -4.83858644 -2.61233195
VERTEX2 412 10.09272223 -5.01906499 -2.81657287
VERTEX2 413 9.51795726 -5.19135472 -2.89639514
VERTEX2 414 8.93829798 -5.35376990 -2.79292162
VERTEX2 415 8.34246845 -5.56070234 -2.78563022
VERTEX2 416 8.07076837 -5.66948130 -2.84046904
VERTEX2 417 7.77347201 -5.64210321 3.01914041
VERTEX2 418 7.32909364 -5.58130039 2.97453403
VERTEX2 419 7.33806830 -5.57958747 -2.87660032
VERTEX2 420 7.40235387 -5.55370550 -2.65936936
VERTEX2 421 7.42270801 -5.52356484 -1.68884173
VERTEX2 422 7.43473955 -5.50790049 -0.44552975
VERTEX2 423 7.41928179 -5.50592522 -0.09881598
VERTEX2 424 7.39882119 -5.50382307 -0.09766563
VERTEX2 425 7.38378131 -5.51167803 -0.08514044
VERTEX2 426 7.36333642 -5.50985183 -0.09346910
VERTEX2 427 7.38205533 -5.51144057 -0.08963776
VERTEX2 428 8.04245651 -5.55440717 -0.09390583
VERTEX2 429 8.68470124 -5.62432366 -0.13338547
VERTEX2 430 9.03091313 -5.67648589 -0.17831323
VERTEX2 431 9.01466122 -5.67403645 -0.12521808
VERTEX2 432 9.03759211 -5.68286012 -0.75415280
VERTEX2 433 9.04843051 -5.69862638 -1.42945515
VERTEX2 434 8.99599481 -6.24815148 -1.65573019
VERTEX2 435 8.94621406 -6.90161831 -1.68268921
VERTEX2 436 8.84961081 -7.55835235 -1.68969183
VERTEX2 437 8.78010389 -8.22752380 -1.67974205
VERTEX2 438 8.71690513 -8.69952217 -1.71031747
VERTEX2 439 8.71302447 -8.71285854 -2.14632617
VERTEX2 440 8.70816611 -8.71658625 -2.78949036
VERTEX2 441 8.70856052 -8.71662264 2.87165919
VERTEX2 442 8.70530491 -8.71480112 2.24225031
VERTEX2 443 8.70543402 -8.71921692 1.67532196
VERTEX2 444 8.70750827 -8.70997334 1.08374571
VERTEX2 445 8.70257732 -8.71449364 0.42554424
VERTEX2 446 8.70162110 -8.71504454 0.62668559
VERTEX2 447 8.72211518 -8.67844758 1.25972177
VERTEX2 448 8.89806160 -8.04877184 1.27727103
VERTEX2 449 9.05719582 -7.40371081 1.37862277
VERTEX2 450 9.17477664 -6.77180303 1.39307657
VERTEX2 451 9.24373190 -6.31091970 1.43681365
VERTEX2 452 9.24290972 -6.31767791 1.06084448
VERTEX2 453 9.23857616 -6.32496060 0.44170991
VERTEX2 454 9.51151016 -6.31245014 0.02189061
VERTEX2 455 10.10261427 -6.30472351 0.00133580
VERTEX2 456 10.72659711 -6.31764011 -0.06324816
VERTEX2 457 11.07160195 -6.34926068 -0.15096248
VERTEX2 458 11.06277793 -6.34458228 -0.79600387
VERTEX2 459 11.05357080 -6.30245834 -1.40339569
VERTEX2 460 11.02270832 -6.69474375 -1.65986622
VERTEX2 461 10.93850365 -7.30410869 -1.74738319
VERTEX2 462 10.83882973 -7.80643487 -1.78698598
VERTEX2 463 10.85178037 -7.78252413 -0.94544035
VERTEX2 464 11.09876322 -7.85908968 -0.26628731
VERTEX2 465 11.68142058 -8.00542530 -0.25831885
VERTEX2 466 12.24404113 -8.17266158 -0.31379065
VERTEX2 467 12.82294843 -8.37118480 -0.35711105
VERTEX2 468 13.42154961 -8.59926293 -0.39265419
VERTEX2 469 13.99650774 -8.87346269 -0.47557683
VERTEX2 470 14.44085606 -9.09707102 -0.45657951
VERTEX2 471 14.44483597 -9.09934803 -0.65620866
VERTEX2 472 14.45994472 -9.12148753 -1.28836769
VERTEX2 473 14.46123779 -9.12869885 -1.92844646
VERTEX2 474 14.45639239 -9.13451478 -2.55927730
VERTEX2 475 14.46283842 -9.13379976 -3.13244702
VERTEX2 476 14.46999071 -9.13495408 2.50020210
VERTEX2 477 14.47618682 -9.14779494 1.94127138
VERTEX2 478 14.47656294 -9.15489195 1.31415292
VERTEX2 479 14.47700752 -9.15391737 0.85980158
VERTEX2 480 14.47739638 -9.15309281 1.42227526
VERTEX2 481 14.47474389 -9.14025835 2.42504155
VERTEX2 482 14.48611616 -9.14512879 2.76120453
VERTEX2 483 14.49979024 -9.15047644 2.75582682
VERTEX2 484 14.08676360 -8.98612677 2.79140109
VERTEX2 485 13.49345901 -8.78383672 2.78909419
VERTEX2 486 12.89804602 -8.55752199 2.79862787
VERTEX2 487 12.29318026 -8.36418542 2.82690841
VERTEX2 488 11.68606848 -8.16891897 2.86302964
VERTEX2 489 11.21921553 -8.05063188 2.89345665
VERTEX2 490 11.22890088 -8.04991925 -2.90425230
VERTEX2 491 11.23893142 -8.03728976 -1.96749774
VERTEX2 492 11.21729033 -8.26532303 -1.66418885
VERTEX2 493 11.14269896 -8.86632879 -1.71907898
VERTEX2 494 11.04273826 -9.47392604 -1.77984988
VERTEX2 495 10.96133611 -10.09004920 -1.67235228
VERTEX2 496 10.90522327 -10.70831822 -1.55433627
VERTEX2 497 10.88594977 -11.32134849 -1.64015492
VERTEX2 498 10.80560757 -11.93585964 -1.74176284
VERTEX2 499 10.66317358 -12.55739462 -1.75877294
VERTEX2 500 10.70997598 -13.12608146 -1.42987709
VERTEX2 501 10.77189721 -13.70210036 -1.50191073
VERTEX2 502 10.78116768 -14.39409044 -1.58628542
VERTEX2 503 10.76754651 -14.83748504 -1.60313591
VERTEX2 504 10.77196521 -14.82572713 -0.74409365
VERTEX2 505 11.01106514 -14.85739216 -0.12112606
VERTEX2 506 11.60361121 -14.94870065 -0.27443650
VERTEX2 507 12.18178103 -15.12806354 -0.35368260
VERTEX2 508 12.74613920 -15.34895065 -0.36758938
VERTEX2 509 13.36244801 -15.59538712 -0.42331038
VERTEX2 510 13.71814575 -15.76245744 -0.43700862
VERTEX2 511 13.71840409 -15.76510042 0.43948562
VERTEX2 512 13.74227948 -15.71699543 1.63593370
VERTEX2 513 13.73752109 -15.70209749 2.59094238
VERTEX2 514 13.66665634 -15.68076840 2.81712224
VERTEX2 515 13.05617104 -15.48718720 2.81818119
VERTEX2 516 12.47141740 -15.28081625 2.83403900
VERTEX2 517 11.87795073 -15.12048794 2.86220061
VERTEX2 518 11.28488920 -14.95698625 2.88652807
VERTEX2 519 10.76652368 -14.82337606 2.87090729
VERTEX2 520 10.60788696 -14.77882067 -3.01390486
VERTEX2 521 10.64123674 -14.74341900 -2.01066193
VERTEX2 522 10.57013314 -15.12848793 -1.74647454
VERTEX2 523 10.46871752 -15.74044644 -1.75377146
VERTEX2 524 10.35600535 -16.30546862 -1.79566502
VERTEX2 525 10.24379775 -16.83853934 -1.77203547
VERTEX2 526 10.11903120 -17.39786097 -1.83090662
VERTEX2 527 9.96251710 -17.96907150 -1.86553284
VERTEX2 528 9.77277025 -18.52561300 -1.94137993
VERTEX2 529 9.55257310 -19.11508535 -1.96971236
VERTEX2 530 9.29811851 -19.70064236 -1.99987499
VERTEX2 531 9.01835339 -20.26815271 -2.07956242
VERTEX2 532 8.91796446 -20.44986217 -2.02883053
VERTEX2 533 8.91618227 -20.44031755 -1.02712218
VERTEX2 534 8.90907169 -20.43544588 -0.35878634
VERTEX2 535 8.90109703 -20.43182633 -0.35868766
VERTEX2 536 9.24355865 -20.51805303 -0.22735457
VERTEX2 537 9.83504107 -20.67236803 -0.28478815
VERTEX2 538 10.38028585 -20.84593565 -0.31134604
VERTEX2 539 10.97350722 -21.05941605 -0.37548171
VERTEX2 540 11.54610556 -21.31590383 -0.46767020
VERTEX2 541 12.12410004 -21.54908583 -0.30466287
VERTEX2 542 12.74544073 -21.69683501 -0.24834928
VERTEX2 543 12.86295974 -21.72768410 -0.27744760
VERTEX2 544 12.87740290 -21.72634966 0.36110780
VERTEX2 545 12.89619382 -21.69282135 1.42997386
VERTEX2 546 12.91521558 -21.74341286 2.25899123
VERTEX2 547 12.92881999 -21.74254688 -3.00386217
VERTEX2 548 12.94492237 -21.73235235 -2.08215900
VERTEX2 549 12.94631338 -21.72352043 -1.27654306
VERTEX2 550 12.94509525 -21.69911770 -1.75692252
VERTEX2 551 12.95734029 -21.67481225 -2.38404154
VERTEX2 552 12.98519907 -21.66126062 -3.01725285
VERTEX2 553 12.85545707 -21.61020361 2.68800786
VERTEX2 554 12.27777836 -21.32489386 2.65207333
VERTEX2 555 11.72093719 -21.05235870 2.73968430
VERTEX2 556 11.14066241 -20.83399221 2.87344220
VERTEX2 557 10.54292278 -20.65493586 2.83198904
VERTEX2 558 9.96833976 -20.48940428 2.91251513
VERTEX2 559 9.97505129 -20.49177956 2.50476009
VERTEX2 560 9.97054318 -20.48552519 2.00263893
VERTEX2 561 9.94930302 -20.46421186 2.50667427
VERTEX2 562 9.78051227 -20.46130892 -3.13420147
VERTEX2 563 9.22187744 -20.37407563 2.95648964
VERTEX2 564 8.62894402 -20.27294781 3.00472245
VERTEX2 565 8.03936033 -20.18984478 2.94704683
VERTEX2 566 8.09947356 -20.20988260 -2.55316543
VERTEX2 567 8.00901468 -20.21479533 -1.75800567
VERTEX2 568 7.94783325 -20.71894102 -1.69400557
VERTEX2 569 7.88592220 -21.29284700 -1.73222762
VERTEX2 570 7.80644134 -21.87287891 -1.72696952
VERTEX2 571 7.74815414 -22.22276722 -1.77341677
VERTEX2 572 7.70399428 -22.25388591 -2.01509896
VERTEX2 573 7.66722313 -22.33392814 -1.73712041
VERTEX2 574 7.68446637 -22.35879701 -0.79520150
VERTEX2 575 7.85290923 -22.41721603 0.11042645
VERTEX2 576 7.85013023 -22.41487966 1.13844661
VERTEX2 577 7.84347172 -22.39582014 2.11088445
VERTEX2 578 7.83513129 -22.36476324 1.74725791
VERTEX2 579 7.72666173 -21.71173194 1.76258099
VERTEX2 580 7.58083312 -21.06989874 1.83805764
VERTEX2 581 7.40181308 -20.44316072 1.88074618
VERTEX2 582 7.19572411 -19.82623909 1.92417183
VERTEX2 583 7.07480874 -19.51933216 2.00398447
VERTEX2 584 7.07183922 -19.51322790 2.84916038
VERTEX2 585 6.50024531 -19.36278162 2.96805813
VERTEX2 586 5.91690382 -19.27705519 3.06621136
VERTEX2 587 5.30718178 -19.25379278 3.09215224
VERTEX2 588 4.68227602 -19.21555409 3.09746458
VERTEX2 589 4.15417760 -19.22963815 -3.11058251
VERTEX2 590 3.61465526 -19.26241185 -3.04206598
VERTEX2 591 3.07721166 -19.33008528 -3.04388504
VERTEX2 592 2.53083186 -19.39309662 -3.04652857
VERTEX2 593 2.35580422 -19.41155777 -2.84112957
VERTEX2 594 2.41211966 -19.35317217 -1.92388055
VERTEX2 595 2.28632751 -19.95410917 -1.69081891
VERTEX2 596 2.21955657 -20.58237624 -1.71338035
VERTEX2 597 2.11250617 -21.26036847 -1.75271595
VERTEX2 598 1.99761485 -21.85607030 -1.79498907
VERTEX2 599 1.90175734 -22.23048435 -1.86130732
VERTEX2 600 1.90158922 -22.24794914 -1.05520483
VERTEX2 601 1.94885196 -22.27852986 -0.03731845
VERTEX2 602 1.98940057 -22.26324774 0.97648075
VERTEX2 603 1.96086290 -22.03287268 1.74897339
VERTEX2 604 1.91424098 -21.42144951 1.50576079
VERTEX2 605 1.93801269 -20.76711452 1.58812888
VERTEX2 606 1.91235111 -20.11727496 1.63011582
VERTEX2 607 1.93712152 -19.52527992 1.54903119
VERTEX2 608 1.93271371 -19.13820499 1.59375171
VERTEX2 609 1.92938299 -19.11561086 1.93047872
VERTEX2 610 1.92353192 -19.11334563 2.86400250
VERTEX2 611 1.33384524 -18.95089276 2.86725803
VERTEX2 612 0.86653938 -18.80695526 2.87036463
VERTEX2 613 0.90388205 -18.81922006 -2.94841993
VERTEX2 614 0.91324794 -18.81242555 -1.90923060
VERTEX2 615 0.91547939 -19.29946204 -1.60494795
VERTEX2 616 0.90877979 -19.93224702 -1.65617670
VERTEX2 617 0.75945366 -20.52814972 -1.87339418
VERTEX2 618 0.57763320 -21.13039166 -1.86333478
VERTEX2 619 0.40471058 -21.69822700 -1.86481147
VERTEX2 620 0.20921054 -22.26938999 -1.96109042
VERTEX2 621 0.34622667 -21.93832389 -2.01268424
VERTEX2 622 0.47686120 -21.67521310 -2.08774314
VERTEX2 623 0.47423951 -21.67858910 -2.62464377
VERTEX2 624 0.45321778 -21.67788144 3.01613880
VERTEX2 625 0.42278160 -21.66473636 2.35779957
VERTEX2 626 0.40400846 -21.64210135 1.73994762
VERTEX2 627 0.48578443 -21.27229630 1.32974376
VERTEX2 628 0.67982039 -20.65058318 1.22905876
VERTEX2 629 0.86675588 -20.02799254 1.30020198
VERTEX2 630 1.00712543 -19.42395344 1.38526513
VERTEX2 631 1.09222543 -18.89640541 1.40537173
VERTEX2 632 1.09685106 -18.87254113 2.08201740
VERTEX2 633 0.99664186 -18.86345445 -3.11334203
VERTEX2 634 0.32566568 -18.88672033 -3.08564406
VERTEX2 635 -0.33026657 -18.88425690 3.06286673
VERTEX2 636 -0.97353009 -18.84286052 3.04553976
VERTEX2 637 -1.60185622 -18.75608730 2.94652293
VERTEX2 638 -1.99021394 -18.66885502 2.91720903
VERTEX2 639 -2.59648223 -18.55448320 2.99781975
VERTEX2 640 -3.19810244 -18.43585668 2.93028292
VERTEX2 641 -3.78512589 -18.31611329 2.92226227
VERTEX2 642 -4.34740449 -18.17123444 2.87725430
VERTEX2 643 -4.82550286 -18.02631697 2.81019622
VERTEX2 644 -4.82772211 -18.02678255 -2.71620418
VERTEX2 645 -4.86605501 -18.16651681 -1.93928366
VERTEX2 646 -5.01305597 -18.76806113 -1.64391484
VERTEX2 647 -4.98148672 -19.39990372 -1.35510047
VERTEX2 648 -4.77206526 -20.02324712 -1.18877203
VERTEX2 649 -4.60996821 -20.62380102 -1.52668955
VERTEX2 650 -4.72331690 -21.25468724 -1.78439152
VERTEX2 651 -4.74421842 -21.40428695 -0.98573146
VERTEX2 652 -4.68163553 -21.43396723 0.03857085
VERTEX2 653 -4.63741939 -21.39587905 1.06839808
VERTEX2 654 -4.64013061 -21.10286307 1.58123555
VERTEX2 655 -4.63864767 -20.55306777 1.57608515
VERTEX2 656 -4.62520397 -19.95565576 1.56355846
VERTEX2 657 -4.72009086 -19.33889960 1.84072380
VERTEX2 658 -4.89504809 -18.72555934 1.83353471
VERTEX2 659 -4.99928610 -18.23052573 1.76272050
VERTEX2 660 -5.00194529 -18.21566984 2.36360202
VERTEX2 661 -5.17813256 -18.19267062 3.01787395
VERTEX2 662 -5.76849956 -18.12217190 3.08782620
VERTEX2 663 -6.35407354 -18.12555066 -3.09396176
VERTEX2 664 -6.35949312 -18.12406808 -2.57091635
VERTEX2 665 -6.37716970 -18.22441809 -1.73519549
VERTEX2 666 -6.45812381 -18.82817292 -1.69784086
VERTEX2 667 -6.52375012 -19.39019073 -1.69304272
VERTEX2 668 -6.59606417 -19.97952250 -1.66710271
VERTEX2 669 -6.65414523 -20.60343883 -1.69227364
VERTEX2 670 -6.76351187 -21.22012672 -1.75177101
VERTEX2 671 -6.81585373 -21.51260303 -1.69681072
VERTEX2 672 -6.70487760 -20.93436139 -1.78594230
VERTEX2 673 -6.63459961 -20.66945514 -1.91651329
VERTEX2 674 -6.62128476 -20.65584634 -2.56469451
VERTEX2 675 -6.59637885 -20.65099138 3.10983656
VERTEX2 676 -6.58857769 -20.65571987 2.48646106
VERTEX2 677 -6.58294541 -20.66374848 1.87058094
VERTEX2 678 -6.55169807 -20.44491646 1.42476486
VERTEX2 679 -6.47866571 -19.86977150 1.48740528
VERTEX2 680 -6.49933373 -19.41476787 1.83289429
VERTEX2 681 -6.64202340 -18.82228393 1.80495131
VERTEX2 682 -6.80353147 -18.21780957 1.85232883
VERTEX2 683 -6.88996610 -17.93817277 2.01112182
VERTEX2 684 -6.83661008 -17.99450193 3.08944474
VERTEX2 685 -7.23062785 -18.14345849 -2.75061842
VERTEX2 686 -7.67119270 -18.26939107 -2.89530253
VERTEX2 687 -8.25935535 -18.40724585 -2.93064810
VERTEX2 688 -8.85641644 -18.51541239 -2.94252911
VERTEX2 689 -9.42009616 -18.64289933 -2.91496459
VERTEX2 690 -9.95576425 -18.80061775 -2.84089193
VERTEX2 691 -10.34986429 -18.92339061 -2.86900586
VERTEX2 692 -10.33171811 -18.91574042 -2.33472086
VERTEX2 693 -10.31082974 -18.98629862 -1.29426683
VERTEX2 694 -10.28967287 -19.05381153 -0.45897596
VERTEX2 695 -10.27948850 -19.05112848 0.34148937
VERTEX2 696 -10.27823438 -19.05037170 1.36756500
VERTEX2 697 -10.28994448 -19.08645816 1.11481153
VERTEX2 698 -9.96306254 -18.88760728 0.46121672
VERTEX2 699 -9.40237053 -18.58767444 0.57572092
VERTEX2 700 -8.88947524 -18.23779595 0.62962177
VERTEX2 701 -8.45267514 -17.88383151 0.68921259
VERTEX2 702 -7.97272660 -17.57835239 0.57449071
VERTEX2 703 -7.45952944 -17.25184259 0.60908257
VERTEX2 704 -6.96366126 -16.87903071 0.62755629
VERTEX2 705 -6.44255711 -16.46293591 0.69771349
VERTEX2 706 -6.00343160 -16.14850669 0.42858735
VERTEX2 707 -5.97889630 -16.14756097 -0.09082073
VERTEX2 708 -5.97053176 -16.15254524 -0.72817150
VERTEX2 709 -6.01112808 -16.10763493 -1.05972269
VERTEX2 710 -6.01341367 -16.10137077 -1.62169351
VERTEX2 711 -6.00169363 -16.11226183 -2.21935257
VERTEX2 712 -5.98533665 -16.10012642 -2.78069354
VERTEX2 713 -6.46111647 -16.14352984 -3.06643742
VERTEX2 714 -7.01454954 -16.10975042 3.01886666
VERTEX2 715 -7.62691453 -16.06338245 3.12187704
VERTEX2 716 -8.24685727 -16.03113623 2.98321934
VERTEX2 717 -8.85318996 -15.95382097 3.06741267
VERTEX2 718 -9.59945261 -15.82333185 2.89139123
VERTEX2 719 -10.20060913 -15.69887286 2.96533203
VERTEX2 720 -10.79757427 -15.57704169 2.90563327
VERTEX2 721 -11.39932696 -15.45142630 2.97335698
VERTEX2 722 -11.40826685 -15.44997883 3.03975137
VERTEX2 723 -11.42456771 -15.46610225 -2.15475729
VERTEX2 724 -11.42567292 -15.51065358 -1.08561978
VERTEX2 725 -11.40987427 -15.52176962 -0.45031167
VERTEX2 726 -11.10024786 -15.52464632 0.00460130
VERTEX2 727 -10.47262950 -15.50021337 0.03546843
VERTEX2 728 -9.84692427 -15.49013954 0.03714089
VERTEX2 729 -9.22872876 -15.44476033 0.09511270
VERTEX2 730 -8.62451678 -15.36811490 0.13293697
VERTEX2 731 -7.97251030 -15.28152562 0.14468217
VERTEX2 732 -7.82888405 -15.25568990 0.59033226
VERTEX2 733 -7.81866294 -15.27319165 1.58504850
VERTEX2 734 -7.86312900 -14.73358289 1.66265210
VERTEX2 735 -7.90849779 -14.14753988 1.63016660
VERTEX2 736 -7.90823169 -14.15401834 2.22859305
VERTEX2 737 -7.89899548 -14.15546689 3.02822683
VERTEX2 738 -8.47443130 -14.10090339 3.04690826
VERTEX2 739 -9.07918796 -13.98972663 2.98907561
VERTEX2 740 -9.58556470 -13.93603790 3.05211856
VERTEX2 741 -9.57050733 -13.93627236 2.68290032
VERTEX2 742 -9.57210967 -13.93511151 2.02957626
VERTEX2 743 -9.57320077 -13.92960057 1.41225264
VERTEX2 744 -9.56368104 -13.90934503 0.87331103
VERTEX2 745 -9.54851075 -13.90192690 0.28027863
VERTEX2 746 -9.01297288 -13.93429663 -0.19420324
VERTEX2 747 -8.37155834 -14.06588815 -0.22947202
VERTEX2 748 -7.80708066 -14.22144097 -0.29791616
VERTEX2 749 -7.74096853 -14.23977370 0.13121829
VERTEX2 750 -7.73898507 -14.23631862 1.05817100
VERTEX2 751 -7.76598693 -13.96807180 1.69827696
VERTEX2 752 -7.80834839 -13.34702327 1.59478446
VERTEX2 753 -7.82960398 -12.72273559 1.65778265
VERTEX2 754 -7.82143217 -12.09809586 1.49535956
VERTEX2 755 -7.78862778 -11.47685615 1.58126907
VERTEX2 756 -7.73767703 -10.85578502 1.40337630
VERTEX2 757 -7.64867994 -10.22541382 1.51603285
VERTEX2 758 -7.65585981 -9.64336186 1.65915266
VERTEX2 759 -7.63342961 -9.09709981 1.53990212
VERTEX2 760 -7.65636668 -8.51797263 1.65137527
VERTEX2 761 -7.65664071 -8.51282765 1.83186194
VERTEX2 762 -7.73648757 -8.47449816 2.66266929
VERTEX2 763 -8.35301045 -8.34940475 2.95277242
VERTEX2 764 -8.81629452 -8.25741163 2.92330158
VERTEX2 765 -8.86922971 -8.25650287 -2.72548576
VERTEX2 766 -8.91112253 -8.37482962 -1.73387178
VERTEX2 767 -8.88686936 -8.44670277 -0.81049254
VERTEX2 768 -8.91933268 -8.44281840 -0.09385882
VERTEX2 769 -8.25773384 -8.38899050 0.06471746
VERTEX2 770 -7.57524613 -8.36563434 -0.00153408
VERTEX2 771 -7.45895018 -8.36258694 0.56078793
VERTEX2 772 -7.44225698 -8.31817087 1.43140308
VERTEX2 773 -7.38399194 -7.71075048 1.51830341
VERTEX2 774 -7.36596710 -7.13220518 1.54167063
VERTEX2 775 -7.37038741 -7.10753871 2.39175886
VERTEX2 776 -7.55608482 -7.07589180 3.01329634
VERTEX2 777 -8.14305536 -7.00925414 3.07418775
VERTEX2 778 -8.72883136 -6.97382209 3.05507338
VERTEX2 779 -9.34176663 -6.92872323 3.07302884
VERTEX2 780 -9.54751120 -6.90280815 2.94261494
VERTEX2 781 -9.54506272 -6.90379106 2.36906197
VERTEX2 782 -9.66230742 -6.62434558 1.93939272
VERTEX2 783 -9.87457965 -6.03928885 1.93874553
VERTEX2 784 -9.96549301 -5.80600535 1.91737433
VERTEX2 785 -9.96535145 -5.77799060 1.36529516
VERTEX2 786 -9.95656257 -5.75285818 0.77654462
VERTEX2 787 -9.93927140 -5.73657901 0.28549935
VERTEX2 788 -9.91388139 -5.73938803 -0.34408859
VERTEX2 789 -9.90035136 -5.75096771 -0.89558459
VERTEX2 790 -9.60793167 -6.16241048 -0.96217544
VERTEX2 791 -9.22004758 -6.66460403 -0.86294456
VERTEX2 792 -8.98437950 -6.89251617 -0.15709042
VERTEX2 793 -8.36396893 -6.97057879 -0.11152973
VERTEX2 794 -7.71812449 -7.02552515 -0.03946977
VERTEX2 795 -7.73945611 -7.03992312 0.39155141
VERTEX2 796 -7.74847960 -7.04318260 1.05437390
VERTEX2 797 -7.66332000 -6.73525529 1.31628426
VERTEX2 798 -7.50787059 -6.11231823 1.36756992
VERTEX2 799 -7.40063599 -5.46945954 1.43446702
VERTEX2 800 -7.32710401 -4.82326488 1.50854868
VERTEX2 801 -7.32051050 -4.20005914 1.59426684
VERTEX2 802 -7.35652316 -3.57686942 1.65201423
VERTEX2 803 -7.32179315 -2.95568554 1.48790889
VERTEX2 804 -7.28453926 -2.33583877 1.54420128
VERTEX2 805 -7.30032472 -1.70979095 1.62082527
VERTEX2 806 -7.34370043 -1.11410765 1.66249539
VERTEX2 807 -7.36539360 -0.93210319 1.95065693
VERTEX2 808 -7.35984877 -0.93244288 2.90070960
VERTEX2 809 -7.94550548 -0.88824267 3.04561930
VERTEX2 810 -8.55417432 -0.74997322 2.90568989
VERTEX2 811 -9.14480437 -0.62394050 2.90257403
VERTEX2 812 -9.14796608 -0.62323202 -2.64928896
VERTEX2 813 -9.16026823 -0.64879616 -1.67350039
VERTEX2 814 -9.15590364 -0.65242956 -0.68077833
VERTEX2 815 -9.13555397 -0.65985016 0.23894160
VERTEX2 816 -9.13171293 -0.65785241 0.92042176
VERTEX2 817 -9.12507555 -0.65387981 0.25197129
VERTEX2 818 -8.90816749 -0.69237479 -0.23666481
VERTEX2 819 -8.32673147 -0.83277360 -0.22252880
VERTEX2 820 -7.74035436 -0.97737998 -0.26405367
VERTEX2 821 -7.20164885 -1.12002736 -0.24856797
VERTEX2 822 -7.15751657 -1.12783418 0.51358430
VERTEX2 823 -7.15580299 -1.11341633 1.43486465
VERTEX2 824 -7.08014737 -0.50107292 1.35520480
VERTEX2 825 -6.92670229 0.10333785 1.32564956
VERTEX2 826 -6.85767811 0.71929945 1.48868763
VERTEX2 827 -6.78223704 1.32673511 1.44007890
VERTEX2 828 -6.71612287 1.94195976 1.47561307
VERTEX2 829 -6.64212754 2.54256471 1.43588996
VERTEX2 830 -6.55511872 3.13968572 1.42773198
VERTEX2 831 -6.45000139 3.70520960 1.38114115
VERTEX2 832 -6.34923924 4.25649339 1.37778880
VERTEX2 833 -6.30182423 4.50071958 1.51543804
VERTEX2 834 -6.30170152 4.50019319 2.56969286
VERTEX2 835 -6.31131700 4.50150434 -2.93612620
VERTEX2 836 -6.32580332 4.48980949 -1.99342627
VERTEX2 837 -6.32337599 4.47471759 -0.95714008
VERTEX2 838 -6.31509332 4.46930531 -0.09500832
VERTEX2 839 -6.31786816 4.47071250 -0.31330335
VERTEX2 840 -6.31015863 4.46439159 -0.87600102
VERTEX2 841 -6.30456017 4.45248291 -1.49313952
VERTEX2 842 -6.33598297 4.21004842 -1.72399664
VERTEX2 843 -6.42676764 3.65081811 -1.72654383
VERTEX2 844 -6.51605369 3.02961315 -1.73457897
VERTEX2 845 -6.62354341 2.41171084 -1.74921890
VERTEX2 846 -6.72323377 1.78949065 -1.74739433
VERTEX2 847 -6.84643540 1.17536050 -1.77402466
VERTEX2 848 -6.88115542 0.98302964 -1.29350474
VERTEX2 849 -6.88137277 0.98313065 -0.37119430
VERTEX2 850 -6.52656356 0.97184570 -0.01774636
VERTEX2 851 -5.89771736 0.93217118 -0.11037377
VERTEX2 852 -5.27284519 0.85722753 -0.09608398
VERTEX2 853 -4.67697184 0.80158619 -0.12414642
VERTEX2 854 -4.08954622 0.72068803 -0.12228858
VERTEX2 855 -3.49390774 0.65646486 -0.12424512
VERTEX2 856 -2.82526633 0.55295859 -0.16520659
VERTEX2 857 -2.16152069 0.44617836 -0.17509633
VERTEX2 858 -1.50471755 0.30615815 -0.22996664
VERTEX2 859 -0.97537254 0.18704143 -0.23713138
VERTEX2 860 -0.94030046 0.20049239 0.61229858
VERTEX2 861 -0.92336592 0.30184814 1.52577109
VERTEX2 862 -0.86772099 0.95164195 1.46589891
VERTEX2 863 -0.79350197 1.58591593 1.43322153
VERTEX2 864 -0.69155819 2.18524720 1.43028532
VERTEX2 865 -0.63391088 2.78654570 1.48724921
VERTEX2 866 -0.57322291 3.36230259 1.48556106
VERTEX2 867 -0.56163227 3.51715060 1.66595498
VERTEX2 868 -0.56267537 3.51830332 2.68723904
VERTEX2 869 -0.55584074 3.51812115 -2.61986821
VERTEX2 870 -0.54500306 3.52344436 -1.62269997
VERTEX2 871 -0.52594435 3.50943352 -0.65130014
VERTEX2 872 -0.50349546 3.49180744 0.03248943
VERTEX2 873 -0.47814402 3.48217795 -0.54189843
VERTEX2 874 -0.45553820 3.45990054 -1.10329289
VERTEX2 875 -0.44728063 3.43768592 -1.69166927
VERTEX2 876 -0.59583466 2.87737237 -1.85009883
VERTEX2 877 -0.77709473 2.33286063 -1.93549400
VERTEX2 878 -0.84047785 2.12522156 -1.55385825
VERTEX2 879 -0.77043439 1.47358720 -1.50351700
VERTEX2 880 -0.75744065 1.01741762 -1.61675189
VERTEX2 881 -0.75531534 1.06657382 -1.61134383
VERTEX2 882 -0.84388162 0.43069309 -1.85779637
VERTEX2 883 -1.08528932 -0.14366280 -2.04830034
VERTEX2 884 -1.25346173 -0.45461037 -2.11498792
VERTEX2 885 -1.25344345 -0.44507943 -1.53124734
VERTEX2 886 -1.23406633 -0.46503841 -0.50910171
VERTEX2 887 -1.20988619 -0.47567157 0.50261587
VERTEX2 888 -1.19584198 -0.44918002 1.48701653
VERTEX2 889 -1.19937127 -0.43723917 2.38536899
VERTEX2 890 -1.50735017 -0.27154245 2.65971736
VERTEX2 891 -2.04095233 0.02459341 2.59010184
VERTEX2 892 -2.57171769 0.37580366 2.55552564
VERTEX2 893 -3.12676130 0.70555146 2.79345802
VERTEX2 894 -3.73337790 0.84322548 3.01638626
VERTEX2 895 -4.31675052 0.82011632 -2.96614336
VERTEX2 896 -4.33677444 0.81606429 -2.48514793
VERTEX2 897 -4.63485513 0.40437237 -2.21098463
VERTEX2 898 -4.99846950 -0.08919780 -2.19491048
VERTEX2 899 -5.28852125 -0.47859740 -2.26223382
VERTEX2 900 -5.70904742 -0.99894543 -2.26425491
VERTEX2 901 -6.08436722 -1.42135610 -2.32820884
VERTEX2 902 -6.50451080 -1.88861986 -2.30280322
VERTEX2 903 -6.82122283 -2.24630732 -2.34738137
VERTEX2 904 -6.82049527 -2.24542812 -1.64381865
VERTEX2 905 -6.82076173 -2.72895630 -1.58824870
VERTEX2 906 -6.80338689 -3.29135787 -1.52243545
VERTEX2 907 -6.76453866 -3.85445308 -1.53111535
VERTEX2 908 -6.73695402 -4.47274398 -1.50669874
VERTEX2 909 -6.69478821 -5.08272181 -1.52505056
VERTEX2 910 -6.72420652 -5.20232577 -1.89531623
VERTEX2 911 -6.89900387 -5.75937283 -1.83466252
VERTEX2 912 -7.03452783 -6.31011946 -1.82226324
VERTEX2 913 -7.16069592 -6.83916444 -1.81456639
VERTEX2 914 -7.30100774 -7.40966900 -1.83840727
VERTEX2 915 -7.43608261 -7.90088775 -1.87532827
VERTEX2 916 -7.38086240 -8.14033016 -1.32827685
VERTEX2 917 -7.26318821 -8.78585127 -1.58307087
VERTEX2 918 -7.29832531 -9.28818269 -1.65875144
VERTEX2 919 -7.35023533 -9.89213658 -1.70157833
VERTEX2 920 -7.43150162 -10.48549843 -1.71868608
VERTEX2 921 -7.52226570 -11.08485594 -1.77137609
VERTEX2 922 -7.64092657 -11.67232987 -1.79793071
VERTEX2 923 -7.77663847 -12.22777911 -1.86055098
VERTEX2 924 -7.90518333 -12.66474005 -1.84211771
VERTEX2 925 -7.90924137 -12.64240141 -1.33318788
VERTEX2 926 -7.76087542 -13.20144014 -1.31546415
VERTEX2 927 -7.60648892 -13.78525186 -1.33733290
VERTEX2 928 -7.46061343 -14.38277596 -1.34505718
VERTEX2 929 -7.32054083 -14.97662590 -1.34494467
VERTEX2 930 -7.18569598 -15.60325036 -1.42795650
VERTEX2 931 -7.11147770 -16.22397035 -1.50862207
VERTEX2 932 -7.07766225 -16.83964558 -1.56778420
VERTEX2 933 -7.08540870 -17.45014968 -1.63285019
VERTEX2 934 -7.10892142 -17.92843354 -1.64308366
VERTEX2 935 -7.10697198 -17.93835032 -0.96262783
VERTEX2 936 -7.11119984 -17.93675955 -0.01910844
VERTEX2 937 -6.57229002 -17.92364297 0.04325712
VERTEX2 938 -5.98088844 -17.95292494 -0.13080085
VERTEX2 939 -5.36314311 -18.02667731 -0.10360716
VERTEX2 940 -4.76253838 -18.11407091 -0.18810054
VERTEX2 941 -4.16592769 -18.24152054 -0.24110665
VERTEX2 942 -3.65587451 -18.36678270 -0.23606152
VERTEX2 943 -3.04744188 -18.51403497 -0.14724784
VERTEX2 944 -2.42759913 -18.61137117 -0.20376409
VERTEX2 945 -1.81425043 -18.75234184 -0.25883599
VERTEX2 946 -1.64550141 -18.79923891 -0.19445793
VERTEX2 947 -1.24065118 -18.74575568 0.13384107
VERTEX2 948 -0.67605927 -18.67021316 0.11473853
VERTEX2 949 -0.08237488 -18.64917232 -0.04086694
VERTEX2 950 0.53597901 -18.69820309 -0.28057146
VERTEX2 951 1.12794112 -18.88241414 -0.35294824
VERTEX2 952 1.71950857 -19.06972891 -0.10245971
VERTEX2 953 2.34099711 -19.11501185 -0.02239093
VERTEX2 954 2.95895565 -19.12256679 -0.02962101
VERTEX2 955 3.54225014 -19.18189175 -0.19060898
VERTEX2 956 4.08704423 -19.27306147 -0.19294383
VERTEX2 957 4.61270742 -19.38153985 -0.28061778
VERTEX2 958 5.07423429 -19.50467219 -0.30727460
VERTEX2 959 5.47385967 -19.62129777 -0.37405555
VERTEX2 960 6.05302411 -19.79566262 -0.29418333
VERTEX2 961 6.62464355 -19.98112052 -0.32120650
VERTEX2 962 7.23232462 -20.12205698 -0.25556516
VERTEX2 963 7.84045127 -20.21560912 -0.06883598
VERTEX2 964 8.45381674 -20.27035434 -0.13268033
VERTEX2 965 9.06264931 -20.36210592 -0.13950387
VERTEX2 966 9.50091287 -20.42969116 -0.19860752
VERTEX2 967 9.52634722 -20.42507948 0.65557734
VERTEX2 968 9.52916496 -20.42250774 1.55310831
VERTEX2 969 9.53115420 -20.45252558 1.61280594
VERTEX2 970 9.53302639 -20.48299266 1.61127801
VERTEX2 971 9.51906425 -20.15808223 1.61153837
VERTEX2 972 9.49169232 -19.57604618 1.61707556
VERTEX2 973 9.58163112 -18.99908297 1.33196127
VERTEX2 974 9.73157706 -18.40286368 1.36370809
VERTEX2 975 9.85380400 -17.80241751 1.36825698
VERTEX2 976 9.96937348 -17.19929324 1.38111428
VERTEX2 977 10.11458558 -16.59026201 1.35497283
VERTEX2 978 10.24500214 -15.98721336 1.40105957
VERTEX2 979 10.36914950 -15.38799903 1.38886953
VERTEX2 980 10.47631290 -14.79179534 1.43586459
VERTEX2 981 10.57421423 -14.20616968 1.44282233
VERTEX2 982 10.63877323 -13.68698949 1.48784589
VERTEX2 983 10.69879583 -13.09787337 1.48518897
VERTEX2 984 10.73623958 -12.51223103 1.54346297
VERTEX2 985 10.75638862 -11.91731227 1.56291867
VERTEX2 986 10.75170502 -11.29871070 1.59841988
VERTEX2 987 10.74977670 -10.68148299 1.56089787
VERTEX2 988 10.76372100 -10.06452983 1.57384798
VERTEX2 989 10.76139582 -9.46405740 1.58118564
VERTEX2 990 10.76708653 -8.85951642 1.56986728
VERTEX2 991 10.76485937 -8.25162903 1.59422255
VERTEX2 992 10.77238890 -7.67145183 1.56121661
VERTEX2 993 10.77243789 -7.05244092 1.59348784
VERTEX2 994 10.76940904 -6.46421961 1.58316394
VERTEX2 995 10.75135229 -5.90253768 1.63039304
VERTEX2 996 10.70726112 -5.32499465 1.65745755
VERTEX2 997 10.67800188 -4.70929869 1.59295306
VERTEX2 998 10.66798380 -4.33636768 1.61471688
VERTEX2 999 10.71189447 -4.37355406 2.33226289
VERTEX2 1000 10.28392301 -4.02557759 2.48205164
VERTEX2 1001 9.87892757 -3.64113362 2.16252918
VERTEX2 1002 9.54368988 -3.19231432 2.25611670
VERTEX2 1003 9.22444257 -2.71821460 2.07754447
VERTEX2 1004 8.89748856 -2.17959370 2.13596749
VERTEX2 1005 8.55500117 -1.68278694 2.19857709
VERTEX2 1006 8.16998898 -1.20109046 2.27612707
VERTEX2 1007 7.76701571 -0.77066043 2.36795480
VERTEX2 1008 7.53729067 -0.55399044 2.52766746
VERTEX2 1009 7.44476531 -0.53837038 3.00152136
VERTEX2 1010 6.88074809 -0.47370952 3.05426485
VERTEX2 1011 6.27602271 -0.42573036 3.01178902
VERTEX2 1012 5.67782086 -0.35462446 3.05430013
VERTEX2 1013 5.04470302 -0.34793751 -3.11365132
VERTEX2 1014 4.43564057 -0.29136978 2.99453876
VERTEX2 1015 3.81429044 -0.24336715 3.07924643
VERTEX2 1016 3.04560148 -0.19478145 3.08598967
VERTEX2 1017 2.46468650 -0.17437852 3.02938235
VERTEX2 1018 1.91451512 -0.10678977 3.03709909
VERTEX2 1019 1.32470488 -0.07584562 3.09702244
VERTEX2 1020 0.72018233 -0.03343852 3.08298334
VERTEX2 1021 0.10946143 0.00234196 3.04222760
VERTEX2 1022 0.06668923 0.00644242 3.03485163
VERTEX2 1023 0.07926647 0.00602687 3.12122942
VERTEX2 1024 -0.54200990 0.02139447 -3.13586805
VERTEX2 1025 -1.17250961 -0.00006235 -3.11859259
VERTEX2 1026 -1.33513268 -0.00327101 -3.11170305
VERTEX2 1027 -1.31709555 0.00523066 -2.19621278
VERTEX2 1028 -1.33208121 -0.15309422 -1.63343474
VERTEX2 1029 -1.36950932 -0.71082342 -1.65527975
VERTEX2 1030 -1.44252799 -1.34167051 -1.73300958
VERTEX2 1031 -1.56318096 -1.99257524 -1.78477223
VERTEX2 1032 -1.70009690 -2.64242507 -1.77869806
VERTEX2 1033 -1.84858757 -3.29033011 -1.82183167
VERTEX2 1034 -1.89335073 -3.45720545 -2.03228592
VERTEX2 1035 -1.86512819 -3.43367871 -2.64490027
VERTEX2 1036 -1.77376200 -3.47521812 3.07382852
VERTEX2 1037 -2.03996855 -3.37652265 2.83925547
VERTEX2 1038 -2.58287709 -3.27567316 2.93372223
VERTEX2 1039 -3.15418446 -3.13401265 2.90506093
VERTEX2 1040 -3.06207348 -3.13414351 -2.74050585
VERTEX2 1041 -2.96574412 -3.14365746 -1.71151604
VERTEX2 1042 -2.96630749 -3.19170044 -0.71193892
VERTEX2 1043 -2.88200131 -3.26118148 0.26907175
VERTEX2 1044 -2.88420897 -3.26414605 1.27532962
VERTEX2 1045 -2.88854670 -3.27597420 1.16151397
VERTEX2 1046 -2.89065288 -3.27930346 0.77629530
VERTEX2 1047 -2.86058265 -3.26337948 0.22241563
VERTEX2 1048 -2.41895061 -3.31299899 -0.09009567
VERTEX2 1049 -1.69705823 -3.36853407 -0.07285325
VERTEX2 1050 -0.97775697 -3.39320959 0.00311292
VERTEX2 1051 -0.25177204 -3.42116701 -0.07018668
VERTEX2 1052 0.44454478 -3.45590367 -0.01130398
VERTEX2 1053 0.94429184 -3.47727374 -0.05796409
VERTEX2 1054 1.04280897 -3.47732954 0.72501986
VERTEX2 1055 1.03901467 -3.53126907 1.81891393
VERTEX2 1056 0.99309225 -3.48130290 2.84446341
VERTEX2 1057 0.90822505 -3.48653785 -2.44467167
VERTEX2 1058 0.89193585 -3.51456377 -1.52046212
VERTEX2 1059 0.89609841 -4.07418422 -1.60033556
VERTEX2 1060 0.87164839 -4.69227495 -1.59425980
VERTEX2 1061 0.84615418 -5.12666920 -1.71517986
VERTEX2 1062 0.83312969 -5.15784720 -2.27964046
VERTEX2 1063 0.79048131 -5.19400156 -2.87771389
VERTEX2 1064 0.37484433 -5.19260394 3.13988401
VERTEX2 1065 -0.34235823 -5.24102440 -3.02145557
VERTEX2 1066 -1.03150935 -5.30189324 -3.07754990
VERTEX2 1067 -1.13324495 -5.32641685 -2.64476247
VERTEX2 1068 -1.17177782 -5.36581604 -1.97150419
VERTEX2 1069 -1.17045018 -5.35804095 -1.80073156
VERTEX2 1070 -1.17422980 -5.36917332 -2.33898890
VERTEX2 1071 -1.65941596 -5.75805509 -2.46622763
VERTEX2 1072 -2.12985798 -6.12010719 -2.53459943
VERTEX2 1073 -2.23051120 -6.14164173 -3.04530235
VERTEX2 1074 -2.92059487 -6.17506837 -3.07983370
VERTEX2 1075 -3.64624243 -6.21207124 -3.06300510
VERTEX2 1076 -3.81505669 -6.22904983 -2.65249179
VERTEX2 1077 -3.81794359 -6.23867978 -1.83491825
VERTEX2 1078 -3.92865904 -6.84807959 -1.78594289
VERTEX2 1079 -4.03958106 -7.41774399 -1.71960670
VERTEX2 1080 -3.74943441 -6.56669600 -2.57439365
VERTEX2 1081 -4.30387361 -6.82572892 -2.69288084
VERTEX2 1082 -4.55695787 -6.94995054 -2.40273418
VERTEX2 1083 -4.55749193 -6.89981540 -1.34134596
VERTEX2 1084 -4.62283972 -6.85783171 -0.34647521
VERTEX2 1085 -4.54492013 -6.84481647 0.63261343
VERTEX2 1086 -4.03966740 -6.26617922 0.86120576
VERTEX2 1087 -3.51272369 -5.67448047 0.84762216
VERTEX2 1088 -2.99005911 -5.05378912 0.82953097
VERTEX2 1089 -2.80651161 -4.85646794 0.73013693
VERTEX2 1090 -2.68192311 -4.76329609 0.10620576
VERTEX2 1091 -2.11209698 -4.78360130 -0.07560856
VERTEX2 1092 -1.46889839 -4.83132997 -0.09482891
VERTEX2 1093 -0.88251710 -4.89530653 -0.16482487
VERTEX2 1094 -6.13140885 -4.14536633 0.90227147
VERTEX2 1095 -5.97488731 -4.03097072 0.31669139
VERTEX2 1096 -5.92505847 -4.03067393 -0.25435211
VERTEX2 1097 -5.62853819 -4.17694730 -0.47000125
VERTEX2 1098 -5.08898029 -4.46641839 -0.52735859
VERTEX2 1099 -4.63254466 -4.74998951 -0.62571371
VERTEX2 1100 -4.67278683 -4.72290726 -0.26608397
VERTEX2 1101 -4.36178515 -4.72204932 -0.00323176
VERTEX2 1102 -4.37293421 -4.71851606 -0.40092832
VERTEX2 1103 -3.84498530 -4.95464757 -0.43739151
VERTEX2 1104 -3.29605517 -5.20680202 -0.46824328
VERTEX2 1105 -2.77067146 -5.47019381 -0.48972651
VERTEX2 1106 -2.38254951 -5.67451501 -0.51854139
VERTEX2 1107 -2.36536125 -5.67720279 -0.26764849
VERTEX2 1108 -1.74771328 -5.79291237 -0.26371697
VERTEX2 1109 -1.21943140 -5.97435955 -0.37276111
VERTEX2 1110 -0.73366270 -6.16690437 -0.42699438
VERTEX2 1111 -0.34821357 -6.41508632 -0.53356233
VERTEX2 1112 0.11945373 -6.57198478 -0.19536643
VERTEX2 1113 0.66462782 -6.69303445 -0.29592786
VERTEX2 1114 1.17501086 -6.84680926 -0.28338334
VERTEX2 1115 1.65600248 -6.98311801 -0.30413502
VERTEX2 1116 2.20119221 -7.13224325 -0.27265710
VERTEX2 1117 2.21486674 -7.13573901 -0.40613932
VERTEX2 1118 2.15095700 -7.07024438 -1.02533868
VERTEX2 1119 2.12921955 -6.99757085 -1.46622171
VERTEX2 1120 2.14335518 -7.55118428 -1.53458630
VERTEX2 1121 2.14533109 -7.69878706 -1.65845709
VERTEX2 1122 2.14968125 -7.69325648 -2.21756017
VERTEX2 1123 1.79659772 -8.14077638 -2.20437097
VERTEX2 1124 1.49652425 -8.60465916 -2.10939400
VERTEX2 1125 1.17482412 -9.12978382 -2.09883961
VERTEX2 1126 1.14751871 -9.17881871 -1.76423684
VERTEX2 1127 -4.22902835 -12.79243217 -0.32490674
VERTEX2 1128 -4.31218709 -12.77786902 0.66253883
VERTEX2 1129 -4.28864256 -12.73267290 1.67698775
VERTEX2 1130 -4.38280215 -12.06454103 1.69039696
VERTEX2 1131 -4.27524084 -11.22604652 1.25733725
VERTEX2 1132 -4.06240060 -10.56477247 1.23676863
VERTEX2 1133 -3.83627911 -9.97428076 1.19701164
VERTEX2 1134 -3.72053105 -9.67790557 1.09745074
VERTEX2 1135 -3.70852695 -9.66520288 0.53621661
VERTEX2 1136 -3.81759797 -9.61438950 -0.03119841
VERTEX2 1137 -3.61161699 -9.64853046 -0.21835881
VERTEX2 1138 -3.07879064 -9.77261667 -0.23709277
VERTEX2 1139 -2.63229828 -9.87730210 -0.30989468
VERTEX2 1140 -2.70552334 -9.84695040 -0.78875350
VERTEX2 1141 -2.77527937 -9.77543214 -1.33561040
VERTEX2 1142 -2.81279494 -10.08554272 -1.69960712
VERTEX2 1143 -2.85260500 -10.69709040 -1.61613270
VERTEX2 1144 -2.88392247 -11.29315190 -1.65256246
VERTEX2 1145 -2.92995225 -11.88255860 -1.68423379
VERTEX2 1146 -2.99246656 -12.47463362 -1.67081678
VERTEX2 1147 -3.01082962 -13.08181245 -1.60560310
VERTEX2 1148 -3.03140743 -13.66370035 -1.59539487
VERTEX2 1149 -3.03144490 -13.71028483 -1.09674349
VERTEX2 1150 -2.89367217 -13.84365955 -0.30124168
VERTEX2 1151 -2.86566224 -13.84001411 0.68414004
VERTEX2 1152 -2.86290220 -13.80675939 1.71774865
VERTEX2 1153 -2.87130485 -13.78290486 2.71191134
VERTEX2 1154 -3.17702710 -13.80815232 -3.03560195
VERTEX2 1155 -3.79678039 -13.86827051 -3.08959489
VERTEX2 1156 -4.39490035 -13.89289480 -3.08376264
VERTEX2 1157 -4.96860306 -13.94828190 -2.97752584
VERTEX2 1158 -5.57367092 -13.99621287 -3.11111891
VERTEX2 1159 -6.15491730 -13.97625607 3.07197237
VERTEX2 1160 -6.77029794 -13.91106603 2.92884246
VERTEX2 1161 -7.36955132 -13.72296295 2.83350011
VERTEX2 1162 -7.98242620 -13.53584563 2.88630975
VERTEX2 1163 -8.60788480 -13.37290487 2.87613458
VERTEX2 1164 -9.23213665 -13.22165746 2.95628550
VERTEX2 1165 -9.77306724 -13.12208976 2.93573459
VERTEX2 1166 -9.79630268 -13.12303518 -2.85357652
VERTEX2 1167 -9.79712012 -13.11358087 -1.90821260
VERTEX2 1168 -9.79895721 -13.10592182 -0.99636214
VERTEX2 1169 -9.75537438 -13.11557617 -0.16686045
VERTEX2 1170 -9.18584797 -13.20360490 -0.15831426
VERTEX2 1171 -8.57037709 -13.28665469 -0.12436368
VERTEX2 1172 -7.99047605 -13.36787810 -0.18431251
VERTEX2 1173 -7.38672608 -13.47629700 -0.17274267
VERTEX2 1174 -6.77797250 -13.59780974 -0.23855518
VERTEX2 1175 -6.18489822 -13.75808068 -0.26926905
VERTEX2 1176 -5.58756569 -13.92604047 -0.30808418
VERTEX2 1177 -5.00444900 -14.11153192 -0.30190828
VERTEX2 1178 -4.41766755 -14.30648594 -0.34460430
VERTEX2 1179 -3.83860482 -14.50430399 -0.31079014
VERTEX2 1180 -3.59957126 -14.58115622 -0.31353803
VERTEX2 1181 -3.61436956 -14.57780775 0.52877498
VERTEX2 1182 -3.60153226 -14.54032562 1.25337042
VERTEX2 1183 -3.41703629 -13.95455689 1.28309035
VERTEX2 1184 -3.26690728 -13.34627299 1.35738876
VERTEX2 1185 -3.12427738 -12.74178447 1.32946258
VERTEX2 1186 -2.99673332 -12.12348792 1.40033329
VERTEX2 1187 -2.88024112 -11.48185404 1.36760496
VERTEX2 1188 -2.76345057 -10.86638157 1.38997067
VERTEX2 1189 -2.62201366 -10.19123639 1.40863700
VERTEX2 1190 -2.56422922 -9.84731477 1.41373411
VERTEX2 1191 -2.56307627 -9.80869723 2.32296634
VERTEX2 1192 -2.55824128 -9.80977063 3.11013197
VERTEX2 1193 -3.07248977 -9.76932456 2.97418497
VERTEX2 1194 -3.56130951 -9.69875809 3.01298231
VERTEX2 1195 -4.09939558 -9.63365543 3.06202791
VERTEX2 1196 -4.63686212 -9.58734823 2.88419368
VERTEX2 1197 -5.16286111 -9.45331287 2.89172834
VERTEX2 1198 -5.70020695 -9.34547565 -3.13845856
VERTEX2 1199 -6.22836200 -9.31222373 2.92451099
VERTEX2 1200 -6.77025779 -9.20920706 2.98933479
VERTEX2 1201 -7.30386108 -9.13323797 3.04106023
VERTEX2 1202 -7.84305605 -9.08543655 3.06013016
VERTEX2 1203 -8.35114922 -9.05650058 2.96574279
VERTEX2 1204 -8.85184540 -8.89853432 2.81412751
VERTEX2 1205 -9.32433378 -8.74716570 2.83986062
VERTEX2 1206 -9.83494766 -8.60746469 2.89742078
VERTEX2 1207 -10.36259272 -8.41575863 2.80749874
VERTEX2 1208 -10.90504172 -8.24249564 2.86854209
VERTEX2 1209 -11.45365980 -8.08788421 2.86357081
VERTEX2 1210 -11.99955455 -7.95241470 2.88105724
VERTEX2 1211 -12.57155164 -7.75154332 2.81003552
VERTEX2 1212 -13.14500527 -7.56253491 2.86180238
VERTEX2 1213 -13.73781916 -7.41767565 2.93641231
VERTEX2 1214 -14.43993073 -7.24547682 2.71508667
VERTEX2 1215 -14.98068675 -7.01536716 2.77491058
VERTEX2 1216 -15.51733492 -6.89669599 2.99301212
VERTEX2 1217 -16.08475237 -6.79070664 2.97403942
VERTEX2 1218 -16.66639280 -6.70050541 2.92364579
VERTEX2 1219 -17.29607653 -6.56756659 2.95431959
VERTEX2 1220 -17.86973403 -6.48558103 3.04514889
VERTEX2 1221 -17.86514609 -6.48484492 2.59254238
VERTEX2 1222 -17.87289775 -6.47448596 1.99541284
VERTEX2 1223 -17.87414711 -6.46238945 1.43578584
VERTEX2 1224 -17.70856953 -5.90513525 1.25287784
VERTEX2 1225 -17.51668936 -5.30957021 1.26664184
VERTEX2 1226 -17.48468885 -5.20798733 1.24991084
VERTEX2 1227 -17.48468885 -5.20798733 1.24924884
