1 43 139 0.00114812 5 
2 19 166 0.00293129 10 
3 19 172 0.00305446 10 
4 25 172 0.00315634 10 
5 25 178 0.00328705 10 
6 32 178 0.00326257 10 
7 32 183 0.00337458 10 
8 44 189 0.00348211 10 
9 44 195 0.00359470 10 
10 50 195 0.00358922 10 
11 50 201 0.00371012 10 
12 50 203 0.00376378 10 
13 61 203 0.00375656 10 
14 61 209 0.00386577 10 
15 67 209 0.00385742 10 
16 67 220 0.00405931 10 
17 81 220 0.00405940 10 
18 81 226 0.00418563 10 
19 87 226 0.00417654 10 
20 87 231 0.00427872 10 
21 94 231 0.00428161 10 
22 226 231 0.00427440 10 
23 94 241 0.00447704 10 
24 101 241 0.00447418 10 
25 101 247 0.00459599 10 
26 107 247 0.00459331 10 
27 107 254 0.00472491 10 
28 114 254 0.00473362 10 
29 107 256 0.00481400 10 
30 114 256 0.00478548 10 
31 107 258 0.00483870 10 
32 114 258 0.00678961 10 
33 1 259 0.00508616 10 
34 121 266 0.00521501 10 
35 126 266 0.00522609 10 
36 126 272 0.00536047 10 
37 132 272 0.00537743 10 
38 132 278 0.00549297 10 
39 138 278 0.00550185 10 
40 138 284 0.00560762 10 
41 151 284 0.00568733 10 
42 151 291 0.00581702 10 
43 151 297 0.00593560 10 
44 157 297 0.00594894 10 
45 163 297 0.00595613 10 
46 166 297 0.00597750 10 
47 19 305 0.00615398 10 
48 157 305 0.00614313 10 
49 163 305 0.00616816 10 
50 166 305 0.00616713 10 
51 172 305 0.00619317 10 
52 231 312 0.00639360 10 
53 19 315 0.00648174 10 
54 25 315 0.00649938 10 
55 172 315 0.00649922 10 
56 50 325 0.00673075 10 
57 172 328 0.00677995 10 
58 255 328 0.00684456 10 
59 19 337 0.00705058 10 
60 25 337 0.00705869 10 
61 172 337 0.00705862 10 
62 138 340 0.00718356 10 
63 19 342 0.00722479 10 
64 25 342 0.00723136 10 
65 172 342 0.00725433 10 
66 178 342 0.00729504 10 
67 154 363 0.00778067 10 
68 25 367 0.00786783 10 
69 32 367 0.00790328 10 
70 178 367 0.00793103 10 
71 183 367 0.00795347 10 
72 25 374 0.00807868 10 
73 32 374 0.00809374 10 
74 178 374 0.00810707 10 
75 183 374 0.00810811 10 
76 64 377 0.00833161 10 
77 32 382 0.00845369 10 
78 183 382 0.00847435 10 
79 32 387 0.00855479 10 
80 183 387 0.00857104 10 
81 189 400 0.00889664 10 
82 189 414 0.00915964 10 
83 44 437 0.00959079 10 
84 195 437 0.00957506 10 
85 348 443 0.00984074 10 
86 44 454 0.00998195 10 
87 189 454 0.01005559 10 
88 44 467 0.01025727 10 
89 50 467 0.01028648 10 
90 195 467 0.01040494 10 
91 284 473 0.01046915 10 
92 195 484 0.01070650 10 
93 101 492 0.01095950 10 
94 44 494 0.01096966 10 
95 50 494 0.01101203 10 
96 195 494 0.01097690 10 
97 201 494 0.01105570 10 
98 50 500 0.01118396 10 
99 201 500 0.01120286 10 
100 203 500 0.01122752 10 
101 326 503 0.01140560 10 
102 61 508 0.01153294 10 
103 203 508 0.01153210 10 
104 209 508 0.01154898 10 
105 150 514 0.01174107 10 
106 61 522 0.01195406 10 
107 203 522 0.01202261 10 
108 209 522 0.01191731 10 
109 61 528 0.01203136 10 
110 67 528 0.01217355 10 
111 81 528 0.01220672 10 
112 209 528 0.01222929 10 
113 220 528 0.01222150 10 
114 67 532 0.01229717 10 
115 81 532 0.01231225 10 
116 220 532 0.01236974 10 
117 67 556 0.01281696 10 
118 67 564 0.01299045 10 
119 81 564 0.01298216 10 
120 220 564 0.01299417 10 
121 67 567 0.01305137 10 
122 81 567 0.01305542 10 
123 220 567 0.01307941 10 
124 67 570 0.01312491 10 
125 81 570 0.01313941 10 
126 220 570 0.01315946 10 
127 81 575 0.01325554 10 
128 220 575 0.01326791 10 
129 377 587 0.01351289 10 
130 81 588 0.01352680 10 
131 87 588 0.01343983 10 
132 226 588 0.01538620 10 
133 87 597 0.01364384 10 
134 94 597 0.01374924 10 
135 226 597 0.01368259 10 
136 87 604 0.01383154 10 
137 94 604 0.01383721 10 
138 190 615 0.01424979 10 
139 94 616 0.01428040 10 
140 94 632 0.01459796 10 
141 94 637 0.01470627 10 
142 101 637 0.01466880 10 
143 199 639 0.01480025 10 
144 101 642 0.01488642 10 
145 107 642 0.01494596 10 
146 101 645 0.01497853 10 
147 107 645 0.01499097 10 
148 112 647 0.01509967 10 
149 509 651 0.01537134 10 
150 101 657 0.01548688 10 
151 101 663 0.01561870 10 
152 107 663 0.01565612 10 
153 114 663 0.01568667 10 
154 101 665 0.01572826 10 
155 107 665 0.01574404 10 
156 114 665 0.01575189 10 
157 107 680 0.01603959 10 
158 107 683 0.01610319 10 
159 114 683 0.01610821 10 
160 107 704 0.01649543 10 
161 114 704 0.01649018 10 
162 107 714 0.01667897 10 
163 114 714 0.01668797 10 
164 432 727 0.01704141 10 
165 107 730 0.01713310 10 
166 114 730 0.01714066 10 
167 581 732 0.01740720 10 
168 505 733 0.01754623 10 
169 414 738 0.01767136 10 
170 121 754 0.01816237 10 
171 126 754 0.01812066 10 
172 121 759 0.01822767 10 
173 126 759 0.01824609 10 
174 126 762 0.01830570 10 
175 132 762 0.01835215 10 
176 132 778 0.01864085 10 
177 132 792 0.01892915 10 
178 132 800 0.01906530 10 
179 138 800 0.01914375 10 
180 138 806 0.01923268 10 
181 516 817 0.01962805 10 
182 138 821 0.01968495 10 
183 138 823 0.01977009 10 
184 151 828 0.01999716 10 
185 324 846 0.02021023 10 
186 151 847 0.02019036 10 
187 59 847 0.02055163 10 
188 589 851 0.02062567 10 
189 151 855 0.02083479 10 
190 37 863 0.02104854 10 
191 688 864 0.02116652 10 
192 151 895 0.02181875 10 
193 151 897 0.02188409 10 
194 138 903 0.02199692 10 
195 138 904 0.02201355 10 
196 132 907 0.02164616 10 
197 138 907 0.02229326 10 
198 132 911 0.02175080 10 
199 799 912 0.02227177 10 
200 121 923 0.02209106 10 
201 126 923 0.02260084 10 
202 107 929 0.02227162 10 
203 114 929 0.02272638 10 
204 416 931 0.02279789 10 
205 107 935 0.02247833 10 
206 114 935 0.02293115 10 
207 101 939 0.02256388 10 
208 107 939 0.02374755 10 
209 101 944 0.02296684 10 
210 94 947 0.02275688 10 
211 101 947 0.02325249 10 
212 87 953 0.02329627 10 
213 94 953 0.02381059 10 
214 226 953 0.02382606 10 
215 81 959 0.02347127 10 
216 87 959 0.02394634 10 
217 220 959 0.02386795 10 
218 226 959 0.02387703 10 
219 816 959 0.02428282 10 
220 67 965 0.02388752 10 
221 81 965 0.02438655 10 
222 220 965 0.02438937 10 
223 61 976 0.02422698 10 
224 67 976 0.02468780 10 
225 209 976 0.02573498 10 
226 50 982 0.02488689 10 
227 61 982 0.02489301 10 
228 201 982 0.02487002 10 
229 203 982 0.02489641 10 
230 44 988 0.02515771 10 
231 50 988 0.02518114 10 
232 195 988 0.02536761 10 
233 201 988 0.02518944 10 
234 44 994 0.02532225 10 
235 189 994 0.02531193 10 
236 195 994 0.02531272 10 
237 32 1003 0.02564995 10 
238 178 1003 0.02584244 10 
239 183 1003 0.02597468 10 
240 25 1008 0.02599660 10 
241 32 1008 0.02595345 10 
242 178 1008 0.02594661 10 
243 183 1008 0.02601047 10 
244 25 1010 0.02606431 10 
245 32 1010 0.02600684 10 
246 172 1010 0.02608467 10 
247 178 1010 0.02610204 10 
248 51 1014 0.02658011 10 
249 19 1016 0.02682882 10 
250 166 1016 0.02652722 10 
251 172 1016 0.02671497 10 
252 151 1029 0.19379679 10 
253 157 1029 0.18948380 10 
254 163 1029 0.19465154 10 
255 166 1029 0.19551374 10 
256 762 1049 0.02774199 10 
257 351 1079 0.02848235 10 
258 168 1082 0.02854937 10 
259 132 1084 0.02885354 10 
260 391 1091 0.02914344 10 
261 67 1108 0.02962002 10 
262 860 1115 0.03022142 10 
263 101 1138 0.03066078 10 
264 107 1147 0.03054716 10 
265 114 1147 0.03055442 10 
266 107 1150 0.03055878 10 
267 114 1150 0.03062306 10 
268 900 1153 0.03060901 10 
269 601 1156 0.03103040 10 
270 114 1158 0.03080005 10 
271 121 1158 0.03102738 10 
272 823 1159 0.03118009 10 
273 841 1160 0.03128430 10 
274 671 1162 0.03064589 10 
275 121 1164 0.03091806 10 
276 126 1164 0.03154223 10 
277 936 1164 0.03165868 10 
278 62 1169 0.03106177 10 
279 114 1175 0.03130495 10 
280 121 1175 0.03196585 10 
281 923 1175 0.03196752 10 
282 929 1175 0.03195453 10 
283 1158 1175 0.02227810 7 
284 943 1181 0.03133154 10 
285 884 1185 0.03175869 10 
286 628 1187 0.03170798 10 
287 101 1188 0.03190412 10 
288 939 1188 0.04029750 10 
289 1138 1188 0.03293292 10 
290 1147 1188 0.03275438 10 
291 1150 1188 0.03256576 10 
292 876 1193 0.03236990 10 
293 1050 1210 0.03291647 10 
294 1061 1210 0.03524407 10 
295 1075 1210 0.03356968 10 
296 1084 1210 0.03369483 10 
297 1088 1210 0.03364378 10 
298 1093 1210 0.03361403 10 
299 1098 1210 0.03397885 10 
300 237 1213 0.03311791 10 
301 157 1217 0.03349121 10 
302 163 1217 0.03411755 10 
303 1029 1217 0.03411705 10 
304 1044 1217 0.03395915 10 
305 1050 1217 0.03465741 10 
306 1056 1217 0.03394326 10 
