VERTEX2 0 0.00003578 0.00000101 0.00000007
VERTEX2 1 0.00003578 0.00000101 -0.00064193
VERTEX2 2 0.00003579 0.00000101 -0.00117993
VERTEX2 3 0.01386917 -0.00122479 -0.00344290
VERTEX2 4 0.64104264 -0.01102070 -0.00704788
VERTEX2 5 0.69717535 -0.01152130 -0.09756603
VERTEX2 6 0.69803743 -0.01227894 -0.89276177
VERTEX2 7 0.68935241 0.01443637 -1.50662036
VERTEX2 8 0.69640678 0.04502205 -2.11847993
VERTEX2 9 0.71791904 0.06369659 -2.75482629
VERTEX2 10 0.73330750 0.06633890 2.91550022
VERTEX2 11 0.72794292 0.06966715 2.24194837
VERTEX2 12 0.72746383 0.08693218 1.59318170
VERTEX2 13 0.73705744 0.11839618 0.93439647
VERTEX2 14 0.76327570 0.13729033 0.32682000
VERTEX2 15 0.77021934 0.13785196 -0.19751451
VERTEX2 16 1.05880900 0.08290812 -0.21596240
VERTEX2 17 1.65540590 -0.05399563 -0.24698358
VERTEX2 18 2.27785341 -0.20699591 -0.25683220
VERTEX2 19 2.90394210 -0.39368235 -0.30511796
VERTEX2 20 3.49908570 -0.57501654 -0.29915267
VERTEX2 21 4.10881193 -0.71842479 -0.18750579
VERTEX2 22 4.71916159 -0.85076305 -0.17003725
VERTEX2 23 5.35854730 -0.88572020 -0.06254003
VERTEX2 24 5.99216456 -0.94781660 -0.11936825
VERTEX2 25 6.62907538 -1.00619767 -0.11639948
VERTEX2 26 7.23924999 -1.09755050 -0.15681962
VERTEX2 27 7.85624839 -1.17953948 -0.14088548
VERTEX2 28 8.43907337 -1.26927078 -0.14523494
VERTEX2 29 8.81872581 -1.32087184 -0.11436502
VERTEX2 30 8.82769289 -1.32310800 -0.64626945
VERTEX2 31 8.93053255 -1.45665050 -0.91447941
VERTEX2 32 9.30635429 -1.96500488 -0.93292232
VERTEX2 33 9.69329229 -2.46151234 -0.88230194
VERTEX2 34 10.10861206 -2.94125654 -0.86141948
VERTEX2 35 10.53364187 -3.41312037 -0.82730663
VERTEX2 36 10.96514118 -3.88613306 -0.83599795
VERTEX2 37 11.24387768 -4.18767938 -0.82855814
VERTEX2 38 11.23513473 -4.17621816 -1.15068065
VERTEX2 39 11.23170529 -4.16168942 -1.32200200
VERTEX2 40 11.38233988 -4.72485830 -1.30496343
VERTEX2 41 11.53872422 -5.31307922 -1.33712780
VERTEX2 42 11.66728785 -5.86542261 -1.35996506
VERTEX2 43 11.78061864 -6.45001195 -1.40024516
VERTEX2 44 11.87728757 -7.03441419 -1.43724835
VERTEX2 45 11.94212632 -7.65004093 -1.49292411
VERTEX2 46 11.98328044 -8.26997031 -1.51235746
VERTEX2 47 12.01305221 -8.89095678 -1.55386032
VERTEX2 48 12.01940288 -9.51650978 -1.56026198
VERTEX2 49 12.02202629 -10.13803597 -1.61095191
VERTEX2 50 11.97814679 -10.72747434 -1.65532099
VERTEX2 51 11.93387108 -11.31432554 -1.68444406
VERTEX2 52 11.84828821 -11.88750450 -1.76126422
VERTEX2 53 11.75954273 -12.43503998 -1.74903139
VERTEX2 54 11.65749021 -12.93648535 -1.81127447
VERTEX2 55 11.66594316 -12.89263538 -1.80613290
VERTEX2 56 11.66836263 -12.88266443 -1.79569045
VERTEX2 57 11.53164161 -13.51460387 -1.80697893
VERTEX2 58 11.39213721 -14.13475401 -1.76067810
VERTEX2 59 11.27026337 -14.75452838 -1.78422205
VERTEX2 60 11.14772315 -15.37063934 -1.76284139
VERTEX2 61 11.01931296 -15.98721130 -1.81362252
VERTEX2 62 10.87933125 -16.54323175 -1.77398975
VERTEX2 63 10.73554054 -17.11143568 -1.80948413
VERTEX2 64 10.60825302 -17.67412550 -1.74610999
VERTEX2 65 10.48137124 -18.23465750 -1.79755192
VERTEX2 66 10.33584808 -18.82528815 -1.80561505
VERTEX2 67 10.17853985 -19.41956134 -1.80422244
VERTEX2 68 10.07504568 -19.86897808 -1.82004063
VERTEX2 69 10.07798238 -19.85889460 -1.97503276
VERTEX2 70 10.08459186 -19.84579597 -2.64942549
VERTEX2 71 10.10774163 -19.84413318 2.99107132
VERTEX2 72 10.12033288 -19.84549899 2.98157708
VERTEX2 73 10.12767048 -19.84720234 2.91662032
VERTEX2 74 10.12776510 -19.84725128 2.29479361
VERTEX2 75 10.13441688 -19.84974597 1.94242565
VERTEX2 76 10.12255196 -19.83695217 2.63628665
VERTEX2 77 10.11815906 -19.83518166 2.86922727
VERTEX2 78 9.83672463 -19.84972636 -3.07683711
VERTEX2 79 9.21899204 -19.89690387 -3.08211607
VERTEX2 80 8.58701802 -19.90401096 3.12652720
VERTEX2 81 7.96244665 -19.88592390 3.10050573
VERTEX2 82 7.36305140 -19.85280601 3.04646610
VERTEX2 83 6.77418541 -19.80894260 3.02305896
VERTEX2 84 6.21179059 -19.73073529 2.94516587
VERTEX2 85 5.66878121 -19.63412949 2.95239346
VERTEX2 86 5.05908774 -19.52155091 2.86257374
VERTEX2 87 4.66812993 -19.42026660 2.81007420
VERTEX2 88 4.30957937 -19.29272680 2.78031026
VERTEX2 89 4.32174436 -19.29313510 -3.10744873
VERTEX2 90 3.71864859 -19.30440433 -3.13871862
VERTEX2 91 3.10468090 -19.30811655 -3.08982601
VERTEX2 92 2.50677962 -19.31165073 3.07743779
VERTEX2 93 1.88677723 -19.21716569 2.97634245
VERTEX2 94 1.26058638 -19.08523625 2.93405466
VERTEX2 95 0.63835262 -19.00506073 3.07666368
VERTEX2 96 0.02832519 -18.96139596 3.10074131
VERTEX2 97 -0.56151903 -18.90567481 3.03015185
VERTEX2 98 -1.15052589 -18.81198804 2.97219863
VERTEX2 99 -1.85732742 -18.69633034 3.01910329
VERTEX2 100 -2.42343857 -18.59538100 2.96747607
VERTEX2 101 -3.03535317 -18.54646071 3.07087457
VERTEX2 102 -3.64470291 -18.47411168 2.96572542
VERTEX2 103 -4.25049465 -18.36782978 3.06248174
VERTEX2 104 -4.86628730 -18.29993032 3.02845288
VERTEX2 105 -5.48205973 -18.24369910 3.07464838
VERTEX2 106 -6.08741050 -18.18114398 3.01946373
VERTEX2 107 -6.70901306 -18.09278843 3.01539394
VERTEX2 108 -7.16500632 -18.04978603 3.07698294
VERTEX2 109 -7.21133011 -18.03868623 2.62851285
VERTEX2 110 -7.22886882 -18.02099875 2.03720716
VERTEX2 111 -7.23010134 -17.93987275 1.53139479
VERTEX2 112 -7.21449389 -17.30541130 1.58582495
VERTEX2 113 -7.24090536 -16.68306276 1.63286203
VERTEX2 114 -7.28151887 -16.07310310 1.66945199
VERTEX2 115 -7.36286785 -15.43534969 1.72965813
VERTEX2 116 -7.49115115 -14.68771275 1.77368945
VERTEX2 117 -7.63457042 -14.08029418 1.86918393
VERTEX2 118 -7.63829848 -14.06452863 1.53417920
VERTEX2 119 -7.59018135 -13.55255516 1.48069123
VERTEX2 120 -7.54696121 -12.90243779 1.57066094
VERTEX2 121 -7.56592116 -12.28968272 1.63802098
VERTEX2 122 -7.60782589 -11.71058352 1.69422910
VERTEX2 123 -7.63486224 -11.53369774 1.68144231
VERTEX2 124 -7.55314934 -11.29687278 1.25840504
VERTEX2 125 -7.34604010 -10.70428266 1.24745449
VERTEX2 126 -7.22311840 -10.08966998 1.45398354
VERTEX2 127 -7.13540052 -9.45810072 1.45240424
VERTEX2 128 -7.06991244 -8.82279388 1.48884320
VERTEX2 129 -6.99358823 -8.19115641 1.45620933
VERTEX2 130 -6.93602523 -7.56181521 1.50890715
VERTEX2 131 -6.90002802 -6.93864485 1.59740685
VERTEX2 132 -6.89168856 -6.32554115 1.54782254
VERTEX2 133 -6.85387925 -5.76607500 1.51096642
VERTEX2 134 -6.80955914 -5.17771401 1.49272010
VERTEX2 135 -6.73733038 -4.60923987 1.46645245
VERTEX2 136 -6.67281131 -3.97299934 1.48615494
VERTEX2 137 -6.58578626 -3.33838827 1.44442776
VERTEX2 138 -6.51953453 -2.70486822 1.52477685
VERTEX2 139 -6.51315719 -2.07823219 1.59022712
VERTEX2 140 -6.55193107 -1.42766746 1.62089336
VERTEX2 141 -6.56834496 -0.79206106 1.57260115
VERTEX2 142 -6.57935701 -0.14666519 1.56889762
VERTEX2 143 -6.50902484 0.49271435 1.45841174
VERTEX2 144 -6.47558294 0.86433317 1.47600170
VERTEX2 145 -6.47045798 0.88078066 0.97770822
VERTEX2 146 -6.46908570 0.88845752 0.38459952
VERTEX2 147 -6.41126273 0.88545696 -0.10182308
VERTEX2 148 -5.97660605 0.83309840 -0.13742577
VERTEX2 149 -5.33615273 0.75140747 -0.11231149
VERTEX2 150 -4.70267462 0.69882145 -0.09814602
VERTEX2 151 -4.06389395 0.66342081 -0.01247632
VERTEX2 152 -3.43769653 0.63941861 -0.07326274
VERTEX2 153 -2.81189948 0.61809081 0.02031306
VERTEX2 154 -2.19014525 0.60858050 -0.04903264
VERTEX2 155 -1.56417000 0.58677745 -0.01538465
VERTEX2 156 -0.93651940 0.58428833 0.01561853
VERTEX2 157 -0.37238376 0.57742108 -0.04840795
VERTEX2 158 -0.17778414 0.56753541 -0.02091427
VERTEX2 159 -0.17233032 0.56590714 0.96640921
VERTEX2 160 -0.16710538 0.57482863 2.00208331
VERTEX2 161 -0.18904103 0.51401679 2.72331759
VERTEX2 162 -0.16348527 0.52019686 -2.52407267
VERTEX2 163 -0.16441081 0.51514683 -1.52699648
VERTEX2 164 -0.23997436 0.60624789 -0.46474652
VERTEX2 165 -0.06829990 0.59166869 -0.05695760
VERTEX2 166 0.62739915 0.55850587 -0.05524799
VERTEX2 167 1.24384255 0.51675589 -0.08453708
VERTEX2 168 1.83173490 0.47568880 -0.07245174
VERTEX2 169 2.42724780 0.41246695 -0.10928116
VERTEX2 170 3.01395708 0.35241483 -0.12981529
VERTEX2 171 3.57657713 0.26195521 -0.16799430
VERTEX2 172 4.20300344 0.16330735 -0.15380732
VERTEX2 173 4.83188973 0.05197116 -0.17660827
VERTEX2 174 5.45785400 -0.05301522 -0.13642827
VERTEX2 175 6.07443908 -0.13399783 -0.16107323
VERTEX2 176 6.67474626 -0.24523532 -0.15139845
VERTEX2 177 7.29864672 -0.33860089 -0.17897305
VERTEX2 178 7.92143111 -0.47504059 -0.21789275
VERTEX2 179 8.32482169 -0.55246406 -0.16446756
VERTEX2 180 8.37408453 -0.56491582 -0.60633648
VERTEX2 181 8.81926425 -0.87638351 -0.65803563
VERTEX2 182 9.23116615 -1.23033602 -0.83195207
VERTEX2 183 9.58486475 -1.64628765 -0.88921208
VERTEX2 184 9.92497675 -2.14393781 -1.03561087
VERTEX2 185 10.21181097 -2.66614101 -1.12804358
VERTEX2 186 10.43623626 -3.22248712 -1.19426221
VERTEX2 187 10.63633908 -3.75745725 -1.21669840
VERTEX2 188 10.84337641 -4.31191180 -1.22189127
VERTEX2 189 11.04331540 -4.87062832 -1.24834271
VERTEX2 190 11.23589603 -5.47297517 -1.27677749
VERTEX2 191 11.41833281 -6.07480438 -1.30050155
VERTEX2 192 11.58192306 -6.67040104 -1.32848727
VERTEX2 193 11.71412029 -7.21798855 -1.38379659
VERTEX2 194 11.82314963 -7.78697532 -1.41015915
VERTEX2 195 11.91251897 -8.34375025 -1.43946924
VERTEX2 196 11.98917851 -8.96806963 -1.48020393
VERTEX2 197 12.03705017 -9.58855044 -1.50766957
VERTEX2 198 12.07215091 -10.20651953 -1.56585276
VERTEX2 199 12.05385808 -10.81426815 -1.62729855
VERTEX2 200 12.01648762 -11.41693608 -1.64922088
VERTEX2 201 11.95541517 -12.01626733 -1.70595046
VERTEX2 202 11.89967046 -12.52140077 -1.68579376
VERTEX2 203 11.80979846 -13.25578013 -1.73857540
VERTEX2 204 11.69596531 -13.83864000 -1.84033851
VERTEX2 205 11.53289773 -14.41168262 -1.84980439
VERTEX2 206 11.38484965 -14.96958961 -1.84793555
VERTEX2 207 11.23598067 -15.53073939 -1.83201963
VERTEX2 208 11.07404650 -16.12467585 -1.84149245
VERTEX2 209 10.92321677 -16.71978792 -1.80334015
VERTEX2 210 10.76880967 -17.31665338 -1.81221736
VERTEX2 211 10.62845741 -17.91720061 -1.80999039
VERTEX2 212 10.46040346 -18.50630189 -1.86284376
VERTEX2 213 10.27379488 -19.09938069 -1.88362283
VERTEX2 214 10.08214426 -19.67894442 -1.88743256
VERTEX2 215 9.97162161 -20.00343043 -1.92322977
VERTEX2 216 9.98291396 -19.98342009 -2.42189153
VERTEX2 217 10.00780830 -19.98038058 -2.96405476
VERTEX2 218 10.01313513 -19.98233412 -3.02039063
VERTEX2 219 9.44929192 -19.94572965 3.09400480
VERTEX2 220 8.84290289 -19.90936654 3.05399529
VERTEX2 221 8.20280888 -19.85166575 3.10446256
VERTEX2 222 7.57690144 -19.81761098 3.07892667
VERTEX2 223 6.95081613 -19.79687533 -3.10787998
VERTEX2 224 6.33734182 -19.80608812 -3.13360113
VERTEX2 225 5.72011013 -19.80905846 -3.08380985
VERTEX2 226 5.10383071 -19.81132452 -3.13278643
VERTEX2 227 4.45812592 -19.88976948 -2.97613032
VERTEX2 228 3.93049271 -19.88099596 2.94554680
VERTEX2 229 3.48989853 -19.85058852 3.06593580
VERTEX2 230 3.20106244 -19.83905891 3.03714421
VERTEX2 231 3.40765525 -19.85406403 3.10722774
VERTEX2 232 3.09638619 -19.71959033 2.68124063
VERTEX2 233 2.52909996 -19.46681298 2.78350212
VERTEX2 234 1.95046054 -19.24821066 2.73931187
VERTEX2 235 1.69996533 -19.14417762 2.73429990
VERTEX2 236 1.36675523 -19.14996887 3.13966230
VERTEX2 237 0.74012427 -19.17341865 -3.07316089
VERTEX2 238 0.12174985 -19.23021973 -3.10592131
VERTEX2 239 -0.49367026 -19.23561912 3.10961521
VERTEX2 240 -1.06430066 -19.12547368 2.89150168
VERTEX2 241 -1.60519526 -19.00146738 2.97691266
VERTEX2 242 -2.17956251 -18.94393182 3.01654196
VERTEX2 243 -2.78101071 -18.86858395 3.01593730
VERTEX2 244 -3.40549036 -18.83111527 3.08735245
VERTEX2 245 -4.02077717 -18.79045491 3.03323353
VERTEX2 246 -4.62416679 -18.71232597 2.96094907
VERTEX2 247 -5.22897260 -18.63806650 3.06698200
VERTEX2 248 -5.78344345 -18.62375905 3.09859093
VERTEX2 249 -5.73539790 -18.63030637 -2.99135372
VERTEX2 250 -5.73255110 -18.63015605 2.70469964
VERTEX2 251 -6.05962158 -18.29469851 2.28125553
VERTEX2 252 -6.42130514 -17.87986293 2.28976257
VERTEX2 253 -6.79950517 -17.43957397 2.27876311
VERTEX2 254 -7.17137779 -16.98694516 2.23755638
VERTEX2 255 -7.24575830 -16.89521424 2.32143749
VERTEX2 256 -7.24981048 -16.81846973 1.84545175
VERTEX2 257 -7.30813530 -16.35993767 1.70994543
VERTEX2 258 -7.40018363 -15.77167746 1.79043640
VERTEX2 259 -7.55204005 -15.17142452 1.83106078
VERTEX2 260 -7.69349105 -14.61529661 1.82268874
VERTEX2 261 -7.69195446 -14.58228419 1.51127102
VERTEX2 262 -7.63869419 -13.93447693 1.51795139
VERTEX2 263 -7.60576332 -13.32021458 1.53140854
VERTEX2 264 -7.59968904 -12.71936410 1.62843474
VERTEX2 265 -7.63988329 -12.11944492 1.64855165
VERTEX2 266 -7.60059119 -11.54491495 1.51929655
VERTEX2 267 -7.55960498 -10.79761481 1.48983836
VERTEX2 268 -7.43591652 -10.19489882 1.37963759
VERTEX2 269 -7.32468815 -9.58177972 1.40948987
VERTEX2 270 -7.26115882 -8.95913526 1.52347515
VERTEX2 271 -7.17457705 -8.33774971 1.41295727
VERTEX2 272 -7.09761853 -7.71187235 1.47812882
VERTEX2 273 -7.11568786 -7.08452508 1.69023099
VERTEX2 274 -7.19125364 -6.47170861 1.71422379
VERTEX2 275 -7.18717409 -5.86704359 1.54277966
VERTEX2 276 -7.18822074 -5.26338068 1.65732517
VERTEX2 277 -7.24204784 -4.70307151 1.63180956
VERTEX2 278 -7.20726216 -4.06634252 1.54316980
VERTEX2 279 -7.17580513 -3.43108155 1.48788766
VERTEX2 280 -7.11605128 -2.80064995 1.49003035
VERTEX2 281 -7.03400669 -2.16796411 1.38972924
VERTEX2 282 -6.92276253 -1.54115717 1.42975613
VERTEX2 283 -6.84452657 -0.90852392 1.42211561
VERTEX2 284 -6.74129876 -0.28585828 1.44951124
VERTEX2 285 -6.68312846 0.36201548 1.47068241
VERTEX2 286 -6.62516513 0.98213446 1.52439453
VERTEX2 287 -6.62313251 1.03090675 1.42013110
VERTEX2 288 -6.62020653 1.03628366 0.81197679
VERTEX2 289 -6.61692978 1.03796922 0.21897932
VERTEX2 290 -6.17441804 1.03529418 -0.00585735
VERTEX2 291 -5.54965132 1.03607614 0.00807491
VERTEX2 292 -4.93132640 1.02400295 -0.04654339
VERTEX2 293 -4.30349375 0.98637246 -0.06953601
VERTEX2 294 -3.68035295 0.94192623 -0.06876690
VERTEX2 295 -3.05570102 0.86927518 -0.18110774
VERTEX2 296 -2.43999581 0.73318780 -0.22659501
VERTEX2 297 -1.82629091 0.59010085 -0.23834885
VERTEX2 298 -1.20867201 0.44208591 -0.23891862
VERTEX2 299 -0.62725015 0.29117240 -0.17759089
VERTEX2 300 -0.03610549 0.21214951 -0.13522850
VERTEX2 301 0.53115123 0.11888762 -0.19417785
VERTEX2 302 0.82942028 0.05885970 -0.21519719
VERTEX2 303 0.80743190 0.06284114 -0.21117355
VERTEX2 304 1.30514313 -0.04534852 -0.20172662
VERTEX2 305 1.91548269 -0.08168794 -0.01799715
VERTEX2 306 2.54546192 -0.08409027 -0.03606367
VERTEX2 307 3.18569137 -0.12361736 -0.07276975
VERTEX2 308 3.81457309 -0.17836220 -0.12836730
VERTEX2 309 4.45074322 -0.23039895 -0.03545751
VERTEX2 310 5.07919903 -0.25205328 -0.07136605
VERTEX2 311 5.36099042 -0.27429605 0.10366189
VERTEX2 312 5.35866309 -0.27554069 1.09168835
VERTEX2 313 5.36000543 -0.05630511 1.58747696
VERTEX2 314 5.33088492 0.57225344 1.62730230
VERTEX2 315 5.29272563 1.20005349 1.62301314
VERTEX2 316 5.24289639 1.85406437 1.67470539
VERTEX2 317 5.17205929 2.49265787 1.68473383
VERTEX2 318 5.06385323 3.12580450 1.77939153
VERTEX2 319 4.97931885 3.46896426 1.85086459
VERTEX2 320 4.98098210 3.47442183 2.81861064
VERTEX2 321 4.97243090 3.47057837 -2.42567460
VERTEX2 322 4.97115006 3.46784232 -1.43022981
VERTEX2 323 4.98213182 3.45758878 -0.43857234
VERTEX2 324 4.98659605 3.45620951 0.22075406
VERTEX2 325 4.98756902 3.45630321 -0.30738467
VERTEX2 326 5.00333410 3.44481918 -0.90310476
VERTEX2 327 5.00711283 3.42822041 -1.52700440
VERTEX2 328 5.00036539 2.78933201 -1.57375405
VERTEX2 329 4.98778969 2.16246973 -1.63015937
VERTEX2 330 4.94269402 1.54652051 -1.65062835
VERTEX2 331 4.89661316 0.92926547 -1.66637000
VERTEX2 332 4.82603295 0.31472816 -1.68635037
VERTEX2 333 4.80653716 0.16001036 -1.62287407
VERTEX2 334 4.81348653 0.16137371 -0.82988519
VERTEX2 335 4.83058091 0.15657939 0.16113916
VERTEX2 336 4.84331551 0.16125566 1.10231668
VERTEX2 337 4.84780727 0.19205370 2.08132683
VERTEX2 338 4.84492228 0.19399367 3.07086088
VERTEX2 339 4.85605895 0.20113274 -2.16233946
VERTEX2 340 4.85633395 0.19933433 -1.14249297
VERTEX2 341 4.97066723 0.13257582 -0.50873539
VERTEX2 342 5.54811004 -0.16383875 -0.40662745
VERTEX2 343 6.12966273 -0.35704906 -0.27486229
VERTEX2 344 6.72159294 -0.53179017 -0.28413238
VERTEX2 345 6.96114406 -0.59848507 -0.31082274
VERTEX2 346 6.94767118 -0.59430203 -0.95606359
VERTEX2 347 6.95165839 -0.68677461 -1.51292648
VERTEX2 348 6.97908243 -1.28111934 -1.52887479
VERTEX2 349 6.98679519 -1.90473550 -1.56833080
VERTEX2 350 6.98635042 -2.69711338 -1.58720667
VERTEX2 351 6.97643611 -2.97527832 -1.61540947
VERTEX2 352 6.97395332 -2.98818567 -1.90199362
VERTEX2 353 6.96003603 -3.00586397 -2.56453818
VERTEX2 354 6.94395242 -3.01078325 3.11792478
VERTEX2 355 6.92237347 -3.01051291 2.40001648
VERTEX2 356 6.91772330 -3.00263638 1.82732680
VERTEX2 357 6.91947696 -2.99086170 1.17707697
VERTEX2 358 6.91822965 -2.99275119 0.56432399
VERTEX2 359 6.90398667 -2.99918874 -0.04700133
VERTEX2 360 6.88832845 -2.99641215 -0.22199838
VERTEX2 361 6.87880677 -2.99910521 0.70086837
VERTEX2 362 6.95921232 -2.76611676 1.23600959
VERTEX2 363 7.05665177 -2.49570195 1.23010331
VERTEX2 364 6.97998011 -2.15719633 1.84608417
VERTEX2 365 6.91635566 -1.85559398 1.35009468
VERTEX2 366 7.03164639 -1.72025505 0.79715861
VERTEX2 367 7.47895274 -1.26805268 0.79966080
VERTEX2 368 7.92756154 -0.82477305 0.75175592
VERTEX2 369 7.94643193 -0.80119907 0.49997947
VERTEX2 370 7.97087487 -0.79687671 -0.08668213
VERTEX2 371 7.97672819 -0.79979174 -0.63237566
VERTEX2 372 8.41072148 -1.14101163 -0.66012428
VERTEX2 373 8.88867103 -1.49784798 -0.65821394
VERTEX2 374 9.37361157 -1.89285939 -0.71944146
VERTEX2 375 9.73925185 -2.20799049 -0.75072916
VERTEX2 376 9.75425614 -2.21684549 -0.05795794
VERTEX2 377 9.80539432 -2.17924255 0.63571987
VERTEX2 378 10.33550904 -1.77206837 0.68882598
VERTEX2 379 10.80887744 -1.33341529 0.77252081
VERTEX2 380 11.24153328 -0.85926866 0.89071245
VERTEX2 381 11.38493588 -0.67645181 1.03941770
VERTEX2 382 11.38601193 -0.67440882 2.08539023
VERTEX2 383 11.39067565 -0.67719444 3.07315775
VERTEX2 384 11.38969677 -0.67814753 -2.24540968
VERTEX2 385 11.38585361 -0.68487804 -1.21444205
VERTEX2 386 11.49771337 -0.82427349 -0.98921124
VERTEX2 387 11.96134096 -1.23596571 -0.65896473
VERTEX2 388 12.47023236 -1.61282077 -0.64926350
VERTEX2 389 12.95365503 -2.00992733 -0.73079477
VERTEX2 390 13.00390230 -2.05328711 -0.25436906
VERTEX2 391 12.86461336 -2.05178354 0.12664149
VERTEX2 392 12.86053590 -2.05201368 1.17002143
VERTEX2 393 12.88367136 -1.85395492 2.04971186
VERTEX2 394 12.87436013 -1.84626872 3.04409068
VERTEX2 395 13.11366990 -1.80009158 -2.90136897
VERTEX2 396 13.11286919 -1.80020453 -2.90116213
VERTEX2 397 13.11120487 -1.80010385 -2.91178113
VERTEX2 398 13.10913472 -1.80101586 -2.71405693
VERTEX2 399 13.01325635 -1.87830764 -2.41493847
VERTEX2 400 12.52653023 -2.31534320 -2.36457134
VERTEX2 401 12.07012062 -2.72999573 -2.45756484
VERTEX2 402 11.52356240 -3.02631854 -2.72547358
VERTEX2 403 10.96307805 -3.26842803 -2.75990554
VERTEX2 404 10.42818752 -3.46568139 -2.83940239
VERTEX2 405 10.44564778 -3.45698261 -2.30648876
VERTEX2 406 10.44861686 -3.43762599 -1.32979779
VERTEX2 407 10.57394403 -3.77436050 -1.20239080
VERTEX2 408 10.78941550 -4.34882115 -1.24103167
VERTEX2 409 10.87679407 -4.62907984 -1.34143071
VERTEX2 410 10.87691443 -4.62235219 -1.97107513
VERTEX2 411 10.88650627 -4.60472730 -2.56206491
VERTEX2 412 10.39466648 -4.80987498 -2.76607391
VERTEX2 413 9.82067039 -5.01450733 -2.84652586
VERTEX2 414 9.24127523 -5.20895574 -2.74374244
VERTEX2 415 8.63551679 -5.45563907 -2.73594985
VERTEX2 416 8.34670811 -5.58881820 -2.79030342
VERTEX2 417 8.05269464 -5.57702024 3.06997088
VERTEX2 418 7.61217254 -5.54046673 3.02561243
VERTEX2 419 7.61171967 -5.54058710 -2.82504985
VERTEX2 420 7.66057818 -5.51795734 -2.60777861
VERTEX2 421 7.66138886 -5.51664891 -1.63863093
VERTEX2 422 7.65649000 -5.52374175 -0.39747838
VERTEX2 423 7.66332955 -5.52428962 -0.05118100
VERTEX2 424 7.66633426 -5.52477920 -0.05025793
VERTEX2 425 7.66157577 -5.52755783 -0.03796423
VERTEX2 426 7.66442649 -5.52800269 -0.04652573
VERTEX2 427 7.69983167 -5.52932824 -0.04284937
VERTEX2 428 8.36503781 -5.54113952 -0.04781897
VERTEX2 429 9.01310507 -5.58132024 -0.08806931
VERTEX2 430 9.35834215 -5.61732854 -0.13363746
VERTEX2 431 9.34092799 -5.61549594 -0.08083290
VERTEX2 432 9.35750679 -5.62105369 -0.71072113
VERTEX2 433 9.36430492 -5.63007879 -1.38609077
VERTEX2 434 9.33676294 -6.16566977 -1.61327178
VERTEX2 435 9.31561242 -6.80516106 -1.64088558
VERTEX2 436 9.24917604 -7.44209176 -1.64901789
VERTEX2 437 9.20835312 -8.09450483 -1.64021737
VERTEX2 438 9.16414283 -8.56756925 -1.67013365
VERTEX2 439 9.16133787 -8.57890432 -2.10480770
VERTEX2 440 9.16968114 -8.57209461 -2.74685719
VERTEX2 441 9.19031390 -8.56967723 2.91547556
VERTEX2 442 9.19492615 -8.57212123 2.28790660
VERTEX2 443 9.19495690 -8.57256955 1.72267666
VERTEX2 444 9.19776783 -8.55633150 1.13285587
VERTEX2 445 9.20190692 -8.55226038 0.47656103
VERTEX2 446 9.19875197 -8.55428435 0.67893842
VERTEX2 447 9.20980164 -8.53197914 1.31217069
VERTEX2 448 9.34958047 -7.90756828 1.32987330
VERTEX2 449 9.47205065 -7.26884071 1.43141495
VERTEX2 450 9.55572182 -6.62996012 1.44523784
VERTEX2 451 9.60090509 -6.15793019 1.48788836
VERTEX2 452 9.60105710 -6.15594041 1.10987586
VERTEX2 453 9.59774336 -6.16216632 0.48774261
VERTEX2 454 9.86184911 -6.13776812 0.06539856
VERTEX2 455 10.45732802 -6.10430212 0.04483156
VERTEX2 456 11.08676388 -6.09023346 -0.01974717
VERTEX2 457 11.43869515 -6.10719373 -0.10744624
VERTEX2 458 11.43361164 -6.10476541 -0.75328741
VERTEX2 459 11.42438914 -6.06976078 -1.36142768
VERTEX2 460 11.41000538 -6.46748742 -1.61839198
VERTEX2 461 11.35111125 -7.08389170 -1.70630294
VERTEX2 462 11.27185793 -7.59348410 -1.74628486
VERTEX2 463 11.28339224 -7.56998682 -0.90593959
VERTEX2 464 11.54087363 -7.63882226 -0.22776425
VERTEX2 465 12.12772547 -7.76278260 -0.21999224
VERTEX2 466 12.68457002 -7.90552428 -0.27560540
VERTEX2 467 13.25921811 -8.07861261 -0.31904335
VERTEX2 468 13.87124048 -8.28555703 -0.35462704
VERTEX2 469 14.46661500 -8.54181950 -0.43725334
VERTEX2 470 14.92375607 -8.75014541 -0.41808270
VERTEX2 471 14.93193110 -8.75441054 -0.61747057
VERTEX2 472 14.94887088 -8.77727290 -1.24918257
VERTEX2 473 14.95013089 -8.78300407 -1.88881084
VERTEX2 474 14.94948509 -8.78383163 -2.51919535
VERTEX2 475 14.95232428 -8.78339833 -3.09273695
VERTEX2 476 14.95475901 -8.78368923 2.53950075
VERTEX2 477 14.95872796 -8.79115873 1.98020558
VERTEX2 478 14.95949074 -8.79941958 1.35340095
VERTEX2 479 14.95921355 -8.80007335 0.89928955
VERTEX2 480 14.96022886 -8.79769417 1.46153160
VERTEX2 481 14.95649067 -8.78265003 2.46391173
VERTEX2 482 14.96412799 -8.78557392 2.80016772
VERTEX2 483 14.97406376 -8.78897697 2.79484268
VERTEX2 484 14.54881336 -8.63872366 2.83042686
VERTEX2 485 13.94836827 -8.45935686 2.82824034
VERTEX2 486 13.34454233 -8.25602579 2.83792524
VERTEX2 487 12.73304171 -8.08625950 2.86639313
VERTEX2 488 12.11917894 -7.91476162 2.90273558
VERTEX2 489 11.64904843 -7.81504772 2.93340446
VERTEX2 490 11.65209576 -7.81469906 -2.86455194
VERTEX2 491 11.65581853 -7.80960656 -1.92822493
VERTEX2 492 11.64304413 -8.03979405 -1.62540645
VERTEX2 493 11.59151866 -8.64480348 -1.68060726
VERTEX2 494 11.51464160 -9.25444309 -1.74221692
VERTEX2 495 11.45578958 -9.87763633 -1.63502803
VERTEX2 496 11.42228595 -10.50180202 -1.51729566
VERTEX2 497 11.42547057 -11.11903148 -1.60335065
VERTEX2 498 11.36712157 -11.74057583 -1.70517722
VERTEX2 499 11.24698886 -12.36791326 -1.72221901
VERTEX2 500 11.31408354 -12.93331607 -1.39334555
VERTEX2 501 11.39837941 -13.51153012 -1.46532687
VERTEX2 502 11.43364924 -14.20506491 -1.54984244
VERTEX2 503 11.43644616 -14.65055143 -1.56683823
VERTEX2 504 11.44185753 -14.63445949 -0.71055708
VERTEX2 505 11.67950606 -14.65777810 -0.08887088
VERTEX2 506 12.27214499 -14.73017739 -0.24145443
VERTEX2 507 12.85519469 -14.89078606 -0.32003286
VERTEX2 508 13.42676922 -15.09322039 -0.33332501
VERTEX2 509 14.04513050 -15.31509381 -0.38919282
VERTEX2 510 14.39902298 -15.46641240 -0.40306429
VERTEX2 511 14.39620189 -15.44268736 0.47235763
VERTEX2 512 14.41912263 -15.39237496 1.66980162
VERTEX2 513 14.41307831 -15.37547699 2.62539323
VERTEX2 514 14.34768695 -15.35825495 2.85173393
VERTEX2 515 13.73689843 -15.18791650 2.85287341
VERTEX2 516 13.15150542 -15.00417938 2.86879434
VERTEX2 517 12.55868210 -14.86623817 2.89699869
VERTEX2 518 11.96617016 -14.72517203 2.92134725
VERTEX2 519 11.44454270 -14.61017048 2.90563672
VERTEX2 520 11.27846011 -14.56973458 -2.97915028
VERTEX2 521 11.29835257 -14.54711726 -1.97555472
VERTEX2 522 11.23729748 -14.95521813 -1.71150339
VERTEX2 523 11.15502063 -15.57856757 -1.71892484
VERTEX2 524 11.05952222 -16.15599264 -1.76088373
VERTEX2 525 10.96384739 -16.69995739 -1.73723224
VERTEX2 526 10.85634512 -17.27076359 -1.79603055
VERTEX2 527 10.71740828 -17.85214517 -1.83084427
VERTEX2 528 10.54380346 -18.42140250 -1.90682920
VERTEX2 529 10.34057170 -19.02655399 -1.93519344
VERTEX2 530 10.10222385 -19.62946138 -1.96534628
VERTEX2 531 9.84102583 -20.20830559 -2.04524838
VERTEX2 532 9.74574442 -20.39560786 -1.99471709
VERTEX2 533 9.74307537 -20.38352507 -0.99496920
VERTEX2 534 9.74370164 -20.38391094 -0.32794283
VERTEX2 535 9.74708235 -20.38415225 -0.32830262
VERTEX2 536 10.10478914 -20.46264018 -0.19758087
VERTEX2 537 10.71331972 -20.60184110 -0.25557399
VERTEX2 538 11.27547572 -20.76252493 -0.28268612
VERTEX2 539 11.88619803 -20.96228206 -0.34745284
VERTEX2 540 12.47637221 -21.20651741 -0.44034599
VERTEX2 541 13.06653542 -21.42556840 -0.27804397
VERTEX2 542 13.69928428 -21.55790814 -0.22234341
VERTEX2 543 13.82127697 -21.58655517 -0.25201084
VERTEX2 544 13.84244267 -21.58407359 0.38499230
VERTEX2 545 13.86541807 -21.54081216 1.45116910
VERTEX2 546 13.88350845 -21.58586096 2.27818824
VERTEX2 547 13.89176930 -21.58518267 -2.98334766
VERTEX2 548 13.90520985 -21.57627338 -2.06047322
VERTEX2 549 13.90669911 -21.56497172 -1.25387924
VERTEX2 550 13.90517821 -21.54411354 -1.73368489
VERTEX2 551 13.91337670 -21.52685807 -2.36006594
VERTEX2 552 13.93159305 -21.51744649 -2.99253273
VERTEX2 553 13.79390359 -21.46715284 2.71336015
VERTEX2 554 13.19790629 -21.19201887 2.67789701
VERTEX2 555 12.61482709 -20.92578792 2.76676401
VERTEX2 556 12.00765689 -20.71647706 2.90185889
VERTEX2 557 11.40481931 -20.55467597 2.86063591
VERTEX2 558 10.82628487 -20.40632658 2.94164877
VERTEX2 559 10.83367947 -20.40869905 2.53466637
VERTEX2 560 10.82649848 -20.40104279 2.03370695
VERTEX2 561 10.80311705 -20.37901420 2.53890339
VERTEX2 562 10.62428694 -20.38169269 -3.10075629
VERTEX2 563 10.05250940 -20.31177809 2.99058841
VERTEX2 564 9.44593570 -20.22936114 3.03933696
VERTEX2 565 8.84848521 -20.16659525 2.98159929
VERTEX2 566 8.91207856 -20.18536758 -2.51839606
VERTEX2 567 8.82293564 -20.19326259 -1.72458315
VERTEX2 568 8.77730900 -20.70994641 -1.66321527
VERTEX2 569 8.73316807 -21.28676657 -1.70339148
VERTEX2 570 8.67281334 -21.86035235 -1.69798555
VERTEX2 571 8.62476181 -22.21453988 -1.74633629
VERTEX2 572 8.59985909 -22.23322183 -1.99087181
VERTEX2 573 8.56767963 -22.30810022 -1.71598546
VERTEX2 574 8.59553962 -22.34685191 -0.78226402
VERTEX2 575 8.73253752 -22.38946431 0.16496533
VERTEX2 576 8.73423415 -22.39073953 1.19129859
VERTEX2 577 8.72635039 -22.37147700 2.16214168
VERTEX2 578 8.71519996 -22.33707695 1.79738208
VERTEX2 579 8.57354584 -21.68518217 1.81211647
VERTEX2 580 8.39539598 -21.04689289 1.88696978
VERTEX2 581 8.18518006 -20.42580447 1.92910831
VERTEX2 582 7.94793763 -19.81477550 1.97203331
VERTEX2 583 7.80981418 -19.50808054 2.05119461
VERTEX2 584 7.80509182 -19.49941129 2.89134904
VERTEX2 585 7.23218405 -19.37385807 3.00843678
VERTEX2 586 6.65127615 -19.31201251 3.10486836
VERTEX2 587 6.03555541 -19.31206001 3.12941778
VERTEX2 588 5.40848187 -19.29680522 3.13308438
VERTEX2 589 4.86706179 -19.32965299 -3.07421775
VERTEX2 590 4.32471342 -19.38205501 -3.00582216
VERTEX2 591 3.79334665 -19.46853122 -3.00799066
VERTEX2 592 3.24825934 -19.55126531 -3.01065885
VERTEX2 593 3.07266530 -19.57616531 -2.80529887
VERTEX2 594 3.11365619 -19.53071200 -1.88754562
VERTEX2 595 3.00923743 -20.13775349 -1.65457672
VERTEX2 596 2.96563082 -20.76055726 -1.67760813
VERTEX2 597 2.88276915 -21.43886228 -1.71744671
VERTEX2 598 2.78884284 -22.03660797 -1.75969295
VERTEX2 599 2.70633747 -22.41310839 -1.82596481
VERTEX2 600 2.70670815 -22.42721351 -1.01970456
VERTEX2 601 2.74656466 -22.45101341 -0.00193079
VERTEX2 602 2.77920026 -22.43734860 1.01265227
VERTEX2 603 2.74185336 -22.20533423 1.78563293
VERTEX2 604 2.67310595 -21.59621173 1.54169046
VERTEX2 605 2.67299131 -20.94831658 1.62434399
VERTEX2 606 2.62346863 -20.30140193 1.66648944
VERTEX2 607 2.62630443 -19.71128376 1.58554383
VERTEX2 608 2.60775807 -19.32543305 1.63010058
VERTEX2 609 2.60367264 -19.30331304 1.96655898
VERTEX2 610 2.59507969 -19.30034185 2.89952108
VERTEX2 611 1.99705085 -19.15831064 2.90262090
VERTEX2 612 1.52207774 -19.03026509 2.90556817
VERTEX2 613 1.55701557 -19.04039405 -2.91355484
VERTEX2 614 1.56830139 -19.03160817 -1.87561135
VERTEX2 615 1.58747303 -19.52320879 -1.57091007
VERTEX2 616 1.60247438 -20.15116535 -1.62199552
VERTEX2 617 1.47180548 -20.75900368 -1.83904798
VERTEX2 618 1.30998820 -21.36713416 -1.82882387
VERTEX2 619 1.15604697 -21.94065055 -1.83009421
VERTEX2 620 0.97959148 -22.51881616 -1.92607169
VERTEX2 621 1.10406189 -22.18482717 -1.97741751
VERTEX2 622 1.22396111 -21.91993719 -2.05224180
VERTEX2 623 1.22319435 -21.92100201 -2.58894647
VERTEX2 624 1.19407736 -21.92106524 3.05206578
VERTEX2 625 1.15284875 -21.90499530 2.39396623
VERTEX2 626 1.12490243 -21.87368383 1.77634235
VERTEX2 627 1.19311421 -21.50169100 1.36579939
VERTEX2 628 1.36477646 -20.87213882 1.26542450
VERTEX2 629 1.52945417 -20.24143270 1.33662728
VERTEX2 630 1.64811244 -19.63098345 1.42175475
VERTEX2 631 1.71415388 -19.09903336 1.44192089
VERTEX2 632 1.71689684 -19.08149677 2.11797656
VERTEX2 633 1.61837225 -19.07610485 -3.07849508
VERTEX2 634 0.95117717 -19.12226991 -3.05100593
VERTEX2 635 0.29789700 -19.14217427 3.09727541
VERTEX2 636 -0.34444549 -19.12271943 3.07978798
VERTEX2 637 -0.97385060 -19.05739442 2.98060829
VERTEX2 638 -1.36484587 -18.98344099 2.95103516
VERTEX2 639 -1.97449676 -18.88959436 3.03136440
VERTEX2 640 -2.58845492 -18.78960987 2.96347221
VERTEX2 641 -3.18788055 -18.68775008 2.95515284
VERTEX2 642 -3.76356681 -18.55930455 2.90984165
VERTEX2 643 -4.24510522 -18.43038321 2.84238925
VERTEX2 644 -4.24746597 -18.43095654 -2.68399909
VERTEX2 645 -4.28102095 -18.57116601 -1.90740697
VERTEX2 646 -4.40764594 -19.17345369 -1.61263479
VERTEX2 647 -4.35600238 -19.80818070 -1.32440813
VERTEX2 648 -4.12650933 -20.42594393 -1.15867311
VERTEX2 649 -3.94695190 -21.01744098 -1.49704367
VERTEX2 650 -4.04071796 -21.64785011 -1.75408157
VERTEX2 651 -4.05667682 -21.79462897 -0.95398152
VERTEX2 652 -3.99105959 -21.82317839 0.07181005
VERTEX2 653 -3.94723039 -21.78277216 1.10310192
VERTEX2 654 -3.96004587 -21.49071052 1.61670322
VERTEX2 655 -3.97793788 -20.94195598 1.61188139
VERTEX2 656 -3.98545555 -20.34434047 1.59943858
VERTEX2 657 -4.10015312 -19.73893796 1.87637590
VERTEX2 658 -4.29902243 -19.12658412 1.86917987
VERTEX2 659 -4.42060267 -18.63673535 1.79798646
VERTEX2 660 -4.42352352 -18.62317456 2.39802065
VERTEX2 661 -4.60198710 -18.60612574 3.05137217
VERTEX2 662 -5.19601202 -18.55538575 3.12093412
VERTEX2 663 -5.78299889 -18.57829323 -3.06127275
VERTEX2 664 -5.79069110 -18.57643240 -2.53804566
VERTEX2 665 -5.80526901 -18.67823376 -1.70446987
VERTEX2 666 -5.86837602 -19.28768595 -1.66734828
VERTEX2 667 -5.91745418 -19.85479180 -1.66274475
VERTEX2 668 -5.97255598 -20.44943469 -1.63698286
VERTEX2 669 -6.01217101 -21.07562424 -1.66213459
VERTEX2 670 -6.10287942 -21.69469949 -1.72163612
VERTEX2 671 -6.14630973 -21.98800098 -1.66667767
VERTEX2 672 -6.05276399 -21.40607103 -1.75581599
VERTEX2 673 -5.99039515 -21.13867580 -1.88639677
VERTEX2 674 -5.97771134 -21.12490665 -2.53460236
VERTEX2 675 -5.95409844 -21.11956411 3.13990433
VERTEX2 676 -5.94757226 -21.12326140 2.51650555
VERTEX2 677 -5.94261015 -21.12991243 1.90060391
VERTEX2 678 -5.91766084 -20.90768416 1.45461651
VERTEX2 679 -5.86155817 -20.32809769 1.51717233
VERTEX2 680 -5.89522596 -19.88057298 1.86201597
VERTEX2 681 -6.05509937 -19.29239791 1.83450555
VERTEX2 682 -6.23628610 -18.68695911 1.88243460
VERTEX2 683 -6.33318680 -18.40396234 2.04190116
VERTEX2 684 -6.28139323 -18.45519196 3.12338432
VERTEX2 685 -6.68588235 -18.62408170 -2.71580577
VERTEX2 686 -7.13392201 -18.76933883 -2.85985675
VERTEX2 687 -7.72885020 -18.93149170 -2.89471505
VERTEX2 688 -8.32750218 -19.06259583 -2.90635285
VERTEX2 689 -8.89227727 -19.21223094 -2.87855912
VERTEX2 690 -9.42817629 -19.39166135 -2.80425583
VERTEX2 691 -9.82393292 -19.53115167 -2.83217229
VERTEX2 692 -9.81240592 -19.52578802 -2.29773734
VERTEX2 693 -9.78736587 -19.60010886 -1.25695416
VERTEX2 694 -9.76111774 -19.67402043 -0.42118658
VERTEX2 695 -9.74522211 -19.66918288 0.37907102
VERTEX2 696 -9.74167264 -19.66678003 1.40488069
VERTEX2 697 -9.75313812 -19.70711568 1.15145039
VERTEX2 698 -9.42262027 -19.48946123 0.49593614
VERTEX2 699 -8.85976517 -19.16383905 0.60967254
VERTEX2 700 -8.34874693 -18.79042862 0.66296040
VERTEX2 701 -7.91789944 -18.41775913 0.72190996
VERTEX2 702 -7.43977881 -18.09180075 0.60653510
VERTEX2 703 -6.92878831 -17.74412876 0.64063144
VERTEX2 704 -6.43789774 -17.35130911 0.65868314
VERTEX2 705 -5.93223056 -16.92093973 0.72920228
VERTEX2 706 -5.50562919 -16.59459129 0.46065268
VERTEX2 707 -5.47934186 -16.59273108 -0.05881824
VERTEX2 708 -5.47001276 -16.59789767 -0.69626988
VERTEX2 709 -5.51180692 -16.55452337 -1.02786854
VERTEX2 710 -5.51741605 -16.54086278 -1.58814182
VERTEX2 711 -5.50382291 -16.55267593 -2.18644365
VERTEX2 712 -5.48768335 -16.53986287 -2.74838695
VERTEX2 713 -5.96031283 -16.59836231 -3.03457575
VERTEX2 714 -6.51335988 -16.58217594 3.05037011
VERTEX2 715 -7.13959875 -16.55419860 -3.12894699
VERTEX2 716 -7.77286599 -16.54139892 3.01651428
VERTEX2 717 -8.39451202 -16.48275115 3.10158207
VERTEX2 718 -9.15814857 -16.37550780 2.92661391
VERTEX2 719 -9.77678253 -16.26970255 3.00145494
VERTEX2 720 -10.39124360 -16.16696804 2.94264037
VERTEX2 721 -11.01077434 -16.06109708 3.01128834
VERTEX2 722 -11.02701482 -16.05906597 3.07841611
VERTEX2 723 -11.04704557 -16.08045931 -2.11560608
VERTEX2 724 -11.04642935 -16.12450360 -1.04750603
VERTEX2 725 -11.01846427 -16.14266557 -0.41360429
VERTEX2 726 -10.69256919 -16.13374640 0.04024337
VERTEX2 727 -10.05557909 -16.08633924 0.07070359
VERTEX2 728 -9.41553656 -16.05333627 0.07183381
VERTEX2 729 -8.77865180 -15.98425387 0.12919842
VERTEX2 730 -8.15689922 -15.88374373 0.16644632
VERTEX2 731 -7.51063517 -15.77501163 0.17864186
VERTEX2 732 -7.36964059 -15.74463301 0.62520145
VERTEX2 733 -7.36767451 -15.74774371 1.62171583
VERTEX2 734 -7.43395404 -15.19387163 1.69980873
VERTEX2 735 -7.50307150 -14.59369534 1.66776117
VERTEX2 736 -7.50386895 -14.58390544 2.26726582
VERTEX2 737 -7.49722350 -14.58468298 3.06797695
VERTEX2 738 -8.07624509 -14.55247155 3.08702502
VERTEX2 739 -8.67993297 -14.46621659 3.02937468
VERTEX2 740 -9.18276500 -14.43323451 3.09260945
VERTEX2 741 -9.16217607 -14.43271872 2.72370878
VERTEX2 742 -9.16120399 -14.43339407 2.07085319
VERTEX2 743 -9.16276940 -14.42690084 1.45397879
VERTEX2 744 -9.15378761 -14.40552446 0.91455743
VERTEX2 745 -9.13409210 -14.39487252 0.32100699
VERTEX2 746 -8.59018356 -14.40563429 -0.15390767
VERTEX2 747 -7.94585806 -14.51090727 -0.18911829
VERTEX2 748 -7.36915821 -14.64499537 -0.25738428
VERTEX2 749 -7.28772565 -14.66406976 0.17194734
VERTEX2 750 -7.27988421 -14.64909643 1.09926801
VERTEX2 751 -7.31820933 -14.37886400 1.73969976
VERTEX2 752 -7.38569974 -13.75726772 1.63627623
VERTEX2 753 -7.43330290 -13.11980736 1.69938463
VERTEX2 754 -7.45095049 -12.48012797 1.53714414
VERTEX2 755 -7.44304826 -11.85124348 1.62320124
VERTEX2 756 -7.41541136 -11.21985648 1.44751407
VERTEX2 757 -7.35141125 -10.57815282 1.55988412
VERTEX2 758 -7.38087816 -10.00520993 1.70300169
VERTEX2 759 -7.38056783 -9.44832855 1.58158060
VERTEX2 760 -7.42921875 -8.84280682 1.69300110
VERTEX2 761 -7.43213589 -8.80997174 1.87342812
VERTEX2 762 -7.50703928 -8.77794581 2.70794313
VERTEX2 763 -8.08149209 -8.68476951 3.00064449
VERTEX2 764 -8.50129408 -8.62029605 2.97301916
VERTEX2 765 -8.48980260 -8.61989441 -2.67095580
VERTEX2 766 -8.49213280 -8.62792320 -1.67095964
VERTEX2 767 -8.48577166 -8.64332392 -0.74040497
VERTEX2 768 -8.45762689 -8.64461679 -0.01828512
VERTEX2 769 -7.82276742 -8.54580277 0.13851331
VERTEX2 770 -7.17034922 -8.47665105 0.07130360
VERTEX2 771 -7.08122215 -8.46785549 0.63161122
VERTEX2 772 -7.07890435 -8.46010623 1.49890569
VERTEX2 773 -7.06338970 -7.88443249 1.58463825
VERTEX2 774 -7.08338728 -7.34080133 1.60667837
VERTEX2 775 -7.08173033 -7.34755016 2.45138060
VERTEX2 776 -7.29029333 -7.32508066 3.06862975
VERTEX2 777 -7.90856706 -7.29135026 3.12795225
VERTEX2 778 -8.52607959 -7.28915387 3.10726137
VERTEX2 779 -9.14107494 -7.27634929 3.12521927
VERTEX2 780 -9.34810922 -7.26122160 2.99480144
VERTEX2 781 -9.34224967 -7.26324030 2.42101050
VERTEX2 782 -9.47019470 -6.99788083 1.99113254
VERTEX2 783 -9.71180653 -6.42644939 1.99063452
VERTEX2 784 -9.81394116 -6.19992358 1.96941452
VERTEX2 785 -9.81511438 -6.17501506 1.41768546
VERTEX2 786 -9.80778959 -6.14989666 0.82960907
VERTEX2 787 -9.79192830 -6.13328006 0.33915714
VERTEX2 788 -9.76724710 -6.13467097 -0.28972281
VERTEX2 789 -9.75792901 -6.14181130 -0.84146651
VERTEX2 790 -9.44770310 -6.53242315 -0.90852026
VERTEX2 791 -9.03818424 -7.00854607 -0.80972857
VERTEX2 792 -8.79735634 -7.21804296 -0.10488529
VERTEX2 793 -8.18228101 -7.26309986 -0.05996038
VERTEX2 794 -7.54314048 -7.28448549 0.01143534
VERTEX2 795 -7.56831192 -7.30346286 0.44117949
VERTEX2 796 -7.57624614 -7.30678360 1.10105631
VERTEX2 797 -7.50604286 -6.99761508 1.36148188
VERTEX2 798 -7.37922715 -6.37062468 1.41179669
VERTEX2 799 -7.30069815 -5.72623927 1.47770011
VERTEX2 800 -7.25522623 -5.08020266 1.55078222
VERTEX2 801 -7.27434080 -4.45026445 1.63677633
VERTEX2 802 -7.33617787 -3.82736620 1.69453707
VERTEX2 803 -7.32702693 -3.20038439 1.52993239
VERTEX2 804 -7.31497269 -2.57462354 1.58588071
VERTEX2 805 -7.35625525 -1.94634279 1.66220782
VERTEX2 806 -7.42379985 -1.35037600 1.70365484
VERTEX2 807 -7.45339565 -1.16677303 1.99176806
VERTEX2 808 -7.45817163 -1.16674022 2.94009616
VERTEX2 809 -8.05008825 -1.14535744 3.08477816
VERTEX2 810 -8.66886295 -1.02998303 2.94463145
VERTEX2 811 -9.26908652 -0.92607701 2.94135362
VERTEX2 812 -9.27130925 -0.92567541 -2.61005538
VERTEX2 813 -9.28098005 -0.94800789 -1.63474962
VERTEX2 814 -9.27438267 -0.95309267 -0.64252690
VERTEX2 815 -9.24986806 -0.96100399 0.27673550
VERTEX2 816 -9.24141131 -0.95623375 0.95788337
VERTEX2 817 -9.23044343 -0.94913172 0.28911302
VERTEX2 818 -9.00773979 -0.98017165 -0.19977928
VERTEX2 819 -8.41509930 -1.10030484 -0.18565398
VERTEX2 820 -7.81997515 -1.22449436 -0.22687996
VERTEX2 821 -7.27233643 -1.34835599 -0.21107563
VERTEX2 822 -7.22143910 -1.35542199 0.55040907
VERTEX2 823 -7.22055384 -1.34412693 1.46966365
VERTEX2 824 -7.16486956 -0.72454680 1.39035477
VERTEX2 825 -7.02940591 -0.10222279 1.36072117
VERTEX2 826 -6.98051513 0.52719530 1.52371653
VERTEX2 827 -6.92475835 1.14846450 1.47511803
VERTEX2 828 -6.87878678 1.77698134 1.51070706
VERTEX2 829 -6.82605471 2.37962156 1.47097621
VERTEX2 830 -6.75948299 2.98781159 1.46267431
VERTEX2 831 -6.67332534 3.56467777 1.41590336
VERTEX2 832 -6.59092451 4.12717027 1.41236335
VERTEX2 833 -6.55063280 4.38143800 1.55005462
VERTEX2 834 -6.55200446 4.38604651 2.60483109
VERTEX2 835 -6.56332096 4.38719086 -2.90060153
VERTEX2 836 -6.57545244 4.37665760 -1.95743621
VERTEX2 837 -6.57205193 4.35944626 -0.92108765
VERTEX2 838 -6.56122224 4.35290503 -0.05890400
VERTEX2 839 -6.56162781 4.35309372 -0.27717746
VERTEX2 840 -6.55147765 4.34536038 -0.83983930
VERTEX2 841 -6.54425562 4.33132661 -1.45693954
VERTEX2 842 -6.56702478 4.08624183 -1.68777859
VERTEX2 843 -6.63761794 3.52248953 -1.69031963
VERTEX2 844 -6.70442347 2.89681243 -1.69835495
VERTEX2 845 -6.78975592 2.27138427 -1.71309480
VERTEX2 846 -6.86715593 1.64185182 -1.71138418
VERTEX2 847 -6.96853540 1.01980343 -1.73815112
VERTEX2 848 -6.99657381 0.82474165 -1.25782817
VERTEX2 849 -6.99699795 0.82490835 -0.33584725
VERTEX2 850 -6.64275197 0.82614559 0.01744747
VERTEX2 851 -6.01618950 0.80849643 -0.07512079
VERTEX2 852 -5.38992959 0.75564094 -0.06062716
VERTEX2 853 -4.79336068 0.72116043 -0.08847855
VERTEX2 854 -4.20428229 0.66129862 -0.08641654
VERTEX2 855 -3.60762459 0.61849332 -0.08816720
VERTEX2 856 -2.95092303 0.54148810 -0.12901746
VERTEX2 857 -2.29537466 0.46066518 -0.13872001
VERTEX2 858 -1.64590784 0.34713980 -0.19341218
VERTEX2 859 -1.12458856 0.24996104 -0.20043654
VERTEX2 860 -1.09592257 0.26219258 0.64958343
VERTEX2 861 -1.08148524 0.37373684 1.56356131
VERTEX2 862 -1.05047663 1.03492747 1.50376479
VERTEX2 863 -1.00008404 1.68094798 1.47112420
VERTEX2 864 -0.91950654 2.29332067 1.46886757
VERTEX2 865 -0.88466785 2.90628540 1.52634007
VERTEX2 866 -0.84600846 3.49377276 1.52509047
VERTEX2 867 -0.84018505 3.65894639 1.70612015
VERTEX2 868 -0.84718355 3.66759375 2.72923016
VERTEX2 869 -0.83397234 3.66791742 -2.57627499
VERTEX2 870 -0.81184513 3.68005770 -1.57750713
VERTEX2 871 -0.79582710 3.66938289 -0.60444309
VERTEX2 872 -0.77627018 3.65547613 0.08040281
VERTEX2 873 -0.74711070 3.64598206 -0.49251648
VERTEX2 874 -0.72946559 3.63026736 -1.05228026
VERTEX2 875 -0.72418306 3.61808351 -1.63896412
VERTEX2 876 -0.84103774 3.06054802 -1.79659046
VERTEX2 877 -0.99042949 2.51657426 -1.88127857
VERTEX2 878 -1.04004270 2.31555666 -1.49836687
VERTEX2 879 -0.93557112 1.67902678 -1.44734624
VERTEX2 880 -0.89755294 1.23112339 -1.56002941
VERTEX2 881 -0.89823446 1.28149220 -1.55468302
VERTEX2 882 -0.95125335 0.64159751 -1.80116963
VERTEX2 883 -1.16425474 0.04370719 -1.99183374
VERTEX2 884 -1.32182195 -0.29131091 -2.05874243
VERTEX2 885 -1.32184155 -0.29049272 -1.47704681
VERTEX2 886 -1.30861637 -0.30270495 -0.45878237
VERTEX2 887 -1.27995844 -0.31362233 0.55416005
VERTEX2 888 -1.27189503 -0.29625276 1.53984056
VERTEX2 889 -1.27056384 -0.30015861 2.43879329
VERTEX2 890 -1.58558491 -0.15216238 2.71302563
VERTEX2 891 -2.12368336 0.10716349 2.64288908
VERTEX2 892 -2.65828325 0.41844197 2.60746744
VERTEX2 893 -3.21220354 0.70617693 2.84392680
VERTEX2 894 -3.82667750 0.80993194 3.06511510
VERTEX2 895 -4.42821296 0.75348914 -2.91969059
VERTEX2 896 -4.44814488 0.74848253 -2.44117451
VERTEX2 897 -4.72838019 0.32313821 -2.16887857
VERTEX2 898 -5.07250700 -0.18731242 -2.15337241
VERTEX2 899 -5.35272862 -0.59760586 -2.22109388
VERTEX2 900 -5.75880591 -1.14387905 -2.22343832
VERTEX2 901 -6.12444807 -1.59037218 -2.28773509
VERTEX2 902 -6.53424149 -2.08457648 -2.26239785
VERTEX2 903 -6.84497127 -2.46519209 -2.30703372
VERTEX2 904 -6.84556450 -2.46608190 -1.60383584
VERTEX2 905 -6.82674219 -2.95474497 -1.54831092
VERTEX2 906 -6.78714613 -3.52115613 -1.48251295
VERTEX2 907 -6.72536022 -4.09020073 -1.49060284
VERTEX2 908 -6.67249332 -4.70917040 -1.46577373
VERTEX2 909 -6.60552903 -5.31809176 -1.48363869
VERTEX2 910 -6.63140768 -5.44582945 -1.85342413
VERTEX2 911 -6.78466339 -6.01671032 -1.79247968
VERTEX2 912 -6.89892747 -6.57936298 -1.77979632
VERTEX2 913 -7.00448242 -7.11988930 -1.77178504
VERTEX2 914 -7.12341221 -7.70683695 -1.79534614
VERTEX2 915 -7.24060220 -8.21486858 -1.83194666
VERTEX2 916 -7.17441930 -8.45427262 -1.28414290
VERTEX2 917 -7.02841268 -9.09772078 -1.53835726
VERTEX2 918 -7.04212561 -9.61308357 -1.61373058
VERTEX2 919 -7.06785897 -10.23450842 -1.65688110
VERTEX2 920 -7.12440571 -10.84691369 -1.67429386
VERTEX2 921 -7.18964704 -11.46075208 -1.72743387
VERTEX2 922 -7.28321446 -12.06115106 -1.75451779
VERTEX2 923 -7.39405685 -12.62109321 -1.81775403
VERTEX2 924 -7.51764243 -13.10935511 -1.80083123
VERTEX2 925 -7.51920843 -13.10218113 -1.29606920
VERTEX2 926 -7.35185936 -13.65978083 -1.27986922
VERTEX2 927 -7.17727000 -14.24585365 -1.30319115
VERTEX2 928 -7.01151253 -14.84740259 -1.31215063
VERTEX2 929 -6.85232921 -15.44616930 -1.31308905
VERTEX2 930 -6.69589516 -16.07463216 -1.39558302
VERTEX2 931 -6.60055090 -16.69897695 -1.47573726
VERTEX2 932 -6.54522765 -17.32436374 -1.53511436
VERTEX2 933 -6.53273511 -17.93551602 -1.59965590
VERTEX2 934 -6.54019132 -18.41485755 -1.60943579
VERTEX2 935 -6.53736477 -18.42707545 -0.92699875
VERTEX2 936 -6.53295259 -18.42855176 0.01817301
VERTEX2 937 -5.99226561 -18.39552464 0.08081122
VERTEX2 938 -5.39686017 -18.40300554 -0.09287962
VERTEX2 939 -4.77284585 -18.45401268 -0.06537717
VERTEX2 940 -4.16019166 -18.52068865 -0.15131400
VERTEX2 941 -3.55408320 -18.62786589 -0.20503549
VERTEX2 942 -3.03408027 -18.73648300 -0.20060049
VERTEX2 943 -2.42339055 -18.86203158 -0.11234215
VERTEX2 944 -1.80947707 -18.93679327 -0.16906120
VERTEX2 945 -1.18712451 -19.05724261 -0.22423866
VERTEX2 946 -1.01244014 -19.09933746 -0.15996881
VERTEX2 947 -0.60528534 -19.03121558 0.16816971
VERTEX2 948 -0.03475868 -18.93478505 0.14896664
VERTEX2 949 0.56518292 -18.89293574 -0.00676477
VERTEX2 950 1.19344215 -18.92123755 -0.24636100
VERTEX2 951 1.79587742 -19.08624249 -0.31856009
VERTEX2 952 2.39805832 -19.25427694 -0.06783835
VERTEX2 953 3.03316348 -19.27864791 0.01234323
VERTEX2 954 3.65942223 -19.26358693 0.00509001
VERTEX2 955 4.25090810 -19.30214744 -0.15610340
VERTEX2 956 4.80335400 -19.37415868 -0.15866557
VERTEX2 957 5.33625692 -19.46417136 -0.24669467
VERTEX2 958 5.80343796 -19.57077881 -0.27374747
VERTEX2 959 6.23189913 -19.68326930 -0.34025131
VERTEX2 960 6.81692304 -19.83759110 -0.26008532
VERTEX2 961 7.39459181 -20.00305697 -0.28690840
VERTEX2 962 8.01682886 -20.12467624 -0.22101552
VERTEX2 963 8.63873581 -20.19811245 -0.03395749
VERTEX2 964 9.26451456 -20.23171383 -0.09758001
VERTEX2 965 9.88639932 -20.30289768 -0.10423810
VERTEX2 966 10.33288705 -20.35556212 -0.16304233
VERTEX2 967 10.36707976 -20.34810808 0.69091111
VERTEX2 968 10.37505133 -20.34034367 1.58822946
VERTEX2 969 10.37804924 -20.36984853 1.64786370
VERTEX2 970 10.38118536 -20.39956159 1.64627843
VERTEX2 971 10.35510377 -20.06452182 1.64632855
VERTEX2 972 10.30673104 -19.47654146 1.65186617
VERTEX2 973 10.37707662 -18.89050893 1.36672736
VERTEX2 974 10.50715423 -18.28374499 1.39844167
VERTEX2 975 10.60915875 -17.67318770 1.40311137
VERTEX2 976 10.70294146 -17.06846913 1.41576289
VERTEX2 977 10.82815051 -16.44915094 1.38943404
VERTEX2 978 10.93874922 -15.83628128 1.43534640
VERTEX2 979 11.04326609 -15.22736268 1.42300810
VERTEX2 980 11.13083115 -14.62184931 1.46985603
VERTEX2 981 11.20951242 -14.02703553 1.47668829
VERTEX2 982 11.25689148 -13.49934894 1.52156931
VERTEX2 983 11.29608828 -12.90084655 1.51816463
VERTEX2 984 11.31298231 -12.30510523 1.57549858
VERTEX2 985 11.31355221 -11.70863559 1.59574063
VERTEX2 986 11.28793918 -11.08890963 1.63202576
VERTEX2 987 11.26465903 -10.47063410 1.59527215
VERTEX2 988 11.25682456 -9.85248805 1.60891464
VERTEX2 989 11.23193279 -9.23978978 1.61649259
VERTEX2 990 11.21496480 -8.63028363 1.60564800
VERTEX2 991 11.18955722 -8.01738513 1.63041399
VERTEX2 992 11.17485391 -7.43225711 1.59776752
VERTEX2 993 11.15111406 -6.81780628 1.63046554
VERTEX2 994 11.12529766 -6.23413569 1.62047045
VERTEX2 995 11.08473780 -5.65007519 1.66777424
VERTEX2 996 11.01656189 -5.05142768 1.69493472
VERTEX2 997 10.96236666 -4.41392688 1.63055678
VERTEX2 998 10.93682231 -4.01823792 1.65245277
VERTEX2 999 10.97121234 -4.04518602 2.37039772
VERTEX2 1000 10.50931811 -3.69749225 2.51906915
VERTEX2 1001 10.07524351 -3.31428361 2.19824772
VERTEX2 1002 9.71049164 -2.86014780 2.29100422
VERTEX2 1003 9.36173381 -2.37883540 2.11150632
VERTEX2 1004 9.01527216 -1.84933239 2.16972313
VERTEX2 1005 8.65472283 -1.36222400 2.23212444
VERTEX2 1006 8.25220137 -0.89174767 2.30945875
VERTEX2 1007 7.83346866 -0.47323095 2.40106321
VERTEX2 1008 7.59497641 -0.26272142 2.56051388
VERTEX2 1009 7.49745552 -0.24953547 3.03325032
VERTEX2 1010 6.93028452 -0.20257093 3.08570881
VERTEX2 1011 6.31235171 -0.17266301 3.04248516
VERTEX2 1012 5.70021870 -0.11852543 3.08428246
VERTEX2 1013 5.06274704 -0.13064389 -3.08405353
VERTEX2 1014 4.45091945 -0.09187403 3.02366203
VERTEX2 1015 3.82722844 -0.06176930 3.10799366
VERTEX2 1016 3.06020037 -0.03522159 3.11468135
VERTEX2 1017 2.47492603 -0.03011864 3.05746366
VERTEX2 1018 1.91628494 0.02386322 3.06470927
VERTEX2 1019 1.32126777 0.04001790 3.12421062
VERTEX2 1020 0.70580136 0.06741088 3.11022676
VERTEX2 1021 0.08456770 0.08787739 3.06959681
VERTEX2 1022 0.03109398 0.09154196 3.06234365
VERTEX2 1023 0.03826463 0.09150509 -3.13427988
VERTEX2 1024 -0.58843716 0.09059737 -3.10796851
VERTEX2 1025 -1.21659790 0.05142741 -3.09040945
VERTEX2 1026 -1.37750168 0.04369822 -3.08324582
VERTEX2 1027 -1.36021957 0.05246710 -2.16675852
VERTEX2 1028 -1.37084424 -0.11099417 -1.60332413
VERTEX2 1029 -1.39157589 -0.67444330 -1.62489418
VERTEX2 1030 -1.44562934 -1.28956883 -1.70481009
VERTEX2 1031 -1.54759305 -1.92902353 -1.75850310
VERTEX2 1032 -1.66695288 -2.56871054 -1.75405938
VERTEX2 1033 -1.79891223 -3.20731065 -1.79879616
VERTEX2 1034 -1.84063276 -3.37765120 -2.01240845
VERTEX2 1035 -1.84201157 -3.37888110 -2.63139836
VERTEX2 1036 -1.80987280 -3.39309264 3.08062719
VERTEX2 1037 -2.15121102 -3.26937514 2.84200997
VERTEX2 1038 -2.76458638 -3.15694303 2.93303359
VERTEX2 1039 -3.40539193 -2.99756600 2.90132261
VERTEX2 1040 -3.38055463 -2.99778791 -2.75229319
VERTEX2 1041 -3.35172805 -3.00115751 -1.73623500
VERTEX2 1042 -3.35329899 -3.03915507 -0.74920015
VERTEX2 1043 -3.31713384 -3.07161315 0.21950607
VERTEX2 1044 -3.33323168 -3.09106386 1.21245576
VERTEX2 1045 -3.33763287 -3.10106579 1.09825626
VERTEX2 1046 -3.34985935 -3.11790995 0.71245377
VERTEX2 1047 -3.37060943 -3.12722634 0.15634362
VERTEX2 1048 -3.00750964 -3.19247609 -0.15688056
VERTEX2 1049 -2.36131716 -3.28401649 -0.13984964
VERTEX2 1050 -1.71383035 -3.34785439 -0.06429960
VERTEX2 1051 -1.05702582 -3.41462122 -0.14348131
VERTEX2 1052 -0.43168644 -3.48928328 -0.09055832
VERTEX2 1053 -0.01318853 -3.53949220 -0.14321242
VERTEX2 1054 0.01395375 -3.54207769 0.61881373
VERTEX2 1055 0.01952701 -3.51467814 1.67307153
VERTEX2 1056 0.02974428 -3.52944153 2.67632075
VERTEX2 1057 0.05544497 -3.53208242 -2.61593327
VERTEX2 1058 0.05244513 -3.53566159 -1.69367962
VERTEX2 1059 -0.04119638 -4.12123896 -1.77440944
VERTEX2 1060 -0.17332531 -4.75440713 -1.76939108
VERTEX2 1061 -0.27559640 -5.19482874 -1.89189883
VERTEX2 1062 -0.27814615 -5.19884440 -2.45611227
VERTEX2 1063 -0.25547664 -5.18564985 -3.05382594
VERTEX2 1064 -0.53492189 -5.13523243 2.96412171
VERTEX2 1065 -1.12157591 -5.07258823 3.08610583
VERTEX2 1066 -1.68357691 -5.02441198 3.03001481
VERTEX2 1067 -1.66743401 -5.02344987 -2.82046316
VERTEX2 1068 -1.65355304 -5.01354497 -2.14761862
VERTEX2 1069 -1.65290974 -5.01177010 -1.97717985
VERTEX2 1070 -1.65153262 -5.00930872 -2.51602879
VERTEX2 1071 -2.12231270 -5.26946064 -2.64318293
VERTEX2 1072 -2.57149071 -5.50600072 -2.71178727
VERTEX2 1073 -2.54382832 -5.50507114 3.06037061
VERTEX2 1074 -3.07579207 -5.43727230 3.02606389
VERTEX2 1075 -3.65544197 -5.36550999 3.04268280
VERTEX2 1076 -3.67409825 -5.36430733 -2.83635831
VERTEX2 1077 -3.68632916 -5.38789275 -2.03070991
VERTEX2 1078 -3.91931349 -5.99857633 -1.98558647
VERTEX2 1079 -4.14699086 -6.56617210 -1.92349577
VERTEX2 1080 -4.15121671 -6.57776520 -2.41115713
VERTEX2 1081 -4.57563886 -6.87297086 -2.53443996
VERTEX2 1082 -4.74391088 -6.99249427 -2.25387056
VERTEX2 1083 -4.73952756 -7.02411063 -1.22368092
VERTEX2 1084 -4.66902381 -7.05965128 -0.25836825
VERTEX2 1085 -4.67425926 -7.06109640 0.72530754
VERTEX2 1086 -4.32055115 -6.57257523 0.95603179
VERTEX2 1087 -3.94768764 -6.06598683 0.94412683
VERTEX2 1088 -3.59353101 -5.55539237 0.92755413
VERTEX2 1089 -3.53899880 -5.48375721 0.83212281
VERTEX2 1090 -3.52937435 -5.47482339 0.21712999
VERTEX2 1091 -2.99178515 -5.43870371 0.04030433
VERTEX2 1092 -2.37268622 -5.41882807 0.02520518
VERTEX2 1093 -1.80340093 -5.41759574 -0.03981793
VERTEX2 1094 -1.79074971 -5.42946226 -0.44403152
VERTEX2 1095 -1.76031958 -5.45604058 -1.03393078
VERTEX2 1096 -1.76043039 -5.45566742 -1.60532476
VERTEX2 1097 -1.84127224 -5.78057894 -1.82087343
VERTEX2 1098 -2.01419671 -6.37766113 -1.87780275
VERTEX2 1099 -2.21781489 -6.93870836 -1.97412973
VERTEX2 1100 -2.22304395 -6.95216583 -1.61143868
VERTEX2 1101 -2.16469710 -7.20817756 -1.34525831
VERTEX2 1102 -2.16478249 -7.20901318 -1.73858657
VERTEX2 1103 -2.28739615 -7.81135372 -1.77217506
VERTEX2 1104 -2.42052156 -8.44009130 -1.79967625
VERTEX2 1105 -2.57065919 -9.05504422 -1.81737498
VERTEX2 1106 -2.69209199 -9.52476545 -1.84240392
VERTEX2 1107 -2.69205229 -9.52532296 -1.58597950
VERTEX2 1108 -2.65830081 -10.14386993 -1.57794661
VERTEX2 1109 -2.70802323 -10.78027875 -1.68164090
VERTEX2 1110 -2.77964362 -11.38055981 -1.73094112
VERTEX2 1111 -2.94535035 -11.90283490 -1.83196924
VERTEX2 1112 -2.97688441 -12.47446606 -1.48517179
VERTEX2 1113 -2.93892654 -13.10591285 -1.58030393
VERTEX2 1114 -2.94392040 -13.71867766 -1.56295897
VERTEX2 1115 -2.93633235 -14.29802938 -1.57883970
VERTEX2 1116 -2.91897523 -14.94248468 -1.54227001
VERTEX2 1117 -2.91544914 -15.03623416 -1.66966373
VERTEX2 1118 -2.91202521 -15.02970646 -2.27608228
VERTEX2 1119 -2.89979018 -15.02106216 -2.70711056
VERTEX2 1120 -3.45735539 -15.23107602 -2.77038698
VERTEX2 1121 -3.64292106 -15.29873800 -2.88858100
VERTEX2 1122 -3.63770566 -15.30045634 2.84504181
VERTEX2 1123 -4.18840634 -15.12279776 2.86229970
VERTEX2 1124 -4.74595039 -15.00159296 2.96144565
VERTEX2 1125 -5.37122449 -14.88476002 2.97530222
VERTEX2 1126 -5.44969776 -14.87323436 -2.96752598
VERTEX2 1127 -5.44599513 -14.87706740 -1.90879574
VERTEX2 1128 -5.44429406 -14.86806105 -0.92007572
VERTEX2 1129 -5.42659860 -14.87756075 0.09693035
VERTEX2 1130 -4.83612212 -14.80177129 0.11100369
VERTEX2 1131 -4.05837082 -14.91280677 -0.32004734
VERTEX2 1132 -3.44279265 -15.11906766 -0.33933716
VERTEX2 1133 -2.88994759 -15.33780390 -0.37821479
VERTEX2 1134 -2.64032882 -15.43733860 -0.47556164
VERTEX2 1135 -2.63114759 -15.44604223 -1.03231339
VERTEX2 1136 -2.63408612 -15.45241174 -1.59499362
VERTEX2 1137 -2.68446019 -15.76173629 -1.77938571
VERTEX2 1138 -2.83152297 -16.40336035 -1.79589342
VERTEX2 1139 -2.94379193 -16.90135886 -1.86899547
VERTEX2 1140 -2.93468914 -16.87866137 -2.34774076
VERTEX2 1141 -2.91425270 -16.85824810 -2.89489023
VERTEX2 1142 -3.27812875 -16.81962356 3.02415639
VERTEX2 1143 -3.87704223 -16.78067511 3.11366329
VERTEX2 1144 -4.45872533 -16.75387195 3.08314232
VERTEX2 1145 -5.03809778 -16.71575654 3.05776800
VERTEX2 1146 -5.61522661 -16.66592531 3.07760075
VERTEX2 1147 -6.19523897 -16.66328655 -3.13278123
VERTEX2 1148 -6.77360527 -16.66814409 -3.12274938
VERTEX2 1149 -6.81620995 -16.66998549 -2.62450136
VERTEX2 1150 -6.90723001 -16.77375084 -1.81490897
VERTEX2 1151 -6.90466440 -16.78739966 -0.81110888
VERTEX2 1152 -6.88925087 -16.78748416 0.24199071
VERTEX2 1153 -6.87712193 -16.78183162 1.25475571
VERTEX2 1154 -6.93965975 -16.46788733 1.80074802
VERTEX2 1155 -7.07959978 -15.84733418 1.75136853
VERTEX2 1156 -7.18352017 -15.24504965 1.76135524
VERTEX2 1157 -7.31675813 -14.67772207 1.87242237
VERTEX2 1158 -7.44955500 -14.07937575 1.74381527
VERTEX2 1159 -7.51645369 -13.47937436 1.64960065
VERTEX2 1160 -7.54576942 -12.84200016 1.51268509
VERTEX2 1161 -7.45271481 -12.21023034 1.42286238
VERTEX2 1162 -7.36781123 -11.57834131 1.48087857
VERTEX2 1163 -7.31188682 -10.93606789 1.47535852
VERTEX2 1164 -7.27042098 -10.30425802 1.56088408
VERTEX2 1165 -7.26548299 -9.76271876 1.53812534
VERTEX2 1166 -7.26671386 -9.75703931 2.02723316
VERTEX2 1167 -7.21707459 -9.74434659 2.96415122
VERTEX2 1168 -7.17427219 -9.72671831 -2.41531788
VERTEX2 1169 -7.17750016 -9.77658615 -1.59308956
VERTEX2 1170 -7.18034133 -10.36101279 -1.58629152
VERTEX2 1171 -7.17215821 -10.99402997 -1.55444338
VERTEX2 1172 -7.16882575 -11.59117481 -1.61677750
VERTEX2 1173 -7.19067976 -12.21342785 -1.60755002
VERTEX2 1174 -7.22630835 -12.84109782 -1.67615867
VERTEX2 1175 -7.30423600 -13.45432871 -1.70946589
VERTEX2 1176 -7.39270736 -14.07080395 -1.75308996
VERTEX2 1177 -7.50325371 -14.67555442 -1.75100042
VERTEX2 1178 -7.62639191 -15.28944843 -1.79820072
VERTEX2 1179 -7.75609907 -15.89534655 -1.76883277
VERTEX2 1180 -7.80699359 -16.14936714 -1.77579594
VERTEX2 1181 -7.80616716 -16.14291840 -0.94825573
VERTEX2 1182 -7.75400334 -16.15541769 -0.23647382
VERTEX2 1183 -7.14187718 -16.29535995 -0.21115132
VERTEX2 1184 -6.51096843 -16.40110626 -0.14162045
VERTEX2 1185 -5.88501973 -16.50249584 -0.17389906
VERTEX2 1186 -5.24752648 -16.58975117 -0.10777144
VERTEX2 1187 -4.58787559 -16.66725755 -0.14492339
VERTEX2 1188 -3.95472206 -16.74958519 -0.12687437
VERTEX2 1189 -3.28751596 -16.84878538 -0.10538889
VERTEX2 1190 -2.95317582 -16.88487847 -0.09755134
VERTEX2 1191 -2.91952855 -16.88369887 0.82206633
VERTEX2 1192 -2.91527739 -16.80722895 1.61914936
VERTEX2 1193 -2.91658017 -16.21444985 1.48691835
VERTEX2 1194 -2.88327917 -15.64686770 1.52879372
VERTEX2 1195 -2.86317116 -15.03019182 1.58095988
VERTEX2 1196 -2.86540681 -14.41364895 1.40810139
VERTEX2 1197 -2.77092495 -13.80454650 1.41921693
VERTEX2 1198 -2.70915490 -13.18408553 1.67784773
VERTEX2 1199 -2.73380962 -12.57919459 1.46295800
VERTEX2 1200 -2.68504023 -11.95567229 1.53181296
VERTEX2 1201 -2.66796157 -11.34290536 1.58748384
VERTEX2 1202 -2.68566306 -10.72781621 1.61027835
VERTEX2 1203 -2.72284272 -10.14589674 1.52017594
VERTEX2 1204 -2.61664563 -9.55969029 1.37319333
VERTEX2 1205 -2.51547262 -8.99955239 1.40271018
VERTEX2 1206 -2.43730588 -8.41253569 1.46386962
VERTEX2 1207 -2.30768449 -7.80380312 1.37768590
VERTEX2 1208 -2.20286147 -7.18154505 1.44227149
VERTEX2 1209 -2.12325567 -6.56284190 1.44023409
VERTEX2 1210 -2.06551293 -5.94847115 1.46069170
VERTEX2 1211 -1.94666721 -5.33709967 1.38809387
VERTEX2 1212 -1.83911306 -4.72606662 1.43833985
VERTEX2 1213 -1.77927528 -4.11340637 1.51184104
VERTEX2 1214 -1.70642065 -3.38867958 1.28942060
VERTEX2 1215 -1.55006819 -2.80495214 1.34862903
VERTEX2 1216 -1.50708892 -2.25288955 1.56617166
VERTEX2 1217 -1.48071833 -1.67440008 1.54699375
VERTEX2 1218 -1.47483778 -1.08976957 1.49649143
VERTEX2 1219 -1.43321753 -0.44553008 1.52726151
VERTEX2 1220 -1.43420071 0.13588650 1.61820297
VERTEX2 1221 -1.43170304 0.12789886 1.16581079
VERTEX2 1222 -1.42186595 0.13775748 0.56850379
VERTEX2 1223 -1.41007360 0.14072846 0.00887679
VERTEX2 1224 -0.83483564 0.05676735 -0.17403121
VERTEX2 1225 -0.21791117 -0.04773110 -0.16026721
VERTEX2 1226 -0.11278945 -0.06483483 -0.17699821
VERTEX2 1227 -0.11278945 -0.06483483 -0.17766021
