1 14 32 0.00022714 6 
2 1 121 0.00132579 6 
3 19 166 0.00303273 10 
4 154 170 0.00317194 10 
5 19 172 0.00319066 10 
6 25 172 0.00320635 10 
7 25 178 0.00329084 10 
8 32 178 0.00332940 10 
9 32 183 0.00342837 10 
10 44 189 0.00360301 10 
11 44 195 0.00370121 10 
12 50 195 0.00372216 10 
13 50 201 0.00383143 10 
14 50 203 0.00387643 10 
15 61 203 0.00388824 10 
16 136 206 0.00395029 10 
17 61 209 0.00401218 10 
18 67 209 0.00410204 10 
19 67 220 0.00423110 10 
20 81 220 0.00423781 10 
21 81 226 0.00425603 10 
22 87 226 0.00436706 10 
23 87 231 0.00436913 10 
24 94 231 0.00451260 10 
25 226 231 0.00448314 10 
26 194 236 0.00454026 10 
27 94 241 0.00466805 10 
28 101 241 0.00476144 10 
29 101 247 0.00476342 10 
30 107 247 0.00487451 10 
31 107 254 0.00490129 10 
32 114 254 0.00502449 10 
33 107 256 0.00496406 10 
34 114 256 0.00509784 10 
35 107 258 0.00501021 10 
36 114 258 0.00514240 10 
37 124 258 0.00521407 10 
38 126 264 0.00521093 10 
39 168 264 0.00541317 10 
40 121 266 0.00549334 10 
41 126 266 0.00549376 10 
42 126 272 0.00548819 10 
43 132 272 0.00563388 10 
44 132 278 0.00561536 10 
45 138 278 0.00580252 10 
46 138 284 0.00579763 10 
47 151 284 0.00592821 10 
48 151 291 0.00606905 10 
49 276 291 0.00613459 10 
50 151 297 0.00623377 10 
51 157 297 0.00628213 10 
52 163 297 0.00628217 10 
53 166 297 0.00627745 10 
54 129 302 0.00640160 10 
55 19 305 0.00652351 10 
56 157 305 0.00653517 10 
57 163 305 0.00654873 10 
58 166 305 0.00654417 10 
59 172 305 0.00657101 10 
60 19 315 0.00661553 10 
61 25 315 0.00678393 10 
62 172 315 0.00683335 10 
63 172 328 0.00684977 10 
64 19 337 0.00701202 10 
65 25 337 0.00706481 10 
66 172 337 0.00724565 10 
67 19 342 0.00713326 10 
68 25 342 0.00718813 10 
69 172 342 0.00735271 10 
70 178 342 0.00721987 10 
71 25 367 0.00607925 8 
72 32 367 0.00768237 10 
73 178 367 0.00789012 10 
74 183 367 0.00703749 9 
75 25 374 0.00784157 10 
76 32 374 0.00800748 10 
77 178 374 0.00802454 10 
78 183 374 0.00805191 10 
79 32 382 0.00634418 8 
80 183 382 0.00802205 10 
81 32 387 0.00811046 10 
82 183 387 0.00580252 7 
83 189 400 0.00841751 10 
84 101 408 0.00866143 10 
85 189 414 0.00874709 10 
86 348 436 0.00929302 10 
87 44 437 0.00962441 10 
88 195 437 0.00963319 10 
89 159 437 0.00962535 10 
90 144 438 0.00962961 10 
91 44 454 0.01094601 10 
92 189 454 0.00999697 10 
93 275 463 0.00997592 10 
94 337 466 0.01012952 10 
95 44 467 0.01045183 10 
96 50 467 0.01049291 10 
97 195 467 0.00426218 4 
98 31 469 0.01030378 10 
99 372 473 0.01060468 10 
100 195 484 0.01073720 10 
101 124 490 0.01093235 10 
102 60 491 0.01123984 10 
103 44 494 0.01109543 10 
104 50 494 0.01149936 10 
105 195 494 0.01153485 10 
106 201 494 0.01144464 10 
107 50 500 0.01128712 10 
108 201 500 0.01155736 10 
109 203 500 0.01156134 10 
110 61 508 0.01148949 10 
111 203 508 0.01172151 10 
112 209 508 0.01178073 10 
113 362 518 0.01183319 10 
114 61 522 0.01198935 10 
115 203 522 0.01220221 10 
116 209 522 0.01233544 10 
117 61 528 0.01218327 10 
118 67 528 0.01247484 10 
119 81 528 0.01248812 10 
120 209 528 0.01249942 10 
121 220 528 0.01251513 10 
122 67 532 0.00977877 8 
123 81 532 0.01235118 10 
124 220 532 0.01261473 10 
125 295 544 0.01287054 10 
126 67 556 0.01309617 10 
127 380 558 0.01334926 10 
128 178 561 0.01343159 10 
129 67 564 0.01349334 10 
130 81 564 0.01385928 10 
131 220 564 0.01379617 10 
132 258 566 0.01378676 10 
133 67 567 0.01378495 10 
134 81 567 0.01403736 10 
135 220 567 0.01404085 10 
136 183 568 0.01437950 10 
137 67 570 0.01442441 10 
138 81 570 0.01443473 10 
139 220 570 0.01447294 10 
140 81 575 0.01480160 10 
141 220 575 0.01459890 10 
142 81 588 0.01454363 10 
143 87 588 0.01478302 10 
144 226 588 0.01481394 10 
145 430 593 0.01513134 10 
146 87 597 0.01476044 10 
147 94 597 0.01509620 10 
148 226 597 0.01509366 10 
149 75 601 0.01488813 10 
150 87 604 0.01495010 10 
151 94 604 0.01528980 10 
152 44 607 0.01515744 10 
153 94 616 0.01532158 10 
154 134 622 0.01567559 10 
155 556 623 0.01620060 10 
156 109 626 0.01601762 10 
157 94 632 0.01617880 10 
158 94 637 0.01623551 10 
159 101 637 0.01658608 10 
160 101 642 0.01634558 10 
161 107 642 0.01668566 10 
162 101 645 0.01645035 10 
163 107 645 0.01680405 10 
164 565 651 0.01666800 10 
165 238 656 0.01664295 10 
166 101 657 0.01669151 10 
167 101 663 0.01682610 10 
168 107 663 0.01717537 10 
169 114 663 0.01722833 10 
170 101 665 0.01691703 10 
171 107 665 0.01728952 10 
172 114 665 0.01730391 10 
173 525 676 0.01753046 10 
174 107 680 0.01764793 10 
175 107 683 0.01768367 10 
176 114 683 0.01803602 10 
177 107 704 0.01813354 10 
178 114 704 0.01846558 10 
179 52 710 0.01820220 10 
180 107 714 0.01829192 10 
181 114 714 0.01866473 10 
182 107 730 0.01860169 10 
183 114 730 0.01936759 10 
184 665 743 0.01887387 10 
185 451 745 0.01938349 10 
186 121 754 0.01950396 10 
187 126 754 0.01971661 10 
188 730 756 0.02017458 10 
189 121 759 0.01985207 10 
190 126 759 0.02024241 10 
191 126 762 0.01993008 10 
192 132 762 0.02036946 10 
193 282 769 0.02035158 10 
194 132 778 0.02037540 10 
195 132 792 0.02066940 10 
196 132 800 0.02079015 10 
197 138 800 0.02119096 10 
198 446 805 0.02108520 10 
199 138 806 0.02154759 10 
200 320 818 0.02139634 10 
201 138 821 0.02144434 10 
202 138 823 0.02193438 10 
203 151 828 0.02259990 10 
204 341 831 0.02213232 10 
205 151 847 0.02205479 10 
206 122 848 0.02301021 10 
207 90 852 0.02258644 10 
208 177 853 0.02358833 10 
209 151 855 0.02321720 10 
210 177 861 0.02333538 10 
211 470 864 0.02326290 10 
212 533 866 0.02357238 10 
213 59 873 0.02362391 10 
214 741 879 0.02389189 10 
215 532 882 0.02396866 10 
216 556 882 0.02484080 10 
217 395 884 0.02521794 10 
218 28 892 0.02562227 10 
219 44 893 0.02541351 10 
220 151 895 0.02541872 10 
221 658 895 0.02564643 10 
222 151 897 0.02572738 10 
223 138 903 0.02541559 10 
224 138 904 0.02599572 10 
225 537 905 0.02586667 10 
226 132 907 0.02595616 10 
227 138 907 0.02596390 10 
228 132 911 0.02602722 10 
229 121 923 0.02643580 10 
230 126 923 0.02657541 10 
231 107 929 0.02668345 10 
232 114 929 0.02671968 10 
233 809 929 0.02719990 10 
234 249 931 0.02715785 10 
235 105 933 0.02723486 10 
236 107 935 0.02732056 10 
237 114 935 0.02732922 10 
238 575 938 0.02747319 10 
239 101 939 0.02748063 10 
240 107 939 0.02753220 10 
241 682 943 0.02805149 10 
242 101 944 0.02792359 10 
243 94 947 0.02811164 10 
244 101 947 0.02801849 10 
245 87 953 0.02830677 10 
246 94 953 0.02828227 10 
247 226 953 0.02824821 10 
248 731 954 0.02848644 10 
249 81 959 0.02864349 10 
250 87 959 0.02865060 10 
251 220 959 0.02891679 10 
252 226 959 0.02870544 10 
253 687 963 0.02912825 10 
254 67 965 0.02914048 10 
255 81 965 0.03144491 10 
256 220 965 0.02929018 10 
257 88 975 0.02954235 10 
258 236 975 0.02962393 10 
259 61 976 0.02979716 10 
260 67 976 0.02992766 10 
261 209 976 0.03021429 10 
262 374 976 0.03014878 10 
263 932 980 0.03020073 10 
264 50 982 0.03022826 10 
265 61 982 0.03031904 10 
266 201 982 0.03053153 10 
267 203 982 0.03054014 10 
268 496 983 0.03049907 10 
269 671 985 0.06401825 10 
270 44 988 0.03053386 10 
271 50 988 0.03073243 10 
272 195 988 0.03056401 10 
273 201 988 0.03057129 10 
274 44 994 0.03063603 10 
275 189 994 0.03078337 10 
276 195 994 0.03086351 10 
277 965 994 0.03104167 10 
278 32 1003 0.03121034 10 
279 178 1003 0.03132488 10 
280 183 1003 0.03100409 10 
281 242 1007 0.03158283 10 
282 25 1008 0.03161971 10 
283 32 1008 0.03159417 10 
284 178 1008 0.03161201 10 
285 183 1008 0.03159177 10 
286 601 1008 0.03180656 10 
287 25 1010 0.03183573 10 
288 32 1010 0.03205775 10 
289 172 1010 0.03194986 10 
290 178 1010 0.03197973 10 
291 58 1011 0.03170512 10 
292 314 1011 0.03180027 10 
293 19 1016 0.03190569 10 
294 166 1016 0.03221454 10 
295 172 1016 0.03204629 10 
296 183 1016 0.03225440 10 
297 487 1027 0.03220309 10 
298 370 1028 0.03252027 10 
299 151 1029 0.03199890 10 
300 157 1029 0.03270479 10 
301 163 1029 0.03280284 10 
302 166 1029 0.03280673 10 
303 1015 1032 0.03239305 10 
304 701 1036 0.03347103 10 
305 796 1039 0.03403555 10 
306 993 1039 0.03397062 10 
307 301 1046 0.03353336 10 
308 441 1048 0.03376369 10 
309 6 1059 0.03386315 10 
310 214 1083 0.03438391 10 
311 132 1084 0.03493081 10 
312 765 1123 0.03513854 10 
313 201 1125 0.03541459 10 
314 101 1138 0.03562497 10 
315 107 1147 0.03632752 10 
316 114 1147 0.03632705 10 
317 292 1149 0.03655699 10 
318 107 1150 0.03653623 10 
319 114 1150 0.03655115 10 
320 114 1158 0.03671688 10 
321 121 1158 0.03671745 10 
322 516 1159 0.03779463 10 
323 1133 1162 0.03763440 10 
324 1140 1163 0.03790241 10 
325 121 1164 0.03795314 10 
326 126 1164 0.03801348 10 
327 114 1175 0.03820054 10 
328 121 1175 0.03814385 10 
329 923 1175 0.03838170 10 
330 929 1175 0.03841524 10 
331 1158 1175 0.03829647 10 
332 524 1176 0.03856987 10 
333 587 1186 0.03882734 10 
334 101 1188 0.03842034 10 
335 939 1188 0.03856726 10 
336 1138 1188 0.03908150 10 
337 1147 1188 0.03887413 10 
338 1150 1188 0.03880566 10 
339 105 1192 0.03917162 10 
340 924 1195 0.03926345 10 
341 569 1204 0.03998688 10 
342 1050 1210 0.04067237 10 
343 1061 1210 0.04048791 10 
344 1075 1210 0.04051022 10 
345 1084 1210 0.04053512 10 
346 1088 1210 0.04054061 10 
347 1093 1210 0.04054916 10 
348 1098 1210 0.04058741 10 
349 478 1216 0.04044014 10 
350 157 1217 0.04156669 10 
351 163 1217 0.04197128 10 
352 1029 1217 0.04196310 10 
353 1044 1217 0.04188855 10 
354 1050 1217 0.04178707 10 
355 1056 1217 0.04150721 10 
356 822 1226 0.04111710 10 
