1 41 132 0.00108822 5 
2 19 166 0.00292781 10 
3 19 172 0.00307774 10 
4 25 172 0.00316743 10 
5 25 178 0.00333092 10 
6 32 178 0.00335478 10 
7 32 183 0.00337765 10 
8 44 189 0.00922276 10 
9 44 195 0.00968284 10 
10 50 195 0.00387025 10 
11 50 201 0.00388530 10 
12 50 203 0.00378439 10 
13 61 203 0.00376635 10 
14 61 209 0.00616834 10 
15 67 209 0.00875440 10 
16 67 220 0.00417230 10 
17 81 220 0.00643732 10 
18 81 226 0.00453349 10 
19 87 226 0.00421394 10 
20 87 231 0.00559028 10 
21 94 231 0.00430480 10 
22 226 231 0.00581989 10 
23 81 233 0.00436376 10 
24 94 241 0.00531159 10 
25 101 241 0.00454994 10 
26 101 247 0.00468747 10 
27 107 247 0.00487488 10 
28 107 254 0.00608306 10 
29 114 254 0.00482343 10 
30 107 256 0.00488917 10 
31 114 256 0.00498242 10 
32 107 258 0.00504413 10 
33 114 258 0.00575440 10 
34 121 266 0.00527455 10 
35 126 266 0.00594426 10 
36 126 272 0.00523178 10 
37 132 272 0.00840403 10 
38 132 278 0.00536731 10 
39 138 278 0.01089008 10 
40 138 284 0.00793681 10 
41 151 284 0.01097700 10 
42 151 291 0.00999780 10 
43 151 297 0.00691408 10 
44 157 297 0.00583535 10 
45 163 297 0.00586635 10 
46 166 297 0.02239453 10 
47 161 299 0.00590990 10 
48 19 305 0.00605578 10 
49 157 305 0.00606589 10 
50 163 305 0.00612015 10 
51 166 305 0.00611973 10 
52 172 305 0.00615375 10 
53 19 315 0.00633200 10 
54 25 315 0.00631574 10 
55 172 315 0.00634568 10 
56 172 328 0.00648549 10 
57 19 337 0.00523914 8 
58 25 337 0.00663985 10 
59 172 337 0.00679531 10 
60 19 342 0.00602287 9 
61 25 342 0.00676902 10 
62 172 342 0.00348722 5 
63 178 342 0.00677688 10 
64 25 367 0.00427982 6 
65 32 367 0.00431371 6 
66 178 367 0.00428882 6 
67 183 367 0.00507474 7 
68 25 374 0.00878930 10 
69 32 374 0.00748491 10 
70 178 374 0.00534429 7 
71 183 374 0.00667860 9 
72 32 382 0.00603394 8 
73 183 382 0.00762704 10 
74 32 387 0.00768014 10 
75 183 387 0.00456192 6 
76 21 391 0.00542710 7 
77 189 400 0.00805955 10 
78 199 413 0.00839413 10 
79 108 413 0.00684974 8 
80 189 414 0.00841011 10 
81 162 432 0.00878788 10 
82 44 437 0.00894941 10 
83 195 437 0.00913673 10 
84 0 446 0.00729289 8 
85 296 446 0.00828279 9 
86 257 447 0.00936196 10 
87 390 450 0.00565892 6 
88 329 451 0.00566126 6 
89 152 452 0.00861830 9 
90 44 454 0.00876806 9 
91 189 454 0.00777274 8 
92 44 467 0.00694792 7 
93 50 467 0.00798111 8 
94 195 467 0.00292780 3 
95 249 467 0.01014216 10 
96 473 479 0.00298762 3 
97 195 484 0.00408778 4 
98 44 494 0.00524249 5 
99 50 494 0.00631687 6 
100 195 494 0.00523888 5 
101 201 494 0.00739415 7 
102 471 495 0.00310750 3 
103 50 500 0.00858010 8 
104 201 500 0.00862622 8 
105 203 500 0.00647155 6 
106 61 508 0.01109140 10 
107 203 508 0.01127787 10 
108 209 508 0.00992709 9 
109 145 513 0.01145684 10 
110 61 522 0.01147760 10 
111 203 522 0.01261977 10 
112 209 522 0.01051532 9 
113 163 522 0.01169433 10 
114 61 528 0.00929122 8 
115 67 528 0.01175247 10 
116 81 528 0.01206471 10 
117 209 528 0.01196101 10 
118 220 528 0.01177166 10 
119 451 528 0.00615778 5 
120 67 532 0.00705133 6 
121 81 532 0.01194163 10 
122 220 532 0.01215265 10 
123 282 555 0.01251685 10 
124 67 556 0.01259982 10 
125 325 562 0.01159537 9 
126 275 562 0.01156095 9 
127 67 564 0.01298935 10 
128 81 564 0.01189946 9 
129 220 564 0.01163255 9 
130 67 567 0.01308836 10 
131 81 567 0.01336709 10 
132 220 567 0.01338238 10 
133 67 570 0.01316378 10 
134 81 570 0.01346908 10 
135 220 570 0.01348143 10 
136 197 571 0.01357243 10 
137 78 574 0.01086394 8 
138 81 575 0.01338412 10 
139 220 575 0.01373574 10 
140 53 576 0.01426859 10 
141 343 580 0.01427720 10 
142 81 588 0.01415825 10 
143 87 588 0.01440654 10 
144 226 588 0.01446391 10 
145 154 591 0.01458305 10 
146 87 597 0.01450134 10 
147 94 597 0.01492396 10 
148 226 597 0.01486108 10 
149 87 604 0.01478971 10 
150 94 604 0.01510604 10 
151 94 616 0.01342191 9 
152 366 620 0.01518116 10 
153 57 623 0.01558651 10 
154 349 625 0.12838498 10 
155 251 631 0.05645304 10 
156 94 632 0.01955390 10 
157 282 633 0.01616609 10 
158 162 633 0.01618070 10 
159 214 635 0.01600943 10 
160 94 637 0.01607147 10 
161 101 637 0.01650686 10 
162 101 642 0.01462043 9 
163 107 642 0.01631672 10 
164 101 645 0.01639310 10 
165 107 645 0.01672068 10 
166 29 649 0.01665528 10 
167 513 656 0.01685830 10 
168 101 657 0.01688225 10 
169 101 663 0.01008581 6 
170 107 663 0.01703103 10 
171 114 663 0.01569462 9 
172 101 665 0.01723119 10 
173 107 665 0.01756020 10 
174 114 665 0.01756461 10 
175 107 680 0.01754047 10 
176 107 683 0.01762652 10 
177 114 683 0.01797250 10 
178 107 704 0.01800305 10 
179 114 704 0.01835237 10 
180 362 709 0.01820948 10 
181 107 714 0.01830343 10 
182 114 714 0.01858637 10 
183 107 730 0.01498678 8 
184 114 730 0.01859349 10 
185 41 730 0.01907459 10 
186 521 734 0.01882206 10 
187 553 742 0.01946043 10 
188 139 746 0.01957449 10 
189 493 747 0.01994502 10 
190 747 752 0.00583932 3 
191 121 754 0.02024960 10 
192 126 754 0.02057560 10 
193 560 754 0.02065992 10 
194 478 758 0.02038741 10 
195 121 759 0.02065995 10 
196 126 759 0.02114337 10 
197 126 762 0.02074059 10 
198 132 762 0.02114923 10 
199 486 762 0.02139773 10 
200 747 770 0.02117319 10 
201 132 778 0.01254436 6 
202 160 781 0.02169036 10 
203 132 792 0.02190621 10 
204 354 796 0.02235202 10 
205 132 800 0.02241543 10 
206 138 800 0.02460845 10 
207 568 801 0.02285255 10 
208 797 805 0.01368791 6 
209 138 806 0.02305183 10 
210 222 808 0.02340580 10 
211 326 808 0.02412940 10 
212 770 818 0.01414251 6 
213 138 821 0.01656924 7 
214 68 821 0.02381509 10 
215 138 823 0.02377829 10 
216 236 823 0.02423438 10 
217 122 826 0.02184057 9 
218 151 828 0.02446499 10 
219 701 842 0.02513314 10 
220 414 845 0.02554752 10 
221 151 847 0.02033790 8 
222 351 849 0.02571356 10 
223 151 855 0.01790690 7 
224 800 861 0.01580335 6 
225 455 861 0.02654537 10 
226 427 861 0.02750611 10 
227 358 867 0.02732235 10 
228 323 869 0.01602242 6 
229 131 875 0.02754099 10 
230 649 876 0.02838407 10 
231 544 879 0.02780026 10 
232 735 881 0.02777241 10 
233 501 886 0.02766010 10 
234 151 895 0.02794695 10 
235 151 897 0.02829660 10 
236 606 899 0.02784917 10 
237 138 903 0.02798892 10 
238 138 904 0.02836069 10 
239 132 907 0.02998644 10 
240 138 907 0.03303203 10 
241 499 908 0.03149702 10 
242 132 911 0.03524622 10 
243 398 917 0.02965257 10 
244 400 921 0.03062258 10 
245 121 923 0.03254774 10 
246 126 923 0.03178550 10 
247 138 923 0.03065655 10 
248 107 929 0.03352005 10 
249 114 929 0.03061996 10 
250 675 932 0.03582866 10 
251 769 934 0.03016769 10 
252 107 935 0.03247014 10 
253 114 935 0.03100246 10 
254 437 935 0.03267215 10 
255 101 939 0.02781986 9 
256 107 939 0.02233397 7 
257 101 944 0.02425264 8 
258 94 947 0.03170879 10 
259 101 947 0.03069784 10 
260 87 953 0.03027863 10 
261 94 953 0.03076588 10 
262 226 953 0.03073337 10 
263 96 956 0.02709524 9 
264 81 959 0.03039834 10 
265 87 959 0.03089059 10 
266 220 959 0.03093646 10 
267 226 959 0.03093143 10 
268 478 959 0.03264714 10 
269 215 964 0.03082738 10 
270 67 965 0.03135038 10 
271 81 965 0.03142315 10 
272 220 965 0.03139725 10 
273 392 967 0.03204368 10 
274 528 970 0.03166758 10 
275 832 972 0.03184054 10 
276 61 976 0.03221787 10 
277 67 976 0.03280619 10 
278 209 976 0.03274025 10 
279 553 979 0.03294760 10 
280 738 979 0.03289038 10 
281 50 982 0.03510515 10 
282 61 982 0.03310379 10 
283 201 982 0.03306238 10 
284 203 982 0.02306386 7 
285 670 984 0.03264465 10 
286 44 988 0.03239796 10 
287 50 988 0.01968888 6 
288 195 988 0.02253203 7 
289 201 988 0.01612939 5 
290 161 992 0.03488700 10 
291 463 993 0.02980266 9 
292 44 994 0.03340748 10 
293 189 994 0.03330947 10 
294 195 994 0.03336765 10 
295 19 995 0.03309740 10 
296 835 996 0.03444231 10 
297 809 997 0.03354896 10 
298 417 997 0.03435422 10 
299 178 997 0.03442041 10 
300 926 1002 0.03396229 10 
301 32 1003 0.03469513 10 
302 178 1003 0.03494110 10 
303 183 1003 0.03473402 10 
304 25 1008 0.03429966 10 
305 32 1008 0.03481258 10 
306 178 1008 0.03484032 10 
307 183 1008 0.03483854 10 
308 871 1009 0.03493676 10 
309 136 1009 0.03545284 10 
310 25 1010 0.03497234 10 
311 32 1010 0.03551634 10 
312 172 1010 0.03506842 10 
313 178 1010 0.03600693 10 
314 362 1013 0.02402934 7 
315 19 1016 0.03470842 10 
316 166 1016 0.03527755 10 
317 172 1016 0.03528736 10 
318 280 1022 0.03498425 10 
319 495 1028 0.03519776 10 
320 151 1029 0.03519851 10 
321 157 1029 0.02502204 7 
322 163 1029 0.03553681 10 
323 166 1029 0.03578590 10 
324 619 1043 0.03580682 10 
325 106 1043 0.03698261 10 
326 1039 1046 0.01795340 5 
327 223 1046 0.03644509 10 
328 56 1056 0.03722798 10 
329 75 1057 0.03743635 10 
330 752 1060 0.03720423 10 
331 588 1062 0.03730884 10 
332 66 1062 0.03789602 10 
333 2 1067 0.03780055 10 
334 237 1074 0.03801912 10 
335 80 1076 0.03740049 10 
336 1052 1080 0.03036442 8 
337 798 1081 0.03428754 9 
338 132 1084 0.03834111 10 
339 256 1100 0.03890958 10 
340 504 1108 0.03961659 10 
341 120 1110 0.03955151 10 
342 930 1115 0.03932302 10 
343 329 1117 0.04055362 10 
344 830 1120 0.04062064 10 
345 530 1120 0.04116298 10 
346 965 1122 0.04072171 10 
347 598 1122 0.04155869 10 
348 806 1124 0.04109421 10 
349 446 1124 0.04288583 10 
350 101 1138 0.04515919 10 
351 913 1139 0.04308783 10 
352 107 1147 0.04420150 10 
353 114 1147 0.04322898 10 
354 1090 1148 0.04505629 10 
355 107 1150 0.04494235 10 
356 114 1150 0.04449991 10 
357 160 1153 0.04625768 10 
358 114 1158 0.04629224 10 
359 121 1158 0.04417099 10 
360 470 1159 0.04388728 10 
361 169 1159 0.04544119 10 
362 1138 1159 0.04325784 10 
363 686 1162 0.04229090 10 
364 121 1164 0.04245052 10 
365 126 1164 0.04310569 10 
366 171 1169 0.04342286 10 
367 1126 1173 0.04328201 10 
368 575 1174 0.04417052 10 
369 65 1174 0.04552215 10 
370 673 1174 0.04586366 10 
371 114 1175 0.04528078 10 
372 121 1175 0.04587502 10 
373 923 1175 0.04597457 10 
374 929 1175 0.04586612 10 
375 1158 1175 0.03222568 7 
376 25 1177 0.04622645 10 
377 1120 1179 0.04654766 10 
378 560 1185 0.04593172 10 
379 101 1188 0.04641533 10 
380 939 1188 0.04727211 10 
381 1138 1188 0.04732189 10 
382 1147 1188 0.05303446 10 
383 1150 1188 0.04907640 10 
384 241 1204 0.04789313 10 
385 733 1204 0.03374932 7 
386 829 1204 0.04780780 10 
387 492 1207 0.04777435 10 
388 1027 1207 0.04920361 10 
389 1050 1210 0.04949599 10 
390 1061 1210 0.04967916 10 
391 1075 1210 0.04973757 10 
392 1084 1210 0.05110275 10 
393 1088 1210 0.05024239 10 
394 1093 1210 0.05135481 10 
395 1098 1210 0.05129528 10 
396 1151 1210 0.05066006 10 
397 961 1212 0.05013330 10 
398 685 1213 0.05196786 10 
399 683 1214 0.05136833 10 
400 902 1215 0.05140329 10 
401 157 1217 0.05081396 10 
402 163 1217 0.05171712 10 
403 1029 1217 0.05121727 10 
404 1044 1217 0.05218529 10 
405 1050 1217 0.05144347 10 
406 1056 1217 0.05152584 10 
