1 19 166 0.00296534 10 
2 19 172 0.00312778 10 
3 25 172 0.00318992 10 
4 25 178 0.00329982 10 
5 32 178 0.00331096 10 
6 32 183 0.00339661 10 
7 44 189 0.00351288 10 
8 44 195 0.00362318 10 
9 50 195 0.00361834 10 
10 50 201 0.00373658 10 
11 50 203 0.00377292 10 
12 61 203 0.00376226 10 
13 61 209 0.00387829 10 
14 67 209 0.00388238 10 
15 67 220 0.17333326 10 
16 81 220 0.17528857 10 
17 81 226 0.17032716 10 
18 87 226 0.05950861 10 
19 87 231 0.00538896 10 
20 94 231 0.00472169 10 
21 226 231 0.00429784 10 
22 94 241 0.00449219 10 
23 101 241 0.00448507 10 
24 101 247 0.00460522 10 
25 107 247 0.00459248 10 
26 107 254 0.00471591 10 
27 114 254 0.00471638 10 
28 107 256 0.00476492 10 
29 114 256 0.00476732 10 
30 107 258 0.00481623 10 
31 114 258 0.00480752 10 
32 121 266 0.00500013 10 
33 126 266 0.00500203 10 
34 126 272 0.00513235 10 
35 132 272 0.00514074 10 
36 132 278 0.00525495 10 
37 138 278 0.00524764 10 
38 138 284 0.00538727 10 
39 151 284 0.00538449 10 
40 151 291 0.00553232 10 
41 151 297 0.00564925 10 
42 157 297 0.00564628 10 
43 163 297 0.00564651 10 
44 166 297 0.00565231 10 
45 19 305 0.00593807 10 
46 157 305 0.00594393 10 
47 163 305 0.00598257 10 
48 166 305 0.00597935 10 
49 172 305 0.00602623 10 
50 19 315 0.00538400 9 
51 25 315 0.00605623 10 
52 172 315 0.00622157 10 
53 172 328 0.00626534 10 
54 19 337 0.00515945 8 
55 25 337 0.00651086 10 
56 172 337 0.00667483 10 
57 19 342 0.00658518 10 
58 25 342 0.00663565 10 
59 172 342 0.00340554 5 
60 178 342 0.00665956 10 
61 25 367 0.00347544 5 
62 32 367 0.00419734 6 
63 178 367 0.00420187 6 
64 183 367 0.00493991 7 
65 25 374 0.00724472 10 
66 32 374 0.00729748 10 
67 178 374 0.00523794 7 
68 183 374 0.00653713 9 
69 32 382 0.00592976 8 
70 183 382 0.00749309 10 
71 32 387 0.00755397 10 
72 183 387 0.00448149 6 
73 189 400 0.00786023 10 
74 189 414 0.00812542 10 
75 44 437 0.00858438 10 
76 195 437 0.00878497 10 
77 44 454 0.00887989 10 
78 189 454 0.00910943 10 
79 44 467 0.00914879 10 
80 50 467 0.00939681 10 
81 195 467 0.00940556 10 
82 195 484 0.00950266 10 
83 44 494 0.00671204 7 
84 50 494 0.00974357 10 
85 195 494 0.00997991 10 
86 201 494 0.01000680 10 
87 50 500 0.00987578 10 
88 201 500 0.01012822 10 
89 203 500 0.01013390 10 
90 61 508 0.01007968 10 
91 203 508 0.01032471 10 
92 209 508 0.01035425 10 
93 61 522 0.01035930 10 
94 203 522 0.01060296 10 
95 209 522 0.01062579 10 
96 61 528 0.01047898 10 
97 67 528 0.01078896 10 
98 81 528 0.01084632 10 
99 209 528 0.01081872 10 
100 220 528 0.01081521 10 
101 67 532 0.00841931 8 
102 81 532 0.01066918 10 
103 220 532 0.01093143 10 
104 67 556 0.01112164 10 
105 67 564 0.01129199 10 
106 81 564 0.01154877 10 
107 220 564 0.01147116 10 
108 67 567 0.01134739 10 
109 81 567 0.01163590 10 
110 220 567 0.01164540 10 
111 67 570 0.01143138 10 
112 81 570 0.01172040 10 
113 220 570 0.01172358 10 
114 81 575 0.01184267 10 
115 220 575 0.01183895 10 
116 81 588 0.01181316 10 
117 87 588 0.01211469 10 
118 226 588 0.01216106 10 
119 87 597 0.01205646 10 
120 94 597 0.01234417 10 
121 226 597 0.01237722 10 
122 87 604 0.01221029 10 
123 94 604 0.01250106 10 
124 94 616 0.00985894 8 
125 94 632 0.01276403 10 
126 94 637 0.01286904 10 
127 101 637 0.01318221 10 
128 101 642 0.01295319 10 
129 107 642 0.01328650 10 
130 101 645 0.01302301 10 
131 107 645 0.01336666 10 
132 101 657 0.01326041 10 
133 101 663 0.01193830 9 
134 107 663 0.01340050 10 
135 114 663 0.01391184 10 
136 101 665 0.01364989 10 
137 107 665 0.01396663 10 
138 114 665 0.01397017 10 
139 107 680 0.01394392 10 
140 107 683 0.01401680 10 
141 114 683 0.01434423 10 
142 107 704 0.01442308 10 
143 114 704 0.01473923 10 
144 107 714 0.01460575 10 
145 114 714 0.01500920 10 
146 107 730 0.01179743 8 
147 114 730 0.01489636 10 
148 121 754 0.01532050 10 
149 126 754 0.01575151 10 
150 121 759 0.01551891 10 
151 126 759 0.01587332 10 
152 126 762 0.01557567 10 
153 132 762 0.01600495 10 
154 132 778 0.01590528 10 
155 132 792 0.01612066 10 
156 132 800 0.01749363 10 
157 138 800 0.01676864 10 
158 138 806 0.01648235 10 
159 138 821 0.01673670 10 
160 138 823 0.01668556 10 
161 151 828 0.01691157 10 
162 151 847 0.01728203 10 
163 151 855 0.01742108 10 
164 151 895 0.01822595 10 
165 151 897 0.01852248 10 
166 138 903 0.01837447 10 
167 138 904 0.01880004 10 
168 132 907 0.01847140 10 
169 138 907 0.01891597 10 
170 132 911 0.01852581 10 
171 121 923 0.01890647 10 
172 126 923 0.01929394 10 
173 107 929 0.01907157 10 
174 114 929 0.01950349 10 
175 107 935 0.01915362 10 
176 114 935 0.01962478 10 
177 101 939 0.01912195 10 
178 107 939 0.01913280 10 
179 101 944 0.01936811 10 
180 94 947 0.01940753 10 
181 101 947 0.01986352 10 
182 87 953 0.01960023 10 
183 94 953 0.02005308 10 
184 226 953 0.02007273 10 
185 81 959 0.01979930 10 
186 87 959 0.02024336 10 
187 220 959 0.02032659 10 
188 226 959 0.02029277 10 
189 67 965 0.01996734 10 
190 81 965 0.02046268 10 
191 220 965 0.02046411 10 
192 61 976 0.02018749 10 
193 67 976 0.02071280 10 
194 209 976 0.02067489 10 
195 50 982 0.02041515 10 
196 61 982 0.02087773 10 
197 201 982 0.02094095 10 
198 203 982 0.02095539 10 
199 44 988 0.02063427 10 
200 50 988 0.02111073 10 
201 195 988 0.02112599 10 
202 201 988 0.01683416 8 
203 44 994 0.02079472 10 
204 189 994 0.02139405 10 
205 195 994 0.02140434 10 
206 32 1003 0.02109469 10 
207 178 1003 0.02159619 10 
208 183 1003 0.02163225 10 
209 25 1008 0.02132935 10 
210 32 1008 0.02176026 10 
211 178 1008 0.02177531 10 
212 183 1008 0.02187330 10 
213 25 1010 0.04993864 10 
214 32 1010 0.02186373 10 
215 172 1010 0.02199674 10 
216 178 1010 0.02196031 10 
217 19 1016 0.02150634 10 
218 166 1016 0.02187512 10 
219 172 1016 0.01959279 9 
220 151 1029 0.02242159 10 
221 157 1029 0.02217312 10 
222 163 1029 0.02220871 10 
223 166 1029 0.02219582 10 
224 132 1084 0.02312473 10 
225 101 1138 0.02394223 10 
226 107 1147 0.02411936 10 
227 114 1147 0.02475528 10 
228 107 1150 0.02424756 10 
229 114 1150 0.02484636 10 
230 114 1158 0.02437054 10 
231 121 1158 0.02503051 10 
232 121 1164 0.02454733 10 
233 126 1164 0.02515101 10 
234 114 1175 0.02486482 10 
235 121 1175 0.02548342 10 
236 923 1175 0.02548562 10 
237 929 1175 0.02542308 10 
238 1158 1175 0.01777387 7 
239 101 1188 0.02513841 10 
240 939 1188 0.02573674 10 
241 1138 1188 0.02581929 10 
242 1147 1188 0.02586597 10 
243 1150 1188 0.02595873 10 
244 1050 1210 0.02568781 10 
245 1061 1210 0.02630210 10 
246 1075 1210 0.02630308 10 
247 1084 1210 0.02630143 10 
248 1088 1210 0.02632575 10 
249 1093 1210 0.02632520 10 
250 1098 1210 0.02635279 10 
251 157 1217 0.02587864 10 
252 163 1217 0.02678111 10 
253 1029 1217 0.02671497 10 
254 1044 1217 0.02680396 10 
255 1050 1217 0.02678119 10 
256 1056 1217 0.02680945 10 
