1 51 114 0.00092377 5 
2 19 166 0.00289665 10 
3 19 172 0.00305205 10 
4 25 172 0.00314446 10 
5 25 178 0.00325918 10 
6 32 178 0.00326242 10 
7 32 183 0.00335014 10 
8 139 183 0.00336436 10 
9 44 189 0.00348015 10 
10 126 191 0.00350323 10 
11 44 195 0.00359849 10 
12 50 195 0.00359409 10 
13 50 201 0.00372053 10 
14 50 203 0.00375039 10 
15 61 203 0.00381312 10 
16 63 206 0.00383035 10 
17 61 209 0.00389958 10 
18 67 209 0.00389955 10 
19 67 220 0.00410630 10 
20 81 220 0.00412354 10 
21 86 223 0.00419730 10 
22 78 225 0.00425839 10 
23 81 226 0.00427581 10 
24 87 226 0.00430838 10 
25 87 231 0.00442657 10 
26 94 231 0.00443088 10 
27 226 231 0.00442035 10 
28 94 241 0.00462707 10 
29 101 241 0.00464324 10 
30 101 247 0.00474489 10 
31 107 247 0.00475598 10 
32 107 254 0.00491029 10 
33 114 254 0.00490771 10 
34 107 256 0.00496186 10 
35 114 256 0.00494274 10 
36 107 258 0.00500725 10 
37 114 258 0.00500406 10 
38 121 266 0.00523418 10 
39 126 266 0.00526529 10 
40 126 272 0.00539319 10 
41 132 272 0.00541204 10 
42 132 278 0.00550321 10 
43 138 278 0.00552350 10 
44 138 284 0.00564453 10 
45 151 284 0.00567694 10 
46 151 291 0.00582129 10 
47 151 297 0.00595370 10 
48 157 297 0.00595009 10 
49 163 297 0.00597518 10 
50 166 297 0.00598506 10 
51 19 305 0.00612939 10 
52 157 305 0.00613794 10 
53 163 305 0.00620743 10 
54 166 305 0.00622206 10 
55 172 305 0.00622736 10 
56 274 308 0.00632153 10 
57 19 315 0.00650934 10 
58 25 315 0.00651655 10 
59 172 315 0.00654774 10 
60 172 328 0.00680763 10 
61 19 337 0.00622893 9 
62 25 337 0.00680306 10 
63 172 337 0.00698181 10 
64 19 342 0.00616291 9 
65 25 342 0.00691721 10 
66 172 342 0.00357562 5 
67 178 342 0.00699771 10 
68 190 342 0.00714910 10 
69 200 358 0.00735283 10 
70 25 367 0.00520574 7 
71 32 367 0.00596914 8 
72 178 367 0.00446716 6 
73 183 367 0.00522705 7 
74 25 374 0.00764352 10 
75 32 374 0.00768150 10 
76 178 374 0.00550224 7 
77 183 374 0.00689830 9 
78 32 382 0.00624817 8 
79 183 382 0.00788771 10 
80 32 387 0.00793882 10 
81 183 387 0.00552231 7 
82 321 387 0.00642235 8 
83 189 400 0.00831909 10 
84 369 403 0.00584754 7 
85 60 411 0.00860530 10 
86 189 414 0.00870845 10 
87 191 416 0.00879249 10 
88 44 437 0.00923865 10 
89 195 437 0.00944469 10 
90 201 453 0.00371169 4 
91 44 454 0.00756594 8 
92 189 454 0.00758116 8 
93 44 467 0.00680418 7 
94 50 467 0.00783098 8 
95 195 467 0.00385857 4 
96 288 473 0.00904882 9 
97 195 484 0.00511552 5 
98 288 487 0.01034635 10 
99 155 491 0.01054774 10 
100 44 494 0.00523191 5 
101 50 494 0.00738520 7 
102 195 494 0.00526589 5 
103 201 494 0.00742947 7 
104 391 499 0.01086453 10 
105 50 500 0.00865349 8 
106 201 500 0.00864787 8 
107 203 500 0.00650243 6 
108 61 508 0.01117550 10 
109 203 508 0.01135150 10 
110 209 508 0.00888997 8 
111 344 521 0.01145445 10 
112 61 522 0.01150826 10 
113 203 522 0.01185970 10 
114 209 522 0.01056921 9 
115 61 528 0.00923924 8 
116 67 528 0.01168892 10 
117 81 528 0.01199138 10 
118 209 528 0.01192696 10 
119 220 528 0.01173212 10 
120 67 532 0.00699414 6 
121 81 532 0.01184656 10 
122 220 532 0.01203876 10 
123 364 535 0.01206827 10 
124 449 547 0.01110525 9 
125 448 552 0.01119137 9 
126 508 552 0.00997150 8 
127 189 554 0.01001178 8 
128 67 556 0.01279681 10 
129 316 561 0.01304492 10 
130 67 564 0.01320973 10 
131 81 564 0.01208314 9 
132 220 564 0.01306680 10 
133 67 567 0.01319740 10 
134 81 567 0.01349138 10 
135 220 567 0.01348923 10 
136 357 568 0.01331673 10 
137 67 570 0.01332614 10 
138 81 570 0.01363753 10 
139 220 570 0.01364920 10 
140 81 575 0.01345706 10 
141 220 575 0.01376689 10 
142 81 588 0.01400495 10 
143 87 588 0.01416331 10 
144 226 588 0.01410193 10 
145 86 590 0.01424680 10 
146 87 597 0.01439687 10 
147 94 597 0.01442888 10 
148 226 597 0.01443151 10 
149 116 602 0.01424408 10 
150 87 604 0.01461324 10 
151 94 604 0.01461786 10 
152 334 612 0.01473823 10 
153 94 616 0.01478540 10 
154 389 626 0.01529561 10 
155 94 632 0.01539218 10 
156 94 637 0.01548873 10 
157 101 637 0.01585041 10 
158 338 640 0.01577850 10 
159 101 642 0.01620520 10 
160 107 642 0.01620712 10 
161 101 645 0.01598760 10 
162 107 645 0.01627572 10 
163 205 651 0.01627874 10 
164 101 657 0.01637483 10 
165 112 660 0.01302886 8 
166 101 663 0.00810874 5 
167 107 663 0.01646809 10 
168 114 663 0.01679159 10 
169 435 663 0.01711998 10 
170 101 665 0.01715701 10 
171 107 665 0.01718541 10 
172 114 665 0.01719922 10 
173 430 665 0.01726286 10 
174 549 668 0.01743617 10 
175 107 680 0.01753554 10 
176 107 683 0.01757424 10 
177 114 683 0.01768623 10 
178 244 688 0.01774672 10 
179 107 704 0.01805927 10 
180 114 704 0.01844131 10 
181 320 713 0.01864986 10 
182 107 714 0.01897221 10 
183 114 714 0.01897060 10 
184 516 714 0.01913341 10 
185 641 717 0.01889532 10 
186 110 719 0.01314862 7 
187 409 725 0.01941979 10 
188 107 730 0.01354584 7 
189 114 730 0.01958816 10 
190 240 731 0.01614215 8 
191 207 739 0.02005657 10 
192 50 748 0.02011419 10 
193 291 748 0.02108103 10 
194 154 749 0.02111683 10 
195 121 754 0.02096675 10 
196 126 754 0.02136391 10 
197 121 759 0.02108750 10 
198 126 759 0.02189955 10 
199 126 762 0.02120777 10 
200 132 762 0.02174076 10 
201 132 778 0.01283739 6 
202 132 792 0.02192516 10 
203 61 792 0.02229561 10 
204 132 800 0.02199255 10 
205 138 800 0.02246130 10 
206 723 804 0.02258623 10 
207 138 806 0.02269148 10 
208 728 808 0.02283401 10 
209 138 821 0.01819343 8 
210 138 823 0.02290292 10 
211 583 825 0.02365042 10 
212 151 828 0.02401624 10 
213 164 832 0.02399850 10 
214 211 839 0.02454915 10 
215 151 847 0.02475154 10 
216 19 851 0.02479668 10 
217 151 855 0.01730535 7 
218 375 867 0.02535276 10 
219 839 880 0.01518084 6 
220 209 892 0.02549998 10 
221 151 895 0.02597130 10 
222 618 896 0.02660320 10 
223 151 897 0.02686344 10 
224 138 903 0.02650765 10 
225 138 904 0.02689809 10 
226 132 907 0.02585296 10 
227 138 907 0.02631061 10 
228 132 911 0.02600345 10 
229 434 919 0.02653159 10 
230 121 923 0.02677006 10 
231 126 923 0.02708542 10 
232 107 929 0.02705132 10 
233 114 929 0.02748068 10 
234 467 931 0.02742671 10 
235 107 935 0.02757544 10 
236 114 935 0.02808381 10 
237 25 936 0.02807251 10 
238 101 939 0.02206872 8 
239 107 939 0.02198470 8 
240 101 944 0.02791280 10 
241 94 947 0.02792850 10 
242 101 947 0.02841059 10 
243 287 951 0.02828953 10 
244 87 953 0.02889232 10 
245 94 953 0.02888795 10 
246 226 953 0.02892506 10 
247 81 959 0.02875956 10 
248 87 959 0.02925427 10 
249 220 959 0.02926626 10 
250 226 959 0.02929163 10 
251 67 965 0.02892550 10 
252 81 965 0.02935632 10 
253 220 965 0.02931594 10 
254 61 976 0.02910194 10 
255 67 976 0.02956486 10 
256 209 976 0.02959842 10 
257 639 980 0.02935210 10 
258 50 982 0.02982574 10 
259 61 982 0.02981964 10 
260 201 982 0.03012364 10 
261 203 982 0.03011114 10 
262 168 983 0.02963659 10 
263 44 988 0.02971978 10 
264 50 988 0.01818083 6 
265 195 988 0.02674605 9 
266 201 988 0.01472194 5 
267 677 993 0.03013567 10 
268 44 994 0.03013924 10 
269 189 994 0.03066679 10 
270 195 994 0.03104599 10 
271 10 997 0.03027087 10 
272 40 1000 0.03044172 10 
273 32 1003 0.03061277 10 
274 178 1003 0.03120624 10 
275 183 1003 0.03104354 10 
276 25 1008 0.03066908 10 
277 32 1008 0.03118280 10 
278 178 1008 0.03119898 10 
279 183 1008 0.03119515 10 
280 25 1010 0.03073940 10 
281 32 1010 0.03120890 10 
282 172 1010 0.03124286 10 
283 178 1010 0.03129113 10 
284 19 1016 0.03087696 10 
285 166 1016 0.03135800 10 
286 172 1016 0.03136216 10 
287 251 1020 0.03133137 10 
288 619 1022 0.03225892 10 
289 869 1022 0.03211175 10 
290 151 1029 0.03171213 10 
291 157 1029 0.03227221 10 
292 163 1029 0.03227150 10 
293 166 1029 0.03226680 10 
294 82 1048 0.03256115 10 
295 556 1050 0.03342090 10 
296 114 1055 0.03298742 10 
297 918 1057 0.03312779 10 
298 175 1064 0.03388157 10 
299 1068 1076 0.00984074 3 
300 132 1084 0.03354858 10 
301 531 1085 0.03451249 10 
302 202 1089 0.03398773 10 
303 605 1103 0.03427488 10 
304 1045 1105 0.03466402 10 
305 169 1115 0.03485382 10 
306 960 1121 0.03475433 10 
307 314 1127 0.03492964 10 
308 682 1129 0.03579728 10 
309 521 1131 0.03586619 10 
310 597 1133 0.03616345 10 
311 101 1138 0.03621808 10 
312 107 1147 0.03634623 10 
313 114 1147 0.03692900 10 
314 107 1150 0.03638397 10 
315 114 1150 0.03698719 10 
316 268 1152 0.03646524 10 
317 114 1158 0.03716243 10 
318 121 1158 0.03718260 10 
319 404 1161 0.03689564 10 
320 121 1164 0.03688834 10 
321 126 1164 0.03683259 10 
322 1123 1164 0.03670855 10 
323 1054 1170 0.03648438 10 
324 193 1170 0.03766299 10 
325 754 1174 0.03692331 10 
326 114 1175 0.03738013 10 
327 121 1175 0.03775925 10 
328 923 1175 0.03824640 10 
329 929 1175 0.03799731 10 
330 1158 1175 0.03783426 10 
331 35 1176 0.03789823 10 
332 1087 1186 0.03808580 10 
333 605 1186 0.03852801 10 
334 101 1188 0.03869623 10 
335 939 1188 0.03985469 10 
336 1138 1188 0.03975815 10 
337 1147 1188 0.03973563 10 
338 1150 1188 0.03974410 10 
339 399 1188 0.03985711 10 
340 949 1202 0.03973748 10 
341 919 1209 0.03522990 9 
342 1050 1210 0.03965267 10 
343 1061 1210 0.03968396 10 
344 1075 1210 0.03987824 10 
345 1084 1210 0.03985661 10 
346 1088 1210 0.03973345 10 
347 1093 1210 0.03977068 10 
348 1098 1210 0.03972989 10 
349 157 1217 0.03924618 10 
350 163 1217 0.03989628 10 
351 1029 1217 0.03971781 10 
352 1044 1217 0.03965746 10 
353 1050 1217 0.04030172 10 
354 1056 1217 0.04099877 10 
355 178 1224 0.04046165 10 
356 164 1225 0.03981718 10 
