1 3 41 2 902.36976789 0.00000216 1 
2 19 166 0 0.41485034 0.00210823 5 
3 19 172 0 0.02820697 0.00187563 4 
4 25 172 0 0.50366199 0.00188265 4 
5 167 174 2 1052.31759083 0.00000183 1 
6 25 178 0 0.30831851 0.00198659 4 
7 32 178 0 0.01493521 0.00199124 4 
8 32 183 0 0.07055611 0.00202035 4 
9 44 189 0 0.52863102 0.00208449 4 
10 44 195 0 0.35755137 0.00217378 4 
11 50 195 0 0.00572854 0.00220748 4 
12 50 201 0 0.04110605 0.00190668 3 
13 50 203 0 0.06975183 0.00188285 3 
14 61 203 0 0.00745912 0.00190892 3 
15 61 209 0 0.37222863 0.00231910 4 
16 67 209 0 0.41032090 0.00233625 4 
17 172 215 2 2137.99991961 0.00000262 1 
18 67 220 0 0.66144083 0.00251008 4 
19 81 220 0 0.48035877 0.00286635 5 
20 81 226 0 0.05402805 0.00257730 4 
21 87 226 0 1.82553139 0.00295353 5 
22 87 231 0 0.34656585 0.00262759 4 
23 94 231 0 0.55778528 0.00257789 4 
24 226 231 0 1.44127402 0.00299527 5 
25 94 241 0 1.33132047 0.00270061 4 
26 101 241 0 0.50961029 0.00271982 4 
27 101 247 0 1.66454674 0.00277017 4 
28 107 247 0 1.80094617 0.00278757 4 
29 33 251 2 910.66421033 0.00000227 1 
30 98 252 2 204.07133166 0.00000225 1 
31 171 253 2 1063.14533652 0.00000207 1 
32 107 254 0 1.18346605 0.00285394 4 
33 114 254 0 0.12939160 0.00287174 4 
34 107 256 0 0.93085039 0.00290873 4 
35 114 256 0 0.24629796 0.00287247 4 
36 107 258 0 1.37911724 0.00291971 4 
37 114 258 0 1.15747212 0.00293799 4 
38 121 266 0 0.00938596 0.00302679 4 
39 126 266 0 0.44864328 0.00355939 5 
40 126 272 0 1.03992836 0.00310590 4 
41 132 272 0 0.39070916 0.00365911 5 
42 159 275 2 1089.00885823 0.00000253 1 
43 132 278 0 0.58358145 0.00318269 4 
44 138 278 0 1.06458780 0.00374804 5 
45 155 283 2 853.48475129 0.00000313 1 
46 138 284 0 0.02201259 0.00271992 3 
47 151 284 0 0.12777228 0.00329179 4 
48 151 291 0 0.60037557 0.00332292 4 
49 188 296 2 190.00279715 0.00000256 1 
50 151 297 0 0.07972289 0.00285836 3 
51 157 297 0 1.04991834 0.00345881 4 
52 166 297 0 1.30507781 0.00339687 4 
53 298 302 2 2621.10182837 0.00000240 1 
54 19 305 0 0.16044642 0.00357878 4 
55 157 305 0 0.58687353 0.00361456 4 
56 163 305 0 7.56485476 0.00485994 6 
57 166 305 0 0.37495035 0.00361652 4 
58 172 305 0 0.01886255 0.00361757 4 
59 104 310 2 2406.68140291 0.00000268 1 
60 19 315 0 0.48455906 0.00311454 3 
61 25 315 0 0.02281386 0.00312252 3 
62 172 315 0 0.05679715 0.00374299 4 
63 270 324 2 194.79543247 0.00000253 1 
64 172 328 0 0.12482725 0.00326287 3 
65 177 329 2 3164.39095307 0.00000253 1 
66 19 337 0 6.63404991 0.00467199 5 
67 25 337 0 0.96522419 0.00400807 4 
68 172 337 0 0.57611560 0.00335116 3 
69 19 342 0 0.00494520 0.00339442 3 
70 25 342 0 0.12855172 0.00408373 4 
71 172 342 0 0.01223902 0.00412858 4 
72 178 342 0 0.12442988 0.00419355 4 
73 170 363 2 383.23911916 0.00000324 1 
74 25 367 0 0.11414782 0.00380363 3 
75 32 367 0 0.01267433 0.00598157 6 
76 178 367 0 0.00286807 0.00378725 3 
77 183 367 0 0.06698524 0.00379995 3 
78 25 374 0 0.56424690 0.00462324 4 
79 32 374 0 0.09892849 0.00536268 5 
80 178 374 0 0.03055075 0.00460171 4 
81 183 374 0 0.05309447 0.00459052 4 
82 112 374 2 2940.00794819 0.00000273 4 
83 32 382 0 4.14688582 0.00393470 3 
84 183 382 0 1.28811506 0.00467745 4 
85 264 382 2 5191.45570763 0.00000258 4 
86 32 387 0 2.72468715 0.00475590 4 
87 183 387 0 0.18197642 0.00474341 4 
88 68 387 2 1683.55886803 0.00000285 4 
89 133 408 2 308.61490997 0.00000318 1 
90 189 414 0 7.69047346 0.00589297 5 
91 207 417 2 4747.90907002 0.00000408 1 
92 44 437 0 0.00915802 0.00439011 3 
93 195 437 0 0.01161094 0.00438889 3 
94 226 451 2 369.22796569 0.00000398 1 
95 46 452 2 146.49268742 0.00000297 1 
96 44 454 0 0.65644164 0.00452405 3 
97 189 454 0 0.03962740 0.00545761 4 
98 12 458 2 645.62993602 0.00000368 1 
99 206 458 2 193.18029052 0.00000190 1 
100 261 461 2 136.15519622 0.00000277 1 
101 44 467 0 0.12345281 0.00652709 5 
102 50 467 0 0.00895575 0.01029856 9 
103 195 467 0 0.00230988 0.00461886 3 
104 242 472 2 1439.31443840 0.00000356 1 
105 195 484 0 0.09447226 0.00576496 4 
106 46 485 2 1701.76293878 0.00000403 1 
107 44 494 0 0.02880924 0.00586687 4 
108 50 494 0 0.00628832 0.00482982 3 
109 195 494 0 0.00818961 0.00686080 5 
110 201 494 0 0.00469852 0.00685345 5 
111 364 497 2 457.60255771 0.00000366 1 
112 50 500 0 0.14406209 0.00698625 5 
113 201 500 0 0.05353930 0.00486654 3 
114 203 500 0 0.03252445 0.00491097 3 
115 61 508 0 0.99413579 0.00714993 5 
116 203 508 0 0.26947301 0.01229905 10 
117 209 508 0 0.03711473 0.00603938 4 
118 274 510 2 1227.24302554 0.00000302 1 
119 157 516 2 1813.70373299 0.00000326 1 
120 61 522 0 1.37942234 0.00628942 4 
121 203 522 0 0.12859200 0.00513933 3 
122 209 522 0 0.00542469 0.00513165 3 
123 61 528 0 0.47936102 0.00515094 3 
124 67 528 0 0.22419307 0.00626776 4 
125 81 528 0 0.23233822 0.00849971 6 
126 209 528 0 0.09444678 0.01061780 8 
127 220 528 0 0.13668760 0.00631135 4 
128 67 532 0 0.05459173 0.01178674 9 
129 81 532 0 0.11826401 0.00867018 6 
130 220 532 0 0.05648169 0.00637834 4 
131 67 556 0 0.98233216 0.00661210 4 
132 67 564 0 0.40168838 0.01239621 9 
133 81 564 0 0.02280941 0.00666918 4 
134 220 564 0 0.02684857 0.00658532 4 
135 67 567 0 2.67253169 0.00781947 5 
136 81 567 0 0.48923871 0.00903847 6 
137 220 567 0 0.21723258 0.00665926 4 
138 67 570 0 2.40706627 0.00912904 6 
139 81 570 0 0.15671702 0.00906152 6 
140 220 570 0 0.13379867 0.00676726 4 
141 81 575 0 2.76594993 0.00793072 5 
142 220 575 0 1.08612706 0.01037945 7 
143 408 583 2 1105.00361755 0.00000423 1 
144 81 588 0 0.01497138 0.00577315 3 
145 87 588 0 0.47937722 0.00823009 5 
146 226 588 0 0.43156268 0.00697434 4 
147 403 594 2 201.21963002 0.00000358 1 
148 87 597 0 2.27648751 0.00946056 6 
149 94 597 0 0.38888315 0.00698866 4 
150 226 597 0 0.55079633 0.00823613 5 
151 1 598 2 2243.39771157 0.00000304 1 
152 87 604 0 0.47149562 0.00707811 4 
153 94 604 0 0.01542269 0.00833600 5 
154 94 616 0 0.01350372 0.01231936 8 
155 536 627 2 249.52844004 0.00000364 1 
156 94 632 0 2.16969694 0.00868225 5 
157 94 637 0 4.44236402 0.01006889 6 
158 101 637 0 0.19098383 0.00739422 4 
159 496 640 2 1262.16741644 0.00000317 1 
160 101 642 0 0.11555601 0.00877739 5 
161 107 642 0 0.04025021 0.01410538 9 
162 101 645 0 6.69527511 0.00749207 4 
163 107 645 0 1.54205090 0.00750817 4 
164 101 657 0 0.73548669 0.01664187 10 
165 572 659 2 2134.91588385 0.00000366 10 
166 377 662 2 327.95335625 0.00000339 10 
167 101 663 0 0.04971914 0.01687767 10 
168 107 663 0 0.01781179 0.00904646 5 
169 114 663 0 0.00275957 0.00916033 5 
170 101 665 0 1.55112265 0.01336682 8 
171 107 665 0 0.47667103 0.00777686 4 
172 114 665 0 0.13329170 0.00640163 3 
173 467 672 2 1338.74088574 0.00000329 1 
174 107 680 0 1.48615866 0.00938449 5 
175 107 683 0 0.94462224 0.00798890 4 
176 114 683 0 0.32178225 0.00942018 5 
177 439 683 2 4853.59398771 0.00000330 5 
178 540 687 2 882.96107115 0.00000320 1 
179 635 688 2 1069.65884844 0.00000309 1 
180 459 690 2 869.91954745 0.00000316 1 
181 71 696 2 989.99538566 0.00000343 1 
182 371 700 2 1167.43892395 0.00000326 1 
183 107 704 0 0.34268109 0.01265156 7 
184 114 704 0 0.07528002 0.01556279 9 
185 107 714 0 1.79639085 0.01127999 6 
186 114 714 0 0.02860377 0.01426082 8 
187 588 720 2 590.84464698 0.00000356 1 
188 710 722 2 995.71473371 0.00000338 1 
189 107 730 0 0.19656714 0.01000308 5 
190 114 730 0 0.03540690 0.00843404 4 
191 121 754 0 0.33113739 0.00867277 4 
192 126 754 0 0.07673382 0.01502487 8 
193 115 756 2 3218.53338588 0.00000357 1 
194 121 759 0 2.33625684 0.01193244 6 
195 126 759 0 0.22329988 0.01190143 6 
196 126 762 0 7.08482229 0.01036211 5 
197 132 762 0 2.00372045 0.01523673 8 
198 709 770 2 736.26257433 0.00000401 1 
199 132 778 0 0.06999780 0.00898432 4 
200 420 785 2 489.42294133 0.00000420 1 
201 132 792 0 1.26802734 0.00912205 4 
202 616 794 2 143.30353754 0.00000382 1 
203 189 795 2 2626.57134800 0.00000339 1 
204 630 796 2 1464.30811807 0.00000332 1 
205 132 800 0 3.35686460 0.00920037 4 
206 138 800 0 0.14494330 0.01263956 6 
207 764 803 2 2348.54247999 0.00000390 1 
208 710 805 2 563.01242267 0.00000375 1 
209 138 806 0 0.25140739 0.00753461 3 
210 70 808 2 3097.41821288 0.00000413 1 
211 571 811 2 1432.74210579 0.00000359 1 
212 300 819 2 590.88844690 0.00000391 1 
213 361 819 2 866.47129730 0.00000125 1 
214 138 821 0 0.40674396 0.01109498 5 
215 138 823 0 6.54725682 0.00937712 4 
216 182 824 2 225.04530279 0.00000389 1 
217 589 826 2 2141.82768519 0.00000395 1 
218 151 828 0 3.12108818 0.00951106 4 
219 241 833 2 4144.81854809 0.00000420 1 
220 251 836 2 482.23202139 0.00000396 1 
221 309 837 2 3940.88219507 0.00000416 1 
222 446 841 2 493.43009648 0.00000438 1 
223 151 847 0 0.08724621 0.01146387 5 
224 486 849 2 1160.00684305 0.00000405 1 
225 108 852 2 257.72902541 0.00000373 1 
226 151 855 0 0.11494457 0.01512726 7 
227 728 858 2 3333.41356390 0.00000386 1 
228 189 863 2 897.51560170 0.00000370 1 
229 610 867 2 1171.98558704 0.00000383 1 
230 498 873 2 360.08008402 0.00000414 1 
231 263 876 2 503.54976791 0.00000406 1 
232 234 879 2 1241.49413129 0.00000425 1 
233 540 886 2 531.35434420 0.00000427 1 
234 236 886 2 409.30263624 0.00000135 1 
235 440 890 2 324.40801771 0.00000403 1 
236 16 891 2 291.45558072 0.00000349 1 
237 586 891 2 610.02911409 0.00000153 1 
238 151 895 0 2.80701437 0.01764445 8 
239 15 895 2 288.01022119 0.00000448 8 
240 151 897 0 0.06118057 0.02141503 10 
241 415 898 2 2880.15453845 0.00000449 1 
242 138 903 0 0.08157811 0.01022454 4 
243 730 903 2 3891.52263313 0.00000413 4 
244 138 904 0 7.06392298 0.01401471 6 
245 474 904 2 1009.66606715 0.00000479 6 
246 132 907 0 0.71874717 0.01029754 4 
247 138 907 0 0.22077132 0.01220283 5 
248 903 910 2 454.86487026 0.00000401 1 
249 132 911 0 0.23128175 0.01225221 5 
250 425 912 2 476.76463978 0.00000407 1 
251 908 915 2 3893.23615290 0.00000323 1 
252 351 917 2 1306.67641368 0.00000334 1 
253 121 923 0 0.62636126 0.01438480 6 
254 126 923 0 0.07130653 0.01050054 4 
255 107 929 0 0.07225325 0.01254480 5 
256 114 929 0 0.00477553 0.01058529 4 
257 520 934 2 2332.39400430 0.00000430 1 
258 161 934 2 674.27447748 0.00000123 1 
259 107 935 0 4.91438615 0.01655857 7 
260 114 935 0 1.40337639 0.01655106 7 
261 572 938 2 198.81402546 0.00000393 1 
262 101 939 0 0.48567419 0.01068420 4 
263 107 939 0 0.21174614 0.01071114 4 
264 101 944 0 0.15377935 0.01273480 5 
265 94 947 0 0.23772432 0.01677928 7 
266 101 947 0 0.16826262 0.01481217 6 
267 415 950 2 394.05787212 0.00000338 1 
268 87 953 0 0.13504795 0.01091175 4 
269 94 953 0 0.06505521 0.01492605 6 
270 226 953 0 0.08268323 0.02302380 10 
271 81 959 0 1.83528326 0.02441983 10 
272 87 959 0 1.29172246 0.01712854 7 
273 220 959 0 0.04883629 0.01103211 4 
274 226 959 0 0.12130941 0.01307668 5 
275 67 965 0 1.01368609 0.01315854 5 
276 81 965 0 0.31066014 0.01522488 6 
277 220 965 0 0.16483276 0.01933510 8 
278 37 965 2 1171.58738027 0.00000433 8 
279 3 966 2 325.83795185 0.00000339 1 
280 90 967 2 2528.75390293 0.00000310 1 
281 237 969 2 315.96304387 0.00000363 1 
282 876 974 2 1448.34411021 0.00000373 1 
283 61 976 0 0.16803746 0.01744551 7 
284 67 976 0 0.05676300 0.00915199 3 
285 209 976 0 0.00780965 0.01125775 4 
286 236 978 2 496.07418829 0.00000407 1 
287 50 982 0 0.38354811 0.01135490 4 
288 61 982 0 0.27147698 0.01134742 4 
289 201 982 0 0.22200943 0.01136182 4 
290 203 982 0 0.10573284 0.02192386 9 
291 894 982 2 2182.06486387 0.00000441 9 
292 227 983 2 8607.94778274 0.00000423 1 
293 44 988 0 0.09550719 0.01145060 4 
294 50 988 0 0.05924873 0.01146348 4 
295 195 988 0 0.04319526 0.01573354 6 
296 201 988 0 0.02685916 0.01359057 5 
297 278 988 2 4366.23766262 0.00000433 5 
298 977 988 2 4440.26387934 0.00000169 5 
299 44 994 0 0.51683435 0.01793276 7 
300 189 994 0 0.29989154 0.02579475 10 
301 195 994 0 0.21957432 0.01370752 5 
302 814 1002 2 1451.25174782 0.00000583 1 
303 32 1003 0 0.23901034 0.01384935 5 
304 178 1003 0 0.03356851 0.02607547 10 
305 183 1003 0 0.01433170 0.01603990 6 
306 25 1008 0 1.23858172 0.01835120 7 
307 32 1008 0 0.53803958 0.01176957 4 
308 178 1008 0 0.34459610 0.01176765 4 
309 183 1008 0 0.22233868 0.01181149 4 
310 157 1009 2 4115.33916817 0.00000496 1 
311 25 1010 0 0.60236133 0.01182411 4 
312 32 1010 0 0.30591807 0.01400203 5 
313 172 1010 0 0.10368354 0.01632244 6 
314 178 1010 0 0.19279072 0.02646484 10 
315 85 1014 2 1512.62872156 0.00000529 1 
316 19 1016 0 0.44047719 0.02061329 8 
317 166 1016 0 0.20189646 0.01187867 4 
318 172 1016 0 0.07393216 0.01406063 5 
319 397 1016 2 392.12065570 0.00000445 5 
320 975 1016 2 4524.62488573 0.00000155 5 
321 932 1019 2 3588.73165815 0.00000551 1 
322 24 1021 2 3403.27946615 0.00000556 1 
323 575 1023 2 2228.93002594 0.00000497 1 
324 151 1029 0 0.03533130 0.01433287 5 
325 157 1029 0 0.02672450 0.01203847 4 
326 163 1029 0 3.39703566 0.01201505 4 
327 166 1029 0 0.49353449 0.01202186 4 
328 930 1042 2 2359.09434630 0.00000571 1 
329 385 1043 2 1459.16937696 0.00000487 1 
330 460 1054 2 627.16314978 0.00000574 1 
331 562 1055 2 204.19502905 0.00000610 1 
332 689 1066 2 110.96631004 0.00000592 1 
333 82 1068 2 173.12024657 0.00000485 1 
334 295 1076 2 167.35812259 0.00000592 1 
335 989 1079 2 365.92636962 0.00000556 1 
336 132 1084 0 4.21993706 0.01508346 5 
337 878 1084 2 2729.97872506 0.00000523 5 
338 655 1085 2 1200.24758036 0.00000576 1 
339 233 1088 2 342.73032356 0.00000553 1 
340 570 1094 2 1685.65391219 0.00000511 1 
341 993 1095 2 476.99027594 0.00000520 1 
342 1007 1102 2 882.63156576 0.00000598 1 
343 739 1103 2 162.58073139 0.00000503 1 
344 492 1106 2 1573.42750817 0.00000580 1 
345 638 1121 2 1383.29858990 0.00000544 1 
346 224 1133 2 171.27173484 0.00000568 1 
347 101 1138 0 0.63021658 0.01580208 5 
348 833 1142 2 1051.71768366 0.00000607 1 
349 107 1147 0 0.73708347 0.01330010 4 
350 114 1147 0 0.03971358 0.01087936 3 
351 977 1147 2 5779.15704179 0.00000525 3 
352 107 1150 0 7.45683387 0.01338200 4 
353 114 1150 0 1.00561260 0.01089892 3 
354 982 1155 2 3519.90966923 0.00000562 1 
355 114 1158 0 0.16899687 0.01090985 3 
356 121 1158 0 0.69099743 0.01352296 4 
357 497 1158 2 2097.36500915 0.00000490 4 
358 521 1161 2 3177.01605364 0.00000594 1 
359 121 1164 0 0.45182924 0.01609545 5 
360 126 1164 0 0.04418665 0.01363243 4 
361 684 1167 2 2853.40101508 0.00000599 1 
362 724 1167 2 1722.81495246 0.00000214 1 
363 618 1170 2 760.64261936 0.00000596 1 
364 702 1173 2 2031.35825452 0.00000548 1 
365 264 1173 2 704.34248269 0.00000196 1 
366 114 1175 0 0.14266969 0.01369617 4 
367 121 1175 0 0.27324351 0.01371834 4 
368 923 1175 0 0.18719011 0.01376176 4 
369 929 1175 0 0.16073549 0.01371581 4 
370 1158 1175 0 0.00134797 0.01117005 3 
371 213 1175 2 2859.69848884 0.00000466 3 
372 190 1176 2 4386.35197147 0.00000509 1 
373 469 1181 2 511.08795541 0.00000540 1 
374 525 1183 2 616.86760937 0.00000498 1 
375 101 1188 0 0.32950319 0.01408608 4 
376 939 1188 0 0.55418798 0.01408668 4 
377 1138 1188 0 0.03006025 0.01161081 3 
378 1147 1188 0 0.04063922 0.01156747 3 
379 1150 1188 0 1.83245351 0.01413157 4 
380 795 1189 2 3156.60292081 0.00000633 1 
381 572 1194 2 838.61817005 0.00000630 1 
382 896 1195 2 448.69028367 0.00000616 1 
383 181 1201 2 4506.36097353 0.00000636 1 
384 993 1202 2 2651.32442248 0.00000622 1 
385 697 1206 2 1589.90680822 0.00000639 1 
386 1050 1210 0 0.00345523 0.01442976 4 
387 1061 1210 0 0.57363906 0.01701186 5 
388 1075 1210 0 0.23107861 0.01701751 5 
389 1084 1210 0 3.13555510 0.01700881 5 
390 1088 1210 0 0.59156319 0.01438933 4 
391 1093 1210 0 0.13111230 0.01964032 6 
392 1098 1210 0 0.04730346 0.01438868 4 
393 265 1213 2 3199.65805878 0.00000592 1 
394 157 1217 0 0.32750279 0.01460614 4 
395 163 1217 0 0.19904338 0.01464464 4 
396 1029 1217 0 0.01250493 0.01193533 3 
397 1044 1217 0 3.98258990 0.01464907 4 
398 1050 1217 0 4.97161000 0.01733369 5 
399 1110 1217 2 3430.12446820 0.00000148 5 
400 52 1224 2 1979.57510770 0.00000624 1 
401 75 1226 2 1718.14793861 0.00000602 1 
402 163 297 0 0.27920255 0.01571289 4 
403 189 400 0 2.09679271 0.01506362 4 
404 153 409 2 20.47682975 0.00000473 4 
405 11 879 2 24.22294571 0.00000171 4 
406 1056 1217 0 9.66143264 0.01793520 5 
