1 130 141 0.00056082 3 
2 19 166 0.00285316 10 
3 19 172 0.00306192 10 
4 25 172 0.00314279 10 
5 25 178 0.00327229 10 
6 32 178 0.00327262 10 
7 32 183 0.00336562 10 
8 44 189 0.00347858 10 
9 44 195 0.00360038 10 
10 50 195 0.00358303 10 
11 50 201 0.00369595 10 
12 50 203 0.00383846 10 
13 61 203 0.00381993 10 
14 61 209 0.00393614 10 
15 67 209 0.00393470 10 
16 67 220 0.00406784 10 
17 81 220 0.00405736 10 
18 81 226 0.00418920 10 
19 87 226 0.00416481 10 
20 87 231 0.00427159 10 
21 94 231 0.00425854 10 
22 226 231 0.00426710 10 
23 94 241 0.00445816 10 
24 101 241 0.00452475 10 
25 101 247 0.00460476 10 
26 107 247 0.00466685 10 
27 107 254 0.00471547 10 
28 114 254 0.00471886 10 
29 107 256 0.00482781 10 
30 114 256 0.00480338 10 
31 107 258 0.00488923 10 
32 114 258 0.00488972 10 
33 121 266 0.00502314 10 
34 126 266 0.00501229 10 
35 126 272 0.00514853 10 
36 132 272 0.00516671 10 
37 132 278 0.00526747 10 
38 138 278 0.00528418 10 
39 138 284 0.00539297 10 
40 151 284 0.00544492 10 
41 151 291 0.00557051 10 
42 151 297 0.00568812 10 
43 157 297 0.00573129 10 
44 163 297 0.00569800 10 
45 166 297 0.00570335 10 
46 19 305 0.00603462 10 
47 157 305 0.00601439 10 
48 163 305 0.00605249 10 
49 166 305 0.00605295 10 
50 172 305 0.00608891 10 
51 19 315 0.00546000 9 
52 25 315 0.00610492 10 
53 172 315 0.00627206 10 
54 172 328 0.00633010 10 
55 19 337 0.00518759 8 
56 25 337 0.00656618 10 
57 172 337 0.00672231 10 
58 19 342 0.00662543 10 
59 25 342 0.00667934 10 
60 172 342 0.00344047 5 
61 178 342 0.00671692 10 
62 25 367 0.00350845 5 
63 32 367 0.00424206 6 
64 178 367 0.00424114 6 
65 183 367 0.00499032 7 
66 25 374 0.00731008 10 
67 32 374 0.00735609 10 
68 178 374 0.00527532 7 
69 183 374 0.00662859 9 
70 32 382 0.00598134 8 
71 183 382 0.00756912 10 
72 32 387 0.00760706 10 
73 183 387 0.00452557 6 
74 189 400 0.00791736 10 
75 189 414 0.00819130 10 
76 44 437 0.00865215 10 
77 195 437 0.00885912 10 
78 44 454 0.00896006 10 
79 189 454 0.00918204 10 
80 44 467 0.00922091 10 
81 50 467 0.00948865 10 
82 195 467 0.00950834 10 
83 195 484 0.00957910 10 
84 44 494 0.00678189 7 
85 50 494 0.00980862 10 
86 195 494 0.01004821 10 
87 201 494 0.01008741 10 
88 50 500 0.00996445 10 
89 201 500 0.01019849 10 
90 203 500 0.01021186 10 
91 61 508 0.01016682 10 
92 203 508 0.01040770 10 
93 209 508 0.01043604 10 
94 61 522 0.01043670 10 
95 203 522 0.01069277 10 
96 209 522 0.01071149 10 
97 61 528 0.01056124 10 
98 67 528 0.01086507 10 
99 81 528 0.01089136 10 
100 209 528 0.01089359 10 
101 220 528 0.01088574 10 
102 67 532 0.00955482 9 
103 81 532 0.01071695 10 
104 220 532 0.01099118 10 
105 523 532 0.01098687 10 
106 67 556 0.01117420 10 
107 67 564 0.01130439 10 
108 81 564 0.01160700 10 
109 220 564 0.01161543 10 
110 67 567 0.01140736 10 
111 81 567 0.01172659 10 
112 220 567 0.01169833 10 
113 67 570 0.01149437 10 
114 81 570 0.01178691 10 
115 220 570 0.01179245 10 
116 81 575 0.01189931 10 
117 220 575 0.01189957 10 
118 81 588 0.01186306 10 
119 87 588 0.01230083 10 
120 226 588 0.01232647 10 
121 87 597 0.01219411 10 
122 94 597 0.01250586 10 
123 226 597 0.01252642 10 
124 87 604 0.01238511 10 
125 94 604 0.01266765 10 
126 94 616 0.00997941 8 
127 94 632 0.01292684 10 
128 94 637 0.01303194 10 
129 101 637 0.01334415 10 
130 101 642 0.01312535 10 
131 107 642 0.01421922 10 
132 101 645 0.01324966 10 
133 107 645 0.01356802 10 
134 101 657 0.01348182 10 
135 101 663 0.01213065 9 
136 107 663 0.01358937 10 
137 114 663 0.01398324 10 
138 101 665 0.01370125 10 
139 107 665 0.01411509 10 
140 114 665 0.01404210 10 
141 107 680 0.01399771 10 
142 107 683 0.01406999 10 
143 114 683 0.01442057 10 
144 107 704 0.01448342 10 
145 114 704 0.01481696 10 
146 107 714 0.01466132 10 
147 114 714 0.01504249 10 
148 107 730 0.01487802 10 
149 114 730 0.01496292 10 
150 121 754 0.01545451 10 
151 126 754 0.01583262 10 
152 121 759 0.01558022 10 
153 126 759 0.01595093 10 
154 126 762 0.01563623 10 
155 132 762 0.01604301 10 
156 132 778 0.01598397 10 
157 132 792 0.01622849 10 
158 132 800 0.01638139 10 
159 138 800 0.01666775 10 
160 138 806 0.01639718 10 
161 138 821 0.01657652 10 
162 138 823 0.01661096 10 
163 151 828 0.01697212 10 
164 151 847 0.01734704 10 
165 151 855 0.01748922 10 
166 151 895 0.01826996 10 
167 151 897 0.01862579 10 
168 138 903 0.01841795 10 
169 138 904 0.01884209 10 
170 132 907 0.01848024 10 
171 138 907 0.01897612 10 
172 132 911 0.01858621 10 
173 121 923 0.01889634 10 
174 126 923 0.01935760 10 
175 107 929 0.01909316 10 
176 114 929 0.01955777 10 
177 107 935 0.01922325 10 
178 114 935 0.01966206 10 
179 101 939 0.01913881 10 
180 107 939 0.01916233 10 
181 101 944 0.01943130 10 
182 94 947 0.01947775 10 
183 101 947 0.01992638 10 
184 87 953 0.01961570 10 
185 94 953 0.02008011 10 
186 226 953 0.02009597 10 
187 81 959 0.01982524 10 
188 87 959 0.02032269 10 
189 220 959 0.02035975 10 
190 226 959 0.02034511 10 
191 67 965 0.02002270 10 
192 81 965 0.02050100 10 
193 220 965 0.02053269 10 
194 61 976 0.02021873 10 
195 67 976 0.02070378 10 
196 209 976 0.02072191 10 
197 50 982 0.02052641 10 
198 61 982 0.02094440 10 
199 201 982 0.02101441 10 
200 203 982 0.02101559 10 
201 44 988 0.02069276 10 
202 50 988 0.02117384 10 
203 195 988 0.02120794 10 
204 201 988 0.01832806 8 
205 44 994 0.02086513 10 
206 189 994 0.02153043 10 
207 195 994 0.02149871 10 
208 32 1003 0.02113244 10 
209 178 1003 0.02174584 10 
210 183 1003 0.02167932 10 
211 25 1008 0.02136629 10 
212 32 1008 0.02182956 10 
213 178 1008 0.02183262 10 
214 183 1008 0.02188821 10 
215 25 1010 0.02142757 10 
216 32 1010 0.02195612 10 
217 172 1010 0.02198511 10 
218 178 1010 0.02199275 10 
219 19 1016 0.02159299 10 
220 166 1016 0.02222666 10 
221 172 1016 0.01988934 9 
222 151 1029 0.02196171 10 
223 157 1029 0.02227551 10 
224 163 1029 0.02228753 10 
225 166 1029 0.02229682 10 
226 263 1077 0.02282776 10 
227 132 1084 0.02314259 10 
228 101 1138 0.02419642 10 
229 107 1147 0.02433980 10 
230 114 1147 0.02492405 10 
231 107 1150 0.02450714 10 
232 114 1150 0.02505877 10 
233 114 1158 0.02463835 10 
234 121 1158 0.02526327 10 
235 121 1164 0.02482617 10 
236 126 1164 0.02557022 10 
237 114 1175 0.02508930 10 
238 121 1175 0.02568108 10 
239 923 1175 0.02568637 10 
240 929 1175 0.02571658 10 
241 1158 1175 0.02048588 8 
242 101 1188 0.02542098 10 
243 939 1188 0.02603338 10 
244 1138 1188 0.02606728 10 
245 1147 1188 0.02608723 10 
246 1150 1188 0.02608364 10 
247 506 1202 0.02592914 10 
248 628 1208 0.02630385 10 
249 1050 1210 0.02647449 10 
250 1061 1210 0.02694208 10 
251 1075 1210 0.02692812 10 
252 1084 1210 0.02703719 10 
253 1088 1210 0.02704987 10 
254 1093 1210 0.02706547 10 
255 1098 1210 0.02708533 10 
256 157 1217 0.02645015 10 
257 163 1217 0.02707272 10 
258 1029 1217 0.02711696 10 
259 1044 1217 0.02710307 10 
260 1050 1217 0.02714452 10 
261 1056 1217 0.02710925 10 
