1 19 166 0 0.41485034 0.00210969 5 
2 19 172 0 0.02820697 0.00187283 4 
3 25 172 0 0.50366199 0.00187047 4 
4 25 178 0 0.30831851 0.00197529 4 
5 32 178 0 0.01493521 0.00197815 4 
6 32 183 0 0.07055611 0.00200927 4 
7 44 189 0 0.52863102 0.00207156 4 
8 44 195 0 0.35755137 0.00216586 4 
9 50 195 0 0.00572854 0.00219437 4 
10 50 201 0 0.04110605 0.00189791 3 
11 50 203 0 0.06975183 0.00187473 3 
12 61 203 0 0.00745912 0.00189368 3 
13 61 209 0 0.37222863 0.00230920 4 
14 67 209 0 0.41032090 0.00232709 4 
15 67 220 0 0.66144083 0.00249444 4 
16 81 220 0 0.48035877 0.00285440 5 
17 81 226 0 0.05402805 0.00255718 4 
18 87 226 0 1.82553139 0.00293940 5 
19 87 231 0 0.34656585 0.00262316 4 
20 94 231 0 0.55778528 0.00256343 4 
21 226 231 0 1.44127402 0.00297905 5 
22 94 241 0 1.33132047 0.00268304 4 
23 101 241 0 0.50961029 0.00271225 4 
24 101 247 0 1.66454674 0.00274945 4 
25 107 247 0 1.80094617 0.00278105 4 
26 107 254 0 1.18346605 0.00283248 4 
27 114 254 0 0.12939160 0.00285858 4 
28 107 256 0 0.93085039 0.00284138 4 
29 114 256 0 0.24629796 0.00285772 4 
30 107 258 0 1.37911724 0.00289389 4 
31 114 258 0 1.15747212 0.00292224 4 
32 121 266 0 0.00938596 0.00300627 4 
33 126 266 0 0.44864328 0.00354297 5 
34 126 272 0 1.03992836 0.00308477 4 
35 132 272 0 0.39070916 0.00363884 5 
36 132 278 0 0.58358145 0.00316714 4 
37 138 278 0 1.06458780 0.00372831 5 
38 138 284 0 0.02201259 0.00270960 3 
39 151 284 0 0.12777228 0.00327750 4 
40 151 291 0 0.60037557 0.00331276 4 
41 151 297 0 0.07972289 0.00285293 3 
42 157 297 0 1.04991834 0.00345183 4 
43 166 297 0 1.30507781 0.00338202 4 
44 19 305 0 0.16044642 0.00356644 4 
45 157 305 0 0.58687353 0.00359438 4 
46 163 305 0 7.56485476 0.00483165 6 
47 166 305 0 0.37495035 0.00359787 4 
48 172 305 0 0.01886255 0.00360000 4 
49 19 315 0 0.48455906 0.00309889 3 
50 25 315 0 0.02281386 0.00310864 3 
51 172 315 0 0.05679715 0.00372368 4 
52 172 328 0 0.12482725 0.00324590 3 
53 19 337 0 6.63404991 0.00464790 5 
54 25 337 0 0.96522419 0.00398723 4 
55 172 337 0 0.57611560 0.00333756 3 
56 19 342 0 0.00494520 0.00337392 3 
57 25 342 0 0.12855172 0.00405607 4 
58 172 342 0 0.01223902 0.00411091 4 
59 178 342 0 0.12442988 0.00417355 4 
60 25 367 0 0.11414782 0.00378369 3 
61 32 367 0 0.01267433 0.00593536 6 
62 178 367 0 0.00286807 0.00372985 3 
63 183 367 0 0.06698524 0.00375727 3 
64 25 374 0 0.56424690 0.00459009 4 
65 32 374 0 0.09892849 0.00533021 5 
66 178 374 0 0.03055075 0.00460069 4 
67 183 374 0 0.05309447 0.00458370 4 
68 32 382 0 4.14688582 0.00393290 3 
69 183 382 0 1.28811506 0.00465526 4 
70 32 387 0 2.72468715 0.00473139 4 
71 183 387 0 0.18197642 0.00471329 4 
72 189 414 0 7.69047346 0.00585213 5 
73 44 437 0 0.00915802 0.00437761 3 
74 195 437 0 0.01161094 0.00436309 3 
75 44 454 0 0.65644164 0.00451516 3 
76 189 454 0 0.03962740 0.00541371 4 
77 44 467 0 0.12345281 0.00641057 5 
78 50 467 0 0.00895575 0.01021397 9 
79 195 467 0 0.00230988 0.00462661 3 
80 195 484 0 0.09447226 0.00573735 4 
81 44 494 0 0.02880924 0.00576730 4 
82 50 494 0 0.00628832 0.00481466 3 
83 195 494 0 0.00818961 0.00683039 5 
84 201 494 0 0.00469852 0.00681857 5 
85 50 500 0 0.14406209 0.00693162 5 
86 201 500 0 0.05353930 0.00491131 3 
87 203 500 0 0.03252445 0.00487931 3 
88 61 508 0 0.99413579 0.00711396 5 
89 203 508 0 0.26947301 0.01223419 10 
90 209 508 0 0.03711473 0.00604776 4 
91 61 522 0 1.37942234 0.00612973 4 
92 203 522 0 0.12859200 0.00511622 3 
93 209 522 0 0.00542469 0.00510671 3 
94 61 528 0 0.47936102 0.00515456 3 
95 67 528 0 0.22419307 0.00628080 4 
96 81 528 0 0.23233822 0.00840966 6 
97 209 528 0 0.09444678 0.01060650 8 
98 220 528 0 0.13668760 0.00625004 4 
99 67 532 0 0.05459173 0.01178483 9 
100 81 532 0 0.11826401 0.00846468 6 
101 220 532 0 0.05648169 0.00634215 4 
102 67 556 0 0.98233216 0.00647803 4 
103 67 564 0 0.40168838 0.01230913 9 
104 81 564 0 0.02280941 0.00663180 4 
105 220 564 0 0.02684857 0.00664369 4 
106 67 567 0 2.67253169 0.00779504 5 
107 81 567 0 0.48923871 0.00899505 6 
108 220 567 0 0.21723258 0.00663767 4 
109 67 570 0 2.40706627 0.00909159 6 
110 81 570 0 0.15671702 0.00901164 6 
111 220 570 0 0.13379867 0.00672623 4 
112 81 575 0 2.76594993 0.00792616 5 
113 220 575 0 1.08612706 0.01033759 7 
114 81 588 0 0.01497138 0.00566321 3 
115 87 588 0 0.47937722 0.00816436 5 
116 226 588 0 0.43156268 0.00690448 4 
117 87 597 0 2.27648751 0.00953699 6 
118 94 597 0 0.38888315 0.00698934 4 
119 226 597 0 0.55079633 0.00830375 5 
120 87 604 0 0.47149562 0.00708210 4 
121 94 604 0 0.01542269 0.00840091 5 
122 94 616 0 0.01350372 0.01231234 8 
123 94 632 0 2.16969694 0.00877472 5 
124 94 637 0 4.44236402 0.01004099 6 
125 101 637 0 0.19098383 0.00749321 4 
126 101 642 0 0.11555601 0.00889208 5 
127 107 642 0 0.04025021 0.01407027 9 
128 101 645 0 6.69527511 0.00759642 4 
129 107 645 0 1.54205090 0.00752654 4 
130 101 657 0 0.73548669 0.01779778 10 
131 101 663 0 0.04971914 0.01671136 10 
132 107 663 0 0.01781179 0.00911803 5 
133 114 663 0 0.00275957 0.00913266 5 
134 101 665 0 1.55112265 0.01344970 8 
135 107 665 0 0.47667103 0.00779417 4 
136 114 665 0 0.13329170 0.00647843 3 
137 107 680 0 1.48615866 0.00935402 5 
138 107 683 0 0.94462224 0.00800575 4 
139 114 683 0 0.32178225 0.00950247 5 
140 107 704 0 0.34268109 0.01261358 7 
141 114 704 0 0.07528002 0.01550974 9 
142 107 714 0 1.79639085 0.01131636 6 
143 114 714 0 0.02860377 0.01434374 8 
144 107 730 0 0.19656714 0.01011667 5 
145 114 730 0 0.03540690 0.00855654 4 
146 121 754 0 0.33113739 0.00872430 4 
147 126 754 0 0.07673382 0.01511507 8 
148 121 759 0 2.33625684 0.01192366 6 
149 126 759 0 0.22329988 0.01205855 6 
150 126 762 0 7.08482229 0.01035955 5 
151 132 762 0 2.00372045 0.01532164 8 
152 132 778 0 0.06999780 0.00901735 4 
153 132 792 0 1.26802734 0.00927408 4 
154 132 800 0 3.35686460 0.00916130 4 
155 138 800 0 0.14494330 0.01254339 6 
156 138 806 0 0.25140739 0.00758788 3 
157 138 821 0 0.40674396 0.01105996 5 
158 138 823 0 6.54725682 0.00935294 4 
159 151 828 0 3.12108818 0.00951117 4 
160 151 847 0 0.08724621 0.01142436 5 
161 151 855 0 0.11494457 0.01509458 7 
162 151 895 0 2.80701437 0.01756873 8 
163 151 897 0 0.06118057 0.02130120 10 
164 138 903 0 0.08157811 0.01020110 4 
165 138 904 0 7.06392298 0.01397638 6 
166 132 907 0 0.71874717 0.01026130 4 
167 138 907 0 0.22077132 0.01216988 5 
168 132 911 0 0.23128175 0.01218437 5 
169 121 923 0 0.62636126 0.01431961 6 
170 126 923 0 0.07130653 0.01044003 4 
171 107 929 0 0.07225325 0.01253271 5 
172 114 929 0 0.00477553 0.01055703 4 
173 107 935 0 4.91438615 0.01646943 7 
174 114 935 0 1.40337639 0.01650373 7 
175 101 939 0 0.48567419 0.01066875 4 
176 107 939 0 0.21174614 0.01069143 4 
177 101 944 0 0.15377935 0.01269736 5 
178 94 947 0 0.23772432 0.01670598 7 
179 101 947 0 0.16826262 0.01477019 6 
180 87 953 0 0.13504795 0.01086512 4 
181 94 953 0 0.06505521 0.01489249 6 
182 226 953 0 0.08268323 0.02292297 10 
183 81 959 0 1.83528326 0.02431511 10 
184 87 959 0 1.29172246 0.01706179 7 
185 220 959 0 0.04883629 0.01100630 4 
186 226 959 0 0.12130941 0.01302626 5 
187 67 965 0 1.01368609 0.01312257 5 
188 81 965 0 0.31066014 0.01518549 6 
189 220 965 0 0.16483276 0.01925143 8 
190 61 976 0 0.16803746 0.01737499 7 
191 67 976 0 0.05676300 0.00913990 3 
192 209 976 0 0.00780965 0.01120804 4 
193 50 982 0 0.38354811 0.01130663 4 
194 61 982 0 0.27147698 0.01133418 4 
195 201 982 0 0.22200943 0.01133703 4 
196 203 982 0 0.10573284 0.02181847 9 
197 44 988 0 0.09550719 0.01142434 4 
198 50 988 0 0.05924873 0.01143501 4 
199 195 988 0 0.04319526 0.01565645 6 
200 201 988 0 0.02685916 0.01353152 5 
201 44 994 0 0.51683435 0.01784691 7 
202 189 994 0 0.29989154 0.02565549 10 
203 195 994 0 0.21957432 0.01367871 5 
204 32 1003 0 0.23901034 0.01378455 5 
205 178 1003 0 0.03356851 0.02595938 10 
206 183 1003 0 0.01433170 0.01599563 6 
207 25 1008 0 1.23858172 0.01829053 7 
208 32 1008 0 0.53803958 0.01173429 4 
209 178 1008 0 0.34459610 0.01178316 4 
210 183 1008 0 0.22233868 0.01177932 4 
211 25 1010 0 0.60236133 0.01175963 4 
212 32 1010 0 0.30591807 0.01394912 5 
213 172 1010 0 0.10368354 0.01623687 6 
214 178 1010 0 0.19279072 0.02633133 10 
215 19 1016 0 0.44047719 0.02050957 8 
216 166 1016 0 0.20189646 0.01181836 4 
217 172 1016 0 0.07393216 0.01401060 5 
218 151 1029 0 0.03533130 0.01427955 5 
219 157 1029 0 0.02672450 0.01196916 4 
220 163 1029 0 3.39703566 0.01197427 4 
221 166 1029 0 0.49353449 0.01197884 4 
222 132 1084 0 4.21993706 0.01500088 5 
223 101 1138 0 0.63021658 0.01572700 5 
224 107 1147 0 0.73708347 0.01328207 4 
225 114 1147 0 0.03971358 0.01086910 3 
226 107 1150 0 7.45683387 0.01332971 4 
227 114 1150 0 1.00561260 0.01087197 3 
228 114 1158 0 0.16899687 0.01090173 3 
229 121 1158 0 0.69099743 0.01344654 4 
230 121 1164 0 0.45182924 0.01601027 5 
231 126 1164 0 0.04418665 0.01352724 4 
232 114 1175 0 0.14266969 0.01364001 4 
233 121 1175 0 0.27324351 0.01369470 4 
234 923 1175 0 0.18719011 0.01373260 4 
235 929 1175 0 0.16073549 0.01368169 4 
236 1158 1175 0 0.00134797 0.01112139 3 
237 101 1188 0 0.32950319 0.01381365 4 
238 939 1188 0 0.55418798 0.01381896 4 
239 1138 1188 0 0.03006025 0.01137420 3 
240 1147 1188 0 0.04063922 0.01125981 3 
241 1150 1188 0 1.83245351 0.01383774 4 
242 1050 1210 0 0.00345523 0.01406725 4 
243 1061 1210 0 0.57363906 0.01670735 5 
244 1075 1210 0 0.23107861 0.01670990 5 
245 1084 1210 0 3.13555510 0.01671547 5 
246 1088 1210 0 0.59156319 0.01411186 4 
247 1093 1210 0 0.13111230 0.01936857 6 
248 1098 1210 0 0.04730346 0.01412147 4 
249 157 1217 0 0.32750279 0.01421804 4 
250 163 1217 0 0.19904338 0.01432645 4 
251 1029 1217 0 0.01250493 0.01165175 3 
252 1044 1217 0 3.98258990 0.01434522 4 
253 1050 1217 0 4.97161000 0.01700641 5 
254 163 297 0 0.27920255 0.01518592 4 
255 189 400 0 2.09679271 0.01456111 4 
256 1056 1217 0 9.66143264 0.01726713 5 
