VERTEX2 0 0.00008511 -0.00000028 0.00000067
VERTEX2 1 0.00008511 -0.00000028 -0.00064133
VERTEX2 2 0.00008511 -0.00000028 -0.00117934
VERTEX2 3 0.01108696 -0.00097525 -0.00356134
VERTEX2 4 0.64109354 -0.01119998 -0.00744334
VERTEX2 5 0.69610123 -0.01171543 -0.09872534
VERTEX2 6 0.70035434 -0.01543475 -0.89599734
VERTEX2 7 0.69404159 0.00421373 -1.51153434
VERTEX2 8 0.69934843 0.02669451 -2.12506834
VERTEX2 9 0.71619969 0.04112354 -2.76313834
VERTEX2 10 0.72906621 0.04322094 2.90551597
VERTEX2 11 0.73328879 0.04053790 2.23123697
VERTEX2 12 0.73327151 0.04154635 1.58176297
VERTEX2 13 0.73883765 0.05907144 0.92226497
VERTEX2 14 0.75974316 0.07375167 0.31402597
VERTEX2 15 0.76865656 0.07435861 -0.21090203
VERTEX2 16 1.06257866 0.01415337 -0.22959403
VERTEX2 17 1.66373241 -0.13311298 -0.26082203
VERTEX2 18 2.28708665 -0.29647764 -0.27099903
VERTEX2 19 2.91438269 -0.49425107 -0.31957503
VERTEX2 20 3.50747784 -0.68389612 -0.31363254
VERTEX2 21 4.11629531 -0.83595356 -0.20205469
VERTEX2 22 4.72603382 -0.97701499 -0.18467562
VERTEX2 23 5.36657741 -1.02111122 -0.07729430
VERTEX2 24 5.99714893 -1.09237559 -0.13442254
VERTEX2 25 6.63102194 -1.16017631 -0.13172103
VERTEX2 26 7.23921047 -1.26084685 -0.17235561
VERTEX2 27 7.85431675 -1.35239592 -0.15662162
VERTEX2 28 8.43514317 -1.45125907 -0.16116246
VERTEX2 29 8.81338507 -1.50884263 -0.13049151
VERTEX2 30 8.82194909 -1.51112589 -0.66283493
VERTEX2 31 8.92296614 -1.64690301 -0.93134408
VERTEX2 32 9.29051890 -2.16214019 -0.94997567
VERTEX2 33 9.67357679 -2.67129722 -0.89954458
VERTEX2 34 10.08554623 -3.16407229 -0.87884936
VERTEX2 35 10.50740315 -3.64914584 -0.84493729
VERTEX2 36 10.93565144 -4.13554038 -0.85382426
VERTEX2 37 11.21781203 -4.45205859 -0.84645230
VERTEX2 38 11.21739207 -4.45146830 -1.16869356
VERTEX2 39 11.21703434 -4.44949577 -1.34007677
VERTEX2 40 11.36070596 -5.02780164 -1.32310468
VERTEX2 41 11.50805444 -5.62383812 -1.35534896
VERTEX2 42 11.62793714 -6.18328013 -1.37829304
VERTEX2 43 11.73174994 -6.77437163 -1.41871734
VERTEX2 44 11.81866517 -7.36471883 -1.45589749
VERTEX2 45 11.87111460 -7.98186008 -1.51147836
VERTEX2 46 11.89959717 -8.60121841 -1.53090585
VERTEX2 47 11.91741716 -9.22263574 -1.57261212
VERTEX2 48 11.91159926 -9.84852331 -1.57917727
VERTEX2 49 11.90203093 -10.47036619 -1.63001678
VERTEX2 50 11.84642929 -11.05994501 -1.67450689
VERTEX2 51 11.78911587 -11.65465439 -1.70362567
VERTEX2 52 11.68987505 -12.23633428 -1.78038460
VERTEX2 53 11.58789049 -12.79256088 -1.76804949
VERTEX2 54 11.47303118 -13.30322564 -1.83013210
VERTEX2 55 11.47996656 -13.27056580 -1.82485503
VERTEX2 56 11.47944907 -13.27255547 -1.81428049
VERTEX2 57 11.33309246 -13.88932443 -1.82565292
VERTEX2 58 11.18421123 -14.49440719 -1.77937773
VERTEX2 59 11.05275433 -15.09890751 -1.80288614
VERTEX2 60 10.92074617 -15.69978512 -1.78141000
VERTEX2 61 10.78298113 -16.30121166 -1.83202619
VERTEX2 62 10.63098233 -16.85935212 -1.79209938
VERTEX2 63 10.47721070 -17.42224737 -1.82750220
VERTEX2 64 10.34007782 -17.97958111 -1.76400621
VERTEX2 65 10.20346681 -18.53465619 -1.81530127
VERTEX2 66 10.04775295 -19.11954893 -1.82320169
VERTEX2 67 9.88030451 -19.70791847 -1.82161749
VERTEX2 68 9.76825283 -20.15816079 -1.83692214
VERTEX2 69 9.77047362 -20.15095394 -1.99124051
VERTEX2 70 9.77572625 -20.14090701 -2.66410240
VERTEX2 71 9.80464964 -20.13925092 2.97638372
VERTEX2 72 9.82118302 -20.14123769 2.96688223
VERTEX2 73 9.83174148 -20.14385511 2.90191535
VERTEX2 74 9.83213060 -20.14410512 2.28005675
VERTEX2 75 9.84086189 -20.14752855 1.92766861
VERTEX2 76 9.82173295 -20.12632457 2.62092017
VERTEX2 77 9.81248296 -20.12245674 2.85354773
VERTEX2 78 9.53211085 -20.13238873 -3.09284803
VERTEX2 79 8.91531391 -20.16887923 -3.09826663
VERTEX2 80 8.28396825 -20.16506136 3.11026667
VERTEX2 81 7.65984320 -20.13612075 3.08419144
VERTEX2 82 7.06450919 -20.09437599 3.03004876
VERTEX2 83 6.48046125 -20.04217839 3.00648659
VERTEX2 84 5.91961347 -19.95474828 2.92862541
VERTEX2 85 5.37851651 -19.84928980 2.93587831
VERTEX2 86 4.77106870 -19.72682611 2.84608471
VERTEX2 87 4.37201212 -19.61452912 2.79437767
VERTEX2 88 4.01270213 -19.48016151 2.76459787
VERTEX2 89 4.02349055 -19.48069735 -3.12275701
VERTEX2 90 3.41999795 -19.48209552 3.12936948
VERTEX2 91 2.80560611 -19.47589034 -3.10465925
VERTEX2 92 2.20729566 -19.46994718 3.06294478
VERTEX2 93 1.58646320 -19.36553356 2.96221680
VERTEX2 94 0.96559542 -19.22527394 2.91958312
VERTEX2 95 0.34404382 -19.13591283 3.06224646
VERTEX2 96 -0.26569346 -19.08331107 3.08637567
VERTEX2 97 -0.85512020 -19.01896655 3.01585465
VERTEX2 98 -1.44331329 -18.91666103 2.95797889
VERTEX2 99 -2.14798612 -18.79072163 3.00490238
VERTEX2 100 -2.71228346 -18.68159766 2.95331016
VERTEX2 101 -3.32253675 -18.62382716 3.05677724
VERTEX2 102 -3.93347791 -18.54269325 2.95091556
VERTEX2 103 -4.54017295 -18.42712136 3.04695921
VERTEX2 104 -5.15056958 -18.35007907 3.01337240
VERTEX2 105 -5.76107456 -18.28490691 3.06004239
VERTEX2 106 -6.36113014 -18.21390002 3.00530778
VERTEX2 107 -6.98543879 -18.11653157 3.00128046
VERTEX2 108 -7.44057816 -18.06713094 3.06282641
VERTEX2 109 -7.48644022 -18.05545118 2.61427183
VERTEX2 110 -7.50333742 -18.03791614 2.02286438
VERTEX2 111 -7.50340498 -17.95741872 1.51696439
VERTEX2 112 -7.47866363 -17.32388869 1.57135465
VERTEX2 113 -7.49604598 -16.70187114 1.61835292
VERTEX2 114 -7.52817282 -16.08828011 1.65510605
VERTEX2 115 -7.59968737 -15.45065906 1.71512743
VERTEX2 116 -7.71605850 -14.70290716 1.75902528
VERTEX2 117 -7.84948189 -14.09580842 1.85440971
VERTEX2 118 -7.85326985 -14.07870375 1.51950800
VERTEX2 119 -7.79669345 -13.56173913 1.46613561
VERTEX2 120 -7.74299449 -12.90686876 1.55628837
VERTEX2 121 -7.75266036 -12.28976533 1.62387036
VERTEX2 122 -7.78621486 -11.70987136 1.68005920
VERTEX2 123 -7.81071241 -11.53268117 1.66725831
VERTEX2 124 -7.72495354 -11.29514029 1.24419694
VERTEX2 125 -7.50867527 -10.70386618 1.23325328
VERTEX2 126 -7.37657757 -10.08974600 1.43981394
VERTEX2 127 -7.27918288 -9.45744320 1.43815333
VERTEX2 128 -7.20400180 -8.82140526 1.47453799
VERTEX2 129 -7.11795295 -8.18900784 1.44188342
VERTEX2 130 -7.05074971 -7.55890922 1.49459578
VERTEX2 131 -7.00526169 -6.93501384 1.58315287
VERTEX2 132 -6.98764442 -6.32129760 1.53366682
VERTEX2 133 -6.94131100 -5.75602715 1.49677673
VERTEX2 134 -6.88795240 -5.16180535 1.47852604
VERTEX2 135 -6.80658309 -4.58749258 1.45229771
VERTEX2 136 -6.73296454 -3.95657369 1.47197138
VERTEX2 137 -6.63694932 -3.32747904 1.43024501
VERTEX2 138 -6.56152457 -2.70004014 1.51069003
VERTEX2 139 -6.54624651 -2.06964155 1.57609275
VERTEX2 140 -6.57600962 -1.41466104 1.60671395
VERTEX2 141 -6.58347034 -0.77495719 1.55837412
VERTEX2 142 -6.58532760 -0.12554391 1.55462595
VERTEX2 143 -6.50583952 0.51309889 1.44416494
VERTEX2 144 -6.46707294 0.88453726 1.46177567
VERTEX2 145 -6.46161626 0.90121114 0.96352730
VERTEX2 146 -6.46007281 0.90919158 0.37046961
VERTEX2 147 -6.40233962 0.90537718 -0.11590884
VERTEX2 148 -5.96852648 0.84691719 -0.15149082
VERTEX2 149 -5.32566722 0.75569017 -0.12632131
VERTEX2 150 -4.68937397 0.69385394 -0.11210007
VERTEX2 151 -4.04754486 0.64925866 -0.02636413
VERTEX2 152 -3.42045487 0.61704844 -0.08720333
VERTEX2 153 -2.79363856 0.58749434 0.00626557
VERTEX2 154 -2.17045251 0.56976343 -0.06323663
VERTEX2 155 -1.54345081 0.53956431 -0.02976934
VERTEX2 156 -0.91540865 0.52879145 0.00127055
VERTEX2 157 -0.35102733 0.51444713 -0.06277648
VERTEX2 158 -0.15642114 0.50175536 -0.03528158
VERTEX2 159 -0.15083248 0.49999929 0.95204667
VERTEX2 160 -0.14543735 0.50891471 1.98772605
VERTEX2 161 -0.16747801 0.45047621 2.70872242
VERTEX2 162 -0.14167183 0.45631914 -2.53866251
VERTEX2 163 -0.14266564 0.45130966 -1.54158104
VERTEX2 164 -0.22131377 0.54907132 -0.47907224
VERTEX2 165 -0.04751247 0.53181052 -0.07129265
VERTEX2 166 0.65006626 0.48866281 -0.06959654
VERTEX2 167 1.26808341 0.43849505 -0.09910848
VERTEX2 168 1.85753078 0.38923316 -0.08727335
VERTEX2 169 2.45196034 0.31765017 -0.12401948
VERTEX2 170 3.03767316 0.24939923 -0.14450181
VERTEX2 171 3.59827389 0.15119974 -0.18265595
VERTEX2 172 4.22261115 0.04397526 -0.16847612
VERTEX2 173 4.85054875 -0.07642961 -0.19142245
VERTEX2 174 5.47471292 -0.19049953 -0.15142230
VERTEX2 175 6.08994416 -0.28056884 -0.17624680
VERTEX2 176 6.68827031 -0.40072268 -0.16675879
VERTEX2 177 7.31054175 -0.50349751 -0.19453391
VERTEX2 178 7.93081420 -0.64939080 -0.23366970
VERTEX2 179 8.33380412 -0.73333525 -0.18045582
VERTEX2 180 8.38354209 -0.74676647 -0.62271739
VERTEX2 181 8.82356527 -1.06540494 -0.67462833
VERTEX2 182 9.22936659 -1.42588052 -0.84881841
VERTEX2 183 9.57561110 -1.84710024 -0.90631336
VERTEX2 184 9.92014927 -2.36848172 -1.05247652
VERTEX2 185 10.20836673 -2.91264436 -1.14479287
VERTEX2 186 10.43067204 -3.48825839 -1.21099356
VERTEX2 187 10.62831951 -4.04166157 -1.23349168
VERTEX2 188 10.83258082 -4.61461949 -1.23882060
VERTEX2 189 11.02929483 -5.19151036 -1.26549427
VERTEX2 190 11.21046172 -5.79334962 -1.29466577
VERTEX2 191 11.38107445 -6.39441492 -1.31912856
VERTEX2 192 11.53258284 -6.98876040 -1.34787362
VERTEX2 193 11.65326775 -7.53427763 -1.40400593
VERTEX2 194 11.75102298 -8.10676112 -1.43043153
VERTEX2 195 11.82937354 -8.67457434 -1.45869170
VERTEX2 196 11.89351663 -9.29937584 -1.49949605
VERTEX2 197 11.92896946 -9.92017133 -1.52700225
VERTEX2 198 11.95169378 -10.53838321 -1.58519999
VERTEX2 199 11.92120455 -11.14611430 -1.64663241
VERTEX2 200 11.87170529 -11.74868878 -1.66851665
VERTEX2 201 11.79850959 -12.34784179 -1.72517789
VERTEX2 202 11.73246651 -12.85153208 -1.70489226
VERTEX2 203 11.62728443 -13.58410783 -1.75747619
VERTEX2 204 11.50345846 -14.15856260 -1.85939112
VERTEX2 205 11.33204281 -14.71913703 -1.86873255
VERTEX2 206 11.17590844 -15.26467466 -1.86670611
VERTEX2 207 11.01401870 -15.82995114 -1.85062112
VERTEX2 208 10.83839500 -16.42792289 -1.85989846
VERTEX2 209 10.67408273 -17.02733760 -1.82149529
VERTEX2 210 10.50927640 -17.61886349 -1.83029671
VERTEX2 211 10.35847925 -18.21420169 -1.82797926
VERTEX2 212 10.18018551 -18.79907951 -1.88076759
VERTEX2 213 9.98333219 -19.38763134 -1.90148563
VERTEX2 214 9.78172836 -19.96260298 -1.90523618
VERTEX2 215 9.66582857 -20.28399528 -1.94096955
VERTEX2 216 9.67808364 -20.26315017 -2.43947354
VERTEX2 217 9.70344072 -20.26050363 -2.98147423
VERTEX2 218 9.71202267 -20.26382060 -3.03743444
VERTEX2 219 9.14539361 -20.21825370 3.07733157
VERTEX2 220 8.53606573 -20.17256837 3.03753099
VERTEX2 221 7.89780142 -20.10449400 3.08806731
VERTEX2 222 7.27328437 -20.06030267 3.06259037
VERTEX2 223 6.64835056 -20.02944472 -3.12415560
VERTEX2 224 6.03547885 -20.02873830 3.13335643
VERTEX2 225 5.41898229 -20.02176433 -3.09999323
VERTEX2 226 4.80346579 -20.01412869 3.13425467
VERTEX2 227 4.15995396 -20.08203682 -2.99217330
VERTEX2 228 3.63697599 -20.06540604 2.92964035
VERTEX2 229 3.19020217 -20.02568069 3.05033108
VERTEX2 230 2.90008893 -20.00939922 3.02164935
VERTEX2 231 3.10509362 -20.02747592 3.09183073
VERTEX2 232 2.79503923 -19.88778084 2.66599587
VERTEX2 233 2.23091154 -19.62593283 2.76833699
VERTEX2 234 1.65498447 -19.39822008 2.72421968
VERTEX2 235 1.40535575 -19.29007803 2.71927686
VERTEX2 236 1.07198418 -19.29082704 3.12483219
VERTEX2 237 0.44508835 -19.30488442 -3.08789895
VERTEX2 238 -0.17393599 -19.35246335 -3.12057153
VERTEX2 239 -0.78942099 -19.34875240 3.09506897
VERTEX2 240 -1.35887664 -19.23012652 2.87711757
VERTEX2 241 -1.89844257 -19.09814835 2.96265752
VERTEX2 242 -2.47143931 -19.03249681 3.00231265
VERTEX2 243 -3.07132167 -18.94866256 3.00172933
VERTEX2 244 -3.69479916 -18.90235445 3.07316473
VERTEX2 245 -4.30906994 -18.85299649 3.01906553
VERTEX2 246 -4.91094037 -18.76637490 2.94680327
VERTEX2 247 -5.51430255 -18.68360933 3.05285916
VERTEX2 248 -6.06668496 -18.66170606 3.08434630
VERTEX2 249 -6.01635458 -18.66929000 -3.00578041
VERTEX2 250 -6.00991090 -18.66913512 2.69102590
VERTEX2 251 -6.33343337 -18.32788479 2.26799269
VERTEX2 252 -6.69096835 -17.90754922 2.27627340
VERTEX2 253 -7.06456874 -17.46155238 2.26498984
VERTEX2 254 -7.43135851 -17.00340829 2.22342341
VERTEX2 255 -7.50447467 -16.91058650 2.30729303
VERTEX2 256 -7.50740176 -16.83468648 1.83118685
VERTEX2 257 -7.55875227 -16.37550093 1.69553221
VERTEX2 258 -7.64224691 -15.78575849 1.77609050
VERTEX2 259 -7.78471057 -15.18410776 1.81663751
VERTEX2 260 -7.91743141 -14.62674927 1.80822590
VERTEX2 261 -7.91524382 -14.59085709 1.49674028
VERTEX2 262 -7.85167885 -13.94064260 1.50341984
VERTEX2 263 -7.80909770 -13.32399739 1.51691229
VERTEX2 264 -7.79374041 -12.72088924 1.61402236
VERTEX2 265 -7.82482948 -12.11899479 1.63424871
VERTEX2 266 -7.77660273 -11.54198624 1.50517347
VERTEX2 267 -7.72393367 -10.78895459 1.47632754
VERTEX2 268 -7.58994950 -10.18012440 1.36695245
VERTEX2 269 -7.47006232 -9.56921657 1.39634571
VERTEX2 270 -7.39761883 -8.94994969 1.50986831
VERTEX2 271 -7.30182873 -8.33156439 1.39898678
VERTEX2 272 -7.21543873 -7.70894820 1.46395010
VERTEX2 273 -7.22409909 -7.08351934 1.67578540
VERTEX2 274 -7.29049163 -6.46863836 1.69976632
VERTEX2 275 -7.27724929 -5.86185616 1.52834737
VERTEX2 276 -7.26917480 -5.25608516 1.64295337
VERTEX2 277 -7.31468005 -4.69380893 1.61751992
VERTEX2 278 -7.27018247 -4.05494580 1.52902583
VERTEX2 279 -7.22929445 -3.41889938 1.47370736
VERTEX2 280 -7.16006993 -2.78774845 1.47584003
VERTEX2 281 -7.06842308 -2.15441027 1.37555431
VERTEX2 282 -6.94752582 -1.52703728 1.41561916
VERTEX2 283 -6.85974060 -0.89374069 1.40803721
VERTEX2 284 -6.74702440 -0.27046755 1.43551728
VERTEX2 285 -6.67975972 0.37740605 1.45696187
VERTEX2 286 -6.61325206 0.99755370 1.51096284
VERTEX2 287 -6.61038093 1.04974894 1.40665956
VERTEX2 288 -6.60553236 1.05845498 0.79838488
VERTEX2 289 -6.59962849 1.06150041 0.20525675
VERTEX2 290 -6.15594033 1.05281646 -0.01965416
VERTEX2 291 -5.52998556 1.04512285 -0.00577868
VERTEX2 292 -4.91227709 1.02533768 -0.06041503
VERTEX2 293 -4.28613246 0.97994275 -0.08347974
VERTEX2 294 -3.66360230 0.92749113 -0.08280700
VERTEX2 295 -3.04058458 0.84683932 -0.19531973
VERTEX2 296 -2.42301313 0.70170214 -0.24075105
VERTEX2 297 -1.80767309 0.54961875 -0.25248749
VERTEX2 298 -1.19664664 0.39500490 -0.25309451
VERTEX2 299 -0.62226136 0.23808124 -0.19187832
VERTEX2 300 -0.03488481 0.15188807 -0.14968666
VERTEX2 301 0.52777670 0.05182558 -0.20887453
VERTEX2 302 0.82969716 -0.01340274 -0.22980890
VERTEX2 303 0.81212538 -0.00972658 -0.22570026
VERTEX2 304 1.31260726 -0.12570416 -0.21620222
VERTEX2 305 1.92902173 -0.17076222 -0.03244724
VERTEX2 306 2.55917055 -0.18227613 -0.05049905
VERTEX2 307 3.19903612 -0.23106495 -0.08718964
VERTEX2 308 3.82733751 -0.29490304 -0.14277090
VERTEX2 309 4.46296726 -0.35612685 -0.04984302
VERTEX2 310 5.09131822 -0.38683612 -0.08573551
VERTEX2 311 5.37303777 -0.41315274 0.08931412
VERTEX2 312 5.37089326 -0.41425497 1.07742393
VERTEX2 313 5.37536244 -0.19513668 1.57325113
VERTEX2 314 5.35520086 0.43368364 1.61309396
VERTEX2 315 5.32598098 1.06187026 1.60882156
VERTEX2 316 5.28607409 1.70349111 1.66078382
VERTEX2 317 5.22460116 2.34134150 1.67133583
VERTEX2 318 5.12550994 2.97384649 1.76663192
VERTEX2 319 5.04493933 3.32019872 1.83836579
VERTEX2 320 5.04829429 3.33076020 2.80826629
VERTEX2 321 5.04876813 3.33094885 -2.43370006
VERTEX2 322 5.04784483 3.32899784 -1.43935652
VERTEX2 323 5.05675011 3.32055105 -0.44879870
VERTEX2 324 5.05888124 3.31988102 0.20978304
VERTEX2 325 5.05806812 3.31982170 -0.31897574
VERTEX2 326 5.07154956 3.30977112 -0.91537577
VERTEX2 327 5.07466271 3.29531672 -1.53998011
VERTEX2 328 5.05957868 2.65835462 -1.58700871
VERTEX2 329 5.03873859 2.03382666 -1.64342463
VERTEX2 330 4.98562364 1.42059965 -1.66390144
VERTEX2 331 4.93150392 0.80607832 -1.67964884
VERTEX2 332 4.85299396 0.19456136 -1.69963273
VERTEX2 333 4.83172450 0.04212889 -1.63615968
VERTEX2 334 4.83663375 0.04293673 -0.84293167
VERTEX2 335 4.85258789 0.03824300 0.14808508
VERTEX2 336 4.86557361 0.04281956 1.08925696
VERTEX2 337 4.86891809 0.06384286 2.06724095
VERTEX2 338 4.86586357 0.06596241 3.05654016
VERTEX2 339 4.87689832 0.07281366 -2.17691188
VERTEX2 340 4.87713829 0.07107200 -1.15730873
VERTEX2 341 4.99024624 0.00276159 -0.52370347
VERTEX2 342 5.56294702 -0.30214009 -0.42166178
VERTEX2 343 6.14106017 -0.50339882 -0.28977746
VERTEX2 344 6.73018589 -0.68639463 -0.29898342
VERTEX2 345 6.96862381 -0.75652126 -0.32562023
VERTEX2 346 6.95476520 -0.75199379 -0.97072000
VERTEX2 347 6.95709129 -0.83409863 -1.52746109
VERTEX2 348 6.97565401 -1.41839168 -1.54336786
VERTEX2 349 6.97437870 -2.03922204 -1.58301788
VERTEX2 350 6.96241238 -2.82866461 -1.60208482
VERTEX2 351 6.94851101 -3.10377408 -1.63048393
VERTEX2 352 6.94644704 -3.11368760 -1.91737785
VERTEX2 353 6.93414737 -3.12881824 -2.58044715
VERTEX2 354 6.91989997 -3.13292493 3.10152959
VERTEX2 355 6.89948013 -3.13225977 2.38306183
VERTEX2 356 6.89406738 -3.12272480 1.80990927
VERTEX2 357 6.89650278 -3.10806769 1.15914625
VERTEX2 358 6.89694416 -3.10746742 0.54590047
VERTEX2 359 6.88466783 -3.11274190 -0.06591798
VERTEX2 360 6.87003796 -3.10986010 -0.24104790
VERTEX2 361 6.86144363 -3.11211333 0.68145984
VERTEX2 362 6.94596447 -2.88194466 1.21714342
VERTEX2 363 7.04813586 -2.61452466 1.21147827
VERTEX2 364 6.97877282 -2.27912341 1.82810163
VERTEX2 365 6.92326534 -1.99073065 1.33268314
VERTEX2 366 7.03135744 -1.86827896 0.78038656
VERTEX2 367 7.47654130 -1.43357338 0.78317794
VERTEX2 368 7.93299344 -0.99706898 0.73524098
VERTEX2 369 7.95297495 -0.97293558 0.48341521
VERTEX2 370 7.97709015 -0.96908362 -0.10335804
VERTEX2 371 7.98278783 -0.97204168 -0.64883422
VERTEX2 372 8.41119360 -1.32048174 -0.67650585
VERTEX2 373 8.88329826 -1.68520963 -0.67452043
VERTEX2 374 9.36182897 -2.08822482 -0.73565771
VERTEX2 375 9.72130342 -2.40809723 -0.76653694
VERTEX2 376 9.73302617 -2.41526685 -0.07386801
VERTEX2 377 9.78302234 -2.37970700 0.61931137
VERTEX2 378 10.31802118 -1.98228831 0.67221954
VERTEX2 379 10.79730762 -1.55243125 0.75568808
VERTEX2 380 11.23693266 -1.08631982 0.87362075
VERTEX2 381 11.38291693 -0.90657472 1.02204526
VERTEX2 382 11.38404531 -0.90451652 2.06705709
VERTEX2 383 11.38118583 -0.90276334 3.05398896
VERTEX2 384 11.37842240 -0.90538032 -2.26539653
VERTEX2 385 11.37323024 -0.91409387 -1.23522975
VERTEX2 386 11.47704220 -1.04916732 -1.01026323
VERTEX2 387 11.93196072 -1.47099550 -0.67846427
VERTEX2 388 12.39057799 -1.82510030 -0.67152262
VERTEX2 389 12.82422054 -2.19836836 -0.75618486
VERTEX2 390 12.83256135 -2.20562241 -0.28594802
VERTEX2 391 12.64228070 -2.19731872 0.08981078
VERTEX2 392 12.58284325 -2.19802268 1.11999611
VERTEX2 393 12.58355818 -2.13558444 2.35756201
VERTEX2 394 12.51871436 -2.10907120 -2.94175739
VERTEX2 395 12.70544177 -2.00953824 -2.60820659
VERTEX2 396 12.67875384 -2.02380643 -2.61024735
VERTEX2 397 12.63595548 -2.03376981 -2.62326101
VERTEX2 398 12.61562712 -2.05092458 -2.42888824
VERTEX2 399 12.53845119 -2.16181744 -2.13366671
VERTEX2 400 12.18521382 -2.72341699 -2.08562212
VERTEX2 401 11.84247581 -3.27214933 -2.17935044
VERTEX2 402 11.36597206 -3.73576922 -2.44803492
VERTEX2 403 10.85200293 -4.15297100 -2.48304667
VERTEX2 404 10.34844847 -4.51777546 -2.56306575
VERTEX2 405 10.32890587 -4.53555896 -2.03118650
VERTEX2 406 10.32414330 -4.49676603 -1.05628412
VERTEX2 407 10.50464180 -4.74557581 -0.92938392
VERTEX2 408 10.83463535 -5.19996848 -0.96830639
VERTEX2 409 10.96732235 -5.40561517 -1.06893955
VERTEX2 410 10.95839037 -5.37133212 -1.69908259
VERTEX2 411 11.15832128 -4.85567417 -2.57745239
VERTEX2 412 10.59993418 -5.07671493 -2.78219020
VERTEX2 413 9.95563801 -5.29264347 -2.86307191
VERTEX2 414 9.30485300 -5.49707488 -2.76057604
VERTEX2 415 8.69571696 -5.73314623 -2.75299230
VERTEX2 416 8.40548289 -5.86100372 -2.80757205
VERTEX2 417 8.11149599 -5.84409448 3.05229505
VERTEX2 418 7.67137028 -5.79967677 3.00772402
VERTEX2 419 7.67136573 -5.79968522 -2.84333912
VERTEX2 420 7.72146234 -5.77758162 -2.62635754
VERTEX2 421 7.72116081 -5.77810791 -1.65649529
VERTEX2 422 7.71468744 -5.78714023 -0.41441202
VERTEX2 423 7.71587931 -5.78725913 -0.06778451
VERTEX2 424 7.71152247 -5.78739324 -0.06668206
VERTEX2 425 7.69977061 -5.79400163 -0.05420415
VERTEX2 426 7.69520765 -5.79418205 -0.06258382
VERTEX2 427 7.72318134 -5.79568278 -0.05872787
VERTEX2 428 8.38063055 -5.81795985 -0.06350824
VERTEX2 429 9.02064801 -5.86789748 -0.10354577
VERTEX2 430 9.35812691 -5.90844014 -0.14889335
VERTEX2 431 9.33167297 -5.90525474 -0.09622264
VERTEX2 432 9.34122990 -5.90862966 -0.72643815
VERTEX2 433 9.34383121 -5.91220352 -1.40296099
VERTEX2 434 9.30674590 -6.44894923 -1.63070835
VERTEX2 435 9.27380856 -7.08945140 -1.65867968
VERTEX2 436 9.19520126 -7.72742433 -1.66711918
VERTEX2 437 9.14215406 -8.37509226 -1.65881028
VERTEX2 438 9.08972633 -8.84374432 -1.68874587
VERTEX2 439 9.08792606 -8.85046540 -2.12346198
VERTEX2 440 9.09437582 -8.84541750 -2.76490527
VERTEX2 441 9.11079178 -8.84381298 2.89790808
VERTEX2 442 9.11841860 -8.84798472 2.27019254
VERTEX2 443 9.11854352 -8.85017459 1.70483345
VERTEX2 444 9.12146384 -8.83494814 1.11487997
VERTEX2 445 9.12648938 -8.83016501 0.45843756
VERTEX2 446 9.12480685 -8.83120780 0.66074314
VERTEX2 447 9.13626315 -8.80910216 1.29383778
VERTEX2 448 9.28742514 -8.18815843 1.31150130
VERTEX2 449 9.42157605 -7.55269123 1.41300861
VERTEX2 450 9.51697855 -6.91654563 1.42681232
VERTEX2 451 9.57079523 -6.44661814 1.46944998
VERTEX2 452 9.57086807 -6.44590060 1.09141402
VERTEX2 453 9.56749330 -6.45196803 0.46924633
VERTEX2 454 9.82787690 -6.43279679 0.04718950
VERTEX2 455 10.42571666 -6.40992817 0.02661169
VERTEX2 456 11.05700424 -6.40711758 -0.03799395
VERTEX2 457 11.40993813 -6.43052121 -0.12573017
VERTEX2 458 11.40437444 -6.42773800 -0.77165812
VERTEX2 459 11.39570106 -6.39217181 -1.37989879
VERTEX2 460 11.37392279 -6.78976046 -1.63691790
VERTEX2 461 11.30349153 -7.40527546 -1.72486324
VERTEX2 462 11.21465486 -7.91373137 -1.76487159
VERTEX2 463 11.22616408 -7.89134947 -0.92461011
VERTEX2 464 11.48048593 -7.96445470 -0.24650395
VERTEX2 465 12.06303097 -8.09897285 -0.23875486
VERTEX2 466 12.61525848 -8.25164650 -0.29439116
VERTEX2 467 13.18475679 -8.43494507 -0.33784951
VERTEX2 468 13.80270284 -8.65657743 -0.37324615
VERTEX2 469 14.39704253 -8.92563579 -0.45603165
VERTEX2 470 14.85400096 -9.14433977 -0.43700087
VERTEX2 471 14.86581107 -9.15078844 -0.63658389
VERTEX2 472 14.88453301 -9.17708694 -1.26866178
VERTEX2 473 14.88622171 -9.18553580 -1.90866098
VERTEX2 474 14.88441910 -9.18777942 -2.53904668
VERTEX2 475 14.88462875 -9.18774579 -3.11258990
VERTEX2 476 14.88448635 -9.18771906 2.51964611
VERTEX2 477 14.88785339 -9.19437321 1.96035049
VERTEX2 478 14.88845389 -9.20267346 1.33354580
VERTEX2 479 14.88757055 -9.20467508 0.87944360
VERTEX2 480 14.88799601 -9.20372677 1.44169597
VERTEX2 481 14.88399709 -9.18617761 2.44409155
VERTEX2 482 14.88582984 -9.18691951 2.78035288
VERTEX2 483 14.88986498 -9.18835318 2.77503098
VERTEX2 484 14.46183739 -9.02754541 2.81061611
VERTEX2 485 13.86348408 -8.83623312 2.80834046
VERTEX2 486 13.26253369 -8.62090344 2.81790916
VERTEX2 487 12.65279628 -8.43883440 2.84622973
VERTEX2 488 12.04076805 -8.25490058 2.88239536
VERTEX2 489 11.57050195 -8.14536101 2.91286931
VERTEX2 490 11.57483654 -8.14495640 -2.88509825
VERTEX2 491 11.58237873 -8.13508085 -1.94878701
VERTEX2 492 11.56490477 -8.36439239 -1.64566642
VERTEX2 493 11.50112168 -8.96771600 -1.70066438
VERTEX2 494 11.41195343 -9.57827951 -1.76152829
VERTEX2 495 11.34068696 -10.20021889 -1.65425562
VERTEX2 496 11.29481918 -10.82328115 -1.53640786
VERTEX2 497 11.28582368 -11.43961434 -1.62232894
VERTEX2 498 11.21531342 -12.05988964 -1.72398955
VERTEX2 499 11.08305255 -12.68613471 -1.74114507
VERTEX2 500 11.13942426 -13.25343122 -1.41245806
VERTEX2 501 11.21330321 -13.83827430 -1.48457328
VERTEX2 502 11.23582778 -14.53844187 -1.56911249
VERTEX2 503 11.23007987 -14.97983635 -1.58607632
VERTEX2 504 11.23738497 -14.95939714 -0.72940095
VERTEX2 505 11.47327596 -14.98699080 -0.10755665
VERTEX2 506 12.06321427 -15.07009102 -0.26011088
VERTEX2 507 12.64142320 -15.24084734 -0.33868167
VERTEX2 508 13.20718671 -15.45299422 -0.35198007
VERTEX2 509 13.82154890 -15.68681057 -0.40791929
VERTEX2 510 14.17323109 -15.84516069 -0.42184379
VERTEX2 511 14.17160515 -15.82876545 0.45337878
VERTEX2 512 14.19157147 -15.78702429 1.65054803
VERTEX2 513 14.18794088 -15.77619558 2.60586605
VERTEX2 514 14.11779027 -15.75622300 2.83217766
VERTEX2 515 13.50547299 -15.57227575 2.83331144
VERTEX2 516 12.91874014 -15.37524553 2.84923893
VERTEX2 517 12.32384642 -15.22430391 2.87746439
VERTEX2 518 11.73778700 -15.07238590 2.90189993
VERTEX2 519 11.22215115 -14.94796593 2.88628536
VERTEX2 520 11.06041219 -14.90524281 -2.99829004
VERTEX2 521 11.08525671 -14.87802513 -1.99419320
VERTEX2 522 11.01878362 -15.27422492 -1.72999609
VERTEX2 523 10.92541713 -15.89298226 -1.73730986
VERTEX2 524 10.81982856 -16.46567552 -1.77914598
VERTEX2 525 10.71429051 -17.00653668 -1.75539880
VERTEX2 526 10.59646989 -17.57410845 -1.81407518
VERTEX2 527 10.44705918 -18.15198462 -1.84875773
VERTEX2 528 10.26321233 -18.71747116 -1.92458290
VERTEX2 529 10.04953494 -19.31791735 -1.95280764
VERTEX2 530 9.80087099 -19.91565077 -1.98281306
VERTEX2 531 9.52986380 -20.48907261 -2.06254369
VERTEX2 532 9.43167765 -20.67407647 -2.01184635
VERTEX2 533 9.42826662 -20.65737532 -1.01192225
VERTEX2 534 9.42555682 -20.65556646 -0.34476580
VERTEX2 535 9.42589537 -20.65467476 -0.34507916
VERTEX2 536 9.77943679 -20.73842905 -0.21430400
VERTEX2 537 10.38275661 -20.88693168 -0.27226176
VERTEX2 538 10.93922058 -21.05593929 -0.29934978
VERTEX2 539 11.54352085 -21.26463496 -0.36410108
VERTEX2 540 12.12640709 -21.51713610 -0.45698839
VERTEX2 541 12.70974648 -21.74460604 -0.29469122
VERTEX2 542 13.33744828 -21.88665539 -0.23900548
VERTEX2 543 13.45609298 -21.91660002 -0.26868835
VERTEX2 544 13.47572024 -21.91462926 0.36827403
VERTEX2 545 13.49872907 -21.87298826 1.43466246
VERTEX2 546 13.51614011 -21.91851444 2.26183251
VERTEX2 547 13.52293434 -21.91807401 -2.99950813
VERTEX2 548 13.53515003 -21.91026142 -2.07645406
VERTEX2 549 13.53668396 -21.89993072 -1.26970681
VERTEX2 550 13.53552955 -21.87969859 -1.74941794
VERTEX2 551 13.54342597 -21.86373413 -2.37567942
VERTEX2 552 13.56649279 -21.85226854 -3.00837603
VERTEX2 553 13.43597150 -21.80225208 2.69732059
VERTEX2 554 12.85042600 -21.52039418 2.66178129
VERTEX2 555 12.27768859 -21.24758293 2.75056589
VERTEX2 556 11.68027014 -21.03071356 2.88557056
VERTEX2 557 11.08134850 -20.85934606 2.84433251
VERTEX2 558 10.50653726 -20.70181714 2.92533556
VERTEX2 559 10.51492506 -20.70466162 2.51833382
VERTEX2 560 10.50823630 -20.69706789 2.01735030
VERTEX2 561 10.48524174 -20.67468222 2.52252300
VERTEX2 562 10.30824056 -20.67441438 -3.11715322
VERTEX2 563 9.73922717 -20.59525272 2.97418864
VERTEX2 564 9.13559884 -20.50302358 3.02294077
VERTEX2 565 8.54540695 -20.43084772 2.96540772
VERTEX2 566 8.60580069 -20.44972157 -2.53389264
VERTEX2 567 8.51094934 -20.45657360 -1.74156372
VERTEX2 568 8.46485557 -20.94638771 -1.67246197
VERTEX2 569 8.41146347 -21.53047272 -1.71326254
VERTEX2 570 8.34042078 -22.11791024 -1.70941577
VERTEX2 571 8.28829702 -22.46922576 -1.75646644
VERTEX2 572 8.25231592 -22.49553774 -1.99955938
VERTEX2 573 8.21599955 -22.57795528 -1.72296356
VERTEX2 574 8.23607691 -22.60610425 -0.78266367
VERTEX2 575 8.38906701 -22.65619932 0.13263317
VERTEX2 576 8.38387626 -22.65203516 1.16199682
VERTEX2 577 8.37636444 -22.63208343 2.13570475
VERTEX2 578 8.36635411 -22.59820455 1.77230097
VERTEX2 579 8.24161472 -21.94683671 1.78720168
VERTEX2 580 8.08009138 -21.30787252 1.86222463
VERTEX2 581 7.88608465 -20.68503791 1.90450614
VERTEX2 582 7.66478216 -20.07137385 1.94755745
VERTEX2 583 7.53525450 -19.76403349 2.02684449
VERTEX2 584 7.53031443 -19.75444142 2.87044982
VERTEX2 585 6.95003113 -19.61484945 2.98877899
VERTEX2 586 6.35936461 -19.54048956 3.08638738
VERTEX2 587 5.74371005 -19.52937605 3.11185784
VERTEX2 588 5.11709851 -19.50334404 3.11639398
VERTEX2 589 4.57916859 -19.52769747 -3.09148640
VERTEX2 590 4.03032570 -19.57136242 -3.02280501
VERTEX2 591 3.49179015 -19.64980767 -3.02474714
VERTEX2 592 2.94425661 -19.72367025 -3.02752137
VERTEX2 593 2.76726375 -19.74575453 -2.82233723
VERTEX2 594 2.80922079 -19.70063393 -1.90191482
VERTEX2 595 2.69599925 -20.30737117 -1.66913344
VERTEX2 596 2.64332603 -20.93110100 -1.69229950
VERTEX2 597 2.55132434 -21.60549615 -1.73226552
VERTEX2 598 2.44791062 -22.20521478 -1.77437006
VERTEX2 599 2.35905843 -22.58391192 -1.84049182
VERTEX2 600 2.35925649 -22.60138086 -1.03375052
VERTEX2 601 2.39946515 -22.62616134 -0.01559721
VERTEX2 602 2.43647873 -22.61127403 0.99841793
VERTEX2 603 2.40182516 -22.37433511 1.77105068
VERTEX2 604 2.34164077 -21.75979005 1.52696310
VERTEX2 605 2.35109846 -21.11181752 1.60964028
VERTEX2 606 2.31111619 -20.46414705 1.65180971
VERTEX2 607 2.32264073 -19.87398527 1.57089191
VERTEX2 608 2.30975569 -19.48778956 1.61547584
VERTEX2 609 2.30598977 -19.46558778 1.95197885
VERTEX2 610 2.29797527 -19.46268474 2.88503419
VERTEX2 611 1.70265295 -19.31213984 2.88815989
VERTEX2 612 1.23015353 -19.17739312 2.89113366
VERTEX2 613 1.26550314 -19.18819673 -2.92793307
VERTEX2 614 1.27263092 -19.18280375 -1.88929304
VERTEX2 615 1.28480519 -19.66935364 -1.58469835
VERTEX2 616 1.29086738 -20.29226602 -1.63583663
VERTEX2 617 1.15307820 -20.89099563 -1.85280276
VERTEX2 618 0.98411555 -21.49250496 -1.84254082
VERTEX2 619 0.82353577 -22.05951936 -1.84377447
VERTEX2 620 0.64053985 -22.63092615 -1.93970817
VERTEX2 621 0.77117041 -22.29449645 -1.99101545
VERTEX2 622 0.89653796 -22.02725256 -2.06580155
VERTEX2 623 0.89825304 -22.02494308 -2.60243018
VERTEX2 624 0.87031985 -22.02462845 3.03866920
VERTEX2 625 0.82880342 -22.00780407 2.38066173
VERTEX2 626 0.79957027 -21.97416299 1.76312824
VERTEX2 627 0.87180742 -21.60747268 1.35291654
VERTEX2 628 1.05014297 -20.98609028 1.25223566
VERTEX2 629 1.22139830 -20.36402947 1.32339084
VERTEX2 630 1.34677422 -19.76178409 1.40847322
VERTEX2 631 1.41894936 -19.23745968 1.42860145
VERTEX2 632 1.42079451 -19.22661332 2.10455784
VERTEX2 633 1.31999384 -19.21974099 -3.09213384
VERTEX2 634 0.65074728 -19.25654452 -3.06467021
VERTEX2 635 -0.00011089 -19.26733648 3.08335254
VERTEX2 636 -0.63969133 -19.23891036 3.06567213
VERTEX2 637 -1.26592305 -19.16482327 2.96628188
VERTEX2 638 -1.65662269 -19.08514046 2.93682979
VERTEX2 639 -2.26573164 -18.98256278 3.01728873
VERTEX2 640 -2.87905106 -18.87386381 2.94952085
VERTEX2 641 -3.47780776 -18.76356409 2.94130920
VERTEX2 642 -4.05238678 -18.62704801 2.89611116
VERTEX2 643 -4.53576089 -18.49098251 2.82939754
VERTEX2 644 -4.54924316 -18.49396049 -2.69486064
VERTEX2 645 -4.57994354 -18.63045519 -1.92059473
VERTEX2 646 -4.71649383 -19.23917839 -1.62511535
VERTEX2 647 -4.67250809 -19.88194597 -1.33617503
VERTEX2 648 -4.44854090 -20.50819337 -1.16983362
VERTEX2 649 -4.27405294 -21.10793061 -1.50737360
VERTEX2 650 -4.37408437 -21.73603608 -1.76469978
VERTEX2 651 -4.39143478 -21.88130510 -0.96522303
VERTEX2 652 -4.32700554 -21.91023986 0.05957420
VERTEX2 653 -4.27980515 -21.86781828 1.08985610
VERTEX2 654 -4.28887852 -21.57131041 1.60296367
VERTEX2 655 -4.29930638 -21.01804394 1.59793547
VERTEX2 656 -4.29848078 -20.41604463 1.58528594
VERTEX2 657 -4.40529235 -19.80489991 1.86189905
VERTEX2 658 -4.59565163 -19.18816192 1.85472746
VERTEX2 659 -4.71048525 -18.69486483 1.78356782
VERTEX2 660 -4.71357331 -18.67945274 2.38367852
VERTEX2 661 -4.89018822 -18.66000609 3.03711870
VERTEX2 662 -5.48180053 -18.60085564 3.10672503
VERTEX2 663 -6.06712442 -18.61527312 -3.07542782
VERTEX2 664 -6.07370867 -18.61358971 -2.55217439
VERTEX2 665 -6.08975739 -18.71533174 -1.71885654
VERTEX2 666 -6.16167114 -19.32549902 -1.68179485
VERTEX2 667 -6.21898105 -19.89357692 -1.67725646
VERTEX2 668 -6.28274590 -20.48907984 -1.65157254
VERTEX2 669 -6.33147777 -21.11644854 -1.67681338
VERTEX2 670 -6.43134825 -21.73566618 -1.73642182
VERTEX2 671 -6.47931732 -22.02980860 -1.68157360
VERTEX2 672 -6.37722039 -21.45017947 -1.77068706
VERTEX2 673 -6.31105916 -21.18449278 -1.90123907
VERTEX2 674 -6.29824564 -21.17099017 -2.54937722
VERTEX2 675 -6.27386526 -21.16584959 3.12519475
VERTEX2 676 -6.26763917 -21.16950004 2.50229974
VERTEX2 677 -6.26505408 -21.17310825 1.88690061
VERTEX2 678 -6.23602602 -20.94295664 1.44132628
VERTEX2 679 -6.17166664 -20.36128712 1.50377670
VERTEX2 680 -6.19929337 -19.91161354 1.84847196
VERTEX2 681 -6.35125230 -19.32000289 1.82088377
VERTEX2 682 -6.52322107 -18.71401231 1.86850155
VERTEX2 683 -6.61532831 -18.43199248 2.02760141
VERTEX2 684 -6.56237802 -18.48597995 3.10756107
VERTEX2 685 -6.96694515 -18.64739895 -2.73185297
VERTEX2 686 -7.41477322 -18.78464587 -2.87603471
VERTEX2 687 -8.00981058 -18.93645690 -2.91099210
VERTEX2 688 -8.60813360 -19.05724001 -2.92271747
VERTEX2 689 -9.17284081 -19.19694343 -2.89500734
VERTEX2 690 -9.70911469 -19.36668814 -2.82078946
VERTEX2 691 -10.10459705 -19.49874589 -2.84877994
VERTEX2 692 -10.09039568 -19.49242021 -2.31450917
VERTEX2 693 -10.06732542 -19.56493311 -1.27406159
VERTEX2 694 -10.04307160 -19.63715557 -0.43856629
VERTEX2 695 -10.02451944 -19.63186147 0.36146295
VERTEX2 696 -10.01830785 -19.62778647 1.38697977
VERTEX2 697 -10.02996383 -19.66621114 1.13401486
VERTEX2 698 -9.69959892 -19.45669362 0.47926326
VERTEX2 699 -9.13592713 -19.14266107 0.59331113
VERTEX2 700 -8.62250117 -18.77981960 0.64685217
VERTEX2 701 -8.18863692 -18.41621735 0.70603411
VERTEX2 702 -7.70932911 -18.10016065 0.59089176
VERTEX2 703 -7.19693437 -17.76277054 0.62516104
VERTEX2 704 -6.70335987 -17.37974252 0.64335611
VERTEX2 705 -6.19283776 -16.95868723 0.71362116
VERTEX2 706 -5.76302493 -16.64046810 0.44466530
VERTEX2 707 -5.73771828 -16.63909227 -0.07552995
VERTEX2 708 -5.72771418 -16.64486529 -0.71394387
VERTEX2 709 -5.76752942 -16.60204547 -1.04599490
VERTEX2 710 -5.77188143 -16.59082191 -1.60705753
VERTEX2 711 -5.76236298 -16.59940511 -2.20373078
VERTEX2 712 -5.74217125 -16.58390673 -2.76411566
VERTEX2 713 -6.21509889 -16.63469541 -3.04943851
VERTEX2 714 -6.76839883 -16.61000329 3.03624780
VERTEX2 715 -7.39796021 -16.57356662 3.14003736
VERTEX2 716 -8.03060722 -16.55212941 3.00193894
VERTEX2 717 -8.65042809 -16.48486060 3.08663978
VERTEX2 718 -9.41116196 -16.36691952 2.91120618
VERTEX2 719 -10.02664639 -16.25220781 2.98563255
VERTEX2 720 -10.63796946 -16.14036503 2.92639500
VERTEX2 721 -11.25422258 -16.02506507 2.99458496
VERTEX2 722 -11.26920117 -16.02294174 3.06125640
VERTEX2 723 -11.28813128 -16.04248964 -2.13209679
VERTEX2 724 -11.28822667 -16.08655774 -1.06305958
VERTEX2 725 -11.26141573 -16.10456116 -0.42860339
VERTEX2 726 -10.93676258 -16.10054722 0.02567151
VERTEX2 727 -10.30012892 -16.06236870 0.05645678
VERTEX2 728 -9.66072531 -16.03841095 0.05788516
VERTEX2 729 -9.02384899 -15.97818573 0.11557383
VERTEX2 730 -8.40156661 -15.88615385 0.15312439
VERTEX2 731 -7.75152934 -15.78555675 0.16546977
VERTEX2 732 -7.60766447 -15.75653203 0.61233488
VERTEX2 733 -7.60647954 -15.75846175 1.60944360
VERTEX2 734 -7.66616135 -15.20120236 1.68771161
VERTEX2 735 -7.72819457 -14.59761093 1.65583039
VERTEX2 736 -7.72884335 -14.58827201 2.25524602
VERTEX2 737 -7.72268195 -14.58907056 3.05584365
VERTEX2 738 -8.30178550 -14.54982295 3.07485467
VERTEX2 739 -8.90484400 -14.45618118 3.01716281
VERTEX2 740 -9.40774534 -14.41703825 3.08035412
VERTEX2 741 -9.38770713 -14.41678258 2.71138150
VERTEX2 742 -9.38687968 -14.41737605 2.05842022
VERTEX2 743 -9.38828531 -14.41121140 1.44144484
VERTEX2 744 -9.37930199 -14.39056068 0.90193218
VERTEX2 745 -9.36010673 -14.38049137 0.30828378
VERTEX2 746 -8.81691399 -14.39817043 -0.16671213
VERTEX2 747 -8.17072122 -14.51217607 -0.20201357
VERTEX2 748 -7.59270616 -14.65437192 -0.27038286
VERTEX2 749 -7.50844781 -14.67527042 0.15875969
VERTEX2 750 -7.49901363 -14.65782840 1.08573347
VERTEX2 751 -7.53376006 -14.38621263 1.72593155
VERTEX2 752 -7.59284027 -13.76164059 1.62255097
VERTEX2 753 -7.63177680 -13.12144447 1.68570278
VERTEX2 754 -7.64044280 -12.48161095 1.52321132
VERTEX2 755 -7.62289430 -11.84912127 1.60964990
VERTEX2 756 -7.58669393 -11.21408642 1.43321320
VERTEX2 757 -7.51320857 -10.56940066 1.54509035
VERTEX2 758 -7.53471195 -9.99095601 1.68729693
VERTEX2 759 -7.52525851 -9.44429169 1.56728442
VERTEX2 760 -7.56532549 -8.83635279 1.67869752
VERTEX2 761 -7.56790272 -8.80170398 1.85911637
VERTEX2 762 -7.64183837 -8.76885002 2.69401493
VERTEX2 763 -8.21570725 -8.66737193 2.98687382
VERTEX2 764 -8.63546011 -8.59695431 2.95934001
VERTEX2 765 -8.62466005 -8.59672221 -2.68440219
VERTEX2 766 -8.62686119 -8.60394004 -1.68406007
VERTEX2 767 -8.62116425 -8.61825665 -0.75318271
VERTEX2 768 -8.59382269 -8.61986051 -0.03080569
VERTEX2 769 -7.95834820 -8.52903388 0.12610420
VERTEX2 770 -7.30575266 -8.46799115 0.05898575
VERTEX2 771 -7.21715583 -8.46034642 0.61948729
VERTEX2 772 -7.21451223 -8.45188097 1.48705893
VERTEX2 773 -7.19216993 -7.87541922 1.57288269
VERTEX2 774 -7.20582709 -7.33053414 1.59500193
VERTEX2 775 -7.20451346 -7.33615950 2.43996335
VERTEX2 776 -7.41365091 -7.31120243 3.05741449
VERTEX2 777 -8.02691391 -7.27072307 3.11646986
VERTEX2 778 -8.63962870 -7.26139977 3.09553756
VERTEX2 779 -9.25557936 -7.24109819 3.11365541
VERTEX2 780 -9.46386085 -7.22342322 2.98344186
VERTEX2 781 -9.46065929 -7.22456063 2.41004734
VERTEX2 782 -9.58799843 -6.95286970 1.98050206
VERTEX2 783 -9.82302743 -6.37991252 1.97991000
VERTEX2 784 -9.92225039 -6.15336116 1.95859383
VERTEX2 785 -9.92313530 -6.12890294 1.40664043
VERTEX2 786 -9.91546688 -6.10365621 0.81832946
VERTEX2 787 -9.89860943 -6.08639417 0.32767243
VERTEX2 788 -9.87191024 -6.08820817 -0.30145180
VERTEX2 789 -9.86126159 -6.09656717 -0.85341796
VERTEX2 790 -9.55477648 -6.49202418 -0.92057985
VERTEX2 791 -9.14998922 -6.97420368 -0.82190693
VERTEX2 792 -8.91043806 -7.18775444 -0.11735583
VERTEX2 793 -8.29430653 -7.24062088 -0.07257471
VERTEX2 794 -7.65381974 -7.27014685 -0.00133030
VERTEX2 795 -7.67823142 -7.28806288 0.42812645
VERTEX2 796 -7.68482253 -7.29070966 1.08759305
VERTEX2 797 -7.61039651 -6.98231419 1.34780523
VERTEX2 798 -7.47490777 -6.35695154 1.39798232
VERTEX2 799 -7.38740269 -5.71366796 1.46374911
VERTEX2 800 -7.33285023 -5.06836366 1.53669826
VERTEX2 801 -7.34285994 -4.43774656 1.62265984
VERTEX2 802 -7.39567265 -3.81391446 1.68040700
VERTEX2 803 -7.37740753 -3.18643070 1.51580596
VERTEX2 804 -7.35625692 -2.56018862 1.57177381
VERTEX2 805 -7.38844975 -1.93110094 1.64813898
VERTEX2 806 -7.44739235 -1.33419540 1.68963718
VERTEX2 807 -7.47404872 -1.15264928 1.97789644
VERTEX2 808 -7.47656662 -1.15261463 2.92659742
VERTEX2 809 -8.06591627 -1.12344015 3.07138553
VERTEX2 810 -8.68064163 -1.00036261 2.93133622
VERTEX2 811 -9.27700578 -0.88901681 2.92812805
VERTEX2 812 -9.27669582 -0.88910331 -2.62304905
VERTEX2 813 -9.28713546 -0.91236548 -1.64742512
VERTEX2 814 -9.27814106 -0.91948878 -0.65488152
VERTEX2 815 -9.25106819 -0.92860734 0.26467559
VERTEX2 816 -9.24182746 -0.92354361 0.94604211
VERTEX2 817 -9.23023321 -0.91623171 0.27748333
VERTEX2 818 -9.01164162 -0.94928247 -0.21197600
VERTEX2 819 -8.42414744 -1.07584292 -0.19810125
VERTEX2 820 -7.83424957 -1.20661684 -0.23958956
VERTEX2 821 -7.29184760 -1.33655683 -0.22403694
VERTEX2 822 -7.23761186 -1.34481678 0.53700683
VERTEX2 823 -7.23668199 -1.33452718 1.45577854
VERTEX2 824 -7.17190367 -0.71280661 1.37646017
VERTEX2 825 -7.02690085 -0.08853624 1.34681336
VERTEX2 826 -6.96887736 0.54404084 1.50979643
VERTEX2 827 -6.90404987 1.16837749 1.46119121
VERTEX2 828 -6.84896375 1.80009059 1.49677711
VERTEX2 829 -6.78768199 2.40395054 1.45703531
VERTEX2 830 -6.71244014 3.01313796 1.44871995
VERTEX2 831 -6.61797145 3.59067522 1.40193100
VERTEX2 832 -6.52745217 4.15389433 1.39837136
VERTEX2 833 -6.48328456 4.40948412 1.53603538
VERTEX2 834 -6.48521200 4.41632840 2.59072068
VERTEX2 835 -6.49764295 4.41776507 -2.91477891
VERTEX2 836 -6.50939715 4.40784620 -1.97169362
VERTEX2 837 -6.50600306 4.38925910 -0.93530763
VERTEX2 838 -6.49394023 4.38173284 -0.07309294
VERTEX2 839 -6.49298754 4.38127744 -0.29135346
VERTEX2 840 -6.48169456 4.37241439 -0.85399382
VERTEX2 841 -6.47398967 4.35690085 -1.47107109
VERTEX2 842 -6.50032260 4.11113171 -1.70189903
VERTEX2 843 -6.57896161 3.54744089 -1.70443595
VERTEX2 844 -6.65466044 2.92175241 -1.71247063
VERTEX2 845 -6.74890297 2.29661281 -1.72721353
VERTEX2 846 -6.83526302 1.66724001 -1.72550947
VERTEX2 847 -6.94552782 1.04574277 -1.75228711
VERTEX2 848 -6.97647687 0.85008297 -1.27207255
VERTEX2 849 -6.97490194 0.84950865 -0.34964906
VERTEX2 850 -6.61804612 0.84584494 0.00385597
VERTEX2 851 -5.98921988 0.81963154 -0.08858179
VERTEX2 852 -5.36341138 0.75821329 -0.07411805
VERTEX2 853 -4.76710119 0.71557230 -0.10199326
VERTEX2 854 -4.17852756 0.64761939 -0.09994766
VERTEX2 855 -3.58221035 0.59662301 -0.10170833
VERTEX2 856 -2.91641044 0.50867556 -0.14218574
VERTEX2 857 -2.25173318 0.41711106 -0.15149108
VERTEX2 858 -1.59288616 0.29255415 -0.20569677
VERTEX2 859 -1.06176454 0.18633350 -0.21224456
VERTEX2 860 -1.03262658 0.19839589 0.64000955
VERTEX2 861 -1.01952170 0.29319969 1.55646726
VERTEX2 862 -0.98407765 0.94181610 1.49715064
VERTEX2 863 -0.93032166 1.57599865 1.46428346
VERTEX2 864 -0.84689427 2.17884561 1.46193456
VERTEX2 865 -0.80802196 2.78909141 1.51956803
VERTEX2 866 -0.76561543 3.37384047 1.51845626
VERTEX2 867 -0.75880854 3.53650768 1.69968260
VERTEX2 868 -0.76516839 3.54445576 2.72353001
VERTEX2 869 -0.75393804 3.54466145 -2.58125762
VERTEX2 870 -0.73675430 3.55397397 -1.58250560
VERTEX2 871 -0.72500516 3.54606306 -0.60947825
VERTEX2 872 -0.70940770 3.53486253 0.07534485
VERTEX2 873 -0.68564810 3.52700075 -0.49758335
VERTEX2 874 -0.66682405 3.51005690 -1.05754484
VERTEX2 875 -0.66135296 3.49724704 -1.64443276
VERTEX2 876 -0.78096451 2.94126027 -1.80216789
VERTEX2 877 -0.93300768 2.39914946 -1.88695789
VERTEX2 878 -0.98348262 2.19944709 -1.50423086
VERTEX2 879 -0.88262727 1.56234518 -1.45331708
VERTEX2 880 -0.84724067 1.11444384 -1.56612656
VERTEX2 881 -0.84761655 1.16520950 -1.56088217
VERTEX2 882 -0.90429297 0.52890904 -1.80761935
VERTEX2 883 -1.11913795 -0.06229220 -1.99842969
VERTEX2 884 -1.27642516 -0.39112581 -2.06545440
VERTEX2 885 -1.27667890 -0.38535458 -1.48404640
VERTEX2 886 -1.26445062 -0.39680033 -0.46633878
VERTEX2 887 -1.24111673 -0.40589297 0.54469740
VERTEX2 888 -1.22935085 -0.38125232 1.52845864
VERTEX2 889 -1.23304053 -0.37044369 2.42623869
VERTEX2 890 -1.55311333 -0.21490639 2.70010198
VERTEX2 891 -2.09459608 0.05532742 2.62976172
VERTEX2 892 -2.63231250 0.37857578 2.59418856
VERTEX2 893 -3.18941607 0.67808553 2.83047829
VERTEX2 894 -3.80639456 0.79149506 3.05156180
VERTEX2 895 -4.40901452 0.74383049 -2.93329815
VERTEX2 896 -4.43095298 0.73863906 -2.45481817
VERTEX2 897 -4.71651459 0.31807119 -2.18253537
VERTEX2 898 -5.06810731 -0.18833678 -2.16701108
VERTEX2 899 -5.35442460 -0.59548227 -2.23471081
VERTEX2 900 -5.77061325 -1.13948879 -2.23714286
VERTEX2 901 -6.14525009 -1.58423612 -2.30153173
VERTEX2 902 -6.56477486 -2.07602370 -2.27627314
VERTEX2 903 -6.88363880 -2.45561356 -2.32098408
VERTEX2 904 -6.88462742 -2.45701569 -1.61802887
VERTEX2 905 -6.87286019 -2.94691548 -1.56255780
VERTEX2 906 -6.84147138 -3.51472892 -1.49680406
VERTEX2 907 -6.78793810 -4.08533269 -1.50492331
VERTEX2 908 -6.74413162 -4.70514808 -1.48013081
VERTEX2 909 -6.68610841 -5.31501479 -1.49801928
VERTEX2 910 -6.71412960 -5.44372972 -1.86784270
VERTEX2 911 -6.87622922 -6.01390103 -1.80690877
VERTEX2 912 -6.99908722 -6.57605874 -1.79423344
VERTEX2 913 -7.11288400 -7.11617431 -1.78621808
VERTEX2 914 -7.24077448 -7.70254706 -1.80976193
VERTEX2 915 -7.36579291 -8.21016541 -1.84633326
VERTEX2 916 -7.30336295 -8.44941633 -1.29845292
VERTEX2 917 -7.16696323 -9.09409089 -1.55259274
VERTEX2 918 -7.18818025 -9.60961536 -1.62789835
VERTEX2 919 -7.22297018 -10.23111432 -1.67096994
VERTEX2 920 -7.28845497 -10.84342414 -1.68829311
VERTEX2 921 -7.36262921 -11.45714284 -1.74132120
VERTEX2 922 -7.46585009 -12.05987195 -1.76820044
VERTEX2 923 -7.58568468 -12.62343757 -1.83178965
VERTEX2 924 -7.71787086 -13.11623289 -1.81514429
VERTEX2 925 -7.71925103 -13.10943588 -1.31040081
VERTEX2 926 -7.56022796 -13.66934669 -1.29418815
VERTEX2 927 -7.39438959 -14.25785757 -1.31747525
VERTEX2 928 -7.23755617 -14.86186353 -1.32637880
VERTEX2 929 -7.08720253 -15.46305342 -1.32724007
VERTEX2 930 -6.94205397 -16.08465323 -1.40959179
VERTEX2 931 -6.85559675 -16.71257766 -1.48994317
VERTEX2 932 -6.80940886 -17.34158171 -1.54947935
VERTEX2 933 -6.80613222 -17.95639695 -1.61415114
VERTEX2 934 -6.82095243 -18.43943658 -1.62402682
VERTEX2 935 -6.81796273 -18.45331256 -0.94205634
VERTEX2 936 -6.81702254 -18.45364266 0.00298355
VERTEX2 937 -6.27539209 -18.42871263 0.06582209
VERTEX2 938 -5.67986876 -18.44500929 -0.10763505
VERTEX2 939 -5.05657261 -18.50509964 -0.07996190
VERTEX2 940 -4.44262898 -18.58074689 -0.16624348
VERTEX2 941 -3.83623137 -18.69708359 -0.22030636
VERTEX2 942 -3.31935809 -18.81336205 -0.21581586
VERTEX2 943 -2.71206931 -18.94794223 -0.12748654
VERTEX2 944 -2.10090814 -19.03184083 -0.18413558
VERTEX2 945 -1.48041168 -19.16173615 -0.23930476
VERTEX2 946 -1.30626689 -19.20649317 -0.17502481
VERTEX2 947 -0.89863213 -19.14461623 0.15313407
VERTEX2 948 -0.32643080 -19.05686864 0.13392106
VERTEX2 949 0.27620419 -19.02397411 -0.02182744
VERTEX2 950 0.90619824 -19.06190295 -0.26144103
VERTEX2 951 1.50831711 -19.23663487 -0.33365306
VERTEX2 952 2.11014363 -19.41441301 -0.08294837
VERTEX2 953 2.73957101 -19.44794337 -0.00272038
VERTEX2 954 3.36321660 -19.44272289 -0.00985874
VERTEX2 955 3.95211970 -19.49033765 -0.17083317
VERTEX2 956 4.50235012 -19.57075359 -0.17321334
VERTEX2 957 5.03336180 -19.66891489 -0.26099392
VERTEX2 958 5.49971694 -19.78301174 -0.28779182
VERTEX2 959 5.93299735 -19.90412112 -0.35498487
VERTEX2 960 6.52155520 -20.06892387 -0.27523036
VERTEX2 961 7.10244921 -20.24507926 -0.30236254
VERTEX2 962 7.71905476 -20.37567833 -0.23684632
VERTEX2 963 8.33571641 -20.45856890 -0.05028624
VERTEX2 964 8.95691349 -20.50223241 -0.11424829
VERTEX2 965 9.57387270 -20.58341543 -0.12118635
VERTEX2 966 10.01626144 -20.64315992 -0.18024620
VERTEX2 967 10.04877160 -20.63666593 0.67287364
VERTEX2 968 10.05724523 -20.62870942 1.56931457
VERTEX2 969 10.05937186 -20.65452085 1.62869102
VERTEX2 970 10.06165503 -20.68059264 1.62687814
VERTEX2 971 10.04211392 -20.34611473 1.62703169
VERTEX2 972 10.00549581 -19.76250521 1.63256768
VERTEX2 973 10.08658792 -19.18267165 1.34743865
VERTEX2 974 10.22745719 -18.58292393 1.37916776
VERTEX2 975 10.34052336 -17.97924902 1.38369268
VERTEX2 976 10.44689518 -17.37296891 1.39651828
VERTEX2 977 10.58425612 -16.75616044 1.37013999
VERTEX2 978 10.70689506 -16.14561977 1.41601760
VERTEX2 979 10.82339378 -15.53895670 1.40366191
VERTEX2 980 10.92288591 -14.93553748 1.45050902
VERTEX2 981 11.01328985 -14.34274521 1.45735811
VERTEX2 982 11.07105844 -13.81678902 1.50227834
VERTEX2 983 11.12223502 -13.21860613 1.49882389
VERTEX2 984 11.15105978 -12.62310243 1.55613297
VERTEX2 985 11.16359294 -12.02682245 1.57638065
VERTEX2 986 11.15046015 -11.40721620 1.61270414
VERTEX2 987 11.13932775 -10.78929617 1.57601018
VERTEX2 988 11.14358149 -10.17172234 1.58972045
VERTEX2 989 11.13083505 -9.55840262 1.59735468
VERTEX2 990 11.12591602 -8.94834214 1.58659408
VERTEX2 991 11.11258682 -8.33487463 1.61147418
VERTEX2 992 11.10933468 -7.74926887 1.57897476
VERTEX2 993 11.09756226 -7.13434105 1.61185014
VERTEX2 994 11.08300265 -6.55024368 1.60205820
VERTEX2 995 11.05255667 -5.95601274 1.64951781
VERTEX2 996 10.99424822 -5.34662965 1.67682401
VERTEX2 997 10.95078639 -4.69871782 1.61259666
VERTEX2 998 10.93182629 -4.29316727 1.63462889
VERTEX2 999 10.95838497 -4.31474030 2.35297154
VERTEX2 1000 10.49533376 -3.95314374 2.50184059
VERTEX2 1001 10.05574023 -3.55149153 2.18118320
VERTEX2 1002 9.68894014 -3.07881953 2.27405053
VERTEX2 1003 9.33926666 -2.57902307 2.09467837
VERTEX2 1004 9.00118609 -2.04273769 2.15298152
VERTEX2 1005 8.64823403 -1.54871366 2.21547386
VERTEX2 1006 8.25297703 -1.07074925 2.29290711
VERTEX2 1007 7.84173181 -0.64560296 2.38465762
VERTEX2 1008 7.60740966 -0.43177098 2.54429214
VERTEX2 1009 7.51133304 -0.41719930 3.01771292
VERTEX2 1010 6.94454361 -0.36153382 3.07035039
VERTEX2 1011 6.32863358 -0.32250688 3.02744010
VERTEX2 1012 5.71903260 -0.25960275 3.06952288
VERTEX2 1013 5.08246276 -0.26257813 -3.09851025
VERTEX2 1014 4.46926903 -0.21499451 3.00957739
VERTEX2 1015 3.84473640 -0.17592818 3.09391208
VERTEX2 1016 3.07565106 -0.13849087 3.10053830
VERTEX2 1017 2.49038228 -0.12523392 3.04331665
VERTEX2 1018 1.93269761 -0.06348520 3.05055085
VERTEX2 1019 1.33789755 -0.03903486 3.11003034
VERTEX2 1020 0.72286057 -0.00305504 3.09601769
VERTEX2 1021 0.10192393 0.02609752 3.05534810
VERTEX2 1022 0.04857171 0.03051630 3.04805711
VERTEX2 1023 0.05561002 0.03037915 3.13457498
VERTEX2 1024 -0.57120177 0.03831033 -3.12234723
VERTEX2 1025 -1.20020357 0.00801441 -3.10484462
VERTEX2 1026 -1.36150503 0.00258656 -3.09773849
VERTEX2 1027 -1.34550427 0.01041358 -2.18146079
VERTEX2 1028 -1.35877659 -0.15597745 -1.61816556
VERTEX2 1029 -1.38803298 -0.72215706 -1.63979510
VERTEX2 1030 -1.45216507 -1.34409419 -1.72049551
VERTEX2 1031 -1.56561495 -1.98958055 -1.77492936
VERTEX2 1032 -1.69713576 -2.63489686 -1.77115944
VERTEX2 1033 -1.84181973 -3.27882547 -1.81661952
VERTEX2 1034 -1.88682402 -3.44932112 -2.03082887
VERTEX2 1035 -1.88917945 -3.45132251 -2.65094978
VERTEX2 1036 -1.85219730 -3.46855864 3.06063281
VERTEX2 1037 -2.18554409 -3.34006629 2.82177171
VERTEX2 1038 -2.79647432 -3.21513313 2.91286332
VERTEX2 1039 -3.43403404 -3.04270042 2.88122040
VERTEX2 1040 -3.40877639 -3.04343187 -2.77220639
VERTEX2 1041 -3.37992986 -3.04738297 -1.75581965
VERTEX2 1042 -3.38206757 -3.08257939 -0.76844419
VERTEX2 1043 -3.34767369 -3.11465283 0.20059075
VERTEX2 1044 -3.36263406 -3.13206531 1.19386076
VERTEX2 1045 -3.36651114 -3.14045108 1.07982401
VERTEX2 1046 -3.37813668 -3.15586329 0.69427347
VERTEX2 1047 -3.39831265 -3.16448511 0.13848131
VERTEX2 1048 -3.03667856 -3.23613449 -0.17452139
VERTEX2 1049 -2.39237184 -3.33894694 -0.15736292
VERTEX2 1050 -1.74620247 -3.41401779 -0.08167628
VERTEX2 1051 -1.09013860 -3.49220272 -0.16083083
VERTEX2 1052 -0.46568715 -3.57772873 -0.10788530
VERTEX2 1053 -0.04762283 -3.63523214 -0.16051989
VERTEX2 1054 -0.01993642 -3.63835328 0.60161475
VERTEX2 1055 -0.01367372 -3.60996727 1.65676384
VERTEX2 1056 -0.00402994 -3.62438067 2.66035615
VERTEX2 1057 0.02231338 -3.62751633 -2.63183475
VERTEX2 1058 0.01958252 -3.63067244 -1.70952180
VERTEX2 1059 -0.08327178 -4.21454185 -1.79023838
VERTEX2 1060 -0.22533655 -4.84536342 -1.78521046
VERTEX2 1061 -0.33599886 -5.28961997 -1.90763833
VERTEX2 1062 -0.33980209 -5.29537480 -2.47165628
VERTEX2 1063 -0.31841261 -5.28336352 -3.06916410
VERTEX2 1064 -0.59737903 -5.22862375 2.94890489
VERTEX2 1065 -1.18350091 -5.15709086 3.07097755
VERTEX2 1066 -1.74523795 -5.10044748 3.01495826
VERTEX2 1067 -1.72993662 -5.09976570 -2.83538374
VERTEX2 1068 -1.71741868 -5.09111146 -2.16235039
VERTEX2 1069 -1.71708062 -5.09022708 -1.99185843
VERTEX2 1070 -1.71591395 -5.08821597 -2.53061491
VERTEX2 1071 -2.18938212 -5.34101917 -2.65772973
VERTEX2 1072 -2.64084326 -5.57053259 -2.72630579
VERTEX2 1073 -2.61087990 -5.56996056 3.04590805
VERTEX2 1074 -3.13927644 -5.49489122 3.01162286
VERTEX2 1075 -3.71530352 -5.41518160 3.02825849
VERTEX2 1076 -3.72769933 -5.41431453 -2.85104594
VERTEX2 1077 -3.74045652 -5.43804784 -2.04580886
VERTEX2 1078 -3.98274782 -6.04615299 -2.00080049
VERTEX2 1079 -4.21915455 -6.61112362 -1.93885132
VERTEX2 1080 -4.22399697 -6.62379451 -2.42684546
VERTEX2 1081 -4.65064139 -6.91096249 -2.55031389
VERTEX2 1082 -4.81847348 -7.02627343 -2.27002203
VERTEX2 1083 -4.81357429 -7.06649979 -1.24249605
VERTEX2 1084 -4.73028464 -7.11064380 -0.28025699
VERTEX2 1085 -4.71259531 -7.10649850 0.70322994
VERTEX2 1086 -4.34520679 -6.62401755 0.93403177
VERTEX2 1087 -3.95804170 -6.12374316 0.92227172
VERTEX2 1088 -3.59311526 -5.62377137 0.90601407
VERTEX2 1089 -3.54048273 -5.55776370 0.80823203
VERTEX2 1090 -3.89072383 -6.27866417 0.97959909
VERTEX2 1091 -3.49659181 -5.85298581 0.80033358
VERTEX2 1092 -3.02710431 -5.38323991 0.78371330
VERTEX2 1093 -2.57778217 -4.96057892 0.71729250
VERTEX2 1094 -2.54695155 -4.96045924 0.31305915
VERTEX2 1095 -2.49522997 -4.95842551 -0.27683874
VERTEX2 1096 -2.45859576 -4.98283907 -0.84821389
VERTEX2 1097 -2.26572812 -5.32559454 -1.06374118
VERTEX2 1098 -1.95503075 -5.93117978 -1.12061421
VERTEX2 1099 -1.70694145 -6.49961305 -1.21709778
VERTEX2 1100 -1.69397473 -6.53136595 -0.85481652
VERTEX2 1101 -1.43991116 -6.70130120 -0.58961741
VERTEX2 1102 -1.41669827 -6.73007302 -0.98419803
VERTEX2 1103 -1.07550899 -7.27944943 -1.01856427
VERTEX2 1104 -0.72460468 -7.85533218 -1.04693920
VERTEX2 1105 -0.39739930 -8.43267716 -1.06559981
VERTEX2 1106 -0.15010016 -8.88470388 -1.09168871
VERTEX2 1107 -0.11976085 -8.91169513 -0.83685183
VERTEX2 1108 0.35495696 -9.36798781 -0.82990269
VERTEX2 1109 0.77444436 -9.89527341 -0.93502205
VERTEX2 1110 1.15062977 -10.41142301 -0.98570304
VERTEX2 1111 1.39643907 -10.93603033 -1.08857130
VERTEX2 1112 1.77974770 -11.40237771 -0.74449529
VERTEX2 1113 2.25533094 -11.86416550 -0.84140046
VERTEX2 1114 2.68224258 -12.34093361 -0.82565603
VERTEX2 1115 3.09557205 -12.78468212 -0.84312575
VERTEX2 1116 3.55926869 -13.27052073 -0.80817403
VERTEX2 1117 3.64340068 -13.35699019 -0.93749836
VERTEX2 1118 -1.94258018 -23.71680564 -3.02974729
VERTEX2 1119 -1.92007486 -23.71999655 2.81685201
VERTEX2 1120 -2.46015436 -23.49260065 2.75051250
VERTEX2 1121 -2.63206201 -23.41740332 2.62892053
VERTEX2 1122 -2.62420862 -23.43242264 2.07277058
VERTEX2 1123 -2.88931196 -22.93104831 2.08724877
VERTEX2 1124 -3.19645501 -22.46397300 2.18314587
VERTEX2 1125 -3.55310638 -21.95127391 2.19424038
VERTEX2 1126 -3.58667440 -21.90647608 2.52686249
VERTEX2 1127 -6.27655158 -14.95677950 -1.91938673
VERTEX2 1128 -6.25585633 -14.85144759 -0.92576486
VERTEX2 1129 -6.14470677 -14.91127934 0.09654373
VERTEX2 1130 -5.32936735 -14.80388615 0.11291263
VERTEX2 1131 -4.38586245 -14.92929560 -0.31588050
VERTEX2 1132 -3.75257040 -15.13943980 -0.33719233
VERTEX2 1133 -3.18295010 -15.36373197 -0.37753700
VERTEX2 1134 -2.90969720 -15.47251785 -0.47636370
VERTEX2 1135 -2.88208300 -15.49875698 -1.03611203
VERTEX2 1136 -2.88652277 -15.50826978 -1.60181504
VERTEX2 1137 -2.94045705 -15.82727131 -1.78798187
VERTEX2 1138 -3.09389217 -16.47619640 -1.80586889
VERTEX2 1139 -3.21097521 -16.97271201 -1.87926605
VERTEX2 1140 -3.20140114 -16.94954957 -2.35862914
VERTEX2 1141 -3.17979309 -16.92844728 -2.90646788
VERTEX2 1142 -3.54115149 -16.88585070 3.01207404
VERTEX2 1143 -4.13743283 -16.83982557 3.10128414
VERTEX2 1144 -4.71661177 -16.80594288 3.07049606
VERTEX2 1145 -5.29535325 -16.76060009 3.04477987
VERTEX2 1146 -5.87164797 -16.70337833 3.06427426
VERTEX2 1147 -6.45162333 -16.69309886 3.13669197
VERTEX2 1148 -7.03025969 -16.68989546 -3.13633959
VERTEX2 1149 -7.07309905 -16.69115657 -2.63781099
VERTEX2 1150 -7.16485965 -16.79289566 -1.82912807
VERTEX2 1151 -7.16257716 -16.80609315 -0.82534273
VERTEX2 1152 -7.14386243 -16.80643761 0.22774503
VERTEX2 1153 -7.12851117 -16.79952370 1.24050057
VERTEX2 1154 -7.18661439 -16.48427768 1.78649826
VERTEX2 1155 -7.31763700 -15.86141878 1.73713136
VERTEX2 1156 -7.41292879 -15.25719312 1.74713844
VERTEX2 1157 -7.53804597 -14.68768344 1.85824136
VERTEX2 1158 -7.66229417 -14.08712896 1.72968390
VERTEX2 1159 -7.72006309 -13.48799097 1.63564955
VERTEX2 1160 -7.73991722 -12.85129911 1.49898127
VERTEX2 1161 -7.63749533 -12.21974630 1.40942591
VERTEX2 1162 -7.54391069 -11.59053326 1.46736289
VERTEX2 1163 -7.47908222 -10.95095193 1.46179958
VERTEX2 1164 -7.42840091 -10.30989799 1.54689121
VERTEX2 1165 -7.41587142 -9.76639688 1.52405708
VERTEX2 1166 -7.41746827 -9.75846981 2.01300084
VERTEX2 1167 -7.36801247 -9.74657921 2.94962034
VERTEX2 1168 -7.32496521 -9.72958546 -2.43014086
VERTEX2 1169 -7.32872314 -9.77691222 -1.60750635
VERTEX2 1170 -7.33975322 -10.35904610 -1.60060460
VERTEX2 1171 -7.34052487 -10.99465772 -1.56867519
VERTEX2 1172 -7.34561508 -11.59432309 -1.63093231
VERTEX2 1173 -7.37628108 -12.21863380 -1.62164316
VERTEX2 1174 -7.42080196 -12.84812066 -1.69019262
VERTEX2 1175 -7.50784419 -13.46278049 -1.72348019
VERTEX2 1176 -7.60588790 -14.08185186 -1.76693707
VERTEX2 1177 -7.72592112 -14.68912504 -1.76467249
VERTEX2 1178 -7.85738935 -15.30044952 -1.81162759
VERTEX2 1179 -7.99516357 -15.90375793 -1.78201182
VERTEX2 1180 -8.04925076 -16.15627514 -1.78873833
VERTEX2 1181 -8.04821791 -16.14888511 -0.96026241
VERTEX2 1182 -7.99342293 -16.16273064 -0.24999677
VERTEX2 1183 -7.38079211 -16.31198603 -0.22510126
VERTEX2 1184 -6.74947709 -16.42734578 -0.15600463
VERTEX2 1185 -6.12316163 -16.53852263 -0.18864845
VERTEX2 1186 -5.49290964 -16.63417525 -0.12230758
VERTEX2 1187 -4.84030877 -16.72037598 -0.15926762
VERTEX2 1188 -4.21426602 -16.81082773 -0.14103730
VERTEX2 1189 -3.54577786 -16.91980828 -0.11966506
VERTEX2 1190 -3.20913880 -16.96099784 -0.11194096
VERTEX2 1191 -3.17230595 -16.96024484 0.80726517
VERTEX2 1192 -3.16677183 -16.88168769 1.60399809
VERTEX2 1193 -3.15894996 -16.28695257 1.47163854
VERTEX2 1194 -3.11671759 -15.71777387 1.51341331
VERTEX2 1195 -3.08690295 -15.09937255 1.56548601
VERTEX2 1196 -3.07944744 -14.48085401 1.39252287
VERTEX2 1197 -2.97496840 -13.87089781 1.40356856
VERTEX2 1198 -2.90311560 -13.24919363 1.66210367
VERTEX2 1199 -2.91816564 -12.64206750 1.44713700
VERTEX2 1200 -2.85920545 -12.01715305 1.51594194
VERTEX2 1201 -2.83218899 -11.40261707 1.57157322
VERTEX2 1202 -2.83999724 -10.78536230 1.59433954
VERTEX2 1203 -2.86786587 -10.20106402 1.50421489
VERTEX2 1204 -2.75173862 -9.61415588 1.35721731
VERTEX2 1205 -2.64148440 -9.05631430 1.38662247
VERTEX2 1206 -2.55373566 -8.47155323 1.44768373
VERTEX2 1207 -2.41405412 -7.86540748 1.36141906
VERTEX2 1208 -2.29892518 -7.24563292 1.42594974
VERTEX2 1209 -2.20905192 -6.62926827 1.42388309
VERTEX2 1210 -2.14109078 -6.01711412 1.44433054
VERTEX2 1211 -2.01387281 -5.41114996 1.37206639
VERTEX2 1212 -1.89707656 -4.80016949 1.42252778
VERTEX2 1213 -1.82807355 -4.18538533 1.49619524
VERTEX2 1214 -1.74473067 -3.45874231 1.27389954
VERTEX2 1215 -1.57820681 -2.87131707 1.33331618
VERTEX2 1216 -1.52648143 -2.31122235 1.55109416
VERTEX2 1217 -1.49139771 -1.72402416 1.53205079
VERTEX2 1218 -1.47677984 -1.13390150 1.48138179
VERTEX2 1219 -1.42518003 -0.48492458 1.51197979
VERTEX2 1220 -1.41733612 0.10212545 1.60271779
VERTEX2 1221 -1.41679545 0.10029578 1.14996479
VERTEX2 1222 -1.40680338 0.10999728 0.55265779
VERTEX2 1223 -1.39496543 0.11278104 -0.00696921
VERTEX2 1224 -0.82113008 0.01971564 -0.18987721
VERTEX2 1225 -0.20593888 -0.09454507 -0.17611321
VERTEX2 1226 -0.10110137 -0.11331234 -0.19284421
VERTEX2 1227 -0.10110137 -0.11331234 -0.19350621
