1 13 155 0.00164826 6 
2 19 166 0.00297694 10 
3 19 172 0.00314757 10 
4 25 172 0.00316281 10 
5 25 178 0.00327101 10 
6 32 178 0.00326618 10 
7 32 183 0.00335558 10 
8 44 189 0.00345109 10 
9 44 195 0.00357410 10 
10 50 195 0.00358232 10 
11 50 201 0.00371959 10 
12 50 203 0.00376198 10 
13 61 203 0.00376080 10 
14 61 209 0.00386500 10 
15 67 209 0.00386846 10 
16 67 220 0.00406536 10 
17 81 220 0.00406028 10 
18 81 226 0.00419368 10 
19 87 226 0.00418322 10 
20 87 231 0.00428648 10 
21 94 231 0.00428834 10 
22 226 231 0.00429464 10 
23 94 241 0.00450242 10 
24 101 241 0.00449299 10 
25 101 247 0.00460719 10 
26 107 247 0.00461385 10 
27 107 254 0.00474112 10 
28 114 254 0.00475454 10 
29 107 256 0.00482576 10 
30 114 256 0.00480092 10 
31 107 258 0.00483792 10 
32 114 258 0.00485545 10 
33 121 266 0.00502712 10 
34 126 266 0.00503989 10 
35 126 272 0.00515542 10 
36 132 272 0.00517167 10 
37 132 278 0.00526805 10 
38 138 278 0.00528288 10 
39 138 284 0.00539573 10 
40 151 284 0.00541162 10 
41 151 291 0.00539835 10 
42 151 297 0.00551953 10 
43 157 297 0.00581773 10 
44 163 297 0.00583108 10 
45 166 297 0.00582974 10 
46 19 305 0.00603281 10 
47 157 305 0.00600721 10 
48 163 305 0.00604343 10 
49 166 305 0.00605037 10 
50 172 305 0.00607992 10 
51 19 315 0.00627501 10 
52 25 315 0.00630264 10 
53 172 315 0.00629480 10 
54 172 328 0.00571126 9 
55 19 337 0.00522784 8 
56 25 337 0.00660138 10 
57 172 337 0.00675702 10 
58 19 342 0.00599688 9 
59 25 342 0.00666966 10 
60 172 342 0.00329406 5 
61 178 342 0.00670623 10 
62 25 367 0.00425549 6 
63 32 367 0.00642657 9 
64 178 367 0.00426237 6 
65 183 367 0.00646596 9 
66 25 374 0.00656730 9 
67 32 374 0.00657560 9 
68 178 374 0.00436167 6 
69 183 374 0.00512371 7 
70 32 382 0.00599284 8 
71 183 382 0.00755956 10 
72 32 387 0.00760802 10 
73 183 387 0.00453295 6 
74 189 400 0.00790145 10 
75 189 414 0.00822725 10 
76 44 437 0.00867910 10 
77 195 437 0.00888624 10 
78 44 454 0.00898763 10 
79 189 454 0.00921563 10 
80 44 467 0.00924818 10 
81 50 467 0.00951199 10 
82 195 467 0.00952230 10 
83 166 476 0.00950823 10 
84 195 484 0.00966013 10 
85 44 494 0.00984339 10 
86 50 494 0.01008832 10 
87 195 494 0.01009661 10 
88 201 494 0.01011073 10 
89 50 500 0.01000678 10 
90 201 500 0.01024881 10 
91 203 500 0.01025291 10 
92 61 508 0.01023017 10 
93 203 508 0.01046955 10 
94 209 508 0.01051100 10 
95 61 522 0.01047899 10 
96 203 522 0.01078782 10 
97 209 522 0.01073559 10 
98 61 528 0.01059353 10 
99 67 528 0.01087562 10 
100 81 528 0.01093843 10 
101 209 528 0.01091709 10 
102 220 528 0.01091686 10 
103 67 532 0.01074324 10 
104 81 532 0.01103470 10 
105 220 532 0.01106290 10 
106 67 556 0.01127070 10 
107 535 557 0.00892440 8 
108 67 564 0.01142399 10 
109 81 564 0.01169235 10 
110 220 564 0.01166703 10 
111 67 567 0.01148159 10 
112 81 567 0.01177134 10 
113 220 567 0.01208729 10 
114 67 570 0.01157220 10 
115 81 570 0.01184535 10 
116 220 570 0.01185953 10 
117 81 575 0.01198629 10 
118 220 575 0.01196136 10 
119 81 588 0.01192425 10 
120 87 588 0.01227357 10 
121 226 588 0.01228700 10 
122 87 597 0.01218059 10 
123 94 597 0.01249798 10 
124 226 597 0.01252641 10 
125 87 604 0.01235648 10 
126 94 604 0.01265462 10 
127 94 616 0.01121783 9 
128 94 632 0.01290355 10 
129 94 637 0.01297158 10 
130 101 637 0.01332168 10 
131 101 642 0.01311452 10 
132 107 642 0.01347132 10 
133 101 645 0.01321918 10 
134 107 645 0.01354916 10 
135 101 657 0.01348169 10 
136 101 663 0.00939101 7 
137 107 663 0.01075181 8 
138 114 663 0.01371103 10 
139 101 665 0.01373461 10 
140 107 665 0.01407060 10 
141 114 665 0.01407514 10 
142 107 680 0.01404307 10 
143 107 683 0.01411625 10 
144 114 683 0.01443992 10 
145 107 704 0.01451576 10 
146 114 704 0.01484299 10 
147 107 714 0.01468735 10 
148 114 714 0.01504045 10 
149 107 730 0.01498875 10 
150 114 730 0.01523947 10 
151 121 754 0.01543303 10 
152 126 754 0.01594151 10 
153 121 759 0.01556540 10 
154 126 759 0.01593401 10 
155 126 762 0.01564286 10 
156 132 762 0.01605772 10 
157 442 777 0.01610483 10 
158 132 778 0.01651935 10 
159 132 792 0.01637852 10 
160 132 800 0.01654361 10 
161 138 800 0.01697220 10 
162 138 806 0.01669595 10 
163 138 821 0.01343733 8 
164 138 823 0.01689308 10 
165 151 828 0.01713021 10 
166 151 847 0.01748032 10 
167 151 855 0.01763021 10 
168 151 895 0.01836232 10 
169 151 897 0.01885660 10 
170 138 903 0.01852515 10 
171 138 904 0.01900613 10 
172 132 907 0.01905451 10 
173 138 907 0.01905510 10 
174 132 911 0.01873600 10 
175 121 923 0.01899063 10 
176 126 923 0.01947640 10 
177 107 929 0.01920416 10 
178 114 929 0.01966996 10 
179 107 935 0.01932497 10 
180 114 935 0.01980322 10 
181 101 939 0.01735251 9 
182 107 939 0.01931189 10 
183 101 944 0.01953572 10 
184 94 947 0.01959954 10 
185 101 947 0.02025560 10 
186 87 953 0.01981375 10 
187 94 953 0.02028493 10 
188 226 953 0.02026364 10 
189 81 959 0.01996292 10 
190 87 959 0.02043548 10 
191 220 959 0.02049066 10 
192 226 959 0.02048988 10 
193 67 965 0.02016363 10 
194 81 965 0.02064688 10 
195 220 965 0.02065348 10 
196 61 976 0.02040190 10 
197 67 976 0.02091811 10 
198 209 976 0.02089087 10 
199 50 982 0.02057147 10 
200 61 982 0.02103267 10 
201 201 982 0.02108703 10 
202 203 982 0.01890628 9 
203 44 988 0.02078479 10 
204 50 988 0.01904407 9 
205 195 988 0.02077934 10 
206 201 988 0.01907239 9 
207 44 994 0.02092791 10 
208 189 994 0.02147474 10 
209 195 994 0.02148099 10 
210 32 1003 0.02127936 10 
211 178 1003 0.02168861 10 
212 183 1003 0.02166107 10 
213 25 1008 0.02124831 10 
214 32 1008 0.02176553 10 
215 178 1008 0.02177821 10 
216 183 1008 0.02177901 10 
217 25 1010 0.02134072 10 
218 32 1010 0.02186451 10 
219 172 1010 0.02191769 10 
220 178 1010 0.02191900 10 
221 19 1016 0.02176935 10 
222 166 1016 0.02396686 10 
223 172 1016 0.02211623 10 
224 151 1029 0.02181283 10 
225 157 1029 0.02238345 10 
226 163 1029 0.02258613 10 
227 166 1029 0.02235776 10 
228 700 1077 0.02309538 10 
229 132 1084 0.02327729 10 
230 101 1138 0.02436241 10 
231 107 1147 0.02449554 10 
232 114 1147 0.02516491 10 
233 107 1150 0.02467980 10 
234 114 1150 0.02517564 10 
235 114 1158 0.02478545 10 
236 121 1158 0.02545809 10 
237 121 1164 0.02494897 10 
238 126 1164 0.02562433 10 
239 114 1175 0.02519557 10 
240 121 1175 0.02579595 10 
241 923 1175 0.02581522 10 
242 929 1175 0.02581438 10 
243 1158 1175 0.02311299 9 
244 101 1188 0.02549579 10 
245 939 1188 0.02608526 10 
246 1138 1188 0.02614238 10 
247 1147 1188 0.02617497 10 
248 1150 1188 0.02613428 10 
249 1050 1210 0.02613618 10 
250 1061 1210 0.02671053 10 
251 1075 1210 0.02673554 10 
252 1084 1210 0.02668177 10 
253 1088 1210 0.02668204 10 
254 1093 1210 0.02668915 10 
255 1098 1210 0.02670341 10 
256 157 1217 0.02639451 10 
257 163 1217 0.02700383 10 
258 1029 1217 0.02705410 10 
259 1044 1217 0.02707052 10 
260 1050 1217 0.02706538 10 
261 1056 1217 0.02808698 10 
