1 90 155 0.00117809 5 
2 19 157 0.00268442 10 
3 19 166 0.00292889 10 
4 19 172 0.00308857 10 
5 25 172 0.00317828 10 
6 25 178 0.00329001 10 
7 32 178 0.00329180 10 
8 32 183 0.00338355 10 
9 44 189 0.00349871 10 
10 44 195 0.00360001 10 
11 50 195 0.00361620 10 
12 50 201 0.00371233 10 
13 50 203 0.00375989 10 
14 61 203 0.00375330 10 
15 61 209 0.00387327 10 
16 67 209 0.00386507 10 
17 67 220 0.00406121 10 
18 81 220 0.00409064 10 
19 81 226 0.00419583 10 
20 87 226 0.00418792 10 
21 87 231 0.00427619 10 
22 94 231 0.00428945 10 
23 226 231 0.00431041 10 
24 94 241 0.00449110 10 
25 101 241 0.00448947 10 
26 101 247 0.00459556 10 
27 107 247 0.00460450 10 
28 107 254 0.00473246 10 
29 114 254 0.00473047 10 
30 67 254 0.00481976 10 
31 107 256 0.00487980 10 
32 114 256 0.00490365 10 
33 107 258 0.00492778 10 
34 114 258 0.00495277 10 
35 121 266 0.00508186 10 
36 126 266 0.00509804 10 
37 190 266 0.00525069 10 
38 126 272 0.00536843 10 
39 132 272 0.00537501 10 
40 132 278 0.00551131 10 
41 138 278 0.00549407 10 
42 64 283 0.00567208 10 
43 138 284 0.00570209 10 
44 151 284 0.00570739 10 
45 151 291 0.00585690 10 
46 151 297 0.00595625 10 
47 157 297 0.00601094 10 
48 163 297 0.00608384 10 
49 166 297 0.00607247 10 
50 19 305 0.00624683 10 
51 157 305 0.00628747 10 
52 163 305 0.00626946 10 
53 166 305 0.00627111 10 
54 172 305 0.00629552 10 
55 19 315 0.00647776 10 
56 25 315 0.00650250 10 
57 172 315 0.00653410 10 
58 209 315 0.00656627 10 
59 172 328 0.00681383 10 
60 19 337 0.00697387 10 
61 25 337 0.00698212 10 
62 172 337 0.00699361 10 
63 45 337 0.00706699 10 
64 19 342 0.00718207 10 
65 25 342 0.00718325 10 
66 172 342 0.00719006 10 
67 178 342 0.00723303 10 
68 206 358 0.00753897 10 
69 137 366 0.00780111 10 
70 25 367 0.00783053 10 
71 32 367 0.00786329 10 
72 178 367 0.00788451 10 
73 183 367 0.00790178 10 
74 25 374 0.00801132 10 
75 32 374 0.00801235 10 
76 178 374 0.00802105 10 
77 183 374 0.00803238 10 
78 92 379 0.00828961 10 
79 32 382 0.00834649 10 
80 183 382 0.00834810 10 
81 32 387 0.00845965 10 
82 183 387 0.00846072 10 
83 189 400 0.00873455 10 
84 189 414 0.00900384 10 
85 74 416 0.00921183 10 
86 44 437 0.00958696 10 
87 195 437 0.00965765 10 
88 139 441 0.00977522 10 
89 44 454 0.01004949 10 
90 189 454 0.01005740 10 
91 202 458 0.01019342 10 
92 47 460 0.01033539 10 
93 44 467 0.01050176 10 
94 50 467 0.01048891 10 
95 195 467 0.01051759 10 
96 329 470 0.01065741 10 
97 454 479 0.01091420 10 
98 195 484 0.01102174 10 
99 44 494 0.01117208 10 
100 50 494 0.01124357 10 
101 195 494 0.01126490 10 
102 201 494 0.01129163 10 
103 50 500 0.01141117 10 
104 201 500 0.01149694 10 
105 203 500 0.01145674 10 
106 61 508 0.01163535 10 
107 203 508 0.01162976 10 
108 209 508 0.01169404 10 
109 368 513 0.01185433 10 
110 61 522 0.01213706 10 
111 203 522 0.01214104 10 
112 209 522 0.01216178 10 
113 61 528 0.01228062 10 
114 67 528 0.01230945 10 
115 81 528 0.01246190 10 
116 209 528 0.01248267 10 
117 220 528 0.01258510 10 
118 20 530 0.01264386 10 
119 67 532 0.01266538 10 
120 81 532 0.01273517 10 
121 220 532 0.01275826 10 
122 428 532 0.01277899 10 
123 311 535 0.01285133 10 
124 208 537 0.01301199 10 
125 67 556 0.01341765 10 
126 425 562 0.01362537 10 
127 256 562 0.01363162 10 
128 67 564 0.01367582 10 
129 81 564 0.01373794 10 
130 220 564 0.01375313 10 
131 67 567 0.01380905 10 
132 81 567 0.01381938 10 
133 220 567 0.01385191 10 
134 67 570 0.01391903 10 
135 81 570 0.01391940 10 
136 220 570 0.01391193 10 
137 81 575 0.01403178 10 
138 220 575 0.01405895 10 
139 81 588 0.01430268 10 
140 87 588 0.01429932 10 
141 226 588 0.01431875 10 
142 87 597 0.01449381 10 
143 94 597 0.01456051 10 
144 226 597 0.01456066 10 
145 87 604 0.01472609 10 
146 94 604 0.01472398 10 
147 94 616 0.01494451 10 
148 212 625 0.01517651 10 
149 194 629 0.01533012 10 
150 94 632 0.01545620 10 
151 94 637 0.01555492 10 
152 101 637 0.01556042 10 
153 367 638 0.01566633 10 
154 517 640 0.01584963 10 
155 101 642 0.01614980 10 
156 107 642 0.01596076 10 
157 101 645 0.01603044 10 
158 107 645 0.01603184 10 
159 101 657 0.01623967 10 
160 101 663 0.01635785 10 
161 107 663 0.01637247 10 
162 114 663 0.01641605 10 
163 101 665 0.01646308 10 
164 107 665 0.01647825 10 
165 114 665 0.01654270 10 
166 107 680 0.01677266 10 
167 107 683 0.01708043 10 
168 114 683 0.01684451 10 
169 107 704 0.17807021 10 
170 114 704 0.17571383 10 
171 48 707 0.18181807 10 
172 107 714 0.01788909 10 
173 114 714 0.01790611 10 
174 107 730 0.01822760 10 
175 114 730 0.01822398 10 
176 546 745 0.01875192 10 
177 121 754 0.01875616 10 
178 126 754 0.01905239 10 
179 121 759 0.01913982 10 
180 126 759 0.01916171 10 
181 126 762 0.01924040 10 
182 132 762 0.01892419 10 
183 293 774 0.01951513 10 
184 132 778 0.01958214 10 
185 132 792 0.01985537 10 
186 442 799 0.01999886 10 
187 132 800 0.02005740 10 
188 138 800 0.02015399 10 
189 138 806 0.02028684 10 
190 138 821 0.02057405 10 
191 138 823 0.02062907 10 
192 151 828 0.02072949 10 
193 182 835 0.02115807 10 
194 57 844 0.02160977 10 
195 548 846 0.02151408 10 
196 151 847 0.02170046 10 
197 295 850 0.02188533 10 
198 793 854 0.02206290 10 
199 151 855 0.02192991 10 
200 83 866 0.02229812 10 
201 622 874 0.02255809 10 
202 4 877 0.02271646 10 
203 323 889 0.02343230 10 
204 151 895 0.02360050 10 
205 151 897 0.02359880 10 
206 138 903 0.02382043 10 
207 138 904 0.02383158 10 
208 132 907 0.02393653 10 
209 138 907 0.02400025 10 
210 132 911 0.02402858 10 
211 121 923 0.02421871 10 
212 126 923 0.02444318 10 
213 107 929 0.02456401 10 
214 114 929 0.02458630 10 
215 755 931 0.02463846 10 
216 107 935 0.02479406 10 
217 114 935 0.02482103 10 
218 101 939 0.02489127 10 
219 107 939 0.02487383 10 
220 668 940 0.02499780 10 
221 101 944 0.02511976 10 
222 94 947 0.02535567 10 
223 101 947 0.02537000 10 
224 428 950 0.02534686 10 
225 87 953 0.02533475 10 
226 94 953 0.02639233 10 
227 226 953 0.02564149 10 
228 81 959 0.02565447 10 
229 87 959 0.02564860 10 
230 220 959 0.02567388 10 
231 226 959 0.02607415 10 
232 67 965 0.02581727 10 
233 81 965 0.02579624 10 
234 220 965 0.02580994 10 
235 61 976 0.02612059 10 
236 67 976 0.02610556 10 
237 209 976 0.02611819 10 
238 50 982 0.02637034 10 
239 61 982 0.02637894 10 
240 201 982 0.02680151 10 
241 203 982 0.02684557 10 
242 44 988 0.02696442 10 
243 50 988 0.02694732 10 
244 195 988 0.02698864 10 
245 201 988 0.02700098 10 
246 69 993 0.02781056 10 
247 44 994 0.02784915 10 
248 189 994 0.02759372 10 
249 195 994 0.02760853 10 
250 107 994 0.02748251 10 
251 491 1002 0.02793507 10 
252 32 1003 0.02802407 10 
253 178 1003 0.02868384 10 
254 183 1003 0.02805169 10 
255 25 1008 0.02826387 10 
256 32 1008 0.02870139 10 
257 178 1008 0.02825413 10 
258 183 1008 0.02829212 10 
259 25 1010 0.02831870 10 
260 32 1010 0.02839599 10 
261 172 1010 0.02844571 10 
262 178 1010 0.02843406 10 
263 323 1015 0.02847479 10 
264 19 1016 0.02852855 10 
265 166 1016 0.02895807 10 
266 172 1016 0.02896603 10 
267 151 1029 0.02939535 10 
268 157 1029 0.02951982 10 
269 163 1029 0.02908177 10 
270 166 1029 0.02912563 10 
271 156 1029 0.02912754 10 
272 176 1048 0.02953013 10 
273 519 1062 0.02992861 10 
274 1029 1079 0.03025153 10 
275 132 1084 0.03027024 10 
276 733 1085 0.03063674 10 
277 224 1086 0.03065045 10 
278 851 1089 0.03105008 10 
279 415 1097 0.03112010 10 
280 795 1105 0.03113352 10 
281 553 1106 0.03145825 10 
282 620 1112 0.03163273 10 
283 183 1113 0.03245727 10 
284 1021 1114 0.03221629 10 
285 131 1118 0.03208267 10 
286 436 1121 0.03249109 10 
287 575 1122 0.03225368 10 
288 794 1122 0.03255054 10 
289 1103 1127 0.03264628 10 
290 101 1138 0.03312991 10 
291 107 1147 0.03311439 10 
292 114 1147 0.03302743 10 
293 107 1150 0.03314624 10 
294 114 1150 0.03312353 10 
295 114 1158 0.03318450 10 
296 121 1158 0.03333270 10 
297 211 1160 0.03343013 10 
298 121 1164 0.03349996 10 
299 126 1164 0.03378275 10 
300 290 1167 0.03374849 10 
301 819 1168 0.03423433 10 
302 713 1171 0.03518487 10 
303 114 1175 0.03445344 10 
304 121 1175 0.03435086 10 
305 923 1175 0.03429192 10 
306 929 1175 0.03437511 10 
307 1158 1175 0.03475498 10 
308 1007 1175 0.03481937 10 
309 752 1186 0.03516226 10 
310 101 1188 0.03512976 10 
311 939 1188 0.03512659 10 
312 1138 1188 0.03528525 10 
313 1147 1188 0.03531643 10 
314 1150 1188 0.03539443 10 
315 577 1192 0.03559193 10 
316 520 1201 0.03613992 10 
317 1050 1210 0.03659968 10 
318 1061 1210 0.03654245 10 
319 1075 1210 0.03621703 10 
320 1084 1210 0.03623344 10 
321 1088 1210 0.03639394 10 
322 1093 1210 0.03665795 10 
323 1098 1210 0.03657381 10 
324 683 1210 0.03692835 10 
325 1181 1214 0.03699820 10 
326 157 1217 0.03716992 10 
327 163 1217 0.03710327 10 
328 1029 1217 0.03737968 10 
329 1044 1217 0.03768695 10 
330 1050 1217 0.03776994 10 
331 1056 1217 0.03771671 10 
