VERTEX2 0 0.00006964 -0.00000111 -0.00000097
VERTEX2 1 0.00006965 -0.00000111 -0.00064297
VERTEX2 2 0.00006965 -0.00000111 -0.00118097
VERTEX2 3 0.01107151 -0.00097610 -0.00356297
VERTEX2 4 0.64107807 -0.01120185 -0.00744497
VERTEX2 5 0.69277312 -0.01168743 -0.09860711
VERTEX2 6 0.69640722 -0.01486475 -0.89555377
VERTEX2 7 0.69052096 0.00342839 -1.51082884
VERTEX2 8 0.69506487 0.02273689 -2.12410217
VERTEX2 9 0.70871156 0.03444423 -2.76190348
VERTEX2 10 0.71791534 0.03595572 2.90701210
VERTEX2 11 0.72091979 0.03405262 2.23301420
VERTEX2 12 0.72094726 0.03255708 1.58381301
VERTEX2 13 0.72543976 0.04680178 0.92459073
VERTEX2 14 0.74287429 0.05910453 0.31661079
VERTEX2 15 0.74828485 0.05948645 -0.20808414
VERTEX2 16 1.03966088 0.00062518 -0.22666778
VERTEX2 17 1.63864421 -0.14439659 -0.25777519
VERTEX2 18 2.25995009 -0.30536144 -0.26782680
VERTEX2 19 2.88550914 -0.50058130 -0.31625667
VERTEX2 20 3.47866688 -0.68829478 -0.31008428
VERTEX2 21 4.08739610 -0.83809848 -0.19827692
VERTEX2 22 4.69702476 -0.97676663 -0.18070637
VERTEX2 23 5.33690991 -1.01832057 -0.07307818
VERTEX2 24 5.96838927 -1.08674029 -0.12997771
VERTEX2 25 6.60321278 -1.15153371 -0.12708660
VERTEX2 26 7.21250777 -1.24934001 -0.16751237
VERTEX2 27 7.82875693 -1.33786061 -0.15158924
VERTEX2 28 8.41071017 -1.43376905 -0.15595469
VERTEX2 29 8.78993723 -1.48942719 -0.12510521
VERTEX2 30 8.79881306 -1.49174215 -0.65705493
VERTEX2 31 8.89943621 -1.62535269 -0.92529791
VERTEX2 32 9.26901989 -2.13663148 -0.94376636
VERTEX2 33 9.65329591 -2.63982147 -0.89244108
VERTEX2 34 10.06712978 -3.12675500 -0.87093804
VERTEX2 35 10.49133850 -3.60584737 -0.83623219
VERTEX2 36 10.92241640 -4.08597387 -0.84440999
VERTEX2 37 11.20597616 -4.39767821 -0.83634393
VERTEX2 38 11.20329327 -4.39409866 -1.15734993
VERTEX2 39 11.20083394 -4.38334541 -1.32779661
VERTEX2 40 11.34988762 -4.95112380 -1.31014956
VERTEX2 41 11.50497100 -5.54390624 -1.34174277
VERTEX2 42 11.63243797 -6.10019264 -1.36406434
VERTEX2 43 11.74467809 -6.68804007 -1.40385955
VERTEX2 44 11.84040146 -7.27515002 -1.44043218
VERTEX2 45 11.90237918 -7.89148010 -1.49602581
VERTEX2 46 11.94086689 -8.51599082 -1.51536772
VERTEX2 47 11.96845281 -9.14055037 -1.55698410
VERTEX2 48 11.97238915 -9.76487065 -1.56347319
VERTEX2 49 11.97240083 -10.37926330 -1.61434263
VERTEX2 50 11.92641663 -10.96247093 -1.65884898
VERTEX2 51 11.87843677 -11.55699617 -1.68798832
VERTEX2 52 11.78837068 -12.13927148 -1.76476391
VERTEX2 53 11.69516655 -12.69615935 -1.75243860
VERTEX2 54 11.58839993 -13.20776315 -1.81452693
VERTEX2 55 11.59498405 -13.17418721 -1.80925494
VERTEX2 56 11.59467505 -13.17546051 -1.79868524
VERTEX2 57 11.45803963 -13.79366191 -1.81005708
VERTEX2 58 11.31903126 -14.39911523 -1.76374595
VERTEX2 59 11.19741023 -15.00370429 -1.78721810
VERTEX2 60 11.07520648 -15.60468865 -1.76570380
VERTEX2 61 10.94729291 -16.20632575 -1.81627756
VERTEX2 62 10.80443718 -16.76531365 -1.77651013
VERTEX2 63 10.65978793 -17.32912377 -1.81207512
VERTEX2 64 10.53155995 -17.88713729 -1.74875511
VERTEX2 65 10.40424219 -18.44151191 -1.80013173
VERTEX2 66 10.25833479 -19.02593465 -1.80813355
VERTEX2 67 10.10077323 -19.61394894 -1.80667940
VERTEX2 68 9.99666346 -20.06160081 -1.82275968
VERTEX2 69 10.00016350 -20.04972709 -1.97809373
VERTEX2 70 10.00662076 -20.03704515 -2.65329911
VERTEX2 71 10.03635178 -20.03502863 2.98644008
VERTEX2 72 10.05614367 -20.03764898 2.97667681
VERTEX2 73 10.07075496 -20.04112425 2.91141869
VERTEX2 74 10.07735767 -20.04549006 2.28884551
VERTEX2 75 10.08001649 -20.04650196 1.93702941
VERTEX2 76 10.06525036 -20.03042988 2.63179391
VERTEX2 77 10.05693806 -20.02705627 2.86518261
VERTEX2 78 9.77201547 -20.04060518 -3.08034226
VERTEX2 79 9.15075683 -20.08574655 -3.08531498
VERTEX2 80 8.51523826 -20.09075142 3.12368996
VERTEX2 81 7.88711243 -20.07067874 3.09800442
VERTEX2 82 7.28818357 -20.03632472 3.04375527
VERTEX2 83 6.70004763 -19.99117879 3.02012787
VERTEX2 84 6.13899422 -19.91146927 2.94224822
VERTEX2 85 5.59739948 -19.81347395 2.94949127
VERTEX2 86 4.98926036 -19.69933114 2.85970057
VERTEX2 87 4.59069094 -19.59308646 2.80792941
VERTEX2 88 4.22122825 -19.46057945 2.77843380
VERTEX2 89 4.22403684 -19.46074271 -3.10818079
VERTEX2 90 3.61353829 -19.47087550 -3.13887575
VERTEX2 91 3.00316979 -19.47325033 -3.09019492
VERTEX2 92 2.40872646 -19.47540511 3.07692092
VERTEX2 93 1.79559419 -19.38059741 2.97567656
VERTEX2 94 1.18124185 -19.25000889 2.93261468
VERTEX2 95 0.56013440 -19.16894893 3.07523922
VERTEX2 96 -0.04867759 -19.12438073 3.09933647
VERTEX2 97 -0.63732207 -19.06782371 3.02877596
VERTEX2 98 -1.22522194 -18.97336873 2.97085722
VERTEX2 99 -1.92987616 -18.85676904 3.01773577
VERTEX2 100 -2.49394004 -18.75517199 2.96609278
VERTEX2 101 -3.10326076 -18.70533546 3.06950176
VERTEX2 102 -3.71718386 -18.63186779 2.96366381
VERTEX2 103 -4.32707936 -18.52384395 3.05971207
VERTEX2 104 -4.94023654 -18.45449509 3.02612393
VERTEX2 105 -5.55338472 -18.39704568 3.07278579
VERTEX2 106 -6.15608737 -18.33360350 3.01803543
VERTEX2 107 -6.77503099 -18.24468120 3.01433492
VERTEX2 108 -7.23077805 -18.20122555 3.07593767
VERTEX2 109 -7.27682624 -18.19014118 2.62749404
VERTEX2 110 -7.29400518 -18.17278026 2.03622108
VERTEX2 111 -7.29514763 -18.09221167 1.53044060
VERTEX2 112 -7.27894244 -17.45830425 1.58488610
VERTEX2 113 -7.30474300 -16.83647441 1.63193860
VERTEX2 114 -7.34520855 -16.22326915 1.66874471
VERTEX2 115 -7.42581040 -15.58562284 1.72906656
VERTEX2 116 -7.55318134 -14.83831820 1.77323682
VERTEX2 117 -7.69584609 -14.23163206 1.86891102
VERTEX2 118 -7.70025926 -14.21303422 1.53450693
VERTEX2 119 -7.65162304 -13.69551747 1.48139633
VERTEX2 120 -7.60819098 -13.04000009 1.57180865
VERTEX2 121 -7.62768745 -12.42271176 1.63962075
VERTEX2 122 -7.67046791 -11.84310068 1.69590520
VERTEX2 123 -7.69784942 -11.66587193 1.68319153
VERTEX2 124 -7.61603178 -11.42739884 1.26038089
VERTEX2 125 -7.40955745 -10.83308090 1.24951782
VERTEX2 126 -7.28758046 -10.21708635 1.45620272
VERTEX2 127 -7.20084689 -9.58457654 1.45478290
VERTEX2 128 -7.13648230 -8.94865880 1.49141794
VERTEX2 129 -7.06137428 -8.31629313 1.45900914
VERTEX2 130 -7.00517601 -7.68654813 1.51197190
VERTEX2 131 -6.97067899 -7.06341073 1.60080004
VERTEX2 132 -6.96424772 -6.44017972 1.55144494
VERTEX2 133 -6.92833771 -5.87531436 1.51471614
VERTEX2 134 -6.88607114 -5.28147478 1.49659617
VERTEX2 135 -6.81560728 -4.70752268 1.47047433
VERTEX2 136 -6.75403040 -4.07693197 1.49021536
VERTEX2 137 -6.67020481 -3.44818402 1.44851587
VERTEX2 138 -6.60607871 -2.81405834 1.52918771
VERTEX2 139 -6.60242079 -2.17891964 1.59441701
VERTEX2 140 -6.64405794 -1.52389917 1.62493444
VERTEX2 141 -6.66303952 -0.88362728 1.57649808
VERTEX2 142 -6.67652185 -0.23351375 1.57267166
VERTEX2 143 -6.60828464 0.40771090 1.46212682
VERTEX2 144 -6.57604106 0.78098471 1.47967310
VERTEX2 145 16.92540495 -5.83865575 -2.11413343
VERTEX2 146 18.15495239 -2.94993221 3.02552958
VERTEX2 147 18.10609336 -2.91980164 2.53722738
VERTEX2 148 17.75020974 -2.66407526 2.50074132
VERTEX2 149 17.22557512 -2.28049272 2.52506790
VERTEX2 150 16.69367097 -1.92584480 2.53850447
VERTEX2 151 16.14934001 -1.58355669 2.62338765
VERTEX2 152 15.62329597 -1.26661208 2.55608292
VERTEX2 153 15.09806571 -0.94854693 2.64276870
VERTEX2 154 14.57228761 -0.63863665 2.56653675
VERTEX2 155 14.05148347 -0.31277881 2.59393110
VERTEX2 156 13.51438513 0.00475771 2.61851995
VERTEX2 157 13.03631166 0.29732481 2.54738163
VERTEX2 158 12.88630095 0.39913374 2.57679960
VERTEX2 159 14.67154859 -0.04433128 -1.53908890
VERTEX2 160 14.67369929 -0.06512446 -0.49579786
VERTEX2 161 -0.16351931 0.44400688 2.70353775
VERTEX2 162 -0.14627364 0.44783265 -2.53865187
VERTEX2 163 -0.14867038 0.43567098 -1.53658098
VERTEX2 164 -0.22520471 0.52995136 -0.47567502
VERTEX2 165 -0.05786109 0.51388244 -0.06786487
VERTEX2 166 0.63321136 0.47323287 -0.06613526
VERTEX2 167 1.24692704 0.42503052 -0.09537205
VERTEX2 168 1.83209496 0.37784993 -0.08324210
VERTEX2 169 2.42458646 0.30854665 -0.12003082
VERTEX2 170 3.00831372 0.24252067 -0.14053136
VERTEX2 171 3.56754744 0.14650487 -0.17868124
VERTEX2 172 4.19050296 0.04164255 -0.16447240
VERTEX2 173 4.81567251 -0.07553181 -0.18721947
VERTEX2 174 5.43706822 -0.18629178 -0.14701513
VERTEX2 175 6.04951225 -0.27309101 -0.17165463
VERTEX2 176 6.64512427 -0.38976038 -0.16199086
VERTEX2 177 7.27403165 -0.49041352 -0.18959146
VERTEX2 178 7.90087590 -0.63442267 -0.22856113
VERTEX2 179 8.30452700 -0.71627172 -0.17520591
VERTEX2 180 8.35426595 -0.72941699 -0.61720946
VERTEX2 181 8.79449880 -1.04427696 -0.66899878
VERTEX2 182 9.20052315 -1.40058924 -0.84305146
VERTEX2 183 9.55054533 -1.82134881 -0.89997535
VERTEX2 184 9.89358970 -2.33381118 -1.04455824
VERTEX2 185 10.18231555 -2.86924045 -1.13544423
VERTEX2 186 10.40727430 -3.43681193 -1.20026723
VERTEX2 187 10.60842403 -3.98242110 -1.22149542
VERTEX2 188 10.81715200 -4.54739980 -1.22558601
VERTEX2 189 11.01921523 -5.11628789 -1.25094615
VERTEX2 190 11.20796228 -5.71203283 -1.27995765
VERTEX2 191 11.38792703 -6.31327929 -1.30391073
VERTEX2 192 11.54898223 -6.90832201 -1.33211589
VERTEX2 193 11.67877328 -7.45533390 -1.38764717
VERTEX2 194 11.78525477 -8.02384775 -1.41420870
VERTEX2 195 11.87161880 -8.58287183 -1.44294691
VERTEX2 196 11.94544576 -9.20529184 -1.48377271
VERTEX2 197 11.99056640 -9.82415030 -1.51129887
VERTEX2 198 12.02293288 -10.44062230 -1.56951684
VERTEX2 199 12.00202551 -11.04744553 -1.63096844
VERTEX2 200 11.96205865 -11.64941002 -1.65286934
VERTEX2 201 11.89838503 -12.24832613 -1.70954714
VERTEX2 202 11.84060165 -12.74965413 -1.68912003
VERTEX2 203 11.74736334 -13.48280672 -1.74163582
VERTEX2 204 11.63361746 -14.05514587 -1.84379193
VERTEX2 205 11.47233995 -14.61413951 -1.85334366
VERTEX2 206 11.32591347 -15.15780608 -1.85153600
VERTEX2 207 11.17184385 -15.72853630 -1.83536394
VERTEX2 208 11.00457684 -16.33218960 -1.84456416
VERTEX2 209 10.85026966 -16.93130378 -1.80581538
VERTEX2 210 10.69342562 -17.53012052 -1.81387855
VERTEX2 211 10.55120982 -18.13263136 -1.81083774
VERTEX2 212 10.38417915 -18.71710462 -1.86355532
VERTEX2 213 10.19889570 -19.30413853 -1.88454349
VERTEX2 214 10.00853457 -19.87767238 -1.88854700
VERTEX2 215 9.89958771 -20.19622965 -1.92454719
VERTEX2 216 9.91370159 -20.17133032 -2.42370378
VERTEX2 217 9.93878984 -20.16831982 -2.96643922
VERTEX2 218 9.94506430 -20.17063782 -3.02269282
VERTEX2 219 9.37677151 -20.13316254 3.09172267
VERTEX2 220 8.76585404 -20.09596074 3.05167056
VERTEX2 221 8.12498908 -20.03650043 3.10204575
VERTEX2 222 7.49838608 -20.00070938 3.07643684
VERTEX2 223 6.87164295 -19.97820917 -3.11043809
VERTEX2 224 6.25761184 -19.98567716 -3.13620652
VERTEX2 225 5.64248153 -19.98693116 -3.08638672
VERTEX2 226 5.02832632 -19.98750046 -3.13533201
VERTEX2 227 4.38581308 -20.06409779 -2.97861515
VERTEX2 228 3.86254637 -20.05450813 2.94314370
VERTEX2 229 3.41491508 -20.02068267 3.06379439
VERTEX2 230 3.12458348 -20.00829608 3.03508450
VERTEX2 231 3.32981268 -20.02361683 3.10523554
VERTEX2 232 3.01838115 -19.88827827 2.67928401
VERTEX2 233 2.45121573 -19.63406812 2.78157458
VERTEX2 234 1.87277071 -19.41411531 2.73741844
VERTEX2 235 1.62212240 -19.30942829 2.73244204
VERTEX2 236 1.28975132 -19.31454555 3.13790351
VERTEX2 237 0.66395435 -19.33672855 -3.07486514
VERTEX2 238 0.04649261 -19.39225769 -3.10756824
VERTEX2 239 -0.56815654 -19.39650753 3.10804242
VERTEX2 240 -1.13844306 -19.28536660 2.89005424
VERTEX2 241 -1.67907602 -19.16047833 2.97557056
VERTEX2 242 -2.25208761 -19.10232307 3.01521300
VERTEX2 243 -2.85226155 -19.02634611 3.01462445
VERTEX2 244 -3.47558827 -18.98813476 3.08605125
VERTEX2 245 -4.08977855 -18.94675297 3.03194630
VERTEX2 246 -4.69205258 -18.86799393 2.95968236
VERTEX2 247 -5.29578840 -18.79310097 3.06573727
VERTEX2 248 -5.84994038 -18.77836898 3.09716774
VERTEX2 249 -5.80080361 -18.78513525 -2.99304487
VERTEX2 250 -5.79657003 -18.78495406 2.70342030
VERTEX2 251 -6.12382622 -18.44835180 2.28020140
VERTEX2 252 -6.48570985 -18.03228309 2.28878314
VERTEX2 253 -6.86411184 -17.59075191 2.27786816
VERTEX2 254 -7.23622158 -17.13686921 2.23676015
VERTEX2 255 -7.31013359 -17.04556700 2.32064050
VERTEX2 256 -7.31416251 -16.96822281 1.84483253
VERTEX2 257 -7.37189684 -16.51047413 1.70917213
VERTEX2 258 -7.46348269 -15.92213249 1.78971715
VERTEX2 259 -7.61482700 -15.32085763 1.83057738
VERTEX2 260 -7.75596532 -14.76377691 1.82244622
VERTEX2 261 -7.75429529 -14.72801022 1.51144332
VERTEX2 262 -7.70062655 -14.07728067 1.51838177
VERTEX2 263 -7.66755741 -13.46025930 1.53211914
VERTEX2 264 -7.66163324 -12.85692779 1.62949757
VERTEX2 265 -7.70233406 -12.25506612 1.64993714
VERTEX2 266 -7.66342444 -11.67768661 1.52110784
VERTEX2 267 -7.62343777 -10.92889679 1.49177680
VERTEX2 268 -7.50031898 -10.32393112 1.38175554
VERTEX2 269 -7.38986576 -9.70871522 1.41174855
VERTEX2 270 -7.32739708 -9.08432966 1.52593425
VERTEX2 271 -7.24192152 -8.46100074 1.41563716
VERTEX2 272 -7.16625707 -7.83326702 1.48100341
VERTEX2 273 -7.18603512 -7.20460051 1.69329887
VERTEX2 274 -7.26346915 -6.59096490 1.71743652
VERTEX2 275 -7.26119602 -5.98483243 1.54621567
VERTEX2 276 -7.26419098 -5.37977331 1.66097269
VERTEX2 277 -7.32003828 -4.81860961 1.63564881
VERTEX2 278 -7.28746435 -4.18018602 1.54725780
VERTEX2 279 -7.25824309 -3.54479532 1.49220296
VERTEX2 280 -7.20082394 -2.91377920 1.49457341
VERTEX2 281 -7.12122211 -2.28014989 1.39457277
VERTEX2 282 -7.01250249 -1.65190838 1.43489266
VERTEX2 283 -6.93709694 -1.01837191 1.42754880
VERTEX2 284 -6.83718304 -0.39536326 1.45469895
VERTEX2 285 -6.77956305 0.26908963 1.47392602
VERTEX2 286 -6.72081937 0.90581338 1.52565830
VERTEX2 287 -6.71824453 0.96954866 1.41916497
VERTEX2 288 -6.70210007 0.99956981 0.80557873
VERTEX2 289 -6.66708693 1.01856653 0.20721916
VERTEX2 290 -6.19242303 1.01052795 -0.02053617
VERTEX2 291 -5.54431132 1.00267627 -0.00888826
VERTEX2 292 -4.91251964 0.98328737 -0.06225167
VERTEX2 293 -4.27469560 0.93877761 -0.08430454
VERTEX2 294 -3.64547762 0.88817174 -0.08292220
VERTEX2 295 -3.01845038 0.80989470 -0.19477716
VERTEX2 296 -2.41158389 0.67081598 -0.23998293
VERTEX2 297 -1.80759261 0.52521634 -0.25170528
VERTEX2 298 -1.19947633 0.37215193 -0.25179469
VERTEX2 299 -0.62802791 0.21710408 -0.19000866
VERTEX2 300 -0.04296568 0.13265061 -0.14729057
VERTEX2 301 0.51726338 0.03466597 -0.20596406
VERTEX2 302 0.81643561 -0.02897848 -0.22643530
VERTEX2 303 0.79583355 -0.02447920 -0.22187220
VERTEX2 304 1.29375071 -0.13764691 -0.21193134
VERTEX2 305 1.90832618 -0.17961464 -0.02757068
VERTEX2 306 2.53498656 -0.18882124 -0.04641943
VERTEX2 307 3.17254767 -0.23567356 -0.08387721
VERTEX2 308 3.79903012 -0.29806370 -0.14019369
VERTEX2 309 4.43270975 -0.35830436 -0.04800448
VERTEX2 310 5.05822976 -0.38853642 -0.08448318
VERTEX2 311 5.33792273 -0.41447686 0.08981219
VERTEX2 312 5.33420309 -0.41644677 1.07872898
VERTEX2 313 5.33838848 -0.19669208 1.57493044
VERTEX2 314 5.31704521 0.43281108 1.61492788
VERTEX2 315 5.28653616 1.06169102 1.61078992
VERTEX2 316 5.24496212 1.70110117 1.66206434
VERTEX2 317 5.18230002 2.33713156 1.67194708
VERTEX2 318 5.08243816 2.96851852 1.76641465
VERTEX2 319 5.00289920 3.31010528 1.83769547
VERTEX2 320 5.00324443 3.31119449 2.80602814
VERTEX2 321 4.99277055 3.30664993 -2.43762697
VERTEX2 322 4.98955157 3.30004695 -1.44157889
VERTEX2 323 5.00268759 3.28748156 -0.44931836
VERTEX2 324 5.00641091 3.28629088 0.20982036
VERTEX2 325 5.01121622 3.28668180 -0.31847491
VERTEX2 326 5.02320785 3.27775630 -0.91437208
VERTEX2 327 5.02457151 3.27157316 -1.53846328
VERTEX2 328 5.01088719 2.64432174 -1.58529930
VERTEX2 329 4.99087428 2.01426611 -1.64195121
VERTEX2 330 4.93874593 1.40197056 -1.66243428
VERTEX2 331 4.88561218 0.78837899 -1.67818771
VERTEX2 332 4.80811780 0.17774823 -1.69817737
VERTEX2 333 4.78720828 0.02628210 -1.63471059
VERTEX2 334 4.80216813 0.02938917 -0.84049457
VERTEX2 335 4.81789170 0.02480657 0.15049648
VERTEX2 336 4.83122193 0.02953978 1.09164419
VERTEX2 337 4.83652331 0.06333657 2.07061261
VERTEX2 338 4.83330066 0.06555674 3.06011443
VERTEX2 339 4.84461794 0.07264131 -2.17312090
VERTEX2 340 4.84478085 0.07136965 -1.15330716
VERTEX2 341 4.95803414 0.00358869 -0.51957115
VERTEX2 342 5.53189769 -0.29887012 -0.41747392
VERTEX2 343 6.11099600 -0.49817427 -0.28585194
VERTEX2 344 6.70070197 -0.67923601 -0.29524167
VERTEX2 345 6.93923637 -0.74849516 -0.32205814
VERTEX2 346 6.92550745 -0.74405956 -0.96762502
VERTEX2 347 6.92836264 -0.83466174 -1.52477948
VERTEX2 348 6.94868487 -1.42739082 -1.54085234
VERTEX2 349 6.94893536 -2.04914542 -1.58043996
VERTEX2 350 6.93893357 -2.83954908 -1.59944356
VERTEX2 351 6.92570699 -3.11565698 -1.62777694
VERTEX2 352 6.92345169 -3.12664136 -1.91456715
VERTEX2 353 6.91037707 -3.14282090 -2.57746064
VERTEX2 354 6.89503903 -3.14729295 3.10467945
VERTEX2 355 6.87372189 -3.14668872 2.38639969
VERTEX2 356 6.86844485 -3.13746544 1.81340229
VERTEX2 357 6.87066379 -3.12383097 1.16281089
VERTEX2 358 6.87037659 -3.12427673 0.54973009
VERTEX2 359 6.86101946 -3.12834254 -0.06196614
VERTEX2 360 6.84615521 -3.12547616 -0.23702947
VERTEX2 361 6.83986301 -3.12715969 0.68565494
VERTEX2 362 6.92537465 -2.89120756 1.22144706
VERTEX2 363 7.02841219 -2.61796972 1.21582624
VERTEX2 364 6.95647862 -2.27748535 1.83257456
VERTEX2 365 6.89863039 -1.98391776 1.33726802
VERTEX2 366 7.00943443 -1.85720641 0.78508205
VERTEX2 367 7.45144979 -1.42137130 0.78812948
VERTEX2 368 7.90496664 -0.98374877 0.73979047
VERTEX2 369 7.92540659 -0.95882642 0.48817589
VERTEX2 370 7.94963623 -0.95483379 -0.09818949
VERTEX2 371 7.95469063 -0.95743056 -0.64329420
VERTEX2 372 8.38437253 -1.30293612 -0.67084304
VERTEX2 373 8.85790040 -1.66445921 -0.66874580
VERTEX2 374 9.33811166 -2.06412755 -0.72975704
VERTEX2 375 9.70295847 -2.38492000 -0.76017248
VERTEX2 376 9.71871566 -2.39440999 -0.06618087
VERTEX2 377 9.76983843 -2.35745932 0.62832968
VERTEX2 378 10.30263739 -1.95443695 0.68174367
VERTEX2 379 10.77882143 -1.51938866 0.76576384
VERTEX2 380 11.21305992 -1.04941568 0.88351583
VERTEX2 381 11.35683627 -0.86873782 1.03174542
VERTEX2 382 11.35784142 -0.86685342 2.07607921
VERTEX2 383 11.35417026 -0.86463965 3.06226353
VERTEX2 384 11.35120752 -0.86749284 -2.25785125
VERTEX2 385 11.34605088 -0.87629858 -1.22846800
VERTEX2 386 11.45024364 -1.00998924 -1.00377173
VERTEX2 387 11.90720795 -1.42824608 -0.67229256
VERTEX2 388 12.36748518 -1.77880903 -0.66571855
VERTEX2 389 12.80251316 -2.14857855 -0.75082664
VERTEX2 390 12.80939558 -2.15438791 -0.28155813
VERTEX2 391 12.62121877 -2.14697905 0.09344539
VERTEX2 392 12.56264011 -2.14781727 1.12116434
VERTEX2 393 12.56347599 -2.07782431 2.35490218
VERTEX2 394 12.49307313 -2.04864781 -2.94897130
VERTEX2 395 12.68511770 -1.94800992 -2.61678714
VERTEX2 396 12.66309916 -1.95909384 -2.61952698
VERTEX2 397 12.62379374 -1.96784631 -2.63325955
VERTEX2 398 12.60818384 -1.98074625 -2.43993363
VERTEX2 399 12.53406181 -2.08479234 -2.14598171
VERTEX2 400 12.17779473 -2.63577011 -2.09870822
VERTEX2 401 11.83126118 -3.17452125 -2.19305275
VERTEX2 402 11.35243011 -3.62753492 -2.46255454
VERTEX2 403 10.83652588 -4.03376906 -2.49809264
VERTEX2 404 10.32973822 -4.38939329 -2.57863292
VERTEX2 405 10.31183030 -4.40517246 -2.04782382
VERTEX2 406 10.30757123 -4.36464805 -1.07477153
VERTEX2 407 10.48343961 -4.61665986 -0.94846501
VERTEX2 408 10.80479603 -5.07718978 -0.98789470
VERTEX2 409 10.93337856 -5.28523860 -1.08909996
VERTEX2 410 10.92491598 -5.24973750 -1.72050223
VERTEX2 411 11.10614598 -4.78692791 -2.56273262
VERTEX2 412 10.55756858 -5.01359408 -2.76771684
VERTEX2 413 9.92329913 -5.23655401 -2.84880861
VERTEX2 414 9.28242895 -5.44808351 -2.74654531
VERTEX2 415 8.67020059 -5.69511288 -2.73918384
VERTEX2 416 8.37365156 -5.83068062 -2.79386368
VERTEX2 417 8.08245168 -5.81802902 3.06592102
VERTEX2 418 7.64517125 -5.78012827 3.02128447
VERTEX2 419 7.64520840 -5.78012633 -2.82990124
VERTEX2 420 7.69315882 -5.75820208 -2.61300363
VERTEX2 421 7.68886605 -5.76529134 -1.64335682
VERTEX2 422 7.67839478 -5.78029912 -0.40155917
VERTEX2 423 7.68299558 -5.78068761 -0.05503771
VERTEX2 424 7.68174256 -5.78133212 -0.05399341
VERTEX2 425 7.66745929 -5.78960396 -0.04157472
VERTEX2 426 7.66617773 -5.79018109 -0.04986328
VERTEX2 427 7.69744785 -5.79145914 -0.04591618
VERTEX2 428 8.35824856 -5.80573430 -0.05058239
VERTEX2 429 9.00332985 -5.84722957 -0.09050173
VERTEX2 430 9.34534028 -5.88366355 -0.13574598
VERTEX2 431 9.32285417 -5.88125304 -0.08296945
VERTEX2 432 9.33416461 -5.88507655 -0.71292740
VERTEX2 433 9.33774805 -5.88985765 -1.38837193
VERTEX2 434 9.30897679 -6.42263082 -1.61557408
VERTEX2 435 9.28623620 -7.05923152 -1.64318780
VERTEX2 436 9.21837077 -7.69352021 -1.65130509
VERTEX2 437 9.17660469 -8.33378790 -1.64283363
VERTEX2 438 9.13091632 -8.81284640 -1.67202799
VERTEX2 439 9.12707685 -8.82828950 -2.10519765
VERTEX2 440 9.13121515 -8.82496779 -2.74452182
VERTEX2 441 9.15129055 -8.82257742 2.92033733
VERTEX2 442 9.16312300 -8.82867792 2.29399877
VERTEX2 443 9.16314444 -8.82897627 1.72782796
VERTEX2 444 9.16611451 -8.81124069 1.13703333
VERTEX2 445 9.17332994 -8.80402509 0.47966502
VERTEX2 446 9.17432157 -8.80340085 0.68151939
VERTEX2 447 9.18661807 -8.77838637 1.31373637
VERTEX2 448 9.32602046 -8.15213949 1.33108902
VERTEX2 449 9.44824650 -7.51178593 1.43223675
VERTEX2 450 9.53179454 -6.87164579 1.44574466
VERTEX2 451 9.57697032 -6.39856504 1.48807398
VERTEX2 452 9.57718969 -6.39564027 1.10947291
VERTEX2 453 9.57532945 -6.39912483 0.48649269
VERTEX2 454 9.83797518 -6.37520311 0.06382356
VERTEX2 455 10.43710243 -6.34226925 0.04323515
VERTEX2 456 11.06998176 -6.32889464 -0.02138507
VERTEX2 457 11.42491574 -6.34650472 -0.10913852
VERTEX2 458 11.42035596 -6.34431473 -0.75510620
VERTEX2 459 11.41008681 -6.30502436 -1.36354471
VERTEX2 460 11.39489902 -6.69950303 -1.62067639
VERTEX2 461 11.33416989 -7.31803228 -1.70870305
VERTEX2 462 11.25315737 -7.82993310 -1.74877979
VERTEX2 463 11.26311511 -7.80978375 -0.90873601
VERTEX2 464 11.51656859 -7.87831686 -0.23080637
VERTEX2 465 12.09901318 -8.00330053 -0.22311389
VERTEX2 466 12.65152787 -8.14687332 -0.27880546
VERTEX2 467 13.22188734 -8.32078293 -0.32231077
VERTEX2 468 13.83675873 -8.53033771 -0.35782541
VERTEX2 469 14.42857764 -8.78710687 -0.44075535
VERTEX2 470 14.88216929 -8.99561276 -0.42186200
VERTEX2 471 14.88871462 -8.99906009 -0.62141539
VERTEX2 472 14.90520524 -9.02150301 -1.25343489
VERTEX2 473 14.90657914 -9.02787807 -1.89337330
VERTEX2 474 14.90429629 -9.03081542 -2.52406518
VERTEX2 475 14.90427820 -9.03081241 -3.09789321
VERTEX2 476 14.90417286 -9.03079332 2.53402880
VERTEX2 477 14.90802418 -9.03813910 1.97445384
VERTEX2 478 14.90882748 -9.04740505 1.34734452
VERTEX2 479 14.90760501 -9.05028883 0.89299968
VERTEX2 480 14.90807295 -9.04920659 1.45550530
VERTEX2 481 14.90497341 -9.03637641 2.45832479
VERTEX2 482 14.91433799 -9.04002092 2.79477388
VERTEX2 483 14.92595752 -9.04413639 2.78955802
VERTEX2 484 14.50321071 -8.89228647 2.82525430
VERTEX2 485 13.90359099 -8.71021126 2.82296024
VERTEX2 486 13.30101950 -8.50419976 2.83250944
VERTEX2 487 12.69016082 -8.33148169 2.86080869
VERTEX2 488 12.07698772 -8.15692210 2.89695156
VERTEX2 489 11.60665040 -8.05456939 2.92740193
VERTEX2 490 11.61227322 -8.05396319 -2.87061483
VERTEX2 491 11.61981044 -8.04379345 -1.93438823
VERTEX2 492 11.60558821 -8.27330781 -1.63081693
VERTEX2 493 11.55043227 -8.87769006 -1.68549714
VERTEX2 494 11.47014111 -9.48998902 -1.74601689
VERTEX2 495 11.40883157 -10.11190441 -1.63880872
VERTEX2 496 11.37284462 -10.73472898 -1.52104340
VERTEX2 497 11.37352238 -11.35052357 -1.60705630
VERTEX2 498 11.31278444 -11.97079971 -1.70882583
VERTEX2 499 11.19030356 -12.59701964 -1.72580762
VERTEX2 500 11.25498058 -13.16077418 -1.39681607
VERTEX2 501 11.33661638 -13.73675156 -1.46884186
VERTEX2 502 11.36936397 -14.42951688 -1.55325143
VERTEX2 503 11.37062130 -14.87415325 -1.57015550
VERTEX2 504 11.37619554 -14.85772718 -0.71285605
VERTEX2 505 11.61307871 -14.88151393 -0.09074818
VERTEX2 506 12.20474542 -14.95488406 -0.24320983
VERTEX2 507 12.78659243 -15.11622635 -0.32168866
VERTEX2 508 13.35688616 -15.31923826 -0.33489779
VERTEX2 509 13.97254199 -15.54137266 -0.38998181
VERTEX2 510 14.32425515 -15.69213058 -0.40312982
VERTEX2 511 14.32177705 -15.67160597 0.47575580
VERTEX2 512 14.34100991 -15.62867809 1.67947302
VERTEX2 513 14.33560748 -15.61411597 2.63896022
VERTEX2 514 14.26625006 -15.59683398 2.86558582
VERTEX2 515 13.64955883 -15.43401087 2.86690412
VERTEX2 516 13.05807937 -15.25743623 2.88300950
VERTEX2 517 12.45973289 -15.12712961 2.91140500
VERTEX2 518 11.86549755 -14.99452750 2.93568397
VERTEX2 519 11.34255784 -14.88696499 2.91991432
VERTEX2 520 11.17640663 -14.84898185 -2.96621161
VERTEX2 521 11.22300796 -14.79525173 -1.97559383
VERTEX2 522 11.16606491 -15.17973606 -1.71380542
VERTEX2 523 11.08303962 -15.79776306 -1.72129072
VERTEX2 524 10.98702373 -16.36990195 -1.76330394
VERTEX2 525 10.89048161 -16.91018532 -1.73971549
VERTEX2 526 10.78202496 -17.47733260 -1.79856147
VERTEX2 527 10.64216986 -18.05522736 -1.83339873
VERTEX2 528 10.46776145 -18.62121046 -1.90938679
VERTEX2 529 10.26430295 -19.22140396 -1.93788795
VERTEX2 530 10.02578215 -19.81950838 -1.96816364
VERTEX2 531 9.76325808 -20.39645479 -2.04793112
VERTEX2 532 9.66789499 -20.58263479 -1.99726664
VERTEX2 533 9.66064182 -20.54993926 -0.99598129
VERTEX2 534 9.65196762 -20.54438498 -0.32785927
VERTEX2 535 9.64943926 -20.54203397 -0.32783366
VERTEX2 536 10.00571523 -20.61999242 -0.19682667
VERTEX2 537 10.61288902 -20.75828916 -0.25457995
VERTEX2 538 11.17400076 -20.91819767 -0.28166194
VERTEX2 539 11.78384435 -21.11713472 -0.34638484
VERTEX2 540 12.37345563 -21.36056703 -0.43921957
VERTEX2 541 12.96291712 -21.57876038 -0.27683652
VERTEX2 542 13.59436735 -21.71018030 -0.22105814
VERTEX2 543 13.71505281 -21.73835973 -0.25065055
VERTEX2 544 13.73371372 -21.73614285 0.38656417
VERTEX2 545 13.75476451 -21.69632816 1.45312864
VERTEX2 546 13.77370836 -21.74328291 2.28042467
VERTEX2 547 13.78067105 -21.74269514 -2.98022367
VERTEX2 548 13.79104087 -21.73577747 -2.05653884
VERTEX2 549 13.79184745 -21.72981904 -1.25051037
VERTEX2 550 13.79073604 -21.71513093 -1.73066849
VERTEX2 551 13.79737753 -21.70107689 -2.35749280
VERTEX2 552 13.81650370 -21.69113888 -2.99042375
VERTEX2 553 13.68419533 -21.64315397 2.71503557
VERTEX2 554 13.09492832 -21.37249477 2.67931059
VERTEX2 555 12.51866497 -21.11052459 2.76787135
VERTEX2 556 11.91839237 -20.90453284 2.90261443
VERTEX2 557 11.31541349 -20.74318554 2.86123732
VERTEX2 558 10.73675319 -20.59517905 2.94208417
VERTEX2 559 10.74408669 -20.59753028 2.53481413
VERTEX2 560 10.73686752 -20.58985355 2.03352488
VERTEX2 561 10.71346260 -20.56778981 2.53839244
VERTEX2 562 10.53439955 -20.57039022 -3.10167067
VERTEX2 563 9.96915360 -20.50055959 2.98898126
VERTEX2 564 9.36909553 -20.41782539 3.03721046
VERTEX2 565 8.77769536 -20.35407408 2.97962398
VERTEX2 566 8.83868154 -20.37219731 -2.52001170
VERTEX2 567 8.74502038 -20.38032229 -1.72661448
VERTEX2 568 8.70006718 -20.88968322 -1.66272032
VERTEX2 569 8.65564261 -21.46562623 -1.70188072
VERTEX2 570 8.59387621 -22.04691311 -1.69712410
VERTEX2 571 8.54562706 -22.40341892 -1.74456432
VERTEX2 572 8.51098316 -22.42940051 -1.98770098
VERTEX2 573 8.47657318 -22.51008956 -1.71131164
VERTEX2 574 8.49702131 -22.53807813 -0.77167887
VERTEX2 575 8.64829071 -22.58544514 0.14795818
VERTEX2 576 8.64646146 -22.58402032 1.17619633
VERTEX2 577 8.64051273 -22.56885092 2.14883552
VERTEX2 578 8.63023622 -22.53565788 1.78458464
VERTEX2 579 8.49709495 -21.88394809 1.79958340
VERTEX2 580 8.32715293 -21.24512459 1.87471605
VERTEX2 581 8.12476265 -20.62288107 1.91710066
VERTEX2 582 7.89505216 -20.01020165 1.96025554
VERTEX2 583 7.76084268 -19.70272539 2.03965392
VERTEX2 584 7.75485415 -19.69146019 2.88359005
VERTEX2 585 7.17177948 -19.55920798 3.00204416
VERTEX2 586 6.57933633 -19.49252225 3.09977881
VERTEX2 587 5.96292844 -19.48956907 3.12536492
VERTEX2 588 5.33532459 -19.47189949 3.13001727
VERTEX2 589 4.79781275 -19.50358355 -3.07783076
VERTEX2 590 4.24964271 -19.55474386 -3.00911780
VERTEX2 591 3.71224800 -19.64055736 -3.01103350
VERTEX2 592 3.16579423 -19.72192694 -3.01378155
VERTEX2 593 2.98909599 -19.74644360 -2.80855485
VERTEX2 594 3.03099534 -19.70014747 -1.88878833
VERTEX2 595 2.92573316 -20.30841489 -1.65596552
VERTEX2 596 2.88127147 -20.93290747 -1.67910617
VERTEX2 597 2.79816372 -21.60857587 -1.71904568
VERTEX2 598 2.70299902 -22.20799801 -1.76120527
VERTEX2 599 2.61953206 -22.58616242 -1.82738704
VERTEX2 600 2.61992650 -22.60220274 -1.02083751
VERTEX2 601 2.66058198 -22.62654058 -0.00268498
VERTEX2 602 2.69570782 -22.61187776 1.01134016
VERTEX2 603 2.65827565 -22.37726316 1.78396536
VERTEX2 604 2.59031357 -21.76542742 1.53986883
VERTEX2 605 2.59139959 -21.11800390 1.62239513
VERTEX2 606 2.54319459 -20.47149377 1.66442399
VERTEX2 607 2.54726368 -19.88184968 1.58335424
VERTEX2 608 2.52959206 -19.49644724 1.62779589
VERTEX2 609 2.52565545 -19.47484810 1.96406599
VERTEX2 610 2.51760376 -19.47204213 2.89663472
VERTEX2 611 1.92049913 -19.32842332 2.89962758
VERTEX2 612 1.44642844 -19.19910671 2.90246718
VERTEX2 613 1.48185441 -19.20949687 -2.91688522
VERTEX2 614 1.48848638 -19.20436796 -1.87880040
VERTEX2 615 1.50562633 -19.68862229 -1.57421754
VERTEX2 616 1.51807038 -20.30933097 -1.62535621
VERTEX2 617 1.38619082 -20.90878104 -1.84277811
VERTEX2 618 1.22276242 -21.51180175 -1.83279683
VERTEX2 619 1.06725605 -22.08025492 -1.83427563
VERTEX2 620 0.88910670 -22.65364684 -1.93046562
VERTEX2 621 1.01633147 -22.31659781 -1.98188420
VERTEX2 622 1.13880148 -22.04909546 -2.05679394
VERTEX2 623 1.13711436 -22.05141601 -2.59313949
VERTEX2 624 1.10362537 -22.05135591 3.04829168
VERTEX2 625 1.05822112 -22.03347037 2.39062181
VERTEX2 626 1.03247567 -22.00444274 1.77355310
VERTEX2 627 1.10142108 -21.63445165 1.36343707
VERTEX2 628 1.27413891 -21.00845649 1.26282544
VERTEX2 629 1.43968833 -20.38186901 1.33405671
VERTEX2 630 1.55863330 -19.77949417 1.41922781
VERTEX2 631 1.62513358 -19.25596151 1.43944803
VERTEX2 632 1.62664681 -19.24643792 2.11565391
VERTEX2 633 1.53166260 -19.24100332 -3.08040910
VERTEX2 634 0.86786431 -19.28562902 -3.05283356
VERTEX2 635 0.21797324 -19.30421036 3.09556132
VERTEX2 636 -0.42101762 -19.28372255 3.07817028
VERTEX2 637 -1.04713268 -19.21766820 2.97911077
VERTEX2 638 -1.44154962 -19.14246015 2.94986118
VERTEX2 639 -2.04712642 -19.04851629 3.03007856
VERTEX2 640 -2.65700095 -18.94839401 2.96207224
VERTEX2 641 -3.25615584 -18.84585242 2.95382562
VERTEX2 642 -3.83138871 -18.71683163 2.90858417
VERTEX2 643 -4.31442747 -18.58685072 2.84111880
VERTEX2 644 -4.31822661 -18.58775289 -2.68530748
VERTEX2 645 -4.35266042 -18.72903794 -1.90781479
VERTEX2 646 -4.48176750 -19.34010852 -1.61245838
VERTEX2 647 -4.42990137 -19.98165263 -1.32361836
VERTEX2 648 -4.19893253 -20.60330272 -1.15733965
VERTEX2 649 -4.01760765 -21.19928279 -1.49493976
VERTEX2 650 -4.11009225 -21.82895727 -1.75229914
VERTEX2 651 -4.12567518 -21.97464692 -0.95288635
VERTEX2 652 -4.06311970 -22.00181110 0.07208764
VERTEX2 653 -4.01798063 -21.96020119 1.10252786
VERTEX2 654 -4.03082644 -21.66401348 1.61569893
VERTEX2 655 -4.04837150 -21.11113120 1.61069192
VERTEX2 656 -4.05531432 -20.50942143 1.59805760
VERTEX2 657 -4.17005096 -19.89956798 1.87468508
VERTEX2 658 -4.36832282 -19.28531056 1.86753199
VERTEX2 659 -4.48947552 -18.79357423 1.79639104
VERTEX2 660 -4.49274544 -18.77827660 2.39654331
VERTEX2 661 -4.67042059 -18.76102493 3.05002777
VERTEX2 662 -5.26357746 -18.70946026 3.11965169
VERTEX2 663 -5.84953655 -18.73148632 -3.06248317
VERTEX2 664 -5.85703192 -18.72966501 -2.53926389
VERTEX2 665 -5.87163582 -18.83080817 -1.70569726
VERTEX2 666 -5.93503323 -19.43658703 -1.66861488
VERTEX2 667 -5.98444466 -20.00006457 -1.66405318
VERTEX2 668 -6.03991011 -20.59105929 -1.63834047
VERTEX2 669 -6.08043813 -21.21779718 -1.66344682
VERTEX2 670 -6.17207471 -21.83739052 -1.72289821
VERTEX2 671 -6.21597543 -22.13127754 -1.66788989
VERTEX2 672 -6.12184558 -21.55010522 -1.75697583
VERTEX2 673 -6.05932592 -21.28345098 -1.88750064
VERTEX2 674 -6.04718118 -21.27029653 -2.53557826
VERTEX2 675 -6.02423546 -21.26512950 3.13905017
VERTEX2 676 -6.01790183 -21.26872574 2.51577659
VERTEX2 677 -6.01287491 -21.27547341 1.89999889
VERTEX2 678 -5.98786401 -21.05389338 1.45410625
VERTEX2 679 -5.93154379 -20.47495796 1.51670874
VERTEX2 680 -5.96497636 -20.02795020 1.86162735
VERTEX2 681 -6.12488895 -19.43893692 1.83413208
VERTEX2 682 -6.30511458 -18.83565155 1.88182382
VERTEX2 683 -6.40104929 -18.55488780 2.04100187
VERTEX2 684 -6.34692013 -18.60860845 3.12112528
VERTEX2 685 -6.74908670 -18.77543666 -2.71822933
VERTEX2 686 -7.19480522 -18.91871728 -2.86237512
VERTEX2 687 -7.78750007 -19.07859945 -2.89730417
VERTEX2 688 -8.38388597 -19.20752602 -2.90900327
VERTEX2 689 -8.94641477 -19.35491910 -2.88126710
VERTEX2 690 -9.48012178 -19.53196798 -2.80702175
VERTEX2 691 -9.87357513 -19.66940464 -2.83498763
VERTEX2 692 -9.85932946 -19.66282197 -2.30066192
VERTEX2 693 -9.83511957 -19.73540776 -1.26010563
VERTEX2 694 -9.80971865 -19.80767698 -0.42452322
VERTEX2 695 -9.79107378 -19.80207138 0.37558213
VERTEX2 696 -9.78486924 -19.79787460 1.40119560
VERTEX2 697 -9.79603079 -19.83664870 1.14826880
VERTEX2 698 -9.46863368 -19.62241691 0.49358341
VERTEX2 699 -8.90944418 -19.30032129 0.60766211
VERTEX2 700 -8.40124054 -18.93014160 0.66123191
VERTEX2 701 -7.97263836 -18.56034678 0.72044409
VERTEX2 702 -7.49789319 -18.23740443 0.60533687
VERTEX2 703 -6.99038493 -17.89263920 0.63963720
VERTEX2 704 -6.50239052 -17.50251498 0.65786361
VERTEX2 705 -5.99686636 -17.07275325 0.72859531
VERTEX2 706 -5.57066374 -16.74697487 0.46037743
VERTEX2 707 -5.54715010 -16.74531471 -0.05849452
VERTEX2 708 -5.53559999 -16.75173316 -0.69767346
VERTEX2 709 -5.57494799 -16.71076190 -1.03010082
VERTEX2 710 -5.57888938 -16.70102625 -1.59180248
VERTEX2 711 -5.56797512 -16.71057510 -2.18916810
VERTEX2 712 -5.54779881 -16.69462429 -2.75019644
VERTEX2 713 -6.01881864 -16.75188014 -3.03586445
VERTEX2 714 -6.57704537 -16.73463852 3.04944032
VERTEX2 715 -7.20429845 -16.70642260 -3.13013989
VERTEX2 716 -7.83878524 -16.69323828 3.01501043
VERTEX2 717 -8.46094448 -16.63399280 3.09976434
VERTEX2 718 -9.22461063 -16.52593880 2.92438548
VERTEX2 719 -9.84294841 -16.41917455 2.99885255
VERTEX2 720 -10.45709832 -16.31525157 2.93964919
VERTEX2 721 -11.07622265 -16.20795467 3.00786898
VERTEX2 722 -11.09269155 -16.20583995 3.07456986
VERTEX2 723 -11.11284277 -16.22720749 -2.11866990
VERTEX2 724 -11.11235209 -16.27097001 -1.04979678
VERTEX2 725 -11.08479254 -16.28895232 -0.41544039
VERTEX2 726 -10.75928744 -16.28063911 0.03875726
VERTEX2 727 -10.12227220 -16.23405197 0.06950425
VERTEX2 728 -9.48230440 -16.20169291 0.07089588
VERTEX2 729 -8.84532356 -16.13307367 0.12854300
VERTEX2 730 -8.22334102 -16.03281741 0.16605331
VERTEX2 731 -7.58014391 -15.92476607 0.17823911
VERTEX2 732 -7.44212103 -15.89507906 0.62477569
VERTEX2 733 -7.44182160 -15.89555878 1.62124107
VERTEX2 734 -7.50790769 -15.34083331 1.69939160
VERTEX2 735 -7.57683622 -14.73980328 1.66739904
VERTEX2 736 -7.57769900 -14.72916136 2.26703823
VERTEX2 737 -7.57042248 -14.73001087 3.06792106
VERTEX2 738 -8.14874027 -14.69776745 3.08702566
VERTEX2 739 -8.75181293 -14.61155535 3.02943907
VERTEX2 740 -9.25395507 -14.57862117 3.09274091
VERTEX2 741 -9.23259204 -14.57808210 2.72395119
VERTEX2 742 -9.23153032 -14.57881644 2.07125841
VERTEX2 743 -9.23326259 -14.57164159 1.45453949
VERTEX2 744 -9.22385931 -14.54922562 0.91525873
VERTEX2 745 -9.20320963 -14.53803727 0.32185921
VERTEX2 746 -8.65998678 -14.54823404 -0.15285528
VERTEX2 747 -8.01285764 -14.65303024 -0.18802895
VERTEX2 748 -7.43368921 -14.78682557 -0.25627167
VERTEX2 749 -7.34996214 -14.80633797 0.17309778
VERTEX2 750 -7.33944506 -14.78620536 1.10048432
VERTEX2 751 -7.37864993 -14.51190977 1.74098147
VERTEX2 752 -7.44746814 -13.88506303 1.63773530
VERTEX2 753 -7.49580111 -13.24855193 1.70102110
VERTEX2 754 -7.51433923 -12.60965550 1.53900326
VERTEX2 755 -7.50714284 -11.97028801 1.62540390
VERTEX2 756 -7.48089893 -11.33686981 1.44898564
VERTEX2 757 -7.41764806 -10.69302836 1.56087794
VERTEX2 758 -7.44798156 -10.11751131 1.70316883
VERTEX2 759 -7.44698913 -9.57357208 1.58335297
VERTEX2 760 -7.49680109 -8.96672820 1.69474743
VERTEX2 761 -7.49990095 -8.93249450 1.87514505
VERTEX2 762 -7.57488837 -8.90065922 2.71137101
VERTEX2 763 -8.15213587 -8.80900056 3.00434912
VERTEX2 764 -8.57465247 -8.74567872 2.97690157
VERTEX2 765 -8.56535722 -8.74531297 -2.66662107
VERTEX2 766 -8.56736796 -8.75235158 -1.66595148
VERTEX2 767 -8.56187362 -8.76545894 -0.73476884
VERTEX2 768 -8.53606302 -8.76649461 -0.01214903
VERTEX2 769 -7.90379128 -8.66401632 0.14486672
VERTEX2 770 -7.25390442 -8.59086677 0.07783571
VERTEX2 771 -7.16691669 -8.58170473 0.63852339
VERTEX2 772 -7.16438125 -8.57300622 1.50636183
VERTEX2 773 -7.15321648 -7.99560815 1.59227078
VERTEX2 774 -7.17751741 -7.45038622 1.61446177
VERTEX2 775 -7.17567888 -7.45762852 2.45930129
VERTEX2 776 -7.38244620 -7.43700457 3.07665759
VERTEX2 777 -7.99359781 -7.40850528 3.13566959
VERTEX2 778 -8.60364890 -7.41098467 3.11469387
VERTEX2 779 -9.22226236 -7.40251695 3.13298171
VERTEX2 780 -9.43314520 -7.38872923 3.00297697
VERTEX2 781 -9.43164448 -7.38922182 2.42999031
VERTEX2 782 -9.56433169 -7.12027499 2.00077443
VERTEX2 783 -9.81091176 -6.55251669 2.00033538
VERTEX2 784 -9.91465711 -6.32826271 1.97917556
VERTEX2 785 -9.91597819 -6.30504719 1.42758597
VERTEX2 786 -9.90937433 -6.28153341 0.83965525
VERTEX2 787 -9.89469559 -6.26584067 0.34933156
VERTEX2 788 -9.87023836 -6.26696827 -0.27939292
VERTEX2 789 -9.86023008 -6.27447357 -0.83099560
VERTEX2 790 -9.54525144 -6.66271348 -0.89798026
VERTEX2 791 -9.13007358 -7.13534168 -0.79911112
VERTEX2 792 -8.88638119 -7.34284771 -0.09407392
VERTEX2 793 -8.27269036 -7.38117049 -0.04918138
VERTEX2 794 -7.62588089 -7.39582008 0.02161821
VERTEX2 795 -7.64159623 -7.40787522 0.45011551
VERTEX2 796 -7.64321131 -7.40852188 1.10808676
VERTEX2 797 -7.57504798 -7.09867372 1.36750425
VERTEX2 798 -7.45163829 -6.47090333 1.41716546
VERTEX2 799 -7.37626378 -5.82668174 1.48242135
VERTEX2 800 -7.33406988 -5.18974121 1.55501935
VERTEX2 801 -7.35576475 -4.56004316 1.64107515
VERTEX2 802 -7.42016966 -3.93768658 1.69890001
VERTEX2 803 -7.41367212 -3.31074630 1.53438212
VERTEX2 804 -7.40432111 -2.68500140 1.59040585
VERTEX2 805 -7.44834926 -2.05712372 1.66681744
VERTEX2 806 -7.51853212 -1.46176298 1.70834857
VERTEX2 807 -7.54913858 -1.27742388 1.99686111
VERTEX2 808 -7.55560508 -1.27739765 2.94620098
VERTEX2 809 -8.14926576 -1.25955410 3.09119565
VERTEX2 810 -8.77043173 -1.14783560 2.95135669
VERTEX2 811 -9.37299567 -1.04767614 2.94831540
VERTEX2 812 -9.37694816 -1.04697127 -2.60231174
VERTEX2 813 -9.38646532 -1.06942596 -1.62594158
VERTEX2 814 -9.38122739 -1.07338285 -0.63263051
VERTEX2 815 -9.35837048 -1.08050138 0.28762679
VERTEX2 816 -9.35094695 -1.07620254 0.96950473
VERTEX2 817 -9.34093474 -1.06954891 0.30143838
VERTEX2 818 -9.11957272 -1.09761779 -0.18690765
VERTEX2 819 -8.52710790 -1.20978240 -0.17253928
VERTEX2 820 -7.93236843 -1.32556496 -0.21375928
VERTEX2 821 -7.38518979 -1.44162019 -0.19796242
VERTEX2 822 -7.38030505 -1.44221476 0.56828810
VERTEX2 823 -7.37324767 -1.38436052 1.32909640
VERTEX2 824 -7.22651535 -0.75227112 1.24919523
VERTEX2 825 -6.99827388 -0.13309615 1.21892715
VERTEX2 826 -6.85636854 0.50993672 1.38100520
VERTEX2 827 -6.70797863 1.14339799 1.33157592
VERTEX2 828 -6.56805589 1.78586491 1.36627053
VERTEX2 829 -6.42481637 2.39077995 1.32662317
VERTEX2 830 -6.26672508 2.99935516 1.31843286
VERTEX2 831 -6.09312409 3.57438240 1.27181429
VERTEX2 832 -5.92546911 4.13573410 1.26844329
VERTEX2 833 -5.84385468 4.39827357 1.40637049
VERTEX2 834 -5.84615109 4.41408219 2.46194725
VERTEX2 835 -5.84575542 4.41396563 -3.04288962
VERTEX2 836 -5.84136766 4.41674361 -2.09957024
VERTEX2 837 -5.84113709 4.41305289 -1.06292146
VERTEX2 838 -5.82947097 4.40351216 -0.20047969
VERTEX2 839 -5.82588090 4.40119025 -0.41864572
VERTEX2 840 -5.81679081 4.39196948 -0.98113308
VERTEX2 841 -5.81449905 4.38540927 -1.59805277
VERTEX2 842 -5.86733011 4.16313299 -1.82881045
VERTEX2 843 -6.01135774 3.63216824 -1.83132435
VERTEX2 844 -6.16058760 3.03923228 -1.83936285
VERTEX2 845 -6.32793180 2.44819505 -1.85434466
VERTEX2 846 -6.48837697 1.85196215 -1.85289732
VERTEX2 847 -6.67130569 1.26630958 -1.88001829
VERTEX2 848 -6.71018106 1.13304084 -1.39912611
VERTEX2 849 -6.70949914 1.13269595 -0.47624395
VERTEX2 850 -6.33747820 1.08229659 -0.12267699
VERTEX2 851 -5.69148234 0.97495620 -0.21518075
VERTEX2 852 -5.05889364 0.83291716 -0.20078542
VERTEX2 853 -4.45192619 0.71322382 -0.22887085
VERTEX2 854 -3.85808671 0.56887479 -0.22716109
VERTEX2 855 -3.26164985 0.44217715 -0.22922659
VERTEX2 856 -2.65104587 0.28133716 -0.26787244
VERTEX2 857 -2.04166578 0.11837108 -0.27550828
VERTEX2 858 -1.44211694 -0.07349806 -0.32793301
VERTEX2 859 -0.96674472 -0.23034857 -0.33289693
VERTEX2 860 -0.96314427 -0.22932670 0.52544303
VERTEX2 861 -0.93499749 -0.12003742 1.44828176
VERTEX2 862 -0.82887478 0.53735771 1.39064124
VERTEX2 863 -0.70659674 1.17687697 1.35994890
VERTEX2 864 -0.55936238 1.77837772 1.35944760
VERTEX2 865 -0.45834789 2.38778332 1.41880853
VERTEX2 866 -0.35732155 2.97141515 1.41915298
VERTEX2 867 -0.33339870 3.14036307 1.60223359
VERTEX2 868 -0.35279684 3.17071495 2.63241237
VERTEX2 869 -0.37169707 3.17183444 -2.66628507
VERTEX2 870 -0.37184108 3.17176148 -1.66051352
VERTEX2 871 -0.38035438 3.17849042 -0.68076093
VERTEX2 872 -0.38414715 3.18167153 0.00865056
VERTEX2 873 -0.38455001 3.18185706 -0.56043731
VERTEX2 874 -0.38273632 3.18005339 -1.11664426
VERTEX2 875 -0.38477454 3.18587336 -1.70004213
VERTEX2 876 -0.53436302 2.64368742 -1.85593077
VERTEX2 877 -0.71469850 2.11530250 -1.93903278
VERTEX2 878 -0.77301976 1.92693206 -1.55346674
VERTEX2 879 -0.70629024 1.30277638 -1.50093730
VERTEX2 880 -0.69316967 0.86956810 -1.61189935
VERTEX2 881 -0.69066498 0.93481712 -1.60514824
VERTEX2 882 -0.77501631 0.31151983 -1.84935238
VERTEX2 883 -1.01452352 -0.26782056 -2.03785218
VERTEX2 884 -1.18497533 -0.58998417 -2.10300404
VERTEX2 885 -1.18518011 -0.57353373 -1.51705203
VERTEX2 886 -1.18930275 -0.56934518 -0.49096953
VERTEX2 887 -1.18844914 -0.56965799 0.52843493
VERTEX2 888 -1.17696322 -0.54639026 1.52027975
VERTEX2 889 -1.18554790 -0.52061922 2.42516387
VERTEX2 890 -1.52604524 -0.35474191 2.70139965
VERTEX2 891 -2.08815253 -0.07533943 2.63263967
VERTEX2 892 -2.64587238 0.25741904 2.59851783
VERTEX2 893 -3.22423114 0.56486757 2.83694184
VERTEX2 894 -3.86458276 0.67840441 3.06012006
VERTEX2 895 -4.48862892 0.62403781 -2.92229926
VERTEX2 896 -4.51054513 0.61859587 -2.44499648
VERTEX2 897 -4.80806585 0.16883558 -2.17365878
VERTEX2 898 -5.15190145 -0.33428831 -2.15777903
VERTEX2 899 -5.43097260 -0.73797514 -2.22503329
VERTEX2 900 -5.83701105 -1.27778350 -2.22689877
VERTEX2 901 -6.20221256 -1.71927228 -2.29058635
VERTEX2 902 -6.61164677 -2.20855118 -2.26461018
VERTEX2 903 -6.92102971 -2.58484279 -2.30853414
VERTEX2 904 -6.92110167 -2.58499776 -1.60414805
VERTEX2 905 -6.90294640 -3.07164588 -1.54819942
VERTEX2 906 -6.86400985 -3.63578444 -1.48192749
VERTEX2 907 -6.80273501 -4.20211376 -1.48956661
VERTEX2 908 -6.74883942 -4.82250116 -1.46459083
VERTEX2 909 -6.68072498 -5.43295262 -1.48232771
VERTEX2 910 -6.70638558 -5.56054049 -1.85188743
VERTEX2 911 -6.85836977 -6.13116549 -1.79082521
VERTEX2 912 -6.97123300 -6.69374507 -1.77811007
VERTEX2 913 -7.07546297 -7.23426918 -1.77009241
VERTEX2 914 -7.19290115 -7.82117139 -1.79367415
VERTEX2 915 -7.30877296 -8.32889624 -1.83032025
VERTEX2 916 -7.24101496 -8.57233832 -1.28263797
VERTEX2 917 -7.09282398 -9.21919490 -1.53698082
VERTEX2 918 -7.10558511 -9.73588608 -1.61247507
VERTEX2 919 -7.13016725 -10.35848228 -1.65577047
VERTEX2 920 -7.18565902 -10.97158296 -1.67335063
VERTEX2 921 -7.24991951 -11.58594064 -1.72670285
VERTEX2 922 -7.34340502 -12.18890750 -1.75393910
VERTEX2 923 -7.45492658 -12.75452218 -1.81744510
VERTEX2 924 -7.57982815 -13.24886748 -1.80088146
VERTEX2 925 -7.58098085 -13.24353816 -1.29632544
VERTEX2 926 -7.41347029 -13.80275976 -1.28020210
VERTEX2 927 -7.23878758 -14.39048543 -1.30358941
VERTEX2 928 -7.07299790 -14.99378395 -1.31260088
VERTEX2 929 -6.91381530 -15.59434494 -1.31357962
VERTEX2 930 -6.75624997 -16.22913477 -1.39640580
VERTEX2 931 -6.66053595 -16.85996520 -1.47689124
VERTEX2 932 -6.60636092 -17.48415179 -1.53641489
VERTEX2 933 -6.59499821 -18.09450635 -1.60108167
VERTEX2 934 -6.60333323 -18.57326414 -1.61095650
VERTEX2 935 -6.60111530 -18.58288072 -0.92891109
VERTEX2 936 -6.60039210 -18.58312397 0.01621057
VERTEX2 937 -6.05886260 -18.55097094 0.07906995
VERTEX2 938 -5.46299305 -18.55932546 -0.09436661
VERTEX2 939 -4.83886010 -18.61108851 -0.06668160
VERTEX2 940 -4.22889281 -18.67860723 -0.15247337
VERTEX2 941 -3.62288490 -18.78663069 -0.20615663
VERTEX2 942 -3.10288438 -18.89596127 -0.20167901
VERTEX2 943 -2.49222163 -19.02233483 -0.11335963
VERTEX2 944 -1.87850924 -19.09784503 -0.17001275
VERTEX2 945 -1.25708208 -19.21902664 -0.22507811
VERTEX2 946 -1.08289221 -19.26118086 -0.16068680
VERTEX2 947 -0.67863811 -19.19396683 0.16765968
VERTEX2 948 -0.11070549 -19.09860048 0.14865426
VERTEX2 949 0.48888174 -19.05722195 -0.00680232
VERTEX2 950 1.11745947 -19.08584606 -0.24605101
VERTEX2 951 1.72360036 -19.25244092 -0.31864096
VERTEX2 952 2.32950629 -19.42234866 -0.06837809
VERTEX2 953 2.95720812 -19.44735285 0.01158174
VERTEX2 954 3.57931154 -19.43371417 0.00429456
VERTEX2 955 4.16832075 -19.47345482 -0.15682972
VERTEX2 956 4.71967550 -19.54664576 -0.15928592
VERTEX2 957 5.25248568 -19.63801232 -0.24712860
VERTEX2 958 5.72181498 -19.74656870 -0.27396355
VERTEX2 959 6.15742352 -19.86227828 -0.34114235
VERTEX2 960 6.74874351 -20.01925827 -0.26132382
VERTEX2 961 7.33262953 -20.18767810 -0.28838857
VERTEX2 962 7.95123541 -20.30989830 -0.22277672
VERTEX2 963 8.56892543 -20.38429615 -0.03606434
VERTEX2 964 9.19031084 -20.41930119 -0.09990655
VERTEX2 965 9.80824225 -20.49180660 -0.10672827
VERTEX2 966 10.25237404 -20.54532302 -0.16568757
VERTEX2 967 10.28450856 -20.53841171 0.68776464
VERTEX2 968 10.29137884 -20.53175979 1.58455294
VERTEX2 969 10.29424503 -20.56106325 1.64402788
VERTEX2 970 10.29719323 -20.59062498 1.64230183
VERTEX2 971 10.27267413 -20.25929623 1.64243897
VERTEX2 972 10.22673374 -19.67493391 1.64805395
VERTEX2 973 10.29864955 -19.09359594 1.36302809
VERTEX2 974 10.42986763 -18.49188912 1.39480696
VERTEX2 975 10.53324303 -17.88645442 1.39936394
VERTEX2 976 10.62987191 -17.27845957 1.41220673
VERTEX2 977 10.75695076 -16.66160790 1.38588321
VERTEX2 978 10.86943731 -16.05119069 1.43179985
VERTEX2 979 10.97584257 -15.44473680 1.41946472
VERTEX2 980 11.06533972 -14.84172787 1.46631662
VERTEX2 981 11.14593835 -14.24946333 1.47315295
VERTEX2 982 11.19508657 -13.72441634 1.51804326
VERTEX2 983 11.23661789 -13.12719554 1.51457123
VERTEX2 984 11.25591479 -12.53292139 1.57185187
VERTEX2 985 11.25896685 -11.93805843 1.59206437
VERTEX2 986 11.23605595 -11.32016398 1.62834153
VERTEX2 987 11.21547337 -10.70372441 1.59160202
VERTEX2 988 11.21027680 -10.08730803 1.60527865
VERTEX2 989 11.18814881 -9.47638233 1.61286698
VERTEX2 990 11.17389897 -8.86858187 1.60206153
VERTEX2 991 11.15124627 -8.25753519 1.62689879
VERTEX2 992 11.13908565 -7.67417728 1.59435676
VERTEX2 993 11.11801753 -7.06166678 1.62719328
VERTEX2 994 11.09433868 -6.47536088 1.61723328
VERTEX2 995 11.05518328 -5.88441124 1.66407942
VERTEX2 996 10.98844068 -5.27875212 1.69080334
VERTEX2 997 10.93628303 -4.63421843 1.62595881
VERTEX2 998 10.91212026 -4.23157412 1.64742726
VERTEX2 999 10.94207340 -4.25533008 2.36413224
VERTEX2 1000 10.47813703 -3.90130061 2.51226591
VERTEX2 1001 10.03719262 -3.50675237 2.19063862
VERTEX2 1002 9.66815609 -3.04029262 2.28285171
VERTEX2 1003 9.32007836 -2.55129003 2.10261188
VERTEX2 1004 8.97858269 -2.01789246 2.16060373
VERTEX2 1005 8.62313778 -1.52740308 2.22282459
VERTEX2 1006 8.22633775 -1.05384989 2.30002500
VERTEX2 1007 7.81373788 -0.63285107 2.39154623
VERTEX2 1008 7.57610133 -0.41877227 2.55070049
VERTEX2 1009 7.47842887 -0.40457548 3.02277157
VERTEX2 1010 6.91290211 -0.35159102 3.07504476
VERTEX2 1011 6.29743767 -0.31522495 3.03169113
VERTEX2 1012 5.68803281 -0.25469740 3.07336602
VERTEX2 1013 5.05260283 -0.25984931 -3.09511071
VERTEX2 1014 4.43996740 -0.21415052 3.01250281
VERTEX2 1015 3.81542772 -0.17694391 3.09675505
VERTEX2 1016 3.04664472 -0.14263822 3.10361068
VERTEX2 1017 2.46323952 -0.13124118 3.04652733
VERTEX2 1018 1.90730252 -0.07150822 3.05388546
VERTEX2 1019 1.31434092 -0.04913777 3.11350002
VERTEX2 1020 0.70111017 -0.01542267 3.09960935
VERTEX2 1021 0.08199675 0.01139014 3.05906620
VERTEX2 1022 0.03192918 0.01535430 3.05201653
VERTEX2 1023 0.04239420 0.01519343 3.13881467
VERTEX2 1024 -0.58099986 0.02051734 -3.11785313
VERTEX2 1025 -1.20632596 -0.01234881 -3.10009657
VERTEX2 1026 -1.36407949 -0.01839751 -3.09274094
VERTEX2 1027 -1.34466636 -0.00876832 -2.17555311
VERTEX2 1028 -1.35681953 -0.17348894 -1.61166457
VERTEX2 1029 -1.38219406 -0.73821945 -1.63304983
VERTEX2 1030 -1.44227612 -1.36128808 -1.71337943
VERTEX2 1031 -1.55135888 -2.00841210 -1.76745447
VERTEX2 1032 -1.67831712 -2.65559750 -1.76335085
VERTEX2 1033 -1.81826065 -3.30157389 -1.80844465
VERTEX2 1034 -1.86212848 -3.47343220 -2.02214735
VERTEX2 1035 -1.86605142 -3.47679020 -2.64129965
VERTEX2 1036 -1.83081838 -3.49278005 3.07121220
VERTEX2 1037 -2.16735341 -3.36713891 2.83289179
VERTEX2 1038 -2.77527999 -3.24981828 2.92415604
VERTEX2 1039 -3.41050521 -3.08564224 2.89266854
VERTEX2 1040 -3.38070819 -3.08615869 -2.76031655
VERTEX2 1041 -3.34733115 -3.09031591 -1.74317394
VERTEX2 1042 -3.34898957 -3.12505415 -0.75503119
VERTEX2 1043 -3.31173971 -3.15885449 0.21471832
VERTEX2 1044 -3.32452280 -3.17418898 1.20875008
VERTEX2 1045 -3.32746370 -3.18080809 1.09492959
VERTEX2 1046 -3.33725838 -3.19421091 0.70971316
VERTEX2 1047 -3.35376309 -3.20156754 0.15434209
VERTEX2 1048 -2.98715325 -3.26815993 -0.15836341
VERTEX2 1049 -2.34626221 -3.35983482 -0.14089222
VERTEX2 1050 -1.70395759 -3.42374458 -0.06485695
VERTEX2 1051 -1.04866136 -3.49056719 -0.14395275
VERTEX2 1052 -0.42487402 -3.56519711 -0.09095814
VERTEX2 1053 -0.00791715 -3.61532427 -0.14354980
VERTEX2 1054 0.01731448 -3.61772994 0.61883406
VERTEX2 1055 0.02355237 -3.58677550 1.67519596
VERTEX2 1056 0.03110142 -3.59748825 2.67936288
VERTEX2 1057 0.05534452 -3.59989746 -2.61273219
VERTEX2 1058 0.05365195 -3.60193447 -1.69033458
VERTEX2 1059 -0.03759640 -4.18471185 -1.77102114
VERTEX2 1060 -0.16703447 -4.81531770 -1.76596014
VERTEX2 1061 -0.26912027 -5.26179409 -1.88841656
VERTEX2 1062 -0.26942095 -5.26233103 -2.45269352
VERTEX2 1063 -0.24953953 -5.25066699 -3.05036200
VERTEX2 1064 -0.53089821 -5.20093843 2.96760631
VERTEX2 1065 -1.11972536 -5.14024832 3.08959801
VERTEX2 1066 -1.68390259 -5.09397029 3.03350630
VERTEX2 1067 -1.67014769 -5.09310517 -2.81697200
VERTEX2 1068 -1.65893994 -5.08505123 -2.14412765
VERTEX2 1069 -1.65889026 -5.08492772 -1.97372675
VERTEX2 1070 -1.65824406 -5.08377980 -2.51264187
VERTEX2 1071 -2.12839267 -5.34575585 -2.63983867
VERTEX2 1072 -2.57699610 -5.58399359 -2.70848732
VERTEX2 1073 -2.54857051 -5.58294576 3.06357863
VERTEX2 1074 -3.07966783 -5.51706150 3.02922416
VERTEX2 1075 -3.65846802 -5.44734712 3.04579112
VERTEX2 1076 -3.68315960 -5.44573514 -2.83333852
VERTEX2 1077 -3.69688307 -5.47234678 -2.02801312
VERTEX2 1078 -3.92929182 -6.08580257 -1.98294388
VERTEX2 1079 -4.15658471 -6.65622125 -1.92089322
VERTEX2 1080 -4.16280269 -6.67342833 -2.40847759
VERTEX2 1081 -4.59161282 -6.97337883 -2.53170228
VERTEX2 1082 -4.76486580 -7.09711380 -2.25105282
VERTEX2 1083 -4.75965541 -7.13366578 -1.22070816
VERTEX2 1084 -4.69275993 -7.16710914 -0.25478177
VERTEX2 1085 -4.68332802 -7.16468255 0.72953193
VERTEX2 1086 -4.32817032 -6.67048990 0.96019600
VERTEX2 1087 -3.95347412 -6.15745331 0.94818026
VERTEX2 1088 -3.59769252 -5.64057203 0.93151388
VERTEX2 1089 -3.54522540 -5.57108327 0.83637368
VERTEX2 1090 -3.53566640 -5.56213417 0.22139458
VERTEX2 1091 -2.99543018 -5.52364526 0.04458417
VERTEX2 1092 -2.37350533 -5.50117278 0.02950533
VERTEX2 1093 -1.80121527 -5.49760482 -0.03548625
VERTEX2 1094 -1.78752889 -5.51032653 -0.43925718
VERTEX2 1095 -1.75602064 -5.53757540 -1.02858188
VERTEX2 1096 -1.75542602 -5.54021421 -1.59942090
VERTEX2 1097 -1.83527100 -5.86933854 -1.81464438
VERTEX2 1098 -2.00424623 -6.46638389 -1.87120005
VERTEX2 1099 -2.20329037 -7.02858368 -1.96695549
VERTEX2 1100 -2.20812074 -7.04127334 -1.60337380
VERTEX2 1101 -2.14446262 -7.31011007 -1.33707588
VERTEX2 1102 -2.14522507 -7.32105804 -1.73026679
VERTEX2 1103 -2.26377241 -7.93263179 -1.76382775
VERTEX2 1104 -2.39192210 -8.56743023 -1.79153834
VERTEX2 1105 -2.53738755 -9.18808259 -1.80948811
VERTEX2 1106 -2.65406983 -9.65643198 -1.83493985
VERTEX2 1107 -2.65379383 -9.65925360 -1.57911417
VERTEX2 1108 -2.61505689 -10.27918060 -1.57150191
VERTEX2 1109 -2.65997334 -10.91567570 -1.67575866
VERTEX2 1110 -2.72735034 -11.51555763 -1.72560924
VERTEX2 1111 -2.88871929 -12.03539708 -1.82728605
VERTEX2 1112 -2.91702515 -12.60725515 -1.48153222
VERTEX2 1113 -2.87642563 -13.23800523 -1.57783403
VERTEX2 1114 -2.87989279 -13.84507826 -1.56096526
VERTEX2 1115 -2.87127386 -14.42095170 -1.57737881
VERTEX2 1116 -2.85316126 -15.06189043 -1.54135357
VERTEX2 1117 -2.84968831 -15.15211806 -1.66939829
VERTEX2 1118 -2.84528869 -15.14374563 -2.27718102
VERTEX2 1119 -2.83627484 -15.13739738 -2.70889188
VERTEX2 1120 -3.39655361 -15.34754231 -2.77255288
VERTEX2 1121 -3.58463625 -15.41569549 -2.89117984
VERTEX2 1122 -3.58025835 -15.41715222 2.84172262
VERTEX2 1123 -4.13992855 -15.23519297 2.85867182
VERTEX2 1124 -4.70824161 -15.11006463 2.95740976
VERTEX2 1125 -5.34471645 -14.98916851 2.97087823
VERTEX2 1126 -5.43540251 -14.97547703 -2.97265036
VERTEX2 1127 -5.43268251 -14.97832730 -1.91566426
VERTEX2 1128 -5.43436320 -14.98696388 -0.92786791
VERTEX2 1129 -5.42242654 -14.99351227 0.08817947
VERTEX2 1130 -4.84800615 -14.92539268 0.10206332
VERTEX2 1131 -4.08426468 -15.04257770 -0.32925318
VERTEX2 1132 -3.47991273 -15.25220347 -0.34861560
VERTEX2 1133 -2.93840601 -15.47272544 -0.38693000
VERTEX2 1134 -2.69166313 -15.57368270 -0.48348614
VERTEX2 1135 -2.68189127 -15.58308842 -1.03860421
VERTEX2 1136 -2.68825248 -15.59669084 -1.59963171
VERTEX2 1137 -2.74127148 -15.91282145 -1.78308729
VERTEX2 1138 -2.89252359 -16.56101439 -1.79889998
VERTEX2 1139 -3.00627150 -17.05854914 -1.87184860
VERTEX2 1140 -2.99705492 -17.03574644 -2.35026747
VERTEX2 1141 -2.97653358 -17.01534362 -2.89704880
VERTEX2 1142 -3.34053350 -16.97590511 3.02226685
VERTEX2 1143 -3.93962470 -16.93580058 3.11193126
VERTEX2 1144 -4.52151564 -16.90797081 3.08155237
VERTEX2 1145 -5.10108204 -16.86891058 3.05631913
VERTEX2 1146 -5.67839437 -16.81821473 3.07628953
VERTEX2 1147 -6.25863983 -16.81480683 -3.13393759
VERTEX2 1148 -6.83704085 -16.81899617 -3.12390837
VERTEX2 1149 -6.87967649 -16.82078936 -2.62566642
VERTEX2 1150 -6.97101614 -16.92470454 -1.81582096
VERTEX2 1151 -6.96881466 -16.93656915 -0.81173957
VERTEX2 1152 -6.95049146 -16.93665875 0.24166598
VERTEX2 1153 -6.93506713 -16.92944987 1.25471974
VERTEX2 1154 -6.99789335 -16.61386163 1.80085727
VERTEX2 1155 -7.13811030 -15.99181001 1.75154692
VERTEX2 1156 -7.24230833 -15.38788196 1.76160466
VERTEX2 1157 -7.37592606 -14.81909982 1.87276993
VERTEX2 1158 -7.50914881 -14.21926737 1.74427795
VERTEX2 1159 -7.57637517 -13.61552804 1.65040877
VERTEX2 1160 -7.60600830 -12.97378841 1.51390997
VERTEX2 1161 -7.51399079 -12.34372323 1.42428033
VERTEX2 1162 -7.43022242 -11.71352141 1.48247232
VERTEX2 1163 -7.37547867 -11.07295885 1.47711100
VERTEX2 1164 -7.33502096 -10.43467461 1.56268253
VERTEX2 1165 -7.33109921 -9.88818351 1.53975982
VERTEX2 1166 -7.33347845 -9.87723751 2.02851094
VERTEX2 1167 -7.28469712 -9.86471497 2.96478112
VERTEX2 1168 -7.23537313 -9.84439401 -2.41572382
VERTEX2 1169 -7.23886440 -9.89775868 -1.59337776
VERTEX2 1170 -7.24170547 -10.48592093 -1.58656191
VERTEX2 1171 -7.23342696 -11.12276941 -1.55471191
VERTEX2 1172 -7.22981926 -11.72327509 -1.61687236
VERTEX2 1173 -7.25136886 -12.34847682 -1.60751867
VERTEX2 1174 -7.28664868 -12.97888811 -1.67602252
VERTEX2 1175 -7.36425669 -13.59413185 -1.70926601
VERTEX2 1176 -7.45317053 -14.21602327 -1.75299590
VERTEX2 1177 -7.56439294 -14.82596657 -1.75101914
VERTEX2 1178 -7.68713436 -15.43988900 -1.79832374
VERTEX2 1179 -7.81649095 -16.04568716 -1.76908542
VERTEX2 1180 -7.86736631 -16.29965520 -1.77618140
VERTEX2 1181 -7.86660715 -16.29379988 -0.94917705
VERTEX2 1182 -7.81001077 -16.30743943 -0.23741915
VERTEX2 1183 -7.19372703 -16.44889398 -0.21210875
VERTEX2 1184 -6.55850015 -16.55594934 -0.14259553
VERTEX2 1185 -5.92822869 -16.65863137 -0.17489398
VERTEX2 1186 -5.29452306 -16.74579674 -0.10877086
VERTEX2 1187 -4.64154321 -16.82265439 -0.14599886
VERTEX2 1188 -4.01518915 -16.90429809 -0.12805620
VERTEX2 1189 -3.32883912 -17.00644190 -0.10637159
VERTEX2 1190 -2.97464263 -17.04487017 -0.09836275
VERTEX2 1191 -2.91911559 -17.04295098 0.82186970
VERTEX2 1192 -2.91407317 -16.95288274 1.61951246
VERTEX2 1193 -2.91515678 -16.35494719 1.48701122
VERTEX2 1194 -2.88117407 -15.78156916 1.52868859
VERTEX2 1195 -2.86034709 -15.15935790 1.58068708
VERTEX2 1196 -2.86194813 -14.53764185 1.40766325
VERTEX2 1197 -2.76572676 -13.92189600 1.41868578
VERTEX2 1198 -2.70254619 -13.29526311 1.67722046
VERTEX2 1199 -2.72653457 -12.68556591 1.46228746
VERTEX2 1200 -2.67640197 -12.05606687 1.53114404
VERTEX2 1201 -2.65828656 -11.43779769 1.58685107
VERTEX2 1202 -2.67569834 -10.81879709 1.61007313
VERTEX2 1203 -2.71298870 -10.23301143 1.52046193
VERTEX2 1204 -2.60629973 -9.64298964 1.37402378
VERTEX2 1205 -2.50531729 -9.08208529 1.40386898
VERTEX2 1206 -2.42759933 -8.49448857 1.46539054
VERTEX2 1207 -2.29856262 -7.88480404 1.37960278
VERTEX2 1208 -2.19464721 -7.26176520 1.44458006
VERTEX2 1209 -2.11623106 -6.64245807 1.44290345
VERTEX2 1210 -2.05991982 -6.02766387 1.46374586
VERTEX2 1211 -1.94225928 -5.41350959 1.39081873
VERTEX2 1212 -1.83574283 -4.79980891 1.44076610
VERTEX2 1213 -1.77697388 -4.18494443 1.51397442
VERTEX2 1214 -1.70514932 -3.45797279 1.29120261
VERTEX2 1215 -1.54896870 -2.87212975 1.35037359
VERTEX2 1216 -1.50658584 -2.31972320 1.56790240
VERTEX2 1217 -1.48083404 -1.74121933 1.54874012
VERTEX2 1218 -1.47606650 -1.15093490 1.49807112
VERTEX2 1219 -1.43530436 -0.50118724 1.52866912
VERTEX2 1220 -1.43725855 0.08591195 1.61940712
VERTEX2 1221 -1.43668742 0.08409155 1.16665412
VERTEX2 1222 -1.42685865 0.09395845 0.56934712
VERTEX2 1223 -1.41506880 0.09693938 0.00972012
VERTEX2 1224 -0.83976024 0.01346342 -0.17318788
VERTEX2 1225 -0.22274787 -0.09051473 -0.15942388
VERTEX2 1226 -0.11761176 -0.10752980 -0.17615488
VERTEX2 1227 -0.11761176 -0.10752980 -0.17681688
