VERTEX2 0 0.00002086 -0.00000012 0.00000035
VERTEX2 1 0.00002086 -0.00000012 -0.00064165
VERTEX2 2 0.00002086 -0.00000012 -0.00117965
VERTEX2 3 0.01102272 -0.00097510 -0.00356165
VERTEX2 4 0.63645634 -0.01110694 -0.00742428
VERTEX2 5 0.68689342 -0.01157852 -0.09868352
VERTEX2 6 0.68831037 -0.01281715 -0.89589362
VERTEX2 7 0.68142146 0.00861624 -1.51138171
VERTEX2 8 0.68659632 0.03055401 -2.12486818
VERTEX2 9 0.70105955 0.04294351 -2.76289000
VERTEX2 10 0.70955783 0.04433094 2.90581103
VERTEX2 11 0.71029927 0.04385967 2.23158238
VERTEX2 12 0.71027175 0.04544842 1.58215712
VERTEX2 13 0.71555843 0.06211688 0.92270745
VERTEX2 14 0.73363791 0.07482470 0.31451303
VERTEX2 15 0.73997109 0.07525954 -0.21083662
VERTEX2 16 1.03050469 0.01579744 -0.22972066
VERTEX2 17 1.62819500 -0.13058206 -0.26115331
VERTEX2 18 2.24802616 -0.29311656 -0.27153437
VERTEX2 19 2.87168154 -0.48998490 -0.32033809
VERTEX2 20 3.46500631 -0.68080445 -0.31443557
VERTEX2 21 4.07335912 -0.83386309 -0.20286086
VERTEX2 22 4.68245217 -0.97587900 -0.18544320
VERTEX2 23 5.32051696 -1.02086362 -0.07796086
VERTEX2 24 5.95051373 -1.09275708 -0.13494568
VERTEX2 25 6.58380244 -1.16110141 -0.13209324
VERTEX2 26 7.19215174 -1.26204313 -0.17253432
VERTEX2 27 7.80743918 -1.35374385 -0.15661492
VERTEX2 28 8.38847210 -1.45264914 -0.16097392
VERTEX2 29 8.76693049 -1.51019716 -0.13011072
VERTEX2 30 8.77573123 -1.51253961 -0.66202975
VERTEX2 31 8.87707485 -1.64853001 -0.93024777
VERTEX2 32 9.24540431 -2.16366660 -0.94869152
VERTEX2 33 9.62424229 -2.66595542 -0.89815090
VERTEX2 34 10.03165033 -3.15194913 -0.87734214
VERTEX2 35 10.44884073 -3.63023982 -0.84330368
VERTEX2 36 10.87243801 -4.10980906 -0.85206345
VERTEX2 37 11.14992164 -4.41982711 -0.84464948
VERTEX2 38 11.14452914 -4.41250940 -1.16681679
VERTEX2 39 11.14220543 -4.40180067 -1.33816593
VERTEX2 40 11.28485119 -4.97117764 -1.32116296
VERTEX2 41 11.43282895 -5.56569148 -1.35337852
VERTEX2 42 11.55337830 -6.12379347 -1.37628011
VERTEX2 43 11.65799450 -6.71375808 -1.41664357
VERTEX2 44 11.74579205 -7.30315425 -1.45374649
VERTEX2 45 11.80039337 -7.92285214 -1.50908259
VERTEX2 46 11.83106320 -8.54433798 -1.52831925
VERTEX2 47 11.85094826 -9.16554716 -1.56985858
VERTEX2 48 11.84732650 -9.79091685 -1.57629634
VERTEX2 49 11.84002078 -10.41219543 -1.62702782
VERTEX2 50 11.78672599 -11.00058821 -1.67143999
VERTEX2 51 11.73168768 -11.59702423 -1.70041825
VERTEX2 52 11.63482723 -12.17957910 -1.77706783
VERTEX2 53 11.53518004 -12.73653719 -1.76467392
VERTEX2 54 11.42257846 -13.24743084 -1.82672974
VERTEX2 55 11.42940198 -13.21474988 -1.82142686
VERTEX2 56 11.42906224 -13.21608360 -1.81082616
VERTEX2 57 11.28563191 -13.83306804 -1.82221356
VERTEX2 58 11.13964067 -14.43825162 -1.77599833
VERTEX2 59 11.01092655 -15.04314051 -1.79960559
VERTEX2 60 10.88159578 -15.64434743 -1.77826976
VERTEX2 61 10.74647123 -16.24595461 -1.82907861
VERTEX2 62 10.59687543 -16.80414445 -1.78916588
VERTEX2 63 10.44552876 -17.36712068 -1.82462793
VERTEX2 64 10.31068184 -17.92494414 -1.76124496
VERTEX2 65 10.17628720 -18.48060276 -1.81270499
VERTEX2 66 10.02291402 -19.06597614 -1.82081467
VERTEX2 67 9.85777757 -19.65470649 -1.81950103
VERTEX2 68 9.74759847 -20.10186829 -1.83530890
VERTEX2 69 9.75089074 -20.09117774 -1.99028735
VERTEX2 70 9.75807272 -20.07747078 -2.66464865
VERTEX2 71 9.78205315 -20.07611393 2.97587750
VERTEX2 72 9.79528785 -20.07776476 2.96639323
VERTEX2 73 9.80320391 -20.07972987 2.90144741
VERTEX2 74 9.80360639 -20.07998907 2.27964671
VERTEX2 75 9.81072275 -20.08278184 1.92729643
VERTEX2 76 9.79916372 -20.06993264 2.62118520
VERTEX2 77 9.79528278 -20.06829721 2.85414016
VERTEX2 78 9.51445154 -20.07855874 -3.09190537
VERTEX2 79 8.89686901 -20.11635366 -3.09717268
VERTEX2 80 8.26562645 -20.11392358 3.11148547
VERTEX2 81 7.64214441 -20.08645219 3.08547894
VERTEX2 82 7.04808591 -20.04538385 3.03126902
VERTEX2 83 6.46525508 -19.99382541 3.00765706
VERTEX2 84 5.90270878 -19.90697541 2.92991962
VERTEX2 85 5.35997094 -19.80211230 2.93727305
VERTEX2 86 4.75059187 -19.68039689 2.84759559
VERTEX2 87 4.36514036 -19.57571940 2.79488673
VERTEX2 88 4.00920377 -19.44294524 2.76505056
VERTEX2 89 4.02091693 -19.44351670 -3.12246507
VERTEX2 90 3.41765962 -19.44554240 3.12956772
VERTEX2 91 2.80361392 -19.43991754 -3.10459017
VERTEX2 92 2.20564806 -19.43444596 3.06283684
VERTEX2 93 1.58648709 -19.33064823 2.96190901
VERTEX2 94 0.96771513 -19.19105644 2.91907087
VERTEX2 95 0.34785336 -19.10178898 3.06165442
VERTEX2 96 -0.26043144 -19.04912704 3.08570624
VERTEX2 97 -0.84831711 -18.98472092 3.01508027
VERTEX2 98 -1.43470199 -18.88242608 2.95708323
VERTEX2 99 -2.13754463 -18.75641724 3.00386582
VERTEX2 100 -2.69994422 -18.64721699 2.95210752
VERTEX2 101 -3.30881197 -18.58906642 3.05535962
VERTEX2 102 -3.92039030 -18.50617225 2.95015741
VERTEX2 103 -4.52853281 -18.38910377 3.04693502
VERTEX2 104 -5.14111468 -18.31158187 3.01303754
VERTEX2 105 -5.75375830 -18.24578642 3.05939899
VERTEX2 106 -6.35600981 -18.17395972 3.00439520
VERTEX2 107 -6.97091996 -18.07707085 2.99954998
VERTEX2 108 -7.42545750 -18.02690170 3.06114059
VERTEX2 109 -7.47110122 -18.01519698 2.61267575
VERTEX2 110 -7.48859048 -17.99699240 2.02137992
VERTEX2 111 -7.48854046 -17.91456301 1.51557252
VERTEX2 112 -7.46281698 -17.28194443 1.56986983
VERTEX2 113 -7.47912192 -16.66096353 1.61678570
VERTEX2 114 -7.51010911 -16.04845247 1.65346667
VERTEX2 115 -7.58080832 -15.41098999 1.71374009
VERTEX2 116 -7.69650820 -14.66315200 1.75786155
VERTEX2 117 -7.82954519 -14.05565211 1.85347927
VERTEX2 118 -7.83336647 -14.03831951 1.51897788
VERTEX2 119 -7.77684049 -13.52300531 1.46580704
VERTEX2 120 -7.72329861 -12.86964779 1.55615356
VERTEX2 121 -7.73310077 -12.25351803 1.62390282
VERTEX2 122 -7.76684519 -11.67338997 1.68014401
VERTEX2 123 -7.79145229 -11.49567555 1.66738814
VERTEX2 124 -7.70620661 -11.25942171 1.24444819
VERTEX2 125 -7.49065213 -10.66924782 1.23353247
VERTEX2 126 -7.35906121 -10.05585396 1.44011932
VERTEX2 127 -7.26275012 -9.42484936 1.43862858
VERTEX2 128 -7.18868569 -8.78960973 1.47514614
VERTEX2 129 -7.10387976 -8.15828472 1.44257592
VERTEX2 130 -7.03792015 -7.52883114 1.49532234
VERTEX2 131 -6.99366871 -6.90504100 1.58385513
VERTEX2 132 -6.97729157 -6.29064053 1.53428129
VERTEX2 133 -6.93166906 -5.72533608 1.49750474
VERTEX2 134 -6.87916451 -5.13114085 1.47933411
VERTEX2 135 -6.79872070 -4.55735566 1.45315764
VERTEX2 136 -6.72619459 -3.92668431 1.47283614
VERTEX2 137 -6.63138306 -3.29821104 1.43105415
VERTEX2 138 -6.55719184 -2.67092102 1.51133101
VERTEX2 139 -6.54245595 -2.04174980 1.57697051
VERTEX2 140 -6.57286614 -1.38786255 1.60780527
VERTEX2 141 -6.58112420 -0.74931728 1.55967878
VERTEX2 142 -6.58398298 -0.10145886 1.55581983
VERTEX2 143 -6.50564638 0.53532874 1.44521164
VERTEX2 144 -6.46751462 0.90490528 1.46269329
VERTEX2 145 -6.46287125 0.91913456 0.96416397
VERTEX2 146 -6.46174894 0.92495277 0.37078839
VERTEX2 147 -6.40740201 0.92137808 -0.11586542
VERTEX2 148 -5.97682740 0.86333074 -0.15157664
VERTEX2 149 -5.33720754 0.77241185 -0.12652736
VERTEX2 150 -4.70425730 0.71068343 -0.11241819
VERTEX2 151 -4.06582901 0.66603829 -0.02680453
VERTEX2 152 -3.44054398 0.63304332 -0.08767517
VERTEX2 153 -2.81562830 0.60267325 0.00581553
VERTEX2 154 -2.19460529 0.58411624 -0.06361004
VERTEX2 155 -1.56952022 0.55316475 -0.03002843
VERTEX2 156 -0.94251195 0.54144374 0.00091215
VERTEX2 157 -0.37907202 0.52625253 -0.06318346
VERTEX2 158 -0.18468074 0.51349548 -0.03568958
VERTEX2 159 -0.17929199 0.51179947 0.95163465
VERTEX2 160 -0.17394271 0.52063148 1.98730948
VERTEX2 161 -0.19686242 0.45991963 2.70851592
VERTEX2 162 -0.17125515 0.46571246 -2.53887357
VERTEX2 163 -0.17225501 0.46067826 -1.54179668
VERTEX2 164 -0.24680534 0.55326659 -0.47903122
VERTEX2 165 -0.07491878 0.53619428 -0.07126061
VERTEX2 166 0.61392380 0.49391245 -0.07001112
VERTEX2 167 1.21791571 0.44409757 -0.09933916
VERTEX2 168 1.80327186 0.39459917 -0.08737462
VERTEX2 169 2.39583637 0.32284077 -0.12433901
VERTEX2 170 2.98427456 0.25377399 -0.14502072
VERTEX2 171 3.54797819 0.15445178 -0.18335975
VERTEX2 172 4.17529724 0.04605650 -0.16937988
VERTEX2 173 4.79709225 -0.07367106 -0.19232447
VERTEX2 174 5.41510418 -0.18710829 -0.15232816
VERTEX2 175 6.02424516 -0.27676003 -0.17716226
VERTEX2 176 6.62871506 -0.39889219 -0.16737259
VERTEX2 177 7.25709051 -0.50325956 -0.19482714
VERTEX2 178 7.88363710 -0.65099686 -0.23362280
VERTEX2 179 8.28555535 -0.73473011 -0.18020871
VERTEX2 180 8.33448828 -0.74792179 -0.62209724
VERTEX2 181 8.77493157 -1.06658563 -0.67380345
VERTEX2 182 9.18149708 -1.42731545 -0.84772508
VERTEX2 183 9.52897012 -1.84934522 -0.90498602
VERTEX2 184 9.86439800 -2.35694381 -1.05154470
VERTEX2 185 10.14549583 -2.88830990 -1.14413462
VERTEX2 186 10.36287371 -3.45273904 -1.21051687
VERTEX2 187 10.55601987 -3.99536905 -1.23311410
VERTEX2 188 10.75569160 -4.55760201 -1.23847348
VERTEX2 189 10.94802685 -5.12398272 -1.26511104
VERTEX2 190 11.13080710 -5.72917912 -1.29364729
VERTEX2 191 11.30358447 -6.33391224 -1.31746720
VERTEX2 192 11.45748993 -6.93178692 -1.34558704
VERTEX2 193 11.58061063 -7.48075457 -1.40107617
VERTEX2 194 11.68008877 -8.05004673 -1.42765229
VERTEX2 195 11.76011007 -8.61417459 -1.45610703
VERTEX2 196 11.82649662 -9.24006520 -1.49674240
VERTEX2 197 11.86420274 -9.86156808 -1.52411727
VERTEX2 198 11.88922933 -10.48032234 -1.58221037
VERTEX2 199 11.86107510 -11.08783725 -1.64357120
VERTEX2 200 11.81397943 -11.68991745 -1.66542008
VERTEX2 201 11.74328831 -12.28821862 -1.72207665
VERTEX2 202 11.67945732 -12.79291930 -1.70173898
VERTEX2 203 11.57806421 -13.52629888 -1.75433773
VERTEX2 204 11.45647891 -14.10191967 -1.85619237
VERTEX2 205 11.28763058 -14.66263422 -1.86552931
VERTEX2 206 11.13390603 -15.20848456 -1.86353992
VERTEX2 207 10.97453391 -15.77405610 -1.84754184
VERTEX2 208 10.80161479 -16.37222727 -1.85695555
VERTEX2 209 10.63987919 -16.97197971 -1.81876226
VERTEX2 210 10.47677033 -17.56400461 -1.82762393
VERTEX2 211 10.32763435 -18.15983888 -1.82537103
VERTEX2 212 10.15095688 -18.74519342 -1.87823852
VERTEX2 213 9.95570176 -19.33420590 -1.89903624
VERTEX2 214 9.75562261 -19.90960768 -1.90286912
VERTEX2 215 9.64054960 -20.23118095 -1.93869429
VERTEX2 216 9.65297749 -20.20993954 -2.43742083
VERTEX2 217 9.68016752 -20.20704741 -2.97965267
VERTEX2 218 9.69054824 -20.21103887 -3.03570603
VERTEX2 219 9.12574517 -20.16660912 3.07894140
VERTEX2 220 8.51823439 -20.12205400 3.03904849
VERTEX2 221 7.88180568 -20.05555968 3.08957042
VERTEX2 222 7.25883407 -20.01281815 3.06404986
VERTEX2 223 6.63525686 -19.98335042 -3.12277965
VERTEX2 224 6.02332015 -19.98391102 3.13462942
VERTEX2 225 5.40780389 -19.97816320 -3.09885894
VERTEX2 226 4.79322740 -19.97167732 3.13521613
VERTEX2 227 4.14851075 -20.04075827 -2.99127631
VERTEX2 228 3.62583710 -20.02510630 2.93038514
VERTEX2 229 3.18394721 -19.98775677 3.05082196
VERTEX2 230 2.89419187 -19.97179395 3.02204560
VERTEX2 231 3.09944846 -19.98982789 3.09214431
VERTEX2 232 2.79126506 -19.85115115 2.66617347
VERTEX2 233 2.22879576 -19.59032171 2.76844109
VERTEX2 234 1.65444423 -19.36342680 2.72425426
VERTEX2 235 1.40647830 -19.25604715 2.71924465
VERTEX2 236 1.07403190 -19.25683909 3.12461194
VERTEX2 237 0.44784977 -19.27088451 -3.08821215
VERTEX2 238 -0.17063217 -19.31836589 -3.12097624
VERTEX2 239 -0.78530417 -19.31454769 3.09455267
VERTEX2 240 -1.35327946 -19.19604981 2.87642322
VERTEX2 241 -1.89132097 -19.06415821 2.96181986
VERTEX2 242 -2.46346588 -18.99813535 3.00131331
VERTEX2 243 -3.06237487 -18.91389103 3.00061449
VERTEX2 244 -3.68497121 -18.86700451 3.07192551
VERTEX2 245 -4.29833480 -18.81701861 3.01771439
VERTEX2 246 -4.89913393 -18.72980453 2.94534385
VERTEX2 247 -5.50141220 -18.64637646 3.05129024
VERTEX2 248 -6.05581442 -18.62364627 3.08265360
VERTEX2 249 -6.00724290 -18.63105690 -3.00766084
VERTEX2 250 -6.00380115 -18.63094734 2.68841916
VERTEX2 251 -6.32595389 -18.28953412 2.26498819
VERTEX2 252 -6.68136379 -17.86817911 2.27350314
VERTEX2 253 -7.05287423 -17.42109442 2.26251606
VERTEX2 254 -7.41515759 -16.96479931 2.22144105
VERTEX2 255 -7.48753733 -16.87249669 2.30467052
VERTEX2 256 -7.49036938 -16.79467670 1.82947595
VERTEX2 257 -7.54129676 -16.33487205 1.69404965
VERTEX2 258 -7.62390653 -15.74523059 1.77453066
VERTEX2 259 -7.76576510 -15.14300588 1.81531258
VERTEX2 260 -7.89804893 -14.58511401 1.80710893
VERTEX2 261 -7.89589414 -14.55043443 1.49597991
VERTEX2 262 -7.83221496 -13.90163085 1.50284875
VERTEX2 263 -7.78959019 -13.28624449 1.51651819
VERTEX2 264 -7.77423758 -12.68417004 1.61381944
VERTEX2 265 -7.80539559 -12.08290191 1.63419502
VERTEX2 266 -7.75744415 -11.50723671 1.50528831
VERTEX2 267 -7.70613690 -10.75978431 1.47615414
VERTEX2 268 -7.57429653 -10.15847776 1.36635458
VERTEX2 269 -7.45471969 -9.54383037 1.39607280
VERTEX2 270 -7.38276787 -8.91833086 1.50985194
VERTEX2 271 -7.28756833 -8.29474088 1.39908129
VERTEX2 272 -7.20244830 -7.67557474 1.46441131
VERTEX2 273 -7.21211421 -7.04731950 1.67660120
VERTEX2 274 -7.27963852 -6.43244943 1.70064132
VERTEX2 275 -7.26751645 -5.82731704 1.52925043
VERTEX2 276 -7.26057321 -5.22308321 1.64382722
VERTEX2 277 -7.30708830 -4.66109915 1.61832433
VERTEX2 278 -7.26390048 -4.02450561 1.52968473
VERTEX2 279 -7.22421816 -3.38844900 1.47446187
VERTEX2 280 -7.15632644 -2.75799397 1.47663229
VERTEX2 281 -7.06615260 -2.12588229 1.37633316
VERTEX2 282 -6.94691040 -1.50044341 1.41633378
VERTEX2 283 -6.86052525 -0.86828307 1.40864250
VERTEX2 284 -6.74928289 -0.24678787 1.43595819
VERTEX2 285 -6.68236556 0.40163808 1.45707373
VERTEX2 286 -6.61597926 1.02229464 1.51071355
VERTEX2 287 -6.61319615 1.07260706 1.40636643
VERTEX2 288 -6.61028046 1.07779138 0.79798357
VERTEX2 289 -6.60913530 1.07827352 0.20477575
VERTEX2 290 -6.17040969 1.06942112 -0.02016275
VERTEX2 291 -5.54931890 1.06138854 -0.00629950
VERTEX2 292 -4.93383541 1.04086486 -0.06101029
VERTEX2 293 -4.30950795 0.99472276 -0.08411373
VERTEX2 294 -3.68867846 0.94151662 -0.08344796
VERTEX2 295 -3.06691299 0.86011298 -0.19593179
VERTEX2 296 -2.44956912 0.71410999 -0.24130394
VERTEX2 297 -1.83433960 0.56117235 -0.25295287
VERTEX2 298 -1.22406481 0.40573072 -0.25370225
VERTEX2 299 -0.65015503 0.24791627 -0.19259886
VERTEX2 300 -0.06492508 0.16098606 -0.15047239
VERTEX2 301 0.49603831 0.06019031 -0.20968009
VERTEX2 302 0.79692045 -0.00524572 -0.23060836
VERTEX2 303 0.77856394 -0.00179074 -0.22649519
VERTEX2 304 1.27812167 -0.11844795 -0.21695565
VERTEX2 305 1.89141834 -0.16440505 -0.03308533
VERTEX2 306 2.51952569 -0.17630716 -0.05126999
VERTEX2 307 3.15736149 -0.22546705 -0.08809632
VERTEX2 308 3.78363459 -0.28970530 -0.14381612
VERTEX2 309 4.41721941 -0.35143323 -0.05103745
VERTEX2 310 5.04352548 -0.38281999 -0.08705826
VERTEX2 311 5.32321880 -0.40932274 0.08782017
VERTEX2 312 5.31895948 -0.41156608 1.07526058
VERTEX2 313 5.32387146 -0.19314300 1.57078127
VERTEX2 314 5.30518565 0.43518620 1.61048592
VERTEX2 315 5.27753343 1.06293693 1.60608126
VERTEX2 316 5.23845946 1.70816693 1.65701586
VERTEX2 317 5.17831071 2.35024005 1.66657426
VERTEX2 318 5.08079487 2.98805240 1.76064779
VERTEX2 319 5.00182060 3.33614377 1.83154575
VERTEX2 320 5.00338219 3.34092998 2.79852898
VERTEX2 321 4.99116347 3.33574437 -2.44658044
VERTEX2 322 4.98922011 3.33182700 -1.45191990
VERTEX2 323 4.99726538 3.32400768 -0.46104791
VERTEX2 324 4.99740048 3.32398319 0.19774548
VERTEX2 325 5.00269249 3.32435019 -0.32937147
VERTEX2 326 5.02010769 3.31105962 -0.92397544
VERTEX2 327 5.02339432 3.29507983 -1.54671997
VERTEX2 328 5.00429758 2.65818107 -1.59300988
VERTEX2 329 4.97937082 2.03231341 -1.64962693
VERTEX2 330 4.92201833 1.41764487 -1.67027355
VERTEX2 331 4.86354338 0.80168482 -1.68617198
VERTEX2 332 4.78062597 0.18690080 -1.70617361
VERTEX2 333 4.75781582 0.03085853 -1.64272154
VERTEX2 334 4.78709714 0.03703130 -0.84540035
VERTEX2 335 4.80561972 0.03151711 0.14552386
VERTEX2 336 4.81878684 0.03611908 1.08660431
VERTEX2 337 4.82348600 0.06514215 2.06551847
VERTEX2 338 4.82318388 0.06533570 3.05462368
VERTEX2 339 4.83338437 0.07164114 -2.17836953
VERTEX2 340 4.83349688 0.07061595 -1.15831859
VERTEX2 341 4.94527421 0.00294849 -0.52443195
VERTEX2 342 5.51646352 -0.30169909 -0.42226626
VERTEX2 343 6.09353153 -0.50333405 -0.29078492
VERTEX2 344 6.68130296 -0.68690892 -0.30029109
VERTEX2 345 6.91845194 -0.75705310 -0.32722991
VERTEX2 346 6.90368807 -0.75219502 -0.97311261
VERTEX2 347 6.90599769 -0.84105090 -1.53054898
VERTEX2 348 6.92282590 -1.43213332 -1.54674008
VERTEX2 349 6.91939664 -2.05214388 -1.58644998
VERTEX2 350 6.90463062 -2.84074744 -1.60556906
VERTEX2 351 6.88979713 -3.11507193 -1.63401940
VERTEX2 352 6.88779916 -3.12449953 -1.92099386
VERTEX2 353 6.87524440 -3.13982876 -2.58419810
VERTEX2 354 6.85979877 -3.14421616 3.09765468
VERTEX2 355 6.83784043 -3.14338374 2.37904443
VERTEX2 356 6.83176261 -3.13257641 1.80577214
VERTEX2 357 6.83434901 -3.11739084 1.15487573
VERTEX2 358 6.83467367 -3.11695951 0.54150258
VERTEX2 359 6.82627406 -3.12053252 -0.06971446
VERTEX2 360 6.81465481 -3.11820115 -0.24452695
VERTEX2 361 6.80998712 -3.11942391 0.67883888
VERTEX2 362 6.89633588 -2.88622201 1.21507206
VERTEX2 363 7.00034868 -2.61573665 1.20964437
VERTEX2 364 6.93168614 -2.28063505 1.82689188
VERTEX2 365 6.87660604 -1.99259232 1.33200818
VERTEX2 366 6.98453791 -1.87049736 0.78029089
VERTEX2 367 7.42954204 -1.43607040 0.78332206
VERTEX2 368 7.88280827 -1.00294212 0.73550665
VERTEX2 369 7.89918139 -0.98315495 0.48386768
VERTEX2 370 7.93107744 -0.97802108 -0.10205094
VERTEX2 371 7.93695695 -0.98106222 -0.64763337
VERTEX2 372 8.36475740 -1.32779516 -0.67536223
VERTEX2 373 8.83641873 -1.69090743 -0.67345357
VERTEX2 374 9.31432143 -2.09205530 -0.73470625
VERTEX2 375 9.67637862 -2.41372142 -0.76520558
VERTEX2 376 9.69017446 -2.42212624 -0.07144901
VERTEX2 377 9.73789049 -2.38800762 0.62282325
VERTEX2 378 10.26939722 -1.99050741 0.67614599
VERTEX2 379 10.74480724 -1.56096106 0.76006533
VERTEX2 380 11.18019013 -1.09549329 0.87848955
VERTEX2 381 11.32731122 -0.91260942 1.02710013
VERTEX2 382 11.32937387 -0.90884829 2.07275291
VERTEX2 383 11.33390980 -0.91163732 3.05912684
VERTEX2 384 11.33642290 -0.90920793 -2.26079616
VERTEX2 385 11.33384900 -0.91353572 -1.23120912
VERTEX2 386 11.44198952 -1.05301749 -1.00645455
VERTEX2 387 11.90414765 -1.47787971 -0.67494145
VERTEX2 388 12.40866636 -1.86409385 -0.66523364
VERTEX2 389 12.88730918 -2.27020650 -0.74675982
VERTEX2 390 12.93841636 -2.31575461 -0.27032504
VERTEX2 391 12.80127618 -2.31208876 0.11069240
VERTEX2 392 12.79926081 -2.31217343 1.15408753
VERTEX2 393 12.82081565 -2.14458655 2.03146938
VERTEX2 394 12.81324818 -2.13810859 3.02587071
VERTEX2 395 13.05524573 -2.09598036 -2.91957693
VERTEX2 396 13.05625475 -2.09570592 -2.91936344
VERTEX2 397 13.05981655 -2.09598894 -2.92960992
VERTEX2 398 13.06182042 -2.09515298 -2.73145414
VERTEX2 399 12.96628477 -2.16948503 -2.43183540
VERTEX2 400 12.47375108 -2.59751596 -2.38117223
VERTEX2 401 12.01019423 -3.00553756 -2.47383986
VERTEX2 402 11.46091056 -3.29247957 -2.74136383
VERTEX2 403 10.89565823 -3.52636622 -2.77577667
VERTEX2 404 10.35699494 -3.71561793 -2.85527169
VERTEX2 405 10.37320357 -3.70786144 -2.32235261
VERTEX2 406 10.37547569 -3.69445606 -1.34565010
VERTEX2 407 10.49465872 -4.03084559 -1.21843412
VERTEX2 408 10.70011870 -4.60638934 -1.25723942
VERTEX2 409 10.78225476 -4.88563953 -1.35782440
VERTEX2 410 10.78257840 -4.87623320 -1.98788060
VERTEX2 411 10.79367638 -4.85664145 -2.57926418
VERTEX2 412 10.29943015 -5.05279717 -2.78348853
VERTEX2 413 9.72289245 -5.24697397 -2.86410568
VERTEX2 414 9.14106452 -5.43080884 -2.76148664
VERTEX2 415 8.53281516 -5.66576692 -2.75394430
VERTEX2 416 8.24368583 -5.79277875 -2.80856537
VERTEX2 417 7.94971770 -5.77554965 3.05123473
VERTEX2 418 7.50951683 -5.73058914 3.00663422
VERTEX2 419 7.51031396 -5.73041685 -2.84448467
VERTEX2 420 7.56167730 -5.70782175 -2.62754437
VERTEX2 421 7.56277485 -5.70612199 -1.65779300
VERTEX2 422 7.55777365 -5.71308304 -0.41585343
VERTEX2 423 7.56596370 -5.71388943 -0.06907355
VERTEX2 424 7.56871782 -5.71441236 -0.06788686
VERTEX2 425 7.56378903 -5.71717578 -0.05532344
VERTEX2 426 7.56638521 -5.71765276 -0.06361659
VERTEX2 427 7.60151280 -5.71956928 -0.05967519
VERTEX2 428 8.26617574 -5.74255624 -0.06437867
VERTEX2 429 8.91323105 -5.79343721 -0.10434400
VERTEX2 430 9.25757173 -5.83502558 -0.14962433
VERTEX2 431 9.23800334 -5.83265144 -0.09688478
VERTEX2 432 9.25319433 -5.83801846 -0.72693113
VERTEX2 433 9.26052114 -5.84808197 -1.40246635
VERTEX2 434 9.22390293 -6.38664091 -1.62972563
VERTEX2 435 9.19195479 -7.02914536 -1.65738676
VERTEX2 436 9.11448628 -7.66847670 -1.66555825
VERTEX2 437 9.06278968 -8.31789351 -1.65701249
VERTEX2 438 9.01160174 -8.78140177 -1.68760341
VERTEX2 439 9.01088668 -8.78406459 -2.12364841
VERTEX2 440 9.01639529 -8.77975525 -2.76688179
VERTEX2 441 9.02712530 -8.77874548 2.89419787
VERTEX2 442 9.02729810 -8.77888650 2.26473489
VERTEX2 443 9.02731604 -8.77928880 1.69927503
VERTEX2 444 9.03078179 -8.76169552 1.10921680
VERTEX2 445 9.03591732 -8.75686670 0.45377672
VERTEX2 446 9.03505645 -8.75740303 0.65656022
VERTEX2 447 9.04609432 -8.73633863 1.29060666
VERTEX2 448 9.19896765 -8.11770281 1.30861566
VERTEX2 449 9.33469440 -7.48455474 1.41054298
VERTEX2 450 9.43148815 -6.85075378 1.42470801
VERTEX2 451 9.48611337 -6.38315077 1.46773593
VERTEX2 452 9.48597350 -6.38475256 1.09042347
VERTEX2 453 9.48211388 -6.39168405 0.46930509
VERTEX2 454 9.74497474 -6.37233298 0.04802879
VERTEX2 455 10.33950932 -6.34950364 0.02774594
VERTEX2 456 10.96785697 -6.34646055 -0.03650435
VERTEX2 457 11.31863828 -6.36934818 -0.12384918
VERTEX2 458 11.31591416 -6.36799222 -0.76873876
VERTEX2 459 11.30868161 -6.33876119 -1.37597812
VERTEX2 460 11.28858263 -6.73498353 -1.63310381
VERTEX2 461 11.22077016 -7.34920913 -1.72113564
VERTEX2 462 11.13417994 -7.85633523 -1.76122793
VERTEX2 463 11.14662407 -7.83192489 -0.92123433
VERTEX2 464 11.40287705 -7.90463648 -0.24335079
VERTEX2 465 11.98764949 -8.03765966 -0.23568602
VERTEX2 466 12.54205702 -8.18903906 -0.29142004
VERTEX2 467 13.11372031 -8.37108387 -0.33497968
VERTEX2 468 13.72868524 -8.58970048 -0.37027915
VERTEX2 469 14.32038825 -8.85551207 -0.45295422
VERTEX2 470 14.77465026 -9.07124826 -0.43382305
VERTEX2 471 14.78328101 -9.07592546 -0.63326587
VERTEX2 472 14.80055069 -9.10001771 -1.26508013
VERTEX2 473 14.80202542 -9.10726450 -1.90481191
VERTEX2 474 14.80051584 -9.10915630 -2.53529941
VERTEX2 475 14.80296521 -9.10882223 -3.10893665
VERTEX2 476 14.80542571 -9.10915721 2.52319580
VERTEX2 477 14.80987926 -9.11787682 1.96380727
VERTEX2 478 14.81062775 -9.12771855 1.33690057
VERTEX2 479 14.80964404 -9.12997004 0.88271700
VERTEX2 480 14.80996936 -9.12923747 1.44487582
VERTEX2 481 14.80634402 -9.11354179 2.44711698
VERTEX2 482 14.81076506 -9.11531934 2.78331094
VERTEX2 483 14.81739886 -9.11772336 2.77795092
VERTEX2 484 14.39149995 -8.95914151 2.81349480
VERTEX2 485 13.79305097 -8.76968367 2.81121325
VERTEX2 486 13.19192428 -8.55622408 2.82077670
VERTEX2 487 12.58212678 -8.37602806 2.84909250
VERTEX2 488 11.97003341 -8.19397147 2.88525399
VERTEX2 489 11.49993440 -8.08588040 2.91572428
VERTEX2 490 11.50479670 -8.08541295 -2.88225091
VERTEX2 491 11.51254954 -8.07520191 -1.94595266
VERTEX2 492 11.49573867 -8.30443095 -1.64283895
VERTEX2 493 11.43369873 -8.90778840 -1.69784294
VERTEX2 494 11.34629956 -9.51843856 -1.75871452
VERTEX2 495 11.27711148 -10.14095995 -1.65140314
VERTEX2 496 11.23334507 -10.76484137 -1.53354487
VERTEX2 497 11.22647192 -11.38233940 -1.61948134
VERTEX2 498 11.15804546 -12.00319120 -1.72118533
VERTEX2 499 11.02778848 -12.62888228 -1.73812219
VERTEX2 500 11.08587660 -13.19547061 -1.40906139
VERTEX2 501 11.16102870 -13.77974284 -1.48011861
VERTEX2 502 11.18604896 -14.47293237 -1.56467235
VERTEX2 503 11.18226350 -14.91760606 -1.58170205
VERTEX2 504 11.18841614 -14.90018021 -0.72582588
VERTEX2 505 11.42625434 -14.92718449 -0.10428686
VERTEX2 506 12.01825532 -15.00874978 -0.25691758
VERTEX2 507 12.59915604 -15.17842968 -0.33553975
VERTEX2 508 13.16785464 -15.38978029 -0.34887264
VERTEX2 509 13.78748733 -15.62330378 -0.40477492
VERTEX2 510 14.14393208 -15.78242270 -0.41867019
VERTEX2 511 14.14226731 -15.76617746 0.45673925
VERTEX2 512 14.16351579 -15.72137557 1.65419058
VERTEX2 513 14.16033342 -15.71199369 2.60974128
VERTEX2 514 14.09285034 -15.69307416 2.83603786
VERTEX2 515 13.48249938 -15.51232446 2.83715960
VERTEX2 516 12.89767937 -15.31847226 2.85307222
VERTEX2 517 12.30487980 -15.17052177 2.88127865
VERTEX2 518 11.71242754 -15.01943828 2.90563968
VERTEX2 519 11.19047560 -14.89561769 2.88995013
VERTEX2 520 11.02268137 -14.85194182 -2.99478522
VERTEX2 521 11.04433858 -14.82807203 -1.99111146
VERTEX2 522 10.97973599 -15.21958743 -1.72702214
VERTEX2 523 10.88866069 -15.83920431 -1.73434041
VERTEX2 524 10.78519884 -16.41245181 -1.77622094
VERTEX2 525 10.68163272 -16.95375086 -1.75254695
VERTEX2 526 10.56588789 -17.52166203 -1.81133693
VERTEX2 527 10.41869844 -18.09943555 -1.84615652
VERTEX2 528 10.23723623 -18.66424894 -1.92216124
VERTEX2 529 10.02538794 -19.26485737 -1.95057259
VERTEX2 530 9.77857446 -19.86254900 -1.98078278
VERTEX2 531 9.50938357 -20.43570412 -2.06075916
VERTEX2 532 9.41214354 -20.61978128 -2.01030143
VERTEX2 533 9.40593435 -20.58952341 -1.01291000
VERTEX2 534 9.40372528 -20.58803796 -0.34686746
VERTEX2 535 9.40714807 -20.58795573 -0.34756281
VERTEX2 536 9.76470568 -20.67346299 -0.21730424
VERTEX2 537 10.37174873 -20.82438557 -0.27574334
VERTEX2 538 10.92970817 -20.99583272 -0.30313311
VERTEX2 539 11.53515000 -21.20731260 -0.36822318
VERTEX2 540 12.11860080 -21.46272840 -0.46148299
VERTEX2 541 12.70266521 -21.69333022 -0.29963169
VERTEX2 542 13.33200584 -21.83886138 -0.24432433
VERTEX2 543 13.45268808 -21.87000278 -0.27436472
VERTEX2 544 13.47594584 -21.86781300 0.36159077
VERTEX2 545 13.49977394 -21.82535263 1.42837290
VERTEX2 546 13.51682997 -21.87080958 2.25584054
VERTEX2 547 13.52481669 -21.87032999 -3.00512763
VERTEX2 548 13.53819703 -21.86186696 -2.08174451
VERTEX2 549 13.53961653 -21.85262706 -1.27426419
VERTEX2 550 13.53863418 -21.83399812 -1.75351114
VERTEX2 551 13.54659841 -21.81804125 -2.37920625
VERTEX2 552 13.56545449 -21.80874160 -3.01099089
VERTEX2 553 13.43090496 -21.75676863 2.69552706
VERTEX2 554 12.84207320 -21.47215116 2.66031653
VERTEX2 555 12.26593801 -21.19680261 2.74946173
VERTEX2 556 11.66464409 -20.97786841 2.88485342
VERTEX2 557 11.06525352 -20.80597671 2.84377756
VERTEX2 558 10.48993747 -20.64803432 2.92495073
VERTEX2 559 10.49789230 -20.65073268 2.51824601
VERTEX2 560 10.49117806 -20.64317196 2.01760400
VERTEX2 561 10.46835228 -20.62096684 2.52311656
VERTEX2 562 10.29052814 -20.62080600 -3.11614891
VERTEX2 563 9.72077179 -20.54218506 2.97539882
VERTEX2 564 9.11639030 -20.45065992 3.02430346
VERTEX2 565 8.52599822 -20.37935535 2.96669954
VERTEX2 566 8.58737122 -20.39846393 -2.53305587
VERTEX2 567 8.49385213 -20.40536299 -1.73935992
VERTEX2 568 8.44286229 -20.91352727 -1.67523353
VERTEX2 569 8.39133027 -21.48916026 -1.71438651
VERTEX2 570 8.32237544 -22.06985579 -1.70963785
VERTEX2 571 8.26977836 -22.42510889 -1.75707550
VERTEX2 572 8.23585054 -22.44990216 -2.00021071
VERTEX2 573 8.20081286 -22.52930475 -1.72381800
VERTEX2 574 8.22113783 -22.55786914 -0.78418133
VERTEX2 575 8.37707120 -22.60884988 0.13582972
VERTEX2 576 8.37747589 -22.60917079 1.16354031
VERTEX2 577 8.37100435 -22.59203136 2.13568396
VERTEX2 578 8.36163659 -22.56030222 1.77154290
VERTEX2 579 8.23727351 -21.90874663 1.78659628
VERTEX2 580 8.07598642 -21.26948276 1.86178372
VERTEX2 581 7.88206322 -20.64626558 1.90421346
VERTEX2 582 7.66070730 -20.03216662 1.94740695
VERTEX2 583 7.53099772 -19.72432859 2.02684295
VERTEX2 584 7.52574086 -19.71412603 2.87089041
VERTEX2 585 6.94353327 -19.57437827 2.98937648
VERTEX2 586 6.35085375 -19.50015085 3.08713439
VERTEX2 587 5.73316083 -19.48948034 3.11273437
VERTEX2 588 5.10450832 -19.46393669 3.11739384
VERTEX2 589 4.56801005 -19.48882430 -3.09042222
VERTEX2 590 4.02055929 -19.53303013 -3.02167961
VERTEX2 591 3.48333460 -19.61196779 -3.02357116
VERTEX2 592 2.93713786 -19.68637248 -3.02629772
VERTEX2 593 2.76140493 -19.70853615 -2.82103738
VERTEX2 594 2.80544741 -19.66108967 -1.90205359
VERTEX2 595 2.69208418 -20.26836439 -1.66918547
VERTEX2 596 2.63936082 -20.89283025 -1.69230342
VERTEX2 597 2.54732172 -21.56789660 -1.73222351
VERTEX2 598 2.44420470 -22.16643633 -1.77438435
VERTEX2 599 2.35567208 -22.54386775 -1.84056810
VERTEX2 600 2.35585953 -22.56040536 -1.03402571
VERTEX2 601 2.39659185 -22.58552642 -0.01588428
VERTEX2 602 2.43194186 -22.57131516 0.99813275
VERTEX2 603 2.39768568 -22.33673946 1.77075176
VERTEX2 604 2.33786975 -21.72455260 1.52665321
VERTEX2 605 2.34732090 -21.07962745 1.60920476
VERTEX2 606 2.30761692 -20.43469981 1.65124552
VERTEX2 607 2.31928010 -19.84760588 1.57017788
VERTEX2 608 2.30670726 -19.46426580 1.61461472
VERTEX2 609 2.30394129 -19.44787324 1.95115300
VERTEX2 610 2.29432646 -19.44438229 2.88428058
VERTEX2 611 1.69664181 -19.29309394 2.88740511
VERTEX2 612 1.23209251 -19.16040499 2.89043012
VERTEX2 613 1.27540252 -19.17367372 -2.92852601
VERTEX2 614 1.27968521 -19.17043450 -1.88966681
VERTEX2 615 1.29137677 -19.65299547 -1.58474777
VERTEX2 616 1.29704096 -20.27202872 -1.63565275
VERTEX2 617 1.15819524 -20.87566923 -1.85214222
VERTEX2 618 0.98823585 -21.48214963 -1.84154848
VERTEX2 619 0.82682336 -22.05417068 -1.84245265
VERTEX2 620 0.64302717 -22.63063056 -1.93798773
VERTEX2 621 0.77123646 -22.29870823 -1.98892856
VERTEX2 622 0.89389184 -22.03580448 -2.06333099
VERTEX2 623 0.89263882 -22.03750765 -2.59917155
VERTEX2 624 0.86237458 -22.03728060 3.04284052
VERTEX2 625 0.82034111 -22.02046931 2.38576355
VERTEX2 626 0.79219270 -21.98843166 1.76911032
VERTEX2 627 0.86302619 -21.61718899 1.35929182
VERTEX2 628 1.03852630 -20.99063948 1.25884820
VERTEX2 629 1.20675442 -20.36339594 1.33022644
VERTEX2 630 1.32885394 -19.75617055 1.41553724
VERTEX2 631 1.39926083 -19.21854886 1.43502085
VERTEX2 632 1.40317972 -19.19469665 2.10923038
VERTEX2 633 1.30987774 -19.18872923 -3.09084975
VERTEX2 634 0.64910347 -19.22552469 -3.06409826
VERTEX2 635 0.00201094 -19.23605251 3.08334452
VERTEX2 636 -0.63455706 -19.20719179 3.06524328
VERTEX2 637 -1.25863438 -19.13251709 2.96540949
VERTEX2 638 -1.64782347 -19.05263883 2.93571250
VERTEX2 639 -2.25508307 -18.94932648 3.01592477
VERTEX2 640 -2.86660027 -18.83973181 2.94793624
VERTEX2 641 -3.46359524 -18.72843750 2.93954749
VERTEX2 642 -4.03674300 -18.59087429 2.89417853
VERTEX2 643 -4.51755894 -18.45403531 2.82671400
VERTEX2 644 -4.52110898 -18.45482623 -2.69970990
VERTEX2 645 -4.55748793 -18.59549074 -1.92225993
VERTEX2 646 -4.69540951 -19.20461945 -1.62689539
VERTEX2 647 -4.65281672 -19.84680666 -1.33804680
VERTEX2 648 -4.43086495 -20.47166631 -1.17176065
VERTEX2 649 -4.25817213 -21.07014410 -1.50935054
VERTEX2 650 -4.35972257 -21.69840362 -1.76670056
VERTEX2 651 -4.37739970 -21.84383406 -0.96726719
VERTEX2 652 -4.31535798 -21.87184125 0.05773667
VERTEX2 653 -4.26967421 -21.83092528 1.08820492
VERTEX2 654 -4.27827839 -21.53455403 1.60138976
VERTEX2 655 -4.28791438 -20.98144993 1.59638835
VERTEX2 656 -4.28625394 -20.37967719 1.58375945
VERTEX2 657 -4.39227035 -19.76820594 1.86039532
VERTEX2 658 -4.58161823 -19.15155823 1.85321832
VERTEX2 659 -4.69562682 -18.65851284 1.78205078
VERTEX2 660 -4.69860320 -18.64353991 2.38214356
VERTEX2 661 -4.87567830 -18.62377127 3.03556285
VERTEX2 662 -5.46769948 -18.56367851 3.10515857
VERTEX2 663 -6.05362463 -18.57721790 -3.07700730
VERTEX2 664 -6.06143781 -18.57519598 -2.55382884
VERTEX2 665 -6.07751521 -18.67621681 -1.71978299
VERTEX2 666 -6.14975688 -19.28272328 -1.68256537
VERTEX2 667 -6.20729392 -19.84709702 -1.67787004
VERTEX2 668 -6.27121058 -20.43892254 -1.65201002
VERTEX2 669 -6.32011308 -21.06250468 -1.67706056
VERTEX2 670 -6.41979172 -21.67829132 -1.73645076
VERTEX2 671 -6.46727126 -21.96905901 -1.68138185
VERTEX2 672 -6.36489080 -21.38671555 -1.77040353
VERTEX2 673 -6.29820215 -21.11849797 -1.90085964
VERTEX2 674 -6.28454810 -21.10409439 -2.54878103
VERTEX2 675 -6.26096684 -21.09910841 3.12599104
VERTEX2 676 -6.25579253 -21.10214181 2.50286320
VERTEX2 677 -6.25041912 -21.10954405 1.88659066
VERTEX2 678 -6.22275925 -20.89084780 1.44030533
VERTEX2 679 -6.15878231 -20.31518922 1.50270264
VERTEX2 680 -6.18585664 -19.86993423 1.84727517
VERTEX2 681 -6.33706292 -19.27995601 1.81956074
VERTEX2 682 -6.50822638 -18.67534235 1.86701646
VERTEX2 683 -6.59964681 -18.39433258 2.02590041
VERTEX2 684 -6.54808496 -18.44714266 3.10483012
VERTEX2 685 -6.95139666 -18.60675099 -2.73498127
VERTEX2 686 -7.39800573 -18.74205876 -2.87940295
VERTEX2 687 -7.99194389 -18.89139069 -2.91454923
VERTEX2 688 -8.59176388 -19.01017882 -2.92624914
VERTEX2 689 -9.15795194 -19.14805599 -2.89850867
VERTEX2 690 -9.69568970 -19.31612547 -2.82425303
VERTEX2 691 -10.09246087 -19.44704814 -2.85220580
VERTEX2 692 -10.07887300 -19.44105168 -2.31785134
VERTEX2 693 -10.05663634 -19.51174133 -1.27725692
VERTEX2 694 -10.03324396 -19.58212750 -0.44164208
VERTEX2 695 -10.01560362 -19.57715141 0.35850403
VERTEX2 696 -10.00975108 -19.57333925 1.38416948
VERTEX2 697 -10.02170728 -19.61235935 1.13121671
VERTEX2 698 -9.69039079 -19.40374213 0.47630975
VERTEX2 699 -9.12478711 -19.09135091 0.59032549
VERTEX2 700 -8.61017579 -18.73053784 0.64387013
VERTEX2 701 -8.17578418 -18.36920331 0.70308526
VERTEX2 702 -7.69523076 -18.05481641 0.58801254
VERTEX2 703 -7.18152462 -17.71920791 0.62237227
VERTEX2 704 -6.68715364 -17.33836842 0.64068688
VERTEX2 705 -6.17197277 -16.91581332 0.71067862
VERTEX2 706 -5.73745123 -16.59608645 0.44128556
VERTEX2 707 -5.70781028 -16.59458050 -0.07968112
VERTEX2 708 -5.69678787 -16.60100761 -0.71822816
VERTEX2 709 -5.73538113 -16.55913217 -1.05034480
VERTEX2 710 -5.73896965 -16.54971096 -1.61152353
VERTEX2 711 -5.72930921 -16.55849564 -2.20759560
VERTEX2 712 -5.71339169 -16.54638060 -2.76747054
VERTEX2 713 -6.19030542 -16.59609465 -3.05253983
VERTEX2 714 -6.75005006 -16.56976422 3.03369845
VERTEX2 715 -7.37517872 -16.53160430 3.13728039
VERTEX2 716 -8.00768307 -16.50830895 2.99923549
VERTEX2 717 -8.62847509 -16.43939139 3.08404940
VERTEX2 718 -9.38991239 -16.31956399 2.90873079
VERTEX2 719 -10.00600392 -16.20332469 2.98324170
VERTEX2 720 -10.61796405 -16.09001451 2.92407418
VERTEX2 721 -11.23484227 -15.97328062 2.99232404
VERTEX2 722 -11.25085085 -15.97097229 3.05905499
VERTEX2 723 -11.27237513 -15.99309648 -2.13406338
VERTEX2 724 -11.27256838 -16.03911824 -1.06507972
VERTEX2 725 -11.24419068 -16.05825952 -0.43065248
VERTEX2 726 -10.91850727 -16.05492243 0.02360955
VERTEX2 727 -10.28087186 -16.01808685 0.05439447
VERTEX2 728 -9.64214350 -15.99525685 0.05586677
VERTEX2 729 -9.00560787 -15.93613973 0.11358868
VERTEX2 730 -8.38336099 -15.84515903 0.15115626
VERTEX2 731 -7.73512400 -15.74610735 0.16344538
VERTEX2 732 -7.59313635 -15.71775817 0.61019334
VERTEX2 733 -7.59277064 -15.71836104 1.60707337
VERTEX2 734 -7.65127932 -15.16021446 1.68527031
VERTEX2 735 -7.71199488 -14.55573405 1.65331857
VERTEX2 736 -7.71287596 -14.54255124 2.25305772
VERTEX2 737 -7.70678857 -14.54335011 3.05407153
VERTEX2 738 -8.28562809 -14.50293262 3.07322388
VERTEX2 739 -8.88865996 -14.40811324 3.01569564
VERTEX2 740 -9.39134968 -14.36812439 3.07906285
VERTEX2 741 -9.37081962 -14.36788615 2.71038102
VERTEX2 742 -9.37151105 -14.36742071 2.05784623
VERTEX2 743 -9.37371972 -14.35769501 1.44127692
VERTEX2 744 -9.36325107 -14.33363805 0.90213114
VERTEX2 745 -9.34211216 -14.32253936 0.30887741
VERTEX2 746 -8.79857882 -14.33978613 -0.16579986
VERTEX2 747 -8.15245579 -14.45299332 -0.20095719
VERTEX2 748 -7.57470605 -14.59432886 -0.26918442
VERTEX2 749 -7.49088512 -14.61500751 0.16021252
VERTEX2 750 -7.48230990 -14.59910512 1.08650521
VERTEX2 751 -7.51644243 -14.33360397 1.72623289
VERTEX2 752 -7.57490208 -13.71492915 1.62266223
VERTEX2 753 -7.61329273 -13.08043915 1.68565551
VERTEX2 754 -7.62179276 -12.44382899 1.52330456
VERTEX2 755 -7.60440948 -11.81200157 1.60978817
VERTEX2 756 -7.56843364 -11.17779089 1.43341322
VERTEX2 757 -7.49528394 -10.53404463 1.54530975
VERTEX2 758 -7.51699234 -9.95623791 1.68753143
VERTEX2 759 -7.50779486 -9.41044350 1.56747467
VERTEX2 760 -7.54790328 -8.80425877 1.67888699
VERTEX2 761 -7.55035943 -8.77134831 1.85930473
VERTEX2 762 -7.62508102 -8.73816883 2.69439146
VERTEX2 763 -8.19652336 -8.63756183 2.98716435
VERTEX2 764 -8.61372848 -8.56774411 2.95958194
VERTEX2 765 -8.60076595 -8.56746467 -2.68428375
VERTEX2 766 -8.60347823 -8.57636780 -1.68412657
VERTEX2 767 -8.59661718 -8.59361528 -0.75342134
VERTEX2 768 -8.56691367 -8.59536590 -0.03118119
VERTEX2 769 -7.93317566 -8.50495624 0.12574314
VERTEX2 770 -7.28241836 -8.44424964 0.05863147
VERTEX2 771 -7.19568677 -8.43679676 0.61914585
VERTEX2 772 -7.19280377 -8.42757356 1.48673659
VERTEX2 773 -7.17030089 -7.84974086 1.57256057
VERTEX2 774 -7.18388789 -7.30334953 1.59467515
VERTEX2 775 -7.18299993 -7.30715196 2.43962150
VERTEX2 776 -7.39428596 -7.28185968 3.05706358
VERTEX2 777 -8.00962916 -7.24096678 3.11611914
VERTEX2 778 -8.62437141 -7.23133327 3.09519109
VERTEX2 779 -9.23665563 -7.21094699 3.11316138
VERTEX2 780 -9.44127998 -7.19347921 2.98276492
VERTEX2 781 -9.43476067 -7.19581389 2.40901356
VERTEX2 782 -9.56099793 -6.92566991 1.97918046
VERTEX2 783 -9.79449842 -6.35393113 1.97845641
VERTEX2 784 -9.89266212 -6.12885308 1.95700604
VERTEX2 785 -9.89348811 -6.10489770 1.40474034
VERTEX2 786 -9.88556434 -6.07899958 0.81610313
VERTEX2 787 -9.86706269 -6.06014408 0.32516104
VERTEX2 788 -9.83750615 -6.06223083 -0.30441630
VERTEX2 789 -9.82652926 -6.07090139 -0.85679490
VERTEX2 790 -9.52167491 -6.46680911 -0.92416151
VERTEX2 791 -9.11877476 -6.94994440 -0.82571949
VERTEX2 792 -8.88565916 -7.15938257 -0.12047708
VERTEX2 793 -8.27490928 -7.21362817 -0.07536190
VERTEX2 794 -7.63965345 -7.24459226 -0.00377264
VERTEX2 795 -7.66622693 -7.26400452 0.42634225
VERTEX2 796 -7.67636780 -7.26809213 1.08675184
VERTEX2 797 -7.60144819 -6.95852413 1.34745021
VERTEX2 798 -7.46569127 -6.33186080 1.39793482
VERTEX2 799 -7.37816108 -5.68681440 1.46400128
VERTEX2 800 -7.32383975 -5.03946609 1.53723663
VERTEX2 801 -7.33442595 -4.40916090 1.62325591
VERTEX2 802 -7.38785297 -3.78531357 1.68104020
VERTEX2 803 -7.37023983 -3.15834884 1.51646438
VERTEX2 804 -7.34975733 -2.53264352 1.57243556
VERTEX2 805 -7.38260085 -1.90369480 1.64878618
VERTEX2 806 -7.44216023 -1.30670290 1.69025493
VERTEX2 807 -7.46893791 -1.12516853 1.97844814
VERTEX2 808 -7.47370078 -1.12507228 2.92687395
VERTEX2 809 -8.06531016 -1.09578563 3.07159276
VERTEX2 810 -8.68280957 -0.97211338 2.93148954
VERTEX2 811 -9.28189159 -0.86019385 2.92825039
VERTEX2 812 -9.28444392 -0.85969427 -2.62302959
VERTEX2 813 -9.29361372 -0.88016009 -1.64754685
VERTEX2 814 -9.28805014 -0.88455871 -0.65514268
VERTEX2 815 -9.26420763 -0.89258366 0.26428384
VERTEX2 816 -9.25479097 -0.88742904 0.94555090
VERTEX2 817 -9.24277968 -0.87986413 0.27689526
VERTEX2 818 -9.02070856 -0.91357495 -0.21191251
VERTEX2 819 -8.42989623 -1.04073944 -0.19775515
VERTEX2 820 -7.83665535 -1.17196598 -0.23895343
VERTEX2 821 -7.29091980 -1.30227351 -0.22312766
VERTEX2 822 -7.24444073 -1.30930879 0.53783838
VERTEX2 823 -7.24361992 -1.29996322 1.45635873
VERTEX2 824 -7.18005413 -0.68280271 1.37688337
VERTEX2 825 -7.03688433 -0.06442854 1.34708600
VERTEX2 826 -6.97975450 0.56270661 1.50985476
VERTEX2 827 -6.91574685 1.18154907 1.46105889
VERTEX2 828 -6.86056828 1.81679231 1.49667607
VERTEX2 829 -6.79896099 2.42348556 1.45701159
VERTEX2 830 -6.72338363 3.03549037 1.44876702
VERTEX2 831 -6.62851693 3.61580876 1.40205215
VERTEX2 832 -6.53764667 4.18181820 1.39855855
VERTEX2 833 -6.49305441 4.44017907 1.53630677
VERTEX2 834 -6.49576658 4.44981438 2.59127382
VERTEX2 835 -6.50885503 4.45132088 -2.91401547
VERTEX2 836 -6.51935664 4.44244121 -1.97067734
VERTEX2 837 -6.51646646 4.42674002 -0.93401348
VERTEX2 838 -6.50593610 4.42019266 -0.07156758
VERTEX2 839 -6.50637262 4.42040230 -0.28973123
VERTEX2 840 -6.49667631 4.41282111 -0.85221150
VERTEX2 841 -6.49016674 4.39978138 -1.46911751
VERTEX2 842 -6.51655001 4.14906708 -1.70022380
VERTEX2 843 -6.59503012 3.58202680 -1.70302681
VERTEX2 844 -6.67063273 2.95317553 -1.71130367
VERTEX2 845 -6.76505990 2.32462328 -1.72626498
VERTEX2 846 -6.85168329 1.69197523 -1.72474791
VERTEX2 847 -6.96251262 1.06687699 -1.75169393
VERTEX2 848 -6.99343799 0.87078411 -1.27152673
VERTEX2 849 -6.99927215 0.87297812 -0.34981186
VERTEX2 850 -6.65132086 0.86932747 0.00335006
VERTEX2 851 -6.03127117 0.84306636 -0.08930106
VERTEX2 852 -5.41408235 0.78192378 -0.07501532
VERTEX2 853 -4.81385979 0.73796743 -0.10309823
VERTEX2 854 -4.21999630 0.66828794 -0.10091682
VERTEX2 855 -3.61867879 0.61580997 -0.10251069
VERTEX2 856 -2.96561398 0.52967333 -0.14319852
VERTEX2 857 -2.31372697 0.43985365 -0.15274513
VERTEX2 858 -1.66829947 0.31763014 -0.20726112
VERTEX2 859 -1.15072358 0.21368087 -0.21412278
VERTEX2 860 -1.12493269 0.22428337 0.63665714
VERTEX2 861 -1.10928040 0.33416903 1.55143457
VERTEX2 862 -1.07043621 0.99392085 1.49180480
VERTEX2 863 -1.01253139 1.63820933 1.45931341
VERTEX2 864 -0.92499868 2.24839008 1.45719013
VERTEX2 865 -0.88317779 2.85986630 1.51480513
VERTEX2 866 -0.83791842 3.44581317 1.51367421
VERTEX2 867 -0.83026630 3.60989787 1.69487198
VERTEX2 868 -0.83776644 3.61940702 2.71862289
VERTEX2 869 -0.82755875 3.61953463 -2.58625326
VERTEX2 870 -0.80809599 3.62996841 -1.58683426
VERTEX2 871 -0.79367477 3.62016951 -0.61316380
VERTEX2 872 -0.77554554 3.60704515 0.07207820
VERTEX2 873 -0.74858330 3.59802382 -0.50051032
VERTEX2 874 -0.72758517 3.57900366 -1.06013555
VERTEX2 875 -0.72134859 3.56427570 -1.64666904
VERTEX2 876 -0.84210451 3.00842895 -1.80424430
VERTEX2 877 -0.99512699 2.46670104 -1.88890609
VERTEX2 878 -1.04597526 2.26709150 -1.50595854
VERTEX2 879 -0.94588038 1.62854742 -1.45493670
VERTEX2 880 -0.91106713 1.17952819 -1.56763365
VERTEX2 881 -0.91136235 1.22945463 -1.56229708
VERTEX2 882 -0.96896189 0.59009049 -1.80882894
VERTEX2 883 -1.18571540 -0.00468991 -1.99956065
VERTEX2 884 -1.34483758 -0.33655596 -2.06653366
VERTEX2 885 -1.34481645 -0.33644850 -1.48499521
VERTEX2 886 -1.32798538 -0.35227501 -0.46707367
VERTEX2 887 -1.29988684 -0.36326406 0.54416171
VERTEX2 888 -1.28985332 -0.34225884 1.52818318
VERTEX2 889 -1.29146906 -0.33759179 2.42616526
VERTEX2 890 -1.60500930 -0.18522078 2.70019023
VERTEX2 891 -2.14011704 0.08175995 2.62995562
VERTEX2 892 -2.67178250 0.40124798 2.59448187
VERTEX2 893 -3.22261795 0.69717268 2.83091937
VERTEX2 894 -3.83287891 0.80895875 3.05213211
VERTEX2 895 -4.42932577 0.76125879 -2.93259988
VERTEX2 896 -4.44682618 0.75709913 -2.45386863
VERTEX2 897 -4.73182330 0.33635367 -2.18168420
VERTEX2 898 -5.08233707 -0.17002395 -2.16611520
VERTEX2 899 -5.36770806 -0.57699042 -2.23378666
VERTEX2 900 -5.78031965 -1.11821809 -2.23611029
VERTEX2 901 -6.15108841 -1.55987576 -2.30040553
VERTEX2 902 -6.56652880 -2.04869267 -2.27508978
VERTEX2 903 -6.88162676 -2.42512572 -2.31976577
VERTEX2 904 -6.88220580 -2.42597313 -1.61653057
VERTEX2 905 -6.86939336 -2.91597125 -1.56101165
VERTEX2 906 -6.83670717 -3.48410557 -1.49523592
VERTEX2 907 -6.78181774 -4.05532494 -1.50335928
VERTEX2 908 -6.73666575 -4.67520308 -1.47851807
VERTEX2 909 -6.67738064 -5.28535156 -1.49644885
VERTEX2 910 -6.70490844 -5.41283717 -1.86635522
VERTEX2 911 -6.86549110 -5.98171734 -1.80548675
VERTEX2 912 -6.98667442 -6.54237867 -1.79287749
VERTEX2 913 -7.09893770 -7.08105623 -1.78495591
VERTEX2 914 -7.22516715 -7.66589986 -1.80862824
VERTEX2 915 -7.34867660 -8.17164709 -1.84535908
VERTEX2 916 -7.28503207 -8.41443560 -1.29785938
VERTEX2 917 -7.14713603 -9.06196990 -1.55230736
VERTEX2 918 -7.16785907 -9.57758523 -1.62786893
VERTEX2 919 -7.20209579 -10.19894057 -1.67121877
VERTEX2 920 -7.26710248 -10.81045364 -1.68884226
VERTEX2 921 -7.34091998 -11.42311487 -1.74223186
VERTEX2 922 -7.44380123 -12.02406337 -1.76949498
VERTEX2 923 -7.56485219 -12.58911241 -1.83287805
VERTEX2 924 -7.69723455 -13.08068491 -1.81628599
VERTEX2 925 -7.69868096 -13.07352293 -1.31166522
VERTEX2 926 -7.54035614 -13.63340004 -1.29550952
VERTEX2 927 -7.37527982 -14.22188716 -1.31885917
VERTEX2 928 -7.21926850 -14.82582851 -1.32782882
VERTEX2 929 -7.06977582 -15.42693694 -1.32876087
VERTEX2 930 -6.92358455 -16.05746350 -1.41144226
VERTEX2 931 -6.83842144 -16.68348149 -1.49176238
VERTEX2 932 -6.79339092 -17.31030674 -1.55127788
VERTEX2 933 -6.79108322 -17.92265202 -1.61593830
VERTEX2 934 -6.80658593 -18.40309925 -1.62580945
VERTEX2 935 -6.80404992 -18.41494010 -0.94377792
VERTEX2 936 -6.80314752 -18.41525869 0.00129714
VERTEX2 937 -6.26127988 -18.39121312 0.06414457
VERTEX2 938 -5.66563122 -18.40848850 -0.10930390
VERTEX2 939 -5.04232328 -18.46960241 -0.08162590
VERTEX2 940 -4.43126457 -18.54603828 -0.16739771
VERTEX2 941 -3.82757163 -18.66269949 -0.22097368
VERTEX2 942 -3.31006924 -18.77933276 -0.21641283
VERTEX2 943 -2.70212761 -18.91423367 -0.12801511
VERTEX2 944 -2.08993620 -18.99840870 -0.18461383
VERTEX2 945 -1.47109804 -19.12813287 -0.23968090
VERTEX2 946 -1.29871031 -19.17249635 -0.17529939
VERTEX2 947 -0.89159165 -19.11074294 0.15300856
VERTEX2 948 -0.32077876 -19.02316713 0.13392042
VERTEX2 949 0.28016037 -18.99024734 -0.02167538
VERTEX2 950 0.90815554 -19.02783924 -0.26112315
VERTEX2 951 1.50791809 -19.20157916 -0.33321974
VERTEX2 952 2.10738992 -19.37827843 -0.08236654
VERTEX2 953 2.73488215 -19.41121922 -0.00203975
VERTEX2 954 3.35542390 -19.40502326 -0.00892159
VERTEX2 955 3.94016566 -19.45103269 -0.16954969
VERTEX2 956 4.48569752 -19.52932764 -0.17169927
VERTEX2 957 5.01132704 -19.62484004 -0.25921736
VERTEX2 958 5.47046268 -19.73525098 -0.28577274
VERTEX2 959 5.91648849 -19.85978946 -0.35304365
VERTEX2 960 6.50450615 -20.02318364 -0.27325112
VERTEX2 961 7.08490627 -20.19791250 -0.30035548
VERTEX2 962 7.70096104 -20.32707573 -0.23481259
VERTEX2 963 8.31699794 -20.40857606 -0.04822266
VERTEX2 964 8.93755515 -20.45087808 -0.11216807
VERTEX2 965 9.55393115 -20.53065420 -0.11909396
VERTEX2 966 9.99621506 -20.58948308 -0.17805751
VERTEX2 967 10.02773061 -20.58311142 0.67537692
VERTEX2 968 10.03480710 -20.57642817 1.57214360
VERTEX2 969 10.03719159 -20.60438470 1.63161393
VERTEX2 970 10.03966548 -20.63262381 1.62988405
VERTEX2 971 10.01916500 -20.29965778 1.63001614
VERTEX2 972 9.98035726 -19.71340860 1.63562378
VERTEX2 973 10.05960018 -19.13186449 1.35058052
VERTEX2 974 10.19847412 -18.53081780 1.38234457
VERTEX2 975 10.30952845 -17.92563598 1.38688443
VERTEX2 976 10.41386919 -17.31779656 1.39970667
VERTEX2 977 10.54891850 -16.69756076 1.37339189
VERTEX2 978 10.66922825 -16.08320214 1.41927931
VERTEX2 979 10.78339261 -15.47250271 1.40687881
VERTEX2 980 10.87967355 -14.87275128 1.45366302
VERTEX2 981 10.96698953 -14.28346889 1.46039657
VERTEX2 982 11.02222963 -13.76046318 1.50512962
VERTEX2 983 11.07103836 -13.16283899 1.50182440
VERTEX2 984 11.09745366 -12.56743261 1.55925316
VERTEX2 985 11.10749860 -11.97089901 1.57956887
VERTEX2 986 11.09165828 -11.35047355 1.61591425
VERTEX2 987 11.07809045 -10.73155475 1.57920588
VERTEX2 988 11.07994614 -10.11314131 1.59287538
VERTEX2 989 11.06508594 -9.50052087 1.60057875
VERTEX2 990 11.05801600 -8.89119833 1.58987595
VERTEX2 991 11.04249094 -8.27844307 1.61480096
VERTEX2 992 11.03701411 -7.68946697 1.58198421
VERTEX2 993 11.02303458 -7.07103467 1.61452735
VERTEX2 994 11.00679179 -6.48912351 1.60443223
VERTEX2 995 10.97556305 -5.90091825 1.65172817
VERTEX2 996 10.91683967 -5.29788754 1.67889538
VERTEX2 997 10.87281808 -4.65610213 1.61454029
VERTEX2 998 10.85350338 -4.25647375 1.63646660
VERTEX2 999 10.88817491 -4.28454499 2.35450113
VERTEX2 1000 10.43290275 -3.93001659 2.50323238
VERTEX2 1001 10.00039965 -3.53576314 2.18239641
VERTEX2 1002 9.63903514 -3.07093674 2.27514866
VERTEX2 1003 9.29433350 -2.57900960 2.09565121
VERTEX2 1004 8.95607597 -2.04355831 2.15386364
VERTEX2 1005 8.60308397 -1.55036846 2.21626582
VERTEX2 1006 8.20791116 -1.07325079 2.29360716
VERTEX2 1007 7.79577052 -0.64795173 2.38522541
VERTEX2 1008 7.56058844 -0.43361726 2.54469601
VERTEX2 1009 7.46359767 -0.41893129 3.01749928
VERTEX2 1010 6.89738624 -0.36299924 3.06997764
VERTEX2 1011 6.28236008 -0.32349409 3.02676825
VERTEX2 1012 5.67344989 -0.25994789 3.06858538
VERTEX2 1013 5.03826165 -0.26202428 -3.09972586
VERTEX2 1014 4.42601506 -0.21347484 3.00807800
VERTEX2 1015 3.80179655 -0.17347332 3.09248908
VERTEX2 1016 3.03301177 -0.13492924 3.09918162
VERTEX2 1017 2.44924344 -0.12109109 3.04188471
VERTEX2 1018 1.89348429 -0.05890707 3.04903990
VERTEX2 1019 1.30027750 -0.03380614 3.10841881
VERTEX2 1020 0.68692364 0.00287422 3.09430162
VERTEX2 1021 0.06720591 0.03308217 3.05376414
VERTEX2 1022 0.01498860 0.03749239 3.04659701
VERTEX2 1023 0.02322284 0.03732081 3.13325877
VERTEX2 1024 -0.60237060 0.04610545 -3.12353243
VERTEX2 1025 -1.23014709 0.01665660 -3.10589859
VERTEX2 1026 -1.39020244 0.01144465 -3.09866337
VERTEX2 1027 -1.37282479 0.01993122 -2.18191534
VERTEX2 1028 -1.38609235 -0.14547163 -1.61831155
VERTEX2 1029 -1.41533841 -0.71070895 -1.63981243
VERTEX2 1030 -1.47944082 -1.33183164 -1.72005781
VERTEX2 1031 -1.59253808 -1.97666420 -1.77405464
VERTEX2 1032 -1.72341865 -2.62144716 -1.76988100
VERTEX2 1033 -1.86719900 -3.26493972 -1.81490081
VERTEX2 1034 -1.91175629 -3.43493494 -2.02850217
VERTEX2 1035 -1.91446424 -3.43723551 -2.64746904
VERTEX2 1036 -1.87918904 -3.45350416 3.06521898
VERTEX2 1037 -2.21467988 -3.32592496 2.82700678
VERTEX2 1038 -2.82133064 -3.20506828 2.91835957
VERTEX2 1039 -3.45511683 -3.03725196 2.88695522
VERTEX2 1040 -3.42451817 -3.03795401 -2.76580043
VERTEX2 1041 -3.39058659 -3.04236313 -1.74826811
VERTEX2 1042 -3.39247947 -3.07771298 -0.76188854
VERTEX2 1043 -3.35988769 -3.10772610 0.20620099
VERTEX2 1044 -3.37615991 -3.12685992 1.19847654
VERTEX2 1045 -3.38047992 -3.13631521 1.08414487
VERTEX2 1046 -3.39296155 -3.15300883 0.69813827
VERTEX2 1047 -3.41507359 -3.16255769 0.14177131
VERTEX2 1048 -3.05530437 -3.23261912 -0.17163880
VERTEX2 1049 -2.41283925 -3.33326834 -0.15472322
VERTEX2 1050 -1.76864007 -3.40641164 -0.07930666
VERTEX2 1051 -1.10903190 -3.48375769 -0.15861219
VERTEX2 1052 -0.48094299 -3.56865590 -0.10578934
VERTEX2 1053 -0.05930036 -3.62588536 -0.15852842
VERTEX2 1054 -0.02722888 -3.62945072 0.60298600
VERTEX2 1055 -0.02186192 -3.60487580 1.66037652
VERTEX2 1056 -0.01630185 -3.61288044 2.66470798
VERTEX2 1057 0.00256892 -3.61500900 -2.62839853
VERTEX2 1058 -0.00094179 -3.61908911 -1.70692676
VERTEX2 1059 -0.10202700 -4.20018911 -1.78783261
VERTEX2 1060 -0.24231022 -4.82865770 -1.78294655
VERTEX2 1061 -0.35214934 -5.27359805 -1.90560859
VERTEX2 1062 -0.35609558 -5.27959686 -2.46997421
VERTEX2 1063 -0.33518713 -5.26781385 -3.06784627
VERTEX2 1064 -0.61493232 -5.21330634 2.94999743
VERTEX2 1065 -1.20185346 -5.14232612 3.07189285
VERTEX2 1066 -1.76436754 -5.08612310 3.01571814
VERTEX2 1067 -1.74975056 -5.08546545 -2.83491688
VERTEX2 1068 -1.73761084 -5.07706965 -2.16228809
VERTEX2 1069 -1.73730376 -5.07626914 -1.99198863
VERTEX2 1070 -1.73622705 -5.07441927 -2.53108102
VERTEX2 1071 -2.21029297 -5.32723945 -2.65837195
VERTEX2 1072 -2.66239397 -5.55669683 -2.72710484
VERTEX2 1073 -2.63310552 -5.55616536 3.04478849
VERTEX2 1074 -3.16185982 -5.48018363 3.01052485
VERTEX2 1075 -3.73821292 -5.39948069 3.02720110
VERTEX2 1076 -3.75408835 -5.39825789 -2.85195532
VERTEX2 1077 -3.76527928 -5.41907525 -2.04648113
VERTEX2 1078 -4.00687363 -6.02378409 -2.00140119
VERTEX2 1079 -4.24246218 -6.58545712 -1.93936160
VERTEX2 1080 -4.24596045 -6.59459579 -2.42713864
VERTEX2 1081 -4.67243726 -6.88125911 -2.55048980
VERTEX2 1082 -4.83993400 -6.99625815 -2.27001851
VERTEX2 1083 -4.83623708 -7.02668035 -1.24037546
VERTEX2 1084 -4.76311690 -7.06512249 -0.27584430
VERTEX2 1085 -4.76842043 -7.06648253 0.70755065
VERTEX2 1086 -4.41052573 -6.58961245 0.93859635
VERTEX2 1087 -4.03340419 -6.09487656 0.92688447
VERTEX2 1088 -3.67174581 -5.59112355 0.91090991
VERTEX2 1089 -3.61532250 -5.51949824 0.81575664
VERTEX2 1090 -3.60532761 -5.51051514 0.20141563
VERTEX2 1091 -3.07045936 -5.48286221 0.02490065
VERTEX2 1092 -2.45444839 -5.47238653 0.01001643
VERTEX2 1093 -1.88864491 -5.47959492 -0.05478083
VERTEX2 1094 -1.87641073 -5.49141651 -0.45862141
VERTEX2 1095 -1.84657539 -5.51824870 -1.04803773
VERTEX2 1096 -1.84682768 -5.51721047 -1.61895892
VERTEX2 1097 -1.93189333 -5.84022563 -1.83422648
VERTEX2 1098 -2.11255109 -6.43421416 -1.89094473
VERTEX2 1099 -2.32218542 -6.98937235 -1.98692918
VERTEX2 1100 -2.32627261 -6.99947771 -1.62370383
VERTEX2 1101 -2.27048673 -7.25892636 -1.35769091
VERTEX2 1102 -2.27085178 -7.26281444 -1.75122842
VERTEX2 1103 -2.40171288 -7.86653508 -1.78492870
VERTEX2 1104 -2.54351075 -8.49649446 -1.81254050
VERTEX2 1105 -2.70229765 -9.11241011 -1.83034818
VERTEX2 1106 -2.83060501 -9.58344792 -1.85548819
VERTEX2 1107 -2.83033562 -9.58692505 -1.59923108
VERTEX2 1108 -2.80469423 -10.20880145 -1.59130215
VERTEX2 1109 -2.86320168 -10.84749395 -1.69512202
VERTEX2 1110 -2.94331469 -11.44975193 -1.74453476
VERTEX2 1111 -3.11704446 -11.97259693 -1.84568859
VERTEX2 1112 -3.15663822 -12.54675632 -1.49907792
VERTEX2 1113 -3.12736350 -13.18159658 -1.59432985
VERTEX2 1114 -3.14097881 -13.79358822 -1.57718938
VERTEX2 1115 -3.14167185 -14.37232394 -1.59327285
VERTEX2 1116 -3.13367154 -15.01628245 -1.55690957
VERTEX2 1117 -3.13153537 -15.10937981 -1.68455015
VERTEX2 1118 -3.12796726 -15.10282206 -2.29148929
VERTEX2 1119 -3.11597875 -15.09462896 -2.72292545
VERTEX2 1120 -3.67747255 -15.29600139 -2.78641855
VERTEX2 1121 -3.86477962 -15.36091315 -2.90485192
VERTEX2 1122 -3.86072906 -15.36232117 2.82829641
VERTEX2 1123 -4.40947912 -15.17507952 2.84535993
VERTEX2 1124 -4.96599224 -15.04417437 2.94427930
VERTEX2 1125 -5.59026092 -14.91638158 2.95794533
VERTEX2 1126 -5.66963037 -14.90331673 -2.98522222
VERTEX2 1127 -5.66685792 -14.90629386 -1.92734649
VERTEX2 1128 -5.66489134 -14.89685864 -0.93941621
VERTEX2 1129 -5.64853127 -14.90606023 0.07677262
VERTEX2 1130 -5.05757420 -14.84225795 0.09065336
VERTEX2 1131 -4.28337184 -14.96887826 -0.34079982
VERTEX2 1132 -3.67333615 -15.18744807 -0.36028867
VERTEX2 1133 -3.12741711 -15.41640498 -0.39879138
VERTEX2 1134 -2.87513209 -15.52296011 -0.49558745
VERTEX2 1135 -2.86587961 -15.53208642 -1.05121027
VERTEX2 1136 -2.86356143 -15.52726283 -1.61274900
VERTEX2 1137 -2.91745841 -15.82521373 -1.79651326
VERTEX2 1138 -3.07252240 -16.45357518 -1.81258221
VERTEX2 1139 -3.19229177 -16.94680588 -1.88543738
VERTEX2 1140 -3.18138832 -16.92084054 -2.36364846
VERTEX2 1141 -3.16162595 -16.90171755 -2.91076810
VERTEX2 1142 -3.52391019 -16.85747372 3.00830264
VERTEX2 1143 -4.12132709 -16.80920728 3.09781489
VERTEX2 1144 -4.70175827 -16.77333721 3.06729126
VERTEX2 1145 -5.27965740 -16.72620860 3.04190717
VERTEX2 1146 -5.85508375 -16.66741530 3.06172354
VERTEX2 1147 -6.43433796 -16.65568454 3.13449994
VERTEX2 1148 -7.01230778 -16.65136307 -3.13865370
VERTEX2 1149 -7.05454387 -16.65251811 -2.64040597
VERTEX2 1150 -7.14731091 -16.75494031 -1.83084181
VERTEX2 1151 -7.14490397 -16.76895579 -0.82673739
VERTEX2 1152 -7.12535703 -16.76933672 0.22669987
VERTEX2 1153 -7.10958669 -16.76225018 1.23978204
VERTEX2 1154 -7.16731112 -16.44773469 1.78593422
VERTEX2 1155 -7.29779857 -15.82554864 1.73663206
VERTEX2 1156 -7.39302671 -15.22116249 1.74657806
VERTEX2 1157 -7.51811973 -14.65116860 1.85758732
VERTEX2 1158 -7.64227325 -14.05018271 1.72891071
VERTEX2 1159 -7.70039179 -13.44930829 1.63493592
VERTEX2 1160 -7.72054277 -12.81189680 1.49826454
VERTEX2 1161 -7.61875274 -12.18261646 1.40864620
VERTEX2 1162 -7.52521551 -11.55302237 1.46683412
VERTEX2 1163 -7.46055324 -10.91243534 1.46145613
VERTEX2 1164 -7.41021187 -10.27381065 1.54699324
VERTEX2 1165 -7.39769662 -9.73281735 1.52440319
VERTEX2 1166 -7.39867422 -9.72799582 2.01388329
VERTEX2 1167 -7.34703334 -9.71550460 2.95146804
VERTEX2 1168 -7.30241962 -9.69776958 -2.42735764
VERTEX2 1169 -7.30619186 -9.74696651 -1.60620416
VERTEX2 1170 -7.31699823 -10.33028430 -1.59968414
VERTEX2 1171 -7.31766566 -10.96218108 -1.56810380
VERTEX2 1172 -7.32281494 -11.55818660 -1.63069494
VERTEX2 1173 -7.35394944 -12.18224005 -1.62187028
VERTEX2 1174 -7.39926217 -12.81172308 -1.69089297
VERTEX2 1175 -7.48717850 -13.42685252 -1.72455230
VERTEX2 1176 -7.58523199 -14.04649685 -1.76824055
VERTEX2 1177 -7.70532273 -14.65368677 -1.76623937
VERTEX2 1178 -7.83734676 -15.26424198 -1.81339023
VERTEX2 1179 -7.97515131 -15.86486048 -1.78426064
VERTEX2 1180 -8.02919451 -16.11485542 -1.79145714
VERTEX2 1181 -8.02783993 -16.10539787 -0.96486922
VERTEX2 1182 -7.96845619 -16.12071454 -0.25388201
VERTEX2 1183 -7.35168845 -16.27292118 -0.22881426
VERTEX2 1184 -6.72241634 -16.39014860 -0.15903976
VERTEX2 1185 -6.09802989 -16.50276688 -0.19107602
VERTEX2 1186 -5.47012397 -16.59983188 -0.12464254
VERTEX2 1187 -4.81992749 -16.68747975 -0.16150124
VERTEX2 1188 -4.19622948 -16.77921959 -0.14315776
VERTEX2 1189 -3.52757619 -16.88987113 -0.12147434
VERTEX2 1190 -3.19286752 -16.93145962 -0.11345540
VERTEX2 1191 -3.15827918 -16.93078571 0.80681961
VERTEX2 1192 -3.15288238 -16.85475740 1.60447426
VERTEX2 1193 -3.14545058 -16.26246706 1.47247333
VERTEX2 1194 -3.10394544 -15.69582324 1.51454581
VERTEX2 1195 -3.07502931 -15.07992876 1.56691580
VERTEX2 1196 -3.06856648 -14.46389267 1.39431442
VERTEX2 1197 -2.96570812 -13.85648944 1.40562296
VERTEX2 1198 -2.89550828 -13.23733365 1.66455754
VERTEX2 1199 -2.91206323 -12.63271740 1.44995585
VERTEX2 1200 -2.85518562 -12.01033151 1.51903552
VERTEX2 1201 -2.83052799 -11.39460607 1.57465586
VERTEX2 1202 -2.84077545 -10.77565389 1.59737966
VERTEX2 1203 -2.87098902 -10.18933565 1.50717184
VERTEX2 1204 -2.75716880 -9.60259388 1.36004410
VERTEX2 1205 -2.64901881 -9.04495380 1.38931470
VERTEX2 1206 -2.56330973 -8.45996012 1.45019879
VERTEX2 1207 -2.42584619 -7.85426479 1.36371015
VERTEX2 1208 -2.31272683 -7.23456563 1.42799024
VERTEX2 1209 -2.22461657 -6.61793389 1.42566793
VERTEX2 1210 -2.15820594 -6.00518945 1.44581849
VERTEX2 1211 -2.03096769 -5.39309513 1.37354749
VERTEX2 1212 -1.91518080 -4.78071626 1.42402711
VERTEX2 1213 -1.84723703 -4.16405625 1.49769141
VERTEX2 1214 -1.76524169 -3.43551165 1.27535746
VERTEX2 1215 -1.60161222 -2.85331048 1.33454973
VERTEX2 1216 -1.55135943 -2.29657191 1.55197847
VERTEX2 1217 -1.51749439 -1.71232351 1.53265426
VERTEX2 1218 -1.50323265 -1.12219213 1.48198526
VERTEX2 1219 -1.45202448 -0.47318419 1.51258326
VERTEX2 1220 -1.44453484 0.11387047 1.60332126
VERTEX2 1221 -1.44399307 0.11204112 1.15056826
VERTEX2 1222 -1.43400686 0.12174865 0.55326126
VERTEX2 1223 -1.42217059 0.12453956 -0.00636574
VERTEX2 1224 -0.84827918 0.03182046 -0.18927374
VERTEX2 1225 -0.23301914 -0.08206898 -0.17550974
VERTEX2 1226 -0.12817032 -0.10077297 -0.19224074
VERTEX2 1227 -0.12817032 -0.10077297 -0.19290274
