1 37 80 0.00050643 4 
2 11 107 0.00186449 10 
3 74 141 0.00226905 9 
4 19 166 0.00298547 10 
5 19 172 0.00313091 10 
6 25 172 0.00318499 10 
7 25 178 0.00328130 10 
8 32 178 0.00329304 10 
9 32 183 0.00338706 10 
10 33 185 0.00343239 10 
11 31 187 0.00348359 10 
12 44 189 0.00354533 10 
13 44 195 0.00366386 10 
14 50 195 0.00365137 10 
15 50 201 0.00378286 10 
16 50 203 0.00382937 10 
17 61 203 0.00384369 10 
18 115 204 0.00392742 10 
19 61 209 0.00403668 10 
20 67 209 0.00404065 10 
21 67 220 0.00425344 10 
22 81 220 0.00430202 10 
23 81 226 0.00439337 10 
24 87 226 0.00441810 10 
25 87 231 0.00451914 10 
26 94 231 0.00451828 10 
27 226 231 0.00453543 10 
28 120 236 0.00469603 10 
29 94 241 0.00482279 10 
30 101 241 0.00480326 10 
31 101 247 0.00492122 10 
32 107 247 0.00492984 10 
33 107 254 0.00504547 10 
34 114 254 0.00512298 10 
35 107 256 0.00517863 10 
36 114 256 0.00516658 10 
37 103 256 0.00520104 10 
38 107 258 0.00525244 10 
39 114 258 0.00524016 10 
40 121 266 0.00544877 10 
41 126 266 0.00546121 10 
42 126 272 0.00558684 10 
43 132 272 0.00559176 10 
44 255 273 0.00567117 10 
45 259 276 0.00574229 10 
46 132 278 0.00582820 10 
47 138 278 0.00583257 10 
48 138 284 0.00594384 10 
49 151 284 0.00604727 10 
50 151 291 0.00616073 10 
51 149 292 0.00618462 10 
52 89 293 0.00632513 10 
53 151 297 0.00638592 10 
54 157 297 0.00640223 10 
55 163 297 0.00641830 10 
56 166 297 0.00642168 10 
57 19 305 0.00660987 10 
58 157 305 0.00660671 10 
59 163 305 0.00662958 10 
60 166 305 0.00663518 10 
61 172 305 0.00666137 10 
62 144 305 0.00600443 9 
63 19 315 0.00667837 10 
64 25 315 0.00675633 10 
65 172 315 0.00687372 10 
66 230 321 0.00693959 10 
67 172 328 0.00632914 9 
68 156 330 0.00497165 7 
69 19 337 0.00580751 8 
70 25 337 0.00733873 10 
71 172 337 0.00751972 10 
72 37 337 0.00756899 10 
73 75 337 0.00757567 10 
74 19 342 0.00748215 10 
75 25 342 0.00752332 10 
76 172 342 0.00463062 6 
77 178 342 0.00755948 10 
78 104 343 0.00769062 10 
79 151 348 0.00779892 10 
80 25 367 0.00574689 7 
81 32 367 0.00741101 9 
82 178 367 0.00494345 6 
83 183 367 0.00835881 10 
84 132 373 0.00755882 9 
85 25 374 0.00855314 10 
86 32 374 0.00878707 10 
87 178 374 0.00613856 7 
88 183 374 0.00768600 9 
89 0 377 0.00520279 6 
90 366 381 0.00527204 6 
91 32 382 0.00713581 8 
92 183 382 0.00900385 10 
93 51 383 0.00935021 10 
94 32 387 0.00917507 10 
95 183 387 0.00639683 7 
96 148 390 0.00843453 9 
97 331 399 0.00862350 9 
98 189 400 0.00972425 10 
99 3 400 0.00791728 8 
100 198 409 0.01018906 10 
101 318 411 0.00928416 9 
102 189 414 0.01038241 10 
103 158 426 0.01065491 10 
104 44 437 0.01123314 10 
105 195 437 0.01131854 10 
106 167 451 0.01148648 10 
107 44 454 0.01156321 10 
108 189 454 0.01059836 9 
109 451 465 0.00816485 7 
110 44 467 0.01177000 10 
111 50 467 0.01059967 9 
112 195 467 0.00583517 5 
113 443 475 0.00833843 7 
114 304 476 0.01206712 10 
115 337 479 0.01216094 10 
116 195 484 0.00980561 8 
117 153 492 0.01256427 10 
118 44 494 0.01003798 8 
119 50 494 0.01269563 10 
120 195 494 0.01033546 8 
121 201 494 0.01140402 9 
122 50 500 0.01279513 10 
123 201 500 0.01151888 9 
124 203 500 0.01290629 10 
125 61 508 0.01337761 10 
126 203 508 0.01332108 10 
127 209 508 0.01088991 8 
128 324 514 0.01341510 10 
129 61 522 0.01349048 10 
130 203 522 0.01377169 10 
131 209 522 0.01379122 10 
132 430 524 0.01085627 8 
133 61 528 0.01092519 8 
134 67 528 0.01391078 10 
135 81 528 0.01425461 10 
136 209 528 0.01428008 10 
137 220 528 0.01434621 10 
138 75 528 0.01287815 9 
139 67 532 0.01142614 8 
140 81 532 0.01442729 10 
141 220 532 0.01451342 10 
142 182 537 0.01452042 10 
143 412 544 0.01308906 9 
144 537 545 0.00577156 4 
145 131 548 0.01352411 9 
146 255 550 0.01541551 10 
147 67 556 0.01567324 10 
148 18 563 0.01594370 10 
149 67 564 0.01597480 10 
150 81 564 0.01621707 10 
151 220 564 0.01594194 10 
152 67 567 0.01613985 10 
153 81 567 0.01665735 10 
154 220 567 0.01639863 10 
155 67 570 0.01619046 10 
156 81 570 0.01647806 10 
157 220 570 0.01648240 10 
158 140 571 0.01665127 10 
159 81 575 0.01655042 10 
160 220 575 0.01676479 10 
161 364 584 0.01710571 10 
162 81 588 0.01692925 10 
163 87 588 0.01748593 10 
164 226 588 0.01731792 10 
165 252 588 0.01752204 10 
166 283 588 0.01895402 10 
167 14 589 0.01765025 10 
168 441 590 0.01794294 10 
169 87 597 0.01834695 10 
170 94 597 0.01859861 10 
171 226 597 0.01822608 10 
172 352 600 0.01850082 10 
173 447 600 0.01851031 10 
174 87 604 0.01824296 10 
175 94 604 0.01871824 10 
176 347 611 0.01920029 10 
177 94 616 0.01938115 10 
178 192 617 0.01983759 10 
179 295 623 0.01952763 10 
180 451 628 0.01993792 10 
181 94 632 0.02001753 10 
182 216 634 0.02011209 10 
183 94 637 0.02019170 10 
184 101 637 0.02071735 10 
185 471 640 0.02096705 10 
186 588 641 0.02097089 10 
187 101 642 0.02136725 10 
188 107 642 0.02139638 10 
189 619 643 0.02128626 10 
190 101 645 0.02098519 10 
191 107 645 0.02134044 10 
192 300 646 0.02172629 10 
193 147 650 0.02163123 10 
194 101 657 0.02161379 10 
195 164 657 0.02235807 10 
196 281 661 0.02264315 10 
197 101 663 0.01531024 7 
198 107 663 0.02204469 10 
199 114 663 0.02242109 10 
200 101 665 0.02218155 10 
201 107 665 0.02249155 10 
202 114 665 0.02251295 10 
203 594 666 0.02231060 10 
204 146 672 0.02264823 10 
205 428 672 0.02326497 10 
206 107 680 0.02305796 10 
207 517 681 0.02371649 10 
208 107 683 0.02376309 10 
209 114 683 0.02387267 10 
210 559 686 0.02389197 10 
211 204 688 0.02448255 10 
212 276 688 0.02509680 10 
213 10 692 0.02434065 10 
214 52 700 0.02454263 10 
215 107 704 0.02474567 10 
216 114 704 0.02504257 10 
217 489 704 0.02582192 10 
218 107 714 0.02561615 10 
219 114 714 0.02556012 10 
220 438 717 0.02538257 10 
221 489 725 0.02615869 10 
222 255 729 0.02035841 8 
223 107 730 0.02293448 9 
224 114 730 0.02559045 10 
225 492 736 0.02644981 10 
226 444 736 0.02715267 10 
227 89 748 0.02760180 10 
228 582 749 0.02818345 10 
229 121 754 0.02769102 10 
230 126 754 0.02804635 10 
231 500 757 0.02863988 10 
232 121 759 0.02904427 10 
233 126 759 0.02910015 10 
234 126 762 0.02874856 10 
235 132 762 0.02934074 10 
236 683 762 0.02908500 10 
237 638 762 0.02940672 10 
238 147 769 0.02598766 9 
239 132 778 0.02025782 7 
240 116 778 0.02933339 10 
241 489 779 0.02969332 10 
242 515 779 0.02988762 10 
243 164 789 0.02998173 10 
244 132 792 0.02995038 10 
245 99 795 0.03010744 10 
246 132 800 0.03025659 10 
247 138 800 0.03052728 10 
248 340 802 0.03035445 10 
249 576 805 0.03143537 10 
250 138 806 0.03073851 10 
251 93 811 0.03068571 10 
252 138 821 0.03010653 10 
253 64 822 0.03035448 10 
254 138 823 0.03071695 10 
255 368 825 0.03127193 10 
256 151 828 0.03110150 10 
257 666 830 0.03078257 10 
258 40 834 0.03100412 10 
259 164 840 0.03118073 10 
260 293 844 0.02471580 8 
261 151 847 0.02796411 9 
262 536 847 0.03149497 10 
263 306 852 0.03159386 10 
264 151 855 0.02513287 8 
265 214 857 0.03246134 10 
266 18 877 0.03235683 10 
267 88 885 0.03276312 10 
268 464 892 0.03308389 10 
269 151 895 0.03316453 10 
270 619 895 0.03379237 10 
271 151 897 0.02987035 9 
272 137 897 0.03324748 10 
273 706 897 0.03367427 10 
274 138 903 0.03385535 10 
275 138 904 0.03431800 10 
276 237 906 0.03392216 10 
277 132 907 0.03443728 10 
278 138 907 0.03447979 10 
279 132 911 0.03406541 10 
280 354 912 0.03424714 10 
281 738 913 0.03428730 10 
282 883 915 0.03087122 9 
283 679 919 0.03466146 10 
284 121 923 0.03505902 10 
285 126 923 0.03551395 10 
286 159 925 0.03560819 10 
287 147 927 0.03559979 10 
288 107 929 0.03597719 10 
289 114 929 0.03645075 10 
290 256 934 0.03223635 9 
291 107 935 0.03603772 10 
292 114 935 0.03655254 10 
293 101 939 0.03599280 10 
294 107 939 0.03234163 9 
295 161 942 0.03648762 10 
296 322 943 0.03673592 10 
297 101 944 0.03744206 10 
298 94 947 0.03678763 10 
299 101 947 0.03726389 10 
300 87 953 0.03686943 10 
301 94 953 0.03794766 10 
302 226 953 0.03715286 10 
303 390 954 0.03633349 10 
304 81 959 0.03613126 10 
305 87 959 0.03664684 10 
306 220 959 0.03703204 10 
307 226 959 0.03701813 10 
308 38 964 0.03675373 10 
309 67 965 0.03719210 10 
310 81 965 0.03732809 10 
311 220 965 0.03794747 10 
312 270 967 0.03762043 10 
313 75 973 0.03739798 10 
314 61 976 0.03762743 10 
315 67 976 0.03792352 10 
316 209 976 0.03802547 10 
317 890 976 0.03857902 10 
318 50 982 0.03791071 10 
319 61 982 0.03844108 10 
320 201 982 0.03847778 10 
321 203 982 0.03833755 10 
322 268 982 0.03814287 10 
323 44 988 0.03827921 10 
324 50 988 0.02707781 7 
325 195 988 0.03040521 8 
326 201 988 0.02655410 7 
327 10 989 0.03968084 10 
328 681 992 0.03960215 10 
329 44 994 0.04018490 10 
330 189 994 0.04042745 10 
331 195 994 0.04024847 10 
332 270 998 0.03978171 10 
333 32 1003 0.03995513 10 
334 178 1003 0.04011362 10 
335 183 1003 0.04066545 10 
336 25 1008 0.04018959 10 
337 32 1008 0.04073347 10 
338 178 1008 0.04073230 10 
339 183 1008 0.04074855 10 
340 25 1010 0.04024159 10 
341 32 1010 0.04084520 10 
342 172 1010 0.04084934 10 
343 178 1010 0.04129016 10 
344 745 1013 0.03689626 9 
345 19 1016 0.04131183 10 
346 166 1016 0.04173307 10 
347 172 1016 0.04173787 10 
348 114 1021 0.03716256 9 
349 352 1021 0.02882098 7 
350 373 1026 0.02473091 6 
351 151 1029 0.04150821 10 
352 157 1029 0.04250750 10 
353 163 1029 0.04269352 10 
354 166 1029 0.04292710 10 
355 245 1029 0.04306176 10 
356 286 1029 0.02979088 7 
357 926 1033 0.04233777 10 
358 551 1034 0.04278853 10 
359 1017 1034 0.04371412 10 
360 911 1046 0.04311239 10 
361 210 1048 0.04394540 10 
362 1023 1054 0.03488654 8 
363 402 1054 0.04451745 10 
364 1026 1063 0.04463869 10 
365 279 1066 0.04512941 10 
366 386 1070 0.04523727 10 
367 138 1073 0.04440633 10 
368 754 1074 0.04684982 10 
369 821 1074 0.04667540 10 
370 781 1074 0.04649996 10 
371 962 1082 0.04618932 10 
372 132 1084 0.04603551 10 
373 203 1088 0.04612897 10 
374 1030 1090 0.04706597 10 
375 1029 1092 0.04718068 10 
376 440 1097 0.04673460 10 
377 918 1101 0.04686170 10 
378 1084 1103 0.04844210 10 
379 459 1103 0.04815216 10 
380 516 1107 0.04814298 10 
381 835 1111 0.04939242 10 
382 965 1115 0.04945215 10 
383 1030 1117 0.04965324 10 
384 324 1120 0.04921249 10 
385 980 1121 0.04953099 10 
386 257 1122 0.05022224 10 
387 20 1131 0.05049734 10 
388 95 1134 0.05111531 10 
389 354 1135 0.05063623 10 
390 80 1136 0.05166557 10 
391 101 1138 0.05046078 10 
392 49 1139 0.05119701 10 
393 968 1139 0.05057298 10 
394 373 1140 0.05088828 10 
395 107 1147 0.05039372 10 
396 114 1147 0.05103436 10 
397 107 1150 0.05051257 10 
398 114 1150 0.05119345 10 
399 1145 1150 0.05111890 10 
400 786 1154 0.05170471 10 
401 1001 1155 0.05217073 10 
402 114 1158 0.05175845 10 
403 121 1158 0.05215591 10 
404 190 1159 0.05261183 10 
405 944 1160 0.05313876 10 
406 176 1160 0.05338027 10 
407 108 1163 0.05294801 10 
408 540 1163 0.05278188 10 
409 121 1164 0.05245884 10 
410 126 1164 0.05322989 10 
411 444 1166 0.07504986 10 
412 999 1168 0.05268948 10 
413 114 1175 0.05288027 10 
414 121 1175 0.05349724 10 
415 923 1175 0.05363194 10 
416 929 1175 0.05555340 10 
417 1158 1175 0.04380110 8 
418 94 1177 0.05413360 10 
419 724 1177 0.04352790 8 
420 987 1178 0.05534106 10 
421 456 1180 0.05517883 10 
422 339 1181 0.05802649 10 
423 753 1183 0.05644065 10 
424 718 1187 0.05691754 10 
425 101 1188 0.05787506 10 
426 939 1188 0.05697956 10 
427 1138 1188 0.05818600 10 
428 1147 1188 0.05773984 10 
429 1150 1188 0.05774649 10 
430 304 1191 0.05744905 10 
431 742 1192 0.05837094 10 
432 752 1193 0.05802059 10 
433 42 1196 0.05885683 10 
434 894 1205 0.05805235 10 
435 261 1208 0.06025803 10 
436 1050 1210 0.06134063 10 
437 1061 1210 0.06220108 10 
438 1075 1210 0.06145948 10 
439 1084 1210 0.06142989 10 
440 1088 1210 0.06021537 10 
441 1093 1210 0.06021792 10 
442 1098 1210 0.06024781 10 
443 811 1211 0.05963539 10 
444 335 1213 0.06131171 10 
445 157 1217 0.06138823 10 
446 163 1217 0.06223033 10 
447 1029 1217 0.06230542 10 
448 1044 1217 0.06270162 10 
449 1050 1217 0.06266352 10 
450 1056 1217 0.06309725 10 
451 135 1219 0.06409483 10 
452 928 1220 0.06442544 10 
453 880 1220 0.06659112 10 
454 277 1222 0.06433489 10 
455 1032 1223 0.06565070 10 
456 1142 1224 0.06497483 10 
