1 67 86 0.00037228 3 
2 19 166 0.00287027 10 
3 19 172 0.00305386 10 
4 25 172 0.00312995 10 
5 25 178 0.00331502 10 
6 32 178 0.00332043 10 
7 32 183 0.00335293 10 
8 44 189 0.00346278 10 
9 44 195 0.00358174 10 
10 50 195 0.00357562 10 
11 50 201 0.00377468 10 
12 50 203 0.00382936 10 
13 61 203 0.00382500 10 
14 61 209 0.00384460 10 
15 67 209 0.00385564 10 
16 67 220 0.00407362 10 
17 81 220 0.00404893 10 
18 81 226 0.00416980 10 
19 87 226 0.00416848 10 
20 87 231 0.00428931 10 
21 94 231 0.00431113 10 
22 226 231 0.00430895 10 
23 94 241 0.00453872 10 
24 101 241 0.00452133 10 
25 101 247 0.00465318 10 
26 107 247 0.00464579 10 
27 107 254 0.00477248 10 
28 114 254 0.00478270 10 
29 107 256 0.00483006 10 
30 114 256 0.00484272 10 
31 107 258 0.00488311 10 
32 114 258 0.00488606 10 
33 121 266 0.00501674 10 
34 126 266 0.00506620 10 
35 126 272 0.00517926 10 
36 132 272 0.00520652 10 
37 132 278 0.00530771 10 
38 138 278 0.00531424 10 
39 138 284 0.00542946 10 
40 151 284 0.00544735 10 
41 151 291 0.00558096 10 
42 151 297 0.00569100 10 
43 157 297 0.00568506 10 
44 163 297 0.00570263 10 
45 166 297 0.00570451 10 
46 19 305 0.00598545 10 
47 157 305 0.00601130 10 
48 163 305 0.00603602 10 
49 166 305 0.00603404 10 
50 172 305 0.00601244 10 
51 19 315 0.00544126 9 
52 25 315 0.00609574 10 
53 172 315 0.00627048 10 
54 172 328 0.00631238 10 
55 19 337 0.00584104 9 
56 25 337 0.00675430 10 
57 172 337 0.00671468 10 
58 19 342 0.00661509 10 
59 25 342 0.00668006 10 
60 172 342 0.00344719 5 
61 178 342 0.00670867 10 
62 25 367 0.00421936 6 
63 32 367 0.00423177 6 
64 178 367 0.00423900 6 
65 183 367 0.00497362 7 
66 25 374 0.00728573 10 
67 32 374 0.00734386 10 
68 178 374 0.00527007 7 
69 183 374 0.00659522 9 
70 32 382 0.00596906 8 
71 183 382 0.00753787 10 
72 32 387 0.00758746 10 
73 183 387 0.00451273 6 
74 189 400 0.00792036 10 
75 189 414 0.00819625 10 
76 44 437 0.00866177 10 
77 195 437 0.00929405 10 
78 44 454 0.00896984 10 
79 189 454 0.00920073 10 
80 44 467 0.00922368 10 
81 50 467 0.00948929 10 
82 195 467 0.00949683 10 
83 62 467 0.00949724 10 
84 195 484 0.00959933 10 
85 44 494 0.00774118 8 
86 50 494 0.00979901 10 
87 195 494 0.01004118 10 
88 201 494 0.01005477 10 
89 50 500 0.00995168 10 
90 201 500 0.01019313 10 
91 203 500 0.01025975 10 
92 61 508 0.01013619 10 
93 203 508 0.01043240 10 
94 209 508 0.01043405 10 
95 333 515 0.01037442 10 
96 61 522 0.01053653 10 
97 203 522 0.01077356 10 
98 209 522 0.01083573 10 
99 61 528 0.01069324 10 
100 67 528 0.01095977 10 
101 81 528 0.01102106 10 
102 209 528 0.01102939 10 
103 220 528 0.01101243 10 
104 67 532 0.00970139 9 
105 81 532 0.01087464 10 
106 220 532 0.01115709 10 
107 67 556 0.01133051 10 
108 67 564 0.01148118 10 
109 81 564 0.01177760 10 
110 220 564 0.01170561 10 
111 67 567 0.01158815 10 
112 81 567 0.01186555 10 
113 220 567 0.01186767 10 
114 67 570 0.01164457 10 
115 81 570 0.01195595 10 
116 220 570 0.01194922 10 
117 81 575 0.01205289 10 
118 220 575 0.01208236 10 
119 81 588 0.01205872 10 
120 87 588 0.01236533 10 
121 226 588 0.01236773 10 
122 87 597 0.01223500 10 
123 94 597 0.01259264 10 
124 226 597 0.01261278 10 
125 87 604 0.01245022 10 
126 94 604 0.01275924 10 
127 94 616 0.01004769 8 
128 94 632 0.01299542 10 
129 94 637 0.01310883 10 
130 101 637 0.01343844 10 
131 101 642 0.01322323 10 
132 107 642 0.01360330 10 
133 101 645 0.01334557 10 
134 107 645 0.01366796 10 
135 101 657 0.01356887 10 
136 101 663 0.01358743 10 
137 107 663 0.01369879 10 
138 114 663 0.01423998 10 
139 101 665 0.01400949 10 
140 107 665 0.01432859 10 
141 114 665 0.01412544 10 
142 107 680 0.01406837 10 
143 107 683 0.01413917 10 
144 114 683 0.01448299 10 
145 107 704 0.01455601 10 
146 114 704 0.01489674 10 
147 107 714 0.01477080 10 
148 114 714 0.01509224 10 
149 120 723 0.01488721 10 
150 107 730 0.01038203 7 
151 114 730 0.01503430 10 
152 76 751 0.01560814 10 
153 121 754 0.01561393 10 
154 126 754 0.01606527 10 
155 121 759 0.01578945 10 
156 126 759 0.01617733 10 
157 692 761 0.01589854 10 
158 126 762 0.01594193 10 
159 132 762 0.01644898 10 
160 132 778 0.01635648 10 
161 188 790 0.01666115 10 
162 132 792 0.01670647 10 
163 132 800 0.01685538 10 
164 138 800 0.01731284 10 
165 138 806 0.01703169 10 
166 138 821 0.01732297 10 
167 138 823 0.01726135 10 
168 151 828 0.01748259 10 
169 151 847 0.01785253 10 
170 151 855 0.01797922 10 
171 671 857 0.01828872 10 
172 660 863 0.01839879 10 
173 151 895 0.01903747 10 
174 151 897 0.01934138 10 
175 138 903 0.01920044 10 
176 138 904 0.01966249 10 
177 132 907 0.01932174 10 
178 138 907 0.02150438 10 
179 266 909 0.01962310 10 
180 132 911 0.01946990 10 
181 355 911 0.02007514 10 
182 121 923 0.01992184 10 
183 126 923 0.02030117 10 
184 107 929 0.01999698 10 
185 114 929 0.02047227 10 
186 107 935 0.02013972 10 
187 114 935 0.02059352 10 
188 101 939 0.02016943 10 
189 107 939 0.01812504 9 
190 101 944 0.02037654 10 
191 94 947 0.02052121 10 
192 101 947 0.02099545 10 
193 154 948 0.02062493 10 
194 87 953 0.02072864 10 
195 94 953 0.02119580 10 
196 226 953 0.02121820 10 
197 81 959 0.02086888 10 
198 87 959 0.02135970 10 
199 220 959 0.02149905 10 
200 226 959 0.02153587 10 
201 67 965 0.02115614 10 
202 81 965 0.02167531 10 
203 220 965 0.02168728 10 
204 61 976 0.02142272 10 
205 67 976 0.02191188 10 
206 209 976 0.02193022 10 
207 50 982 0.02168795 10 
208 61 982 0.02220559 10 
209 201 982 0.02230153 10 
210 203 982 0.02221644 10 
211 421 987 0.02184656 10 
212 44 988 0.02242284 10 
213 50 988 0.02243652 10 
214 195 988 0.02244544 10 
215 201 988 0.02011668 9 
216 44 994 0.02214247 10 
217 189 994 0.02263478 10 
218 195 994 0.02263177 10 
219 32 1003 0.02239592 10 
220 178 1003 0.02285918 10 
221 183 1003 0.02296958 10 
222 25 1008 0.02258904 10 
223 32 1008 0.02311626 10 
224 178 1008 0.02311743 10 
225 183 1008 0.02311593 10 
226 25 1010 0.02267428 10 
227 32 1010 0.02317728 10 
228 172 1010 0.02329222 10 
229 178 1010 0.02320472 10 
230 19 1016 0.02286522 10 
231 166 1016 0.02344415 10 
232 172 1016 0.02101515 9 
233 151 1029 0.02330560 10 
234 157 1029 0.02373514 10 
235 163 1029 0.02372782 10 
236 166 1029 0.02375234 10 
237 882 1042 0.01638328 7 
238 337 1077 0.02432319 10 
239 132 1084 0.02457958 10 
240 1089 1101 0.00968893 4 
241 188 1102 0.02487119 10 
242 672 1118 0.02527613 10 
243 497 1123 0.02573460 10 
244 370 1136 0.02600220 10 
245 101 1138 0.02625759 10 
246 107 1147 0.02669323 10 
247 114 1147 0.02736527 10 
248 982 1149 0.02679615 10 
249 107 1150 0.02680501 10 
250 114 1150 0.02742014 10 
251 722 1156 0.02702049 10 
252 114 1158 0.02711616 10 
253 121 1158 0.02767981 10 
254 121 1164 0.02727222 10 
255 126 1164 0.02789983 10 
256 114 1175 0.02752318 10 
257 121 1175 0.02814208 10 
258 923 1175 0.02814996 10 
259 929 1175 0.02821625 10 
260 1158 1175 0.01970150 7 
261 101 1188 0.02791942 10 
262 939 1188 0.02846062 10 
263 1138 1188 0.02827921 10 
264 1147 1188 0.02850219 10 
265 1150 1188 0.02861092 10 
266 62 1192 0.02828677 10 
267 666 1201 0.02841420 10 
268 1050 1210 0.02926020 10 
269 1061 1210 0.02925852 10 
270 1075 1210 0.02930901 10 
271 1084 1210 0.02926797 10 
272 1088 1210 0.02930389 10 
273 1093 1210 0.02995204 10 
274 1098 1210 0.02991959 10 
275 157 1217 0.02966411 10 
276 163 1217 0.03019348 10 
277 1029 1217 0.03138269 10 
278 1044 1217 0.03022079 10 
279 1050 1217 0.03024683 10 
280 1056 1217 0.03024471 10 
281 953 1227 0.03022697 10 
