1 62 66 0.00026670 3 
2 64 138 0.00132713 6 
3 19 166 0.00290627 10 
4 19 172 0.00308533 10 
5 25 172 0.00312542 10 
6 25 178 0.00323844 10 
7 32 178 0.00325118 10 
8 32 183 0.00334934 10 
9 44 189 0.00347014 10 
10 172 189 0.00348875 10 
11 44 195 0.00360011 10 
12 50 195 0.00360431 10 
13 50 201 0.00372378 10 
14 50 203 0.00382922 10 
15 61 203 0.00378660 10 
16 61 209 0.00390573 10 
17 67 209 0.00394212 10 
18 195 218 0.00411538 10 
19 67 220 0.00423569 10 
20 81 220 0.00418229 10 
21 81 226 0.00430762 10 
22 87 226 0.00430337 10 
23 87 231 0.00439935 10 
24 94 231 0.00438158 10 
25 226 231 0.00441814 10 
26 94 241 0.00460765 10 
27 101 241 0.00460779 10 
28 101 247 0.00469956 10 
29 107 247 0.00471706 10 
30 107 254 0.00484813 10 
31 114 254 0.00485138 10 
32 107 256 0.00493550 10 
33 114 256 0.00492578 10 
34 107 258 0.00494848 10 
35 114 258 0.00497019 10 
36 212 262 0.00511790 10 
37 121 266 0.00520388 10 
38 126 266 0.00522084 10 
39 126 272 0.00533581 10 
40 132 272 0.00540273 10 
41 223 275 0.00554117 10 
42 132 278 0.00562135 10 
43 138 278 0.00560003 10 
44 138 284 0.00570402 10 
45 151 284 0.00583028 10 
46 151 291 0.00595260 10 
47 151 297 0.00607452 10 
48 157 297 0.00603753 10 
49 163 297 0.00607489 10 
50 166 297 0.00608180 10 
51 90 297 0.00616425 10 
52 19 305 0.00635380 10 
53 157 305 0.00752870 10 
54 163 305 0.00639952 10 
55 166 305 0.00638280 10 
56 172 305 0.00636570 10 
57 19 315 0.00573530 9 
58 25 315 0.00642429 10 
59 172 315 0.00660124 10 
60 172 328 0.00665995 10 
61 19 337 0.00542681 8 
62 25 337 0.00688300 10 
63 172 337 0.00704041 10 
64 19 342 0.00694711 10 
65 25 342 0.00701167 10 
66 172 342 0.00361448 5 
67 178 342 0.00706779 10 
68 337 347 0.00424785 6 
69 151 355 0.00657447 9 
70 168 361 0.00442607 6 
71 25 367 0.00449546 6 
72 32 367 0.00571621 7 
73 178 367 0.00529597 7 
74 183 367 0.00528593 7 
75 25 374 0.00771954 10 
76 32 374 0.00777525 10 
77 178 374 0.00557644 7 
78 183 374 0.00698076 9 
79 32 382 0.00631302 8 
80 183 382 0.00795458 10 
81 32 387 0.00802386 10 
82 183 387 0.00480407 6 
83 189 400 0.00832089 10 
84 39 410 0.00681500 8 
85 189 414 0.00868014 10 
86 404 418 0.00879011 10 
87 44 437 0.00913476 10 
88 195 437 0.00934915 10 
89 44 454 0.00946066 10 
90 189 454 0.00968952 10 
91 44 467 0.00970015 10 
92 50 467 0.00992954 10 
93 195 467 0.00499565 5 
94 195 484 0.00898509 9 
95 44 494 0.00709846 7 
96 50 494 0.01027974 10 
97 195 494 0.01049747 10 
98 201 494 0.01053451 10 
99 50 500 0.01302484 10 
100 201 500 0.01138936 10 
101 203 500 0.01065671 10 
102 61 508 0.01058692 10 
103 203 508 0.01087748 10 
104 209 508 0.01084466 10 
105 2 516 0.01087604 10 
106 61 522 0.01101895 10 
107 203 522 0.01128191 10 
108 209 522 0.01133699 10 
109 61 528 0.01114970 10 
110 67 528 0.01146690 10 
111 81 528 0.01145297 10 
112 209 528 0.01146709 10 
113 220 528 0.01146909 10 
114 67 532 0.00781157 7 
115 81 532 0.01128609 10 
116 220 532 0.01159446 10 
117 169 544 0.01175432 10 
118 279 544 0.01196965 10 
119 304 545 0.01047285 9 
120 100 547 0.01209405 10 
121 425 554 0.01209206 10 
122 67 556 0.01218702 10 
123 67 564 0.01232612 10 
124 81 564 0.01268366 10 
125 220 564 0.01259737 10 
126 67 567 0.01247983 10 
127 81 567 0.01276258 10 
128 220 567 0.01277755 10 
129 385 569 0.01284528 10 
130 67 570 0.01280562 10 
131 81 570 0.01310611 10 
132 220 570 0.01311956 10 
133 81 575 0.01322488 10 
134 220 575 0.01326833 10 
135 306 581 0.01363431 10 
136 81 588 0.01337646 10 
137 87 588 0.01384367 10 
138 226 588 0.01385848 10 
139 87 597 0.01379806 10 
140 94 597 0.01400051 10 
141 226 597 0.01402297 10 
142 87 604 0.01387844 10 
143 94 604 0.01416458 10 
144 94 616 0.01117332 8 
145 104 622 0.01421542 10 
146 94 632 0.01450770 10 
147 94 633 0.01783983 10 
148 94 637 0.01461635 10 
149 101 637 0.01495625 10 
150 101 642 0.01482564 10 
151 107 642 0.01503998 10 
152 101 645 0.01479548 10 
153 107 645 0.01514419 10 
154 302 646 0.01531950 10 
155 225 655 0.01512439 10 
156 101 657 0.01516482 10 
157 101 663 0.01211187 8 
158 107 663 0.01543516 10 
159 114 663 0.01402911 9 
160 101 665 0.01536572 10 
161 107 665 0.01970956 10 
162 114 665 0.02115856 10 
163 451 665 0.01891070 10 
164 274 665 0.01613973 10 
165 524 665 0.01608354 10 
166 588 666 0.01610677 10 
167 107 680 0.01826627 10 
168 107 683 0.01604601 10 
169 114 683 0.01639936 10 
170 624 694 0.01623440 10 
171 107 704 0.01651399 10 
172 114 704 0.01689446 10 
173 107 714 0.01677951 10 
174 114 714 0.01717119 10 
175 96 728 0.01705773 10 
176 107 730 0.01530638 9 
177 114 730 0.01359315 8 
178 121 754 0.01770113 10 
179 126 754 0.01807384 10 
180 121 759 0.01780068 10 
181 126 759 0.02084800 10 
182 126 762 0.01789897 10 
183 132 762 0.01830703 10 
184 132 778 0.01627822 9 
185 132 792 0.01847813 10 
186 718 797 0.01869795 10 
187 132 800 0.02107423 10 
188 138 800 0.02140174 10 
189 138 806 0.01900778 10 
190 236 808 0.01926252 10 
191 181 812 0.01935835 10 
192 696 817 0.01976833 10 
193 138 821 0.01973308 10 
194 138 823 0.01977258 10 
195 151 828 0.02008076 10 
196 147 833 0.01399486 7 
197 834 842 0.00592925 3 
198 151 847 0.02045936 10 
199 594 852 0.02574817 10 
200 151 855 0.02064506 10 
201 573 869 0.02131530 10 
202 151 895 0.02181892 10 
203 151 897 0.02228146 10 
204 546 900 0.02191956 10 
205 138 903 0.02200315 10 
206 138 904 0.02198602 10 
207 132 907 0.02224712 10 
208 138 907 0.02274411 10 
209 379 907 0.02284870 10 
210 132 911 0.02258773 10 
211 121 923 0.02546836 10 
212 126 923 0.02320113 10 
213 798 923 0.02329224 10 
214 107 929 0.02307611 10 
215 114 929 0.02357263 10 
216 107 935 0.02321149 10 
217 114 935 0.02368926 10 
218 625 937 0.02320627 10 
219 101 939 0.02090597 9 
220 107 939 0.01856189 8 
221 101 944 0.02334948 10 
222 94 947 0.02397098 10 
223 101 947 0.02403575 10 
224 87 953 0.02375098 10 
225 94 953 0.02422619 10 
226 226 953 0.02424822 10 
227 81 959 0.02404693 10 
228 87 959 0.02444162 10 
229 220 959 0.02817549 10 
230 226 959 0.02452697 10 
231 67 965 0.02428122 10 
232 81 965 0.02479899 10 
233 220 965 0.02476829 10 
234 61 976 0.02475104 10 
235 67 976 0.02519307 10 
236 209 976 0.02508503 10 
237 50 982 0.02493604 10 
238 61 982 0.02529116 10 
239 201 982 0.02529917 10 
240 203 982 0.01781603 7 
241 44 988 0.02513394 10 
242 50 988 0.02042432 8 
243 195 988 0.02514058 10 
244 201 988 0.01792128 7 
245 44 994 0.02527430 10 
246 189 994 0.02990688 10 
247 195 994 0.02589882 10 
248 887 999 0.02563946 10 
249 32 1003 0.02578874 10 
250 178 1003 0.02653667 10 
251 183 1003 0.02651534 10 
252 93 1005 0.02613910 10 
253 25 1008 0.02635019 10 
254 32 1008 0.02745962 10 
255 178 1008 0.02693252 10 
256 183 1008 0.02703284 10 
257 25 1010 0.02649718 10 
258 32 1010 0.02696889 10 
259 172 1010 0.02697576 10 
260 178 1010 0.02699032 10 
261 19 1016 0.02668436 10 
262 166 1016 0.02736837 10 
263 172 1016 0.02172350 8 
264 341 1018 0.01831666 6 
265 447 1022 0.02718995 10 
266 34 1026 0.02444174 9 
267 151 1029 0.02758498 10 
268 157 1029 0.02816659 10 
269 163 1029 0.02813966 10 
270 166 1029 0.02824996 10 
271 172 1033 0.02224106 8 
272 331 1037 0.02821060 10 
273 711 1040 0.02901384 10 
274 934 1040 0.02906529 10 
275 484 1046 0.02871956 10 
276 1033 1050 0.01714941 6 
277 106 1054 0.02953168 10 
278 695 1061 0.02960506 10 
279 858 1072 0.02721892 8 
280 825 1076 0.02688340 9 
281 574 1077 0.03023559 10 
282 148 1081 0.03055932 10 
283 715 1082 0.03068060 10 
284 132 1084 0.05114584 10 
285 1062 1091 0.03072002 10 
286 775 1110 0.03115160 10 
287 580 1113 0.03437035 10 
288 493 1114 0.03219078 10 
289 177 1115 0.03196792 10 
290 857 1116 0.03226297 10 
291 961 1124 0.03169132 10 
292 256 1127 0.03218341 10 
293 101 1138 0.03231532 10 
294 831 1144 0.03250102 10 
295 631 1145 0.03260748 10 
296 107 1147 0.03233756 10 
297 114 1147 0.03286446 10 
298 107 1150 0.03237856 10 
299 114 1150 0.03295322 10 
300 251 1157 0.03305758 10 
301 114 1158 0.03308559 10 
302 121 1158 0.03382379 10 
303 121 1164 0.03630220 10 
304 126 1164 0.03406569 10 
305 169 1173 0.03414756 10 
306 158 1174 0.03435220 10 
307 114 1175 0.03395143 10 
308 121 1175 0.03442050 10 
309 923 1175 0.03443095 10 
310 929 1175 0.03472978 10 
311 1158 1175 0.03475408 10 
312 722 1187 0.03486925 10 
313 101 1188 0.03450634 10 
314 939 1188 0.03555656 10 
315 1138 1188 0.03525430 10 
316 1147 1188 0.03589100 10 
317 1150 1188 0.03984823 10 
318 1050 1210 0.03576786 10 
319 1061 1210 0.03659242 10 
320 1075 1210 0.03599495 10 
321 1084 1210 0.03600300 10 
322 1088 1210 0.03598605 10 
323 1093 1210 0.03599589 10 
324 1098 1210 0.03601104 10 
325 157 1217 0.03569985 10 
326 163 1217 0.03641611 10 
327 1029 1217 0.02562159 7 
328 1044 1217 0.03614849 10 
329 1050 1217 0.03675781 10 
330 1056 1217 0.03949552 10 
331 310 1218 0.03658608 10 
