1 19 166 0.00296721 10 
2 19 172 0.00312874 10 
3 25 172 0.00319264 10 
4 25 178 0.00330673 10 
5 32 178 0.00331536 10 
6 32 183 0.00340009 10 
7 44 189 0.00351488 10 
8 44 195 0.00362468 10 
9 50 195 0.00361710 10 
10 50 201 0.00372721 10 
11 50 203 0.00377534 10 
12 61 203 0.00376339 10 
13 61 209 0.00388060 10 
14 67 209 0.00388298 10 
15 67 220 0.00407489 10 
16 81 220 0.00407028 10 
17 81 226 0.00419395 10 
18 87 226 0.00418059 10 
19 87 231 0.00428053 10 
20 94 231 0.00427218 10 
21 226 231 0.00426472 10 
22 94 241 0.00447449 10 
23 101 241 0.00447668 10 
24 101 247 0.00457985 10 
25 107 247 0.00458843 10 
26 107 254 0.00471626 10 
27 114 254 0.00471710 10 
28 107 256 0.00477603 10 
29 114 256 0.00477223 10 
30 107 258 0.00481697 10 
31 114 258 0.00481552 10 
32 121 266 0.00498224 10 
33 126 266 0.00501649 10 
34 126 272 0.00513817 10 
35 132 272 0.00514726 10 
36 132 278 0.00526678 10 
37 138 278 0.00526596 10 
38 138 284 0.00540222 10 
39 151 284 0.00540301 10 
40 151 291 0.00553265 10 
41 151 297 0.00565029 10 
42 157 297 0.00565739 10 
43 163 297 0.00565692 10 
44 166 297 0.00566568 10 
45 19 305 0.00594036 10 
46 157 305 0.00595038 10 
47 163 305 0.00599432 10 
48 166 305 0.00598283 10 
49 172 305 0.00601890 10 
50 19 315 0.00539181 9 
51 25 315 0.00606064 10 
52 172 315 0.00622302 10 
53 172 328 0.00628844 10 
54 19 337 0.00516241 8 
55 25 337 0.00652553 10 
56 172 337 0.00668541 10 
57 19 342 0.00658369 10 
58 25 342 0.00664537 10 
59 172 342 0.00341245 5 
60 178 342 0.00666235 10 
61 25 367 0.00348265 5 
62 32 367 0.00420405 6 
63 178 367 0.00427501 6 
64 183 367 0.00504272 7 
65 25 374 0.00725061 10 
66 32 374 0.00730881 10 
67 178 374 0.00524172 7 
68 183 374 0.00654420 9 
69 32 382 0.00594124 8 
70 183 382 0.00751863 10 
71 32 387 0.00755916 10 
72 183 387 0.00449242 6 
73 189 400 0.00789515 10 
74 189 414 0.00815098 10 
75 44 437 0.00862419 10 
76 195 437 0.00881647 10 
77 44 454 0.00890975 10 
78 189 454 0.00914742 10 
79 44 467 0.00917932 10 
80 50 467 0.00943072 10 
81 195 467 0.00944580 10 
82 195 484 0.00955078 10 
83 44 494 0.00673458 7 
84 50 494 0.00977637 10 
85 195 494 0.00999553 10 
86 201 494 0.01005186 10 
87 50 500 0.00991769 10 
88 201 500 0.01016824 10 
89 203 500 0.01019491 10 
90 61 508 0.01011373 10 
91 203 508 0.01035823 10 
92 209 508 0.01039648 10 
93 61 522 0.01039212 10 
94 203 522 0.01064548 10 
95 209 522 0.01067266 10 
96 61 528 0.01052968 10 
97 67 528 0.01083822 10 
98 81 528 0.01085761 10 
99 209 528 0.01085542 10 
100 220 528 0.01085791 10 
101 67 532 0.00845928 8 
102 81 532 0.01069910 10 
103 220 532 0.01096363 10 
104 67 556 0.01117100 10 
105 67 564 0.01131691 10 
106 81 564 0.01158454 10 
107 220 564 0.01151202 10 
108 67 567 0.01139918 10 
109 81 567 0.01169538 10 
110 220 567 0.01169994 10 
111 67 570 0.01148953 10 
112 81 570 0.01177537 10 
113 220 570 0.01176033 10 
114 81 575 0.01189144 10 
115 220 575 0.01188092 10 
116 81 588 0.01187068 10 
117 87 588 0.01218303 10 
118 226 588 0.01221946 10 
119 87 597 0.01209801 10 
120 94 597 0.01239347 10 
121 226 597 0.01241838 10 
122 87 604 0.01226844 10 
123 94 604 0.01256767 10 
124 94 616 0.00990237 8 
125 94 632 0.01280207 10 
126 94 637 0.01290525 10 
127 101 637 0.01323753 10 
128 101 642 0.01301097 10 
129 107 642 0.01333629 10 
130 101 645 0.01307716 10 
131 107 645 0.01341426 10 
132 101 657 0.01332149 10 
133 101 663 0.01198889 9 
134 107 663 0.01346332 10 
135 114 663 0.01398687 10 
136 101 665 0.01368143 10 
137 107 665 0.01401693 10 
138 114 665 0.01402572 10 
139 107 680 0.01400748 10 
140 4 681 0.01442071 10 
141 107 683 0.01415960 10 
142 114 683 0.01450504 10 
143 107 704 0.01454722 10 
144 114 704 0.01492977 10 
145 107 714 0.01473588 10 
146 114 714 0.01510511 10 
147 107 730 0.01191126 8 
148 114 730 0.01502134 10 
149 121 754 0.01552154 10 
150 126 754 0.01589946 10 
151 121 759 0.01562855 10 
152 126 759 0.01600452 10 
153 126 762 0.01568307 10 
154 132 762 0.01617031 10 
155 132 778 0.11141102 10 
156 132 792 0.16630562 10 
157 132 800 0.14533160 10 
158 138 800 0.02713540 10 
159 138 806 0.01659811 10 
160 160 810 0.01678644 10 
161 138 821 0.01699176 10 
162 138 823 0.01693224 10 
163 151 828 0.01711607 10 
164 151 847 0.01749222 10 
165 151 855 0.01749737 10 
166 686 861 0.01786321 10 
167 151 895 0.01857379 10 
168 151 897 0.01883916 10 
169 138 903 0.01865570 10 
170 138 904 0.01906910 10 
171 132 907 0.01874769 10 
172 138 907 0.01918951 10 
173 132 911 0.01883613 10 
174 121 923 0.01909035 10 
175 126 923 0.01956361 10 
176 107 929 0.01928055 10 
177 114 929 0.01973050 10 
178 107 935 0.01939155 10 
179 114 935 0.01983487 10 
180 101 939 0.01940401 10 
181 107 939 0.01935964 10 
182 101 944 0.01960595 10 
183 94 947 0.01978683 10 
184 101 947 0.02028502 10 
185 87 953 0.01996188 10 
186 94 953 0.02048299 10 
187 226 953 0.02041193 10 
188 81 959 0.02013906 10 
189 87 959 0.02063038 10 
190 220 959 0.02063017 10 
191 226 959 0.02064526 10 
192 67 965 0.02034583 10 
193 81 965 0.02083366 10 
194 220 965 0.02084234 10 
195 61 976 0.02063474 10 
196 67 976 0.02112466 10 
197 209 976 0.02108901 10 
198 50 982 0.02079529 10 
199 61 982 0.02129828 10 
200 201 982 0.02131619 10 
201 203 982 0.02131737 10 
202 44 988 0.02093859 10 
203 50 988 0.02144330 10 
204 195 988 0.02146018 10 
205 201 988 0.01710705 8 
206 44 994 0.02112265 10 
207 189 994 0.02172911 10 
208 195 994 0.02171213 10 
209 32 1003 0.02140628 10 
210 178 1003 0.02191221 10 
211 183 1003 0.02191321 10 
212 25 1008 0.02158677 10 
213 32 1008 0.02206279 10 
214 178 1008 0.02243846 10 
215 183 1008 0.02211557 10 
216 25 1010 0.02165123 10 
217 32 1010 0.02213861 10 
218 172 1010 0.02209289 10 
219 178 1010 0.02175948 10 
220 19 1016 0.02187818 10 
221 166 1016 0.02237720 10 
222 172 1016 0.01998847 9 
223 151 1029 0.02235201 10 
224 157 1029 0.02280980 10 
225 163 1029 0.02280342 10 
226 166 1029 0.02282792 10 
227 570 1042 0.02259822 10 
228 132 1084 0.02363357 10 
229 114 1103 0.02397829 10 
230 101 1138 0.02478385 10 
231 107 1147 0.02550233 10 
232 114 1147 0.02555076 10 
233 107 1150 0.02559866 10 
234 114 1150 0.02561982 10 
235 114 1158 0.02519670 10 
236 121 1158 0.02562885 10 
237 121 1164 0.02521005 10 
238 126 1164 0.02583176 10 
239 114 1175 0.02547624 10 
240 121 1175 0.02607029 10 
241 923 1175 0.02612383 10 
242 929 1175 0.02618939 10 
243 1158 1175 0.01831412 7 
244 101 1188 0.02593897 10 
245 939 1188 0.02649754 10 
246 1138 1188 0.02654364 10 
247 1147 1188 0.02769717 10 
248 1150 1188 0.02659464 10 
249 1050 1210 0.02643749 10 
250 1061 1210 0.02704510 10 
251 1075 1210 0.02706787 10 
252 1084 1210 0.02704885 10 
253 1088 1210 0.02708565 10 
254 1093 1210 0.02750540 10 
255 1098 1210 0.02708997 10 
256 157 1217 0.02673059 10 
257 163 1217 0.02718530 10 
258 1029 1217 0.02678059 10 
259 1044 1217 0.02925062 10 
260 1050 1217 0.02742533 10 
261 1056 1217 0.02737840 10 
