1 4 9 0 3.46378868 3.67118374 -0.20739506 -0.05649269 3.67258215 -0.00139841 0.00000000 1.00038092
2 29 58 0 0.05119207 0.05125610 -0.00006402 -0.00124910 0.05146292 -0.00020683 0.00000000 1.00403518
3 71 132 0 0.69918536 0.70907106 -0.00988570 -0.01394176 0.80634507 -0.09727311 -0.00000089 1.13718513
4 96 155 0 0.74739497 0.75372745 -0.00633248 -0.00840155 0.76498118 -0.01124921 -0.00000453 1.01493078
5 102 210 0 1.22281683 1.30428619 -0.08146936 -0.06246279 1.79136824 -0.48707673 -0.00000532 1.37344722
6 165 224 0 0.80182988 0.80048489 0.00134500 0.00168023 91.75230349 -90.95181755 -0.00000105 114.62090679
7 170 231 0 0.58735633 0.58704916 0.00030716 0.00052323 0.58780172 -0.00075248 -0.00000007 1.00128193
8 235 241 0 5.05472828 5.22030465 -0.16557637 -0.03171776 5.22293537 -0.00263073 0.00000000 1.00050394
9 12 315 0 8.14232660 7.22095458 0.92137202 0.12759698 141.52312111 -126.51464832 -7.78702545 19.59894908
10 29 335 0 0.45758469 0.45663672 0.00094797 0.00207599 0.51139738 -0.05476049 -0.00000017 1.11992172
11 61 338 0 2.00171493 2.01459286 -0.01287793 -0.00639232 2.01786413 -0.00326780 -0.00000346 1.00162379
12 45 365 0 1.01431116 0.99843760 0.01587356 0.01589840 1.51738121 -0.51894168 -0.00000193 1.51975568
13 296 417 0 0.18901671 0.18754643 0.00147028 0.00783953 0.19126006 -0.00371359 -0.00000004 1.01980111
14 273 537 0 1.33829278 1.26540160 0.07289118 0.05760320 33.45034641 -32.18137701 -0.00356775 26.43456942
15 257 572 0 1.65256546 1.58194401 0.07062145 0.04464219 2.33105791 -0.74904804 -0.00006525 1.47354008
16 248 579 0 1.17192663 1.17032194 0.00160469 0.00137115 1.21458961 -0.04425460 -0.00001276 1.03782521
17 613 753 0 2.48079087 2.42523979 0.05555107 0.02290539 84.99808586 -82.55445906 -0.01838657 35.04729143
18 605 762 0 0.78558793 0.79560885 -0.01002092 -0.01259528 0.79755180 -0.00194245 -0.00000051 1.00244210
19 595 776 0 7.90914556 7.99829135 -0.08914579 -0.01114560 8.14799497 -0.14952208 -0.00017835 1.01871695
20 564 791 0 0.63707021 0.62728059 0.00978962 0.01560645 154.87782182 -154.25052814 -0.00001302 246.90357825
