1 19 166 0.00296092 10 
2 19 172 0.00311847 10 
3 25 172 0.00317975 10 
4 25 178 0.00328824 10 
5 32 178 0.00329959 10 
6 32 183 0.00338855 10 
7 44 189 0.00350968 10 
8 44 195 0.00361989 10 
9 50 195 0.00361046 10 
10 50 201 0.00371805 10 
11 50 203 0.00377272 10 
12 61 203 0.00376282 10 
13 61 209 0.00387441 10 
14 67 209 0.00387665 10 
15 67 220 0.00407339 10 
16 81 220 0.00406675 10 
17 81 226 0.00418535 10 
18 87 226 0.00417613 10 
19 87 231 0.00427443 10 
20 94 231 0.00426972 10 
21 226 231 0.00426747 10 
22 94 241 0.00447072 10 
23 101 241 0.00447276 10 
24 101 247 0.00458145 10 
25 107 247 0.00458951 10 
26 107 254 0.00471391 10 
27 114 254 0.00472088 10 
28 107 256 0.00508716 10 
29 114 256 0.00477704 10 
30 107 258 0.00481708 10 
31 114 258 0.00481902 10 
32 121 266 0.00497599 10 
33 126 266 0.00500881 10 
34 126 272 0.00513962 10 
35 132 272 0.00514708 10 
36 132 278 0.00526792 10 
37 138 278 0.00525841 10 
38 138 284 0.00540718 10 
39 151 284 0.00540171 10 
40 151 291 0.00553732 10 
41 151 297 0.00565548 10 
42 157 297 0.00565125 10 
43 163 297 0.00565660 10 
44 166 297 0.00566652 10 
45 19 305 0.00594723 10 
46 157 305 0.00594960 10 
47 163 305 0.00600277 10 
48 166 305 0.00598268 10 
49 172 305 0.00602310 10 
50 19 315 0.00539540 9 
51 25 315 0.00606574 10 
52 172 315 0.00622701 10 
53 172 328 0.00628186 10 
54 19 337 0.00515979 8 
55 25 337 0.00652579 10 
56 172 337 0.00669162 10 
57 19 342 0.00658565 10 
58 25 342 0.00664471 10 
59 172 342 0.00341046 5 
60 178 342 0.00666537 10 
61 25 367 0.00347648 5 
62 32 367 0.00420742 6 
63 178 367 0.00423017 6 
64 183 367 0.00503653 7 
65 25 374 0.00724804 10 
66 32 374 0.00730367 10 
67 178 374 0.00523612 7 
68 183 374 0.00654307 9 
69 32 382 0.00593044 8 
70 183 382 0.00751455 10 
71 32 387 0.00754919 10 
72 183 387 0.00448950 6 
73 189 400 0.00788311 10 
74 313 413 0.00646438 8 
75 189 414 0.00819560 10 
76 44 437 0.00864371 10 
77 195 437 0.00883913 10 
78 44 454 0.00898249 10 
79 189 454 0.00920197 10 
80 44 467 0.00924597 10 
81 50 467 0.00949375 10 
82 195 467 0.00951170 10 
83 195 484 0.00960638 10 
84 44 494 0.00677160 7 
85 50 494 0.00978331 10 
86 195 494 0.01005464 10 
87 201 494 0.01008687 10 
88 50 500 0.00997828 10 
89 201 500 0.01021326 10 
90 203 500 0.01023041 10 
91 61 508 0.01016240 10 
92 203 508 0.01042320 10 
93 209 508 0.01046580 10 
94 61 522 0.01042774 10 
95 203 522 0.01066351 10 
96 209 522 0.01067635 10 
97 61 528 0.01057033 10 
98 67 528 0.01086742 10 
99 81 528 0.01088020 10 
100 209 528 0.01091492 10 
101 220 528 0.01090793 10 
102 67 532 0.00848209 8 
103 81 532 0.01074155 10 
104 220 532 0.01101584 10 
105 67 556 0.01119536 10 
106 67 564 0.01133799 10 
107 81 564 0.01164208 10 
108 220 564 0.01158452 10 
109 67 567 0.01145111 10 
110 81 567 0.01175039 10 
111 220 567 0.01174155 10 
112 67 570 0.01151177 10 
113 81 570 0.01181870 10 
114 220 570 0.01182375 10 
115 81 575 0.01193756 10 
116 220 575 0.01194573 10 
117 81 588 0.01192754 10 
118 87 588 0.01223971 10 
119 226 588 0.01226248 10 
120 87 597 0.01218448 10 
121 94 597 0.01248444 10 
122 226 597 0.01248274 10 
123 87 604 0.01232713 10 
124 94 604 0.01263818 10 
125 94 616 0.01258823 10 
126 94 632 0.01287941 10 
127 94 637 0.01298460 10 
128 101 637 0.01333224 10 
129 101 642 0.01307942 10 
130 107 642 0.01348295 10 
131 101 645 0.01318968 10 
132 107 645 0.01351746 10 
133 101 657 0.01342573 10 
134 101 663 0.01207490 9 
135 107 663 0.01354429 10 
136 114 663 0.01395584 10 
137 101 665 0.01366757 10 
138 107 665 0.01400026 10 
139 114 665 0.01402710 10 
140 107 680 0.01398065 10 
141 107 683 0.01404871 10 
142 114 683 0.01437981 10 
143 325 684 0.01421330 10 
144 107 704 0.01461334 10 
145 114 704 0.01497448 10 
146 107 714 0.01498834 10 
147 114 714 0.01515767 10 
148 107 730 0.01194670 8 
149 114 730 0.01508861 10 
150 121 754 0.01584362 10 
151 126 754 0.01593280 10 
152 121 759 0.01563945 10 
153 126 759 0.01602782 10 
154 126 762 0.01573097 10 
155 132 762 0.01615639 10 
156 132 778 0.01607510 10 
157 132 792 0.01631838 10 
158 132 800 0.01648608 10 
159 138 800 0.01698154 10 
160 138 806 0.01666929 10 
161 138 821 0.01513738 9 
162 138 823 0.01702420 10 
163 151 828 0.01706866 10 
164 151 847 0.01744650 10 
165 151 855 0.01761540 10 
166 326 879 0.01824056 10 
167 151 895 0.01854065 10 
168 151 897 0.01887669 10 
169 138 903 0.01873555 10 
170 138 904 0.01917790 10 
171 132 907 0.01876482 10 
172 138 907 0.01921700 10 
173 132 911 0.01885421 10 
174 121 923 0.01917542 10 
175 126 923 0.01965223 10 
176 107 929 0.01932793 10 
177 114 929 0.01977607 10 
178 107 935 0.01946846 10 
179 114 935 0.01992585 10 
180 101 939 0.01942196 10 
181 107 939 0.01943031 10 
182 101 944 0.01966655 10 
183 94 947 0.01974598 10 
184 101 947 0.02021087 10 
185 87 953 0.02001580 10 
186 94 953 0.02042646 10 
187 226 953 0.02046690 10 
188 81 959 0.02015056 10 
189 87 959 0.02061145 10 
190 220 959 0.02066211 10 
191 226 959 0.02070567 10 
192 67 965 0.02037769 10 
193 81 965 0.02079960 10 
194 220 965 0.02081959 10 
195 61 976 0.02062210 10 
196 67 976 0.02108889 10 
197 209 976 0.02194335 10 
198 50 982 0.02077840 10 
199 61 982 0.02122663 10 
200 201 982 0.02175555 10 
201 203 982 0.02130127 10 
202 44 988 0.02093926 10 
203 50 988 0.02144242 10 
204 195 988 0.02145819 10 
205 201 988 0.01711720 8 
206 44 994 0.02111864 10 
207 189 994 0.02164634 10 
208 195 994 0.02161800 10 
209 32 1003 0.02138086 10 
210 178 1003 0.02196433 10 
211 183 1003 0.02206251 10 
212 25 1008 0.02167126 10 
213 32 1008 0.02214082 10 
214 178 1008 0.02215535 10 
215 183 1008 0.02218844 10 
216 25 1010 0.02172118 10 
217 32 1010 0.02224042 10 
218 172 1010 0.02231808 10 
219 178 1010 0.02230976 10 
220 19 1016 0.02192924 10 
221 166 1016 0.02250136 10 
222 172 1016 0.01783224 8 
223 904 1024 0.02227597 10 
224 151 1029 0.02239857 10 
225 157 1029 0.02282983 10 
226 163 1029 0.02285502 10 
227 166 1029 0.02297028 10 
228 132 1084 0.02351248 10 
229 256 1084 0.02399772 10 
230 101 1138 0.02452745 10 
231 107 1147 0.02471945 10 
232 114 1147 0.02528407 10 
233 107 1150 0.02477194 10 
234 114 1150 0.02541036 10 
235 114 1158 0.02498894 10 
236 121 1158 0.02562382 10 
237 121 1164 0.02520531 10 
238 126 1164 0.02574545 10 
239 114 1175 0.02538669 10 
240 121 1175 0.02595563 10 
241 923 1175 0.02599607 10 
242 929 1175 0.02598342 10 
243 1158 1175 0.02069651 8 
244 101 1188 0.02566210 10 
245 939 1188 0.02627031 10 
246 1138 1188 0.02632366 10 
247 1147 1188 0.02633888 10 
248 1150 1188 0.02636631 10 
249 1050 1210 0.02617184 10 
250 1061 1210 0.02677516 10 
251 1075 1210 0.02677590 10 
252 1084 1210 0.02679378 10 
253 1088 1210 0.02682338 10 
254 1093 1210 0.02682608 10 
255 1098 1210 0.02687489 10 
256 157 1217 0.02649824 10 
257 163 1217 0.02696016 10 
258 1029 1217 0.02633888 10 
259 1044 1217 0.02655367 10 
260 1050 1217 0.02714358 10 
261 1056 1217 0.02717505 10 
