VERTEX2 0 -0.00001142 -0.00000056 -0.00000073
VERTEX2 1 -0.00001143 -0.00000056 -0.00064273
VERTEX2 2 -0.00001143 -0.00000056 -0.00118073
VERTEX2 3 0.01099042 -0.00097555 -0.00356273
VERTEX2 4 0.64099698 -0.01120116 -0.00744473
VERTEX2 5 0.69600466 -0.01171669 -0.09872673
VERTEX2 6 0.70025778 -0.01543602 -0.89599873
VERTEX2 7 0.69394507 0.00421245 -1.51153573
VERTEX2 8 0.69925193 0.02669320 -2.12506973
VERTEX2 9 0.71610320 0.04112219 -2.76313973
VERTEX2 10 0.72896971 0.04321957 2.90551458
VERTEX2 11 0.73319230 0.04053652 2.23123558
VERTEX2 12 0.73317502 0.04154495 1.58176158
VERTEX2 13 0.73874118 0.05907002 0.92226358
VERTEX2 14 0.75964670 0.07375020 0.31402458
VERTEX2 15 0.76856010 0.07435714 -0.21090342
VERTEX2 16 1.06248211 0.01415148 -0.22959542
VERTEX2 17 1.66363566 -0.13311570 -0.26082342
VERTEX2 18 2.28698967 -0.29648123 -0.27100042
VERTEX2 19 2.91428544 -0.49425553 -0.31957642
VERTEX2 20 3.50733758 -0.68407957 -0.31365823
VERTEX2 21 4.11587249 -0.83627308 -0.20209555
VERTEX2 22 4.72526584 -0.97746712 -0.18471602
VERTEX2 23 5.36484938 -1.02170211 -0.07731662
VERTEX2 24 5.99600444 -1.09292142 -0.13440663
VERTEX2 25 6.63047974 -1.16064910 -0.13168053
VERTEX2 26 7.23887034 -1.26103727 -0.17226513
VERTEX2 27 7.85429111 -1.35228191 -0.15650307
VERTEX2 28 8.43529536 -1.45083894 -0.16103465
VERTEX2 29 8.81380507 -1.50830326 -0.13036635
VERTEX2 30 8.82188508 -1.51045615 -0.66271620
VERTEX2 31 8.92014376 -1.64245708 -0.93123665
VERTEX2 32 9.29183898 -2.16247313 -0.94949041
VERTEX2 33 9.67712591 -2.67340333 -0.89856176
VERTEX2 34 10.09198773 -3.16802683 -0.87742472
VERTEX2 35 10.51713192 -3.65487668 -0.84308594
VERTEX2 36 10.94896145 -4.14290719 -0.85159922
VERTEX2 37 11.23441356 -4.46144426 -0.84386689
VERTEX2 38 11.23577066 -4.46325947 -1.16546107
VERTEX2 39 11.23517349 -4.46029060 -1.33635059
VERTEX2 40 11.38120746 -5.03707971 -1.31903756
VERTEX2 41 11.53284137 -5.63897403 -1.35097085
VERTEX2 42 11.65678568 -6.20427825 -1.37362640
VERTEX2 43 11.76474305 -6.80116902 -1.41376966
VERTEX2 44 11.85578351 -7.39727637 -1.45069037
VERTEX2 45 11.91173438 -8.01633260 -1.50633570
VERTEX2 46 11.94360494 -8.63766368 -1.52582923
VERTEX2 47 11.96453828 -9.25893065 -1.56760384
VERTEX2 48 11.96181506 -9.88481946 -1.57423034
VERTEX2 49 11.95528358 -10.50668693 -1.62513403
VERTEX2 50 11.90252058 -11.09658158 -1.66968501
VERTEX2 51 11.84812720 -11.69259284 -1.69885510
VERTEX2 52 11.75168634 -12.27550975 -1.77568179
VERTEX2 53 11.65233154 -12.83292727 -1.76341608
VERTEX2 54 11.53984111 -13.34468355 -1.82558522
VERTEX2 55 11.54650490 -13.31259010 -1.82038502
VERTEX2 56 11.54589041 -13.31500025 -1.80988854
VERTEX2 57 11.40230991 -13.93291464 -1.82135017
VERTEX2 58 11.25610070 -14.53909998 -1.77518196
VERTEX2 59 11.12723774 -15.14469860 -1.79880343
VERTEX2 60 10.99774273 -15.74664129 -1.77745109
VERTEX2 61 10.86242768 -16.34909211 -1.82820976
VERTEX2 62 10.71239477 -16.90862105 -1.78839488
VERTEX2 63 10.56053797 -17.47294827 -1.82391185
VERTEX2 64 10.42524598 -18.03174697 -1.76054075
VERTEX2 65 10.29039064 -18.58834656 -1.81196514
VERTEX2 66 10.13644351 -19.17485546 -1.81999065
VERTEX2 67 9.97067945 -19.76491289 -1.81853771
VERTEX2 68 9.86077454 -20.21275346 -1.83434003
VERTEX2 69 9.86387014 -20.20266357 -1.98931137
VERTEX2 70 9.87069321 -20.18960763 -2.66365736
VERTEX2 71 9.89389377 -20.18827236 2.97688386
VERTEX2 72 9.90647819 -20.18981753 2.96740517
VERTEX2 73 9.91380118 -20.19162713 2.90246577
VERTEX2 74 9.91389106 -20.19167458 2.28068192
VERTEX2 75 9.92051337 -20.19426526 1.92834277
VERTEX2 76 9.90881870 -20.18129347 2.62225023
VERTEX2 77 9.90445751 -20.17946403 2.85521421
VERTEX2 78 9.62287566 -20.19006186 -3.09082215
VERTEX2 79 9.00457114 -20.22859235 -3.09608546
VERTEX2 80 8.37258540 -20.22686867 3.11257595
VERTEX2 81 7.74835146 -20.20006906 3.08657109
VERTEX2 82 7.14893578 -20.15908041 3.03245427
VERTEX2 83 6.56050047 -20.10749600 3.00893496
VERTEX2 84 5.99817372 -20.02136124 2.93111346
VERTEX2 85 5.45561813 -19.91714606 2.93839266
VERTEX2 86 4.84656302 -19.79614562 2.84861569
VERTEX2 87 4.45602870 -19.68938708 2.79617734
VERTEX2 88 4.09830520 -19.55649203 2.76635214
VERTEX2 89 4.10792656 -19.55696607 -3.12111161
VERTEX2 90 3.50265518 -19.55986233 3.13094582
VERTEX2 91 2.88661828 -19.55511371 -3.10318720
VERTEX2 92 2.28667762 -19.55050908 3.06426711
VERTEX2 93 1.66559121 -19.44734980 2.96336025
VERTEX2 94 1.04491878 -19.30832489 2.92053864
VERTEX2 95 0.42181169 -19.21961580 3.06312293
VERTEX2 96 -0.18976163 -19.16766054 3.08717236
VERTEX2 97 -0.78095578 -19.10385574 3.01654383
VERTEX2 98 -1.37061461 -19.00196927 2.95854639
VERTEX2 99 -2.07681332 -18.87654618 3.00532651
VERTEX2 100 -2.64253751 -18.76764840 2.95356597
VERTEX2 101 -3.25494193 -18.71016601 3.05680590
VERTEX2 102 -3.86874307 -18.62903252 2.95089429
VERTEX2 103 -4.47776911 -18.51334497 3.04683869
VERTEX2 104 -5.09081497 -18.43621755 3.01316108
VERTEX2 105 -5.70407325 -18.37093824 3.05970960
VERTEX2 106 -6.30673979 -18.29971813 3.00483537
VERTEX2 107 -6.92514294 -18.20272850 3.00101384
VERTEX2 108 -7.38075540 -18.15315248 3.06256811
VERTEX2 109 -7.42709637 -18.14133862 2.61402913
VERTEX2 110 -7.44427678 -18.12350215 2.02263837
VERTEX2 111 -7.44432700 -18.04287405 1.51675177
VERTEX2 112 -7.41946877 -17.40923950 1.57114694
VERTEX2 113 -7.43674637 -16.78707935 1.61814860
VERTEX2 114 -7.46877541 -16.17333253 1.65490368
VERTEX2 115 -7.54081543 -15.53279887 1.71511567
VERTEX2 116 -7.65813172 -14.78189880 1.75917344
VERTEX2 117 -7.79275221 -14.17129334 1.85471541
VERTEX2 118 -7.79738492 -14.15054047 1.52008598
VERTEX2 119 -7.74116191 -13.63209886 1.46685497
VERTEX2 120 -7.68814719 -12.97553078 1.55712988
VERTEX2 121 -7.69868975 -12.35611611 1.62480329
VERTEX2 122 -7.73309977 -11.77394961 1.68105010
VERTEX2 123 -7.75816614 -11.59420064 1.66829872
VERTEX2 124 -7.67245224 -11.35589750 1.24539876
VERTEX2 125 -7.45686379 -10.76373993 1.23449639
VERTEX2 126 -7.32547631 -10.14816843 1.44109550
VERTEX2 127 -7.22945417 -9.51255329 1.43967240
VERTEX2 128 -7.15587561 -8.87245761 1.47624600
VERTEX2 129 -7.07151168 -8.23634192 1.44371819
VERTEX2 130 -7.00614710 -7.60185552 1.49648985
VERTEX2 131 -6.96266704 -6.97270802 1.58502708
VERTEX2 132 -6.94730520 -6.35252457 1.53543122
VERTEX2 133 -6.90224123 -5.78490111 1.49864587
VERTEX2 134 -6.85031228 -5.18833533 1.48046568
VERTEX2 135 -6.77029178 -4.61217222 1.45428294
VERTEX2 136 -6.69831844 -3.97900251 1.47395014
VERTEX2 137 -6.60395755 -3.34791390 1.43215725
VERTEX2 138 -6.53029469 -2.71774962 1.51240548
VERTEX2 139 -6.51617200 -2.08601218 1.57779700
VERTEX2 140 -6.54722808 -1.42961596 1.60840066
VERTEX2 141 -6.55589080 -0.78853111 1.56003534
VERTEX2 142 -6.55894120 -0.13774707 1.55625698
VERTEX2 143 -6.48047693 0.50209783 1.44575016
VERTEX2 144 -6.44222212 0.87471183 1.46331821
VERTEX2 145 -6.43661508 0.89193466 0.96497653
VERTEX2 146 -6.43491416 0.90079691 0.37181308
VERTEX2 147 -6.37960638 0.89721708 -0.11465813
VERTEX2 148 -5.94820781 0.83965438 -0.15028716
VERTEX2 149 -5.30772799 0.74960036 -0.12516671
VERTEX2 150 -4.67382042 0.68878698 -0.11099672
VERTEX2 151 -4.03437434 0.64512201 -0.02532347
VERTEX2 152 -3.40923914 0.61369518 -0.08615191
VERTEX2 153 -2.78439127 0.58492343 0.00732417
VERTEX2 154 -2.16317167 0.56793926 -0.06217486
VERTEX2 155 -1.53811863 0.53853088 -0.02870814
VERTEX2 156 -0.91072141 0.52828723 0.00206350
VERTEX2 157 -0.34694426 0.51428409 -0.06228264
VERTEX2 158 -0.15239017 0.50169226 -0.03478658
VERTEX2 159 -0.14685700 0.49995657 0.95254629
VERTEX2 160 -0.14147874 0.50885429 1.98823048
VERTEX2 161 -0.16370951 0.44982978 2.70913516
VERTEX2 162 -0.13795973 0.45567128 -2.53824499
VERTEX2 163 -0.13895194 0.45065892 -1.54115897
VERTEX2 164 -0.21711009 0.54772087 -0.47870219
VERTEX2 165 -0.04433659 0.53062242 -0.07093671
VERTEX2 166 0.65220180 0.48773800 -0.06924400
VERTEX2 167 1.26825033 0.43770115 -0.09860320
VERTEX2 168 1.85574082 0.38867513 -0.08660662
VERTEX2 169 2.45027010 0.31736757 -0.12355154
VERTEX2 170 3.03606865 0.24927312 -0.14421908
VERTEX2 171 3.59691199 0.15109189 -0.18255741
VERTEX2 172 4.22147102 0.04376551 -0.16854514
VERTEX2 173 4.84959331 -0.07677001 -0.19145468
VERTEX2 174 5.47393916 -0.19094357 -0.15141183
VERTEX2 175 6.08932096 -0.28107584 -0.17619297
VERTEX2 176 6.68785427 -0.40128351 -0.16665914
VERTEX2 177 7.31030259 -0.50407264 -0.19438427
VERTEX2 178 7.93082725 -0.64997713 -0.23346546
VERTEX2 179 8.33363018 -0.73380502 -0.18018030
VERTEX2 180 8.38323890 -0.74718338 -0.62230958
VERTEX2 181 8.82352089 -1.06577321 -0.67414878
VERTEX2 182 9.22968831 -1.42627401 -0.84824562
VERTEX2 183 9.57643948 -1.84768733 -0.90566013
VERTEX2 184 9.92425341 -2.37370073 -1.05089877
VERTEX2 185 10.21603411 -2.92296131 -1.14238521
VERTEX2 186 10.44198266 -3.50439699 -1.20779812
VERTEX2 187 10.64356753 -4.06371985 -1.22957493
VERTEX2 188 10.85224608 -4.64247732 -1.23420435
VERTEX2 189 11.05374154 -5.22517281 -1.26014169
VERTEX2 190 11.23846983 -5.82826925 -1.28915354
VERTEX2 191 11.41273690 -6.43079087 -1.31343673
VERTEX2 192 11.56796333 -7.02694209 -1.34197667
VERTEX2 193 11.69221855 -7.57474608 -1.39786610
VERTEX2 194 11.79276676 -8.14381845 -1.42477054
VERTEX2 195 11.87371029 -8.70839039 -1.45350537
VERTEX2 196 11.94109627 -9.33332567 -1.49437992
VERTEX2 197 11.97971005 -9.95444276 -1.52195185
VERTEX2 198 12.00553251 -10.57305465 -1.58021652
VERTEX2 199 11.97800134 -11.18152579 -1.64171401
VERTEX2 200 11.93137540 -11.78495267 -1.66365639
VERTEX2 201 11.86097407 -12.38509733 -1.72037764
VERTEX2 202 11.79739679 -12.89055007 -1.70031698
VERTEX2 203 11.69586215 -13.62489844 -1.75316672
VERTEX2 204 11.57429792 -14.20156379 -1.85519984
VERTEX2 205 11.40498399 -14.76419551 -1.86465089
VERTEX2 206 11.25082742 -15.31176682 -1.86274742
VERTEX2 207 11.09094409 -15.87907008 -1.84680471
VERTEX2 208 10.91739710 -16.47905995 -1.85623503
VERTEX2 209 10.75594728 -17.07780874 -1.81791367
VERTEX2 210 10.59305114 -17.67069266 -1.82678176
VERTEX2 211 10.44415615 -18.26732969 -1.82452919
VERTEX2 212 10.26765327 -18.85358825 -1.87739096
VERTEX2 213 10.07254271 -19.44355756 -1.89817757
VERTEX2 214 9.87258717 -20.01994132 -1.90199427
VERTEX2 215 9.75746630 -20.34245607 -1.93779876
VERTEX2 216 9.76921896 -20.32232264 -2.43647819
VERTEX2 217 9.79421860 -20.31963996 -2.97866301
VERTEX2 218 9.80287827 -20.32295942 -3.03469478
VERTEX2 219 9.23595871 -20.27896359 3.07997674
VERTEX2 220 8.62634625 -20.23491316 3.04010134
VERTEX2 221 7.98769804 -20.16886917 3.09062338
VERTEX2 222 7.36255264 -20.12664340 3.06510728
VERTEX2 223 6.73682571 -20.09774085 -3.12171254
VERTEX2 224 6.12278540 -20.09896229 3.13570899
VERTEX2 225 5.50515671 -20.09386493 -3.09776206
VERTEX2 226 4.88846501 -20.08803606 3.13633500
VERTEX2 227 4.24316279 -20.15779877 -2.99014349
VERTEX2 228 3.71928013 -20.14251147 2.93154986
VERTEX2 229 3.27361200 -20.10454987 3.05206901
VERTEX2 230 2.98272680 -20.08881660 3.02330405
VERTEX2 231 3.18699897 -20.10650497 3.09340753
VERTEX2 232 2.87715470 -19.96758802 2.66754296
VERTEX2 233 2.31298976 -19.70704854 2.76984932
VERTEX2 234 1.73683573 -19.48050683 2.72568637
VERTEX2 235 1.48738096 -19.37293080 2.72069441
VERTEX2 236 1.15225424 -19.37422562 3.12611293
VERTEX2 237 0.52361700 -19.38934868 -3.08669742
VERTEX2 238 -0.09733012 -19.43803574 -3.11945525
VERTEX2 239 -0.71442268 -19.43522065 3.09607333
VERTEX2 240 -1.28459256 -19.31726416 2.87793105
VERTEX2 241 -1.82469594 -19.18581947 2.96330838
VERTEX2 242 -2.39991784 -19.12019125 3.00279800
VERTEX2 243 -3.00175013 -19.03631862 3.00208611
VERTEX2 244 -3.62696405 -18.99007223 3.07340205
VERTEX2 245 -4.24283272 -18.94071388 3.01919225
VERTEX2 246 -4.84622149 -18.85393256 2.94681153
VERTEX2 247 -5.45099600 -18.77096871 3.05274849
VERTEX2 248 -6.00602170 -18.74905181 3.08413389
VERTEX2 249 -5.95795466 -18.75631434 -3.00614759
VERTEX2 250 -5.95527383 -18.75620717 2.69005508
VERTEX2 251 -6.27789828 -18.41545444 2.26668710
VERTEX2 252 -6.63394323 -17.99485224 2.27521898
VERTEX2 253 -7.00614045 -17.54856133 2.26424634
VERTEX2 254 -7.37183844 -17.09001644 2.22306961
VERTEX2 255 -7.44502764 -16.99703484 2.30694608
VERTEX2 256 -7.44798034 -16.91990851 1.83096821
VERTEX2 257 -7.49947279 -16.46054660 1.69520306
VERTEX2 258 -7.58292583 -15.87055674 1.77576386
VERTEX2 259 -7.72667827 -15.26435789 1.81654164
VERTEX2 260 -7.86078654 -14.70246828 1.80832617
VERTEX2 261 -7.85848821 -14.66461551 1.49718083
VERTEX2 262 -7.79552061 -14.01271126 1.50402771
VERTEX2 263 -7.75360741 -13.39411889 1.51766265
VERTEX2 264 -7.73905213 -12.78866855 1.61490922
VERTEX2 265 -7.77124157 -12.18377091 1.63522625
VERTEX2 266 -7.72380916 -11.60492565 1.50623291
VERTEX2 267 -7.67331840 -10.85337031 1.47695676
VERTEX2 268 -7.54155256 -10.24871659 1.36691435
VERTEX2 269 -7.42224262 -9.63341525 1.39683814
VERTEX2 270 -7.35073190 -9.00718544 1.51086839
VERTEX2 271 -7.25610493 -8.38283847 1.40034575
VERTEX2 272 -7.17108592 -7.75386904 1.46547776
VERTEX2 273 -7.18153772 -7.12152950 1.67765910
VERTEX2 274 -7.25019497 -6.50267687 1.70169307
VERTEX2 275 -7.23868340 -5.89337090 1.53030345
VERTEX2 276 -7.23238405 -5.28495847 1.64488372
VERTEX2 277 -7.27988071 -4.71885810 1.61938177
VERTEX2 278 -7.23714486 -4.07797493 1.53075613
VERTEX2 279 -7.19776455 -3.43933513 1.47550774
VERTEX2 280 -7.13002469 -2.80607138 1.47766897
VERTEX2 281 -7.03988373 -2.17098519 1.37737528
VERTEX2 282 -6.92050609 -1.54236191 1.41739504
VERTEX2 283 -6.83419072 -0.90725599 1.40973562
VERTEX2 284 -6.72288678 -0.28262364 1.43709840
VERTEX2 285 -6.65638328 0.36845414 1.45825034
VERTEX2 286 -6.59039739 0.99177367 1.51193335
VERTEX2 287 -6.58754310 1.04463353 1.40763586
VERTEX2 288 -6.58311728 1.05258854 0.79936913
VERTEX2 289 -6.57949783 1.05440776 0.20626032
VERTEX2 290 -6.13909357 1.04624068 -0.01863586
VERTEX2 291 -5.51634034 1.03925414 -0.00475322
VERTEX2 292 -4.89984600 1.02016673 -0.05943660
VERTEX2 293 -4.27491035 0.97549843 -0.08254754
VERTEX2 294 -3.65358824 0.92375523 -0.08192075
VERTEX2 295 -3.03177099 0.84384000 -0.19449267
VERTEX2 296 -2.41537020 0.69953072 -0.23997776
VERTEX2 297 -1.80120215 0.54825501 -0.25176594
VERTEX2 298 -1.19472352 0.39522704 -0.25255230
VERTEX2 299 -0.62489860 0.23985161 -0.19153892
VERTEX2 300 -0.04230792 0.15455876 -0.14954226
VERTEX2 301 0.51559184 0.05541715 -0.20892729
VERTEX2 302 0.82094274 -0.01063914 -0.22982005
VERTEX2 303 0.80685684 -0.00793494 -0.22567083
VERTEX2 304 1.31081205 -0.12487459 -0.21611828
VERTEX2 305 1.93001026 -0.17035290 -0.03226024
VERTEX2 306 2.55931183 -0.18173759 -0.05042019
VERTEX2 307 3.19834186 -0.23041855 -0.08722269
VERTEX2 308 3.82580757 -0.29419996 -0.14291967
VERTEX2 309 4.46059052 -0.35544471 -0.05011805
VERTEX2 310 5.08809104 -0.38629072 -0.08612051
VERTEX2 311 5.36895734 -0.41263608 0.08878163
VERTEX2 312 5.36596355 -0.41419609 1.07632366
VERTEX2 313 5.37066400 -0.19524065 1.57188919
VERTEX2 314 5.35132342 0.43350999 1.61161647
VERTEX2 315 5.32299732 1.06165413 1.60723600
VERTEX2 316 5.28340514 1.70672068 1.65841464
VERTEX2 317 5.22260233 2.34843999 1.66821232
VERTEX2 318 5.12434329 2.98555591 1.76258467
VERTEX2 319 5.04496093 3.33261198 1.83377759
VERTEX2 320 5.04702055 3.33897895 2.80180291
VERTEX2 321 5.03907755 3.33556598 -2.44218057
VERTEX2 322 5.03819325 3.33374235 -1.44644810
VERTEX2 323 5.04876398 3.32354737 -0.45450410
VERTEX2 324 5.05330308 3.32206451 0.20501765
VERTEX2 325 5.05475077 3.32217852 -0.32295791
VERTEX2 326 5.07015860 3.31058326 -0.91849993
VERTEX2 327 5.07351598 3.29471684 -1.54221537
VERTEX2 328 5.05709315 2.65692190 -1.58889122
VERTEX2 329 5.03503444 2.03040281 -1.64529815
VERTEX2 330 4.98062782 1.41528869 -1.66576869
VERTEX2 331 4.92521550 0.79888389 -1.68151195
VERTEX2 332 4.84535000 0.18556790 -1.70149400
VERTEX2 333 4.82352534 0.03124548 -1.63801955
VERTEX2 334 4.83243093 0.03293793 -0.84474682
VERTEX2 335 4.84946155 0.02788731 0.14627007
VERTEX2 336 4.86232094 0.03239343 1.08744048
VERTEX2 337 4.86728454 0.06320837 2.06644292
VERTEX2 338 4.86432868 0.06526138 3.05594491
VERTEX2 339 4.87600287 0.07250269 -2.17728927
VERTEX2 340 4.87616376 0.07121127 -1.15747503
VERTEX2 341 4.98941634 0.00278965 -0.52373944
VERTEX2 342 5.56231760 -0.30220721 -0.42164325
VERTEX2 343 6.14080594 -0.50389975 -0.29001594
VERTEX2 344 6.73004933 -0.68740445 -0.29940758
VERTEX2 345 6.96859800 -0.75772821 -0.32622857
VERTEX2 346 6.95512068 -0.75331169 -0.97180665
VERTEX2 347 6.95754183 -0.84194956 -1.52897206
VERTEX2 348 6.97535371 -1.43278827 -1.54505243
VERTEX2 349 6.97303516 -2.05253573 -1.58465087
VERTEX2 350 6.95979530 -2.84087647 -1.60366830
VERTEX2 351 6.94551322 -3.11488348 -1.63201705
VERTEX2 352 6.94365270 -3.12375234 -1.91883201
VERTEX2 353 6.93186944 -3.13820598 -2.58176863
VERTEX2 354 6.91791154 -3.14221071 3.10033161
VERTEX2 355 6.89744919 -3.14149030 2.38200713
VERTEX2 356 6.89157567 -3.13111986 1.80897416
VERTEX2 357 6.89420232 -3.11539442 1.15834196
VERTEX2 358 6.89516612 -3.11405199 0.54522071
VERTEX2 359 6.88329109 -3.11914610 -0.06647295
VERTEX2 360 6.86845423 -3.11621560 -0.24153663
VERTEX2 361 6.86012706 -3.11839693 0.68114934
VERTEX2 362 6.94507768 -2.88727177 1.21694418
VERTEX2 363 7.04767149 -2.61889704 1.21132598
VERTEX2 364 6.97814125 -2.28241619 1.82807221
VERTEX2 365 6.92243698 -1.99294566 1.33275950
VERTEX2 366 7.03107733 -1.86985038 0.78057515
VERTEX2 367 7.47672057 -1.43448249 0.78341065
VERTEX2 368 7.93304551 -0.99790426 0.73548784
VERTEX2 369 7.95298691 -0.97380671 0.48368426
VERTEX2 370 7.97716718 -0.96993716 -0.10304407
VERTEX2 371 7.98298494 -0.97295427 -0.64847964
VERTEX2 372 8.41162125 -1.32133190 -0.67613776
VERTEX2 373 8.88396780 -1.68597221 -0.67413961
VERTEX2 374 9.36275841 -2.08889787 -0.73526209
VERTEX2 375 9.72240321 -2.40866015 -0.76614267
VERTEX2 376 9.73420796 -2.41587361 -0.07347762
VERTEX2 377 9.78437175 -2.38016580 0.61969795
VERTEX2 378 10.31939227 -1.98241063 0.67260475
VERTEX2 379 10.79867503 -1.55222556 0.75607196
VERTEX2 380 11.23826893 -1.08579185 0.87400342
VERTEX2 381 11.38431664 -0.90582888 1.02242676
VERTEX2 382 11.38554260 -0.90359530 2.06743486
VERTEX2 383 11.38295987 -0.90201481 3.05437644
VERTEX2 384 11.38053059 -0.90431543 -2.26499932
VERTEX2 385 11.37553726 -0.91269979 -1.23482207
VERTEX2 386 11.47950623 -1.04786039 -1.00985263
VERTEX2 387 11.93478882 -1.46965191 -0.67805244
VERTEX2 388 12.39616640 -1.82537591 -0.67132335
VERTEX2 389 12.83221488 -2.20033962 -0.75624590
VERTEX2 390 12.84249745 -2.20934963 -0.28656853
VERTEX2 391 12.65686879 -2.20113104 0.08874256
VERTEX2 392 12.60171269 -2.20168982 1.11750512
VERTEX2 393 12.60266623 -2.13694161 2.35282831
VERTEX2 394 12.53719627 -2.10969211 -2.94999122
VERTEX2 395 12.72976133 -2.00906960 -2.61753879
VERTEX2 396 12.70796394 -2.02013050 -2.62014451
VERTEX2 397 12.67002161 -2.02855765 -2.63373626
VERTEX2 398 12.65408352 -2.04171784 -2.44021232
VERTEX2 399 12.57911851 -2.14689105 -2.14602410
VERTEX2 400 12.22213460 -2.69924049 -2.09861857
VERTEX2 401 11.87563472 -3.23826993 -2.19289340
VERTEX2 402 11.39728180 -3.69114347 -2.46231263
VERTEX2 403 10.88208012 -4.09717222 -2.49780460
VERTEX2 404 10.37612774 -4.45254824 -2.57830291
VERTEX2 405 10.35863942 -4.46796926 -2.04740953
VERTEX2 406 10.35456184 -4.42935802 -1.07420348
VERTEX2 407 10.53215586 -4.68351254 -0.94784648
VERTEX2 408 10.85539802 -5.14606201 -0.98723588
VERTEX2 409 10.98552817 -5.35628604 -1.08839736
VERTEX2 410 10.97753903 -5.32288093 -1.71970504
VERTEX2 411 11.14762603 -4.89321680 -2.57098703
VERTEX2 412 10.59817383 -5.11505051 -2.77591204
VERTEX2 413 9.96323292 -5.33253689 -2.85696538
VERTEX2 414 9.32184645 -5.53856933 -2.75467156
VERTEX2 415 8.71547366 -5.77756447 -2.74716278
VERTEX2 416 8.42746840 -5.90641953 -2.80182078
VERTEX2 417 8.13365042 -5.89118567 3.05791216
VERTEX2 418 7.69341281 -5.84918714 3.01327595
VERTEX2 419 7.69448308 -5.84894564 -2.83791011
VERTEX2 420 7.74595468 -5.82589737 -2.62101820
VERTEX2 421 7.74716032 -5.82399674 -1.65139497
VERTEX2 422 7.74234232 -5.83079273 -0.40962219
VERTEX2 423 7.74368430 -5.83091942 -0.06310365
VERTEX2 424 7.73957223 -5.83100369 -0.06206120
VERTEX2 425 7.72949301 -5.83673247 -0.04964492
VERTEX2 426 7.72521718 -5.83686240 -0.05808538
VERTEX2 427 7.75348226 -5.83825062 -0.05428983
VERTEX2 428 8.41137802 -5.85747002 -0.05914006
VERTEX2 429 9.05183377 -5.90448461 -0.09926200
VERTEX2 430 9.38957508 -5.94355095 -0.14469994
VERTEX2 431 9.36319339 -5.94048604 -0.09212009
VERTEX2 432 9.37221237 -5.94363013 -0.72255695
VERTEX2 433 9.37709585 -5.95027986 -1.39850703
VERTEX2 434 9.34237634 -6.48928539 -1.62596084
VERTEX2 435 9.31253342 -7.13209241 -1.65373706
VERTEX2 436 9.23701607 -7.77235334 -1.66199914
VERTEX2 437 9.18728884 -8.42233492 -1.65352349
VERTEX2 438 9.13737861 -8.89294231 -1.68315624
VERTEX2 439 9.13552581 -8.90002439 -2.11724828
VERTEX2 440 9.14597037 -8.89170022 -2.75784356
VERTEX2 441 9.17074577 -8.88905728 2.90579163
VERTEX2 442 9.18635336 -8.89736997 2.27890971
VERTEX2 443 9.18671528 -8.90276752 1.71431585
VERTEX2 444 9.18930690 -8.88856182 1.12515696
VERTEX2 445 9.19741343 -8.88064222 0.46958598
VERTEX2 446 9.20074624 -8.87856472 0.67230760
VERTEX2 447 9.21264281 -8.85493585 1.30623365
VERTEX2 448 9.35637004 -8.23279112 1.32421833
VERTEX2 449 9.48268094 -7.59656379 1.42613773
VERTEX2 450 9.56994586 -6.96060571 1.44031366
VERTEX2 451 9.61746745 -6.49166065 1.48336686
VERTEX2 452 9.61776951 -6.48785313 1.10356015
VERTEX2 453 9.61346760 -6.49579661 0.47887425
VERTEX2 454 9.86211904 -6.47505205 0.05492280
VERTEX2 455 10.45905463 -6.44764135 0.03422482
VERTEX2 456 11.08962929 -6.44008740 -0.03050761
VERTEX2 457 11.44214032 -6.46083092 -0.11837376
VERTEX2 458 11.43650416 -6.45806065 -0.76460268
VERTEX2 459 11.42784710 -6.42360231 -1.37313121
VERTEX2 460 11.40868478 -6.82266507 -1.63032302
VERTEX2 461 11.34214240 -7.43999969 -1.71839552
VERTEX2 462 11.25634827 -7.95040933 -1.75851872
VERTEX2 463 11.26705753 -7.92926420 -0.91862350
VERTEX2 464 11.52147287 -8.00075993 -0.24081643
VERTEX2 465 12.10435227 -8.13192528 -0.23316991
VERTEX2 466 12.65706013 -8.28146816 -0.28891439
VERTEX2 467 13.22724455 -8.46160817 -0.33247428
VERTEX2 468 13.84269550 -8.67866743 -0.36777524
VERTEX2 469 14.43501173 -8.94297957 -0.45045157
VERTEX2 470 14.88976508 -9.15755932 -0.43132126
VERTEX2 471 14.89836803 -9.16219367 -0.63076526
VERTEX2 472 14.91570304 -9.18624980 -1.26258166
VERTEX2 473 14.91720755 -9.19354923 -1.90231559
VERTEX2 474 14.91562910 -9.19553822 -2.53280525
VERTEX2 475 14.91797572 -9.19521195 -3.10644453
VERTEX2 476 14.92035597 -9.19552977 2.52568569
VERTEX2 477 14.92484345 -9.20426203 1.96629523
VERTEX2 478 14.92562201 -9.21417195 1.33938643
VERTEX2 479 14.92460101 -9.21652533 0.88520117
VERTEX2 480 14.92488023 -9.21589152 1.44735803
VERTEX2 481 14.92122848 -9.20025805 2.44959594
VERTEX2 482 14.92560058 -9.20200332 2.78578845
VERTEX2 483 14.93218308 -9.20437278 2.78042762
VERTEX2 484 14.50583538 -9.04682774 2.81597041
VERTEX2 485 13.90681452 -8.85884448 2.81367250
VERTEX2 486 13.30507754 -8.64685966 2.82321781
VERTEX2 487 12.69472627 -8.46814468 2.85151317
VERTEX2 488 12.08207879 -8.28756240 2.88765225
VERTEX2 489 11.61157543 -8.18058038 2.91809917
VERTEX2 490 11.61612845 -8.18013177 -2.87992477
VERTEX2 491 11.62352232 -8.17034708 -1.94371021
VERTEX2 492 11.60718842 -8.40012076 -1.64063370
VERTEX2 493 11.54641864 -9.00412442 -1.69566148
VERTEX2 494 11.46027048 -9.61547991 -1.75655653
VERTEX2 495 11.39183509 -10.23859608 -1.64928212
VERTEX2 496 11.34884687 -10.86255729 -1.53141800
VERTEX2 497 11.34274765 -11.47938189 -1.61731096
VERTEX2 498 11.27509809 -12.10080804 -1.71892960
VERTEX2 499 11.14579682 -12.72818615 -1.73621482
VERTEX2 500 11.20483087 -13.29493249 -1.40774240
VERTEX2 501 11.28045152 -13.87385022 -1.47987665
VERTEX2 502 11.30565470 -14.56899071 -1.56439983
VERTEX2 503 11.30195083 -15.01563063 -1.58140167
VERTEX2 504 11.30707919 -15.00109045 -0.72519219
VERTEX2 505 11.54426182 -15.02788300 -0.10354080
VERTEX2 506 12.13572642 -15.10901415 -0.25612934
VERTEX2 507 12.71647611 -15.27825254 -0.33470691
VERTEX2 508 13.28521257 -15.48918126 -0.34799431
VERTEX2 509 13.90482736 -15.72204188 -0.40390358
VERTEX2 510 14.26115062 -15.88072212 -0.41780638
VERTEX2 511 14.25938378 -15.86363744 0.45755464
VERTEX2 512 14.28100484 -15.81796406 1.65489683
VERTEX2 513 14.27755424 -15.80781876 2.61039644
VERTEX2 514 14.20986876 -15.78888898 2.83668193
VERTEX2 515 13.59921597 -15.60844205 2.83779889
VERTEX2 516 13.01406639 -15.41486249 2.85370880
VERTEX2 517 12.42101119 -15.26721624 2.88191465
VERTEX2 518 11.82829767 -15.11643467 2.90627732
VERTEX2 519 11.30610999 -14.99288426 2.89059124
VERTEX2 520 11.13810214 -14.94926380 -2.99413525
VERTEX2 521 11.16016648 -14.92491135 -1.99045016
VERTEX2 522 11.09500581 -15.32110953 -1.72615337
VERTEX2 523 11.00384551 -15.94116298 -1.73355129
VERTEX2 524 10.90021313 -16.51518090 -1.77547608
VERTEX2 525 10.79646551 -17.05732333 -1.75180898
VERTEX2 526 10.68047795 -17.62619779 -1.81057178
VERTEX2 527 10.53284732 -18.20546198 -1.84533519
VERTEX2 528 10.35063529 -18.77244061 -1.92124823
VERTEX2 529 10.13868660 -19.37432990 -1.94957453
VERTEX2 530 9.89164176 -19.97359098 -1.97968170
VERTEX2 531 9.62208181 -20.54857717 -2.05952486
VERTEX2 532 9.52408008 -20.73458109 -2.00893505
VERTEX2 533 9.52157153 -20.72240722 -1.00917582
VERTEX2 534 9.52217230 -20.72278882 -0.34214170
VERTEX2 535 9.52554023 -20.72307318 -0.34249881
VERTEX2 536 9.88209342 -20.80662943 -0.21177372
VERTEX2 537 10.48858372 -20.95444942 -0.26976413
VERTEX2 538 11.04839686 -21.12308970 -0.29687387
VERTEX2 539 11.65621574 -21.33148565 -0.36163821
VERTEX2 540 12.24285456 -21.58406014 -0.45452903
VERTEX2 541 12.82984187 -21.81145255 -0.29222455
VERTEX2 542 13.46064850 -21.95274821 -0.23652217
VERTEX2 543 13.58221894 -21.98312094 -0.26618792
VERTEX2 544 13.60343404 -21.98093796 0.37081979
VERTEX2 545 13.62704837 -21.93795523 1.43700414
VERTEX2 546 13.64448047 -21.98320731 2.26402896
VERTEX2 547 13.65276514 -21.98264489 -2.99749954
VERTEX2 548 13.66636562 -21.97390380 -2.07461866
VERTEX2 549 13.66802292 -21.96256383 -1.26801923
VERTEX2 550 13.66679356 -21.94162777 -1.74782144
VERTEX2 551 13.67526106 -21.92443687 -2.37419826
VERTEX2 552 13.69364171 -21.91526705 -3.00666069
VERTEX2 553 13.55666749 -21.86302958 2.69923640
VERTEX2 554 12.96460407 -21.57949717 2.66377515
VERTEX2 555 12.38533136 -21.30505071 2.75264447
VERTEX2 556 11.78117033 -21.08718279 2.88774209
VERTEX2 557 11.18072471 -20.91686650 2.84653205
VERTEX2 558 10.60439703 -20.76035554 2.92756112
VERTEX2 559 10.61176085 -20.76283289 2.52060649
VERTEX2 560 10.60452906 -20.75493866 2.01967942
VERTEX2 561 10.58123235 -20.73236551 2.52490886
VERTEX2 562 10.40265613 -20.73253472 -3.11470791
VERTEX2 563 9.83207720 -20.65464103 2.97666120
VERTEX2 564 9.22686963 -20.56377308 3.02543052
VERTEX2 565 8.63599499 -20.49298825 2.96784646
VERTEX2 566 8.69622104 -20.51165993 -2.53176439
VERTEX2 567 8.60212550 -20.51871124 -1.73833419
VERTEX2 568 8.55091610 -21.02579984 -1.67413541
VERTEX2 569 8.49945296 -21.60013645 -1.71311462
VERTEX2 570 8.43066191 -22.18019569 -1.70819276
VERTEX2 571 8.37910154 -22.53006190 -1.75520268
VERTEX2 572 8.33575703 -22.56180202 -1.99770277
VERTEX2 573 8.30072642 -22.64168840 -1.72061006
VERTEX2 574 8.32015417 -22.66878706 -0.78029439
VERTEX2 575 8.48554690 -22.72250376 0.13602619
VERTEX2 576 8.48396067 -22.72123709 1.16401816
VERTEX2 577 8.47710819 -22.70311972 2.13630953
VERTEX2 578 8.46753484 -22.67077246 1.77223727
VERTEX2 579 8.34245017 -22.01922285 1.78731213
VERTEX2 580 8.18035819 -21.37970798 1.86250584
VERTEX2 581 7.98553762 -20.75600797 1.90492496
VERTEX2 582 7.76319189 -20.14124550 1.94809137
VERTEX2 583 7.63273521 -19.83238484 2.02748959
VERTEX2 584 7.62831609 -19.82382090 2.87176380
VERTEX2 585 7.04508702 -19.68450368 2.99032082
VERTEX2 586 6.45108820 -19.61081135 3.08813708
VERTEX2 587 5.83181483 -19.60086788 3.11377931
VERTEX2 588 5.20163246 -19.57606121 3.11847101
VERTEX2 589 4.66351091 -19.60154023 -3.08940341
VERTEX2 590 4.11451845 -19.64636446 -3.02071617
VERTEX2 591 3.57591735 -19.72596463 -3.02265347
VERTEX2 592 3.02830490 -19.80100163 -3.02542276
VERTEX2 593 2.85110361 -19.82348660 -2.82023032
VERTEX2 594 2.89271621 -19.77855951 -1.89992918
VERTEX2 595 2.78068434 -20.38556339 -1.66714272
VERTEX2 596 2.72924366 -21.00942423 -1.69030508
VERTEX2 597 2.63857363 -21.68403736 -1.73026650
VERTEX2 598 2.53715905 -22.28032132 -1.77220075
VERTEX2 599 2.45009633 -22.65536903 -1.83815135
VERTEX2 600 2.45033620 -22.67304672 -1.03175433
VERTEX2 601 2.49000456 -22.69738574 -0.01379250
VERTEX2 602 2.52295976 -22.68405126 1.00005022
VERTEX2 603 2.48835492 -22.45035932 1.77252262
VERTEX2 604 2.42744465 -21.83917773 1.52834837
VERTEX2 605 2.43595987 -21.19287471 1.61097580
VERTEX2 606 2.39518733 -20.54689219 1.65309700
VERTEX2 607 2.40590322 -19.95839998 1.57212559
VERTEX2 608 2.39259040 -19.57387299 1.61665827
VERTEX2 609 2.38906035 -19.55320694 1.95307716
VERTEX2 610 2.38107905 -19.55032619 2.88595639
VERTEX2 611 1.78546494 -19.40036892 2.88902984
VERTEX2 612 1.31275178 -19.26605584 2.89194755
VERTEX2 613 1.34805858 -19.27681545 -2.92723803
VERTEX2 614 1.35401596 -19.27230305 -1.88882913
VERTEX2 615 1.36631453 -19.75776937 -1.58411222
VERTEX2 616 1.37261089 -20.37964222 -1.63516286
VERTEX2 617 1.23431845 -20.98231351 -1.85206356
VERTEX2 618 1.06471257 -21.58777603 -1.84175436
VERTEX2 619 0.90348566 -22.15874271 -1.84293951
VERTEX2 620 0.71974584 -22.73410286 -1.93881295
VERTEX2 621 0.84862247 -22.40128710 -1.99006440
VERTEX2 622 0.97203709 -22.13754641 -2.06479122
VERTEX2 623 0.97142858 -22.13837063 -2.60129670
VERTEX2 624 0.94185514 -22.13807337 3.03994599
VERTEX2 625 0.90018173 -22.12125022 2.38208267
VERTEX2 626 0.87205154 -22.08897468 1.76468342
VERTEX2 627 0.94470556 -21.71719549 1.35430695
VERTEX2 628 1.12359128 -21.09067357 1.25352507
VERTEX2 629 1.29540742 -20.46349020 1.32458425
VERTEX2 630 1.42112246 -19.85613756 1.40956863
VERTEX2 631 1.49343778 -19.32675675 1.42961131
VERTEX2 632 1.49611402 -19.31093792 2.10533484
VERTEX2 633 1.39801391 -19.30432033 -3.09180755
VERTEX2 634 0.73061030 -19.34157909 -3.06445875
VERTEX2 635 0.07748213 -19.35268578 3.08365070
VERTEX2 636 -0.56417002 -19.32449842 3.06602735
VERTEX2 637 -1.19224169 -19.25056412 2.96668996
VERTEX2 638 -1.58405957 -19.17088626 2.93708714
VERTEX2 639 -2.19443843 -19.06840674 3.01737008
VERTEX2 640 -2.80900619 -18.95969244 2.94941932
VERTEX2 641 -3.40898509 -18.84925292 2.94103633
VERTEX2 642 -3.98461848 -18.71246268 2.89564484
VERTEX2 643 -4.46622790 -18.57615914 2.82817942
VERTEX2 644 -4.47030320 -18.57706958 -2.69824694
VERTEX2 645 -4.50679166 -18.71836946 -1.92079072
VERTEX2 646 -4.64382322 -19.32777719 -1.62542172
VERTEX2 647 -4.60026332 -19.97005463 -1.33657006
VERTEX2 648 -4.37730642 -20.59479278 -1.17028248
VERTEX2 649 -4.20366333 -21.19321390 -1.50787162
VERTEX2 650 -4.30428754 -21.82171843 -1.76522202
VERTEX2 651 -4.32176226 -21.96728181 -0.96579013
VERTEX2 652 -4.25935448 -21.99534370 0.05920649
VERTEX2 653 -4.21364696 -21.95428553 1.08967171
VERTEX2 654 -4.22267861 -21.65807458 1.60285632
VERTEX2 655 -4.23311351 -21.10512864 1.59785541
VERTEX2 656 -4.23232483 -20.50349246 1.58522771
VERTEX2 657 -4.33919618 -19.89235603 1.86186639
VERTEX2 658 -4.52988948 -19.27513986 1.85468510
VERTEX2 659 -4.64487586 -18.78162570 1.78350330
VERTEX2 660 -4.64798311 -18.76611151 2.38356383
VERTEX2 661 -4.82892053 -18.74617739 3.03694799
VERTEX2 662 -5.42487572 -18.68655241 3.10652753
VERTEX2 663 -6.00688710 -18.70100585 -3.07558306
VERTEX2 664 -6.01352034 -18.69930839 -2.55235750
VERTEX2 665 -6.02960407 -18.80120725 -1.71871853
VERTEX2 666 -6.10137928 -19.40943815 -1.68158973
VERTEX2 667 -6.15852016 -19.97551953 -1.67697817
VERTEX2 668 -6.22207199 -20.56905232 -1.65120648
VERTEX2 669 -6.27058981 -21.19433496 -1.67634685
VERTEX2 670 -6.37007185 -21.81181858 -1.73583458
VERTEX2 671 -6.41762936 -22.10423744 -1.68086184
VERTEX2 672 -6.31581783 -21.52346024 -1.76998635
VERTEX2 673 -6.24962304 -21.25678315 -1.90055305
VERTEX2 674 -6.23680454 -21.24325700 -2.54872718
VERTEX2 675 -6.21349903 -21.23832967 3.12580880
VERTEX2 676 -6.20751460 -21.24183459 2.50244051
VERTEX2 677 -6.20296359 -21.24812206 1.88656961
VERTEX2 678 -6.17486849 -21.02600602 1.44060515
VERTEX2 679 -6.11063986 -20.44699942 1.50317120
VERTEX2 680 -6.13807018 -19.99870172 1.84803012
VERTEX2 681 -6.29001585 -19.40722315 1.82051287
VERTEX2 682 -6.46206683 -18.80121266 1.86818365
VERTEX2 683 -6.55424848 -18.51887893 2.02733694
VERTEX2 684 -6.50146073 -18.57272940 3.10728977
VERTEX2 685 -6.90612243 -18.73405519 -2.73212486
VERTEX2 686 -7.35405136 -18.87119564 -2.87630662
VERTEX2 687 -7.94920176 -19.02285625 -2.91126365
VERTEX2 688 -8.54763698 -19.14348617 -2.92298832
VERTEX2 689 -9.11245450 -19.28304833 -2.89527710
VERTEX2 690 -9.64883655 -19.45266218 -2.82105762
VERTEX2 691 -10.04441329 -19.58463019 -2.84904636
VERTEX2 692 -10.03025253 -19.57832714 -2.31477176
VERTEX2 693 -10.00725384 -19.65067997 -1.27431801
VERTEX2 694 -9.98307418 -19.72274211 -0.43881763
VERTEX2 695 -9.96458644 -19.71747138 0.36121697
VERTEX2 696 -9.95839321 -19.71341073 1.38674061
VERTEX2 697 -9.97003274 -19.75174847 1.13377823
VERTEX2 698 -9.63964148 -19.54232084 0.47903054
VERTEX2 699 -9.07593010 -19.22843024 0.59307958
VERTEX2 700 -8.56243887 -18.86571241 0.64662117
VERTEX2 701 -8.12849839 -18.50220918 0.70580322
VERTEX2 702 -7.64914008 -18.18627110 0.59066048
VERTEX2 703 -7.13669024 -17.84900673 0.62492894
VERTEX2 704 -6.64303967 -17.46609417 0.64312274
VERTEX2 705 -6.13231612 -17.04506442 0.71338020
VERTEX2 706 -5.70232090 -16.72686458 0.44441141
VERTEX2 707 -5.67698728 -16.72549395 -0.07580753
VERTEX2 708 -5.66707231 -16.73121915 -0.71425410
VERTEX2 709 -5.70696719 -16.68828813 -1.04632089
VERTEX2 710 -5.71138713 -16.67688297 -1.60740961
VERTEX2 711 -5.70197343 -16.68537805 -2.20411191
VERTEX2 712 -5.68166159 -16.66979984 -2.76452169
VERTEX2 713 -6.15456984 -16.72038665 -3.04985738
VERTEX2 714 -6.70784819 -16.69545600 3.03581913
VERTEX2 715 -7.33453698 -16.65870489 3.13942642
VERTEX2 716 -7.96866255 -16.63688405 3.00139392
VERTEX2 717 -8.58983786 -16.56918415 3.08615025
VERTEX2 718 -9.35184494 -16.45075920 2.91077447
VERTEX2 719 -9.96855728 -16.33560835 2.98524431
VERTEX2 720 -10.58112091 -16.22335688 2.92604381
VERTEX2 721 -11.19861314 -16.10766625 2.99426672
VERTEX2 722 -11.21493422 -16.10534463 3.06097074
VERTEX2 723 -11.23529465 -16.12635459 -2.13225528
VERTEX2 724 -11.23539818 -16.17008442 -1.06336873
VERTEX2 725 -11.20801275 -16.18848781 -0.42900478
VERTEX2 726 -10.88230024 -16.18458877 0.02519872
VERTEX2 727 -10.24458754 -16.14663410 0.05594855
VERTEX2 728 -9.60411605 -16.12294709 0.05734279
VERTEX2 729 -8.96613925 -16.06295427 0.11499280
VERTEX2 730 -8.34273106 -15.97111597 0.15250587
VERTEX2 731 -7.69519872 -15.87135302 0.16472639
VERTEX2 732 -7.55389208 -15.84295516 0.61133506
VERTEX2 733 -7.55284224 -15.84467101 1.60794452
VERTEX2 734 -7.61167745 -15.28823917 1.68606348
VERTEX2 735 -7.67272263 -14.68547164 1.65403909
VERTEX2 736 -7.67349968 -14.67397255 2.25360051
VERTEX2 737 -7.66751214 -14.67475743 3.05438616
VERTEX2 738 -8.24658665 -14.63457637 3.07346213
VERTEX2 739 -8.84972007 -14.53996612 3.01584661
VERTEX2 740 -9.35262107 -14.50009033 3.07912090
VERTEX2 741 -9.33244546 -14.49985648 2.71028541
VERTEX2 742 -9.33256295 -14.49979195 2.05752547
VERTEX2 743 -9.33442143 -14.49159866 1.44074156
VERTEX2 744 -9.32461326 -14.46909445 0.90140168
VERTEX2 745 -9.30443074 -14.45851894 0.30793924
VERTEX2 746 -8.76120050 -14.47631924 -0.16690814
VERTEX2 747 -8.11526675 -14.59031064 -0.20214347
VERTEX2 748 -7.53763893 -14.73240896 -0.27044866
VERTEX2 749 -7.45377651 -14.75321257 0.15880840
VERTEX2 750 -7.44341364 -14.73405016 1.08598967
VERTEX2 751 -7.47849324 -14.46035193 1.72633926
VERTEX2 752 -7.53801526 -13.83370125 1.62302745
VERTEX2 753 -7.57737665 -13.19140782 1.68624432
VERTEX2 754 -7.58663513 -12.54723492 1.52413752
VERTEX2 755 -7.56969251 -11.91377555 1.61059987
VERTEX2 756 -7.53408516 -11.27763820 1.43420806
VERTEX2 757 -7.46118272 -10.63189842 1.54611456
VERTEX2 758 -7.48338393 -10.05227499 1.68833833
VERTEX2 759 -7.47453682 -9.50428319 1.56836538
VERTEX2 760 -7.51550395 -8.89114841 1.67976844
VERTEX2 761 -7.51850610 -8.85128431 1.86017663
VERTEX2 762 -7.59551403 -8.81718198 2.69562080
VERTEX2 763 -8.17019816 -8.71654714 2.98847381
VERTEX2 764 -8.59059450 -8.64665921 2.96095110
VERTEX2 765 -8.57988184 -8.64641140 -2.68276297
VERTEX2 766 -8.58140554 -8.65142948 -1.68237879
VERTEX2 767 -8.57655106 -8.66357009 -0.75146268
VERTEX2 768 -8.54949014 -8.66511052 -0.02905456
VERTEX2 769 -7.91398051 -8.57303597 0.12786011
VERTEX2 770 -7.26141237 -8.51072867 0.06073755
VERTEX2 771 -7.17275617 -8.50292104 0.62122798
VERTEX2 772 -7.16944873 -8.49225867 1.48878370
VERTEX2 773 -7.14802313 -7.91332153 1.57460146
VERTEX2 774 -7.16268873 -7.36601212 1.59671536
VERTEX2 775 -7.16191904 -7.36927544 2.44165954
VERTEX2 776 -7.37152624 -7.34460877 3.05910429
VERTEX2 777 -7.98515224 -7.30503731 3.11816446
VERTEX2 778 -8.59805828 -7.29664082 3.09724365
VERTEX2 779 -9.21408946 -7.27736953 3.11536494
VERTEX2 780 -9.42247020 -7.26004246 2.98515615
VERTEX2 781 -9.41943293 -7.26111505 2.41177082
VERTEX2 782 -9.54741037 -6.98928049 1.98223374
VERTEX2 783 -9.78358233 -6.41635218 1.98164611
VERTEX2 784 -9.88336101 -6.18960288 1.96033475
VERTEX2 785 -9.88430514 -6.16471397 1.40839288
VERTEX2 786 -9.87656370 -6.13906452 0.82009416
VERTEX2 787 -9.85953472 -6.12156499 0.32944786
VERTEX2 788 -9.83289369 -6.12332743 -0.29966416
VERTEX2 789 -9.82245775 -6.13148952 -0.85161933
VERTEX2 790 -9.51547518 -6.52610912 -0.91877658
VERTEX2 791 -9.11003383 -7.00728530 -0.82009956
VERTEX2 792 -8.87032481 -7.22019607 -0.11553974
VERTEX2 793 -8.25464434 -7.27185270 -0.07075989
VERTEX2 794 -7.61461180 -7.30014472 0.00047946
VERTEX2 795 -7.63874914 -7.31792490 0.42992755
VERTEX2 796 -7.64533592 -7.32058376 1.08938114
VERTEX2 797 -7.57123927 -7.01108659 1.34958631
VERTEX2 798 -7.43668558 -6.38450025 1.39975647
VERTEX2 799 -7.35021101 -5.74001781 1.46551408
VERTEX2 800 -7.29673506 -5.09353999 1.53845202
VERTEX2 801 -7.30793287 -4.46179196 1.62442528
VERTEX2 802 -7.36201022 -3.83682486 1.68217936
VERTEX2 803 -7.34489138 -3.20821619 1.51758107
VERTEX2 804 -7.32488119 -2.58085572 1.57354660
VERTEX2 805 -7.35831169 -1.95063557 1.64990495
VERTEX2 806 -7.41848468 -1.35259311 1.69139305
VERTEX2 807 -7.44582608 -1.16859862 1.97967716
VERTEX2 808 -7.44890389 -1.16855316 2.92843907
VERTEX2 809 -8.03889397 -1.14033861 3.07325472
VERTEX2 810 -8.65475702 -1.01812264 2.93324126
VERTEX2 811 -9.25221152 -0.90765040 2.93006698
VERTEX2 812 -9.25286602 -0.90754025 -2.62099801
VERTEX2 813 -9.26237737 -0.92887366 -1.64522107
VERTEX2 814 -9.25493077 -0.93473980 -0.65251906
VERTEX2 815 -9.22906263 -0.94337928 0.26718050
VERTEX2 816 -9.22115827 -0.93901726 0.94782925
VERTEX2 817 -9.21053561 -0.93228751 0.27857719
VERTEX2 818 -8.99052118 -0.96530210 -0.21069134
VERTEX2 819 -8.40160871 -1.09130724 -0.19673762
VERTEX2 820 -7.81028719 -1.22148049 -0.23814855
VERTEX2 821 -7.26648827 -1.35086594 -0.22252639
VERTEX2 822 -7.21765493 -1.35822082 0.53874803
VERTEX2 823 -7.21622027 -1.34288224 1.45771858
VERTEX2 824 -7.15283582 -0.72018349 1.37834082
VERTEX2 825 -7.00920374 -0.09600106 1.34863870
VERTEX2 826 -6.95245302 0.53663817 1.51154147
VERTEX2 827 -6.88883329 1.16101995 1.46286346
VERTEX2 828 -6.83491969 1.79280045 1.49837082
VERTEX2 829 -6.77463130 2.39672636 1.45863305
VERTEX2 830 -6.70039683 3.00598839 1.45031959
VERTEX2 831 -6.60688944 3.58360580 1.40353074
VERTEX2 832 -6.51730684 4.14690037 1.39996946
VERTEX2 833 -6.47356644 4.40248095 1.53763033
VERTEX2 834 -6.47556440 4.40953382 2.59230493
VERTEX2 835 -6.48867778 4.41102950 -2.91320256
VERTEX2 836 -6.50080064 4.40076828 -1.97012654
VERTEX2 837 -6.49740555 4.38234117 -0.93375063
VERTEX2 838 -6.48584016 4.37515163 -0.07154426
VERTEX2 839 -6.48545574 4.37496938 -0.28980823
VERTEX2 840 -6.47458931 4.36646918 -0.85245426
VERTEX2 841 -6.46700980 4.35126799 -1.46953748
VERTEX2 842 -6.49297448 4.10542161 -1.70036767
VERTEX2 843 -6.57078277 3.54155561 -1.70290433
VERTEX2 844 -6.64555886 2.91570887 -1.71093682
VERTEX2 845 -6.73888240 2.29036379 -1.72567552
VERTEX2 846 -6.82431263 1.66080569 -1.72396541
VERTEX2 847 -6.93366211 1.03906091 -1.75073471
VERTEX2 848 -6.96426607 0.84362262 -1.27034208
VERTEX2 849 -6.96356132 0.84337535 -0.34823629
VERTEX2 850 -6.60837739 0.84020168 0.00512143
VERTEX2 851 -5.98111788 0.81475525 -0.08740381
VERTEX2 852 -5.35671340 0.75412061 -0.07300968
VERTEX2 853 -4.76188252 0.71216186 -0.10095050
VERTEX2 854 -4.17466754 0.64489925 -0.09896202
VERTEX2 855 -3.57978952 0.59452943 -0.10077430
VERTEX2 856 -2.92620069 0.50947954 -0.14145706
VERTEX2 857 -2.27378370 0.42074590 -0.15099912
VERTEX2 858 -1.62777416 0.29958258 -0.20551033
VERTEX2 859 -1.10964990 0.19646798 -0.21236787
VERTEX2 860 -1.08352639 0.20726081 0.63843052
VERTEX2 861 -1.06806056 0.31722933 1.55323231
VERTEX2 862 -1.03038353 0.97706936 1.49360928
VERTEX2 863 -0.97362174 1.62149143 1.46112543
VERTEX2 864 -0.88717262 2.23187835 1.45901031
VERTEX2 865 -0.84644811 2.84345168 1.51663579
VERTEX2 866 -0.80224570 3.42950532 1.51551514
VERTEX2 867 -0.79489402 3.59361819 1.69672817
VERTEX2 868 -0.80226104 3.60291872 2.72053626
VERTEX2 869 -0.79165620 3.60307574 -2.58428842
VERTEX2 870 -0.77190996 3.61371251 -1.58481595
VERTEX2 871 -0.75719320 3.60375635 -0.61109323
VERTEX2 872 -0.73877691 3.59048186 0.07418293
VERTEX2 873 -0.71144331 3.58139998 -0.49837806
VERTEX2 874 -0.69018753 3.56222815 -1.05797588
VERTEX2 875 -0.68385680 3.54736603 -1.64448040
VERTEX2 876 -0.80336719 2.99132262 -1.80204297
VERTEX2 877 -0.95515829 2.44934556 -1.88669490
VERTEX2 878 -1.00554227 2.24970538 -1.50373061
VERTEX2 879 -0.90399716 1.61132051 -1.45270095
VERTEX2 880 -0.86816837 1.16234096 -1.56539014
VERTEX2 881 -0.86857545 1.21225306 -1.56004718
VERTEX2 882 -0.92471617 0.57278306 -1.80657078
VERTEX2 883 -1.14006799 -0.02237628 -1.99729674
VERTEX2 884 -1.29836558 -0.35446314 -2.06426599
VERTEX2 885 -1.29834310 -0.35438818 -1.48271704
VERTEX2 886 -1.28124466 -0.37039427 -0.46477586
VERTEX2 887 -1.25274585 -0.38146539 0.54647703
VERTEX2 888 -1.24268906 -0.36028592 1.53051732
VERTEX2 889 -1.24426804 -0.35576288 2.42851672
VERTEX2 890 -1.55990663 -0.20333678 2.70243359
VERTEX2 891 -2.09733893 0.06315528 2.63211785
VERTEX2 892 -2.63115083 0.38219617 2.59655848
VERTEX2 893 -3.18422906 0.67768476 2.83285311
VERTEX2 894 -3.79734177 0.78865642 3.05391919
VERTEX2 895 -4.39690591 0.73956109 -2.93098724
VERTEX2 896 -4.41588539 0.73501964 -2.45245313
VERTEX2 897 -4.70028229 0.31375947 -2.18014764
VERTEX2 898 -5.05211572 -0.19678079 -2.16451908
VERTEX2 899 -5.33902852 -0.60771362 -2.23214586
VERTEX2 900 -5.75272272 -1.15290128 -2.23445590
VERTEX2 901 -6.12472411 -1.59799569 -2.29876065
VERTEX2 902 -6.54124946 -2.09031525 -2.27348002
VERTEX2 903 -6.85777388 -2.47003628 -2.31821273
VERTEX2 904 -6.85868461 -2.47133955 -1.61506226
VERTEX2 905 -6.84496998 -2.96444926 -1.55957294
VERTEX2 906 -6.81115089 -3.53574626 -1.49384065
VERTEX2 907 -6.75502208 -4.11018437 -1.50201372
VERTEX2 908 -6.70887201 -4.73253586 -1.47722608
VERTEX2 909 -6.64846784 -5.34506964 -1.49514124
VERTEX2 910 -6.67618631 -5.47428551 -1.86502287
VERTEX2 911 -6.83631550 -6.04490574 -1.80414835
VERTEX2 912 -6.95727711 -6.60879409 -1.79154337
VERTEX2 913 -7.06934496 -7.15070484 -1.78363786
VERTEX2 914 -7.19531952 -7.73877074 -1.80733999
VERTEX2 915 -7.31878439 -8.24761725 -1.84411365
VERTEX2 916 -7.25361250 -8.49497849 -1.29671474
VERTEX2 917 -7.11391995 -9.14685888 -1.55124925
VERTEX2 918 -7.13416834 -9.66612656 -1.62688539
VERTEX2 919 -7.16787055 -10.29109864 -1.67031945
VERTEX2 920 -7.23255973 -10.90606522 -1.68803615
VERTEX2 921 -7.30615107 -11.52212540 -1.74154071
VERTEX2 922 -7.40901017 -12.12628777 -1.76892759
VERTEX2 923 -7.52952983 -12.69275265 -1.83260245
VERTEX2 924 -7.66183537 -13.18684390 -1.81648799
VERTEX2 925 -7.66261980 -13.18289382 -1.31147110
VERTEX2 926 -7.50308539 -13.74603368 -1.29515987
VERTEX2 927 -7.33669326 -14.33774819 -1.31836636
VERTEX2 928 -7.17935317 -14.94482960 -1.32721006
VERTEX2 929 -7.02849623 -15.54903428 -1.32803020
VERTEX2 930 -6.88152742 -16.18019761 -1.41062261
VERTEX2 931 -6.79564063 -16.80662917 -1.49086439
VERTEX2 932 -6.74987563 -17.43370916 -1.55031536
VERTEX2 933 -6.74682692 -18.04613446 -1.61492139
VERTEX2 934 -6.76174246 -18.52656790 -1.62475187
VERTEX2 935 -6.75900476 -18.53929753 -0.94253909
VERTEX2 936 -6.75665440 -18.54012459 0.00265691
VERTEX2 937 -6.21378014 -18.51534502 0.06554482
VERTEX2 938 -5.61696513 -18.53187475 -0.10784894
VERTEX2 939 -4.99234166 -18.59225912 -0.08012487
VERTEX2 940 -4.38009719 -18.66797932 -0.16592519
VERTEX2 941 -3.77508001 -18.78403889 -0.21952322
VERTEX2 942 -3.25621919 -18.90023707 -0.21497898
VERTEX2 943 -2.64689801 -19.03459495 -0.12659628
VERTEX2 944 -2.03349506 -19.11811941 -0.18320436
VERTEX2 945 -1.41124191 -19.24764551 -0.23828352
VERTEX2 946 -1.23559125 -19.29258810 -0.17391396
VERTEX2 947 -0.82551297 -19.22983048 0.15438387
VERTEX2 948 -0.25143696 -19.14097106 0.13527162
VERTEX2 949 0.35293549 -19.10705696 -0.02035579
VERTEX2 950 0.98448050 -19.14402088 -0.25984216
VERTEX2 951 1.58772588 -19.31789366 -0.33197121
VERTEX2 952 2.19069023 -19.49476316 -0.08116698
VERTEX2 953 2.82168536 -19.52712779 -0.00087520
VERTEX2 954 3.44700942 -19.52046329 -0.00786961
VERTEX2 955 4.03718541 -19.56672109 -0.16868954
VERTEX2 956 4.58853171 -19.64585842 -0.17098406
VERTEX2 957 5.12056784 -19.74274202 -0.25868262
VERTEX2 958 5.58775007 -19.85565971 -0.28542028
VERTEX2 959 6.01982405 -19.97470083 -0.35252678
VERTEX2 960 6.60909625 -20.13797222 -0.27263956
VERTEX2 961 7.19066420 -20.31253074 -0.29967889
VERTEX2 962 7.80813644 -20.44141295 -0.23407202
VERTEX2 963 8.42582116 -20.52252607 -0.04740751
VERTEX2 964 9.04810189 -20.56430563 -0.11130942
VERTEX2 965 9.66602561 -20.64361511 -0.11820774
VERTEX2 966 10.11030005 -20.70229593 -0.17719041
VERTEX2 967 10.14384692 -20.69548560 0.67618491
VERTEX2 968 10.15218327 -20.68760458 1.57289707
VERTEX2 969 10.15456681 -20.71530641 1.63235169
VERTEX2 970 10.15709802 -20.74323660 1.63060767
VERTEX2 971 10.13636646 -20.40998220 1.63072863
VERTEX2 972 10.09720485 -19.82346422 1.63633035
VERTEX2 973 10.17620548 -19.24119292 1.35128609
VERTEX2 974 10.31492427 -18.63923492 1.38305496
VERTEX2 975 10.42576710 -18.03323146 1.38760464
VERTEX2 976 10.52987720 -17.42459291 1.40044220
VERTEX2 977 10.66492867 -16.80630432 1.37415865
VERTEX2 978 10.78521104 -16.19433121 1.42013220
VERTEX2 979 10.89930514 -15.58626757 1.40786609
VERTEX2 980 10.99633285 -14.98149364 1.45480924
VERTEX2 981 11.08425186 -14.38738443 1.46174848
VERTEX2 982 11.13975215 -13.86022614 1.50677076
VERTEX2 983 11.18803121 -13.26153752 1.50339522
VERTEX2 984 11.21391875 -12.66542888 1.56077488
VERTEX2 985 11.22345242 -12.06846829 1.58107232
VERTEX2 986 11.20711911 -11.44805764 1.61742958
VERTEX2 987 11.19305600 -10.82913145 1.58076456
VERTEX2 988 11.19438815 -10.21046660 1.59450455
VERTEX2 989 11.17840687 -9.59656433 1.60208851
VERTEX2 990 11.17030878 -8.98593677 1.59125790
VERTEX2 991 11.15380469 -8.37182785 1.61604643
VERTEX2 992 11.14759551 -7.78560140 1.58343182
VERTEX2 993 11.13275450 -7.16996245 1.61617055
VERTEX2 994 11.11535894 -6.58508975 1.60622392
VERTEX2 995 11.08209159 -5.98606379 1.65341997
VERTEX2 996 11.02083777 -5.37194085 1.68047117
VERTEX2 997 10.97457484 -4.71922050 1.61596703
VERTEX2 998 10.95395933 -4.30877085 1.63774305
VERTEX2 999 10.97682514 -4.32724579 2.35534841
VERTEX2 1000 10.50916671 -3.96372959 2.50389712
VERTEX2 1001 10.06508581 -3.55956265 2.18282906
VERTEX2 1002 9.69430079 -3.08333077 2.27542476
VERTEX2 1003 9.34088643 -2.57963658 2.09574127
VERTEX2 1004 9.00223351 -2.04314839 2.15391585
VERTEX2 1005 8.64899015 -1.54922887 2.21629900
VERTEX2 1006 8.25380571 -1.07172245 2.29364255
VERTEX2 1007 7.84194844 -0.64641290 2.38528617
VERTEX2 1008 7.60724180 -0.43245817 2.54480022
VERTEX2 1009 7.51045296 -0.41782062 3.01781393
VERTEX2 1010 6.94398332 -0.36214474 3.07035093
VERTEX2 1011 6.32839915 -0.32303998 3.02729206
VERTEX2 1012 5.71907087 -0.25997636 3.06923921
VERTEX2 1013 5.08301012 -0.26267280 -3.09894081
VERTEX2 1014 4.47019469 -0.21475924 3.00899107
VERTEX2 1015 3.84533142 -0.17548508 3.09349145
VERTEX2 1016 3.07583839 -0.13796901 3.10024482
VERTEX2 1017 2.49100183 -0.12457710 3.04307943
VERTEX2 1018 1.93381476 -0.06277298 3.05036296
VERTEX2 1019 1.33946080 -0.03825672 3.10989498
VERTEX2 1020 0.72488151 -0.00224947 3.09592856
VERTEX2 1021 0.10439363 0.02690739 3.05530560
VERTEX2 1022 0.05151330 0.03128955 3.04805808
VERTEX2 1023 0.05898303 0.03114428 3.13462648
VERTEX2 1024 -0.56740387 0.03900638 -3.12225275
VERTEX2 1025 -1.19601898 0.00863642 -3.10471000
VERTEX2 1026 -1.35692577 0.00319815 -3.09756510
VERTEX2 1027 -1.34086785 0.01105833 -2.18114660
VERTEX2 1028 -1.35414040 -0.15601282 -1.61775928
VERTEX2 1029 -1.38318624 -0.72289574 -1.63935072
VERTEX2 1030 -1.44726651 -1.34516475 -1.72004507
VERTEX2 1031 -1.56074928 -1.99131425 -1.77445778
VERTEX2 1032 -1.69233246 -2.63741532 -1.77065422
VERTEX2 1033 -1.83709423 -3.28222264 -1.81606273
VERTEX2 1034 -1.88228589 -3.45375611 -2.03019701
VERTEX2 1035 -1.88745744 -3.45809975 -2.65017165
VERTEX2 1036 -1.85478702 -3.47329127 3.06157700
VERTEX2 1037 -2.19269322 -3.34341801 2.82280976
VERTEX2 1038 -2.80213399 -3.21940144 2.91373036
VERTEX2 1039 -3.43832278 -3.04786986 2.88194183
VERTEX2 1040 -3.41105554 -3.04864583 -2.77190854
VERTEX2 1041 -3.38004963 -3.05289531 -1.75627557
VERTEX2 1042 -3.38216138 -3.08727703 -0.76960148
VERTEX2 1043 -3.34691480 -3.12024266 0.19872314
VERTEX2 1044 -3.36057643 -3.13609643 1.19128872
VERTEX2 1045 -3.36382407 -3.14307355 1.07716890
VERTEX2 1046 -3.37450876 -3.15716066 0.69148988
VERTEX2 1047 -3.39331337 -3.16513498 0.13553592
VERTEX2 1048 -3.03100427 -3.23800720 -0.17758583
VERTEX2 1049 -2.38606495 -3.34288462 -0.16050282
VERTEX2 1050 -1.73912450 -3.42004346 -0.08490487
VERTEX2 1051 -1.08425152 -3.50018324 -0.16404944
VERTEX2 1052 -0.46102646 -3.58754201 -0.11109733
VERTEX2 1053 -0.04409923 -3.64623331 -0.16372747
VERTEX2 1054 -0.01754184 -3.64931167 0.59841100
VERTEX2 1055 -0.01076992 -3.61907873 1.65314286
VERTEX2 1056 -0.00224377 -3.63185512 2.65665893
VERTEX2 1057 0.02281784 -3.63492548 -2.63533381
VERTEX2 1058 0.01955399 -3.63866953 -1.71284185
VERTEX2 1059 -0.08531199 -4.22235100 -1.79350503
VERTEX2 1060 -0.22953810 -4.85291011 -1.78842710
VERTEX2 1061 -0.34236061 -5.29997182 -1.91086606
VERTEX2 1062 -0.34781288 -5.30813938 -2.47507692
VERTEX2 1063 -0.32579539 -5.29587830 -3.07288919
VERTEX2 1064 -0.60562478 -5.23986196 2.94499828
VERTEX2 1065 -1.19237749 -5.16582573 3.06693567
VERTEX2 1066 -1.75475544 -5.10672910 3.01080422
VERTEX2 1067 -1.73996096 -5.10613477 -2.83975025
VERTEX2 1068 -1.72665302 -5.09702295 -2.16701304
VERTEX2 1069 -1.72557870 -5.09422160 -1.99666125
VERTEX2 1070 -1.72348649 -5.09063578 -2.53566244
VERTEX2 1071 -2.19773190 -5.34069250 -2.66289886
VERTEX2 1072 -2.64991553 -5.56755584 -2.73157756
VERTEX2 1073 -2.62052344 -5.56715229 3.04042758
VERTEX2 1074 -3.14947024 -5.48896196 3.00605316
VERTEX2 1075 -3.72600600 -5.40580863 3.02260851
VERTEX2 1076 -3.73952190 -5.40474315 -2.85617302
VERTEX2 1077 -3.75271070 -5.42897996 -2.04983987
VERTEX2 1078 -3.99773051 -6.03671074 -2.00458910
VERTEX2 1079 -4.23657241 -6.60140726 -1.94238379
VERTEX2 1080 -4.24167735 -6.61463742 -2.42977066
VERTEX2 1081 -4.67002143 -6.90111197 -2.55294735
VERTEX2 1082 -4.83910654 -7.01661230 -2.27223006
VERTEX2 1083 -4.83467395 -7.05307654 -1.24107465
VERTEX2 1084 -4.75809558 -7.09335572 -0.27527647
VERTEX2 1085 -4.76896691 -7.09606175 0.70734591
VERTEX2 1086 -4.40520790 -6.61141778 0.93763204
VERTEX2 1087 -4.02185060 -6.10930649 0.92539443
VERTEX2 1088 -3.65681459 -5.60267575 0.90844938
VERTEX2 1089 -3.59955448 -5.53036279 0.81258325
VERTEX2 1090 -3.58891328 -5.52087143 0.19655730
VERTEX2 1091 -3.05324658 -5.49575875 0.01920848
VERTEX2 1092 -2.43666154 -5.48874515 0.00371508
VERTEX2 1093 -1.87043795 -5.49949367 -0.06175629
VERTEX2 1094 -1.85632665 -5.51333494 -0.46747812
VERTEX2 1095 -1.82483859 -5.54218099 -1.05932399
VERTEX2 1096 -1.82467099 -5.54307223 -1.63262306
VERTEX2 1097 -1.91431270 -5.86571002 -1.84931595
VERTEX2 1098 -2.10396829 -6.45749307 -1.90711485
VERTEX2 1099 -2.32477203 -7.01522449 -2.00518325
VERTEX2 1100 -2.33150778 -7.03113060 -1.64517793
VERTEX2 1101 -2.27994344 -7.29878599 -1.38192999
VERTEX2 1102 -2.28118755 -7.30964161 -1.77887363
VERTEX2 1103 -2.43015487 -7.91601737 -1.81443130
VERTEX2 1104 -2.59197955 -8.54795743 -1.84388599
VERTEX2 1105 -2.77166746 -9.16486872 -1.86350915
VERTEX2 1106 -2.91731910 -9.63756031 -1.89049784
VERTEX2 1107 -2.91684958 -9.64801162 -1.63700691
VERTEX2 1108 -2.91464300 -10.27731084 -1.63085176
VERTEX2 1109 -2.99914089 -10.91985306 -1.73682733
VERTEX2 1110 -3.10533641 -11.52475746 -1.78819158
VERTEX2 1111 -3.30376325 -12.04525156 -1.89150695
VERTEX2 1112 -3.37030378 -12.62359179 -1.54812234
VERTEX2 1113 -3.37215696 -13.26581070 -1.64551817
VERTEX2 1114 -3.41748074 -13.88289395 -1.63021358
VERTEX2 1115 -3.44914230 -14.46736812 -1.64814549
VERTEX2 1116 -3.47668526 -15.11737042 -1.61369505
VERTEX2 1117 -3.48003702 -15.21698696 -1.74362168
VERTEX2 1118 -3.47868256 -15.21477035 -2.35527350
VERTEX2 1119 -3.46849665 -15.20871105 -2.79042568
VERTEX2 1120 -4.04328142 -15.37233920 -2.85597217
VERTEX2 1121 -4.23563229 -15.42440051 -2.97668639
VERTEX2 1122 -3.92623150 -15.54918687 2.74635758
VERTEX2 1123 -4.45543292 -15.31911479 2.76153415
VERTEX2 1124 -4.99695435 -15.14317910 2.85823325
VERTEX2 1125 -5.60594288 -14.96327836 2.86999803
VERTEX2 1126 -5.68952292 -14.94216291 -3.07542542
VERTEX2 1127 -5.59273588 -15.05026461 -1.89858798
VERTEX2 1128 -5.59241394 -15.04836941 -0.91575117
VERTEX2 1129 -5.57855625 -15.05577307 0.09519473
VERTEX2 1130 -4.99622756 -14.98222125 0.10780590
VERTEX2 1131 -4.22576794 -15.09518810 -0.32617678
VERTEX2 1132 -3.61679340 -15.30376039 -0.34690641
VERTEX2 1133 -3.07156393 -15.52422589 -0.38667292
VERTEX2 1134 -2.82160156 -15.62631112 -0.48486829
VERTEX2 1135 -2.81263873 -15.63495667 -1.04334503
VERTEX2 1136 -2.81402499 -15.63787066 -1.60776384
VERTEX2 1137 -2.86696572 -15.93830915 -1.79259078
VERTEX2 1138 -3.02089971 -16.57014440 -1.80939832
VERTEX2 1139 -3.13971792 -17.06581032 -1.88257353
VERTEX2 1140 -3.13005714 -17.04264266 -2.36148470
VERTEX2 1141 -3.10916461 -17.02234463 -2.90882651
VERTEX2 1142 -3.47309193 -16.97856746 3.01008221
VERTEX2 1143 -4.07192181 -16.93111498 3.09951513
VERTEX2 1144 -4.65366786 -16.89601864 3.06893085
VERTEX2 1145 -5.23295841 -16.84959629 3.04349650
VERTEX2 1146 -5.80985237 -16.79144457 3.06327349
VERTEX2 1147 -6.39024362 -16.78044985 3.13601670
VERTEX2 1148 -6.96811828 -16.77701262 -3.13713768
VERTEX2 1149 -7.01025439 -16.77822946 -2.63889180
VERTEX2 1150 -7.10349052 -16.88151148 -1.82912665
VERTEX2 1151 -7.10064620 -16.89778159 -0.82489008
VERTEX2 1152 -7.07839336 -16.89815735 0.22870010
VERTEX2 1153 -7.06648053 -16.89279951 1.24127056
VERTEX2 1154 -7.12552842 -16.57416984 1.78717199
VERTEX2 1155 -7.25787427 -15.94806676 1.73775241
VERTEX2 1156 -7.35422892 -15.34075154 1.74769906
VERTEX2 1157 -7.48057990 -14.76793182 1.85871265
VERTEX2 1158 -7.60599364 -14.16409247 1.73004455
VERTEX2 1159 -7.66505766 -13.56140063 1.63605033
VERTEX2 1160 -7.68607125 -12.92223771 1.49934830
VERTEX2 1161 -7.58485503 -12.29149902 1.40969293
VERTEX2 1162 -7.49188097 -11.66043864 1.46783929
VERTEX2 1163 -7.42781969 -11.01832116 1.46241686
VERTEX2 1164 -7.37809570 -10.37364316 1.54784062
VERTEX2 1165 -7.36603555 -9.83430512 1.52501754
VERTEX2 1166 -7.36664617 -9.83132519 2.01398020
VERTEX2 1167 -7.31384062 -9.81857414 2.95060214
VERTEX2 1168 -7.26839591 -9.80058070 -2.42914335
VERTEX2 1169 -7.27246580 -9.85226560 -1.60713632
VERTEX2 1170 -7.28343404 -10.43863494 -1.60041092
VERTEX2 1171 -7.28405184 -11.07379828 -1.56865011
VERTEX2 1172 -7.28909525 -11.67299956 -1.63108693
VERTEX2 1173 -7.31980388 -12.29681040 -1.62196326
VERTEX2 1174 -7.36445809 -12.92576122 -1.69069996
VERTEX2 1175 -7.45136833 -13.53940562 -1.72413815
VERTEX2 1176 -7.54986279 -14.16057295 -1.76776979
VERTEX2 1177 -7.67048186 -14.76965205 -1.76568697
VERTEX2 1178 -7.80265083 -15.38263684 -1.81286023
VERTEX2 1179 -7.94125770 -15.98748062 -1.78347805
VERTEX2 1180 -7.99603622 -16.24165891 -1.79043260
VERTEX2 1181 -7.99529748 -16.23654212 -0.96284929
VERTEX2 1182 -7.93931600 -16.25084477 -0.25103332
VERTEX2 1183 -7.32547052 -16.40066449 -0.22569938
VERTEX2 1184 -6.69234044 -16.51633664 -0.15615256
VERTEX2 1185 -6.06411240 -16.62754676 -0.18841344
VERTEX2 1186 -5.43229090 -16.72327063 -0.12224177
VERTEX2 1187 -4.77812931 -16.80961890 -0.15936056
VERTEX2 1188 -4.15054888 -16.90033798 -0.14128636
VERTEX2 1189 -3.49895016 -17.00659663 -0.11969140
VERTEX2 1190 -3.17913592 -17.04569914 -0.11175736
VERTEX2 1191 -3.15850036 -17.04526341 0.80820185
VERTEX2 1192 -3.15274593 -16.96229075 1.60556057
VERTEX2 1193 -3.14647014 -16.36214987 1.47339601
VERTEX2 1194 -3.10555068 -15.78847234 1.51529158
VERTEX2 1195 -3.07741193 -15.16516799 1.56743878
VERTEX2 1196 -3.07184428 -14.54122021 1.39450840
VERTEX2 1197 -2.96883521 -13.92814806 1.40553266
VERTEX2 1198 -2.89853563 -13.30249920 1.66396229
VERTEX2 1199 -2.91558364 -12.68939243 1.44883352
VERTEX2 1200 -2.85806552 -12.06021565 1.51746261
VERTEX2 1201 -2.83250713 -11.44066796 1.57287309
VERTEX2 1202 -2.84193439 -10.81755879 1.59538643
VERTEX2 1203 -2.87139011 -10.22687132 1.50492437
VERTEX2 1204 -2.75588157 -9.63729203 1.35749746
VERTEX2 1205 -2.64591737 -9.07682975 1.38651415
VERTEX2 1206 -2.55829215 -8.48869738 1.44711243
VERTEX2 1207 -2.41853913 -7.88046605 1.36030453
VERTEX2 1208 -2.30297198 -7.25792843 1.42426236
VERTEX2 1209 -2.21230750 -6.63817341 1.42163796
VERTEX2 1210 -2.14325830 -6.02204063 1.44146196
VERTEX2 1211 -2.01262433 -5.40888909 1.36962924
VERTEX2 1212 -1.89377682 -4.79554952 1.42055802
VERTEX2 1213 -1.82321425 -4.17838505 1.49471986
VERTEX2 1214 -1.73842718 -3.44941085 1.27307075
VERTEX2 1215 -1.57257028 -2.86569202 1.33280215
VERTEX2 1216 -1.52098003 -2.30866871 1.55097862
VERTEX2 1217 -1.48616449 -1.72444363 1.53220143
VERTEX2 1218 -1.47163552 -1.13431877 1.48153243
VERTEX2 1219 -1.42013348 -0.48533409 1.51213043
VERTEX2 1220 -1.41237800 0.10171712 1.60286843
VERTEX2 1221 -1.41183706 0.09988753 1.15011543
VERTEX2 1222 -1.40184645 0.10959054 0.55280843
VERTEX2 1223 -1.39000892 0.11237608 -0.00681857
VERTEX2 1224 -0.81615956 0.01939712 -0.18972657
VERTEX2 1225 -0.20095115 -0.09477092 -0.17596257
VERTEX2 1226 -0.09611081 -0.11352239 -0.19269357
VERTEX2 1227 -0.09611081 -0.11352239 -0.19335557
