VERTEX2 0 -0.00000742 -0.00000007 -0.00000089
VERTEX2 1 -0.00000742 -0.00000007 -0.00064289
VERTEX2 2 -0.00000742 -0.00000007 -0.00118089
VERTEX2 3 0.01099443 -0.00097507 -0.00356289
VERTEX2 4 0.64100100 -0.01120077 -0.00744489
VERTEX2 5 0.69600868 -0.01171630 -0.09872689
VERTEX2 6 0.70026179 -0.01543563 -0.89599889
VERTEX2 7 0.69394908 0.00421286 -1.51153589
VERTEX2 8 0.69929679 0.02686863 -2.12431524
VERTEX2 9 0.71331333 0.03888729 -2.76160865
VERTEX2 10 0.72336859 0.04054073 2.90817112
VERTEX2 11 0.72206085 0.04136160 2.23510305
VERTEX2 12 0.72190914 0.04854825 1.58680419
VERTEX2 13 0.72877365 0.07055486 0.92849391
VERTEX2 14 0.74988661 0.08557888 0.32136775
VERTEX2 15 0.75538729 0.08599226 -0.20256020
VERTEX2 16 1.04491628 0.02925137 -0.22081326
VERTEX2 17 1.64234479 -0.11133427 -0.25160606
VERTEX2 18 2.26213324 -0.26743988 -0.26137983
VERTEX2 19 2.88260227 -0.45630256 -0.30961447
VERTEX2 20 3.47449726 -0.63914725 -0.30361485
VERTEX2 21 4.08155956 -0.78437257 -0.19195362
VERTEX2 22 4.68943372 -0.91859674 -0.17449968
VERTEX2 23 5.32681163 -0.95598687 -0.06701202
VERTEX2 24 5.95594809 -1.02027052 -0.12403459
VERTEX2 25 6.58839125 -1.08100228 -0.12125469
VERTEX2 26 7.19960227 -1.17573659 -0.16132768
VERTEX2 27 7.81329892 -1.26002807 -0.14533041
VERTEX2 28 8.39277025 -1.35181529 -0.14962220
VERTEX2 29 8.76576687 -1.40413692 -0.11879372
VERTEX2 30 8.77458275 -1.40637760 -0.65142377
VERTEX2 31 8.87609606 -1.53960058 -0.92013284
VERTEX2 32 9.24843858 -2.04916354 -0.93890055
VERTEX2 33 9.62648552 -2.53878731 -0.88770549
VERTEX2 34 10.03816249 -3.01846129 -0.86642317
VERTEX2 35 10.45995122 -3.49040108 -0.83194340
VERTEX2 36 10.88845269 -3.96344757 -0.84033325
VERTEX2 37 11.16858732 -4.26880324 -0.83247984
VERTEX2 38 11.16010854 -4.25760093 -1.15433818
VERTEX2 39 11.15599344 -4.23996816 -1.32546786
VERTEX2 40 11.30425194 -4.80059392 -1.30830835
VERTEX2 41 11.45827284 -5.38622897 -1.34037299
VERTEX2 42 11.58548746 -5.94028546 -1.36347430
VERTEX2 43 11.69714950 -6.52640426 -1.40404347
VERTEX2 44 11.79193131 -7.11217590 -1.44134840
VERTEX2 45 11.85341601 -7.72500096 -1.49662403
VERTEX2 46 11.89126605 -8.34003943 -1.51579191
VERTEX2 47 11.91847371 -8.95499505 -1.55724624
VERTEX2 48 11.92242122 -9.58406752 -1.56382078
VERTEX2 49 11.92253081 -10.20913697 -1.61467917
VERTEX2 50 11.87587491 -10.80242236 -1.65919676
VERTEX2 51 11.82985076 -11.38387407 -1.68801694
VERTEX2 52 11.74313133 -11.95143252 -1.76450573
VERTEX2 53 11.65357331 -12.49340428 -1.75198257
VERTEX2 54 11.55120579 -12.98926628 -1.81390558
VERTEX2 55 11.56078699 -12.94022560 -1.80847657
VERTEX2 56 11.56286456 -12.93172838 -1.79772283
VERTEX2 57 11.42412673 -13.56357321 -1.80934538
VERTEX2 58 11.28242347 -14.18365448 -1.76335936
VERTEX2 59 11.15648981 -14.81094871 -1.78686785
VERTEX2 60 11.02990060 -15.43462629 -1.76540665
VERTEX2 61 10.89737498 -16.05890734 -1.81605476
VERTEX2 62 10.75370401 -16.62238912 -1.77603495
VERTEX2 63 10.60839120 -17.19064739 -1.81134561
VERTEX2 64 10.47973981 -17.75318432 -1.74775339
VERTEX2 65 10.35218877 -18.31193952 -1.79912284
VERTEX2 66 10.20601176 -18.90075496 -1.80711544
VERTEX2 67 10.05048536 -19.48472861 -1.80598899
VERTEX2 68 9.94714605 -19.93066717 -1.82155674
VERTEX2 69 9.95119020 -19.91686530 -1.97621885
VERTEX2 70 9.95807814 -19.90325517 -2.65052670
VERTEX2 71 9.98163670 -19.90159061 2.98975635
VERTEX2 72 9.99551851 -19.90328024 2.98018752
VERTEX2 73 10.00444226 -19.90536650 2.91514767
VERTEX2 74 10.00694874 -19.90700119 2.29311539
VERTEX2 75 10.01558034 -19.91025676 1.94060931
VERTEX2 76 10.00615137 -19.90003739 2.63424403
VERTEX2 77 10.00378321 -19.89906720 2.86707142
VERTEX2 78 9.71983456 -19.91320648 -3.07888328
VERTEX2 79 9.09938488 -19.95964498 -3.08412236
VERTEX2 80 8.46521328 -19.96585324 3.12454260
VERTEX2 81 7.83842326 -19.94656828 3.09879529
VERTEX2 82 7.23676344 -19.91314074 3.04457886
VERTEX2 83 6.65119094 -19.86946029 3.02092361
VERTEX2 84 6.09267909 -19.79143553 2.94287767
VERTEX2 85 5.55502598 -19.69556369 2.94988135
VERTEX2 86 4.95468961 -19.58545229 2.85944977
VERTEX2 87 4.55489194 -19.48003261 2.80778477
VERTEX2 88 4.19878699 -19.35246794 2.77790223
VERTEX2 89 4.21071897 -19.35289700 -3.10973068
VERTEX2 90 3.60739231 -19.36283811 -3.14094614
VERTEX2 91 2.99323833 -19.36522787 -3.09200014
VERTEX2 92 2.39516385 -19.36750421 3.07531962
VERTEX2 93 1.77534789 -19.27174298 2.97427347
VERTEX2 94 1.15569383 -19.14018567 2.93131678
VERTEX2 95 0.53637186 -19.05867758 3.07382882
VERTEX2 96 -0.07087637 -19.01350150 3.09782511
VERTEX2 97 -0.65788175 -18.95633901 3.02713542
VERTEX2 98 -1.24389619 -18.86132914 2.96907423
VERTEX2 99 -1.94662443 -18.74396111 3.01579498
VERTEX2 100 -2.50872740 -18.64171834 2.96397072
VERTEX2 101 -3.11656449 -18.59088901 3.06715168
VERTEX2 102 -3.72900834 -18.51622710 2.96114566
VERTEX2 103 -4.33729207 -18.40699071 3.05702099
VERTEX2 104 -4.94915730 -18.33620975 3.02330116
VERTEX2 105 -5.56107638 -18.27722136 3.06981281
VERTEX2 106 -6.16254924 -18.21218449 3.01491379
VERTEX2 107 -6.78017736 -18.12156943 3.01108051
VERTEX2 108 -7.23571630 -18.07664258 3.07258798
VERTEX2 109 -7.28157227 -18.06543847 2.62395814
VERTEX2 110 -7.29846576 -18.04824257 2.03245971
VERTEX2 111 -7.29930282 -17.96804814 1.52647996
VERTEX2 112 -7.28059916 -17.33462009 1.58083346
VERTEX2 113 -7.30386516 -16.71310674 1.62779574
VERTEX2 114 -7.34176570 -16.10015942 1.66451377
VERTEX2 115 -7.41921907 -15.46185927 1.72425844
VERTEX2 116 -7.54228270 -14.71398927 1.76790593
VERTEX2 117 -7.68107437 -14.10717035 1.86302513
VERTEX2 118 -7.68524970 -14.08910398 1.52767632
VERTEX2 119 -7.63323540 -13.57491303 1.47444239
VERTEX2 120 -7.58524749 -12.92285672 1.56473859
VERTEX2 121 -7.60008839 -12.30897421 1.63245575
VERTEX2 122 -7.63867423 -11.72955663 1.68869716
VERTEX2 123 -7.66470303 -11.55262393 1.67594373
VERTEX2 124 -7.58130171 -11.31517089 1.25301070
VERTEX2 125 -7.37056783 -10.72275902 1.24210592
VERTEX2 126 -7.24410442 -10.10811262 1.44872352
VERTEX2 127 -7.15297200 -9.47592820 1.44722231
VERTEX2 128 -7.08413462 -8.83985567 1.48374330
VERTEX2 129 -7.00451271 -8.20753001 1.45119163
VERTEX2 130 -6.94374383 -7.57737749 1.50397388
VERTEX2 131 -6.90465774 -6.95325570 1.59256522
VERTEX2 132 -6.89338515 -6.33902471 1.54306810
VERTEX2 133 -6.85268094 -5.77539643 1.50623384
VERTEX2 134 -6.80530592 -5.18282737 1.48801688
VERTEX2 135 -6.72988863 -4.61022338 1.46179772
VERTEX2 136 -6.66276493 -3.98100481 1.48145236
VERTEX2 137 -6.57337637 -3.35373940 1.43965553
VERTEX2 138 -6.50449848 -2.72821848 1.51995366
VERTEX2 139 -6.49510573 -2.09800673 1.58502103
VERTEX2 140 -6.53022866 -1.45398096 1.61511479
VERTEX2 141 -6.54316592 -0.81604985 1.56682522
VERTEX2 142 -6.55063207 -0.16838897 1.56311425
VERTEX2 143 -6.47693342 0.46884979 1.45268887
VERTEX2 144 -6.44156991 0.83859044 1.47032459
VERTEX2 145 -6.43703803 0.85284780 0.97213018
VERTEX2 146 -6.43597477 0.85860991 0.37913337
VERTEX2 147 -6.38113301 0.85546171 -0.10719076
VERTEX2 148 -5.94959838 0.80108981 -0.14274194
VERTEX2 149 -5.30872703 0.71575775 -0.11753578
VERTEX2 150 -4.67477543 0.65967595 -0.10327277
VERTEX2 151 -4.03772438 0.62108257 -0.01774861
VERTEX2 152 -3.40293285 0.59384081 -0.07842785
VERTEX2 153 -2.76839771 0.56938202 0.01522693
VERTEX2 154 -2.15666110 0.55733963 -0.05383054
VERTEX2 155 -1.54081025 0.53335726 -0.01997443
VERTEX2 156 -0.92288979 0.52852169 0.01119378
VERTEX2 157 -0.36877682 0.51967945 -0.05268538
VERTEX2 158 -0.16503740 0.50838917 -0.02357826
VERTEX2 159 -0.14490305 0.50240999 0.96903236
VERTEX2 160 -0.15011284 0.49347483 2.01026244
VERTEX2 161 -0.31753289 0.41492033 1.14330691
VERTEX2 162 -0.30497767 0.36094475 2.18452654
VERTEX2 163 -0.16230974 0.45989342 -1.53396080
VERTEX2 164 -0.23920790 0.55369363 -0.46917752
VERTEX2 165 -0.07050934 0.53860076 -0.06149671
VERTEX2 166 0.62208331 0.50229556 -0.05982945
VERTEX2 167 1.23972338 0.45794536 -0.08891080
VERTEX2 168 1.82415223 0.41486829 -0.07685701
VERTEX2 169 2.41584844 0.34973415 -0.11374288
VERTEX2 170 2.99181820 0.28843410 -0.13449743
VERTEX2 171 3.55285334 0.19534475 -0.17253689
VERTEX2 172 4.17763192 0.09381436 -0.15820341
VERTEX2 173 4.80423747 -0.01933980 -0.18105505
VERTEX2 174 5.42705754 -0.12617235 -0.14097884
VERTEX2 175 6.04093193 -0.20918534 -0.16575462
VERTEX2 176 6.63788664 -0.32225673 -0.15624064
VERTEX2 177 7.25881973 -0.41778568 -0.18401258
VERTEX2 178 7.87779242 -0.55618701 -0.22316892
VERTEX2 179 8.27907016 -0.63544115 -0.16984816
VERTEX2 180 8.32678730 -0.64778026 -0.61190609
VERTEX2 181 8.76990032 -0.96162205 -0.66369477
VERTEX2 182 9.17969974 -1.31797285 -0.83771282
VERTEX2 183 9.52839530 -1.73260009 -0.89533584
VERTEX2 184 9.86696327 -2.23293571 -1.04119070
VERTEX2 185 10.15140616 -2.75580810 -1.13320039
VERTEX2 186 10.37271940 -3.31018788 -1.19907361
VERTEX2 187 10.56985525 -3.84261669 -1.22124987
VERTEX2 188 10.77404950 -4.39454698 -1.22624827
VERTEX2 189 10.97272954 -4.95409221 -1.25209154
VERTEX2 190 11.16109063 -5.55186818 -1.28092076
VERTEX2 191 11.34022061 -6.15184902 -1.30500077
VERTEX2 192 11.50037922 -6.74548775 -1.33334559
VERTEX2 193 11.62924709 -7.29090979 -1.38903714
VERTEX2 194 11.73474813 -7.85755218 -1.41576498
VERTEX2 195 11.82101976 -8.42024501 -1.44396684
VERTEX2 196 11.89468905 -9.04432794 -1.48463214
VERTEX2 197 11.93966444 -9.66455694 -1.51202241
VERTEX2 198 11.97193834 -10.28227545 -1.57011755
VERTEX2 199 11.95093951 -10.88977391 -1.63146620
VERTEX2 200 11.91094017 -11.49221161 -1.65329078
VERTEX2 201 11.84729675 -12.09134175 -1.70990735
VERTEX2 202 11.78935641 -12.59591770 -1.68937588
VERTEX2 203 11.69638980 -13.32984706 -1.74173190
VERTEX2 204 11.58179960 -13.90688438 -1.84354243
VERTEX2 205 11.41961220 -14.47017459 -1.85282129
VERTEX2 206 11.27244405 -15.01832632 -1.85075372
VERTEX2 207 11.11988876 -15.58630819 -1.83465113
VERTEX2 208 10.95419864 -16.18714639 -1.84393858
VERTEX2 209 10.79980880 -16.78936839 -1.80557673
VERTEX2 210 10.64478993 -17.38214668 -1.81446066
VERTEX2 211 10.50375896 -17.97850146 -1.81222433
VERTEX2 212 10.33508395 -18.56482099 -1.86510473
VERTEX2 213 10.14701264 -19.15812736 -1.88588351
VERTEX2 214 9.95392579 -19.73788208 -1.88969803
VERTEX2 215 9.84249201 -20.06271453 -1.92550351
VERTEX2 216 9.85367890 -20.04299564 -2.42418339
VERTEX2 217 9.87993453 -20.03985052 -2.96635592
VERTEX2 218 9.89034907 -20.04369666 -3.02238365
VERTEX2 219 9.32443995 -20.00682879 3.09228797
VERTEX2 220 8.71581723 -19.97043124 3.05240797
VERTEX2 221 8.07848230 -19.91235761 3.10287744
VERTEX2 222 7.45497027 -19.87783103 3.07731254
VERTEX2 223 6.83105478 -19.85655865 -3.10956191
VERTEX2 224 6.21924613 -19.86512877 -3.13537289
VERTEX2 225 5.60260779 -19.86762088 -3.08569406
VERTEX2 226 4.98688835 -19.86935218 -3.13482859
VERTEX2 227 4.34253584 -19.94711569 -2.97818560
VERTEX2 228 3.81969186 -19.93848536 2.94338052
VERTEX2 229 3.37925838 -19.90767177 3.06368148
VERTEX2 230 3.08938850 -19.89549568 3.03484950
VERTEX2 231 3.29489345 -19.91090997 3.10489629
VERTEX2 232 2.98105806 -19.77443780 2.67952731
VERTEX2 233 2.41175278 -19.51960953 2.78208256
VERTEX2 234 1.83094904 -19.29925884 2.73813785
VERTEX2 235 1.58426969 -19.19649506 2.73296556
VERTEX2 236 1.25503779 -19.20185287 3.13786857
VERTEX2 237 0.63176001 -19.22419010 -3.07515952
VERTEX2 238 0.01648649 -19.27960197 -3.10810875
VERTEX2 239 -0.59546954 -19.28375573 3.10721130
VERTEX2 240 -1.16181754 -19.17311847 2.88877109
VERTEX2 241 -1.69850450 -19.04860876 2.97393316
VERTEX2 242 -2.26230238 -18.99080976 3.01345380
VERTEX2 243 -2.85365505 -18.91530649 3.01280258
VERTEX2 244 -3.47589708 -18.87574404 3.08394078
VERTEX2 245 -4.09310550 -18.83249123 3.02959977
VERTEX2 246 -4.69855021 -18.75150332 2.95710956
VERTEX2 247 -5.30518766 -18.67433915 3.06296306
VERTEX2 248 -5.85925010 -18.65812286 3.09431697
VERTEX2 249 -5.80993402 -18.66505747 -2.99601091
VERTEX2 250 -5.80583773 -18.66489437 2.70001780
VERTEX2 251 -6.13120372 -18.32798650 2.27656693
VERTEX2 252 -6.49086608 -17.91147256 2.28507528
VERTEX2 253 -6.86692635 -17.46942089 2.27408122
VERTEX2 254 -7.23661835 -17.01504314 2.23288466
VERTEX2 255 -7.31041139 -16.92316167 2.31674220
VERTEX2 256 -7.31412944 -16.84582657 1.84071960
VERTEX2 257 -7.36975699 -16.38735686 1.70495906
VERTEX2 258 -7.45883978 -15.79831469 1.78554703
VERTEX2 259 -7.60656950 -15.19931437 1.82599845
VERTEX2 260 -7.74409631 -14.64450049 1.81750164
VERTEX2 261 -7.74227426 -14.60924387 1.50586900
VERTEX2 262 -7.68458152 -13.95905360 1.51247061
VERTEX2 263 -7.64751652 -13.34268746 1.52589056
VERTEX2 264 -7.63748663 -12.74020278 1.62292267
VERTEX2 265 -7.67377667 -12.13951462 1.64308829
VERTEX2 266 -7.63060374 -11.56270128 1.51394452
VERTEX2 267 -7.58546009 -10.81501879 1.48452070
VERTEX2 268 -7.45830084 -10.21209656 1.37437065
VERTEX2 269 -7.34361262 -9.59877040 1.40426528
VERTEX2 270 -7.27667610 -8.97577959 1.51831378
VERTEX2 271 -7.18670014 -8.35410637 1.40786751
VERTEX2 272 -7.10638663 -7.72792372 1.47310401
VERTEX2 273 -7.12129872 -7.10072514 1.68525356
VERTEX2 274 -7.19378988 -6.48776225 1.70927901
VERTEX2 275 -7.18672295 -5.88337368 1.53788026
VERTEX2 276 -7.18481275 -5.27996667 1.65246539
VERTEX2 277 -7.23589418 -4.71965200 1.62698360
VERTEX2 278 -7.19805114 -4.08337044 1.53838301
VERTEX2 279 -7.16373459 -3.44905513 1.48311429
VERTEX2 280 -7.10119785 -2.81982964 1.48526050
VERTEX2 281 -7.01640698 -2.18854935 1.38495336
VERTEX2 282 -6.90250830 -1.56340809 1.42496580
VERTEX2 283 -6.82150474 -0.93214629 1.41730311
VERTEX2 284 -6.71559903 -0.31108152 1.44466688
VERTEX2 285 -6.65423855 0.33607443 1.46596172
VERTEX2 286 -6.59330433 0.95549575 1.51981324
VERTEX2 287 -6.59107110 1.00374526 1.41570938
VERTEX2 288 -6.58792317 1.00947628 0.80798887
VERTEX2 289 -6.58584171 1.01049332 0.21433031
VERTEX2 290 -6.14578526 1.00581827 -0.01083495
VERTEX2 291 -5.52345579 1.00356389 0.00288696
VERTEX2 292 -4.90972754 0.98893883 -0.05172744
VERTEX2 293 -4.28709096 0.94892807 -0.07475373
VERTEX2 294 -3.66793467 0.90189425 -0.07402718
VERTEX2 295 -3.04775599 0.82682579 -0.18645127
VERTEX2 296 -2.43174596 0.68747434 -0.23178419
VERTEX2 297 -1.81781741 0.54123266 -0.24340887
VERTEX2 298 -1.20756734 0.39212525 -0.24402487
VERTEX2 299 -0.63369380 0.24040472 -0.18277918
VERTEX2 300 -0.04887110 0.15952611 -0.14052622
VERTEX2 301 0.51174373 0.06465825 -0.19961529
VERTEX2 302 0.81182869 0.00258850 -0.22043959
VERTEX2 303 0.79196104 0.00627398 -0.21622433
VERTEX2 304 1.29121930 -0.10482406 -0.20658941
VERTEX2 305 1.90391242 -0.14420799 -0.02259565
VERTEX2 306 2.52975358 -0.14984972 -0.04059329
VERTEX2 307 3.16616048 -0.19243792 -0.07719945
VERTEX2 308 3.79137542 -0.25004991 -0.13266424
VERTEX2 309 4.42514255 -0.30463235 -0.03981473
VERTEX2 310 5.05132790 -0.32893610 -0.07577614
VERTEX2 311 5.33083253 -0.35223458 0.09918077
VERTEX2 312 5.32668271 -0.35448168 1.08693103
VERTEX2 313 5.32905610 -0.13518104 1.58259189
VERTEX2 314 5.30290241 0.49370145 1.62235526
VERTEX2 315 5.26774138 1.12190038 1.61800311
VERTEX2 316 5.22179631 1.75910526 1.66942277
VERTEX2 317 5.15476324 2.39270248 1.67944597
VERTEX2 318 5.05060691 3.02126098 1.77408618
VERTEX2 319 4.96900166 3.36004345 1.84553587
VERTEX2 320 4.96906052 3.36024076 2.81445666
VERTEX2 321 4.96004704 3.35623546 -2.42856515
VERTEX2 322 4.95666942 3.34914687 -1.43191242
VERTEX2 323 4.97210281 3.33465538 -0.43904931
VERTEX2 324 4.98052545 3.33203213 0.22110049
VERTEX2 325 4.98315434 3.33227807 -0.30693106
VERTEX2 326 4.98843332 3.32847966 -0.90317553
VERTEX2 327 4.98871355 3.32745399 -1.52762430
VERTEX2 328 4.98151130 2.70356281 -1.57457977
VERTEX2 329 4.96797817 2.07869323 -1.63046636
VERTEX2 330 4.92242913 1.46691051 -1.65072361
VERTEX2 331 4.87602619 0.85379365 -1.66622028
VERTEX2 332 4.80600314 0.24164600 -1.68595108
VERTEX2 333 4.78689214 0.08938516 -1.62220485
VERTEX2 334 4.78746913 0.08921458 -0.83501543
VERTEX2 335 4.80420411 0.08442937 0.15613871
VERTEX2 336 4.81678287 0.08897780 1.09743962
VERTEX2 337 4.82145313 0.11994986 2.07657834
VERTEX2 338 4.81744798 0.12267866 3.06608814
VERTEX2 339 4.82818015 0.12948506 -2.16714100
VERTEX2 340 4.82827107 0.12865238 -1.14731917
VERTEX2 341 4.94111823 0.06202561 -0.51357757
VERTEX2 342 5.51594972 -0.23656471 -0.41147723
VERTEX2 343 6.09325145 -0.43138991 -0.28008609
VERTEX2 344 6.68097967 -0.60814154 -0.28966026
VERTEX2 345 6.91687473 -0.67520833 -0.31666792
VERTEX2 346 6.90271045 -0.67071207 -0.96263412
VERTEX2 347 6.90598591 -0.76046756 -1.52014472
VERTEX2 348 6.92901510 -1.35227290 -1.53636825
VERTEX2 349 6.93204721 -1.96815146 -1.57604101
VERTEX2 350 6.92560650 -2.75271314 -1.59512963
VERTEX2 351 6.91382564 -3.02298232 -1.62355090
VERTEX2 352 6.91278101 -3.02817676 -1.91048078
VERTEX2 353 6.90296297 -3.04042418 -2.57361254
VERTEX2 354 6.88997052 -3.04426550 3.10830768
VERTEX2 355 6.87115922 -3.04390213 2.38970052
VERTEX2 356 6.86782658 -3.03811764 1.81643247
VERTEX2 357 6.86956741 -3.02723646 1.16554615
VERTEX2 358 6.86854340 -3.02874737 0.55218362
VERTEX2 359 6.85601986 -3.03422002 -0.05975357
VERTEX2 360 6.84355956 -3.03184517 -0.23494762
VERTEX2 361 6.83533399 -3.03405449 0.68738917
VERTEX2 362 6.91735738 -2.80658864 1.22297391
VERTEX2 363 7.01684353 -2.54139894 1.21756413
VERTEX2 364 6.94401536 -2.20010851 1.83553906
VERTEX2 365 6.88504834 -1.90585373 1.34126006
VERTEX2 366 6.99181451 -1.78276218 0.79017856
VERTEX2 367 7.43178316 -1.34412093 0.79344700
VERTEX2 368 7.88336275 -0.90322776 0.74554362
VERTEX2 369 7.90291850 -0.87910584 0.49377055
VERTEX2 370 7.92573030 -0.87522068 -0.09290409
VERTEX2 371 7.93000076 -0.87739353 -0.63828215
VERTEX2 372 8.36089869 -1.22038237 -0.66591881
VERTEX2 373 8.83565760 -1.57921106 -0.66390013
VERTEX2 374 9.31729905 -1.97619688 -0.72499778
VERTEX2 375 9.67587247 -2.28883706 -0.75618936
VERTEX2 376 9.68127746 -2.29206429 -0.06442815
VERTEX2 377 9.72446375 -2.26069067 0.62685422
VERTEX2 378 10.25017974 -1.86346005 0.67905614
VERTEX2 379 10.72834081 -1.42871116 0.76269949
VERTEX2 380 11.16633876 -0.95780304 0.88082147
VERTEX2 381 11.31248481 -0.77519950 1.02944761
VERTEX2 382 11.31466322 -0.77120813 2.07515244
VERTEX2 383 11.30910226 -0.76784959 3.06287095
VERTEX2 384 11.30619225 -0.77065627 -2.25575297
VERTEX2 385 11.30252767 -0.77691426 -1.22425478
VERTEX2 386 11.40956384 -0.91302036 -0.99927536
VERTEX2 387 11.87213281 -1.33222023 -0.66749165
VERTEX2 388 12.32837222 -1.67709929 -0.66061578
VERTEX2 389 12.76049628 -2.04149938 -0.74531826
VERTEX2 390 12.76377117 -2.04405572 -0.27516438
VERTEX2 391 12.56094676 -2.03736940 0.10046330
VERTEX2 392 12.48692443 -2.03901275 1.13019593
VERTEX2 393 12.48697124 -1.98086820 2.36779764
VERTEX2 394 12.40671047 -1.94888240 -2.93409366
VERTEX2 395 12.58324043 -1.85291212 -2.60131233
VERTEX2 396 12.54811351 -1.87224503 -2.60374238
VERTEX2 397 12.49397490 -1.88520789 -2.61717103
VERTEX2 398 12.46712681 -1.90813042 -2.42335252
VERTEX2 399 12.39254940 -2.01653760 -2.12816196
VERTEX2 400 12.04519680 -2.57528806 -2.08035110
VERTEX2 401 11.70672776 -3.12333916 -2.17429148
VERTEX2 402 11.23769702 -3.58414693 -2.44350285
VERTEX2 403 10.73101256 -3.99906413 -2.47885393
VERTEX2 404 10.23266061 -4.36332505 -2.55919417
VERTEX2 405 10.21635356 -4.37827245 -2.02797639
VERTEX2 406 10.21129230 -4.33794882 -1.05422297
VERTEX2 407 10.39296065 -4.58715928 -0.92769569
VERTEX2 408 10.72450291 -5.04172931 -0.96694455
VERTEX2 409 10.85793797 -5.24781857 -1.06794995
VERTEX2 410 10.84878698 -5.21277143 -1.69891256
VERTEX2 411 11.07309144 -4.62278965 -2.56441000
VERTEX2 412 10.52513375 -4.84817858 -2.76920743
VERTEX2 413 9.89161926 -5.06987581 -2.85015409
VERTEX2 414 9.25158584 -5.28023627 -2.74774420
VERTEX2 415 8.64623308 -5.52364825 -2.74017616
VERTEX2 416 8.35854045 -5.65477434 -2.79476770
VERTEX2 417 8.06366484 -5.64156686 3.06508788
VERTEX2 418 7.62216621 -5.60263415 3.02051815
VERTEX2 419 7.62245505 -5.60257232 -2.83054285
VERTEX2 420 7.67316154 -5.57941728 -2.61356118
VERTEX2 421 7.67431188 -5.57757797 -1.64370066
VERTEX2 422 7.66946082 -5.58453663 -0.40161869
VERTEX2 423 7.66982143 -5.58457059 -0.05499026
VERTEX2 424 7.66473976 -5.58462313 -0.05388729
VERTEX2 425 7.65421033 -5.59072262 -0.04140903
VERTEX2 426 7.64896901 -5.59083568 -0.04978791
VERTEX2 427 7.67627704 -5.59195043 -0.04593163
VERTEX2 428 8.33335135 -5.60562872 -0.05072224
VERTEX2 429 8.97320275 -5.64716844 -0.09078166
VERTEX2 430 9.31027057 -5.68325892 -0.13615711
VERTEX2 431 9.28286942 -5.68031311 -0.08351416
VERTEX2 432 9.29090580 -5.68303888 -0.71379785
VERTEX2 433 9.29526628 -5.68886825 -1.38958637
VERTEX2 434 9.26535064 -6.22771755 -1.61695057
VERTEX2 435 9.24127483 -6.87030386 -1.64466119
VERTEX2 436 9.17156943 -7.51082951 -1.65285718
VERTEX2 437 9.12777051 -8.16080343 -1.64431275
VERTEX2 438 9.08191500 -8.63200752 -1.67420079
VERTEX2 439 9.07967939 -8.64087983 -2.10881849
VERTEX2 440 9.08380889 -8.63757627 -2.75012504
VERTEX2 441 9.09767804 -8.63602779 2.91282121
VERTEX2 442 9.10420629 -8.63948311 2.28523758
VERTEX2 443 9.10447519 -8.64317458 1.71999794
VERTEX2 444 9.10681552 -8.62993571 1.13016903
VERTEX2 445 9.10973426 -8.62710240 0.47386669
VERTEX2 446 9.10568090 -8.62968352 0.67624003
VERTEX2 447 9.11733237 -8.60630957 1.30892742
VERTEX2 448 9.25934190 -7.98290364 1.32645631
VERTEX2 449 9.38514806 -7.34117754 1.42789666
VERTEX2 450 9.47193347 -6.69971987 1.44166566
VERTEX2 451 9.51895002 -6.22933704 1.48413046
VERTEX2 452 9.51897669 -6.22907846 1.10577725
VERTEX2 453 9.51715363 -6.23246386 0.48315088
VERTEX2 454 9.78564553 -6.20893060 0.06075415
VERTEX2 455 10.38207140 -6.17777163 0.03990469
VERTEX2 456 11.01201188 -6.16632731 -0.02501554
VERTEX2 457 11.36355797 -6.18497407 -0.11309088
VERTEX2 458 11.35989457 -6.18319538 -0.75889125
VERTEX2 459 11.35126244 -6.14967258 -1.36700805
VERTEX2 460 11.33457885 -6.54905901 -1.62395709
VERTEX2 461 11.27242324 -7.16276796 -1.71173031
VERTEX2 462 11.19071270 -7.66967144 -1.75158246
VERTEX2 463 11.20310294 -7.64475107 -0.91082472
VERTEX2 464 11.45853400 -7.71435725 -0.23231546
VERTEX2 465 12.04320778 -7.84054711 -0.22442970
VERTEX2 466 12.59773928 -7.98523704 -0.27992407
VERTEX2 467 13.16990579 -8.16018647 -0.32325145
VERTEX2 468 13.77976660 -8.36883534 -0.35868511
VERTEX2 469 14.36694140 -8.62437386 -0.44151373
VERTEX2 470 14.81609214 -8.83136529 -0.42252210
VERTEX2 471 14.81731668 -8.83201311 -0.62215926
VERTEX2 472 14.83369781 -8.85434282 -1.25459706
VERTEX2 473 14.83540393 -8.86229741 -1.89468544
VERTEX2 474 14.83291316 -8.86549376 -2.52490900
VERTEX2 475 14.83871897 -8.86464744 -3.09829839
VERTEX2 476 14.84573238 -8.86553840 2.53373705
VERTEX2 477 14.85198556 -8.87746422 1.97426056
VERTEX2 478 14.85303153 -8.88951660 1.34725623
VERTEX2 479 14.85206901 -8.89178363 0.89299446
VERTEX2 480 14.85240611 -8.89100373 1.45506342
VERTEX2 481 14.84929450 -8.87810672 2.45715733
VERTEX2 482 14.85815808 -8.88157005 2.79328761
VERTEX2 483 14.86926920 -8.88552999 2.78789152
VERTEX2 484 14.44627208 -8.73280229 2.82339666
VERTEX2 485 13.84752896 -8.54978028 2.82127300
VERTEX2 486 13.24584257 -8.34293860 2.83099456
VERTEX2 487 12.63579101 -8.16945329 2.85947238
VERTEX2 488 12.02339950 -7.99423417 2.89579630
VERTEX2 489 11.55373407 -7.89146143 2.92642545
VERTEX2 490 11.55986552 -7.89080478 -2.87121802
VERTEX2 491 11.56749348 -7.88051666 -1.93435196
VERTEX2 492 11.55328944 -8.11092937 -1.63098636
VERTEX2 493 11.49838068 -8.71594877 -1.68582972
VERTEX2 494 11.41827251 -9.32851407 -1.74654367
VERTEX2 495 11.35663079 -9.95148297 -1.63927438
VERTEX2 496 11.32038821 -10.57544935 -1.52145369
VERTEX2 497 11.32091323 -11.19250936 -1.60742065
VERTEX2 498 11.25994513 -11.81381174 -1.70915064
VERTEX2 499 11.13719783 -12.44083225 -1.72610520
VERTEX2 500 11.20195960 -13.00606451 -1.39707054
VERTEX2 501 11.28387706 -13.58486644 -1.46901083
VERTEX2 502 11.31669764 -14.28035878 -1.55333862
VERTEX2 503 11.31794922 -14.72762035 -1.57017672
VERTEX2 504 11.32255980 -14.71402653 -0.71223808
VERTEX2 505 11.56146167 -14.73791819 -0.08981302
VERTEX2 506 12.15482665 -14.81105560 -0.24216871
VERTEX2 507 12.73872972 -14.97242736 -0.32054802
VERTEX2 508 13.30757059 -15.17388523 -0.33474301
VERTEX2 509 13.92846320 -15.39793661 -0.39069798
VERTEX2 510 14.28522459 -15.55121638 -0.40464022
VERTEX2 511 14.28326520 -15.53440880 0.47050408
VERTEX2 512 14.30366182 -15.48984901 1.66745315
VERTEX2 513 14.29997785 -15.47944440 2.62269396
VERTEX2 514 14.23044755 -15.46091563 2.84919329
VERTEX2 515 13.61602994 -15.28800980 2.85042432
VERTEX2 516 13.02715126 -15.10172034 2.86643128
VERTEX2 517 12.43045718 -14.96149978 2.89471794
VERTEX2 518 11.83834761 -14.81908035 2.91895618
VERTEX2 519 11.31707675 -14.70283359 2.90314057
VERTEX2 520 11.15120806 -14.66201182 -2.98186882
VERTEX2 521 11.17623514 -14.63367223 -1.97781069
VERTEX2 522 11.11648884 -15.02996511 -1.71400644
VERTEX2 523 11.03327239 -15.65115994 -1.72130181
VERTEX2 524 10.93706877 -16.22624449 -1.76314844
VERTEX2 525 10.84036721 -16.76941365 -1.73943531
VERTEX2 526 10.73183192 -17.33939219 -1.79817423
VERTEX2 527 10.59193417 -17.91979415 -1.83293872
VERTEX2 528 10.41751308 -18.48787818 -1.90887655
VERTEX2 529 10.21329842 -19.09208804 -1.93716092
VERTEX2 530 9.97407927 -19.69394110 -1.96723818
VERTEX2 531 9.71215575 -20.27165318 -2.04706150
VERTEX2 532 9.61690503 -20.45807963 -1.99645621
VERTEX2 533 9.61407364 -20.44518300 -0.99649928
VERTEX2 534 9.61242181 -20.44411149 -0.32933208
VERTEX2 535 9.61585933 -20.44439088 -0.32970655
VERTEX2 536 9.97346635 -20.52339036 -0.19900275
VERTEX2 537 10.58180980 -20.66347976 -0.25700992
VERTEX2 538 11.14376919 -20.82499916 -0.28413398
VERTEX2 539 11.75425083 -21.02567925 -0.34891202
VERTEX2 540 12.34414708 -21.27083156 -0.44181552
VERTEX2 541 12.93405283 -21.49079615 -0.27952360
VERTEX2 542 13.56660623 -21.62409445 -0.22382974
VERTEX2 543 13.68857194 -21.65292730 -0.25350322
VERTEX2 544 13.70959178 -21.65049465 0.38348378
VERTEX2 545 13.73240191 -21.60769951 1.44963610
VERTEX2 546 13.75057545 -21.65316352 2.27663611
VERTEX2 547 13.75869815 -21.65251015 -2.98492583
VERTEX2 548 13.77185584 -21.64382000 -2.06207284
VERTEX2 549 13.77330057 -21.63301844 -1.25549633
VERTEX2 550 13.77184776 -21.61263181 -1.73531324
VERTEX2 551 13.77986579 -21.59582982 -2.36170794
VERTEX2 552 13.79782008 -21.58659145 -2.99418943
VERTEX2 553 13.66027910 -21.53609506 2.71168814
VERTEX2 554 13.06482824 -21.26002900 2.67621731
VERTEX2 555 12.48228139 -20.99288091 2.76507409
VERTEX2 556 11.87551263 -20.78258354 2.90015602
VERTEX2 557 11.27148455 -20.61931922 2.85892417
VERTEX2 558 10.69173960 -20.46956404 2.93993148
VERTEX2 559 10.69761209 -20.47145717 2.53294073
VERTEX2 560 10.69144552 -20.46440045 2.03199708
VERTEX2 561 10.66868380 -20.44288157 2.53720805
VERTEX2 562 10.49238717 -20.44520115 -3.10241782
VERTEX2 563 9.92297871 -20.37452797 2.98894797
VERTEX2 564 9.31876562 -20.29132446 3.03771708
VERTEX2 565 8.72738939 -20.22790081 2.98012084
VERTEX2 566 8.78866032 -20.24607766 -2.51958105
VERTEX2 567 8.69524137 -20.25423015 -1.72601451
VERTEX2 568 8.65121017 -20.75972767 -1.66234397
VERTEX2 569 8.60698705 -21.33760837 -1.70159232
VERTEX2 570 8.54536926 -21.92045473 -1.69691247
VERTEX2 571 8.49730459 -22.27657322 -1.74462223
VERTEX2 572 8.46530236 -22.30058921 -1.98816456
VERTEX2 573 8.43145805 -22.37986784 -1.71221386
VERTEX2 574 8.45397620 -22.41079863 -0.77410347
VERTEX2 575 8.60380984 -22.45747439 0.15431224
VERTEX2 576 8.60504849 -22.45842525 1.18107122
VERTEX2 577 8.59820936 -22.44121823 2.15231474
VERTEX2 578 8.58819695 -22.40926351 1.78774485
VERTEX2 579 8.45326870 -21.75915302 1.80256952
VERTEX2 580 8.28176300 -21.12202288 1.87750809
VERTEX2 581 8.07804493 -20.50152699 1.91971136
VERTEX2 582 7.84719759 -19.89062182 1.96268545
VERTEX2 583 7.71275745 -19.58463354 2.04189050
VERTEX2 584 7.70735839 -19.57452555 2.88525346
VERTEX2 585 7.12496540 -19.44348212 3.00349705
VERTEX2 586 6.53324248 -19.37778780 3.10102554
VERTEX2 587 5.91754753 -19.37565211 3.12642861
VERTEX2 588 5.29066044 -19.35871706 3.13090236
VERTEX2 589 4.74726466 -19.39092896 -3.07602839
VERTEX2 590 4.20155807 -19.44297521 -3.00714591
VERTEX2 591 3.66647570 -19.52962708 -3.00892062
VERTEX2 592 3.12237943 -19.61195112 -3.01153290
VERTEX2 593 2.94780566 -19.63660199 -2.80608831
VERTEX2 594 2.99474365 -19.58461843 -1.89018149
VERTEX2 595 2.88853289 -20.19379514 -1.65712414
VERTEX2 596 2.84332700 -20.81966427 -1.68012900
VERTEX2 597 2.75947054 -21.49655113 -1.71993406
VERTEX2 598 2.66274119 -22.09976867 -1.76217662
VERTEX2 599 2.57593189 -22.49050168 -1.82874254
VERTEX2 600 2.57652847 -22.51780522 -1.02346348
VERTEX2 601 2.61778830 -22.54264464 -0.00464648
VERTEX2 602 2.66215370 -22.52424613 1.00998324
VERTEX2 603 2.62383559 -22.28143596 1.78313141
VERTEX2 604 2.55579294 -21.66121406 1.53930372
VERTEX2 605 2.55732247 -21.01735124 1.62210880
VERTEX2 606 2.50965054 -20.37450801 1.66440085
VERTEX2 607 2.51378021 -19.78841905 1.58362009
VERTEX2 608 2.49620134 -19.40666977 1.62833457
VERTEX2 609 2.49294467 -19.38886588 1.96505105
VERTEX2 610 2.48772402 -19.38704900 2.89855235
VERTEX2 611 1.89295859 -19.24532702 2.90178790
VERTEX2 612 1.41690955 -19.11650654 2.90502210
VERTEX2 613 1.45061958 -19.12629858 -2.91348968
VERTEX2 614 1.46220146 -19.11728279 -1.87567788
VERTEX2 615 1.48092316 -19.59899741 -1.57122872
VERTEX2 616 1.49542831 -20.21708695 -1.62247196
VERTEX2 617 1.36360273 -20.82639223 -1.83914372
VERTEX2 618 1.20038259 -21.43899108 -1.82866773
VERTEX2 619 1.04519467 -22.01701467 -1.82968044
VERTEX2 620 0.86746416 -22.59978824 -1.92533727
VERTEX2 621 0.98991306 -22.27034770 -1.97639269
VERTEX2 622 1.10739496 -22.01001630 -2.05091649
VERTEX2 623 1.10694345 -22.01064752 -2.58716558
VERTEX2 624 1.08011174 -22.01076147 3.05437085
VERTEX2 625 1.04117325 -21.99569710 2.39680653
VERTEX2 626 1.01293299 -21.96425123 1.77974458
VERTEX2 627 1.08121723 -21.58485557 1.36887304
VERTEX2 628 1.25287524 -20.94917707 1.26779692
VERTEX2 629 1.41756525 -20.31299987 1.33858442
VERTEX2 630 1.53616177 -19.69740109 1.42329771
VERTEX2 631 1.60210472 -19.16065470 1.44310759
VERTEX2 632 1.60558214 -19.13830834 2.11820060
VERTEX2 633 1.51105083 -19.13312996 -3.08021434
VERTEX2 634 0.84830714 -19.17760380 -3.05312320
VERTEX2 635 0.19934165 -19.19576634 3.09469458
VERTEX2 636 -0.43892710 -19.17455491 3.07685929
VERTEX2 637 -1.06451389 -19.10753449 2.97729807
VERTEX2 638 -1.45323297 -19.03264883 2.94759395
VERTEX2 639 -2.06047669 -18.93697445 3.02778107
VERTEX2 640 -2.67201564 -18.83507373 2.95975091
VERTEX2 641 -3.26902091 -18.73128002 2.95131028
VERTEX2 642 -3.84226032 -18.60100805 2.90587000
VERTEX2 643 -4.32408058 -18.46995390 2.83839635
VERTEX2 644 -4.32711417 -18.47067076 -2.68805456
VERTEX2 645 -4.36165914 -18.61136509 -1.90983960
VERTEX2 646 -4.49090541 -19.21754277 -1.61403736
VERTEX2 647 -4.44021191 -19.85514761 -1.32476360
VERTEX2 648 -4.21082827 -20.47413136 -1.15814077
VERTEX2 649 -4.03077367 -21.06705301 -1.49530581
VERTEX2 650 -4.12320602 -21.69369495 -1.75224810
VERTEX2 651 -4.13844248 -21.83624172 -0.95192269
VERTEX2 652 -4.08107803 -21.86104263 0.07435755
VERTEX2 653 -4.03572982 -21.81904302 1.10503656
VERTEX2 654 -4.04925718 -21.52388834 1.61833499
VERTEX2 655 -4.06776706 -20.97802735 1.61254227
VERTEX2 656 -4.07543231 -20.38310068 1.59912994
VERTEX2 657 -4.18906289 -19.78116255 1.87450901
VERTEX2 658 -4.38737612 -19.16667199 1.86703900
VERTEX2 659 -4.50836203 -18.67477253 1.79553492
VERTEX2 660 -4.51163298 -18.65938760 2.39487577
VERTEX2 661 -4.68598512 -18.64218623 3.04779099
VERTEX2 662 -5.27578236 -18.58969099 3.11716912
VERTEX2 663 -5.85885578 -18.61028196 -3.06523575
VERTEX2 664 -5.86525141 -18.60871777 -2.54177559
VERTEX2 665 -5.88014581 -18.70956508 -1.71066649
VERTEX2 666 -5.94543116 -19.30606491 -1.67399360
VERTEX2 667 -5.99691690 -19.86035201 -1.66982351
VERTEX2 668 -6.05476571 -20.44208456 -1.64452848
VERTEX2 669 -6.09797657 -21.05558046 -1.67016789
VERTEX2 670 -6.19219713 -21.66306487 -1.72995797
VERTEX2 671 -6.23788905 -21.95479936 -1.67516806
VERTEX2 672 -6.14002410 -21.37724535 -1.76438726
VERTEX2 673 -6.07622169 -21.11394369 -1.89505625
VERTEX2 674 -6.06796794 -21.10515152 -2.54374784
VERTEX2 675 -6.04681551 -21.10057578 3.13030746
VERTEX2 676 -6.04025293 -21.10437715 2.50745489
VERTEX2 677 -6.03163544 -21.11609232 1.89209376
VERTEX2 678 -6.00647882 -20.90806786 1.44650745
VERTEX2 679 -5.94731080 -20.34263891 1.50924867
VERTEX2 680 -5.97716407 -19.90340380 1.85503968
VERTEX2 681 -6.13285451 -19.31661110 1.82805349
VERTEX2 682 -6.30910934 -18.71519195 1.87624410
VERTEX2 683 -6.40282974 -18.43621201 2.03601696
VERTEX2 684 -6.35017320 -18.48910970 3.11416176
VERTEX2 685 -6.74560307 -18.64986111 -2.72596543
VERTEX2 686 -7.19303635 -18.78988929 -2.86982040
VERTEX2 687 -7.78754764 -18.94553331 -2.90451532
VERTEX2 688 -8.38550546 -19.07030387 -2.91599286
VERTEX2 689 -8.94973391 -19.21394335 -2.88803147
VERTEX2 690 -9.48716649 -19.38834791 -2.81373114
VERTEX2 691 -9.88414188 -19.52411105 -2.84165565
VERTEX2 692 -9.87274210 -19.51893779 -2.30723859
VERTEX2 693 -9.84736694 -19.59668962 -1.26646304
VERTEX2 694 -9.82073001 -19.67402210 -0.43070242
VERTEX2 695 -9.80461641 -19.66928543 0.36952968
VERTEX2 696 -9.80043917 -19.66651351 1.39619586
VERTEX2 697 -9.81183130 -19.70539678 1.14367766
VERTEX2 698 -9.48564656 -19.49405572 0.48968109
VERTEX2 699 -8.92764978 -19.17542211 0.60405512
VERTEX2 700 -8.42019997 -18.80844734 0.65788033
VERTEX2 701 -7.99215824 -18.44150218 0.71734286
VERTEX2 702 -7.51200996 -18.11717948 0.60193851
VERTEX2 703 -6.99889325 -17.77129041 0.63599812
VERTEX2 704 -6.50546047 -17.37993665 0.65400239
VERTEX2 705 -5.99483523 -16.94892283 0.72446971
VERTEX2 706 -5.56566976 -16.62362783 0.45579453
VERTEX2 707 -5.54120038 -16.62202035 -0.06393537
VERTEX2 708 -5.52723540 -16.62989193 -0.70343560
VERTEX2 709 -5.56424207 -16.59088855 -1.03602720
VERTEX2 710 -5.56687237 -16.58419823 -1.59800988
VERTEX2 711 -5.55864995 -16.59147887 -2.19444485
VERTEX2 712 -5.54065217 -16.57739944 -2.75462310
VERTEX2 713 -6.01583396 -16.63301494 -3.03983975
VERTEX2 714 -6.57732533 -16.61344280 3.04600846
VERTEX2 715 -7.20788839 -16.58281065 -3.13320951
VERTEX2 716 -7.84571357 -16.56749354 3.01233138
VERTEX2 717 -8.47485566 -16.50546291 3.09798438
VERTEX2 718 -9.24582854 -16.39435780 2.92369821
VERTEX2 719 -9.86973453 -16.28591466 2.99893521
VERTEX2 720 -10.48954279 -16.18081402 2.94049192
VERTEX2 721 -11.11445115 -16.07277908 3.00950963
VERTEX2 722 -11.13645778 -16.06997856 3.07700498
VERTEX2 723 -11.15530702 -16.09010846 -2.11297315
VERTEX2 724 -11.15447140 -16.14269049 -1.04624951
VERTEX2 725 -11.11942074 -16.16541534 -0.41313255
VERTEX2 726 -10.78894525 -16.15631066 0.04015902
VERTEX2 727 -10.14744250 -16.10884023 0.07049250
VERTEX2 728 -9.50277596 -16.07594808 0.07151833
VERTEX2 729 -8.85472188 -16.00616948 0.12803314
VERTEX2 730 -8.22213568 -15.90498650 0.16449352
VERTEX2 731 -7.57082433 -15.79686999 0.17626878
VERTEX2 732 -7.42504512 -15.76584462 0.62196163
VERTEX2 733 -7.42046341 -15.77315320 1.61679705
VERTEX2 734 -7.48351250 -15.22187224 1.69443549
VERTEX2 735 -7.54888711 -14.62421018 1.66198794
VERTEX2 736 -7.54942301 -14.61713695 2.26051107
VERTEX2 737 -7.53712533 -14.61865899 3.05994923
VERTEX2 738 -8.11045506 -14.58222867 3.07859476
VERTEX2 739 -8.71067544 -14.49138151 3.02067147
VERTEX2 740 -9.21363439 -14.45404272 3.08366841
VERTEX2 741 -9.19360137 -14.45372377 2.71437318
VERTEX2 742 -9.19483238 -14.45288949 2.06195745
VERTEX2 743 -9.19633705 -14.44639672 1.44550178
VERTEX2 744 -9.18811096 -14.42726616 0.90646070
VERTEX2 745 -9.17174279 -14.41857990 0.31332037
VERTEX2 746 -8.63177131 -14.43344056 -0.16123843
VERTEX2 747 -7.98809283 -14.54341358 -0.19632273
VERTEX2 748 -7.41229454 -14.68163444 -0.26445702
VERTEX2 749 -7.33093384 -14.70129785 0.16511211
VERTEX2 750 -7.32255311 -14.68555307 1.09286848
VERTEX2 751 -7.35925918 -14.41423382 1.73361500
VERTEX2 752 -7.42405241 -13.78808538 1.63048789
VERTEX2 753 -7.46891095 -13.14668459 1.69382321
VERTEX2 754 -7.48376422 -12.50392201 1.53179382
VERTEX2 755 -7.47205164 -11.87107097 1.61839003
VERTEX2 756 -7.44184936 -11.23575538 1.44216831
VERTEX2 757 -7.37467299 -10.59107769 1.55411694
VERTEX2 758 -7.40195415 -10.01179823 1.69631641
VERTEX2 759 -7.39800005 -9.46447989 1.57605690
VERTEX2 760 -7.44336806 -8.85757559 1.68746069
VERTEX2 761 -7.44619500 -8.82360588 1.86786886
VERTEX2 762 -7.52145399 -8.79097901 2.70347851
VERTEX2 763 -8.09512857 -8.69516593 2.99651413
VERTEX2 764 -8.51429364 -8.62894457 2.96910644
VERTEX2 765 -8.50184450 -8.62855268 -2.67431461
VERTEX2 766 -8.50332405 -8.63357572 -1.67349680
VERTEX2 767 -8.49792895 -8.64672168 -0.74217620
VERTEX2 768 -8.46907904 -8.64809152 -0.01944484
VERTEX2 769 -7.83285731 -8.54969424 0.13761819
VERTEX2 770 -7.17925842 -8.48087589 0.07062451
VERTEX2 771 -7.08900256 -8.47202399 0.63139139
VERTEX2 772 -7.08580878 -8.46134393 1.49934121
VERTEX2 773 -7.07044336 -7.88270820 1.58529697
VERTEX2 774 -7.09088063 -7.33619031 1.60753745
VERTEX2 775 -7.08894896 -7.34402907 2.45233530
VERTEX2 776 -7.29823042 -7.32169258 3.06965349
VERTEX2 777 -7.91191842 -7.28883060 3.12864468
VERTEX2 778 -8.52974012 -7.28739142 3.10737560
VERTEX2 779 -9.14628140 -7.27434673 3.12554274
VERTEX2 780 -9.35518111 -7.25911445 2.99539091
VERTEX2 781 -9.35249429 -7.26003052 2.42211652
VERTEX2 782 -9.48342150 -6.98924247 1.99267051
VERTEX2 783 -9.72569136 -6.41852717 1.99212672
VERTEX2 784 -9.82797298 -6.19254910 1.97086082
VERTEX2 785 -9.82919050 -6.16745501 1.41902516
VERTEX2 786 -9.82169525 -6.14162731 0.83083793
VERTEX2 787 -9.80491423 -6.12400587 0.34028958
VERTEX2 788 -9.77858893 -6.12545998 -0.28870584
VERTEX2 789 -9.76835740 -6.13328299 -0.84055548
VERTEX2 790 -9.45724466 -6.52421513 -0.90766283
VERTEX2 791 -9.04671152 -7.00059562 -0.80893264
VERTEX2 792 -8.80177200 -7.21339071 -0.10499990
VERTEX2 793 -8.18470022 -7.25883785 -0.06048266
VERTEX2 794 -7.54372618 -7.28080902 0.01049756
VERTEX2 795 -7.56994217 -7.30054749 0.43945136
VERTEX2 796 -7.57805186 -7.30393126 1.09820834
VERTEX2 797 -7.50779513 -6.99872999 1.35804080
VERTEX2 798 -7.37948215 -6.37596293 1.40796487
VERTEX2 799 -7.29888072 -5.73589046 1.47347228
VERTEX2 800 -7.25088821 -5.09417988 1.54615930
VERTEX2 801 -7.26707412 -4.46522529 1.63213504
VERTEX2 802 -7.32593529 -3.84308735 1.68987742
VERTEX2 803 -7.31389231 -3.21723207 1.52524954
VERTEX2 804 -7.29894228 -2.59260816 1.58117877
VERTEX2 805 -7.33721890 -1.96519254 1.65748508
VERTEX2 806 -7.40184977 -1.36994617 1.69891178
VERTEX2 807 -7.43032958 -1.18779356 1.98706979
VERTEX2 808 -7.43490948 -1.18774200 2.93551387
VERTEX2 809 -8.02649727 -1.16371917 3.08022534
VERTEX2 810 -8.64430227 -1.04568290 2.94010166
VERTEX2 811 -9.24362985 -0.93919924 2.93683718
VERTEX2 812 -9.24538394 -0.93887900 -2.61452732
VERTEX2 813 -9.25574425 -0.96249672 -1.63916147
VERTEX2 814 -9.24825772 -0.96832273 -0.64687786
VERTEX2 815 -9.22313373 -0.97655437 0.27244158
VERTEX2 816 -9.21522525 -0.97213568 0.95363197
VERTEX2 817 -9.20485143 -0.96547791 0.28490281
VERTEX2 818 -8.98189260 -0.99752056 -0.20395415
VERTEX2 819 -8.38930250 -1.12028429 -0.18980881
VERTEX2 820 -7.79423565 -1.24710777 -0.23100925
VERTEX2 821 -7.24662584 -1.37339615 -0.21517639
VERTEX2 822 -7.19651252 -1.38056440 0.54623904
VERTEX2 823 -7.19554747 -1.36892621 1.46539513
VERTEX2 824 -7.13722407 -0.74936095 1.38605152
VERTEX2 825 -6.99907734 -0.12746843 1.35638458
VERTEX2 826 -6.94746526 0.50197073 1.51933519
VERTEX2 827 -6.88899181 1.12322394 1.47069865
VERTEX2 828 -6.84025132 1.75177726 1.50624889
VERTEX2 829 -6.78433027 2.35736902 1.46661812
VERTEX2 830 -6.71495731 2.96685253 1.45821812
VERTEX2 831 -6.62602018 3.54488219 1.41133913
VERTEX2 832 -6.54084551 4.10854803 1.40769789
VERTEX2 833 -6.49912121 4.36416634 1.54525696
VERTEX2 834 -6.50096390 4.37048369 2.59959011
VERTEX2 835 -6.51299215 4.37176497 -2.90617054
VERTEX2 836 -6.52466389 4.36174197 -1.96339919
VERTEX2 837 -6.52102204 4.34268862 -0.92735924
VERTEX2 838 -6.50843401 4.33497179 -0.06543206
VERTEX2 839 -6.50700774 4.33430274 -0.28381267
VERTEX2 840 -6.49520477 4.32518148 -0.84665213
VERTEX2 841 -6.48713428 4.30922531 -1.46394294
VERTEX2 842 -6.51175205 4.06287435 -1.69489418
VERTEX2 843 -6.58633179 3.50007023 -1.69749800
VERTEX2 844 -6.65761710 2.87533840 -1.70559412
VERTEX2 845 -6.74745665 2.25096625 -1.72039286
VERTEX2 846 -6.82988218 1.61932214 -1.71841876
VERTEX2 847 -6.93617834 0.99526085 -1.74490501
VERTEX2 848 -6.96543520 0.80097773 -1.26441435
VERTEX2 849 -6.96397086 0.80045765 -0.34214765
VERTEX2 850 -6.60752571 0.79945972 0.01128474
VERTEX2 851 -5.97891844 0.77789277 -0.08119658
VERTEX2 852 -5.35301946 0.72108945 -0.06676795
VERTEX2 853 -4.75677831 0.68282028 -0.09467666
VERTEX2 854 -4.16805044 0.61917529 -0.09266070
VERTEX2 855 -3.57172865 0.57251710 -0.09444862
VERTEX2 856 -2.90547083 0.48959555 -0.13629701
VERTEX2 857 -2.24049856 0.40215003 -0.14689649
VERTEX2 858 -1.58775759 0.28218338 -0.20229363
VERTEX2 859 -1.06444986 0.17985825 -0.20963963
VERTEX2 860 -1.03144650 0.19355143 0.63879134
VERTEX2 861 -1.01489136 0.31109385 1.55216826
VERTEX2 862 -0.97586843 0.97703126 1.49226000
VERTEX2 863 -0.91741153 1.62765534 1.45952633
VERTEX2 864 -0.82882895 2.24441201 1.45719203
VERTEX2 865 -0.78781401 2.84531817 1.51476338
VERTEX2 866 -0.74341464 3.42072683 1.51358813
VERTEX2 867 -0.73626805 3.57420779 1.69471746
VERTEX2 868 -0.73929103 3.57789600 2.71815830
VERTEX2 869 -0.73214386 3.57795210 -2.58695727
VERTEX2 870 -0.71872228 3.58513138 -1.58735655
VERTEX2 871 -0.70564465 3.57624109 -0.61318477
VERTEX2 872 -0.68863979 3.56393563 0.07238852
VERTEX2 873 -0.66419025 3.55576945 -0.49992011
VERTEX2 874 -0.64380992 3.53733522 -1.05927634
VERTEX2 875 -0.63710654 3.52153347 -1.64553138
VERTEX2 876 -0.75807995 2.96219184 -1.80295653
VERTEX2 877 -0.91149246 2.41680781 -1.88747935
VERTEX2 878 -0.96298134 2.21359504 -1.50428268
VERTEX2 879 -0.86166633 1.57304225 -1.45311569
VERTEX2 880 -0.82593373 1.12159818 -1.56564048
VERTEX2 881 -0.82631167 1.16879261 -1.56016474
VERTEX2 882 -0.88299489 0.52619681 -1.80645822
VERTEX2 883 -1.09978741 -0.07271915 -1.99696145
VERTEX2 884 -1.25629903 -0.40130361 -2.06379957
VERTEX2 885 -1.25649822 -0.39685818 -1.48190444
VERTEX2 886 -1.24169201 -0.41067544 -0.46323920
VERTEX2 887 -1.21474740 -0.42108307 0.54873123
VERTEX2 888 -1.20296178 -0.39612085 1.53341320
VERTEX2 889 -1.20592042 -0.38762220 2.43199655
VERTEX2 890 -1.52356615 -0.23551693 2.70613794
VERTEX2 891 -2.06339523 0.02985901 2.63598294
VERTEX2 892 -2.60818121 0.35275043 2.60065536
VERTEX2 893 -3.17248672 0.65145280 2.83731579
VERTEX2 894 -3.78951871 0.76143278 3.05875034
VERTEX2 895 -4.39328427 0.71073630 -2.92546418
VERTEX2 896 -4.41451475 0.70553561 -2.44627476
VERTEX2 897 -4.69379521 0.28779575 -2.17412197
VERTEX2 898 -5.03817365 -0.21741365 -2.15869925
VERTEX2 899 -5.31814443 -0.62276821 -2.22651610
VERTEX2 900 -5.72610123 -1.16534117 -2.22911523
VERTEX2 901 -6.09121267 -1.60576879 -2.29344841
VERTEX2 902 -6.50922744 -2.10335697 -2.26771097
VERTEX2 903 -6.82714483 -2.48815089 -2.31191109
VERTEX2 904 -6.82846350 -2.49003405 -1.60833762
VERTEX2 905 -6.81242564 -2.97806742 -1.55265291
VERTEX2 906 -6.77608544 -3.54352929 -1.48664198
VERTEX2 907 -6.71753943 -4.11113108 -1.49450238
VERTEX2 908 -6.66779199 -4.73233088 -1.46932587
VERTEX2 909 -6.60371680 -5.33738890 -1.48736021
VERTEX2 910 -6.62970309 -5.46317148 -1.85744394
VERTEX2 911 -6.78520387 -6.03200323 -1.79665504
VERTEX2 912 -6.90186799 -6.59428886 -1.78410079
VERTEX2 913 -7.00978892 -7.13443874 -1.77621490
VERTEX2 914 -7.13135679 -7.72091516 -1.79990394
VERTEX2 915 -7.25089173 -8.22845782 -1.83663382
VERTEX2 916 -7.18591206 -8.46790379 -1.28911612
VERTEX2 917 -7.04318551 -9.11182014 -1.54351600
VERTEX2 918 -7.05956448 -9.62695084 -1.61902218
VERTEX2 919 -7.08859509 -10.24806211 -1.66229693
VERTEX2 920 -7.14845683 -10.85998352 -1.67982714
VERTEX2 921 -7.21708624 -11.47326438 -1.73309266
VERTEX2 922 -7.31488809 -12.07550037 -1.76021373
VERTEX2 923 -7.43049373 -12.64075084 -1.82356121
VERTEX2 924 -7.55826765 -13.13344607 -1.80686883
VERTEX2 925 -7.55979198 -13.12625946 -1.30201208
VERTEX2 926 -7.39608570 -13.68452125 -1.28575638
VERTEX2 927 -7.22529249 -14.27131093 -1.30900582
VERTEX2 928 -7.06335147 -14.87362552 -1.31787829
VERTEX2 929 -6.90789768 -15.47315710 -1.31871411
VERTEX2 930 -6.75517151 -16.10239331 -1.40121993
VERTEX2 931 -6.66346858 -16.72744497 -1.48137497
VERTEX2 932 -6.61179237 -17.35351441 -1.54074172
VERTEX2 933 -6.60288324 -17.96533522 -1.60526106
VERTEX2 934 -6.61314130 -18.44534939 -1.61501373
VERTEX2 935 -6.61040755 -18.45747053 -0.93247779
VERTEX2 936 -6.60942099 -18.45780660 0.01295473
VERTEX2 937 -6.06862221 -18.42756014 0.07591467
VERTEX2 938 -5.47341889 -18.43790091 -0.09738906
VERTEX2 939 -4.84989557 -18.49164145 -0.06959379
VERTEX2 940 -4.23807794 -18.56059406 -0.15552056
VERTEX2 941 -3.63331038 -18.66991583 -0.20924981
VERTEX2 942 -3.11481646 -18.78031636 -0.20483520
VERTEX2 943 -2.50569314 -18.90798254 -0.11661931
VERTEX2 944 -1.89367241 -18.98503207 -0.17307654
VERTEX2 945 -1.27498749 -19.10714746 -0.22803192
VERTEX2 946 -1.10385893 -19.14905589 -0.16353920
VERTEX2 947 -0.69795890 -19.08252152 0.16493265
VERTEX2 948 -0.12704863 -18.98776049 0.14592432
VERTEX2 949 0.47417963 -18.94737081 -0.00958690
VERTEX2 950 1.10275096 -18.97714248 -0.24896012
VERTEX2 951 1.70369590 -19.14309259 -0.32101816
VERTEX2 952 2.30037182 -19.31092780 -0.07018057
VERTEX2 953 2.92404721 -19.33585375 0.01011836
VERTEX2 954 3.54208233 -19.32116713 0.00308715
VERTEX2 955 4.12276653 -19.35865189 -0.15778629
VERTEX2 956 4.66684675 -19.42940441 -0.15995795
VERTEX2 957 5.19921142 -19.51946810 -0.24715701
VERTEX2 958 5.66610248 -19.62579208 -0.27346656
VERTEX2 959 6.10912406 -19.74291890 -0.34023853
VERTEX2 960 6.69597102 -19.89766831 -0.25997746
VERTEX2 961 7.27924942 -20.06465739 -0.28701233
VERTEX2 962 7.89796519 -20.18557347 -0.22140788
VERTEX2 963 8.51638508 -20.25875999 -0.03475586
VERTEX2 964 9.13900331 -20.29258807 -0.09867217
VERTEX2 965 9.75765877 -20.36399292 -0.10558774
VERTEX2 966 10.19547578 -20.41585917 -0.16456531
VERTEX2 967 10.23128379 -20.40812424 0.68848725
VERTEX2 968 10.23743575 -20.40215624 1.58543015
VERTEX2 969 10.24053723 -20.43357256 1.64494842
VERTEX2 970 10.24368139 -20.46523844 1.64326046
VERTEX2 971 10.21901111 -20.13604160 1.64343622
VERTEX2 972 10.17267885 -19.55383571 1.64909114
VERTEX2 973 10.24379013 -18.97438271 1.36413454
VERTEX2 974 10.37585467 -18.36621085 1.39573557
VERTEX2 975 10.47987921 -17.75444680 1.40013583
VERTEX2 976 10.57717759 -17.14016669 1.41283119
VERTEX2 977 10.70419590 -16.52123443 1.38638670
VERTEX2 978 10.81665316 -15.90866571 1.43217786
VERTEX2 979 10.92308786 -15.29998283 1.41972224
VERTEX2 980 11.01262135 -14.69456877 1.46643862
VERTEX2 981 11.09330858 -14.09974363 1.47314173
VERTEX2 982 11.14251603 -13.57174754 1.51786800
VERTEX2 983 11.18389057 -12.97360445 1.51427098
VERTEX2 984 11.20307225 -12.37809468 1.57138876
VERTEX2 985 11.20606443 -11.78175080 1.59142649
VERTEX2 986 11.18309201 -11.16197789 1.62749545
VERTEX2 987 11.16257590 -10.54362974 1.59051694
VERTEX2 988 11.15764294 -9.92547115 1.60394419
VERTEX2 989 11.13531939 -9.31265765 1.61105268
VERTEX2 990 11.12119033 -8.70311440 1.59969279
VERTEX2 991 11.09892616 -8.08988561 1.62389698
VERTEX2 992 11.08786124 -7.50697016 1.59098242
VERTEX2 993 11.06863001 -6.89472344 1.62384864
VERTEX2 994 11.04701392 -6.31332283 1.61403420
VERTEX2 995 11.01081118 -5.73722421 1.66121880
VERTEX2 996 10.94751427 -5.14635275 1.68826363
VERTEX2 997 10.89830296 -4.51670126 1.62376172
VERTEX2 998 10.87553034 -4.12313192 1.64562240
VERTEX2 999 10.90891570 -4.14966657 2.36346375
VERTEX2 1000 10.44839242 -3.79821871 2.51207497
VERTEX2 1001 10.01102147 -3.40718260 2.19103642
VERTEX2 1002 9.64551348 -2.94602436 2.28362240
VERTEX2 1003 9.30134847 -2.46393790 2.10453485
VERTEX2 1004 8.95950433 -1.93404679 2.16284881
VERTEX2 1005 8.60313473 -1.44609692 2.22532830
VERTEX2 1006 8.20443310 -0.97409489 2.30272060
VERTEX2 1007 7.78886191 -0.55349426 2.39436069
VERTEX2 1008 7.55194965 -0.34163742 2.55383883
VERTEX2 1009 7.45969607 -0.32857516 3.02828904
VERTEX2 1010 6.89321651 -0.27936923 3.08116349
VERTEX2 1011 6.28029667 -0.24723961 3.03850157
VERTEX2 1012 5.67337035 -0.19143987 3.08082519
VERTEX2 1013 5.04007918 -0.20162109 -3.08693904
VERTEX2 1014 4.42960472 -0.16140166 3.02145544
VERTEX2 1015 3.80682369 -0.12965793 3.10596378
VERTEX2 1016 3.03953512 -0.10125606 3.11275519
VERTEX2 1017 2.45948555 -0.09566075 3.05570374
VERTEX2 1018 1.90733599 -0.04183747 3.06306465
VERTEX2 1019 1.31781358 -0.02545646 3.12265042
VERTEX2 1020 0.70442014 0.00259381 3.10836818
VERTEX2 1021 0.08519778 0.02393190 3.06740961
VERTEX2 1022 0.03387496 0.02755725 3.05984749
VERTEX2 1023 0.04289538 0.02748380 -3.13713516
VERTEX2 1024 -0.58200338 0.02814223 -3.11115834
VERTEX2 1025 -1.20877050 -0.00916315 -3.09394249
VERTEX2 1026 -1.37161886 -0.01643860 -3.08703398
VERTEX2 1027 -1.35855351 -0.00988022 -2.17147383
VERTEX2 1028 -1.36959197 -0.16770934 -1.60910840
VERTEX2 1029 -1.39375725 -0.72508813 -1.63110479
VERTEX2 1030 -1.45239491 -1.34623366 -1.71160732
VERTEX2 1031 -1.55994612 -1.99147424 -1.76584913
VERTEX2 1032 -1.68542234 -2.63677453 -1.76189983
VERTEX2 1033 -1.82394124 -3.28085669 -1.80716196
VERTEX2 1034 -1.86633260 -3.44780646 -2.02075614
VERTEX2 1035 -1.87378517 -3.45416595 -2.64063483
VERTEX2 1036 -1.84657529 -3.46650078 3.07123360
VERTEX2 1037 -2.19133826 -3.33777981 2.83253239
VERTEX2 1038 -2.80771172 -3.21851914 2.92350426
VERTEX2 1039 -3.45125621 -3.05168753 2.89176218
VERTEX2 1040 -3.42986462 -3.05208334 -2.76195548
VERTEX2 1041 -3.40518231 -3.05521118 -1.74607086
VERTEX2 1042 -3.40684437 -3.08778832 -0.75918969
VERTEX2 1043 -3.37575789 -3.11624548 0.20939185
VERTEX2 1044 -3.38771613 -3.13044685 1.20352702
VERTEX2 1045 -3.38842894 -3.13202798 1.09005313
VERTEX2 1046 -3.39509191 -3.14105160 0.70537349
VERTEX2 1047 -3.40787638 -3.14668093 0.15068074
VERTEX2 1048 -3.04019931 -3.21477593 -0.16155642
VERTEX2 1049 -2.38912753 -3.30973068 -0.14395689
VERTEX2 1050 -1.73625098 -3.37643897 -0.06779688
VERTEX2 1051 -1.07943372 -3.44531949 -0.14690161
VERTEX2 1052 -0.45417272 -3.52195127 -0.09392022
VERTEX2 1053 -0.03567367 -3.57350528 -0.14652785
VERTEX2 1054 -0.00830967 -3.57620064 0.61575772
VERTEX2 1055 -0.00135228 -3.54224390 1.67128577
VERTEX2 1056 0.00624461 -3.55311975 2.67526581
VERTEX2 1057 0.03223690 -3.55581919 -2.61691836
VERTEX2 1058 0.03270761 -3.55526974 -1.69459896
VERTEX2 1059 -0.06051700 -4.13489012 -1.77530966
VERTEX2 1060 -0.19200386 -4.76214219 -1.77027370
VERTEX2 1061 -0.29649536 -5.21020488 -1.89290925
VERTEX2 1062 -0.29941254 -5.21478253 -2.45737911
VERTEX2 1063 -0.27838974 -5.20258513 -3.05535955
VERTEX2 1064 -0.56068977 -5.15119862 2.96242604
VERTEX2 1065 -1.15015689 -5.08721182 3.08428502
VERTEX2 1066 -1.71498163 -5.03772632 3.02808634
VERTEX2 1067 -1.70160774 -5.03696099 -2.82259517
VERTEX2 1068 -1.68907635 -5.02806435 -2.15003579
VERTEX2 1069 -1.68799048 -5.02508229 -1.97976935
VERTEX2 1070 -1.68599414 -5.02152636 -2.51891937
VERTEX2 1071 -2.15836071 -5.28113596 -2.64606615
VERTEX2 1072 -2.60736803 -5.51610890 -2.71469643
VERTEX2 1073 -2.57671839 -5.51516941 3.05740517
VERTEX2 1074 -3.10494566 -5.44638155 3.02306303
VERTEX2 1075 -3.68085683 -5.37347639 3.03963795
VERTEX2 1076 -3.69820140 -5.37232753 -2.83958385
VERTEX2 1077 -3.70675898 -5.38880506 -2.03427763
VERTEX2 1078 -3.93930770 -5.99185476 -1.98921963
VERTEX2 1079 -4.16531435 -6.54950490 -1.92743692
VERTEX2 1080 -4.16933940 -6.56039385 -2.41611739
VERTEX2 1081 -4.59404865 -6.85271894 -2.53988958
VERTEX2 1082 -4.77037973 -6.97653627 -2.25898876
VERTEX2 1083 -4.76351504 -7.02678098 -1.22779247
VERTEX2 1084 -4.68768873 -7.06534747 -0.26108893
VERTEX2 1085 -4.69516041 -7.06736224 0.72295319
VERTEX2 1086 -4.34187643 -6.58181677 0.95380434
VERTEX2 1087 -3.96946774 -6.07818025 0.94198552
VERTEX2 1088 -3.61573942 -5.57050328 0.92549997
VERTEX2 1089 -3.56300834 -5.50153209 0.83023688
VERTEX2 1090 -3.55565858 -5.49473467 0.21564596
VERTEX2 1091 -3.01983074 -5.45962212 0.03903365
VERTEX2 1092 -2.40240090 -5.44070502 0.02409807
VERTEX2 1093 -1.82805059 -5.43997139 -0.04097456
VERTEX2 1094 -1.81449634 -5.45271153 -0.44495017
VERTEX2 1095 -1.78308904 -5.48018917 -1.03454233
VERTEX2 1096 -1.78312662 -5.48014303 -1.60563919
VERTEX2 1097 -1.86392658 -5.80454919 -1.82101448
VERTEX2 1098 -2.03670272 -6.40109789 -1.87781870
VERTEX2 1099 -2.24064823 -6.96402173 -1.97388367
VERTEX2 1100 -2.24648829 -6.97907224 -1.61078554
VERTEX2 1101 -2.18572897 -7.24480368 -1.34488175
VERTEX2 1102 -2.18653497 -7.25518788 -1.73855770
VERTEX2 1103 -2.31074613 -7.86640645 -1.77234512
VERTEX2 1104 -2.44563728 -8.50394786 -1.80005649
VERTEX2 1105 -2.59790027 -9.12747795 -1.81797538
VERTEX2 1106 -2.72168678 -9.60565135 -1.84323909
VERTEX2 1107 -2.72072963 -9.61604128 -1.58716792
VERTEX2 1108 -2.68711308 -10.24435858 -1.57936461
VERTEX2 1109 -2.73833991 -10.89012257 -1.68335030
VERTEX2 1110 -2.81195594 -11.49952531 -1.73292405
VERTEX2 1111 -2.98110779 -12.02962024 -1.83427106
VERTEX2 1112 -3.01398007 -12.60040755 -1.48770292
VERTEX2 1113 -2.97775167 -13.23098607 -1.58297967
VERTEX2 1114 -2.98442810 -13.83927111 -1.56585679
VERTEX2 1115 -2.97864319 -14.41413387 -1.58195490
VERTEX2 1116 -2.96349529 -15.05410417 -1.54560340
VERTEX2 1117 -2.96044446 -15.14329820 -1.67325738
VERTEX2 1118 -2.95559106 -15.13413813 -2.28022398
VERTEX2 1119 -2.94263428 -15.12506705 -2.71168340
VERTEX2 1120 -3.50161207 -15.33248359 -2.77517736
VERTEX2 1121 -3.68794891 -15.39939355 -2.89360724
VERTEX2 1122 -3.68606933 -15.40001893 2.83954607
VERTEX2 1123 -4.23899341 -15.21814171 2.85662070
VERTEX2 1124 -4.79879437 -15.09296718 2.95556417
VERTEX2 1125 -5.42621964 -14.97172339 2.96926124
VERTEX2 1126 -5.50739808 -14.95930224 -2.97384860
VERTEX2 1127 -5.50710281 -14.95961751 -1.91582618
VERTEX2 1128 -5.50454450 -14.94657458 -0.92775293
VERTEX2 1129 -5.49060461 -14.95421008 0.08857450
VERTEX2 1130 -4.90110256 -14.88336757 0.10247742
VERTEX2 1131 -4.12708662 -15.00033401 -0.32895754
VERTEX2 1132 -3.51663201 -15.21077502 -0.34844729
VERTEX2 1133 -2.97028467 -15.43221436 -0.38695983
VERTEX2 1134 -2.71904278 -15.53481876 -0.48377145
VERTEX2 1135 -2.71219671 -15.54142097 -1.03942558
VERTEX2 1136 -2.70865113 -15.53382730 -1.60099192
VERTEX2 1137 -2.75846341 -15.82883636 -1.78476825
VERTEX2 1138 -2.90543510 -16.45557058 -1.80083998
VERTEX2 1139 -3.01978505 -16.95144739 -1.87379102
VERTEX2 1140 -3.00988750 -16.92709479 -2.35221228
VERTEX2 1141 -2.98796580 -16.90538522 -2.89899111
VERTEX2 1142 -3.35065623 -16.86534557 3.02032802
VERTEX2 1143 -3.94840314 -16.82410424 3.10999902
VERTEX2 1144 -4.52895048 -16.79515644 3.07962991
VERTEX2 1145 -5.10717587 -16.75501110 3.05441005
VERTEX2 1146 -5.68298846 -16.70268978 3.07386946
VERTEX2 1147 -6.26056384 -16.69724752 -3.13687734
VERTEX2 1148 -6.84017631 -16.69967716 -3.12684204
VERTEX2 1149 -6.88398387 -16.70138407 -2.62858642
VERTEX2 1150 -6.97211806 -16.80096388 -1.81935803
VERTEX2 1151 -6.97086983 -16.80810998 -0.81552902
VERTEX2 1152 -6.95375410 -16.80826664 0.23758473
VERTEX2 1153 -6.93747448 -16.80073472 1.25036839
VERTEX2 1154 -6.99981023 -16.48045571 1.79638289
VERTEX2 1155 -7.13818720 -15.85357065 1.74702206
VERTEX2 1156 -7.23893767 -15.25195843 1.75670620
VERTEX2 1157 -7.36809320 -14.68855282 1.86749248
VERTEX2 1158 -7.49505659 -14.09995904 1.73871710
VERTEX2 1159 -7.55852440 -13.49913384 1.64459872
VERTEX2 1160 -7.58403370 -12.86493176 1.50749849
VERTEX2 1161 -7.48739832 -12.23496560 1.41755065
VERTEX2 1162 -7.39884148 -11.60497540 1.47549032
VERTEX2 1163 -7.33913397 -10.96492986 1.46993513
VERTEX2 1164 -7.29362148 -10.32730398 1.55532033
VERTEX2 1165 -7.28546399 -9.78778330 1.53220963
VERTEX2 1166 -7.28593742 -9.78557297 2.02053034
VERTEX2 1167 -7.23685346 -9.77336602 2.95768111
VERTEX2 1168 -7.19438115 -9.75618839 -2.42156702
VERTEX2 1169 -7.19785867 -9.80519292 -1.59914889
VERTEX2 1170 -7.20425738 -10.38870656 -1.59229458
VERTEX2 1171 -7.19991079 -11.02086616 -1.56038451
VERTEX2 1172 -7.20015289 -11.61713237 -1.62265078
VERTEX2 1173 -7.22565778 -12.23839122 -1.61335903
VERTEX2 1174 -7.26491342 -12.86500826 -1.68189285
VERTEX2 1175 -7.34628969 -13.47700977 -1.71512732
VERTEX2 1176 -7.43902264 -14.09780250 -1.75866368
VERTEX2 1177 -7.55388894 -14.70674790 -1.75649050
VERTEX2 1178 -7.68019676 -15.31972830 -1.80356382
VERTEX2 1179 -7.81294324 -15.92465204 -1.77408200
VERTEX2 1180 -7.86509058 -16.17814585 -1.78094191
VERTEX2 1181 -7.86423922 -16.17174497 -0.95298810
VERTEX2 1182 -7.80879906 -16.18532468 -0.24085523
VERTEX2 1183 -7.19408393 -16.32868784 -0.21542473
VERTEX2 1184 -6.56036324 -16.43769299 -0.14577632
VERTEX2 1185 -5.93157175 -16.54222834 -0.17794805
VERTEX2 1186 -5.29931343 -16.63120181 -0.11168368
VERTEX2 1187 -4.64478339 -16.71051493 -0.14872034
VERTEX2 1188 -4.02293772 -16.79352806 -0.13089287
VERTEX2 1189 -3.34931487 -16.89633107 -0.10927626
VERTEX2 1190 -3.00819012 -16.93447159 -0.10131401
VERTEX2 1191 -2.96737800 -16.93318494 0.81875631
VERTEX2 1192 -2.96275570 -16.85488869 1.61624222
VERTEX2 1193 -2.96205223 -16.26068596 1.48419464
VERTEX2 1194 -2.92684164 -15.69139251 1.52624383
VERTEX2 1195 -2.90480368 -15.07314464 1.57860819
VERTEX2 1196 -2.90528556 -14.45522084 1.40602262
VERTEX2 1197 -2.80959455 -13.84747469 1.41753905
VERTEX2 1198 -2.74678977 -13.22846317 1.67680402
VERTEX2 1199 -2.77058738 -12.61886775 1.46178524
VERTEX2 1200 -2.72022986 -11.98967397 1.53057085
VERTEX2 1201 -2.70183362 -11.37161978 1.58620383
VERTEX2 1202 -2.71845645 -10.75171114 1.60899161
VERTEX2 1203 -2.75477565 -10.16528071 1.51891327
VERTEX2 1204 -2.64631618 -9.57270604 1.37198904
VERTEX2 1205 -2.54336703 -9.00927377 1.40146989
VERTEX2 1206 -2.46432599 -8.42534177 1.46257417
VERTEX2 1207 -2.33373187 -7.81877557 1.37637518
VERTEX2 1208 -2.22816781 -7.19748905 1.44064457
VERTEX2 1209 -2.14760592 -6.57979816 1.43832913
VERTEX2 1210 -2.08871932 -5.96645824 1.45850350
VERTEX2 1211 -1.96893284 -5.35959849 1.38542724
VERTEX2 1212 -1.86009659 -4.75319876 1.43523985
VERTEX2 1213 -1.79844716 -4.14573088 1.50831253
VERTEX2 1214 -1.72297686 -3.42622876 1.28537793
VERTEX2 1215 -1.56476991 -2.84646767 1.34423269
VERTEX2 1216 -1.51943905 -2.29956922 1.56133151
VERTEX2 1217 -1.48995225 -1.72154165 1.54171843
VERTEX2 1218 -1.48108904 -1.13930819 1.49051340
VERTEX2 1219 -1.43586230 -0.49776023 1.52060282
VERTEX2 1220 -1.43305101 0.08131310 1.61077669
VERTEX2 1221 -1.43010877 0.07163368 1.15702238
VERTEX2 1222 -1.42018542 0.08140546 0.55971538
VERTEX2 1223 -1.40836741 0.08427270 0.00008838
VERTEX2 1224 -0.83388954 -0.00474053 -0.18281962
VERTEX2 1225 -0.21790726 -0.11465667 -0.16905562
VERTEX2 1226 -0.11293991 -0.13268357 -0.18578662
VERTEX2 1227 -0.11293991 -0.13268357 -0.18644862
