VERTEX2 0 -0.00000334 -0.00000075 0.00000011
VERTEX2 1 -0.00000334 -0.00000075 -0.00064189
VERTEX2 2 -0.00000335 -0.00000075 -0.00117989
VERTEX2 3 0.01099851 -0.00097573 -0.00356189
VERTEX2 4 0.64100508 -0.01120080 -0.00744389
VERTEX2 5 0.69601277 -0.01171629 -0.09872589
VERTEX2 6 0.70026588 -0.01543561 -0.89599789
VERTEX2 7 0.69395314 0.00421288 -1.51153489
VERTEX2 8 0.69925999 0.02669365 -2.12506889
VERTEX2 9 0.71611126 0.04112267 -2.76313889
VERTEX2 10 0.72897777 0.04322006 2.90551542
VERTEX2 11 0.73320036 0.04053702 2.23123642
VERTEX2 12 0.73318307 0.04154547 1.58176242
VERTEX2 13 0.73874923 0.05907056 0.92226442
VERTEX2 14 0.75965474 0.07375077 0.31402542
VERTEX2 15 0.76856815 0.07435771 -0.21090258
VERTEX2 16 1.06249021 0.01415231 -0.22959458
VERTEX2 17 1.66364388 -0.13311437 -0.26082258
VERTEX2 18 2.28699803 -0.29647937 -0.27099958
VERTEX2 19 2.91429397 -0.49425314 -0.31957558
VERTEX2 20 3.50829231 -0.68448774 -0.31367674
VERTEX2 21 4.11767405 -0.83701545 -0.20213213
VERTEX2 22 4.72787576 -0.97852944 -0.18476012
VERTEX2 23 5.36796344 -1.02293985 -0.07736271
VERTEX2 24 5.99971330 -1.09436794 -0.13444530
VERTEX2 25 6.63477259 -1.16229653 -0.13170436
VERTEX2 26 7.24384396 -1.26305245 -0.17228306
VERTEX2 27 7.85986005 -1.35464089 -0.15649927
VERTEX2 28 8.44157510 -1.45353605 -0.16099474
VERTEX2 29 8.82072304 -1.51117386 -0.13027821
VERTEX2 30 8.83003071 -1.51365346 -0.66252121
VERTEX2 31 8.93097544 -1.64923594 -0.93096343
VERTEX2 32 9.29864649 -2.16410614 -0.94955621
VERTEX2 33 9.68328080 -2.67441492 -0.89883009
VERTEX2 34 10.09726753 -3.16842418 -0.87787731
VERTEX2 35 10.52139265 -3.65470428 -0.84372129
VERTEX2 36 10.95208540 -4.14222798 -0.85239957
VERTEX2 37 11.23647485 -4.46015170 -0.84482975
VERTEX2 38 11.23723925 -4.46116790 -1.16671478
VERTEX2 39 11.23665986 -4.45824453 -1.33782731
VERTEX2 40 11.38173307 -5.03529442 -1.32067409
VERTEX2 41 11.53225983 -5.63747344 -1.35276291
VERTEX2 42 11.65509725 -6.20310362 -1.37556434
VERTEX2 43 11.76180329 -6.80039907 -1.41585167
VERTEX2 44 11.85151217 -7.39696083 -1.45290799
VERTEX2 45 11.90625680 -8.01648038 -1.50846634
VERTEX2 46 11.93695224 -8.63810806 -1.52788738
VERTEX2 47 11.95675008 -9.25959668 -1.56959534
VERTEX2 48 11.95291977 -9.88554874 -1.57616812
VERTEX2 49 11.94532083 -10.50745460 -1.62702248
VERTEX2 50 11.89158632 -11.09707197 -1.67153342
VERTEX2 51 11.83605743 -11.69383249 -1.70060921
VERTEX2 52 11.73851298 -12.27734958 -1.77733692
VERTEX2 53 11.63814213 -12.83536542 -1.76498759
VERTEX2 54 11.52472717 -13.34766371 -1.82706820
VERTEX2 55 11.53128295 -13.31631946 -1.82178917
VERTEX2 56 11.53048773 -13.31941091 -1.81121318
VERTEX2 57 11.38597711 -13.93786230 -1.82259888
VERTEX2 58 11.23889189 -14.54458912 -1.77635360
VERTEX2 59 11.10920904 -15.15080312 -1.79990537
VERTEX2 60 10.97991804 -15.74851115 -1.77864441
VERTEX2 61 10.84479006 -16.34670672 -1.82949518
VERTEX2 62 10.69426531 -16.90577622 -1.78964406
VERTEX2 63 10.54193702 -17.46963675 -1.82513560
VERTEX2 64 10.40617023 -18.02808092 -1.76174919
VERTEX2 65 10.27085372 -18.58433161 -1.81317007
VERTEX2 66 10.11645116 -19.17041847 -1.82120494
VERTEX2 67 9.95024906 -19.75998876 -1.81977489
VERTEX2 68 9.83982371 -20.20756327 -1.83558042
VERTEX2 69 9.84297262 -20.19734568 -1.99055595
VERTEX2 70 9.84988034 -20.18416850 -2.66491132
VERTEX2 71 9.87317915 -20.18285688 2.97562078
VERTEX2 72 9.88583003 -20.18442572 2.96613887
VERTEX2 73 9.89320721 -20.18625869 2.90119585
VERTEX2 74 9.89330397 -20.18631097 2.27940291
VERTEX2 75 9.89996018 -20.18892479 1.92705768
VERTEX2 76 9.88826397 -20.17591782 2.62095528
VERTEX2 77 9.88393918 -20.17409689 2.85391436
VERTEX2 78 9.60243707 -20.18432398 -3.09212751
VERTEX2 79 8.98417802 -20.22203631 -3.09739355
VERTEX2 80 8.35228346 -20.21948062 3.11126510
VERTEX2 81 7.72816885 -20.19186076 3.08525808
VERTEX2 82 7.12863441 -20.15005656 3.03113149
VERTEX2 83 6.54009136 -20.09766170 3.00760313
VERTEX2 84 5.97768181 -20.01072972 2.92977127
VERTEX2 85 5.43505605 -19.90572673 2.93704109
VERTEX2 86 4.82597801 -19.78385068 2.84724798
VERTEX2 87 4.43443308 -19.67604295 2.79485298
VERTEX2 88 4.07625723 -19.54241036 2.76503590
VERTEX2 89 4.08584395 -19.54289519 -3.12240491
VERTEX2 90 3.48066911 -19.54490650 3.12966810
VERTEX2 91 2.86471128 -19.53926861 -3.10444177
VERTEX2 92 2.26484800 -19.53381528 3.06304559
VERTEX2 93 1.64365524 -19.42976580 2.96217734
VERTEX2 94 1.02282000 -19.28984240 2.91939616
VERTEX2 95 0.39974022 -19.20030611 3.06199596
VERTEX2 96 -0.21172347 -19.14756157 3.08606485
VERTEX2 97 -0.80283901 -19.08300354 3.01546613
VERTEX2 98 -1.39251539 -18.98036161 2.95750588
VERTEX2 99 -2.09870172 -18.85403704 3.00433270
VERTEX2 100 -2.66447538 -18.74445139 2.95262914
VERTEX2 101 -3.27671909 -18.68627959 3.05594597
VERTEX2 102 -3.89050283 -18.60448400 2.95005248
VERTEX2 103 -4.49963375 -18.48812690 3.04603182
VERTEX2 104 -5.11265884 -18.41038646 3.01238890
VERTEX2 105 -5.72587044 -18.34452188 3.05898487
VERTEX2 106 -6.32851441 -18.27275733 3.00416492
VERTEX2 107 -6.94695181 -18.17523161 3.00039787
VERTEX2 108 -7.40249686 -18.12537425 3.06197475
VERTEX2 109 -7.44884431 -18.11353024 2.61348045
VERTEX2 110 -7.46611984 -18.09557606 2.02214429
VERTEX2 111 -7.46613026 -18.01468786 1.51630531
VERTEX2 112 -7.44097497 -17.38079444 1.57072245
VERTEX2 113 -7.45799164 -16.75836055 1.61774589
VERTEX2 114 -7.48978294 -16.14433546 1.65452244
VERTEX2 115 -7.56174833 -15.50346430 1.71475792
VERTEX2 116 -7.67905460 -14.75210420 1.75882704
VERTEX2 117 -7.81373154 -14.14086318 1.85437216
VERTEX2 118 -7.81850156 -14.11948201 1.51975338
VERTEX2 119 -7.76222103 -13.60138488 1.46651764
VERTEX2 120 -7.70913953 -12.94508269 1.55677578
VERTEX2 121 -7.71958899 -12.32563341 1.62442292
VERTEX2 122 -7.75373802 -11.74376951 1.68066828
VERTEX2 123 -7.77868325 -11.56435877 1.66791604
VERTEX2 124 -7.69291854 -11.32621606 1.24501535
VERTEX2 125 -7.47712203 -10.73426219 1.23411315
VERTEX2 126 -7.34551515 -10.11894997 1.44071829
VERTEX2 127 -7.24890493 -9.48423352 1.43923427
VERTEX2 128 -7.17468450 -8.84539460 1.47577443
VERTEX2 129 -7.08966164 -8.21037967 1.44324479
VERTEX2 130 -7.02361782 -7.57732025 1.49605055
VERTEX2 131 -6.97943260 -6.95002315 1.58466769
VERTEX2 132 -6.96331315 -6.33228716 1.53519389
VERTEX2 133 -6.91786595 -5.76563113 1.49836412
VERTEX2 134 -6.86547888 -5.17001276 1.48016661
VERTEX2 135 -6.78501645 -4.59439090 1.45399099
VERTEX2 136 -6.71248700 -3.96205427 1.47370625
VERTEX2 137 -6.61754652 -3.33153950 1.43202342
VERTEX2 138 -6.54326879 -2.70249175 1.51250069
VERTEX2 139 -6.52832160 -2.06772298 1.57907824
VERTEX2 140 -6.55940854 -1.40962797 1.61085100
VERTEX2 141 -6.56955421 -0.77121886 1.56231517
VERTEX2 142 -6.57402199 -0.12308759 1.55838351
VERTEX2 143 -6.49715553 0.51443987 1.44769385
VERTEX2 144 -6.45985750 0.88461867 1.46511086
VERTEX2 145 -6.45495426 0.89976798 0.96644142
VERTEX2 146 -6.45371395 0.90627620 0.37290750
VERTEX2 147 -6.39720087 0.90268001 -0.11388441
VERTEX2 148 -5.96440155 0.84521783 -0.14966388
VERTEX2 149 -5.32250283 0.75525513 -0.12468323
VERTEX2 150 -4.68730085 0.69451193 -0.11064273
VERTEX2 151 -4.04663875 0.65087349 -0.02510931
VERTEX2 152 -3.42086759 0.61933254 -0.08596101
VERTEX2 153 -2.79540917 0.59043298 0.00751110
VERTEX2 154 -2.17367726 0.57333182 -0.06197155
VERTEX2 155 -1.54802923 0.54380346 -0.02847326
VERTEX2 156 -0.92019290 0.53347569 0.00234840
VERTEX2 157 -0.35594451 0.51943571 -0.06192081
VERTEX2 158 -0.16130468 0.50690885 -0.03442622
VERTEX2 159 -0.15568535 0.50514846 0.95290084
VERTEX2 160 -0.15030757 0.51405249 1.98857900
VERTEX2 161 -0.17267134 0.45459809 2.70963866
VERTEX2 162 -0.14685819 0.46046743 -2.53774770
VERTEX2 163 -0.14785337 0.45542716 -1.54066761
VERTEX2 164 -0.22377031 0.54961197 -0.47867685
VERTEX2 165 -0.05001096 0.53242428 -0.07087219
VERTEX2 166 0.64751647 0.48955503 -0.06916289
VERTEX2 167 1.26441492 0.43926175 -0.09857111
VERTEX2 168 1.85277050 0.38996609 -0.08660741
VERTEX2 169 2.44834358 0.31831270 -0.12357148
VERTEX2 170 3.03516892 0.24987301 -0.14424286
VERTEX2 171 3.59731764 0.15125424 -0.18257066
VERTEX2 172 4.22315718 0.04345722 -0.16853284
VERTEX2 173 4.86117632 -0.07926404 -0.19125852
VERTEX2 174 5.49542784 -0.19541609 -0.15099846
VERTEX2 175 6.12054209 -0.28700598 -0.17555310
VERTEX2 176 6.71082925 -0.40546771 -0.16625492
VERTEX2 177 7.32470632 -0.50689556 -0.19419750
VERTEX2 178 7.93722933 -0.65114485 -0.23347426
VERTEX2 179 8.34009452 -0.73499468 -0.18022010
VERTEX2 180 8.38977263 -0.74839529 -0.62240654
VERTEX2 181 8.83014234 -1.06712523 -0.67427519
VERTEX2 182 9.23638557 -1.42779771 -0.84840860
VERTEX2 183 9.58319629 -1.84944147 -0.90585300
VERTEX2 184 9.93026314 -2.37455001 -1.05154259
VERTEX2 185 10.22113130 -2.92294903 -1.14342692
VERTEX2 186 10.44603503 -3.50350081 -1.20921288
VERTEX2 187 10.64640835 -4.06194684 -1.23132600
VERTEX2 188 10.85364395 -4.63987874 -1.23627643
VERTEX2 189 11.05351163 -5.22177660 -1.26254696
VERTEX2 190 11.23706901 -5.82578510 -1.29148527
VERTEX2 191 11.41019543 -6.42915259 -1.31570441
VERTEX2 192 11.56430495 -7.02603522 -1.34418850
VERTEX2 193 11.68753563 -7.57442330 -1.40002720
VERTEX2 194 11.78701649 -8.14387780 -1.42689305
VERTEX2 195 11.86690894 -8.70868294 -1.45559865
VERTEX2 196 11.93314768 -9.33405001 -1.49641030
VERTEX2 197 11.97064065 -9.95541977 -1.52392968
VERTEX2 198 11.99537400 -10.57420692 -1.58214772
VERTEX2 199 11.96680449 -11.18251191 -1.64360707
VERTEX2 200 11.91918435 -11.78565135 -1.66552220
VERTEX2 201 11.84783557 -12.38535533 -1.72222293
VERTEX2 202 11.78347219 -12.89041741 -1.70201895
VERTEX2 203 11.68095687 -13.62430159 -1.75472448
VERTEX2 204 11.55875042 -14.20019310 -1.85665290
VERTEX2 205 11.38900448 -14.76176832 -1.86602653
VERTEX2 206 11.23444223 -15.30836482 -1.86405265
VERTEX2 207 11.07417784 -15.87469499 -1.84804549
VERTEX2 208 10.90027684 -16.47368570 -1.85742304
VERTEX2 209 10.73761896 -17.07417224 -1.81915929
VERTEX2 210 10.57403337 -17.66677639 -1.82802520
VERTEX2 211 10.42444007 -18.26316493 -1.82577230
VERTEX2 212 10.24726276 -18.84911613 -1.87863558
VERTEX2 213 10.05147989 -19.43874211 -1.89942538
VERTEX2 214 9.85087007 -20.01476918 -1.90324685
VERTEX2 215 9.73539617 -20.33702327 -1.93905750
VERTEX2 216 9.74729716 -20.31669561 -2.43775114
VERTEX2 217 9.77290637 -20.31398039 -2.97994907
VERTEX2 218 9.78209664 -20.31751695 -3.03598669
VERTEX2 219 9.21583210 -20.27283439 3.07867765
VERTEX2 220 8.60686956 -20.22803465 3.03879659
VERTEX2 221 7.96782755 -20.16104034 3.08929919
VERTEX2 222 7.34230719 -20.11789273 3.06376998
VERTEX2 223 6.71621556 -20.08806910 -3.12305901
VERTEX2 224 6.10183645 -20.08839821 3.13435939
VERTEX2 225 5.48385995 -20.08239806 -3.09910978
VERTEX2 226 4.86681746 -20.07566822 3.13499444
VERTEX2 227 4.22171071 -20.14444543 -2.99148149
VERTEX2 228 3.69782815 -20.12835742 2.93022735
VERTEX2 229 3.25144322 -20.08945812 3.05078103
VERTEX2 230 2.96056999 -20.07332023 3.02202780
VERTEX2 231 3.16483592 -20.09126728 3.09214047
VERTEX2 232 2.85474022 -19.95173646 2.66627796
VERTEX2 233 2.29051809 -19.69022948 2.76859062
VERTEX2 234 1.71432870 -19.46276400 2.72443751
VERTEX2 235 1.46463310 -19.35469742 2.71945654
VERTEX2 236 1.12968447 -19.35555439 3.12490622
VERTEX2 237 0.50123351 -19.36984553 -3.08788456
VERTEX2 238 -0.11949562 -19.41770815 -3.12062046
VERTEX2 239 -0.73642645 -19.41410803 3.09493758
VERTEX2 240 -1.30660289 -19.29540901 2.87684564
VERTEX2 241 -1.84674332 -19.16327538 2.96226640
VERTEX2 242 -2.42187957 -19.09701342 3.00180766
VERTEX2 243 -3.02366562 -19.01249196 3.00113890
VERTEX2 244 -3.64882506 -18.96561363 3.07250395
VERTEX2 245 -4.26466056 -18.91566068 3.01834203
VERTEX2 246 -4.86805825 -18.82830843 2.94601147
VERTEX2 247 -5.47285888 -18.74480202 3.05200114
VERTEX2 248 -6.02775884 -18.72245733 3.08340373
VERTEX2 249 -5.97963696 -18.72976365 -3.00685146
VERTEX2 250 -5.97676807 -18.72965593 2.68945048
VERTEX2 251 -6.29936467 -18.38850278 2.26613687
VERTEX2 252 -6.65535270 -17.96747624 2.27468606
VERTEX2 253 -7.02748528 -17.52075449 2.26373274
VERTEX2 254 -7.39312107 -17.06177892 2.22257831
VERTEX2 255 -7.46625440 -16.96877422 2.30645445
VERTEX2 256 -7.46917236 -16.89157847 1.83049212
VERTEX2 257 -7.52057921 -16.43129002 1.69505779
VERTEX2 258 -7.60378837 -15.84155261 1.77554228
VERTEX2 259 -7.74756725 -15.23494969 1.81631373
VERTEX2 260 -7.88169992 -14.67265366 1.80808823
VERTEX2 261 -7.87939683 -14.63486819 1.49692624
VERTEX2 262 -7.81634958 -13.98309284 1.50375842
VERTEX2 263 -7.77434269 -13.36458293 1.51737393
VERTEX2 264 -7.75967849 -12.75914190 1.61459243
VERTEX2 265 -7.79174922 -12.15412159 1.63488061
VERTEX2 266 -7.74418454 -11.57538653 1.50584611
VERTEX2 267 -7.69297233 -10.82522417 1.47648663
VERTEX2 268 -7.56058363 -10.22087039 1.36638961
VERTEX2 269 -7.44066738 -9.60605023 1.39630849
VERTEX2 270 -7.36859000 -8.98088808 1.51037493
VERTEX2 271 -7.27341599 -8.35734581 1.39992894
VERTEX2 272 -7.18790751 -7.72925015 1.46515357
VERTEX2 273 -7.19778282 -7.09824501 1.67731247
VERTEX2 274 -7.26564879 -6.48135395 1.70135468
VERTEX2 275 -7.25362057 -5.87316973 1.53000357
VERTEX2 276 -7.24681529 -5.26595294 1.64464630
VERTEX2 277 -7.29370405 -4.70174367 1.61922285
VERTEX2 278 -7.25053884 -4.06168961 1.53071977
VERTEX2 279 -7.21104806 -3.42434063 1.47546415
VERTEX2 280 -7.14323398 -2.79220949 1.47762913
VERTEX2 281 -7.05303906 -2.15813343 1.37735254
VERTEX2 282 -6.93363316 -1.53035071 1.41739897
VERTEX2 283 -6.84728917 -0.89627358 1.40977496
VERTEX2 284 -6.73599708 -0.27251725 1.43718559
VERTEX2 285 -6.66964841 0.37718183 1.45834044
VERTEX2 286 -6.60382472 0.99912588 1.51202988
VERTEX2 287 -6.60105014 1.05054828 1.40774017
VERTEX2 288 -6.59710159 1.05763409 0.79950488
VERTEX2 289 -6.59351330 1.05943669 0.20642741
VERTEX2 290 -6.15229209 1.05129420 -0.01845283
VERTEX2 291 -5.52874624 1.04434558 -0.00455617
VERTEX2 292 -4.91201038 1.02519941 -0.05926469
VERTEX2 293 -4.28668016 0.98043411 -0.08238795
VERTEX2 294 -3.66492013 0.92857947 -0.08176211
VERTEX2 295 -3.04250031 0.84851197 -0.19432181
VERTEX2 296 -2.42513576 0.70391385 -0.23978440
VERTEX2 297 -1.80996323 0.55234300 -0.25154043
VERTEX2 298 -1.19850206 0.39780835 -0.25229042
VERTEX2 299 -0.62352601 0.24083502 -0.19120793
VERTEX2 300 -0.03662852 0.15474007 -0.14911816
VERTEX2 301 0.52582902 0.05469491 -0.20838161
VERTEX2 302 0.82789498 -0.01051631 -0.22937088
VERTEX2 303 0.81055234 -0.00715387 -0.22531682
VERTEX2 304 1.31128460 -0.12327174 -0.21585167
VERTEX2 305 1.92658596 -0.16843382 -0.03210942
VERTEX2 306 2.55640010 -0.17977889 -0.05030311
VERTEX2 307 3.19600095 -0.22847456 -0.08713746
VERTEX2 308 3.82406048 -0.29230688 -0.14286432
VERTEX2 309 4.45943275 -0.35361897 -0.05009192
VERTEX2 310 5.08747666 -0.38452056 -0.08611666
VERTEX2 311 5.36893442 -0.41093074 0.08875726
VERTEX2 312 5.36586986 -0.41252843 1.07618011
VERTEX2 313 5.37057727 -0.19462290 1.57169369
VERTEX2 314 5.35140932 0.43309909 1.61140079
VERTEX2 315 5.32328277 1.06021360 1.60700331
VERTEX2 316 5.28377438 1.70176494 1.65805214
VERTEX2 317 5.22323188 2.34018630 1.66771182
VERTEX2 318 5.12544887 2.97440127 1.76189929
VERTEX2 319 5.04676469 3.31908268 1.83290307
VERTEX2 320 5.04710417 3.32013622 2.80026128
VERTEX2 321 5.03263034 3.31396862 -2.44444650
VERTEX2 322 5.03451767 3.31771277 -1.44833784
VERTEX2 323 5.04407023 3.30847059 -0.45601661
VERTEX2 324 5.04992882 3.30654138 0.20376345
VERTEX2 325 5.05497371 3.30692130 -0.32399684
VERTEX2 326 5.06986993 3.29568811 -0.91930546
VERTEX2 327 5.07228769 3.28426571 -1.54278232
VERTEX2 328 5.05578877 2.65184925 -1.58937054
VERTEX2 329 5.03344917 2.02594392 -1.64578166
VERTEX2 330 4.97879464 1.41145322 -1.66625587
VERTEX2 331 4.92313228 0.79567215 -1.68200253
VERTEX2 332 4.84303823 0.18298557 -1.70198772
VERTEX2 333 4.82122088 0.02926150 -1.63851662
VERTEX2 334 4.83443165 0.03191452 -0.84469897
VERTEX2 335 4.85127698 0.02692088 0.14630472
VERTEX2 336 4.86430846 0.03148736 1.08746279
VERTEX2 337 4.86936862 0.06290174 2.06645038
VERTEX2 338 4.86664686 0.06479056 3.05594950
VERTEX2 339 4.87856411 0.07218335 -2.17728692
VERTEX2 340 4.87873643 0.07082534 -1.15747554
VERTEX2 341 4.99224148 0.00225241 -0.52374207
VERTEX2 342 5.56540848 -0.30287976 -0.42164733
VERTEX2 343 6.14417244 -0.50467134 -0.29001912
VERTEX2 344 6.73369406 -0.68826554 -0.29940996
VERTEX2 345 6.97252255 -0.75867245 -0.32623009
VERTEX2 346 6.95932380 -0.75434729 -0.97180591
VERTEX2 347 6.96174853 -0.84310152 -1.52896933
VERTEX2 348 6.97957599 -1.43405701 -1.54504957
VERTEX2 349 6.97727039 -2.05391275 -1.58464865
VERTEX2 350 6.96404931 -2.84235867 -1.60366770
VERTEX2 351 6.94976478 -3.11646070 -1.63201842
VERTEX2 352 6.94789367 -3.12537993 -1.91883650
VERTEX2 353 6.93616515 -3.13976621 -2.58177851
VERTEX2 354 6.92243134 -3.14370655 3.10031649
VERTEX2 355 6.90224761 -3.14299966 2.38198587
VERTEX2 356 6.89648745 -3.13282868 1.80894801
VERTEX2 357 6.89910399 -3.11716691 1.15831067
VERTEX2 358 6.90010549 -3.11577079 0.54518446
VERTEX2 359 6.88842154 -3.12078251 -0.06651437
VERTEX2 360 6.87386896 -3.11790756 -0.24158083
VERTEX2 361 6.86577242 -3.12002858 0.68109767
VERTEX2 362 6.95073322 -2.88891874 1.21688880
VERTEX2 363 7.05334202 -2.62055734 1.21126940
VERTEX2 364 6.98386701 -2.28423190 1.82801347
VERTEX2 365 6.92821229 -1.99491475 1.33269966
VERTEX2 366 7.03692417 -1.87175467 0.78051460
VERTEX2 367 7.48268551 -1.43634130 0.78335055
VERTEX2 368 7.93914411 -0.99969037 0.73542622
VERTEX2 369 7.95917792 -0.97548418 0.48362014
VERTEX2 370 7.98351714 -0.97159058 -0.10311402
VERTEX2 371 7.98942776 -0.97465561 -0.64855587
VERTEX2 372 8.41809438 -1.32310605 -0.67621630
VERTEX2 373 8.89047278 -1.68782340 -0.67422069
VERTEX2 374 9.36928591 -2.09082641 -0.73534660
VERTEX2 375 9.72889543 -2.41061107 -0.76622722
VERTEX2 376 9.74069306 -2.41782155 -0.07356240
VERTEX2 377 9.79087416 -2.38210788 0.61961294
VERTEX2 378 10.32594212 -1.98438712 0.67251964
VERTEX2 379 10.80527514 -1.55422976 0.75598671
VERTEX2 380 11.24492212 -1.08781861 0.87391796
VERTEX2 381 11.39099832 -0.90785189 1.02234107
VERTEX2 382 11.39223569 -0.90559848 2.06734825
VERTEX2 383 11.38959816 -0.90398376 3.05428511
VERTEX2 384 11.38714629 -0.90630547 -2.26509527
VERTEX2 385 11.38214514 -0.91470126 -1.23492299
VERTEX2 386 11.48606717 -1.04982937 -1.00995517
VERTEX2 387 11.94126179 -1.47162785 -0.67815677
VERTEX2 388 12.40193756 -1.82690531 -0.67139676
VERTEX2 389 12.83733688 -2.20138728 -0.75628204
VERTEX2 390 12.84703756 -2.20986790 -0.28652424
VERTEX2 391 12.66054900 -2.20161853 0.08885291
VERTEX2 392 12.60458177 -2.20219703 1.11782954
VERTEX2 393 12.60551069 -2.13734269 2.35349065
VERTEX2 394 12.53924459 -2.10981898 -2.94913003
VERTEX2 395 12.73120123 -2.00929669 -2.61661630
VERTEX2 396 12.70892909 -2.02063739 -2.61919071
VERTEX2 397 12.67028532 -2.02925959 -2.63275088
VERTEX2 398 12.65402844 -2.04271020 -2.43917873
VERTEX2 399 12.57903607 -2.14814900 -2.14493040
VERTEX2 400 12.22252375 -2.70102452 -2.09748566
VERTEX2 401 11.87652254 -3.24056162 -2.19174129
VERTEX2 402 11.39843356 -3.69419012 -2.46113145
VERTEX2 403 10.88339092 -4.10104573 -2.49660233
VERTEX2 404 10.37750779 -4.45725402 -2.57707560
VERTEX2 405 10.35977928 -4.47292615 -2.04613014
VERTEX2 406 10.35561555 -4.43398900 -1.07283441
VERTEX2 407 10.53317654 -4.68736923 -0.94644902
VERTEX2 408 10.85667247 -5.14894105 -0.98581337
VERTEX2 409 10.98676647 -5.35845045 -1.08694612
VERTEX2 410 10.97862657 -5.32463777 -1.71818987
VERTEX2 411 11.15108800 -4.88968856 -2.57362709
VERTEX2 412 10.60035528 -5.11033813 -2.77852010
VERTEX2 413 9.96411847 -5.32640230 -2.85954650
VERTEX2 414 9.32146153 -5.53100139 -2.75722321
VERTEX2 415 8.71427796 -5.76852937 -2.74970951
VERTEX2 416 8.42574479 -5.89674001 -2.80436215
VERTEX2 417 8.13178044 -5.88075058 3.05538022
VERTEX2 418 7.69147057 -5.83762259 3.01074878
VERTEX2 419 7.69233490 -5.83743121 -2.84042830
VERTEX2 420 7.74366346 -5.81460222 -2.62352992
VERTEX2 421 7.74477060 -5.81287036 -1.65388954
VERTEX2 422 7.73981834 -5.81981885 -0.41209448
VERTEX2 423 7.74097903 -5.81993181 -0.06556807
VERTEX2 424 7.73668181 -5.81999722 -0.06452128
VERTEX2 425 7.72639602 -5.82581002 -0.05210055
VERTEX2 426 7.72193315 -5.82592306 -0.06053662
VERTEX2 427 7.75000808 -5.82737105 -0.05673672
VERTEX2 428 8.40766536 -5.84819999 -0.06158225
VERTEX2 429 9.04782014 -5.89677049 -0.10169879
VERTEX2 430 9.38528721 -5.93664058 -0.14713106
VERTEX2 431 9.35873529 -5.93349055 -0.09454551
VERTEX2 432 9.36760776 -5.93660792 -0.72496857
VERTEX2 433 9.37245916 -5.94324741 -1.40090403
VERTEX2 434 9.33643411 -6.48228828 -1.62834930
VERTEX2 435 9.30504203 -7.12513884 -1.65611898
VERTEX2 436 9.22797647 -7.76534654 -1.66437422
VERTEX2 437 9.17668771 -8.41532998 -1.65589122
VERTEX2 438 9.12564631 -8.88388838 -1.68582370
VERTEX2 439 9.12391562 -8.89042516 -2.12053346
VERTEX2 440 9.13029967 -8.88539909 -2.76196799
VERTEX2 441 9.14643143 -8.88377600 2.90085412
VERTEX2 442 9.15370755 -8.88773109 2.27314748
VERTEX2 443 9.15382020 -8.88961634 1.70779603
VERTEX2 444 9.15673630 -8.87415962 1.11785031
VERTEX2 445 9.16173049 -8.86937825 0.46141652
VERTEX2 446 9.15995523 -8.87048511 0.66372633
VERTEX2 447 9.17139745 -8.84824338 1.29682889
VERTEX2 448 9.32073229 -8.22665069 1.31449415
VERTEX2 449 9.45300748 -7.59057297 1.41600222
VERTEX2 450 9.54652325 -6.95391215 1.42980554
VERTEX2 451 9.59895169 -6.48358167 1.47244200
VERTEX2 452 9.59904481 -6.48260969 1.09440380
VERTEX2 453 9.59573716 -6.48859836 0.47223289
VERTEX2 454 9.85577872 -6.46866955 0.05017323
VERTEX2 455 10.45367701 -6.44404131 0.02960014
VERTEX2 456 11.08510692 -6.43937575 -0.03499806
VERTEX2 457 11.43831214 -6.46174530 -0.12272521
VERTEX2 458 11.43315938 -6.45918616 -0.76863195
VERTEX2 459 11.42456198 -6.42439124 -1.37685155
VERTEX2 460 11.40396073 -6.82278126 -1.63385846
VERTEX2 461 11.33534407 -7.43922853 -1.72179549
VERTEX2 462 11.24795741 -7.94865214 -1.76179696
VERTEX2 463 11.25912976 -7.92675961 -0.92151368
VERTEX2 464 11.51401783 -7.99918059 -0.24338788
VERTEX2 465 12.09728497 -8.13198150 -0.23563000
VERTEX2 466 12.65031711 -8.28304574 -0.29125484
VERTEX2 467 13.22073883 -8.46469821 -0.33470013
VERTEX2 468 13.83573766 -8.68313548 -0.36999654
VERTEX2 469 14.42749268 -8.94877185 -0.45266810
VERTEX2 470 14.88179479 -9.16436925 -0.43353373
VERTEX2 471 14.89040871 -9.16903410 -0.63297208
VERTEX2 472 14.90768727 -9.19312375 -1.26477795
VERTEX2 473 14.90916916 -9.20039429 -1.90450126
VERTEX2 474 14.90762766 -9.20232759 -2.53498041
VERTEX2 475 14.91003152 -9.20199881 -3.10860989
VERTEX2 476 14.91245586 -9.20232794 2.52353113
VERTEX2 477 14.91691748 -9.21105607 1.96415026
VERTEX2 478 14.91767173 -9.22092816 1.33725189
VERTEX2 479 14.91666976 -9.22322386 0.88307495
VERTEX2 480 14.91697515 -9.22253512 1.44524138
VERTEX2 481 14.91334954 -9.20686410 2.44749517
VERTEX2 482 14.91774725 -9.20863030 2.78369468
VERTEX2 483 14.92435615 -9.21102351 2.77833780
VERTEX2 484 14.49837007 -9.05259801 2.81388489
VERTEX2 485 13.89981305 -8.86338287 2.81159216
VERTEX2 486 13.29858472 -8.65016460 2.82114304
VERTEX2 487 12.68867864 -8.47019989 2.84944451
VERTEX2 488 12.07647903 -8.28836690 2.88559012
VERTEX2 489 11.60627738 -8.18043029 2.91604374
VERTEX2 490 11.61094210 -8.17998036 -2.88196624
VERTEX2 491 11.61843567 -8.17010548 -1.94572777
VERTEX2 492 11.60164549 -8.39975347 -1.64264069
VERTEX2 493 11.53967734 -9.00353971 -1.69766182
VERTEX2 494 11.45232437 -9.61462439 -1.75855041
VERTEX2 495 11.38305496 -10.23756228 -1.65138875
VERTEX2 496 11.33913777 -10.86175054 -1.53366997
VERTEX2 497 11.33204929 -11.47940371 -1.61972504
VERTEX2 498 11.26329167 -12.10069177 -1.72153937
VERTEX2 499 11.13253722 -12.72705174 -1.73856066
VERTEX2 500 11.19024197 -13.29353871 -1.40963348
VERTEX2 501 11.26473352 -13.87236388 -1.48174336
VERTEX2 502 11.28862444 -14.56732438 -1.56624100
VERTEX2 503 11.28409741 -15.01373670 -1.58322087
VERTEX2 504 11.28929707 -14.99907281 -0.72676004
VERTEX2 505 11.52632771 -15.02622342 -0.10500728
VERTEX2 506 12.11752578 -15.10819164 -0.25756678
VERTEX2 507 12.69785994 -15.27820493 -0.33612062
VERTEX2 508 13.26611722 -15.48986118 -0.34938830
VERTEX2 509 13.87890725 -15.72120533 -0.40527574
VERTEX2 510 14.22883527 -15.87763219 -0.41915437
VERTEX2 511 14.22694334 -15.85912762 0.45627446
VERTEX2 512 14.24710041 -15.81665808 1.65386340
VERTEX2 513 14.24262517 -15.80347461 2.60942196
VERTEX2 514 14.16802123 -15.78250609 2.83574838
VERTEX2 515 13.56149657 -15.60266924 2.83684403
VERTEX2 516 12.98044906 -15.40983056 2.85273173
VERTEX2 517 12.39153394 -15.26261804 2.88091244
VERTEX2 518 11.80295552 -15.11227318 2.90524888
VERTEX2 519 11.28488204 -14.98914653 2.88953589
VERTEX2 520 11.12102347 -14.94643478 -2.99524935
VERTEX2 521 11.14441373 -14.92067585 -1.99170799
VERTEX2 522 11.07872230 -15.31748229 -1.72745410
VERTEX2 523 10.98748411 -15.93381528 -1.73470444
VERTEX2 524 10.88401992 -16.50407826 -1.77647828
VERTEX2 525 10.78056087 -17.04255704 -1.75267973
VERTEX2 526 10.66350011 -17.61516265 -1.81153522
VERTEX2 527 10.51464860 -18.19778723 -1.84640883
VERTEX2 528 10.33107198 -18.76769917 -1.92246614
VERTEX2 529 10.11848398 -19.36938392 -1.95079019
VERTEX2 530 9.87085496 -19.96828797 -1.98090271
VERTEX2 531 9.60078706 -20.54278891 -2.06076014
VERTEX2 532 9.50272153 -20.72838513 -2.01018618
VERTEX2 533 9.50023774 -20.71625350 -1.01043241
VERTEX2 534 9.50084906 -20.71664313 -0.34340208
VERTEX2 535 9.50421671 -20.71693331 -0.34376050
VERTEX2 536 9.86065895 -20.80093888 -0.21303699
VERTEX2 537 10.46695687 -20.94952592 -0.27102860
VERTEX2 538 11.02655385 -21.11887524 -0.29813933
VERTEX2 539 11.63410773 -21.32804245 -0.36290456
VERTEX2 540 12.22042895 -21.58136342 -0.45579614
VERTEX2 541 12.80712873 -21.80950234 -0.29349233
VERTEX2 542 13.43774944 -21.95159863 -0.23779033
VERTEX2 543 13.55927668 -21.98212444 -0.26745640
VERTEX2 544 13.58047160 -21.97997069 0.36955048
VERTEX2 545 13.60411321 -21.93706727 1.43573374
VERTEX2 546 13.62150278 -21.98238121 2.26275765
VERTEX2 547 13.62976616 -21.98183091 -2.99877215
VERTEX2 548 13.64334049 -21.97313121 -2.07589226
VERTEX2 549 13.64500459 -21.96184787 -1.26929359
VERTEX2 550 13.64380487 -21.94096093 -1.74909632
VERTEX2 551 13.65226987 -21.92383055 -2.37547375
VERTEX2 552 13.67062678 -21.91470184 -3.00793688
VERTEX2 553 13.53372073 -21.86229029 2.69795938
VERTEX2 554 12.94202388 -21.57800674 2.66249762
VERTEX2 555 12.36310612 -21.30282495 2.75136619
VERTEX2 556 11.75922356 -21.08418734 2.88646279
VERTEX2 557 11.15908528 -20.91310998 2.84524953
VERTEX2 558 10.58305155 -20.75586833 2.92627629
VERTEX2 559 10.59047405 -20.75837615 2.51931740
VERTEX2 560 10.58322043 -20.75043673 2.01838543
VERTEX2 561 10.55987806 -20.72776072 2.52361018
VERTEX2 562 10.38149360 -20.72769530 -3.11601094
VERTEX2 563 9.81115758 -20.64906155 2.97535714
VERTEX2 564 9.20620524 -20.55740709 3.02412677
VERTEX2 565 8.61565220 -20.48594008 2.96653724
VERTEX2 566 8.67648134 -20.50488703 -2.53311724
VERTEX2 567 8.58238001 -20.51181323 -1.73963528
VERTEX2 568 8.53102922 -21.02012963 -1.67565325
VERTEX2 569 8.47923654 -21.59543192 -1.71481678
VERTEX2 570 8.41002832 -22.17582462 -1.71006853
VERTEX2 571 8.35727248 -22.53110586 -1.75753904
VERTEX2 572 8.32339727 -22.55583729 -2.00072295
VERTEX2 573 8.28831586 -22.63522885 -1.72438327
VERTEX2 574 8.30875713 -22.66399593 -0.78492171
VERTEX2 575 8.46297273 -22.71445828 0.13606340
VERTEX2 576 8.46236727 -22.71397356 1.16373873
VERTEX2 577 8.45567943 -22.69627273 2.13584958
VERTEX2 578 8.44616828 -22.66407842 1.77169256
VERTEX2 579 8.32157129 -22.01222891 1.78673230
VERTEX2 580 8.16002144 -21.37259231 1.86189913
VERTEX2 581 7.96580602 -20.74893079 1.90430466
VERTEX2 582 7.74413082 -20.13433088 1.94746911
VERTEX2 583 7.61412937 -19.82590065 2.02687149
VERTEX2 584 7.60851747 -19.81500987 2.87081893
VERTEX2 585 7.02475645 -19.67486418 2.98926699
VERTEX2 586 6.43045978 -19.60037941 3.08698771
VERTEX2 587 5.81111994 -19.58959332 3.11255525
VERTEX2 588 5.18082475 -19.56387539 3.11718361
VERTEX2 589 4.64246615 -19.58867555 -3.09064221
VERTEX2 590 4.09320295 -19.63284150 -3.02190748
VERTEX2 591 3.55429421 -19.71183581 -3.02380508
VERTEX2 592 3.00637618 -19.78627684 -3.02653478
VERTEX2 593 2.82885930 -19.80859689 -2.82127800
VERTEX2 594 2.87100875 -19.76322953 -1.90190392
VERTEX2 595 2.75774552 -20.37016418 -1.66905869
VERTEX2 596 2.70509203 -20.99409546 -1.69218419
VERTEX2 597 2.61312663 -21.66870889 -1.73210645
VERTEX2 598 2.51008756 -22.26702056 -1.77425781
VERTEX2 599 2.42163253 -22.64427680 -1.84042993
VERTEX2 600 2.42181869 -22.66041427 -1.03384928
VERTEX2 601 2.46176728 -22.68503859 -0.01565283
VERTEX2 602 2.49653176 -22.67105105 0.99841595
VERTEX2 603 2.46213371 -22.43599150 1.77106892
VERTEX2 604 2.40204776 -21.82337822 1.52698238
VERTEX2 605 2.41144808 -21.17697588 1.60961938
VERTEX2 606 2.37154605 -20.53082895 1.65174954
VERTEX2 607 2.38305758 -19.94224018 1.57078781
VERTEX2 608 2.37025576 -19.55758534 1.61532959
VERTEX2 609 2.36673534 -19.53680989 1.95176336
VERTEX2 610 2.35873937 -19.53391191 2.88467373
VERTEX2 611 1.76331124 -19.38318414 2.88775587
VERTEX2 612 1.29075931 -19.24826284 2.89068252
VERTEX2 613 1.32603955 -19.25906309 -2.92848405
VERTEX2 614 1.33206844 -19.25450805 -1.89003821
VERTEX2 615 1.34377797 -19.73987917 -1.58530627
VERTEX2 616 1.34933176 -20.36164915 -1.63634720
VERTEX2 617 1.21033641 -20.96412862 -1.85324360
VERTEX2 618 1.04002959 -21.56935890 -1.84293171
VERTEX2 619 0.87814366 -22.14010331 -1.84411449
VERTEX2 620 0.69374319 -22.71521236 -1.93998541
VERTEX2 621 0.82302711 -22.38250744 -1.99123437
VERTEX2 622 0.94677239 -22.11886616 -2.06595847
VERTEX2 623 0.94620312 -22.11963552 -2.60245840
VERTEX2 624 0.91673673 -22.11930521 3.03879066
VERTEX2 625 0.87517265 -22.10247044 2.38093385
VERTEX2 626 0.84712188 -22.07021142 1.76354083
VERTEX2 627 0.92020748 -21.69848854 1.35316941
VERTEX2 628 1.09982022 -21.07213679 1.25239094
VERTEX2 629 1.27236137 -20.44511573 1.32345367
VERTEX2 630 1.39877306 -19.83787784 1.40844201
VERTEX2 631 1.47169089 -19.30855710 1.42848845
VERTEX2 632 1.47438912 -19.29271605 2.10422214
VERTEX2 633 1.37617066 -19.28597938 -3.09289718
VERTEX2 634 0.70881799 -19.32241641 -3.06553789
VERTEX2 635 0.05569673 -19.33273178 3.08259183
VERTEX2 636 -0.58601889 -19.30377552 3.06499026
VERTEX2 637 -1.21423917 -19.22907764 2.96568455
VERTEX2 638 -1.60611161 -19.14894475 2.93611752
VERTEX2 639 -2.21645254 -19.04578295 3.01644571
VERTEX2 640 -2.83098972 -18.93640648 2.94854517
VERTEX2 641 -3.43094960 -18.82535001 2.94021191
VERTEX2 642 -4.00662528 -18.68797530 2.89487919
VERTEX2 643 -4.48805567 -18.55132407 2.82741366
VERTEX2 644 -4.49205961 -18.55221580 -2.69901306
VERTEX2 645 -4.52852197 -18.69317998 -1.92152602
VERTEX2 646 -4.66594744 -19.30233113 -1.62615569
VERTEX2 647 -4.62284260 -19.94459605 -1.33730464
VERTEX2 648 -4.40030058 -20.56956514 -1.17101942
VERTEX2 649 -4.22706775 -21.16815908 -1.50861386
VERTEX2 650 -4.32811666 -21.79645307 -1.76597077
VERTEX2 651 -4.34568374 -21.94187843 -0.96655371
VERTEX2 652 -4.28289929 -21.97016834 0.05841759
VERTEX2 653 -4.23685384 -21.92887357 1.08885990
VERTEX2 654 -4.24564232 -21.63259319 1.60203596
VERTEX2 655 -4.25560984 -21.07957268 1.59703252
VERTEX2 656 -4.25430847 -20.47786284 1.58440344
VERTEX2 657 -4.36065633 -19.86663584 1.86104192
VERTEX2 658 -4.55061330 -19.24962221 1.85387485
VERTEX2 659 -4.66507982 -18.75623131 1.78271539
VERTEX2 660 -4.66814403 -18.74087034 2.38282616
VERTEX2 661 -4.84661189 -18.72106998 3.03626530
VERTEX2 662 -5.44005650 -18.66125639 3.10586943
VERTEX2 663 -6.02735520 -18.67523991 -3.07628687
VERTEX2 664 -6.03561062 -18.67310647 -2.55324241
VERTEX2 665 -6.05157680 -18.77415639 -1.71744803
VERTEX2 666 -6.12332874 -19.38933364 -1.68022692
VERTEX2 667 -6.18034283 -19.96236703 -1.67553153
VERTEX2 668 -6.24295218 -20.55485329 -1.64982793
VERTEX2 669 -6.29055758 -21.17903711 -1.67503446
VERTEX2 670 -6.38909842 -21.79556317 -1.73459011
VERTEX2 671 -6.43612838 -22.08695964 -1.67968252
VERTEX2 672 -6.33485183 -21.50498973 -1.76888052
VERTEX2 673 -6.26871717 -21.23725214 -1.89952846
VERTEX2 674 -6.25565658 -21.22344327 -2.54788977
VERTEX2 675 -6.23283995 -21.21860109 3.12646761
VERTEX2 676 -6.22796969 -21.22145445 2.50291795
VERTEX2 677 -6.22427826 -21.22656236 1.88686884
VERTEX2 678 -6.19611386 -21.00330924 1.44076388
VERTEX2 679 -6.13188453 -20.42315319 1.50325571
VERTEX2 680 -6.15944836 -19.97357695 1.84798957
VERTEX2 681 -6.31156674 -19.38142951 1.82038433
VERTEX2 682 -6.48375750 -18.77472721 1.86796041
VERTEX2 683 -6.57610536 -18.49168472 2.02699558
VERTEX2 684 -6.52346036 -18.54542751 3.10692457
VERTEX2 685 -6.92816545 -18.70659609 -2.73249769
VERTEX2 686 -7.37613976 -18.84356407 -2.87668376
VERTEX2 687 -7.97134811 -18.99499413 -2.91164390
VERTEX2 688 -8.56983618 -19.11539167 -2.92337115
VERTEX2 689 -9.13470803 -19.25473222 -2.89566218
VERTEX2 690 -9.67114798 -19.42413199 -2.82144475
VERTEX2 691 -10.06676548 -19.55594057 -2.84943511
VERTEX2 692 -10.05257917 -19.54963274 -2.31516410
VERTEX2 693 -10.02966056 -19.62183273 -1.27471849
VERTEX2 694 -10.00556366 -19.69374449 -0.43922464
VERTEX2 695 -9.98706642 -19.68847924 0.36080503
VERTEX2 696 -9.98083092 -19.68439429 1.38632235
VERTEX2 697 -9.99244862 -19.72260255 1.13335731
VERTEX2 698 -9.66193054 -19.51328655 0.47860493
VERTEX2 699 -9.09805343 -19.19961078 0.59265143
VERTEX2 700 -8.58436597 -18.83707646 0.64619034
VERTEX2 701 -8.15022209 -18.47371445 0.70536932
VERTEX2 702 -7.67068694 -18.15795197 0.59022278
VERTEX2 703 -7.15804986 -17.82087878 0.62448763
VERTEX2 704 -6.66418511 -17.43814121 0.64267753
VERTEX2 705 -6.15323949 -17.01730808 0.71293072
VERTEX2 706 -5.72306611 -16.69927391 0.44395467
VERTEX2 707 -5.69771914 -16.69791430 -0.07627769
VERTEX2 708 -5.68782948 -16.70363117 -0.71474265
VERTEX2 709 -5.72772802 -16.66065446 -1.04681805
VERTEX2 710 -5.73216269 -16.64919573 -1.60792161
VERTEX2 711 -5.72278106 -16.65767076 -2.20464030
VERTEX2 712 -5.70242456 -16.64207548 -2.76506465
VERTEX2 713 -6.17534245 -16.69240199 -3.05040770
VERTEX2 714 -6.72859752 -16.66716510 3.03526304
VERTEX2 715 -7.35509567 -16.63008058 3.13888346
VERTEX2 716 -7.98904178 -16.60792658 3.00086450
VERTEX2 717 -8.61000777 -16.53992149 3.08563291
VERTEX2 718 -9.37177759 -16.42113622 2.91027092
VERTEX2 719 -9.98825459 -16.30571224 2.98475207
VERTEX2 720 -10.60058601 -16.19319596 2.92556227
VERTEX2 721 -11.21784559 -16.07724547 2.99379593
VERTEX2 722 -11.23399106 -16.07494134 3.06051069
VERTEX2 723 -11.25433331 -16.09591391 -2.13266925
VERTEX2 724 -11.25445469 -16.13975249 -1.06373839
VERTEX2 725 -11.22691320 -16.15827541 -0.42934834
VERTEX2 726 -10.90104269 -16.15448783 0.02487611
VERTEX2 727 -10.26316844 -16.11673537 0.05563652
VERTEX2 728 -9.62253803 -16.09324781 0.05704110
VERTEX2 729 -8.98439924 -16.03343958 0.11470308
VERTEX2 730 -8.36082849 -15.94176770 0.15222809
VERTEX2 731 -7.70477342 -15.84058940 0.16447573
VERTEX2 732 -7.55467813 -15.81046252 0.61113080
VERTEX2 733 -7.55502736 -15.80989993 1.60785074
VERTEX2 734 -7.61425566 -15.24662725 1.68602332
VERTEX2 735 -7.67564929 -14.63698664 1.65407212
VERTEX2 736 -7.67690750 -14.61833570 2.25381534
VERTEX2 737 -7.67242733 -14.61892610 3.05469271
VERTEX2 738 -8.25311744 -14.57887667 3.07379322
VERTEX2 739 -8.85773116 -14.48431737 3.01619866
VERTEX2 740 -9.36223020 -14.44454346 3.07949015
VERTEX2 741 -9.34378711 -14.44432252 2.71068369
VERTEX2 742 -9.34434453 -14.44395184 2.05796494
VERTEX2 743 -9.34596433 -14.43682930 1.44122015
VERTEX2 744 -9.33699595 -14.41622214 0.90191647
VERTEX2 745 -9.31879651 -14.40667306 0.30849351
VERTEX2 746 -8.77721951 -14.42416422 -0.16631247
VERTEX2 747 -8.13262526 -14.53760370 -0.20152203
VERTEX2 748 -7.55618022 -14.67910116 -0.26979409
VERTEX2 749 -7.47355982 -14.69953863 0.15952458
VERTEX2 750 -7.46424356 -14.68227815 1.08682049
VERTEX2 751 -7.49940125 -14.40989446 1.72724395
VERTEX2 752 -7.55943927 -13.78464651 1.62395866
VERTEX2 753 -7.59896413 -13.15085615 1.68669783
VERTEX2 754 -7.60846194 -12.51525127 1.52401416
VERTEX2 755 -7.59129612 -11.88214166 1.61040077
VERTEX2 756 -7.55541630 -11.24630399 1.43389350
VERTEX2 757 -7.48214109 -10.60063154 1.54574839
VERTEX2 758 -7.50391657 -10.02167533 1.68794173
VERTEX2 759 -7.49465726 -9.47422244 1.56799049
VERTEX2 760 -7.53537838 -8.86144121 1.67938965
VERTEX2 761 -7.53833825 -8.82194302 1.85979334
VERTEX2 762 -7.61525651 -8.78784803 2.69529744
VERTEX2 763 -8.19718001 -8.68546990 2.98818541
VERTEX2 764 -8.62480100 -8.61409929 2.96069908
VERTEX2 765 -8.62002253 -8.61398665 -2.68292221
VERTEX2 766 -8.62197098 -8.62040588 -1.68196745
VERTEX2 767 -8.61782498 -8.63075761 -0.75051958
VERTEX2 768 -8.59593220 -8.63198109 -0.02768982
VERTEX2 769 -7.96563133 -8.53975205 0.12941162
VERTEX2 770 -7.31830392 -8.47691071 0.06244644
VERTEX2 771 -7.23480770 -8.46941365 0.62327285
VERTEX2 772 -7.23197161 -8.46020636 1.49131162
VERTEX2 773 -7.21159768 -7.88289350 1.57689901
VERTEX2 774 -7.22703141 -7.33805016 1.59883982
VERTEX2 775 -7.22513833 -7.34604185 2.44321687
VERTEX2 776 -7.42207480 -7.32317773 3.06022850
VERTEX2 777 -8.02302785 -7.28516018 3.11909952
VERTEX2 778 -8.62328162 -7.27758559 3.09799724
VERTEX2 779 -9.23818139 -7.25879590 3.11609390
VERTEX2 780 -9.44545447 -7.24170983 2.98585499
VERTEX2 781 -9.44149899 -7.24310705 2.41241054
VERTEX2 782 -9.56955269 -6.97153421 1.98282731
VERTEX2 783 -9.80596368 -6.39886214 1.98222041
VERTEX2 784 -9.90579616 -6.17232436 1.96089026
VERTEX2 785 -9.90676434 -6.14716320 1.40890509
VERTEX2 786 -9.89885075 -6.12089616 0.82056171
VERTEX2 787 -9.88110161 -6.10264035 0.32987686
VERTEX2 788 -9.85333530 -6.10446537 -0.29928154
VERTEX2 789 -9.84234478 -6.11305405 -0.85127976
VERTEX2 790 -9.53493234 -6.50790060 -0.91846014
VERTEX2 791 -9.12899096 -6.98928865 -0.81981123
VERTEX2 792 -8.88873885 -7.20254326 -0.11532361
VERTEX2 793 -8.27192192 -7.25416713 -0.07058117
VERTEX2 794 -7.63076314 -7.28240276 0.00061943
VERTEX2 795 -7.65429391 -7.29973792 0.42999442
VERTEX2 796 -7.65999553 -7.30203074 1.08934413
VERTEX2 797 -7.58587455 -6.99253492 1.34949586
VERTEX2 798 -7.45121898 -6.36598823 1.39963379
VERTEX2 799 -7.36462854 -5.72162850 1.46536193
VERTEX2 800 -7.31101692 -5.07532584 1.53827382
VERTEX2 801 -7.32210972 -4.44399708 1.62426668
VERTEX2 802 -7.37606980 -3.81941700 1.68203808
VERTEX2 803 -7.35888799 -3.19124600 1.51746015
VERTEX2 804 -7.33882966 -2.56432160 1.57344100
VERTEX2 805 -7.37218769 -1.93450387 1.64981409
VERTEX2 806 -7.43228231 -1.33684309 1.69131482
VERTEX2 807 -7.45961599 -1.15284571 1.97944744
VERTEX2 808 -7.46426135 -1.15275754 2.92782511
VERTEX2 809 -8.05574661 -1.12411664 3.07252240
VERTEX2 810 -8.67294944 -1.00118599 2.93239098
VERTEX2 811 -9.27174386 -0.88995838 2.92912509
VERTEX2 812 -9.27384921 -0.88955246 -2.62224408
VERTEX2 813 -9.28374413 -0.91166104 -1.64688368
VERTEX2 814 -9.27716046 -0.91686381 -0.65460528
VERTEX2 815 -9.25264597 -0.92510363 0.26470787
VERTEX2 816 -9.24400603 -0.92036663 0.94589289
VERTEX2 817 -9.23283264 -0.91332074 0.27715840
VERTEX2 818 -9.01040034 -0.94703808 -0.21170637
VERTEX2 819 -8.41912612 -1.07425099 -0.19756908
VERTEX2 820 -7.82541577 -1.20554289 -0.23878278
VERTEX2 821 -7.27918394 -1.33593635 -0.22296690
VERTEX2 822 -7.22692361 -1.34382020 0.53876010
VERTEX2 823 -7.22569586 -1.33050581 1.45834672
VERTEX2 824 -7.16274083 -0.70966234 1.37909380
VERTEX2 825 -7.01974633 -0.08683920 1.34951549
VERTEX2 826 -6.96356585 0.54390067 1.51258854
VERTEX2 827 -6.90063817 1.16643205 1.46405846
VERTEX2 828 -6.84748875 1.79629651 1.49971968
VERTEX2 829 -6.78798723 2.40043338 1.45995123
VERTEX2 830 -6.71452417 3.00993002 1.45160994
VERTEX2 831 -6.62172435 3.58781775 1.40479209
VERTEX2 832 -6.53281576 4.15137416 1.40120508
VERTEX2 833 -6.48936209 4.40716353 1.53883320
VERTEX2 834 -6.49136590 4.41420519 2.59339812
VERTEX2 835 -6.50411946 4.41564511 -2.91219062
VERTEX2 836 -6.51596331 4.40559831 -1.96921236
VERTEX2 837 -6.51255628 4.38720196 -0.93294429
VERTEX2 838 -6.50075718 4.37987975 -0.07082757
VERTEX2 839 -6.50010458 4.37957003 -0.28912903
VERTEX2 840 -6.48904649 4.37093163 -0.85183724
VERTEX2 841 -6.48142155 4.35566283 -1.46898722
VERTEX2 842 -6.50723421 4.10993603 -1.69985639
VERTEX2 843 -6.58472139 3.54617304 -1.70241973
VERTEX2 844 -6.65916172 2.92042661 -1.71048021
VERTEX2 845 -6.75216183 2.29518482 -1.72524832
VERTEX2 846 -6.83728755 1.66573188 -1.72356800
VERTEX2 847 -6.94634690 1.04409762 -1.75036952
VERTEX2 848 -6.97688231 0.84863275 -1.27000204
VERTEX2 849 -6.97614229 0.84837274 -0.34793929
VERTEX2 850 -6.62092279 0.84530414 0.00539808
VERTEX2 851 -5.99361973 0.82002922 -0.08714008
VERTEX2 852 -5.36916150 0.75955515 -0.07275705
VERTEX2 853 -4.77428207 0.71774358 -0.10070916
VERTEX2 854 -4.18701205 0.65061790 -0.09873139
VERTEX2 855 -3.59208339 0.60038159 -0.10055429
VERTEX2 856 -2.93846897 0.51547106 -0.14124356
VERTEX2 857 -2.28602601 0.42687223 -0.15079147
VERTEX2 858 -1.63998065 0.30583752 -0.20530888
VERTEX2 859 -1.12182432 0.20282279 -0.21217184
VERTEX2 860 -1.09572749 0.21361027 0.63860214
VERTEX2 861 -1.08029165 0.32350446 1.55337731
VERTEX2 862 -1.04271450 0.98327565 1.49374834
VERTEX2 863 -0.98604870 1.62763175 1.46125891
VERTEX2 864 -0.89969111 2.23795720 1.45913855
VERTEX2 865 -0.85904990 2.84946204 1.51675809
VERTEX2 866 -0.81492462 3.43544775 1.51563220
VERTEX2 867 -0.80759554 3.59948774 1.69683766
VERTEX2 868 -0.81492486 3.60873713 2.72061649
VERTEX2 869 -0.80431815 3.60889472 -2.58423568
VERTEX2 870 -0.78460150 3.61951647 -1.58479121
VERTEX2 871 -0.76984770 3.60953547 -0.61109581
VERTEX2 872 -0.75139723 3.59623604 0.07416249
VERTEX2 873 -0.72404373 3.58714675 -0.49841314
VERTEX2 874 -0.70275419 3.56794285 -1.05802528
VERTEX2 875 -0.69639909 3.55302086 -1.64454463
VERTEX2 876 -0.81595955 2.99691751 -1.80211437
VERTEX2 877 -0.96780744 2.45488552 -1.88677258
VERTEX2 878 -1.01822389 2.25518252 -1.50381942
VERTEX2 879 -0.91672588 1.61672208 -1.45279574
VERTEX2 880 -0.88093465 1.16767099 -1.56549159
VERTEX2 881 -0.88133620 1.21751465 -1.56015404
VERTEX2 882 -0.93755149 0.57798162 -1.80668628
VERTEX2 883 -1.15299404 -0.01721561 -1.99742012
VERTEX2 884 -1.31135998 -0.34934099 -2.06439558
VERTEX2 885 -1.31133398 -0.34933584 -1.48286296
VERTEX2 886 -1.29419872 -0.36538166 -0.46495574
VERTEX2 887 -1.26567249 -0.37646980 0.54626342
VERTEX2 888 -1.25563752 -0.35534829 1.53027231
VERTEX2 889 -1.25719424 -0.35088716 2.42824415
VERTEX2 890 -1.57276967 -0.19838665 2.70215114
VERTEX2 891 -2.11010678 0.06824439 2.63182868
VERTEX2 892 -2.64380388 0.38742302 2.59626290
VERTEX2 893 -3.19677296 0.68306021 2.83254755
VERTEX2 894 -3.80984579 0.79421501 3.05360368
VERTEX2 895 -4.40943487 0.74530519 -2.93131450
VERTEX2 896 -4.42891065 0.74065244 -2.45283742
VERTEX2 897 -4.71369479 0.31918617 -2.18057249
VERTEX2 898 -5.06501038 -0.18967849 -2.16501684
VERTEX2 899 -5.35132835 -0.59902749 -2.23270757
VERTEX2 900 -5.76474822 -1.14268116 -2.23505392
VERTEX2 901 -6.13649697 -1.58656430 -2.29938080
VERTEX2 902 -6.55287154 -2.07763297 -2.27410086
VERTEX2 903 -6.86905785 -2.45620231 -2.31881860
VERTEX2 904 -6.86999693 -2.45754306 -1.61581127
VERTEX2 905 -6.85682409 -2.94940062 -1.56034686
VERTEX2 906 -6.82370738 -3.51933961 -1.49462616
VERTEX2 907 -6.76835423 -4.09229302 -1.50279715
VERTEX2 908 -6.72299141 -4.71334412 -1.47803886
VERTEX2 909 -6.66342019 -5.32448753 -1.49597008
VERTEX2 910 -6.69125127 -5.45364795 -1.86587526
VERTEX2 911 -6.85213457 -6.02434198 -1.80500076
VERTEX2 912 -6.97366979 -6.58768277 -1.79239998
VERTEX2 913 -7.08627281 -7.12901721 -1.78448656
VERTEX2 914 -7.21285233 -7.71652555 -1.80816728
VERTEX2 915 -7.33681742 -8.22494049 -1.84490711
VERTEX2 916 -7.27251050 -8.46985229 -1.29742334
VERTEX2 917 -7.13393313 -9.11956412 -1.55187878
VERTEX2 918 -7.15458352 -9.63764712 -1.62744477
VERTEX2 919 -7.18876130 -10.26150206 -1.67079781
VERTEX2 920 -7.25384696 -10.87557299 -1.68842327
VERTEX2 921 -7.32778445 -11.49081766 -1.74181416
VERTEX2 922 -7.43092944 -12.09440967 -1.76907719
VERTEX2 923 -7.55167278 -12.66053623 -1.83260182
VERTEX2 924 -7.68418439 -13.15381299 -1.81596179
VERTEX2 925 -7.68477861 -13.15078134 -1.31122339
VERTEX2 926 -7.52486191 -13.71477960 -1.29502980
VERTEX2 927 -7.35815325 -14.30736975 -1.31835382
VERTEX2 928 -7.20058342 -14.91535432 -1.32731113
VERTEX2 929 -7.04957311 -15.52048154 -1.32824345
VERTEX2 930 -6.90265651 -16.15200848 -1.41086500
VERTEX2 931 -6.81687169 -16.77877677 -1.49113685
VERTEX2 932 -6.77124789 -17.40616976 -1.55061778
VERTEX2 933 -6.76837420 -18.01887813 -1.61525545
VERTEX2 934 -6.78345347 -18.49957611 -1.62511480
VERTEX2 935 -6.78064411 -18.51267027 -0.94303563
VERTEX2 936 -6.77819804 -18.51353246 0.00208046
VERTEX2 937 -6.23564145 -18.48911853 0.06494749
VERTEX2 938 -5.63908901 -18.50604344 -0.10846766
VERTEX2 939 -5.01468010 -18.56684810 -0.08075667
VERTEX2 940 -4.40242249 -18.64303304 -0.16662894
VERTEX2 941 -3.79732770 -18.75961981 -0.22028962
VERTEX2 942 -3.27834810 -18.87631570 -0.21579888
VERTEX2 943 -2.66893782 -19.01129030 -0.12747422
VERTEX2 944 -2.05552550 -19.09543588 -0.18413139
VERTEX2 945 -1.43314511 -19.22569104 -0.23925637
VERTEX2 946 -1.25717391 -19.27090628 -0.17493157
VERTEX2 947 -0.84753251 -19.20868695 0.15330239
VERTEX2 948 -0.27365749 -19.12056534 0.13415253
VERTEX2 949 0.33062955 -19.08741292 -0.02151659
VERTEX2 950 0.96221769 -19.12520186 -0.26104260
VERTEX2 951 1.56572044 -19.30002038 -0.33319495
VERTEX2 952 2.16894301 -19.47785464 -0.08241418
VERTEX2 953 2.79996898 -19.51109552 -0.00213311
VERTEX2 954 3.42525237 -19.50529132 -0.00914764
VERTEX2 955 4.01546948 -19.55239507 -0.16998968
VERTEX2 956 4.56692028 -19.63236573 -0.17229652
VERTEX2 957 5.09912505 -19.73009968 -0.26000604
VERTEX2 958 5.56665265 -19.84387366 -0.28675137
VERTEX2 959 5.99930152 -19.96384908 -0.35386346
VERTEX2 960 6.58842491 -20.12794417 -0.27397136
VERTEX2 961 7.16983402 -20.30331545 -0.30100579
VERTEX2 962 7.78717804 -20.43304365 -0.23539191
VERTEX2 963 8.40477156 -20.51499184 -0.04871615
VERTEX2 964 9.02698719 -20.55760270 -0.11260897
VERTEX2 965 9.64481794 -20.63773366 -0.11949847
VERTEX2 966 10.08847608 -20.69691803 -0.17847703
VERTEX2 967 10.12148441 -20.69026069 0.67491077
VERTEX2 968 10.12951296 -20.68268898 1.57163410
VERTEX2 969 10.13186229 -20.71040222 1.63109203
VERTEX2 970 10.13434460 -20.73835875 1.62935101
VERTEX2 971 10.11402530 -20.40510071 1.62947417
VERTEX2 972 10.07557787 -19.81855438 1.63507666
VERTEX2 973 10.15526959 -19.23650718 1.35003125
VERTEX2 974 10.29468199 -18.63488965 1.38179784
VERTEX2 975 10.40623642 -18.02917142 1.38634391
VERTEX2 976 10.51106611 -17.42080461 1.39917632
VERTEX2 977 10.64672494 -16.80307375 1.37287921
VERTEX2 978 10.76763055 -16.19159265 1.41883137
VERTEX2 979 10.88236012 -15.58398836 1.40653779
VERTEX2 980 10.98004428 -14.97957776 1.45344257
VERTEX2 981 11.06863129 -14.38577018 1.46033704
VERTEX2 982 11.12475639 -13.85871453 1.50529847
VERTEX2 983 11.17388475 -13.26138892 1.50192615
VERTEX2 984 11.20066141 -12.66667879 1.55931367
VERTEX2 985 11.21111824 -12.07114282 1.57962235
VERTEX2 986 11.19580443 -11.45219962 1.61599591
VERTEX2 987 11.18274486 -10.83475497 1.57935170
VERTEX2 988 11.18494819 -10.21007251 1.59292788
VERTEX2 989 11.17002046 -9.59587528 1.60048415
VERTEX2 990 11.16298980 -8.98493739 1.58963147
VERTEX2 991 11.14757228 -8.37053158 1.61440422
VERTEX2 992 11.14240935 -7.78399062 1.58177991
VERTEX2 993 11.12867719 -7.16805431 1.61451652
VERTEX2 994 11.11233220 -6.58289477 1.60457476
VERTEX2 995 11.08012263 -5.98422468 1.65184652
VERTEX2 996 11.01993197 -5.37047127 1.67897404
VERTEX2 997 10.97473455 -4.71812041 1.61455601
VERTEX2 998 10.95474093 -4.30806205 1.63641380
VERTEX2 999 10.97857026 -4.32736115 2.35425431
VERTEX2 1000 10.51236171 -3.96411114 2.50291011
VERTEX2 1001 10.06964282 -3.56033234 2.18198596
VERTEX2 1002 9.69999058 -3.08465812 2.27468134
VERTEX2 1003 9.34762450 -2.58158058 2.09511751
VERTEX2 1004 9.01081054 -2.04735199 2.15329328
VERTEX2 1005 8.65950521 -1.55557841 2.21567793
VERTEX2 1006 8.26638536 -1.08005474 2.29302302
VERTEX2 1007 7.85154268 -0.65094308 2.38474720
VERTEX2 1008 7.61350965 -0.43364921 2.54435624
VERTEX2 1009 7.51615542 -0.41887997 3.01761162
VERTEX2 1010 6.94870922 -0.36296439 3.07021096
VERTEX2 1011 6.33232325 -0.32370794 3.02717032
VERTEX2 1012 5.72219145 -0.26047234 3.06913463
VERTEX2 1013 5.08533869 -0.26308985 -3.09902419
VERTEX2 1014 4.47171792 -0.21504832 3.00893084
VERTEX2 1015 3.84605319 -0.17567078 3.09345018
VERTEX2 1016 3.07575873 -0.13806071 3.10021985
VERTEX2 1017 2.48991700 -0.12455986 3.04306623
VERTEX2 1018 1.93158562 -0.06255953 3.05036477
VERTEX2 1019 1.33619685 -0.03792884 3.10991874
VERTEX2 1020 0.72055480 -0.00179702 3.09597746
VERTEX2 1021 0.09902340 0.02745738 3.05538635
VERTEX2 1022 0.04503644 0.03192761 3.04816914
VERTEX2 1023 0.05150642 0.03180327 3.13477280
VERTEX2 1024 -0.57586396 0.03966794 -3.12206961
VERTEX2 1025 -1.20534808 0.00922644 -3.10448522
VERTEX2 1026 -1.36715213 0.00372796 -3.09729814
VERTEX2 1027 -1.35114589 0.01157014 -2.18072559
VERTEX2 1028 -1.36421676 -0.15377823 -1.61723357
VERTEX2 1029 -1.39291299 -0.71892176 -1.63877749
VERTEX2 1030 -1.45656890 -1.34028007 -1.71924548
VERTEX2 1031 -1.56942004 -1.98565100 -1.77344003
VERTEX2 1032 -1.70021650 -2.63105532 -1.76943423
VERTEX2 1033 -1.84405137 -3.27522758 -1.81462106
VERTEX2 1034 -1.88878952 -3.44604538 -2.02844765
VERTEX2 1035 -1.89394060 -3.45038644 -2.64783503
VERTEX2 1036 -1.86248488 -3.46491346 3.06447427
VERTEX2 1037 -2.20188007 -3.33557370 2.82603462
VERTEX2 1038 -2.81272747 -3.21327545 2.91720919
VERTEX2 1039 -3.45054144 -3.04363757 2.88564576
VERTEX2 1040 -3.42436578 -3.04427717 -2.76755912
VERTEX2 1041 -3.39484568 -3.04817561 -1.75079005
VERTEX2 1042 -3.39668242 -3.08129997 -0.76302627
VERTEX2 1043 -3.36263663 -3.11269514 0.20638237
VERTEX2 1044 -3.37614538 -3.12861966 1.20002653
VERTEX2 1045 -3.37923699 -3.13541624 1.08599823
VERTEX2 1046 -3.38970817 -3.14947822 0.70046087
VERTEX2 1047 -3.40850411 -3.15764846 0.14468563
VERTEX2 1048 -3.04583007 -3.22714292 -0.16830967
VERTEX2 1049 -2.40022204 -3.32597621 -0.15115169
VERTEX2 1050 -1.75285429 -3.39703774 -0.07547099
VERTEX2 1051 -1.09730385 -3.47099418 -0.15461301
VERTEX2 1052 -0.47332916 -3.55246539 -0.10165832
VERTEX2 1053 -0.05591254 -3.60721423 -0.15428586
VERTEX2 1054 -0.02942037 -3.61003156 0.60789245
VERTEX2 1055 -0.02306324 -3.58030279 1.66307193
VERTEX2 1056 -0.01435946 -3.59307411 2.66672934
VERTEX2 1057 0.01066105 -3.59588480 -2.62555329
VERTEX2 1058 0.00855111 -3.59835643 -1.70332559
VERTEX2 1059 -0.09042358 -4.18103234 -1.78405897
VERTEX2 1060 -0.22827113 -4.81098066 -1.77904121
VERTEX2 1061 -0.33642701 -5.25714462 -1.90155419
VERTEX2 1062 -0.33990119 -5.26247875 -2.46576955
VERTEX2 1063 -0.31865140 -5.25038345 -3.06348398
VERTEX2 1064 -0.59886900 -5.19703913 2.95446023
VERTEX2 1065 -1.18626219 -5.12861660 3.07643803
VERTEX2 1066 -1.74916614 -5.07491762 3.02033842
VERTEX2 1067 -1.73456269 -5.07419105 -2.83015534
VERTEX2 1068 -1.72203964 -5.06543875 -2.15733308
VERTEX2 1069 -1.72142349 -5.06379052 -1.98694162
VERTEX2 1070 -1.71994980 -5.06121526 -2.52587329
VERTEX2 1071 -2.19233654 -5.31627346 -2.65307632
VERTEX2 1072 -2.64287051 -5.54791279 -2.72172796
VERTEX2 1073 -2.61363409 -5.54722272 3.05033229
VERTEX2 1074 -3.14326410 -5.47433011 3.01597948
VERTEX2 1075 -3.72053620 -5.39696590 3.03255227
VERTEX2 1076 -3.73943852 -5.39555111 -2.84648861
VERTEX2 1077 -3.75238377 -5.41989406 -2.04084852
VERTEX2 1078 -3.99188042 -6.02902133 -1.99572780
VERTEX2 1079 -4.22565028 -6.59511390 -1.93364030
VERTEX2 1080 -4.23033314 -6.60756769 -2.42131043
VERTEX2 1081 -4.65833820 -6.89887726 -2.54459605
VERTEX2 1082 -4.82844648 -7.01712257 -2.26403187
VERTEX2 1083 -4.82421637 -7.05004989 -1.23396619
VERTEX2 1084 -4.75383247 -7.08644588 -0.26872024
VERTEX2 1085 -4.75816357 -7.08760623 0.71496390
VERTEX2 1086 -4.39827447 -6.60116579 0.94569042
VERTEX2 1087 -4.01904550 -6.09687786 0.93378341
VERTEX2 1088 -3.65850557 -5.58833860 0.91720537
VERTEX2 1089 -3.60335141 -5.51742018 0.82187201
VERTEX2 1090 -3.59375747 -5.50869433 0.20710976
VERTEX2 1091 -3.05594736 -5.47797494 0.03039885
VERTEX2 1092 -2.43677938 -5.46424197 0.01538379
VERTEX2 1093 -1.86760073 -5.46860641 -0.04954609
VERTEX2 1094 -1.85508604 -5.48057232 -0.45332755
VERTEX2 1095 -1.82491458 -5.50741826 -1.04266672
VERTEX2 1096 -1.82495693 -5.50735712 -1.61351440
VERTEX2 1097 -1.90860685 -5.83213843 -1.82873942
VERTEX2 1098 -2.08641357 -6.42841761 -1.88542491
VERTEX2 1099 -2.29557731 -6.99119101 -1.98124835
VERTEX2 1100 -2.30221324 -7.00793536 -1.61777043
VERTEX2 1101 -2.24422737 -7.27030493 -1.35152430
VERTEX2 1102 -2.24501918 -7.27967030 -1.74477350
VERTEX2 1103 -2.37349027 -7.89023340 -1.77830389
VERTEX2 1104 -2.51269700 -8.52715430 -1.80573065
VERTEX2 1105 -2.66818668 -9.14734697 -1.82370470
VERTEX2 1106 -2.79427441 -9.62245983 -1.84900888
VERTEX2 1107 -2.79376580 -9.62840897 -1.59299870
VERTEX2 1108 -2.76425425 -10.25270001 -1.58521820
VERTEX2 1109 -2.81924461 -10.89466999 -1.68920964
VERTEX2 1110 -2.89628049 -11.50040549 -1.73876958
VERTEX2 1111 -3.06812379 -12.02751479 -1.84008078
VERTEX2 1112 -3.10477723 -12.60477903 -1.49369343
VERTEX2 1113 -3.07208621 -13.24201894 -1.58908182
VERTEX2 1114 -3.08265289 -13.85682432 -1.57204992
VERTEX2 1115 -3.08046714 -14.43824892 -1.58823491
VERTEX2 1116 -3.06930966 -15.08481397 -1.55196769
VERTEX2 1117 -3.06664050 -15.18052232 -1.67972185
VERTEX2 1118 -3.06489062 -15.17726461 -2.28690132
VERTEX2 1119 -3.05614268 -15.17122981 -2.71852662
VERTEX2 1120 -3.62008585 -15.37635820 -2.78212665
VERTEX2 1121 -3.81047369 -15.44326761 -2.90068041
VERTEX2 1122 -3.80812971 -15.44406878 2.83223258
VERTEX2 1123 -4.35937834 -15.25853666 2.84918938
VERTEX2 1124 -4.91851426 -15.12940144 2.94797340
VERTEX2 1125 -5.54548031 -15.00362264 2.96151525
VERTEX2 1126 -5.62725577 -14.99046955 -2.98187501
VERTEX2 1127 -5.62446476 -14.99344781 -1.92455059
VERTEX2 1128 -5.62318285 -14.98722882 -0.93713492
VERTEX2 1129 -5.60786989 -14.99580064 0.07852603
VERTEX2 1130 -5.02011060 -14.93139261 0.09228770
VERTEX2 1131 -4.24810644 -15.05657276 -0.33938666
VERTEX2 1132 -3.63948573 -15.27383394 -0.35897402
VERTEX2 1133 -3.09478269 -15.50158636 -0.39756860
VERTEX2 1134 -2.84383647 -15.60724668 -0.49446204
VERTEX2 1135 -2.83468886 -15.61625013 -1.05028456
VERTEX2 1136 -2.83396801 -15.61473402 -1.61202729
VERTEX2 1137 -2.88822557 -15.91579611 -1.79590107
VERTEX2 1138 -3.04378029 -16.54739091 -1.81204382
VERTEX2 1139 -3.16382657 -17.04243080 -1.88506520
VERTEX2 1140 -3.15393027 -17.01885224 -2.36363811
VERTEX2 1141 -3.13255409 -16.99816470 -2.91059279
VERTEX2 1142 -3.49594467 -16.95378910 3.00859590
VERTEX2 1143 -4.09432111 -16.90546381 3.09818986
VERTEX2 1144 -4.67564208 -16.86960791 3.06775063
VERTEX2 1145 -5.25449998 -16.82252072 3.04246052
VERTEX2 1146 -5.83095896 -16.76379773 3.06237838
VERTEX2 1147 -6.41092641 -16.75228068 3.13528106
VERTEX2 1148 -6.98966388 -16.74837401 -3.13787264
VERTEX2 1149 -7.03264802 -16.74957896 -2.63962530
VERTEX2 1150 -7.12514940 -16.85187614 -1.82997001
VERTEX2 1151 -7.12331524 -16.86267504 -0.82600483
VERTEX2 1152 -7.10686819 -16.86300222 0.22726874
VERTEX2 1153 -7.09257078 -16.85657706 1.24019838
VERTEX2 1154 -7.15102029 -16.53907730 1.78627420
VERTEX2 1155 -7.28243140 -15.91404099 1.73693382
VERTEX2 1156 -7.37800634 -15.30771270 1.74695999
VERTEX2 1157 -7.50356327 -14.73601202 1.85808122
VERTEX2 1158 -7.62823486 -14.13327773 1.72953710
VERTEX2 1159 -7.68705225 -13.52978061 1.63552381
VERTEX2 1160 -7.70773941 -12.88980020 1.49880250
VERTEX2 1161 -7.60603376 -12.25827141 1.40912987
VERTEX2 1162 -7.51257064 -11.62642417 1.46726106
VERTEX2 1163 -7.44804321 -10.98351553 1.46182558
VERTEX2 1164 -7.39784269 -10.34252174 1.54728845
VERTEX2 1165 -7.38554229 -9.80213274 1.52420733
VERTEX2 1166 -7.38561735 -9.80181750 2.01308583
VERTEX2 1167 -7.33367344 -9.78932788 2.94956021
VERTEX2 1168 -7.28942559 -9.77186607 -2.43032074
VERTEX2 1169 -7.29379537 -9.82637219 -1.60843732
VERTEX2 1170 -7.30560164 -10.41549282 -1.60174701
VERTEX2 1171 -7.30709864 -11.05342187 -1.57002337
VERTEX2 1172 -7.31301409 -11.65538845 -1.63249949
VERTEX2 1173 -7.34362046 -12.27570962 -1.62298301
VERTEX2 1174 -7.38781104 -12.90081363 -1.69133736
VERTEX2 1175 -7.47359114 -13.50945663 -1.72447148
VERTEX2 1176 -7.57227375 -14.13064956 -1.76812572
VERTEX2 1177 -7.69308903 -14.73972185 -1.76606563
VERTEX2 1178 -7.82546715 -15.35268217 -1.81326558
VERTEX2 1179 -7.96429531 -15.95748760 -1.78391134
VERTEX2 1180 -8.01918324 -16.21166306 -1.79089289
VERTEX2 1181 -8.01844832 -16.20659622 -0.96342493
VERTEX2 1182 -7.96185844 -16.22109216 -0.25170566
VERTEX2 1183 -7.34752477 -16.37147038 -0.22640023
VERTEX2 1184 -6.71387957 -16.48769895 -0.15688472
VERTEX2 1185 -6.08513803 -16.59947820 -0.18917408
VERTEX2 1186 -5.45279201 -16.69577775 -0.12303337
VERTEX2 1187 -4.79810243 -16.78272786 -0.16018072
VERTEX2 1188 -4.17000090 -16.87405244 -0.14213420
VERTEX2 1189 -3.50357897 -16.98324430 -0.12049083
VERTEX2 1190 -3.16877808 -17.02444107 -0.11250979
VERTEX2 1191 -3.13312617 -17.02371533 0.80762401
VERTEX2 1192 -3.12731090 -16.94078476 1.60515692
VERTEX2 1193 -3.12018979 -16.34158856 1.47311154
VERTEX2 1194 -3.07855118 -15.76801168 1.51514849
VERTEX2 1195 -3.04968362 -15.14518592 1.56748495
VERTEX2 1196 -3.04349009 -14.52223722 1.39484606
VERTEX2 1197 -2.93983779 -13.90795056 1.40612739
VERTEX2 1198 -2.86919219 -13.28185803 1.66502147
VERTEX2 1199 -2.88619782 -12.67035394 1.45038685
VERTEX2 1200 -2.82897260 -12.04102242 1.51944351
VERTEX2 1201 -2.80401056 -11.42208363 1.57531679
VERTEX2 1202 -2.81426859 -10.80047714 1.59830756
VERTEX2 1203 -2.84473886 -10.21188113 1.50843685
VERTEX2 1204 -2.73042487 -9.62053422 1.36171535
VERTEX2 1205 -2.62201071 -9.05825846 1.39133675
VERTEX2 1206 -2.53652040 -8.46903187 1.45262320
VERTEX2 1207 -2.39908048 -7.85835413 1.36659047
VERTEX2 1208 -2.28655140 -7.23403002 1.43133688
VERTEX2 1209 -2.19953027 -6.61313693 1.42945776
VERTEX2 1210 -2.13463932 -5.99648682 1.45009443
VERTEX2 1211 -2.00840100 -5.38422623 1.37719370
VERTEX2 1212 -1.89334348 -4.77235731 1.42718332
VERTEX2 1213 -1.82605760 -4.15907973 1.50045264
VERTEX2 1214 -1.74414569 -3.43388666 1.27778538
VERTEX2 1215 -1.57978136 -2.84911037 1.33684190
VERTEX2 1216 -1.52980736 -2.29637256 1.55422440
VERTEX2 1217 -1.49605257 -1.71733277 1.53496340
VERTEX2 1218 -1.48277857 -1.12876411 1.48488759
VERTEX2 1219 -1.43303100 -0.48065828 1.51608901
VERTEX2 1220 -1.42721064 0.10469573 1.60753573
VERTEX2 1221 -1.42527995 0.09828894 1.15604076
VERTEX2 1222 -1.41534701 0.10805098 0.55873376
VERTEX2 1223 -1.40352620 0.11090661 -0.00089324
VERTEX2 1224 -0.82913598 0.02132951 -0.18380124
VERTEX2 1225 -0.21326190 -0.08919124 -0.17003724
VERTEX2 1226 -0.10831229 -0.10732117 -0.18676824
VERTEX2 1227 -0.10831229 -0.10732117 -0.18743024
