1 19 166 0.00295935 10 
2 19 172 0.00312572 10 
3 25 172 0.00318840 10 
4 25 178 0.00330114 10 
5 32 178 0.00329925 10 
6 32 183 0.00339112 10 
7 44 189 0.00351149 10 
8 44 195 0.00362392 10 
9 50 195 0.00361864 10 
10 50 201 0.00372343 10 
11 50 203 0.00378064 10 
12 61 203 0.00376542 10 
13 61 209 0.00388043 10 
14 67 209 0.00387829 10 
15 67 220 0.00408175 10 
16 81 220 0.00407137 10 
17 81 226 0.00419695 10 
18 87 226 0.00418146 10 
19 87 231 0.00428595 10 
20 94 231 0.00428033 10 
21 226 231 0.00427341 10 
22 94 241 0.00448327 10 
23 101 241 0.00448221 10 
24 101 247 0.00458799 10 
25 107 247 0.00459890 10 
26 107 254 0.00472182 10 
27 114 254 0.00472462 10 
28 107 256 0.00477676 10 
29 114 256 0.00478272 10 
30 107 258 0.00482280 10 
31 114 258 0.00482357 10 
32 121 266 0.00499018 10 
33 126 266 0.00501080 10 
34 126 272 0.00515409 10 
35 132 272 0.00515185 10 
36 132 278 0.00527327 10 
37 138 278 0.00526966 10 
38 138 284 0.00541427 10 
39 151 284 0.00541111 10 
40 151 291 0.00553714 10 
41 151 297 0.00566684 10 
42 157 297 0.00565888 10 
43 163 297 0.00567400 10 
44 166 297 0.00567823 10 
45 19 305 0.00594790 10 
46 157 305 0.00595589 10 
47 163 305 0.00601109 10 
48 166 305 0.00599326 10 
49 172 305 0.00603219 10 
50 19 315 0.00540467 9 
51 25 315 0.00606550 10 
52 172 315 0.00623778 10 
53 172 328 0.00629099 10 
54 19 337 0.00517270 8 
55 25 337 0.00652773 10 
56 172 337 0.00669511 10 
57 19 342 0.00660051 10 
58 25 342 0.00665074 10 
59 172 342 0.00341246 5 
60 178 342 0.00666996 10 
61 25 367 0.00348701 5 
62 32 367 0.00421171 6 
63 178 367 0.00421159 6 
64 183 367 0.00495771 7 
65 25 374 0.00726391 10 
66 32 374 0.00731856 10 
67 178 374 0.00524552 7 
68 183 374 0.00655613 9 
69 32 382 0.00595055 8 
70 183 382 0.00751872 10 
71 32 387 0.00756869 10 
72 183 387 0.00449952 6 
73 189 400 0.00790377 10 
74 189 414 0.00817100 10 
75 44 437 0.00862753 10 
76 195 437 0.00882181 10 
77 44 454 0.00891844 10 
78 189 454 0.00916047 10 
79 44 467 0.00919250 10 
80 50 467 0.00944733 10 
81 195 467 0.00946768 10 
82 195 484 0.00956006 10 
83 44 494 0.00675371 7 
84 50 494 0.00978509 10 
85 195 494 0.01001193 10 
86 201 494 0.01007309 10 
87 50 500 0.00993847 10 
88 201 500 0.01019333 10 
89 203 500 0.01021332 10 
90 61 508 0.01013855 10 
91 203 508 0.01037615 10 
92 209 508 0.01042228 10 
93 61 522 0.01040389 10 
94 203 522 0.01066896 10 
95 209 522 0.01068572 10 
96 61 528 0.01054699 10 
97 67 528 0.01085549 10 
98 81 528 0.01086876 10 
99 209 528 0.01086906 10 
100 220 528 0.01088164 10 
101 67 532 0.00846841 8 
102 81 532 0.01070978 10 
103 220 532 0.01097500 10 
104 67 556 0.01119658 10 
105 67 564 0.01133445 10 
106 81 564 0.01161002 10 
107 220 564 0.01154860 10 
108 67 567 0.01141757 10 
109 81 567 0.01212955 10 
110 220 567 0.01171668 10 
111 67 570 0.01150680 10 
112 81 570 0.01178918 10 
113 220 570 0.01177642 10 
114 81 575 0.01191049 10 
115 220 575 0.01190536 10 
116 81 588 0.01189018 10 
117 87 588 0.01220357 10 
118 226 588 0.01223660 10 
119 87 597 0.01214185 10 
120 94 597 0.01243353 10 
121 226 597 0.01248235 10 
122 87 604 0.01229795 10 
123 94 604 0.01259804 10 
124 94 616 0.00992635 8 
125 94 632 0.01286033 10 
126 94 637 0.01300457 10 
127 101 637 0.01330262 10 
128 101 642 0.01304374 10 
129 107 642 0.01336442 10 
130 101 645 0.01313364 10 
131 107 645 0.01347116 10 
132 101 657 0.01336062 10 
133 101 663 0.01203767 9 
134 107 663 0.01350504 10 
135 114 663 0.01403357 10 
136 101 665 0.01373846 10 
137 107 665 0.01406478 10 
138 114 665 0.01407261 10 
139 59 665 0.01412453 10 
140 107 680 0.01409281 10 
141 107 683 0.01415494 10 
142 114 683 0.01448151 10 
143 107 704 0.01455005 10 
144 114 704 0.01489449 10 
145 107 714 0.01474470 10 
146 114 714 0.01509820 10 
147 107 730 0.01189716 8 
148 114 730 0.01501754 10 
149 321 736 0.01521620 10 
150 121 754 0.01553100 10 
151 126 754 0.01588330 10 
152 121 759 0.01562460 10 
153 126 759 0.01603232 10 
154 126 762 0.01569203 10 
155 132 762 0.01612974 10 
156 667 765 0.01603168 10 
157 175 772 0.01614655 10 
158 132 778 0.01634363 10 
159 132 792 0.01658004 10 
160 132 800 0.01678456 10 
161 138 800 0.01718727 10 
162 138 806 0.01690797 10 
163 138 821 0.01706200 10 
164 138 823 0.01708368 10 
165 151 828 0.01737864 10 
166 151 847 0.01771241 10 
167 151 855 0.01787424 10 
168 151 895 0.01870052 10 
169 151 897 0.01898564 10 
170 138 903 0.01882252 10 
171 138 904 0.01928119 10 
172 132 907 0.01890797 10 
173 138 907 0.01935441 10 
174 132 911 0.01899568 10 
175 121 923 0.01920016 10 
176 126 923 0.01972100 10 
177 107 929 0.01948295 10 
178 114 929 0.01991611 10 
179 107 935 0.01958575 10 
180 114 935 0.02002407 10 
181 101 939 0.01955695 10 
182 107 939 0.01953339 10 
183 101 944 0.01977635 10 
184 94 947 0.01991261 10 
185 101 947 0.02038504 10 
186 87 953 0.02007740 10 
187 94 953 0.02053368 10 
188 226 953 0.02052670 10 
189 81 959 0.02023135 10 
190 87 959 0.02070318 10 
191 220 959 0.02076322 10 
192 226 959 0.02076776 10 
193 67 965 0.02042096 10 
194 81 965 0.02089909 10 
195 220 965 0.02090997 10 
196 61 976 0.02065370 10 
197 67 976 0.02113959 10 
198 209 976 0.02116351 10 
199 50 982 0.02085350 10 
200 61 982 0.02130302 10 
201 201 982 0.02134997 10 
202 203 982 0.02136344 10 
203 752 987 0.02100971 10 
204 44 988 0.02111721 10 
205 50 988 0.02160490 10 
206 195 988 0.02161813 10 
207 201 988 0.01723699 8 
208 44 994 0.02128224 10 
209 189 994 0.02178071 10 
210 195 994 0.02178941 10 
211 32 1003 0.02149520 10 
212 178 1003 0.02203991 10 
213 183 1003 0.02202143 10 
214 525 1006 0.02167281 10 
215 25 1008 0.12697478 10 
216 32 1008 0.18143256 10 
217 178 1008 0.13249101 10 
218 183 1008 0.02550095 10 
219 25 1010 0.02198950 10 
220 32 1010 0.02247098 10 
221 172 1010 0.02245254 10 
222 178 1010 0.02247844 10 
223 19 1016 0.02212223 10 
224 166 1016 0.02264972 10 
225 172 1016 0.02029220 9 
226 151 1029 0.02249991 10 
227 157 1029 0.02300518 10 
228 163 1029 0.02295061 10 
229 166 1029 0.02296731 10 
230 132 1084 0.02363103 10 
231 800 1104 0.02400800 10 
232 101 1138 0.02484479 10 
233 107 1147 0.02508419 10 
234 114 1147 0.02560856 10 
235 107 1150 0.02512147 10 
236 114 1150 0.02588877 10 
237 114 1158 0.02528069 10 
238 121 1158 0.02588737 10 
239 121 1164 0.02543093 10 
240 126 1164 0.02608483 10 
241 828 1165 0.02558748 10 
242 140 1172 0.02576087 10 
243 114 1175 0.02589797 10 
244 121 1175 0.02648975 10 
245 923 1175 0.02651385 10 
246 929 1175 0.02675244 10 
247 1158 1175 0.02184989 7 
248 101 1188 0.02651792 10 
249 939 1188 0.02691918 10 
250 1138 1188 0.02696972 10 
251 1147 1188 0.02696072 10 
252 1150 1188 0.02693970 10 
253 1050 1210 0.02682245 10 
254 1061 1210 0.02840661 10 
255 1075 1210 0.02745433 10 
256 1084 1210 0.02750013 10 
257 1088 1210 0.02755815 10 
258 1093 1210 0.02755839 10 
259 1098 1210 0.02755509 10 
260 157 1217 0.02725741 10 
261 163 1217 0.02777659 10 
262 1029 1217 0.02776756 10 
263 1044 1217 0.02781076 10 
264 1050 1217 0.02782015 10 
265 1056 1217 0.02784425 10 
266 514 1221 0.02747313 10 
