1 19 166 0 0.41485034 0.00211420 5 
2 19 172 0 0.02820697 0.00186732 4 
3 25 172 0 0.50366199 0.00188282 4 
4 25 178 0 0.30831851 0.00203187 4 
5 32 178 0 0.01493521 0.00199179 4 
6 32 183 0 0.07055611 0.00201328 4 
7 44 189 0 0.52863102 0.00208226 4 
8 44 195 0 0.35755137 0.00217032 4 
9 50 195 0 0.00572854 0.00220301 4 
10 50 201 0 0.04110605 0.00190585 3 
11 50 203 0 0.06975183 0.00187539 3 
12 61 203 0 0.00745912 0.00190350 3 
13 61 209 0 0.37222863 0.00231800 4 
14 67 209 0 0.41032090 0.00233169 4 
15 67 220 0 0.66144083 0.00250685 4 
16 81 220 0 0.48035877 0.00286956 5 
17 81 226 0 0.05402805 0.00257542 4 
18 87 226 0 1.82553139 0.00294423 5 
19 87 231 0 0.34656585 0.00262939 4 
20 94 231 0 0.55778528 0.00257050 4 
21 226 231 0 1.44127402 0.00299115 5 
22 94 241 0 1.33132047 0.00269497 4 
23 101 241 0 0.50961029 0.00272066 4 
24 101 247 0 1.66454674 0.00276539 4 
25 107 247 0 1.80094617 0.00278366 4 
26 107 254 0 1.18346605 0.00284762 4 
27 114 254 0 0.12939160 0.00286964 4 
28 107 256 0 0.93085039 0.00285233 4 
29 114 256 0 0.24629796 0.00286183 4 
30 107 258 0 1.37911724 0.00289967 4 
31 114 258 0 1.15747212 0.00292188 4 
32 121 266 0 0.00938596 0.00300785 4 
33 126 266 0 0.44864328 0.00354755 5 
34 126 272 0 1.03992836 0.00309621 4 
35 132 272 0 0.39070916 0.00364305 5 
36 132 278 0 0.58358145 0.00318117 4 
37 138 278 0 1.06458780 0.00373212 5 
38 138 284 0 0.02201259 0.00270975 3 
39 151 284 0 0.12777228 0.00329052 4 
40 151 291 0 0.60037557 0.00331381 4 
41 151 297 0 0.07972289 0.00284673 3 
42 157 297 0 1.04991834 0.00345038 4 
43 166 297 0 1.30507781 0.00368805 4 
44 19 305 0 0.16044642 0.00357682 4 
45 157 305 0 0.58687353 0.00360386 4 
46 163 305 0 7.56485476 0.00484987 6 
47 166 305 0 0.37495035 0.00360606 4 
48 172 305 0 0.01886255 0.00360107 4 
49 232 311 2 1871.43289243 0.00000270 1 
50 19 315 0 0.48455906 0.00310031 3 
51 25 315 0 0.02281386 0.00311381 3 
52 172 315 0 0.05679715 0.00373540 4 
53 172 328 0 0.12482725 0.00330066 3 
54 19 337 0 6.63404991 0.00466478 5 
55 25 337 0 0.96522419 0.00400039 4 
56 172 337 0 0.57611560 0.00333235 3 
57 19 342 0 0.00494520 0.00338710 3 
58 25 342 0 0.12855172 0.00406868 4 
59 172 342 0 0.01223902 0.00412527 4 
60 178 342 0 0.12442988 0.00418028 4 
61 25 367 0 0.11414782 0.00378561 3 
62 32 367 0 0.01267433 0.00595785 6 
63 178 367 0 0.00286807 0.00375908 3 
64 183 367 0 0.06698524 0.00379446 3 
65 25 374 0 0.56424690 0.00459512 4 
66 32 374 0 0.09892849 0.00532780 5 
67 178 374 0 0.03055075 0.00459424 4 
68 183 374 0 0.05309447 0.00457622 4 
69 32 382 0 4.14688582 0.00392926 3 
70 183 382 0 1.28811506 0.00465993 4 
71 32 387 0 2.72468715 0.00473791 4 
72 183 387 0 0.18197642 0.00473590 4 
73 189 414 0 7.69047346 0.00585439 5 
74 44 437 0 0.00915802 0.00438471 3 
75 195 437 0 0.01161094 0.00437309 3 
76 44 454 0 0.65644164 0.00452425 3 
77 189 454 0 0.03962740 0.00541882 4 
78 44 467 0 0.12345281 0.00641690 5 
79 50 467 0 0.00895575 0.01022621 9 
80 195 467 0 0.00230988 0.00463309 3 
81 195 484 0 0.09447226 0.00574065 4 
82 44 494 0 0.02880924 0.00577322 4 
83 50 494 0 0.00628832 0.00485115 3 
84 195 494 0 0.00818961 0.00683841 5 
85 201 494 0 0.00469852 0.00682698 5 
86 50 500 0 0.14406209 0.00694610 5 
87 201 500 0 0.05353930 0.00490798 3 
88 203 500 0 0.03252445 0.00488333 3 
89 61 508 0 0.99413579 0.00712545 5 
90 203 508 0 0.26947301 0.01225890 10 
91 209 508 0 0.03711473 0.00605997 4 
92 61 522 0 1.37942234 0.00614437 4 
93 203 522 0 0.12859200 0.00513148 3 
94 209 522 0 0.00542469 0.00514304 3 
95 61 528 0 0.47936102 0.00516931 3 
96 67 528 0 0.22419307 0.00629439 4 
97 81 528 0 0.23233822 0.00842314 6 
98 209 528 0 0.09444678 0.01062299 8 
99 220 528 0 0.13668760 0.00623721 4 
100 67 532 0 0.05459173 0.01181474 9 
101 81 532 0 0.11826401 0.00847718 6 
102 220 532 0 0.05648169 0.00635091 4 
103 67 556 0 0.98233216 0.00649397 4 
104 405 562 2 234.97636931 0.00000304 1 
105 67 564 0 0.40168838 0.01233500 9 
106 81 564 0 0.02280941 0.00663591 4 
107 220 564 0 0.02684857 0.00665341 4 
108 67 567 0 2.67253169 0.00781117 5 
109 81 567 0 0.48923871 0.00901051 6 
110 220 567 0 0.21723258 0.00665060 4 
111 67 570 0 2.40706627 0.00908375 6 
112 81 570 0 0.15671702 0.00903070 6 
113 220 570 0 0.13379867 0.00677607 4 
114 81 575 0 2.76594993 0.00792215 5 
115 220 575 0 1.08612706 0.01035487 7 
116 81 588 0 0.01497138 0.00567047 3 
117 87 588 0 0.47937722 0.00817983 5 
118 226 588 0 0.43156268 0.00691907 4 
119 87 597 0 2.27648751 0.00955026 6 
120 94 597 0 0.38888315 0.00700199 4 
121 226 597 0 0.55079633 0.00832120 5 
122 87 604 0 0.47149562 0.00711826 4 
123 94 604 0 0.01542269 0.00840397 5 
124 94 616 0 0.01350372 0.01233499 8 
125 94 632 0 2.16969694 0.00878697 5 
126 94 637 0 4.44236402 0.01007806 6 
127 101 637 0 0.19098383 0.00750972 4 
128 101 642 0 0.11555601 0.00889769 5 
129 107 642 0 0.04025021 0.01411210 9 
130 101 645 0 6.69527511 0.00761321 4 
131 107 645 0 1.54205090 0.00750864 4 
132 101 657 0 0.73548669 0.01669014 10 
133 101 663 0 0.04971914 0.01681441 10 
134 107 663 0 0.01781179 0.00913885 5 
135 114 663 0 0.00275957 0.00915118 5 
136 101 665 0 1.55112265 0.01347287 8 
137 107 665 0 0.47667103 0.00781280 4 
138 114 665 0 0.13329170 0.00648639 3 
139 107 680 0 1.48615866 0.00936637 5 
140 107 683 0 0.94462224 0.00801742 4 
141 114 683 0 0.32178225 0.00951569 5 
142 485 696 2 730.38718862 0.00000380 1 
143 107 704 0 0.34268109 0.01262604 7 
144 114 704 0 0.07528002 0.01553937 9 
145 107 714 0 1.79639085 0.01144177 6 
146 114 714 0 0.02860377 0.01438413 8 
147 107 730 0 0.19656714 0.01014663 5 
148 114 730 0 0.03540690 0.00855008 4 
149 108 739 2 1381.87678434 0.00000340 1 
150 121 754 0 0.33113739 0.00874712 4 
151 126 754 0 0.07673382 0.01514402 8 
152 121 759 0 2.33625684 0.01198098 6 
153 126 759 0 0.22329988 0.01203780 6 
154 126 762 0 7.08482229 0.01038716 5 
155 132 762 0 2.00372045 0.01534510 8 
156 132 778 0 0.06999780 0.00902933 4 
157 132 792 0 1.26802734 0.00927342 4 
158 132 800 0 3.35686460 0.00920617 4 
159 138 800 0 0.14494330 0.01253612 6 
160 138 806 0 0.25140739 0.00751276 3 
161 138 821 0 0.40674396 0.01107243 5 
162 138 823 0 6.54725682 0.00938086 4 
163 151 828 0 3.12108818 0.00948071 4 
164 151 847 0 0.08724621 0.01156402 5 
165 151 855 0 0.11494457 0.01510590 7 
166 151 895 0 2.80701437 0.01758883 8 
167 151 897 0 0.06118057 0.02135137 10 
168 138 903 0 0.08157811 0.01022101 4 
169 138 904 0 7.06392298 0.01404419 6 
170 95 905 2 1763.95966796 0.00000479 1 
171 132 907 0 0.71874717 0.01028143 4 
172 138 907 0 0.22077132 0.01218699 5 
173 132 911 0 0.23128175 0.01220696 5 
174 121 923 0 0.62636126 0.01434822 6 
175 126 923 0 0.07130653 0.01047106 4 
176 107 929 0 0.07225325 0.01252116 5 
177 114 929 0 0.00477553 0.01058992 4 
178 107 935 0 4.91438615 0.01648790 7 
179 114 935 0 1.40337639 0.01652143 7 
180 101 939 0 0.48567419 0.01068695 4 
181 107 939 0 0.21174614 0.01071044 4 
182 101 944 0 0.15377935 0.01272176 5 
183 94 947 0 0.23772432 0.01675897 7 
184 101 947 0 0.16826262 0.01478928 6 
185 87 953 0 0.13504795 0.01085784 4 
186 94 953 0 0.06505521 0.01488619 6 
187 226 953 0 0.08268323 0.02297482 10 
188 81 959 0 1.83528326 0.02432234 10 
189 87 959 0 1.29172246 0.01707143 7 
190 220 959 0 0.04883629 0.01101611 4 
191 226 959 0 0.12130941 0.01303069 5 
192 67 965 0 1.01368609 0.01313214 5 
193 81 965 0 0.31066014 0.01516594 6 
194 220 965 0 0.16483276 0.01927009 8 
195 131 967 2 1891.88713874 0.00000462 1 
196 61 976 0 0.16803746 0.01738210 7 
197 67 976 0 0.05676300 0.00914858 3 
198 209 976 0 0.00780965 0.01121404 4 
199 50 982 0 0.38354811 0.01131128 4 
200 61 982 0 0.27147698 0.01131633 4 
201 201 982 0 0.22200943 0.01132273 4 
202 203 982 0 0.10573284 0.02183121 9 
203 44 988 0 0.09550719 0.01142709 4 
204 50 988 0 0.05924873 0.01144035 4 
205 195 988 0 0.04319526 0.01566056 6 
206 201 988 0 0.02685916 0.01354149 5 
207 44 994 0 0.51683435 0.01784919 7 
208 189 994 0 0.29989154 0.02572924 10 
209 195 994 0 0.21957432 0.01368274 5 
210 34 995 2 2979.05069603 0.00000455 1 
211 32 1003 0 0.23901034 0.01381311 5 
212 178 1003 0 0.03356851 0.02598377 10 
213 183 1003 0 0.01433170 0.01600749 6 
214 25 1008 0 1.23858172 0.01833923 7 
215 32 1008 0 0.53803958 0.01177082 4 
216 178 1008 0 0.34459610 0.01175163 4 
217 183 1008 0 0.22233868 0.01179265 4 
218 25 1010 0 0.60236133 0.01177167 4 
219 32 1010 0 0.30591807 0.01401008 5 
220 172 1010 0 0.10368354 0.01625079 6 
221 178 1010 0 0.19279072 0.02638206 10 
222 19 1016 0 0.44047719 0.02051994 8 
223 166 1016 0 0.20189646 0.01180878 4 
224 172 1016 0 0.07393216 0.01402023 5 
225 151 1029 0 0.03533130 0.01434915 5 
226 157 1029 0 0.02672450 0.01199020 4 
227 163 1029 0 3.39703566 0.01198785 4 
228 166 1029 0 0.49353449 0.01199462 4 
229 132 1084 0 4.21993706 0.01505702 5 
230 760 1101 2 422.02103909 0.00000562 1 
231 101 1138 0 0.63021658 0.01575558 5 
232 107 1147 0 0.73708347 0.01331871 4 
233 114 1147 0 0.03971358 0.01084115 3 
234 107 1150 0 7.45683387 0.01332586 4 
235 114 1150 0 1.00561260 0.01087498 3 
236 114 1158 0 0.16899687 0.01091000 3 
237 121 1158 0 0.69099743 0.01345096 4 
238 121 1164 0 0.45182924 0.01599898 5 
239 126 1164 0 0.04418665 0.01352626 4 
240 114 1175 0 0.14266969 0.01372256 4 
241 121 1175 0 0.27324351 0.01367943 4 
242 923 1175 0 0.18719011 0.01372364 4 
243 929 1175 0 0.16073549 0.01367590 4 
244 1158 1175 0 0.00134797 0.01118170 3 
245 530 1175 2 4894.81928675 0.00000515 3 
246 101 1188 0 0.32950319 0.01382412 4 
247 939 1188 0 0.55418798 0.01385764 4 
248 1138 1188 0 0.03006025 0.01136101 3 
249 1147 1188 0 0.04063922 0.01127708 3 
250 1150 1188 0 1.83245351 0.01386363 4 
251 1050 1210 0 0.00345523 0.01409241 4 
252 1061 1210 0 0.57363906 0.01674342 5 
253 1075 1210 0 0.23107861 0.01674103 5 
254 1084 1210 0 3.13555510 0.01672275 5 
255 1088 1210 0 0.59156319 0.01411060 4 
256 1093 1210 0 0.13111230 0.01940614 6 
257 1098 1210 0 0.04730346 0.01409289 4 
258 1147 1214 2 2882.70002460 0.00000647 1 
259 157 1217 0 0.32750279 0.01425074 4 
260 163 1217 0 0.19904338 0.01437182 4 
261 1029 1217 0 0.01250493 0.01165913 3 
262 1044 1217 0 3.98258990 0.01434983 4 
263 1050 1217 0 4.97161000 0.01708788 5 
264 163 297 0 0.27920255 0.01520148 4 
265 189 400 0 2.09679271 0.01454030 4 
266 1056 1217 0 9.66143264 0.01724379 5 
