1 19 166 0.00296410 10 
2 19 172 0.00312854 10 
3 25 172 0.00318751 10 
4 25 178 0.00329931 10 
5 32 178 0.00330313 10 
6 32 183 0.00338774 10 
7 44 189 0.00350450 10 
8 44 195 0.00362116 10 
9 50 195 0.00361743 10 
10 50 201 0.00372013 10 
11 50 203 0.00377100 10 
12 61 203 0.00375713 10 
13 61 209 0.00387189 10 
14 67 209 0.00387761 10 
15 67 220 0.00407713 10 
16 81 220 0.00406969 10 
17 81 226 0.00418614 10 
18 87 226 0.00417697 10 
19 87 231 0.00427928 10 
20 94 231 0.00427341 10 
21 226 231 0.00426823 10 
22 94 241 0.00447862 10 
23 101 241 0.00448025 10 
24 101 247 0.00477998 10 
25 107 247 0.00459143 10 
26 107 254 0.00471905 10 
27 114 254 0.00471480 10 
28 107 256 0.00476903 10 
29 114 256 0.00477705 10 
30 107 258 0.00481086 10 
31 114 258 0.00480925 10 
32 121 266 0.00513582 10 
33 126 266 0.00500619 10 
34 126 272 0.00513693 10 
35 132 272 0.00514665 10 
36 132 278 0.00526250 10 
37 138 278 0.00525309 10 
38 138 284 0.00540008 10 
39 151 284 0.00539634 10 
40 151 291 0.00553684 10 
41 151 297 0.00564960 10 
42 157 297 0.00564462 10 
43 163 297 0.00564977 10 
44 166 297 0.00566324 10 
45 19 305 0.00594194 10 
46 157 305 0.00594782 10 
47 163 305 0.00599790 10 
48 166 305 0.00597629 10 
49 172 305 0.00601712 10 
50 232 311 0.00598866 10 
51 19 315 0.00567562 9 
52 25 315 0.00615927 10 
53 172 315 0.00630234 10 
54 172 328 0.00634785 10 
55 19 337 0.00520268 8 
56 25 337 0.00657200 10 
57 172 337 0.00673681 10 
58 19 342 0.00666745 10 
59 25 342 0.00673158 10 
60 172 342 0.00345084 5 
61 178 342 0.00676646 10 
62 25 367 0.00425518 6 
63 32 367 0.00499339 7 
64 178 367 0.00427673 6 
65 183 367 0.00501717 7 
66 25 374 0.00735401 10 
67 32 374 0.00741247 10 
68 178 374 0.00532696 7 
69 183 374 0.00664757 9 
70 32 382 0.00601043 8 
71 183 382 0.00759638 10 
72 32 387 0.00763842 10 
73 183 387 0.00454313 6 
74 189 400 0.00796716 10 
75 189 414 0.00824484 10 
76 44 437 0.00869579 10 
77 195 437 0.00889557 10 
78 44 454 0.00899546 10 
79 189 454 0.00922837 10 
80 44 467 0.00923963 10 
81 50 467 0.00950813 10 
82 195 467 0.00952076 10 
83 195 484 0.00961527 10 
84 44 494 0.00775475 8 
85 50 494 0.00980122 10 
86 195 494 0.01003907 10 
87 201 494 0.01007686 10 
88 50 500 0.00996355 10 
89 201 500 0.01024661 10 
90 203 500 0.01026737 10 
91 61 508 0.01021568 10 
92 203 508 0.01044125 10 
93 209 508 0.01048121 10 
94 61 522 0.01047220 10 
95 203 522 0.01070764 10 
96 209 522 0.01072360 10 
97 61 528 0.01058381 10 
98 67 528 0.01085978 10 
99 81 528 0.01093053 10 
100 209 528 0.01089376 10 
101 220 528 0.01089361 10 
102 67 532 0.00956336 9 
103 81 532 0.01075469 10 
104 220 532 0.01106642 10 
105 67 556 0.01122644 10 
106 405 562 0.01135717 10 
107 67 564 0.01141146 10 
108 81 564 0.01169889 10 
109 220 564 0.01169922 10 
110 67 567 0.01150953 10 
111 81 567 0.01174684 10 
112 220 567 0.01181460 10 
113 67 570 0.01158593 10 
114 81 570 0.01185120 10 
115 220 570 0.01191993 10 
116 81 575 0.01198763 10 
117 220 575 0.01197736 10 
118 81 588 0.01194103 10 
119 87 588 0.01233590 10 
120 226 588 0.01235051 10 
121 87 597 0.01224295 10 
122 94 597 0.01255919 10 
123 226 597 0.01255851 10 
124 87 604 0.01249789 10 
125 94 604 0.01277297 10 
126 94 616 0.01129992 9 
127 94 632 0.01291465 10 
128 94 637 0.01308264 10 
129 101 637 0.01345572 10 
130 101 642 0.01327897 10 
131 107 642 0.01359538 10 
132 101 645 0.01334468 10 
133 107 645 0.01366236 10 
134 101 657 0.01356467 10 
135 101 663 0.01220034 9 
136 107 663 0.01368284 10 
137 114 663 0.01406867 10 
138 101 665 0.01377100 10 
139 107 665 0.01412630 10 
140 114 665 0.01413313 10 
141 107 680 0.01409871 10 
142 107 683 0.01417014 10 
143 114 683 0.01448311 10 
144 485 696 0.01453755 10 
145 107 704 0.01469486 10 
146 114 704 0.01503723 10 
147 107 714 0.01488424 10 
148 114 714 0.01522859 10 
149 107 730 0.01202839 8 
150 114 730 0.01518584 10 
151 108 739 0.01060964 7 
152 121 754 0.01568234 10 
153 126 754 0.01611095 10 
154 121 759 0.01582512 10 
155 126 759 0.01620859 10 
156 126 762 0.01594083 10 
157 132 762 0.01627836 10 
158 132 778 0.01620108 10 
159 132 792 0.01648235 10 
160 132 800 0.01665900 10 
161 138 800 0.01710403 10 
162 138 806 0.01682360 10 
163 138 821 0.01700646 10 
164 138 823 0.01703683 10 
165 151 828 0.01726633 10 
166 151 847 0.01763034 10 
167 151 855 0.01767481 10 
168 151 895 0.01857105 10 
169 151 897 0.01886632 10 
170 138 903 0.01882781 10 
171 138 904 0.01916274 10 
172 95 905 0.01882657 10 
173 132 907 0.01888631 10 
174 138 907 0.01931570 10 
175 132 911 0.01895732 10 
176 121 923 0.01924271 10 
177 126 923 0.01972345 10 
178 107 929 0.01946480 10 
179 114 929 0.01995733 10 
180 107 935 0.01961950 10 
181 114 935 0.02007205 10 
182 101 939 0.01967316 10 
183 107 939 0.01999424 10 
184 101 944 0.01977945 10 
185 94 947 0.01987647 10 
186 101 947 0.02032297 10 
187 87 953 0.02002492 10 
188 94 953 0.02049701 10 
189 226 953 0.02060916 10 
190 81 959 0.02020894 10 
191 87 959 0.02067585 10 
192 220 959 0.02071095 10 
193 226 959 0.02073182 10 
194 67 965 0.02057931 10 
195 81 965 0.02090102 10 
196 220 965 0.02089645 10 
197 131 967 0.02076224 10 
198 61 976 0.02114025 10 
199 67 976 0.02148255 10 
200 209 976 0.02149534 10 
201 50 982 0.02126754 10 
202 61 982 0.02171198 10 
203 201 982 0.02173373 10 
204 203 982 0.02175048 10 
205 44 988 0.02144100 10 
206 50 988 0.02194264 10 
207 195 988 0.02196376 10 
208 201 988 0.01750799 8 
209 44 994 0.02155985 10 
210 189 994 0.02207481 10 
211 195 994 0.02205999 10 
212 34 995 0.02173327 10 
213 32 1003 0.02189636 10 
214 178 1003 0.02242629 10 
215 183 1003 0.02245425 10 
216 25 1008 0.02396514 10 
217 32 1008 0.02261173 10 
218 178 1008 0.02267806 10 
219 183 1008 0.02265021 10 
220 25 1010 0.02223404 10 
221 32 1010 0.02272463 10 
222 172 1010 0.02275245 10 
223 178 1010 0.02276647 10 
224 19 1016 0.02240145 10 
225 166 1016 0.02284986 10 
226 172 1016 0.01814975 8 
227 151 1029 0.02283093 10 
228 157 1029 0.02329781 10 
229 163 1029 0.02325862 10 
230 166 1029 0.02324983 10 
231 132 1084 0.02381560 10 
232 760 1101 0.02414666 10 
233 101 1138 0.02502445 10 
234 107 1147 0.02509489 10 
235 114 1147 0.02568930 10 
236 107 1150 0.02520723 10 
237 114 1150 0.02579695 10 
238 114 1158 0.02531184 10 
239 121 1158 0.02593525 10 
240 121 1164 0.02546405 10 
241 126 1164 0.02607429 10 
242 114 1175 0.02576701 10 
243 121 1175 0.02635878 10 
244 923 1175 0.02643702 10 
245 929 1175 0.02656561 10 
246 1158 1175 0.02119921 8 
247 530 1175 0.02606096 10 
248 101 1188 0.02630940 10 
249 939 1188 0.02686657 10 
250 1138 1188 0.02697536 10 
251 1147 1188 0.02695859 10 
252 1150 1188 0.02704468 10 
253 1050 1210 0.02696590 10 
254 1061 1210 0.02750102 10 
255 1075 1210 0.02751989 10 
256 1084 1210 0.02751630 10 
257 1088 1210 0.02747048 10 
258 1093 1210 0.02746084 10 
259 1098 1210 0.02746881 10 
260 1147 1214 0.02700456 10 
261 157 1217 0.02723289 10 
262 163 1217 0.02506104 9 
263 1029 1217 0.02737380 10 
264 1044 1217 0.02796431 10 
265 1050 1217 0.02796934 10 
266 1056 1217 0.02800174 10 
