VERTEX2 0 0.00003943 -0.00000065 0.00000414
VERTEX2 1 0.00003986 -0.00000065 -0.00063782
VERTEX2 2 0.00004030 -0.00000065 -0.00117578
VERTEX2 3 0.01104258 -0.00097562 -0.00355774
VERTEX2 4 0.64104964 -0.01119809 -0.00743970
VERTEX2 5 0.69605776 -0.01171335 -0.09872166
VERTEX2 6 0.70031112 -0.01543285 -0.89599353
VERTEX2 7 0.69399833 0.00421550 -1.51153043
VERTEX2 8 0.69930511 0.02669641 -2.12506433
VERTEX2 9 0.71615657 0.04112573 -2.76313422
VERTEX2 10 0.72902351 0.04322325 2.90552019
VERTEX2 11 0.73324640 0.04054004 2.23124130
VERTEX2 12 0.73322911 0.04154851 1.58176741
VERTEX2 13 0.73879523 0.05907378 0.92226952
VERTEX2 14 0.75970097 0.07375431 0.31403062
VERTEX2 15 0.76861481 0.07436132 -0.21089729
VERTEX2 16 1.06253760 0.01415739 -0.22958925
VERTEX2 17 1.66369246 -0.13310618 -0.26081721
VERTEX2 18 2.28704790 -0.29646793 -0.27099417
VERTEX2 19 2.91434529 -0.49423842 -0.31957013
VERTEX2 20 3.50802893 -0.68431715 -0.31364875
VERTEX2 21 4.11715259 -0.83671033 -0.20207879
VERTEX2 22 4.72711679 -0.97808369 -0.18468949
VERTEX2 23 5.36711635 -1.02239111 -0.07727428
VERTEX2 24 5.99873774 -1.09369641 -0.13434540
VERTEX2 25 6.63367537 -1.16149546 -0.13159768
VERTEX2 26 7.24269257 -1.26218593 -0.17214894
VERTEX2 27 7.85865251 -1.35369195 -0.15633825
VERTEX2 28 8.44032074 -1.45249218 -0.16080680
VERTEX2 29 8.81941373 -1.51005257 -0.13006142
VERTEX2 30 8.82868513 -1.51252026 -0.66224071
VERTEX2 31 8.92974364 -1.64817795 -0.93063895
VERTEX2 32 9.29765077 -2.16304326 -0.94920274
VERTEX2 33 9.68516418 -2.67689314 -0.89826467
VERTEX2 34 10.10230052 -3.17419758 -0.87711091
VERTEX2 35 10.52535274 -3.65843918 -0.84294325
VERTEX2 36 10.95496864 -4.14392212 -0.85161125
VERTEX2 37 11.23813107 -4.45993932 -0.84403111
VERTEX2 38 11.23752075 -4.45909627 -1.16589810
VERTEX2 39 11.23642545 -4.45389814 -1.33700259
VERTEX2 40 11.38140140 -5.02857031 -1.31984087
VERTEX2 41 11.53185671 -5.62835781 -1.35191878
VERTEX2 42 11.65466884 -6.19160485 -1.37470753
VERTEX2 43 11.76146352 -6.78651472 -1.41497931
VERTEX2 44 11.85133078 -7.38069811 -1.45201748
VERTEX2 45 11.90668072 -8.00008291 -1.50754773
VERTEX2 46 11.93800156 -8.62154659 -1.52694640
VERTEX2 47 11.95844005 -9.24285841 -1.56863498
VERTEX2 48 11.95527354 -9.86860742 -1.57519340
VERTEX2 49 11.94834404 -10.49030623 -1.62603615
VERTEX2 50 11.89527414 -11.07966335 -1.67053936
VERTEX2 51 11.84051864 -11.67584683 -1.69960370
VERTEX2 52 11.74381958 -12.25864011 -1.77632691
VERTEX2 53 11.64427808 -12.81590422 -1.76398045
VERTEX2 54 11.53168910 -13.32736170 -1.82607102
VERTEX2 55 11.53840634 -13.29508531 -1.82080018
VERTEX2 56 11.53788374 -13.29713196 -1.81023211
VERTEX2 57 11.39435215 -13.91474228 -1.82163323
VERTEX2 58 11.24823558 -14.52060506 -1.77541238
VERTEX2 59 11.11946126 -15.12599733 -1.79899503
VERTEX2 60 10.99007948 -15.72773198 -1.77761537
VERTEX2 61 10.85490594 -16.32994385 -1.82835736
VERTEX2 62 10.70507069 -16.88924416 -1.78846540
VERTEX2 63 10.55346413 -17.45332882 -1.82392028
VERTEX2 64 10.41842786 -18.01200938 -1.76049931
VERTEX2 65 10.28386054 -18.56848957 -1.81188980
VERTEX2 66 10.13027695 -19.15480319 -1.81990078
VERTEX2 67 9.96492186 -19.74458831 -1.81845133
VERTEX2 68 9.85510070 -20.19226872 -1.83424796
VERTEX2 69 9.85824965 -20.18200222 -1.98921181
VERTEX2 70 9.86516952 -20.16875821 -2.66354090
VERTEX2 71 9.88855826 -20.16740908 2.97701632
VERTEX2 72 9.90129160 -20.16897247 2.96754318
VERTEX2 73 9.90874761 -20.17081391 2.90260995
VERTEX2 74 9.90889564 -20.17090057 2.28084108
VERTEX2 75 9.91562505 -20.17353193 1.92851204
VERTEX2 76 9.90393974 -20.16057487 2.62243564
VERTEX2 77 9.89968047 -20.15878851 2.85540784
VERTEX2 78 9.61828448 -20.16943203 -3.09061828
VERTEX2 79 9.00017188 -20.20807096 -3.09587555
VERTEX2 80 8.36836279 -20.20647349 3.11279324
VERTEX2 81 7.74429436 -20.17980982 3.08679550
VERTEX2 82 7.14474244 -20.13895755 3.03270271
VERTEX2 83 6.55616328 -20.08751791 3.00920558
VERTEX2 84 5.99367915 -20.00152323 2.93140993
VERTEX2 85 5.45096227 -19.89745364 2.93871212
VERTEX2 86 4.84170710 -19.77662686 2.84896448
VERTEX2 87 4.45230988 -19.67059558 2.79646414
VERTEX2 88 4.09439665 -19.53773800 2.76665950
VERTEX2 89 4.10404113 -19.53820917 -3.12075792
VERTEX2 90 3.49884949 -19.54128797 3.13132236
VERTEX2 91 2.88288520 -19.53674001 -3.10278500
VERTEX2 92 2.28301982 -19.53234702 3.06469986
VERTEX2 93 1.66187434 -19.42942444 2.96382403
VERTEX2 94 1.04109393 -19.29064823 2.92103176
VERTEX2 95 0.41556622 -19.20176261 3.06372300
VERTEX2 96 -0.19533181 -19.15027817 3.08779716
VERTEX2 97 -0.78582487 -19.08696248 3.01719221
VERTEX2 98 -1.37474182 -18.98563577 2.95921283
VERTEX2 99 -2.08020798 -18.86088859 3.00600422
VERTEX2 100 -2.64516236 -18.75257250 2.95425086
VERTEX2 101 -3.25685433 -18.69563132 3.05749248
VERTEX2 102 -3.87052197 -18.61495880 2.95162413
VERTEX2 103 -4.47942556 -18.49976839 3.04761002
VERTEX2 104 -5.09233362 -18.42314903 3.01396033
VERTEX2 105 -5.70544748 -18.35839129 3.06053737
VERTEX2 106 -6.30797140 -18.28770318 3.00568888
VERTEX2 107 -6.92624817 -18.19128252 3.00188850
VERTEX2 108 -7.38664393 -18.14161477 3.06386527
VERTEX2 109 -7.42978458 -18.13067258 2.61522853
VERTEX2 110 -7.44555588 -18.11433271 2.02373349
VERTEX2 111 -7.44569318 -18.03323740 1.51775863
VERTEX2 112 -7.42128431 -17.39898433 1.57212289
VERTEX2 113 -7.43902074 -16.77647295 1.61910498
VERTEX2 114 -7.47149731 -16.16247267 1.65585111
VERTEX2 115 -7.54414516 -15.52248642 1.71603858
VERTEX2 116 -7.66216933 -14.77212403 1.76006701
VERTEX2 117 -7.79731783 -14.16198639 1.85557153
VERTEX2 118 -7.80188959 -14.14157996 1.52088184
VERTEX2 119 -7.74618952 -13.62386019 1.46760930
VERTEX2 120 -7.69377983 -12.96799392 1.55783481
VERTEX2 121 -7.70479709 -12.34920623 1.62545681
VERTEX2 122 -7.73956037 -11.76737992 1.68169202
VERTEX2 123 -7.76469421 -11.58797274 1.66893007
VERTEX2 124 -7.67921725 -11.34986850 1.24600023
VERTEX2 125 -7.46405480 -10.75780955 1.23508671
VERTEX2 126 -7.33307745 -10.14244323 1.44167146
VERTEX2 127 -7.23697146 -9.50644520 1.44019834
VERTEX2 128 -7.16330629 -8.86628822 1.47674694
VERTEX2 129 -7.07881990 -8.22995915 1.44422323
VERTEX2 130 -7.01334849 -7.59554587 1.49703144
VERTEX2 131 -6.96977506 -6.96683809 1.58564669
VERTEX2 132 -6.95471131 -6.34984983 1.53588180
VERTEX2 133 -6.90987921 -5.78241238 1.49906108
VERTEX2 134 -6.85817062 -5.18602311 1.48084837
VERTEX2 135 -6.77835111 -4.60997457 1.45463350
VERTEX2 136 -6.70656843 -3.97695205 1.47427191
VERTEX2 137 -6.61238152 -3.34597414 1.43244763
VERTEX2 138 -6.53886751 -2.71597101 1.51266380
VERTEX2 139 -6.52488820 -2.08426918 1.57803930
VERTEX2 140 -6.55607776 -1.42795116 1.60862942
VERTEX2 141 -6.56486516 -0.78692383 1.56025157
VERTEX2 142 -6.56803416 -0.13619195 1.55646309
VERTEX2 143 -6.48967927 0.50367524 1.44594559
VERTEX2 144 -6.45149019 0.87629538 1.46350549
VERTEX2 145 -6.44585541 0.89361430 0.96514622
VERTEX2 146 -6.44414822 0.90251709 0.37196292
VERTEX2 147 -6.38836442 0.89891499 -0.11452554
VERTEX2 148 -5.95648587 0.84134674 -0.15016299
VERTEX2 149 -5.31552304 0.75130661 -0.12505084
VERTEX2 150 -4.68113400 0.69052088 -0.11088897
VERTEX2 151 -4.04120805 0.64689146 -0.02522498
VERTEX2 152 -3.41581988 0.61554692 -0.08605011
VERTEX2 153 -2.79071322 0.58686070 0.00742642
VERTEX2 154 -2.16922105 0.56996613 -0.06207547
VERTEX2 155 -1.54390835 0.54064159 -0.02861440
VERTEX2 156 -0.91622978 0.53048628 0.00214861
VERTEX2 157 -0.35217026 0.51655295 -0.06221001
VERTEX2 158 -0.15758159 0.50397303 -0.03471507
VERTEX2 159 -0.15201487 0.50222728 0.95261334
VERTEX2 160 -0.14663171 0.51113440 1.98829284
VERTEX2 161 -0.16877763 0.45231596 2.70928817
VERTEX2 162 -0.14299884 0.45816808 -2.53809666
VERTEX2 163 -0.14399082 0.45315301 -1.54101511
VERTEX2 164 -0.22101289 0.54876924 -0.47872466
VERTEX2 165 -0.04757948 0.53160418 -0.07093496
VERTEX2 166 0.64962224 0.48870288 -0.06923221
VERTEX2 167 1.26622384 0.43856620 -0.09860065
VERTEX2 168 1.85427193 0.38943863 -0.08660906
VERTEX2 169 2.44940525 0.31800017 -0.12355508
VERTEX2 170 3.03580406 0.24977845 -0.14421972
VERTEX2 171 3.59731842 0.15142966 -0.18255116
VERTEX2 172 4.22254290 0.04393111 -0.16852819
VERTEX2 173 4.85123889 -0.07670623 -0.19142085
VERTEX2 174 5.47616252 -0.19096664 -0.15135971
VERTEX2 175 6.09212265 -0.28115458 -0.17612306
VERTEX2 176 6.69123452 -0.40143722 -0.16657134
VERTEX2 177 7.31426460 -0.50426954 -0.19427784
VERTEX2 178 7.93537238 -0.65024294 -0.23333966
VERTEX2 179 8.33851478 -0.73408624 -0.18004854
VERTEX2 180 8.38842667 -0.74753903 -0.62216736
VERTEX2 181 8.82891119 -1.06616895 -0.67400217
VERTEX2 182 9.23525645 -1.42670773 -0.84809480
VERTEX2 183 9.58215413 -1.84815079 -0.90550679
VERTEX2 184 9.92893601 -2.37199276 -1.05106338
VERTEX2 185 10.21947777 -2.91864516 -1.14284625
VERTEX2 186 10.44410870 -3.49685690 -1.20855020
VERTEX2 187 10.64424321 -4.05286268 -1.23060210
VERTEX2 188 10.85130665 -4.62834886 -1.23550707
VERTEX2 189 11.05104416 -5.20773791 -1.26174369
VERTEX2 190 11.23514968 -5.81143753 -1.29064832
VERTEX2 191 11.40883868 -6.41446717 -1.31484063
VERTEX2 192 11.56351118 -7.01096415 -1.34330439
VERTEX2 193 11.68725232 -7.55892054 -1.39912816
VERTEX2 194 11.78727691 -8.12783038 -1.42598757
VERTEX2 195 11.86771805 -8.69200513 -1.45469472
VERTEX2 196 11.93462159 -9.31738631 -1.49547557
VERTEX2 197 11.97278612 -9.93871208 -1.52297090
VERTEX2 198 11.99820193 -10.55743029 -1.58116965
VERTEX2 199 11.97032937 -11.16555071 -1.64261559
VERTEX2 200 11.92342144 -11.76846333 -1.66452383
VERTEX2 201 11.85280792 -12.36788623 -1.72122309
VERTEX2 202 11.78908621 -12.87296428 -1.70097347
VERTEX2 203 11.68761937 -13.60685706 -1.75364183
VERTEX2 204 11.56607136 -14.18294126 -1.85553912
VERTEX2 205 11.39701234 -14.74467316 -1.86489051
VERTEX2 206 11.24312263 -15.29143338 -1.86289734
VERTEX2 207 11.08356809 -15.85793780 -1.84687374
VERTEX2 208 10.91043427 -16.45711436 -1.85623929
VERTEX2 209 10.74854688 -17.05779558 -1.81796646
VERTEX2 210 10.58567944 -17.65059136 -1.82680999
VERTEX2 211 10.43682054 -18.24716412 -1.82453598
VERTEX2 212 10.26038046 -18.83332625 -1.87737616
VERTEX2 213 10.06535492 -19.42318673 -1.89814515
VERTEX2 214 9.86549785 -19.99945654 -1.90194728
VERTEX2 215 9.75045246 -20.32184269 -1.93773758
VERTEX2 216 9.76236774 -20.30142759 -2.43638089
VERTEX2 217 9.78821378 -20.29865068 -2.97852401
VERTEX2 218 9.79762175 -20.30225555 -3.03454035
VERTEX2 219 9.23152449 -20.25841018 3.08015109
VERTEX2 220 8.62272392 -20.21452494 3.04029062
VERTEX2 221 7.98409146 -20.14865803 3.09083392
VERTEX2 222 7.35892968 -20.10661486 3.06533448
VERTEX2 223 6.73316721 -20.07790546 -3.12147006
VERTEX2 224 6.11904477 -20.07932949 3.13596165
VERTEX2 225 5.50134296 -20.07444150 -3.09750213
VERTEX2 226 4.88457632 -20.06882687 3.13659873
VERTEX2 227 4.23963507 -20.13868789 -2.98986949
VERTEX2 228 3.71597961 -20.12352164 2.93184478
VERTEX2 229 3.27045658 -20.08565582 3.05238723
VERTEX2 230 2.97977016 -20.07001918 3.02363679
VERTEX2 231 3.18424620 -20.08765401 3.09375458
VERTEX2 232 2.87645808 -19.94974239 2.66789806
VERTEX2 233 2.31202024 -19.68932231 2.77022631
VERTEX2 234 1.73559818 -19.46292784 2.72608151
VERTEX2 235 1.48592577 -19.35537472 2.72110589
VERTEX2 236 1.15055870 -19.35680563 3.12656968
VERTEX2 237 0.52172349 -19.37221849 -3.08622060
VERTEX2 238 -0.09940000 -19.42121469 -3.11896065
VERTEX2 239 -0.71669779 -19.41870205 3.09658708
VERTEX2 240 -1.28713622 -19.30099513 2.87847104
VERTEX2 241 -1.82750676 -19.16979459 2.96386808
VERTEX2 242 -2.40233309 -19.10462922 3.00342168
VERTEX2 243 -3.00383136 -19.02126300 3.00275300
VERTEX2 244 -3.62881824 -18.97551179 3.07410392
VERTEX2 245 -4.24448507 -18.92665399 3.01992152
VERTEX2 246 -4.84765540 -18.84040396 2.94756591
VERTEX2 247 -5.45223751 -18.75797693 3.05352433
VERTEX2 248 -6.00714531 -18.73649696 3.08491866
VERTEX2 249 -5.95892840 -18.74374286 -3.00534877
VERTEX2 250 -5.95606906 -18.74363119 2.69090608
VERTEX2 251 -6.27887105 -18.40326679 2.26756905
VERTEX2 252 -6.63520740 -17.98306779 2.27611010
VERTEX2 253 -7.00772302 -17.53719832 2.26514727
VERTEX2 254 -7.37375661 -17.07907432 2.22398151
VERTEX2 255 -7.44696383 -16.98624356 2.30785430
VERTEX2 256 -7.44998830 -16.90907661 1.83187677
VERTEX2 257 -7.50200422 -16.44913837 1.69638643
VERTEX2 258 -7.58602332 -15.85950508 1.77688402
VERTEX2 259 -7.73027709 -15.25413600 1.81760056
VERTEX2 260 -7.86480401 -14.69305700 1.80932798
VERTEX2 261 -7.86257583 -14.65575842 1.49808425
VERTEX2 262 -7.80022020 -14.00433375 1.50487576
VERTEX2 263 -7.75884352 -13.38625746 1.51845598
VERTEX2 264 -7.74475875 -12.78137065 1.61563973
VERTEX2 265 -7.77733549 -12.17710620 1.63590389
VERTEX2 266 -7.73031689 -11.59877327 1.50684619
VERTEX2 267 -7.68004097 -10.84788938 1.47750042
VERTEX2 268 -7.54840041 -10.24323143 1.36739846
VERTEX2 269 -7.42922032 -9.62805037 1.39729946
VERTEX2 270 -7.35786112 -9.00230413 1.51132576
VERTEX2 271 -7.26337900 -8.37828158 1.40082161
VERTEX2 272 -7.17852680 -7.74968750 1.46598525
VERTEX2 273 -7.18918631 -7.11771710 1.67810903
VERTEX2 274 -7.25794952 -6.49945727 1.70211002
VERTEX2 275 -7.24659660 -5.89043365 1.53068259
VERTEX2 276 -7.24042894 -5.28232468 1.64523806
VERTEX2 277 -7.28798707 -4.71676023 1.61972228
VERTEX2 278 -7.24536650 -4.07604561 1.53108954
VERTEX2 279 -7.20610406 -3.43763829 1.47580470
VERTEX2 280 -7.13845808 -2.80449632 1.47793979
VERTEX2 281 -7.04838697 -2.16944873 1.37762297
VERTEX2 282 -6.92904624 -1.54075337 1.41762940
VERTEX2 283 -6.84277933 -0.90570340 1.40996445
VERTEX2 284 -6.73150653 -0.28102817 1.43732859
VERTEX2 285 -6.66513601 0.36991775 1.45846705
VERTEX2 286 -6.59927118 0.99310706 1.51213795
VERTEX2 287 -6.59643680 1.04578832 1.40782705
VERTEX2 288 -6.59194347 1.05387017 0.79952990
VERTEX2 289 -6.58786151 1.05594025 0.20638916
VERTEX2 290 -6.14676309 1.04781411 -0.01852497
VERTEX2 291 -5.52333462 1.04088032 -0.00465334
VERTEX2 292 -4.90647383 1.02182912 -0.05934136
VERTEX2 293 -4.28115744 0.97717968 -0.08245568
VERTEX2 294 -3.65945081 0.92544852 -0.08183117
VERTEX2 295 -3.03723520 0.84552604 -0.19440482
VERTEX2 296 -2.42041100 0.70116382 -0.23989055
VERTEX2 297 -1.80581741 0.54982940 -0.25167853
VERTEX2 298 -1.19481161 0.39549546 -0.25239917
VERTEX2 299 -0.62035943 0.23875597 -0.19129538
VERTEX2 300 -0.03357075 0.15277990 -0.14919617
VERTEX2 301 0.52866592 0.05287315 -0.20846160
VERTEX2 302 0.83036472 -0.01223934 -0.22945872
VERTEX2 303 0.81261452 -0.00867576 -0.22541204
VERTEX2 304 1.31293857 -0.12463207 -0.21596351
VERTEX2 305 1.92837223 -0.16970491 -0.03225971
VERTEX2 306 2.55736243 -0.18117762 -0.05062858
VERTEX2 307 3.19619001 -0.23007574 -0.08764132
VERTEX2 308 3.82349027 -0.29420184 -0.14354979
VERTEX2 309 4.45808517 -0.35593068 -0.05097244
VERTEX2 310 5.08532138 -0.38739539 -0.08716385
VERTEX2 311 5.36601352 -0.41403881 0.08748749
VERTEX2 312 5.36559834 -0.41419625 1.07558430
VERTEX2 313 5.37048056 -0.19517428 1.57140770
VERTEX2 314 5.35157764 0.43348692 1.61125570
VERTEX2 315 5.32361567 1.06150286 1.60699425
VERTEX2 316 5.28417734 1.70660474 1.65818038
VERTEX2 317 5.22352191 2.34836439 1.66798494
VERTEX2 318 5.12540324 2.98552909 1.76236537
VERTEX2 319 5.04609079 3.33262926 1.83356601
VERTEX2 320 5.04815771 3.33901442 2.80161841
VERTEX2 321 5.04021243 3.33560222 -2.44233586
VERTEX2 322 5.03933521 3.33379373 -1.44657549
VERTEX2 323 5.04988596 3.32361544 -0.45460371
VERTEX2 324 5.05440661 3.32213815 0.20493698
VERTEX2 325 5.05584439 3.32225127 -0.32302273
VERTEX2 326 5.07123179 3.31066983 -0.91854745
VERTEX2 327 5.07458281 3.29482981 -1.54224494
VERTEX2 328 5.05814119 2.65706064 -1.58891343
VERTEX2 329 5.03606866 2.03052441 -1.64532041
VERTEX2 330 4.98164759 1.41539475 -1.66579105
VERTEX2 331 4.92622073 0.79897447 -1.68153445
VERTEX2 332 4.84634012 0.18564428 -1.70151669
VERTEX2 333 4.82450980 0.03130666 -1.63804246
VERTEX2 334 4.83385657 0.03309799 -0.84469983
VERTEX2 335 4.85090710 0.02804224 0.14631602
VERTEX2 336 4.86377507 0.03255200 1.08748542
VERTEX2 337 4.86873488 0.06335219 2.06648685
VERTEX2 338 4.86596393 0.06527533 3.05599168
VERTEX2 339 4.87776730 0.07259789 -2.17723891
VERTEX2 340 4.87794688 0.07119754 -1.15742177
VERTEX2 341 4.99139801 0.00266501 -0.52368439
VERTEX2 342 5.56451688 -0.30240500 -0.42158755
VERTEX2 343 6.14323577 -0.50414204 -0.28995620
VERTEX2 344 6.73271133 -0.68768107 -0.29934455
VERTEX2 345 6.97148654 -0.75805531 -0.32616211
VERTEX2 346 6.95822962 -0.75371214 -0.97173129
VERTEX2 347 6.96066024 -0.84244197 -1.52888879
VERTEX2 348 6.97853240 -1.43337160 -1.54496637
VERTEX2 349 6.97627606 -2.05320484 -1.58456251
VERTEX2 350 6.96311937 -2.84162980 -1.60357852
VERTEX2 351 6.94885985 -3.11571306 -1.63192608
VERTEX2 352 6.94699185 -3.12462166 -1.91873918
VERTEX2 353 6.93525348 -3.13902298 -2.58167278
VERTEX2 354 6.92147348 -3.14297822 3.10043009
VERTEX2 355 6.90123143 -3.14227080 2.38210855
VERTEX2 356 6.89544607 -3.13205834 1.80907821
VERTEX2 357 6.89806292 -3.11638215 1.15844912
VERTEX2 358 6.89905685 -3.11499650 0.54533079
VERTEX2 359 6.88733408 -3.12002696 -0.06636011
VERTEX2 360 6.87272170 -3.11714257 -0.24142237
VERTEX2 361 6.86457737 -3.11927748 0.68126744
VERTEX2 362 6.94949980 -2.88814966 1.21706550
VERTEX2 363 7.05206172 -2.61976707 1.21144899
VERTEX2 364 6.98251842 -2.28341926 1.82820032
VERTEX2 365 6.92680251 -1.99407810 1.33289260
VERTEX2 366 7.03547818 -1.87091093 0.78071400
VERTEX2 367 7.48113461 -1.43542271 0.78355247
VERTEX2 368 7.93744531 -0.99874387 0.73563313
VERTEX2 369 7.95740864 -0.97461254 0.48383477
VERTEX2 370 7.98175115 -0.97071290 -0.10288306
VERTEX2 371 7.98774791 -0.97382016 -0.64831003
VERTEX2 372 8.41658492 -1.32223845 -0.67596526
VERTEX2 373 8.88913871 -1.68690708 -0.67396452
VERTEX2 374 9.36813940 -2.08986397 -0.73508421
VERTEX2 375 9.72785095 -2.40957541 -0.76596077
VERTEX2 376 9.73964960 -2.41678211 -0.07328413
VERTEX2 377 9.78970159 -2.38113887 0.61990309
VERTEX2 378 10.32453968 -1.98335151 0.67281431
VERTEX2 379 10.80363600 -1.55315430 0.75628630
VERTEX2 380 11.24303947 -1.08672364 0.87422291
VERTEX2 381 11.38896321 -0.90683265 1.02265168
VERTEX2 382 11.39012152 -0.90471834 2.06767830
VERTEX2 383 11.38753474 -0.90313627 3.05463469
VERTEX2 384 11.38472394 -0.90580183 -2.26472656
VERTEX2 385 11.37945592 -0.91465745 -1.23453383
VERTEX2 386 11.48357556 -1.04993572 -1.00955848
VERTEX2 387 11.93903887 -1.47167706 -0.67774858
VERTEX2 388 12.40159337 -1.82846267 -0.67087300
VERTEX2 389 12.83913653 -2.20475268 -0.75560239
VERTEX2 390 12.85128670 -2.21548049 -0.28550408
VERTEX2 391 12.66305506 -2.20736163 0.09009980
VERTEX2 392 12.60519808 -2.20805041 1.11978279
VERTEX2 393 12.60583608 -2.15133830 2.35669463
VERTEX2 394 12.54082537 -2.12460642 -2.94518103
VERTEX2 395 12.72831965 -2.02548508 -2.61246536
VERTEX2 396 12.70209949 -2.03937820 -2.61493598
VERTEX2 397 12.66029860 -2.04889369 -2.62839002
VERTEX2 398 12.64000645 -2.06583120 -2.43465964
VERTEX2 399 12.56201351 -2.17652712 -2.14021048
VERTEX2 400 12.20497774 -2.73616007 -2.09264583
VERTEX2 401 11.85806574 -3.28312610 -2.18681249
VERTEX2 402 11.37789943 -3.74348538 -2.45610087
VERTEX2 403 10.86048852 -4.15670219 -2.49151668
VERTEX2 404 10.35196911 -4.51887004 -2.57194270
VERTEX2 405 10.32983529 -4.53863973 -2.04089712
VERTEX2 406 10.32534515 -4.49866141 -1.06737905
VERTEX2 407 10.50361616 -4.75012173 -0.94092518
VERTEX2 408 10.82898909 -5.20894418 -0.98023270
VERTEX2 409 10.95962498 -5.41672961 -1.08130209
VERTEX2 410 10.95101797 -5.38185603 -1.71240512
VERTEX2 411 11.14971776 -4.87620718 -2.57320114
VERTEX2 412 10.59887425 -5.09714030 -2.77804517
VERTEX2 413 9.96248001 -5.31355300 -2.85902906
VERTEX2 414 9.31965239 -5.51853106 -2.75665793
VERTEX2 415 8.71265333 -5.75637413 -2.74913586
VERTEX2 416 8.42425212 -5.88472239 -2.80377903
VERTEX2 417 8.13025853 -5.86890167 3.05598117
VERTEX2 418 7.68989536 -5.82603178 3.01135967
VERTEX2 419 7.69078899 -5.82583318 -2.83979874
VERTEX2 420 7.74216178 -5.80294569 -2.62288696
VERTEX2 421 7.74334646 -5.80108730 -1.65321121
VERTEX2 422 7.73848105 -5.80792447 -0.41137007
VERTEX2 423 7.73961296 -5.80803392 -0.06482722
VERTEX2 424 7.73529237 -5.80809599 -0.06377137
VERTEX2 425 7.72508000 -5.81387745 -0.05134137
VERTEX2 426 7.72059593 -5.81398778 -0.05976820
VERTEX2 427 7.74865041 -5.81541311 -0.05595920
VERTEX2 428 8.40630605 -5.83572133 -0.06079612
VERTEX2 429 9.04647349 -5.88377831 -0.10090399
VERTEX2 430 9.38393888 -5.92337395 -0.14632780
VERTEX2 431 9.35735062 -5.92024128 -0.09373368
VERTEX2 432 9.36615699 -5.92332751 -0.72413593
VERTEX2 433 9.37092213 -5.92983747 -1.40004945
VERTEX2 434 9.33536887 -6.46872701 -1.62748300
VERTEX2 435 9.30454139 -7.11142194 -1.65524440
VERTEX2 436 9.22805560 -7.75151710 -1.66349159
VERTEX2 437 9.17735337 -8.40136392 -1.65500049
VERTEX2 438 9.12672412 -8.87002696 -1.68493425
VERTEX2 439 9.12498575 -8.87661672 -2.11964662
VERTEX2 440 9.13135687 -8.87159174 -2.76108471
VERTEX2 441 9.14751860 -8.86995104 2.90173390
VERTEX2 442 9.15485577 -8.87393045 2.27402370
VERTEX2 443 9.15497430 -8.87588331 1.70866908
VERTEX2 444 9.15786650 -8.86048074 1.11872011
VERTEX2 445 9.16284346 -8.85570772 0.46228275
VERTEX2 446 9.16106765 -8.85681705 0.66459082
VERTEX2 447 9.17247197 -8.83460218 1.29769004
VERTEX2 448 9.32126131 -8.21293387 1.31535425
VERTEX2 449 9.45298049 -7.57679732 1.41686127
VERTEX2 450 9.54594307 -6.94011413 1.43066385
VERTEX2 451 9.59796240 -6.46979823 1.47329963
VERTEX2 452 9.59804934 -6.46888736 1.09526019
VERTEX2 453 9.59472795 -6.47491313 0.47308750
VERTEX2 454 9.85478508 -6.45476001 0.05102663
VERTEX2 455 10.45267244 -6.42961393 0.03045653
VERTEX2 456 11.08410263 -6.42439953 -0.03413900
VERTEX2 457 11.43731912 -6.44646257 -0.12186369
VERTEX2 458 11.43209486 -6.44387376 -0.76776477
VERTEX2 459 11.42342391 -6.40891157 -1.37597912
VERTEX2 460 11.40317965 -6.80713322 -1.63298283
VERTEX2 461 11.33512238 -7.42345570 -1.72091741
VERTEX2 462 11.24821315 -7.93277408 -1.76091657
VERTEX2 463 11.25944192 -7.91072280 -0.92062595
VERTEX2 464 11.51435081 -7.98290359 -0.24249450
VERTEX2 465 12.09770278 -8.11516820 -0.23473509
VERTEX2 466 12.65082949 -8.26571946 -0.29035875
VERTEX2 467 13.22136727 -8.44683825 -0.33380340
VERTEX2 468 13.83640228 -8.66468107 -0.36911781
VERTEX2 469 14.42825547 -8.92975138 -0.45180808
VERTEX2 470 14.88261664 -9.14490710 -0.43268953
VERTEX2 471 14.89112842 -9.14950745 -0.63214991
VERTEX2 472 14.90843861 -9.17359952 -1.26399677
VERTEX2 473 14.90995621 -9.18101517 -1.90376142
VERTEX2 474 14.90822196 -9.18319551 -2.53428155
VERTEX2 475 14.91035490 -9.18290171 -3.10794921
VERTEX2 476 14.91256296 -9.18319959 2.52414972
VERTEX2 477 14.91706041 -9.19198444 1.96473153
VERTEX2 478 14.91783455 -9.20203754 1.33779251
VERTEX2 479 14.91672127 -9.20459368 0.88358317
VERTEX2 480 14.91691017 -9.20416493 1.44571231
VERTEX2 481 14.91330890 -9.18863143 2.44790423
VERTEX2 482 14.91756364 -9.19033822 2.78407649
VERTEX2 483 14.92401986 -9.19267976 2.77870421
VERTEX2 484 14.49782183 -9.03436025 2.81423442
VERTEX2 485 13.89777781 -8.84499307 2.81186025
VERTEX2 486 13.29705308 -8.63213129 2.82146064
VERTEX2 487 12.68766271 -8.45252724 2.84981351
VERTEX2 488 12.07596953 -8.27108831 2.88601134
VERTEX2 489 11.60630609 -8.16348309 2.91651654
VERTEX2 490 11.61153512 -8.16297610 -2.88138584
VERTEX2 491 11.61916705 -8.15290438 -1.94496324
VERTEX2 492 11.60254784 -8.38267637 -1.64179455
VERTEX2 493 11.54110619 -8.98661228 -1.69676395
VERTEX2 494 11.45431804 -9.59785001 -1.75760210
VERTEX2 495 11.38570486 -10.22072242 -1.65041701
VERTEX2 496 11.34245175 -10.84486277 -1.53267884
VERTEX2 497 11.33602674 -11.46249282 -1.61871979
VERTEX2 498 11.26795735 -12.08371326 -1.72052363
VERTEX2 499 11.13793525 -12.70997420 -1.73753929
VERTEX2 500 11.19627368 -13.27648837 -1.40860741
VERTEX2 501 11.27138908 -13.85528137 -1.48070825
VERTEX2 502 11.29603256 -14.55020660 -1.56519933
VERTEX2 503 11.29198489 -14.99658681 -1.58217514
VERTEX2 504 11.29726438 -14.98164643 -0.72567271
VERTEX2 505 11.53503311 -15.00862696 -0.10388899
VERTEX2 506 12.12691460 -15.09001389 -0.25644044
VERTEX2 507 12.70798682 -15.25952660 -0.33498818
VERTEX2 508 13.27699833 -15.47072141 -0.34825144
VERTEX2 509 13.89662222 -15.70376204 -0.40415910
VERTEX2 510 14.25296486 -15.86255827 -0.41806064
VERTEX2 511 14.25119444 -15.84539842 0.45730699
VERTEX2 512 14.27288840 -15.79960061 1.65466015
VERTEX2 513 14.26942579 -15.78941252 2.61016803
VERTEX2 514 14.20182532 -15.77049004 2.83645558
VERTEX2 515 13.59129269 -15.58992293 2.83757413
VERTEX2 516 13.00626175 -15.39623148 2.85348601
VERTEX2 517 12.41332366 -15.24846931 2.88169415
VERTEX2 518 11.82072684 -15.09757349 2.90605940
VERTEX2 519 11.29865109 -14.97392574 2.89037605
VERTEX2 520 11.13073528 -14.93029034 -2.99434453
VERTEX2 521 11.15289961 -14.90583697 -1.99064479
VERTEX2 522 11.08767979 -15.30192762 -1.72634365
VERTEX2 523 10.99660375 -15.92199311 -1.73367788
VERTEX2 524 10.89309457 -16.49591076 -1.77555033
VERTEX2 525 10.78948490 -17.03793593 -1.75184804
VERTEX2 526 10.67367788 -17.60666091 -1.81058560
VERTEX2 527 10.52631010 -18.18560459 -1.84533711
VERTEX2 528 10.34447213 -18.75204112 -1.92124907
VERTEX2 529 10.13321492 -19.35232413 -1.94957710
VERTEX2 530 9.88699628 -19.94989500 -1.97969350
VERTEX2 531 9.61711586 -20.52615824 -2.05948218
VERTEX2 532 9.51866658 -20.71308780 -2.00884598
VERTEX2 533 9.51616455 -20.70094982 -1.00909539
VERTEX2 534 9.51677961 -20.70134075 -0.34206715
VERTEX2 535 9.52015501 -20.70162862 -0.34242630
VERTEX2 536 9.87671813 -20.78516050 -0.21170376
VERTEX2 537 10.48322265 -20.93294067 -0.26969627
VERTEX2 538 11.04305290 -21.10154616 -0.29680787
VERTEX2 539 11.65089228 -21.30990613 -0.36157411
VERTEX2 540 12.23755628 -21.56244874 -0.45446680
VERTEX2 541 12.82456567 -21.78980947 -0.29216434
VERTEX2 542 13.45538378 -21.93106960 -0.23646350
VERTEX2 543 13.57696011 -21.96143630 -0.26613066
VERTEX2 544 13.59816630 -21.95925303 0.37087317
VERTEX2 545 13.62176073 -21.91630118 1.43705102
VERTEX2 546 13.63920705 -21.96158430 2.26407099
VERTEX2 547 13.64748379 -21.96102216 -2.99746379
VERTEX2 548 13.66106256 -21.95229453 -2.07458843
VERTEX2 549 13.66271421 -21.94099325 -1.26799370
VERTEX2 550 13.66148661 -21.92009510 -1.74779886
VERTEX2 551 13.66993735 -21.90293759 -2.37417933
VERTEX2 552 13.68829772 -21.89377753 -3.00664549
VERTEX2 553 13.55132983 -21.84154498 2.69924805
VERTEX2 554 12.95927163 -21.55802546 2.66378524
VERTEX2 555 12.38000456 -21.28359066 2.75265270
VERTEX2 556 11.77584726 -21.06573153 2.88774814
VERTEX2 557 11.17564273 -20.89542728 2.84653193
VERTEX2 558 10.59957013 -20.73892984 2.92755817
VERTEX2 559 10.60708933 -20.74145974 2.52059783
VERTEX2 560 10.59971220 -20.73341946 2.01966442
VERTEX2 561 10.57613553 -20.71057461 2.52488843
VERTEX2 562 10.39814871 -20.71073031 -3.11473041
VERTEX2 563 9.82747633 -20.63308708 2.97676034
VERTEX2 564 9.22223947 -20.54258741 3.02560148
VERTEX2 565 8.63180064 -20.47207820 2.96801587
VERTEX2 566 8.69318211 -20.49109650 -2.53162069
VERTEX2 567 8.59865587 -20.49819080 -1.73825550
VERTEX2 568 8.54815439 -21.00638109 -1.67417092
VERTEX2 569 8.49722213 -21.58190582 -1.71332386
VERTEX2 570 8.42887775 -22.16253891 -1.70857186
VERTEX2 571 8.37664975 -22.51792996 -1.75604405
VERTEX2 572 8.34282520 -22.54270212 -1.99923043
VERTEX2 573 8.30785577 -22.62216084 -1.72289348
VERTEX2 574 8.32838203 -22.65095703 -0.78344162
VERTEX2 575 8.48283216 -22.70123882 0.13761417
VERTEX2 576 8.48240742 -22.70089929 1.16529077
VERTEX2 577 8.47575043 -22.68336214 2.13740266
VERTEX2 578 8.46623205 -22.65132628 1.77324615
VERTEX2 579 8.34065677 -21.99979754 1.78828678
VERTEX2 580 8.17815690 -21.36054845 1.86345527
VERTEX2 581 7.98302524 -20.73733299 1.90586293
VERTEX2 582 7.76045543 -20.12322755 1.94903008
VERTEX2 583 7.63004103 -19.81515639 2.02843563
VERTEX2 584 7.62449653 -19.80443748 2.87239249
VERTEX2 585 7.04074923 -19.66526714 2.99084394
VERTEX2 586 6.44656918 -19.59175052 3.08856772
VERTEX2 587 5.82744074 -19.58194995 3.11413769
VERTEX2 588 5.19733502 -19.55724166 3.11876811
VERTEX2 589 4.65927573 -19.58289150 -3.08906279
VERTEX2 590 4.11033577 -19.62791382 -3.02033338
VERTEX2 591 3.57178440 -19.70773148 -3.02223559
VERTEX2 592 3.02422266 -19.78300947 -3.02497040
VERTEX2 593 2.84699905 -19.80557851 -2.81972216
VERTEX2 594 2.88915400 -19.76005700 -1.90026786
VERTEX2 595 2.77687870 -20.36724744 -1.66742868
VERTEX2 596 2.72524195 -20.99135737 -1.69055895
VERTEX2 597 2.63437154 -21.66620226 -1.73048705
VERTEX2 598 2.53230438 -22.26471081 -1.77263794
VERTEX2 599 2.44445969 -22.64212812 -1.83880997
VERTEX2 600 2.44467274 -22.65833323 -1.03222915
VERTEX2 601 2.48483948 -22.68300299 -0.01403359
VERTEX2 602 2.51973291 -22.66889836 1.00003482
VERTEX2 603 2.48496897 -22.43398696 1.77268860
VERTEX2 604 2.42390705 -21.82155332 1.52860322
VERTEX2 605 2.43226387 -21.17517012 1.61124075
VERTEX2 606 2.39132140 -20.52912964 1.65337171
VERTEX2 607 2.40188139 -19.94055596 1.57241116
VERTEX2 608 2.38845808 -19.55596073 1.61695422
VERTEX2 609 2.38491264 -19.53524205 1.95339012
VERTEX2 610 2.37701476 -19.53239411 2.88630492
VERTEX2 611 1.78144727 -19.38266461 2.88938822
VERTEX2 612 1.30878083 -19.24854472 2.89231602
VERTEX2 613 1.34418330 -19.25931916 -2.92684812
VERTEX2 614 1.35025429 -19.25471667 -1.88839758
VERTEX2 615 1.36276389 -19.74010535 -1.58366410
VERTEX2 616 1.36934370 -20.36190128 -1.63470435
VERTEX2 617 1.23133566 -20.96462961 -1.85159860
VERTEX2 618 1.06202173 -21.57015813 -1.84128537
VERTEX2 619 0.90107249 -22.14118696 -1.84246694
VERTEX2 620 0.71761660 -22.71661600 -1.93833658
VERTEX2 621 0.84634742 -22.38371150 -1.98958428
VERTEX2 622 0.96965355 -22.11987592 -2.06430697
VERTEX2 623 0.96908560 -22.12064617 -2.60080402
VERTEX2 624 0.93966259 -22.12036507 3.04044832
VERTEX2 625 0.89811973 -22.10361907 2.38259485
VERTEX2 626 0.87005020 -22.07144664 1.76520501
VERTEX2 627 0.94251354 -21.69962437 1.35483616
VERTEX2 628 1.12107934 -21.07299177 1.25405943
VERTEX2 629 1.29257139 -20.44570182 1.32512398
VERTEX2 630 1.41796622 -19.83827483 1.41011434
VERTEX2 631 1.48999678 -19.30885733 1.43016269
VERTEX2 632 1.49266464 -19.29303441 2.10590154
VERTEX2 633 1.39473960 -19.28648389 -3.09121995
VERTEX2 634 0.72751448 -19.32413375 -3.06386698
VERTEX2 635 0.07455440 -19.33563130 3.08424713
VERTEX2 636 -0.56694658 -19.30784066 3.06662721
VERTEX2 637 -1.19488750 -19.23430995 2.96729355
VERTEX2 638 -1.58643404 -19.15493379 2.93772328
VERTEX2 639 -2.19655617 -19.05289950 3.01804160
VERTEX2 640 -2.81087109 -18.94465825 2.95012519
VERTEX2 641 -3.41059931 -18.83470520 2.94177241
VERTEX2 642 -3.98600005 -18.69841922 2.89641302
VERTEX2 643 -4.46763754 -18.56250753 2.82894770
VERTEX2 644 -4.47164480 -18.56340643 -2.69747840
VERTEX2 645 -4.50799556 -18.70468630 -1.92001172
VERTEX2 646 -4.64450988 -19.31406242 -1.62464257
VERTEX2 647 -4.60044227 -19.95623379 -1.33579191
VERTEX2 648 -4.37698598 -20.58079851 -1.16950630
VERTEX2 649 -4.20287118 -21.17906978 -1.50709943
VERTEX2 650 -4.30297753 -21.80752443 -1.76445450
VERTEX2 651 -4.32032486 -21.95297925 -0.96503310
VERTEX2 652 -4.25767206 -21.98109496 0.05994662
VERTEX2 653 -4.21178267 -21.93981296 1.09039571
VERTEX2 654 -4.22102859 -21.64352477 1.60357417
VERTEX2 655 -4.23185302 -21.09050054 1.59857134
VERTEX2 656 -4.23148446 -20.48877293 1.58594243
VERTEX2 657 -4.33878807 -19.87766701 1.86258048
VERTEX2 658 -4.52960515 -19.26120385 1.85541215
VERTEX2 659 -4.64476531 -18.76824029 1.78425173
VERTEX2 660 -4.64780338 -18.75313137 2.38436027
VERTEX2 661 -4.82601959 -18.73363646 3.03779644
VERTEX2 662 -5.41927567 -18.67476683 3.10739875
VERTEX2 663 -6.00629462 -18.68965087 -3.07476017
VERTEX2 664 -6.01418386 -18.68762764 -2.55154461
VERTEX2 665 -6.03009531 -18.78900348 -1.71787616
VERTEX2 666 -6.10135335 -19.39728480 -1.68074184
VERTEX2 667 -6.15801024 -19.96340603 -1.67612535
VERTEX2 668 -6.22105146 -20.55698400 -1.65034876
VERTEX2 669 -6.26902863 -21.18230168 -1.67548445
VERTEX2 670 -6.36797224 -21.79985801 -1.73496743
VERTEX2 671 -6.41527315 -22.09230463 -1.67999017
VERTEX2 672 -6.31396233 -21.51142485 -1.76910950
VERTEX2 673 -6.24799585 -21.24466977 -1.89967045
VERTEX2 674 -6.23514672 -21.23108708 -2.54783123
VERTEX2 675 -6.21176060 -21.22612058 3.12671737
VERTEX2 676 -6.20570703 -21.22965830 2.50336176
VERTEX2 677 -6.20111957 -21.23598342 1.88750333
VERTEX2 678 -6.17323012 -21.01383011 1.44154885
VERTEX2 679 -6.10954388 -20.43475443 1.50412022
VERTEX2 680 -6.13739746 -19.98648823 1.84898828
VERTEX2 681 -6.28989817 -19.39518547 1.82147217
VERTEX2 682 -6.46251728 -18.78937181 1.86914447
VERTEX2 683 -6.55495781 -18.50716192 2.02829983
VERTEX2 684 -6.50211352 -18.56095625 3.10842043
VERTEX2 685 -6.90546656 -18.72227711 -2.73092316
VERTEX2 686 -7.35213762 -18.85960409 -2.87505820
VERTEX2 687 -7.94603312 -19.01170517 -2.90997462
VERTEX2 688 -8.54327455 -19.13286404 -2.92165787
VERTEX2 689 -9.10685362 -19.27288940 -2.89390201
VERTEX2 690 -9.64193327 -19.44287916 -2.81963168
VERTEX2 691 -10.03625167 -19.57504145 -2.84757214
VERTEX2 692 -10.02101605 -19.56823164 -2.31318942
VERTEX2 693 -9.99813909 -19.63978213 -1.27253442
VERTEX2 694 -9.97407856 -19.71104693 -0.43687327
VERTEX2 695 -9.95456638 -19.70544147 0.36331127
VERTEX2 696 -9.94736971 -19.70069631 1.38902439
VERTEX2 697 -9.95912538 -19.73972283 1.13592369
VERTEX2 698 -9.63048740 -19.53040651 0.48093328
VERTEX2 699 -9.06875902 -19.21618864 0.59487028
VERTEX2 700 -8.55714237 -18.85337975 0.64830837
VERTEX2 701 -8.12490321 -18.49001779 0.70738215
VERTEX2 702 -7.64730280 -18.17412520 0.59211383
VERTEX2 703 -7.13659923 -17.83690995 0.62627199
VERTEX2 704 -6.64459693 -17.45416925 0.64435522
VERTEX2 705 -6.13444027 -17.03255680 0.71459752
VERTEX2 706 -5.70488418 -16.71387690 0.44560451
VERTEX2 707 -5.67955205 -16.71247649 -0.07465729
VERTEX2 708 -5.66956423 -16.71822923 -0.71316067
VERTEX2 709 -5.70943282 -16.67541981 -1.04525473
VERTEX2 710 -5.71381501 -16.66414480 -1.60639045
VERTEX2 711 -5.70431907 -16.67269688 -2.20314391
VERTEX2 712 -5.68408854 -16.65715069 -2.76360187
VERTEX2 713 -6.15694963 -16.70817623 -3.04896309
VERTEX2 714 -6.71022911 -16.68374594 3.03669205
VERTEX2 715 -7.33684220 -16.64753716 3.14026845
VERTEX2 716 -7.97087139 -16.62624312 3.00220416
VERTEX2 717 -8.59200461 -16.55904581 3.08693231
VERTEX2 718 -9.35401703 -16.44121270 2.91152476
VERTEX2 719 -9.97073688 -16.32652734 2.98596880
VERTEX2 720 -10.58330145 -16.21472263 2.92674424
VERTEX2 721 -11.20079458 -16.09946751 2.99494333
VERTEX2 722 -11.21702634 -16.09717005 3.06162362
VERTEX2 723 -11.23718746 -16.11800073 -2.13170139
VERTEX2 724 -11.23726756 -16.16148693 -1.06291202
VERTEX2 725 -11.20989187 -16.17986633 -0.42860637
VERTEX2 726 -10.88403980 -16.17583319 0.02555120
VERTEX2 727 -10.24618941 -16.13763368 0.05627789
VERTEX2 728 -9.60557926 -16.11371905 0.05764969
VERTEX2 729 -8.96746131 -16.05350445 0.11527390
VERTEX2 730 -8.34390829 -15.96145535 0.15276154
VERTEX2 731 -7.69231442 -15.86093899 0.16479959
VERTEX2 732 -7.54696081 -15.83172751 0.61103219
VERTEX2 733 -7.54468154 -15.83545171 1.60692218
VERTEX2 734 -7.60274544 -15.27954575 1.68485001
VERTEX2 735 -7.66283753 -14.67726815 1.65266319
VERTEX2 736 -7.66356948 -14.66619582 2.25182805
VERTEX2 737 -7.65339784 -14.66753982 3.05209874
VERTEX2 738 -8.22821711 -14.62632758 3.07101329
VERTEX2 739 -8.82702679 -14.53087027 3.01322612
VERTEX2 740 -9.33326447 -14.48941768 3.07662074
VERTEX2 741 -9.31660951 -14.48926449 2.70798514
VERTEX2 742 -9.31884242 -14.48771825 2.05551565
VERTEX2 743 -9.32074349 -14.47925980 1.43900806
VERTEX2 744 -9.31165188 -14.45849190 0.89991935
VERTEX2 745 -9.29443915 -14.44950190 0.30672804
VERTEX2 746 -8.75471935 -14.46785483 -0.16788440
VERTEX2 747 -8.11219581 -14.58193846 -0.20300113
VERTEX2 748 -7.53786364 -14.72379519 -0.27117582
VERTEX2 749 -7.45718652 -14.74386701 0.15831884
VERTEX2 750 -7.44784915 -14.72661253 1.08593597
VERTEX2 751 -7.48293013 -14.45301918 1.72658412
VERTEX2 752 -7.54273575 -13.82660873 1.62339346
VERTEX2 753 -7.58246841 -13.18466874 1.68671186
VERTEX2 754 -7.59217653 -12.54099726 1.52471259
VERTEX2 755 -7.57566024 -11.90788376 1.61121278
VERTEX2 756 -7.54051733 -11.27217352 1.43488121
VERTEX2 757 -7.46816328 -10.62690893 1.54681906
VERTEX2 758 -7.49080937 -10.04766168 1.68908593
VERTEX2 759 -7.48241487 -9.50018347 1.56918156
VERTEX2 760 -7.52382148 -8.89180172 1.68087036
VERTEX2 761 -7.52711794 -8.84862187 1.86127913
VERTEX2 762 -7.60323429 -8.81498877 2.69610684
VERTEX2 763 -8.17784776 -8.71465203 2.98895721
VERTEX2 764 -8.59815795 -8.64498608 2.96143293
VERTEX2 765 -8.58731688 -8.64473017 -2.68228513
VERTEX2 766 -8.58881958 -8.64968730 -1.68190698
VERTEX2 767 -8.58395197 -8.66184418 -0.75099649
VERTEX2 768 -8.55676442 -8.66337912 -0.02859280
VERTEX2 769 -7.92116817 -8.57099184 0.12831982
VERTEX2 770 -7.26849942 -8.50837132 0.06119548
VERTEX2 771 -7.17971733 -8.50051161 0.62168208
VERTEX2 772 -7.17639549 -8.48978550 1.48923227
VERTEX2 773 -7.15522373 -7.91080550 1.57504855
VERTEX2 774 -7.17013047 -7.36347714 1.59716146
VERTEX2 775 -7.16935918 -7.36674077 2.44210243
VERTEX2 776 -7.37885416 -7.34218104 3.05954489
VERTEX2 777 -7.99237189 -7.30288632 3.11860419
VERTEX2 778 -8.60515407 -7.29475968 3.09768266
VERTEX2 779 -9.22119351 -7.27575895 3.11580136
VERTEX2 780 -9.42958162 -7.25852288 2.98558936
VERTEX2 781 -9.42654343 -7.25959436 2.41219782
VERTEX2 782 -9.55463623 -6.98781594 1.98265561
VERTEX2 783 -9.79104929 -6.41498876 1.98206548
VERTEX2 784 -9.89092244 -6.18828269 1.96075150
VERTEX2 785 -9.89187682 -6.16339599 1.40880354
VERTEX2 786 -9.88414638 -6.13774517 0.82049843
VERTEX2 787 -9.86712553 -6.12023994 0.32984649
VERTEX2 788 -9.84048440 -6.12199178 -0.29927226
VERTEX2 789 -9.83004501 -6.13015000 -0.85123350
VERTEX2 790 -9.52290985 -6.52465165 -0.91839360
VERTEX2 791 -9.11728395 -7.00567295 -0.81971958
VERTEX2 792 -8.87749392 -7.21849278 -0.11516701
VERTEX2 793 -8.26182221 -7.26991862 -0.07038948
VERTEX2 794 -7.62180821 -7.29797336 0.00084751
VERTEX2 795 -7.64596955 -7.31578517 0.43029117
VERTEX2 796 -7.65259024 -7.31846093 1.08973859
VERTEX2 797 -7.57861102 -7.00896505 1.34994034
VERTEX2 798 -7.44428595 -6.38235785 1.40010810
VERTEX2 799 -7.35804255 -5.73787025 1.46586315
VERTEX2 800 -7.30479545 -5.09139783 1.53879839
VERTEX2 801 -7.31625984 -4.45966249 1.62474540
VERTEX2 802 -7.37058949 -3.83465304 1.68247125
VERTEX2 803 -7.35370311 -3.20609313 1.51783383
VERTEX2 804 -7.33390052 -2.57878702 1.57376459
VERTEX2 805 -7.36751727 -1.94854874 1.65008324
VERTEX2 806 -7.42784714 -1.35044498 1.69153118
VERTEX2 807 -7.45532071 -1.16577043 1.97963246
VERTEX2 808 -7.46004145 -1.16568119 2.92792943
VERTEX2 809 -8.05161839 -1.13707065 3.07260473
VERTEX2 810 -8.66901183 -1.01412451 2.93245429
VERTEX2 811 -9.26798579 -0.90287445 2.92917568
VERTEX2 812 -9.27028343 -0.90242951 -2.62223587
VERTEX2 813 -9.27991863 -0.92396536 -1.64693328
VERTEX2 814 -9.27371926 -0.92886368 -0.65471365
VERTEX2 815 -9.24947385 -0.93701488 0.26454529
VERTEX2 816 -9.24058054 -0.93214190 0.94569031
VERTEX2 817 -9.22912938 -0.92492535 0.27691715
VERTEX2 818 -9.00686367 -0.95866817 -0.21197902
VERTEX2 819 -8.41581243 -1.08597453 -0.19785756
VERTEX2 820 -7.82233149 -1.21736780 -0.23908979
VERTEX2 821 -7.27634138 -1.34785733 -0.22329343
VERTEX2 822 -7.22671979 -1.35536697 0.53810824
VERTEX2 823 -7.22529470 -1.34022076 1.45724937
VERTEX2 824 -7.16159738 -0.71770824 1.37791977
VERTEX2 825 -7.01767788 -0.09364750 1.34826387
VERTEX2 826 -6.96066760 0.53879905 1.51122878
VERTEX2 827 -6.89683241 1.16299596 1.46260364
VERTEX2 828 -6.84273226 1.79458159 1.49816498
VERTEX2 829 -6.78231811 2.39848850 1.45843454
VERTEX2 830 -6.70796118 3.00773030 1.45012810
VERTEX2 831 -6.61434175 3.58532631 1.40334699
VERTEX2 832 -6.52465433 4.14860082 1.39979294
VERTEX2 833 -6.48086891 4.40417091 1.53746325
VERTEX2 834 -6.48285877 4.41119943 2.59216949
VERTEX2 835 -6.49591946 4.41269080 -2.91331454
VERTEX2 836 -6.50801896 4.40245161 -1.97021035
VERTEX2 837 -6.50462168 4.38400342 -0.93380341
VERTEX2 838 -6.49301385 4.37678650 -0.07157125
VERTEX2 839 -6.49258268 4.37658191 -0.28982446
VERTEX2 840 -6.48167847 4.36805177 -0.85245263
VERTEX2 841 -6.47408395 4.35282036 -1.46951670
VERTEX2 842 -6.50004381 4.10696734 -1.70033598
VERTEX2 843 -6.57783294 3.54309429 -1.70286557
VERTEX2 844 -6.65258307 2.91723907 -1.71089105
VERTEX2 845 -6.74587621 2.29188564 -1.72562281
VERTEX2 846 -6.83127149 1.66231827 -1.72390606
VERTEX2 847 -6.94058217 1.04056423 -1.75066857
VERTEX2 848 -6.97117062 0.84513942 -1.27027067
VERTEX2 849 -6.97046197 0.84489075 -0.34815590
VERTEX2 850 -6.61526899 0.84174573 0.00520603
VERTEX2 851 -5.98799938 0.81635265 -0.08731657
VERTEX2 852 -5.36358259 0.75577241 -0.07292021
VERTEX2 853 -4.76874071 0.71386692 -0.10085879
VERTEX2 854 -4.18151304 0.64665797 -0.09886820
VERTEX2 855 -3.58662347 0.59634393 -0.10067843
VERTEX2 856 -2.93302659 0.51135659 -0.14136136
VERTEX2 857 -2.28060119 0.42268529 -0.15090355
VERTEX2 858 -1.63458004 0.30158358 -0.20541490
VERTEX2 859 -1.11644590 0.19851835 -0.21227257
VERTEX2 860 -1.09032422 0.20931333 0.63852506
VERTEX2 861 -1.07486912 0.31928091 1.55332603
VERTEX2 862 -1.03725409 0.97912206 1.49370286
VERTEX2 863 -0.98055283 1.62354703 1.46121890
VERTEX2 864 -0.89416112 2.23393961 1.45910367
VERTEX2 865 -0.85349388 2.84551434 1.51672902
VERTEX2 866 -0.80934630 3.43156971 1.51560826
VERTEX2 867 -0.80201001 3.59568088 1.69682112
VERTEX2 868 -0.80937676 3.60497924 2.72062834
VERTEX2 869 -0.79877203 3.60513723 -2.58419717
VERTEX2 870 -0.77902778 3.61577524 -1.58472552
VERTEX2 871 -0.76430914 3.60581973 -0.61100362
VERTEX2 872 -0.74589082 3.59254629 0.07427206
VERTEX2 873 -0.71855611 3.58346674 -0.49828930
VERTEX2 874 -0.69729777 3.56429601 -1.05788749
VERTEX2 875 -0.69096502 3.54943278 -1.64439238
VERTEX2 876 -0.81042695 2.99337668 -1.80195512
VERTEX2 877 -0.96217104 2.45138415 -1.88660719
VERTEX2 878 -1.01253805 2.25173742 -1.50364317
VERTEX2 879 -0.91093686 1.61335945 -1.45261364
VERTEX2 880 -0.87506872 1.16438099 -1.56530298
VERTEX2 881 -0.87548014 1.21429096 -1.55996014
VERTEX2 882 -0.93156542 0.57481395 -1.80648394
VERTEX2 883 -1.14686628 -0.02036612 -1.99721009
VERTEX2 884 -1.30513600 -0.35246862 -2.06417948
VERTEX2 885 -1.30511343 -0.35239569 -1.48263098
VERTEX2 886 -1.28801245 -0.36840143 -0.46469109
VERTEX2 887 -1.25951173 -0.37947052 0.54656052
VERTEX2 888 -1.24945739 -0.35829164 1.53059968
VERTEX2 889 -1.25103619 -0.35377034 2.42859814
VERTEX2 890 -1.56668693 -0.20137010 2.70251476
VERTEX2 891 -2.10414067 0.06507816 2.63219885
VERTEX2 892 -2.63797813 0.38407554 2.59663932
VERTEX2 893 -3.19107998 0.67951918 2.83293369
VERTEX2 894 -3.80420187 0.79044140 3.05399950
VERTEX2 895 -4.40376272 0.74129778 -2.93090724
VERTEX2 896 -4.42279422 0.73674235 -2.45237388
VERTEX2 897 -4.70719243 0.31540888 -2.18006893
VERTEX2 898 -5.05908328 -0.19529542 -2.16444252
VERTEX2 899 -5.34606258 -0.60638697 -2.23207158
VERTEX2 900 -5.75982166 -1.15173898 -2.23438351
VERTEX2 901 -6.13190314 -1.59699144 -2.29869037
VERTEX2 902 -6.54850723 -2.08947048 -2.27341163
VERTEX2 903 -6.86511713 -2.46934439 -2.31814624
VERTEX2 904 -6.86615917 -2.47082732 -1.61505829
VERTEX2 905 -6.85239574 -2.96745307 -1.55957016
VERTEX2 906 -6.81878011 -3.53654281 -1.49381214
VERTEX2 907 -6.76292658 -4.10872202 -1.50195535
VERTEX2 908 -6.71677426 -4.73083624 -1.47715586
VERTEX2 909 -6.65636696 -5.34312302 -1.49505826
VERTEX2 910 -6.68405036 -5.47222142 -1.86491617
VERTEX2 911 -6.84411074 -6.04276225 -1.80402609
VERTEX2 912 -6.96515467 -6.60651124 -1.79140268
VERTEX2 913 -7.07727534 -7.14825270 -1.78346766
VERTEX2 914 -7.20331602 -7.73618786 -1.80712676
VERTEX2 915 -7.32682151 -8.24502835 -1.84384517
VERTEX2 916 -7.26215592 -8.49024344 -1.29631363
VERTEX2 917 -7.12277748 -9.14017203 -1.55073850
VERTEX2 918 -7.14285002 -9.65862195 -1.62628301
VERTEX2 919 -7.17632045 -10.28286301 -1.66961631
VERTEX2 920 -7.24071550 -10.89735489 -1.68722345
VERTEX2 921 -7.31395536 -11.51303565 -1.74059514
VERTEX2 922 -7.41642248 -12.11709954 -1.76784022
VERTEX2 923 -7.53653900 -12.68372279 -1.83134580
VERTEX2 924 -7.66837367 -13.17680410 -1.81470546
VERTEX2 925 -7.66915612 -13.17288859 -1.30996711
VERTEX2 926 -7.50882109 -13.73578487 -1.29377095
VERTEX2 927 -7.34165782 -14.32726605 -1.31708971
VERTEX2 928 -7.18359000 -14.93416514 -1.32603922
VERTEX2 929 -7.03207051 -15.53821955 -1.32696110
VERTEX2 930 -6.88446169 -16.16915435 -1.40957306
VERTEX2 931 -6.79794103 -16.79545394 -1.48983318
VERTEX2 932 -6.75154943 -17.42246544 -1.54930049
VERTEX2 933 -6.74789771 -18.03488997 -1.61392180
VERTEX2 934 -6.76234552 -18.51535282 -1.62376489
VERTEX2 935 -6.75961590 -18.52798360 -0.94161341
VERTEX2 936 -6.75762532 -18.52868200 0.00355232
VERTEX2 937 -6.21519264 -18.50343714 0.06643119
VERTEX2 938 -5.61877918 -18.51942943 -0.10697346
VERTEX2 939 -4.99451233 -18.57923195 -0.07925755
VERTEX2 940 -4.38222881 -18.65441192 -0.16508834
VERTEX2 941 -3.77714908 -18.76995267 -0.21871552
VERTEX2 942 -3.25823273 -18.88571872 -0.21419834
VERTEX2 943 -2.64884549 -19.01958634 -0.12584809
VERTEX2 944 -2.03541001 -19.10264185 -0.18248671
VERTEX2 945 -1.41337749 -19.23164734 -0.23759421
VERTEX2 946 -1.23801595 -19.27638637 -0.17325399
VERTEX2 947 -0.82820928 -19.21338687 0.15499621
VERTEX2 948 -0.25442639 -19.12421718 0.13585910
VERTEX2 949 0.34969522 -19.08996669 -0.01980014
VERTEX2 950 0.98104532 -19.12657451 -0.25932260
VERTEX2 951 1.58421101 -19.30009430 -0.33147746
VERTEX2 952 2.18709307 -19.47662601 -0.08070752
VERTEX2 953 2.81788685 -19.50869674 -0.00044048
VERTEX2 954 3.44300845 -19.50179625 -0.00744695
VERTEX2 955 4.03307710 -19.54783108 -0.16827916
VERTEX2 956 4.58438092 -19.62676742 -0.17058010
VERTEX2 957 5.11641422 -19.72346753 -0.25828382
VERTEX2 958 5.58366077 -19.83624606 -0.28502428
VERTEX2 959 6.01585796 -19.95518767 -0.35213179
VERTEX2 960 6.60514636 -20.11832238 -0.27219985
VERTEX2 961 7.18678840 -20.29272914 -0.29919487
VERTEX2 962 7.80411248 -20.42138174 -0.23352837
VERTEX2 963 8.42144748 -20.50221792 -0.04677211
VERTEX2 964 9.04321187 -20.54367626 -0.11060308
VERTEX2 965 9.66078816 -20.62260539 -0.11743318
VERTEX2 966 10.10341900 -20.68077401 -0.17617437
VERTEX2 967 10.13428749 -20.67446361 0.67797665
VERTEX2 968 10.14453057 -20.66475427 1.57412607
VERTEX2 969 10.14703715 -20.69350091 1.63341301
VERTEX2 970 10.14976973 -20.72235511 1.63151984
VERTEX2 971 10.12885218 -20.39004840 1.63149759
VERTEX2 972 10.08947887 -19.80449757 1.63696558
VERTEX2 973 10.16827118 -19.22228388 1.35172318
VERTEX2 974 10.30698264 -18.61999199 1.38337786
VERTEX2 975 10.41784013 -18.01385170 1.38783128
VERTEX2 976 10.52201532 -17.40512901 1.40058313
VERTEX2 977 10.65679063 -16.78726399 1.37423478
VERTEX2 978 10.77685315 -16.17565056 1.42013298
VERTEX2 979 10.89077731 -15.56790194 1.40778687
VERTEX2 980 10.98768936 -14.96333236 1.45463244
VERTEX2 981 11.07555114 -14.36934105 1.46146847
VERTEX2 982 11.13105714 -13.84205360 1.50635949
VERTEX2 983 11.17949882 -13.24356565 1.50293291
VERTEX2 984 11.20558564 -12.64758081 1.56025029
VERTEX2 985 11.21535769 -12.05068234 1.58048428
VERTEX2 986 11.19930412 -11.43023321 1.61676926
VERTEX2 987 11.18556310 -10.81126200 1.58002401
VERTEX2 988 11.18726810 -10.19259622 1.59368253
VERTEX2 989 11.17167197 -9.57860924 1.60124350
VERTEX2 990 11.16397215 -8.96792845 1.59038158
VERTEX2 991 11.14788202 -8.35371447 1.61512978
VERTEX2 992 11.14209743 -7.76742394 1.58246493
VERTEX2 993 11.12772188 -7.15166244 1.61514458
VERTEX2 994 11.11080449 -6.56663611 1.60513145
VERTEX2 995 11.07790753 -5.96562308 1.65229049
VERTEX2 996 11.01769719 -5.35551514 1.67946711
VERTEX2 997 10.97232537 -4.70690191 1.61509110
VERTEX2 998 10.95226201 -4.30062961 1.63698105
VERTEX2 999 10.97652853 -4.32025754 2.35491281
VERTEX2 1000 10.51028593 -3.95773997 2.50359299
VERTEX2 1001 10.06773922 -3.55495048 2.18267935
VERTEX2 1002 9.69857044 -3.08087877 2.27536777
VERTEX2 1003 9.34672440 -2.57959864 2.09577878
VERTEX2 1004 9.00812866 -2.04356816 2.15399619
VERTEX2 1005 8.65483213 -1.54992655 2.21641049
VERTEX2 1006 8.25941997 -1.07250456 2.29377257
VERTEX2 1007 7.84713128 -0.64706449 2.38542101
VERTEX2 1008 7.61188638 -0.43272469 2.54493203
VERTEX2 1009 7.51443320 -0.41799984 3.01792351
VERTEX2 1010 6.94741255 -0.36231325 3.07045171
VERTEX2 1011 6.33124861 -0.32319251 3.02737405
VERTEX2 1012 5.72131475 -0.26007606 3.06930498
VERTEX2 1013 5.08474238 -0.26277451 -3.09888975
VERTEX2 1014 4.47134996 -0.21480780 3.00902790
VERTEX2 1015 3.84592861 -0.17548130 3.09351892
VERTEX2 1016 3.07588913 -0.13789980 3.10026667
VERTEX2 1017 2.49045284 -0.12446854 3.04310041
VERTEX2 1018 1.93259001 -0.06256818 3.05038550
VERTEX2 1019 1.33762019 -0.03800075 3.10992213
VERTEX2 1020 0.72240997 -0.00193189 3.09596264
VERTEX2 1021 0.10130177 0.02727541 3.05534988
VERTEX2 1022 0.04776740 0.03170971 3.04811218
VERTEX2 1023 0.05464056 0.03157679 3.13469201
VERTEX2 1024 -0.57233403 0.03944943 -3.12217412
VERTEX2 1025 -1.20147548 0.00905102 -3.10461553
VERTEX2 1026 -1.36292355 0.00358264 -3.09745436
VERTEX2 1027 -1.34693802 0.01141038 -2.18097630
VERTEX2 1028 -1.36011118 -0.15473167 -1.61754797
VERTEX2 1029 -1.38901115 -0.72067347 -1.63912023
VERTEX2 1030 -1.45285538 -1.34164041 -1.71958865
VERTEX2 1031 -1.56588446 -1.98663150 -1.77378236
VERTEX2 1032 -1.69685193 -2.63166141 -1.76977459
VERTEX2 1033 -1.84085154 -3.27546279 -1.81495795
VERTEX2 1034 -1.88556806 -3.44596202 -2.02877929
VERTEX2 1035 -1.89070707 -3.45029009 -2.64815755
VERTEX2 1036 -1.85969369 -3.46462466 3.06416271
VERTEX2 1037 -2.19947080 -3.33501153 2.82573007
VERTEX2 1038 -2.81066828 -3.21243189 2.91691100
VERTEX2 1039 -3.44883211 -3.04247868 2.88535422
VERTEX2 1040 -3.42300251 -3.04311707 -2.76783300
VERTEX2 1041 -3.39388978 -3.04696927 -1.75103333
VERTEX2 1042 -3.39571006 -3.07967120 -0.76324043
VERTEX2 1043 -3.36209060 -3.11068479 0.20619998
VERTEX2 1044 -3.37553457 -3.12652794 1.19987070
VERTEX2 1045 -3.37856771 -3.13319300 1.08580667
VERTEX2 1046 -3.38895988 -3.14714314 0.70021406
VERTEX2 1047 -3.40767061 -3.15527087 0.14436920
VERTEX2 1048 -3.04500169 -3.22488127 -0.16867611
VERTEX2 1049 -2.39940675 -3.32394790 -0.15154858
VERTEX2 1050 -1.75203794 -3.39526293 -0.07590242
VERTEX2 1051 -1.09612927 -3.46956131 -0.15504953
VERTEX2 1052 -0.47179678 -3.55136987 -0.10209881
VERTEX2 1053 -0.05401055 -3.60636096 -0.15472961
VERTEX2 1054 -0.02703816 -3.60924234 0.60742871
VERTEX2 1055 -0.02074610 -3.57989670 1.66255459
VERTEX2 1056 -0.01167959 -3.59323959 2.66617879
VERTEX2 1057 0.01391425 -3.59613195 -2.62617624
VERTEX2 1058 0.01209789 -3.59825825 -1.70401316
VERTEX2 1059 -0.08722637 -4.18068815 -1.78476484
VERTEX2 1060 -0.22545065 -4.81034088 -1.77976453
VERTEX2 1061 -0.33386523 -5.25621500 -1.90230072
VERTEX2 1062 -0.33737711 -5.26159761 -2.46651546
VERTEX2 1063 -0.31610145 -5.24950858 -3.06422932
VERTEX2 1064 -0.59615313 -5.19598098 2.95371485
VERTEX2 1065 -1.18337717 -5.12714003 3.07569219
VERTEX2 1066 -1.74612527 -5.07303755 3.01959181
VERTEX2 1067 -1.73142466 -5.07231704 -2.83090334
VERTEX2 1068 -1.71889226 -5.06357217 -2.15808271
VERTEX2 1069 -1.71830804 -5.06201375 -1.98769199
VERTEX2 1070 -1.71686776 -5.05950200 -2.52662496
VERTEX2 1071 -2.18942217 -5.31419900 -2.65382927
VERTEX2 1072 -2.64010355 -5.54549129 -2.72248252
VERTEX2 1073 -2.61076511 -5.54482103 3.04957435
VERTEX2 1074 -3.14021917 -5.47154820 3.01521963
VERTEX2 1075 -3.71731223 -5.39376689 3.03179025
VERTEX2 1076 -3.73591042 -5.39236473 -2.84718799
VERTEX2 1077 -3.74943178 -5.41773486 -2.04141460
VERTEX2 1078 -3.98967277 -6.02780715 -1.99626748
VERTEX2 1079 -4.22416689 -6.59484184 -1.93415492
VERTEX2 1080 -4.22929232 -6.60845406 -2.42176799
VERTEX2 1081 -4.65790592 -6.89993247 -2.54502683
VERTEX2 1082 -4.82858295 -7.01846759 -2.26442610
VERTEX2 1083 -4.82412366 -7.05316676 -1.23421145
VERTEX2 1084 -4.75291260 -7.09000824 -0.26881695
VERTEX2 1085 -4.75850097 -7.09147734 0.71448685
VERTEX2 1086 -4.39689199 -6.60286416 0.94505420
VERTEX2 1087 -4.01588799 -6.09652178 0.93302292
VERTEX2 1088 -3.65347638 -5.58580484 0.91630310
VERTEX2 1089 -3.59742193 -5.51386008 0.82085600
VERTEX2 1090 -3.58715093 -5.50453930 0.20582290
VERTEX2 1091 -3.05029513 -5.47447475 0.02896947
VERTEX2 1092 -2.43220223 -5.46152904 0.01384328
VERTEX2 1093 -1.86420158 -5.46665795 -0.05121650
VERTEX2 1094 -1.85189442 -5.47846823 -0.45539936
VERTEX2 1095 -1.82195333 -5.50522538 -1.04525922
VERTEX2 1096 -1.82223918 -5.50403185 -1.61661333
VERTEX2 1097 -1.90646095 -5.82694409 -1.83213763
VERTEX2 1098 -2.08576563 -6.42098045 -1.88904916
VERTEX2 1099 -2.29218635 -6.97148414 -1.98537933
VERTEX2 1100 -2.29416777 -6.97636401 -1.62269334
VERTEX2 1101 -2.23832314 -7.23450868 -1.35716092
VERTEX2 1102 -2.23916639 -7.24385592 -1.75055942
VERTEX2 1103 -2.37068415 -7.85286025 -1.78419027
VERTEX2 1104 -2.51310876 -8.48810163 -1.81173811
VERTEX2 1105 -2.67263561 -9.10924206 -1.82948810
VERTEX2 1106 -2.80186085 -9.58544355 -1.85457363
VERTEX2 1107 -2.80114034 -9.59438982 -1.59823328
VERTEX2 1108 -2.77464817 -10.22169773 -1.59025193
VERTEX2 1109 -2.83294013 -10.86586251 -1.69401120
VERTEX2 1110 -2.91304932 -11.47355929 -1.74337254
VERTEX2 1111 -3.08771859 -12.00150087 -1.84447614
VERTEX2 1112 -3.12695900 -12.58116640 -1.49779215
VERTEX2 1113 -3.09661019 -13.22142946 -1.59299573
VERTEX2 1114 -3.10950869 -13.83888812 -1.57581538
VERTEX2 1115 -3.10939691 -14.42307893 -1.59185953
VERTEX2 1116 -3.10040441 -15.07248200 -1.55545623
VERTEX2 1117 -3.09799379 -15.17104095 -1.68304918
VERTEX2 1118 -3.09670754 -15.16866070 -2.28989102
VERTEX2 1119 -3.08716664 -15.16211892 -2.72125036
VERTEX2 1120 -3.64982676 -15.36520312 -2.78471752
VERTEX2 1121 -3.83854703 -15.43099340 -2.90312802
VERTEX2 1122 -3.83259848 -15.43305326 2.83006916
VERTEX2 1123 -4.37990788 -15.24758975 2.84713897
VERTEX2 1124 -4.93530683 -15.11818978 2.94604905
VERTEX2 1125 -5.55860365 -14.99199467 2.95969147
VERTEX2 1126 -5.63694407 -14.97924275 -2.98352174
VERTEX2 1127 -5.63127818 -14.98530063 -1.92575784
VERTEX2 1128 -5.63042430 -14.98119331 -0.93793968
VERTEX2 1129 -5.61152197 -14.99178054 0.07814261
VERTEX2 1130 -5.02103405 -14.92741819 0.09201208
VERTEX2 1131 -4.24566052 -15.05351254 -0.33942314
VERTEX2 1132 -3.63349950 -15.27213785 -0.35888732
VERTEX2 1133 -3.08522161 -15.50138412 -0.39735004
VERTEX2 1134 -2.83067655 -15.60850204 -0.49409398
VERTEX2 1135 -2.81854852 -15.62042003 -1.04960803
VERTEX2 1136 -2.81835450 -15.61999553 -1.61104284
VERTEX2 1137 -2.87266978 -15.92330833 -1.79475091
VERTEX2 1138 -3.02780593 -16.55706183 -1.81078368
VERTEX2 1139 -3.14734215 -17.05280459 -1.88378369
VERTEX2 1140 -3.13765759 -17.02964642 -2.36231125
VERTEX2 1141 -3.11641117 -17.00902855 -2.90921315
VERTEX2 1142 -3.47929019 -16.96523156 3.01001544
VERTEX2 1143 -4.07720940 -16.91782442 3.09963031
VERTEX2 1144 -4.65807077 -16.88286271 3.06920785
VERTEX2 1145 -5.23647492 -16.83668625 3.04393241
VERTEX2 1146 -5.81248719 -16.77889021 3.06386271
VERTEX2 1147 -6.39198690 -16.76826998 3.13677698
VERTEX2 1148 -6.97099730 -16.76521581 -3.13637592
VERTEX2 1149 -7.01424166 -16.76649138 -2.63812683
VERTEX2 1150 -7.10638570 -16.86869331 -1.82852240
VERTEX2 1151 -7.10439695 -16.88024597 -0.82461797
VERTEX2 1152 -7.08736600 -16.88055716 0.22859248
VERTEX2 1153 -7.07286118 -16.87401444 1.24146307
VERTEX2 1154 -7.13157377 -16.55729214 1.78751190
VERTEX2 1155 -7.26359729 -15.93309223 1.73816181
VERTEX2 1156 -7.35979367 -15.32754040 1.74818040
VERTEX2 1157 -7.48588240 -14.75667194 1.85929352
VERTEX2 1158 -7.61112578 -14.15476646 1.73074226
VERTEX2 1159 -7.67060755 -13.55179137 1.63671557
VERTEX2 1160 -7.69202132 -12.91226205 1.49998173
VERTEX2 1161 -7.59108767 -12.28094110 1.41030013
VERTEX2 1162 -7.49838831 -11.64931735 1.46842503
VERTEX2 1163 -7.43462064 -11.00668933 1.46298550
VERTEX2 1164 -7.38516868 -10.36600635 1.54844552
VERTEX2 1165 -7.37345293 -9.82649095 1.52563658
VERTEX2 1166 -7.37412817 -9.82319986 2.01463041
VERTEX2 1167 -7.32202711 -9.81058137 2.95131520
VERTEX2 1168 -7.27720063 -9.79279433 -2.42837100
VERTEX2 1169 -7.28122115 -9.84436060 -1.60631613
VERTEX2 1170 -7.29173208 -10.43057632 -1.59957494
VERTEX2 1171 -7.29184983 -11.06556644 -1.56779528
VERTEX2 1172 -7.29640755 -11.66460369 -1.63021007
VERTEX2 1173 -7.32659337 -12.28830116 -1.62106422
VERTEX2 1174 -7.37070562 -12.91716759 -1.68977373
VERTEX2 1175 -7.45706934 -13.53081706 -1.72318423
VERTEX2 1176 -7.55486672 -14.15141794 -1.76683335
VERTEX2 1177 -7.67478742 -14.75995642 -1.76476656
VERTEX2 1178 -7.80625346 -15.37241060 -1.81195711
VERTEX2 1179 -7.94416760 -15.97673030 -1.78259160
VERTEX2 1180 -7.99858058 -16.23030705 -1.78956173
VERTEX2 1181 -7.99774778 -16.22447300 -0.96204804
VERTEX2 1182 -7.94184125 -16.23870817 -0.25028861
VERTEX2 1183 -7.32795306 -16.38802366 -0.22497280
VERTEX2 1184 -6.69477243 -16.50319848 -0.15544829
VERTEX2 1185 -6.06649658 -16.61393020 -0.18773163
VERTEX2 1186 -5.43462526 -16.70919031 -0.12158681
VERTEX2 1187 -4.78041067 -16.79507715 -0.15873273
VERTEX2 1188 -4.15278540 -16.88537037 -0.14068707
VERTEX2 1189 -3.48935421 -16.99307336 -0.11907306
VERTEX2 1190 -3.15764429 -17.03340924 -0.11112143
VERTEX2 1191 -3.12505348 -17.03270236 0.80890483
VERTEX2 1192 -3.11930684 -16.94916249 1.60634025
VERTEX2 1193 -3.11301317 -16.34916771 1.47424608
VERTEX2 1194 -3.07209896 -15.77492909 1.51623351
VERTEX2 1195 -3.04401320 -15.15137619 1.56851032
VERTEX2 1196 -3.03858863 -14.52761586 1.39578590
VERTEX2 1197 -2.93559405 -13.91288500 1.40699535
VERTEX2 1198 -2.86557615 -13.28621558 1.66576435
VERTEX2 1199 -2.88319594 -12.67379488 1.45100068
VERTEX2 1200 -2.82644644 -12.04383888 1.51994836
VERTEX2 1201 -2.80190437 -11.42414513 1.57570600
VERTEX2 1202 -2.81255744 -10.80163071 1.59857951
VERTEX2 1203 -2.84336565 -10.21202286 1.50856559
VERTEX2 1204 -2.72919915 -9.62034700 1.36167502
VERTEX2 1205 -2.62082040 -9.05775815 1.39115273
VERTEX2 1206 -2.53528298 -8.46808091 1.45227688
VERTEX2 1207 -2.39771960 -7.85720453 1.36606246
VERTEX2 1208 -2.28493890 -7.23255665 1.43062514
VERTEX2 1209 -2.19754807 -6.61121917 1.42857340
VERTEX2 1210 -2.13218692 -5.99400742 1.44902278
VERTEX2 1211 -2.00637151 -5.38303348 1.37593647
VERTEX2 1212 -1.89153716 -4.77213997 1.42568966
VERTEX2 1213 -1.82411976 -4.15842852 1.49865313
VERTEX2 1214 -1.74200720 -3.43281814 1.27550156
VERTEX2 1215 -1.57745208 -2.85060372 1.33458623
VERTEX2 1216 -1.52671061 -2.29801251 1.55195718
VERTEX2 1217 -1.49214728 -1.71866910 1.53265369
VERTEX2 1218 -1.47788520 -1.12853773 1.48198469
VERTEX2 1219 -1.42667667 -0.47952982 1.51258269
VERTEX2 1220 -1.41918670 0.10752484 1.60332069
VERTEX2 1221 -1.41864492 0.10569549 1.15056769
VERTEX2 1222 -1.40865870 0.11540301 0.55326069
VERTEX2 1223 -1.39682243 0.11819391 -0.00636631
VERTEX2 1224 -0.82293108 0.02547449 -0.18927431
VERTEX2 1225 -0.20767110 -0.08841530 -0.17551031
VERTEX2 1226 -0.10282230 -0.10711936 -0.19224131
VERTEX2 1227 -0.10282230 -0.10711936 -0.19290331
