0.000000 2.784050
0.000000 4.739298
5.028773 49.370084
0.000000 76.543992
0.000000 5.819427
0.000000 4.704180
0.000000 4.224190
0.000000 83.959804
7.386997 5.115158
0.000000 4.108731
0.000000 155.286796
0.000000 9.037448
0.000000 133.174368
0.000000 3.507924
0.000000 4.189472
0.000000 4.107903
0.000000 7.304263
0.000000 7.400018
0.000000 3.234049
0.000000 17.758793
