5.388691 12.675216
5.385456 12.220953
5.449169 25.623784
5.493040 11.862489
7.375752 10.393645
5.391732 8.811311
7.568825 13.055074
5.391347 11.622869
5.433826 9.123922
5.381595 12.269270
5.417218 13.703459
5.395111 13.331641
5.404933 9.944524
7.350729 11.604605
5.389595 11.589101
5.422876 12.711749
5.402134 10.830723
5.409776 12.318873
5.403973 11.365516
5.400620 22.871514
