1 19 166 0.00294942 10 
2 19 172 0.00312822 10 
3 25 172 0.00318825 10 
4 25 178 0.00330254 10 
5 32 178 0.00331232 10 
6 32 183 0.00339944 10 
7 44 189 0.00351978 10 
8 44 195 0.00362819 10 
9 50 195 0.00362345 10 
10 50 201 0.00373054 10 
11 50 203 0.00378069 10 
12 61 203 0.00376882 10 
13 61 209 0.00388001 10 
14 67 209 0.00388462 10 
15 67 220 0.00408712 10 
16 81 220 0.00408273 10 
17 81 226 0.00421219 10 
18 87 226 0.00419462 10 
19 87 231 0.00428781 10 
20 94 231 0.00427585 10 
21 226 231 0.00427062 10 
22 94 241 0.00448038 10 
23 101 241 0.00448146 10 
24 101 247 0.00459030 10 
25 107 247 0.00459698 10 
26 107 254 0.00472659 10 
27 114 254 0.00471996 10 
28 107 256 0.00478397 10 
29 114 256 0.00478140 10 
30 107 258 0.00482057 10 
31 114 258 0.00481649 10 
32 121 266 0.00498536 10 
33 126 266 0.00501437 10 
34 126 272 0.00514465 10 
35 132 272 0.00515244 10 
36 132 278 0.00527101 10 
37 138 278 0.00526015 10 
38 138 284 0.00541081 10 
39 151 284 0.00540313 10 
40 151 291 0.00553821 10 
41 151 297 0.00566045 10 
42 157 297 0.00565247 10 
43 163 297 0.00566399 10 
44 166 297 0.00566559 10 
45 19 305 0.00594904 10 
46 157 305 0.00595687 10 
47 163 305 0.00600523 10 
48 166 305 0.00598677 10 
49 172 305 0.00603175 10 
50 19 315 0.00565211 9 
51 25 315 0.00606308 10 
52 172 315 0.00622803 10 
53 172 328 0.00628952 10 
54 19 337 0.00517010 8 
55 25 337 0.00652358 10 
56 172 337 0.00669115 10 
57 19 342 0.00659310 10 
58 25 342 0.00664319 10 
59 172 342 0.00341220 5 
60 178 342 0.00666409 10 
61 25 367 0.00348540 5 
62 32 367 0.00423308 6 
63 178 367 0.00421486 6 
64 183 367 0.00495231 7 
65 25 374 0.00725495 10 
66 32 374 0.00731260 10 
67 178 374 0.00524215 7 
68 183 374 0.00655041 9 
69 32 382 0.00596423 8 
70 183 382 0.00752284 10 
71 32 387 0.00759747 10 
72 183 387 0.00449422 6 
73 189 400 0.00789356 10 
74 189 414 0.00816101 10 
75 44 437 0.00863022 10 
76 195 437 0.00881973 10 
77 44 454 0.00890941 10 
78 189 454 0.00915396 10 
79 44 467 0.00918905 10 
80 50 467 0.00943561 10 
81 195 467 0.00945101 10 
82 195 484 0.00954700 10 
83 44 494 0.00674610 7 
84 50 494 0.00977929 10 
85 195 494 0.01000515 10 
86 201 494 0.01006362 10 
87 50 500 0.00992559 10 
88 201 500 0.01018017 10 
89 203 500 0.01019899 10 
90 61 508 0.01012200 10 
91 203 508 0.01036782 10 
92 209 508 0.01040767 10 
93 61 522 0.01039529 10 
94 203 522 0.01064880 10 
95 209 522 0.01067134 10 
96 61 528 0.01053029 10 
97 67 528 0.01083844 10 
98 81 528 0.01086107 10 
99 209 528 0.01086316 10 
100 220 528 0.01086834 10 
101 67 532 0.00846792 8 
102 81 532 0.01070331 10 
103 220 532 0.01096849 10 
104 67 556 0.01118154 10 
105 67 564 0.01135558 10 
106 81 564 0.01159809 10 
107 220 564 0.01152110 10 
108 67 567 0.01140284 10 
109 81 567 0.01169461 10 
110 220 567 0.01170460 10 
111 67 570 0.01148790 10 
112 81 570 0.01177729 10 
113 220 570 0.01176072 10 
114 81 575 0.01189809 10 
115 220 575 0.01188618 10 
116 81 588 0.01187059 10 
117 87 588 0.01218796 10 
118 226 588 0.01222427 10 
119 87 597 0.01211840 10 
120 94 597 0.01240424 10 
121 226 597 0.01243634 10 
122 87 604 0.01227701 10 
123 94 604 0.01256833 10 
124 94 616 0.00990605 8 
125 94 632 0.01283360 10 
126 94 637 0.01294719 10 
127 101 637 0.01325997 10 
128 101 642 0.01303466 10 
129 107 642 0.01335598 10 
130 101 645 0.01310045 10 
131 107 645 0.01343365 10 
132 101 657 0.01334251 10 
133 101 663 0.01201711 9 
134 107 663 0.01348531 10 
135 114 663 0.01401699 10 
136 101 665 0.01370745 10 
137 107 665 0.01447025 10 
138 114 665 0.01404148 10 
139 107 680 0.01401233 10 
140 107 683 0.01408928 10 
141 114 683 0.01442697 10 
142 107 704 0.01448715 10 
143 114 704 0.01482309 10 
144 107 714 0.01467743 10 
145 114 714 0.01500935 10 
146 107 730 0.01186081 8 
147 114 730 0.01497428 10 
148 121 754 0.01538092 10 
149 126 754 0.01581353 10 
150 121 759 0.01554832 10 
151 126 759 0.01593763 10 
152 44 761 0.01552586 10 
153 126 762 0.01555633 10 
154 132 762 0.01608293 10 
155 132 778 0.01600902 10 
156 132 792 0.01626432 10 
157 132 800 0.01641354 10 
158 138 800 0.01680517 10 
159 138 806 0.01652222 10 
160 451 812 0.01662010 10 
161 138 821 0.01692400 10 
162 138 823 0.01683294 10 
163 151 828 0.01711301 10 
164 151 847 0.01747251 10 
165 151 855 0.01574685 9 
166 151 895 0.01847237 10 
167 151 897 0.01877908 10 
168 138 903 0.01855445 10 
169 138 904 0.01898858 10 
170 132 907 0.01867423 10 
171 138 907 0.01915432 10 
172 132 911 0.01874234 10 
173 121 923 0.01892253 10 
174 126 923 0.01936714 10 
175 107 929 0.01913679 10 
176 114 929 0.01959721 10 
177 107 935 0.01926576 10 
178 114 935 0.01970285 10 
179 101 939 0.01920001 10 
180 107 939 0.01727623 9 
181 101 944 0.01947231 10 
182 94 947 0.01954357 10 
183 101 947 0.02005593 10 
184 87 953 0.01970431 10 
185 94 953 0.02017759 10 
186 226 953 0.02025765 10 
187 81 959 0.01993570 10 
188 87 959 0.02040654 10 
189 220 959 0.02046928 10 
190 226 959 0.02045408 10 
191 67 965 0.02010174 10 
192 81 965 0.02058437 10 
193 220 965 0.02059255 10 
194 61 976 0.02040686 10 
195 67 976 0.02092333 10 
196 209 976 0.02127861 10 
197 50 982 0.02056590 10 
198 61 982 0.02102581 10 
199 201 982 0.02109465 10 
200 203 982 0.02110775 10 
201 44 988 0.02077620 10 
202 50 988 0.02123376 10 
203 195 988 0.02147062 10 
204 201 988 0.01697127 8 
205 44 994 0.02090161 10 
206 189 994 0.02152664 10 
207 195 994 0.02151217 10 
208 32 1003 0.02126570 10 
209 178 1003 0.02178742 10 
210 183 1003 0.02176324 10 
211 25 1008 0.02140920 10 
212 32 1008 0.02191074 10 
213 178 1008 0.02193035 10 
214 183 1008 0.02193267 10 
215 25 1010 0.02146277 10 
216 32 1010 0.02202073 10 
217 172 1010 0.02208942 10 
218 178 1010 0.02203458 10 
219 19 1016 0.02174538 10 
220 166 1016 0.02223532 10 
221 172 1016 0.01990094 9 
222 151 1029 0.02198468 10 
223 157 1029 0.02247122 10 
224 163 1029 0.02246636 10 
225 166 1029 0.02246839 10 
226 394 1083 0.02312696 10 
227 132 1084 0.02371389 10 
228 1055 1108 0.02362538 10 
229 101 1138 0.02454602 10 
230 34 1146 0.02458965 10 
231 107 1147 0.02481501 10 
232 114 1147 0.02540842 10 
233 107 1150 0.02485690 10 
234 114 1150 0.02546161 10 
235 114 1158 0.02504111 10 
236 121 1158 0.02579941 10 
237 121 1164 0.02531349 10 
238 126 1164 0.02584602 10 
239 114 1175 0.02548826 10 
240 121 1175 0.02606567 10 
241 923 1175 0.02609560 10 
242 929 1175 0.02612956 10 
243 1158 1175 0.02081562 8 
244 101 1188 0.02588023 10 
245 939 1188 0.02643578 10 
246 1138 1188 0.02660618 10 
247 1147 1188 0.02646992 10 
248 1150 1188 0.02605688 10 
249 1050 1210 0.02649692 10 
250 1061 1210 0.02704561 10 
251 1075 1210 0.02707237 10 
252 1084 1210 0.02709571 10 
253 1088 1210 0.02708922 10 
254 1093 1210 0.02709074 10 
255 1098 1210 0.02711602 10 
256 157 1217 0.02663018 10 
257 163 1217 0.02724635 10 
258 1029 1217 0.02440864 9 
259 1044 1217 0.02670029 10 
260 1050 1217 0.02729613 10 
261 1056 1217 0.02749603 10 
