1 1 22 0.00030475 10 
2 25 139 0.00169867 7 
3 50 159 0.00195654 7 
4 19 166 0.00302713 10 
5 19 172 0.00246757 8 
6 25 172 0.00315431 10 
7 25 178 0.00325731 10 
8 32 178 0.00333127 10 
9 32 183 0.00337731 10 
10 44 189 0.00350789 10 
11 44 195 0.00358217 10 
12 50 195 0.00324005 9 
13 50 201 0.00294736 8 
14 50 203 0.00183875 5 
15 61 203 0.00338402 9 
16 61 209 0.00384981 10 
17 67 209 0.00389858 10 
18 25 216 0.00361112 9 
19 67 220 0.00413634 10 
20 81 220 0.00426349 10 
21 81 226 0.00379506 9 
22 87 226 0.00425198 10 
23 87 231 0.00433835 10 
24 94 231 0.00444496 10 
25 226 231 0.00445092 10 
26 60 235 0.00450894 10 
27 94 241 0.00465128 10 
28 101 241 0.00475409 10 
29 101 247 0.00476424 10 
30 107 247 0.00487678 10 
31 107 254 0.00488537 10 
32 114 254 0.00499809 10 
33 107 256 0.00494945 10 
34 114 256 0.00507491 10 
35 107 258 0.00500106 10 
36 114 258 0.00513917 10 
37 121 266 0.00515593 10 
38 126 266 0.00530189 10 
39 126 272 0.00528535 10 
40 132 272 0.00541975 10 
41 65 276 0.00550368 10 
42 132 278 0.00553229 10 
43 138 278 0.00555671 10 
44 49 280 0.00567918 10 
45 138 284 0.00513473 9 
46 151 284 0.00577813 10 
47 241 287 0.00581507 10 
48 151 291 0.00596630 10 
49 151 297 0.00609371 10 
50 157 297 0.00623685 10 
51 163 297 0.00628563 10 
52 166 297 0.00628878 10 
53 19 305 0.00634702 10 
54 157 305 0.00649259 10 
55 163 305 0.00654852 10 
56 166 305 0.00651233 10 
57 172 305 0.00652434 10 
58 99 306 0.00643708 10 
59 19 315 0.00667105 10 
60 25 315 0.00681872 10 
61 172 315 0.00677518 10 
62 172 328 0.00686606 10 
63 19 337 0.00634655 9 
64 25 337 0.00711253 10 
65 172 337 0.00728270 10 
66 276 340 0.00723829 10 
67 19 342 0.00727812 10 
68 25 342 0.00745865 10 
69 172 342 0.00669062 9 
70 178 342 0.00732388 10 
71 169 343 0.00360751 5 
72 92 353 0.00764015 10 
73 295 354 0.00808636 10 
74 19 358 0.00623599 8 
75 220 364 0.00803925 10 
76 25 367 0.00809785 10 
77 32 367 0.00830515 10 
78 178 367 0.00729698 9 
79 183 367 0.00734011 9 
80 25 374 0.00829782 10 
81 32 374 0.00745348 9 
82 178 374 0.00660403 8 
83 183 374 0.00664122 8 
84 228 375 0.00758535 9 
85 32 382 0.00781523 9 
86 183 382 0.00865507 10 
87 32 387 0.00870691 10 
88 183 387 0.00518866 6 
89 188 388 0.00708824 8 
90 18 395 0.00909810 10 
91 189 400 0.00923244 10 
92 189 414 0.00957537 10 
93 345 421 0.00975114 10 
94 191 431 0.00991674 10 
95 263 432 0.01032403 10 
96 44 437 0.01039236 10 
97 195 437 0.01036815 10 
98 272 443 0.01032816 10 
99 385 444 0.01079962 10 
100 44 454 0.01101161 10 
101 189 454 0.01140623 10 
102 273 456 0.01099206 10 
103 44 467 0.00895180 8 
104 50 467 0.01121540 10 
105 195 467 0.00440413 4 
106 195 484 0.00569029 5 
107 267 486 0.01169613 10 
108 466 493 0.00585717 5 
109 44 494 0.00827422 7 
110 50 494 0.01068450 9 
111 195 494 0.00830479 7 
112 201 494 0.00958668 8 
113 50 500 0.00845317 7 
114 201 500 0.00968570 8 
115 203 500 0.00969273 8 
116 456 502 0.00842683 7 
117 251 504 0.01237258 10 
118 293 506 0.01228788 10 
119 432 507 0.00972221 8 
120 61 508 0.01247417 10 
121 203 508 0.01269981 10 
122 209 508 0.01144431 9 
123 61 522 0.01276435 10 
124 203 522 0.01302034 10 
125 209 522 0.01302502 10 
126 256 526 0.01296626 10 
127 61 528 0.01033567 8 
128 67 528 0.01305120 10 
129 81 528 0.01337354 10 
130 209 528 0.01338066 10 
131 220 528 0.01336642 10 
132 67 532 0.00782383 6 
133 81 532 0.01335225 10 
134 220 532 0.01355585 10 
135 524 535 0.01056296 8 
136 11 540 0.01360360 10 
137 301 540 0.01399247 10 
138 479 544 0.01237707 9 
139 136 546 0.01405165 10 
140 78 548 0.01271895 9 
141 67 556 0.01438409 10 
142 487 556 0.01319364 9 
143 128 558 0.01456147 10 
144 279 563 0.01482936 10 
145 67 564 0.01502116 10 
146 81 564 0.01221501 8 
147 220 564 0.01501100 10 
148 67 567 0.01508803 10 
149 81 567 0.01541516 10 
150 220 567 0.01541559 10 
151 67 570 0.01518105 10 
152 81 570 0.01549148 10 
153 220 570 0.01548862 10 
154 82 574 0.01653039 10 
155 81 575 0.01554963 10 
156 220 575 0.01586597 10 
157 221 577 0.01621968 10 
158 81 588 0.01612478 10 
159 87 588 0.01643646 10 
160 226 588 0.01645804 10 
161 87 597 0.01633065 10 
162 94 597 0.01656416 10 
163 226 597 0.01658625 10 
164 428 599 0.01688869 10 
165 96 600 0.01683222 10 
166 379 600 0.01676048 10 
167 87 604 0.01654313 10 
168 94 604 0.01688004 10 
169 94 616 0.01670024 10 
170 18 629 0.01733172 10 
171 94 632 0.01738824 10 
172 94 637 0.01749134 10 
173 101 637 0.01795147 10 
174 539 638 0.01797832 10 
175 8 640 0.01838748 10 
176 101 642 0.01837794 10 
177 107 642 0.01848168 10 
178 101 645 0.01855518 10 
179 107 645 0.01891299 10 
180 459 650 0.01860171 10 
181 233 652 0.01886924 10 
182 101 657 0.01879263 10 
183 101 663 0.01124318 6 
184 107 663 0.01896596 10 
185 114 663 0.01746012 9 
186 565 664 0.01932643 10 
187 101 665 0.01968625 10 
188 107 665 0.01970240 10 
189 114 665 0.01971912 10 
190 107 680 0.01970236 10 
191 107 683 0.01976502 10 
192 114 683 0.02010132 10 
193 115 696 0.01569842 8 
194 551 697 0.02021306 10 
195 107 704 0.02041601 10 
196 114 704 0.02080379 10 
197 71 705 0.02048808 10 
198 543 712 0.02059788 10 
199 107 714 0.02105685 10 
200 114 714 0.02119153 10 
201 155 719 0.02117843 10 
202 666 721 0.01892939 9 
203 107 730 0.01480413 7 
204 114 730 0.02127923 10 
205 376 734 0.02180190 10 
206 53 744 0.02206502 10 
207 121 754 0.02243248 10 
208 126 754 0.02282484 10 
209 121 759 0.02252220 10 
210 126 759 0.02292960 10 
211 20 760 0.02344219 10 
212 126 762 0.02306147 10 
213 132 762 0.02353632 10 
214 526 776 0.02359233 10 
215 132 778 0.01416797 6 
216 143 786 0.01678259 7 
217 132 792 0.02431844 10 
218 132 800 0.02444688 10 
219 138 800 0.02486399 10 
220 138 806 0.02462734 10 
221 748 806 0.02511068 10 
222 243 813 0.02499349 10 
223 138 821 0.02265271 9 
224 138 823 0.02508274 10 
225 117 823 0.02529917 10 
226 151 828 0.02542560 10 
227 754 836 0.02549927 10 
228 317 837 0.02695477 10 
229 654 838 0.02693238 10 
230 389 846 0.02752162 10 
231 151 847 0.02711997 10 
232 758 847 0.02767493 10 
233 493 852 0.02735019 10 
234 151 855 0.02717705 10 
235 653 855 0.02830239 10 
236 629 859 0.02820701 10 
237 618 860 0.02800432 10 
238 170 874 0.02887605 10 
239 430 879 0.02884645 10 
240 357 891 0.02955332 10 
241 151 895 0.02975583 10 
242 404 896 0.02937120 10 
243 151 897 0.02942417 10 
244 205 897 0.03015092 10 
245 33 902 0.02993528 10 
246 138 903 0.02960214 10 
247 53 903 0.03023867 10 
248 138 904 0.03023415 10 
249 132 907 0.03036568 10 
250 138 907 0.03037851 10 
251 500 907 0.03092131 10 
252 132 911 0.03102479 10 
253 166 921 0.03032412 10 
254 121 923 0.03095792 10 
255 126 923 0.03131840 10 
256 107 929 0.03090648 10 
257 114 929 0.03125190 10 
258 401 931 0.03182267 10 
259 592 934 0.03205488 10 
260 107 935 0.03254889 10 
261 114 935 0.03256876 10 
262 501 935 0.03264721 10 
263 809 937 0.03274602 10 
264 831 938 0.03600650 10 
265 101 939 0.03299758 10 
266 107 939 0.03300432 10 
267 101 944 0.03257135 10 
268 94 947 0.03266237 10 
269 101 947 0.03312464 10 
270 296 949 0.03340251 10 
271 87 953 0.03294099 10 
272 94 953 0.03355463 10 
273 226 953 0.03797190 10 
274 186 953 0.03421647 10 
275 410 955 0.03327354 10 
276 674 955 0.03461061 10 
277 81 959 0.03368890 10 
278 87 959 0.03472390 10 
279 220 959 0.03437102 10 
280 226 959 0.03494475 10 
281 740 959 0.03456291 10 
282 445 959 0.03430796 10 
283 398 962 0.04187583 10 
284 137 963 0.03438803 10 
285 67 965 0.03503256 10 
286 81 965 0.03509021 10 
287 220 965 0.03454525 10 
288 61 976 0.03458833 10 
289 67 976 0.03505139 10 
290 209 976 0.03855002 10 
291 367 980 0.03504349 10 
292 50 982 0.03641470 10 
293 61 982 0.03583719 10 
294 201 982 0.03606732 10 
295 203 982 0.03609251 10 
296 924 985 0.03518698 10 
297 337 985 0.03632450 10 
298 168 987 0.03938856 10 
299 44 988 0.03700268 10 
300 50 988 0.03699576 10 
301 195 988 0.03701124 10 
302 201 988 0.03739796 10 
303 44 994 0.03695454 10 
304 189 994 0.03736652 10 
305 195 994 0.03742459 10 
306 767 994 0.03711056 10 
307 401 997 0.03668821 10 
308 32 1003 0.03850723 10 
309 178 1003 0.03799640 10 
310 183 1003 0.03750490 10 
311 655 1007 0.03818767 10 
312 25 1008 0.03814776 10 
313 32 1008 0.03812827 10 
314 178 1008 0.03816598 10 
315 183 1008 0.03816839 10 
316 475 1009 0.03760201 10 
317 695 1009 0.03891680 10 
318 25 1010 0.04170314 10 
319 32 1010 0.03869621 10 
320 172 1010 0.03847903 10 
321 178 1010 0.03863145 10 
322 518 1010 0.03868253 10 
323 578 1015 0.03869475 10 
324 19 1016 0.03903488 10 
325 166 1016 0.03910037 10 
326 172 1016 0.03918725 10 
327 684 1027 0.04299981 10 
328 151 1029 0.03942044 10 
329 157 1029 0.04039842 10 
330 163 1029 0.04050255 10 
331 166 1029 0.04048158 10 
332 200 1035 0.04116419 10 
333 891 1039 0.03982321 10 
334 881 1041 0.04072209 10 
335 315 1045 0.04085141 10 
336 478 1065 0.04077238 10 
337 369 1067 0.04138914 10 
338 768 1068 0.04095756 10 
339 378 1083 0.04211468 10 
340 132 1084 0.04276006 10 
341 678 1084 0.04239892 10 
342 283 1084 0.04310425 10 
343 363 1092 0.04277862 10 
344 932 1095 0.04269991 10 
345 207 1097 0.04371479 10 
346 956 1098 0.04297861 10 
347 690 1102 0.04438596 10 
348 1025 1104 0.04501029 10 
349 508 1104 0.04551212 10 
350 125 1107 0.04608500 10 
351 422 1107 0.04506767 10 
352 948 1116 0.04519492 10 
353 1011 1116 0.04598988 10 
354 505 1120 0.04624373 10 
355 567 1124 0.04631470 10 
356 101 1138 0.04638441 10 
357 650 1139 0.04704968 10 
358 1052 1140 0.04692984 10 
359 414 1141 0.04768479 10 
360 770 1142 0.04801780 10 
361 398 1144 0.04916185 10 
362 107 1147 0.04919988 10 
363 114 1147 0.04924493 10 
364 107 1150 0.04930639 10 
365 114 1150 0.04950028 10 
366 276 1150 0.04952023 10 
367 1009 1153 0.04808330 10 
368 114 1158 0.04836679 10 
369 121 1158 0.04792622 10 
370 796 1163 0.04780076 10 
371 121 1164 0.04775960 10 
372 126 1164 0.05235717 10 
373 971 1169 0.04921671 10 
374 976 1173 0.04928325 10 
375 114 1175 0.04893355 10 
376 121 1175 0.04887739 10 
377 923 1175 0.04929617 10 
378 929 1175 0.04884709 10 
379 1158 1175 0.04884309 10 
380 93 1180 0.05227145 10 
381 585 1186 0.05033522 10 
382 101 1188 0.05035518 10 
383 939 1188 0.05066636 10 
384 1138 1188 0.05372874 10 
385 1147 1188 0.05121193 10 
386 1150 1188 0.05121698 10 
387 316 1192 0.05176318 10 
388 888 1204 0.05226756 10 
389 10 1208 0.05111571 10 
390 1050 1210 0.05288175 10 
391 1061 1210 0.05295097 10 
392 1075 1210 0.14760803 10 
393 1084 1210 0.20699816 10 
394 1088 1210 0.05400899 10 
395 1093 1210 0.05133863 10 
396 1098 1210 0.05132417 10 
397 22 1211 0.05143159 10 
398 53 1215 0.05151912 10 
399 157 1217 0.05166161 10 
400 163 1217 0.05181996 10 
401 1029 1217 0.05189029 10 
402 1044 1217 0.05316149 10 
403 1050 1217 0.05313793 10 
404 1056 1217 0.05314142 10 
405 900 1218 0.05254005 10 
406 123 1227 0.05295756 10 
