VERTEX2 0 0.00001386 -0.00000038 0.00000030
VERTEX2 1 0.00001386 -0.00000038 -0.00064170
VERTEX2 2 0.00001386 -0.00000038 -0.00117970
VERTEX2 3 0.01101571 -0.00097536 -0.00356170
VERTEX2 4 0.64102229 -0.01120032 -0.00744370
VERTEX2 5 0.69602998 -0.01171579 -0.09872570
VERTEX2 6 0.70028309 -0.01543511 -0.89599770
VERTEX2 7 0.69397035 0.00421338 -1.51153471
VERTEX2 8 0.69927720 0.02669415 -2.12506871
VERTEX2 9 0.71612846 0.04112318 -2.76313871
VERTEX2 10 0.72899498 0.04322057 2.90551560
VERTEX2 11 0.73321756 0.04053753 2.23123660
VERTEX2 12 0.73320028 0.04154599 1.58176260
VERTEX2 13 0.73876643 0.05907108 0.92226460
VERTEX2 14 0.75967194 0.07375130 0.31402560
VERTEX2 15 0.76858535 0.07435824 -0.21090240
VERTEX2 16 1.06250742 0.01415289 -0.22959440
VERTEX2 17 1.66366112 -0.13311368 -0.26082240
VERTEX2 18 2.28701530 -0.29647857 -0.27099940
VERTEX2 19 2.91431127 -0.49425222 -0.31957540
VERTEX2 20 3.50834981 -0.68456299 -0.31359258
VERTEX2 21 4.11772731 -0.83710050 -0.20193454
VERTEX2 22 4.72792065 -0.97854798 -0.18446604
VERTEX2 23 5.36779506 -1.02281703 -0.07694190
VERTEX2 24 5.99941389 -1.09402368 -0.13390873
VERTEX2 25 6.63434823 -1.16165705 -0.13105748
VERTEX2 26 7.24334294 -1.26202555 -0.17154705
VERTEX2 27 7.85927456 -1.35316842 -0.15567615
VERTEX2 28 8.44093566 -1.45158930 -0.16008465
VERTEX2 29 8.81999210 -1.50887151 -0.12927509
VERTEX2 30 8.82924187 -1.51132547 -0.66131264
VERTEX2 31 8.93059279 -1.64711589 -0.92961317
VERTEX2 32 9.29918190 -2.16185014 -0.94811285
VERTEX2 33 9.67861222 -2.66427960 -0.89783642
VERTEX2 34 10.08649759 -3.15049689 -0.87727947
VERTEX2 35 10.50404367 -3.62909939 -0.84350338
VERTEX2 36 10.92786365 -4.10907815 -0.85251232
VERTEX2 37 11.20527703 -4.41942465 -0.84525904
VERTEX2 38 11.20021152 -4.41253762 -1.16771686
VERTEX2 39 11.19840198 -4.40406517 -1.33928259
VERTEX2 40 11.34077725 -4.97582361 -1.32243082
VERTEX2 41 11.48834919 -5.57276107 -1.35478972
VERTEX2 42 11.60843906 -6.13340618 -1.37782179
VERTEX2 43 11.71239760 -6.72608593 -1.41830953
VERTEX2 44 11.79941366 -7.31831581 -1.45552491
VERTEX2 45 11.85251606 -7.93812276 -1.51101547
VERTEX2 46 11.88160192 -8.56000000 -1.53037128
VERTEX2 47 11.89982867 -9.18172162 -1.57200903
VERTEX2 48 11.89445294 -9.80787405 -1.57851432
VERTEX2 49 11.88535942 -10.42997640 -1.62929305
VERTEX2 50 11.83023259 -11.01973674 -1.67372733
VERTEX2 51 11.77342364 -11.61570026 -1.70277019
VERTEX2 52 11.67468270 -12.19840350 -1.77945855
VERTEX2 53 11.57319947 -12.75562052 -1.76707186
VERTEX2 54 11.45880588 -13.26714128 -1.82910839
VERTEX2 55 11.46554058 -13.23526381 -1.82378997
VERTEX2 56 11.46486738 -13.23785899 -1.81317387
VERTEX2 57 11.31921958 -13.85550657 -1.82451624
VERTEX2 58 11.17104851 -14.46144477 -1.77822129
VERTEX2 59 11.04030312 -15.06688819 -1.80172256
VERTEX2 60 10.90900540 -15.66870153 -1.78025097
VERTEX2 61 10.77195258 -16.27103353 -1.83088444
VERTEX2 62 10.62093129 -16.83023401 -1.79091177
VERTEX2 63 10.46818320 -17.39420488 -1.82630491
VERTEX2 64 10.33202629 -17.95299351 -1.76283898
VERTEX2 65 10.19637230 -18.50959566 -1.81420508
VERTEX2 66 10.04170445 -19.09589580 -1.82221517
VERTEX2 67 9.87529222 -19.68555009 -1.82078806
VERTEX2 68 9.76445490 -20.13288141 -1.83658071
VERTEX2 69 9.76766109 -20.12251501 -1.99153930
VERTEX2 70 9.77468851 -20.10914140 -2.66585632
VERTEX2 71 9.79837497 -20.10782975 2.97471263
VERTEX2 72 9.81137779 -20.10946602 2.96524351
VERTEX2 73 9.81909152 -20.11139009 2.90031472
VERTEX2 74 9.81942543 -20.11160332 2.27855640
VERTEX2 75 9.82638873 -20.11434458 1.92623453
VERTEX2 76 9.81485009 -20.10149064 2.62016928
VERTEX2 77 9.81082973 -20.09979242 2.85314725
VERTEX2 78 9.52970125 -20.10978841 -3.09287175
VERTEX2 79 8.91179073 -20.14701586 -3.09812505
VERTEX2 80 8.28027453 -20.14399639 3.11054837
VERTEX2 81 7.65655332 -20.11594210 3.08455491
VERTEX2 82 7.05845046 -20.07377150 3.03047003
VERTEX2 83 6.47131941 -20.02106386 3.00698886
VERTEX2 84 5.91026609 -19.93392985 2.92922163
VERTEX2 85 5.36893835 -19.82880112 2.93656057
VERTEX2 86 4.76097826 -19.70666708 2.84689412
VERTEX2 87 4.37802776 -19.60235724 2.79413624
VERTEX2 88 4.02227433 -19.46933531 2.76428223
VERTEX2 89 4.03433198 -19.46993061 -3.12327646
VERTEX2 90 3.43142385 -19.47142966 3.12873799
VERTEX2 91 2.81771578 -19.46526226 -3.10543674
VERTEX2 92 2.22008081 -19.45925368 3.06197387
VERTEX2 93 1.59995506 -19.35488717 2.96133952
VERTEX2 94 0.98042838 -19.21488936 2.91875111
VERTEX2 95 0.36068977 -19.12562973 3.06148328
VERTEX2 96 -0.24771559 -19.07304711 3.08564031
VERTEX2 97 -0.83561080 -19.00878153 3.01512121
VERTEX2 98 -1.42174111 -18.90673275 2.95721596
VERTEX2 99 -2.12433845 -18.78112682 3.00406940
VERTEX2 100 -2.68639957 -18.67227908 2.95237307
VERTEX2 101 -3.29535270 -18.61450002 3.05567465
VERTEX2 102 -3.90738854 -18.53288651 2.94996488
VERTEX2 103 -4.51466290 -18.41693445 3.04610990
VERTEX2 104 -5.12599084 -18.33954887 3.01257132
VERTEX2 105 -5.73752898 -18.27406797 3.05926707
VERTEX2 106 -6.33849282 -18.20275766 3.00453133
VERTEX2 107 -6.95523361 -18.10580837 3.00082922
VERTEX2 108 -7.41050838 -18.05618833 3.06239523
VERTEX2 109 -7.45650624 -18.04445366 2.61387947
VERTEX2 110 -7.47342149 -18.02688652 2.02251836
VERTEX2 111 -7.47346046 -17.94651343 1.51665988
VERTEX2 112 -7.44853911 -17.31311283 1.57106888
VERTEX2 113 -7.46574879 -16.69119937 1.61808500
VERTEX2 114 -7.49771380 -16.07770306 1.65485505
VERTEX2 115 -7.56944008 -15.44062619 1.71496783
VERTEX2 116 -7.68629580 -14.69304987 1.75891503
VERTEX2 117 -7.82019413 -14.08554252 1.85432061
VERTEX2 118 -7.82409192 -14.06795650 1.51946243
VERTEX2 119 -7.76803099 -13.55367275 1.46607822
VERTEX2 120 -7.71492171 -12.90125154 1.55617658
VERTEX2 121 -7.72489919 -12.28566116 1.62367288
VERTEX2 122 -7.75839198 -11.70896832 1.67993967
VERTEX2 123 -7.78309916 -11.53030902 1.66715945
VERTEX2 124 -7.69751185 -11.29324267 1.24416354
VERTEX2 125 -7.48154144 -10.70237136 1.23322677
VERTEX2 126 -7.34960000 -10.08811472 1.43977446
VERTEX2 127 -7.25335796 -9.45786880 1.43820619
VERTEX2 128 -7.17928080 -8.82322890 1.47462636
VERTEX2 129 -7.09442101 -8.19256628 1.44194246
VERTEX2 130 -7.02831658 -7.56362174 1.49455372
VERTEX2 131 -6.98382921 -6.94013522 1.58291819
VERTEX2 132 -6.96673587 -6.31705395 1.53391030
VERTEX2 133 -6.92081781 -5.75074775 1.49711550
VERTEX2 134 -6.86798447 -5.15552676 1.47893023
VERTEX2 135 -6.78715119 -4.58067728 1.45274400
VERTEX2 136 -6.71422734 -3.94891421 1.47241590
VERTEX2 137 -6.61896029 -3.31927166 1.43063460
VERTEX2 138 -6.54434547 -2.69073388 1.51091726
VERTEX2 139 -6.52932859 -2.06061334 1.57632706
VERTEX2 140 -6.55936117 -1.40575030 1.60694693
VERTEX2 141 -6.56708344 -0.76624169 1.55859767
VERTEX2 142 -6.56920344 -0.11704413 1.55483338
VERTEX2 143 -6.49002717 0.52109485 1.44434371
VERTEX2 144 -6.45141526 0.89205831 1.46192606
VERTEX2 145 -6.44627535 0.90777100 0.96361558
VERTEX2 146 -6.44486673 0.91505633 0.37048747
VERTEX2 147 -6.38967918 0.91141015 -0.11595191
VERTEX2 148 -5.95836553 0.85325625 -0.15156217
VERTEX2 149 -5.31800553 0.76231041 -0.12641852
VERTEX2 150 -4.68424560 0.70063740 -0.11222115
VERTEX2 151 -4.04496634 0.65612370 -0.02651113
VERTEX2 152 -3.41884828 0.62365558 -0.08730029
VERTEX2 153 -2.79304263 0.59386968 0.00624111
VERTEX2 154 -2.17096197 0.57593767 -0.06317011
VERTEX2 155 -1.54496925 0.54561105 -0.02960660
VERTEX2 156 -0.91678764 0.53453425 0.00128310
VERTEX2 157 -0.35219519 0.51985788 -0.06290431
VERTEX2 158 -0.15753419 0.50713733 -0.03540871
VERTEX2 159 -0.15188183 0.50536058 0.95192230
VERTEX2 160 -0.14649362 0.51426216 1.98760469
VERTEX2 161 -0.16899231 0.45464069 2.70849566
VERTEX2 162 -0.14314349 0.46048702 -2.53888658
VERTEX2 163 -0.14414598 0.45543994 -1.54180251
VERTEX2 164 -0.22050671 0.55033251 -0.47913599
VERTEX2 165 -0.04754506 0.53313990 -0.07136105
VERTEX2 166 0.64916097 0.48994157 -0.06966340
VERTEX2 167 1.26571416 0.43940505 -0.09895901
VERTEX2 168 1.85372045 0.38994446 -0.08688900
VERTEX2 169 2.44890606 0.31820340 -0.12374418
VERTEX2 170 3.03534772 0.24974040 -0.14431256
VERTEX2 171 3.59706544 0.15118787 -0.18253628
VERTEX2 172 4.22248170 0.04352448 -0.16840192
VERTEX2 173 4.85125202 -0.07704005 -0.19120263
VERTEX2 174 5.47626036 -0.19117033 -0.15104411
VERTEX2 175 6.09231118 -0.28116864 -0.17571600
VERTEX2 176 6.69152750 -0.40121418 -0.16607446
VERTEX2 177 7.31466737 -0.50374205 -0.19368976
VERTEX2 178 7.93591158 -0.64935712 -0.23265851
VERTEX2 179 8.33544596 -0.73208307 -0.17932369
VERTEX2 180 8.38160477 -0.74448644 -0.62135806
VERTEX2 181 8.82519444 -1.06450132 -0.67309290
VERTEX2 182 9.23395318 -1.42613445 -0.84709180
VERTEX2 183 9.58229006 -1.84789346 -0.90445350
VERTEX2 184 9.91952087 -2.35764966 -1.05141241
VERTEX2 185 10.20198371 -2.89142011 -1.14436360
VERTEX2 186 10.42022727 -3.45843315 -1.21109152
VERTEX2 187 10.61397424 -4.00368294 -1.23400575
VERTEX2 188 10.81404438 -4.56857247 -1.23967156
VERTEX2 189 11.00656086 -5.13765554 -1.26663041
VERTEX2 190 11.18825142 -5.74331612 -1.29524344
VERTEX2 191 11.35968265 -6.34820484 -1.31915855
VERTEX2 192 11.51224407 -6.94638795 -1.34735311
VERTEX2 193 11.63415094 -7.49581996 -1.40290057
VERTEX2 194 11.73235922 -8.06592874 -1.42950822
VERTEX2 195 11.81110722 -8.63113563 -1.45797002
VERTEX2 196 11.87582709 -9.25666263 -1.49875558
VERTEX2 197 11.91182874 -9.87816061 -1.52624730
VERTEX2 198 11.93509368 -10.49706453 -1.58443363
VERTEX2 199 11.90508988 -11.10543525 -1.64585861
VERTEX2 200 11.85606092 -11.70862834 -1.66773967
VERTEX2 201 11.78331946 -12.30837168 -1.72440154
VERTEX2 202 11.71763451 -12.81369749 -1.70401744
VERTEX2 203 11.61323748 -13.54790278 -1.75651429
VERTEX2 204 11.48990495 -14.12409100 -1.85833663
VERTEX2 205 11.31908901 -14.68585114 -1.86762360
VERTEX2 206 11.16352924 -15.23269596 -1.86556355
VERTEX2 207 11.00228046 -15.79929568 -1.84946782
VERTEX2 208 10.82739519 -16.39855983 -1.85876075
VERTEX2 209 10.66379994 -16.99938356 -1.82040403
VERTEX2 210 10.49947305 -17.59197100 -1.82922798
VERTEX2 211 10.34915634 -18.18839249 -1.82693732
VERTEX2 212 10.17129456 -18.77430325 -1.87976132
VERTEX2 213 9.97485093 -19.36385133 -1.90051776
VERTEX2 214 9.77361547 -19.93978925 -1.90431020
VERTEX2 215 9.65777502 -20.26203283 -1.94009158
VERTEX2 216 9.66975432 -20.24161795 -2.43871177
VERTEX2 217 9.69633040 -20.23882461 -2.98082596
VERTEX2 218 9.70648915 -20.24274407 -3.03683169
VERTEX2 219 9.14125308 -20.19767174 3.07787239
VERTEX2 220 8.53330310 -20.15246703 3.03802041
VERTEX2 221 7.89635749 -20.08522662 3.08856932
VERTEX2 222 7.27287802 -20.04179291 3.06307740
VERTEX2 223 6.64880338 -20.01166145 -3.12371580
VERTEX2 224 6.03638638 -20.01161539 3.13372842
VERTEX2 225 5.42039775 -20.00527282 -3.09971977
VERTEX2 226 4.80535913 -19.99821559 3.13439958
VERTEX2 227 4.16101859 -20.06669138 -2.99207084
VERTEX2 228 3.63866588 -20.05060525 2.92962963
VERTEX2 229 3.19695586 -20.01286546 3.05010852
VERTEX2 230 2.90745705 -19.99670288 3.02135661
VERTEX2 231 3.11293237 -20.01489546 3.09147995
VERTEX2 232 2.80391773 -19.87556434 2.66549828
VERTEX2 233 2.24077638 -19.61388304 2.76776637
VERTEX2 234 1.66579243 -19.38621301 2.72358474
VERTEX2 235 1.41706454 -19.27828689 2.71858207
VERTEX2 236 1.08431483 -19.27882934 3.12397004
VERTEX2 237 0.45788762 -19.29239543 -3.08883865
VERTEX2 238 -0.16077120 -19.33942007 -3.12158365
VERTEX2 239 -0.78006070 -19.33519690 3.09433172
VERTEX2 240 -1.34500413 -19.21753137 2.87628443
VERTEX2 241 -1.87984480 -19.08663828 2.96171630
VERTEX2 242 -2.45553538 -19.02024156 3.00145899
VERTEX2 243 -3.05244092 -18.93683416 3.00096822
VERTEX2 244 -3.67381561 -18.89061232 3.07243251
VERTEX2 245 -4.28607773 -18.84132090 3.01833079
VERTEX2 246 -4.88551608 -18.75498258 2.94605388
VERTEX2 247 -5.48658225 -18.67242856 3.05207145
VERTEX2 248 -6.04059677 -18.65018445 3.08349260
VERTEX2 249 -5.99147367 -18.65763476 -3.00673320
VERTEX2 250 -5.98750572 -18.65751467 2.68967864
VERTEX2 251 -6.30920571 -18.31744786 2.26643684
VERTEX2 252 -6.66455022 -17.89742604 2.27500760
VERTEX2 253 -7.03606084 -17.45172895 2.26407717
VERTEX2 254 -7.40110436 -16.99380433 2.22294818
VERTEX2 255 -7.47410404 -16.90103918 2.30682063
VERTEX2 256 -7.47705133 -16.82382536 1.83086696
VERTEX2 257 -7.52850160 -16.36433602 1.69533988
VERTEX2 258 -7.61189293 -15.77470661 1.77585139
VERTEX2 259 -7.75470434 -15.17203960 1.81652242
VERTEX2 260 -7.88782176 -14.61367325 1.80821374
VERTEX2 261 -7.88567004 -14.57838550 1.49690520
VERTEX2 262 -7.82255022 -13.92892655 1.50366985
VERTEX2 263 -7.78040396 -13.31289371 1.51723267
VERTEX2 264 -7.76548018 -12.71017496 1.61440712
VERTEX2 265 -7.79675236 -12.11186523 1.63441211
VERTEX2 266 -7.74905651 -11.53884863 1.50504731
VERTEX2 267 -7.69763432 -10.79110042 1.47566335
VERTEX2 268 -7.56552409 -10.18971066 1.36553006
VERTEX2 269 -7.44574378 -9.57763897 1.39541116
VERTEX2 270 -7.37354155 -8.95502006 1.50941103
VERTEX2 271 -7.27830534 -8.33413112 1.39888617
VERTEX2 272 -7.19262240 -7.70857399 1.46403490
VERTEX2 273 -7.20210928 -7.08836789 1.67587158
VERTEX2 274 -7.26858120 -6.48090967 1.69964798
VERTEX2 275 -7.25597202 -5.86949726 1.52843825
VERTEX2 276 -7.24870729 -5.25894989 1.64316234
VERTEX2 277 -7.29561510 -4.69027007 1.61776846
VERTEX2 278 -7.25193329 -4.04752384 1.52926255
VERTEX2 279 -7.21170814 -3.41044950 1.47402266
VERTEX2 280 -7.14320248 -2.77880005 1.47619065
VERTEX2 281 -7.05234840 -2.14536300 1.37590415
VERTEX2 282 -6.93234030 -1.51842762 1.41592973
VERTEX2 283 -6.84531090 -0.88496330 1.40827489
VERTEX2 284 -6.73337183 -0.26200678 1.43564178
VERTEX2 285 -6.66607503 0.38729867 1.45680950
VERTEX2 286 -6.59935320 1.00884863 1.51051097
VERTEX2 287 -6.59651507 1.05999800 1.40623474
VERTEX2 288 -6.59280502 1.06662461 0.79803679
VERTEX2 289 -6.58980202 1.06810506 0.20499906
VERTEX2 290 -6.14917534 1.05933612 -0.01986005
VERTEX2 291 -5.52620619 1.05150512 -0.00594947
VERTEX2 292 -4.90949834 1.03145526 -0.06061545
VERTEX2 293 -4.28419409 0.98579729 -0.08369581
VERTEX2 294 -3.66245849 0.93308081 -0.08302626
VERTEX2 295 -3.04005833 0.85217052 -0.19552827
VERTEX2 296 -2.42269794 0.70674215 -0.24093692
VERTEX2 297 -1.80752230 0.55437306 -0.25263955
VERTEX2 298 -1.19631900 0.39923708 -0.25330480
VERTEX2 299 -0.62160947 0.24175362 -0.19212887
VERTEX2 300 -0.03478752 0.15516030 -0.14995268
VERTEX2 301 0.52755682 0.05469078 -0.20913163
VERTEX2 302 0.82949761 -0.01071867 -0.23004496
VERTEX2 303 0.81206576 -0.00729454 -0.22591637
VERTEX2 304 1.31263792 -0.12365937 -0.21637854
VERTEX2 305 1.92798666 -0.16910434 -0.03253593
VERTEX2 306 2.55774336 -0.18068262 -0.05067033
VERTEX2 307 3.19723129 -0.22957021 -0.08744553
VERTEX2 308 3.82515738 -0.29354985 -0.14311344
VERTEX2 309 4.46040386 -0.35497403 -0.05027916
VERTEX2 310 5.08836415 -0.38595502 -0.08625227
VERTEX2 311 5.36970590 -0.41238557 0.08868967
VERTEX2 312 5.36700171 -0.41378847 1.07638163
VERTEX2 313 5.37168612 -0.19507487 1.57201718
VERTEX2 314 5.35229240 0.43341371 1.61177633
VERTEX2 315 5.32389696 1.06128851 1.60742632
VERTEX2 316 5.28418979 1.70624274 1.65860175
VERTEX2 317 5.22327810 2.34784524 1.66839656
VERTEX2 318 5.12491895 2.98483693 1.76276561
VERTEX2 319 5.04549816 3.33177265 1.83395539
VERTEX2 320 5.04752979 3.33805693 2.80196967
VERTEX2 321 5.03958158 3.33464017 -2.44202579
VERTEX2 322 5.03866358 3.33274784 -1.44630472
VERTEX2 323 5.04930703 3.32248521 -0.45437203
VERTEX2 324 5.05391064 3.32098172 0.20514198
VERTEX2 325 5.05538730 3.32109810 -0.32284006
VERTEX2 326 5.07086988 3.30944922 -0.91838913
VERTEX2 327 5.07425138 3.29347642 -1.54211185
VERTEX2 328 5.05789372 2.65557761 -1.58879080
VERTEX2 329 5.03586623 2.02768981 -1.64520931
VERTEX2 330 4.98141506 1.41122990 -1.66569189
VERTEX2 331 4.92594923 0.79348099 -1.68144826
VERTEX2 332 4.84597353 0.17884364 -1.70144491
VERTEX2 333 4.82397266 0.02321389 -1.63798682
VERTEX2 334 4.83386072 0.02514409 -0.84190347
VERTEX2 335 4.84876491 0.02078758 0.14836292
VERTEX2 336 4.86185652 0.02540410 1.08882772
VERTEX2 337 4.86783078 0.06273008 2.06720568
VERTEX2 338 4.86521266 0.06454369 3.05661399
VERTEX2 339 4.87729004 0.07204691 -2.17671911
VERTEX2 340 4.87746000 0.07071098 -1.15700164
VERTEX2 341 4.99111091 0.00212441 -0.52332742
VERTEX2 342 5.56452694 -0.30282743 -0.42125910
VERTEX2 343 6.14343908 -0.50442045 -0.28961195
VERTEX2 344 6.73310491 -0.68779810 -0.29898758
VERTEX2 345 6.97203266 -0.75812502 -0.32579191
VERTEX2 346 6.95890040 -0.75382844 -0.97132690
VERTEX2 347 6.96136942 -0.84264018 -1.52845391
VERTEX2 348 6.97950550 -1.43364447 -1.54451888
VERTEX2 349 6.97753123 -2.05355733 -1.58410212
VERTEX2 350 6.96474429 -2.84206538 -1.60310615
VERTEX2 351 6.95061155 -3.11622789 -1.63144164
VERTEX2 352 6.94873695 -3.12518992 -1.91823576
VERTEX2 353 6.93701224 -3.13958964 -2.58113741
VERTEX2 354 6.92331807 -3.14352853 3.10099500
VERTEX2 355 6.90319100 -3.14283944 2.38270752
VERTEX2 356 6.89745936 -3.13273603 1.80970560
VERTEX2 357 6.90005729 -3.11711399 1.15910796
VERTEX2 358 6.90105188 -3.11572581 0.54601971
VERTEX2 359 6.88940043 -3.12073554 -0.06564120
VERTEX2 360 6.87490919 -3.11788607 -0.24068770
VERTEX2 361 6.86685280 -3.12000493 0.68204478
VERTEX2 362 6.95158626 -2.88883962 1.21787018
VERTEX2 363 7.05392381 -2.62040033 1.21226552
VERTEX2 364 6.98412591 -2.28419985 1.82904793
VERTEX2 365 6.92818290 -1.99499486 1.33376716
VERTEX2 366 7.03676486 -1.87171777 0.78161796
VERTEX2 367 7.48205421 -1.43580901 0.78446892
VERTEX2 368 7.93705927 -0.99993142 0.73672937
VERTEX2 369 7.95558209 -0.97748630 0.48521023
VERTEX2 370 7.98264636 -0.97310154 -0.10090802
VERTEX2 371 7.99389662 -0.97885963 -0.64580168
VERTEX2 372 8.42820974 -1.33001674 -0.67327801
VERTEX2 373 8.89617308 -1.68944055 -0.67201792
VERTEX2 374 9.37071102 -2.08743139 -0.73396361
VERTEX2 375 9.73054018 -2.40642718 -0.76502350
VERTEX2 376 9.74252298 -2.41373476 -0.07288038
VERTEX2 377 9.79498235 -2.37635623 0.61977217
VERTEX2 378 10.33077181 -1.97821362 0.67279724
VERTEX2 379 10.81044952 -1.54775935 0.75640396
VERTEX2 380 11.25011443 -1.08121322 0.87449911
VERTEX2 381 11.39598345 -0.90132757 1.02310125
VERTEX2 382 11.39678039 -0.89985767 2.06872250
VERTEX2 383 11.39917963 -0.90135433 3.05623346
VERTEX2 384 11.39794411 -0.90252129 -2.26258388
VERTEX2 385 11.39299679 -0.91087295 -1.23180716
VERTEX2 386 11.50064491 -1.04992277 -1.00663685
VERTEX2 387 11.96146540 -1.47401257 -0.67460420
VERTEX2 388 12.46882040 -1.86204493 -0.66488675
VERTEX2 389 12.95015106 -2.27005867 -0.74640738
VERTEX2 390 13.00369661 -2.31774984 -0.26996339
VERTEX2 391 12.87015785 -2.31423366 0.11106087
VERTEX2 392 12.87170716 -2.31417892 1.15447112
VERTEX2 393 12.89052338 -2.16389828 2.02959916
VERTEX2 394 12.88545702 -2.15955330 3.02402557
VERTEX2 395 13.12842778 -2.11767127 -2.92096936
VERTEX2 396 13.13062909 -2.11693654 -2.92050432
VERTEX2 397 13.12890911 -2.11679905 -2.93094343
VERTEX2 398 13.12858129 -2.11693807 -2.73296496
VERTEX2 399 13.03350279 -2.19065775 -2.43354420
VERTEX2 400 12.54091215 -2.61648239 -2.38297057
VERTEX2 401 12.07884930 -3.02132041 -2.47578861
VERTEX2 402 11.53019927 -3.30619907 -2.74348190
VERTEX2 403 10.96510989 -3.53826154 -2.77798541
VERTEX2 404 10.42634505 -3.72590569 -2.85755690
VERTEX2 405 10.44371242 -3.71764518 -2.32479534
VERTEX2 406 10.44717076 -3.69757230 -1.34835941
VERTEX2 407 10.56585630 -4.03553356 -1.22103330
VERTEX2 408 10.77019846 -4.61287178 -1.25974131
VERTEX2 409 10.85201188 -4.89367429 -1.36021495
VERTEX2 410 10.85229199 -4.88605014 -1.99002432
VERTEX2 411 10.86243752 -4.86822412 -2.58117160
VERTEX2 412 10.36641931 -5.06403410 -2.78526607
VERTEX2 413 9.78818643 -5.25770073 -2.86578317
VERTEX2 414 9.20471693 -5.44104236 -2.76306414
VERTEX2 415 8.59938276 -5.67392795 -2.75545087
VERTEX2 416 8.31312031 -5.79920217 -2.80999877
VERTEX2 417 8.02358016 -5.78182674 3.04993270
VERTEX2 418 7.58786877 -5.73677668 3.00540041
VERTEX2 419 7.59244355 -5.73576021 -2.84559009
VERTEX2 420 7.64686797 -5.71188951 -2.62855585
VERTEX2 421 7.64847727 -5.70938535 -1.65855350
VERTEX2 422 7.64419212 -5.71534560 -0.41628801
VERTEX2 423 7.64969676 -5.71589140 -0.06959434
VERTEX2 424 7.64971030 -5.71627381 -0.06845520
VERTEX2 425 7.64195356 -5.72061737 -0.05594016
VERTEX2 426 7.64178544 -5.72098917 -0.06428202
VERTEX2 427 7.67414966 -5.72277799 -0.06038867
VERTEX2 428 8.33599432 -5.74622317 -0.06513572
VERTEX2 429 8.98028560 -5.79746243 -0.10514251
VERTEX2 430 9.32195781 -5.83903249 -0.15046182
VERTEX2 431 9.29976164 -5.83632248 -0.09776202
VERTEX2 432 9.31288011 -5.84097246 -0.72790556
VERTEX2 433 9.31993216 -5.85067950 -1.40354318
VERTEX2 434 9.28253093 -6.39091552 -1.63084596
VERTEX2 435 9.24965562 -7.03505185 -1.65852906
VERTEX2 436 9.17111352 -7.67613602 -1.66671389
VERTEX2 437 9.11840202 -8.32723642 -1.65817343
VERTEX2 438 9.06686609 -8.78968682 -1.68771464
VERTEX2 439 9.06655224 -8.79083251 -2.12161671
VERTEX2 440 9.07446376 -8.78460405 -2.76194989
VERTEX2 441 9.08855086 -8.78320297 2.90194538
VERTEX2 442 9.09763089 -8.78810920 2.27377718
VERTEX2 443 9.09785066 -8.79170541 1.70800600
VERTEX2 444 9.10051848 -8.77757293 1.11762615
VERTEX2 445 9.10543494 -8.77286684 0.46071489
VERTEX2 446 9.10394622 -8.77379469 0.66279288
VERTEX2 447 9.11503901 -8.75228648 1.29544367
VERTEX2 448 9.26501879 -8.13213189 1.31295190
VERTEX2 449 9.39808637 -7.49755033 1.41428079
VERTEX2 450 9.49256629 -6.86244466 1.42793846
VERTEX2 451 9.54574861 -6.39366237 1.47042423
VERTEX2 452 9.54570797 -6.39418838 1.09210935
VERTEX2 453 9.54201993 -6.40082832 0.46954044
VERTEX2 454 9.80339352 -6.38151477 0.04718683
VERTEX2 455 10.40172754 -6.35868058 0.02663248
VERTEX2 456 11.03355177 -6.35591164 -0.03794369
VERTEX2 457 11.38710788 -6.37935709 -0.12564693
VERTEX2 458 11.38248813 -6.37704494 -0.77149816
VERTEX2 459 11.37413767 -6.34283237 -1.37966399
VERTEX2 460 11.35239569 -6.74168085 -1.63663954
VERTEX2 461 11.28203004 -7.35842422 -1.72455462
VERTEX2 462 11.19317433 -7.86806178 -1.76453726
VERTEX2 463 11.20426942 -7.84646538 -0.92419418
VERTEX2 464 11.45946852 -7.91971957 -0.24601779
VERTEX2 465 12.04287134 -8.05418532 -0.23824081
VERTEX2 466 12.59600698 -8.20684807 -0.29384363
VERTEX2 467 13.16646600 -8.39015845 -0.33726633
VERTEX2 468 13.78401061 -8.61126269 -0.37264979
VERTEX2 469 14.37802964 -8.87977402 -0.45541916
VERTEX2 470 14.83465875 -9.09799207 -0.43637295
VERTEX2 471 14.84605244 -9.10420404 -0.63593441
VERTEX2 472 14.86467666 -9.13032948 -1.26797163
VERTEX2 473 14.86639128 -9.13887669 -1.90792959
VERTEX2 474 14.86578384 -9.13962555 -2.53864070
VERTEX2 475 14.87131085 -9.13889930 -3.11248492
VERTEX2 476 14.87702459 -9.13970729 2.51941948
VERTEX2 477 14.88238187 -9.15029271 1.95982674
VERTEX2 478 14.88315866 -9.16106077 1.33269645
VERTEX2 479 14.88243077 -9.16270510 0.87833478
VERTEX2 480 14.88304713 -9.16133942 1.44028895
VERTEX2 481 14.87916980 -9.14420896 2.44334528
VERTEX2 482 14.87784947 -9.14366932 2.77989534
VERTEX2 483 14.87861071 -9.14395210 2.77473659
VERTEX2 484 14.44735290 -8.98185961 2.81048807
VERTEX2 485 13.84860560 -8.79038656 2.80827269
VERTEX2 486 13.24728933 -8.57493227 2.81789935
VERTEX2 487 12.63711543 -8.39277678 2.84627694
VERTEX2 488 12.02464275 -8.20879184 2.88249731
VERTEX2 489 11.55386756 -8.09921247 2.91302309
VERTEX2 490 11.55740474 -8.09888074 -2.88483638
VERTEX2 491 11.56424843 -8.08991179 -1.94834055
VERTEX2 492 11.54680115 -8.32017012 -1.64513571
VERTEX2 493 11.48321051 -8.92448174 -1.70007655
VERTEX2 494 11.39423307 -9.53607019 -1.76088094
VERTEX2 495 11.32339667 -10.15922539 -1.65369378
VERTEX2 496 11.27794466 -10.78362467 -1.53594293
VERTEX2 497 11.26937513 -11.40147661 -1.62196266
VERTEX2 498 11.19911614 -12.02297094 -1.72373536
VERTEX2 499 11.06681340 -12.64953314 -1.74071686
VERTEX2 500 11.12322974 -13.21616561 -1.41171179
VERTEX2 501 11.19656903 -13.79562397 -1.48379233
VERTEX2 502 11.21904182 -14.49113013 -1.56825932
VERTEX2 503 11.21360338 -14.93802696 -1.58521292
VERTEX2 504 11.21856242 -14.92412478 -0.72846011
VERTEX2 505 11.45552522 -14.95168293 -0.10658670
VERTEX2 506 12.04652372 -15.03459782 -0.25910839
VERTEX2 507 12.62659571 -15.20553020 -0.33762815
VERTEX2 508 13.19456432 -15.41807940 -0.35086494
VERTEX2 509 13.80737309 -15.65063666 -0.40671065
VERTEX2 510 14.15764591 -15.80788079 -0.42054517
VERTEX2 511 14.15616778 -15.79318126 0.45514417
VERTEX2 512 14.17433845 -15.75496125 1.65328654
VERTEX2 513 14.17098953 -15.74506793 2.60912688
VERTEX2 514 14.09655139 -15.72412591 2.83551942
VERTEX2 515 13.47949972 -15.54126598 2.83668830
VERTEX2 516 12.88819016 -15.34517321 2.85263542
VERTEX2 517 12.28842783 -15.19539478 2.88086714
VERTEX2 518 11.68905517 -15.04247397 2.90524129
VERTEX2 519 11.16010636 -14.91691276 2.88955510
VERTEX2 520 11.03399624 -14.88418481 -2.99566233
VERTEX2 521 11.07138952 -14.84302125 -1.99291032
VERTEX2 522 11.00550636 -15.24242119 -1.72885511
VERTEX2 523 10.91322168 -15.86337657 -1.73607777
VERTEX2 524 10.80863716 -16.43784933 -1.77787251
VERTEX2 525 10.70402194 -16.98035024 -1.75413231
VERTEX2 526 10.58722150 -17.54942349 -1.81286267
VERTEX2 527 10.43897451 -18.12817538 -1.84763843
VERTEX2 528 10.25648514 -18.69374660 -1.92360811
VERTEX2 529 10.04339247 -19.29531045 -1.95186509
VERTEX2 530 9.79540108 -19.89385295 -1.98192526
VERTEX2 531 9.52512401 -20.46778669 -2.06174106
VERTEX2 532 9.42719587 -20.65273810 -2.01113162
VERTEX2 533 9.42472833 -20.64062722 -1.01137554
VERTEX2 534 9.42534077 -20.64101841 -0.34434372
VERTEX2 535 9.42870284 -20.64131073 -0.34470163
VERTEX2 536 9.78505742 -20.72565012 -0.21397739
VERTEX2 537 10.39120702 -20.87480645 -0.27196829
VERTEX2 538 10.95063788 -21.04468061 -0.29907825
VERTEX2 539 11.55798940 -21.25441762 -0.36384257
VERTEX2 540 12.14406920 -21.50828838 -0.45673307
VERTEX2 541 12.73055043 -21.73697652 -0.29442790
VERTEX2 542 13.36102910 -21.87966206 -0.23872469
VERTEX2 543 13.48251997 -21.91029947 -0.26838960
VERTEX2 544 13.50369856 -21.90816731 0.36862051
VERTEX2 545 13.52736315 -21.86531618 1.43480960
VERTEX2 546 13.54471833 -21.91066629 2.26183774
VERTEX2 547 13.55296426 -21.91012481 -2.99968676
VERTEX2 548 13.56652175 -21.90145341 -2.07680200
VERTEX2 549 13.56819166 -21.89020269 -1.27019910
VERTEX2 550 13.56701239 -21.86934209 -1.74999919
VERTEX2 551 13.57547831 -21.85224876 -2.37637333
VERTEX2 552 13.59382000 -21.84314817 -3.00883321
VERTEX2 553 13.45695783 -21.79061278 2.69706589
VERTEX2 554 12.86551387 -21.50580163 2.66160519
VERTEX2 555 12.28684052 -21.23010418 2.75047485
VERTEX2 556 11.68314907 -21.01092841 2.88557252
VERTEX2 557 11.08329630 -20.83932098 2.84436641
VERTEX2 558 10.50754314 -20.68157804 2.92540299
VERTEX2 559 10.51505111 -20.68412206 2.51846073
VERTEX2 560 10.50772309 -20.67609433 2.01754797
VERTEX2 561 10.48424305 -20.65324682 2.52279243
VERTEX2 562 10.30620191 -20.65303001 -3.11680185
VERTEX2 563 9.73617200 -20.57394882 2.97458217
VERTEX2 564 9.13152654 -20.48182788 3.02336594
VERTEX2 565 8.54127188 -20.40994430 2.96578501
VERTEX2 566 8.60231757 -20.42900714 -2.53382210
VERTEX2 567 8.50862350 -20.43582491 -1.74058847
VERTEX2 568 8.45709100 -20.94382969 -1.67646638
VERTEX2 569 8.40490584 -21.51936652 -1.71563343
VERTEX2 570 8.33528740 -22.09990858 -1.71089777
VERTEX2 571 8.28220956 -22.45537899 -1.75842458
VERTEX2 572 8.24854281 -22.47991456 -2.00169209
VERTEX2 573 8.21335923 -22.55932938 -1.72544357
VERTEX2 574 8.23423328 -22.58878169 -0.78629133
VERTEX2 575 8.38729443 -22.63895837 0.13648750
VERTEX2 576 8.38614333 -22.63803935 1.16416848
VERTEX2 577 8.37954369 -22.62059419 2.13628411
VERTEX2 578 8.37013329 -22.58879139 1.77212876
VERTEX2 579 8.24528118 -21.93757875 1.78716399
VERTEX2 580 8.08349234 -21.29849166 1.86231972
VERTEX2 581 7.88904888 -20.67529536 1.90470914
VERTEX2 582 7.66714802 -20.06109157 1.94785169
VERTEX2 583 7.53708705 -19.75290372 2.02722747
VERTEX2 584 7.53150004 -19.74206989 2.87109564
VERTEX2 585 6.94636563 -19.60182179 2.98951043
VERTEX2 586 6.35665316 -19.52805592 3.08693560
VERTEX2 587 5.74191226 -19.51733900 3.11224323
VERTEX2 588 5.11622821 -19.49163031 3.11662038
VERTEX2 589 4.57046062 -19.51656194 -3.09130680
VERTEX2 590 4.02401621 -19.56019029 -3.02255502
VERTEX2 591 3.48775801 -19.63850023 -3.02443711
VERTEX2 592 2.94253500 -19.71228430 -3.02715288
VERTEX2 593 2.76784821 -19.73417014 -2.82187474
VERTEX2 594 2.81511759 -19.68328557 -1.90322490
VERTEX2 595 2.70121801 -20.28965069 -1.67031623
VERTEX2 596 2.64809828 -20.91576143 -1.69325895
VERTEX2 597 2.55583207 -21.59184763 -1.73303924
VERTEX2 598 2.45239596 -22.18990734 -1.77517778
VERTEX2 599 2.36373231 -22.56673123 -1.84134281
VERTEX2 600 2.36390740 -22.58329409 -1.03474046
VERTEX2 601 2.40650670 -22.60961460 -0.01653499
VERTEX2 602 2.44409812 -22.59453686 0.99754775
VERTEX2 603 2.41004726 -22.36029769 1.77023238
VERTEX2 604 2.35067907 -21.74831751 1.52617393
VERTEX2 605 2.36067976 -21.10161975 1.60878643
VERTEX2 606 2.32137924 -20.45525726 1.65089906
VERTEX2 607 2.33345798 -19.86636678 1.56992349
VERTEX2 608 2.32100672 -19.48147427 1.61445543
VERTEX2 609 2.31750414 -19.46069321 1.95087340
VERTEX2 610 2.31086933 -19.45828153 2.88375089
VERTEX2 611 1.71706243 -19.30734959 2.88682593
VERTEX2 612 1.24608369 -19.17238181 2.88974698
VERTEX2 613 1.28277334 -19.18365088 -2.92943202
VERTEX2 614 1.28999418 -19.17820669 -1.89101042
VERTEX2 615 1.30127172 -19.66334439 -1.58629461
VERTEX2 616 1.30628254 -20.28484980 -1.63735102
VERTEX2 617 1.16788271 -20.88281052 -1.85435751
VERTEX2 618 0.99835702 -21.48334454 -1.84413386
VERTEX2 619 0.83723216 -22.04938006 -1.84541494
VERTEX2 620 0.65372172 -22.61966154 -1.94141731
VERTEX2 621 0.78279256 -22.28896414 -1.99263764
VERTEX2 622 0.90614099 -22.02715831 -2.06732880
VERTEX2 623 0.90470800 -22.02908630 -2.60376049
VERTEX2 624 0.87611805 -22.02872984 3.03756654
VERTEX2 625 0.83618203 -22.01249894 2.37978762
VERTEX2 626 0.80976699 -21.98205225 1.76246773
VERTEX2 627 0.88284102 -21.61256888 1.35215656
VERTEX2 628 1.06257374 -20.98841223 1.25142036
VERTEX2 629 1.23522553 -20.36359076 1.32252825
VERTEX2 630 1.36180109 -19.75861353 1.40756762
VERTEX2 631 1.43490083 -19.23160584 1.42766242
VERTEX2 632 1.43723587 -19.21796058 2.10352777
VERTEX2 633 1.34065545 -19.21126751 -3.09336770
VERTEX2 634 0.67435868 -19.24755070 -3.06597423
VERTEX2 635 0.02246588 -19.25777064 3.08218123
VERTEX2 636 -0.61776100 -19.22882088 3.06458797
VERTEX2 637 -1.24419177 -19.15427994 2.96527877
VERTEX2 638 -1.63288167 -19.07465129 2.93581293
VERTEX2 639 -2.24006028 -18.97189481 3.01624573
VERTEX2 640 -2.85142133 -18.86301809 2.94844128
VERTEX2 641 -3.44819890 -18.75254325 2.94018759
VERTEX2 642 -4.02064338 -18.61596951 2.89493425
VERTEX2 643 -4.50067827 -18.47974912 2.82746750
VERTEX2 644 -4.50346704 -18.48037810 -2.69896311
VERTEX2 645 -4.53978866 -18.62144349 -1.92128156
VERTEX2 646 -4.67686276 -19.23088544 -1.62583584
VERTEX2 647 -4.63319106 -19.87498632 -1.33693786
VERTEX2 648 -4.40908255 -20.50300885 -1.17063824
VERTEX2 649 -4.23457887 -21.10445431 -1.50824012
VERTEX2 650 -4.33522539 -21.73339406 -1.76562679
VERTEX2 651 -4.35262324 -21.87776760 -0.96624140
VERTEX2 652 -4.29557637 -21.90344834 0.05876407
VERTEX2 653 -4.25172260 -21.86408702 1.08918518
VERTEX2 654 -4.26071747 -21.56594640 1.60232313
VERTEX2 655 -4.27106258 -21.01112844 1.59729151
VERTEX2 656 -4.27013244 -20.40771625 1.58462009
VERTEX2 657 -4.37728169 -19.79400087 1.86117067
VERTEX2 658 -4.56735064 -19.17694872 1.85402942
VERTEX2 659 -4.68191218 -18.68352909 1.78289846
VERTEX2 660 -4.68498705 -18.66813091 2.38307283
VERTEX2 661 -4.86374054 -18.64834276 3.03658058
VERTEX2 662 -5.45417447 -18.58922179 3.10611786
VERTEX2 663 -6.03900478 -18.60350504 -3.07612538
VERTEX2 664 -6.04627587 -18.60163441 -2.55296284
VERTEX2 665 -6.06229242 -18.70287353 -1.71868626
VERTEX2 666 -6.13372690 -19.30837949 -1.68143201
VERTEX2 667 -6.19050287 -19.87174491 -1.67670343
VERTEX2 668 -6.25359983 -20.46256948 -1.65080976
VERTEX2 669 -6.30165407 -21.08514379 -1.67582758
VERTEX2 670 -6.40038560 -21.69996636 -1.73518369
VERTEX2 671 -6.44731876 -21.98970633 -1.68008183
VERTEX2 672 -6.34549566 -21.40614016 -1.76906681
VERTEX2 673 -6.27889476 -21.13673672 -1.89948274
VERTEX2 674 -6.26448098 -21.12148681 -2.54731168
VERTEX2 675 -6.24019684 -21.11631286 3.12754576
VERTEX2 676 -6.23509455 -21.11929393 2.50450380
VERTEX2 677 -6.23171338 -21.12396638 1.88895786
VERTEX2 678 -6.20489785 -20.90787209 1.44253695
VERTEX2 679 -6.14250755 -20.33469326 1.50486316
VERTEX2 680 -6.17040048 -19.89202283 1.84931510
VERTEX2 681 -6.32269254 -19.30327120 1.82150494
VERTEX2 682 -6.49491453 -18.69985227 1.86885189
VERTEX2 683 -6.58664205 -18.41974390 2.02759725
VERTEX2 684 -6.54245824 -18.46480136 3.10719360
VERTEX2 685 -6.94568707 -18.62525167 -2.73223200
VERTEX2 686 -7.39302199 -18.76185822 -2.87638930
VERTEX2 687 -7.98813908 -18.91294778 -2.91129417
VERTEX2 688 -8.58706309 -19.03314992 -2.92293825
VERTEX2 689 -9.15409990 -19.17307302 -2.89483929
VERTEX2 690 -9.69231742 -19.34331991 -2.82018308
VERTEX2 691 -10.09287187 -19.47727554 -2.84770089
VERTEX2 692 -10.08344828 -19.47306921 -2.31237222
VERTEX2 693 -10.05785238 -19.55298891 -1.27230889
VERTEX2 694 -10.03095083 -19.63267974 -0.43712995
VERTEX2 695 -10.00822837 -19.62616305 0.36258168
VERTEX2 696 -10.00009871 -19.62080544 1.38769522
VERTEX2 697 -10.01261653 -19.66215965 1.13457713
VERTEX2 698 -9.68024662 -19.45123963 0.47958687
VERTEX2 699 -9.11404082 -19.13590716 0.59355505
VERTEX2 700 -8.59881304 -18.77198986 0.64704796
VERTEX2 701 -8.16369852 -18.40754716 0.70620277
VERTEX2 702 -7.68234972 -18.09033632 0.59105466
VERTEX2 703 -7.16789066 -17.75182135 0.62534173
VERTEX2 704 -6.67278658 -17.36787581 0.64357675
VERTEX2 705 -6.15912622 -16.94409795 0.71413411
VERTEX2 706 -5.72586290 -16.62299116 0.44566547
VERTEX2 707 -5.69560494 -16.62129868 -0.07363827
VERTEX2 708 -5.68255058 -16.62879757 -0.71087409
VERTEX2 709 -5.72127938 -16.58737907 -1.04238313
VERTEX2 710 -5.72537919 -16.57690410 -1.60439517
VERTEX2 711 -5.71726117 -16.58419392 -2.20211258
VERTEX2 712 -5.70168355 -16.57221675 -2.76348924
VERTEX2 713 -6.17941812 -16.62390942 -3.04935397
VERTEX2 714 -6.73711852 -16.59919033 3.03587651
VERTEX2 715 -7.36380091 -16.56245852 3.13944803
VERTEX2 716 -7.99790844 -16.54063458 3.00137906
VERTEX2 717 -8.61909076 -16.47290734 3.08610333
VERTEX2 718 -9.38111462 -16.35441675 2.91069184
VERTEX2 719 -9.99785131 -16.23919086 2.98513295
VERTEX2 720 -10.61043449 -16.12684779 2.92590593
VERTEX2 721 -11.22794349 -16.01104801 2.99410286
VERTEX2 722 -11.24428220 -16.00872121 3.06078098
VERTEX2 723 -11.26443537 -16.02950855 -2.13255327
VERTEX2 724 -11.26455209 -16.07284921 -1.06377216
VERTEX2 725 -11.23732183 -16.09116485 -0.42947153
VERTEX2 726 -10.91155566 -16.08741298 0.02468141
VERTEX2 727 -10.27375388 -16.04976670 0.05540540
VERTEX2 728 -9.63320766 -16.02640779 0.05677422
VERTEX2 729 -8.99511358 -15.96675243 0.11439462
VERTEX2 730 -8.37154817 -15.87525507 0.15187813
VERTEX2 731 -7.72225490 -15.77558974 0.16393920
VERTEX2 732 -7.57915806 -15.74695305 0.61021664
VERTEX2 733 -7.57831478 -15.74833787 1.60618910
VERTEX2 734 -7.63624474 -15.19057390 1.68413260
VERTEX2 735 -7.69618376 -14.58645003 1.65195318
VERTEX2 736 -7.69702051 -14.57363776 2.25113610
VERTEX2 737 -7.68969301 -14.57461705 3.05143633
VERTEX2 738 -8.26724417 -14.53276977 3.07036392
VERTEX2 739 -8.86882479 -14.43642070 3.01259427
VERTEX2 740 -9.37021189 -14.39497793 3.07571592
VERTEX2 741 -9.34850631 -14.39480299 2.70662667
VERTEX2 742 -9.34828914 -14.39497526 2.05349723
VERTEX2 743 -9.34932450 -14.39033655 1.43695821
VERTEX2 744 -9.34140477 -14.37234333 0.89784204
VERTEX2 745 -9.32484933 -14.36374050 0.30462067
VERTEX2 746 -8.78392124 -14.38339163 -0.16999919
VERTEX2 747 -8.13993290 -14.49930399 -0.20510879
VERTEX2 748 -7.56399805 -14.64297684 -0.27326582
VERTEX2 749 -7.48142333 -14.66370744 0.15626316
VERTEX2 750 -7.47339280 -14.64893698 1.08394853
VERTEX2 751 -7.50744164 -14.37912424 1.72464615
VERTEX2 752 -7.56564067 -13.75642822 1.62147977
VERTEX2 753 -7.60387446 -13.11822585 1.68482330
VERTEX2 754 -7.61226789 -12.47831485 1.52285769
VERTEX2 755 -7.59473357 -11.84602621 1.60940033
VERTEX2 756 -7.55864263 -11.21138800 1.43311221
VERTEX2 757 -7.48543756 -10.56744883 1.54504577
VERTEX2 758 -7.50720145 -9.98881901 1.68727829
VERTEX2 759 -7.49804683 -9.44230554 1.56717888
VERTEX2 760 -7.53804142 -8.83466376 1.67858803
VERTEX2 761 -7.54059301 -8.80031317 1.85900234
VERTEX2 762 -7.61620327 -8.76671623 2.69422741
VERTEX2 763 -8.19042201 -8.66543573 2.98712574
VERTEX2 764 -8.61041204 -8.59508676 2.95962686
VERTEX2 765 -8.59982859 -8.59485534 -2.68402645
VERTEX2 766 -8.60203611 -8.60210391 -1.68355214
VERTEX2 767 -8.59637110 -8.61631727 -0.75255146
VERTEX2 768 -8.56924850 -8.61789018 -0.03007622
VERTEX2 769 -7.93405369 -8.52662786 0.12687764
VERTEX2 770 -7.28172311 -8.46509858 0.05979651
VERTEX2 771 -7.19334898 -8.45740021 0.62037779
VERTEX2 772 -7.19072565 -8.44897332 1.48806349
VERTEX2 773 -7.16897016 -7.87247514 1.57392501
VERTEX2 774 -7.18320334 -7.32757739 1.59607716
VERTEX2 775 -7.18189862 -7.33313509 2.44114644
VERTEX2 776 -7.39128633 -7.30839874 3.05868045
VERTEX2 777 -8.00482494 -7.26868076 3.11777124
VERTEX2 778 -8.61777650 -7.26015076 3.09687196
VERTEX2 779 -9.23112664 -7.24100847 3.11518013
VERTEX2 780 -9.43650198 -7.22392270 2.98519528
VERTEX2 781 -9.42922321 -7.22650293 2.41224618
VERTEX2 782 -9.55669862 -6.95599565 1.98265323
VERTEX2 783 -9.79250843 -6.38428578 1.98204668
VERTEX2 784 -9.89182140 -6.15878797 1.96071887
VERTEX2 785 -9.89277005 -6.13402110 1.40873945
VERTEX2 786 -9.88475385 -6.10742892 0.82040339
VERTEX2 787 -9.86607140 -6.08821920 0.32972675
VERTEX2 788 -9.83607963 -6.09019424 -0.29942127
VERTEX2 789 -9.82358364 -6.09996080 -0.85141228
VERTEX2 790 -9.51522226 -6.49606769 -0.91859370
VERTEX2 791 -9.11214061 -6.97456467 -0.82002811
VERTEX2 792 -8.87558214 -7.18470610 -0.11572063
VERTEX2 793 -8.26271785 -7.23633007 -0.07103954
VERTEX2 794 -7.62558870 -7.26476576 0.00010271
VERTEX2 795 -7.65263443 -7.28469277 0.42936335
VERTEX2 796 -7.66258094 -7.28873900 1.08855337
VERTEX2 797 -7.58884850 -6.98180434 1.34861176
VERTEX2 798 -7.45431149 -6.35775562 1.39867505
VERTEX2 799 -7.36711244 -5.71107058 1.46427607
VERTEX2 800 -7.31289313 -5.06205784 1.53703447
VERTEX2 801 -7.32334739 -4.42816461 1.62300071
VERTEX2 802 -7.37683686 -3.80083990 1.68074027
VERTEX2 803 -7.35900949 -3.17419176 1.51612991
VERTEX2 804 -7.33829325 -2.54880103 1.57207591
VERTEX2 805 -7.37085783 -1.92021010 1.64840290
VERTEX2 806 -7.43011883 -1.32359702 1.68985181
VERTEX2 807 -7.45715592 -1.13975091 1.97802146
VERTEX2 808 -7.46187289 -1.13965389 2.92649396
VERTEX2 809 -8.05338170 -1.11023064 3.07121930
VERTEX2 810 -8.67045548 -0.98649916 2.93111457
VERTEX2 811 -9.26914139 -0.87451000 2.92786848
VERTEX2 812 -9.27127817 -0.87409475 -2.62343469
VERTEX2 813 -9.28129273 -0.89639706 -1.64798417
VERTEX2 814 -9.27465957 -0.90165073 -0.65561368
VERTEX2 815 -9.25015904 -0.90991316 0.26378373
VERTEX2 816 -9.24166244 -0.90526432 0.94503048
VERTEX2 817 -9.23063290 -0.89832174 0.27635551
VERTEX2 818 -9.00827055 -0.93221212 -0.21246261
VERTEX2 819 -8.41712229 -1.05987461 -0.19830398
VERTEX2 820 -7.82353713 -1.19160544 -0.23949471
VERTEX2 821 -7.27742303 -1.32238949 -0.22365621
VERTEX2 822 -7.22277660 -1.33065743 0.53862662
VERTEX2 823 -7.22134765 -1.31543262 1.45894060
VERTEX2 824 -7.15846428 -0.69273509 1.37981200
VERTEX2 825 -7.01624888 -0.07091622 1.34981965
VERTEX2 826 -6.96042356 0.55896744 1.51235576
VERTEX2 827 -6.89752224 1.18061757 1.46338418
VERTEX2 828 -6.84410403 1.80963090 1.49860875
VERTEX2 829 -6.78393998 2.41336187 1.45881688
VERTEX2 830 -6.70979904 3.02244909 1.45045533
VERTEX2 831 -6.61635621 3.59992928 1.40361747
VERTEX2 832 -6.52681055 4.16307928 1.40001372
VERTEX2 833 -6.48309731 4.41852589 1.53762114
VERTEX2 834 -6.48494427 4.42504339 2.59211672
VERTEX2 835 -6.49706929 4.42642695 -2.91352358
VERTEX2 836 -6.50877927 4.41651985 -1.97060750
VERTEX2 837 -6.50530858 4.39762618 -0.93440800
VERTEX2 838 -6.49291669 4.38990925 -0.07234831
VERTEX2 839 -6.49163312 4.38929641 -0.29067361
VERTEX2 840 -6.48003138 4.38020314 -0.85342135
VERTEX2 841 -6.47215573 4.36436747 -1.47061378
VERTEX2 842 -6.49839947 4.11835006 -1.70150839
VERTEX2 843 -6.57683853 3.55440162 -1.70409016
VERTEX2 844 -6.65233546 2.92845392 -1.71217107
VERTEX2 845 -6.74641027 2.30306250 -1.72696173
VERTEX2 846 -6.83262900 1.67344006 -1.72530529
VERTEX2 847 -6.94279061 1.05170541 -1.75213371
VERTEX2 848 -6.97344570 0.85770839 -1.27169696
VERTEX2 849 -6.97349337 0.85774081 -0.34952394
VERTEX2 850 -6.61865296 0.85413463 0.00386113
VERTEX2 851 -5.99180463 0.82797646 -0.08865137
VERTEX2 852 -5.36792665 0.76666837 -0.07425026
VERTEX2 853 -4.77356647 0.72405767 -0.10218790
VERTEX2 854 -4.18690791 0.65617708 -0.10020003
VERTEX2 855 -3.59252851 0.60516384 -0.10201663
VERTEX2 856 -2.94158143 0.51954767 -0.14274999
VERTEX2 857 -2.29180193 0.43022883 -0.15233294
VERTEX2 858 -1.64836397 0.30856496 -0.20688183
VERTEX2 859 -1.13275331 0.20515599 -0.21376793
VERTEX2 860 -1.10985432 0.21458037 0.63691164
VERTEX2 861 -1.09455315 0.32230569 1.55155476
VERTEX2 862 -1.05600348 0.98026131 1.49188635
VERTEX2 863 -0.99841980 1.62269690 1.45935125
VERTEX2 864 -0.91255753 2.22282693 1.45740417
VERTEX2 865 -0.87176818 2.82453416 1.51519830
VERTEX2 866 -0.82770045 3.40071461 1.51420951
VERTEX2 867 -0.82061813 3.55505817 1.69560365
VERTEX2 868 -0.82577756 3.56152232 2.72005561
VERTEX2 869 -0.82195159 3.56152005 -2.58467164
VERTEX2 870 -0.80987425 3.56801397 -1.58508530
VERTEX2 871 -0.79690700 3.55923868 -0.61129856
VERTEX2 872 -0.78103981 3.54779846 0.07334366
VERTEX2 873 -0.75635422 3.53957253 -0.49973585
VERTEX2 874 -0.73749605 3.52252320 -1.05984319
VERTEX2 875 -0.73238493 3.51048876 -1.64688330
VERTEX2 876 -0.85292315 2.95656581 -1.80469814
VERTEX2 877 -1.00578277 2.41663990 -1.88956058
VERTEX2 878 -1.05628983 2.21891977 -1.50696386
VERTEX2 879 -0.95729027 1.58282721 -1.45612394
VERTEX2 880 -0.92322744 1.13625105 -1.56902037
VERTEX2 881 -0.92346049 1.18853966 -1.56384619
VERTEX2 882 -0.98192816 0.55150149 -1.81062775
VERTEX2 883 -1.19928539 -0.04130282 -2.00157441
VERTEX2 884 -1.35851180 -0.37159072 -2.06871026
VERTEX2 885 -1.35860770 -0.36885956 -1.48759525
VERTEX2 886 -1.34413839 -0.38252578 -0.47051683
VERTEX2 887 -1.31858073 -0.39262270 0.53988778
VERTEX2 888 -1.30766438 -0.37004467 1.52308056
VERTEX2 889 -1.31026088 -0.36233695 2.42035955
VERTEX2 890 -1.62742939 -0.20594113 2.69403686
VERTEX2 891 -2.16534598 0.06650113 2.62356748
VERTEX2 892 -2.69910113 0.39178586 2.58786861
VERTEX2 893 -3.23444898 0.68403309 2.82523352
VERTEX2 894 -3.82923917 0.79631286 3.04732574
VERTEX2 895 -4.41219546 0.75217674 -2.93643198
VERTEX2 896 -4.42485849 0.74921351 -2.45687551
VERTEX2 897 -4.71301965 0.32557768 -2.18385124
VERTEX2 898 -5.06560750 -0.18213833 -2.16802202
VERTEX2 899 -5.35282836 -0.59053376 -2.23543174
VERTEX2 900 -5.76706755 -1.13285420 -2.23755529
VERTEX2 901 -6.13911116 -1.57528614 -2.30165238
VERTEX2 902 -6.55570343 -2.06490373 -2.27618119
VERTEX2 903 -6.87193424 -2.44225610 -2.32072053
VERTEX2 904 -6.87279374 -2.44348157 -1.61716463
VERTEX2 905 -6.86009700 -2.93591145 -1.56155507
VERTEX2 906 -6.82740015 -3.50662132 -1.49570177
VERTEX2 907 -6.77234905 -4.08056508 -1.50377050
VERTEX2 908 -6.72750762 -4.70424324 -1.47888147
VERTEX2 909 -6.66830988 -5.31796736 -1.49667780
VERTEX2 910 -6.69552151 -5.44384619 -1.86660194
VERTEX2 911 -6.85584109 -6.01114600 -1.80574162
VERTEX2 912 -6.97742212 -6.57233759 -1.79312821
VERTEX2 913 -7.09005433 -7.11152482 -1.78519526
VERTEX2 914 -7.21668889 -7.69689908 -1.80884786
VERTEX2 915 -7.34058036 -8.20325986 -1.84555144
VERTEX2 916 -7.27720511 -8.44525214 -1.29798430
VERTEX2 917 -7.13965351 -9.09216495 -1.55237302
VERTEX2 918 -7.16050502 -9.60787331 -1.62788342
VERTEX2 919 -7.19489540 -10.22938024 -1.67117562
VERTEX2 920 -7.26005043 -10.84120967 -1.68873524
VERTEX2 921 -7.33399476 -11.45425182 -1.74204633
VERTEX2 922 -7.43701229 -12.05576312 -1.76922461
VERTEX2 923 -7.55750688 -12.61992672 -1.83264830
VERTEX2 924 -7.68909188 -13.10951703 -1.81598332
VERTEX2 925 -7.69052032 -13.10246035 -1.31118318
VERTEX2 926 -7.53163184 -13.66260674 -1.29496455
VERTEX2 927 -7.36592610 -14.25133327 -1.31826513
VERTEX2 928 -7.20927039 -14.85541646 -1.32720121
VERTEX2 929 -7.05913030 -15.45662390 -1.32811385
VERTEX2 930 -6.91229317 -16.08714748 -1.41072162
VERTEX2 931 -6.82650573 -16.71279373 -1.49098400
VERTEX2 932 -6.78080839 -17.33898393 -1.55045973
VERTEX2 933 -6.77778091 -17.95040261 -1.61509616
VERTEX2 934 -6.79269938 -18.42977584 -1.62495663
VERTEX2 935 -6.79012649 -18.44174018 -0.94285977
VERTEX2 936 -6.78922202 -18.44205859 0.00224995
VERTEX2 937 -6.24797400 -18.41757484 0.06511176
VERTEX2 938 -5.65280007 -18.43432281 -0.10831373
VERTEX2 939 -5.02982143 -18.49485168 -0.08061360
VERTEX2 940 -4.41885743 -18.57083776 -0.16655383
VERTEX2 941 -3.81496419 -18.68720157 -0.22027415
VERTEX2 942 -3.29714093 -18.80367208 -0.21583463
VERTEX2 943 -2.68890662 -18.93846818 -0.12756624
VERTEX2 944 -2.07678339 -19.02254692 -0.18427194
VERTEX2 945 -1.45789964 -19.15206505 -0.23944042
VERTEX2 946 -1.28548934 -19.19639049 -0.17516277
VERTEX2 947 -0.87841908 -19.13458891 0.15298031
VERTEX2 948 -0.30757779 -19.04704402 0.13379710
VERTEX2 949 0.29343734 -19.01421485 -0.02192097
VERTEX2 950 0.92154852 -19.05199060 -0.26150844
VERTEX2 951 1.52145374 -19.22604289 -0.33370594
VERTEX2 952 2.12105419 -19.40311772 -0.08298878
VERTEX2 953 2.74863328 -19.43647617 -0.00275967
VERTEX2 954 3.37209827 -19.43101745 -0.00979239
VERTEX2 955 3.96032823 -19.47823818 -0.17064084
VERTEX2 956 4.50961786 -19.55811753 -0.17294455
VERTEX2 957 5.03943377 -19.65558426 -0.26064553
VERTEX2 958 5.50396778 -19.76867316 -0.28737649
VERTEX2 959 5.93276654 -19.88745484 -0.35446842
VERTEX2 960 6.52040148 -20.05153224 -0.27462457
VERTEX2 961 7.10036544 -20.22689444 -0.30169708
VERTEX2 962 7.71624662 -20.35677039 -0.23612873
VERTEX2 963 8.33235178 -20.43899066 -0.04951750
VERTEX2 964 8.95316470 -20.48200820 -0.11345671
VERTEX2 965 9.56960268 -20.56249542 -0.12038520
VERTEX2 966 10.01207549 -20.62191953 -0.17939257
VERTEX2 967 10.04407668 -20.61549627 0.67389987
VERTEX2 968 10.05165550 -20.60836195 1.57051986
VERTEX2 969 10.05394512 -20.63573869 1.62994728
VERTEX2 970 10.05634701 -20.66338564 1.62817941
VERTEX2 971 10.03638319 -20.32978865 1.62827407
VERTEX2 972 9.99857319 -19.74287648 1.63384499
VERTEX2 973 10.07894962 -19.16082427 1.34874295
VERTEX2 974 10.21908888 -18.55937395 1.38046994
VERTEX2 975 10.33140834 -17.95374241 1.38497548
VERTEX2 976 10.43703267 -17.34544413 1.39776363
VERTEX2 977 10.57361677 -16.72756640 1.37137894
VERTEX2 978 10.69548361 -16.11587779 1.41723912
VERTEX2 979 10.81122037 -15.50801535 1.40485624
VERTEX2 980 10.90994430 -14.90323616 1.45166027
VERTEX2 981 10.99960549 -14.30896772 1.45845525
VERTEX2 982 11.05671290 -13.78120483 1.50329597
VERTEX2 983 11.10716227 -13.18237173 1.49981462
VERTEX2 984 11.13526026 -12.58608534 1.55708159
VERTEX2 985 11.14706820 -11.98891950 1.57727839
VERTEX2 986 11.13315637 -11.36825916 1.61353561
VERTEX2 987 11.12157064 -10.74907094 1.57677305
VERTEX2 988 11.12544418 -10.13015463 1.59042592
VERTEX2 989 11.11218426 -9.51603807 1.59801263
VERTEX2 990 11.10679258 -8.90517583 1.58719976
VERTEX2 991 11.09300597 -8.29087643 1.61202246
VERTEX2 992 11.08936415 -7.70443482 1.57945941
VERTEX2 993 11.07720490 -7.08863600 1.61226713
VERTEX2 994 11.06231161 -6.50364218 1.60240472
VERTEX2 995 11.03214918 -5.91317134 1.64987487
VERTEX2 996 10.97432486 -5.30785175 1.67721042
VERTEX2 997 10.93122643 -4.66381770 1.61303692
VERTEX2 998 10.91240249 -4.26199948 1.63513109
VERTEX2 999 10.94579597 -4.28909162 2.35365698
VERTEX2 1000 10.48963720 -3.93316759 2.50261454
VERTEX2 1001 10.05622604 -3.53750938 2.18208430
VERTEX2 1002 9.69394565 -3.07113433 2.27504687
VERTEX2 1003 9.34829669 -2.57767650 2.09580011
VERTEX2 1004 9.00992174 -2.04245665 2.15411732
VERTEX2 1005 8.65668643 -1.54939032 2.21661692
VERTEX2 1006 8.26109325 -1.07229136 2.29404966
VERTEX2 1007 7.84834638 -0.64689300 2.38575264
VERTEX2 1008 7.61252365 -0.43223644 2.54531594
VERTEX2 1009 7.51491896 -0.41753405 3.01833282
VERTEX2 1010 6.94767460 -0.36213194 3.07086600
VERTEX2 1011 6.33139236 -0.32322873 3.02770433
VERTEX2 1012 5.72132384 -0.26027214 3.06955626
VERTEX2 1013 5.08471772 -0.26310007 -3.09872607
VERTEX2 1014 4.47124233 -0.21519866 3.00909546
VERTEX2 1015 3.84576892 -0.17588384 3.09351010
VERTEX2 1016 3.07569942 -0.13825530 3.10019493
VERTEX2 1017 2.49021175 -0.12474791 3.04296990
VERTEX2 1018 1.93223449 -0.06273109 3.05020378
VERTEX2 1019 1.33720031 -0.03801861 3.10968620
VERTEX2 1020 0.72191546 -0.00176322 3.09567934
VERTEX2 1021 0.10074068 0.02766080 3.05501916
VERTEX2 1022 0.04710017 0.03212179 3.04773725
VERTEX2 1023 0.05391636 0.03198699 3.13426567
VERTEX2 1024 -0.57310446 0.04016573 -3.12264386
VERTEX2 1025 -1.20226158 0.01010163 -3.10512552
VERTEX2 1026 -1.36372553 0.00471781 -3.09800316
VERTEX2 1027 -1.34743917 0.01267987 -2.18166635
VERTEX2 1028 -1.36066009 -0.15261865 -1.61833123
VERTEX2 1029 -1.38996179 -0.71769667 -1.63994301
VERTEX2 1030 -1.45455800 -1.34063440 -1.72051744
VERTEX2 1031 -1.56857215 -1.98755237 -1.77481051
VERTEX2 1032 -1.70064199 -2.63447346 -1.77089251
VERTEX2 1033 -1.84515579 -3.27734167 -1.81626247
VERTEX2 1034 -1.88988497 -3.44699310 -2.03034159
VERTEX2 1035 -1.89418735 -3.45061311 -2.65021291
VERTEX2 1036 -1.86261252 -3.46529459 3.06163904
VERTEX2 1037 -2.20147511 -3.33503930 2.82293416
VERTEX2 1038 -2.81159211 -3.21086705 2.91390809
VERTEX2 1039 -3.44857252 -3.03913602 2.88217266
VERTEX2 1040 -3.42171914 -3.03989190 -2.77152178
VERTEX2 1041 -3.39147241 -3.04402095 -1.75560013
VERTEX2 1042 -3.39341397 -3.07610207 -0.76863434
VERTEX2 1043 -3.35957405 -3.10768001 0.19997941
VERTEX2 1044 -3.37229742 -3.12249452 1.19281848
VERTEX2 1045 -3.37483643 -3.12797066 1.07868535
VERTEX2 1046 -3.38462141 -3.14091236 0.69298599
VERTEX2 1047 -3.40276256 -3.14863745 0.13700683
VERTEX2 1048 -3.04070324 -3.22087856 -0.17613791
VERTEX2 1049 -2.39589682 -3.32469081 -0.15907414
VERTEX2 1050 -1.74905978 -3.40081514 -0.08350380
VERTEX2 1051 -1.09336887 -3.48012896 -0.16267226
VERTEX2 1052 -0.46931869 -3.56673259 -0.10974337
VERTEX2 1053 -0.05160726 -3.62496146 -0.16239624
VERTEX2 1054 -0.02415306 -3.62810958 0.59963380
VERTEX2 1055 -0.01720548 -3.59698652 1.65333511
VERTEX2 1056 -0.00832310 -3.61031552 2.65660318
VERTEX2 1057 0.01761613 -3.61349971 -2.63548991
VERTEX2 1058 0.01509585 -3.61639197 -1.71308834
VERTEX2 1059 -0.08974662 -4.19929266 -1.79378042
VERTEX2 1060 -0.23393219 -4.82903386 -1.78872994
VERTEX2 1061 -0.34666988 -5.27526375 -1.91120480
VERTEX2 1062 -0.35147655 -5.28246814 -2.47556464
VERTEX2 1063 -0.33201653 -5.27164387 -3.07342930
VERTEX2 1064 -0.61281524 -5.21531160 2.94441669
VERTEX2 1065 -1.20078026 -5.14091183 3.06631085
VERTEX2 1066 -1.76444056 -5.08144852 3.01013250
VERTEX2 1067 -1.75141764 -5.08093774 -2.84050914
VERTEX2 1068 -1.74064360 -5.07357695 -2.16789051
VERTEX2 1069 -1.74077260 -5.07393037 -1.99759731
VERTEX2 1070 -1.74039523 -5.07331042 -2.53670045
VERTEX2 1071 -2.21146905 -5.32102646 -2.66363274
VERTEX2 1072 -2.66037420 -5.54579163 -2.73203489
VERTEX2 1073 -2.62810269 -5.54535539 3.04053527
VERTEX2 1074 -3.15464155 -5.46746189 3.00642929
VERTEX2 1075 -3.72877571 -5.38473858 3.02325413
VERTEX2 1076 -3.74511854 -5.38340002 -2.85560425
VERTEX2 1077 -3.75820542 -5.40748282 -2.04952975
VERTEX2 1078 -4.00295089 -6.01474147 -2.00432059
VERTEX2 1079 -4.24154819 -6.57899844 -1.94214924
VERTEX2 1080 -4.24642647 -6.59164851 -2.42962360
VERTEX2 1081 -4.67574312 -6.87875279 -2.55282505
VERTEX2 1082 -4.84577258 -6.99490282 -2.27214227
VERTEX2 1083 -4.84162674 -7.02914858 -1.24128989
VERTEX2 1084 -4.76883904 -7.06744831 -0.27550024
VERTEX2 1085 -4.77763279 -7.06965290 0.70750416
VERTEX2 1086 -4.41393457 -6.58515578 0.93794565
VERTEX2 1087 -4.03068480 -6.08310812 0.92582289
VERTEX2 1088 -3.66586605 -5.57657242 0.90900402
VERTEX2 1089 -3.60810960 -5.50354788 0.81331122
VERTEX2 1090 -3.59672720 -5.49337877 0.19770183
VERTEX2 1091 -3.06030890 -5.46759959 0.02055011
VERTEX2 1092 -2.44292623 -5.45972814 0.00519753
VERTEX2 1093 -1.87588101 -5.46963295 -0.06012043
VERTEX2 1094 -1.86384458 -5.48139757 -0.46510818
VERTEX2 1095 -1.83143980 -5.51094069 -1.05660714
VERTEX2 1096 -1.83090455 -5.51360558 -1.62956895
VERTEX2 1097 -1.92007439 -5.83840069 -1.84606237
VERTEX2 1098 -2.10838951 -6.43270232 -1.90371269
VERTEX2 1099 -2.32665361 -6.99044353 -2.00145089
VERTEX2 1100 -2.33291572 -7.00536273 -1.64094017
VERTEX2 1101 -2.27966481 -7.27554321 -1.37747529
VERTEX2 1102 -2.28111057 -7.28863494 -1.77415368
VERTEX2 1103 -2.42757942 -7.89762377 -1.80957326
VERTEX2 1104 -2.58670329 -8.53224699 -1.83889925
VERTEX2 1105 -2.76372773 -9.15186910 -1.85840385
VERTEX2 1106 -2.90744522 -9.62707447 -1.88527830
VERTEX2 1107 -2.90679569 -9.64016401 -1.63161743
VERTEX2 1108 -2.90110253 -10.27200660 -1.62535831
VERTEX2 1109 -2.98226542 -10.91729451 -1.73121626
VERTEX2 1110 -3.08535345 -11.52497576 -1.78248138
VERTEX2 1111 -3.28134073 -12.04824550 -1.88569577
VERTEX2 1112 -3.34470458 -12.62935583 -1.54217187
VERTEX2 1113 -3.34265504 -13.27420235 -1.63948139
VERTEX2 1114 -3.38434923 -13.89403536 -1.62410899
VERTEX2 1115 -3.41250461 -14.48123187 -1.64197835
VERTEX2 1116 -3.43605503 -15.13396895 -1.60746965
VERTEX2 1117 -3.43887141 -15.23621966 -1.73732792
VERTEX2 1118 -3.43837158 -15.23541117 -2.34882900
VERTEX2 1119 -3.42805990 -15.22921976 -2.78386869
VERTEX2 1120 -4.00064136 -15.39640063 -2.84936310
VERTEX2 1121 -4.19151928 -15.44942377 -2.97002292
VERTEX2 1122 -4.18209848 -15.45344778 2.75880801
VERTEX2 1123 -4.71113142 -15.23113477 2.77402888
VERTEX2 1124 -5.25201303 -15.06273852 2.87077013
VERTEX2 1125 -5.86050549 -14.89116174 2.88256148
VERTEX2 1126 -5.93417831 -14.87326967 -3.06390405
VERTEX2 1127 -5.42087573 -21.50348701 3.08725598
VERTEX2 1128 4.15691518 -6.87596373 -0.42073114
VERTEX2 1129 4.18248507 -6.87581735 0.59057603
VERTEX2 1130 4.66406067 -6.53176277 0.60330328
VERTEX2 1131 5.40274650 -6.26279835 0.16961727
VERTEX2 1132 6.04638977 -6.15541140 0.14905819
VERTEX2 1133 6.64001117 -6.08907591 0.10948722
VERTEX2 1134 6.91760543 -6.05891756 0.01151971
VERTEX2 1135 6.94016578 -6.06519711 -0.54649376
VERTEX2 1136 6.94065303 -6.07430746 -1.11044967
VERTEX2 1137 7.04180710 -6.37607281 -1.29558681
VERTEX2 1138 7.20518419 -6.99974175 -1.31409878
VERTEX2 1139 7.33468507 -7.49196961 -1.39195595
VERTEX2 1140 7.52466697 -5.28856327 -2.23493703
VERTEX2 1141 -2.80173915 -16.90861683 -2.88812006
VERTEX2 1142 -3.22138876 -16.86718123 3.02601136
VERTEX2 1143 -3.87547657 -16.82604265 3.11252438
VERTEX2 1144 -4.51223260 -16.79610039 3.07929749
VERTEX2 1145 -5.14652488 -16.75209744 3.05124344
VERTEX2 1146 -5.77828114 -16.69361998 3.06846179
VERTEX2 1147 -6.41362288 -16.68496772 3.13836221
VERTEX2 1148 -6.99667056 -16.68263609 -3.13475597
VERTEX2 1149 -7.04386935 -16.68408215 -2.63642791
VERTEX2 1150 -7.13378871 -16.78383833 -1.82964427
VERTEX2 1151 -7.13144946 -16.79738645 -0.82581976
VERTEX2 1152 -7.11511011 -16.79770949 0.22730699
VERTEX2 1153 -7.10201593 -16.79183273 1.24009782
VERTEX2 1154 -7.15995849 -16.47688180 1.78610528
VERTEX2 1155 -7.29078000 -15.85424168 1.73673488
VERTEX2 1156 -7.38586357 -15.25035501 1.74673233
VERTEX2 1157 -7.51077962 -14.68104363 1.85781572
VERTEX2 1158 -7.63480845 -14.08071410 1.72922910
VERTEX2 1159 -7.69256479 -13.48290135 1.63491927
VERTEX2 1160 -7.71232398 -12.84816337 1.49790921
VERTEX2 1161 -7.61022593 -12.22034817 1.40801233
VERTEX2 1162 -7.51620419 -11.59232465 1.46597011
VERTEX2 1163 -7.45132322 -10.94872141 1.46078921
VERTEX2 1164 -7.40092628 -10.30673641 1.54650459
VERTEX2 1165 -7.38818685 -9.76549925 1.52372396
VERTEX2 1166 -7.38927653 -9.76009942 2.01278314
VERTEX2 1167 -7.33882865 -9.74797632 2.94960535
VERTEX2 1168 -7.29522765 -9.73075884 -2.42995483
VERTEX2 1169 -7.29919428 -9.78069245 -1.60780224
VERTEX2 1170 -7.31061316 -10.36517179 -1.60102737
VERTEX2 1171 -7.31173177 -10.99840724 -1.56920559
VERTEX2 1172 -7.31719157 -11.59569678 -1.63156946
VERTEX2 1173 -7.34822671 -12.21769364 -1.62237093
VERTEX2 1174 -7.39313384 -12.84488648 -1.69101411
VERTEX2 1175 -7.48014446 -13.45696778 -1.72435563
VERTEX2 1176 -7.57834724 -14.07509827 -1.76801617
VERTEX2 1177 -7.69858953 -14.68120502 -1.76595610
VERTEX2 1178 -7.83035418 -15.29123828 -1.81314960
VERTEX2 1179 -7.96853442 -15.89315402 -1.78378268
VERTEX2 1180 -8.02277174 -16.14441733 -1.79074986
VERTEX2 1181 -8.02158451 -16.13606744 -0.96322526
VERTEX2 1182 -7.96716482 -16.14998408 -0.25145121
VERTEX2 1183 -7.35480771 -16.29957520 -0.22613787
VERTEX2 1184 -6.72301245 -16.41514616 -0.15662404
VERTEX2 1185 -6.09610533 -16.52628633 -0.18892444
VERTEX2 1186 -5.46553961 -16.62200690 -0.12280630
VERTEX2 1187 -4.81257941 -16.70841947 -0.15998488
VERTEX2 1188 -4.18624428 -16.79921730 -0.14197842
VERTEX2 1189 -3.52787030 -16.90720024 -0.12046621
VERTEX2 1190 -3.20132342 -16.94741977 -0.11260680
VERTEX2 1191 -3.17447737 -16.94688208 0.80708620
VERTEX2 1192 -3.16889764 -16.86778514 1.60422336
VERTEX2 1193 -3.16160342 -16.27192316 1.47199150
VERTEX2 1194 -3.11990690 -15.70218628 1.51384753
VERTEX2 1195 -3.09076373 -15.08297976 1.56597346
VERTEX2 1196 -3.08403833 -14.46332621 1.39303982
VERTEX2 1197 -2.98036913 -13.85365654 1.40408021
VERTEX2 1198 -2.90926387 -13.23174579 1.66256383
VERTEX2 1199 -2.92506050 -12.62314066 1.44750982
VERTEX2 1200 -2.86675127 -11.99782959 1.51621672
VERTEX2 1201 -2.84030481 -11.38243518 1.57172236
VERTEX2 1202 -2.84866707 -10.76379094 1.59434255
VERTEX2 1203 -2.87702311 -10.17776308 1.50402086
VERTEX2 1204 -2.76129961 -9.59141492 1.35677210
VERTEX2 1205 -2.65127545 -9.03416015 1.38594970
VERTEX2 1206 -2.56355180 -8.44954946 1.44673926
VERTEX2 1207 -2.42392244 -7.84431379 1.36015571
VERTEX2 1208 -2.30853949 -7.22505812 1.42434986
VERTEX2 1209 -2.21813105 -6.60884115 1.42195511
VERTEX2 1210 -2.14939535 -5.99648345 1.44203518
VERTEX2 1211 -2.01938878 -5.38563699 1.36998489
VERTEX2 1212 -1.90100439 -4.77468471 1.42071786
VERTEX2 1213 -1.83063949 -4.16027741 1.49468807
VERTEX2 1214 -1.74584934 -3.43404354 1.27281207
VERTEX2 1215 -1.58016658 -2.85225704 1.33238772
VERTEX2 1216 -1.52842635 -2.29799191 1.55037215
VERTEX2 1217 -1.49324011 -1.71664390 1.53147090
VERTEX2 1218 -1.47828004 -1.12652982 1.48080190
VERTEX2 1219 -1.42630390 -0.47758293 1.51139990
VERTEX2 1220 -1.41811956 0.10946246 1.60213790
VERTEX2 1221 -1.41757995 0.10763247 1.14938490
VERTEX2 1222 -1.40758226 0.11732818 0.55207790
VERTEX2 1223 -1.39574270 0.12010507 -0.00754910
VERTEX2 1224 -0.82196141 0.02670692 -0.19045710
VERTEX2 1225 -0.20683657 -0.08791052 -0.17669310
VERTEX2 1226 -0.10200996 -0.10673858 -0.19342410
VERTEX2 1227 -0.10200996 -0.10673858 -0.19408610
