1 19 166 0.00295767 10 
2 19 172 0.00312493 10 
3 25 172 0.00318469 10 
4 25 178 0.00329772 10 
5 32 178 0.00329896 10 
6 32 183 0.00339125 10 
7 44 189 0.00351175 10 
8 44 195 0.00362124 10 
9 50 195 0.00361571 10 
10 70 198 0.00366032 10 
11 50 201 0.00371738 10 
12 50 203 0.00375039 10 
13 61 203 0.00375821 10 
14 61 209 0.00387321 10 
15 67 209 0.00387235 10 
16 67 220 0.00406502 10 
17 81 220 0.00410276 10 
18 81 226 0.00422927 10 
19 87 226 0.00422952 10 
20 87 231 0.00434713 10 
21 94 231 0.00435223 10 
22 226 231 0.00435399 10 
23 94 241 0.00455657 10 
24 101 241 0.00455318 10 
25 101 247 0.00468734 10 
26 107 247 0.00467219 10 
27 107 254 0.00481187 10 
28 114 254 0.00481815 10 
29 107 256 0.00486707 10 
30 114 256 0.00488598 10 
31 107 258 0.00491709 10 
32 114 258 0.00493460 10 
33 121 266 0.00507189 10 
34 126 266 0.00505251 10 
35 126 272 0.00516341 10 
36 132 272 0.00524556 10 
37 132 278 0.00535522 10 
38 138 278 0.00535352 10 
39 138 284 0.00548129 10 
40 151 284 0.00549768 10 
41 151 291 0.00562919 10 
42 151 297 0.00573385 10 
43 157 297 0.00572854 10 
44 163 297 0.00570856 10 
45 166 297 0.00571118 10 
46 19 305 0.00599263 10 
47 157 305 0.00600618 10 
48 163 305 0.00600229 10 
49 166 305 0.00601482 10 
50 172 305 0.00604084 10 
51 19 315 0.00542773 9 
52 25 315 0.00610189 10 
53 172 315 0.00625526 10 
54 172 328 0.00631314 10 
55 19 337 0.00519177 8 
56 25 337 0.00656438 10 
57 172 337 0.00675304 10 
58 19 342 0.00662501 10 
59 25 342 0.00668081 10 
60 172 342 0.00342425 5 
61 178 342 0.00668974 10 
62 25 367 0.00349492 5 
63 32 367 0.00494854 7 
64 178 367 0.00423774 6 
65 183 367 0.00498885 7 
66 25 374 0.00728759 10 
67 32 374 0.00734264 10 
68 178 374 0.00526823 7 
69 183 374 0.00657722 9 
70 32 382 0.00595754 8 
71 183 382 0.00754051 10 
72 32 387 0.00758273 10 
73 183 387 0.00452077 6 
74 15 390 0.00457928 6 
75 189 400 0.00798420 10 
76 189 414 0.00824773 10 
77 190 434 0.00864415 10 
78 275 435 0.00874619 10 
79 44 437 0.00881170 10 
80 195 437 0.00901676 10 
81 44 454 0.00912109 10 
82 189 454 0.00935020 10 
83 44 467 0.00937396 10 
84 50 467 0.00961680 10 
85 195 467 0.00963345 10 
86 187 469 0.00946938 10 
87 195 484 0.00978703 10 
88 44 494 0.00687656 7 
89 50 494 0.00997147 10 
90 195 494 0.01022858 10 
91 201 494 0.01031771 10 
92 50 500 0.01021466 10 
93 201 500 0.01043999 10 
94 203 500 0.01046068 10 
95 61 508 0.01041903 10 
96 203 508 0.01067288 10 
97 209 508 0.01068081 10 
98 61 522 0.01065334 10 
99 203 522 0.01093519 10 
100 209 522 0.01094197 10 
101 61 528 0.01078466 10 
102 67 528 0.01107298 10 
103 81 528 0.01115334 10 
104 209 528 0.01112135 10 
105 220 528 0.01112002 10 
106 67 532 0.00866175 8 
107 81 532 0.01094408 10 
108 220 532 0.01123613 10 
109 67 556 0.01141350 10 
110 67 564 0.01157180 10 
111 81 564 0.01184450 10 
112 220 564 0.01178859 10 
113 67 567 0.01165486 10 
114 81 567 0.01193281 10 
115 220 567 0.01194010 10 
116 67 570 0.01173103 10 
117 81 570 0.01201063 10 
118 220 570 0.01202878 10 
119 81 575 0.01213489 10 
120 220 575 0.01213366 10 
121 512 585 0.01209950 10 
122 81 588 0.01219810 10 
123 87 588 0.01255263 10 
124 226 588 0.01261513 10 
125 87 597 0.01247662 10 
126 94 597 0.01280070 10 
127 226 597 0.01282694 10 
128 87 604 0.01268062 10 
129 94 604 0.01298595 10 
130 94 616 0.01022778 8 
131 94 632 0.01323332 10 
132 94 637 0.01332101 10 
133 101 637 0.01364411 10 
134 101 642 0.01344251 10 
135 107 642 0.01381302 10 
136 101 645 0.01353881 10 
137 107 645 0.01386910 10 
138 101 657 0.01377908 10 
139 101 663 0.01239777 9 
140 107 663 0.01389232 10 
141 114 663 0.01429115 10 
142 101 665 0.01398549 10 
143 107 665 0.01439984 10 
144 114 665 0.01450934 10 
145 107 680 0.01433697 10 
146 107 683 0.01440774 10 
147 114 683 0.01472767 10 
148 107 704 0.01481072 10 
149 114 704 0.01513442 10 
150 107 714 0.01499109 10 
151 114 714 0.01531274 10 
152 107 730 0.01056353 7 
153 114 730 0.01531102 10 
154 121 754 0.01569864 10 
155 126 754 0.01605051 10 
156 324 757 0.01593824 10 
157 121 759 0.01598712 10 
158 126 759 0.01637718 10 
159 697 760 0.01614037 10 
160 126 762 0.01619797 10 
161 132 762 0.01666645 10 
162 132 778 0.01663435 10 
163 671 781 0.01678762 10 
164 557 783 0.01680491 10 
165 132 792 0.01716767 10 
166 132 800 0.01725297 10 
167 138 800 0.01767042 10 
168 138 806 0.01757844 10 
169 138 821 0.01576428 9 
170 138 823 0.01759420 10 
171 440 823 0.01786938 10 
172 151 828 0.01804193 10 
173 151 847 0.01840890 10 
174 151 855 0.01856274 10 
175 151 895 0.01933982 10 
176 151 897 0.01967892 10 
177 138 903 0.01945832 10 
178 138 904 0.01991140 10 
179 132 907 0.01953320 10 
180 138 907 0.02000237 10 
181 132 911 0.01967583 10 
182 121 923 0.01994908 10 
183 126 923 0.02038710 10 
184 107 929 0.02013140 10 
185 114 929 0.02058975 10 
186 107 935 0.02024748 10 
187 114 935 0.02072867 10 
188 101 939 0.02040198 10 
189 107 939 0.01870673 9 
190 497 939 0.02043821 10 
191 101 944 0.02052738 10 
192 94 947 0.02062702 10 
193 101 947 0.02109021 10 
194 87 953 0.02078688 10 
195 94 953 0.02125506 10 
196 226 953 0.02125690 10 
197 81 959 0.02091053 10 
198 87 959 0.02159147 10 
199 220 959 0.02152237 10 
200 226 959 0.02144396 10 
201 67 965 0.02121474 10 
202 81 965 0.02169732 10 
203 220 965 0.02172460 10 
204 61 976 0.02143536 10 
205 67 976 0.02189144 10 
206 209 976 0.02212550 10 
207 968 981 0.02154143 10 
208 50 982 0.02168460 10 
209 61 982 0.02220402 10 
210 201 982 0.02225283 10 
211 203 982 0.02218722 10 
212 44 988 0.02202815 10 
213 50 988 0.02251182 10 
214 195 988 0.02253827 10 
215 201 988 0.01805648 8 
216 447 988 0.02212248 10 
217 44 994 0.02222684 10 
218 189 994 0.02274307 10 
219 195 994 0.02273124 10 
220 644 1000 0.02250829 10 
221 32 1003 0.02267436 10 
222 178 1003 0.02329842 10 
223 183 1003 0.02330131 10 
224 260 1004 0.02325394 10 
225 25 1008 0.02322564 10 
226 32 1008 0.02355431 10 
227 178 1008 0.02356182 10 
228 183 1008 0.02365904 10 
229 25 1010 0.02311871 10 
230 32 1010 0.02361881 10 
231 172 1010 0.02367832 10 
232 178 1010 0.02368823 10 
233 466 1015 0.02370917 10 
234 19 1016 0.02358710 10 
235 166 1016 0.02414011 10 
236 172 1016 0.02166923 9 
237 842 1021 0.02386847 10 
238 151 1029 0.02399232 10 
239 157 1029 0.02455389 10 
240 163 1029 0.02483816 10 
241 166 1029 0.02455278 10 
242 200 1041 0.02478962 10 
243 638 1055 0.02518852 10 
244 132 1084 0.02593523 10 
245 151 1090 0.02605799 10 
246 175 1115 0.02662782 10 
247 951 1119 0.02696033 10 
248 101 1138 0.02735055 10 
249 1087 1146 0.02761833 10 
250 107 1147 0.02793546 10 
251 114 1147 0.02845649 10 
252 107 1150 0.02800199 10 
253 114 1150 0.02852785 10 
254 114 1158 0.02886907 10 
255 121 1158 0.02870512 10 
256 121 1164 0.02834868 10 
257 126 1164 0.02866801 10 
258 114 1175 0.02841833 10 
259 121 1175 0.02897934 10 
260 923 1175 0.02901243 10 
261 929 1175 0.02907269 10 
262 1158 1175 0.02029142 7 
263 101 1188 0.02895059 10 
264 939 1188 0.02937247 10 
265 1138 1188 0.02970216 10 
266 1147 1188 0.02949225 10 
267 1150 1188 0.02952690 10 
268 638 1199 0.02959789 10 
269 1050 1210 0.02982584 10 
270 1061 1210 0.03027573 10 
271 1075 1210 0.03023422 10 
272 1084 1210 0.03023118 10 
273 1088 1210 0.02993823 10 
274 1093 1210 0.02996312 10 
275 1098 1210 0.02998180 10 
276 157 1217 0.02987963 10 
277 163 1217 0.03037502 10 
278 1029 1217 0.03040611 10 
279 1044 1217 0.03054475 10 
280 1050 1217 0.03054359 10 
281 1056 1217 0.03050605 10 
