1 3 49 2 322.48588193 0.00000242 1 
2 21 52 2 441.71982932 0.00000709 1 
3 29 77 2 458.79451207 0.00000273 1 
4 20 123 2 265.62853443 0.00000247 1 
5 61 144 2 110.26361280 0.00000222 1 
6 69 152 2 91.71987429 0.00000239 1 
7 19 166 0 0.41485034 0.00210232 5 
8 19 172 0 0.02820697 0.00186641 4 
9 25 172 0 0.50366199 0.00187379 4 
10 58 174 2 418.13183463 0.00000213 1 
11 25 178 0 0.30831851 0.00198400 4 
12 32 178 0 0.01493521 0.00198516 4 
13 32 183 0 0.07055611 0.00201258 4 
14 140 184 2 149.91512111 0.00000236 1 
15 44 189 0 0.52863102 0.00207691 4 
16 44 195 0 0.35755137 0.00217672 4 
17 50 195 0 0.00572854 0.00219860 4 
18 50 201 0 0.04110605 0.00191307 3 
19 50 203 0 0.06975183 0.00188406 3 
20 61 203 0 0.00745912 0.00191043 3 
21 61 209 0 0.37222863 0.00231852 4 
22 67 209 0 0.41032090 0.00233728 4 
23 60 214 2 3075.72053801 0.00000263 1 
24 91 219 2 206.07976125 0.00000263 1 
25 67 220 0 0.66144083 0.00251066 4 
26 81 220 0 0.48035877 0.00286050 5 
27 81 226 0 0.05402805 0.00257397 4 
28 87 226 0 1.82553139 0.00295390 5 
29 87 231 0 0.34656585 0.00263805 4 
30 94 231 0 0.55778528 0.00257260 4 
31 226 231 0 1.44127402 0.00298832 5 
32 212 234 2 4044.82704457 0.00000254 1 
33 51 236 2 1110.52662565 0.00000234 1 
34 131 237 2 437.80106995 0.00000219 1 
35 123 240 2 204.57295247 0.00000233 1 
36 94 241 0 1.33132047 0.00270016 4 
37 101 241 0 0.50961029 0.00272731 4 
38 101 247 0 1.66454674 0.00276077 4 
39 107 247 0 1.80094617 0.00279490 4 
40 107 254 0 1.18346605 0.00284409 4 
41 114 254 0 0.12939160 0.00287668 4 
42 107 256 0 0.93085039 0.00284922 4 
43 114 256 0 0.24629796 0.00286541 4 
44 107 258 0 1.37911724 0.00290787 4 
45 114 258 0 1.15747212 0.00293462 4 
46 107 262 2 1325.22285496 0.00000208 1 
47 121 266 0 0.00938596 0.00302046 4 
48 126 266 0 0.44864328 0.00355914 5 
49 126 272 0 1.03992836 0.00310140 4 
50 132 272 0 0.39070916 0.00366470 5 
51 245 273 2 512.17416632 0.00000239 1 
52 132 278 0 0.58358145 0.00317680 4 
53 138 278 0 1.06458780 0.00373661 5 
54 138 284 0 0.02201259 0.00272022 3 
55 151 284 0 0.12777228 0.00330086 4 
56 273 287 2 5420.81298479 0.00000241 1 
57 151 291 0 0.60037557 0.00333694 4 
58 57 292 2 1601.40482691 0.00000247 1 
59 151 297 0 0.07972289 0.00285721 3 
60 157 297 0 1.04991834 0.00345584 4 
61 166 297 0 1.30507781 0.00339324 4 
62 19 305 0 0.16044642 0.00358020 4 
63 157 305 0 0.58687353 0.00361370 4 
64 163 305 0 7.56485476 0.00485250 6 
65 166 305 0 0.37495035 0.00360805 4 
66 172 305 0 0.01886255 0.00361032 4 
67 187 309 2 1217.49292097 0.00000245 1 
68 19 315 0 0.48455906 0.00311639 3 
69 25 315 0 0.02281386 0.00312071 3 
70 172 315 0 0.05679715 0.00373851 4 
71 273 316 2 995.44877077 0.00000223 1 
72 172 328 0 0.12482725 0.00327045 3 
73 303 336 2 2239.93951577 0.00000256 1 
74 19 337 0 6.63404991 0.00468553 5 
75 25 337 0 0.96522419 0.00400429 4 
76 172 337 0 0.57611560 0.00334453 3 
77 19 342 0 0.00494520 0.00338787 3 
78 25 342 0 0.12855172 0.00406870 4 
79 172 342 0 0.01223902 0.00413006 4 
80 178 342 0 0.12442988 0.00418008 4 
81 278 346 2 2216.26475717 0.00000503 1 
82 183 348 2 1504.41380492 0.00000277 1 
83 267 363 2 1086.12370353 0.00000316 1 
84 25 367 0 0.11414782 0.00379544 3 
85 32 367 0 0.01267433 0.00596192 6 
86 178 367 0 0.00286807 0.00377757 3 
87 183 367 0 0.06698524 0.00379938 3 
88 51 368 2 440.90609142 0.00000303 1 
89 38 372 2 184.47883830 0.00000258 1 
90 25 374 0 0.56424690 0.00460412 4 
91 32 374 0 0.09892849 0.00535661 5 
92 178 374 0 0.03055075 0.00461988 4 
93 183 374 0 0.05309447 0.00457883 4 
94 203 377 2 1513.94173889 0.00000334 1 
95 32 382 0 4.14688582 0.00393691 3 
96 183 382 0 1.28811506 0.00466420 4 
97 32 387 0 2.72468715 0.00476068 4 
98 183 387 0 0.18197642 0.00473940 4 
99 97 403 2 338.17574780 0.00000343 1 
100 97 407 2 77.12038443 0.00000310 1 
101 189 414 0 7.69047346 0.00586545 5 
102 6 421 2 1072.83994816 0.00000328 1 
103 364 425 2 684.28853640 0.00000317 1 
104 18 435 2 432.69276060 0.00000315 1 
105 44 437 0 0.00915802 0.00438822 3 
106 195 437 0 0.01161094 0.00437975 3 
107 320 449 2 799.95896155 0.00000341 1 
108 44 454 0 0.65644164 0.00453347 3 
109 189 454 0 0.03962740 0.00543430 4 
110 261 456 2 1402.45849672 0.00000297 1 
111 98 456 2 2829.08213206 0.00000153 1 
112 434 461 2 407.34985230 0.00000252 1 
113 44 467 0 0.12345281 0.00641714 5 
114 50 467 0 0.00895575 0.01022084 9 
115 195 467 0 0.00230988 0.00464944 3 
116 231 468 2 2698.61710948 0.00000341 1 
117 253 470 2 992.96596906 0.00000348 1 
118 57 479 2 494.85097739 0.00000354 1 
119 330 481 2 507.41230782 0.00000346 1 
120 195 484 0 0.09447226 0.00576305 4 
121 44 494 0 0.02880924 0.00577570 4 
122 50 494 0 0.00628832 0.00483239 3 
123 195 494 0 0.00818961 0.00682453 5 
124 201 494 0 0.00469852 0.00683695 5 
125 366 494 2 2917.90221711 0.00000326 5 
126 320 495 2 639.09501220 0.00000358 1 
127 50 500 0 0.14406209 0.00695314 5 
128 201 500 0 0.05353930 0.00496369 3 
129 203 500 0 0.03252445 0.00488678 3 
130 61 508 0 0.99413579 0.00723557 5 
131 203 508 0 0.26947301 0.01232748 10 
132 209 508 0 0.03711473 0.00610204 4 
133 61 522 0 1.37942234 0.00616455 4 
134 203 522 0 0.12859200 0.00514170 3 
135 209 522 0 0.00542469 0.00512885 3 
136 61 528 0 0.47936102 0.00516979 3 
137 67 528 0 0.22419307 0.00631780 4 
138 81 528 0 0.23233822 0.00841061 6 
139 209 528 0 0.09444678 0.01061809 8 
140 220 528 0 0.13668760 0.00623946 4 
141 67 532 0 0.05459173 0.01184511 9 
142 81 532 0 0.11826401 0.00849578 6 
143 220 532 0 0.05648169 0.00634484 4 
144 457 536 2 1188.64837419 0.00000272 1 
145 365 537 2 1536.44843004 0.00000225 1 
146 501 542 2 906.72149331 0.00000238 1 
147 370 548 2 972.07098247 0.00000245 1 
148 14 548 2 938.09014426 0.00000133 1 
149 516 550 2 452.72726987 0.00000245 1 
150 239 552 2 499.36961514 0.00000249 1 
151 67 556 0 0.98233216 0.00649773 4 
152 79 557 2 868.91297867 0.00000260 1 
153 241 563 2 3591.01865096 0.00000235 1 
154 67 564 0 0.40168838 0.01231733 9 
155 81 564 0 0.02280941 0.00664665 4 
156 220 564 0 0.02684857 0.00665468 4 
157 67 567 0 2.67253169 0.00783085 5 
158 81 567 0 0.48923871 0.00902912 6 
159 220 567 0 0.21723258 0.00666474 4 
160 67 570 0 2.40706627 0.00911494 6 
161 81 570 0 0.15671702 0.00903531 6 
162 220 570 0 0.13379867 0.00674548 4 
163 412 571 2 2048.07925673 0.00000284 1 
164 81 575 0 2.76594993 0.00793627 5 
165 220 575 0 1.08612706 0.01035029 7 
166 328 575 2 3129.15058082 0.00000276 7 
167 436 576 2 2617.69337040 0.00000273 1 
168 81 588 0 0.01497138 0.00569379 3 
169 87 588 0 0.47937722 0.00859516 5 
170 226 588 0 0.43156268 0.00694785 4 
171 259 596 2 2060.77116018 0.00000331 1 
172 87 597 0 2.27648751 0.00956980 6 
173 94 597 0 0.38888315 0.00702514 4 
174 226 597 0 0.55079633 0.00831484 5 
175 144 597 2 2042.60741844 0.00000217 5 
176 408 598 2 754.54396226 0.00000248 1 
177 537 602 2 121.47542190 0.00000249 1 
178 160 603 2 180.86950123 0.00000224 1 
179 87 604 0 0.47149562 0.00722228 4 
180 94 604 0 0.01542269 0.00842978 5 
181 249 605 2 3518.33848214 0.00000313 1 
182 84 610 2 488.76002344 0.00000265 1 
183 59 611 2 1846.26843080 0.00000519 1 
184 172 614 2 1170.32076848 0.00000255 1 
185 94 616 0 0.01350372 0.01235785 8 
186 43 621 2 1041.34760326 0.00000314 1 
187 598 622 2 6568.98434148 0.00000285 1 
188 176 631 2 1166.84336801 0.00000317 1 
189 94 632 0 2.16969694 0.00882633 5 
190 178 632 2 2540.28547218 0.00000318 5 
191 231 633 2 130.74312454 0.00000278 1 
192 94 637 0 4.44236402 0.01008395 6 
193 101 637 0 0.19098383 0.00754451 4 
194 456 637 2 635.97351956 0.00000337 4 
195 101 642 0 0.11555601 0.00891588 5 
196 107 642 0 0.04025021 0.01416865 9 
197 101 645 0 6.69527511 0.00766613 4 
198 107 645 0 1.54205090 0.00753357 4 
199 578 647 2 175.05033628 0.00000342 1 
200 456 650 2 129.44791784 0.00000295 1 
201 101 657 0 0.73548669 0.01670919 10 
202 52 658 2 1801.12869558 0.00000398 10 
203 509 660 2 3413.91193030 0.00000339 10 
204 287 662 2 1082.88040428 0.00000321 10 
205 101 663 0 0.04971914 0.01674312 10 
206 107 663 0 0.01781179 0.00915778 5 
207 114 663 0 0.00275957 0.00919774 5 
208 634 664 2 469.83072529 0.00000387 1 
209 101 665 0 1.55112265 0.01347299 8 
210 107 665 0 0.47667103 0.00782766 4 
211 114 665 0 0.13329170 0.00652702 3 
212 446 673 2 2636.00830543 0.00000327 1 
213 568 673 2 2608.63621798 0.00000124 1 
214 268 675 2 877.62621920 0.00000263 1 
215 297 677 2 1474.23161109 0.00000251 1 
216 107 680 0 1.48615866 0.00958956 5 
217 107 683 0 0.94462224 0.00805241 4 
218 114 683 0 0.32178225 0.00956935 5 
219 238 686 2 296.54568640 0.00000329 1 
220 419 699 2 665.51891943 0.00000306 1 
221 230 700 2 996.22849959 0.00000279 1 
222 365 701 2 1421.64444082 0.00000293 1 
223 107 704 0 0.34268109 0.01271116 7 
224 114 704 0 0.07528002 0.01558529 9 
225 73 706 2 227.87338847 0.00000303 1 
226 107 714 0 1.79639085 0.01138601 6 
227 114 714 0 0.02860377 0.01440996 8 
228 381 717 2 322.57574688 0.00000417 1 
229 221 722 2 1458.25735490 0.00000371 1 
230 107 730 0 0.19656714 0.01018396 5 
231 114 730 0 0.03540690 0.00858219 4 
232 42 740 2 1734.45343045 0.00000431 1 
233 494 740 2 1438.78183141 0.00000185 1 
234 697 743 2 592.19512285 0.00000370 1 
235 690 745 2 1171.67239651 0.00000601 1 
236 637 745 2 968.90877900 0.00000150 1 
237 254 750 2 270.81429864 0.00000368 1 
238 121 754 0 0.33113739 0.00874191 4 
239 126 754 0 0.07673382 0.01514144 8 
240 110 754 2 3699.97651829 0.00000382 8 
241 355 757 2 1263.27739675 0.00000312 1 
242 121 759 0 2.33625684 0.01196321 6 
243 126 759 0 0.22329988 0.01207287 6 
244 126 762 0 7.08482229 0.01038157 5 
245 132 762 0 2.00372045 0.01544388 8 
246 132 778 0 0.06999780 0.00904503 4 
247 132 792 0 1.26802734 0.00929422 4 
248 98 797 2 675.88201418 0.00000382 1 
249 526 798 2 191.52627868 0.00000347 1 
250 132 800 0 3.35686460 0.00924971 4 
251 138 800 0 0.14494330 0.01254955 6 
252 703 800 2 173.98755139 0.00000391 6 
253 578 805 2 907.55440990 0.00000336 1 
254 138 806 0 0.25140739 0.00761480 3 
255 608 809 2 2730.75915763 0.00000366 1 
256 137 816 2 1979.10009004 0.00000316 1 
257 138 821 0 0.40674396 0.01108741 5 
258 138 823 0 6.54725682 0.00937103 4 
259 555 823 2 4710.46037461 0.00000473 4 
260 665 826 2 3135.25696771 0.00000415 1 
261 660 827 2 1157.65788677 0.00000301 1 
262 151 828 0 3.12108818 0.00948144 4 
263 741 828 2 1158.32235403 0.00000366 4 
264 161 828 2 414.24135875 0.00000106 4 
265 485 834 2 2885.12632276 0.00000328 1 
266 4 838 2 1067.21499263 0.00000337 1 
267 665 841 2 2071.86251217 0.00000379 1 
268 777 841 2 1092.40238930 0.00000125 1 
269 6 846 2 120.67060328 0.00000341 1 
270 456 846 2 1047.75628064 0.00000153 1 
271 151 847 0 0.08724621 0.01143958 5 
272 491 849 2 988.39853323 0.00000423 1 
273 796 850 2 663.74463825 0.00000293 1 
274 151 855 0 0.11494457 0.01510871 7 
275 838 859 2 1336.38183246 0.00000357 1 
276 495 861 2 536.49950198 0.00000380 1 
277 261 864 2 494.57724836 0.00000357 1 
278 134 864 2 775.72399937 0.00000168 1 
279 282 868 2 1390.32380681 0.00000376 1 
280 305 871 2 258.82818318 0.00000333 1 
281 359 873 2 477.87885968 0.00000304 1 
282 792 876 2 597.85508114 0.00000404 1 
283 263 879 2 537.46556510 0.00000385 1 
284 113 881 2 383.40335823 0.00000371 1 
285 474 883 2 84.43605271 0.00000374 1 
286 54 884 2 528.68115807 0.00000340 1 
287 253 884 2 574.11742928 0.00000147 1 
288 815 887 2 63.28905508 0.00000323 1 
289 592 889 2 522.82642586 0.00000352 1 
290 151 895 0 2.80701437 0.01759060 8 
291 151 897 0 0.06118057 0.02135804 10 
292 583 898 2 1347.63662296 0.00000489 1 
293 856 902 2 1015.44217969 0.00000386 1 
294 138 903 0 0.08157811 0.01022718 4 
295 138 904 0 7.06392298 0.01399717 6 
296 68 904 2 1034.16107099 0.00000411 6 
297 119 906 2 712.01796850 0.00000363 1 
298 132 907 0 0.71874717 0.01027784 4 
299 138 907 0 0.22077132 0.01218429 5 
300 461 908 2 863.93611397 0.00000442 1 
301 126 909 2 6307.48015460 0.00000362 1 
302 132 911 0 0.23128175 0.01220067 5 
303 548 917 2 658.55449899 0.00000402 1 
304 27 920 2 1246.28015334 0.00000387 1 
305 121 923 0 0.62636126 0.01438027 6 
306 126 923 0 0.07130653 0.01046200 4 
307 555 926 2 656.98911199 0.00000455 1 
308 159 928 2 1040.35242122 0.00000379 1 
309 107 929 0 0.07225325 0.01252226 5 
310 114 929 0 0.00477553 0.01058096 4 
311 780 930 2 4322.79329228 0.00000432 1 
312 607 931 2 3746.51024294 0.00000370 1 
313 741 933 2 1392.33537202 0.00000427 1 
314 107 935 0 4.91438615 0.01649588 7 
315 114 935 0 1.40337639 0.01651251 7 
316 56 937 2 1971.89323273 0.00000455 1 
317 101 939 0 0.48567419 0.01243018 4 
318 107 939 0 0.21174614 0.01256679 4 
319 787 939 2 299.23857953 0.00000458 4 
320 635 940 2 930.64843706 0.00000403 1 
321 101 944 0 0.15377935 0.01299105 5 
322 252 945 2 2134.93624753 0.00000454 1 
323 94 947 0 0.23772432 0.01813438 7 
324 101 947 0 0.16826262 0.01605005 6 
325 3 949 2 1502.77741533 0.00000496 1 
326 87 953 0 0.13504795 0.01185954 4 
327 94 953 0 0.06505521 0.01517240 6 
328 226 953 0 0.08268323 0.02453651 10 
329 562 957 2 6179.71003378 0.00000452 1 
330 759 958 2 2293.39818133 0.00000378 1 
331 81 959 0 1.83528326 0.02791389 10 
332 87 959 0 1.29172246 0.01903669 7 
333 220 959 0 0.04883629 0.01159200 4 
334 226 959 0 0.12130941 0.01330766 5 
335 714 959 2 4907.24907121 0.00000476 5 
336 654 963 2 3508.66214353 0.00000532 1 
337 891 964 2 3148.57464432 0.00000402 1 
338 67 965 0 1.01368609 0.01322609 5 
339 81 965 0 0.31066014 0.01827343 6 
340 220 965 0 0.16483276 0.02293051 8 
341 364 966 2 3886.34524478 0.00000529 1 
342 667 968 2 3889.30574115 0.00000458 1 
343 496 968 2 1965.03038335 0.00000933 1 
344 521 969 2 2212.74011909 0.00000421 1 
345 96 974 2 1927.50341663 0.00000459 1 
346 61 976 0 0.16803746 0.01812190 7 
347 67 976 0 0.05676300 0.00918374 3 
348 209 976 0 0.00780965 0.01311234 4 
349 941 976 2 3347.54592136 0.00000495 4 
350 9 978 2 797.00795560 0.00000578 1 
351 50 982 0 0.38354811 0.01266307 4 
352 61 982 0 0.27147698 0.01170354 4 
353 201 982 0 0.22200943 0.01138216 4 
354 203 982 0 0.10573284 0.02357715 9 
355 44 988 0 0.09550719 0.01163275 4 
356 50 988 0 0.05924873 0.01348704 4 
357 195 988 0 0.04319526 0.01882931 6 
358 201 988 0 0.02685916 0.01659631 5 
359 124 988 2 3132.75590148 0.00000427 5 
360 44 994 0 0.51683435 0.01921343 7 
361 189 994 0 0.29989154 0.02740769 10 
362 195 994 0 0.21957432 0.01387310 5 
363 494 1002 2 2710.70466263 0.00000501 1 
364 32 1003 0 0.23901034 0.01388445 5 
365 178 1003 0 0.03356851 0.02747473 10 
366 183 1003 0 0.01433170 0.01808042 6 
367 16 1004 2 2078.65662984 0.00000681 1 
368 740 1005 2 834.69120296 0.00000522 1 
369 967 1006 2 479.33514996 0.00000592 1 
370 25 1008 0 1.23858172 0.01869163 7 
371 32 1008 0 0.53803958 0.01279795 4 
372 178 1008 0 0.34459610 0.01204819 4 
373 183 1008 0 0.22233868 0.01224893 4 
374 148 1009 2 1996.70958364 0.00000555 1 
375 25 1010 0 0.60236133 0.01183077 4 
376 32 1010 0 0.30591807 0.01502647 5 
377 172 1010 0 0.10368354 0.01728755 6 
378 178 1010 0 0.19279072 0.02772897 10 
379 607 1010 2 1916.74715390 0.00000472 10 
380 1001 1010 2 2259.17058391 0.00000112 10 
381 19 1016 0 0.44047719 0.02058303 8 
382 166 1016 0 0.20189646 0.01184147 4 
383 172 1016 0 0.07393216 0.01404278 5 
384 309 1024 2 808.24233936 0.00000642 1 
385 151 1029 0 0.03533130 0.01432321 5 
386 157 1029 0 0.02672450 0.01200441 4 
387 163 1029 0 3.39703566 0.01200945 4 
388 166 1029 0 0.49353449 0.01203239 4 
389 661 1034 2 974.83497395 0.00000645 1 
390 129 1037 2 252.73710708 0.00000657 1 
391 851 1042 2 314.41566179 0.00000513 1 
392 848 1042 2 527.21961312 0.00000181 1 
393 870 1044 2 1473.51364685 0.00000598 1 
394 49 1044 2 389.50280557 0.00000185 1 
395 224 1044 2 912.64684043 0.00000153 1 
396 32 1047 2 2814.83808535 0.00000560 1 
397 73 1049 2 1235.02415406 0.00000529 1 
398 531 1052 2 91.98958552 0.00000529 1 
399 946 1054 2 509.57860365 0.00000534 1 
400 942 1055 2 393.58258604 0.00000495 1 
401 821 1055 2 335.04438192 0.00000186 1 
402 298 1056 2 1343.31924539 0.00000496 1 
403 380 1064 2 1090.19057638 0.00000550 1 
404 892 1065 2 178.93387119 0.00000503 1 
405 524 1065 2 592.68902373 0.00000225 1 
406 74 1071 2 875.80482725 0.00000605 1 
407 170 1072 2 125.48669904 0.00000481 1 
408 815 1077 2 275.96046530 0.00000605 1 
409 555 1077 2 59.33543549 0.00000186 1 
410 468 1079 2 380.51196951 0.00000548 1 
411 1005 1083 2 88.65465237 0.00000525 1 
412 132 1084 0 4.21993706 0.01509289 5 
413 345 1085 2 2473.62152291 0.00000545 1 
414 612 1087 2 845.39680541 0.00000609 1 
415 488 1093 2 1141.18505473 0.00000630 1 
416 953 1095 2 1414.39714478 0.00000517 1 
417 367 1095 2 179.52512695 0.00000164 1 
418 488 1098 2 157.22811645 0.00000580 1 
419 210 1098 2 1690.95784598 0.00000270 1 
420 3 1103 2 136.86605901 0.00000518 1 
421 908 1106 2 765.09829087 0.00000694 1 
422 536 1107 2 659.18039095 0.00000464 1 
423 320 1110 2 410.15607096 0.00000562 1 
424 315 1111 2 902.06025946 0.00000562 1 
425 923 1117 2 331.18329517 0.00000540 1 
426 694 1118 2 244.30693146 0.00000606 1 
427 355 1118 2 153.62632771 0.00000225 1 
428 684 1126 2 118.12235844 0.00000532 1 
429 550 1131 2 126.56360855 0.00000547 1 
430 101 1133 2 127.76950024 0.00000561 1 
431 737 1133 2 334.44005631 0.00000233 1 
432 997 1135 2 287.73256097 0.00000509 1 
433 101 1138 0 0.63021658 0.01576624 5 
434 731 1139 2 1704.22581913 0.00000599 1 
435 577 1139 2 2070.44457599 0.00000180 1 
436 981 1140 2 356.66674485 0.00000532 1 
437 634 1142 2 191.03388483 0.00000557 1 
438 107 1147 0 0.73708347 0.01333406 4 
439 114 1147 0 0.03971358 0.01084308 3 
440 295 1147 2 3882.62898346 0.00000569 3 
441 107 1150 0 7.45683387 0.01334943 4 
442 114 1150 0 1.00561260 0.01088636 3 
443 910 1150 2 2116.38217930 0.00000507 3 
444 599 1151 2 4688.33496845 0.00000596 1 
445 265 1153 2 1856.65434981 0.00000632 1 
446 368 1153 2 959.54827273 0.00000171 1 
447 114 1158 0 0.16899687 0.01094565 3 
448 121 1158 0 0.69099743 0.01347371 4 
449 850 1161 2 856.80913804 0.00000588 1 
450 881 1162 2 237.84162593 0.00000541 1 
451 1012 1162 2 3536.99641641 0.00000264 1 
452 137 1162 2 4655.91131632 0.00000151 1 
453 988 1163 2 3635.01903304 0.00000523 1 
454 1114 1163 2 1295.28152978 0.00000252 1 
455 1111 1163 2 88.04691186 0.00000153 1 
456 121 1164 0 0.45182924 0.01603384 5 
457 126 1164 0 0.04418665 0.01353987 4 
458 430 1164 2 1469.90841411 0.00000618 4 
459 114 1175 0 0.14266969 0.01365632 4 
460 121 1175 0 0.27324351 0.01369912 4 
461 923 1175 0 0.18719011 0.01371348 4 
462 929 1175 0 0.16073549 0.01368706 4 
463 1158 1175 0 0.00134797 0.01141598 3 
464 212 1175 2 4348.57273245 0.00000466 3 
465 850 1178 2 2384.09171894 0.00000613 1 
466 135 1179 2 26.22333079 0.00000559 1 
467 82 1179 2 1651.07565657 0.00000157 1 
468 538 1180 2 437.84547197 0.00000505 1 
469 683 1180 2 3985.74807947 0.00000152 1 
470 222 1182 2 396.82264127 0.00000605 1 
471 567 1185 2 177.46726787 0.00000527 1 
472 470 1187 2 2875.16202814 0.00000556 1 
473 101 1188 0 0.32950319 0.01383241 4 
474 939 1188 0 0.55418798 0.01383850 4 
475 1138 1188 0 0.03006025 0.01137222 3 
476 1147 1188 0 0.04063922 0.01128572 3 
477 1150 1188 0 1.83245351 0.01387808 4 
478 537 1191 2 457.14215550 0.00000589 1 
479 509 1192 2 660.32167774 0.00000581 1 
480 534 1192 2 2143.21954499 0.00000183 1 
481 1161 1194 2 237.76732111 0.00000576 1 
482 1165 1195 2 1296.33347870 0.00000599 1 
483 945 1197 2 865.03677663 0.00000550 1 
484 1086 1198 2 326.43486557 0.00000494 1 
485 930 1203 2 966.58677890 0.00000625 1 
486 1050 1210 0 0.00345523 0.01406812 4 
487 1061 1210 0 0.57363906 0.01672179 5 
488 1075 1210 0 0.23107861 0.01672130 5 
489 1084 1210 0 3.13555510 0.01673521 5 
490 1088 1210 0 0.59156319 0.01415723 4 
491 1093 1210 0 0.13111230 0.01937061 6 
492 1098 1210 0 0.04730346 0.01412533 4 
493 1123 1210 2 1032.96059684 0.00000542 4 
494 531 1210 2 537.88472850 0.00000113 4 
495 402 1213 2 455.73520653 0.00000612 1 
496 886 1214 2 847.79950804 0.00000609 1 
497 157 1217 0 0.32750279 0.01424098 4 
498 163 1217 0 0.19904338 0.01436941 4 
499 1029 1217 0 0.01250493 0.01165048 3 
500 1044 1217 0 3.98258990 0.01437433 4 
501 1050 1217 0 4.97161000 0.01705290 5 
502 649 1225 2 640.74323296 0.00000619 1 
503 768 1227 2 1637.49631492 0.00000679 1 
504 163 297 0 0.27920255 0.01545258 4 
505 189 400 0 2.09679271 0.01826476 4 
506 1056 1217 0 9.66143264 0.01723945 5 
