VERTEX2 0 0.00000839 -0.00000052 0.00000020
VERTEX2 1 0.00000838 -0.00000052 -0.00064180
VERTEX2 2 0.00000838 -0.00000052 -0.00117980
VERTEX2 3 0.01101024 -0.00097550 -0.00356180
VERTEX2 4 0.64101681 -0.01120052 -0.00744380
VERTEX2 5 0.69602450 -0.01171599 -0.09872580
VERTEX2 6 0.70027761 -0.01543531 -0.89599780
VERTEX2 7 0.69396488 0.00421317 -1.51153480
VERTEX2 8 0.69927173 0.02669394 -2.12506880
VERTEX2 9 0.71612299 0.04112296 -2.76313880
VERTEX2 10 0.72898951 0.04322036 2.90551551
VERTEX2 11 0.73321209 0.04053732 2.23123651
VERTEX2 12 0.73319481 0.04154577 1.58176251
VERTEX2 13 0.73876096 0.05907086 0.92226451
VERTEX2 14 0.75966648 0.07375108 0.31402551
VERTEX2 15 0.76857988 0.07435802 -0.21090249
VERTEX2 16 1.06250195 0.01415263 -0.22959449
VERTEX2 17 1.66365563 -0.13311399 -0.26082249
VERTEX2 18 2.28700980 -0.29647893 -0.27099949
VERTEX2 19 2.91430576 -0.49425265 -0.31957549
VERTEX2 20 3.50719283 -0.68421304 -0.31370220
VERTEX2 21 4.11530831 -0.83651655 -0.20218229
VERTEX2 22 4.72421872 -0.97783806 -0.18482377
VERTEX2 23 5.36270455 -1.02224092 -0.07743383
VERTEX2 24 5.99293142 -1.09360884 -0.13451661
VERTEX2 25 6.62646007 -1.16148685 -0.13176940
VERTEX2 26 7.23426563 -1.26217453 -0.17237097
VERTEX2 27 7.84897335 -1.35372469 -0.15660204
VERTEX2 28 8.42943085 -1.45255939 -0.16110553
VERTEX2 29 8.80728833 -1.51008130 -0.13039300
VERTEX2 30 8.81560552 -1.51229770 -0.66264445
VERTEX2 31 8.91698503 -1.64851573 -0.93108907
VERTEX2 32 9.28497166 -2.16417299 -0.94967582
VERTEX2 33 9.66815299 -2.67294988 -0.89905421
VERTEX2 34 10.08042769 -3.16538578 -0.87818763
VERTEX2 35 10.50271200 -3.65009499 -0.84410776
VERTEX2 36 10.93149134 -4.13606930 -0.85284557
VERTEX2 37 11.21405184 -4.45232410 -0.84532809
VERTEX2 38 11.21591084 -4.45482445 -1.16723584
VERTEX2 39 11.21502974 -4.45054223 -1.33837196
VERTEX2 40 11.35982070 -5.02634916 -1.32126013
VERTEX2 41 11.51005084 -5.62724447 -1.35341573
VERTEX2 42 11.63251945 -6.19131870 -1.37630625
VERTEX2 43 11.73882140 -6.78669120 -1.41671367
VERTEX2 44 11.82807251 -7.38104647 -1.45391661
VERTEX2 45 11.88202627 -7.99883827 -1.50957605
VERTEX2 46 11.91193237 -8.61872292 -1.52909035
VERTEX2 47 11.93128155 -9.24125147 -1.57070337
VERTEX2 48 11.92702541 -9.86800235 -1.57720420
VERTEX2 49 11.91904258 -10.49066946 -1.62799822
VERTEX2 50 11.86495317 -11.08055208 -1.67246669
VERTEX2 51 11.80937433 -11.67454137 -1.70168827
VERTEX2 52 11.71197200 -12.25484910 -1.77859055
VERTEX2 53 11.61171018 -12.80955608 -1.76640767
VERTEX2 54 11.49852813 -13.31830051 -1.82868440
VERTEX2 55 11.50584296 -13.28361798 -1.82357823
VERTEX2 56 11.50597913 -13.28312267 -1.81317598
VERTEX2 57 11.36136953 -13.89779677 -1.82475012
VERTEX2 58 11.21239690 -14.50872828 -1.77803002
VERTEX2 59 11.08114532 -15.11960438 -1.80116304
VERTEX2 60 10.94954300 -15.72691265 -1.77936131
VERTEX2 61 10.81235871 -16.33471777 -1.82968574
VERTEX2 62 10.66135933 -16.89524237 -1.78973817
VERTEX2 63 10.50861270 -17.46053891 -1.82513024
VERTEX2 64 10.37252161 -18.02042035 -1.76163477
VERTEX2 65 10.23694357 -18.57808657 -1.81294175
VERTEX2 66 10.08232323 -19.16557233 -1.82086470
VERTEX2 67 9.91594400 -19.75652722 -1.81931519
VERTEX2 68 9.80567221 -20.20436707 -1.83509630
VERTEX2 69 9.80875135 -20.19435647 -1.99003986
VERTEX2 70 9.81555781 -20.18135369 -2.66432351
VERTEX2 71 9.83882975 -20.18002929 2.97627774
VERTEX2 72 9.85149696 -20.18159846 2.96682012
VERTEX2 73 9.85890946 -20.18343471 2.90190427
VERTEX2 74 9.85910037 -20.18355041 2.28017846
VERTEX2 75 9.86582192 -20.18618369 1.92787834
VERTEX2 76 9.85422114 -20.17330352 2.62184849
VERTEX2 77 9.84996251 -20.17151439 2.85484407
VERTEX2 78 9.56844873 -20.18200591 -3.09115491
VERTEX2 79 8.95019754 -20.22033143 -3.09639783
VERTEX2 80 8.31828668 -20.21841536 3.11228668
VERTEX2 81 7.69413890 -20.19144315 3.08630248
VERTEX2 82 7.09497166 -20.15030379 3.03220824
VERTEX2 83 6.50677893 -20.09858793 3.00871175
VERTEX2 84 5.94468296 -20.01234997 2.93091889
VERTEX2 85 5.40235056 -19.90805741 2.93822594
VERTEX2 86 4.79348441 -19.78695970 2.84849109
VERTEX2 87 4.40494725 -19.68101855 2.79597826
VERTEX2 88 4.04773650 -19.54820362 2.76615016
VERTEX2 89 4.05847876 -19.54872358 -3.12133188
VERTEX2 90 3.45437042 -19.55139260 3.13071979
VERTEX2 91 2.83946221 -19.54642403 -3.10341440
VERTEX2 92 2.24063991 -19.54160740 3.06404345
VERTEX2 93 1.62039833 -19.43836138 2.96314726
VERTEX2 94 1.00047460 -19.29928170 2.92034012
VERTEX2 95 0.38051791 -19.21060355 3.06294854
VERTEX2 96 -0.22757301 -19.15855076 3.08703392
VERTEX2 97 -0.81535881 -19.09475399 3.01646072
VERTEX2 98 -1.40195501 -18.99306779 2.95853026
VERTEX2 99 -2.10502173 -18.86778626 3.00539868
VERTEX2 100 -2.66770042 -18.75924100 2.95374580
VERTEX2 101 -3.28527711 -18.70157116 3.05679350
VERTEX2 102 -3.89822335 -18.62062045 2.95091297
VERTEX2 103 -4.50632767 -18.50519091 3.04687974
VERTEX2 104 -5.11857168 -18.42825657 3.01321026
VERTEX2 105 -5.73104699 -18.36315733 3.05976004
VERTEX2 106 -6.33292603 -18.29212238 3.00488083
VERTEX2 107 -6.95051992 -18.19534877 3.00105024
VERTEX2 108 -7.40628579 -18.14583361 3.06256416
VERTEX2 109 -7.45230889 -18.13409898 2.61394328
VERTEX2 110 -7.46815738 -18.11763741 2.02245215
VERTEX2 111 -7.46818441 -18.04018110 1.51648905
VERTEX2 112 -7.44318830 -17.40525914 1.57093382
VERTEX2 113 -7.46044313 -16.78169589 1.61797898
VERTEX2 114 -7.49251010 -16.16650789 1.65477162
VERTEX2 115 -7.56403367 -15.52678876 1.71474713
VERTEX2 116 -7.68041641 -14.77693331 1.75860303
VERTEX2 117 -7.81401129 -14.16775737 1.85394248
VERTEX2 118 -7.81827046 -14.14856375 1.51896644
VERTEX2 119 -7.76117511 -13.62936489 1.46556328
VERTEX2 120 -7.70691986 -12.97223302 1.55568467
VERTEX2 121 -7.71624904 -12.35286459 1.62323638
VERTEX2 122 -7.74959223 -11.77117781 1.67946035
VERTEX2 123 -7.77425028 -11.59214238 1.66669062
VERTEX2 124 -7.68790174 -11.35332565 1.24374428
VERTEX2 125 -7.47099924 -10.76095734 1.23283573
VERTEX2 126 -7.33840133 -10.14539122 1.43944368
VERTEX2 127 -7.24068652 -9.50951358 1.43794344
VERTEX2 128 -7.16539649 -8.86956089 1.47447541
VERTEX2 129 -7.07927634 -8.23339364 1.44194754
VERTEX2 130 -7.01217830 -7.59921755 1.49476526
VERTEX2 131 -6.96699382 -6.97084849 1.58340698
VERTEX2 132 -6.94994791 -6.35212009 1.53396833
VERTEX2 133 -6.90388373 -5.78440437 1.49716602
VERTEX2 134 -6.85087518 -5.18773452 1.47898410
VERTEX2 135 -6.76977725 -4.61128406 1.45281560
VERTEX2 136 -6.69661473 -3.97794644 1.47251893
VERTEX2 137 -6.60102900 -3.34654503 1.43080146
VERTEX2 138 -6.52615404 -2.71627190 1.51119279
VERTEX2 139 -6.51117740 -2.08494720 1.57668659
VERTEX2 140 -6.54137572 -1.42906019 1.60739282
VERTEX2 141 -6.54928702 -0.78843906 1.55914078
VERTEX2 142 -6.55165086 -0.13810588 1.55547278
VERTEX2 143 -6.47260353 0.50149955 1.44510915
VERTEX2 144 -6.43409805 0.87387491 1.46280116
VERTEX2 145 -6.42839766 0.89135675 0.96472947
VERTEX2 146 -6.42669738 0.90020934 0.37187157
VERTEX2 147 -6.36912289 0.89648680 -0.11433374
VERTEX2 148 -5.93543908 0.83875887 -0.14983368
VERTEX2 149 -5.29676239 0.74950708 -0.12484435
VERTEX2 150 -4.66446608 0.68930160 -0.11081835
VERTEX2 151 -4.02650607 0.64610448 -0.02532832
VERTEX2 152 -3.40209405 0.61465825 -0.08612072
VERTEX2 153 -2.77798402 0.58588647 0.00739779
VERTEX2 154 -2.15752567 0.56891620 -0.06205543
VERTEX2 155 -1.53320244 0.53956423 -0.02854568
VERTEX2 156 -0.90657391 0.52938248 0.00227265
VERTEX2 157 -0.34357764 0.51547126 -0.06201544
VERTEX2 158 -0.14921168 0.50294410 -0.03452157
VERTEX2 159 -0.14387101 0.50126998 0.95280263
VERTEX2 160 -0.13851703 0.51013291 1.98847736
VERTEX2 161 -0.16076525 0.45099240 2.70966572
VERTEX2 162 -0.13518797 0.45680943 -2.53772353
VERTEX2 163 -0.13617264 0.45182139 -1.54064640
VERTEX2 164 -0.21325987 0.54748046 -0.47866567
VERTEX2 165 -0.04129764 0.53046615 -0.07087037
VERTEX2 166 0.65440863 0.48764316 -0.06916085
VERTEX2 167 1.26966861 0.43758006 -0.09856020
VERTEX2 168 1.85638057 0.38851491 -0.08659436
VERTEX2 169 2.45024254 0.31716112 -0.12356287
VERTEX2 170 3.03536324 0.24900884 -0.14424500
VERTEX2 171 3.59570627 0.15077868 -0.18259010
VERTEX2 172 4.21974784 0.04337030 -0.16857534
VERTEX2 173 4.84728332 -0.07720064 -0.19152604
VERTEX2 174 5.47101468 -0.19143400 -0.15151721
VERTEX2 175 6.08568959 -0.28164777 -0.17632135
VERTEX2 176 6.68365493 -0.40193809 -0.16680126
VERTEX2 177 7.30544264 -0.50483192 -0.19453130
VERTEX2 178 7.92548061 -0.65084729 -0.23360779
VERTEX2 179 8.32788310 -0.73466151 -0.18034729
VERTEX2 180 8.37715695 -0.74795948 -0.62252110
VERTEX2 181 8.81731535 -1.06663422 -0.67438133
VERTEX2 182 9.22339747 -1.42726693 -0.84850202
VERTEX2 183 9.57011776 -1.84892020 -0.90593394
VERTEX2 184 9.91547278 -2.37155074 -1.05180493
VERTEX2 185 10.20479158 -2.91741713 -1.14384524
VERTEX2 186 10.42837825 -3.49538081 -1.20977229
VERTEX2 187 10.62744106 -4.05124798 -1.23200926
VERTEX2 188 10.83328237 -4.62662861 -1.23707475
VERTEX2 189 11.03172314 -5.20598645 -1.26346103
VERTEX2 190 11.21486768 -5.81022526 -1.29239543
VERTEX2 191 11.38757399 -6.41377414 -1.31661862
VERTEX2 192 11.54124900 -7.01075172 -1.34511510
VERTEX2 193 11.66405083 -7.55912444 -1.40097531
VERTEX2 194 11.76306682 -8.12839194 -1.42787109
VERTEX2 195 11.84248092 -8.69287140 -1.45661725
VERTEX2 196 11.90778722 -9.31526913 -1.49728815
VERTEX2 197 11.94457159 -9.93363717 -1.52466871
VERTEX2 198 11.96874357 -10.54942285 -1.58273776
VERTEX2 199 11.93978690 -11.16063561 -1.64428198
VERTEX2 200 11.89165019 -11.76656915 -1.66628565
VERTEX2 201 11.81964402 -12.36891759 -1.72309206
VERTEX2 202 11.75469179 -12.87457584 -1.70272029
VERTEX2 203 11.65142998 -13.60911519 -1.75524035
VERTEX2 204 11.52862766 -14.18601054 -1.85707182
VERTEX2 205 11.35822072 -14.74868079 -1.86636025
VERTEX2 206 11.20307553 -15.29639318 -1.86429670
VERTEX2 207 11.04225785 -15.86387727 -1.84819135
VERTEX2 208 10.86782752 -16.46406331 -1.85746848
VERTEX2 209 10.70471435 -17.06578295 -1.81908717
VERTEX2 210 10.54089225 -17.65917376 -1.82789446
VERTEX2 211 10.39112388 -18.25632896 -1.82558029
VERTEX2 212 10.21375382 -18.84311159 -1.87837018
VERTEX2 213 10.01778905 -19.43361238 -1.89908764
VERTEX2 214 9.81702018 -20.01054345 -1.90283575
VERTEX2 215 9.70135186 -20.33370106 -1.93856542
VERTEX2 216 9.71266022 -20.31435497 -2.43706246
VERTEX2 217 9.73667526 -20.31179037 -2.97904975
VERTEX2 218 9.74469440 -20.31486732 -3.03500222
VERTEX2 219 9.17689566 -20.27065255 3.07976675
VERTEX2 220 8.57205760 -20.22663261 3.03979950
VERTEX2 221 7.93342631 -20.16027264 3.09033246
VERTEX2 222 7.30838330 -20.11775028 3.06483451
VERTEX2 223 6.68281499 -20.08855974 -3.12195569
VERTEX2 224 6.06906029 -20.08950346 3.13549968
VERTEX2 225 5.45170299 -20.08414906 -3.09792783
VERTEX2 226 4.83529433 -20.07808816 3.13622179
VERTEX2 227 4.18745231 -20.14711421 -2.99000246
VERTEX2 228 3.65691603 -20.13026293 2.93216787
VERTEX2 229 3.21889569 -20.09463920 3.05227195
VERTEX2 230 2.93084860 -20.07923630 3.02333685
VERTEX2 231 3.13782583 -20.09714987 3.09327569
VERTEX2 232 2.82850046 -19.95836820 2.66733157
VERTEX2 233 2.26483390 -19.69776295 2.76961223
VERTEX2 234 1.68932378 -19.47117401 2.72543712
VERTEX2 235 1.44034643 -19.36370041 2.72043847
VERTEX2 236 1.10699680 -19.36487619 3.12583784
VERTEX2 237 0.48002709 -19.37967632 -3.08697040
VERTEX2 238 -0.13915975 -19.42795246 -3.11971852
VERTEX2 239 -0.75466043 -19.42487334 3.09583024
VERTEX2 240 -1.32372748 -19.30688356 2.87773249
VERTEX2 241 -1.86285850 -19.17545455 2.96315416
VERTEX2 242 -2.43766669 -19.10972543 3.00267619
VERTEX2 243 -3.03916177 -19.02576216 3.00199775
VERTEX2 244 -3.66204179 -18.97990015 3.07335693
VERTEX2 245 -4.27569487 -18.93092648 3.01917165
VERTEX2 246 -4.87664892 -18.84473834 2.94681359
VERTEX2 247 -5.47911348 -18.76232864 3.05275955
VERTEX2 248 -6.03353214 -18.74045043 3.08413826
VERTEX2 249 -5.98481269 -18.74780916 -3.00615230
VERTEX2 250 -5.98139221 -18.74769416 2.69001492
VERTEX2 251 -6.30349836 -18.40744407 2.26663589
VERTEX2 252 -6.65911432 -17.98728763 2.27516451
VERTEX2 253 -7.03088205 -17.54144281 2.26418946
VERTEX2 254 -7.39615922 -17.08335051 2.22301126
VERTEX2 255 -7.46910038 -16.99067087 2.30687534
VERTEX2 256 -7.47205363 -16.91337246 1.83088175
VERTEX2 257 -7.52331289 -16.45354221 1.69521184
VERTEX2 258 -7.60664060 -15.86355629 1.77577257
VERTEX2 259 -7.74948983 -15.25952946 1.81629573
VERTEX2 260 -7.88259799 -14.69979228 1.80786117
VERTEX2 261 -7.88026663 -14.66170035 1.49633907
VERTEX2 262 -7.81628883 -14.00935031 1.50299493
VERTEX2 263 -7.77334556 -13.39052593 1.51646080
VERTEX2 264 -7.75770559 -12.78517416 1.61353679
VERTEX2 265 -7.78866226 -12.18095267 1.63373170
VERTEX2 266 -7.74000177 -11.60176633 1.50461512
VERTEX2 267 -7.68749584 -10.84919796 1.47512747
VERTEX2 268 -7.55351532 -10.24212766 1.36486767
VERTEX2 269 -7.43201846 -9.62483745 1.39468453
VERTEX2 270 -7.35850055 -8.99727093 1.50863915
VERTEX2 271 -7.26281237 -8.37676817 1.39845478
VERTEX2 272 -7.17686634 -7.75150187 1.46388048
VERTEX2 273 -7.18606914 -7.11932515 1.67605925
VERTEX2 274 -7.25342289 -6.50100314 1.70010776
VERTEX2 275 -7.24072252 -5.89173281 1.52876010
VERTEX2 276 -7.23325871 -5.28340091 1.64339768
VERTEX2 277 -7.27965434 -4.71779940 1.61796170
VERTEX2 278 -7.23573775 -4.07677660 1.52943791
VERTEX2 279 -7.19544075 -3.43805438 1.47421732
VERTEX2 280 -7.12679740 -2.80468390 1.47640779
VERTEX2 281 -7.03575539 -2.16947253 1.37615420
VERTEX2 282 -6.91548811 -1.54069711 1.41621424
VERTEX2 283 -6.82832571 -0.90546482 1.40859666
VERTEX2 284 -6.71619586 -0.28067819 1.43600729
VERTEX2 285 -6.64896095 0.37173973 1.45705996
VERTEX2 286 -6.58219804 0.99637848 1.51062733
VERTEX2 287 -6.57919247 1.05076888 1.40619737
VERTEX2 288 -6.57661999 1.05532403 0.79841763
VERTEX2 289 -6.57441308 1.05637246 0.20579175
VERTEX2 290 -6.13304746 1.04786887 -0.01886090
VERTEX2 291 -5.50933777 1.04051965 -0.00481292
VERTEX2 292 -4.89347151 1.02125175 -0.05949689
VERTEX2 293 -4.26902516 0.97641222 -0.08259793
VERTEX2 294 -3.64815239 0.92450796 -0.08195168
VERTEX2 295 -3.02663054 0.84444192 -0.19448692
VERTEX2 296 -2.41017124 0.69995015 -0.23992849
VERTEX2 297 -1.79590181 0.54850910 -0.25166527
VERTEX2 298 -1.18559880 0.39427863 -0.25238680
VERTEX2 299 -0.61181369 0.23765390 -0.19127827
VERTEX2 300 -0.02590234 0.15174779 -0.14917001
VERTEX2 301 0.53551372 0.05193699 -0.20842104
VERTEX2 302 0.83647046 -0.01302225 -0.22940216
VERTEX2 303 0.81800079 -0.00933886 -0.22534001
VERTEX2 304 1.31760854 -0.12514553 -0.21587169
VERTEX2 305 1.93204752 -0.17015971 -0.03213378
VERTEX2 306 2.56079893 -0.18146720 -0.05030523
VERTEX2 307 3.19930114 -0.23004842 -0.08711860
VERTEX2 308 3.82624900 -0.29372572 -0.14282578
VERTEX2 309 4.46051003 -0.35487466 -0.05003415
VERTEX2 310 5.08747228 -0.38565451 -0.08604432
VERTEX2 311 5.36781070 -0.41193070 0.08884795
VERTEX2 312 5.36419918 -0.41382718 1.07634413
VERTEX2 313 5.36888393 -0.19517930 1.57189029
VERTEX2 314 5.34952497 0.43330568 1.61160789
VERTEX2 315 5.32118997 1.06119277 1.60721695
VERTEX2 316 5.28161090 1.70626501 1.65839509
VERTEX2 317 5.22082138 2.34798965 1.66819239
VERTEX2 318 5.12257576 2.98511028 1.76256437
VERTEX2 319 5.04320059 3.33216881 1.83375699
VERTEX2 320 5.04526458 3.33854880 2.80178125
VERTEX2 321 5.03734465 3.33514587 -2.44220338
VERTEX2 322 5.03646774 3.33333724 -1.44647202
VERTEX2 323 5.04704765 3.32313285 -0.45452910
VERTEX2 324 5.05160683 3.32164324 0.20499190
VERTEX2 325 5.05307923 3.32175907 -0.32298429
VERTEX2 326 5.06849921 3.31015400 -0.91852700
VERTEX2 327 5.07185591 3.29428874 -1.54224316
VERTEX2 328 5.05541665 2.65650120 -1.58891938
VERTEX2 329 5.03333989 2.02999040 -1.64532625
VERTEX2 330 4.97891591 1.41488470 -1.66579670
VERTEX2 331 4.92348626 0.79848831 -1.68153982
VERTEX2 332 4.84360379 0.18518081 -1.70152169
VERTEX2 333 4.82177565 0.03086497 -1.63804703
VERTEX2 334 4.83018218 0.03244548 -0.84478769
VERTEX2 335 4.84719669 0.02739896 0.14623018
VERTEX2 336 4.86004546 0.03190080 1.08740154
VERTEX2 337 4.86501113 0.06272099 2.06640496
VERTEX2 338 4.86182258 0.06493733 3.05591420
VERTEX2 339 4.87296506 0.07184698 -2.17731344
VERTEX2 340 4.87315921 0.07036060 -1.15749243
VERTEX2 341 4.98613697 0.00210004 -0.52375109
VERTEX2 342 5.55872268 -0.30276479 -0.42165057
VERTEX2 343 6.13446776 -0.50363893 -0.28983453
VERTEX2 344 6.72089072 -0.68627703 -0.29906839
VERTEX2 345 6.95658564 -0.75569795 -0.32572319
VERTEX2 346 6.94031028 -0.75037769 -0.97087200
VERTEX2 347 6.94284104 -0.83993796 -1.52822973
VERTEX2 348 6.96112180 -1.43169055 -1.54439155
VERTEX2 349 6.95921304 -2.05236846 -1.58407532
VERTEX2 350 6.94641706 -2.84164716 -1.60317490
VERTEX2 351 6.93222372 -3.11658983 -1.63160731
VERTEX2 352 6.93018039 -3.12634819 -1.91855361
VERTEX2 353 6.92199485 -3.13639873 -2.58059985
VERTEX2 354 6.91325475 -3.13892662 3.10232358
VERTEX2 355 6.89679204 -3.13819426 2.38436624
VERTEX2 356 6.88878920 -3.12414861 1.81164623
VERTEX2 357 6.89263885 -3.10063789 1.16135549
VERTEX2 358 6.89842132 -3.09237430 0.54855497
VERTEX2 359 6.89284391 -3.09479571 -0.06282062
VERTEX2 360 6.88073780 -3.09245249 -0.23771453
VERTEX2 361 6.86570739 -3.09642245 0.68411418
VERTEX2 362 6.94697339 -2.87322984 1.21935966
VERTEX2 363 7.04578782 -2.61278502 1.21350423
VERTEX2 364 6.97588409 -2.27825226 1.82961315
VERTEX2 365 6.92007690 -1.99069571 1.33375037
VERTEX2 366 7.02719249 -1.86908382 0.78097420
VERTEX2 367 7.47119806 -1.43502089 0.78356732
VERTEX2 368 7.92698683 -0.99869330 0.73563061
VERTEX2 369 7.94672869 -0.97483054 0.48380567
VERTEX2 370 7.96901066 -0.97126558 -0.10297327
VERTEX2 371 7.97539918 -0.97457344 -0.64840299
VERTEX2 372 8.40426261 -1.32299744 -0.67606433
VERTEX2 373 8.87688001 -1.68769715 -0.67407461
VERTEX2 374 9.35588363 -2.09064045 -0.73521330
VERTEX2 375 9.71837996 -2.41305605 -0.76554752
VERTEX2 376 9.73269709 -2.42178143 -0.07132471
VERTEX2 377 9.77978714 -2.38810050 0.62341447
VERTEX2 378 10.31045704 -1.99079816 0.67691452
VERTEX2 379 10.78491309 -1.56150844 0.76102470
VERTEX2 380 11.21922506 -1.09634875 0.87965507
VERTEX2 381 11.36688965 -0.91231399 1.02779338
VERTEX2 382 11.36990085 -0.90683685 2.07181003
VERTEX2 383 11.36886021 -0.90621269 3.05760136
VERTEX2 384 11.36847833 -0.90656660 -2.26289367
VERTEX2 385 11.36472307 -0.91288714 -1.23391894
VERTEX2 386 11.46929750 -1.04856069 -1.00937077
VERTEX2 387 11.92578432 -1.47089325 -0.67808456
VERTEX2 388 12.38346846 -1.82369796 -0.67143905
VERTEX2 389 12.81585593 -2.19551644 -0.75646324
VERTEX2 390 12.82227065 -2.20097325 -0.28701108
VERTEX2 391 12.63356293 -2.19251456 0.08814542
VERTEX2 392 12.57476727 -2.19305896 1.11639372
VERTEX2 393 12.57577998 -2.12851418 2.35222434
VERTEX2 394 12.51082124 -2.10144350 -2.95025154
VERTEX2 395 12.70362644 -2.00076282 -2.61770125
VERTEX2 396 12.68201015 -2.01171636 -2.62025764
VERTEX2 397 12.64427983 -2.02009295 -2.63379812
VERTEX2 398 12.62850927 -2.03311411 -2.44020079
VERTEX2 399 12.55366084 -2.13812779 -2.14592485
VERTEX2 400 12.19683853 -2.69035628 -2.09846650
VERTEX2 401 11.85045667 -3.22938934 -2.19271278
VERTEX2 402 11.37224891 -3.68229419 -2.46209346
VERTEX2 403 10.85720779 -4.08838292 -2.49756031
VERTEX2 404 10.35142026 -4.44383051 -2.57803143
VERTEX2 405 10.33400583 -4.45919555 -2.04708247
VERTEX2 406 10.32991542 -4.42059891 -1.07378027
VERTEX2 407 10.50765489 -4.67473102 -0.94739256
VERTEX2 408 10.83114589 -5.13718221 -0.98675635
VERTEX2 409 10.96140561 -5.34738950 -1.08788927
VERTEX2 410 10.95340195 -5.31400386 -1.71913427
VERTEX2 411 11.12789279 -4.87495339 -2.57426327
VERTEX2 412 10.57766426 -5.09501369 -2.77915757
VERTEX2 413 9.94197561 -5.31046204 -2.86018684
VERTEX2 414 9.29988671 -5.51444904 -2.75786851
VERTEX2 415 8.69296324 -5.75155078 -2.75033564
VERTEX2 416 8.40461642 -5.87949201 -2.80497124
VERTEX2 417 8.11208522 -5.86342167 3.05479641
VERTEX2 418 7.67330702 -5.82023065 3.01017408
VERTEX2 419 7.67492273 -5.81986796 -2.84098569
VERTEX2 420 7.72651735 -5.79695628 -2.62407373
VERTEX2 421 7.72697333 -5.79626966 -1.65439599
VERTEX2 422 7.72138574 -5.80409991 -0.41255307
VERTEX2 423 7.72404940 -5.80435584 -0.06601026
VERTEX2 424 7.72119147 -5.80457400 -0.06495436
VERTEX2 425 7.71092736 -5.81036874 -0.05252429
VERTEX2 426 7.70787635 -5.81061411 -0.06095118
VERTEX2 427 7.72974097 -5.81175322 -0.05734869
VERTEX2 428 8.39007739 -5.83246398 -0.06224356
VERTEX2 429 9.03236556 -5.88103996 -0.10245166
VERTEX2 430 9.37140982 -5.92118782 -0.14799720
VERTEX2 431 9.34643538 -5.91820149 -0.09552438
VERTEX2 432 9.35264663 -5.92039440 -0.72601278
VERTEX2 433 9.35641088 -5.92555825 -1.40201855
VERTEX2 434 9.31968860 -6.46463307 -1.62949038
VERTEX2 435 9.28743139 -7.10747011 -1.65726969
VERTEX2 436 9.20947115 -7.74781070 -1.66552556
VERTEX2 437 9.15729151 -8.39784238 -1.65703453
VERTEX2 438 9.10570439 -8.86807809 -1.68717174
VERTEX2 439 9.10380597 -8.87520919 -2.12230041
VERTEX2 440 9.10692278 -8.87280081 -2.76386110
VERTEX2 441 9.11754514 -8.87178151 2.89884242
VERTEX2 442 9.12033834 -8.87334452 2.27101364
VERTEX2 443 9.12040883 -8.87458876 1.70554309
VERTEX2 444 9.12322779 -8.85984249 1.11547323
VERTEX2 445 9.12549344 -8.85772198 0.45890820
VERTEX2 446 9.11985918 -8.86118651 0.66115587
VERTEX2 447 9.13201077 -8.83770252 1.29443678
VERTEX2 448 9.28314368 -8.21560239 1.31217224
VERTEX2 449 9.41717119 -7.57902252 1.41377116
VERTEX2 450 9.51231488 -6.94187665 1.42765746
VERTEX2 451 9.56606182 -6.47057944 1.47039179
VERTEX2 452 9.56624309 -6.46865500 1.09253424
VERTEX2 453 9.56483851 -6.47118115 0.47062175
VERTEX2 454 9.83246026 -6.45108729 0.04875187
VERTEX2 455 10.43529939 -6.42708762 0.02811829
VERTEX2 456 11.07161218 -6.42329182 -0.03655000
VERTEX2 457 11.42955824 -6.44650708 -0.12435355
VERTEX2 458 11.42788983 -6.44566503 -0.77043623
VERTEX2 459 11.41936830 -6.41089726 -1.37882688
VERTEX2 460 11.39815921 -6.80780730 -1.63595285
VERTEX2 461 11.32866948 -7.42241656 -1.72399457
VERTEX2 462 11.24065969 -7.92969314 -1.76410336
VERTEX2 463 11.25023645 -7.91102488 -0.92343200
VERTEX2 464 11.50665100 -7.98445135 -0.24497570
VERTEX2 465 12.09115873 -8.11868292 -0.23708922
VERTEX2 466 12.63572844 -8.26871686 -0.29263075
VERTEX2 467 13.19818608 -8.44917648 -0.33595966
VERTEX2 468 13.81263178 -8.66829447 -0.37129227
VERTEX2 469 14.40378081 -8.93458619 -0.45400301
VERTEX2 470 14.85753933 -9.15067242 -0.43490287
VERTEX2 471 14.86590561 -9.15521823 -0.63438894
VERTEX2 472 14.88304204 -9.17918205 -1.26628376
VERTEX2 473 14.88449968 -9.18638971 -1.90609679
VERTEX2 474 14.88283681 -9.18846985 -2.53666468
VERTEX2 475 14.88493479 -9.18818602 -3.11037682
VERTEX2 476 14.88705063 -9.18847661 2.52167303
VERTEX2 477 14.89142876 -9.19708135 1.96221116
VERTEX2 478 14.89216148 -9.20692392 1.33522459
VERTEX2 479 14.89110812 -9.20932494 0.88097743
VERTEX2 480 14.89136582 -9.20874638 1.44306311
VERTEX2 481 14.88775615 -9.19298936 2.44518292
VERTEX2 482 14.89187877 -9.19465624 2.78132345
VERTEX2 483 14.89820611 -9.19696440 2.77593320
VERTEX2 484 14.47232591 -9.03741435 2.81144481
VERTEX2 485 13.87217398 -8.84599856 2.80897058
VERTEX2 486 13.26941127 -8.63037123 2.81834309
VERTEX2 487 12.66193386 -8.44937671 2.84679027
VERTEX2 488 12.05214624 -8.26660230 2.88307682
VERTEX2 489 11.58405242 -8.15797222 2.91366429
VERTEX2 490 11.58977175 -8.15743360 -2.88406640
VERTEX2 491 11.59643508 -8.14868413 -1.94735130
VERTEX2 492 11.57908235 -8.38097733 -1.64405321
VERTEX2 493 11.51605615 -8.98730451 -1.69894085
VERTEX2 494 11.42780727 -9.59733941 -1.75958769
VERTEX2 495 11.35852593 -10.21571641 -1.65251996
VERTEX2 496 11.31435063 -10.83551064 -1.53491376
VERTEX2 497 11.30669243 -11.44902953 -1.62108978
VERTEX2 498 11.23770357 -12.06584560 -1.72303901
VERTEX2 499 11.10351050 -12.70429448 -1.73986599
VERTEX2 500 11.16091090 -13.27757751 -1.41052083
VERTEX2 501 11.23503425 -13.85776660 -1.48255532
VERTEX2 502 11.25838648 -14.55408108 -1.56697476
VERTEX2 503 11.25350921 -15.00180960 -1.58388790
VERTEX2 504 11.25803566 -14.98906070 -0.72670466
VERTEX2 505 11.49516338 -15.01622922 -0.10464510
VERTEX2 506 12.08634530 -15.09803766 -0.25710777
VERTEX2 507 12.66688981 -15.26788742 -0.33557420
VERTEX2 508 13.23546984 -15.47937496 -0.34876263
VERTEX2 509 13.85243288 -15.71209421 -0.40406178
VERTEX2 510 14.20677913 -15.87006467 -0.41739444
VERTEX2 511 14.20434779 -15.84695265 0.45943338
VERTEX2 512 14.22876521 -15.79515147 1.65684952
VERTEX2 513 14.22200208 -15.77545178 2.61243531
VERTEX2 514 14.15604614 -15.75715800 2.83835175
VERTEX2 515 13.54675186 -15.57802123 2.83925181
VERTEX2 516 12.96282993 -15.38560038 2.85495108
VERTEX2 517 12.37140058 -15.23896233 2.88295195
VERTEX2 518 11.78030129 -15.08906699 2.90712391
VERTEX2 519 11.25981927 -14.96625020 2.89126377
VERTEX2 520 11.09357770 -14.92320025 -2.99382529
VERTEX2 521 11.11342303 -14.90133015 -1.99148708
VERTEX2 522 11.04669259 -15.30493484 -1.72758118
VERTEX2 523 10.95456241 -15.92614669 -1.73488500
VERTEX2 524 10.85003491 -16.50124446 -1.77672148
VERTEX2 525 10.74545930 -17.04445479 -1.75298267
VERTEX2 526 10.62864792 -17.61437326 -1.81167673
VERTEX2 527 10.48019387 -18.19455475 -1.84638500
VERTEX2 528 10.29717738 -18.76229873 -1.92224797
VERTEX2 529 10.08452756 -19.36449882 -1.95046461
VERTEX2 530 9.83686257 -19.96397294 -1.98046732
VERTEX2 531 9.56677766 -20.53909917 -2.06020104
VERTEX2 532 9.46853153 -20.72528011 -2.00950844
VERTEX2 533 9.46442104 -20.70545978 -1.00926580
VERTEX2 534 9.46140023 -20.70345757 -0.34188539
VERTEX2 535 9.46233430 -20.70266084 -0.34212126
VERTEX2 536 9.81714360 -20.78555275 -0.21125469
VERTEX2 537 10.42192720 -20.93229357 -0.26914573
VERTEX2 538 10.97971909 -21.09965569 -0.29618188
VERTEX2 539 11.58534820 -21.30647568 -0.36089048
VERTEX2 540 12.16942809 -21.55707211 -0.45374661
VERTEX2 541 12.75402512 -21.78266407 -0.29142943
VERTEX2 542 13.39043084 -21.92474742 -0.23586034
VERTEX2 543 13.51749515 -21.95641442 -0.26565147
VERTEX2 544 13.54347605 -21.95373250 0.37114692
VERTEX2 545 13.56605814 -21.91260017 1.43701298
VERTEX2 546 13.58594066 -21.96432072 2.26381221
VERTEX2 547 13.59929192 -21.96339649 -2.99806045
VERTEX2 548 13.61431202 -21.95375365 -2.07547673
VERTEX2 549 13.61534335 -21.94697955 -1.26909966
VERTEX2 550 13.61446644 -21.93165190 -1.74903930
VERTEX2 551 13.62187322 -21.91667927 -2.37559552
VERTEX2 552 13.63805075 -21.90863517 -3.00776505
VERTEX2 553 13.50086241 -21.85614930 2.69838910
VERTEX2 554 12.90893787 -21.57222063 2.66302373
VERTEX2 555 12.32976510 -21.29743506 2.75199018
VERTEX2 556 11.72539046 -21.07918505 2.88718262
VERTEX2 557 11.12441516 -20.90844854 2.84605312
VERTEX2 558 10.54752357 -20.75157347 2.92716320
VERTEX2 559 10.55441840 -20.75389447 2.52035087
VERTEX2 560 10.54721782 -20.74608552 2.01958750
VERTEX2 561 10.52419127 -20.72377221 2.52497913
VERTEX2 562 10.34453838 -20.72396599 -3.11444716
VERTEX2 563 9.77310229 -20.64618646 2.97701404
VERTEX2 564 9.17133949 -20.55552002 3.02533181
VERTEX2 565 8.58098025 -20.48470107 2.96778740
VERTEX2 566 8.64126983 -20.50338775 -2.53158568
VERTEX2 567 8.54786357 -20.51035934 -1.73908940
VERTEX2 568 8.49672519 -21.01955810 -1.67526440
VERTEX2 569 8.44525296 -21.59525714 -1.71448526
VERTEX2 570 8.37702677 -22.17366927 -1.70954933
VERTEX2 571 8.32484435 -22.52674545 -1.75711900
VERTEX2 572 8.29457677 -22.54888468 -2.00045974
VERTEX2 573 8.25826954 -22.63108486 -1.72423154
VERTEX2 574 8.28022048 -22.66198533 -0.78516086
VERTEX2 575 8.43140430 -22.71133593 0.13776510
VERTEX2 576 8.43109723 -22.71109004 1.16532431
VERTEX2 577 8.42453815 -22.69381040 2.13732481
VERTEX2 578 8.41510313 -22.66204442 1.77311516
VERTEX2 579 8.28966386 -22.01078859 1.78812619
VERTEX2 580 8.12733151 -21.37179192 1.86326095
VERTEX2 581 7.93239768 -20.74880503 1.90563643
VERTEX2 582 7.71005226 -20.13490508 1.94877079
VERTEX2 583 7.57981756 -19.82704019 2.02814089
VERTEX2 584 7.57439093 -19.81654033 2.87199235
VERTEX2 585 6.99070191 -19.67715058 2.99040462
VERTEX2 586 6.39652279 -19.60338242 3.08808963
VERTEX2 587 5.77733492 -19.59329887 3.11362485
VERTEX2 588 5.14718403 -19.56827973 3.11822106
VERTEX2 589 4.60223031 -19.59416414 -3.08947484
VERTEX2 590 4.04624394 -19.63973477 -3.02063264
VERTEX2 591 3.51202600 -19.71890946 -3.02256132
VERTEX2 592 2.96890247 -19.79356533 -3.02533007
VERTEX2 593 2.79640310 -19.81553945 -2.82014123
VERTEX2 594 2.84250536 -19.76570883 -1.90067395
VERTEX2 595 2.72997516 -20.37369111 -1.66784032
VERTEX2 596 2.67811450 -20.99905897 -1.69099120
VERTEX2 597 2.58698410 -21.67494878 -1.73095580
VERTEX2 598 2.48469024 -22.27333714 -1.77310063
VERTEX2 599 2.39671904 -22.65058153 -1.83926827
VERTEX2 600 2.39692583 -22.66689292 -1.03267359
VERTEX2 601 2.43789750 -22.69208500 -0.01446563
VERTEX2 602 2.47367590 -22.67764325 0.99961648
VERTEX2 603 2.43905165 -22.44295620 1.77228690
VERTEX2 604 2.37829760 -21.83068602 1.52821331
VERTEX2 605 2.38692154 -21.18379703 1.61093908
VERTEX2 606 2.34615320 -20.53725343 1.65315256
VERTEX2 607 2.35685813 -19.94817316 1.57228149
VERTEX2 608 2.34347030 -19.56307974 1.61690852
VERTEX2 609 2.33984751 -19.54190795 1.95348191
VERTEX2 610 2.33198420 -19.53907271 2.88668410
VERTEX2 611 1.73645640 -19.38956935 2.88984628
VERTEX2 612 1.26380818 -19.25567294 2.89285409
VERTEX2 613 1.29928363 -19.26644827 -2.92613972
VERTEX2 614 1.30573721 -19.26154558 -1.88735809
VERTEX2 615 1.31874431 -19.74643194 -1.58249002
VERTEX2 616 1.32605874 -20.36772844 -1.63344360
VERTEX2 617 1.18859764 -20.97015285 -1.84980653
VERTEX2 618 1.02047782 -21.57597962 -1.83963773
VERTEX2 619 0.86056751 -22.14726638 -1.84096732
VERTEX2 620 0.67809676 -22.72290031 -1.93702175
VERTEX2 621 0.80650714 -22.38961079 -1.98843533
VERTEX2 622 0.92969470 -22.12528805 -2.06332801
VERTEX2 623 0.92961264 -22.12540046 -2.60017290
VERTEX2 624 0.90245941 -22.12515215 3.04067647
VERTEX2 625 0.86310486 -22.10929084 2.38241030
VERTEX2 626 0.83635493 -22.07860943 1.76462889
VERTEX2 627 0.90902428 -21.70705415 1.35397415
VERTEX2 628 1.08822133 -21.08063654 1.25303140
VERTEX2 629 1.26044154 -20.45361061 1.32394627
VERTEX2 630 1.38659992 -19.84655560 1.40879022
VERTEX2 631 1.45934785 -19.31760708 1.42871459
VERTEX2 632 1.46198958 -19.30208838 2.10411931
VERTEX2 633 1.36824845 -19.29563984 -3.09358237
VERTEX2 634 0.70415975 -19.33191416 -3.06637468
VERTEX2 635 0.04726591 -19.34235047 3.08238931
VERTEX2 636 -0.59740537 -19.31372266 3.06524483
VERTEX2 637 -1.22768586 -19.23953971 2.96642096
VERTEX2 638 -1.61813587 -19.16012106 2.93698280
VERTEX2 639 -2.22732897 -19.05799808 3.01743027
VERTEX2 640 -2.84067628 -18.94976376 2.94962512
VERTEX2 641 -3.43940918 -18.83989713 2.94135755
VERTEX2 642 -4.01357802 -18.70384746 2.89607561
VERTEX2 643 -4.49607486 -18.56764745 2.82944002
VERTEX2 644 -4.50301056 -18.56918817 -2.69459345
VERTEX2 645 -4.53737722 -18.70943645 -1.92072406
VERTEX2 646 -4.67411398 -19.31805362 -1.62525583
VERTEX2 647 -4.63039363 -19.95996200 -1.33631293
VERTEX2 648 -4.40715520 -20.58474467 -1.16995757
VERTEX2 649 -4.23324206 -21.18311532 -1.50746616
VERTEX2 650 -4.33342142 -21.81095852 -1.76475329
VERTEX2 651 -4.35074289 -21.95587453 -0.96518596
VERTEX2 652 -4.28691537 -21.98452267 0.05997759
VERTEX2 653 -4.24002625 -21.94233558 1.09061101
VERTEX2 654 -4.24933091 -21.64657801 1.60356069
VERTEX2 655 -4.26017361 -21.09406059 1.59845887
VERTEX2 656 -4.25977916 -20.49285236 1.58572672
VERTEX2 657 -4.36694229 -19.88206204 1.86219251
VERTEX2 658 -4.55738476 -19.26588538 1.85498424
VERTEX2 659 -4.67224056 -18.77320814 1.78377987
VERTEX2 660 -4.67520653 -18.75841958 2.38379025
VERTEX2 661 -4.85280365 -18.73889222 3.03711974
VERTEX2 662 -5.44541600 -18.67968804 3.10667690
VERTEX2 663 -6.03186106 -18.69414379 -3.07553073
VERTEX2 664 -6.03949744 -18.69218103 -2.55231990
VERTEX2 665 -6.05548657 -18.79355072 -1.71859339
VERTEX2 666 -6.12715560 -19.40172380 -1.68142911
VERTEX2 667 -6.18418051 -19.96775622 -1.67678575
VERTEX2 668 -6.24759051 -20.56124052 -1.65098232
VERTEX2 669 -6.29594128 -21.18648821 -1.67609227
VERTEX2 670 -6.39522916 -21.80391164 -1.73554903
VERTEX2 671 -6.44268361 -22.09625550 -1.68054672
VERTEX2 672 -6.34101989 -21.51535355 -1.76963755
VERTEX2 673 -6.27488259 -21.24852440 -1.90016692
VERTEX2 674 -6.26180604 -21.23471381 -2.54825481
VERTEX2 675 -6.23798266 -21.22966371 3.12636261
VERTEX2 676 -6.23159696 -21.23339695 2.50307654
VERTEX2 677 -6.22685833 -21.23993221 1.88728663
VERTEX2 678 -6.19891098 -21.01772121 1.44138684
VERTEX2 679 -6.13510956 -20.43860455 1.50398733
VERTEX2 680 -6.16289297 -19.99035466 1.84890516
VERTEX2 681 -6.31532749 -19.39912981 1.82139465
VERTEX2 682 -6.48788173 -18.79338957 1.86907241
VERTEX2 683 -6.58027779 -18.51125197 2.02823431
VERTEX2 684 -6.52729547 -18.56494266 3.11255544
VERTEX2 685 -6.94671433 -18.73478855 -2.72521293
VERTEX2 686 -7.40934857 -18.88000981 -2.86842005
VERTEX2 687 -8.01896695 -19.04064085 -2.90261448
VERTEX2 688 -8.63201223 -19.16992084 -2.91363870
VERTEX2 689 -9.21124504 -19.31893262 -2.88522933
VERTEX2 690 -9.74552504 -19.49377508 -2.81123881
VERTEX2 691 -10.13938168 -19.62946544 -2.83943553
VERTEX2 692 -10.11720139 -19.61933561 -2.30591782
VERTEX2 693 -10.09351848 -19.69180745 -1.26691677
VERTEX2 694 -10.06866638 -19.76424349 -0.43259785
VERTEX2 695 -10.04121159 -19.75624420 0.36638279
VERTEX2 696 -10.02764750 -19.74721163 1.39057110
VERTEX2 697 -10.03758884 -19.78037397 1.13708080
VERTEX2 698 -9.70025257 -19.56498401 0.48146017
VERTEX2 699 -9.12920052 -19.24524901 0.59513178
VERTEX2 700 -8.60906768 -18.87634826 0.64834694
VERTEX2 701 -8.16899271 -18.50653273 0.70721056
VERTEX2 702 -7.68238965 -18.18490120 0.59172676
VERTEX2 703 -7.16256790 -17.84207108 0.62571658
VERTEX2 704 -6.66812878 -17.45786936 0.64371851
VERTEX2 705 -6.15648551 -17.03539735 0.71400871
VERTEX2 706 -5.72718285 -16.71731593 0.44499322
VERTEX2 707 -5.70210703 -16.71594574 -0.07530639
VERTEX2 708 -5.69197245 -16.72179278 -0.71385619
VERTEX2 709 -5.73156882 -16.67921395 -1.04597283
VERTEX2 710 -5.73572717 -16.66847862 -1.60714794
VERTEX2 711 -5.72600024 -16.67725216 -2.20394363
VERTEX2 712 -5.70624837 -16.66210057 -2.76444669
VERTEX2 713 -6.17942301 -16.71277474 -3.04983337
VERTEX2 714 -6.73285157 -16.68788038 3.03579838
VERTEX2 715 -7.35932058 -16.65111435 3.13935023
VERTEX2 716 -7.99321527 -16.62923835 3.00126029
VERTEX2 717 -8.61417673 -16.56146252 3.08596531
VERTEX2 718 -9.37597022 -16.44290226 2.91053117
VERTEX2 719 -9.99247469 -16.32761855 2.98495324
VERTEX2 720 -10.60482324 -16.21520608 2.92570785
VERTEX2 721 -11.22209410 -16.09932572 2.99388589
VERTEX2 722 -11.23821576 -16.09702673 3.06054523
VERTEX2 723 -11.25829920 -16.11773156 -2.13286788
VERTEX2 724 -11.25843106 -16.16114210 -1.06416540
VERTEX2 725 -11.23102521 -16.17959235 -0.42991150
VERTEX2 726 -10.90503532 -16.17598227 0.02420587
VERTEX2 727 -10.26699878 -16.13862917 0.05491275
VERTEX2 728 -9.62622251 -16.11558027 0.05626567
VERTEX2 729 -8.98788324 -16.05623233 0.11386859
VERTEX2 730 -8.36405959 -15.96503553 0.15133561
VERTEX2 731 -7.71025660 -15.86534000 0.16326665
VERTEX2 732 -7.56301278 -15.83599651 0.60928409
VERTEX2 733 -7.55814350 -15.84397980 1.60475657
VERTEX2 734 -7.61448177 -15.29227344 1.68257518
VERTEX2 735 -7.67268941 -14.69417030 1.65029481
VERTEX2 736 -7.67312601 -14.68736078 2.24922961
VERTEX2 737 -7.65970666 -14.68916624 3.04919538
VERTEX2 738 -8.23746704 -14.64603122 3.06813820
VERTEX2 739 -8.83907177 -14.54833793 3.01038255
VERTEX2 740 -9.34066163 -14.50578357 3.07351659
VERTEX2 741 -9.31931802 -14.50565825 2.70444812
VERTEX2 742 -9.31900385 -14.50589944 2.05134855
VERTEX2 743 -9.32091171 -14.49723641 1.43424061
VERTEX2 744 -9.31048910 -14.47374764 0.89460622
VERTEX2 745 -9.29158780 -14.46400502 0.30127013
VERTEX2 746 -8.75055373 -14.48532520 -0.17347203
VERTEX2 747 -8.10745963 -14.60315790 -0.20865666
VERTEX2 748 -7.54150544 -14.74629975 -0.27665489
VERTEX2 749 -7.47074395 -14.76430690 0.15341782
VERTEX2 750 -7.46222019 -14.74872370 1.08209029
VERTEX2 751 -7.49685723 -14.47071085 1.72346478
VERTEX2 752 -7.55548117 -13.84012859 1.62056781
VERTEX2 753 -7.59404440 -13.19437845 1.68412969
VERTEX2 754 -7.60256355 -12.54740048 1.52238378
VERTEX2 755 -7.58463791 -11.91350153 1.60889960
VERTEX2 756 -7.54807699 -11.27697720 1.43258480
VERTEX2 757 -7.47425855 -10.63112892 1.54452516
VERTEX2 758 -7.49573931 -10.05066281 1.68675913
VERTEX2 759 -7.48619764 -9.50197191 1.56675393
VERTEX2 760 -7.52614927 -8.88936937 1.67815031
VERTEX2 761 -7.52904359 -8.85009551 1.85855084
VERTEX2 762 -7.60501052 -8.81631960 2.69425158
VERTEX2 763 -8.17954134 -8.71500439 2.98720752
VERTEX2 764 -8.59984909 -8.64464073 2.95974475
VERTEX2 765 -8.58960315 -8.64441446 -2.68381661
VERTEX2 766 -8.59186685 -8.65185378 -1.68320543
VERTEX2 767 -8.58620385 -8.66604567 -0.75207704
VERTEX2 768 -8.55941004 -8.66758585 -0.02950020
VERTEX2 769 -7.92461594 -8.57601047 0.12749961
VERTEX2 770 -7.27267102 -8.51411198 0.06045789
VERTEX2 771 -7.18464787 -8.50638498 0.62112354
VERTEX2 772 -7.18056667 -8.49323142 1.48827937
VERTEX2 773 -7.15856750 -7.91340103 1.57398257
VERTEX2 774 -7.17268312 -7.36558383 1.59601201
VERTEX2 775 -7.17200893 -7.36845203 2.44076164
VERTEX2 776 -7.38009381 -7.34376960 3.05806002
VERTEX2 777 -7.99211679 -7.30361985 3.11706037
VERTEX2 778 -8.60340676 -7.29453454 3.09608620
VERTEX2 779 -9.21916616 -7.27455150 3.11420305
VERTEX2 780 -9.42728662 -7.25700147 2.98398892
VERTEX2 781 -9.42407037 -7.25814216 2.41059308
VERTEX2 782 -9.55173123 -6.98614288 1.98104801
VERTEX2 783 -9.78722366 -6.41290424 1.98045727
VERTEX2 784 -9.88673988 -6.18601561 1.95914299
VERTEX2 785 -9.88765896 -6.16099984 1.40719447
VERTEX2 786 -9.87982748 -6.13516418 0.81888898
VERTEX2 787 -9.86258391 -6.11748694 0.32823688
VERTEX2 788 -9.83570229 -6.11929798 -0.30088223
VERTEX2 789 -9.82518667 -6.12754299 -0.85284408
VERTEX2 790 -9.51865307 -6.52257018 -0.92000521
VERTEX2 791 -9.11375719 -7.00428002 -0.82133321
VERTEX2 792 -8.87423687 -7.21754841 -0.11678667
VERTEX2 793 -8.25828683 -7.26999944 -0.07201549
VERTEX2 794 -7.61795383 -7.29910910 -0.00078536
VERTEX2 795 -7.64188770 -7.31669141 0.42864553
VERTEX2 796 -7.64817681 -7.31921755 1.08807466
VERTEX2 797 -7.57365247 -7.00973427 1.34826738
VERTEX2 798 -7.43824189 -6.38325185 1.39843021
VERTEX2 799 -7.35089071 -5.73883403 1.46418138
VERTEX2 800 -7.29653527 -5.09239318 1.53711392
VERTEX2 801 -7.30669337 -4.46041520 1.62309663
VERTEX2 802 -7.35973933 -3.83544775 1.68087377
VERTEX2 803 -7.34159238 -3.20646177 1.51632125
VERTEX2 804 -7.32058350 -2.57870765 1.57233730
VERTEX2 805 -7.35305855 -1.94838103 1.64876289
VERTEX2 806 -7.41235716 -1.35040032 1.69032665
VERTEX2 807 -7.43939117 -1.16700218 1.97888001
VERTEX2 808 -7.43748278 -1.16708946 2.92831331
VERTEX2 809 -8.02262589 -1.13902863 3.07333750
VERTEX2 810 -8.63808641 -1.01711262 2.93300035
VERTEX2 811 -9.23883796 -0.90583053 2.92968356
VERTEX2 812 -9.24292403 -0.90502309 -2.62185572
VERTEX2 813 -9.25234799 -0.92611373 -1.64672845
VERTEX2 814 -9.24777302 -0.92972094 -0.65468630
VERTEX2 815 -9.22537140 -0.93724343 0.26441018
VERTEX2 816 -9.21718398 -0.93275589 0.94543539
VERTEX2 817 -9.20631394 -0.92590689 0.27654630
VERTEX2 818 -8.98579365 -0.95945832 -0.21244144
VERTEX2 819 -8.39653186 -1.08662682 -0.19836307
VERTEX2 820 -7.80485132 -1.21789757 -0.23964297
VERTEX2 821 -7.26067389 -1.34824071 -0.22389455
VERTEX2 822 -7.21127619 -1.35573949 0.53780816
VERTEX2 823 -7.20980349 -1.34019034 1.45731893
VERTEX2 824 -7.14611711 -0.71735176 1.37803669
VERTEX2 825 -7.00220118 -0.09296264 1.34842381
VERTEX2 826 -6.94526377 0.53981027 1.51144384
VERTEX2 827 -6.88153116 1.16433528 1.46286353
VERTEX2 828 -6.82756862 1.79624747 1.49846873
VERTEX2 829 -6.76708770 2.40263928 1.45884765
VERTEX2 830 -6.69268106 3.01437339 1.45064409
VERTEX2 831 -6.59896588 3.59446551 1.40397369
VERTEX2 832 -6.50924449 4.16024497 1.40052117
VERTEX2 833 -6.46522762 4.41829101 1.53832268
VERTEX2 834 -6.46784701 4.42752217 2.59346745
VERTEX2 835 -6.47711313 4.42856288 -2.91148469
VERTEX2 836 -6.48331868 4.42327391 -1.96774464
VERTEX2 837 -6.48088232 4.41028518 -0.93063830
VERTEX2 838 -6.46883185 4.40284468 -0.06782379
VERTEX2 839 -6.46715304 4.40205210 -0.28583287
VERTEX2 840 -6.45648977 4.39377928 -0.84805834
VERTEX2 841 -6.44967064 4.38026265 -1.46623729
VERTEX2 842 -6.47530528 4.13032313 -1.69767759
VERTEX2 843 -6.55252472 3.56199748 -1.70059213
VERTEX2 844 -6.62676677 2.93189109 -1.70897881
VERTEX2 845 -6.71993791 2.30202419 -1.72404855
VERTEX2 846 -6.80534957 1.66809825 -1.72263469
VERTEX2 847 -6.91509534 1.04164989 -1.74968590
VERTEX2 848 -6.94575573 0.84454479 -1.26960676
VERTEX2 849 -6.94422905 0.84399393 -0.34802949
VERTEX2 850 -6.58868513 0.84086770 0.00508343
VERTEX2 851 -5.96100386 0.81530990 -0.08759223
VERTEX2 852 -5.33960144 0.75472518 -0.07314449
VERTEX2 853 -4.74783727 0.71279355 -0.10102429
VERTEX2 854 -4.16356765 0.64571253 -0.09897109
VERTEX2 855 -3.57171471 0.59548236 -0.10071295
VERTEX2 856 -2.92092194 0.51071110 -0.14123419
VERTEX2 857 -2.27126355 0.42237349 -0.15061564
VERTEX2 858 -1.62783420 0.30181572 -0.20493977
VERTEX2 859 -1.11222014 0.19942265 -0.21162025
VERTEX2 860 -1.09025981 0.20852711 0.63998138
VERTEX2 861 -1.07545572 0.31518422 1.55562900
VERTEX2 862 -1.03965355 0.97236687 1.49618798
VERTEX2 863 -0.98492722 1.61411243 1.46386647
VERTEX2 864 -0.90067349 2.22179258 1.46189621
VERTEX2 865 -0.86201164 2.83071085 1.51967538
VERTEX2 866 -0.81990135 3.41411353 1.51868210
VERTEX2 867 -0.81319693 3.57550747 1.70007451
VERTEX2 868 -0.82084467 3.58510380 2.72379874
VERTEX2 869 -0.80828659 3.58534616 -2.58112301
VERTEX2 870 -0.78625217 3.59730608 -1.58175799
VERTEX2 871 -0.77113438 3.58714464 -0.60811892
VERTEX2 872 -0.75239880 3.57372333 0.07710179
VERTEX2 873 -0.72399442 3.56437567 -0.49550897
VERTEX2 874 -0.70264503 3.54522977 -1.05515262
VERTEX2 875 -0.69668002 3.53134408 -1.64170476
VERTEX2 876 -0.81414407 2.97706976 -1.79929791
VERTEX2 877 -0.96380362 2.43681163 -1.88398008
VERTEX2 878 -1.01308518 2.23921582 -1.50107097
VERTEX2 879 -0.90999134 1.60263621 -1.45007568
VERTEX2 880 -0.87307496 1.15544605 -1.56280826
VERTEX2 881 -0.87362734 1.20716704 -1.55750014
VERTEX2 882 -0.92788508 0.56955572 -1.80408755
VERTEX2 883 -1.14090888 -0.02393905 -1.99487711
VERTEX2 884 -1.29734709 -0.35422667 -2.06189791
VERTEX2 885 -1.29742062 -0.35230680 -1.48047517
VERTEX2 886 -1.28026630 -0.36829554 -0.46278584
VERTEX2 887 -1.25069756 -0.37972084 0.54820446
VERTEX2 888 -1.23947959 -0.35600946 1.53198245
VERTEX2 889 -1.24149416 -0.35023240 2.42977532
VERTEX2 890 -1.55663466 -0.19849686 2.70362485
VERTEX2 891 -2.09370769 0.06713436 2.63327252
VERTEX2 892 -2.62739701 0.38539558 2.59768721
VERTEX2 893 -3.18019909 0.68006314 2.83395397
VERTEX2 894 -3.79207343 0.79021411 3.05500059
VERTEX2 895 -4.38970118 0.74069819 -2.92992162
VERTEX2 896 -4.40618977 0.73673082 -2.45131673
VERTEX2 897 -4.68989060 0.31602621 -2.17944714
VERTEX2 898 -5.03981609 -0.19190309 -2.16399757
VERTEX2 899 -5.32487233 -0.60024210 -2.23179973
VERTEX2 900 -5.73699390 -1.14303858 -2.23423734
VERTEX2 901 -6.10755822 -1.58612230 -2.29866132
VERTEX2 902 -6.52649769 -2.08061182 -2.27384001
VERTEX2 903 -6.85122521 -2.46942042 -2.31879978
VERTEX2 904 -6.85262356 -2.47138870 -1.61629512
VERTEX2 905 -6.83983101 -2.96434441 -1.56096097
VERTEX2 906 -6.80723142 -3.53523330 -1.49536048
VERTEX2 907 -6.75244953 -4.10895906 -1.50362536
VERTEX2 908 -6.70758328 -4.73088221 -1.47892745
VERTEX2 909 -6.64851920 -5.34288788 -1.49691570
VERTEX2 910 -6.67669753 -5.47305615 -1.86692381
VERTEX2 911 -6.83850300 -6.04463116 -1.80610951
VERTEX2 912 -6.96101551 -6.60916099 -1.79356146
VERTEX2 913 -7.07457891 -7.15166384 -1.78569765
VERTEX2 914 -7.20221990 -7.74031530 -1.80942728
VERTEX2 915 -7.32720176 -8.24988509 -1.84621519
VERTEX2 916 -7.26304879 -8.49556173 -1.29883516
VERTEX2 917 -7.12529884 -9.14623000 -1.55335325
VERTEX2 918 -7.14680323 -9.66533466 -1.62896164
VERTEX2 919 -7.18205366 -10.29020773 -1.67235183
VERTEX2 920 -7.24828079 -10.90530107 -1.69000996
VERTEX2 921 -7.32340058 -11.52156683 -1.74343326
VERTEX2 922 -7.42742804 -12.12328897 -1.77036857
VERTEX2 923 -7.54879446 -12.68782737 -1.83352054
VERTEX2 924 -7.68216889 -13.18191408 -1.81682613
VERTEX2 925 -7.68302334 -13.17761243 -1.31196601
VERTEX2 926 -7.52413437 -13.74023731 -1.29570759
VERTEX2 927 -7.35844811 -14.33146426 -1.31895268
VERTEX2 928 -7.20181781 -14.93815327 -1.32781945
VERTEX2 929 -7.05166533 -15.54200603 -1.32864826
VERTEX2 930 -6.90519333 -16.17303373 -1.41119634
VERTEX2 931 -6.81973763 -16.79939493 -1.49138919
VERTEX2 932 -6.77436282 -17.42646019 -1.55078808
VERTEX2 933 -6.77166334 -18.03894173 -1.61533579
VERTEX2 934 -6.78682027 -18.51947326 -1.62511096
VERTEX2 935 -6.78413889 -18.53195506 -0.94267834
VERTEX2 936 -6.78268869 -18.53246561 0.00270714
VERTEX2 937 -6.24066636 -18.50768390 0.06565033
VERTEX2 938 -5.64473100 -18.52411239 -0.10767758
VERTEX2 939 -5.02099885 -18.58428990 -0.07990407
VERTEX2 940 -4.40935463 -18.65981223 -0.16575568
VERTEX2 941 -3.80490562 -18.77567219 -0.21940078
VERTEX2 942 -3.28660154 -18.89169130 -0.21489871
VERTEX2 943 -2.67784623 -19.02589010 -0.12656462
VERTEX2 944 -2.06505244 -19.10932604 -0.18321680
VERTEX2 945 -1.44464605 -19.23853576 -0.23833448
VERTEX2 946 -1.27075169 -19.28304273 -0.17400335
VERTEX2 947 -0.86285106 -19.22066679 0.15423211
VERTEX2 948 -0.29082522 -19.13223771 0.13509315
VERTEX2 949 0.31152985 -19.09857965 -0.02056515
VERTEX2 950 0.94114368 -19.13561181 -0.26008159
VERTEX2 951 1.54276257 -19.30923996 -0.33222722
VERTEX2 952 2.14409550 -19.48586795 -0.08143860
VERTEX2 953 2.77316783 -19.51835179 -0.00115516
VERTEX2 954 3.39755816 -19.51190590 -0.00816248
VERTEX2 955 3.98685772 -19.55829041 -0.16898648
VERTEX2 956 4.53736424 -19.63748636 -0.17127773
VERTEX2 957 5.06854758 -19.73438146 -0.25896669
VERTEX2 958 5.53480735 -19.84720373 -0.28569016
VERTEX2 959 5.96582525 -19.96604186 -0.35277569
VERTEX2 960 6.55461255 -20.12971981 -0.27283746
VERTEX2 961 7.13587745 -20.30467610 -0.29980548
VERTEX2 962 7.75234970 -20.43382234 -0.23408500
VERTEX2 963 8.36841274 -20.51511401 -0.04722802
VERTEX2 964 8.98859899 -20.55701897 -0.11097090
VERTEX2 965 9.61002605 -20.63614465 -0.11823298
VERTEX2 966 10.05090530 -20.69440308 -0.17740439
VERTEX2 967 10.08546246 -20.68740833 0.67508558
VERTEX2 968 10.09510545 -20.67832050 1.57087739
VERTEX2 969 10.09726279 -20.70404461 1.63006306
VERTEX2 970 10.09962561 -20.72996620 1.62808106
VERTEX2 971 10.07958852 -20.39586051 1.62832580
VERTEX2 972 10.04149079 -19.80842955 1.63403426
VERTEX2 973 10.12146734 -19.22687737 1.34913196
VERTEX2 974 10.26091074 -18.62633948 1.38097141
VERTEX2 975 10.37254931 -18.02140906 1.38556871
VERTEX2 976 10.47745209 -17.41375437 1.39843506
VERTEX2 977 10.61264915 -16.80263330 1.37203580
VERTEX2 978 10.73445434 -16.18846246 1.41799068
VERTEX2 979 10.85005663 -15.57811040 1.40569802
VERTEX2 980 10.94853430 -14.97077581 1.45259978
VERTEX2 981 11.03787440 -14.37391736 1.45948774
VERTEX2 982 11.09458565 -13.84346072 1.50443192
VERTEX2 983 11.14431638 -13.24468574 1.50100918
VERTEX2 984 11.17166918 -12.64846441 1.55833916
VERTEX2 985 11.18269558 -12.05137096 1.57859282
VERTEX2 986 11.16793763 -11.43079512 1.61490726
VERTEX2 987 11.15557985 -10.81132944 1.57821423
VERTEX2 988 11.15864553 -10.19207895 1.59193890
VERTEX2 989 11.14430235 -9.57693678 1.59961901
VERTEX2 990 11.13779011 -8.96507642 1.58889544
VERTEX2 991 11.12280455 -8.34975933 1.61380199
VERTEX2 992 11.11784747 -7.76444302 1.58114536
VERTEX2 993 11.10435149 -7.14966571 1.61383530
VERTEX2 994 11.08827015 -6.56563292 1.60383412
VERTEX2 995 11.05602028 -5.96781680 1.65104182
VERTEX2 996 10.99666493 -5.35823763 1.67814425
VERTEX2 997 10.95222954 -4.71014461 1.61369095
VERTEX2 998 10.93277751 -4.30440466 1.63551103
VERTEX2 999 10.95780245 -4.32471309 2.35324095
VERTEX2 1000 10.49297437 -3.96203432 2.50183082
VERTEX2 1001 10.05187047 -3.55911724 2.18079857
VERTEX2 1002 9.68416399 -3.08505422 2.27340745
VERTEX2 1003 9.33381911 -2.58378774 2.09372662
VERTEX2 1004 8.99518652 -2.04679007 2.15165758
VERTEX2 1005 8.64134728 -1.55120943 2.21371455
VERTEX2 1006 8.24771584 -1.07362694 2.29137939
VERTEX2 1007 7.83676686 -0.64778648 2.38332951
VERTEX2 1008 7.60219865 -0.43323150 2.54318559
VERTEX2 1009 7.50710821 -0.41871336 3.01710729
VERTEX2 1010 6.94005328 -0.36282120 3.06986660
VERTEX2 1011 6.32521818 -0.32344588 3.02686305
VERTEX2 1012 5.71661003 -0.26017220 3.06886605
VERTEX2 1013 5.08128570 -0.26261087 -3.09924860
VERTEX2 1014 4.46917062 -0.21454355 3.00876055
VERTEX2 1015 3.84498633 -0.17514711 3.09332594
VERTEX2 1016 3.07616044 -0.13750258 3.10013653
VERTEX2 1017 2.49640036 -0.12404421 3.04301611
VERTEX2 1018 1.94400335 -0.06260900 3.05034818
VERTEX2 1019 1.35467432 -0.03816336 3.10994221
VERTEX2 1020 0.74506618 -0.00233596 3.09604071
VERTEX2 1021 0.12958757 0.02665665 3.05549457
VERTEX2 1022 0.07275698 0.03135450 3.04827496
VERTEX2 1023 0.07633859 0.03128758 3.13487605
VERTEX2 1024 -0.55392632 0.03909964 -3.12196973
VERTEX2 1025 -1.18631988 0.00843843 -3.10438923
VERTEX2 1026 -1.35103344 0.00282236 -3.09720599
VERTEX2 1027 -1.33753746 0.00943695 -2.18064744
VERTEX2 1028 -1.35065362 -0.15651886 -1.61715797
VERTEX2 1029 -1.37944194 -0.72218959 -1.63869550
VERTEX2 1030 -1.44328107 -1.34725754 -1.71895793
VERTEX2 1031 -1.55636763 -1.99607200 -1.77297017
VERTEX2 1032 -1.68734601 -2.64483725 -1.76881046
VERTEX2 1033 -1.83130909 -3.29231814 -1.81384541
VERTEX2 1034 -1.87669428 -3.46618501 -2.02746811
VERTEX2 1035 -1.88041177 -3.46933562 -2.64674389
VERTEX2 1036 -1.85061001 -3.48305701 3.06568026
VERTEX2 1037 -2.19162933 -3.35350766 2.82731523
VERTEX2 1038 -2.80363963 -3.23163455 2.91855711
VERTEX2 1039 -3.44285396 -3.06237220 2.88706320
VERTEX2 1040 -3.41721106 -3.06296000 -2.76595277
VERTEX2 1041 -3.38866980 -3.06667777 -1.74885934
VERTEX2 1042 -3.39024208 -3.09622731 -0.76076868
VERTEX2 1043 -3.35825458 -3.12557860 0.20896721
VERTEX2 1044 -3.37019787 -3.13975020 1.20291733
VERTEX2 1045 -3.37236380 -3.14454842 1.08889000
VERTEX2 1046 -3.38163768 -3.15707835 0.70335440
VERTEX2 1047 -3.39951569 -3.16491124 0.14758195
VERTEX2 1048 -3.03706446 -3.23323971 -0.16541801
VERTEX2 1049 -2.39149989 -3.33004400 -0.14827000
VERTEX2 1050 -1.74416173 -3.39910285 -0.07260848
VERTEX2 1051 -1.08270189 -3.47150482 -0.15123257
VERTEX2 1052 -0.45285999 -3.55129779 -0.09780070
VERTEX2 1053 -0.02964089 -3.60503339 -0.14997922
VERTEX2 1054 -0.00236851 -3.60782347 0.61157238
VERTEX2 1055 0.00296798 -3.58259809 1.66553130
VERTEX2 1056 0.00943066 -3.59187565 2.66852855
VERTEX2 1057 0.02743677 -3.59383163 -2.62397862
VERTEX2 1058 0.02172672 -3.60052422 -1.70196808
VERTEX2 1059 -0.07706813 -4.18544690 -1.78273562
VERTEX2 1060 -0.21489568 -4.81793651 -1.77772823
VERTEX2 1061 -0.32322942 -5.26676821 -1.90023717
VERTEX2 1062 -0.32974981 -5.27674815 -2.46408970
VERTEX2 1063 -0.31303227 -5.26719067 -3.06142089
VERTEX2 1064 -0.59583660 -5.21400738 2.95674824
VERTEX2 1065 -1.18624444 -5.14680284 3.07888744
VERTEX2 1066 -1.75510750 -5.09408247 3.02280332
VERTEX2 1067 -1.73869956 -5.09322521 -2.82783149
VERTEX2 1068 -1.72466166 -5.08336652 -2.15520250
VERTEX2 1069 -1.72360867 -5.08052094 -1.98490097
VERTEX2 1070 -1.72140525 -5.07663917 -2.52399000
VERTEX2 1071 -2.19164712 -5.33169690 -2.65127787
VERTEX2 1072 -2.63735150 -5.56168895 -2.72014642
VERTEX2 1073 -2.60592560 -5.56090420 3.05147334
VERTEX2 1074 -3.13469803 -5.48848571 3.01693959
VERTEX2 1075 -3.71107893 -5.41149897 3.03335675
VERTEX2 1076 -3.73078633 -5.41002847 -2.84576533
VERTEX2 1077 -3.74375049 -5.43444705 -2.04031392
VERTEX2 1078 -3.98293710 -6.04364136 -1.99523202
VERTEX2 1079 -4.21644131 -6.60980114 -1.93318239
VERTEX2 1080 -4.22109740 -6.62219907 -2.42094140
VERTEX2 1081 -4.64934903 -6.91387779 -2.54426645
VERTEX2 1082 -4.81975492 -7.03240614 -2.26375839
VERTEX2 1083 -4.81555869 -7.06508943 -1.23410017
VERTEX2 1084 -4.74585330 -7.10115718 -0.26916174
VERTEX2 1085 -4.75058904 -7.10241298 0.71427519
VERTEX2 1086 -4.38913219 -6.61434759 0.94489973
VERTEX2 1087 -4.00829110 -6.10852151 0.93291311
VERTEX2 1088 -3.64608637 -5.59835148 0.91624431
VERTEX2 1089 -3.58975509 -5.52606184 0.82066486
VERTEX2 1090 -3.57915213 -5.51644600 0.20532227
VERTEX2 1091 -3.04183930 -5.48661913 0.02831321
VERTEX2 1092 -2.42331985 -5.47406133 0.01307270
VERTEX2 1093 -1.85491379 -5.47962341 -0.05211386
VERTEX2 1094 -1.84236413 -5.49168904 -0.45644149
VERTEX2 1095 -1.81221906 -5.51868636 -1.04648836
VERTEX2 1096 -1.81234488 -5.51821605 -1.61802642
VERTEX2 1097 -1.89724828 -5.84186711 -1.83366090
VERTEX2 1098 -2.07771725 -6.43647134 -1.89065521
VERTEX2 1099 -2.28795110 -6.99343592 -1.98717833
VERTEX2 1100 -2.29491599 -7.01071493 -1.62417802
VERTEX2 1101 -2.23858067 -7.27362961 -1.35833865
VERTEX2 1102 -2.23947346 -7.28340821 -1.75209237
VERTEX2 1103 -2.37254445 -7.89349826 -1.78588964
VERTEX2 1104 -2.51672070 -8.52983106 -1.81357789
VERTEX2 1105 -2.67814948 -9.15221925 -1.83144253
VERTEX2 1106 -2.80897442 -9.62983420 -1.85662651
VERTEX2 1107 -2.80834345 -9.63789152 -1.60043428
VERTEX2 1108 -2.78332680 -10.26326053 -1.59244828
VERTEX2 1109 -2.84288243 -10.90536041 -1.69619954
VERTEX2 1110 -2.92409552 -11.51098103 -1.74555149
VERTEX2 1111 -3.09939376 -12.03686320 -1.84664135
VERTEX2 1112 -3.13977483 -12.61448304 -1.49993423
VERTEX2 1113 -3.11090310 -13.25281265 -1.59512153
VERTEX2 1114 -3.12508838 -13.86827273 -1.57792587
VERTEX2 1115 -3.12622174 -14.45048413 -1.59395345
VERTEX2 1116 -3.11863063 -15.09792143 -1.55753174
VERTEX2 1117 -3.11647154 -15.19449507 -1.68510231
VERTEX2 1118 -3.11443101 -15.19074388 -2.29189611
VERTEX2 1119 -3.10422380 -15.18377460 -2.72321807
VERTEX2 1120 -3.66703780 -15.38557586 -2.78665911
VERTEX2 1121 -3.85563473 -15.45090190 -2.90503837
VERTEX2 1122 -3.85067704 -15.45262760 2.82821933
VERTEX2 1123 -4.39858738 -15.26576030 2.84531885
VERTEX2 1124 -4.95455757 -15.13509022 2.94426954
VERTEX2 1125 -5.57838651 -15.00754411 2.95795187
VERTEX2 1126 -5.65741378 -14.99453848 -2.98518904
VERTEX2 1127 -5.65295752 -14.99931952 -1.92724499
VERTEX2 1128 -5.65171212 -14.99335481 -0.93925698
VERTEX2 1129 -5.63399285 -15.00331252 0.07699743
VERTEX2 1130 -5.04362754 -14.93957131 0.09090226
VERTEX2 1131 -4.26908419 -15.06628578 -0.34047450
VERTEX2 1132 -3.65811219 -15.28512857 -0.35991517
VERTEX2 1133 -3.11109401 -15.51444138 -0.39835830
VERTEX2 1134 -2.85770330 -15.62136120 -0.49508280
VERTEX2 1135 -2.84679005 -15.63210930 -1.05055676
VERTEX2 1136 -2.84589452 -15.63022934 -1.61194908
VERTEX2 1137 -2.90016304 -15.93165179 -1.79563201
VERTEX2 1138 -3.05546528 -16.56349890 -1.81164372
VERTEX2 1139 -3.17492026 -17.05630736 -1.88446766
VERTEX2 1140 -3.16440648 -17.03120057 -2.36261959
VERTEX2 1141 -3.14348713 -17.01090346 -2.90911324
VERTEX2 1142 -3.51162948 -16.96646581 3.01040297
VERTEX2 1143 -4.11462066 -16.91874414 3.10019847
VERTEX2 1144 -4.69633439 -16.88421764 3.06970332
VERTEX2 1145 -5.27013771 -16.83891729 3.04411086
VERTEX2 1146 -5.84144652 -16.78191328 3.06371720
VERTEX2 1147 -6.41667658 -16.77152383 3.13624886
VERTEX2 1148 -6.99471524 -16.76820800 -3.13690163
VERTEX2 1149 -7.03700988 -16.76943832 -2.63864664
VERTEX2 1150 -7.12924504 -16.87159854 -1.82937943
VERTEX2 1151 -7.12717755 -16.88363601 -0.82567560
VERTEX2 1152 -7.10888322 -16.88398158 0.22732072
VERTEX2 1153 -7.09343599 -16.87703204 1.23999133
VERTEX2 1154 -7.15158557 -16.56066902 1.78594886
VERTEX2 1155 -7.28249263 -15.93669947 1.73656511
VERTEX2 1156 -7.37761547 -15.33138243 1.74655643
VERTEX2 1157 -7.50263730 -14.76075718 1.85763942
VERTEX2 1158 -7.62674869 -14.15908161 1.72906039
VERTEX2 1159 -7.68490362 -13.55683918 1.63488942
VERTEX2 1160 -7.70487338 -12.91775410 1.49802235
VERTEX2 1161 -7.60234974 -12.28607024 1.40824270
VERTEX2 1162 -7.50801866 -11.65414761 1.46629806
VERTEX2 1163 -7.44259748 -11.01141608 1.46081367
VERTEX2 1164 -7.39148399 -10.37071922 1.54624229
VERTEX2 1165 -7.37862640 -9.83211790 1.52344190
VERTEX2 1166 -7.37916038 -9.82949770 2.01245310
VERTEX2 1167 -7.32821676 -9.81727577 2.94918228
VERTEX2 1168 -7.28456153 -9.80006052 -2.43046047
VERTEX2 1169 -7.28877281 -9.85258896 -1.60837558
VERTEX2 1170 -7.30054748 -10.43967965 -1.60162384
VERTEX2 1171 -7.30201372 -11.07555457 -1.56983051
VERTEX2 1172 -7.30784026 -11.67547736 -1.63222831
VERTEX2 1173 -7.33937500 -12.30004381 -1.62306454
VERTEX2 1174 -7.38485799 -12.92977466 -1.69175131
VERTEX2 1175 -7.47157873 -13.53544593 -1.72499675
VERTEX2 1176 -7.57071658 -14.15617663 -1.76849256
VERTEX2 1177 -7.69189579 -14.76494888 -1.76627292
VERTEX2 1178 -7.82455732 -15.37769651 -1.81328635
VERTEX2 1179 -7.96356065 -15.98236680 -1.78373691
VERTEX2 1180 -8.01840726 -16.23639890 -1.79052952
VERTEX2 1181 -8.01762298 -16.23092764 -0.96231083
VERTEX2 1182 -7.96525991 -16.24425891 -0.24995571
VERTEX2 1183 -7.35474276 -16.39255954 -0.22445154
VERTEX2 1184 -6.72500012 -16.50678080 -0.15471863
VERTEX2 1185 -6.09526504 -16.61750893 -0.18733479
VERTEX2 1186 -5.46207695 -16.71292514 -0.12153671
VERTEX2 1187 -4.80666707 -16.79916394 -0.15898936
VERTEX2 1188 -4.17782322 -16.89000822 -0.14122841
VERTEX2 1189 -3.50832502 -16.99906192 -0.11969722
VERTEX2 1190 -3.17048529 -17.04035860 -0.11182573
VERTEX2 1191 -3.13179089 -17.03955241 0.80791170
VERTEX2 1192 -3.12598292 -16.95639529 1.60510708
VERTEX2 1193 -3.11871066 -16.35714103 1.47293759
VERTEX2 1194 -3.07684539 -15.78333861 1.51487759
VERTEX2 1195 -3.04767180 -15.16035799 1.56712409
VERTEX2 1196 -3.04112243 -14.53734555 1.39438436
VERTEX2 1197 -2.93697595 -13.92260972 1.40559904
VERTEX2 1198 -2.86582877 -13.29619978 1.66440263
VERTEX2 1199 -2.88232800 -12.68471471 1.44969524
VERTEX2 1200 -2.82450751 -12.05512191 1.51870507
VERTEX2 1201 -2.79895279 -11.43603781 1.57454168
VERTEX2 1202 -2.80859738 -10.81441793 1.59750656
VERTEX2 1203 -2.83847156 -10.22589095 1.50761549
VERTEX2 1204 -2.72344216 -9.63406364 1.36088144
VERTEX2 1205 -2.61434065 -9.07130280 1.39050067
VERTEX2 1206 -2.52817468 -8.48169690 1.45179367
VERTEX2 1207 -2.38995402 -7.87048391 1.36577750
VERTEX2 1208 -2.27668764 -7.24571459 1.43054925
VERTEX2 1209 -2.18898575 -6.62445828 1.42870112
VERTEX2 1210 -2.12346314 -6.00752129 1.44937847
VERTEX2 1211 -1.99681096 -5.39433270 1.37651004
VERTEX2 1212 -1.88136055 -4.78144565 1.42651569
VERTEX2 1213 -1.81373366 -4.16674336 1.49978717
VERTEX2 1214 -1.73149052 -3.44013315 1.27710000
VERTEX2 1215 -1.56675516 -2.85480799 1.33612622
VERTEX2 1216 -1.51643251 -2.30055549 1.55345209
VERTEX2 1217 -1.48233606 -1.71982379 1.53413955
VERTEX2 1218 -1.46843669 -1.12594872 1.48391043
VERTEX2 1219 -1.41847808 -0.47684340 1.51450843
VERTEX2 1220 -1.41211863 0.11022460 1.60524643
VERTEX2 1221 -1.41157334 0.10839630 1.15249343
VERTEX2 1222 -1.40160583 0.11812304 0.55518643
VERTEX2 1223 -1.38977496 0.12093672 -0.00444057
VERTEX2 1224 -0.81570612 0.02932263 -0.18734857
VERTEX2 1225 -0.20022796 -0.08338211 -0.17358457
VERTEX2 1226 -0.09534333 -0.10188422 -0.19031557
VERTEX2 1227 -0.09534333 -0.10188422 -0.19097757
