1 19 29 0.00009906 3 
2 27 75 0.00051003 4 
3 19 166 0.00293902 10 
4 156 168 0.00302034 10 
5 19 172 0.00309718 10 
6 25 172 0.00310518 10 
7 15 172 0.00311769 10 
8 127 173 0.00312416 10 
9 30 173 0.00319303 10 
10 31 173 0.00321346 10 
11 25 178 0.00331349 10 
12 32 178 0.00330129 10 
13 32 183 0.00338899 10 
14 44 189 0.00350859 10 
15 44 195 0.00362326 10 
16 50 195 0.00363677 10 
17 50 201 0.00376967 10 
18 50 203 0.00380841 10 
19 61 203 0.00382887 10 
20 114 206 0.00393499 10 
21 61 209 0.00401416 10 
22 67 209 0.00400910 10 
23 67 220 0.00421353 10 
24 81 220 0.00424872 10 
25 81 226 0.00435069 10 
26 87 226 0.00437378 10 
27 87 231 0.00447776 10 
28 94 231 0.00447816 10 
29 226 231 0.00448344 10 
30 94 241 0.00467246 10 
31 101 241 0.00469064 10 
32 101 247 0.00481407 10 
33 107 247 0.00481682 10 
34 107 254 0.00493695 10 
35 114 254 0.00504929 10 
36 107 256 0.00503357 10 
37 114 256 0.00503290 10 
38 173 257 0.00518005 10 
39 107 258 0.00517653 10 
40 114 258 0.00518155 10 
41 121 266 0.00548392 10 
42 126 266 0.00552025 10 
43 30 267 0.00547243 10 
44 126 272 0.00559468 10 
45 132 272 0.00561557 10 
46 162 272 0.00566608 10 
47 0 273 0.00577523 10 
48 132 278 0.00586658 10 
49 138 278 0.00588079 10 
50 175 282 0.00604219 10 
51 246 282 0.00609742 10 
52 138 284 0.00620707 10 
53 151 284 0.00617532 10 
54 151 291 0.00629815 10 
55 226 293 0.00642246 10 
56 151 297 0.00649643 10 
57 157 297 0.00654720 10 
58 163 297 0.00657040 10 
59 166 297 0.00657734 10 
60 62 300 0.00671654 10 
61 19 305 0.00681732 10 
62 157 305 0.00687941 10 
63 163 305 0.00689734 10 
64 166 305 0.00690732 10 
65 172 305 0.00690163 10 
66 64 309 0.00698392 10 
67 22 314 0.00712984 10 
68 19 315 0.00715813 10 
69 25 315 0.00718768 10 
70 172 315 0.00718889 10 
71 172 328 0.00743888 10 
72 212 334 0.00763595 10 
73 19 337 0.00771317 10 
74 25 337 0.00772301 10 
75 172 337 0.00774947 10 
76 276 340 0.00787092 10 
77 19 342 0.00792957 10 
78 25 342 0.00794322 10 
79 172 342 0.00795428 10 
80 178 342 0.00801879 10 
81 280 352 0.00827326 10 
82 167 352 0.00830391 10 
83 146 357 0.00853694 10 
84 147 364 0.00869642 10 
85 25 367 0.00876992 10 
86 32 367 0.00884272 10 
87 178 367 0.00886823 10 
88 183 367 0.00889944 10 
89 25 374 0.00903536 10 
90 32 374 0.00904903 10 
91 178 374 0.00905225 10 
92 183 374 0.00906592 10 
93 273 378 0.00929014 10 
94 205 380 0.00929342 10 
95 32 382 0.00940658 10 
96 183 382 0.00941689 10 
97 32 387 0.00953837 10 
98 183 387 0.00953900 10 
99 306 387 0.00958470 10 
100 225 387 0.00960721 10 
101 298 396 0.00983502 10 
102 189 400 0.01000231 10 
103 60 403 0.01013543 10 
104 13 405 0.01034458 10 
105 280 406 0.01038930 10 
106 189 414 0.01066321 10 
107 272 429 0.01095511 10 
108 44 437 0.01123571 10 
109 195 437 0.01142536 10 
110 16 438 0.01143509 10 
111 427 444 0.01152040 10 
112 44 454 0.01171380 10 
113 189 454 0.01175650 10 
114 3 461 0.01175964 10 
115 44 467 0.01204830 10 
116 50 467 0.01192267 10 
117 195 467 0.01204284 10 
118 233 468 0.01226585 10 
119 456 472 0.01244366 10 
120 195 484 0.01265647 10 
121 179 484 0.01299737 10 
122 44 494 0.01318363 10 
123 50 494 0.01309775 10 
124 195 494 0.01308832 10 
125 201 494 0.01304405 10 
126 50 500 0.01318628 10 
127 201 500 0.01318273 10 
128 203 500 0.01322481 10 
129 310 501 0.01350403 10 
130 33 502 0.01358384 10 
131 108 507 0.01385213 10 
132 61 508 0.01395551 10 
133 203 508 0.01410337 10 
134 209 508 0.01405157 10 
135 274 509 0.01418822 10 
136 402 514 0.01439700 10 
137 61 522 0.01475879 10 
138 203 522 0.01459594 10 
139 209 522 0.01456288 10 
140 4 524 0.01522327 10 
141 61 528 0.01485379 10 
142 67 528 0.01519862 10 
143 81 528 0.01532064 10 
144 209 528 0.01531241 10 
145 220 528 0.01518530 10 
146 67 532 0.01525616 10 
147 81 532 0.01526824 10 
148 220 532 0.01528190 10 
149 195 536 0.01545606 10 
150 39 538 0.01560408 10 
151 67 556 0.01596759 10 
152 133 557 0.01612228 10 
153 243 561 0.01666955 10 
154 67 564 0.01649114 10 
155 81 564 0.01675557 10 
156 220 564 0.01658563 10 
157 67 567 0.01664927 10 
158 81 567 0.01665743 10 
159 220 567 0.01667068 10 
160 67 570 0.01673551 10 
161 81 570 0.01675719 10 
162 220 570 0.01674869 10 
163 64 572 0.01677909 10 
164 81 575 0.01712697 10 
165 220 575 0.01715064 10 
166 481 575 0.01751994 10 
167 493 583 0.01823842 10 
168 411 587 0.01808853 10 
169 81 588 0.01824130 10 
170 87 588 0.01795967 10 
171 226 588 0.01801224 10 
172 152 588 0.01837886 10 
173 5 593 0.01861310 10 
174 87 597 0.01911797 10 
175 94 597 0.01908406 10 
176 226 597 0.01909066 10 
177 27 600 0.01940221 10 
178 221 603 0.01929331 10 
179 87 604 0.01934608 10 
180 94 604 0.01951860 10 
181 194 607 0.01966297 10 
182 94 616 0.01981992 10 
183 613 618 0.02004684 10 
184 94 632 0.02042105 10 
185 94 637 0.02025050 10 
186 101 637 0.01988222 10 
187 166 641 0.02039339 10 
188 101 642 0.02062194 10 
189 107 642 0.02143635 10 
190 445 642 0.02113112 10 
191 101 645 0.02119726 10 
192 107 645 0.02120607 10 
193 497 653 0.02167022 10 
194 334 653 0.02136199 10 
195 527 654 0.02177193 10 
196 367 655 0.02160713 10 
197 101 657 0.02192216 10 
198 101 663 0.02202454 10 
199 107 663 0.02150821 10 
200 114 663 0.02163393 10 
201 101 665 0.02159572 10 
202 107 665 0.02159675 10 
203 114 665 0.02160727 10 
204 479 671 0.02216378 10 
205 107 680 0.02217290 10 
206 289 680 0.02280908 10 
207 107 683 0.02284867 10 
208 114 683 0.02292757 10 
209 150 686 0.02269426 10 
210 107 704 0.02304361 10 
211 114 704 0.02302336 10 
212 197 706 0.02357034 10 
213 435 708 0.02367904 10 
214 14 709 0.02419897 10 
215 551 713 0.02430998 10 
216 107 714 0.02473774 10 
217 114 714 0.02453124 10 
218 522 715 0.02467455 10 
219 172 717 0.02485426 10 
220 61 726 0.02504809 10 
221 107 730 0.02512979 10 
222 114 730 0.02515579 10 
223 375 730 0.02567691 10 
224 207 731 0.02528346 10 
225 340 740 0.02604844 10 
226 308 741 0.02625471 10 
227 121 754 0.02670730 10 
228 126 754 0.02665363 10 
229 751 756 0.02668701 10 
230 121 759 0.02680183 10 
231 126 759 0.02679876 10 
232 126 762 0.02688126 10 
233 132 762 0.02689092 10 
234 610 764 0.02728715 10 
235 132 778 0.02754938 10 
236 187 778 0.02746081 10 
237 425 790 0.02844203 10 
238 132 792 0.02892318 10 
239 560 792 0.02918098 10 
240 132 800 0.02936158 10 
241 138 800 0.02931945 10 
242 454 802 0.02917156 10 
243 167 803 0.02924037 10 
244 491 805 0.02952059 10 
245 138 806 0.02996604 10 
246 645 806 0.02961972 10 
247 523 814 0.02951164 10 
248 296 815 0.02975681 10 
249 473 816 0.03033481 10 
250 690 819 0.03008622 10 
251 138 821 0.03011759 10 
252 76 821 0.03072143 10 
253 138 823 0.03078393 10 
254 151 828 0.03083641 10 
255 612 831 0.03122688 10 
256 543 831 0.03075140 10 
257 31 836 0.03085608 10 
258 658 842 0.03168121 10 
259 151 847 0.03182513 10 
260 815 848 0.03168436 10 
261 215 850 0.03183592 10 
262 278 851 0.03224463 10 
263 151 855 0.03232185 10 
264 773 861 0.03225265 10 
265 86 872 0.03281937 10 
266 238 873 0.03276371 10 
267 73 879 0.03308932 10 
268 151 895 0.03323814 10 
269 878 896 0.03370478 10 
270 151 897 0.03377218 10 
271 863 902 0.03338390 10 
272 138 903 0.03344894 10 
273 138 904 0.03343270 10 
274 132 907 0.03360658 10 
275 138 907 0.03358768 10 
276 132 911 0.03364571 10 
277 526 916 0.03400758 10 
278 191 920 0.03475268 10 
279 121 923 0.03505281 10 
280 126 923 0.03445843 10 
281 107 929 0.03458225 10 
282 114 929 0.03692996 10 
283 572 929 0.03532026 10 
284 689 932 0.03541496 10 
285 107 935 0.03548317 10 
286 114 935 0.03549622 10 
287 101 939 0.03556572 10 
288 107 939 0.03558185 10 
289 484 941 0.03565517 10 
290 335 942 0.03573578 10 
291 101 944 0.03574912 10 
292 727 946 0.03554363 10 
293 94 947 0.03566984 10 
294 101 947 0.03564280 10 
295 677 947 0.03651169 10 
296 567 950 0.03667569 10 
297 87 953 0.03685301 10 
298 94 953 0.03605059 10 
299 226 953 0.03615370 10 
300 775 957 0.03674986 10 
301 81 959 0.03755323 10 
302 87 959 0.03751770 10 
303 220 959 0.03754006 10 
304 226 959 0.03757406 10 
305 20 961 0.03746409 10 
306 835 962 0.03790470 10 
307 67 965 0.03800662 10 
308 81 965 0.03802969 10 
309 220 965 0.03803248 10 
310 896 966 0.03854178 10 
311 380 967 0.03838237 10 
312 280 972 0.03900128 10 
313 235 972 0.03871305 10 
314 264 973 0.03924172 10 
315 61 976 0.03879885 10 
316 67 976 0.03964027 10 
317 209 976 0.03888694 10 
318 848 978 0.03990897 10 
319 208 980 0.04094146 10 
320 53 980 0.03999728 10 
321 50 982 0.04007535 10 
322 61 982 0.04005578 10 
323 201 982 0.03988629 10 
324 203 982 0.04010553 10 
325 915 984 0.04083309 10 
326 261 987 0.04072305 10 
327 44 988 0.04060567 10 
328 50 988 0.04079199 10 
329 195 988 0.04084991 10 
330 201 988 0.04058485 10 
331 323 989 0.04115177 10 
332 407 990 0.04185497 10 
333 903 992 0.04252592 10 
334 907 993 0.04189676 10 
335 44 994 0.04197173 10 
336 189 994 0.04201183 10 
337 195 994 0.04190624 10 
338 32 1003 0.04260162 10 
339 178 1003 0.04260268 10 
340 183 1003 0.04260577 10 
341 47 1006 0.04270647 10 
342 654 1007 0.04228099 10 
343 25 1008 0.04293678 10 
344 32 1008 0.04291737 10 
345 178 1008 0.04311977 10 
346 183 1008 0.04302345 10 
347 25 1010 0.04296617 10 
348 32 1010 0.04295263 10 
349 172 1010 0.04299237 10 
350 178 1010 0.04299833 10 
351 221 1011 0.04317478 10 
352 916 1015 0.04331914 10 
353 188 1015 0.04259544 10 
354 19 1016 0.04265372 10 
355 166 1016 0.04306348 10 
356 172 1016 0.04304844 10 
357 689 1016 0.04350783 10 
358 267 1022 0.04457540 10 
359 833 1022 0.04506311 10 
360 9 1024 0.04539488 10 
361 313 1026 0.04499213 10 
362 151 1029 0.04541626 10 
363 157 1029 0.04560461 10 
364 163 1029 0.04561470 10 
365 166 1029 0.04561503 10 
366 39 1039 0.04618580 10 
367 932 1041 0.04723310 10 
368 289 1044 0.04577486 10 
369 308 1046 0.04615618 10 
370 248 1048 0.04669899 10 
371 660 1049 0.04855249 10 
372 902 1050 0.04864515 10 
373 60 1050 0.04885347 10 
374 265 1059 0.04911121 10 
375 310 1059 0.04868657 10 
376 499 1068 0.04909699 10 
377 341 1071 0.04912109 10 
378 728 1072 0.04961902 10 
379 83 1078 0.04983440 10 
380 497 1078 0.05089084 10 
381 34 1080 0.05114571 10 
382 132 1084 0.05118802 10 
383 623 1086 0.05088331 10 
384 920 1094 0.05191233 10 
385 611 1094 0.05260649 10 
386 959 1095 0.05159616 10 
387 104 1097 0.05229070 10 
388 795 1098 0.05263918 10 
389 125 1100 0.05271578 10 
390 913 1102 0.05317461 10 
391 1035 1104 0.05417339 10 
392 984 1116 0.05239655 10 
393 1092 1124 0.05314999 10 
394 734 1125 0.05428712 10 
395 15 1128 0.05416210 10 
396 439 1130 0.05391199 10 
397 101 1138 0.05406209 10 
398 381 1139 0.05477760 10 
399 294 1141 0.05546812 10 
400 992 1142 0.05528794 10 
401 107 1147 0.05536205 10 
402 114 1147 0.05540518 10 
403 281 1147 0.05659583 10 
404 872 1148 0.05715025 10 
405 520 1149 0.05707301 10 
406 107 1150 0.05696635 10 
407 114 1150 0.06176552 10 
408 285 1156 0.05877246 10 
409 114 1158 0.05817435 10 
410 121 1158 0.05890370 10 
411 709 1159 0.05792739 10 
412 543 1162 0.05836479 10 
413 121 1164 0.05840384 10 
414 126 1164 0.05850843 10 
415 403 1165 0.05887019 10 
416 640 1168 0.05886854 10 
417 832 1170 0.05923012 10 
418 114 1175 0.05936625 10 
419 121 1175 0.05940662 10 
420 923 1175 0.06018262 10 
421 929 1175 0.06019902 10 
422 1158 1175 0.06042550 10 
423 345 1176 0.06069513 10 
424 119 1180 0.06082505 10 
425 766 1181 0.06099221 10 
426 101 1188 0.06114867 10 
427 939 1188 0.06174094 10 
428 1138 1188 0.06183370 10 
429 1147 1188 0.06244113 10 
430 1150 1188 0.06272485 10 
431 491 1189 0.06109465 10 
432 577 1196 0.06156360 10 
433 135 1196 0.06253348 10 
434 284 1196 0.06188546 10 
435 959 1197 0.06191850 10 
436 781 1202 0.06243409 10 
437 473 1203 0.06299842 10 
438 921 1207 0.06269080 10 
439 1050 1210 0.06300234 10 
440 1061 1210 0.06350285 10 
441 1075 1210 0.06402612 10 
442 1084 1210 0.06392511 10 
443 1088 1210 0.06395274 10 
444 1093 1210 0.06397141 10 
445 1098 1210 0.06440814 10 
446 3 1210 0.06447240 10 
447 1029 1212 0.06441340 10 
448 154 1215 0.06512123 10 
449 157 1217 0.06442840 10 
450 163 1217 0.06443939 10 
451 1029 1217 0.06447409 10 
452 1044 1217 0.06454200 10 
453 1050 1217 0.06453297 10 
454 1056 1217 0.06546615 10 
455 1083 1222 0.06560347 10 
456 1023 1226 0.06676623 10 
