1 78 115 0.00051570 3 
2 19 166 0.00285988 10 
3 19 172 0.00304228 10 
4 25 172 0.00311827 10 
5 146 173 0.00315665 10 
6 25 178 0.00324049 10 
7 32 178 0.00324543 10 
8 32 183 0.00333962 10 
9 165 187 0.00344585 10 
10 44 189 0.00349395 10 
11 44 195 0.00365596 10 
12 50 195 0.00362840 10 
13 124 196 0.00364659 10 
14 50 201 0.00375110 10 
15 50 203 0.00379232 10 
16 61 203 0.00380353 10 
17 176 205 0.00389720 10 
18 50 206 0.00391509 10 
19 61 209 0.00399338 10 
20 67 209 0.00402289 10 
21 67 220 0.00419794 10 
22 81 220 0.00422472 10 
23 74 224 0.00430243 10 
24 81 226 0.00436149 10 
25 87 226 0.00441621 10 
26 87 231 0.00450195 10 
27 94 231 0.00453046 10 
28 226 231 0.00451807 10 
29 94 241 0.00471484 10 
30 101 241 0.00473486 10 
31 64 245 0.00485863 10 
32 151 245 0.00492496 10 
33 101 247 0.00495807 10 
34 107 247 0.00498140 10 
35 107 254 0.00509807 10 
36 114 254 0.00511649 10 
37 107 256 0.00516846 10 
38 114 256 0.00519853 10 
39 107 258 0.00521819 10 
40 114 258 0.00523412 10 
41 35 263 0.00547294 10 
42 121 266 0.00556728 10 
43 126 266 0.00558689 10 
44 126 272 0.00571516 10 
45 132 272 0.00574434 10 
46 132 278 0.00585062 10 
47 138 278 0.00586349 10 
48 138 284 0.00596920 10 
49 151 284 0.00603970 10 
50 151 291 0.00618169 10 
51 129 292 0.00620457 10 
52 101 292 0.00627771 10 
53 151 297 0.00634966 10 
54 157 297 0.00637373 10 
55 163 297 0.00640653 10 
56 166 297 0.00639420 10 
57 19 305 0.00657256 10 
58 157 305 0.00658929 10 
59 163 305 0.00660598 10 
60 166 305 0.00660911 10 
61 172 305 0.00660555 10 
62 19 315 0.15654004 10 
63 25 315 0.00699908 10 
64 172 315 0.00821847 10 
65 226 323 0.00714508 10 
66 85 324 0.00717751 10 
67 242 324 0.00719396 10 
68 172 327 0.00735295 10 
69 172 328 0.00737394 10 
70 20 329 0.00741666 10 
71 19 337 0.00758351 10 
72 25 337 0.00758589 10 
73 172 337 0.00758793 10 
74 192 340 0.00777739 10 
75 19 342 0.00777190 10 
76 25 342 0.00778219 10 
77 172 342 0.00780943 10 
78 178 342 0.00788472 10 
79 310 342 0.00791281 10 
80 257 351 0.00821918 10 
81 25 367 0.00853638 10 
82 32 367 0.00855830 10 
83 178 367 0.00857723 10 
84 183 367 0.00859750 10 
85 25 374 0.00875107 10 
86 32 374 0.00876120 10 
87 178 374 0.00876510 10 
88 183 374 0.00876508 10 
89 22 378 0.00904290 10 
90 32 382 0.00911503 10 
91 183 382 0.00912534 10 
92 149 383 0.00930156 10 
93 32 387 0.00937910 10 
94 183 387 0.00938925 10 
95 189 400 0.00970359 10 
96 189 414 0.00999038 10 
97 405 417 0.01003735 10 
98 175 419 0.01006166 10 
99 44 437 0.01044001 10 
100 195 437 0.01047332 10 
101 72 439 0.01061319 10 
102 44 454 0.01096114 10 
103 189 454 0.01102802 10 
104 44 467 0.01127347 10 
105 50 467 0.01128649 10 
106 195 467 0.01128079 10 
107 83 479 0.01156111 10 
108 298 481 0.01173582 10 
109 195 484 0.01181437 10 
110 44 494 0.01212794 10 
111 50 494 0.01209916 10 
112 195 494 0.01211180 10 
113 201 494 0.01204607 10 
114 196 498 0.01217651 10 
115 50 500 0.01221718 10 
116 201 500 0.01223161 10 
117 203 500 0.01224889 10 
118 309 506 0.01251835 10 
119 61 508 0.01277968 10 
120 203 508 0.01264179 10 
121 209 508 0.01265084 10 
122 237 510 0.01288188 10 
123 276 510 0.01303154 10 
124 61 522 0.01339490 10 
125 203 522 0.01333576 10 
126 209 522 0.01341099 10 
127 61 528 0.01351132 10 
128 67 528 0.01354447 10 
129 81 528 0.01349940 10 
130 209 528 0.01351095 10 
131 220 528 0.01353512 10 
132 505 531 0.01354214 10 
133 67 532 0.01379066 10 
134 81 532 0.01385568 10 
135 220 532 0.01369779 10 
136 86 536 0.01404839 10 
137 144 546 0.01433139 10 
138 75 547 0.01447536 10 
139 507 548 0.01452871 10 
140 67 556 0.01478549 10 
141 67 564 0.01494047 10 
142 81 564 0.01500327 10 
143 220 564 0.01512976 10 
144 67 567 0.01518934 10 
145 81 567 0.01520594 10 
146 220 567 0.01521136 10 
147 307 569 0.01542827 10 
148 67 570 0.01561374 10 
149 81 570 0.01563895 10 
150 220 570 0.01564524 10 
151 81 575 0.01573279 10 
152 220 575 0.01562742 10 
153 496 583 0.01593924 10 
154 227 587 0.01616618 10 
155 81 588 0.01632613 10 
156 87 588 0.01633915 10 
157 226 588 0.01634037 10 
158 194 590 0.01668655 10 
159 387 596 0.01697134 10 
160 87 597 0.01696607 10 
161 94 597 0.01687091 10 
162 226 597 0.01696084 10 
163 87 604 0.01707899 10 
164 94 604 0.01714179 10 
165 470 610 0.01741565 10 
166 91 615 0.01775183 10 
167 94 616 0.01753480 10 
168 507 628 0.01783414 10 
169 94 632 0.01792917 10 
170 442 636 0.01792648 10 
171 94 637 0.01797832 10 
172 101 637 0.01797412 10 
173 183 639 0.01832503 10 
174 401 639 0.01830063 10 
175 46 640 0.01837025 10 
176 101 642 0.01839759 10 
177 107 642 0.01869789 10 
178 365 644 0.01877396 10 
179 555 644 0.01945945 10 
180 101 645 0.01905709 10 
181 107 645 0.01916605 10 
182 25 655 0.01923473 10 
183 101 657 0.01952966 10 
184 101 663 0.01961994 10 
185 107 663 0.01964278 10 
186 114 663 0.01944543 10 
187 512 664 0.01977138 10 
188 101 665 0.01989093 10 
189 107 665 0.01989157 10 
190 114 665 0.01991548 10 
191 207 673 0.02027931 10 
192 107 680 0.02089970 10 
193 442 682 0.02105329 10 
194 107 683 0.02110499 10 
195 114 683 0.02067138 10 
196 351 688 0.02094932 10 
197 209 698 0.02118165 10 
198 58 699 0.02145692 10 
199 397 701 0.02163306 10 
200 107 704 0.02169793 10 
201 114 704 0.02184563 10 
202 686 710 0.02203225 10 
203 107 714 0.02211451 10 
204 114 714 0.02211983 10 
205 503 715 0.02247190 10 
206 661 717 0.02278977 10 
207 107 730 0.02287513 10 
208 114 730 0.02323618 10 
209 289 732 0.02354856 10 
210 379 738 0.02396093 10 
211 331 738 0.02423791 10 
212 596 743 0.02460376 10 
213 601 744 0.02480154 10 
214 121 754 0.02501665 10 
215 126 754 0.02491096 10 
216 121 759 0.02500563 10 
217 126 759 0.02503870 10 
218 126 762 0.02512147 10 
219 132 762 0.02576498 10 
220 305 762 0.02585204 10 
221 227 765 0.02544919 10 
222 535 770 0.02618297 10 
223 144 770 0.02582212 10 
224 256 776 0.02575706 10 
225 758 777 0.02611812 10 
226 132 778 0.02632182 10 
227 471 784 0.02718743 10 
228 361 784 0.02650896 10 
229 57 789 0.02667798 10 
230 132 792 0.02676070 10 
231 696 793 0.02689253 10 
232 234 796 0.02786394 10 
233 132 800 0.02788131 10 
234 138 800 0.02797508 10 
235 7 801 0.02832852 10 
236 138 806 0.02835300 10 
237 341 815 0.02941609 10 
238 628 815 0.02845690 10 
239 312 818 0.02977940 10 
240 138 821 0.02913109 10 
241 138 823 0.02919017 10 
242 78 824 0.02930122 10 
243 151 828 0.02943885 10 
244 809 842 0.02986769 10 
245 651 845 0.03001912 10 
246 151 847 0.02986938 10 
247 363 847 0.03010555 10 
248 722 848 0.03031723 10 
249 806 849 0.03051566 10 
250 630 850 0.03087589 10 
251 60 852 0.03109803 10 
252 151 855 0.03114636 10 
253 690 858 0.03106590 10 
254 756 860 0.03140514 10 
255 496 867 0.03167819 10 
256 454 870 0.03167773 10 
257 310 874 0.03143243 10 
258 731 874 0.03202009 10 
259 355 877 0.03289462 10 
260 634 887 0.03302443 10 
261 783 892 0.03255757 10 
262 544 893 0.03347940 10 
263 75 893 0.03351361 10 
264 151 895 0.03331476 10 
265 151 897 0.03335038 10 
266 742 900 0.03341686 10 
267 218 902 0.03422444 10 
268 665 902 0.03370538 10 
269 138 903 0.03384231 10 
270 138 904 0.03381070 10 
271 355 904 0.03381198 10 
272 165 906 0.03431333 10 
273 132 907 0.03434330 10 
274 138 907 0.03436796 10 
275 236 910 0.03403333 10 
276 132 911 0.03406745 10 
277 790 913 0.03443759 10 
278 847 917 0.03455014 10 
279 578 921 0.03537541 10 
280 121 923 0.03524928 10 
281 126 923 0.03529399 10 
282 107 929 0.03554111 10 
283 114 929 0.03559957 10 
284 409 931 0.03570975 10 
285 742 934 0.03601942 10 
286 107 935 0.03627087 10 
287 114 935 0.03605785 10 
288 101 939 0.03614766 10 
289 107 939 0.03614253 10 
290 101 944 0.03622161 10 
291 920 946 0.03675334 10 
292 94 947 0.03698804 10 
293 101 947 0.03702087 10 
294 252 952 0.03716564 10 
295 87 953 0.03715992 10 
296 94 953 0.03726636 10 
297 226 953 0.03717506 10 
298 574 955 0.03760774 10 
299 697 955 0.03796724 10 
300 600 957 0.03782568 10 
301 81 959 0.03789388 10 
302 87 959 0.03795464 10 
303 220 959 0.03793590 10 
304 226 959 0.03794669 10 
305 947 960 0.03834722 10 
306 301 961 0.03854437 10 
307 946 964 0.03840690 10 
308 67 965 0.03843948 10 
309 81 965 0.03847491 10 
310 220 965 0.03870153 10 
311 844 965 0.03900227 10 
312 69 975 0.03898774 10 
313 61 976 0.03946294 10 
314 67 976 0.03949872 10 
315 209 976 0.03956550 10 
316 50 982 0.03968382 10 
317 61 982 0.03966248 10 
318 201 982 0.03973126 10 
319 203 982 0.03963028 10 
320 447 982 0.03929619 10 
321 157 984 0.03941675 10 
322 179 986 0.04026800 10 
323 44 988 0.03995424 10 
324 50 988 0.03997236 10 
325 195 988 0.03997138 10 
326 201 988 0.04106805 10 
327 192 990 0.04074095 10 
328 116 993 0.03992961 10 
329 44 994 0.03996166 10 
330 189 994 0.03995610 10 
331 195 994 0.03999182 10 
332 145 998 0.04694789 10 
333 32 1003 0.04085842 10 
334 178 1003 0.04096860 10 
335 183 1003 0.04106011 10 
336 88 1004 0.04114835 10 
337 306 1005 0.04181044 10 
338 25 1008 0.04207839 10 
339 32 1008 0.04218027 10 
340 178 1008 0.04233261 10 
341 183 1008 0.04217624 10 
342 25 1010 0.04218583 10 
343 32 1010 0.04220127 10 
344 172 1010 0.04241935 10 
345 178 1010 0.04242560 10 
346 801 1014 0.04269934 10 
347 19 1016 0.04202422 10 
348 166 1016 0.04271966 10 
349 172 1016 0.04220362 10 
350 252 1017 0.04226787 10 
351 650 1027 0.04264294 10 
352 151 1029 0.04265435 10 
353 157 1029 0.04274480 10 
354 163 1029 0.04234883 10 
355 166 1029 0.04281761 10 
356 84 1041 0.04334188 10 
357 457 1041 0.04420594 10 
358 597 1042 0.04572946 10 
359 1038 1043 0.01735495 4 
360 152 1043 0.03505856 8 
361 886 1046 0.04397694 10 
362 127 1046 0.04474788 10 
363 199 1047 0.04513600 10 
364 501 1051 0.04526381 10 
365 777 1054 0.04063555 9 
366 508 1059 0.04550863 10 
367 543 1063 0.04571925 10 
368 877 1069 0.04183075 9 
369 69 1069 0.04637678 10 
370 184 1070 0.04747823 10 
371 16 1074 0.04229225 9 
372 661 1076 0.04686923 10 
373 897 1080 0.04170364 9 
374 132 1084 0.04662814 10 
375 502 1094 0.04748023 10 
376 1083 1094 0.04789318 10 
377 206 1095 0.04752131 10 
378 225 1099 0.04770555 10 
379 928 1100 0.04822470 10 
380 417 1102 0.04909974 10 
381 799 1103 0.04956303 10 
382 9 1106 0.04928644 10 
383 335 1110 0.05000220 10 
384 524 1111 0.05084733 10 
385 787 1113 0.05074869 10 
386 687 1122 0.04956972 10 
387 287 1128 0.05103547 10 
388 461 1129 0.05243210 10 
389 38 1130 0.05336765 10 
390 339 1130 0.05319800 10 
391 572 1132 0.05348053 10 
392 404 1132 0.05327454 10 
393 1111 1134 0.05334527 10 
394 265 1137 0.05414524 10 
395 101 1138 0.05416473 10 
396 1047 1139 0.05476737 10 
397 839 1144 0.05478848 10 
398 654 1145 0.05525655 10 
399 107 1147 0.05471410 10 
400 114 1147 0.05574391 10 
401 107 1150 0.05516145 10 
402 114 1150 0.05581459 10 
403 492 1153 0.05386355 10 
404 391 1156 0.05396035 10 
405 114 1158 0.05640717 10 
406 121 1158 0.05549801 10 
407 181 1161 0.05728532 10 
408 121 1164 0.05669592 10 
409 126 1164 0.05738465 10 
410 330 1169 0.05787685 10 
411 594 1169 0.05747942 10 
412 119 1171 0.05765589 10 
413 816 1174 0.05719556 10 
414 161 1174 0.05825266 10 
415 114 1175 0.05833119 10 
416 121 1175 0.05830131 10 
417 923 1175 0.05895063 10 
418 929 1175 0.05878374 10 
419 1158 1175 0.05808254 10 
420 851 1179 0.05833331 10 
421 1059 1180 0.05920496 10 
422 101 1188 0.05877272 10 
423 939 1188 0.05942283 10 
424 1138 1188 0.06049510 10 
425 1147 1188 0.05920889 10 
426 1150 1188 0.05921341 10 
427 240 1193 0.05866467 10 
428 867 1193 0.06112725 10 
429 791 1197 0.05993106 10 
430 192 1199 0.05998263 10 
431 193 1200 0.06165671 10 
432 1057 1200 0.06148503 10 
433 502 1203 0.06085079 10 
434 68 1204 0.06091181 10 
435 224 1206 0.06464031 10 
436 1050 1210 0.06332810 10 
437 1061 1210 0.06299853 10 
438 1075 1210 0.06339316 10 
439 1084 1210 0.06296460 10 
440 1088 1210 0.06296273 10 
441 1093 1210 0.06289469 10 
442 1098 1210 0.06270736 10 
443 866 1214 0.06474016 10 
444 412 1215 0.06477128 10 
445 951 1216 0.06527161 10 
446 157 1217 0.06378343 10 
447 163 1217 0.06451332 10 
448 1029 1217 0.06406586 10 
449 1044 1217 0.06591390 10 
450 1050 1217 0.06752646 10 
451 1056 1217 0.06523148 10 
452 20 1218 0.06488885 10 
453 866 1219 0.06701436 10 
454 832 1223 0.06570675 10 
455 134 1224 0.06749306 10 
456 1177 1227 0.06907069 10 
