VERTEX2 0 -0.00000441 -0.00000078 -0.00000028
VERTEX2 1 -0.00000440 -0.00000078 -0.00064228
VERTEX2 2 -0.00000438 -0.00000078 -0.00118028
VERTEX2 3 0.01099749 -0.00097577 -0.00356228
VERTEX2 4 0.64100407 -0.01120109 -0.00744428
VERTEX2 5 0.69601177 -0.01171659 -0.09872628
VERTEX2 6 0.70026490 -0.01543593 -0.89599827
VERTEX2 7 0.69395217 0.00421254 -1.51153527
VERTEX2 8 0.69925903 0.02669331 -2.12506926
VERTEX2 9 0.71611030 0.04112232 -2.76313926
VERTEX2 10 0.72897684 0.04321971 2.90551505
VERTEX2 11 0.73319943 0.04053666 2.23123605
VERTEX2 12 0.73318215 0.04154510 1.58176206
VERTEX2 13 0.73874831 0.05907019 0.92226406
VERTEX2 14 0.75965384 0.07375040 0.31402507
VERTEX2 15 0.76744027 0.07428043 -0.21060819
VERTEX2 16 1.05911573 0.01466687 -0.22917437
VERTEX2 17 1.65796712 -0.13159143 -0.26028526
VERTEX2 18 2.27899808 -0.29379954 -0.27036157
VERTEX2 19 2.90386794 -0.49017440 -0.31884154
VERTEX2 20 3.49403519 -0.67866019 -0.31291274
VERTEX2 21 4.09945612 -0.82964655 -0.20132733
VERTEX2 22 4.70748984 -0.97041830 -0.18391307
VERTEX2 23 5.34432475 -1.01431302 -0.07643367
VERTEX2 24 5.97313132 -1.08507674 -0.13342196
VERTEX2 25 6.60522641 -1.15229659 -0.13057302
VERTEX2 26 7.21232929 -1.25196417 -0.17105584
VERTEX2 27 7.82639176 -1.34243260 -0.15518411
VERTEX2 28 8.40615286 -1.44015914 -0.15959687
VERTEX2 29 8.78331084 -1.49693192 -0.12879528
VERTEX2 30 8.79047268 -1.49882765 -0.66085023
VERTEX2 31 8.89019801 -1.63230791 -0.92916283
VERTEX2 32 9.25950105 -2.14740108 -0.94753795
VERTEX2 33 9.63314230 -2.64172833 -0.89678006
VERTEX2 34 10.03500556 -3.11985084 -0.87575423
VERTEX2 35 10.44718592 -3.59077543 -0.84167546
VERTEX2 36 10.86574943 -4.06297948 -0.85039537
VERTEX2 37 11.13764613 -4.36579783 -0.84284566
VERTEX2 38 11.12698692 -4.35141090 -1.16477193
VERTEX2 39 11.12327494 -4.33470311 -1.33594206
VERTEX2 40 11.26534650 -4.89778152 -1.31877802
VERTEX2 41 11.41288592 -5.48599713 -1.35080167
VERTEX2 42 11.53329006 -6.03804277 -1.37348839
VERTEX2 43 11.63819149 -6.62226025 -1.41359742
VERTEX2 44 11.72689497 -7.20690442 -1.45029742
VERTEX2 45 11.78298738 -7.82566181 -1.50555074
VERTEX2 46 11.81526801 -8.44535161 -1.52477203
VERTEX2 47 11.83680720 -9.06497692 -1.56626286
VERTEX2 48 11.83493112 -9.68924387 -1.57262469
VERTEX2 49 11.82941504 -10.30949647 -1.62324026
VERTEX2 50 11.77790800 -10.89786712 -1.66750653
VERTEX2 51 11.72483161 -11.49286759 -1.69643362
VERTEX2 52 11.62987028 -12.07506235 -1.77298714
VERTEX2 53 11.53209291 -12.63184772 -1.76047505
VERTEX2 54 11.42120282 -13.14314763 -1.82236630
VERTEX2 55 11.42792068 -13.11024621 -1.81691828
VERTEX2 56 11.42747826 -13.11199624 -1.80617051
VERTEX2 57 11.28624510 -13.72974382 -1.81737324
VERTEX2 58 11.14249275 -14.33585690 -1.77092084
VERTEX2 59 11.01624763 -14.94132072 -1.79426421
VERTEX2 60 10.88951628 -15.54320121 -1.77262741
VERTEX2 61 10.75728922 -16.14387082 -1.82308712
VERTEX2 62 10.60998494 -16.70428279 -1.78301213
VERTEX2 63 10.46103819 -17.26942415 -1.81825883
VERTEX2 64 10.32880159 -17.82875936 -1.75458734
VERTEX2 65 10.19716915 -18.38576701 -1.80569529
VERTEX2 66 10.04679802 -18.97275131 -1.81340847
VERTEX2 67 9.88481611 -19.56330182 -1.81162089
VERTEX2 68 9.77841888 -20.01030787 -1.82734628
VERTEX2 69 9.78193755 -19.99855120 -1.98221646
VERTEX2 70 9.78957041 -19.98369108 -2.65633337
VERTEX2 71 9.81447221 -19.98207132 2.98442417
VERTEX2 72 9.82840121 -19.98368807 2.97502041
VERTEX2 73 9.83692556 -19.98572608 2.91016431
VERTEX2 74 9.83752354 -19.98610954 2.28858443
VERTEX2 75 9.84511970 -19.98901200 1.93638264
VERTEX2 76 9.83340492 -19.97622577 2.63051049
VERTEX2 77 9.82994406 -19.97480198 2.86358585
VERTEX2 78 9.55013097 -19.98766187 -3.08231308
VERTEX2 79 8.93384494 -20.03127672 -3.08749693
VERTEX2 80 8.30347271 -20.03490700 3.12125996
VERTEX2 81 7.67944414 -20.01361911 3.09538497
VERTEX2 82 7.08339735 -19.97729328 3.04094855
VERTEX2 83 6.49798619 -19.93011427 3.01718521
VERTEX2 84 5.93717181 -19.84794908 2.93915270
VERTEX2 85 5.39490623 -19.74716053 2.94632450
VERTEX2 86 4.78469855 -19.62897589 2.85661325
VERTEX2 87 4.42220639 -19.53682059 2.80190332
VERTEX2 88 4.06652818 -19.40687133 2.77177449
VERTEX2 89 4.08192816 -19.40750047 -3.11644564
VERTEX2 90 3.48217746 -19.41280813 3.13528289
VERTEX2 91 2.87139511 -19.41038870 -3.09917117
VERTEX2 92 2.27660296 -19.40787528 3.06794713
VERTEX2 93 1.65900402 -19.30729702 2.96675579
VERTEX2 94 1.04125630 -19.17080564 2.92370389
VERTEX2 95 0.42418540 -19.08454894 3.06604145
VERTEX2 96 -0.18077823 -19.03454175 3.08991434
VERTEX2 97 -0.76553059 -18.97267997 3.01909821
VERTEX2 98 -1.34933412 -18.87296416 2.96092582
VERTEX2 99 -2.04963214 -18.74977474 3.00755956
VERTEX2 100 -2.60953952 -18.64292758 2.95565713
VERTEX2 101 -3.21496327 -18.58693320 3.05877804
VERTEX2 102 -3.82634981 -18.50706037 2.95271826
VERTEX2 103 -4.43347443 -18.39261347 3.04856012
VERTEX2 104 -5.04437795 -18.31658209 3.01482635
VERTEX2 105 -5.65539960 -18.25233282 3.06133346
VERTEX2 106 -6.25597038 -18.18212815 3.00644027
VERTEX2 107 -6.87257833 -18.08620937 3.00262068
VERTEX2 108 -7.32775980 -18.03731401 3.06394657
VERTEX2 109 -7.37391969 -18.02561248 2.61532778
VERTEX2 110 -7.39123648 -18.00768075 2.02384193
VERTEX2 111 -7.39138702 -17.92647965 1.51786881
VERTEX2 112 -7.36719874 -17.29225263 1.57222457
VERTEX2 113 -7.38518320 -16.67136410 1.61938798
VERTEX2 114 -7.41798056 -16.05885699 1.65629654
VERTEX2 115 -7.49054111 -15.42090288 1.71636414
VERTEX2 116 -7.60827971 -14.67267853 1.76028593
VERTEX2 117 -7.74292266 -14.06481847 1.85567903
VERTEX2 118 -7.74696371 -14.04672005 1.52079686
VERTEX2 119 -7.69127109 -13.53038911 1.46741874
VERTEX2 120 -7.63869955 -12.87601881 1.55754262
VERTEX2 121 -7.64936485 -12.25898763 1.62507825
VERTEX2 122 -7.68364798 -11.67557558 1.68094924
VERTEX2 123 -7.70854487 -11.49677414 1.66808801
VERTEX2 124 -7.62257613 -11.25796629 1.24487760
VERTEX2 125 -7.40862918 -10.67147158 1.23418794
VERTEX2 126 -7.27830286 -10.06216200 1.44115864
VERTEX2 127 -7.18296984 -9.43190230 1.43966049
VERTEX2 128 -7.10984607 -8.79727695 1.47615487
VERTEX2 129 -7.02598333 -8.16663076 1.44354525
VERTEX2 130 -6.96091399 -7.53773751 1.49623347
VERTEX2 131 -6.91749249 -6.91435135 1.58468238
VERTEX2 132 -6.90187667 -6.30012202 1.53500684
VERTEX2 133 -6.85717821 -5.73663869 1.49833183
VERTEX2 134 -6.80575681 -5.14435703 1.48022268
VERTEX2 135 -6.72656134 -4.57305436 1.45406785
VERTEX2 136 -6.65539719 -3.94461445 1.47371465
VERTEX2 137 -6.56213061 -3.31887519 1.43181675
VERTEX2 138 -6.48898298 -2.68912482 1.51198114
VERTEX2 139 -6.47466893 -2.06159898 1.57734420
VERTEX2 140 -6.50522307 -1.40940992 1.60792169
VERTEX2 141 -6.51351081 -0.77253948 1.55953016
VERTEX2 142 -6.51619989 -0.12597011 1.55572872
VERTEX2 143 -6.43786577 0.50971752 1.44519669
VERTEX2 144 -6.39981990 0.87817318 1.46274495
VERTEX2 145 -6.39541262 0.89168136 0.96436067
VERTEX2 146 -6.39332025 0.90255295 0.37140096
VERTEX2 147 -6.34160182 0.89918336 -0.11489448
VERTEX2 148 -5.91393361 0.84206453 -0.15044282
VERTEX2 149 -5.27718789 0.75254134 -0.12524999
VERTEX2 150 -4.64692644 0.69213530 -0.11101601
VERTEX2 151 -4.01106515 0.64881899 -0.02527764
VERTEX2 152 -3.38758801 0.61747167 -0.08594140
VERTEX2 153 -2.76442236 0.58887546 0.00771061
VERTEX2 154 -2.14490192 0.57214567 -0.06161370
VERTEX2 155 -1.52150396 0.54313463 -0.02799380
VERTEX2 156 -0.89579599 0.53333647 0.00293228
VERTEX2 157 -0.33375098 0.51983639 -0.06123342
VERTEX2 158 -0.14016663 0.50751293 -0.03374296
VERTEX2 159 -0.13561883 0.50608982 0.95356783
VERTEX2 160 -0.13037176 0.51479200 1.98922727
VERTEX2 161 -0.15308323 0.45422550 2.71103443
VERTEX2 162 -0.12821579 0.45991866 -2.53636893
VERTEX2 163 -0.12917595 0.45501930 -1.53930592
VERTEX2 164 -0.20379726 0.54740096 -0.47823650
VERTEX2 165 -0.03673577 0.53092570 -0.07041929
VERTEX2 166 0.65397915 0.48850201 -0.06868421
VERTEX2 167 1.26666598 0.43870677 -0.09803729
VERTEX2 168 1.85081735 0.38994760 -0.08601410
VERTEX2 169 2.44231467 0.31900151 -0.12290872
VERTEX2 170 3.02504921 0.25129505 -0.14350612
VERTEX2 171 3.58333311 0.15364349 -0.18175030
VERTEX2 172 4.20529555 0.04687563 -0.16762499
VERTEX2 173 4.83091974 -0.07261602 -0.19048089
VERTEX2 174 5.45275092 -0.18573434 -0.15037835
VERTEX2 175 6.06557005 -0.27486916 -0.17510098
VERTEX2 176 6.66164232 -0.39393546 -0.16550668
VERTEX2 177 7.28157444 -0.49560309 -0.19316787
VERTEX2 178 7.89972461 -0.64019311 -0.23218020
VERTEX2 179 8.30066145 -0.72311281 -0.17883029
VERTEX2 180 8.34852991 -0.73594958 -0.62083582
VERTEX2 181 8.78849058 -1.05340734 -0.67260233
VERTEX2 182 9.19465325 -1.41289387 -0.84659869
VERTEX2 183 9.54185511 -1.83361061 -0.90392124
VERTEX2 184 9.86690962 -2.32555681 -1.05047286
VERTEX2 185 10.13986007 -2.84173571 -1.14299437
VERTEX2 186 10.35163178 -3.39208507 -1.20924961
VERTEX2 187 10.54151347 -3.92531137 -1.23137857
VERTEX2 188 10.73818881 -4.47809408 -1.23624399
VERTEX2 189 10.92798981 -5.03507857 -1.26232014
VERTEX2 190 11.11135502 -5.63811641 -1.29082725
VERTEX2 191 11.28458103 -6.24053871 -1.31460857
VERTEX2 192 11.43908993 -6.83654603 -1.34263768
VERTEX2 193 11.56297028 -7.38419870 -1.39797895
VERTEX2 194 11.66345960 -7.95310982 -1.42435680
VERTEX2 195 11.74449883 -8.51549545 -1.45251469
VERTEX2 196 11.81244455 -9.13791111 -1.49317116
VERTEX2 197 11.85184473 -9.75636323 -1.52054148
VERTEX2 198 11.87883831 -10.37472987 -1.57856846
VERTEX2 199 11.85265206 -10.98249397 -1.63984663
VERTEX2 200 11.80753364 -11.58507194 -1.66160418
VERTEX2 201 11.73881477 -12.18418649 -1.71814716
VERTEX2 202 11.67713596 -12.68365193 -1.69737999
VERTEX2 203 11.57738266 -13.41990033 -1.74945153
VERTEX2 204 11.45824463 -13.99551397 -1.85109982
VERTEX2 205 11.29161471 -14.55745985 -1.86022822
VERTEX2 206 11.14022793 -15.10434526 -1.85799362
VERTEX2 207 10.98337271 -15.67107655 -1.84169924
VERTEX2 208 10.81321019 -16.27066011 -1.85078160
VERTEX2 209 10.65446483 -16.87169692 -1.81216995
VERTEX2 210 10.49501136 -17.46440557 -1.82086160
VERTEX2 211 10.34969255 -18.06068537 -1.81842086
VERTEX2 212 10.17680493 -18.64701316 -1.87105243
VERTEX2 213 9.98544103 -19.23735546 -1.89160789
VERTEX2 214 9.78927454 -19.81426768 -1.89518616
VERTEX2 215 9.67649980 -20.13686908 -1.93072492
VERTEX2 216 9.68802536 -20.11677967 -2.42875332
VERTEX2 217 9.70829919 -20.11444134 -2.97026275
VERTEX2 218 9.71879608 -20.11836245 -3.02596228
VERTEX2 219 9.15475263 -20.07937862 3.08915302
VERTEX2 220 8.55150173 -20.04123630 3.04949192
VERTEX2 221 7.91760921 -19.98120257 3.09960425
VERTEX2 222 7.29766180 -19.94444837 3.07372088
VERTEX2 223 6.67735215 -19.92068101 -3.11349691
VERTEX2 224 6.06933216 -19.92641898 -3.13959338
VERTEX2 225 5.45749484 -19.92573433 -3.09020932
VERTEX2 226 4.84651160 -19.92412337 -3.13961452
VERTEX2 227 4.20299336 -19.99852897 -2.98326070
VERTEX2 228 3.68163317 -19.98734101 2.93788231
VERTEX2 229 3.24646348 -19.95544632 3.05773217
VERTEX2 230 2.95850805 -19.94170102 3.02869205
VERTEX2 231 3.16571623 -19.95852738 3.09853004
VERTEX2 232 2.85732998 -19.82199542 2.67195886
VERTEX2 233 2.29376329 -19.56421443 2.77397903
VERTEX2 234 1.71891581 -19.34042193 2.72960978
VERTEX2 235 1.47076632 -19.23445903 2.72444632
VERTEX2 236 1.14235889 -19.23687663 3.12937337
VERTEX2 237 0.51986176 -19.25349856 -3.08361220
VERTEX2 238 -0.09450779 -19.30321884 -3.11649744
VERTEX2 239 -0.70581829 -19.30185680 3.09892700
VERTEX2 240 -1.27231575 -19.18593597 2.88069359
VERTEX2 241 -1.80928380 -19.05644799 2.96604121
VERTEX2 242 -2.38659957 -18.99142914 3.00493954
VERTEX2 243 -2.99020414 -18.90802278 3.00383619
VERTEX2 244 -3.60488851 -18.86351715 3.07498858
VERTEX2 245 -4.21243158 -18.81582414 3.02079955
VERTEX2 246 -4.80777867 -18.73125098 2.94849735
VERTEX2 247 -5.40477725 -18.65044493 3.05452978
VERTEX2 248 -5.95721080 -18.62939932 3.08589035
VERTEX2 249 -5.90711812 -18.63687033 -3.00442997
VERTEX2 250 -5.90081095 -18.63671372 2.69163661
VERTEX2 251 -6.22360905 -18.29684324 2.26860697
VERTEX2 252 -6.58092076 -17.87669009 2.27705574
VERTEX2 253 -6.95439443 -17.43087943 2.26597979
VERTEX2 254 -7.32017042 -16.97453701 2.22462090
VERTEX2 255 -7.39295853 -16.88235959 2.30849961
VERTEX2 256 -7.39603656 -16.80497997 1.83239513
VERTEX2 257 -7.44826719 -16.34562188 1.69682966
VERTEX2 258 -7.53258983 -15.75607213 1.77734265
VERTEX2 259 -7.67627345 -15.15366634 1.81793001
VERTEX2 260 -7.81015287 -14.59553312 1.80954309
VERTEX2 261 -7.80804495 -14.56018419 1.49810044
VERTEX2 262 -7.74567912 -13.91058002 1.50478871
VERTEX2 263 -7.70420384 -13.29443530 1.51827491
VERTEX2 264 -7.68989382 -12.69164520 1.61535999
VERTEX2 265 -7.72201368 -12.08973627 1.63554943
VERTEX2 266 -7.67478716 -11.51329422 1.50641017
VERTEX2 267 -7.62465858 -10.76572044 1.47705719
VERTEX2 268 -7.49374900 -10.16494958 1.36694503
VERTEX2 269 -7.37514087 -9.55337458 1.39682503
VERTEX2 270 -7.30403740 -8.93104542 1.51080323
VERTEX2 271 -7.20991684 -8.31053693 1.40023910
VERTEX2 272 -7.12530855 -7.68530996 1.46534116
VERTEX2 273 -7.13595986 -7.05789649 1.67759566
VERTEX2 274 -7.20453288 -6.44307277 1.70164988
VERTEX2 275 -7.19343079 -5.83908535 1.53024022
VERTEX2 276 -7.18749075 -5.23591448 1.64476311
VERTEX2 277 -7.23489197 -4.67414369 1.61918327
VERTEX2 278 -7.19279911 -4.03909783 1.53041008
VERTEX2 279 -7.15430928 -3.40500114 1.47533236
VERTEX2 280 -7.08783577 -2.77703413 1.47759649
VERTEX2 281 -6.99929365 -2.14780030 1.37736487
VERTEX2 282 -6.88103507 -1.52188147 1.41731862
VERTEX2 283 -6.79556929 -0.88884034 1.40955836
VERTEX2 284 -6.68521439 -0.26679255 1.43677614
VERTEX2 285 -6.61890815 0.38174727 1.45795748
VERTEX2 286 -6.55314424 1.00251604 1.51166146
VERTEX2 287 -6.55040175 1.05297916 1.40738663
VERTEX2 288 -6.54784491 1.05752088 0.79919714
VERTEX2 289 -6.54818996 1.05719807 0.20618808
VERTEX2 290 -6.11140045 1.04900093 -0.01864921
VERTEX2 291 -5.49217649 1.04193797 -0.00472349
VERTEX2 292 -4.87808805 1.02259336 -0.05939612
VERTEX2 293 -4.25525534 0.97773760 -0.08247480
VERTEX2 294 -3.63594864 0.92584684 -0.08179600
VERTEX2 295 -3.01580634 0.84585757 -0.19427667
VERTEX2 296 -2.40027999 0.70151321 -0.23965719
VERTEX2 297 -1.78688828 0.55025679 -0.25132437
VERTEX2 298 -1.17755124 0.39609358 -0.25206754
VERTEX2 299 -0.60456507 0.23952452 -0.19095599
VERTEX2 300 -0.02043640 0.15372948 -0.14882176
VERTEX2 301 0.53946445 0.05406861 -0.20802090
VERTEX2 302 0.83925253 -0.01061130 -0.22894086
VERTEX2 303 0.81969746 -0.00691564 -0.22481969
VERTEX2 304 1.31825612 -0.12246905 -0.21527151
VERTEX2 305 1.93035510 -0.16730487 -0.03138937
VERTEX2 306 2.55861757 -0.17821620 -0.04946997
VERTEX2 307 3.19676377 -0.22631914 -0.08618294
VERTEX2 308 3.82341958 -0.28945730 -0.14177968
VERTEX2 309 4.45738457 -0.34999306 -0.04886031
VERTEX2 310 5.08049966 -0.37988436 -0.08480981
VERTEX2 311 5.35700989 -0.40545883 0.09016608
VERTEX2 312 5.34978631 -0.40933834 1.07798352
VERTEX2 313 5.35407184 -0.19145167 1.57367489
VERTEX2 314 5.33343169 0.43645493 1.61344200
VERTEX2 315 5.30379093 1.06380101 1.60908462
VERTEX2 316 5.26342612 1.69881732 1.66064595
VERTEX2 317 5.20154553 2.33663039 1.67083263
VERTEX2 318 5.10156841 2.97445738 1.76523623
VERTEX2 319 5.02111601 3.32209054 1.83646336
VERTEX2 320 5.02373564 3.33026254 2.80460813
VERTEX2 321 5.01804758 3.32779197 -2.43924570
VERTEX2 322 5.01809846 3.32785405 -1.44339066
VERTEX2 323 5.02912963 3.31727645 -0.45132346
VERTEX2 324 5.03517140 3.31531800 0.20828230
VERTEX2 325 5.03836338 3.31557442 -0.31976366
VERTEX2 326 5.05323662 3.30445828 -0.91538407
VERTEX2 327 5.05605861 3.29136005 -1.53918267
VERTEX2 328 5.04171052 2.65672653 -1.58589693
VERTEX2 329 5.02175547 2.02909181 -1.64195776
VERTEX2 330 4.96959717 1.41304719 -1.66212244
VERTEX2 331 4.91662787 0.79570371 -1.67757909
VERTEX2 332 4.83937094 0.18156209 -1.69728891
VERTEX2 333 4.81815461 0.02672843 -1.63352095
VERTEX2 334 4.82539627 0.02805114 -0.84670261
VERTEX2 335 4.83423489 0.02545103 0.14487730
VERTEX2 336 4.84381337 0.02880075 1.08659792
VERTEX2 337 4.84991360 0.06648157 2.06615170
VERTEX2 338 4.84687571 0.06859706 3.05488842
VERTEX2 339 4.85669744 0.07467205 -2.17769229
VERTEX2 340 4.85681960 0.07357825 -1.15724137
VERTEX2 341 4.96843532 0.00616981 -0.52310433
VERTEX2 342 5.53978002 -0.29760617 -0.42082847
VERTEX2 343 6.11351794 -0.49772580 -0.28957273
VERTEX2 344 6.69747849 -0.67990518 -0.29922531
VERTEX2 345 6.93061814 -0.74869413 -0.32630207
VERTEX2 346 6.91221005 -0.74265055 -0.97254407
VERTEX2 347 6.91483935 -0.84161601 -1.53029366
VERTEX2 348 6.93182780 -1.44279334 -1.54659531
VERTEX2 349 6.92813884 -2.07316379 -1.58639746
VERTEX2 350 6.91322478 -2.86624298 -1.60525664
VERTEX2 351 6.89822711 -3.14509605 -1.63343972
VERTEX2 352 6.89526007 -3.15915160 -1.91999222
VERTEX2 353 6.87978389 -3.17809994 -2.58248098
VERTEX2 354 6.86144068 -3.18335191 3.10003489
VERTEX2 355 6.83778926 -3.18263809 2.38218694
VERTEX2 356 6.83311964 -3.17439705 1.80954431
VERTEX2 357 6.83653605 -3.15382406 1.15906492
VERTEX2 358 6.83979789 -3.14919940 0.54608674
VERTEX2 359 6.82959310 -3.15359008 -0.06546316
VERTEX2 360 6.81644695 -3.15100823 -0.24046181
VERTEX2 361 6.81343026 -3.15181627 0.68239559
VERTEX2 362 6.90122007 -2.91203686 1.21830154
VERTEX2 363 7.00668495 -2.63503480 1.21273027
VERTEX2 364 6.93569658 -2.29336791 1.82946757
VERTEX2 365 6.87862347 -1.99857161 1.33417202
VERTEX2 366 6.99383462 -1.86765296 0.78200153
VERTEX2 367 7.44618066 -1.42449393 0.78484254
VERTEX2 368 7.90186379 -0.98722806 0.73693408
VERTEX2 369 7.92184865 -0.96300618 0.48515300
VERTEX2 370 7.94549794 -0.95918650 -0.10153621
VERTEX2 371 7.95052284 -0.96178935 -0.64693269
VERTEX2 372 8.37902592 -1.30895452 -0.67457703
VERTEX2 373 8.85126333 -1.67232877 -0.67256644
VERTEX2 374 9.33002452 -2.07393901 -0.73367475
VERTEX2 375 9.69051532 -2.39341797 -0.76452564
VERTEX2 376 9.70276726 -2.40087720 -0.07177521
VERTEX2 377 9.75326480 -2.36480384 0.62148667
VERTEX2 378 10.28795799 -1.96582689 0.67442623
VERTEX2 379 10.76678988 -1.53449380 0.75792959
VERTEX2 380 11.20580311 -1.06696812 0.87590121
VERTEX2 381 11.35174065 -0.88644679 1.02436768
VERTEX2 382 11.35310483 -0.88395668 2.06952460
VERTEX2 383 11.35146866 -0.88296669 3.05658753
VERTEX2 384 11.34998309 -0.88437423 -2.26266885
VERTEX2 385 11.34553114 -0.89188039 -1.23236328
VERTEX2 386 11.45400091 -1.03214273 -1.00679295
VERTEX2 387 11.91599179 -1.45738511 -0.67428842
VERTEX2 388 12.41669162 -1.84024739 -0.66460272
VERTEX2 389 12.89173797 -2.24289880 -0.74614792
VERTEX2 390 12.93918133 -2.28512322 -0.26974770
VERTEX2 391 12.79694624 -2.28139495 0.11124184
VERTEX2 392 12.78992786 -2.28167817 1.15457519
VERTEX2 393 12.82032951 -2.05471025 2.03960344
VERTEX2 394 12.80888260 -2.04505855 3.03392365
VERTEX2 395 13.04596573 -2.00179353 -2.91156449
VERTEX2 396 13.04258089 -2.00245564 -2.91137338
VERTEX2 397 13.03655286 -2.00202615 -2.92209117
VERTEX2 398 13.03434629 -2.00297165 -2.72505760
VERTEX2 399 12.93853797 -2.07847557 -2.42674976
VERTEX2 400 12.44759669 -2.50862796 -2.37689340
VERTEX2 401 11.98791675 -2.91628220 -2.46978446
VERTEX2 402 11.44068623 -3.20455897 -2.73757172
VERTEX2 403 10.87658726 -3.44007541 -2.77213485
VERTEX2 404 10.33848605 -3.63098817 -2.85176853
VERTEX2 405 10.35549153 -3.62278035 -2.31913376
VERTEX2 406 10.35893740 -3.60209133 -1.34291104
VERTEX2 407 10.47914480 -3.93852690 -1.21565221
VERTEX2 408 10.68625901 -4.51388599 -1.25441570
VERTEX2 409 10.76930481 -4.79338000 -1.35495081
VERTEX2 410 10.76956769 -4.78503949 -1.98489625
VERTEX2 411 10.77976224 -4.76691438 -2.57617337
VERTEX2 412 10.28432462 -4.96532819 -2.78033808
VERTEX2 413 9.70659061 -5.16195602 -2.86090864
VERTEX2 414 9.12353997 -5.34825056 -2.75824239
VERTEX2 415 8.51492156 -5.58584533 -2.75061361
VERTEX2 416 8.22946275 -5.71241409 -2.80515513
VERTEX2 417 7.93992991 -5.69644332 3.05478888
VERTEX2 418 7.50407985 -5.65351063 3.01026394
VERTEX2 419 7.50881178 -5.65243481 -2.84071274
VERTEX2 420 7.56331409 -5.62821202 -2.62366865
VERTEX2 421 7.56507213 -5.62544223 -1.65364024
VERTEX2 422 7.56099023 -5.63118004 -0.41134072
VERTEX2 423 7.56657225 -5.63170558 -0.06463487
VERTEX2 424 7.56667152 -5.63208503 -0.06348902
VERTEX2 425 7.55913926 -5.63635216 -0.05096714
VERTEX2 426 7.55906065 -5.63672098 -0.05930215
VERTEX2 427 7.59152075 -5.63835293 -0.05540206
VERTEX2 428 8.25356804 -5.65848583 -0.06014322
VERTEX2 429 8.89818839 -5.70649989 -0.10014462
VERTEX2 430 9.24013189 -5.74636565 -0.14545898
VERTEX2 431 9.21798942 -5.74377450 -0.09275414
VERTEX2 432 9.23113141 -5.74835884 -0.72288544
VERTEX2 433 9.23812800 -5.75788848 -1.39851025
VERTEX2 434 9.20346778 -6.29800703 -1.62580660
VERTEX2 435 9.17385637 -6.94200342 -1.65348549
VERTEX2 436 9.09858684 -7.58317454 -1.66166645
VERTEX2 437 9.04938686 -8.23255391 -1.65306716
VERTEX2 438 8.99929105 -8.70412921 -1.68290860
VERTEX2 439 8.99672069 -8.71397279 -2.11742993
VERTEX2 440 8.99960799 -8.71172742 -2.75860300
VERTEX2 441 9.01898707 -8.70969268 2.90379840
VERTEX2 442 9.02791238 -8.71449501 2.27566831
VERTEX2 443 9.02792438 -8.71473411 1.70993138
VERTEX2 444 9.03123267 -8.69693871 1.11958605
VERTEX2 445 9.03873173 -8.68969663 0.46271051
VERTEX2 446 9.03994500 -8.68895948 0.66480584
VERTEX2 447 9.05273993 -8.66399368 1.29749088
VERTEX2 448 9.20233905 -8.03996229 1.31501399
VERTEX2 449 9.33487964 -7.40152895 1.41636354
VERTEX2 450 9.42860570 -6.76267864 1.43004183
VERTEX2 451 9.48055516 -6.29464580 1.47287001
VERTEX2 452 9.48044990 -6.29593701 1.09518590
VERTEX2 453 9.47521236 -6.30544866 0.47353153
VERTEX2 454 9.73026777 -6.28559667 0.05186264
VERTEX2 455 10.32663065 -6.26042924 0.03164650
VERTEX2 456 10.95689984 -6.25494019 -0.03253004
VERTEX2 457 11.30972952 -6.27655999 -0.11979753
VERTEX2 458 11.30864463 -6.27602114 -0.76461640
VERTEX2 459 11.29933758 -6.23897943 -1.37301951
VERTEX2 460 11.28027345 -6.63596054 -1.63012818
VERTEX2 461 11.21394784 -7.25136278 -1.71813076
VERTEX2 462 11.12850433 -7.76000883 -1.75818388
VERTEX2 463 11.13963244 -7.73801171 -0.91806435
VERTEX2 464 11.39156032 -7.80863823 -0.24007815
VERTEX2 465 11.97207466 -7.93874671 -0.23237193
VERTEX2 466 12.52559204 -8.08791863 -0.28801792
VERTEX2 467 13.09650953 -8.26759729 -0.33149051
VERTEX2 468 13.71131229 -8.48378047 -0.36680486
VERTEX2 469 14.30309731 -8.74720380 -0.44949336
VERTEX2 470 14.75729532 -8.96101230 -0.43037206
VERTEX2 471 14.76520555 -8.96526405 -0.62982854
VERTEX2 472 14.78234541 -8.98900333 -1.26166766
VERTEX2 473 14.78387523 -8.99639112 -1.90142431
VERTEX2 474 14.78173591 -8.99909704 -2.53193664
VERTEX2 475 14.78298843 -8.99891901 -3.10559726
VERTEX2 476 14.78435846 -8.99909821 2.52650945
VERTEX2 477 14.78875683 -9.00764016 1.96709851
VERTEX2 478 14.78956167 -9.01777717 1.34016759
VERTEX2 479 14.78826111 -9.02078510 0.88596464
VERTEX2 480 14.78824711 -9.02081076 1.44810111
VERTEX2 481 14.78418668 -9.00350140 2.45044800
VERTEX2 482 14.79040217 -9.00597706 2.78668903
VERTEX2 483 14.79895668 -9.00896780 2.78135550
VERTEX2 484 14.37443656 -8.85245759 2.81693456
VERTEX2 485 13.77548073 -8.66507760 2.81467016
VERTEX2 486 13.17374272 -8.45371323 2.82425258
VERTEX2 487 12.56347541 -8.27565601 2.85258972
VERTEX2 488 11.95090148 -8.09575918 2.88877456
VERTEX2 489 11.48060978 -7.98935066 2.91926918
VERTEX2 490 11.48581926 -7.98883117 -2.87865522
VERTEX2 491 11.49388617 -7.97812592 -1.94226971
VERTEX2 492 11.47795661 -8.20690319 -1.63911729
VERTEX2 493 11.41822465 -8.80997093 -1.69409664
VERTEX2 494 11.33319705 -9.42042102 -1.75494401
VERTEX2 495 11.26616378 -10.04240982 -1.64757038
VERTEX2 496 11.22457780 -10.66542497 -1.52962874
VERTEX2 497 11.21985423 -11.28156661 -1.61547014
VERTEX2 498 11.15391225 -11.90198568 -1.71722396
VERTEX2 499 11.02616057 -12.52765683 -1.73419777
VERTEX2 500 11.08629061 -13.09297281 -1.40519714
VERTEX2 501 11.16325076 -13.67055931 -1.47721735
VERTEX2 502 11.19027443 -14.36445213 -1.56162504
VERTEX2 503 11.18782303 -14.80991269 -1.57852971
VERTEX2 504 11.19331038 -14.79417897 -0.72124757
VERTEX2 505 11.43108155 -14.82009104 -0.09912964
VERTEX2 506 12.02306807 -14.89858205 -0.25158583
VERTEX2 507 12.60455470 -15.06511442 -0.33005720
VERTEX2 508 13.17414598 -15.27329233 -0.34325815
VERTEX2 509 13.79490156 -15.50322086 -0.39916082
VERTEX2 510 14.15200234 -15.66021812 -0.41305801
VERTEX2 511 14.15013126 -15.64293455 0.46233068
VERTEX2 512 14.17164906 -15.59691115 1.65972391
VERTEX2 513 14.16809465 -15.58662540 2.61525680
VERTEX2 514 14.10038407 -15.56804286 2.84155137
VERTEX2 515 13.48892646 -15.39057924 2.84267465
VERTEX2 516 12.90289880 -15.19986304 2.85859180
VERTEX2 517 12.30920593 -15.05512245 2.88680570
VERTEX2 518 11.71583700 -14.90724979 2.91117703
VERTEX2 519 11.19312856 -14.78626940 2.89549986
VERTEX2 520 11.02497807 -14.74349080 -2.98920740
VERTEX2 521 11.04708374 -14.71884759 -1.98547341
VERTEX2 522 10.98393320 -15.11514704 -1.72116224
VERTEX2 523 10.89591719 -15.73451369 -1.72831397
VERTEX2 524 10.79536694 -16.30806497 -1.76996814
VERTEX2 525 10.69467671 -16.84987724 -1.74604676
VERTEX2 526 10.58202326 -17.41859349 -1.80452461
VERTEX2 527 10.43792288 -17.99812699 -1.83901334
VERTEX2 528 10.25928334 -18.56584937 -1.91462016
VERTEX2 529 10.05057017 -19.16991643 -1.94193700
VERTEX2 530 9.80886698 -19.76854995 -1.97159412
VERTEX2 531 9.54472502 -20.34348375 -2.05091894
VERTEX2 532 9.44924952 -20.52848949 -1.99982791
VERTEX2 533 9.44049627 -20.48939437 -0.99200942
VERTEX2 534 9.42597265 -20.48024078 -0.31947201
VERTEX2 535 9.41776389 -20.47592508 -0.31787440
VERTEX2 536 9.76691474 -20.54834615 -0.18468916
VERTEX2 537 10.36788507 -20.67658934 -0.24061637
VERTEX2 538 10.92205589 -20.82509902 -0.26584503
VERTEX2 539 11.52514170 -21.01001629 -0.32865836
VERTEX2 540 12.10766722 -21.23721733 -0.41956444
VERTEX2 541 12.69079565 -21.43886247 -0.25506795
VERTEX2 542 13.31123264 -21.55288547 -0.19762709
VERTEX2 543 13.41830026 -21.57520383 -0.22566432
VERTEX2 544 13.43064845 -21.57340150 0.41567025
VERTEX2 545 13.45819941 -21.51711520 1.48901225
VERTEX2 546 13.46796533 -21.53894583 2.32145620
VERTEX2 547 13.46735553 -21.53904002 -2.93326381
VERTEX2 548 13.48279824 -21.52751831 -2.00425371
VERTEX2 549 13.48492617 -21.49532221 -1.19233467
VERTEX2 550 13.47889580 -21.45151232 -1.66871620
VERTEX2 551 13.49177645 -21.41875648 -2.29090315
VERTEX2 552 13.51069005 -21.40719406 -2.91914270
VERTEX2 553 13.35454344 -21.36277429 2.79067798
VERTEX2 554 12.71763364 -21.12567242 2.75701447
VERTEX2 555 12.09400073 -20.89775518 2.84795827
VERTEX2 556 11.45174983 -20.73230462 2.98539223
VERTEX2 557 10.77832193 -20.61107239 2.94504948
VERTEX2 558 10.12992163 -20.50240329 3.02703648
VERTEX2 559 10.07433910 -20.48966312 2.62275740
VERTEX2 560 10.10000860 -20.50027878 2.10824982
VERTEX2 561 10.09803787 -20.49872314 2.59942172
VERTEX2 562 10.22136709 -20.49437349 -3.08666597
VERTEX2 563 9.70371093 -20.43693421 2.99550511
VERTEX2 564 9.14801494 -20.36247909 3.03743776
VERTEX2 565 8.55939461 -20.29883999 2.98015162
VERTEX2 566 8.61956690 -20.31662586 -2.51774838
VERTEX2 567 8.53002571 -20.32428209 -1.73119724
VERTEX2 568 8.48591280 -20.82808970 -1.66525484
VERTEX2 569 8.44001593 -21.40632895 -1.70442257
VERTEX2 570 8.37669993 -21.98952738 -1.69970087
VERTEX2 571 8.32764823 -22.34516141 -1.74708331
VERTEX2 572 8.29381958 -22.37040312 -1.99013679
VERTEX2 573 8.25959152 -22.45013596 -1.71365506
VERTEX2 574 8.27991104 -22.47807880 -0.77372636
VERTEX2 575 8.43865195 -22.52829218 0.14457101
VERTEX2 576 8.43913560 -22.52866930 1.17220634
VERTEX2 577 8.43285503 -22.51246021 2.14436157
VERTEX2 578 8.42344647 -22.48158039 1.78022636
VERTEX2 579 8.29363980 -21.83171964 1.79528866
VERTEX2 580 8.12707129 -21.19456585 1.87049234
VERTEX2 581 7.92806162 -20.57382542 1.91294299
VERTEX2 582 7.70174690 -19.96250612 1.95616294
VERTEX2 583 7.56976336 -19.65672633 2.03563014
VERTEX2 584 7.56494663 -19.64757555 2.87977050
VERTEX2 585 6.98346748 -19.51343811 2.99829179
VERTEX2 586 6.39214756 -19.44472504 3.09608362
VERTEX2 587 5.77638553 -19.43960470 3.12171251
VERTEX2 588 5.14953422 -19.41977300 3.12639910
VERTEX2 589 4.60244220 -19.44910044 -3.08028777
VERTEX2 590 4.06374277 -19.49799919 -3.01190688
VERTEX2 591 3.53548647 -19.58082118 -3.01408905
VERTEX2 592 2.99826573 -19.65910994 -3.01709711
VERTEX2 593 2.82309813 -19.68284204 -2.81158883
VERTEX2 594 2.87118975 -19.63020868 -1.89659606
VERTEX2 595 2.76108826 -20.23854841 -1.66347903
VERTEX2 596 2.71190880 -20.86396201 -1.68644485
VERTEX2 597 2.62378422 -21.54016476 -1.72620759
VERTEX2 598 2.52469188 -22.13824453 -1.76851746
VERTEX2 599 2.43880093 -22.51477117 -1.83486907
VERTEX2 600 2.43908032 -22.53128658 -1.02887370
VERTEX2 601 2.48194095 -22.55742194 -0.01061226
VERTEX2 602 2.51913858 -22.54224428 1.00352874
VERTEX2 603 2.48375267 -22.30866251 1.77625311
VERTEX2 604 2.42073987 -21.69750384 1.53221169
VERTEX2 605 2.42707261 -21.05014492 1.61474171
VERTEX2 606 2.38414196 -20.40379467 1.65679423
VERTEX2 607 2.39279537 -19.81493963 1.57570167
VERTEX2 608 2.37814679 -19.43028647 1.62012678
VERTEX2 609 2.37458380 -19.40984915 1.95637014
VERTEX2 610 2.36909376 -19.40788847 2.88888273
VERTEX2 611 1.77573907 -19.26029905 2.89185995
VERTEX2 612 1.30528753 -19.12803374 2.89468365
VERTEX2 613 1.34321666 -19.13947954 -2.92470301
VERTEX2 614 1.35116512 -19.13343206 -1.88668513
VERTEX2 615 1.36458000 -19.61864795 -1.58213921
VERTEX2 616 1.37223131 -20.24023760 -1.63330976
VERTEX2 617 1.23565990 -20.84113749 -1.85064436
VERTEX2 618 1.06764831 -21.44471349 -1.84064317
VERTEX2 619 0.90777989 -22.01373465 -1.84213965
VERTEX2 620 0.72532453 -22.58705732 -1.93839646
VERTEX2 621 0.85500863 -22.25186411 -1.98999561
VERTEX2 622 0.97956946 -21.98569409 -2.06508204
VERTEX2 623 0.98083614 -21.98398559 -2.60232383
VERTEX2 624 0.95495036 -21.98368655 3.03806744
VERTEX2 625 0.91607638 -21.96789226 2.37933361
VERTEX2 626 0.88842422 -21.93600919 1.76271825
VERTEX2 627 0.96138399 -21.56643134 1.35292692
VERTEX2 628 1.14050572 -20.94221515 1.25249904
VERTEX2 629 1.31236401 -20.31725592 1.32389136
VERTEX2 630 1.43803914 -19.71201775 1.40921558
VERTEX2 631 1.51023530 -19.18465163 1.42955687
VERTEX2 632 1.51257139 -19.17082224 2.10608672
VERTEX2 633 1.41579329 -19.16437363 -3.09000746
VERTEX2 634 0.74875324 -19.20322658 -3.06246497
VERTEX2 635 0.09624128 -19.21601765 3.08584944
VERTEX2 636 -0.54440189 -19.18966795 3.06836371
VERTEX2 637 -1.17102182 -19.11776811 2.96915913
VERTEX2 638 -1.55780338 -19.04007242 2.93950191
VERTEX2 639 -2.16311351 -18.93989032 3.01972450
VERTEX2 640 -2.77263336 -18.83348942 2.95171347
VERTEX2 641 -3.36933259 -18.72514329 2.94318381
VERTEX2 642 -3.94168326 -18.59049318 2.89762616
VERTEX2 643 -4.42223870 -18.45552167 2.83016503
VERTEX2 644 -4.42516992 -18.45618974 -2.69624895
VERTEX2 645 -4.46113374 -18.59741442 -1.91902482
VERTEX2 646 -4.59711389 -19.20703038 -1.62366172
VERTEX2 647 -4.55246893 -19.84900032 -1.33481245
VERTEX2 648 -4.32858052 -20.47295805 -1.16852385
VERTEX2 649 -4.15401511 -21.07071184 -1.50610840
VERTEX2 650 -4.25355188 -21.69931729 -1.76345186
VERTEX2 651 -4.27075823 -21.84481013 -0.96400341
VERTEX2 652 -4.20909205 -21.87240480 0.06102763
VERTEX2 653 -4.16379023 -21.83156022 1.09151865
VERTEX2 654 -4.17338302 -21.53515972 1.60471229
VERTEX2 655 -4.18487345 -20.98203677 1.59971352
VERTEX2 656 -4.18523241 -20.38021660 1.58708611
VERTEX2 657 -4.29332328 -19.76898473 1.86372253
VERTEX2 658 -4.48468658 -19.15290722 1.85653087
VERTEX2 659 -4.60032744 -18.66010618 1.78534971
VERTEX2 660 -4.60338693 -18.64497563 2.38541236
VERTEX2 661 -4.77945632 -18.62589917 3.03880006
VERTEX2 662 -5.37059049 -18.56780474 3.10838402
VERTEX2 663 -5.95532711 -18.58318615 -3.07379322
VERTEX2 664 -5.96146030 -18.58163289 -2.55060637
VERTEX2 665 -5.97724756 -18.68291474 -1.71660888
VERTEX2 666 -6.04733245 -19.29014583 -1.67940491
VERTEX2 667 -6.10289600 -19.85530232 -1.67473975
VERTEX2 668 -6.16474551 -20.44789625 -1.64893017
VERTEX2 669 -6.21148438 -21.07238827 -1.67405174
VERTEX2 670 -6.30904528 -21.68871814 -1.73353919
VERTEX2 671 -6.35563888 -21.97982570 -1.67857564
VERTEX2 672 -6.25466891 -21.39734973 -1.76768960
VERTEX2 673 -6.18857462 -21.12862097 -1.89823441
VERTEX2 674 -6.17739997 -21.11677918 -2.54648460
VERTEX2 675 -6.15585754 -21.11217837 3.12798204
VERTEX2 676 -6.15012750 -21.11551887 2.50454537
VERTEX2 677 -6.14517348 -21.12232629 1.88860645
VERTEX2 678 -6.11778013 -20.90215367 1.44258402
VERTEX2 679 -6.05494989 -20.32497000 1.50511696
VERTEX2 680 -6.08317012 -19.87847581 1.84991573
VERTEX2 681 -6.23610322 -19.28812870 1.82234860
VERTEX2 682 -6.40913624 -18.68323303 1.86996089
VERTEX2 683 -6.50203813 -18.40057925 2.02918365
VERTEX2 684 -6.45614065 -18.44713368 3.11076439
VERTEX2 685 -6.85481123 -18.60740236 -2.72786596
VERTEX2 686 -7.29765766 -18.74472407 -2.87152787
VERTEX2 687 -7.88822390 -18.89765694 -2.90602545
VERTEX2 688 -8.48276430 -19.02017116 -2.91727524
VERTEX2 689 -9.04786486 -19.16323691 -2.88968913
VERTEX2 690 -9.58435453 -19.33618857 -2.81560647
VERTEX2 691 -9.98025193 -19.47066559 -2.84372114
VERTEX2 692 -9.96712343 -19.46473973 -2.30972755
VERTEX2 693 -9.94378450 -19.53697093 -1.26981269
VERTEX2 694 -9.91929553 -19.60893341 -0.43474488
VERTEX2 695 -9.90179966 -19.60387180 0.36490048
VERTEX2 696 -9.89640408 -19.60030784 1.38993055
VERTEX2 697 -9.90811609 -19.63931221 1.13677533
VERTEX2 698 -9.57911252 -19.42937897 0.48169508
VERTEX2 699 -9.01701732 -19.11442369 0.59559462
VERTEX2 700 -8.50514892 -18.75091400 0.64900150
VERTEX2 701 -8.07272086 -18.38691450 0.70804590
VERTEX2 702 -7.59478325 -18.07036944 0.59274729
VERTEX2 703 -7.08374182 -17.73249724 0.62688195
VERTEX2 704 -6.59148791 -17.34911660 0.64494460
VERTEX2 705 -6.08156860 -16.92720532 0.71518820
VERTEX2 706 -5.65218261 -16.60826518 0.44619830
VERTEX2 707 -5.62671862 -16.60684211 -0.07405706
VERTEX2 708 -5.61654768 -16.61269279 -0.71255166
VERTEX2 709 -5.65630743 -16.57005065 -1.04464179
VERTEX2 710 -5.66062406 -16.55895989 -1.60577149
VERTEX2 711 -5.65096494 -16.56764788 -2.20251756
VERTEX2 712 -5.63072980 -16.55207786 -2.76296952
VERTEX2 713 -6.10344387 -16.60339372 -3.04832784
VERTEX2 714 -6.65660418 -16.57932517 3.03732913
VERTEX2 715 -7.27761574 -16.54376974 3.14086741
VERTEX2 716 -7.90597978 -16.52298077 3.00277017
VERTEX2 717 -8.52163497 -16.45664878 3.08747575
VERTEX2 718 -9.27830371 -16.33991761 2.91205399
VERTEX2 719 -9.88978484 -16.22643950 2.98649507
VERTEX2 720 -10.49709683 -16.11582440 2.92727641
VERTEX2 721 -11.10934882 -16.00178240 2.99549065
VERTEX2 722 -11.12015577 -16.00026832 3.06218706
VERTEX2 723 -11.13658489 -16.01727470 -2.13103853
VERTEX2 724 -11.13663068 -16.05904549 -1.06216014
VERTEX2 725 -11.11016413 -16.07677982 -0.42746559
VERTEX2 726 -10.78569458 -16.07239292 0.02699175
VERTEX2 727 -10.15825317 -16.03389401 0.05769595
VERTEX2 728 -9.52803953 -16.00946814 0.05904433
VERTEX2 729 -8.90029470 -15.94931788 0.11663709
VERTEX2 730 -8.28778887 -15.85826759 0.15410679
VERTEX2 731 -7.63799449 -15.75717184 0.16632475
VERTEX2 732 -7.49441438 -15.72808399 0.61293070
VERTEX2 733 -7.49202189 -15.73197213 1.60953879
VERTEX2 734 -7.55148607 -15.17723845 1.68766470
VERTEX2 735 -7.61323138 -14.57616176 1.65565361
VERTEX2 736 -7.61392223 -14.56619134 2.25524767
VERTEX2 737 -7.60512299 -14.56732064 3.05607014
VERTEX2 738 -8.18151457 -14.52834696 3.07515439
VERTEX2 739 -8.78199881 -14.43523324 3.01754486
VERTEX2 740 -9.28220667 -14.39646015 3.08082217
VERTEX2 741 -9.25937015 -14.39615672 2.71199177
VERTEX2 742 -9.25705422 -14.39778021 2.05924003
VERTEX2 743 -9.25850312 -14.39144946 1.44246579
VERTEX2 744 -9.24989355 -14.37160471 0.90272583
VERTEX2 745 -9.23246417 -14.36244614 0.30883414
VERTEX2 746 -8.69150800 -14.37975509 -0.16636916
VERTEX2 747 -8.04746229 -14.49317024 -0.20177071
VERTEX2 748 -7.47536955 -14.63374235 -0.27001043
VERTEX2 749 -7.39707976 -14.65312217 0.15936717
VERTEX2 750 -7.38826357 -14.63679176 1.08676736
VERTEX2 751 -7.42365246 -14.36275537 1.72725051
VERTEX2 752 -7.48402058 -13.73599733 1.62397788
VERTEX2 753 -7.52426046 -13.09377062 1.68721185
VERTEX2 754 -7.53459120 -12.45456403 1.52464721
VERTEX2 755 -7.51777201 -11.82178673 1.61146512
VERTEX2 756 -7.48234367 -11.18634112 1.43588009
VERTEX2 757 -7.41023592 -10.54092428 1.54838552
VERTEX2 758 -7.43309328 -9.96359093 1.69172083
VERTEX2 759 -7.42733112 -9.41743678 1.56886232
VERTEX2 760 -7.46823141 -8.81235066 1.68030286
VERTEX2 761 -7.47065652 -8.78048223 1.86075254
VERTEX2 762 -7.54615319 -8.74700370 2.69394011
VERTEX2 763 -8.11980483 -8.64562360 2.98674513
VERTEX2 764 -8.53922392 -8.57519009 2.95918874
VERTEX2 765 -8.52796526 -8.57495060 -2.68461096
VERTEX2 766 -8.52994202 -8.58142541 -1.68435450
VERTEX2 767 -8.52442396 -8.59530589 -0.75355718
VERTEX2 768 -8.49667927 -8.59694438 -0.03124374
VERTEX2 769 -7.86063479 -8.50629372 0.12563523
VERTEX2 770 -7.20750648 -8.44548116 0.05848830
VERTEX2 771 -7.12077485 -8.43803921 0.61929481
VERTEX2 772 -7.11835874 -8.43030970 1.48730354
VERTEX2 773 -7.09623755 -7.85414256 1.57326885
VERTEX2 774 -7.11016250 -7.30945130 1.59550878
VERTEX2 775 -7.10888479 -7.31490141 2.44086611
VERTEX2 776 -7.31986232 -7.28991925 3.05861943
VERTEX2 777 -7.93503125 -7.25007398 3.11780267
VERTEX2 778 -8.54963567 -7.24155238 3.09698859
VERTEX2 779 -9.16396260 -7.22220250 3.11524181
VERTEX2 780 -9.37060973 -7.20499378 2.98519537
VERTEX2 781 -9.36584390 -7.20667985 2.41212529
VERTEX2 782 -9.49332280 -6.93612260 1.98284934
VERTEX2 783 -9.72929482 -6.36453434 1.98239238
VERTEX2 784 -9.82869126 -6.13908801 1.96121845
VERTEX2 785 -9.82962882 -6.11499281 1.40959761
VERTEX2 786 -9.82198113 -6.08953036 0.82163712
VERTEX2 787 -9.80450745 -6.07151256 0.33129030
VERTEX2 788 -9.77607393 -6.07333669 -0.29746307
VERTEX2 789 -9.76417922 -6.08259476 -0.84909626
VERTEX2 790 -9.45516549 -6.47772693 -0.91610551
VERTEX2 791 -9.04988582 -6.95642090 -0.81763563
VERTEX2 792 -8.81167844 -7.16701469 -0.11355800
VERTEX2 793 -8.19806603 -7.21737869 -0.06898190
VERTEX2 794 -7.56025394 -7.24454534 0.00205086
VERTEX2 795 -7.58705218 -7.26437062 0.43110509
VERTEX2 796 -7.59660540 -7.26827442 1.09000321
VERTEX2 797 -7.52336491 -6.96146581 1.34990670
VERTEX2 798 -7.38965733 -6.33748596 1.39986777
VERTEX2 799 -7.30368337 -5.69553557 1.46540267
VERTEX2 800 -7.25043173 -5.05151747 1.53810718
VERTEX2 801 -7.26164451 -4.42245375 1.62400268
VERTEX2 802 -7.31554541 -3.79972911 1.68166280
VERTEX2 803 -7.29845513 -3.17408169 1.51692513
VERTEX2 804 -7.27839967 -2.54970535 1.57275994
VERTEX2 805 -7.31148685 -1.92193010 1.64896142
VERTEX2 806 -7.37113856 -1.32600760 1.69028448
VERTEX2 807 -7.39798356 -1.14389217 1.97767432
VERTEX2 808 -7.39620555 -1.14399286 2.92409509
VERTEX2 809 -7.98156196 -1.11350258 3.06821226
VERTEX2 810 -8.59357596 -0.98858445 2.92749125
VERTEX2 811 -9.18711787 -0.87506550 2.92379322
VERTEX2 812 -9.18442326 -0.87566035 -2.62904758
VERTEX2 813 -9.19572932 -0.90043752 -1.65292753
VERTEX2 814 -9.19233783 -0.90313906 -0.65986829
VERTEX2 815 -9.17276439 -0.90981174 0.26015898
VERTEX2 816 -9.16876004 -0.90762223 0.94186540
VERTEX2 817 -9.16193163 -0.90333633 0.27363316
VERTEX2 818 -8.94496897 -0.93700184 -0.21483678
VERTEX2 819 -8.35921094 -1.06501777 -0.20051821
VERTEX2 820 -7.76866624 -1.19713025 -0.24144511
VERTEX2 821 -7.22566883 -1.32801913 -0.22537318
VERTEX2 822 -7.18711910 -1.33390584 0.53744693
VERTEX2 823 -7.18599333 -1.32177989 1.45817115
VERTEX2 824 -7.12366916 -0.70280869 1.37912457
VERTEX2 825 -6.98199939 -0.08323984 1.34969703
VERTEX2 826 -6.92665542 0.54578261 1.51291431
VERTEX2 827 -6.86467229 1.16646189 1.46446282
VERTEX2 828 -6.81248564 1.79466955 1.50016266
VERTEX2 829 -6.75422450 2.39328724 1.46087006
VERTEX2 830 -6.68244294 2.99710862 1.45294774
VERTEX2 831 -6.59177563 3.56902403 1.40655308
VERTEX2 832 -6.50517612 4.12666560 1.40332929
VERTEX2 833 -6.46338744 4.37632549 1.54141239
VERTEX2 834 -6.46573084 4.38448820 2.59583816
VERTEX2 835 -6.47847034 4.38589504 -2.90985315
VERTEX2 836 -6.48957570 4.37642695 -1.96699816
VERTEX2 837 -6.48634829 4.35923162 -0.93086629
VERTEX2 838 -6.47498433 4.35221349 -0.06886268
VERTEX2 839 -6.47468757 4.35207412 -0.28721136
VERTEX2 840 -6.46412421 4.34385609 -0.84999806
VERTEX2 841 -6.45694218 4.32954424 -1.46723245
VERTEX2 842 -6.48206034 4.08652677 -1.69832739
VERTEX2 843 -6.55845422 3.52528776 -1.70103084
VERTEX2 844 -6.63107874 2.90716029 -1.70917718
VERTEX2 845 -6.72209833 2.28950929 -1.72403385
VERTEX2 846 -6.80621379 1.66195066 -1.72261555
VERTEX2 847 -6.91436344 1.04217814 -1.74968957
VERTEX2 848 -6.94463146 0.84766646 -1.26965259
VERTEX2 849 -6.94794332 0.84891258 -0.34816939
VERTEX2 850 -6.59670066 0.84582327 0.00488431
VERTEX2 851 -5.97070109 0.82050869 -0.08782886
VERTEX2 852 -5.34782418 0.75997851 -0.07361143
VERTEX2 853 -4.75439596 0.71796412 -0.10174676
VERTEX2 854 -4.16880163 0.65061158 -0.09995679
VERTEX2 855 -3.56850097 0.59949819 -0.10163055
VERTEX2 856 -2.92172355 0.51486099 -0.14304832
VERTEX2 857 -2.27619830 0.42610585 -0.15328326
VERTEX2 858 -1.63724257 0.30482943 -0.20856345
VERTEX2 859 -1.12622125 0.20155415 -0.21611821
VERTEX2 860 -1.10420538 0.21051839 0.63124750
VERTEX2 861 -1.08752110 0.32303194 1.54216171
VERTEX2 862 -1.04268799 0.98484715 1.48172037
VERTEX2 863 -0.97828129 1.63291347 1.44837462
VERTEX2 864 -0.88350133 2.24802034 1.44532516
VERTEX2 865 -0.83420936 2.86556448 1.50186215
VERTEX2 866 -0.78107401 3.45736709 1.49976228
VERTEX2 867 -0.77072061 3.62823073 1.67953745
VERTEX2 868 -0.78488224 3.64699985 2.69724763
VERTEX2 869 -0.76008918 3.64692442 -2.60684579
VERTEX2 870 -0.73085526 3.66185510 -1.60657255
VERTEX2 871 -0.70480112 3.64339144 -0.63208631
VERTEX2 872 -0.67573737 3.62148169 0.05369237
VERTEX2 873 -0.63499512 3.60699898 -0.51847380
VERTEX2 874 -0.60469391 3.57851155 -1.07766641
VERTEX2 875 -0.59524724 3.55498901 -1.66372464
VERTEX2 876 -0.72522651 3.00000612 -1.82111348
VERTEX2 877 -0.88695551 2.46048935 -1.90565794
VERTEX2 878 -0.94189072 2.25895608 -1.52207230
VERTEX2 879 -0.85129482 1.61430113 -1.47071980
VERTEX2 880 -0.82322391 1.16042949 -1.58305783
VERTEX2 881 -0.82279275 1.20629517 -1.57742805
VERTEX2 882 -0.89024081 0.56417737 -1.82351790
VERTEX2 883 -1.11631255 -0.02963846 -2.01387307
VERTEX2 884 -1.28088002 -0.36082106 -2.08056197
VERTEX2 885 -1.28070618 -0.36524070 -1.49829902
VERTEX2 886 -1.25943702 -0.38579466 -0.47898750
VERTEX2 887 -1.23061346 -0.39744661 0.53410983
VERTEX2 888 -1.22041345 -0.37658228 1.52073152
VERTEX2 889 -1.22210401 -0.37156861 2.42098616
VERTEX2 890 -1.53696752 -0.21657026 2.69573379
VERTEX2 891 -2.07289903 0.05368203 2.62597093
VERTEX2 892 -2.60501871 0.37618247 2.59092585
VERTEX2 893 -3.15675082 0.67497392 2.82799218
VERTEX2 894 -3.76960883 0.78899856 3.04981020
VERTEX2 895 -4.36963341 0.74236968 -2.93423109
VERTEX2 896 -4.38635426 0.73842387 -2.45494970
VERTEX2 897 -4.67045972 0.31982193 -2.18209215
VERTEX2 898 -5.02088597 -0.18756344 -2.16634569
VERTEX2 899 -5.30624665 -0.59533721 -2.23387628
VERTEX2 900 -5.71791630 -1.13704514 -2.23614257
VERTEX2 901 -6.08732397 -1.57829103 -2.30043577
VERTEX2 902 -6.50117209 -2.06672473 -2.27518402
VERTEX2 903 -6.81511060 -2.44260461 -2.31997728
VERTEX2 904 -6.81510841 -2.44266277 -1.61705342
VERTEX2 905 -6.80187334 -2.93148497 -1.56122597
VERTEX2 906 -6.76842447 -3.49908483 -1.49519393
VERTEX2 907 -6.71257757 -4.07055898 -1.50314420
VERTEX2 908 -6.66660694 -4.69223713 -1.47821619
VERTEX2 909 -6.60628910 -5.30440905 -1.49602894
VERTEX2 910 -6.63319243 -5.42943838 -1.86573759
VERTEX2 911 -6.79186952 -5.99521666 -1.80479360
VERTEX2 912 -6.91245674 -6.55511906 -1.79210840
VERTEX2 913 -7.02411250 -7.09306310 -1.78411265
VERTEX2 914 -7.14965002 -7.67720703 -1.80770874
VERTEX2 915 -7.27248136 -8.18227195 -1.84436189
VERTEX2 916 -7.20873505 -8.42443355 -1.29669123
VERTEX2 917 -7.07017982 -9.07121872 -1.55102815
VERTEX2 918 -7.09020086 -9.58619673 -1.62650998
VERTEX2 919 -7.12353599 -10.20693881 -1.66978483
VERTEX2 920 -7.18757593 -10.81788215 -1.68733706
VERTEX2 921 -7.26037428 -11.42999988 -1.74065000
VERTEX2 922 -7.36217610 -12.03045694 -1.76783980
VERTEX2 923 -7.48143823 -12.59343870 -1.83128606
VERTEX2 924 -7.61266721 -13.08421415 -1.81463226
VERTEX2 925 -7.61402804 -13.07752813 -1.30986117
VERTEX2 926 -7.45438868 -13.63773405 -1.29365056
VERTEX2 927 -7.28790463 -14.22651853 -1.31695452
VERTEX2 928 -7.13045229 -14.83070588 -1.32588922
VERTEX2 929 -6.97900619 -15.43478047 -1.32660524
VERTEX2 930 -6.83173403 -16.06404684 -1.40888238
VERTEX2 931 -6.74514305 -16.68906268 -1.48879001
VERTEX2 932 -6.69837156 -17.31511192 -1.54789871
VERTEX2 933 -6.69408056 -17.92697911 -1.61213424
VERTEX2 934 -6.70779825 -18.40711494 -1.62162068
VERTEX2 935 -6.70406657 -18.42429200 -0.93993436
VERTEX2 936 -6.70252587 -18.42482947 0.00485228
VERTEX2 937 -6.16190803 -18.39907365 0.06762634
VERTEX2 938 -5.56702801 -18.41444814 -0.10589434
VERTEX2 939 -4.94402305 -18.47360409 -0.07825764
VERTEX2 940 -4.33424383 -18.54800541 -0.16398131
VERTEX2 941 -3.73137217 -18.66258992 -0.21749672
VERTEX2 942 -3.21452346 -18.77735452 -0.21286839
VERTEX2 943 -2.60718652 -18.91009049 -0.12437422
VERTEX2 944 -1.99615310 -18.99205436 -0.18086907
VERTEX2 945 -1.37961206 -19.11920329 -0.23579166
VERTEX2 946 -1.20943872 -19.16231684 -0.17125553
VERTEX2 947 -0.80751236 -19.09980353 0.15730788
VERTEX2 948 -0.24269319 -19.01091180 0.13841164
VERTEX2 949 0.35303976 -18.97588982 -0.01690438
VERTEX2 950 0.97695126 -19.01060317 -0.25599024
VERTEX2 951 1.57519165 -19.18097673 -0.32779448
VERTEX2 952 2.17320661 -19.35412890 -0.07650090
VERTEX2 953 2.79664127 -19.38353438 0.00417310
VERTEX2 954 3.41286177 -19.37368533 -0.00227620
VERTEX2 955 3.99396003 -19.41556898 -0.16223794
VERTEX2 956 4.53717387 -19.48969206 -0.16390898
VERTEX2 957 5.06899791 -19.58312129 -0.25104553
VERTEX2 958 5.53321331 -19.69092949 -0.27762861
VERTEX2 959 5.96095851 -19.80431610 -0.34456756
VERTEX2 960 6.54721050 -19.96151457 -0.26470101
VERTEX2 961 7.12590155 -20.13000880 -0.29177695
VERTEX2 962 7.74046403 -20.25298900 -0.22624298
VERTEX2 963 8.35510742 -20.32856737 -0.03971647
VERTEX2 964 8.97452267 -20.36512366 -0.10373841
VERTEX2 965 9.58964308 -20.43911507 -0.11075614
VERTEX2 966 10.03200853 -20.49416793 -0.16995194
VERTEX2 967 10.06392396 -20.48745552 0.68272401
VERTEX2 968 10.07203435 -20.47968896 1.57869950
VERTEX2 969 10.07439192 -20.50537759 1.63793851
VERTEX2 970 10.07689205 -20.53133381 1.63600403
VERTEX2 971 10.05419747 -20.19622710 1.63593137
VERTEX2 972 10.01204708 -19.61175396 1.64151946
VERTEX2 973 10.08769829 -19.03119018 1.35644715
VERTEX2 974 10.22277500 -18.43068824 1.38819461
VERTEX2 975 10.33007210 -17.82625672 1.39272027
VERTEX2 976 10.43066325 -17.21921690 1.40552962
VERTEX2 977 10.56293921 -16.59782704 1.37904620
VERTEX2 978 10.68054518 -15.98270026 1.42480956
VERTEX2 979 10.79208605 -15.37139014 1.41233890
VERTEX2 980 10.88661450 -14.76316928 1.45904950
VERTEX2 981 10.97075610 -14.17658587 1.46563539
VERTEX2 982 11.02331733 -13.65689305 1.51022196
VERTEX2 983 11.06954271 -13.05935183 1.50653797
VERTEX2 984 11.09361114 -12.46453035 1.56358122
VERTEX2 985 11.10156071 -11.86894200 1.58357004
VERTEX2 986 11.08383608 -11.25003434 1.61961120
VERTEX2 987 11.06857143 -10.63255426 1.58262719
VERTEX2 988 11.06886397 -10.01521327 1.59607092
VERTEX2 989 11.05242356 -9.40308608 1.60343339
VERTEX2 990 11.04397771 -8.79408472 1.59240166
VERTEX2 991 11.02728386 -8.18173816 1.61701351
VERTEX2 992 11.02095098 -7.59709719 1.58424189
VERTEX2 993 11.00613284 -6.98319912 1.61685688
VERTEX2 994 10.98883257 -6.40013257 1.60681782
VERTEX2 995 10.95707322 -5.82183517 1.65408808
VERTEX2 996 10.89779077 -5.22608159 1.68097109
VERTEX2 997 10.85311002 -4.59144100 1.61631787
VERTEX2 998 10.83355465 -4.19835215 1.63828972
VERTEX2 999 10.87680873 -4.23323701 2.35645750
VERTEX2 1000 10.42963259 -3.88631438 2.50524649
VERTEX2 1001 10.00444742 -3.50013450 2.18448669
VERTEX2 1002 9.64851772 -3.04396759 2.27729356
VERTEX2 1003 9.30867023 -2.56080866 2.09786657
VERTEX2 1004 8.96728605 -2.02292243 2.15632936
VERTEX2 1005 8.61446000 -1.53200556 2.21854255
VERTEX2 1006 8.22005425 -1.05754005 2.29571688
VERTEX2 1007 7.80942665 -0.63521267 2.38719202
VERTEX2 1008 7.57662848 -0.42381345 2.54651492
VERTEX2 1009 7.48131295 -0.40958703 3.01900230
VERTEX2 1010 6.91694179 -0.35499269 3.07138123
VERTEX2 1011 6.30117458 -0.31682377 3.02802333
VERTEX2 1012 5.69196862 -0.25453846 3.06966020
VERTEX2 1013 5.05540472 -0.25781499 -3.09889981
VERTEX2 1014 4.44267081 -0.21023818 3.00857630
VERTEX2 1015 3.82618504 -0.17139571 3.09335338
VERTEX2 1016 3.06493637 -0.13440275 3.10033731
VERTEX2 1017 2.48237733 -0.12105783 3.04328564
VERTEX2 1018 1.92731978 -0.05954407 3.05067602
VERTEX2 1019 1.33521618 -0.03524364 3.11033038
VERTEX2 1020 0.72285600 0.00043442 3.09648008
VERTEX2 1021 0.10460778 0.02921275 3.05598357
VERTEX2 1022 0.05391880 0.03338166 3.04885465
VERTEX2 1023 0.06368427 0.03319998 3.13556073
VERTEX2 1024 -0.56039849 0.04051564 -3.12119187
VERTEX2 1025 -1.18659471 0.00965632 -3.10352126
VERTEX2 1026 -1.34512167 0.00411689 -3.09625039
VERTEX2 1027 -1.32664466 0.01319707 -2.17937231
VERTEX2 1028 -1.33950216 -0.15244119 -1.61568648
VERTEX2 1029 -1.36721959 -0.71800283 -1.63715641
VERTEX2 1030 -1.43016838 -1.34125049 -1.71689027
VERTEX2 1031 -1.54197295 -1.98887060 -1.77037729
VERTEX2 1032 -1.67133742 -2.63674225 -1.76571580
VERTEX2 1033 -1.81337434 -3.28356148 -1.81018725
VERTEX2 1034 -1.85792367 -3.45677490 -2.02303146
VERTEX2 1035 -1.86582446 -3.46348534 -2.64058462
VERTEX2 1036 -1.83692164 -3.47655103 3.07347057
VERTEX2 1037 -2.18013679 -3.34930420 2.83606586
VERTEX2 1038 -2.79531345 -3.23263098 2.92803442
VERTEX2 1039 -3.43509251 -3.06971200 2.89734095
VERTEX2 1040 -3.40897205 -3.07001532 -2.75349017
VERTEX2 1041 -3.38036715 -3.07332973 -1.73278037
VERTEX2 1042 -3.38143885 -3.10320943 -0.74121418
VERTEX2 1043 -3.34870356 -3.13201200 0.23195107
VERTEX2 1044 -3.36062501 -3.14683668 1.22938344
VERTEX2 1045 -3.36329869 -3.15320713 1.11586665
VERTEX2 1046 -3.37262381 -3.16654594 0.73111997
VERTEX2 1047 -3.38874293 -3.17414744 0.17634127
VERTEX2 1048 -3.02067369 -3.23266613 -0.13594291
VERTEX2 1049 -2.36882945 -3.31097694 -0.11835660
VERTEX2 1050 -1.71611297 -3.36105473 -0.04219487
VERTEX2 1051 -1.03273155 -3.41444738 -0.11716282
VERTEX2 1052 -0.38055733 -3.47417752 -0.06020997
VERTEX2 1053 0.06449708 -3.51357869 -0.10896850
VERTEX2 1054 0.11420429 -3.51628981 0.66777547
VERTEX2 1055 0.12000527 -3.47306651 1.75094045
VERTEX2 1056 0.12128056 -3.47451317 2.77646848
VERTEX2 1057 0.15817614 -3.47455981 -2.50595291
VERTEX2 1058 0.17731969 -3.44562168 -1.57465225
VERTEX2 1059 0.15585485 -3.99874890 -1.65280063
VERTEX2 1060 0.10526992 -4.60358963 -1.64555264
VERTEX2 1061 0.06164785 -5.02230145 -1.76531683
VERTEX2 1062 0.06918165 -5.00637528 -2.32273230
VERTEX2 1063 0.13198249 -4.95723657 -2.91311905
VERTEX2 1064 -0.07034395 -4.94949420 3.10955534
VERTEX2 1065 -0.57953723 -4.96980594 -3.04795199
VERTEX2 1066 -1.06272253 -5.00105568 -3.10083282
VERTEX2 1067 -0.97255648 -4.98125033 -2.66214947
VERTEX2 1068 -0.92828867 -4.93720447 -1.98133935
VERTEX2 1069 -0.92724508 -4.93133851 -1.80715221
VERTEX2 1070 -0.92138860 -4.91430221 -2.33951097
VERTEX2 1071 -1.29577917 -5.22036469 -2.46325387
VERTEX2 1072 -1.65084743 -5.50073889 -2.52891498
VERTEX2 1073 -1.85710159 -9.44635820 -0.43663910
VERTEX2 1074 -1.36469168 -9.70497701 -0.46941911
VERTEX2 1075 -0.82866685 -9.98309320 -0.45125438
VERTEX2 1076 -0.77294749 -10.00856975 -0.03790548
VERTEX2 1077 -0.77660943 -10.01199514 0.78387055
VERTEX2 1078 -0.38174503 -9.53848909 0.83393408
VERTEX2 1079 -0.00807185 -9.10106756 0.90131640
VERTEX2 1080 -3.92037908 -6.66327678 -2.51107332
VERTEX2 1081 -4.41245063 -6.93590929 -2.62903904
VERTEX2 1082 -4.63120271 -7.06165815 -2.34115310
VERTEX2 1083 -4.63031112 -7.07488315 -1.28679183
VERTEX2 1084 -4.61531032 -7.08345915 -0.29874215
VERTEX2 1085 -4.65457749 -7.09293806 0.70973966
VERTEX2 1086 -4.29249451 -6.60733123 0.94589184
VERTEX2 1087 -3.91395481 -6.10237526 0.93742625
VERTEX2 1088 -3.55345373 -5.58849265 0.92448569
VERTEX2 1089 -3.49850561 -5.51674853 0.82976221
VERTEX2 1090 -3.48638097 -5.50552380 0.21687340
VERTEX2 1091 -2.95136326 -5.46968930 0.04074586
VERTEX2 1092 -2.33479073 -5.44959227 0.02615254
VERTEX2 1093 -1.76803505 -5.44780657 -0.03831337
VERTEX2 1094 -1.75697704 -5.45814615 -0.44213106
VERTEX2 1095 -1.72805616 -5.48330828 -1.03151798
VERTEX2 1096 -1.72787189 -5.48420442 -1.60296176
VERTEX2 1097 -1.80801503 -5.80971818 -1.81854477
VERTEX2 1098 -1.97954458 -6.40754598 -1.87550630
VERTEX2 1099 -2.18043378 -6.96513565 -1.97194725
VERTEX2 1100 -2.18412497 -6.97467307 -1.60943328
VERTEX2 1101 -2.12601810 -7.22762785 -1.34374517
VERTEX2 1102 -2.12608652 -7.22829028 -1.73768533
VERTEX2 1103 -2.24875751 -7.83163087 -1.77157270
VERTEX2 1104 -2.38306450 -8.46553007 -1.79952887
VERTEX2 1105 -2.53488160 -9.08583831 -1.81764391
VERTEX2 1106 -2.65813463 -9.56101063 -1.84307231
VERTEX2 1107 -2.65790292 -9.56360761 -1.58724840
VERTEX2 1108 -2.62529108 -10.18468179 -1.57956505
VERTEX2 1109 -2.67685242 -10.82488169 -1.68364673
VERTEX2 1110 -2.75063847 -11.42928467 -1.73326392
VERTEX2 1111 -2.92062324 -11.95971020 -1.83477937
VERTEX2 1112 -2.95455797 -12.53768219 -1.48865841
VERTEX2 1113 -2.91905840 -13.17436211 -1.58419352
VERTEX2 1114 -2.92697208 -13.78936516 -1.56726313
VERTEX2 1115 -2.92231688 -14.37075911 -1.58352767
VERTEX2 1116 -2.90850618 -15.01714504 -1.54731685
VERTEX2 1117 -2.90540815 -15.11261881 -1.67513391
VERTEX2 1118 -2.90554818 -15.11287071 -2.28244655
VERTEX2 1119 -2.90246270 -15.11072612 -2.71417766
VERTEX2 1120 -3.47285317 -15.32089737 -2.77782631
VERTEX2 1121 -3.67032379 -15.39124621 -2.89643075
VERTEX2 1122 -3.67544652 -15.38949501 2.83638376
VERTEX2 1123 -4.23408239 -15.20398001 2.85329423
VERTEX2 1124 -4.80033076 -15.07555204 2.95203261
VERTEX2 1125 -5.43433837 -14.95090496 2.96554458
VERTEX2 1126 -5.52269104 -14.93706723 -2.97789629
VERTEX2 1127 -5.52491346 -14.93472410 -1.92069211
VERTEX2 1128 -5.52307241 -14.92559984 -0.93338611
VERTEX2 1129 -5.51422851 -14.93052768 0.08215737
VERTEX2 1130 -4.93218523 -14.86442687 0.09587771
VERTEX2 1131 -4.16624590 -14.98559625 -0.33590441
VERTEX2 1132 -3.56348541 -15.19831252 -0.35555064
VERTEX2 1133 -3.02457831 -15.42141745 -0.39421049
VERTEX2 1134 -2.77987132 -15.52347774 -0.49117893
VERTEX2 1135 -2.77589660 -15.52737858 -1.04715410
VERTEX2 1136 -2.77467212 -15.52479730 -1.60904992
VERTEX2 1137 -2.82757001 -15.82298432 -1.79299638
VERTEX2 1138 -2.98098298 -16.45239106 -1.80917167
VERTEX2 1139 -3.09909517 -16.94595852 -1.88215959
VERTEX2 1140 -3.08926583 -16.92235169 -2.36086954
VERTEX2 1141 -3.06763354 -16.90130363 -2.90797559
VERTEX2 1142 -3.43008350 -16.85800709 3.01110428
VERTEX2 1143 -4.02753325 -16.81127531 3.10063352
VERTEX2 1144 -4.60789917 -16.77691244 3.07013509
VERTEX2 1145 -5.18582371 -16.73129773 3.04478543
VERTEX2 1146 -5.76137135 -16.67402786 3.06464451
VERTEX2 1147 -6.34033644 -16.66385559 3.13748011
VERTEX2 1148 -6.91864832 -16.66123860 -3.13566833
VERTEX2 1149 -6.96120611 -16.66252756 -2.63740872
VERTEX2 1150 -7.05325918 -16.76472306 -1.82829437
VERTEX2 1151 -7.05069848 -16.77937190 -0.82524622
VERTEX2 1152 -7.03649950 -16.77965980 0.22704053
VERTEX2 1153 -7.02575771 -16.77485962 1.23904290
VERTEX2 1154 -7.08320343 -16.46085940 1.78466696
VERTEX2 1155 -7.21321570 -15.83616963 1.73586110
VERTEX2 1156 -7.30784325 -15.23001748 1.74638800
VERTEX2 1157 -7.43270141 -14.65886697 1.85815256
VERTEX2 1158 -7.55704070 -14.05669301 1.73031298
VERTEX2 1159 -7.61567188 -13.45441329 1.63631647
VERTEX2 1160 -7.63625052 -12.81479493 1.49967079
VERTEX2 1161 -7.53484270 -12.18381133 1.40996887
VERTEX2 1162 -7.44166868 -11.55260706 1.46809982
VERTEX2 1163 -7.37743726 -10.91069706 1.46268807
VERTEX2 1164 -7.32783264 -10.27418184 1.54803448
VERTEX2 1165 -7.31567434 -9.72583753 1.52509126
VERTEX2 1166 -7.31801001 -9.71427350 2.01380292
VERTEX2 1167 -7.26189712 -9.70074931 2.94992133
VERTEX2 1168 -7.21971629 -9.68405406 -2.42876127
VERTEX2 1169 -7.22326919 -9.72962752 -1.60585365
VERTEX2 1170 -7.23401328 -10.31515630 -1.59928823
VERTEX2 1171 -7.23455238 -10.94922963 -1.56765293
VERTEX2 1172 -7.23952705 -11.55209686 -1.63010795
VERTEX2 1173 -7.27036811 -12.18005706 -1.62096653
VERTEX2 1174 -7.31526127 -12.81343396 -1.68964517
VERTEX2 1175 -7.40278748 -13.43229652 -1.72299365
VERTEX2 1176 -7.50063218 -14.05240923 -1.76672227
VERTEX2 1177 -7.62066664 -14.66065499 -1.76471350
VERTEX2 1178 -7.75230133 -15.27289727 -1.81194976
VERTEX2 1179 -7.89042081 -15.87706851 -1.78261227
VERTEX2 1180 -7.94484635 -16.13047145 -1.78960228
VERTEX2 1181 -7.94392774 -16.12401625 -0.96217082
VERTEX2 1182 -7.88866350 -16.13809120 -0.25001853
VERTEX2 1183 -7.27530023 -16.28701040 -0.22458661
VERTEX2 1184 -6.64253515 -16.40176043 -0.15494177
VERTEX2 1185 -6.01465078 -16.51200027 -0.18712146
VERTEX2 1186 -5.38312258 -16.60671908 -0.12087085
VERTEX2 1187 -4.72920841 -16.69198861 -0.15792520
VERTEX2 1188 -4.10189528 -16.78162592 -0.13979660
VERTEX2 1189 -3.40835346 -16.89369245 -0.11823243
VERTEX2 1190 -3.04658233 -16.93740744 -0.11032185
VERTEX2 1191 -2.98480356 -16.93602245 0.80956815
VERTEX2 1192 -2.97941513 -16.85734849 1.60693221
VERTEX2 1193 -2.97237878 -16.26394037 1.47490159
VERTEX2 1194 -2.93111503 -15.69463129 1.51701796
VERTEX2 1195 -2.90250975 -15.07675446 1.56950996
VERTEX2 1196 -2.89649884 -14.45969152 1.39715688
VERTEX2 1197 -2.79349290 -13.84730184 1.40871846
VERTEX2 1198 -2.72369680 -13.22453908 1.66815921
VERTEX2 1199 -2.74130852 -12.62001824 1.45413652
VERTEX2 1200 -2.68563416 -11.99459842 1.52374119
VERTEX2 1201 -2.66239960 -11.38094862 1.58022631
VERTEX2 1202 -2.67442619 -10.76620807 1.60386383
VERTEX2 1203 -2.70668806 -10.18552236 1.51481024
VERTEX2 1204 -2.59541897 -9.59536971 1.36907800
VERTEX2 1205 -2.49053073 -9.03426176 1.39955905
VERTEX2 1206 -2.40926152 -8.44754833 1.46184086
VERTEX2 1207 -2.27657759 -7.83703528 1.37694706
VERTEX2 1208 -2.16973710 -7.21413974 1.44286810
VERTEX2 1209 -2.08915464 -6.59588915 1.44210997
VERTEX2 1210 -2.03132095 -5.98304592 1.46398389
VERTEX2 1211 -1.91794980 -5.37487629 1.39039431
VERTEX2 1212 -1.81500427 -4.76613158 1.43949547
VERTEX2 1213 -1.75847419 -4.15143396 1.51160596
VERTEX2 1214 -1.68910996 -3.42476439 1.28708297
VERTEX2 1215 -1.53588520 -2.84866016 1.34454119
VERTEX2 1216 -1.49267773 -2.29363378 1.55952990
VERTEX2 1217 -1.46471012 -1.71003962 1.53842032
VERTEX2 1218 -1.45421528 -1.12371671 1.48715938
VERTEX2 1219 -1.40702570 -0.47871177 1.51716551
VERTEX2 1220 -1.40254836 0.10456268 1.60721712
VERTEX2 1221 -1.40159534 0.10138789 1.15324610
VERTEX2 1222 -1.39740912 0.10548752 0.55446482
VERTEX2 1223 -1.39186998 0.10680421 -0.00632948
VERTEX2 1224 -0.82420258 0.01504986 -0.18990248
VERTEX2 1225 -0.20901427 -0.09922640 -0.17613848
VERTEX2 1226 -0.10417723 -0.11799631 -0.19286948
VERTEX2 1227 -0.10417723 -0.11799631 -0.19353148
