1 19 166 0.02331467 10 
2 67 166 0.00330525 10 
3 19 172 0.00310903 10 
4 25 172 0.00702217 10 
5 25 178 0.00329954 10 
6 32 178 0.00329241 10 
7 32 183 0.00340598 10 
8 60 186 0.00344060 10 
9 44 189 0.00350197 10 
10 44 195 0.00359910 10 
11 50 195 0.00361020 10 
12 50 201 0.00371537 10 
13 50 203 0.00376723 10 
14 61 203 0.00379637 10 
15 61 209 0.00391690 10 
16 67 209 0.00393220 10 
17 67 220 0.00412306 10 
18 81 220 0.00412015 10 
19 81 226 0.00420439 10 
20 87 226 0.00423180 10 
21 87 231 0.00432076 10 
22 94 231 0.00433003 10 
23 226 231 0.00434532 10 
24 94 241 0.00453132 10 
25 101 241 0.00458698 10 
26 45 244 0.00469730 10 
27 101 247 0.00477903 10 
28 107 247 0.00476294 10 
29 107 254 0.00487877 10 
30 114 254 0.00489760 10 
31 108 255 0.00494234 10 
32 107 256 0.00496566 10 
33 114 256 0.00499551 10 
34 107 258 0.00504000 10 
35 114 258 0.00503796 10 
36 121 266 0.00520570 10 
37 126 266 0.00519631 10 
38 126 272 0.00532197 10 
39 132 272 0.00533031 10 
40 132 278 0.00544568 10 
41 138 278 0.00545202 10 
42 138 284 0.00557953 10 
43 151 284 0.00557665 10 
44 151 291 0.00570652 10 
45 151 297 0.00582197 10 
46 157 297 0.00583123 10 
47 163 297 0.00585645 10 
48 166 297 0.00585587 10 
49 19 305 0.00611064 10 
50 157 305 0.00610450 10 
51 163 305 0.00613051 10 
52 166 305 0.00611694 10 
53 172 305 0.00613096 10 
54 19 315 0.00551844 9 
55 25 315 0.00620858 10 
56 172 315 0.00637149 10 
57 172 328 0.00643377 10 
58 19 337 0.00527627 8 
59 25 337 0.00666695 10 
60 172 337 0.00683579 10 
61 19 342 0.00673561 10 
62 25 342 0.00677928 10 
63 172 342 0.00349387 5 
64 178 342 0.00682642 10 
65 189 356 0.00706338 10 
66 145 359 0.00650001 9 
67 25 367 0.00438371 6 
68 32 367 0.00515278 7 
69 178 367 0.00366892 5 
70 183 367 0.00591905 8 
71 25 374 0.00755644 10 
72 32 374 0.00759269 10 
73 178 374 0.00544078 7 
74 183 374 0.00681317 9 
75 309 374 0.00530912 7 
76 32 382 0.00620656 8 
77 183 382 0.00784219 10 
78 32 387 0.00789853 10 
79 183 387 0.00469801 6 
80 250 397 0.00734543 9 
81 189 400 0.00832080 10 
82 189 414 0.00860754 10 
83 44 437 0.00901944 10 
84 195 437 0.00923503 10 
85 21 440 0.00636496 7 
86 317 450 0.00743969 8 
87 44 454 0.00849503 9 
88 189 454 0.00661910 7 
89 44 467 0.00680155 7 
90 50 467 0.00681383 7 
91 195 467 0.00287250 3 
92 251 480 0.01008430 10 
93 195 484 0.00606095 6 
94 44 494 0.00512455 5 
95 50 494 0.00617639 6 
96 195 494 0.00513358 5 
97 201 494 0.00620446 6 
98 32 497 0.00951389 9 
99 50 500 0.00845514 8 
100 201 500 0.00847141 8 
101 203 500 0.00633620 6 
102 61 508 0.01088010 10 
103 203 508 0.01105368 10 
104 209 508 0.00974395 9 
105 61 522 0.01110109 10 
106 203 522 0.01136777 10 
107 209 522 0.01020365 9 
108 61 528 0.00891269 8 
109 67 528 0.01129148 10 
110 81 528 0.01164650 10 
111 209 528 0.01154244 10 
112 220 528 0.01141349 10 
113 122 529 0.01150967 10 
114 67 532 0.00682055 6 
115 81 532 0.01158000 10 
116 220 532 0.01179246 10 
117 385 553 0.01203695 10 
118 67 556 0.01214777 10 
119 108 560 0.01231595 10 
120 67 564 0.01249826 10 
121 81 564 0.01144905 9 
122 220 564 0.01242596 10 
123 67 567 0.01256895 10 
124 81 567 0.01291401 10 
125 220 567 0.01288054 10 
126 67 570 0.01264823 10 
127 81 570 0.01300634 10 
128 220 570 0.01296618 10 
129 81 575 0.01307910 10 
130 220 575 0.01311741 10 
131 324 576 0.01330680 10 
132 81 588 0.01324589 10 
133 87 588 0.01365655 10 
134 226 588 0.01370274 10 
135 334 589 0.01387084 10 
136 333 589 0.01388729 10 
137 316 592 0.01367167 10 
138 87 597 0.01397939 10 
139 94 597 0.01423482 10 
140 226 597 0.01425439 10 
141 465 600 0.01404765 10 
142 87 604 0.01413627 10 
143 94 604 0.01454165 10 
144 94 616 0.01147329 8 
145 281 625 0.01486569 10 
146 94 632 0.01497514 10 
147 94 637 0.01508866 10 
148 101 637 0.01529546 10 
149 194 640 0.01521943 10 
150 101 642 0.01519617 10 
151 107 642 0.01527958 10 
152 317 642 0.01588500 10 
153 101 645 0.01563131 10 
154 107 645 0.01602619 10 
155 101 657 0.01593118 10 
156 101 663 0.00950828 6 
157 107 663 0.01598399 10 
158 114 663 0.01124007 7 
159 101 665 0.01627347 10 
160 107 665 0.01660933 10 
161 114 665 0.01644236 10 
162 556 673 0.01647938 10 
163 107 680 0.01661729 10 
164 43 682 0.01667494 10 
165 107 683 0.01671172 10 
166 114 683 0.01773464 10 
167 107 704 0.01710267 10 
168 114 704 0.01743832 10 
169 107 714 0.01726195 10 
170 114 714 0.01754414 10 
171 243 726 0.01573430 9 
172 107 730 0.01223095 7 
173 114 730 0.01759615 10 
174 31 747 0.01819278 10 
175 415 753 0.01840057 10 
176 87 753 0.01718297 9 
177 121 754 0.01844885 10 
178 126 754 0.01885926 10 
179 217 758 0.01865650 10 
180 121 759 0.01908536 10 
181 126 759 0.01910188 10 
182 126 762 0.01868274 10 
183 132 762 0.01900797 10 
184 202 762 0.01961128 10 
185 34 770 0.01954224 10 
186 132 778 0.01175760 6 
187 132 792 0.02009835 10 
188 132 800 0.02026029 10 
189 138 800 0.02064308 10 
190 138 806 0.02033005 10 
191 729 809 0.02063476 10 
192 157 819 0.02066267 10 
193 138 821 0.01653727 8 
194 138 823 0.02080561 10 
195 151 828 0.02102188 10 
196 812 833 0.02104098 10 
197 219 841 0.02175224 10 
198 124 843 0.02155504 10 
199 19 845 0.01745654 8 
200 151 847 0.01764730 8 
201 724 854 0.02253687 10 
202 151 855 0.01566864 7 
203 197 862 0.02291705 10 
204 112 863 0.02312207 10 
205 363 886 0.02369885 10 
206 632 887 0.02407746 10 
207 151 895 0.02424594 10 
208 151 897 0.02212746 9 
209 138 903 0.02443099 10 
210 138 904 0.02440582 10 
211 256 904 0.02508198 10 
212 132 907 0.02497731 10 
213 138 907 0.02555144 10 
214 132 911 0.02519770 10 
215 121 923 0.02519646 10 
216 126 923 0.02569889 10 
217 850 928 0.01524254 6 
218 107 929 0.02575117 10 
219 114 929 0.02618428 10 
220 359 934 0.02598195 10 
221 107 935 0.02575203 10 
222 114 935 0.02619991 10 
223 101 939 0.02619612 10 
224 107 939 0.01864676 7 
225 101 944 0.02353817 9 
226 94 947 0.02646263 10 
227 101 947 0.02687629 10 
228 87 953 0.02653427 10 
229 94 953 0.02698191 10 
230 226 953 0.02700343 10 
231 688 957 0.02696984 10 
232 81 959 0.02748038 10 
233 87 959 0.02770855 10 
234 220 959 0.02803508 10 
235 226 959 0.02799774 10 
236 67 965 0.02771561 10 
237 81 965 0.02808504 10 
238 220 965 0.02811503 10 
239 137 971 0.02793715 10 
240 61 976 0.02828763 10 
241 67 976 0.02863027 10 
242 209 976 0.02880299 10 
243 349 980 0.01979363 7 
244 338 980 0.02845993 10 
245 50 982 0.02860459 10 
246 61 982 0.02900537 10 
247 201 982 0.02927464 10 
248 203 982 0.02049391 7 
249 44 988 0.02907388 10 
250 50 988 0.01764200 6 
251 195 988 0.02303560 8 
252 201 988 0.01426733 5 
253 44 994 0.02911852 10 
254 189 994 0.02964208 10 
255 195 994 0.02971532 10 
256 956 995 0.02939838 10 
257 606 997 0.02929066 10 
258 32 1003 0.02931384 10 
259 178 1003 0.03024842 10 
260 183 1003 0.03008874 10 
261 877 1004 0.02965007 10 
262 25 1008 0.02982933 10 
263 32 1008 0.03036381 10 
264 178 1008 0.03037163 10 
265 183 1008 0.03034368 10 
266 25 1010 0.02991434 10 
267 32 1010 0.03042799 10 
268 172 1010 0.03082433 10 
269 178 1010 0.03062479 10 
270 19 1016 0.03020412 10 
271 166 1016 0.03100421 10 
272 172 1016 0.03084500 10 
273 151 1029 0.03069955 10 
274 157 1029 0.03120963 10 
275 163 1029 0.03137464 10 
276 166 1029 0.03112768 10 
277 558 1038 0.03083505 10 
278 868 1054 0.03137850 10 
279 559 1073 0.03173902 10 
280 903 1080 0.03182293 10 
281 132 1084 0.03194029 10 
282 80 1087 0.03258543 10 
283 61 1089 0.03225432 10 
284 458 1090 0.03243632 10 
285 14 1095 0.03252152 10 
286 21 1100 0.03266521 10 
287 166 1103 0.03289497 10 
288 821 1110 0.03303839 10 
289 253 1122 0.03393404 10 
290 101 1138 0.03416361 10 
291 436 1139 0.03502763 10 
292 107 1147 0.03518350 10 
293 114 1147 0.03531250 10 
294 107 1150 0.03537476 10 
295 114 1150 0.03540338 10 
296 541 1154 0.03542104 10 
297 114 1158 0.03551153 10 
298 121 1158 0.03544780 10 
299 400 1160 0.03578664 10 
300 121 1164 0.03557259 10 
301 126 1164 0.03581101 10 
302 457 1164 0.03606458 10 
303 1082 1167 0.03623025 10 
304 1014 1169 0.03639314 10 
305 359 1171 0.03652324 10 
306 114 1175 0.03654981 10 
307 121 1175 0.03658302 10 
308 923 1175 0.03669275 10 
309 929 1175 0.03676433 10 
310 1158 1175 0.03682359 10 
311 743 1181 0.03714211 10 
312 101 1188 0.03738051 10 
313 939 1188 0.03719852 10 
314 1138 1188 0.03790236 10 
315 1147 1188 0.03786357 10 
316 1150 1188 0.03788778 10 
317 1050 1210 0.03800526 10 
318 1061 1210 0.03770577 10 
319 1075 1210 0.03774003 10 
320 1084 1210 0.03812310 10 
321 1088 1210 0.03852503 10 
322 1093 1210 0.03979617 10 
323 1098 1210 0.03824625 10 
324 157 1217 0.03767538 10 
325 163 1217 0.03829964 10 
326 1029 1217 0.03828362 10 
327 1044 1217 0.04196117 10 
328 1050 1217 0.03831904 10 
329 1056 1217 0.03885581 10 
330 1163 1222 0.03884611 10 
331 790 1224 0.03905800 10 
