1 0 107 0 2.42086356 0.00165110 6 
2 89 149 2 96.57536103 0.00000237 1 
3 117 157 2 361.57815294 0.00000267 1 
4 19 166 0 3.46299656 0.00249092 6 
5 19 172 0 0.05849735 0.00192331 4 
6 25 172 0 0.91780057 0.00226789 5 
7 25 178 0 0.28022444 0.00203734 4 
8 32 178 0 0.09180765 0.00232776 5 
9 32 183 0 0.06559689 0.00208580 4 
10 44 189 0 1.10196960 0.00245811 5 
11 44 195 0 0.34656662 0.00218909 4 
12 50 195 0 0.05620392 0.00257555 5 
13 50 201 0 0.04982532 0.00224504 4 
14 50 203 0 0.07042065 0.00228508 4 
15 61 203 0 0.07348022 0.00268314 5 
16 61 209 0 0.35157740 0.00233896 4 
17 67 209 0 0.47752259 0.00274559 5 
18 67 220 0 0.66611721 0.00252975 4 
19 81 220 0 0.86488639 0.00289987 5 
20 81 226 0 0.07380977 0.00259968 4 
21 87 226 0 1.19382300 0.00297443 5 
22 87 231 0 0.44667860 0.00265846 4 
23 94 231 0 0.27203826 0.00306926 5 
24 226 231 0 1.20732151 0.00259652 4 
25 94 241 0 1.37872079 0.00273531 4 
26 101 241 0 1.24249502 0.00320186 5 
27 234 244 2 1851.10281945 0.00000242 1 
28 101 247 0 1.64206017 0.00277976 4 
29 107 247 0 0.76835844 0.00325590 5 
30 107 254 0 1.15029821 0.00289907 4 
31 114 254 0 0.38199791 0.00348771 5 
32 107 256 0 0.84809250 0.00348294 5 
33 114 256 0 0.34792370 0.00353210 5 
34 107 258 0 1.47524982 0.00362721 5 
35 114 258 0 1.04468032 0.00360584 5 
36 121 266 0 0.05975965 0.00372780 5 
37 126 266 0 0.28510766 0.00370746 5 
38 126 272 0 1.06901907 0.00329524 4 
39 132 272 0 0.47267219 0.00380768 5 
40 132 278 0 0.58374730 0.00337388 4 
41 138 278 0 1.06678230 0.00389543 5 
42 138 284 0 0.02050132 0.00344615 4 
43 151 284 0 0.49821500 0.00398707 5 
44 151 291 0 0.61691172 0.00410028 5 
45 151 297 0 0.07972181 0.00303921 3 
46 157 297 0 1.48959591 0.00416054 5 
47 163 297 0 7.07440001 0.00417091 5 
48 166 297 0 1.29997170 0.00416067 5 
49 19 305 0 0.57398835 0.00426240 5 
50 157 305 0 0.29690609 0.00426012 5 
51 163 305 0 2.89303711 0.00366669 4 
52 166 305 0 0.25252439 0.00366188 4 
53 172 305 0 0.01074336 0.00367703 4 
54 15 313 2 929.64718987 0.00000262 1 
55 19 315 0 0.52058437 0.00378798 4 
56 25 315 0 0.02225189 0.00317550 3 
57 172 315 0 0.05548523 0.00317384 3 
58 172 328 0 0.12399744 0.00331594 3 
59 19 337 0 6.69674795 0.00407834 4 
60 25 337 0 0.93992039 0.00407373 4 
61 172 337 0 0.57047292 0.00408063 4 
62 155 340 2 224.65157197 0.00000236 1 
63 19 342 0 0.00470561 0.00345610 3 
64 25 342 0 0.17779195 0.00415102 4 
65 172 342 0 0.00910194 0.00346198 3 
66 178 342 0 0.17328754 0.00416692 4 
67 128 364 2 538.30914616 0.00000276 1 
68 25 367 0 0.11386011 0.00371414 3 
69 32 367 0 0.02191524 0.00448129 4 
70 178 367 0 0.00465748 0.00373856 3 
71 183 367 0 0.07841272 0.00450702 4 
72 237 367 2 2063.10596045 0.00000262 4 
73 361 370 2 2529.01268434 0.00000258 1 
74 25 374 0 0.54485890 0.00458169 4 
75 32 374 0 0.13382062 0.00458147 4 
76 178 374 0 0.02668016 0.00385055 3 
77 183 374 0 0.06992271 0.00458976 4 
78 32 382 0 4.13253713 0.00468024 4 
79 183 382 0 1.27750168 0.00467511 4 
80 32 387 0 2.72546663 0.00394319 3 
81 183 387 0 0.18747957 0.00395700 3 
82 189 414 0 7.34533133 0.00583011 5 
83 267 419 2 644.94554538 0.00000307 1 
84 353 433 2 54.94401875 0.00000266 1 
85 44 437 0 0.01081879 0.00524570 4 
86 195 437 0 0.01891858 0.00526923 4 
87 44 454 0 0.65435589 0.00447834 3 
88 189 454 0 0.03080986 0.00450696 3 
89 44 467 0 0.11915016 0.00553471 4 
90 50 467 0 0.00316007 0.00461855 3 
91 195 467 0 0.00239197 0.00461600 3 
92 450 478 2 544.35365507 0.00000290 1 
93 195 484 0 0.09438572 0.00473659 3 
94 44 494 0 0.02930749 0.00482177 3 
95 50 494 0 0.00935732 0.00582843 4 
96 195 494 0 0.00764245 0.00481622 3 
97 201 494 0 0.00317180 0.00484293 3 
98 50 500 0 0.13618824 0.00609765 4 
99 201 500 0 0.04763522 0.00592538 4 
100 203 500 0 0.03780407 0.00593758 4 
101 61 508 0 0.98897265 0.00607032 4 
102 203 508 0 0.26711118 0.00604607 4 
103 209 508 0 0.03851667 0.00606101 4 
104 276 509 2 1910.86815134 0.00000269 1 
105 61 522 0 1.37776593 0.00619134 4 
106 203 522 0 0.12682509 0.00617585 4 
107 209 522 0 0.00338392 0.00510986 3 
108 61 528 0 0.48175181 0.00514652 3 
109 67 528 0 0.25837588 0.00630472 4 
110 81 528 0 0.39859888 0.00736170 5 
111 209 528 0 0.11014913 0.00627218 4 
112 220 528 0 0.20203337 0.00633071 4 
113 67 532 0 0.05315563 0.00533557 3 
114 81 532 0 0.15985070 0.00658163 4 
115 220 532 0 0.07107518 0.00639852 4 
116 527 540 2 374.94361004 0.00000307 1 
117 67 556 0 0.97428727 0.00669051 4 
118 67 564 0 0.40258821 0.00676932 4 
119 81 564 0 0.01645974 0.00674326 4 
120 220 564 0 0.02451463 0.00676092 4 
121 67 567 0 2.58776380 0.00680964 4 
122 81 567 0 0.51806311 0.00677982 4 
123 220 567 0 0.23380341 0.00677474 4 
124 67 570 0 2.43026665 0.00684058 4 
125 81 570 0 0.16467462 0.00681755 4 
126 220 570 0 0.12809995 0.00681129 4 
127 81 575 0 2.80981696 0.00690880 4 
128 220 575 0 1.08422824 0.00699107 4 
129 81 588 0 0.01489144 0.00583085 3 
130 87 588 0 0.35350567 0.00702014 4 
131 226 588 0 0.44438304 0.00703083 4 
132 252 596 2 509.60259366 0.00000344 1 
133 87 597 0 2.32488614 0.00717173 4 
134 94 597 0 0.46607161 0.00715884 4 
135 226 597 0 0.49448293 0.00714636 4 
136 160 603 2 527.58977063 0.00000363 1 
137 87 604 0 0.46865598 0.00725641 4 
138 94 604 0 0.03020044 0.00721301 4 
139 506 614 2 628.62388619 0.00000349 1 
140 94 616 0 0.01632744 0.00611846 3 
141 294 617 2 2875.44207089 0.00000418 1 
142 615 620 2 5289.13668980 0.00000282 1 
143 611 622 2 389.87897311 0.00000274 1 
144 353 630 2 575.83766508 0.00000381 1 
145 94 632 0 2.17475260 0.00887698 5 
146 104 632 2 910.46981692 0.00000378 5 
147 94 637 0 4.44060757 0.00894110 5 
148 101 637 0 0.17849103 0.00757856 4 
149 101 642 0 0.11526450 0.00765145 4 
150 107 642 0 0.02329356 0.00765010 4 
151 101 645 0 6.63975962 0.00770490 4 
152 107 645 0 1.60037978 0.00769184 4 
153 101 657 0 0.71640562 0.00784620 4 
154 101 663 0 0.04820080 0.00656052 3 
155 107 663 0 0.02843847 0.00787234 4 
156 114 663 0 0.00288948 0.00794922 4 
157 101 665 0 1.53258563 0.00802614 4 
158 107 665 0 0.50315223 0.00797570 4 
159 114 665 0 0.12039232 0.00798369 4 
160 107 680 0 1.46586181 0.00818720 4 
161 107 683 0 0.94745397 0.00677689 3 
162 114 683 0 0.27116033 0.00821483 4 
163 107 704 0 0.33805994 0.00845155 4 
164 114 704 0 0.08809102 0.00838163 4 
165 335 704 2 1444.27755742 0.00000445 4 
166 107 714 0 1.75893069 0.00856580 4 
167 114 714 0 0.04086591 0.00849304 4 
168 447 717 2 416.22870628 0.00000393 1 
169 107 730 0 0.19854724 0.00875641 4 
170 114 730 0 0.02935662 0.00866443 4 
171 456 732 2 832.48098603 0.00000355 1 
172 466 750 2 32.70584793 0.00000399 1 
173 121 754 0 0.27407881 0.01054662 5 
174 126 754 0 0.06553750 0.00901590 4 
175 121 759 0 2.32290313 0.00901708 4 
176 126 759 0 0.22393646 0.00901031 4 
177 126 762 0 7.06053309 0.00906875 4 
178 132 762 0 1.98485834 0.00902353 4 
179 54 768 2 2708.29834624 0.00000411 1 
180 478 771 2 1880.97272543 0.00000342 1 
181 602 772 2 232.11165575 0.00000302 1 
182 643 774 2 346.88118442 0.00000362 1 
183 362 776 2 1120.59068210 0.00000378 1 
184 132 778 0 0.06632565 0.00761014 3 
185 132 792 0 1.26677973 0.00939749 4 
186 132 800 0 3.35738867 0.00949271 4 
187 138 800 0 0.16898197 0.00944432 4 
188 751 803 2 3142.76025179 0.00000495 1 
189 138 806 0 0.25394173 0.00957636 4 
190 138 821 0 0.40719415 0.00799759 3 
191 138 823 0 6.54867257 0.00974093 4 
192 204 825 2 1249.12895229 0.00000472 1 
193 151 828 0 3.03251672 0.01155857 5 
194 119 844 2 921.73870059 0.00000468 1 
195 151 847 0 0.09536304 0.01004014 4 
196 457 850 2 442.25168341 0.00000470 1 
197 151 855 0 0.11671010 0.00829988 3 
198 102 864 2 705.55490923 0.00000529 1 
199 151 895 0 2.80699176 0.01051955 4 
200 371 895 2 446.85038170 0.00000484 4 
201 151 897 0 0.06119264 0.00864335 3 
202 138 903 0 0.04372433 0.01059181 4 
203 138 904 0 7.05954387 0.01061265 4 
204 132 907 0 0.78713634 0.01256256 5 
205 138 907 0 0.23148369 0.01059733 4 
206 310 908 2 2295.78765934 0.00000516 1 
207 132 911 0 0.26281917 0.01071984 4 
208 121 923 0 0.65825461 0.01279852 5 
209 126 923 0 0.07323670 0.01083203 4 
210 734 926 2 1315.78059511 0.00000493 1 
211 107 929 0 0.21573533 0.01286536 5 
212 114 929 0 0.01508257 0.01089499 4 
213 107 935 0 5.15264063 0.01295585 5 
214 114 935 0 1.41028380 0.01291582 5 
215 101 939 0 0.47517857 0.01104423 4 
216 107 939 0 0.18953371 0.01098250 4 
217 835 939 2 196.10939277 0.00000513 4 
218 101 944 0 0.15689202 0.01110630 4 
219 810 946 2 781.60961886 0.00000544 1 
220 94 947 0 0.22038985 0.01117760 4 
221 101 947 0 0.16325471 0.01111546 4 
222 368 947 2 1185.05014416 0.00000463 4 
223 87 953 0 0.16095714 0.01127615 4 
224 94 953 0 0.06173109 0.01122084 4 
225 226 953 0 0.06305337 0.01118356 4 
226 81 959 0 1.96338458 0.01340684 5 
227 87 959 0 1.22768140 0.01132447 4 
228 220 959 0 0.05637165 0.01134181 4 
229 226 959 0 0.11758273 0.01132623 4 
230 67 965 0 0.93361138 0.01354923 5 
231 81 965 0 0.30922629 0.01143985 4 
232 220 965 0 0.15989857 0.01146097 4 
233 61 976 0 0.14999419 0.01166984 4 
234 67 976 0 0.06623675 0.01157432 4 
235 209 976 0 0.00608655 0.00947795 3 
236 50 982 0 0.35683864 0.01174332 4 
237 61 982 0 0.27550571 0.01166268 4 
238 201 982 0 0.20489482 0.01168207 4 
239 203 982 0 0.10734644 0.01166889 4 
240 239 982 2 518.84756875 0.00000446 4 
241 188 984 2 4690.19059770 0.00000549 1 
242 44 988 0 0.09191047 0.01183257 4 
243 50 988 0 0.05858538 0.01175962 4 
244 195 988 0 0.04105584 0.01177675 4 
245 201 988 0 0.02731289 0.00965748 3 
246 275 988 2 675.92333672 0.00000478 3 
247 44 994 0 0.51105627 0.01197489 4 
248 189 994 0 0.26873981 0.01190823 4 
249 195 994 0 0.21686561 0.01191600 4 
250 24 997 2 3673.11361544 0.00000627 1 
251 32 1003 0 0.21865227 0.01211108 4 
252 178 1003 0 0.02406829 0.01210505 4 
253 183 1003 0 0.01154218 0.01204191 4 
254 37 1003 2 14214.55498313 0.00000464 4 
255 956 1007 2 3225.57136282 0.00000626 1 
256 25 1008 0 1.31763343 0.01217122 4 
257 32 1008 0 0.53546593 0.01214409 4 
258 178 1008 0 0.35859792 0.01214054 4 
259 183 1008 0 0.21433690 0.01214762 4 
260 25 1010 0 0.57625147 0.01221879 4 
261 32 1010 0 0.31694219 0.01217793 4 
262 172 1010 0 0.09229015 0.01219970 4 
263 178 1010 0 0.18624583 0.00998754 3 
264 19 1016 0 0.39096925 0.01235460 4 
265 166 1016 0 0.19149363 0.01230371 4 
266 172 1016 0 0.08569507 0.01010984 3 
267 651 1016 2 3239.25448308 0.00000519 3 
268 270 1017 2 290.36511909 0.00000607 1 
269 16 1027 2 912.91302556 0.00000634 1 
270 151 1029 0 0.10355949 0.01255186 4 
271 157 1029 0 0.03081669 0.01020389 3 
272 163 1029 0 1.58697010 0.01246682 4 
273 166 1029 0 0.36944247 0.01247624 4 
274 240 1029 2 665.74226878 0.00000489 4 
275 240 1032 2 2459.16108340 0.00000658 1 
276 928 1062 2 319.53503270 0.00000586 1 
277 1008 1070 2 172.06180571 0.00000615 1 
278 636 1083 2 310.95357813 0.00000622 1 
279 132 1084 0 4.06434611 0.01558003 5 
280 64 1096 2 1478.96425255 0.00000607 1 
281 611 1102 2 416.84395813 0.00000616 1 
282 628 1128 2 465.34316927 0.00000659 1 
283 913 1133 2 431.59699443 0.00000612 1 
284 37 1137 2 161.68763474 0.00000639 1 
285 101 1138 0 0.55433545 0.01623903 5 
286 351 1143 2 591.32278351 0.00000654 1 
287 107 1147 0 0.70063461 0.01635000 5 
288 114 1147 0 0.04778047 0.01132052 3 
289 563 1149 2 2390.46555109 0.00000625 1 
290 107 1150 0 7.48867580 0.01391749 4 
291 114 1150 0 0.97478986 0.01386936 4 
292 114 1158 0 0.17517801 0.01403935 4 
293 121 1158 0 0.59997078 0.01655298 5 
294 390 1162 2 1394.58016822 0.00000543 1 
295 1029 1163 2 1891.10444267 0.00000593 1 
296 121 1164 0 0.53023647 0.01412824 4 
297 126 1164 0 0.07580671 0.01408186 4 
298 948 1165 2 6943.94481635 0.00000647 1 
299 617 1174 2 487.17287230 0.00000629 1 
300 114 1175 0 0.19782721 0.01427230 4 
301 121 1175 0 0.30822876 0.01420503 4 
302 923 1175 0 0.19466562 0.01677210 5 
303 929 1175 0 0.22855131 0.01425683 4 
304 1158 1175 0 0.00152048 0.01163931 3 
305 86 1176 2 6502.49481543 0.00000623 1 
306 101 1188 0 0.37159542 0.01447178 4 
307 939 1188 0 0.58191602 0.01437673 4 
308 1138 1188 0 0.02787987 0.01176149 3 
309 1147 1188 0 0.04418330 0.01446059 4 
310 1150 1188 0 1.81453895 0.01441374 4 
311 1065 1195 2 324.32199770 0.00000696 1 
312 1186 1200 2 434.63159369 0.00000588 1 
313 126 1200 2 689.71253771 0.00000209 1 
314 760 1204 2 735.39741636 0.00000649 1 
315 1050 1210 0 0.01393249 0.01470945 4 
316 1061 1210 0 0.57860630 0.01730747 5 
317 1075 1210 0 0.22844754 0.01728961 5 
318 1084 1210 0 3.18001661 0.01742608 5 
319 1088 1210 0 0.59761689 0.01467328 4 
320 1093 1210 0 0.13678252 0.01201429 3 
321 1098 1210 0 0.05081074 0.01469225 4 
322 385 1214 2 1774.83831750 0.00000608 1 
323 261 1215 2 660.54190874 0.00000590 1 
324 157 1217 0 0.37659733 0.01486016 4 
325 163 1217 0 0.07979462 0.01483583 4 
326 1029 1217 0 0.00397631 0.01196789 3 
327 1044 1217 0 4.05020598 0.01738992 5 
328 1050 1217 0 4.91310314 0.01741188 5 
329 26 1227 2 2078.88513566 0.00000679 1 
330 189 400 0 2.11363966 0.01556240 4 
331 1056 1217 0 9.81592628 0.01772469 5 
