1 41 123 0.00122196 6 
2 46 141 0.00165018 7 
3 19 166 0.00290422 10 
4 19 172 0.00309649 10 
5 25 172 0.00311709 10 
6 137 174 0.00318748 10 
7 25 178 0.00326293 10 
8 32 178 0.00328706 10 
9 32 183 0.00337808 10 
10 44 189 0.00354043 10 
11 44 195 0.00406922 10 
12 50 195 0.00364203 10 
13 75 196 0.00367631 10 
14 99 198 0.00372260 10 
15 32 200 0.00380673 10 
16 50 201 0.00391609 10 
17 50 203 0.00387008 10 
18 61 203 0.00390207 10 
19 61 209 0.00402512 10 
20 67 209 0.00402240 10 
21 111 218 0.00424146 10 
22 67 220 0.00427504 10 
23 81 220 0.00431810 10 
24 81 226 0.00459333 10 
25 87 226 0.00444951 10 
26 79 227 0.00446154 10 
27 87 231 0.00458169 10 
28 94 231 0.00457887 10 
29 226 231 0.00457679 10 
30 94 241 0.00475468 10 
31 101 241 0.00482006 10 
32 101 247 0.00493673 10 
33 107 247 0.00494972 10 
34 242 248 0.00498374 10 
35 107 254 0.00512111 10 
36 114 254 0.00516184 10 
37 107 256 0.00519179 10 
38 114 256 0.00521680 10 
39 107 258 0.00523114 10 
40 114 258 0.00525503 10 
41 121 266 0.00543602 10 
42 126 266 0.00554909 10 
43 262 269 0.00561508 10 
44 126 272 0.00569726 10 
45 132 272 0.00571882 10 
46 221 277 0.00590992 10 
47 132 278 0.00592033 10 
48 138 278 0.00600178 10 
49 138 284 0.00611696 10 
50 151 284 0.00613518 10 
51 28 285 0.00629234 10 
52 241 289 0.00643158 10 
53 151 291 0.00650115 10 
54 38 293 0.00651595 10 
55 151 297 0.00662160 10 
56 157 297 0.00665539 10 
57 163 297 0.00665456 10 
58 166 297 0.00666292 10 
59 281 297 0.00673509 10 
60 19 305 0.00687481 10 
61 157 305 0.00689635 10 
62 163 305 0.00688372 10 
63 166 305 0.00689706 10 
64 172 305 0.00688976 10 
65 226 312 0.00710599 10 
66 19 315 0.00718152 10 
67 25 315 0.00720122 10 
68 172 315 0.00720963 10 
69 172 328 0.00747195 10 
70 19 337 0.00763009 10 
71 25 337 0.00765448 10 
72 172 337 0.00766363 10 
73 19 342 0.00775949 10 
74 25 342 0.00777510 10 
75 172 342 0.00778452 10 
76 178 342 0.00782842 10 
77 50 362 0.00827458 10 
78 25 367 0.00835835 10 
79 32 367 0.00836562 10 
80 178 367 0.00839983 10 
81 183 367 0.00843117 10 
82 151 370 0.00849422 10 
83 25 374 0.00856949 10 
84 32 374 0.00857548 10 
85 178 374 0.00876094 10 
86 183 374 0.00861732 10 
87 271 378 0.00880678 10 
88 32 382 0.00892888 10 
89 183 382 0.00895074 10 
90 185 385 0.00905927 10 
91 32 387 0.00910908 10 
92 183 387 0.00911940 10 
93 140 390 0.00925186 10 
94 233 397 0.00951868 10 
95 189 400 0.00958429 10 
96 315 406 0.00994678 10 
97 189 414 0.01012017 10 
98 410 416 0.01016503 10 
99 344 428 0.01032188 10 
100 198 434 0.01051882 10 
101 44 437 0.01059509 10 
102 195 437 0.01067919 10 
103 377 442 0.01086208 10 
104 342 450 0.01096764 10 
105 44 454 0.01112631 10 
106 189 454 0.01121055 10 
107 203 460 0.01138716 10 
108 44 467 0.01150127 10 
109 50 467 0.01153829 10 
110 195 467 0.01154366 10 
111 195 484 0.01186562 10 
112 48 489 0.01202247 10 
113 44 494 0.01214048 10 
114 50 494 0.01215539 10 
115 195 494 0.01218353 10 
116 201 494 0.01227340 10 
117 50 500 0.01239743 10 
118 201 500 0.01239850 10 
119 203 500 0.01241106 10 
120 110 503 0.01262797 10 
121 392 505 0.01277016 10 
122 411 506 0.01291729 10 
123 61 508 0.01303306 10 
124 203 508 0.01307773 10 
125 209 508 0.01308398 10 
126 450 511 0.01333313 10 
127 61 522 0.01341441 10 
128 203 522 0.01341507 10 
129 209 522 0.01337349 10 
130 290 525 0.01377890 10 
131 149 525 0.01387221 10 
132 61 528 0.01369030 10 
133 67 528 0.01371211 10 
134 81 528 0.01381172 10 
135 209 528 0.01384158 10 
136 220 528 0.01378856 10 
137 67 532 0.01389913 10 
138 81 532 0.01391549 10 
139 220 532 0.01401982 10 
140 239 533 0.01417147 10 
141 408 540 0.01433800 10 
142 336 550 0.01468320 10 
143 488 550 0.01486975 10 
144 59 555 0.01486323 10 
145 67 556 0.01503676 10 
146 234 562 0.01526649 10 
147 57 562 0.01528143 10 
148 67 564 0.01532945 10 
149 81 564 0.01562544 10 
150 220 564 0.01544331 10 
151 195 565 0.01544324 10 
152 315 566 0.01545269 10 
153 67 567 0.01549131 10 
154 81 567 0.01550391 10 
155 220 567 0.01552625 10 
156 67 570 0.01559166 10 
157 81 570 0.01559475 10 
158 220 570 0.01562093 10 
159 81 575 0.01571440 10 
160 220 575 0.01571197 10 
161 340 583 0.01615052 10 
162 81 588 0.01628317 10 
163 87 588 0.01624824 10 
164 226 588 0.01645189 10 
165 54 594 0.01663389 10 
166 87 597 0.01663538 10 
167 94 597 0.01660362 10 
168 226 597 0.01662321 10 
169 407 598 0.01684979 10 
170 87 604 0.01728075 10 
171 94 604 0.01703998 10 
172 382 606 0.01734312 10 
173 94 616 0.01766676 10 
174 428 616 0.01767592 10 
175 517 630 0.01861475 10 
176 94 632 0.01857256 10 
177 134 635 0.01885459 10 
178 380 636 0.01847216 10 
179 94 637 0.01850289 10 
180 101 637 0.01856737 10 
181 68 640 0.01889820 10 
182 101 642 0.01890728 10 
183 107 642 0.01907889 10 
184 101 645 0.01915977 10 
185 107 645 0.01921427 10 
186 101 657 0.01938657 10 
187 497 658 0.01953804 10 
188 514 660 0.02045095 10 
189 101 663 0.02052104 10 
190 107 663 0.02051716 10 
191 114 663 0.02054090 10 
192 101 665 0.02057638 10 
193 107 665 0.02057170 10 
194 114 665 0.02057423 10 
195 595 669 0.02125189 10 
196 444 669 0.02105890 10 
197 449 671 0.02112772 10 
198 210 672 0.02121801 10 
199 223 673 0.02151417 10 
200 97 677 0.02151243 10 
201 578 677 0.02199482 10 
202 593 678 0.02205701 10 
203 107 680 0.02232973 10 
204 296 682 0.02256884 10 
205 107 683 0.02263299 10 
206 114 683 0.02291227 10 
207 382 683 0.02303418 10 
208 485 684 0.02337171 10 
209 167 688 0.02345765 10 
210 420 693 0.02400649 10 
211 107 704 0.02428301 10 
212 114 704 0.02429082 10 
213 40 709 0.02461002 10 
214 107 714 0.02456100 10 
215 114 714 0.02455774 10 
216 285 714 0.02466694 10 
217 605 716 0.02542958 10 
218 215 719 0.02569237 10 
219 592 723 0.02547432 10 
220 107 730 0.02558402 10 
221 114 730 0.02589619 10 
222 166 733 0.02571974 10 
223 129 733 0.02691135 10 
224 350 733 0.02609907 10 
225 85 734 0.02634784 10 
226 454 737 0.02676809 10 
227 532 742 0.02714937 10 
228 402 748 0.02714860 10 
229 216 751 0.02720231 10 
230 121 754 0.02780395 10 
231 126 754 0.02803440 10 
232 179 754 0.02857046 10 
233 753 758 0.02862899 10 
234 121 759 0.02841674 10 
235 126 759 0.02840881 10 
236 495 761 0.02879597 10 
237 126 762 0.02885146 10 
238 132 762 0.02870201 10 
239 445 767 0.02891321 10 
240 46 768 0.02897437 10 
241 745 770 0.02952618 10 
242 137 770 0.02969830 10 
243 702 770 0.02970060 10 
244 132 778 0.03065563 10 
245 671 778 0.03025413 10 
246 716 781 0.03001404 10 
247 341 785 0.03007139 10 
248 295 790 0.03056029 10 
249 132 792 0.03084103 10 
250 376 793 0.03123559 10 
251 791 796 0.03126979 10 
252 132 800 0.03129999 10 
253 138 800 0.03134026 10 
254 138 806 0.03143385 10 
255 287 816 0.03149939 10 
256 173 817 0.03160318 10 
257 719 817 0.03161554 10 
258 138 821 0.03172447 10 
259 138 823 0.03173717 10 
260 639 825 0.03207181 10 
261 322 825 0.03213319 10 
262 456 827 0.03225807 10 
263 151 828 0.03255882 10 
264 490 830 0.03264861 10 
265 513 830 0.03315428 10 
266 321 831 0.03305218 10 
267 120 831 0.03300562 10 
268 523 834 0.03371206 10 
269 451 837 0.03368024 10 
270 359 838 0.03378318 10 
271 248 845 0.03398696 10 
272 151 847 0.03402933 10 
273 786 851 0.03391698 10 
274 237 851 0.03401345 10 
275 846 852 0.03400240 10 
276 151 855 0.03410084 10 
277 189 863 0.03444463 10 
278 500 863 0.03445667 10 
279 154 869 0.03417255 10 
280 523 877 0.03501610 10 
281 654 879 0.03535022 10 
282 53 888 0.03570124 10 
283 741 889 0.03648844 10 
284 151 895 0.03617510 10 
285 151 897 0.03662438 10 
286 694 901 0.03645594 10 
287 425 901 0.03719170 10 
288 138 903 0.03679948 10 
289 138 904 0.03727540 10 
290 815 904 0.03625553 10 
291 132 907 0.03665355 10 
292 138 907 0.03714646 10 
293 586 909 0.03675894 10 
294 132 911 0.03722461 10 
295 738 912 0.03810409 10 
296 591 915 0.03742858 10 
297 277 917 0.03706551 10 
298 71 918 0.03754539 10 
299 321 922 0.03738783 10 
300 121 923 0.03840785 10 
301 126 923 0.03840576 10 
302 107 929 0.03804832 10 
303 114 929 0.03852083 10 
304 605 933 0.03767971 10 
305 107 935 0.03774577 10 
306 114 935 0.03822652 10 
307 101 939 0.03853580 10 
308 107 939 0.03887777 10 
309 728 941 0.02685096 7 
310 121 943 0.03873007 10 
311 101 944 0.03874290 10 
312 94 947 0.03815914 10 
313 101 947 0.03866982 10 
314 638 947 0.03984962 10 
315 729 947 0.03989743 10 
316 87 953 0.03947204 10 
317 94 953 0.03994648 10 
318 226 953 0.03912680 10 
319 81 959 0.03876926 10 
320 87 959 0.03931431 10 
321 220 959 0.03932189 10 
322 226 959 0.03927812 10 
323 60 964 0.03960682 10 
324 944 964 0.03942285 10 
325 67 965 0.03900797 10 
326 81 965 0.03946246 10 
327 220 965 0.03942938 10 
328 301 967 0.04088353 10 
329 798 968 0.04104015 10 
330 835 969 0.04132544 10 
331 61 976 0.04110885 10 
332 67 976 0.04160497 10 
333 209 976 0.04183928 10 
334 50 982 0.04183232 10 
335 61 982 0.04216478 10 
336 201 982 0.04202368 10 
337 203 982 0.04249570 10 
338 163 982 0.04287126 10 
339 960 984 0.04171809 10 
340 255 985 0.04263143 10 
341 44 988 0.04265147 10 
342 50 988 0.04292311 10 
343 195 988 0.04295802 10 
344 201 988 0.03895757 9 
345 692 988 0.04311803 10 
346 972 993 0.04299651 10 
347 44 994 0.04321980 10 
348 189 994 0.04382284 10 
349 195 994 0.04385198 10 
350 539 995 0.04505111 10 
351 892 996 0.04449562 10 
352 32 1003 0.04467348 10 
353 178 1003 0.04523615 10 
354 183 1003 0.04463929 10 
355 394 1005 0.04414093 10 
356 25 1008 0.04439019 10 
357 32 1008 0.04530710 10 
358 178 1008 0.04538441 10 
359 183 1008 0.04542974 10 
360 552 1008 0.04554608 10 
361 25 1010 0.04503542 10 
362 32 1010 0.04559426 10 
363 172 1010 0.04583531 10 
364 178 1010 0.04584147 10 
365 379 1010 0.04162274 9 
366 803 1013 0.04613406 10 
367 245 1013 0.04681983 10 
368 19 1016 0.04526398 10 
369 166 1016 0.04582263 10 
370 172 1016 0.04586850 10 
371 990 1021 0.04743768 10 
372 395 1021 0.04842184 10 
373 926 1025 0.04765140 10 
374 826 1026 0.04761205 10 
375 151 1029 0.04767286 10 
376 157 1029 0.04933737 10 
377 163 1029 0.04902466 10 
378 166 1029 0.04910334 10 
379 973 1030 0.04881271 10 
380 255 1031 0.04799075 10 
381 309 1037 0.04839832 10 
382 928 1039 0.04929826 10 
383 543 1045 0.04975848 10 
384 1021 1050 0.04931785 10 
385 273 1057 0.05151293 10 
386 266 1064 0.05003294 10 
387 132 1084 0.05050743 10 
388 826 1089 0.05112916 10 
389 1045 1092 0.05117643 10 
390 1068 1094 0.05123002 10 
391 747 1101 0.05131495 10 
392 242 1103 0.05235461 10 
393 824 1113 0.05184930 10 
394 287 1118 0.05267269 10 
395 78 1118 0.05402886 10 
396 777 1118 0.05308471 10 
397 1088 1120 0.05365795 10 
398 369 1127 0.05512693 10 
399 162 1131 0.05381240 10 
400 64 1136 0.05390641 10 
401 101 1138 0.05394409 10 
402 365 1140 0.05440852 10 
403 935 1145 0.05583873 10 
404 407 1145 0.05591127 10 
405 107 1147 0.05585500 10 
406 114 1147 0.05587386 10 
407 726 1147 0.05483615 10 
408 107 1150 0.05489711 10 
409 114 1150 0.05513226 10 
410 144 1150 0.05581612 10 
411 787 1152 0.05559997 10 
412 648 1153 0.05650499 10 
413 1147 1154 0.05695764 10 
414 114 1158 0.05708964 10 
415 121 1158 0.05707398 10 
416 200 1158 0.05777449 10 
417 121 1164 0.05791957 10 
418 126 1164 0.05789443 10 
419 949 1166 0.05810140 10 
420 606 1166 0.05886100 10 
421 285 1170 0.05949370 10 
422 405 1171 0.05920702 10 
423 736 1174 0.05860001 10 
424 114 1175 0.05941948 10 
425 121 1175 0.05913979 10 
426 923 1175 0.05974036 10 
427 929 1175 0.05893809 10 
428 1158 1175 0.05930858 10 
429 956 1182 0.06020622 10 
430 101 1188 0.06031566 10 
431 939 1188 0.06067085 10 
432 1138 1188 0.06027284 10 
433 1147 1188 0.06031343 10 
434 1150 1188 0.06038168 10 
435 337 1191 0.06041295 10 
436 948 1192 0.06043027 10 
437 864 1201 0.06126574 10 
438 796 1204 0.06244698 10 
439 48 1206 0.06338343 10 
440 1050 1210 0.06405125 10 
441 1061 1210 0.06411027 10 
442 1075 1210 0.06408879 10 
443 1084 1210 0.06454595 10 
444 1088 1210 0.06408350 10 
445 1093 1210 0.06408309 10 
446 1098 1210 0.06410769 10 
447 1010 1214 0.06299471 10 
448 157 1217 0.06309209 10 
449 163 1217 0.06376904 10 
450 1029 1217 0.06381308 10 
451 1044 1217 0.06487895 10 
452 1050 1217 0.06457673 10 
453 1056 1217 0.06606110 10 
454 1191 1218 0.06430131 10 
455 1116 1220 0.06525640 10 
456 427 1225 0.06528088 10 
