1 19 166 0.00297764 10 
2 125 166 0.00299226 10 
3 19 172 0.00309579 10 
4 25 172 0.00319875 10 
5 25 178 0.00331251 10 
6 32 178 0.00330401 10 
7 32 183 0.00341078 10 
8 44 189 0.00350451 10 
9 44 195 0.00363058 10 
10 50 195 0.00362136 10 
11 50 201 0.00373506 10 
12 50 203 0.00378281 10 
13 61 203 0.00377084 10 
14 61 209 0.00387975 10 
15 67 209 0.00387796 10 
16 158 210 0.00385659 10 
17 67 220 0.00405771 10 
18 81 220 0.00407109 10 
19 81 226 0.00418464 10 
20 87 226 0.00419205 10 
21 87 231 0.00426648 10 
22 94 231 0.00427887 10 
23 226 231 0.00429006 10 
24 94 241 0.00449566 10 
25 101 241 0.00449703 10 
26 101 247 0.00460875 10 
27 107 247 0.00462425 10 
28 107 254 0.00477489 10 
29 114 254 0.00476167 10 
30 107 256 0.00482863 10 
31 114 256 0.00481738 10 
32 107 258 0.00484628 10 
33 114 258 0.00484304 10 
34 121 266 0.00500892 10 
35 126 266 0.00510369 10 
36 126 272 0.00522433 10 
37 132 272 0.00524800 10 
38 132 278 0.00535907 10 
39 138 278 0.00537737 10 
40 138 284 0.00546843 10 
41 151 284 0.00548497 10 
42 151 291 0.00561612 10 
43 151 297 0.00573232 10 
44 157 297 0.00574379 10 
45 163 297 0.00582122 10 
46 166 297 0.00578759 10 
47 193 298 0.00592982 10 
48 19 305 0.00610144 10 
49 157 305 0.00609729 10 
50 163 305 0.00616081 10 
51 166 305 0.00613140 10 
52 172 305 0.00614868 10 
53 19 315 0.00554447 9 
54 25 315 0.00621921 10 
55 172 315 0.00638900 10 
56 172 328 0.00644464 10 
57 19 337 0.00528295 8 
58 25 337 0.00668066 10 
59 172 337 0.00684017 10 
60 19 342 0.00673358 10 
61 25 342 0.00695860 10 
62 172 342 0.00350304 5 
63 178 342 0.00685330 10 
64 25 367 0.00431658 6 
65 32 367 0.00434124 6 
66 178 367 0.00432195 6 
67 183 367 0.00505974 7 
68 220 373 0.00667788 9 
69 25 374 0.00753499 10 
70 32 374 0.00772443 10 
71 178 374 0.00540029 7 
72 183 374 0.00674781 9 
73 50 376 0.00527748 7 
74 32 382 0.00695136 9 
75 183 382 0.00776276 10 
76 32 387 0.00785552 10 
77 183 387 0.00483323 6 
78 131 392 0.00476580 6 
79 189 400 0.00826204 10 
80 95 403 0.00664094 8 
81 189 414 0.00861016 10 
82 179 419 0.00878820 10 
83 44 437 0.00915485 10 
84 195 437 0.00933623 10 
85 118 438 0.00945348 10 
86 44 454 0.00955109 10 
87 189 454 0.00977065 10 
88 44 467 0.00979448 10 
89 50 467 0.01002693 10 
90 195 467 0.01009761 10 
91 35 472 0.00994867 10 
92 195 484 0.01019863 10 
93 44 494 0.00716923 7 
94 50 494 0.01040854 10 
95 195 494 0.01068416 10 
96 201 494 0.01075301 10 
97 471 497 0.01049782 10 
98 50 500 0.01067521 10 
99 201 500 0.01092147 10 
100 203 500 0.01099846 10 
101 480 501 0.01076806 10 
102 299 505 0.01095021 10 
103 61 508 0.01105289 10 
104 203 508 0.01132585 10 
105 209 508 0.01132721 10 
106 337 512 0.01132291 10 
107 304 521 0.01155036 10 
108 61 522 0.01145827 10 
109 203 522 0.01175482 10 
110 209 522 0.01177515 10 
111 61 528 0.01160453 10 
112 67 528 0.01190773 10 
113 81 528 0.01199053 10 
114 209 528 0.01197335 10 
115 220 528 0.01198137 10 
116 67 532 0.00936340 8 
117 81 532 0.01184421 10 
118 220 532 0.01210812 10 
119 190 532 0.01220155 10 
120 20 549 0.01235112 10 
121 203 550 0.01268564 10 
122 67 556 0.01286612 10 
123 62 558 0.01017116 8 
124 67 564 0.01293814 10 
125 81 564 0.01311118 10 
126 220 564 0.01305125 10 
127 67 567 0.01292388 10 
128 81 567 0.01325731 10 
129 220 567 0.01324675 10 
130 67 570 0.01300540 10 
131 81 570 0.01329158 10 
132 220 570 0.01328524 10 
133 270 573 0.01358762 10 
134 81 575 0.01363753 10 
135 220 575 0.01544290 10 
136 303 579 0.01382162 10 
137 81 588 0.01367192 10 
138 87 588 0.01405536 10 
139 226 588 0.01408444 10 
140 87 597 0.01440388 10 
141 94 597 0.01429592 10 
142 226 597 0.01427581 10 
143 87 604 0.01412339 10 
144 94 604 0.01444909 10 
145 0 615 0.01459541 10 
146 94 616 0.01494552 10 
147 361 617 0.01527294 10 
148 441 622 0.01525817 10 
149 463 624 0.01536204 10 
150 94 632 0.01577152 10 
151 484 636 0.01582343 10 
152 569 636 0.01603821 10 
153 94 637 0.01607678 10 
154 101 637 0.01581191 10 
155 390 638 0.01595675 10 
156 414 640 0.01641819 10 
157 101 642 0.01623722 10 
158 107 642 0.01651189 10 
159 101 645 0.01655238 10 
160 107 645 0.01655617 10 
161 540 649 0.01664485 10 
162 415 650 0.01657643 10 
163 101 657 0.01674992 10 
164 126 658 0.01723406 10 
165 149 660 0.01737870 10 
166 101 663 0.01747893 10 
167 107 663 0.01742899 10 
168 114 663 0.01744461 10 
169 101 665 0.01747831 10 
170 107 665 0.01747777 10 
171 114 665 0.01752436 10 
172 124 669 0.01760247 10 
173 656 670 0.01768437 10 
174 309 671 0.01790597 10 
175 107 680 0.01813315 10 
176 107 683 0.01819563 10 
177 114 683 0.01818517 10 
178 153 698 0.01857112 10 
179 494 698 0.01881159 10 
180 107 704 0.01893123 10 
181 114 704 0.01894871 10 
182 107 714 0.01915178 10 
183 114 714 0.01913877 10 
184 107 730 0.01943824 10 
185 114 730 0.01951912 10 
186 67 730 0.01969801 10 
187 117 732 0.01957674 10 
188 121 754 0.02011654 10 
189 126 754 0.02002678 10 
190 121 759 0.02015115 10 
191 126 759 0.02015930 10 
192 126 762 0.02021890 10 
193 132 762 0.02049314 10 
194 542 772 0.02270987 10 
195 171 773 0.02105227 10 
196 132 778 0.02142085 10 
197 41 779 0.02157473 10 
198 333 787 0.02202530 10 
199 120 788 0.02206298 10 
200 132 792 0.02213511 10 
201 132 800 0.02234086 10 
202 138 800 0.15145520 10 
203 138 806 0.02245784 10 
204 76 809 0.02269555 10 
205 50 813 0.02288197 10 
206 138 821 0.02304940 10 
207 138 823 0.02312006 10 
208 151 828 0.02327259 10 
209 176 828 0.02335096 10 
210 219 830 0.02361590 10 
211 636 843 0.02401632 10 
212 151 847 0.02407674 10 
213 329 850 0.02448071 10 
214 151 855 0.02459188 10 
215 427 870 0.02481266 10 
216 493 871 0.02530959 10 
217 370 872 0.02561308 10 
218 567 880 0.02563679 10 
219 582 892 0.02617127 10 
220 156 893 0.02670852 10 
221 151 895 0.02635437 10 
222 151 897 0.02641024 10 
223 138 903 0.02656521 10 
224 374 903 0.02661355 10 
225 138 904 0.02663049 10 
226 398 906 0.02731766 10 
227 132 907 0.02714910 10 
228 138 907 0.02708185 10 
229 132 911 0.02716576 10 
230 585 917 0.02743968 10 
231 483 919 0.02788453 10 
232 121 923 0.02819142 10 
233 126 923 0.02786314 10 
234 196 925 0.02831323 10 
235 107 929 0.02846665 10 
236 114 929 0.02874454 10 
237 107 935 0.02899723 10 
238 114 935 0.02893278 10 
239 101 939 0.02909905 10 
240 107 939 0.02863168 10 
241 101 944 0.02895073 10 
242 263 945 0.02935549 10 
243 94 947 0.02920964 10 
244 101 947 0.02938887 10 
245 369 949 0.02924739 10 
246 87 953 0.02940384 10 
247 94 953 0.02941066 10 
248 226 953 0.02944575 10 
249 81 959 0.02955716 10 
250 87 959 0.02955266 10 
251 220 959 0.02954817 10 
252 226 959 0.02958238 10 
253 955 960 0.02956729 10 
254 67 965 0.02971051 10 
255 81 965 0.02972877 10 
256 220 965 0.02974744 10 
257 164 966 0.03047562 10 
258 829 968 0.03046854 10 
259 267 970 0.03045487 10 
260 61 976 0.03083131 10 
261 67 976 0.03050394 10 
262 209 976 0.03050704 10 
263 205 978 0.03072042 10 
264 50 982 0.03078340 10 
265 61 982 0.03081631 10 
266 201 982 0.03087152 10 
267 203 982 0.03088978 10 
268 44 988 0.03097173 10 
269 50 988 0.03097931 10 
270 195 988 0.03099347 10 
271 201 988 0.03100216 10 
272 44 994 0.03108765 10 
273 189 994 0.03112017 10 
274 195 994 0.03113493 10 
275 32 1003 0.03129663 10 
276 178 1003 0.03130952 10 
277 183 1003 0.03155732 10 
278 25 1008 0.03165189 10 
279 32 1008 0.03168602 10 
280 178 1008 0.03170374 10 
281 183 1008 0.03166781 10 
282 25 1010 0.03169973 10 
283 32 1010 0.03169939 10 
284 172 1010 0.03183889 10 
285 178 1010 0.03185780 10 
286 19 1016 0.03196543 10 
287 166 1016 0.03219416 10 
288 172 1016 0.03218082 10 
289 263 1017 0.03207007 10 
290 714 1017 0.03232148 10 
291 701 1018 0.03221540 10 
292 141 1023 0.03193319 10 
293 312 1024 0.02874722 9 
294 41 1027 0.03250707 10 
295 151 1029 0.03205025 10 
296 157 1029 0.03310874 10 
297 163 1029 0.03321799 10 
298 166 1029 0.03310830 10 
299 808 1044 0.03294525 10 
300 113 1045 0.03283670 10 
301 824 1059 0.03309426 10 
302 132 1084 0.03347852 10 
303 172 1085 0.03400550 10 
304 412 1111 0.03395041 10 
305 575 1122 0.03473658 10 
306 1044 1123 0.03511092 10 
307 799 1128 0.03529289 10 
308 161 1133 0.03565465 10 
309 543 1134 0.03558646 10 
310 570 1134 0.03581619 10 
311 335 1137 0.03597864 10 
312 101 1138 0.03606733 10 
313 348 1142 0.03672812 10 
314 107 1147 0.03723703 10 
315 114 1147 0.03719718 10 
316 107 1150 0.03720885 10 
317 114 1150 0.03722725 10 
318 806 1155 0.03762175 10 
319 114 1158 0.03768545 10 
320 121 1158 0.03768362 10 
321 447 1163 0.03779106 10 
322 121 1164 0.03789018 10 
323 126 1164 0.03791632 10 
324 114 1175 0.03806339 10 
325 121 1175 0.03808147 10 
326 923 1175 0.03844743 10 
327 929 1175 0.03853059 10 
328 1158 1175 0.03793791 10 
329 317 1179 0.03913602 10 
330 393 1184 0.03900524 10 
331 101 1188 0.03906556 10 
332 939 1188 0.03902996 10 
333 1138 1188 0.03907683 10 
334 1147 1188 0.03997551 10 
335 1150 1188 0.04008119 10 
336 88 1191 0.04008960 10 
337 1030 1196 0.04034099 10 
338 135 1198 0.03999273 10 
339 557 1201 0.04038425 10 
340 21 1204 0.04046198 10 
341 598 1205 0.04072015 10 
342 68 1208 0.04131151 10 
343 1050 1210 0.04151026 10 
344 1061 1210 0.04124616 10 
345 1075 1210 0.04125790 10 
346 1084 1210 0.04124589 10 
347 1088 1210 0.04165171 10 
348 1093 1210 0.04165967 10 
349 1098 1210 0.04325808 10 
350 157 1217 0.04131054 10 
351 163 1217 0.04133396 10 
352 1029 1217 0.04137471 10 
353 1044 1217 0.04133649 10 
354 1050 1217 0.04144493 10 
355 1056 1217 0.04151273 10 
356 889 1226 0.04142351 10 
