VERTEX2 0 -0.00013818 0.00000037 -0.00001004
VERTEX2 1 -0.00013819 0.00000037 -0.00065204
VERTEX2 2 -0.00013821 0.00000037 -0.00119004
VERTEX2 3 0.01086363 -0.00097472 -0.00357204
VERTEX2 4 0.64087009 -0.01120619 -0.00745404
VERTEX2 5 0.76390464 -0.01208344 -0.09620214
VERTEX2 6 0.52981613 0.19003914 -0.88584156
VERTEX2 7 0.35949714 0.69591233 -1.49354197
VERTEX2 8 0.48272800 1.27469609 -2.09868565
VERTEX2 9 0.82061979 1.58202314 -2.72932167
VERTEX2 10 1.01247446 1.62053174 2.94497134
VERTEX2 11 0.82625745 1.72799141 2.27682971
VERTEX2 12 0.78938968 2.28772688 1.63438349
VERTEX2 13 0.93482592 2.85395288 0.98211440
VERTEX2 14 1.27514987 3.12620678 0.37938511
VERTEX2 15 1.43089201 3.14738120 -0.14190209
VERTEX2 16 1.72613962 3.11362482 -0.15994343
VERTEX2 17 2.31579049 3.03668096 -0.19213636
VERTEX2 18 2.91950904 2.94885207 -0.20483016
VERTEX2 19 3.50209749 2.83494333 -0.25780863
VERTEX2 20 4.10107442 2.68612653 -0.25138634
VERTEX2 21 4.71707084 2.57499436 -0.13930436
VERTEX2 22 5.33418516 2.47503733 -0.12170108
VERTEX2 23 5.98427802 2.47366611 -0.01412071
VERTEX2 24 6.62530019 2.44470651 -0.07125297
VERTEX2 25 7.26973098 2.41945853 -0.06873903
VERTEX2 26 7.88677022 2.35756120 -0.10916939
VERTEX2 27 8.51041154 2.30537585 -0.09328686
VERTEX2 28 9.09998318 2.24370005 -0.09772572
VERTEX2 29 9.48502064 2.21012083 -0.06697680
VERTEX2 30 9.49580591 2.20796734 -0.59915065
VERTEX2 31 9.59981062 2.08540513 -0.86756011
VERTEX2 32 9.99442180 1.60186227 -0.88616698
VERTEX2 33 10.40082354 1.13217461 -0.83397677
VERTEX2 34 10.83739272 0.67865631 -0.81178539
VERTEX2 35 11.28471087 0.23304351 -0.77650282
VERTEX2 36 11.73944324 -0.21321670 -0.78426222
VERTEX2 37 12.03638206 -0.50125939 -0.77585734
VERTEX2 38 12.02599660 -0.48906697 -1.09622980
VERTEX2 39 12.01488805 -0.45192490 -1.26611683
VERTEX2 40 12.19184235 -0.98318409 -1.24812730
VERTEX2 41 12.37674121 -1.53907513 -1.27944870
VERTEX2 42 12.53229244 -2.05930206 -1.30156514
VERTEX2 43 12.67559805 -2.61090346 -1.34119923
VERTEX2 44 12.80304789 -3.16211802 -1.37766390
VERTEX2 45 12.90378013 -3.76937763 -1.43373795
VERTEX2 46 12.98054832 -4.38006709 -1.45367657
VERTEX2 47 13.04621251 -4.99123055 -1.49596273
VERTEX2 48 13.08852025 -5.60813510 -1.50310999
VERTEX2 49 13.12645229 -6.22121873 -1.55462781
VERTEX2 50 13.11617230 -6.80453547 -1.59982734
VERTEX2 51 13.10414277 -7.39744672 -1.62934904
VERTEX2 52 13.04950188 -7.97945394 -1.70659285
VERTEX2 53 12.99001122 -8.53603118 -1.69472017
VERTEX2 54 12.91431780 -9.04754374 -1.75734774
VERTEX2 55 12.91971426 -9.00829802 -1.75255279
VERTEX2 56 12.92060807 -9.00356021 -1.74246364
VERTEX2 57 12.82066221 -9.62282625 -1.75436068
VERTEX2 58 12.71709803 -10.23041976 -1.70868629
VERTEX2 59 12.63028396 -10.83638265 -1.73280706
VERTEX2 60 12.54231102 -11.43864688 -1.71197919
VERTEX2 61 12.44832381 -12.04166350 -1.76331754
VERTEX2 62 12.33690788 -12.59809462 -1.72398608
VERTEX2 63 12.22372464 -13.15971169 -1.76000574
VERTEX2 64 12.12622859 -13.71546466 -1.69721820
VERTEX2 65 12.02875236 -14.26964875 -1.74929237
VERTEX2 66 11.91403877 -14.85543041 -1.75801076
VERTEX2 67 11.78763572 -15.44601968 -1.75737066
VERTEX2 68 11.70598457 -15.89616416 -1.77326798
VERTEX2 69 11.70930962 -15.88240426 -1.92837488
VERTEX2 70 11.71663974 -15.86604452 -2.60314286
VERTEX2 71 11.74129446 -15.86312372 3.03701733
VERTEX2 72 11.75516974 -15.86393592 3.02745095
VERTEX2 73 11.76348560 -15.86546939 2.96241120
VERTEX2 74 11.76315837 -15.86526377 2.34027978
VERTEX2 75 11.77024584 -15.86756102 1.98774244
VERTEX2 76 11.75688685 -15.85440981 2.68125968
VERTEX2 77 11.75270074 -15.85293675 2.91407659
VERTEX2 78 11.47393164 -15.87988239 -3.03215115
VERTEX2 79 10.86086243 -15.95421886 -3.03749275
VERTEX2 80 10.23154133 -15.98925337 -3.11210163
VERTEX2 81 9.60837746 -15.99881781 -3.13817133
VERTEX2 82 9.02384096 -15.99686067 3.08944231
VERTEX2 83 8.45054485 -15.98289868 3.06447474
VERTEX2 84 7.90156682 -15.93245342 2.98527485
VERTEX2 85 7.36945519 -15.86177855 2.99153537
VERTEX2 86 6.75819305 -15.77307510 2.90170375
VERTEX2 87 6.30289364 -15.66229666 2.85370686
VERTEX2 88 5.93047288 -15.54722621 2.82352522
VERTEX2 89 5.94326943 -15.54709215 -3.06407760
VERTEX2 90 5.34567588 -15.58217749 -3.09538404
VERTEX2 91 4.73672850 -15.61010758 -3.04644005
VERTEX2 92 4.14404509 -15.63724906 3.12100084
VERTEX2 93 3.51862466 -15.56739998 3.02014447
VERTEX2 94 2.88923053 -15.46134721 2.97748431
VERTEX2 95 2.26386164 -15.40357199 3.11914193
VERTEX2 96 1.65743024 -15.38140576 -3.14046037
VERTEX2 97 1.06812108 -15.34642844 3.07182674
VERTEX2 98 0.47198296 -15.27290582 3.01383829
VERTEX2 99 -0.24203462 -15.18064831 3.06088925
VERTEX2 100 -0.81665384 -15.09915671 3.00963419
VERTEX2 101 -1.42658273 -15.07199644 3.11348777
VERTEX2 102 -2.04566030 -15.02466689 3.00843660
VERTEX2 103 -2.66250131 -14.94283916 3.10507678
VERTEX2 104 -3.27809643 -14.90018527 3.07153958
VERTEX2 105 -3.89258600 -14.86945545 3.11831004
VERTEX2 106 -4.49662325 -14.83229392 3.06357628
VERTEX2 107 -5.11836630 -14.77021770 3.05976344
VERTEX2 108 -5.57278506 -14.74764945 3.12167293
VERTEX2 109 -5.61624714 -14.73927545 2.67376300
VERTEX2 110 -5.63264408 -14.72416933 2.08317492
VERTEX2 111 -5.63755187 -14.64378909 1.57799396
VERTEX2 112 -5.65136936 -14.01014954 1.63277507
VERTEX2 113 -5.70675113 -13.39080876 1.68017284
VERTEX2 114 -5.77656352 -12.78089565 1.71732833
VERTEX2 115 -5.88573209 -12.15480980 1.77824306
VERTEX2 116 -6.04652177 -11.42234023 1.82302062
VERTEX2 117 -6.21569948 -10.83223685 1.91935485
VERTEX2 118 -6.21843937 -10.82254720 1.58565116
VERTEX2 119 -6.19586729 -10.30629695 1.53318691
VERTEX2 120 -6.18558622 -9.65340474 1.62425812
VERTEX2 121 -6.23610868 -9.04381732 1.69274352
VERTEX2 122 -6.30841166 -8.47337759 1.74995654
VERTEX2 123 -6.34380054 -8.30466357 1.73813282
VERTEX2 124 -6.27597581 -8.06491994 1.31577291
VERTEX2 125 -6.10298565 -7.46271291 1.30584327
VERTEX2 126 -6.01612707 -6.84444084 1.51329469
VERTEX2 127 -5.96457151 -6.21289707 1.51301989
VERTEX2 128 -5.93618146 -5.58050560 1.55093573
VERTEX2 129 -5.89788044 -4.95083836 1.51986102
VERTEX2 130 -5.87911203 -4.32585243 1.57420586
VERTEX2 131 -5.88244001 -3.70949795 1.66445601
VERTEX2 132 -5.91356955 -3.10600034 1.61648926
VERTEX2 133 -5.90952051 -2.45187896 1.58319490
VERTEX2 134 -5.90238243 -1.76857669 1.56894607
VERTEX2 135 -5.86472476 -1.09610933 1.54727289
VERTEX2 136 -5.84475044 -0.37386348 1.57167985
VERTEX2 137 -5.80384219 0.35148437 1.53514266
VERTEX2 138 -5.79012389 0.50634791 1.59853338
VERTEX2 139 -5.82734093 1.09208241 1.66203185
VERTEX2 140 -5.90751663 1.69871242 1.69086989
VERTEX2 141 -5.96450430 2.29199870 1.64068608
VERTEX2 142 -6.01597175 2.89551151 1.63525212
VERTEX2 143 -5.98973712 3.49538219 1.52275221
VERTEX2 144 -5.98127441 3.82547937 1.53866315
VERTEX2 145 -5.98685541 3.80283854 1.03672142
VERTEX2 146 -5.99096151 3.76876172 0.43948309
VERTEX2 147 -5.92780833 3.76892929 -0.05051043
VERTEX2 148 -5.48283753 3.73745356 -0.08775561
VERTEX2 149 -4.82694253 3.68467466 -0.06408250
VERTEX2 150 -4.18123903 3.66033217 -0.05119855
VERTEX2 151 -3.53217412 3.65283863 0.03315205
VERTEX2 152 -2.90128424 3.65541093 -0.02819701
VERTEX2 153 -2.27090386 3.66031981 0.06487076
VERTEX2 154 -1.64580045 3.67661156 -0.00485440
VERTEX2 155 -1.01520852 3.68047470 0.02865113
VERTEX2 156 -0.38504046 3.70367433 0.05961268
VERTEX2 157 0.18253344 3.72010583 -0.00449032
VERTEX2 158 0.36298156 3.71888592 0.01186280
VERTEX2 159 0.35709677 3.72048548 0.95748626
VERTEX2 160 0.35483926 3.71739271 1.94939991
VERTEX2 161 0.35088619 3.70424896 2.88409691
VERTEX2 162 0.35909904 3.70800461 -2.40704534
VERTEX2 163 0.35785041 3.69300059 -1.45207525
VERTEX2 164 0.32161765 3.73337290 -0.46186885
VERTEX2 165 0.48646322 3.72038007 -0.02807239
VERTEX2 166 1.18187121 3.71147841 -0.01329917
VERTEX2 167 1.80262946 3.69594980 -0.04194115
VERTEX2 168 2.39478676 3.68024872 -0.02925348
VERTEX2 169 2.99516665 3.64302356 -0.06547552
VERTEX2 170 3.58664263 3.60894396 -0.08544521
VERTEX2 171 4.15486322 3.54363564 -0.12306383
VERTEX2 172 4.78725875 3.47342069 -0.10837003
VERTEX2 173 5.42253896 3.39213098 -0.13061025
VERTEX2 174 6.05398369 3.31734205 -0.08994081
VERTEX2 175 6.67606546 3.26629247 -0.11422865
VERTEX2 176 7.28170591 3.18453567 -0.10429667
VERTEX2 177 7.91117052 3.12189908 -0.13170265
VERTEX2 178 8.53953100 3.01655544 -0.17054528
VERTEX2 179 8.95288382 2.95760409 -0.11711025
VERTEX2 180 9.00890116 2.94623613 -0.55897829
VERTEX2 181 9.46636409 2.65854840 -0.61075110
VERTEX2 182 9.89098390 2.32844219 -0.78483263
VERTEX2 183 10.25946422 1.93558637 -0.84225027
VERTEX2 184 10.61302351 1.46943736 -0.98466244
VERTEX2 185 10.91637298 0.98077693 -1.07356090
VERTEX2 186 11.16175153 0.45968295 -1.13649927
VERTEX2 187 11.38351806 -0.03988597 -1.15597980
VERTEX2 188 11.61500054 -0.55783756 -1.15837992
VERTEX2 189 11.84134568 -1.07953192 -1.18199232
VERTEX2 190 12.07192769 -1.66146371 -1.21199627
VERTEX2 191 12.29131263 -2.24342791 -1.23730009
VERTEX2 192 12.49048524 -2.82014214 -1.26688676
VERTEX2 193 12.65436176 -3.35069128 -1.32387119
VERTEX2 194 12.79570897 -3.90380676 -1.35177624
VERTEX2 195 12.91672000 -4.45406097 -1.38144741
VERTEX2 196 13.02845010 -5.06697095 -1.42265363
VERTEX2 197 13.11117855 -5.67765476 -1.45057627
VERTEX2 198 13.18084632 -6.28652993 -1.50924097
VERTEX2 199 13.19682284 -6.88832516 -1.57116704
VERTEX2 200 13.19334884 -7.48618604 -1.59352780
VERTEX2 201 13.16596151 -8.08219300 -1.65071614
VERTEX2 202 13.13921765 -8.57959403 -1.63174162
VERTEX2 203 13.09056931 -9.30795260 -1.68584353
VERTEX2 204 13.00979940 -9.88128343 -1.78861938
VERTEX2 205 12.88093737 -10.44352549 -1.79869560
VERTEX2 206 12.76562514 -10.98970091 -1.79739876
VERTEX2 207 12.64550897 -11.55597076 -1.78203548
VERTEX2 208 12.51358239 -12.15574125 -1.79199136
VERTEX2 209 12.39235566 -12.75632930 -1.75425172
VERTEX2 210 12.26915390 -13.35067578 -1.76337313
VERTEX2 211 12.15984439 -13.94779122 -1.76136404
VERTEX2 212 12.02251770 -14.53639186 -1.81451766
VERTEX2 213 11.86690776 -15.12976757 -1.83556724
VERTEX2 214 11.70557917 -15.70981419 -1.83963218
VERTEX2 215 11.61298633 -16.03122045 -1.87571039
VERTEX2 216 11.62639008 -16.00465051 -2.37540729
VERTEX2 217 11.65388851 -16.00000065 -2.91868037
VERTEX2 218 11.66301989 -16.00288763 -2.97497270
VERTEX2 219 11.09687695 -15.99256023 3.13933151
VERTEX2 220 10.48832016 -15.98443934 3.09922931
VERTEX2 221 9.84329474 -15.95260885 -3.13419537
VERTEX2 222 9.21563521 -15.94345163 3.12297929
VERTEX2 223 8.58965714 -15.94725886 -3.06414505
VERTEX2 224 7.98048706 -15.98006710 -3.08995808
VERTEX2 225 7.36661894 -16.00683541 -3.04007367
VERTEX2 226 6.75355798 -16.03299248 -3.08877664
VERTEX2 227 6.11811430 -16.14164352 -2.93221070
VERTEX2 228 5.60015795 -16.15711280 2.98928130
VERTEX2 229 5.12607069 -16.13613588 3.11054346
VERTEX2 230 4.84683301 -16.13852962 3.08132755
VERTEX2 231 5.06825689 -16.14492208 -3.13231552
VERTEX2 232 4.74033898 -16.01915592 2.72460083
VERTEX2 233 4.15399378 -15.78560472 2.82626717
VERTEX2 234 3.56033258 -15.58774789 2.78160534
VERTEX2 235 3.29789467 -15.49106965 2.77617217
VERTEX2 236 2.97161295 -15.50981572 -3.10121600
VERTEX2 237 2.35627535 -15.55696271 -3.03103935
VERTEX2 238 1.75295240 -15.63618667 -3.06389794
VERTEX2 239 1.14691835 -15.66504217 -3.13147144
VERTEX2 240 0.57144260 -15.57703767 2.93414383
VERTEX2 241 0.02439533 -15.47424093 3.01994965
VERTEX2 242 -0.55706969 -15.43736582 3.05786427
VERTEX2 243 -1.16459414 -15.38382630 3.05668345
VERTEX2 244 -1.78880131 -15.37009848 3.12818584
VERTEX2 245 -2.40333595 -15.35369737 3.07469092
VERTEX2 246 -3.00842837 -15.29998934 3.00324839
VERTEX2 247 -3.61396743 -15.25124167 3.11039835
VERTEX2 248 -4.16651674 -15.26121978 -3.14039864
VERTEX2 249 -4.11599601 -15.26583053 -2.94650151
VERTEX2 250 -4.11260529 -15.26552184 2.74808423
VERTEX2 251 -4.45621546 -14.94223904 2.32486166
VERTEX2 252 -4.83553873 -14.54346329 2.33436927
VERTEX2 253 -5.23294496 -14.12030305 2.32439548
VERTEX2 254 -5.62517173 -13.68476626 2.28424909
VERTEX2 255 -5.69925160 -13.60168116 2.36915080
VERTEX2 256 -5.70628055 -13.53043951 1.88887288
VERTEX2 257 -5.80029841 -13.03298375 1.76871986
VERTEX2 258 -5.91540089 -12.47403849 1.84063774
VERTEX2 259 -6.08961787 -11.89855322 1.88164807
VERTEX2 260 -6.25169688 -11.36685251 1.87377017
VERTEX2 261 -6.25182162 -11.33575614 1.56318970
VERTEX2 262 -6.22960881 -10.68629599 1.57052671
VERTEX2 263 -6.22661854 -10.07294685 1.58480173
VERTEX2 264 -6.25014260 -9.47679259 1.68295419
VERTEX2 265 -6.31963031 -8.88819758 1.70419414
VERTEX2 266 -6.31028213 -8.31367100 1.57649744
VERTEX2 267 -6.30980555 -7.57215442 1.54766533
VERTEX2 268 -6.21957248 -6.96455028 1.43802772
VERTEX2 269 -6.14311295 -6.34906221 1.46892340
VERTEX2 270 -6.11531465 -5.72910338 1.58409090
VERTEX2 271 -6.06525232 -5.10776686 1.47496744
VERTEX2 272 -6.02604557 -4.48336048 1.54173983
VERTEX2 273 -6.08280598 -3.86527802 1.75537704
VERTEX2 274 -6.19610910 -3.26644559 1.78049908
VERTEX2 275 -6.23127789 -2.66961965 1.61047613
VERTEX2 276 -6.27228202 -2.07440569 1.72628794
VERTEX2 277 -6.36298574 -1.52676024 1.70186880
VERTEX2 278 -6.37244261 -0.89605482 1.61436198
VERTEX2 279 -6.38423648 -0.29163042 1.55842061
VERTEX2 280 -6.36839865 0.31125039 1.56004196
VERTEX2 281 -6.33108393 0.91899375 1.45921085
VERTEX2 282 -6.26505867 1.52440045 1.49885232
VERTEX2 283 -6.23081703 2.13164961 1.49093153
VERTEX2 284 -6.17184959 2.73198715 1.51812130
VERTEX2 285 -6.15807227 3.34114335 1.53727279
VERTEX2 286 -6.14164329 3.92263308 1.58889719
VERTEX2 287 -6.14174072 3.92915335 1.48227524
VERTEX2 288 -6.15115030 3.90854153 0.86827769
VERTEX2 289 -6.15039338 3.90894344 0.26954263
VERTEX2 290 -5.68819341 3.92855371 0.04181521
VERTEX2 291 -5.04473251 3.95807985 0.05403087
VERTEX2 292 -4.43185090 3.97204209 -0.00112213
VERTEX2 293 -3.80634709 3.96070340 -0.02447373
VERTEX2 294 -3.18325109 3.94196717 -0.02388465
VERTEX2 295 -2.55509262 3.89490146 -0.13626364
VERTEX2 296 -1.92203573 3.78192631 -0.18136361
VERTEX2 297 -1.29007950 3.66188610 -0.19258902
VERTEX2 298 -0.66649754 3.53940768 -0.19383831
VERTEX2 299 -0.07778794 3.41201922 -0.13308001
VERTEX2 300 0.51034887 3.35735300 -0.09109907
VERTEX2 301 1.07701590 3.28731874 -0.15027181
VERTEX2 302 1.38450336 3.23854306 -0.17109019
VERTEX2 303 1.37015261 3.23827613 -0.16687561
VERTEX2 304 1.87968238 3.14877880 -0.15707782
VERTEX2 305 2.48884721 3.13666528 0.02748257
VERTEX2 306 3.12032750 3.16276054 0.00906621
VERTEX2 307 3.76401930 3.15188488 -0.02798456
VERTEX2 308 4.39717896 3.12502241 -0.08392101
VERTEX2 309 5.03749054 3.10098222 0.00864749
VERTEX2 310 5.66849501 3.10685105 -0.02756383
VERTEX2 311 5.95349044 3.09683106 0.14712169
VERTEX2 312 5.95145597 3.09563204 1.13545234
VERTEX2 313 5.94337973 3.30984501 1.63090051
VERTEX2 314 5.88753123 3.93139705 1.67043371
VERTEX2 315 5.82294134 4.55178784 1.66587334
VERTEX2 316 5.74615699 5.19311888 1.71556254
VERTEX2 317 5.64940084 5.82968330 1.72401744
VERTEX2 318 5.51652154 6.45911143 1.81685092
VERTEX2 319 5.41915405 6.79936543 1.88658869
VERTEX2 320 5.42183258 6.80933809 2.84975392
VERTEX2 321 5.42321435 6.80994773 -2.39944358
VERTEX2 322 5.42452473 6.81278937 -1.40870822
VERTEX2 323 5.44103270 6.79798763 -0.42174437
VERTEX2 324 5.45529647 6.79379210 0.23430157
VERTEX2 325 5.46745194 6.79506155 -0.29660311
VERTEX2 326 5.48986282 6.77907717 -0.89533674
VERTEX2 327 5.49396932 6.76169511 -1.52235806
VERTEX2 328 5.49071741 6.12460534 -1.57045280
VERTEX2 329 5.48212630 5.49015687 -1.63635942
VERTEX2 330 5.43481451 4.86942509 -1.66581878
VERTEX2 331 5.38094973 4.24823217 -1.69058890
VERTEX2 332 5.29714422 3.63278329 -1.71979500
VERTEX2 333 5.27245530 3.47705243 -1.66644354
VERTEX2 334 5.30791116 3.48803561 -0.65301735
VERTEX2 335 5.37143905 3.48102503 0.30249399
VERTEX2 336 5.41570706 3.50397922 1.20990539
VERTEX2 337 5.41692980 3.52932710 2.15386814
VERTEX2 338 5.41683311 3.52937917 3.13724846
VERTEX2 339 5.43133871 3.54006362 -2.10250342
VERTEX2 340 5.43165914 3.53870835 -1.08902007
VERTEX2 341 5.55232089 3.47667863 -0.45935609
VERTEX2 342 6.14680086 3.20791644 -0.35909468
VERTEX2 343 6.73721581 3.04267328 -0.22743927
VERTEX2 344 7.33724812 2.89628319 -0.23680964
VERTEX2 345 7.58020108 2.84091608 -0.26360918
VERTEX2 346 7.56696099 2.84435342 -0.90913531
VERTEX2 347 7.57490596 2.75629697 -1.46624795
VERTEX2 348 7.62971447 2.16799042 -1.48230641
VERTEX2 349 7.66626708 1.54958979 -1.52188374
VERTEX2 350 7.70252506 0.76225219 -1.54088315
VERTEX2 351 7.70546407 0.48818774 -1.56921414
VERTEX2 352 7.70421912 0.47960072 -1.85600363
VERTEX2 353 7.69373362 0.46494851 -2.51890840
VERTEX2 354 7.68074736 0.46032096 -3.11996812
VERTEX2 355 7.66096371 0.45977843 2.44491990
VERTEX2 356 7.65447491 0.46972039 1.87192090
VERTEX2 357 7.65614544 0.48595655 1.22132576
VERTEX2 358 7.65733509 0.48786734 0.60823626
VERTEX2 359 7.64646296 0.48236780 -0.00343109
VERTEX2 360 7.63202024 0.48428457 -0.17847756
VERTEX2 361 7.62458797 0.48182553 0.74423751
VERTEX2 362 7.69493580 0.71829866 1.28006599
VERTEX2 363 7.78053509 0.99304240 1.27446507
VERTEX2 364 7.68987693 1.32462539 1.89125471
VERTEX2 365 7.61596839 1.61017079 1.39598265
VERTEX2 366 7.71699549 1.74037402 0.84383717
VERTEX2 367 8.13463742 2.20348988 0.84669080
VERTEX2 368 8.56503770 2.67099758 0.79870825
VERTEX2 369 8.58537283 2.69899385 0.54661528
VERTEX2 370 8.60987443 2.70450437 -0.04126964
VERTEX2 371 8.61533082 2.70208613 -0.58763910
VERTEX2 372 9.06313097 2.38148260 -0.61530953
VERTEX2 373 9.55560503 2.04724805 -0.61331369
VERTEX2 374 10.05675861 1.67534189 -0.67447548
VERTEX2 375 10.41251308 1.39614373 -0.71100614
VERTEX2 376 10.40050191 1.40275604 -0.03363268
VERTEX2 377 10.44933803 1.44053609 0.64421016
VERTEX2 378 10.97409658 1.85287404 0.69106393
VERTEX2 379 11.44687571 2.29510646 0.76802106
VERTEX2 380 11.88374467 2.77185238 0.87891628
VERTEX2 381 12.03362584 2.95863791 1.01987445
VERTEX2 382 12.04103848 2.97159068 2.04133562
VERTEX2 383 12.03088412 2.97802784 3.04884750
VERTEX2 384 12.03724014 2.98419563 -2.25042288
VERTEX2 385 12.03982533 2.98918158 -1.19878158
VERTEX2 386 12.14018192 2.86792603 -0.96593787
VERTEX2 387 12.60557425 2.47394437 -0.62490534
VERTEX2 388 13.08797481 2.14473823 -0.62622839
VERTEX2 389 13.54076326 1.79313913 -0.72049889
VERTEX2 390 13.55039767 1.78600832 -0.26793970
VERTEX2 391 13.39774911 1.79004375 0.09229037
VERTEX2 392 13.38253116 1.79000919 1.09016088
VERTEX2 393 13.38843299 1.89325332 2.28886028
VERTEX2 394 13.34065062 1.91753286 -3.04327935
VERTEX2 395 13.58142995 2.01582347 -2.72516340
VERTEX2 396 13.59705161 2.02480211 -2.73591897
VERTEX2 397 13.59062193 2.02415723 -2.75776913
VERTEX2 398 13.61124410 2.03703947 -2.57588868
VERTEX2 399 13.55554506 1.97724120 -2.29537710
VERTEX2 400 13.15136142 1.51953186 -2.25700684
VERTEX2 401 12.74579221 1.06380299 -2.35190170
VERTEX2 402 12.23410235 0.71305862 -2.62227149
VERTEX2 403 11.69669307 0.41315558 -2.65848235
VERTEX2 404 11.17829985 0.16087429 -2.73983578
VERTEX2 405 11.19182407 0.16934384 -2.21068077
VERTEX2 406 11.19419987 0.20938575 -1.24025715
VERTEX2 407 11.33736306 -0.09022602 -1.11487704
VERTEX2 408 11.59025979 -0.61913159 -1.15521121
VERTEX2 409 11.69114588 -0.86598082 -1.25749535
VERTEX2 410 11.68924188 -0.83636320 -1.89126115
VERTEX2 411 11.70260344 -0.80648327 -2.48617887
VERTEX2 412 11.22189127 -1.05025435 -2.69234360
VERTEX2 413 10.65711906 -1.29857273 -2.77444495
VERTEX2 414 10.08526692 -1.53626634 -2.67329418
VERTEX2 415 9.50456140 -1.82140802 -2.66602526
VERTEX2 416 9.23237308 -1.97069091 -2.72093903
VERTEX2 417 8.94048126 -1.97911600 3.13834525
VERTEX2 418 8.50018605 -1.97250433 3.09348390
VERTEX2 419 8.50505875 -1.97095914 -2.75812649
VERTEX2 420 8.55899298 -1.94143122 -2.54154236
VERTEX2 421 8.56331034 -1.93309656 -1.57273704
VERTEX2 422 8.56266126 -1.93419211 -0.33202932
VERTEX2 423 8.56594662 -1.93424106 0.01411326
VERTEX2 424 8.56398439 -1.93442033 0.01494883
VERTEX2 425 8.55898246 -1.93779631 0.02715303
VERTEX2 426 8.55695199 -1.93800238 0.01850245
VERTEX2 427 8.58747389 -1.93716031 0.02208969
VERTEX2 428 9.24727691 -1.90567620 0.01700981
VERTEX2 429 9.89153054 -1.90350224 -0.02337969
VERTEX2 430 10.23305076 -1.91682904 -0.06909943
VERTEX2 431 10.20829276 -1.91583544 -0.01680325
VERTEX2 432 10.21774355 -1.91835021 -0.64793073
VERTEX2 433 10.22056185 -1.92164481 -1.32461292
VERTEX2 434 10.22572389 -2.45484257 -1.55246560
VERTEX2 435 10.24307164 -3.09125591 -1.58052758
VERTEX2 436 10.21497077 -3.72834122 -1.58906997
VERTEX2 437 10.21284863 -4.37330428 -1.58087990
VERTEX2 438 10.19707094 -4.84677573 -1.61068604
VERTEX2 439 10.19550767 -4.85520524 -2.04524427
VERTEX2 440 10.20216416 -4.84909192 -2.68656681
VERTEX2 441 10.22109318 -4.84571590 2.97637248
VERTEX2 442 10.23249100 -4.85080818 2.34878341
VERTEX2 443 10.23314340 -4.85555834 1.78356848
VERTEX2 444 10.23466176 -4.84197755 1.19375440
VERTEX2 445 10.23961615 -4.83645042 0.53743104
VERTEX2 446 10.23892657 -4.83696572 0.73988678
VERTEX2 447 10.24829549 -4.81475474 1.37311414
VERTEX2 448 10.34967913 -4.18554362 1.39091575
VERTEX2 449 10.43291204 -3.54328399 1.49258821
VERTEX2 450 10.47744509 -2.90361031 1.50654947
VERTEX2 451 10.49366437 -2.43303247 1.54935883
VERTEX2 452 10.49365611 -2.43448632 1.17156317
VERTEX2 453 10.49049710 -2.44142407 0.54964394
VERTEX2 454 10.75115562 -2.40100617 0.12783478
VERTEX2 455 11.34506995 -2.32990020 0.10710810
VERTEX2 456 11.97380554 -2.27617521 0.04232792
VERTEX2 457 12.32691736 -2.27113367 -0.04559787
VERTEX2 458 12.31927717 -2.26804934 -0.69194525
VERTEX2 459 12.30664778 -2.22977629 -1.30056781
VERTEX2 460 12.31634911 -2.62406717 -1.55782181
VERTEX2 461 12.29487235 -3.23945371 -1.64594204
VERTEX2 462 12.24672011 -3.74960941 -1.68610846
VERTEX2 463 12.25767796 -3.72343243 -0.84633865
VERTEX2 464 12.51552754 -3.77610174 -0.16867241
VERTEX2 465 13.10551921 -3.86456460 -0.16109535
VERTEX2 466 13.66653125 -3.97351208 -0.21692928
VERTEX2 467 14.24697936 -4.11166262 -0.26059048
VERTEX2 468 14.87670906 -4.28400341 -0.29589855
VERTEX2 469 15.48670052 -4.50514421 -0.37858510
VERTEX2 470 15.95589437 -4.68657668 -0.35946502
VERTEX2 471 15.96496484 -4.69065197 -0.55892450
VERTEX2 472 15.98388254 -4.71328326 -1.19077606
VERTEX2 473 15.98579305 -4.72005423 -1.83054516
VERTEX2 474 15.98474997 -4.72157782 -2.46106990
VERTEX2 475 15.98757991 -4.72097648 -3.03474173
VERTEX2 476 15.99035481 -4.72114717 2.59735116
VERTEX2 477 15.99532437 -4.72931962 2.03792996
VERTEX2 478 15.99673724 -4.73866945 1.41098678
VERTEX2 479 15.99610634 -4.74046182 0.95677632
VERTEX2 480 15.99656590 -4.73918360 1.51890270
VERTEX2 481 15.99168364 -4.72346021 2.52107779
VERTEX2 482 15.99639955 -4.72496230 2.85724979
VERTEX2 483 16.00339872 -4.72691380 2.85187888
VERTEX2 484 15.56715552 -4.60026816 2.88741229
VERTEX2 485 14.95678588 -4.45550414 2.88504494
VERTEX2 486 14.34189756 -4.28693499 2.89452923
VERTEX2 487 13.72096345 -4.15214223 2.92277073
VERTEX2 488 13.09760658 -4.01561534 2.95886478
VERTEX2 489 12.62146151 -3.94241607 2.98927423
VERTEX2 490 12.62766134 -3.94135731 -2.80883058
VERTEX2 491 12.63604063 -3.92846104 -1.87276357
VERTEX2 492 12.63604341 -4.15583973 -1.56975302
VERTEX2 493 12.61834068 -4.75961342 -1.62482702
VERTEX2 494 12.57593445 -5.37248117 -1.68577185
VERTEX2 495 12.55308035 -5.99088671 -1.57884105
VERTEX2 496 12.55514393 -6.60925421 -1.46142898
VERTEX2 497 12.59290079 -7.21927571 -1.54783310
VERTEX2 498 12.56980055 -7.83592515 -1.65007718
VERTEX2 499 12.48580034 -8.46098087 -1.66751517
VERTEX2 500 12.58338051 -9.01725615 -1.33934270
VERTEX2 501 12.69699616 -9.58220597 -1.41240852
VERTEX2 502 12.76828523 -10.26638252 -1.49789973
VERTEX2 503 12.79383325 -10.70427221 -1.51583093
VERTEX2 504 12.79882910 -10.68631257 -0.65574824
VERTEX2 505 13.04216336 -10.69681212 -0.03373783
VERTEX2 506 13.63799329 -10.73616072 -0.18733880
VERTEX2 507 14.22777188 -10.86444099 -0.26689714
VERTEX2 508 14.80748596 -11.03537397 -0.28112612
VERTEX2 509 15.44151046 -11.22611080 -0.33752415
VERTEX2 510 15.80747915 -11.36067813 -0.35190103
VERTEX2 511 15.80411797 -11.34101334 0.52358135
VERTEX2 512 15.82169046 -11.29635979 1.72358036
VERTEX2 513 15.81650943 -11.28400571 2.67945115
VERTEX2 514 15.74800353 -11.26986121 2.90516350
VERTEX2 515 15.12722234 -11.13151405 2.90582995
VERTEX2 516 14.53087720 -10.97804575 2.92128859
VERTEX2 517 13.93021673 -10.87070412 2.94905066
VERTEX2 518 13.32973446 -10.75994621 2.97298267
VERTEX2 519 12.80160587 -10.67146061 2.95688590
VERTEX2 520 12.63134542 -10.63910199 -2.92842241
VERTEX2 521 12.65244710 -10.61248051 -1.92453983
VERTEX2 522 12.61409179 -11.00679118 -1.66076712
VERTEX2 523 12.56442863 -11.62378787 -1.66869267
VERTEX2 524 12.49933216 -12.19533205 -1.71113432
VERTEX2 525 12.43201424 -12.73454143 -1.68787480
VERTEX2 526 12.35415619 -13.30096519 -1.74707268
VERTEX2 527 12.24571425 -13.87926640 -1.78223604
VERTEX2 528 12.10235658 -14.44727288 -1.85860473
VERTEX2 529 11.93034144 -15.05382177 -1.88749064
VERTEX2 530 11.72304400 -15.66023191 -1.91812991
VERTEX2 531 11.49165907 -16.24408027 -1.99851523
VERTEX2 532 11.40791452 -16.42961259 -1.94844090
VERTEX2 533 11.40521820 -16.41956817 -0.94932109
VERTEX2 534 11.40613291 -16.42008024 -0.28281152
VERTEX2 535 11.40940515 -16.42017841 -0.28337889
VERTEX2 536 11.76997862 -16.48249444 -0.15291349
VERTEX2 537 12.38382237 -16.59439674 -0.21112483
VERTEX2 538 12.95234371 -16.72995021 -0.23843831
VERTEX2 539 13.57112625 -16.90252397 -0.30341243
VERTEX2 540 14.17140967 -17.12059401 -0.39651452
VERTEX2 541 14.77046265 -17.31361079 -0.23443519
VERTEX2 542 15.40798844 -17.41825326 -0.17891601
VERTEX2 543 15.53077271 -17.44151591 -0.20875623
VERTEX2 544 15.55050739 -17.43833312 0.42796546
VERTEX2 545 15.57004145 -17.39738657 1.49404230
VERTEX2 546 15.59086106 -17.44344742 2.32081356
VERTEX2 547 15.59748055 -17.44262819 -2.94094082
VERTEX2 548 15.60830582 -17.43478666 -2.01826163
VERTEX2 549 15.60908189 -17.42633086 -1.21187454
VERTEX2 550 15.60693563 -17.40767352 -1.69191280
VERTEX2 551 15.61333097 -17.39264599 -2.31851628
VERTEX2 552 15.62930389 -17.38353903 -2.95123374
VERTEX2 553 15.48941236 -17.33890119 2.75436056
VERTEX2 554 14.88253544 -17.08847171 2.71871479
VERTEX2 555 14.28896464 -16.84629253 2.80737314
VERTEX2 556 13.67352733 -16.66180408 2.94223532
VERTEX2 557 13.06615729 -16.52454116 2.90118367
VERTEX2 558 12.48361394 -16.39985491 2.98239058
VERTEX2 559 12.49221421 -16.40223166 2.57573143
VERTEX2 560 12.48452790 -16.39458990 2.07512541
VERTEX2 561 12.45950991 -16.37290903 2.58066529
VERTEX2 562 12.28289734 -16.38290863 -3.05866367
VERTEX2 563 11.71068444 -16.33709073 3.03290974
VERTEX2 564 11.10317145 -16.28038640 3.08184893
VERTEX2 565 10.49242523 -16.24544640 3.01848133
VERTEX2 566 10.54085802 -16.25819293 -2.49396527
VERTEX2 567 10.48169822 -16.26570362 -1.67326908
VERTEX2 568 10.45804923 -16.79332669 -1.61383813
VERTEX2 569 10.44086590 -17.37115151 -1.65372164
VERTEX2 570 10.40870134 -17.94900529 -1.64838018
VERTEX2 571 10.37817697 -18.31171135 -1.70108943
VERTEX2 572 10.37195940 -18.31719005 -1.95155522
VERTEX2 573 10.34457471 -18.38870990 -1.68303492
VERTEX2 574 10.38706769 -18.44450063 -0.76008600
VERTEX2 575 10.47966585 -18.46976943 0.21450839
VERTEX2 576 10.48309610 -18.47210017 1.23822363
VERTEX2 577 10.47403984 -18.45259298 2.20658748
VERTEX2 578 10.46098425 -18.41765895 1.84063723
VERTEX2 579 10.29107864 -17.77088143 1.85472920
VERTEX2 580 10.08569224 -17.13939774 1.92887843
VERTEX2 581 9.84944327 -16.52653270 1.97037081
VERTEX2 582 9.58703174 -15.92486721 2.01266436
VERTEX2 583 9.43630477 -15.62338132 2.09115868
VERTEX2 584 9.42934539 -15.61174922 2.93244010
VERTEX2 585 8.84760556 -15.50906041 3.04994759
VERTEX2 586 8.26053214 -15.47104980 -3.13639650
VERTEX2 587 7.65315170 -15.49644908 -3.11157566
VERTEX2 588 7.03374620 -15.50738202 -3.10764213
VERTEX2 589 6.49925550 -15.56308328 -3.03638754
VERTEX2 590 5.95539667 -15.63634309 -2.97168068
VERTEX2 591 5.42550534 -15.74114479 -2.97712484
VERTEX2 592 4.88555297 -15.84001483 -2.98333681
VERTEX2 593 4.71025117 -15.86991531 -2.78292450
VERTEX2 594 4.71821724 -15.86049785 -1.82245700
VERTEX2 595 4.65435478 -16.46685928 -1.59519163
VERTEX2 596 4.64811269 -17.08575221 -1.62215253
VERTEX2 597 4.60428193 -17.75699449 -1.66600368
VERTEX2 598 4.54109175 -18.35973321 -1.70875125
VERTEX2 599 4.47769345 -18.74091184 -1.77554364
VERTEX2 600 4.47881818 -18.75561599 -0.97049729
VERTEX2 601 4.51858350 -18.77679147 0.04597851
VERTEX2 602 4.55196159 -18.76092268 1.05830600
VERTEX2 603 4.50323285 -18.52681334 1.82946096
VERTEX2 604 4.40728496 -17.91743510 1.58455060
VERTEX2 605 4.37934241 -17.26791979 1.66628900
VERTEX2 606 4.30251177 -16.62147362 1.70758869
VERTEX2 607 4.28104008 -16.02950005 1.62573439
VERTEX2 608 4.24682392 -15.64249206 1.66944406
VERTEX2 609 4.24140916 -15.61845530 2.00451623
VERTEX2 610 4.23235607 -15.61570891 2.93458014
VERTEX2 611 3.62957023 -15.49459809 2.93690582
VERTEX2 612 3.15025471 -15.38279107 2.93908441
VERTEX2 613 3.18520071 -15.39166711 -2.88167712
VERTEX2 614 3.19288554 -15.38530899 -1.84632438
VERTEX2 615 3.22555897 -15.86595579 -1.54286092
VERTEX2 616 3.25731495 -16.48316529 -1.59472592
VERTEX2 617 3.14057823 -17.08943503 -1.81572086
VERTEX2 618 2.98926452 -17.70267080 -1.80802620
VERTEX2 619 2.84379483 -18.28124074 -1.81158911
VERTEX2 620 2.67368319 -18.86701291 -1.91007751
VERTEX2 621 2.78837111 -18.54053002 -1.96385587
VERTEX2 622 2.89781553 -18.28800771 -2.04132196
VERTEX2 623 2.87986980 -18.31331057 -2.58340479
VERTEX2 624 2.77958254 -18.31376678 3.05149554
VERTEX2 625 2.67208500 -18.27143926 2.38717143
VERTEX2 626 2.60678532 -18.19685897 1.76358539
VERTEX2 627 2.67851508 -17.82641794 1.34825266
VERTEX2 628 2.85569439 -17.20790572 1.24420170
VERTEX2 629 3.02803380 -16.58891244 1.31193159
VERTEX2 630 3.15774013 -15.98602464 1.39326682
VERTEX2 631 3.23669440 -15.45652454 1.40990512
VERTEX2 632 3.23939453 -15.44253905 2.07642422
VERTEX2 633 3.17516536 -15.43577533 -3.07901639
VERTEX2 634 2.51595060 -15.48926304 -3.04189379
VERTEX2 635 1.87436026 -15.52257475 3.11761655
VERTEX2 636 1.25055045 -15.52415001 3.10866440
VERTEX2 637 0.64780561 -15.48679612 3.01889610
VERTEX2 638 0.25748370 -15.42977608 2.98898919
VERTEX2 639 -0.35500966 -15.36255327 3.06870951
VERTEX2 640 -0.97145400 -15.28910986 2.99998246
VERTEX2 641 -1.57290477 -15.21266474 2.99071348
VERTEX2 642 -2.14795645 -15.10872712 2.94416784
VERTEX2 643 -2.64391843 -14.99269372 2.85916702
VERTEX2 644 -2.63700578 -14.99134304 -2.71517814
VERTEX2 645 -2.68919806 -15.15602933 -1.82567246
VERTEX2 646 -2.76969583 -15.78209394 -1.53298302
VERTEX2 647 -2.66834008 -16.41683504 -1.24665634
VERTEX2 648 -2.39468910 -17.01192545 -1.08232084
VERTEX2 649 -2.17259683 -17.58668575 -1.42231982
VERTEX2 650 -2.22069180 -18.22608141 -1.68169743
VERTEX2 651 -2.22617511 -18.37608641 -0.88631863
VERTEX2 652 -2.18855779 -18.38960920 0.13402359
VERTEX2 653 -2.16078739 -18.36066502 1.15956106
VERTEX2 654 -2.19087999 -18.06478495 1.66974950
VERTEX2 655 -2.23923460 -17.51306838 1.66335370
VERTEX2 656 -2.27891652 -16.91242386 1.64923714
VERTEX2 657 -2.42698320 -16.30486197 1.92339092
VERTEX2 658 -2.65441292 -15.70263612 1.91568869
VERTEX2 659 -2.79861674 -15.21910840 1.84392040
VERTEX2 660 -2.80211914 -15.20582177 2.44267087
VERTEX2 661 -2.98234205 -15.19672140 3.09465438
VERTEX2 662 -3.57921331 -15.17171443 -3.11954278
VERTEX2 663 -4.16600144 -15.21979767 -3.01917326
VERTEX2 664 -4.17338695 -15.21834043 -2.50116459
VERTEX2 665 -4.18310008 -15.31476399 -1.65259732
VERTEX2 666 -4.21379934 -15.92311411 -1.61446879
VERTEX2 667 -4.23225226 -16.48866972 -1.60894951
VERTEX2 668 -4.25465232 -17.08201305 -1.58226958
VERTEX2 669 -4.25936266 -17.70640284 -1.60653263
VERTEX2 670 -4.31460659 -18.32557245 -1.66512696
VERTEX2 671 -4.34091413 -18.61682381 -1.60929534
VERTEX2 672 -4.28002065 -18.02637337 -1.69745780
VERTEX2 673 -4.23242550 -17.75086682 -1.82697207
VERTEX2 674 -4.21420068 -17.72850087 -2.47306042
VERTEX2 675 -4.17839314 -17.71799515 -3.07970163
VERTEX2 676 -4.16217261 -17.72581646 2.58215766
VERTEX2 677 -4.15254656 -17.73703679 1.96830675
VERTEX2 678 -4.14250354 -17.51042421 1.52402362
VERTEX2 679 -4.12618620 -16.92517936 1.58756881
VERTEX2 680 -4.19108828 -16.48034062 1.93399534
VERTEX2 681 -4.39140998 -15.91518883 1.90107630
VERTEX2 682 -4.60991817 -15.33553403 1.94296404
VERTEX2 683 -4.71985950 -15.06969081 2.09496563
VERTEX2 684 -4.67027745 -15.11392724 -3.10973504
VERTEX2 685 -5.06335798 -15.30163395 -2.66613978
VERTEX2 686 -5.50111681 -15.46796514 -2.81041147
VERTEX2 687 -6.08477767 -15.65844164 -2.84544021
VERTEX2 688 -6.67373422 -15.81813074 -2.85723424
VERTEX2 689 -7.22786949 -15.99444401 -2.82959130
VERTEX2 690 -7.75166954 -16.19882620 -2.75544477
VERTEX2 691 -8.13743389 -16.35634813 -2.78349987
VERTEX2 692 -8.12352797 -16.34903234 -2.24937190
VERTEX2 693 -8.09757247 -16.41538547 -1.20948650
VERTEX2 694 -8.07050807 -16.48154047 -0.37443770
VERTEX2 695 -8.05203329 -16.47496340 0.42538180
VERTEX2 696 -8.04599272 -16.47042174 1.45063684
VERTEX2 697 -8.05493188 -16.50843597 1.19752966
VERTEX2 698 -7.73839085 -16.27828493 0.54260734
VERTEX2 699 -7.19552500 -15.92911616 0.65658315
VERTEX2 700 -6.70593531 -15.53447068 0.71005935
VERTEX2 701 -6.29579412 -15.14410985 0.76917225
VERTEX2 702 -5.83720943 -14.79832693 0.65395164
VERTEX2 703 -5.34691192 -14.42919603 0.68815335
VERTEX2 704 -4.87824610 -14.01569897 0.70627551
VERTEX2 705 -4.39503983 -13.56336842 0.77684215
VERTEX2 706 -3.98650001 -13.21897653 0.50800363
VERTEX2 707 -3.96182972 -13.21606805 -0.01285732
VERTEX2 708 -3.95123957 -13.22133745 -0.65264498
VERTEX2 709 -3.99216224 -13.18239253 -0.98466706
VERTEX2 710 -3.99633768 -13.17328098 -1.54653838
VERTEX2 711 -3.98552664 -13.18191142 -2.14426838
VERTEX2 712 -3.96777117 -13.16653735 -2.70553858
VERTEX2 713 -4.43630863 -13.24487703 -2.99078947
VERTEX2 714 -4.98886331 -13.25270043 3.09508677
VERTEX2 715 -5.61637084 -13.25336416 -3.08433961
VERTEX2 716 -6.25054418 -13.26946868 3.06095655
VERTEX2 717 -6.87416629 -13.23911665 -3.13735721
VERTEX2 718 -7.64121611 -13.16675361 2.97056873
VERTEX2 719 -8.26289156 -13.08899328 3.04511935
VERTEX2 720 -8.88028050 -13.01391985 2.98598241
VERTEX2 721 -9.50279455 -12.93575444 3.05425702
VERTEX2 722 -9.51861247 -12.93446666 3.12101081
VERTEX2 723 -9.53967213 -12.95898596 -2.07175515
VERTEX2 724 -9.53690489 -13.00646055 -1.00236682
VERTEX2 725 -9.50644575 -13.02433515 -0.36779767
VERTEX2 726 -9.18180965 -13.00059155 0.08654159
VERTEX2 727 -8.54804059 -12.92389469 0.11735681
VERTEX2 728 -7.91053881 -12.86120987 0.11882543
VERTEX2 729 -7.27803623 -12.76245657 0.17657445
VERTEX2 730 -6.66229230 -12.63283174 0.21419640
VERTEX2 731 -6.02145478 -12.49347318 0.22662233
VERTEX2 732 -5.88189312 -12.45632061 0.67366701
VERTEX2 733 -5.87726920 -12.46289204 1.67111396
VERTEX2 734 -5.97002955 -11.91742632 1.74946810
VERTEX2 735 -6.06807876 -11.32588069 1.71766009
VERTEX2 736 -6.06877500 -11.32062680 2.31775183
VERTEX2 737 -6.06047113 -11.32116310 3.11922426
VERTEX2 738 -6.63889847 -11.31883320 3.13849809
VERTEX2 739 -7.24438659 -11.26410343 3.08107683
VERTEX2 740 -7.74672235 -11.25730336 -3.13865221
VERTEX2 741 -7.72510010 -11.25563203 2.77600199
VERTEX2 742 -7.72107275 -11.25807181 2.12368342
VERTEX2 743 -7.72165241 -11.25613844 1.50731741
VERTEX2 744 -7.71506961 -11.23777673 0.96835974
VERTEX2 745 -7.69693812 -11.22666492 0.37531352
VERTEX2 746 -7.15195342 -11.20797821 -0.09914756
VERTEX2 747 -6.49714079 -11.27852322 -0.13417703
VERTEX2 748 -5.90820919 -11.38180159 -0.20224606
VERTEX2 749 -5.82012795 -11.39737278 0.22744469
VERTEX2 750 -5.81310212 -11.38191935 1.15543124
VERTEX2 751 -5.86583148 -11.11760052 1.79635083
VERTEX2 752 -5.96794923 -10.50292317 1.69329418
VERTEX2 753 -6.05141454 -9.87124752 1.75675209
VERTEX2 754 -6.10542366 -9.23557014 1.59493782
VERTEX2 755 -6.13451699 -8.60584098 1.68171098
VERTEX2 756 -6.14649235 -7.97332258 1.50366374
VERTEX2 757 -6.12091024 -7.33098734 1.61442159
VERTEX2 758 -6.18555832 -6.75240486 1.75382145
VERTEX2 759 -6.21591332 -6.20534046 1.62827155
VERTEX2 760 -6.29425830 -5.61435772 1.71905568
VERTEX2 761 -6.29667668 -5.59388257 1.87619331
VERTEX2 762 -6.35785568 -5.57137826 2.80968461
VERTEX2 763 -6.93749851 -5.53715127 3.10057980
VERTEX2 764 -7.36032853 -5.51497769 3.07181009
VERTEX2 765 -7.34774666 -5.51331655 -2.57507120
VERTEX2 766 -7.34935607 -5.52183310 -1.57939486
VERTEX2 767 -7.34114757 -5.53753883 -0.65286838
VERTEX2 768 -7.31168152 -5.53634629 0.06604320
VERTEX2 769 -6.68618319 -5.38415731 0.22139665
VERTEX2 770 -6.04046222 -5.26102678 0.15295692
VERTEX2 771 -5.95107094 -5.24478590 0.71064097
VERTEX2 772 -5.94935587 -5.23679919 1.57418456
VERTEX2 773 -5.97711632 -4.66184208 1.65865290
VERTEX2 774 -6.03717851 -4.12149259 1.67957636
VERTEX2 775 -6.03488929 -4.12861951 2.52063993
VERTEX2 776 -6.24310749 -4.12072072 3.13508777
VERTEX2 777 -6.85542037 -4.12798123 -3.09033271
VERTEX2 778 -7.46485923 -4.16536635 -3.11246999
VERTEX2 779 -8.06226746 -4.18995604 -3.09671358
VERTEX2 780 -8.25380287 -4.18763101 3.05335499
VERTEX2 781 -8.23840392 -4.19202870 2.47432402
VERTEX2 782 -8.38537362 -3.92413748 2.04018869
VERTEX2 783 -8.65625436 -3.35969829 2.03741356
VERTEX2 784 -8.77108580 -3.13346878 2.01385052
VERTEX2 785 -8.77456240 -3.09473708 1.45670353
VERTEX2 786 -8.76326507 -3.04997002 0.86295661
VERTEX2 787 -8.73152427 -3.01460489 0.36751382
VERTEX2 788 -8.68828898 -3.01591169 -0.26732737
VERTEX2 789 -8.67419281 -3.02624666 -0.82448108
VERTEX2 790 -8.35720524 -3.41063617 -0.89415145
VERTEX2 791 -7.93989503 -3.88028359 -0.79820808
VERTEX2 792 -7.69373085 -4.08915306 -0.10032299
VERTEX2 793 -7.10450072 -4.12933121 -0.04941763
VERTEX2 794 -6.49076269 -4.14302807 0.02823223
VERTEX2 795 -6.52611416 -4.17071725 0.46894378
VERTEX2 796 -6.55073585 -4.18209155 1.14341693
VERTEX2 797 -6.49297912 -3.86431239 1.41237950
VERTEX2 798 -6.39840123 -3.22467393 1.46859105
VERTEX2 799 -6.35721383 -2.56773981 1.54047999
VERTEX2 800 -6.35348206 -1.90962294 1.61954374
VERTEX2 801 -6.41681016 -1.28231793 1.70615695
VERTEX2 802 -6.52289483 -0.66366666 1.76444589
VERTEX2 803 -6.55847351 -0.03824966 1.60039509
VERTEX2 804 -6.59141485 0.58600626 1.65674212
VERTEX2 805 -6.67816880 1.21070683 1.73341632
VERTEX2 806 -6.78917121 1.80222291 1.77513226
VERTEX2 807 -6.83702597 2.00584419 2.06036613
VERTEX2 808 -6.84042132 2.00560854 3.00242644
VERTEX2 809 -7.43167049 1.99103659 -3.13828226
VERTEX2 810 -8.05881087 2.07040918 3.00267812
VERTEX2 811 -8.66633424 2.14057912 2.99784393
VERTEX2 812 -8.67153202 2.14124694 -2.55801816
VERTEX2 813 -8.67199712 2.13952949 -1.58835208
VERTEX2 814 -8.67638783 2.14266949 -0.60185219
VERTEX2 815 -8.65769778 2.13750065 0.31204449
VERTEX2 816 -8.63852516 2.14914460 0.98896741
VERTEX2 817 -8.61632834 2.16442605 0.31608787
VERTEX2 818 -8.39523426 2.13980429 -0.17618268
VERTEX2 819 -7.80350616 2.03529635 -0.16375709
VERTEX2 820 -7.20954680 1.92584431 -0.20682396
VERTEX2 821 -6.66369421 1.81468216 -0.19285188
VERTEX2 822 -6.66937949 1.81548862 0.54090154
VERTEX2 823 -6.66668608 1.84261830 1.42710073
VERTEX2 824 -6.59599780 2.40505042 1.35794888
VERTEX2 825 -6.46055225 2.95853087 1.33729104
VERTEX2 826 -6.40650242 3.53449690 1.51137675
VERTEX2 827 -6.35271955 4.10224036 1.47148109
VERTEX2 828 -6.31278698 4.67982854 1.51525854
VERTEX2 829 -6.26428142 5.27900087 1.47672433
VERTEX2 830 -6.20285000 5.88330349 1.46946877
VERTEX2 831 -6.12245830 6.45544335 1.42374523
VERTEX2 832 -6.04622764 7.01335874 1.42109570
VERTEX2 833 -6.00921017 7.26235119 1.55989593
VERTEX2 834 -6.01274388 7.27382305 2.61832751
VERTEX2 835 -6.05282057 7.27734660 -2.88438265
VERTEX2 836 -6.08163269 7.25151759 -1.93794942
VERTEX2 837 -6.07814825 7.23549337 -0.89786762
VERTEX2 838 -6.08543514 7.23967747 -0.03257032
VERTEX2 839 -6.10690598 7.24890365 -0.24953055
VERTEX2 840 -6.11208348 7.25263415 -0.81002687
VERTEX2 841 -6.10877213 7.24664505 -1.42480508
VERTEX2 842 -6.12422112 6.99470766 -1.65425883
VERTEX2 843 -6.17747984 6.42195174 -1.65581423
VERTEX2 844 -6.22430959 5.78788252 -1.66277702
VERTEX2 845 -6.28924374 5.15266562 -1.67635332
VERTEX2 846 -6.34524884 4.51392159 -1.67342841
VERTEX2 847 -6.42508438 3.88076109 -1.69884686
VERTEX2 848 -6.44542320 3.68472857 -1.21750276
VERTEX2 849 -6.44741229 3.68536002 -0.29382761
VERTEX2 850 -6.09548995 3.70137519 0.06026793
VERTEX2 851 -5.47081170 3.71049936 -0.03179184
VERTEX2 852 -4.84708888 3.68478332 -0.01699820
VERTEX2 853 -4.25394947 3.67622937 -0.04453237
VERTEX2 854 -3.66701221 3.64235380 -0.04215752
VERTEX2 855 -3.07339311 3.62591653 -0.04358620
VERTEX2 856 -2.41478578 3.57181884 -0.08455305
VERTEX2 857 -1.75634406 3.51373253 -0.09394518
VERTEX2 858 -1.09577548 3.42202072 -0.14782032
VERTEX2 859 -0.56215609 3.34338390 -0.15376584
VERTEX2 860 -0.60159698 3.32425867 0.70125764
VERTEX2 861 -0.60464252 3.29214316 1.62054011
VERTEX2 862 -0.61043398 3.81094956 1.56184848
VERTEX2 863 -0.60077876 4.31545858 1.53021258
VERTEX2 864 -0.56677587 4.78828898 1.52888445
VERTEX2 865 -0.56872974 5.25903840 1.58736064
VERTEX2 866 -0.56697286 5.70452738 1.58695647
VERTEX2 867 -0.56777500 5.72677603 1.76919042
VERTEX2 868 -0.50937783 5.66166815 2.79707483
VERTEX2 869 -0.52365831 5.66014191 -2.50380456
VERTEX2 870 -0.57773353 5.62490967 -1.50033268
VERTEX2 871 -0.50909407 5.58660349 -0.52280078
VERTEX2 872 -0.43376676 5.54182799 0.16506904
VERTEX2 873 -0.38277753 5.52991216 -0.40526242
VERTEX2 874 -0.29714092 5.46595523 -0.96259413
VERTEX2 875 -0.23162475 5.34493355 -1.54664978
VERTEX2 876 -0.31260386 4.63793004 -1.70303984
VERTEX2 877 -0.43447529 3.94358819 -1.78674447
VERTEX2 878 -0.48601716 3.59872001 -1.40214560
VERTEX2 879 -0.28776795 2.84175142 -1.35011734
VERTEX2 880 -0.24170424 2.60624188 -1.46634902
VERTEX2 881 -0.26942003 2.86964680 -1.46386944
VERTEX2 882 -0.26295136 2.44683352 -1.71468191
VERTEX2 883 -0.36740014 2.04671294 -1.90919205
VERTEX2 884 -0.42042828 1.90401648 -1.97916290
VERTEX2 885 -0.44844145 2.11571926 -1.40388114
VERTEX2 886 -0.52100969 2.17476641 -0.39482218
VERTEX2 887 -0.53077118 2.17799932 0.60785130
VERTEX2 888 -0.44136332 2.39682762 1.58340119
VERTEX2 889 -0.51457295 2.58180477 2.47351424
VERTEX2 890 -0.89162869 2.74712500 2.74416702
VERTEX2 891 -1.49390179 3.02503368 2.67223459
VERTEX2 892 -2.10583890 3.36896498 2.63583306
VERTEX2 893 -2.72922339 3.68207572 2.87199716
VERTEX2 894 -3.34719869 3.77946197 3.09391847
VERTEX2 895 -3.89092672 3.72229647 -2.88904489
VERTEX2 896 -3.91549186 3.71532512 -2.40985954
VERTEX2 897 -4.17817999 3.28921823 -2.13696675
VERTEX2 898 -4.48173753 2.81270852 -2.12233211
VERTEX2 899 -4.72397944 2.43728860 -2.19081944
VERTEX2 900 -5.09010141 1.91974914 -2.19360718
VERTEX2 901 -5.41868174 1.49830571 -2.25816908
VERTEX2 902 -5.79081513 1.02787238 -2.23283977
VERTEX2 903 -6.06585694 0.67360133 -2.27729638
VERTEX2 904 -6.06676731 0.67214697 -1.58357907
VERTEX2 905 -6.03559972 0.20869591 -1.52066069
VERTEX2 906 -5.97712586 -0.33673624 -1.44763328
VERTEX2 907 -5.89227510 -0.88925238 -1.44963647
VERTEX2 908 -5.80565940 -1.52270628 -1.42242855
VERTEX2 909 -5.70311315 -2.14879173 -1.43835061
VERTEX2 910 -5.71972850 -2.25735720 -1.80477315
VERTEX2 911 -5.83330426 -2.80810098 -1.74219601
VERTEX2 912 -5.91397354 -3.36102187 -1.72876246
VERTEX2 913 -5.98703744 -3.89192260 -1.72015556
VERTEX2 914 -6.07011253 -4.46959619 -1.74327767
VERTEX2 915 -6.15527491 -4.96673292 -1.77958263
VERTEX2 916 -6.07057166 -5.21962564 -1.23127425
VERTEX2 917 -5.88402586 -5.86773557 -1.48550266
VERTEX2 918 -5.86835513 -6.38008805 -1.56109145
VERTEX2 919 -5.85818975 -6.99776358 -1.60465561
VERTEX2 920 -5.87914618 -7.60449652 -1.62265449
VERTEX2 921 -5.90887176 -8.21206069 -1.67662087
VERTEX2 922 -5.96800012 -8.80694417 -1.70458185
VERTEX2 923 -6.04687363 -9.36329896 -1.76898654
VERTEX2 924 -6.14084434 -9.83604464 -1.75302414
VERTEX2 925 -6.14383674 -9.82492890 -1.24963984
VERTEX2 926 -5.94955745 -10.37216124 -1.23424925
VERTEX2 927 -5.74705917 -10.94747460 -1.25850905
VERTEX2 928 -5.55341510 -11.53788765 -1.26850632
VERTEX2 929 -5.36721122 -12.12557889 -1.27059682
VERTEX2 930 -5.17049165 -12.76884491 -1.35863985
VERTEX2 931 -5.04357001 -13.39620881 -1.44484269
VERTEX2 932 -4.96204495 -14.01528598 -1.51050935
VERTEX2 933 -4.92793528 -14.60969545 -1.58182008
VERTEX2 934 -4.92208532 -15.06586440 -1.59800657
VERTEX2 935 -4.91643563 -15.08991822 -0.93235116
VERTEX2 936 -4.94535633 -15.08044755 0.03486958
VERTEX2 937 -4.39651104 -15.03414286 0.10405368
VERTEX2 938 -3.79919862 -15.02351730 -0.06204375
VERTEX2 939 -3.17844856 -15.05038016 -0.02902715
VERTEX2 940 -2.55907618 -15.09414226 -0.11468089
VERTEX2 941 -1.94613782 -15.17854592 -0.16820482
VERTEX2 942 -1.41988406 -15.26765373 -0.16364488
VERTEX2 943 -0.80219318 -15.37001993 -0.07530005
VERTEX2 944 -0.18150337 -15.42141081 -0.13200824
VERTEX2 945 0.44793433 -15.52087660 -0.18746558
VERTEX2 946 0.62903920 -15.55766827 -0.12345020
VERTEX2 947 1.02418741 -15.47736779 0.20444062
VERTEX2 948 1.58677552 -15.36182984 0.18607351
VERTEX2 949 2.18381050 -15.29849693 0.03145081
VERTEX2 950 2.81348626 -15.30348885 -0.20681233
VERTEX2 951 3.42587014 -15.44614532 -0.27794917
VERTEX2 952 4.03840072 -15.59124383 -0.02575329
VERTEX2 953 4.66716418 -15.58940667 0.05565670
VERTEX2 954 5.28266373 -15.54742020 0.04928114
VERTEX2 955 5.86641916 -15.55947404 -0.11081382
VERTEX2 956 6.41306540 -15.60547649 -0.11252579
VERTEX2 957 6.94384170 -15.67052696 -0.19960518
VERTEX2 958 7.41852847 -15.75748374 -0.22587348
VERTEX2 959 7.86945683 -15.85661076 -0.29247253
VERTEX2 960 8.47170060 -15.98761489 -0.21275336
VERTEX2 961 9.06821384 -16.13092925 -0.23999349
VERTEX2 962 9.69277580 -16.22564334 -0.17438182
VERTEX2 963 10.31045725 -16.27221092 0.01272207
VERTEX2 964 10.92591401 -16.27940638 -0.05092871
VERTEX2 965 11.54273704 -16.32394105 -0.05753781
VERTEX2 966 11.98962171 -16.35567555 -0.11621140
VERTEX2 967 12.02042699 -16.34742479 0.73817829
VERTEX2 968 12.02497060 -16.34255007 1.63591396
VERTEX2 969 12.02999035 -16.37598711 1.69567199
VERTEX2 970 12.03500748 -16.40973453 1.69419515
VERTEX2 971 11.99389527 -16.08451863 1.69458090
VERTEX2 972 11.91814323 -15.50774820 1.70044597
VERTEX2 973 11.95924723 -14.92785445 1.41582533
VERTEX2 974 12.05788290 -14.32446155 1.44786279
VERTEX2 975 12.12854575 -13.71888868 1.45266710
VERTEX2 976 12.19223265 -13.11113468 1.46576323
VERTEX2 977 12.28487193 -12.49754894 1.44018661
VERTEX2 978 12.36293115 -11.89126233 1.48684867
VERTEX2 979 12.43460970 -11.28922737 1.47516908
VERTEX2 980 12.48908782 -10.69077552 1.52259416
VERTEX2 981 12.53473432 -10.10267253 1.52980986
VERTEX2 982 12.55251500 -9.58043239 1.57481698
VERTEX2 983 12.55969131 -8.98810632 1.57212349
VERTEX2 984 12.54456073 -8.39966050 1.63020984
VERTEX2 985 12.51281690 -7.81131863 1.65112710
VERTEX2 986 12.45345768 -7.20095650 1.68806332
VERTEX2 987 12.39605316 -6.59192605 1.65192731
VERTEX2 988 12.35353248 -5.98235732 1.66611973
VERTEX2 989 12.29395169 -5.37894910 1.67431079
VERTEX2 990 12.24199852 -4.77837067 1.66404205
VERTEX2 991 12.18109148 -4.17465139 1.68932706
VERTEX2 992 12.13211020 -3.59813679 1.65715220
VERTEX2 993 12.07205646 -2.99258851 1.69023605
VERTEX2 994 12.01157138 -2.41772199 1.68054984
VERTEX2 995 11.93952024 -1.86783181 1.72713622
VERTEX2 996 11.84054936 -1.30400805 1.75354802
VERTEX2 997 11.75285957 -0.70106427 1.68830349
VERTEX2 998 11.70809758 -0.33812434 1.70936277
VERTEX2 999 11.74938400 -0.36693715 2.42492610
VERTEX2 1000 11.27294810 -0.04938702 2.57241025
VERTEX2 1001 10.81927767 0.30764593 2.24973939
VERTEX2 1002 10.43634031 0.73469639 2.34112714
VERTEX2 1003 10.06936959 1.18854645 2.15989620
VERTEX2 1004 9.69898311 1.69485863 2.21658708
VERTEX2 1005 9.31606188 2.16113661 2.27732021
VERTEX2 1006 8.89071380 2.61198993 2.35281882
VERTEX2 1007 8.44989990 3.01349747 2.44243206
VERTEX2 1008 8.19733518 3.21796309 2.59963071
VERTEX2 1009 8.09637764 3.22758439 3.07388939
VERTEX2 1010 7.53437114 3.24753912 3.12809598
VERTEX2 1011 6.91642836 3.24908816 3.08585669
VERTEX2 1012 6.30503520 3.27432523 3.12850462
VERTEX2 1013 5.66604215 3.23160298 -3.03900854
VERTEX2 1014 5.05080627 3.24068457 3.06950052
VERTEX2 1015 4.42347029 3.23992449 -3.12881456
VERTEX2 1016 3.65134935 3.22723280 -3.12189883
VERTEX2 1017 3.06389025 3.20584330 3.10471201
VERTEX2 1018 2.49896993 3.23438402 3.11259557
VERTEX2 1019 1.90094877 3.22288012 -3.11031791
VERTEX2 1020 1.28163907 3.22125231 -3.12353401
VERTEX2 1021 0.65717947 3.21193275 3.11989511
VERTEX2 1022 0.59989153 3.21298707 3.11346647
VERTEX2 1023 0.60472407 3.21321847 -3.08219950
VERTEX2 1024 -0.02325055 3.18057428 -3.05497033
VERTEX2 1025 -0.64934731 3.10910616 -3.03644641
VERTEX2 1026 -0.81066721 3.09268694 -3.02832159
VERTEX2 1027 -0.78716336 3.10634629 -2.10837161
VERTEX2 1028 -0.78815640 2.96379349 -1.54262334
VERTEX2 1029 -0.77527793 2.42144015 -1.56319423
VERTEX2 1030 -0.79105134 1.79743869 -1.64711885
VERTEX2 1031 -0.85603452 1.14749336 -1.70466926
VERTEX2 1032 -0.94094239 0.49714103 -1.70379980
VERTEX2 1033 -1.04083551 -0.15200520 -1.75240571
VERTEX2 1034 -1.07401108 -0.32109308 -1.97083489
VERTEX2 1035 -1.06783367 -0.31544364 -2.59826251
VERTEX2 1036 -1.01926218 -0.33522404 3.10654337
VERTEX2 1037 -1.34583559 -0.22631220 2.86337230
VERTEX2 1038 -1.94087842 -0.13007527 2.95081739
VERTEX2 1039 -2.56453863 0.01371264 2.91597541
VERTEX2 1040 -2.51824793 0.01380015 -2.74529322
VERTEX2 1041 -2.46982949 0.00821052 -1.74045439
VERTEX2 1042 -2.47124276 -0.02064541 -0.76434401
VERTEX2 1043 -2.42857802 -0.06048781 0.19369436
VERTEX2 1044 -2.43136787 -0.06393525 1.17552236
VERTEX2 1045 -2.39752718 0.00678939 1.07141080
VERTEX2 1046 -2.37064666 0.04253433 0.70116168
VERTEX2 1047 -2.39454770 0.03207562 0.16465922
VERTEX2 1048 -2.11044671 -0.01534398 -0.13488809
VERTEX2 1049 -1.53654089 -0.07848135 -0.10996597
VERTEX2 1050 -0.95611586 -0.11279057 -0.02596431
VERTEX2 1051 -0.27549081 -0.15209779 -0.11438699
VERTEX2 1052 0.37109329 -0.20696272 -0.07073257
VERTEX2 1053 0.80868166 -0.24935913 -0.13264451
VERTEX2 1054 0.85021078 -0.25333739 0.60605037
VERTEX2 1055 0.87257247 -0.15404438 1.63898505
VERTEX2 1056 0.85227753 -0.11909633 2.61685712
VERTEX2 1057 0.94074866 -0.13303949 -2.65280489
VERTEX2 1058 0.95171958 -0.12065669 -1.70956304
VERTEX2 1059 0.84863290 -0.71984220 -1.78417376
VERTEX2 1060 0.71058066 -1.36439814 -1.77400078
VERTEX2 1061 0.60311820 -1.82430557 -1.89031566
VERTEX2 1062 0.60054764 -1.82832527 -2.45129559
VERTEX2 1063 0.62453359 -1.81415926 -3.04561672
VERTEX2 1064 0.34829305 -1.76664745 2.97445003
VERTEX2 1065 -0.23542379 -1.71047262 3.09810227
VERTEX2 1066 -0.79442214 -1.66936761 3.04347202
VERTEX2 1067 -0.77527476 -1.66792109 -2.80428023
VERTEX2 1068 -0.76075845 -1.65714902 -2.12771217
VERTEX2 1069 -0.76020288 -1.65549815 -1.95551553
VERTEX2 1070 -0.75850978 -1.65226533 -2.49132858
VERTEX2 1071 -1.21890852 -1.92193566 -2.61687141
VERTEX2 1072 -1.65779308 -2.16819372 -2.68404121
VERTEX2 1073 -1.62412949 -2.16608136 3.09101287
VERTEX2 1074 -2.15132767 -2.11530157 3.05804842
VERTEX2 1075 -2.72638389 -2.06278457 3.07596643
VERTEX2 1076 -2.71892176 -2.06353772 -2.80543478
VERTEX2 1077 -2.72980305 -2.08621392 -2.00288128
VERTEX2 1078 -2.94527031 -2.70616909 -1.95946974
VERTEX2 1079 -3.15758569 -3.28180021 -1.89921985
VERTEX2 1080 -3.16224193 -3.29553933 -2.38978340
VERTEX2 1081 -3.56705948 -3.59134233 -2.51509475
VERTEX2 1082 -3.72073601 -3.70537076 -2.23704478
VERTEX2 1083 -3.71521038 -3.74059019 -1.20640562
VERTEX2 1084 -3.63355935 -3.77999434 -0.24062848
VERTEX2 1085 -3.66712130 -3.78991982 0.75716427
VERTEX2 1086 -3.33546871 -3.29724066 0.99326844
VERTEX2 1087 -2.98802406 -2.78369772 0.98493215
VERTEX2 1088 -2.66031967 -2.26472000 0.97186276
VERTEX2 1089 -2.60841126 -2.18984376 0.87718327
VERTEX2 1090 -2.60005297 -2.18134247 0.26367607
VERTEX2 1091 -2.07298615 -2.12089303 0.08768341
VERTEX2 1092 -1.46419362 -2.07200898 0.07319600
VERTEX2 1093 -0.90450867 -2.04358680 0.00882251
VERTEX2 1094 -0.89219704 -2.05405438 -0.39486539
VERTEX2 1095 -0.86137224 -2.07840986 -0.98410182
VERTEX2 1096 -0.86209240 -2.07597842 -1.55484795
VERTEX2 1097 -0.92601169 -2.40234011 -1.77001764
VERTEX2 1098 -1.06784821 -3.00522389 -1.82665816
VERTEX2 1099 -1.23875356 -3.56444793 -1.92267541
VERTEX2 1100 -1.23948816 -3.56657132 -1.55952764
VERTEX2 1101 -1.16871418 -3.81630807 -1.29358110
VERTEX2 1102 -1.16864563 -3.81263868 -1.68721684
VERTEX2 1103 -1.25923405 -4.41541710 -1.72096036
VERTEX2 1104 -1.35900294 -5.04505468 -1.74862537
VERTEX2 1105 -1.47640116 -5.66168497 -1.76649459
VERTEX2 1106 -1.57261444 -6.13174198 -1.79170454
VERTEX2 1107 -1.57308633 -6.12858000 -1.53556541
VERTEX2 1108 -1.50840356 -6.74062655 -1.52771699
VERTEX2 1109 -1.52577004 -7.37409739 -1.63165521
VERTEX2 1110 -1.56679326 -7.97239235 -1.68118529
VERTEX2 1111 -1.70479217 -8.49691577 -1.78247929
VERTEX2 1112 -1.70781307 -9.06490734 -1.43611407
VERTEX2 1113 -1.63913808 -9.68972875 -1.53153664
VERTEX2 1114 -1.61438982 -10.29403384 -1.51455392
VERTEX2 1115 -1.57908773 -10.86445984 -1.53080998
VERTEX2 1116 -1.53117416 -11.49951799 -1.49464185
VERTEX2 1117 -1.52385090 -11.58525175 -1.62252087
VERTEX2 1118 -1.51692217 -11.57041811 -2.22999339
VERTEX2 1119 -1.49866778 -11.55622239 -2.66183891
VERTEX2 1120 -2.03983173 -11.78827091 -2.72552899
VERTEX2 1121 -2.21580944 -11.86149861 -2.84417702
VERTEX2 1122 -2.20899055 -11.86342193 2.88852265
VERTEX2 1123 -2.76508093 -11.71000841 2.90543643
VERTEX2 1124 -3.32468405 -11.61308171 3.00420262
VERTEX2 1125 -3.95145638 -11.52308993 3.01776406
VERTEX2 1126 -4.02721319 -11.51522036 -2.92560201
VERTEX2 1127 -4.02542283 -11.51692950 -1.86834825
VERTEX2 1128 -4.02284066 -11.49941439 -0.88098318
VERTEX2 1129 -4.00495442 -11.50814010 0.13461694
VERTEX2 1130 -3.41250684 -11.40899273 0.14837665
VERTEX2 1131 -2.62802793 -11.49064208 -0.28340673
VERTEX2 1132 -2.00369802 -11.67425853 -0.30307338
VERTEX2 1133 -1.44330744 -11.87206915 -0.34178605
VERTEX2 1134 -1.18320678 -11.96477098 -0.43883125
VERTEX2 1135 -1.17436248 -11.97255902 -0.99499376
VERTEX2 1136 -1.16890466 -11.95939984 -1.55708010
VERTEX2 1137 -1.20509673 -12.25178411 -1.74114566
VERTEX2 1138 -1.32341552 -12.87950153 -1.75744181
VERTEX2 1139 -1.42044729 -13.40455193 -1.83101237
VERTEX2 1140 -1.41976492 -13.40266479 -2.31092582
VERTEX2 1141 -1.41121049 -13.39347342 -2.85946780
VERTEX2 1142 -1.77095344 -13.36855955 3.05853568
VERTEX2 1143 -2.36587329 -13.35145423 -3.13578444
VERTEX2 1144 -2.94349727 -13.34536901 3.11623920
VERTEX2 1145 -3.51871968 -13.32762604 3.09016326
VERTEX2 1146 -4.09157361 -13.29781695 3.10924892
VERTEX2 1147 -4.66785317 -13.31447051 -3.10205289
VERTEX2 1148 -5.25222945 -13.34391162 -3.10898290
VERTEX2 1149 -5.30175917 -13.34726605 -2.64815367
VERTEX2 1150 -5.37845534 -13.44034743 -1.73400622
VERTEX2 1151 -5.37296548 -13.46026012 -0.73687551
VERTEX2 1152 -5.34212546 -13.45808311 0.30906634
VERTEX2 1153 -5.31946962 -13.44558027 1.31507884
VERTEX2 1154 -5.39901545 -13.14211196 1.85776553
VERTEX2 1155 -5.57163642 -12.53670093 1.80706336
VERTEX2 1156 -5.70700669 -11.94665893 1.81589513
VERTEX2 1157 -5.86855300 -11.39370600 1.92557902
VERTEX2 1158 -6.03061215 -10.80935471 1.79556161
VERTEX2 1159 -6.12668768 -10.22101449 1.70201288
VERTEX2 1160 -6.18806516 -9.59267334 1.56584644
VERTEX2 1161 -6.12840992 -8.96088621 1.47679482
VERTEX2 1162 -6.07736086 -8.32956102 1.53559539
VERTEX2 1163 -6.05613601 -7.69006697 1.53085957
VERTEX2 1164 -6.04939484 -7.05388857 1.61716410
VERTEX2 1165 -6.07474792 -6.51047646 1.59390295
VERTEX2 1166 -6.07639084 -6.50451654 2.08197944
VERTEX2 1167 -6.02096143 -6.48710339 3.01751503
VERTEX2 1168 -5.97286717 -6.46426390 -2.36330691
VERTEX2 1169 -5.97343025 -6.51129459 -1.54253166
VERTEX2 1170 -5.94647756 -7.09233463 -1.53624607
VERTEX2 1171 -5.90636268 -7.72151349 -1.50495857
VERTEX2 1172 -5.87325508 -8.31505634 -1.56790163
VERTEX2 1173 -5.86430469 -8.93454983 -1.55925181
VERTEX2 1174 -5.86914229 -9.55996364 -1.62851575
VERTEX2 1175 -5.91707692 -10.17240676 -1.66245427
VERTEX2 1176 -5.97420875 -10.76856304 -1.70675256
VERTEX2 1177 -6.05347888 -11.35413581 -1.70529036
VERTEX2 1178 -6.14393658 -11.94438602 -1.75311929
VERTEX2 1179 -6.24133512 -12.52692605 -1.72437116
VERTEX2 1180 -6.27639788 -12.75430463 -1.73192605
VERTEX2 1181 -6.27362625 -12.71981515 -0.90576321
VERTEX2 1182 -6.22100038 -12.73006976 -0.19532710
VERTEX2 1183 -5.60325354 -12.84347750 -0.17071776
VERTEX2 1184 -4.96000248 -12.94023687 -0.10336666
VERTEX2 1185 -4.32331363 -13.03374383 -0.13664073
VERTEX2 1186 -3.69159133 -13.11137364 -0.07046760
VERTEX2 1187 -3.04438897 -13.17900821 -0.10655202
VERTEX2 1188 -2.41990358 -13.25073057 -0.08649743
VERTEX2 1189 -1.76453058 -13.32176483 -0.06434115
VERTEX2 1190 -1.44470027 -13.34316166 -0.05583708
VERTEX2 1191 -1.42807668 -13.34186139 0.86619575
VERTEX2 1192 -1.42729794 -13.27493601 1.66536787
VERTEX2 1193 -1.45622448 -12.69155944 1.53390884
VERTEX2 1194 -1.45031262 -12.13274055 1.57639327
VERTEX2 1195 -1.46012829 -11.52510361 1.62913008
VERTEX2 1196 -1.49231443 -10.91809820 1.45691730
VERTEX2 1197 -1.42946681 -10.31621418 1.46846999
VERTEX2 1198 -1.39950928 -9.70380091 1.72770679
VERTEX2 1199 -1.45426200 -9.10898181 1.51331217
VERTEX2 1200 -1.43791193 -8.49382979 1.58249923
VERTEX2 1201 -1.45238882 -7.89023090 1.63844231
VERTEX2 1202 -1.50147469 -7.28514071 1.66144195
VERTEX2 1203 -1.56816554 -6.71355326 1.57151788
VERTEX2 1204 -1.49424233 -6.13411842 1.42468329
VERTEX2 1205 -1.42424745 -5.58408118 1.45417118
VERTEX2 1206 -1.37793881 -5.00794933 1.51526325
VERTEX2 1207 -1.28252424 -4.40813418 1.42897312
VERTEX2 1208 -1.21186172 -3.79573590 1.49341990
VERTEX2 1209 -1.16554004 -3.18782225 1.49122513
VERTEX2 1210 -1.14025211 -2.58498372 1.51148335
VERTEX2 1211 -1.05107698 -1.99577160 1.44206862
VERTEX2 1212 -0.97487964 -1.40994547 1.49570722
VERTEX2 1213 -0.94646483 -0.83418546 1.57307395
VERTEX2 1214 -0.91226078 -0.14647289 1.35612750
VERTEX2 1215 -0.79457111 0.42342303 1.41977306
VERTEX2 1216 -0.78670789 0.93270443 1.64354872
VERTEX2 1217 -0.79870371 1.46263228 1.62897874
VERTEX2 1218 -0.84126431 2.05139966 1.57830974
VERTEX2 1219 -0.85271225 2.70232402 1.60890774
VERTEX2 1220 -0.90171765 3.28737764 1.69964574
VERTEX2 1221 -0.90100245 3.28560888 1.24689274
VERTEX2 1222 -0.89199616 3.29623184 0.64958574
VERTEX2 1223 -0.88048318 3.30014817 0.08995874
VERTEX2 1224 -0.30033480 3.26305322 -0.09294926
VERTEX2 1225 0.32302652 3.20886473 -0.07918526
VERTEX2 1226 0.42918816 3.20033133 -0.09591626
VERTEX2 1227 0.42918816 3.20033133 -0.09657826
