1 28 45 2 824.66113335 0.00000606 1 
2 19 166 0 0.41485034 0.00210601 5 
3 19 172 0 0.02820697 0.00186433 4 
4 25 172 0 0.50366199 0.00187388 4 
5 25 178 0 0.30831851 0.00198026 4 
6 32 178 0 0.01493521 0.00198723 4 
7 32 183 0 0.07055611 0.00201272 4 
8 54 185 2 342.67012206 0.00000205 1 
9 44 189 0 0.52863102 0.00207561 4 
10 82 193 2 360.74904518 0.00000213 1 
11 43 193 2 3041.48517558 0.00000143 1 
12 44 195 0 0.35755137 0.00216562 4 
13 50 195 0 0.00572854 0.00220461 4 
14 154 197 2 1336.64712579 0.00000244 1 
15 50 201 0 0.04110605 0.00189807 3 
16 50 203 0 0.06975183 0.00187413 3 
17 61 203 0 0.00745912 0.00190349 3 
18 61 209 0 0.37222863 0.00231230 4 
19 67 209 0 0.41032090 0.00232868 4 
20 67 220 0 0.66144083 0.00250800 4 
21 81 220 0 0.48035877 0.00285527 5 
22 81 226 0 0.05402805 0.00256575 4 
23 87 226 0 1.82553139 0.00294159 5 
24 87 231 0 0.34656585 0.00262101 4 
25 94 231 0 0.55778528 0.00256751 4 
26 226 231 0 1.44127402 0.00298577 5 
27 86 239 2 2146.29845986 0.00000238 1 
28 186 240 2 136.34643281 0.00000220 1 
29 94 241 0 1.33132047 0.00269167 4 
30 101 241 0 0.50961029 0.00271386 4 
31 101 247 0 1.66454674 0.00276330 4 
32 107 247 0 1.80094617 0.00278068 4 
33 107 254 0 1.18346605 0.00284469 4 
34 114 254 0 0.12939160 0.00286120 4 
35 107 256 0 0.93085039 0.00285236 4 
36 114 256 0 0.24629796 0.00285711 4 
37 107 258 0 1.37911724 0.00290324 4 
38 114 258 0 1.15747212 0.00292562 4 
39 42 265 2 493.39839514 0.00000204 1 
40 121 266 0 0.00938596 0.00301129 4 
41 126 266 0 0.44864328 0.00355149 5 
42 4 269 2 361.77470156 0.00000233 1 
43 126 272 0 1.03992836 0.00309096 4 
44 132 272 0 0.39070916 0.00364859 5 
45 132 278 0 0.58358145 0.00317655 4 
46 138 278 0 1.06458780 0.00373597 5 
47 58 278 2 986.17904910 0.00000203 5 
48 138 284 0 0.02201259 0.00271068 3 
49 151 284 0 0.12777228 0.00329072 4 
50 151 291 0 0.60037557 0.00331599 4 
51 95 295 2 1276.66636093 0.00000227 1 
52 151 297 0 0.07972289 0.00284877 3 
53 157 297 0 1.04991834 0.00344825 4 
54 166 297 0 1.30507781 0.00338802 4 
55 166 299 2 5591.38058829 0.00000194 1 
56 19 305 0 0.16044642 0.00357202 4 
57 157 305 0 0.58687353 0.00360482 4 
58 163 305 0 7.56485476 0.00484458 6 
59 166 305 0 0.37495035 0.00360253 4 
60 172 305 0 0.01886255 0.00360551 4 
61 114 307 2 3765.78345866 0.00000212 1 
62 223 309 2 1223.78913871 0.00000183 1 
63 19 315 0 0.48455906 0.00310393 3 
64 25 315 0 0.02281386 0.00311621 3 
65 172 315 0 0.05679715 0.00372943 4 
66 25 324 2 1591.76986017 0.00000242 1 
67 139 327 2 1114.08730629 0.00000209 1 
68 172 328 0 0.12482725 0.00325233 3 
69 109 333 2 2286.39741948 0.00000253 1 
70 19 337 0 6.63404991 0.00465707 5 
71 25 337 0 0.96522419 0.00400034 4 
72 172 337 0 0.57611560 0.00333770 3 
73 19 342 0 0.00494520 0.00338162 3 
74 25 342 0 0.12855172 0.00406196 4 
75 172 342 0 0.01223902 0.00411374 4 
76 178 342 0 0.12442988 0.00417418 4 
77 295 349 2 660.64998779 0.00000275 1 
78 32 364 2 287.44562192 0.00000289 1 
79 25 367 0 0.11414782 0.00378747 3 
80 32 367 0 0.01267433 0.00595454 6 
81 178 367 0 0.00286807 0.00376710 3 
82 183 367 0 0.06698524 0.00377285 3 
83 169 368 2 6306.99178395 0.00000290 1 
84 73 370 2 1369.38028974 0.00000256 1 
85 25 374 0 0.56424690 0.00459319 4 
86 32 374 0 0.09892849 0.00532395 5 
87 178 374 0 0.03055075 0.00460558 4 
88 183 374 0 0.05309447 0.00457301 4 
89 32 382 0 4.14688582 0.00394753 3 
90 183 382 0 1.28811506 0.00465566 4 
91 188 382 2 1873.44287519 0.00000279 4 
92 32 387 0 2.72468715 0.00474320 4 
93 183 387 0 0.18197642 0.00472008 4 
94 357 390 2 1269.37425957 0.00000297 1 
95 328 404 2 213.35370100 0.00000294 1 
96 204 413 2 110.45163449 0.00000291 1 
97 194 413 2 396.67788846 0.00000163 1 
98 189 414 0 7.69047346 0.00586977 5 
99 101 418 2 454.07806411 0.00000299 1 
100 286 422 2 2066.76662952 0.00000301 1 
101 79 425 2 430.90783815 0.00000269 1 
102 408 425 2 826.09437072 0.00000155 1 
103 414 432 2 658.27434811 0.00000289 1 
104 355 432 2 311.51822196 0.00000191 1 
105 73 435 2 204.47417304 0.00000287 1 
106 44 437 0 0.00915802 0.00437720 3 
107 195 437 0 0.01161094 0.00438188 3 
108 323 452 2 803.37133609 0.00000325 1 
109 44 454 0 0.65644164 0.00451710 3 
110 189 454 0 0.03962740 0.00542707 4 
111 222 465 2 173.63851215 0.00000256 1 
112 44 467 0 0.12345281 0.00641548 5 
113 50 467 0 0.00895575 0.01022778 9 
114 195 467 0 0.00230988 0.00463729 3 
115 151 470 2 3683.81488807 0.00000337 1 
116 448 471 2 1500.27641478 0.00000270 1 
117 195 484 0 0.09447226 0.00573860 4 
118 2 490 2 507.98996997 0.00000305 1 
119 425 490 2 606.11660950 0.00000144 1 
120 107 492 2 1480.85077598 0.00000246 1 
121 44 494 0 0.02880924 0.00576790 4 
122 50 494 0 0.00628832 0.00483250 3 
123 195 494 0 0.00818961 0.00683543 5 
124 201 494 0 0.00469852 0.00687203 5 
125 64 499 2 6548.59518585 0.00001172 1 
126 50 500 0 0.14406209 0.00695922 5 
127 201 500 0 0.05353930 0.00491449 3 
128 203 500 0 0.03252445 0.00488953 3 
129 61 508 0 0.99413579 0.00711838 5 
130 203 508 0 0.26947301 0.01224104 10 
131 209 508 0 0.03711473 0.00605496 4 
132 235 510 2 1817.02965811 0.00000283 1 
133 61 522 0 1.37942234 0.00613514 4 
134 203 522 0 0.12859200 0.00511590 3 
135 209 522 0 0.00542469 0.00514410 3 
136 456 527 2 510.34543251 0.00000282 1 
137 61 528 0 0.47936102 0.00515058 3 
138 67 528 0 0.22419307 0.00650157 4 
139 81 528 0 0.23233822 0.00869986 6 
140 209 528 0 0.09444678 0.01063961 8 
141 220 528 0 0.13668760 0.00623921 4 
142 49 531 2 2648.86841082 0.00000280 1 
143 67 532 0 0.05459173 0.01181570 9 
144 81 532 0 0.11826401 0.00847922 6 
145 220 532 0 0.05648169 0.00634061 4 
146 327 533 2 1283.03743813 0.00000241 1 
147 343 541 2 719.41537185 0.00000295 1 
148 184 543 2 1165.71261641 0.00000224 1 
149 67 556 0 0.98233216 0.00649952 4 
150 20 561 2 1099.26613670 0.00000240 1 
151 67 564 0 0.40168838 0.01234278 9 
152 81 564 0 0.02280941 0.00663247 4 
153 220 564 0 0.02684857 0.00665883 4 
154 67 567 0 2.67253169 0.00781503 5 
155 81 567 0 0.48923871 0.00911585 6 
156 220 567 0 0.21723258 0.00665398 4 
157 67 570 0 2.40706627 0.00909394 6 
158 81 570 0 0.15671702 0.00902712 6 
159 220 570 0 0.13379867 0.00674028 4 
160 191 570 2 632.34574568 0.00000279 4 
161 81 575 0 2.76594993 0.00792255 5 
162 220 575 0 1.08612706 0.01035242 7 
163 61 580 2 1961.71704460 0.00000287 1 
164 501 582 2 5802.57828474 0.00000266 1 
165 81 588 0 0.01497138 0.00574445 3 
166 87 588 0 0.47937722 0.00817315 5 
167 226 588 0 0.43156268 0.00690994 4 
168 478 592 2 3771.50319642 0.00000305 1 
169 110 595 2 391.91116674 0.00000259 1 
170 87 597 0 2.27648751 0.00955439 6 
171 94 597 0 0.38888315 0.00700398 4 
172 226 597 0 0.55079633 0.00830948 5 
173 392 598 2 1816.32395642 0.00000324 1 
174 87 604 0 0.47149562 0.00710647 4 
175 94 604 0 0.01542269 0.00840879 5 
176 579 607 2 698.78325155 0.00000269 1 
177 371 611 2 1627.07765349 0.00000253 1 
178 94 616 0 0.01350372 0.01233842 8 
179 350 617 2 1297.52151208 0.00000368 1 
180 319 624 2 380.51625622 0.00000298 1 
181 484 627 2 196.04669693 0.00000275 1 
182 19 628 2 353.22130893 0.00000297 1 
183 94 632 0 2.16969694 0.00879177 5 
184 94 637 0 4.44236402 0.01006474 6 
185 101 637 0 0.19098383 0.00751749 4 
186 101 642 0 0.11555601 0.00890036 5 
187 107 642 0 0.04025021 0.01454321 9 
188 21 644 2 856.73705367 0.00000367 1 
189 101 645 0 6.69527511 0.00761475 4 
190 107 645 0 1.54205090 0.00750680 4 
191 101 657 0 0.73548669 0.01689536 10 
192 630 658 2 5181.36952876 0.00000392 10 
193 182 662 2 2140.41192765 0.00000354 10 
194 101 663 0 0.04971914 0.01676645 10 
195 107 663 0 0.01781179 0.00914525 5 
196 114 663 0 0.00275957 0.00915878 5 
197 161 664 2 2791.56492007 0.00000391 1 
198 272 664 2 235.34155189 0.00000118 1 
199 101 665 0 1.55112265 0.01349535 8 
200 107 665 0 0.47667103 0.00781653 4 
201 114 665 0 0.13329170 0.00648823 3 
202 530 670 2 1376.25290026 0.00000268 1 
203 233 676 2 1072.65842067 0.00000340 1 
204 107 680 0 1.48615866 0.00938027 5 
205 275 682 2 4010.67119203 0.00000306 1 
206 107 683 0 0.94462224 0.00803514 4 
207 114 683 0 0.32178225 0.00957506 5 
208 602 684 2 3121.76323970 0.00000308 1 
209 182 686 2 976.83131659 0.00000280 1 
210 367 692 2 2447.15078180 0.00000275 1 
211 403 695 2 279.83900430 0.00000300 1 
212 598 698 2 36.24366095 0.00000262 1 
213 39 701 2 351.23308262 0.00000268 1 
214 244 702 2 259.01500913 0.00000244 1 
215 107 704 0 0.34268109 0.01262844 7 
216 114 704 0 0.07528002 0.01554144 9 
217 157 705 2 1160.25621302 0.00000360 1 
218 271 709 2 1698.80612268 0.00000314 1 
219 107 714 0 1.79639085 0.01143251 6 
220 114 714 0 0.02860377 0.01438155 8 
221 689 721 2 768.78351053 0.00000396 1 
222 107 730 0 0.19656714 0.01015258 5 
223 114 730 0 0.03540690 0.00855711 4 
224 291 742 2 2343.00078968 0.00000366 1 
225 631 743 2 589.14634232 0.00000253 1 
226 619 743 2 118.99154552 0.00000137 1 
227 571 748 2 778.89146968 0.00000383 1 
228 121 754 0 0.33113739 0.00874557 4 
229 126 754 0 0.07673382 0.01513001 8 
230 121 759 0 2.33625684 0.01195883 6 
231 126 759 0 0.22329988 0.01202212 6 
232 559 759 2 2678.32274235 0.00000341 6 
233 299 760 2 948.88075441 0.00000339 1 
234 126 762 0 7.08482229 0.01038981 5 
235 132 762 0 2.00372045 0.01536088 8 
236 18 765 2 210.40623102 0.00000358 1 
237 132 778 0 0.06999780 0.00905542 4 
238 554 779 2 856.09668392 0.00000493 1 
239 543 784 2 1466.05516036 0.00000431 1 
240 633 786 2 1837.53612769 0.00000376 1 
241 243 788 2 117.60864634 0.00000355 1 
242 613 789 2 424.44355830 0.00000328 1 
243 132 792 0 1.26802734 0.00930045 4 
244 645 792 2 2345.67022649 0.00000395 4 
245 132 800 0 3.35686460 0.00918859 4 
246 138 800 0 0.14494330 0.01255333 6 
247 79 802 2 4816.64573033 0.00000358 1 
248 138 806 0 0.25140739 0.00751689 3 
249 186 806 2 5786.34688866 0.00000326 3 
250 471 810 2 1708.84894248 0.00000342 1 
251 791 811 2 754.83846739 0.00000288 1 
252 46 813 2 1117.02329191 0.00000322 1 
253 194 817 2 2661.58270116 0.00000373 1 
254 138 821 0 0.40674396 0.01110156 5 
255 138 823 0 6.54725682 0.00936660 4 
256 206 824 2 3546.93297952 0.00000405 1 
257 774 826 2 1766.28654874 0.00000311 1 
258 151 828 0 3.12108818 0.00948469 4 
259 328 829 2 1173.22592006 0.00000378 1 
260 787 829 2 412.53912753 0.00000136 1 
261 646 831 2 1756.04703068 0.00000315 1 
262 405 840 2 514.33269413 0.00000355 1 
263 151 847 0 0.08724621 0.01144235 5 
264 423 849 2 1472.80978324 0.00000362 1 
265 182 851 2 1200.11596893 0.00000376 1 
266 670 852 2 509.08522810 0.00000329 1 
267 151 855 0 0.11494457 0.01509929 7 
268 242 881 2 1017.11168794 0.00000396 1 
269 148 890 2 355.00687946 0.00000409 1 
270 151 895 0 2.80701437 0.01759279 8 
271 151 897 0 0.06118057 0.02134552 10 
272 204 902 2 909.31070966 0.00000427 1 
273 138 903 0 0.08157811 0.01021184 4 
274 138 904 0 7.06392298 0.01399370 6 
275 132 907 0 0.71874717 0.01033370 4 
276 138 907 0 0.22077132 0.01217308 5 
277 209 907 2 2824.62238410 0.00000346 5 
278 566 907 2 2925.87697894 0.00000129 5 
279 132 911 0 0.23128175 0.01219776 5 
280 867 915 2 111.78847618 0.00000369 1 
281 779 920 2 1429.31631901 0.00000345 1 
282 121 923 0 0.62636126 0.01433300 6 
283 126 923 0 0.07130653 0.01045144 4 
284 740 926 2 2588.64249188 0.00000462 1 
285 107 929 0 0.07225325 0.01251274 5 
286 114 929 0 0.00477553 0.01055484 4 
287 309 931 2 3431.58581869 0.00000384 1 
288 332 934 2 1982.34188842 0.00000373 1 
289 107 935 0 4.91438615 0.01649073 7 
290 114 935 0 1.40337639 0.01651476 7 
291 189 935 2 7167.13172946 0.00000390 7 
292 235 935 2 4879.66848226 0.00000137 7 
293 101 939 0 0.48567419 0.01067786 4 
294 107 939 0 0.21174614 0.01070287 4 
295 115 941 2 3027.33297242 0.00000487 1 
296 855 941 2 4759.94901424 0.00000102 1 
297 58 942 2 1266.44718955 0.00000328 1 
298 101 944 0 0.15377935 0.01272370 5 
299 94 947 0 0.23772432 0.01673208 7 
300 101 947 0 0.16826262 0.01477143 6 
301 429 952 2 1923.03845871 0.00000350 1 
302 617 952 2 558.58454298 0.00000148 1 
303 87 953 0 0.13504795 0.01093404 4 
304 94 953 0 0.06505521 0.01489849 6 
305 226 953 0 0.08268323 0.02292928 10 
306 904 955 2 1572.93247773 0.00000429 1 
307 81 959 0 1.83528326 0.02433228 10 
308 87 959 0 1.29172246 0.01708326 7 
309 220 959 0 0.04883629 0.01100049 4 
310 226 959 0 0.12130941 0.01303835 5 
311 31 960 2 6522.50900736 0.00000419 1 
312 66 963 2 869.78698423 0.00000439 1 
313 67 965 0 1.01368609 0.01314198 5 
314 81 965 0 0.31066014 0.01516094 6 
315 220 965 0 0.16483276 0.01926561 8 
316 61 976 0 0.16803746 0.01739557 7 
317 67 976 0 0.05676300 0.00914303 3 
318 209 976 0 0.00780965 0.01121251 4 
319 243 978 2 1256.67163290 0.00000416 1 
320 50 982 0 0.38354811 0.01133614 4 
321 61 982 0 0.27147698 0.01130803 4 
322 201 982 0 0.22200943 0.01133211 4 
323 203 982 0 0.10573284 0.02225115 9 
324 621 987 2 554.52034733 0.00000423 1 
325 44 988 0 0.09550719 0.01142638 4 
326 50 988 0 0.05924873 0.01142208 4 
327 195 988 0 0.04319526 0.01567618 6 
328 201 988 0 0.02685916 0.01353219 5 
329 892 991 2 893.03982411 0.00000471 1 
330 44 994 0 0.51683435 0.01783295 7 
331 189 994 0 0.29989154 0.02563366 10 
332 195 994 0 0.21957432 0.01364741 5 
333 804 999 2 1773.94168322 0.00000426 1 
334 32 1003 0 0.23901034 0.01385081 5 
335 178 1003 0 0.03356851 0.02598053 10 
336 183 1003 0 0.01433170 0.01600994 6 
337 584 1005 2 1178.13559188 0.00000529 1 
338 292 1006 2 483.83576736 0.00000464 1 
339 25 1008 0 1.23858172 0.01834100 7 
340 32 1008 0 0.53803958 0.01175234 4 
341 178 1008 0 0.34459610 0.01174479 4 
342 183 1008 0 0.22233868 0.01178229 4 
343 25 1010 0 0.60236133 0.01178748 4 
344 32 1010 0 0.30591807 0.01396977 5 
345 172 1010 0 0.10368354 0.01627076 6 
346 178 1010 0 0.19279072 0.02638983 10 
347 555 1013 2 312.00365166 0.00000437 4 
348 19 1016 0 0.44047719 0.02050143 8 
349 166 1016 0 0.20189646 0.01183128 4 
350 172 1016 0 0.07393216 0.01402005 5 
351 711 1016 2 3804.63243966 0.00000443 5 
352 217 1024 2 5396.43641548 0.00000593 1 
353 186 1025 2 850.14487185 0.00000582 1 
354 992 1026 2 2425.19256771 0.00000501 1 
355 151 1029 0 0.03533130 0.01432527 5 
356 157 1029 0 0.02672450 0.01199672 4 
357 163 1029 0 3.39703566 0.01199859 4 
358 166 1029 0 0.49353449 0.01201469 4 
359 342 1034 2 9420.69154043 0.00000503 1 
360 491 1040 2 901.34130484 0.00000579 1 
361 310 1041 2 1962.29708408 0.00000512 1 
362 421 1046 2 1235.65055782 0.00000538 1 
363 317 1055 2 265.99513138 0.00000496 1 
364 933 1056 2 779.04563163 0.00000567 1 
365 48 1061 2 508.45141711 0.00000551 1 
366 91 1063 2 305.63421734 0.00000516 1 
367 574 1066 2 410.28518582 0.00000564 1 
368 695 1066 2 36.43792283 0.00000171 1 
369 308 1070 2 239.10272372 0.00000595 1 
370 202 1070 2 153.59991857 0.00000182 1 
371 367 1072 2 252.27455378 0.00000545 1 
372 132 1084 0 4.21993706 0.01501744 5 
373 391 1085 2 523.23370483 0.00000635 1 
374 14 1089 2 1707.62843615 0.00000552 1 
375 893 1089 2 2999.92712370 0.00000237 1 
376 1036 1090 2 687.29639615 0.00000477 1 
377 388 1108 2 296.45113125 0.00000514 1 
378 28 1109 2 1066.14093792 0.00000475 1 
379 124 1118 2 33.36982809 0.00000577 1 
380 261 1121 2 507.14300603 0.00000637 1 
381 987 1131 2 99.79782339 0.00000687 1 
382 845 1132 2 53.20340567 0.00000560 1 
383 858 1133 2 342.03644430 0.00000544 1 
384 852 1136 2 453.52861813 0.00000614 1 
385 994 1137 2 187.56860856 0.00000615 1 
386 101 1138 0 0.63021658 0.01574759 5 
387 904 1142 2 847.04002960 0.00000582 1 
388 559 1145 2 1737.61203610 0.00000522 1 
389 107 1147 0 0.73708347 0.01331466 4 
390 114 1147 0 0.03971358 0.01083272 3 
391 53 1147 2 3316.13815427 0.00000480 3 
392 107 1150 0 7.45683387 0.01335028 4 
393 114 1150 0 1.00561260 0.01088353 3 
394 716 1152 2 4862.71331649 0.00000611 1 
395 115 1157 2 239.06221172 0.00000557 1 
396 114 1158 0 0.16899687 0.01093404 3 
397 121 1158 0 0.69099743 0.01345972 4 
398 911 1158 2 5604.56909717 0.00000489 4 
399 760 1160 2 4332.76744134 0.00000607 1 
400 169 1162 2 2186.69945891 0.00000552 1 
401 121 1164 0 0.45182924 0.01603403 5 
402 126 1164 0 0.04418665 0.01357937 4 
403 231 1166 2 7632.76098297 0.00000588 1 
404 257 1168 2 2423.45815113 0.00000574 1 
405 599 1173 2 977.75298842 0.00000560 1 
406 1141 1173 2 1757.05098502 0.00000220 1 
407 667 1173 2 2333.37047555 0.00000199 1 
408 676 1174 2 510.20852563 0.00000606 1 
409 537 1174 2 144.08097672 0.00000185 1 
410 114 1175 0 0.14266969 0.01368081 4 
411 121 1175 0 0.27324351 0.01371618 4 
412 923 1175 0 0.18719011 0.01371516 4 
413 929 1175 0 0.16073549 0.01366594 4 
414 1158 1175 0 0.00134797 0.01112638 3 
415 197 1176 2 481.84083737 0.00000563 1 
416 890 1178 2 1891.20385658 0.00000553 1 
417 667 1178 2 3154.43911819 0.00000189 1 
418 96 1181 2 1327.83273497 0.00000592 1 
419 407 1181 2 1761.63913111 0.00000212 1 
420 767 1185 2 236.60775555 0.00000586 1 
421 101 1188 0 0.32950319 0.01383757 4 
422 939 1188 0 0.55418798 0.01485694 4 
423 1138 1188 0 0.03006025 0.01139883 3 
424 1147 1188 0 0.04063922 0.01128372 3 
425 1150 1188 0 1.83245351 0.01384656 4 
426 421 1194 2 1461.71670636 0.00000595 1 
427 721 1196 2 414.22403706 0.00000525 1 
428 654 1197 2 549.07236044 0.00000534 1 
429 219 1199 2 1163.87738909 0.00000543 1 
430 979 1199 2 2734.73839552 0.00000232 1 
431 724 1201 2 1061.76559951 0.00000613 1 
432 758 1204 2 143.75147490 0.00000534 1 
433 547 1205 2 413.50535289 0.00000562 1 
434 1162 1207 2 597.73146262 0.00000542 1 
435 1050 1210 0 0.00345523 0.01421362 4 
436 1061 1210 0 0.57363906 0.01671149 5 
437 1075 1210 0 0.23107861 0.01671344 5 
438 1084 1210 0 3.13555510 0.01674771 5 
439 1088 1210 0 0.59156319 0.01410956 4 
440 1093 1210 0 0.13111230 0.01937288 6 
441 1098 1210 0 0.04730346 0.01410245 4 
442 316 1215 2 2751.33289382 0.00000711 1 
443 749 1215 2 310.10759539 0.00000177 1 
444 157 1217 0 0.32750279 0.01423758 4 
445 163 1217 0 0.19904338 0.01439267 4 
446 1029 1217 0 0.01250493 0.01167075 3 
447 1044 1217 0 3.98258990 0.01440233 4 
448 1050 1217 0 4.97161000 0.01706727 5 
449 11 1221 2 639.29144238 0.00000574 1 
450 1198 1223 2 405.13553116 0.00000594 1 
451 293 1223 2 1558.35690330 0.00000221 1 
452 810 1227 2 1024.51795203 0.00000625 1 
453 163 297 0 0.27920255 0.01514930 4 
454 189 400 0 2.09679271 0.01630591 4 
455 11 973 1 16.15058218 0.00000599 4 
456 1056 1217 0 9.66143264 0.01725933 5 
