1 28 45 0.00016541 3 
2 19 166 0.00293963 10 
3 19 172 0.00309005 10 
4 25 172 0.00315639 10 
5 25 178 0.00326664 10 
6 32 178 0.00328967 10 
7 32 183 0.00338964 10 
8 54 185 0.00341208 10 
9 44 189 0.00352055 10 
10 82 193 0.00358542 10 
11 43 193 0.00358673 10 
12 44 195 0.00363470 10 
13 50 195 0.00365811 10 
14 154 197 0.00373754 10 
15 50 201 0.00380714 10 
16 50 203 0.00386718 10 
17 61 203 0.00389930 10 
18 61 209 0.00401087 10 
19 67 209 0.00402642 10 
20 67 220 0.00426760 10 
21 81 220 0.00424985 10 
22 81 226 0.00437303 10 
23 87 226 0.00440515 10 
24 87 231 0.00449749 10 
25 94 231 0.00450178 10 
26 226 231 0.00448795 10 
27 86 239 0.00466602 10 
28 186 240 0.00479204 10 
29 94 241 0.00480156 10 
30 101 241 0.00481890 10 
31 101 247 0.00491993 10 
32 107 247 0.00493769 10 
33 107 254 0.00506448 10 
34 114 254 0.00508498 10 
35 107 256 0.00512395 10 
36 114 256 0.00515009 10 
37 107 258 0.00516030 10 
38 114 258 0.00518889 10 
39 42 265 0.00543741 10 
40 121 266 0.00544091 10 
41 126 266 0.00545474 10 
42 4 269 0.00564049 10 
43 126 272 0.00572024 10 
44 132 272 0.00575778 10 
45 132 278 0.00585654 10 
46 138 278 0.00588763 10 
47 58 278 0.00592805 10 
48 138 284 0.00604106 10 
49 151 284 0.00604882 10 
50 151 291 0.00618253 10 
51 95 295 0.00640390 10 
52 151 297 0.00644894 10 
53 157 297 0.00647681 10 
54 163 297 0.00647545 10 
55 166 297 0.00649722 10 
56 166 299 0.00653071 10 
57 19 305 0.00664874 10 
58 157 305 0.00666868 10 
59 163 305 0.00669309 10 
60 166 305 0.00668203 10 
61 172 305 0.00670538 10 
62 114 307 0.00678254 10 
63 223 309 0.00695424 10 
64 19 315 0.00711067 10 
65 25 315 0.00708207 10 
66 172 315 0.00709374 10 
67 25 324 0.00728579 10 
68 139 327 0.00740835 10 
69 172 328 0.00747046 10 
70 109 333 0.00758218 10 
71 19 337 0.00768279 10 
72 25 337 0.00769953 10 
73 172 337 0.00770316 10 
74 19 342 0.00782542 10 
75 25 342 0.00782597 10 
76 172 342 0.00393500 5 
77 178 342 0.00773879 10 
78 295 349 0.00624625 8 
79 32 364 0.00566067 7 
80 25 367 0.00404644 5 
81 32 367 0.00570416 7 
82 178 367 0.00487396 6 
83 183 367 0.00570899 7 
84 169 368 0.00411333 5 
85 73 370 0.00863621 10 
86 25 374 0.00862851 10 
87 32 374 0.00882646 10 
88 178 374 0.00617356 7 
89 183 374 0.00772386 9 
90 32 382 0.00699572 8 
91 183 382 0.00882184 10 
92 188 382 0.00924211 10 
93 32 387 0.00908312 10 
94 183 387 0.00541844 6 
95 357 390 0.00361724 4 
96 189 400 0.00949937 10 
97 328 404 0.00777578 8 
98 204 413 0.01004445 10 
99 194 413 0.00930393 9 
100 189 414 0.01016515 10 
101 101 418 0.01048804 10 
102 286 422 0.01061609 10 
103 79 425 0.01065895 10 
104 408 425 0.00531158 5 
105 414 432 0.00540526 5 
106 355 432 0.01114209 10 
107 73 435 0.00992938 9 
108 44 437 0.01004602 9 
109 195 437 0.00890717 8 
110 323 452 0.00920193 8 
111 44 454 0.01049749 9 
112 189 454 0.00929903 8 
113 222 465 0.00957390 8 
114 44 467 0.00960101 8 
115 50 467 0.00838582 7 
116 195 467 0.00483064 4 
117 151 470 0.01223066 10 
118 448 471 0.00484598 4 
119 195 484 0.00621763 5 
120 2 490 0.01031179 8 
121 425 490 0.00769506 6 
122 107 492 0.01304014 10 
123 44 494 0.00775410 6 
124 50 494 0.00907321 7 
125 195 494 0.00777012 6 
126 201 494 0.00922742 7 
127 64 499 0.00932878 7 
128 50 500 0.01070351 8 
129 201 500 0.01071033 8 
130 203 500 0.00937606 7 
131 61 508 0.01408363 10 
132 203 508 0.01393048 10 
133 209 508 0.01250757 9 
134 235 510 0.01407628 10 
135 61 522 0.01426283 10 
136 203 522 0.01452568 10 
137 209 522 0.01448036 10 
138 456 527 0.01019708 7 
139 61 528 0.01176093 8 
140 67 528 0.01471352 10 
141 81 528 0.01499816 10 
142 209 528 0.01505665 10 
143 220 528 0.01501407 10 
144 49 531 0.00888105 6 
145 67 532 0.00890607 6 
146 81 532 0.01502079 10 
147 220 532 0.01522384 10 
148 327 533 0.01511240 10 
149 343 541 0.01532889 10 
150 184 543 0.01242743 8 
151 67 556 0.01606386 10 
152 20 561 0.01626111 10 
153 67 564 0.01643712 10 
154 81 564 0.01499743 9 
155 220 564 0.01476890 9 
156 67 567 0.01655422 10 
157 81 567 0.01683131 10 
158 220 567 0.01686804 10 
159 67 570 0.01663624 10 
160 81 570 0.01691416 10 
161 220 570 0.01693864 10 
162 191 570 0.01706225 10 
163 81 575 0.01713476 10 
164 220 575 0.01713046 10 
165 61 580 0.01734221 10 
166 501 582 0.01704034 10 
167 81 588 0.01719018 10 
168 87 588 0.01768073 10 
169 226 588 0.01768900 10 
170 478 592 0.01785537 10 
171 110 595 0.01822710 10 
172 87 597 0.01823735 10 
173 94 597 0.01862020 10 
174 226 597 0.01889453 10 
175 392 598 0.01896755 10 
176 87 604 0.01852039 10 
177 94 604 0.01886021 10 
178 579 607 0.01867821 10 
179 371 611 0.01902527 10 
180 94 616 0.01542470 8 
181 350 617 0.02009135 10 
182 319 624 0.02059427 10 
183 484 627 0.02137408 10 
184 19 628 0.02173426 10 
185 94 632 0.02152101 10 
186 94 637 0.02161790 10 
187 101 637 0.02220196 10 
188 101 642 0.02194319 10 
189 107 642 0.02224606 10 
190 21 644 0.02138337 10 
191 101 645 0.02186872 10 
192 107 645 0.02174093 10 
193 101 657 0.02164567 10 
194 630 658 0.02210742 10 
195 182 662 0.02200348 10 
196 101 663 0.01123380 5 
197 107 663 0.02203465 10 
198 114 663 0.02241456 10 
199 161 664 0.02886395 10 
200 272 664 0.02315577 10 
201 101 665 0.02294972 10 
202 107 665 0.02293350 10 
203 114 665 0.02298001 10 
204 530 670 0.02280197 10 
205 233 676 0.02179105 9 
206 107 680 0.02442009 10 
207 275 682 0.02464086 10 
208 107 683 0.02476676 10 
209 114 683 0.02516293 10 
210 602 684 0.02451437 10 
211 182 686 0.02540606 10 
212 367 692 0.02576525 10 
213 403 695 0.02557324 10 
214 598 698 0.02616601 10 
215 39 701 0.02572043 10 
216 244 702 0.02618240 10 
217 107 704 0.02587112 10 
218 114 704 0.02626737 10 
219 157 705 0.02612734 10 
220 271 709 0.02637869 10 
221 107 714 0.02640146 10 
222 114 714 0.02667444 10 
223 689 721 0.02691562 10 
224 107 730 0.01891408 7 
225 114 730 0.02708779 10 
226 291 742 0.02778728 10 
227 631 743 0.02212567 8 
228 619 743 0.02790475 10 
229 571 748 0.02789995 10 
230 121 754 0.02817384 10 
231 126 754 0.02872270 10 
232 121 759 0.02844222 10 
233 126 759 0.02886088 10 
234 559 759 0.02891454 10 
235 299 760 0.02868876 10 
236 126 762 0.02877322 10 
237 132 762 0.02921142 10 
238 18 765 0.02896837 10 
239 132 778 0.02322776 8 
240 554 779 0.02920675 10 
241 543 784 0.02970737 10 
242 633 786 0.02938336 10 
243 243 788 0.02957252 10 
244 613 789 0.03008491 10 
245 132 792 0.02990425 10 
246 645 792 0.03065863 10 
247 132 800 0.03002506 10 
248 138 800 0.03081138 10 
249 79 802 0.03155966 10 
250 138 806 0.03100619 10 
251 186 806 0.03097927 10 
252 471 810 0.03101309 10 
253 791 811 0.02154789 7 
254 46 813 0.03120861 10 
255 194 817 0.03251744 10 
256 138 821 0.02883077 9 
257 138 823 0.03149198 10 
258 206 824 0.03222489 10 
259 774 826 0.02892335 9 
260 151 828 0.03240476 10 
261 328 829 0.03302911 10 
262 787 829 0.03325217 10 
263 646 831 0.03229761 10 
264 405 840 0.03366998 10 
265 151 847 0.03390968 10 
266 423 849 0.03387682 10 
267 182 851 0.02313806 7 
268 670 852 0.03364217 10 
269 151 855 0.03369486 10 
270 242 881 0.03442985 10 
271 148 890 0.01703652 5 
272 151 895 0.03467808 10 
273 151 897 0.03145374 9 
274 204 902 0.03442302 10 
275 138 903 0.03493258 10 
276 138 904 0.03491151 10 
277 132 907 0.03483360 10 
278 138 907 0.03527858 10 
279 209 907 0.03532957 10 
280 566 907 0.03535751 10 
281 132 911 0.03496229 10 
282 867 915 0.03487947 10 
283 779 920 0.02460020 7 
284 121 923 0.03596940 10 
285 126 923 0.03643260 10 
286 740 926 0.03614301 10 
287 107 929 0.03625471 10 
288 114 929 0.03679345 10 
289 309 931 0.03595641 10 
290 332 934 0.03606305 10 
291 107 935 0.03657040 10 
292 114 935 0.03662188 10 
293 189 935 0.03667832 10 
294 235 935 0.03666003 10 
295 101 939 0.03624250 10 
296 107 939 0.02565971 7 
297 115 941 0.02548451 7 
298 855 941 0.03713201 10 
299 58 942 0.03668927 10 
300 101 944 0.02902540 8 
301 94 947 0.03664380 10 
302 101 947 0.03715348 10 
303 429 952 0.03637123 10 
304 617 952 0.03689447 10 
305 87 953 0.03700996 10 
306 94 953 0.03697013 10 
307 226 953 0.03700099 10 
308 904 955 0.03748064 10 
309 81 959 0.03706355 10 
310 87 959 0.03754162 10 
311 220 959 0.03777574 10 
312 226 959 0.03760002 10 
313 31 960 0.03815384 10 
314 66 963 0.03789503 10 
315 67 965 0.03794186 10 
316 81 965 0.03846535 10 
317 220 965 0.03847727 10 
318 11 973 0.03952229 10 
319 61 976 0.03896198 10 
320 67 976 0.03892736 10 
321 209 976 0.03910317 10 
322 243 978 0.03918435 10 
323 50 982 0.03932865 10 
324 61 982 0.03929220 10 
325 201 982 0.03965458 10 
326 203 982 0.03959805 10 
327 621 987 0.03926098 10 
328 44 988 0.03983434 10 
329 50 988 0.03984971 10 
330 195 988 0.03988473 10 
331 201 988 0.03991596 10 
332 892 991 0.04019668 10 
333 44 994 0.04023844 10 
334 189 994 0.04110273 10 
335 195 994 0.04107541 10 
336 804 999 0.04116731 10 
337 32 1003 0.04132057 10 
338 178 1003 0.04220432 10 
339 183 1003 0.04123819 10 
340 584 1005 0.04242494 10 
341 292 1006 0.04258914 10 
342 25 1008 0.04208170 10 
343 32 1008 0.04264058 10 
344 178 1008 0.04225696 10 
345 183 1008 0.04284235 10 
346 25 1010 0.04285238 10 
347 32 1010 0.04286095 10 
348 172 1010 0.04287399 10 
349 178 1010 0.04300435 10 
350 555 1013 0.04315270 10 
351 19 1016 0.04266200 10 
352 166 1016 0.04327278 10 
353 172 1016 0.04326573 10 
354 711 1016 0.04487950 10 
355 217 1024 0.04365638 10 
356 186 1025 0.04433628 10 
357 992 1026 0.04422559 10 
358 151 1029 0.04370420 10 
359 157 1029 0.04426019 10 
360 163 1029 0.04505212 10 
361 166 1029 0.04503298 10 
362 342 1034 0.04465065 10 
363 491 1040 0.04531023 10 
364 310 1041 0.04586375 10 
365 421 1046 0.04578362 10 
366 317 1055 0.04553651 10 
367 933 1056 0.04556880 10 
368 48 1061 0.04574483 10 
369 91 1063 0.04630862 10 
370 574 1066 0.04630143 10 
371 695 1066 0.04747707 10 
372 308 1070 0.04675690 10 
373 202 1070 0.04920953 10 
374 367 1072 0.04820841 10 
375 132 1084 0.04775176 10 
376 391 1085 0.04941226 10 
377 14 1089 0.04821928 10 
378 893 1089 0.04983820 10 
379 1036 1090 0.04986961 10 
380 388 1108 0.05033844 10 
381 28 1109 0.04996582 10 
382 124 1118 0.04969688 10 
383 261 1121 0.05164199 10 
384 987 1131 0.05096494 10 
385 845 1132 0.05119679 10 
386 858 1133 0.05137604 10 
387 852 1136 0.05137186 10 
388 994 1137 0.05144574 10 
389 101 1138 0.05152577 10 
390 904 1142 0.05287472 10 
391 559 1145 0.05191367 10 
392 107 1147 0.05200913 10 
393 114 1147 0.05278356 10 
394 53 1147 0.05305555 10 
395 107 1150 0.05338906 10 
396 114 1150 0.05318704 10 
397 716 1152 0.05397297 10 
398 115 1157 0.05313571 10 
399 114 1158 0.05414443 10 
400 121 1158 0.05374839 10 
401 911 1158 0.05280865 10 
402 760 1160 0.05365759 10 
403 169 1162 0.05373459 10 
404 121 1164 0.05318814 10 
405 126 1164 0.05327285 10 
406 231 1166 0.05358801 10 
407 257 1168 0.05362731 10 
408 599 1173 0.05345250 10 
409 1141 1173 0.05573471 10 
410 667 1173 0.05559074 10 
411 676 1174 0.05725482 10 
412 537 1174 0.05708425 10 
413 114 1175 0.05748436 10 
414 121 1175 0.05752561 10 
415 923 1175 0.05716942 10 
416 929 1175 0.05764031 10 
417 1158 1175 0.05758405 10 
418 197 1176 0.05742953 10 
419 890 1178 0.05658158 10 
420 667 1178 0.05868557 10 
421 96 1181 0.05811013 10 
422 407 1181 0.05968331 10 
423 767 1185 0.05816569 10 
424 101 1188 0.05998729 10 
425 939 1188 0.05965575 10 
426 1138 1188 0.05993374 10 
427 1147 1188 0.05956567 10 
428 1150 1188 0.09578044 10 
429 421 1194 0.21955305 10 
430 721 1196 0.21241762 10 
431 654 1197 0.22969530 10 
432 219 1199 0.06185643 10 
433 979 1199 0.06198165 10 
434 724 1201 0.06161149 10 
435 758 1204 0.06171278 10 
436 547 1205 0.06274857 10 
437 1162 1207 0.06212383 10 
438 1050 1210 0.06134405 10 
439 1061 1210 0.06279406 10 
440 1075 1210 0.06359560 10 
441 1084 1210 0.06349614 10 
442 1088 1210 0.06362606 10 
443 1093 1210 0.06267593 10 
444 1098 1210 0.06263551 10 
445 316 1215 0.06413519 10 
446 749 1215 0.06526009 10 
447 157 1217 0.06509960 10 
448 163 1217 0.06511908 10 
449 1029 1217 0.06513934 10 
450 1044 1217 0.06567904 10 
451 1050 1217 0.06556102 10 
452 1056 1217 0.06859508 10 
453 11 1221 0.06567957 10 
454 1198 1223 0.06795839 10 
455 293 1223 0.06708096 10 
456 810 1227 0.06594603 10 
