1 19 166 0.00295416 10 
2 19 172 0.00311606 10 
3 25 172 0.00317463 10 
4 25 178 0.00328342 10 
5 32 178 0.00329250 10 
6 32 183 0.00338206 10 
7 44 189 0.00350407 10 
8 44 195 0.00360957 10 
9 50 195 0.00360308 10 
10 50 201 0.00370924 10 
11 50 203 0.00376316 10 
12 61 203 0.00375063 10 
13 61 209 0.00386851 10 
14 67 209 0.00386764 10 
15 67 220 0.00406484 10 
16 81 220 0.00405767 10 
17 81 226 0.00417365 10 
18 87 226 0.00416301 10 
19 87 231 0.00427155 10 
20 94 231 0.00425981 10 
21 226 231 0.00425344 10 
22 94 241 0.00446336 10 
23 101 241 0.00445983 10 
24 101 247 0.00456836 10 
25 107 247 0.00457784 10 
26 107 254 0.00470371 10 
27 114 254 0.00471077 10 
28 107 256 0.00475800 10 
29 114 256 0.00475946 10 
30 107 258 0.00480539 10 
31 114 258 0.00480363 10 
32 121 266 0.00497331 10 
33 126 266 0.00498844 10 
34 126 272 0.00512226 10 
35 132 272 0.00513446 10 
36 132 278 0.00524759 10 
37 138 278 0.00524747 10 
38 138 284 0.00538739 10 
39 151 284 0.00538202 10 
40 151 291 0.00551279 10 
41 151 297 0.00564146 10 
42 157 297 0.00563400 10 
43 163 297 0.00564610 10 
44 166 297 0.00564763 10 
45 19 305 0.00592454 10 
46 157 305 0.00592711 10 
47 163 305 0.00598630 10 
48 166 305 0.00596735 10 
49 172 305 0.00600979 10 
50 19 315 0.00538294 9 
51 25 315 0.00604004 10 
52 172 315 0.00621109 10 
53 172 328 0.00626808 10 
54 19 337 0.00514571 8 
55 25 337 0.00650503 10 
56 172 337 0.00667106 10 
57 19 342 0.00656451 10 
58 25 342 0.00662209 10 
59 172 342 0.00340125 5 
60 178 342 0.00664694 10 
61 25 367 0.00347029 5 
62 32 367 0.00420015 6 
63 178 367 0.00419915 6 
64 183 367 0.00493838 7 
65 25 374 0.00724162 10 
66 32 374 0.00729294 10 
67 178 374 0.00522883 7 
68 183 374 0.00652756 9 
69 32 382 0.00592338 8 
70 183 382 0.00750698 10 
71 32 387 0.00753875 10 
72 183 387 0.00448106 6 
73 189 400 0.00787711 10 
74 189 414 0.06066172 10 
75 44 437 0.00962657 10 
76 195 437 0.00882208 10 
77 44 454 0.00890646 10 
78 189 454 0.00914877 10 
79 44 467 0.00918075 10 
80 50 467 0.00941736 10 
81 195 467 0.00943285 10 
82 195 484 0.00953623 10 
83 44 494 0.00673869 7 
84 50 494 0.00977113 10 
85 195 494 0.01000298 10 
86 201 494 0.01005832 10 
87 50 500 0.00991840 10 
88 201 500 0.01018737 10 
89 203 500 0.01020208 10 
90 61 508 0.01012321 10 
91 203 508 0.01035940 10 
92 209 508 0.01040428 10 
93 61 522 0.01038995 10 
94 203 522 0.01063824 10 
95 209 522 0.01065459 10 
96 61 528 0.01051869 10 
97 67 528 0.01081454 10 
98 81 528 0.01084401 10 
99 209 528 0.01084018 10 
100 220 528 0.01085293 10 
101 67 532 0.00845321 8 
102 81 532 0.01068573 10 
103 220 532 0.01095165 10 
104 67 556 0.01116637 10 
105 67 564 0.01130303 10 
106 81 564 0.01157928 10 
107 220 564 0.01150288 10 
108 67 567 0.01138897 10 
109 81 567 0.01168306 10 
110 220 567 0.01168839 10 
111 67 570 0.01146943 10 
112 81 570 0.01175360 10 
113 220 570 0.01174461 10 
114 81 575 0.01187689 10 
115 220 575 0.01186732 10 
116 81 588 0.01184312 10 
117 87 588 0.01215797 10 
118 226 588 0.01218132 10 
119 87 597 0.01209276 10 
120 94 597 0.01238443 10 
121 226 597 0.01242232 10 
122 87 604 0.01225004 10 
123 94 604 0.01254501 10 
124 94 616 0.00989039 8 
125 94 632 0.01279145 10 
126 94 637 0.01289545 10 
127 101 637 0.01322778 10 
128 101 642 0.01298667 10 
129 107 642 0.01330183 10 
130 101 645 0.01306584 10 
131 107 645 0.01339960 10 
132 101 657 0.01330528 10 
133 101 663 0.01199011 9 
134 107 663 0.01344605 10 
135 114 663 0.01395590 10 
136 101 665 0.01366803 10 
137 107 665 0.01401099 10 
138 114 665 0.01401390 10 
139 107 680 0.01397779 10 
140 107 683 0.01405742 10 
141 114 683 0.01439291 10 
142 107 704 0.01446074 10 
143 114 704 0.01478691 10 
144 107 714 0.01581874 10 
145 114 714 0.01500072 10 
146 87 716 0.01472457 10 
147 107 730 0.01185602 8 
148 114 730 0.01496423 10 
149 121 754 0.01541390 10 
150 126 754 0.01579613 10 
151 121 759 0.01577948 10 
152 126 759 0.01590560 10 
153 126 762 0.01558768 10 
154 132 762 0.01603131 10 
155 228 771 0.01584795 10 
156 132 778 0.01599983 10 
157 132 792 0.01625386 10 
158 132 800 0.01641558 10 
159 138 800 0.01685083 10 
160 138 806 0.01656786 10 
161 138 821 0.01673069 10 
162 138 823 0.01678328 10 
163 151 828 0.01697812 10 
164 151 847 0.01738268 10 
165 151 855 0.01750871 10 
166 756 865 0.01781701 10 
167 151 895 0.01839740 10 
168 151 897 0.01874507 10 
169 138 903 0.01863184 10 
170 138 904 0.01908581 10 
171 132 907 0.01869095 10 
172 138 907 0.01914152 10 
173 132 911 0.01878215 10 
174 121 923 0.01902636 10 
175 126 923 0.01949461 10 
176 107 929 0.01919405 10 
177 114 929 0.01966353 10 
178 107 935 0.01934442 10 
179 114 935 0.01979842 10 
180 101 939 0.01942331 10 
181 107 939 0.01780992 9 
182 101 944 0.01954035 10 
183 94 947 0.01959269 10 
184 101 947 0.02007681 10 
185 87 953 0.01973964 10 
186 94 953 0.02022940 10 
187 226 953 0.02023400 10 
188 81 959 0.01995997 10 
189 87 959 0.02046260 10 
190 220 959 0.02047035 10 
191 226 959 0.02046678 10 
192 67 965 0.02018523 10 
193 81 965 0.02065652 10 
194 220 965 0.02066427 10 
195 61 976 0.02052280 10 
196 67 976 0.02093664 10 
197 209 976 0.02093633 10 
198 50 982 0.02067961 10 
199 61 982 0.02120920 10 
200 201 982 0.02124887 10 
201 203 982 0.02119703 10 
202 44 988 0.02079850 10 
203 50 988 0.02129033 10 
204 195 988 0.02130513 10 
205 201 988 0.01699393 8 
206 44 994 0.02094525 10 
207 189 994 0.02152102 10 
208 195 994 0.02149961 10 
209 32 1003 0.02124036 10 
210 178 1003 0.02175082 10 
211 183 1003 0.02173585 10 
212 25 1008 0.02182160 10 
213 32 1008 0.02201776 10 
214 178 1008 0.02189539 10 
215 183 1008 0.02192304 10 
216 25 1010 0.02146423 10 
217 32 1010 0.02198045 10 
218 172 1010 0.02202091 10 
219 178 1010 0.02204796 10 
220 19 1016 0.02174557 10 
221 166 1016 0.02220259 10 
222 172 1016 0.01986839 9 
223 151 1029 0.02199223 10 
224 157 1029 0.02229165 10 
225 163 1029 0.02229676 10 
226 166 1029 0.02231644 10 
227 132 1084 0.02326581 10 
228 417 1089 0.02325235 10 
229 101 1138 0.02431270 10 
230 107 1147 0.02461430 10 
231 114 1147 0.02516016 10 
232 107 1150 0.02462139 10 
233 114 1150 0.02522910 10 
234 114 1158 0.02481950 10 
235 121 1158 0.02545121 10 
236 121 1164 0.02497727 10 
237 126 1164 0.02563355 10 
238 114 1175 0.02534687 10 
239 121 1175 0.02588427 10 
240 923 1175 0.02583633 10 
241 929 1175 0.02588255 10 
242 1158 1175 0.01806421 7 
243 101 1188 0.02565276 10 
244 939 1188 0.02623154 10 
245 1138 1188 0.02615452 10 
246 1147 1188 0.02618513 10 
247 1150 1188 0.02621253 10 
248 1050 1210 0.02620452 10 
249 1061 1210 0.02683508 10 
250 1075 1210 0.02682784 10 
251 1084 1210 0.02682298 10 
252 1088 1210 0.02688224 10 
253 1093 1210 0.02688881 10 
254 1098 1210 0.02691814 10 
255 740 1214 0.02635358 10 
256 157 1217 0.02654535 10 
257 163 1217 0.02721709 10 
258 1029 1217 0.02707498 10 
259 1044 1217 0.02656861 10 
260 1050 1217 0.02717353 10 
261 1056 1217 0.02730562 10 
