VERTEX2 0 -0.00000613 -0.00000083 -0.00000013
VERTEX2 1 -0.00000612 -0.00000083 -0.00064213
VERTEX2 2 -0.00000612 -0.00000083 -0.00118013
VERTEX2 3 0.01099573 -0.00097581 -0.00356213
VERTEX2 4 0.64100231 -0.01120104 -0.00744413
VERTEX2 5 0.69601000 -0.01171653 -0.09872613
VERTEX2 6 0.70026311 -0.01543585 -0.89599813
VERTEX2 7 0.69395038 0.00421263 -1.51153513
VERTEX2 8 0.69925723 0.02669341 -2.12506913
VERTEX2 9 0.71610851 0.04112243 -2.76313913
VERTEX2 10 0.72897503 0.04321981 2.90551518
VERTEX2 11 0.73319761 0.04053677 2.23123618
VERTEX2 12 0.73318033 0.04154523 1.58176218
VERTEX2 13 0.73874649 0.05907032 0.92226418
VERTEX2 14 0.75965201 0.07375053 0.31402518
VERTEX2 15 0.76856542 0.07435747 -0.21090282
VERTEX2 16 1.06248747 0.01415199 -0.22959482
VERTEX2 17 1.66364111 -0.13311483 -0.26082282
VERTEX2 18 2.28699522 -0.29647999 -0.27099982
VERTEX2 19 2.91429111 -0.49425391 -0.31957582
VERTEX2 20 3.50836138 -0.68447567 -0.31367134
VERTEX2 21 4.11786357 -0.83699464 -0.20212248
VERTEX2 22 4.72819736 -0.97849832 -0.18474958
VERTEX2 23 5.36853567 -1.02288650 -0.07735441
VERTEX2 24 6.00050297 -1.09430030 -0.13444180
VERTEX2 25 6.63578289 -1.16221629 -0.13170793
VERTEX2 26 7.24500042 -1.26301120 -0.17228122
VERTEX2 27 7.86115910 -1.35463254 -0.15649143
VERTEX2 28 8.44302296 -1.45355980 -0.16098029
VERTEX2 29 8.82231631 -1.51121898 -0.13025626
VERTEX2 30 8.83179634 -1.51374431 -0.66248271
VERTEX2 31 8.93293287 -1.64957459 -0.93091342
VERTEX2 32 9.30080892 -2.16468624 -0.94949851
VERTEX2 33 9.68710061 -2.67702695 -0.89876225
VERTEX2 34 10.10290966 -3.17305199 -0.87780650
VERTEX2 35 10.52892442 -3.66134426 -0.84365389
VERTEX2 36 10.96152954 -4.15088134 -0.85234140
VERTEX2 37 11.24781002 -4.47085549 -0.84478512
VERTEX2 38 11.25016457 -4.47402369 -1.16669347
VERTEX2 39 11.24996994 -4.47280986 -1.33782011
VERTEX2 40 11.39558416 -5.05156394 -1.32068662
VERTEX2 41 11.54664729 -5.65544380 -1.35280476
VERTEX2 42 11.66992367 -6.22271488 -1.37564359
VERTEX2 43 11.77698243 -6.82156402 -1.41597988
VERTEX2 44 11.86696324 -7.41960833 -1.45309519
VERTEX2 45 11.92162805 -8.03915630 -1.50867621
VERTEX2 46 11.95222711 -8.66078067 -1.52812055
VERTEX2 47 11.97191383 -9.28225133 -1.56985507
VERTEX2 48 11.96795614 -9.90815242 -1.57645476
VERTEX2 49 11.96021411 -10.53000144 -1.62734071
VERTEX2 50 11.90633339 -11.11949109 -1.67188497
VERTEX2 51 11.85070873 -11.71563475 -1.70099619
VERTEX2 52 11.75311131 -12.29842752 -1.77776619
VERTEX2 53 11.65268176 -12.85569541 -1.76545708
VERTEX2 54 11.53924077 -13.36718695 -1.82758499
VERTEX2 55 11.54596921 -13.33510239 -1.82234771
VERTEX2 56 11.54537992 -13.33739473 -1.81181371
VERTEX2 57 11.40074737 -13.95498279 -1.82324485
VERTEX2 58 11.25352849 -14.56082353 -1.77705165
VERTEX2 59 11.12365256 -15.16617839 -1.80065649
VERTEX2 60 10.99316167 -15.76787324 -1.77929476
VERTEX2 61 10.85686225 -16.37004467 -1.83005122
VERTEX2 62 10.70589430 -16.92935052 -1.79020225
VERTEX2 63 10.55311704 -17.49344682 -1.82569192
VERTEX2 64 10.41691906 -18.05210888 -1.76229920
VERTEX2 65 10.28117527 -18.60857485 -1.81370922
VERTEX2 66 10.12631780 -19.19488081 -1.82172898
VERTEX2 67 9.95965435 -19.78467878 -1.82027828
VERTEX2 68 9.84898425 -20.23226429 -1.83607596
VERTEX2 69 9.85211566 -20.22212058 -1.99104121
VERTEX2 70 9.85898609 -20.20902912 -2.66537365
VERTEX2 71 9.88215935 -20.20773524 2.97518035
VERTEX2 72 9.89469602 -20.20929239 2.96570616
VERTEX2 73 9.90196634 -20.21110203 2.90077181
VERTEX2 74 9.90199760 -20.21110993 2.27900043
VERTEX2 75 9.90856084 -20.21369017 1.92666966
VERTEX2 76 9.89683478 -20.20064011 2.62059072
VERTEX2 77 9.89242183 -20.19878060 2.85356153
VERTEX2 78 9.61079234 -20.20891342 -3.09246655
VERTEX2 79 8.99239629 -20.24642550 -3.09772503
VERTEX2 80 8.36038072 -20.24366211 3.11094218
VERTEX2 81 7.73615520 -20.21583785 3.08494281
VERTEX2 82 7.13627424 -20.17386702 3.03084171
VERTEX2 83 6.54739574 -20.12131853 3.00733403
VERTEX2 84 5.98471134 -20.03424160 2.92952270
VERTEX2 85 5.44185870 -19.92911412 2.93680692
VERTEX2 86 4.83256921 -19.80714420 2.84702344
VERTEX2 87 4.43912537 -19.69847158 2.79476810
VERTEX2 88 4.08092563 -19.56478148 2.76492594
VERTEX2 89 4.09077757 -19.56527894 -3.12257225
VERTEX2 90 3.48587995 -19.56714448 3.12947643
VERTEX2 91 2.87018009 -19.56134727 -3.10465587
VERTEX2 92 2.27056719 -19.55572703 3.06280958
VERTEX2 93 1.64950650 -19.45150971 2.96192408
VERTEX2 94 1.02876676 -19.31140459 2.91913028
VERTEX2 95 0.40587799 -19.22167527 3.06171050
VERTEX2 96 -0.20534381 -19.16872437 3.08576711
VERTEX2 97 -0.79623681 -19.10396400 3.01515763
VERTEX2 98 -1.38574607 -19.00111568 2.95718997
VERTEX2 99 -2.09175260 -18.87452215 3.00401434
VERTEX2 100 -2.65737247 -18.76473284 2.95231142
VERTEX2 101 -3.26935093 -18.70632978 3.05563512
VERTEX2 102 -3.88298361 -18.62433293 2.94974162
VERTEX2 103 -4.49198958 -18.50777786 3.04572457
VERTEX2 104 -5.10487508 -18.42983964 3.01208598
VERTEX2 105 -5.71794314 -18.36377892 3.05868856
VERTEX2 106 -6.32045088 -18.29182730 3.00387679
VERTEX2 107 -6.93876509 -18.19411572 3.00011846
VERTEX2 108 -7.39426692 -18.14413476 3.06169989
VERTEX2 109 -7.44058193 -18.13228562 2.61321448
VERTEX2 110 -7.45782968 -18.11435077 2.02188921
VERTEX2 111 -7.45781924 -18.03348626 1.51606007
VERTEX2 112 -7.43250804 -17.39961938 1.57048186
VERTEX2 113 -7.44937324 -16.77720299 1.61750993
VERTEX2 114 -7.48101744 -16.16319221 1.65429108
VERTEX2 115 -7.55286126 -15.52230517 1.71457449
VERTEX2 116 -7.67007084 -14.77090594 1.75868821
VERTEX2 117 -7.80469996 -14.15959868 1.85428190
VERTEX2 118 -7.80947724 -14.13817568 1.51974624
VERTEX2 119 -7.75322390 -13.62022343 1.46655458
VERTEX2 120 -7.70020250 -12.96405147 1.55685797
VERTEX2 121 -7.71072491 -12.34468605 1.62454669
VERTEX2 122 -7.74498875 -11.76263027 1.68079616
VERTEX2 123 -7.76999671 -11.58297282 1.66804699
VERTEX2 124 -7.68430362 -11.34491814 1.24515587
VERTEX2 125 -7.46865398 -10.75301869 1.23425410
VERTEX2 126 -7.33716801 -10.13767730 1.44085557
VERTEX2 127 -7.24082828 -9.50259379 1.43939952
VERTEX2 128 -7.16690051 -8.86321124 1.47595388
VERTEX2 129 -7.08217864 -8.22773307 1.44342278
VERTEX2 130 -7.01644194 -7.59405111 1.49620936
VERTEX2 131 -6.97257227 -6.96592556 1.58478484
VERTEX2 132 -6.95678928 -6.34707007 1.53524901
VERTEX2 133 -6.91163597 -5.77961267 1.49846165
VERTEX2 134 -6.85961353 -5.18321932 1.48027873
VERTEX2 135 -6.77951127 -4.60724449 1.45409221
VERTEX2 136 -6.70744093 -3.97426458 1.47375457
VERTEX2 137 -6.61298957 -3.34338632 1.43195445
VERTEX2 138 -6.53922767 -2.71343672 1.51219304
VERTEX2 139 -6.52497297 -2.08195652 1.57760254
VERTEX2 140 -6.55588619 -1.42581319 1.60822322
VERTEX2 141 -6.56442845 -0.78498371 1.55987577
VERTEX2 142 -6.56737037 -0.13445546 1.55611401
VERTEX2 143 -6.48883962 0.50513500 1.44562791
VERTEX2 144 -6.45056296 0.87749894 1.46321350
VERTEX2 145 -6.44502191 0.89451321 0.96491000
VERTEX2 146 -6.44336502 0.90314363 0.37178975
VERTEX2 147 -6.38796227 0.89955625 -0.11464370
VERTEX2 148 -5.95645212 0.84197975 -0.15025392
VERTEX2 149 -5.31585766 0.75191982 -0.12511434
VERTEX2 150 -4.68184467 0.69111854 -0.11092491
VERTEX2 151 -4.04229929 0.64748140 -0.02522854
VERTEX2 152 -3.41755085 0.61616812 -0.08603215
VERTEX2 153 -2.79308923 0.58752413 0.00746655
VERTEX2 154 -2.17224132 0.57067395 -0.06201410
VERTEX2 155 -1.54756595 0.54141953 -0.02853508
VERTEX2 156 -0.92052457 0.53132706 0.00224536
VERTEX2 157 -0.35711541 0.51746541 -0.06209372
VERTEX2 158 -0.16246356 0.50490403 -0.03459876
VERTEX2 159 -0.15683478 0.50313964 0.95272974
VERTEX2 160 -0.15144463 0.51206057 1.98840945
VERTEX2 161 -0.17353151 0.45337893 2.70939640
VERTEX2 162 -0.14769864 0.45924614 -2.53798831
VERTEX2 163 -0.14869144 0.45422410 -1.54090661
VERTEX2 164 -0.22533270 0.54934793 -0.47870188
VERTEX2 165 -0.05091165 0.53209283 -0.07090402
VERTEX2 166 0.64729376 0.48919152 -0.06920015
VERTEX2 167 1.26440342 0.43901807 -0.09858174
VERTEX2 168 1.85296052 0.38984535 -0.08660172
VERTEX2 169 2.44861356 0.31833556 -0.12355870
VERTEX2 170 3.03553110 0.25003832 -0.14423283
VERTEX2 171 3.59757805 0.15157788 -0.18257305
VERTEX2 172 4.22333355 0.04396027 -0.16855732
VERTEX2 173 4.85238126 -0.07679777 -0.19147783
VERTEX2 174 5.47764969 -0.19119199 -0.15144378
VERTEX2 175 6.09393058 -0.28151259 -0.17623026
VERTEX2 176 6.69339077 -0.40196307 -0.16669912
VERTEX2 177 7.31674784 -0.50496464 -0.19442419
VERTEX2 178 7.93821479 -0.65115191 -0.23350266
VERTEX2 179 8.34170876 -0.73513327 -0.18022735
VERTEX2 180 8.39194017 -0.74868257 -0.62237614
VERTEX2 181 8.83249004 -1.06748198 -0.67422817
VERTEX2 182 9.23884097 -1.42816712 -0.84834428
VERTEX2 183 9.58565998 -1.84969456 -0.90577746
VERTEX2 184 9.93617919 -2.37945124 -1.05140506
VERTEX2 185 10.22977863 -2.93220928 -1.14326383
VERTEX2 186 10.45663385 -3.51664004 -1.20905400
VERTEX2 187 10.65876449 -4.07884173 -1.23119376
VERTEX2 188 10.86775550 -4.66051318 -1.23619158
VERTEX2 189 11.06927215 -5.24608975 -1.26253447
VERTEX2 190 11.25280509 -5.84987394 -1.29150890
VERTEX2 191 11.42588446 -6.45300234 -1.31576633
VERTEX2 192 11.57992423 -7.04961903 -1.34429192
VERTEX2 193 11.70306287 -7.59770472 -1.40017772
VERTEX2 194 11.80243316 -8.16679793 -1.42709177
VERTEX2 195 11.88219656 -8.73118631 -1.45585014
VERTEX2 196 11.94829204 -9.35661630 -1.49667736
VERTEX2 197 11.98563055 -9.97803168 -1.52421250
VERTEX2 198 12.01019954 -10.59685534 -1.58244791
VERTEX2 199 11.98145689 -11.20516119 -1.64392545
VERTEX2 200 11.93365484 -11.80828566 -1.66585808
VERTEX2 201 11.86211654 -12.40795458 -1.72257825
VERTEX2 202 11.79756765 -12.91326770 -1.70242209
VERTEX2 203 11.69478174 -13.64736038 -1.75518227
VERTEX2 204 11.57224058 -14.22343867 -1.85712999
VERTEX2 205 11.40212485 -14.78520261 -1.86651835
VERTEX2 206 11.24719980 -15.33198738 -1.86455846
VERTEX2 207 11.08655313 -15.89850170 -1.84856486
VERTEX2 208 10.91223983 -16.49767003 -1.85795440
VERTEX2 209 10.74916760 -17.09833481 -1.81970285
VERTEX2 210 10.58520709 -17.69100387 -1.82855969
VERTEX2 211 10.43524708 -18.28746204 -1.82629729
VERTEX2 212 10.25770448 -18.87347748 -1.87914920
VERTEX2 213 10.06155510 -19.46316378 -1.89992779
VERTEX2 214 9.86058938 -20.03925284 -1.90373790
VERTEX2 215 9.74489457 -20.36161610 -1.93953601
VERTEX2 216 9.75669632 -20.34147856 -2.43819932
VERTEX2 217 9.78204417 -20.33880227 -2.98036461
VERTEX2 218 9.79105183 -20.34227274 -3.03638896
VERTEX2 219 9.22456478 -20.29734875 3.07829154
VERTEX2 220 8.61537973 -20.25230216 3.03842250
VERTEX2 221 7.97580756 -20.18500964 3.08894981
VERTEX2 222 7.34975947 -20.14160447 3.06344517
VERTEX2 223 6.72314455 -20.11154968 -3.12335433
VERTEX2 224 6.10824611 -20.11169434 3.13409129
VERTEX2 225 5.48975719 -20.10551931 -3.09934796
VERTEX2 226 4.87220846 -20.09863173 3.13478808
VERTEX2 227 4.22497527 -20.16715070 -2.99155442
VERTEX2 228 3.69723338 -20.15027107 2.93038708
VERTEX2 229 3.25310521 -20.11174666 3.05078844
VERTEX2 230 2.96377984 -20.09570443 3.02195929
VERTEX2 231 3.16956627 -20.11379152 3.09199385
VERTEX2 232 2.85938883 -19.97414557 2.66607078
VERTEX2 233 2.29511009 -19.71240209 2.76836003
VERTEX2 234 1.71892317 -19.48471872 2.72419154
VERTEX2 235 1.46914707 -19.37653005 2.71919856
VERTEX2 236 1.13466234 -19.37728341 3.12461538
VERTEX2 237 0.50664532 -19.39132473 -3.08818483
VERTEX2 238 -0.11360436 -19.43890863 -3.12092507
VERTEX2 239 -0.73013717 -19.43506689 3.09463323
VERTEX2 240 -1.30013498 -19.31616717 2.87654977
VERTEX2 241 -1.84014365 -19.18384489 2.96198187
VERTEX2 242 -2.41509773 -19.11738451 3.00150475
VERTEX2 243 -3.01671340 -19.03265341 3.00082839
VERTEX2 244 -3.64165121 -18.98555704 3.07219064
VERTEX2 245 -4.25727597 -18.93539293 3.01803064
VERTEX2 246 -4.86050281 -18.84783910 2.94570590
VERTEX2 247 -5.46513395 -18.76413544 3.05170451
VERTEX2 248 -6.01992757 -18.74162712 3.08310979
VERTEX2 249 -5.97171449 -18.74896142 -3.00714127
VERTEX2 250 -5.96871143 -18.74885310 2.68917636
VERTEX2 251 -6.29119659 -18.40762437 2.26587202
VERTEX2 252 -6.64706489 -17.98650591 2.27442436
VERTEX2 253 -7.01907237 -17.53968840 2.26347472
VERTEX2 254 -7.38458292 -17.08061840 2.22232472
VERTEX2 255 -7.45768486 -16.98760507 2.30620114
VERTEX2 256 -7.46058407 -16.91039223 1.83024391
VERTEX2 257 -7.51192486 -16.44998378 1.69484621
VERTEX2 258 -7.59500370 -15.86025747 1.77531920
VERTEX2 259 -7.73872110 -15.25346235 1.81613750
VERTEX2 260 -7.87282411 -14.69098186 1.80795428
VERTEX2 261 -7.87051977 -14.65326000 1.49686511
VERTEX2 262 -7.80747835 -14.00157559 1.50373676
VERTEX2 263 -7.76549624 -13.38313435 1.51739010
VERTEX2 264 -7.75087506 -12.77772980 1.61465064
VERTEX2 265 -7.78301513 -12.17269071 1.63497278
VERTEX2 266 -7.73554004 -11.59403465 1.50597812
VERTEX2 267 -7.68470644 -10.84320066 1.47667029
VERTEX2 268 -7.55267902 -10.23886239 1.36660974
VERTEX2 269 -7.43310800 -9.62393259 1.39653357
VERTEX2 270 -7.36133911 -8.99829699 1.51058131
VERTEX2 271 -7.26647048 -8.37444366 1.40009236
VERTEX2 272 -7.18122995 -7.74598452 1.46526289
VERTEX2 273 -7.19149618 -7.11412591 1.67743981
VERTEX2 274 -7.25991620 -6.49580742 1.70147284
VERTEX2 275 -7.24823909 -5.88697206 1.53008473
VERTEX2 276 -7.24177132 -5.27903945 1.64466901
VERTEX2 277 -7.28906333 -4.71348299 1.61917305
VERTEX2 278 -7.24617726 -4.07305584 1.53055708
VERTEX2 279 -7.20665108 -3.43474154 1.47530658
VERTEX2 280 -7.13877531 -2.80177245 1.47746825
VERTEX2 281 -7.04850320 -2.16695709 1.37717800
VERTEX2 282 -6.92900216 -1.53857111 1.41720345
VERTEX2 283 -6.84256076 -0.90373988 1.40955176
VERTEX2 284 -6.73114267 -0.27935170 1.43692512
VERTEX2 285 -6.66454902 0.37141995 1.45809636
VERTEX2 286 -6.59849131 0.99443609 1.51180061
VERTEX2 287 -6.59564588 1.04699366 1.40752749
VERTEX2 288 -6.59132668 1.05475200 0.79933182
VERTEX2 289 -6.58775444 1.05654486 0.20629304
VERTEX2 290 -6.14721842 1.04838235 -0.01856949
VERTEX2 291 -5.52432920 1.04142153 -0.00466534
VERTEX2 292 -4.90780920 1.02235685 -0.05934810
VERTEX2 293 -4.28281941 0.97770886 -0.08245646
VERTEX2 294 -3.66143508 0.92598638 -0.08182532
VERTEX2 295 -3.03952457 0.84608829 -0.19438947
VERTEX2 296 -2.42296105 0.70177691 -0.23986565
VERTEX2 297 -1.80862203 0.55050111 -0.25164353
VERTEX2 298 -1.19751597 0.39615592 -0.25235949
VERTEX2 299 -0.62295914 0.23940460 -0.19124975
VERTEX2 300 -0.03608676 0.15343558 -0.14914427
VERTEX2 301 0.52623996 0.05353556 -0.20840273
VERTEX2 302 0.82803366 -0.01158119 -0.22939315
VERTEX2 303 0.81037605 -0.00804578 -0.22533991
VERTEX2 304 1.31080063 -0.12399323 -0.21588430
VERTEX2 305 1.92630672 -0.16903131 -0.03216951
VERTEX2 306 2.55645602 -0.18039367 -0.05033988
VERTEX2 307 3.19635628 -0.22910720 -0.08715202
VERTEX2 308 3.82470026 -0.29294957 -0.14285788
VERTEX2 309 4.46036204 -0.35425675 -0.05006472
VERTEX2 310 5.08872263 -0.38512976 -0.08607325
VERTEX2 311 5.37047092 -0.41154965 0.08882129
VERTEX2 312 5.36799276 -0.41282870 1.07632742
VERTEX2 313 5.37268645 -0.19429256 1.57187896
VERTEX2 314 5.35340188 0.43401196 1.61160340
VERTEX2 315 5.32514007 1.06170027 1.60722283
VERTEX2 316 5.28555366 1.70677798 1.65840188
VERTEX2 317 5.22475586 2.34851013 1.66819982
VERTEX2 318 5.12650054 2.98564175 1.76257231
VERTEX2 319 5.04711787 3.33271632 1.83376529
VERTEX2 320 5.04917551 3.33907692 2.80179082
VERTEX2 321 5.04119585 3.33564844 -2.44219243
VERTEX2 322 5.04030553 3.33381273 -1.44645973
VERTEX2 323 5.05084804 3.32364495 -0.45451553
VERTEX2 324 5.05534282 3.32217668 0.20500636
VERTEX2 325 5.05674504 3.32228723 -0.32296906
VERTEX2 326 5.07211929 3.31071709 -0.91851095
VERTEX2 327 5.07547294 3.29486769 -1.54222622
VERTEX2 328 5.05904122 2.65707979 -1.58890185
VERTEX2 329 5.03697601 2.03053885 -1.64530831
VERTEX2 330 4.98256226 1.41540438 -1.66577848
VERTEX2 331 4.92714302 0.79897927 -1.68152142
VERTEX2 332 4.84727014 0.18564413 -1.70150323
VERTEX2 333 4.82544136 0.03130241 -1.63802852
VERTEX2 334 4.83491770 0.03312242 -0.84476107
VERTEX2 335 4.85197251 0.02806422 0.14625649
VERTEX2 336 4.86484223 0.03257373 1.08742748
VERTEX2 337 4.86980307 0.06336910 2.06643060
VERTEX2 338 4.86714129 0.06521594 3.05593115
VERTEX2 339 4.87905932 0.07260892 -2.17730365
VERTEX2 340 4.87924400 0.07117848 -1.15749088
VERTEX2 341 4.99280799 0.00256767 -0.52375642
VERTEX2 342 5.56602906 -0.30260588 -0.42166111
VERTEX2 343 6.14485150 -0.50442703 -0.29003173
VERTEX2 344 6.73443249 -0.68804821 -0.29942161
VERTEX2 345 6.97332209 -0.75847620 -0.32624074
VERTEX2 346 6.96018498 -0.75417113 -0.97181396
VERTEX2 347 6.96260985 -0.84295408 -1.52897505
VERTEX2 348 6.98043707 -1.43393843 -1.54505447
VERTEX2 349 6.97813087 -2.05382103 -1.58465286
VERTEX2 350 6.96491014 -2.84229308 -1.60367145
VERTEX2 351 6.95062385 -3.11641900 -1.63202178
VERTEX2 352 6.94874976 -3.12535232 -1.91883925
VERTEX2 353 6.93703149 -3.13972594 -2.58178027
VERTEX2 354 6.92334549 -3.14365258 3.10031562
VERTEX2 355 6.90322232 -3.14294878 2.38198598
VERTEX2 356 6.89748807 -3.13282349 1.80894900
VERTEX2 357 6.90010182 -3.11717853 1.15831268
VERTEX2 358 6.90111007 -3.11577277 0.54518742
VERTEX2 359 6.88946657 -3.12076723 -0.06651049
VERTEX2 360 6.87497628 -3.11790467 -0.24157648
VERTEX2 361 6.86692901 -3.12001296 0.68110330
VERTEX2 362 6.95188723 -2.88890748 1.21689546
VERTEX2 363 7.05449339 -2.62054941 1.21127659
VERTEX2 364 6.98502435 -2.28426168 1.82802221
VERTEX2 365 6.92937466 -1.99498160 1.33270990
VERTEX2 366 7.03809790 -1.87180643 0.78052658
VERTEX2 367 7.48387277 -1.43637326 0.78336341
VERTEX2 368 7.94029957 -0.99975647 0.73544074
VERTEX2 369 7.96028282 -0.97561063 0.48363717
VERTEX2 370 7.98474593 -0.97169652 -0.10309039
VERTEX2 371 7.99088147 -0.97487620 -0.64852697
VERTEX2 372 8.41975403 -1.32347676 -0.67618562
VERTEX2 373 8.89234049 -1.68833579 -0.67418812
VERTEX2 374 9.37136042 -2.09149033 -0.73531167
VERTEX2 375 9.73102944 -2.41130369 -0.76619092
VERTEX2 376 9.74288988 -2.41855198 -0.07352216
VERTEX2 377 9.79312548 -2.38279673 0.61965726
VERTEX2 378 10.32823035 -1.98501486 0.67256562
VERTEX2 379 10.80759083 -1.55479658 0.75603466
VERTEX2 380 11.24725604 -1.08832542 0.87396825
VERTEX2 381 11.39335598 -0.90831166 1.02239392
VERTEX2 382 11.39461327 -0.90602256 2.06740997
VERTEX2 383 11.39211679 -0.90449534 3.05435565
VERTEX2 384 11.38970323 -0.90678089 -2.26501598
VERTEX2 385 11.38470669 -0.91517037 -1.23483433
VERTEX2 386 11.48873184 -1.05040705 -1.00986343
VERTEX2 387 11.94408282 -1.47226996 -0.67806159
VERTEX2 388 12.40636542 -1.82873334 -0.67125244
VERTEX2 389 12.84334617 -2.20447733 -0.75608027
VERTEX2 390 12.85466163 -2.21443869 -0.28619740
VERTEX2 391 12.66974981 -2.20632863 0.08927418
VERTEX2 392 12.61569053 -2.20691890 1.11855623
VERTEX2 393 12.61653207 -2.14380653 2.35463266
VERTEX2 394 12.55255166 -2.11733114 -2.94767453
VERTEX2 395 12.74499069 -2.01621821 -2.61508095
VERTEX2 396 12.72326348 -2.02734438 -2.61761550
VERTEX2 397 12.68571563 -2.03578507 -2.63113289
VERTEX2 398 12.66970475 -2.04907667 -2.43750361
VERTEX2 399 12.59478246 -2.15479652 -2.14318936
VERTEX2 400 12.23915858 -2.70856752 -2.09571031
VERTEX2 401 11.89423310 -3.24866848 -2.18994638
VERTEX2 402 11.41736499 -3.70286434 -2.45931689
VERTEX2 403 10.90359585 -4.11031315 -2.49477949
VERTEX2 404 10.39897802 -4.46707599 -2.57524852
VERTEX2 405 10.38168991 -4.48241544 -2.04429592
VERTEX2 406 10.37755747 -4.44443618 -1.07098473
VERTEX2 407 10.55649358 -4.69875666 -0.94459339
VERTEX2 408 10.88176979 -5.16098150 -0.98395464
VERTEX2 409 11.01305507 -5.37151887 -1.08508505
VERTEX2 410 11.00511815 -5.33881614 -1.71632526
VERTEX2 411 11.17210970 -4.91612477 -2.57301771
VERTEX2 412 10.62245914 -5.13677712 -2.77790382
VERTEX2 413 9.98739158 -5.35293833 -2.85892918
VERTEX2 414 9.34592581 -5.55765077 -2.75660961
VERTEX2 415 8.74440050 -5.79393278 -2.74908025
VERTEX2 416 8.46076299 -5.92030870 -2.80373280
VERTEX2 417 8.17652416 -5.90509516 3.05599185
VERTEX2 418 7.73405749 -5.86202130 3.01133425
VERTEX2 419 7.73304512 -5.86226082 -2.83989207
VERTEX2 420 7.78281258 -5.84009462 -2.62302978
VERTEX2 421 7.78357762 -5.83890846 -1.65348582
VERTEX2 422 7.77817856 -5.84648751 -0.41181569
VERTEX2 423 7.77721103 -5.84639995 -0.06533371
VERTEX2 424 7.77079456 -5.84631707 -0.06431151
VERTEX2 425 7.75915486 -5.85289818 -0.05191588
VERTEX2 426 7.75257715 -5.85289075 -0.06037704
VERTEX2 427 7.77853743 -5.85422644 -0.05660209
VERTEX2 428 8.43409089 -5.87487957 -0.06147424
VERTEX2 429 9.07213078 -5.92320503 -0.10162066
VERTEX2 430 9.40747460 -5.96279574 -0.14708376
VERTEX2 431 9.37879611 -5.95939555 -0.09452945
VERTEX2 432 9.38563105 -5.96179972 -0.72502901
VERTEX2 433 9.38948906 -5.96708128 -1.40104639
VERTEX2 434 9.35334856 -6.50570277 -1.62852758
VERTEX2 435 9.32176981 -7.14809653 -1.65631596
VERTEX2 436 9.24451880 -7.78798477 -1.66458291
VERTEX2 437 9.19302789 -8.43756849 -1.65610534
VERTEX2 438 9.14187756 -8.90619116 -1.68603443
VERTEX2 439 9.14012521 -8.91280457 -2.12073720
VERTEX2 440 9.14645449 -8.90782439 -2.76216218
VERTEX2 441 9.16254776 -8.90620859 2.90066919
VERTEX2 442 9.16983001 -8.91016874 2.27297184
VERTEX2 443 9.16994677 -8.91212631 1.70762890
VERTEX2 444 9.17285113 -8.89674773 1.11769203
VERTEX2 445 9.17779249 -8.89201925 0.46126804
VERTEX2 446 9.17596260 -8.89315943 0.66358257
VERTEX2 447 9.18737145 -8.87099118 1.29669442
VERTEX2 448 9.33677136 -8.24949350 1.31436295
VERTEX2 449 9.46911373 -7.61350834 1.41587483
VERTEX2 450 9.56269878 -6.97693416 1.42968129
VERTEX2 451 9.61517688 -6.50668463 1.47232103
VERTEX2 452 9.61526348 -6.50578785 1.09428887
VERTEX2 453 9.61191658 -6.51184610 0.47212673
VERTEX2 454 9.87192404 -6.49194837 0.05007375
VERTEX2 455 10.46980365 -6.46737372 0.02949448
VERTEX2 456 11.10120722 -6.46276752 -0.03511100
VERTEX2 457 11.45437146 -6.48517208 -0.12284604
VERTEX2 458 11.44912829 -6.48256733 -0.76877110
VERTEX2 459 11.44049374 -6.44759991 -1.37700847
VERTEX2 460 11.41983831 -6.84581571 -1.63402606
VERTEX2 461 11.35113479 -7.46208436 -1.72197092
VERTEX2 462 11.26368478 -7.97133033 -1.76197938
VERTEX2 463 11.27492531 -7.94931473 -0.92171834
VERTEX2 464 11.52972524 -8.02176540 -0.24361125
VERTEX2 465 12.11289780 -8.15467503 -0.23586047
VERTEX2 466 12.66582427 -8.30584109 -0.29149349
VERTEX2 467 13.23612662 -8.48759866 -0.33494723
VERTEX2 468 13.85106882 -8.70618679 -0.37024424
VERTEX2 469 14.44275524 -8.97196833 -0.45291646
VERTEX2 470 14.89700094 -9.18767712 -0.43378269
VERTEX2 471 14.90561076 -9.19234252 -0.63322186
VERTEX2 472 14.92288078 -9.21643300 -1.26502929
VERTEX2 473 14.92435996 -9.22369960 -1.90475416
VERTEX2 474 14.92281940 -9.22563073 -2.53523485
VERTEX2 475 14.92522232 -9.22530270 -3.10886576
VERTEX2 476 14.92764443 -9.22563215 2.52327367
VERTEX2 477 14.93210177 -9.23435746 1.96389139
VERTEX2 478 14.93285312 -9.24422544 1.33699149
VERTEX2 479 14.93185186 -9.24651790 0.88281333
VERTEX2 480 14.93215874 -9.24582631 1.44497835
VERTEX2 481 14.92853622 -9.23014994 2.44722982
VERTEX2 482 14.93293062 -9.23191616 2.78342829
VERTEX2 483 14.93953616 -9.23431001 2.77807083
VERTEX2 484 14.51358965 -9.07576969 2.81361732
VERTEX2 485 13.91509940 -8.88639943 2.81132228
VERTEX2 486 13.31394448 -8.67302442 2.82087081
VERTEX2 487 12.70410358 -8.49289839 2.84916984
VERTEX2 488 12.09197003 -8.31090198 2.88531299
VERTEX2 489 11.62181466 -8.20283881 2.91576417
VERTEX2 490 11.62649522 -8.20238871 -2.88225090
VERTEX2 491 11.63399557 -8.19251086 -1.94602115
VERTEX2 492 11.61713796 -8.42215661 -1.64293802
VERTEX2 493 11.55499078 -9.02592656 -1.69796180
VERTEX2 494 11.46745504 -9.63698655 -1.75885312
VERTEX2 495 11.39798250 -10.25997357 -1.65170603
VERTEX2 496 11.35385587 -10.88421393 -1.53400131
VERTEX2 497 11.34655546 -11.50192425 -1.62006877
VERTEX2 498 11.27756993 -12.12326326 -1.72189520
VERTEX2 499 11.14656872 -12.74966384 -1.73892627
VERTEX2 500 11.20406529 -13.31621936 -1.41001530
VERTEX2 501 11.27838105 -13.89530783 -1.48212930
VERTEX2 502 11.30203276 -14.59047795 -1.56663297
VERTEX2 503 11.29733820 -15.03706946 -1.58361898
VERTEX2 504 11.30253310 -15.02243943 -0.72723270
VERTEX2 505 11.54002781 -15.04976299 -0.10550205
VERTEX2 506 12.13160815 -15.13209077 -0.25806777
VERTEX2 507 12.71227848 -15.30252388 -0.33662642
VERTEX2 508 13.28084103 -15.51462517 -0.34989805
VERTEX2 509 13.90004372 -15.74867522 -0.40580636
VERTEX2 510 14.25609315 -15.90804539 -0.41970836
VERTEX2 511 14.25435629 -15.89093345 0.45565702
VERTEX2 512 14.27608587 -15.84525505 1.65300748
VERTEX2 513 14.27265087 -15.83509287 2.60851229
VERTEX2 514 14.20503840 -15.81604616 2.83479906
VERTEX2 515 13.59476308 -15.63445866 2.83591693
VERTEX2 516 13.01001387 -15.43978791 2.85182790
VERTEX2 517 12.41727597 -15.29103436 2.88003493
VERTEX2 518 11.82488520 -15.13914696 2.90439889
VERTEX2 519 11.30296940 -15.01462379 2.88871413
VERTEX2 520 11.13508187 -14.97069794 -2.99600954
VERTEX2 521 11.15722881 -14.94634582 -1.99231719
VERTEX2 522 11.09133520 -15.34238772 -1.72801826
VERTEX2 523 10.99908453 -15.96242121 -1.73538511
VERTEX2 524 10.89445847 -16.53634757 -1.77728387
VERTEX2 525 10.78978101 -17.07838932 -1.75359864
VERTEX2 526 10.67283457 -17.64712740 -1.81234762
VERTEX2 527 10.52425734 -18.22612463 -1.84710351
VERTEX2 528 10.34116110 -18.79267977 -1.92301396
VERTEX2 529 10.12819467 -19.39422634 -1.95132349
VERTEX2 530 9.88017144 -19.99303248 -1.98141755
VERTEX2 531 9.60970719 -20.56747899 -2.06125030
VERTEX2 532 9.51146342 -20.75317824 -2.01065165
VERTEX2 533 9.50897934 -20.74101720 -1.01089242
VERTEX2 534 9.50958474 -20.74140332 -0.34385835
VERTEX2 535 9.51295383 -20.74169460 -0.34421548
VERTEX2 536 9.86936292 -20.82586305 -0.21349038
VERTEX2 537 10.47559849 -20.97472475 -0.27148073
VERTEX2 538 11.03512218 -21.14432674 -0.29859035
VERTEX2 539 11.64258390 -21.35376709 -0.36335451
VERTEX2 540 12.22879100 -21.60735012 -0.45624507
VERTEX2 541 12.81538934 -21.83575120 -0.29394023
VERTEX2 542 13.44595225 -21.97812970 -0.23823749
VERTEX2 543 13.56747065 -22.00871100 -0.26790289
VERTEX2 544 13.58868306 -22.00656504 0.36910579
VERTEX2 545 13.61236130 -21.96364034 1.43529195
VERTEX2 546 13.62972173 -22.00893776 2.26231810
VERTEX2 547 13.63800134 -22.00838993 -2.99920878
VERTEX2 548 13.65160449 -21.99967998 -2.07632641
VERTEX2 549 13.65327832 -21.98836283 -1.26972567
VERTEX2 550 13.65208577 -21.96744356 -1.74952705
VERTEX2 551 13.66057401 -21.95028451 -2.37590287
VERTEX2 552 13.67895917 -21.94115154 -3.00836431
VERTEX2 553 13.54207692 -21.88868192 2.69753364
VERTEX2 554 12.95050076 -21.60414447 2.66207267
VERTEX2 555 12.37169971 -21.32871484 2.75094225
VERTEX2 556 11.76791257 -21.10982053 2.88604009
VERTEX2 557 11.16780114 -20.93848098 2.84483218
VERTEX2 558 10.59178703 -20.78099042 2.92586444
VERTEX2 559 10.59917111 -20.78348854 2.51891519
VERTEX2 560 10.59190920 -20.77554124 2.01799435
VERTEX2 561 10.56857754 -20.75285805 2.52323018
VERTEX2 562 10.39012804 -20.75272527 -3.11637782
VERTEX2 563 9.81976664 -20.67387846 2.97499676
VERTEX2 564 9.21479436 -20.58200215 3.02377110
VERTEX2 565 8.62431356 -20.51033379 2.96619008
VERTEX2 566 8.68512338 -20.52929594 -2.53341044
VERTEX2 567 8.59076559 -20.53620519 -1.74009757
VERTEX2 568 8.53923003 -21.04437336 -1.67608210
VERTEX2 569 8.48719353 -21.61965130 -1.71524154
VERTEX2 570 8.41773927 -22.20001738 -1.71049102
VERTEX2 571 8.36483211 -22.55529459 -1.75797534
VERTEX2 572 8.33100696 -22.57996734 -2.00117979
VERTEX2 573 8.29589535 -22.65932943 -1.72486245
VERTEX2 574 8.31640260 -22.68822088 -0.78547554
VERTEX2 575 8.47014513 -22.73858786 0.13593952
VERTEX2 576 8.46934854 -22.73795057 1.16360433
VERTEX2 577 8.46262131 -22.72013835 2.13570534
VERTEX2 578 8.45308730 -22.68784964 1.77154356
VERTEX2 579 8.32856086 -22.03591691 1.78657979
VERTEX2 580 8.16707433 -21.39617587 1.86174169
VERTEX2 581 7.97291427 -20.77239072 1.90414170
VERTEX2 582 7.75128817 -20.15765167 1.94729973
VERTEX2 583 7.62128582 -19.84908192 2.02669476
VERTEX2 584 7.61560714 -19.83805672 2.87062039
VERTEX2 585 7.03158150 -19.69772813 2.98906023
VERTEX2 586 6.43699696 -19.62308422 3.08677296
VERTEX2 587 5.81735254 -19.61216011 3.11233356
VERTEX2 588 5.18675621 -19.58629057 3.11695527
VERTEX2 589 4.64832450 -19.61097074 -3.09087365
VERTEX2 590 4.09898456 -19.65501463 -3.02214205
VERTEX2 591 3.55999246 -19.73389153 -3.02404236
VERTEX2 592 3.01199178 -19.80821089 -3.02677483
VERTEX2 593 2.83440611 -19.83049595 -2.82152254
VERTEX2 594 2.87633837 -19.78538521 -1.90207371
VERTEX2 595 2.76296368 -20.39233482 -1.66923420
VERTEX2 596 2.71019626 -21.01628416 -1.69236316
VERTEX2 597 2.61810362 -21.69091063 -1.73228888
VERTEX2 598 2.51495832 -22.28918790 -1.77444067
VERTEX2 599 2.42643809 -22.66641226 -1.84061326
VERTEX2 600 2.42662116 -22.68253454 -1.03403407
VERTEX2 601 2.46656415 -22.70716562 -0.01583958
VERTEX2 602 2.50134382 -22.69317958 0.99822718
VERTEX2 603 2.46698821 -22.45809954 1.77087878
VERTEX2 604 2.40701774 -21.84546060 1.52679166
VERTEX2 605 2.41654663 -21.19902473 1.60942426
VERTEX2 606 2.37677388 -20.55284258 1.65155068
VERTEX2 607 2.38840710 -19.96422018 1.57058526
VERTEX2 608 2.37568386 -19.57953235 1.61512378
VERTEX2 609 2.37216514 -19.55874078 1.95155226
VERTEX2 610 2.36425313 -19.55587133 2.88445157
VERTEX2 611 1.76895124 -19.40503208 2.88753090
VERTEX2 612 1.29651969 -19.27002836 2.89045485
VERTEX2 613 1.33188524 -19.28086353 -2.92871748
VERTEX2 614 1.33799985 -19.27624610 -1.89028284
VERTEX2 615 1.34959287 -19.76158821 -1.58555589
VERTEX2 616 1.35499597 -20.38332602 -1.63660039
VERTEX2 617 1.21585429 -20.98575780 -1.85349935
VERTEX2 618 1.04540045 -21.59092906 -1.84318945
VERTEX2 619 0.88337489 -22.16161612 -1.84437437
VERTEX2 620 0.69883375 -22.73665966 -1.94024810
VERTEX2 621 0.82821470 -22.40396675 -1.99149952
VERTEX2 622 0.95204267 -22.14033265 -2.06622609
VERTEX2 623 0.95149806 -22.14106835 -2.60273108
VERTEX2 624 0.92210971 -22.14073080 3.03851206
VERTEX2 625 0.88061945 -22.12391235 2.38064919
VERTEX2 626 0.85261389 -22.09168664 1.76325045
VERTEX2 627 0.92581050 -21.71997536 1.35287502
VERTEX2 628 1.10561540 -21.09366178 1.25209436
VERTEX2 629 1.27834988 -20.46667791 1.32315526
VERTEX2 630 1.40494799 -19.85946787 1.40814196
VERTEX2 631 1.47802764 -19.33016378 1.42818713
VERTEX2 632 1.48073199 -19.31431586 2.10391739
VERTEX2 633 1.38257127 -19.30755243 -3.09320441
VERTEX2 634 0.71531001 -19.34375890 -3.06584441
VERTEX2 635 0.06227136 -19.35385341 3.08228794
VERTEX2 636 -0.57937618 -19.32468563 3.06468984
VERTEX2 637 -1.20754606 -19.24978292 2.96538972
VERTEX2 638 -1.59926167 -19.16954663 2.93581816
VERTEX2 639 -2.20940682 -19.06619489 3.01614376
VERTEX2 640 -2.82375172 -18.95662539 2.94824295
VERTEX2 641 -3.42352367 -18.84538178 2.93991147
VERTEX2 642 -3.99904097 -18.70782961 2.89458275
VERTEX2 643 -4.48040718 -18.57104240 2.82711728
VERTEX2 644 -4.48438930 -18.57192817 -2.69930927
VERTEX2 645 -4.52086082 -18.71280967 -1.92182419
VERTEX2 646 -4.65847213 -19.32192569 -1.62645489
VERTEX2 647 -4.61556296 -19.96419190 -1.33760457
VERTEX2 648 -4.39322055 -20.58920098 -1.17131968
VERTEX2 649 -4.22017675 -21.18782293 -1.50891424
VERTEX2 650 -4.32141771 -21.81608869 -1.76627100
VERTEX2 651 -4.33902861 -21.96150880 -0.96685347
VERTEX2 652 -4.27631951 -21.98978730 0.05811941
VERTEX2 653 -4.23029639 -21.94853719 1.08856270
VERTEX2 654 -4.23899777 -21.65224451 1.60173887
VERTEX2 655 -4.24880341 -21.09921204 1.59673531
VERTEX2 656 -4.24732585 -20.49749481 1.58410595
VERTEX2 657 -4.35349794 -19.88621808 1.86074370
VERTEX2 658 -4.54327572 -19.26910685 1.85357921
VERTEX2 659 -4.65760388 -18.77563028 1.78242308
VERTEX2 660 -4.66067483 -18.76021223 2.38254136
VERTEX2 661 -4.83899722 -18.74037586 3.03598884
VERTEX2 662 -5.43228337 -18.68040765 3.10559675
VERTEX2 663 -6.01943114 -18.69422341 -3.07655526
VERTEX2 664 -6.02741129 -18.69216087 -2.55334715
VERTEX2 665 -6.04349199 -18.79344120 -1.71960602
VERTEX2 666 -6.11580434 -19.40158835 -1.68246964
VERTEX2 667 -6.17344105 -19.96759968 -1.67785101
VERTEX2 668 -6.23750851 -20.56105718 -1.65207197
VERTEX2 669 -6.28656563 -21.18627826 -1.67720495
VERTEX2 670 -6.38657400 -21.80365644 -1.73668479
VERTEX2 671 -6.43437687 -22.09601493 -1.68170433
VERTEX2 672 -6.33207236 -21.51530375 -1.77082046
VERTEX2 673 -6.26565014 -21.24866168 -1.90137806
VERTEX2 674 -6.25280426 -21.23512878 -2.54953127
VERTEX2 675 -6.22947865 -21.23021668 3.12502445
VERTEX2 676 -6.22349632 -21.23372670 2.50167622
VERTEX2 677 -6.21895528 -21.24001069 1.88582515
VERTEX2 678 -6.19069229 -21.01789495 1.43987622
VERTEX2 679 -6.12603921 -20.43891629 1.50245019
VERTEX2 680 -6.15314720 -19.99058093 1.84732227
VERTEX2 681 -6.30468068 -19.39898540 1.81980526
VERTEX2 682 -6.47631048 -18.79284144 1.86747601
VERTEX2 683 -6.56829862 -18.51042605 2.02662912
VERTEX2 684 -6.51556343 -18.56429920 3.10658029
VERTEX2 685 -6.92030168 -18.72532213 -2.73283465
VERTEX2 686 -7.36829180 -18.86213278 -2.87701647
VERTEX2 687 -7.96351503 -19.01336057 -2.91197343
VERTEX2 688 -8.56200239 -19.13355744 -2.92369791
VERTEX2 689 -9.12688438 -19.27270897 -2.89598638
VERTEX2 690 -9.66335086 -19.44192991 -2.82176646
VERTEX2 691 -10.05898494 -19.57360487 -2.84975472
VERTEX2 692 -10.04478201 -19.56729505 -2.31547903
VERTEX2 693 -10.02184731 -19.63962342 -1.27502353
VERTEX2 694 -9.99773180 -19.71166270 -0.43952178
VERTEX2 695 -9.97920506 -19.70639494 0.36051435
VERTEX2 696 -9.97297129 -19.70231377 1.38603988
VERTEX2 697 -9.98462181 -19.74059131 1.13307817
VERTEX2 698 -9.65404666 -19.53137065 0.47833171
VERTEX2 699 -9.09007914 -19.21785183 0.59238123
VERTEX2 700 -8.57629809 -18.85546526 0.64592319
VERTEX2 701 -8.14206811 -18.49223370 0.70510555
VERTEX2 702 -7.66245246 -18.17660437 0.58996314
VERTEX2 703 -7.14973058 -17.83967157 0.62423183
VERTEX2 704 -6.65577677 -17.45707345 0.64242579
VERTEX2 705 -6.14463176 -17.03629297 0.71268149
VERTEX2 706 -5.71427691 -16.71829045 0.44370967
VERTEX2 707 -5.68880334 -16.71693009 -0.07651512
VERTEX2 708 -5.67884827 -16.72268810 -0.71497073
VERTEX2 709 -5.71871328 -16.67972744 -1.04704177
VERTEX2 710 -5.72315060 -16.66825453 -1.60813802
VERTEX2 711 -5.71373394 -16.67676480 -2.20484848
VERTEX2 712 -5.69326416 -16.66108914 -2.76526435
VERTEX2 713 -6.16607226 -16.71130657 -3.05060275
VERTEX2 714 -6.71921236 -16.68596399 3.03507202
VERTEX2 715 -7.33914998 -16.64892907 3.13880082
VERTEX2 716 -7.96641266 -16.62674039 3.00091669
VERTEX2 717 -8.58870870 -16.55861062 3.08565524
VERTEX2 718 -9.35180824 -16.43962263 2.91025864
VERTEX2 719 -9.96960608 -16.32393584 2.98471085
VERTEX2 720 -10.58325542 -16.21114343 2.92549318
VERTEX2 721 -11.20182940 -16.09489403 2.99369828
VERTEX2 722 -11.21930084 -16.09239667 3.06038431
VERTEX2 723 -11.24015237 -16.11388554 -2.13292233
VERTEX2 724 -11.24028543 -16.15741561 -1.06411087
VERTEX2 725 -11.21381354 -16.17523297 -0.42978920
VERTEX2 726 -10.88924157 -16.17159879 0.02437908
VERTEX2 727 -10.25261682 -16.13422135 0.05511062
VERTEX2 728 -9.61324970 -16.11110168 0.05648681
VERTEX2 729 -8.97632570 -16.05174491 0.11411540
VERTEX2 730 -8.35391564 -15.96059642 0.15160655
VERTEX2 731 -7.70554571 -15.86124465 0.16375422
VERTEX2 732 -7.56339357 -15.83282096 0.61021067
VERTEX2 733 -7.56281193 -15.83377757 1.60652800
VERTEX2 734 -7.62097256 -15.27594937 1.68456598
VERTEX2 735 -7.68121958 -14.67177343 1.65246990
VERTEX2 736 -7.68206644 -14.65892030 2.25185662
VERTEX2 737 -7.67570062 -14.65976688 3.05241929
VERTEX2 738 -8.25424156 -14.61842266 3.07142893
VERTEX2 739 -8.85685176 -14.52257420 3.01374677
VERTEX2 740 -9.35923161 -14.48163477 3.07695701
VERTEX2 741 -9.34006222 -14.48145289 2.70824418
VERTEX2 742 -9.34058854 -14.48110104 2.05566282
VERTEX2 743 -9.34236033 -14.47322426 1.43904926
VERTEX2 744 -9.33288342 -14.45157650 0.89986423
VERTEX2 745 -9.31370853 -14.44156452 0.30656858
VERTEX2 746 -8.77147972 -14.46009192 -0.16813332
VERTEX2 747 -8.12654890 -14.57475335 -0.20329516
VERTEX2 748 -7.54988705 -14.71734715 -0.27151966
VERTEX2 749 -7.46684591 -14.73803994 0.15788421
VERTEX2 750 -7.45694359 -14.71976424 1.08533613
VERTEX2 751 -7.49179582 -14.44649742 1.72587514
VERTEX2 752 -7.55102502 -13.82030872 1.62264414
VERTEX2 753 -7.59015346 -13.17852459 1.68593296
VERTEX2 754 -7.59924736 -12.53492049 1.52390802
VERTEX2 755 -7.58213402 -11.89853461 1.61059238
VERTEX2 756 -7.54632307 -11.25903804 1.43467880
VERTEX2 757 -7.47361167 -10.61492075 1.54640211
VERTEX2 758 -7.49556641 -10.03803891 1.68844409
VERTEX2 759 -7.48656161 -9.49270951 1.56814536
VERTEX2 760 -7.52733268 -8.88087591 1.67954551
VERTEX2 761 -7.53022922 -8.84231602 1.85995018
VERTEX2 762 -7.60595525 -8.80876579 2.69545364
VERTEX2 763 -8.17921405 -8.70828460 2.98833850
VERTEX2 764 -8.59819201 -8.63857596 2.96083571
VERTEX2 765 -8.58609371 -8.63829758 -2.68282759
VERTEX2 766 -8.58759561 -8.64324203 -1.68236919
VERTEX2 767 -8.58243318 -8.65615094 -0.75138378
VERTEX2 768 -8.55396301 -8.65776848 -0.02891989
VERTEX2 769 -7.91715024 -8.56543990 0.12802191
VERTEX2 770 -7.26324540 -8.50291859 0.06092411
VERTEX2 771 -7.17323916 -8.49497420 0.62146800
VERTEX2 772 -7.17025382 -8.48534432 1.48898547
VERTEX2 773 -7.14904653 -7.90691841 1.57478353
VERTEX2 774 -7.16387678 -7.35999022 1.59687424
VERTEX2 775 -7.16312587 -7.36317243 2.44174248
VERTEX2 776 -7.37491392 -7.33827336 3.05912576
VERTEX2 777 -7.99075991 -7.29859865 3.11815784
VERTEX2 778 -8.60591412 -7.29018845 3.09720952
VERTEX2 779 -9.22215827 -7.27089587 3.11532695
VERTEX2 780 -9.43074386 -7.25354489 2.98511323
VERTEX2 781 -9.42785883 -7.25456342 2.41171846
VERTEX2 782 -9.55581485 -6.98274286 1.98217300
VERTEX2 783 -9.79194860 -6.40983523 1.98158060
VERTEX2 784 -9.89170258 -6.18310559 1.96026397
VERTEX2 785 -9.89264031 -6.15833530 1.40830968
VERTEX2 786 -9.88495039 -6.13286484 0.81999772
VERTEX2 787 -9.86809178 -6.11554392 0.32933961
VERTEX2 788 -9.84166152 -6.11729548 -0.29978633
VERTEX2 789 -9.83130083 -6.12540087 -0.85175384
VERTEX2 790 -9.52439792 -6.52003878 -0.91891623
VERTEX2 791 -9.11906039 -7.00124478 -0.82024381
VERTEX2 792 -8.87944340 -7.21413923 -0.11569409
VERTEX2 793 -8.26391085 -7.26588387 -0.07091806
VERTEX2 794 -7.62402727 -7.29427555 0.00031763
VERTEX2 795 -7.64831410 -7.31216081 0.42975866
VERTEX2 796 -7.65507027 -7.31488862 1.08920244
VERTEX2 797 -7.58094997 -7.00553285 1.34940200
VERTEX2 798 -7.44631271 -6.37909486 1.39956797
VERTEX2 799 -7.35973809 -5.73474436 1.46532080
VERTEX2 800 -7.30615238 -5.08838655 1.53825341
VERTEX2 801 -7.31728841 -4.45669045 1.62421503
VERTEX2 802 -7.37130135 -3.83167284 1.68195347
VERTEX2 803 -7.35410768 -3.20318252 1.51733022
VERTEX2 804 -7.33400751 -2.57594811 1.57327118
VERTEX2 805 -7.36732829 -1.94572483 1.64959918
VERTEX2 806 -7.42738234 -1.34760629 1.69105473
VERTEX2 807 -7.45476194 -1.16296057 1.97916313
VERTEX2 808 -7.45951828 -1.16286810 2.92747842
VERTEX2 809 -8.05111493 -1.13399105 3.07215908
VERTEX2 810 -8.66847846 -1.01076719 2.93201369
VERTEX2 811 -9.26742881 -0.89925072 2.92873881
VERTEX2 812 -9.26975159 -0.89879956 -2.62266034
VERTEX2 813 -9.27942095 -0.92038650 -1.64734081
VERTEX2 814 -9.27322218 -0.92528841 -0.65510385
VERTEX2 815 -9.24899803 -0.93344287 0.26417095
VERTEX2 816 -9.24015160 -0.92859968 0.94532758
VERTEX2 817 -9.22874603 -0.92141742 0.27656561
VERTEX2 818 -9.00652001 -0.95523434 -0.21232177
VERTEX2 819 -8.41553656 -1.08274027 -0.19819625
VERTEX2 820 -7.82212398 -1.21433147 -0.23942407
VERTEX2 821 -7.27620032 -1.34499997 -0.22362333
VERTEX2 822 -7.22715668 -1.35243600 0.53788419
VERTEX2 823 -7.22576201 -1.33761801 1.45714551
VERTEX2 824 -7.16205587 -0.71544721 1.37783236
VERTEX2 825 -7.01819090 -0.09178385 1.34818999
VERTEX2 826 -6.96118601 0.54032768 1.51117012
VERTEX2 827 -6.89737014 1.16418406 1.46255572
VERTEX2 828 -6.84329018 1.79543733 1.49812594
VERTEX2 829 -6.78285776 2.39930221 1.45839829
VERTEX2 830 -6.70848499 3.00850109 1.45009439
VERTEX2 831 -6.61485393 3.58605277 1.40331593
VERTEX2 832 -6.52515667 4.14928339 1.39976424
VERTEX2 833 -6.48137128 4.40481068 1.53743757
VERTEX2 834 -6.48335401 4.41181446 2.59215388
VERTEX2 835 -6.49644621 4.41330969 -2.91332270
VERTEX2 836 -6.50858521 4.40303740 -1.97020955
VERTEX2 837 -6.50518258 4.38455980 -0.93379271
VERTEX2 838 -6.49358415 4.37734892 -0.07155234
VERTEX2 839 -6.49316804 4.37715152 -0.28980210
VERTEX2 840 -6.48226812 4.36862513 -0.85242456
VERTEX2 841 -6.47466567 4.35337881 -1.46948249
VERTEX2 842 -6.50062160 4.10748492 -1.70029820
VERTEX2 843 -6.57839616 3.54356832 -1.70282534
VERTEX2 844 -6.65312733 2.91766997 -1.71084826
VERTEX2 845 -6.74640119 2.29227171 -1.72557733
VERTEX2 846 -6.83177475 1.66265995 -1.72385787
VERTEX2 847 -6.94106408 1.04085926 -1.75061745
VERTEX2 848 -6.97168262 0.84516521 -1.27019837
VERTEX2 849 -6.97036080 0.84468866 -0.34804538
VERTEX2 850 -6.61460272 0.84157262 0.00533643
VERTEX2 851 -5.98676096 0.81622453 -0.08717236
VERTEX2 852 -5.36175476 0.75566595 -0.07276318
VERTEX2 853 -4.76633229 0.71380192 -0.10068771
VERTEX2 854 -4.17851080 0.64661662 -0.09868292
VERTEX2 855 -3.58303669 0.59635308 -0.10047814
VERTEX2 856 -2.92416231 0.51068116 -0.14093865
VERTEX2 857 -2.26643219 0.42144126 -0.15026428
VERTEX2 858 -1.61498209 0.29963168 -0.20452942
VERTEX2 859 -1.09138917 0.19588442 -0.21115861
VERTEX2 860 -1.06237359 0.20792659 0.64066812
VERTEX2 861 -1.04759217 0.31488649 1.55664083
VERTEX2 862 -1.01209969 0.97166744 1.49730313
VERTEX2 863 -0.95774452 1.61326654 1.46510444
VERTEX2 864 -0.87388881 2.22124177 1.46327235
VERTEX2 865 -0.83576553 2.82983230 1.52123354
VERTEX2 866 -0.79427776 3.41657903 1.52004232
VERTEX2 867 -0.78764973 3.58127024 1.70115186
VERTEX2 868 -0.79595055 3.59168059 2.72457306
VERTEX2 869 -0.78681753 3.59183611 -2.58060866
VERTEX2 870 -0.76795798 3.60207917 -1.58150880
VERTEX2 871 -0.75456207 3.59307943 -0.60814268
VERTEX2 872 -0.73740699 3.58079212 0.07690035
VERTEX2 873 -0.71158940 3.57229214 -0.49585054
VERTEX2 874 -0.69143757 3.55421143 -1.05563586
VERTEX2 875 -0.68554358 3.54047384 -1.64233786
VERTEX2 876 -0.80384807 2.98451624 -1.79999122
VERTEX2 877 -0.95451834 2.44247277 -1.88471700
VERTEX2 878 -1.00444182 2.24302193 -1.50188019
VERTEX2 879 -0.90191449 1.60568528 -1.45091431
VERTEX2 880 -0.86537659 1.15754342 -1.56367116
VERTEX2 881 -0.86587530 1.20812835 -1.55838352
VERTEX2 882 -0.92097496 0.56911137 -1.80498768
VERTEX2 883 -1.13541182 -0.02624386 -1.99577910
VERTEX2 884 -1.29324408 -0.35859105 -2.06279628
VERTEX2 885 -1.29326181 -0.35772672 -1.48137305
VERTEX2 886 -1.27737531 -0.37255188 -0.46367590
VERTEX2 887 -1.25052288 -0.38294675 0.54734138
VERTEX2 888 -1.24046723 -0.36172739 1.53114204
VERTEX2 889 -1.24244865 -0.35603178 2.42893445
VERTEX2 890 -1.55965692 -0.20300779 2.70278243
VERTEX2 891 -2.09866305 0.06402938 2.63242119
VERTEX2 892 -2.63398208 0.38374218 2.59681900
VERTEX2 893 -3.18860547 0.67986782 2.83304897
VERTEX2 894 -3.80332686 0.79102826 3.05405500
VERTEX2 895 -4.40434542 0.74177072 -2.93091628
VERTEX2 896 -4.42410024 0.73704345 -2.45245979
VERTEX2 897 -4.70842278 0.31598454 -2.18020748
VERTEX2 898 -5.06017662 -0.19421464 -2.16462184
VERTEX2 899 -5.34700038 -0.60482647 -2.23229028
VERTEX2 900 -5.76072455 -1.14970454 -2.23463012
VERTEX2 901 -6.13278446 -1.59458452 -2.29896223
VERTEX2 902 -6.54941216 -2.08666783 -2.27370041
VERTEX2 903 -6.86598163 -2.46618050 -2.31844719
VERTEX2 904 -6.86687995 -2.46746642 -1.61535929
VERTEX2 905 -6.85336331 -2.96027009 -1.55988271
VERTEX2 906 -6.81979745 -3.53122576 -1.49415939
VERTEX2 907 -6.76394529 -4.10528308 -1.50233667
VERTEX2 908 -6.71800615 -4.72759478 -1.47756101
VERTEX2 909 -6.65781857 -5.34009016 -1.49548761
VERTEX2 910 -6.68557815 -5.46927877 -1.86538985
VERTEX2 911 -6.84591980 -6.03982881 -1.80452728
VERTEX2 912 -6.96722692 -6.60347633 -1.79192692
VERTEX2 913 -7.07961255 -7.14511522 -1.78401514
VERTEX2 914 -7.20595217 -7.73293104 -1.80769892
VERTEX2 915 -7.32972378 -8.24163919 -1.84444313
VERTEX2 916 -7.26519119 -8.48694600 -1.29696981
VERTEX2 917 -7.12622059 -9.13700193 -1.55143428
VERTEX2 918 -7.14664407 -9.65540390 -1.62700809
VERTEX2 919 -7.18055176 -10.27957745 -1.67036997
VERTEX2 920 -7.24538945 -10.89395856 -1.68800524
VERTEX2 921 -7.31908691 -11.50950958 -1.74140824
VERTEX2 922 -7.42201304 -12.11339645 -1.76868434
VERTEX2 923 -7.54256692 -12.67980312 -1.83222471
VERTEX2 924 -7.67506089 -13.17359828 -1.81561839
VERTEX2 925 -7.67568801 -13.17041062 -1.31096113
VERTEX2 926 -7.51574109 -13.73414772 -1.29479812
VERTEX2 927 -7.34901701 -14.32648404 -1.31814880
VERTEX2 928 -7.19143553 -14.93424702 -1.32712795
VERTEX2 929 -7.04042201 -15.53916842 -1.32807794
VERTEX2 930 -6.89352112 -16.17059232 -1.41074241
VERTEX2 931 -6.80774593 -16.79745929 -1.49104976
VERTEX2 932 -6.76215434 -17.42509240 -1.55055748
VERTEX2 933 -6.75934665 -18.03819572 -1.61521476
VERTEX2 934 -6.77448942 -18.51936512 -1.62508654
VERTEX2 935 -6.77170158 -18.53235670 -0.94306854
VERTEX2 936 -6.76963828 -18.53308400 0.00200232
VERTEX2 937 -6.22733405 -18.50870881 0.06485455
VERTEX2 938 -5.63106830 -18.52566387 -0.10858025
VERTEX2 939 -5.00697721 -18.58649056 -0.08088558
VERTEX2 940 -4.39487588 -18.66279165 -0.16679192
VERTEX2 941 -3.78986573 -18.77952078 -0.22048054
VERTEX2 942 -3.27093339 -18.89635284 -0.21601221
VERTEX2 943 -2.66158376 -19.03150883 -0.12770983
VERTEX2 944 -2.04831826 -19.11583774 -0.18438387
VERTEX2 945 -1.42604621 -19.24628661 -0.23951764
VERTEX2 946 -1.25009961 -19.29154875 -0.17520069
VERTEX2 947 -0.84089578 -19.22953054 0.15302371
VERTEX2 948 -0.26733028 -19.14164691 0.13387117
VERTEX2 949 0.33669548 -19.10870979 -0.02179855
VERTEX2 950 0.96808457 -19.14670036 -0.26132163
VERTEX2 951 1.57151726 -19.32171814 -0.33346922
VERTEX2 952 2.17467236 -19.49974967 -0.08267835
VERTEX2 953 2.80549821 -19.53318131 -0.00238728
VERTEX2 954 3.43104560 -19.52753025 -0.00940738
VERTEX2 955 4.02150338 -19.57480901 -0.17026059
VERTEX2 956 4.57317103 -19.65496551 -0.17257664
VERTEX2 957 5.10558876 -19.75289610 -0.26029848
VERTEX2 958 5.57333721 -19.86687552 -0.28705647
VERTEX2 959 6.00622690 -19.98707108 -0.35418411
VERTEX2 960 6.59561219 -20.15142631 -0.27430588
VERTEX2 961 7.17725968 -20.32706543 -0.30135266
VERTEX2 962 7.79489300 -20.45706147 -0.23575341
VERTEX2 963 8.41282668 -20.53926705 -0.04909805
VERTEX2 964 9.03540586 -20.58212671 -0.11300542
VERTEX2 965 9.65355907 -20.66253321 -0.11990845
VERTEX2 966 10.09744819 -20.72193153 -0.17889508
VERTEX2 967 10.13074076 -20.71523189 0.67446696
VERTEX2 968 10.13895837 -20.70748946 1.57116444
VERTEX2 969 10.14128905 -20.73513829 1.63061480
VERTEX2 970 10.14376106 -20.76302291 1.62886704
VERTEX2 971 10.12360244 -20.42968234 1.62898387
VERTEX2 972 10.08544908 -19.84304522 1.63458068
VERTEX2 973 10.16545625 -19.26091630 1.34952715
VERTEX2 974 10.30521488 -18.65922931 1.38128925
VERTEX2 975 10.41711227 -18.05343669 1.38583176
VERTEX2 976 10.52228662 -17.44499464 1.39866127
VERTEX2 977 10.65833112 -16.82705644 1.37236516
VERTEX2 978 10.77961124 -16.21536430 1.41831976
VERTEX2 979 10.89470934 -15.60754638 1.40602982
VERTEX2 980 10.99275071 -15.00291529 1.45293996
VERTEX2 981 11.08168325 -14.40888296 1.45984092
VERTEX2 982 11.13810326 -13.88159060 1.50481091
VERTEX2 983 11.18752732 -13.28297067 1.50142606
VERTEX2 984 11.21455995 -12.68685893 1.55879313
VERTEX2 985 11.22524590 -12.08984147 1.57907666
VERTEX2 986 11.21011177 -11.46928775 1.61541698
VERTEX2 987 11.19725530 -10.85022193 1.57873222
VERTEX2 988 11.19980870 -10.23146460 1.59245136
VERTEX2 989 11.18509505 -9.61737631 1.60007986
VERTEX2 990 11.17823308 -9.00658393 1.58929632
VERTEX2 991 11.16294256 -8.39230571 1.61413429
VERTEX2 992 11.15786510 -7.80593514 1.58157281
VERTEX2 993 11.14418000 -7.19014896 1.61436573
VERTEX2 994 11.12785037 -6.60513542 1.60447374
VERTEX2 995 11.09547587 -6.00408625 1.65178710
VERTEX2 996 11.03497982 -5.38787462 1.67894905
VERTEX2 997 10.98951733 -4.73312161 1.61456142
VERTEX2 998 10.96935937 -4.32070564 1.63644361
VERTEX2 999 10.99046211 -4.33779320 2.35435550
VERTEX2 1000 10.52142636 -3.97243582 2.50304474
VERTEX2 1001 10.07606062 -3.56638981 2.18216554
VERTEX2 1002 9.70423217 -3.08817466 2.27489064
VERTEX2 1003 9.34982502 -2.58251028 2.09535988
VERTEX2 1004 9.01124851 -2.04598481 2.15360031
VERTEX2 1005 8.65792860 -1.55187236 2.21603871
VERTEX2 1006 8.26246378 -1.07400011 2.29342679
VERTEX2 1007 7.85008333 -0.64814846 2.38510332
VERTEX2 1008 7.61465787 -0.43350000 2.54464766
VERTEX2 1009 7.51703816 -0.41872148 3.01773012
VERTEX2 1010 6.94970763 -0.36289437 3.07028319
VERTEX2 1011 6.33315192 -0.32364850 3.02722679
VERTEX2 1012 5.72283508 -0.26040567 3.06917725
VERTEX2 1013 5.08585371 -0.26302751 -3.09899537
VERTEX2 1014 4.47206697 -0.21496846 3.00894580
VERTEX2 1015 3.84624803 -0.17556826 3.09345536
VERTEX2 1016 3.07580756 -0.13792214 3.10021824
VERTEX2 1017 2.48982339 -0.12444433 3.04305930
VERTEX2 1018 1.93140748 -0.06245613 3.05035132
VERTEX2 1019 1.33588802 -0.03784029 3.10989609
VERTEX2 1020 0.72012668 -0.00171776 3.09594447
VERTEX2 1021 0.09846821 0.02753238 3.05534046
VERTEX2 1022 0.04437976 0.03201298 3.04811102
VERTEX2 1023 0.05070527 0.03189100 3.13470049
VERTEX2 1024 -0.57681564 0.03977181 -3.12215654
VERTEX2 1025 -1.20649232 0.00934475 -3.10458843
VERTEX2 1026 -1.36847852 0.00385418 -3.09741776
VERTEX2 1027 -1.35286816 0.01149947 -2.18090508
VERTEX2 1028 -1.36602201 -0.15452064 -1.61745250
VERTEX2 1029 -1.39488144 -0.72032748 -1.63901296
VERTEX2 1030 -1.45867974 -1.34141742 -1.71942927
VERTEX2 1031 -1.57163854 -1.98655732 -1.77357275
VERTEX2 1032 -1.70250831 -2.63175179 -1.76951843
VERTEX2 1033 -1.84638426 -3.27573068 -1.81465093
VERTEX2 1034 -1.89108723 -3.44639052 -2.02840210
VERTEX2 1035 -1.89642240 -3.45088542 -2.64764723
VERTEX2 1036 -1.86560250 -3.46510921 3.06479973
VERTEX2 1037 -2.20565918 -3.33563901 2.82644129
VERTEX2 1038 -2.81717156 -3.21345422 2.91767896
VERTEX2 1039 -3.45567992 -3.04394197 2.88617141
VERTEX2 1040 -3.43014256 -3.04455051 -2.76687748
VERTEX2 1041 -3.40135734 -3.04832800 -1.74984097
VERTEX2 1042 -3.40314067 -3.08111730 -0.76182389
VERTEX2 1043 -3.36963082 -3.11193626 0.20784044
VERTEX2 1044 -3.38323315 -3.12801787 1.20173592
VERTEX2 1045 -3.38636847 -3.13494193 1.08770734
VERTEX2 1046 -3.39690677 -3.14914461 0.70216954
VERTEX2 1047 -3.41584342 -3.15741447 0.14639374
VERTEX2 1048 -3.05318134 -3.22626626 -0.16660166
VERTEX2 1049 -2.40754068 -3.32398105 -0.14944345
VERTEX2 1050 -1.76019237 -3.39392601 -0.07376217
VERTEX2 1051 -1.10464178 -3.46675896 -0.15290246
VERTEX2 1052 -0.48064967 -3.54715698 -0.09994522
VERTEX2 1053 -0.06326017 -3.60117915 -0.15256968
VERTEX2 1054 -0.03692511 -3.60393364 0.60962670
VERTEX2 1055 -0.03075184 -3.57481085 1.66502664
VERTEX2 1056 -0.02192848 -3.58770995 2.66872819
VERTEX2 1057 0.00300919 -3.59046075 -2.62367149
VERTEX2 1058 0.00113834 -3.59266158 -1.70155024
VERTEX2 1059 -0.09672765 -4.17505041 -1.78231047
VERTEX2 1060 -0.23338103 -4.80478718 -1.77731560
VERTEX2 1061 -0.34066164 -5.25068935 -1.89985683
VERTEX2 1062 -0.34410376 -5.25599446 -2.46408032
VERTEX2 1063 -0.32288440 -5.24386908 -3.06180324
VERTEX2 1064 -0.60327492 -5.19097911 2.95613599
VERTEX2 1065 -1.19086033 -5.12352830 3.07811015
VERTEX2 1066 -1.75393018 -5.07075998 3.02200760
VERTEX2 1067 -1.73939134 -5.07001245 -2.82849176
VERTEX2 1068 -1.72688302 -5.06123955 -2.15567740
VERTEX2 1069 -1.72624704 -5.05952907 -1.98528971
VERTEX2 1070 -1.72475306 -5.05690790 -2.52422796
VERTEX2 1071 -2.19673421 -5.31274640 -2.65143406
VERTEX2 1072 -2.64690388 -5.54512988 -2.72008817
VERTEX2 1073 -2.61773496 -5.54439361 3.05196712
VERTEX2 1074 -3.14756370 -5.47235297 3.01761226
VERTEX2 1075 -3.72504133 -5.39591724 3.03418330
VERTEX2 1076 -3.74480067 -5.39445564 -2.84480261
VERTEX2 1077 -3.75801859 -5.41940525 -2.03906742
VERTEX2 1078 -3.99665430 -6.02944605 -1.99392343
VERTEX2 1079 -4.22963678 -6.59645731 -1.93180958
VERTEX2 1080 -4.23448941 -6.60943658 -2.41941905
VERTEX2 1081 -4.66262722 -6.90200736 -2.54267174
VERTEX2 1082 -4.83320639 -7.02105921 -2.26205986
VERTEX2 1083 -4.82891505 -7.05389411 -1.23167484
VERTEX2 1084 -4.75969969 -7.08946885 -0.26607002
VERTEX2 1085 -4.76610389 -7.09116435 0.71744203
VERTEX2 1086 -4.40690414 -6.60283784 0.94808607
VERTEX2 1087 -4.02840006 -6.09667857 0.93610953
VERTEX2 1088 -3.66850695 -5.58622455 0.91944774
VERTEX2 1089 -3.61386057 -5.51561850 0.82444901
VERTEX2 1090 -3.60427080 -5.50685492 0.20920711
VERTEX2 1091 -3.06418601 -5.47496599 0.03226513
VERTEX2 1092 -2.44264041 -5.46014384 0.01708876
VERTEX2 1093 -1.87097776 -5.46365544 -0.04801190
VERTEX2 1094 -1.85831016 -5.47573249 -0.45205865
VERTEX2 1095 -1.82798784 -5.50264668 -1.04174167
VERTEX2 1096 -1.82796894 -5.50285023 -1.61292548
VERTEX2 1097 -1.91148947 -5.82793597 -1.82834986
VERTEX2 1098 -2.08912855 -6.42451668 -1.88518521
VERTEX2 1099 -2.29716813 -6.98521932 -1.98128905
VERTEX2 1100 -2.30290817 -6.99968955 -1.61825075
VERTEX2 1101 -2.24487455 -7.26267513 -1.35239129
VERTEX2 1102 -2.24559258 -7.27105936 -1.74612054
VERTEX2 1103 -2.37433881 -7.87991250 -1.77992181
VERTEX2 1104 -2.51398866 -8.51503979 -1.80763171
VERTEX2 1105 -2.67089224 -9.13617439 -1.82553443
VERTEX2 1106 -2.79812444 -9.61226243 -1.85077017
VERTEX2 1107 -2.79747884 -9.61993548 -1.59465672
VERTEX2 1108 -2.76887323 -10.24594630 -1.58681417
VERTEX2 1109 -2.82495281 -10.88933395 -1.69073538
VERTEX2 1110 -2.90303580 -11.49639349 -1.74023663
VERTEX2 1111 -3.07595219 -12.02435910 -1.84148840
VERTEX2 1112 -3.11346481 -12.60311637 -1.49501838
VERTEX2 1113 -3.08147917 -13.24207886 -1.59035654
VERTEX2 1114 -3.09280345 -13.85846862 -1.57328563
VERTEX2 1115 -3.09128357 -14.44151990 -1.58943492
VERTEX2 1116 -3.08081695 -15.08973854 -1.55313476
VERTEX2 1117 -3.07821225 -15.18710748 -1.68085023
VERTEX2 1118 -3.07685405 -15.18458288 -2.28794898
VERTEX2 1119 -3.06799507 -15.17848479 -2.71951039
VERTEX2 1120 -3.63151150 -15.38291535 -2.78308172
VERTEX2 1121 -3.82133648 -15.44943255 -2.90160590
VERTEX2 1122 -3.81733869 -15.45080833 2.83136609
VERTEX2 1123 -4.36680789 -15.26538859 2.84834424
VERTEX2 1124 -4.92428101 -15.13618871 2.94714918
VERTEX2 1125 -5.54962089 -15.01026152 2.96070478
VERTEX2 1126 -5.62988446 -14.99728348 -2.98266207
VERTEX2 1127 -5.62565674 -15.00179886 -1.92528006
VERTEX2 1128 -5.62464524 -14.99691706 -0.93781320
VERTEX2 1129 -5.60763777 -15.00644690 0.07790332
VERTEX2 1130 -5.01875137 -14.94235240 0.09168281
VERTEX2 1131 -4.24533023 -15.06833570 -0.33994434
VERTEX2 1132 -3.63520446 -15.28657018 -0.35950496
VERTEX2 1133 -3.08897515 -15.51534196 -0.39806892
VERTEX2 1134 -2.83642060 -15.62183515 -0.49492665
VERTEX2 1135 -2.82580190 -15.63229173 -1.05067571
VERTEX2 1136 -2.82548085 -15.63160606 -1.61234579
VERTEX2 1137 -2.88006217 -15.93401238 -1.79618183
VERTEX2 1138 -3.03602448 -16.56682169 -1.81230198
VERTEX2 1139 -3.15622557 -17.06196335 -1.88532236
VERTEX2 1140 -3.14636646 -17.03849033 -2.36389319
VERTEX2 1141 -3.12500460 -17.01782712 -2.91084509
VERTEX2 1142 -3.48823096 -16.97338060 3.00834596
VERTEX2 1143 -4.08645248 -16.92492389 3.09794073
VERTEX2 1144 -4.66762507 -16.88893814 3.06750173
VERTEX2 1145 -5.24632919 -16.84172465 3.04221137
VERTEX2 1146 -5.82262892 -16.78287884 3.06212855
VERTEX2 1147 -6.40246073 -16.77122617 3.13502989
VERTEX2 1148 -6.98113400 -16.76717754 -3.13812483
VERTEX2 1149 -7.02405629 -16.76837031 -2.63987982
VERTEX2 1150 -7.11661630 -16.87068953 -1.83013937
VERTEX2 1151 -7.11476620 -16.88158685 -0.82613975
VERTEX2 1152 -7.09789423 -16.88192171 0.22717202
VERTEX2 1153 -7.08325661 -16.87534300 1.24013770
VERTEX2 1154 -7.14166465 -16.55793447 1.78623140
VERTEX2 1155 -7.27301209 -15.93298890 1.73689951
VERTEX2 1156 -7.36853833 -15.32673708 1.74693444
VERTEX2 1157 -7.49404459 -14.75513325 1.85806775
VERTEX2 1158 -7.61867257 -14.15249330 1.72953778
VERTEX2 1159 -7.67760829 -13.54865882 1.63559334
VERTEX2 1160 -7.69844240 -12.90846946 1.49893822
VERTEX2 1161 -7.59694638 -12.27709926 1.40931697
VERTEX2 1162 -7.50371798 -11.64538034 1.46748764
VERTEX2 1163 -7.43943751 -11.00251079 1.46208122
VERTEX2 1164 -7.38949679 -10.36151417 1.54757033
VERTEX2 1165 -7.37730593 -9.82223762 1.52476254
VERTEX2 1166 -7.37792335 -9.81921972 2.01375857
VERTEX2 1167 -7.32561213 -9.80659852 2.95044548
VERTEX2 1168 -7.28062471 -9.78879274 -2.42923789
VERTEX2 1169 -7.28470810 -9.84057374 -1.60717899
VERTEX2 1170 -7.29572043 -10.42700885 -1.60043743
VERTEX2 1171 -7.29637600 -11.06223188 -1.56865820
VERTEX2 1172 -7.30144358 -11.66149693 -1.63107425
VERTEX2 1173 -7.33216887 -12.28539004 -1.62193035
VERTEX2 1174 -7.37683019 -12.91443496 -1.69064296
VERTEX2 1175 -7.46374365 -13.52820677 -1.72405724
VERTEX2 1176 -7.56220343 -14.14954877 -1.76774382
VERTEX2 1177 -7.68282696 -14.75878843 -1.76571265
VERTEX2 1178 -7.81503323 -15.37192212 -1.81294280
VERTEX2 1179 -7.95371305 -15.97690337 -1.78361693
VERTEX2 1180 -8.00855731 -16.23122482 -1.79062474
VERTEX2 1181 -8.00783647 -16.22625442 -0.96326298
VERTEX2 1182 -7.95161492 -16.24064457 -0.25163342
VERTEX2 1183 -7.33763003 -16.39089603 -0.22635521
VERTEX2 1184 -6.70435220 -16.50703246 -0.15686911
VERTEX2 1185 -6.07598221 -16.61874010 -0.18918496
VERTEX2 1186 -5.44401594 -16.71499292 -0.12307270
VERTEX2 1187 -4.78971130 -16.80192215 -0.16024612
VERTEX2 1188 -4.16199560 -16.89323647 -0.14222468
VERTEX2 1189 -3.49625772 -17.00232488 -0.12051776
VERTEX2 1190 -3.16209538 -17.04343954 -0.11247670
VERTEX2 1191 -3.12690858 -17.04271814 0.80787383
VERTEX2 1192 -3.12103250 -16.95861749 1.60559334
VERTEX2 1193 -3.11418270 -16.35821693 1.47362061
VERTEX2 1194 -3.07277675 -15.78345560 1.51571770
VERTEX2 1195 -3.04423705 -15.15943595 1.56811405
VERTEX2 1196 -3.03844968 -14.53528876 1.39554808
VERTEX2 1197 -2.93507911 -13.91984179 1.40688182
VERTEX2 1198 -2.86481071 -13.29256861 1.66585484
VERTEX2 1199 -2.88238344 -12.67987385 1.45129239
VERTEX2 1200 -2.82565616 -12.04935267 1.52040311
VERTEX2 1201 -2.80126915 -11.42922246 1.57632769
VERTEX2 1202 -2.81220104 -10.80643118 1.59936545
VERTEX2 1203 -2.84337865 -10.21665912 1.50954730
VERTEX2 1204 -2.72955123 -9.62412996 1.36288222
VERTEX2 1205 -2.62162118 -9.06067464 1.39254707
VERTEX2 1206 -2.53671720 -8.47025375 1.45387799
VERTEX2 1207 -2.39985076 -7.85837739 1.36789016
VERTEX2 1208 -2.28797867 -7.23284419 1.43267741
VERTEX2 1209 -2.20167132 -6.61074168 1.43083296
VERTEX2 1210 -2.13754328 -5.99288438 1.45150381
VERTEX2 1211 -2.01224563 -5.38191632 1.37824483
VERTEX2 1212 -1.89789493 -4.77142730 1.42790498
VERTEX2 1213 -1.83103792 -4.15991265 1.50084376
VERTEX2 1214 -1.74931726 -3.43646320 1.27777033
VERTEX2 1215 -1.58437132 -2.85045841 1.33641621
VERTEX2 1216 -1.53392848 -2.29739288 1.55327651
VERTEX2 1217 -1.49939013 -1.71813949 1.53366649
VERTEX2 1218 -1.48572574 -1.12799398 1.48299749
VERTEX2 1219 -1.43517455 -0.47893454 1.51359549
VERTEX2 1220 -1.42827915 0.10812740 1.60433349
VERTEX2 1221 -1.42773553 0.10629860 1.15158049
VERTEX2 1222 -1.41775915 0.11601624 0.55427349
VERTEX2 1223 -1.40592571 0.11881912 -0.00535351
VERTEX2 1224 -0.83194074 0.02668098 -0.18826151
VERTEX2 1225 -0.21656573 -0.08658562 -0.17449751
VERTEX2 1226 -0.11169804 -0.10518347 -0.19122851
VERTEX2 1227 -0.11169804 -0.10518347 -0.19189051
