1 10 107 2 502.37653468 0.00000305 1 
2 64 140 2 291.47375264 0.00000234 1 
3 19 166 0 0.41485034 0.00210934 5 
4 19 172 0 0.02820697 0.00190704 4 
5 25 172 0 0.50366199 0.00188244 4 
6 25 178 0 0.30831851 0.00197300 4 
7 32 178 0 0.01493521 0.00199057 4 
8 32 183 0 0.07055611 0.00201332 4 
9 85 186 2 889.14489398 0.00000246 1 
10 44 189 0 0.52863102 0.00207999 4 
11 44 195 0 0.35755137 0.00216560 4 
12 50 195 0 0.00572854 0.00219832 4 
13 38 196 2 926.94720565 0.00000283 1 
14 148 199 2 800.99580909 0.00000248 1 
15 50 201 0 0.04110605 0.00189757 3 
16 50 203 0 0.06975183 0.00187425 3 
17 61 203 0 0.00745912 0.00189936 3 
18 3 206 2 557.06090034 0.00000231 1 
19 61 209 0 0.37222863 0.00231462 4 
20 67 209 0 0.41032090 0.00232252 4 
21 121 210 2 783.11226470 0.00000266 1 
22 67 220 0 0.66144083 0.00249605 4 
23 81 220 0 0.48035877 0.00285669 5 
24 81 226 0 0.05402805 0.00256757 4 
25 87 226 0 1.82553139 0.00294171 5 
26 87 231 0 0.34656585 0.00262166 4 
27 94 231 0 0.55778528 0.00256168 4 
28 226 231 0 1.44127402 0.00298506 5 
29 88 231 2 21914.39628854 0.00000217 5 
30 94 241 0 1.33132047 0.00269021 4 
31 101 241 0 0.50961029 0.00271183 4 
32 30 244 2 1324.68116565 0.00000228 1 
33 101 247 0 1.66454674 0.00276100 4 
34 107 247 0 1.80094617 0.00277948 4 
35 1 248 2 124.08622565 0.00000250 1 
36 107 254 0 1.18346605 0.00284211 4 
37 114 254 0 0.12939160 0.00285974 4 
38 107 256 0 0.93085039 0.00284819 4 
39 114 256 0 0.24629796 0.00285599 4 
40 107 258 0 1.37911724 0.00290183 4 
41 114 258 0 1.15747212 0.00292132 4 
42 121 266 0 0.00938596 0.00301084 4 
43 126 266 0 0.44864328 0.00354582 5 
44 179 266 2 692.57075207 0.00000238 5 
45 6 268 2 111.60879621 0.00000225 1 
46 126 272 0 1.03992836 0.00309035 4 
47 132 272 0 0.39070916 0.00364274 5 
48 132 278 0 0.58358145 0.00317788 4 
49 138 278 0 1.06458780 0.00373229 5 
50 138 284 0 0.02201259 0.00271401 3 
51 151 284 0 0.12777228 0.00328597 4 
52 151 291 0 0.60037557 0.00331391 4 
53 151 297 0 0.07972289 0.00284345 3 
54 157 297 0 1.04991834 0.00344490 4 
55 166 297 0 1.30507781 0.00338582 4 
56 28 301 2 3225.49505786 0.00000194 1 
57 53 304 2 988.07996324 0.00000246 1 
58 19 305 0 0.16044642 0.00356814 4 
59 157 305 0 0.58687353 0.00387885 4 
60 163 305 0 7.56485476 0.00484456 6 
61 166 305 0 0.37495035 0.00360276 4 
62 172 305 0 0.01886255 0.00360671 4 
63 176 307 2 4217.60929043 0.00000227 1 
64 19 315 0 0.48455906 0.00310649 3 
65 25 315 0 0.02281386 0.00311417 3 
66 172 315 0 0.05679715 0.00372760 4 
67 172 328 0 0.12482725 0.00325614 3 
68 19 337 0 6.63404991 0.00465842 5 
69 25 337 0 0.96522419 0.00400084 4 
70 172 337 0 0.57611560 0.00333928 3 
71 200 337 2 2131.20767252 0.00000234 3 
72 102 339 2 1151.80431160 0.00000221 1 
73 19 342 0 0.00494520 0.00338040 3 
74 25 342 0 0.12855172 0.00406440 4 
75 172 342 0 0.01223902 0.00411950 4 
76 178 342 0 0.12442988 0.00417386 4 
77 54 363 2 1602.88994941 0.00000330 1 
78 217 364 2 314.78657208 0.00000307 1 
79 25 367 0 0.11414782 0.00378225 3 
80 32 367 0 0.01267433 0.00596367 6 
81 178 367 0 0.00286807 0.00374978 3 
82 183 367 0 0.06698524 0.00376780 3 
83 118 367 2 1894.93904803 0.00000286 3 
84 363 370 2 2211.32424258 0.00000258 1 
85 7 371 2 1211.35144452 0.00000280 1 
86 356 372 2 99.96858276 0.00000268 1 
87 25 374 0 0.56424690 0.00460466 4 
88 32 374 0 0.09892849 0.00534019 5 
89 178 374 0 0.03055075 0.00458257 4 
90 183 374 0 0.05309447 0.00457375 4 
91 32 382 0 4.14688582 0.00392616 3 
92 183 382 0 1.28811506 0.00466218 4 
93 32 387 0 2.72468715 0.00474011 4 
94 183 387 0 0.18197642 0.00472068 4 
95 251 401 2 285.73373886 0.00000316 1 
96 129 410 2 278.07767175 0.00000287 1 
97 189 414 0 7.69047346 0.00587051 5 
98 292 422 2 373.70470642 0.00000331 1 
99 267 425 2 2124.89138671 0.00000259 1 
100 254 435 2 324.47740127 0.00000301 1 
101 44 437 0 0.00915802 0.00439526 3 
102 195 437 0 0.01161094 0.00437384 3 
103 254 439 2 2539.83004909 0.00000355 1 
104 392 446 2 905.79311873 0.00000289 1 
105 36 447 2 562.15636772 0.00000328 1 
106 220 448 2 1018.41713047 0.00000282 1 
107 183 448 2 860.33897038 0.00000160 1 
108 61 451 2 1688.74578102 0.00000277 1 
109 44 454 0 0.65644164 0.00453389 3 
110 189 454 0 0.03962740 0.00543282 4 
111 200 461 2 332.00298989 0.00000295 1 
112 300 463 2 1189.23448058 0.00000255 1 
113 44 467 0 0.12345281 0.00642258 5 
114 50 467 0 0.00895575 0.01023622 9 
115 195 467 0 0.00230988 0.00465754 3 
116 326 475 2 567.53536854 0.00000382 1 
117 123 478 2 3612.48338912 0.00000341 1 
118 328 482 2 162.58923455 0.00000314 1 
119 13 483 2 823.18243961 0.00000303 1 
120 195 484 0 0.09447226 0.00575068 4 
121 128 484 2 1671.25313044 0.00000260 4 
122 9 485 2 1060.28368265 0.00000303 1 
123 34 487 2 1723.39368844 0.00000294 1 
124 468 490 2 2376.81090248 0.00000279 1 
125 44 494 0 0.02880924 0.00579660 4 
126 50 494 0 0.00628832 0.00484079 3 
127 195 494 0 0.00818961 0.00683856 5 
128 201 494 0 0.00469852 0.00683955 5 
129 455 496 2 3459.27022691 0.00000349 1 
130 401 498 2 552.47838824 0.00000289 1 
131 50 500 0 0.14406209 0.00697351 5 
132 201 500 0 0.05353930 0.00491495 3 
133 203 500 0 0.03252445 0.00491836 3 
134 61 508 0 0.99413579 0.00713482 5 
135 203 508 0 0.26947301 0.01226499 10 
136 209 508 0 0.03711473 0.00605643 4 
137 61 522 0 1.37942234 0.00613775 4 
138 203 522 0 0.12859200 0.00510386 3 
139 209 522 0 0.00542469 0.00519010 3 
140 296 527 2 1856.74840386 0.00000321 1 
141 61 528 0 0.47936102 0.00517629 3 
142 67 528 0 0.22419307 0.00629750 4 
143 81 528 0 0.23233822 0.00841981 6 
144 209 528 0 0.09444678 0.01063054 8 
145 220 528 0 0.13668760 0.00626269 4 
146 67 532 0 0.05459173 0.01180858 9 
147 81 532 0 0.11826401 0.00850295 6 
148 220 532 0 0.05648169 0.00635902 4 
149 154 532 2 3832.25862425 0.00000250 4 
150 402 543 2 1264.91507914 0.00000283 1 
151 178 544 2 1983.32949950 0.00000778 1 
152 147 546 2 978.73986196 0.00000279 1 
153 130 549 2 611.24330148 0.00000259 1 
154 263 550 2 399.13857274 0.00000248 1 
155 67 556 0 0.98233216 0.00648666 4 
156 407 557 2 1294.44959427 0.00000294 1 
157 388 563 2 661.14994056 0.00000309 1 
158 67 564 0 0.40168838 0.01232699 9 
159 81 564 0 0.02280941 0.00665420 4 
160 220 564 0 0.02684857 0.00665989 4 
161 67 567 0 2.67253169 0.00781256 5 
162 81 567 0 0.48923871 0.00901292 6 
163 220 567 0 0.21723258 0.00665101 4 
164 519 569 2 133.53940957 0.00000362 1 
165 67 570 0 2.40706627 0.00908627 6 
166 81 570 0 0.15671702 0.00902865 6 
167 220 570 0 0.13379867 0.00674256 4 
168 81 575 0 2.76594993 0.00792451 5 
169 220 575 0 1.08612706 0.01036465 7 
170 358 584 2 612.73585854 0.00000362 1 
171 131 586 2 543.09735320 0.00000324 1 
172 81 588 0 0.01497138 0.00567409 3 
173 87 588 0 0.47937722 0.00817843 5 
174 226 588 0 0.43156268 0.00691612 4 
175 485 588 2 4420.70159361 0.00000374 4 
176 350 588 2 1013.30880117 0.00000136 4 
177 189 591 2 4045.55366125 0.00000345 1 
178 350 592 2 578.28725947 0.00000307 1 
179 390 595 2 2283.06936426 0.00000325 1 
180 87 597 0 2.27648751 0.00957082 6 
181 94 597 0 0.38888315 0.00700146 4 
182 226 597 0 0.55079633 0.00830096 5 
183 343 599 2 1384.44402046 0.00000299 1 
184 590 603 2 520.12069980 0.00000302 1 
185 87 604 0 0.47149562 0.00711103 4 
186 94 604 0 0.01542269 0.00840736 5 
187 321 609 2 1692.14784821 0.00000364 1 
188 263 609 2 89.14099479 0.00000109 1 
189 148 610 2 202.11852548 0.00000221 1 
190 119 614 2 1374.69245694 0.00000295 1 
191 94 616 0 0.01350372 0.01235818 8 
192 94 632 0 2.16969694 0.00881146 5 
193 467 634 2 3610.06797170 0.00000366 1 
194 94 637 0 4.44236402 0.01007484 6 
195 101 637 0 0.19098383 0.00752070 4 
196 371 640 2 3827.39416787 0.00000378 1 
197 101 642 0 0.11555601 0.00888853 5 
198 107 642 0 0.04025021 0.01410852 9 
199 101 645 0 6.69527511 0.00761702 4 
200 107 645 0 1.54205090 0.00753249 4 
201 550 645 2 740.00425477 0.00000368 4 
202 472 645 2 1196.51861451 0.00000114 4 
203 77 647 2 627.94722557 0.00000366 1 
204 556 648 2 2542.06991522 0.00000326 1 
205 610 650 2 1683.33898873 0.00000361 1 
206 289 652 2 1003.52162328 0.00000296 1 
207 101 657 0 0.73548669 0.01668533 10 
208 27 660 2 1119.05548625 0.00000404 10 
209 101 663 0 0.04971914 0.01674190 10 
210 107 663 0 0.01781179 0.00912628 5 
211 114 663 0 0.00275957 0.00917878 5 
212 77 663 2 3205.39375053 0.00000389 5 
213 101 665 0 1.55112265 0.01347167 8 
214 107 665 0 0.47667103 0.00782204 4 
215 114 665 0 0.13329170 0.00650382 3 
216 516 668 2 2939.75148346 0.00000380 1 
217 290 669 2 1422.14839121 0.00000278 1 
218 107 680 0 1.48615866 0.00938521 5 
219 383 682 2 2657.60825334 0.00000375 1 
220 107 683 0 0.94462224 0.00804149 4 
221 114 683 0 0.32178225 0.00953280 5 
222 520 683 2 6224.30901311 0.00000337 5 
223 141 686 2 1266.10575508 0.00000380 1 
224 654 691 2 1744.81813246 0.00000356 1 
225 176 696 2 1213.15882719 0.00000344 1 
226 664 697 2 2437.16172445 0.00000337 1 
227 482 701 2 152.79701039 0.00000339 1 
228 107 704 0 0.34268109 0.01262356 7 
229 114 704 0 0.07528002 0.01554012 9 
230 81 704 2 4145.40702223 0.00000397 9 
231 212 705 2 1997.54733296 0.00000383 1 
232 107 714 0 1.79639085 0.01136520 6 
233 114 714 0 0.02860377 0.01439262 8 
234 47 721 2 3542.62550008 0.00000370 1 
235 84 722 2 248.95552633 0.00000315 1 
236 583 722 2 849.48377081 0.00000121 1 
237 527 723 2 1401.67943421 0.00000313 1 
238 107 730 0 0.19656714 0.01014042 5 
239 114 730 0 0.03540690 0.00855593 4 
240 168 736 2 1971.92796197 0.00000346 1 
241 600 742 2 372.03540430 0.00000326 1 
242 659 743 2 1082.37796852 0.00000383 1 
243 419 747 2 909.41283043 0.00000321 1 
244 567 747 2 2386.69104859 0.00000139 1 
245 201 748 2 809.65403201 0.00000313 1 
246 567 748 2 3245.74860596 0.00000129 1 
247 445 750 2 682.47185922 0.00000299 1 
248 19 753 2 849.21568448 0.00000347 1 
249 121 754 0 0.33113739 0.00877225 4 
250 126 754 0 0.07673382 0.01515462 8 
251 121 759 0 2.33625684 0.01198264 6 
252 126 759 0 0.22329988 0.01204010 6 
253 89 760 2 1028.13904279 0.00000385 1 
254 462 760 2 1536.52231520 0.00000146 1 
255 315 760 2 65.27189539 0.00000080 1 
256 126 762 0 7.08482229 0.01039670 5 
257 132 762 0 2.00372045 0.01537049 8 
258 706 767 2 100.40360547 0.00000336 1 
259 507 768 2 1550.86994218 0.00000335 1 
260 554 776 2 152.97047106 0.00000327 1 
261 132 778 0 0.06999780 0.00905602 4 
262 108 782 2 1994.45565500 0.00000406 1 
263 369 783 2 2249.81739517 0.00000333 1 
264 636 785 2 957.80606900 0.00000335 1 
265 133 787 2 1920.62580579 0.00000397 1 
266 217 787 2 877.20935812 0.00000133 1 
267 535 789 2 1365.61009590 0.00000394 1 
268 132 792 0 1.26802734 0.00929191 4 
269 106 793 2 1460.06099173 0.00000387 1 
270 132 800 0 3.35686460 0.00922192 4 
271 138 800 0 0.14494330 0.01256538 6 
272 94 805 2 3409.02394056 0.00000434 1 
273 138 806 0 0.25140739 0.00754707 3 
274 622 807 2 2211.34277143 0.00000396 1 
275 138 821 0 0.40674396 0.01109546 5 
276 490 822 2 2317.61254667 0.00000433 1 
277 138 823 0 6.54725682 0.00941012 4 
278 34 824 2 230.95258754 0.00000370 1 
279 151 828 0 3.12108818 0.00949296 4 
280 535 829 2 1168.52782576 0.00000416 1 
281 522 836 2 3476.24833419 0.00000388 1 
282 117 837 2 451.29752487 0.00000356 1 
283 200 837 2 2026.68028778 0.00000150 1 
284 659 840 2 214.77866367 0.00000386 1 
285 781 840 2 245.98292087 0.00000155 1 
286 10 843 2 232.91795217 0.00000369 1 
287 598 845 2 1038.21826964 0.00000385 1 
288 151 847 0 0.08724621 0.01144868 5 
289 553 852 2 353.01063430 0.00000355 1 
290 490 852 2 853.34819290 0.00000184 1 
291 151 855 0 0.11494457 0.01513500 7 
292 817 856 2 3005.47727844 0.00000361 1 
293 338 859 2 2355.46203906 0.00000349 1 
294 149 870 2 338.73442000 0.00000363 1 
295 4 874 2 177.31656768 0.00000375 1 
296 500 881 2 1200.86661442 0.00000410 1 
297 234 883 2 288.19807469 0.00000370 1 
298 865 889 2 451.12705286 0.00000378 1 
299 386 889 2 56.66412556 0.00000139 1 
300 442 890 2 728.12446207 0.00000368 1 
301 440 892 2 368.90128633 0.00000340 1 
302 151 895 0 2.80701437 0.01762964 8 
303 84 895 2 975.39803278 0.00000455 8 
304 151 897 0 0.06118057 0.02140221 10 
305 561 902 2 1044.62667667 0.00000425 1 
306 138 903 0 0.08157811 0.01022707 4 
307 138 904 0 7.06392298 0.01401307 6 
308 132 907 0 0.71874717 0.01031080 4 
309 138 907 0 0.22077132 0.01220834 5 
310 196 909 2 1957.12460206 0.00000396 1 
311 765 909 2 1108.96742178 0.00000158 1 
312 574 910 2 4187.56449846 0.00000355 1 
313 544 910 2 719.56947579 0.00000144 1 
314 132 911 0 0.23128175 0.01227424 5 
315 282 912 2 3979.25516627 0.00000413 1 
316 714 914 2 774.31746561 0.00000405 1 
317 140 914 2 2739.53723317 0.00000148 1 
318 695 920 2 224.85968241 0.00000418 1 
319 237 921 2 1361.16371024 0.00000327 1 
320 121 923 0 0.62636126 0.01436793 6 
321 126 923 0 0.07130653 0.01049488 4 
322 573 925 2 1304.88262394 0.00000419 1 
323 485 925 2 3072.24037809 0.00000156 1 
324 16 927 2 1391.96007889 0.00000363 1 
325 41 927 2 1484.56656115 0.00000130 1 
326 23 928 2 4904.21250448 0.00000373 1 
327 107 929 0 0.07225325 0.01255098 5 
328 114 929 0 0.00477553 0.01060366 4 
329 34 933 2 1387.11386989 0.00000408 1 
330 107 935 0 4.91438615 0.01653812 7 
331 114 935 0 1.40337639 0.01659113 7 
332 725 938 2 4988.73407145 0.00000374 1 
333 101 939 0 0.48567419 0.01071022 4 
334 107 939 0 0.21174614 0.01075049 4 
335 255 939 2 10824.55929087 0.00000412 4 
336 101 944 0 0.15377935 0.01274236 5 
337 833 944 2 1355.98806873 0.00000454 5 
338 94 947 0 0.23772432 0.01677795 7 
339 101 947 0 0.16826262 0.01483544 6 
340 81 948 2 4648.27815627 0.00000451 1 
341 153 949 2 1987.66334628 0.00000308 1 
342 78 952 2 1423.53658709 0.00000442 1 
343 87 953 0 0.13504795 0.01091326 4 
344 94 953 0 0.06505521 0.01496010 6 
345 226 953 0 0.08268323 0.02302534 10 
346 81 959 0 1.83528326 0.02445599 10 
347 87 959 0 1.29172246 0.01717418 7 
348 220 959 0 0.04883629 0.01106209 4 
349 226 959 0 0.12130941 0.01310750 5 
350 749 959 2 1254.30832665 0.00000373 5 
351 67 965 0 1.01368609 0.01320717 5 
352 81 965 0 0.31066014 0.01524881 6 
353 220 965 0 0.16483276 0.01935282 8 
354 217 966 2 1040.35355340 0.00000358 1 
355 265 968 2 1421.15328578 0.00000354 1 
356 61 976 0 0.16803746 0.01743701 7 
357 67 976 0 0.05676300 0.00919185 3 
358 209 976 0 0.00780965 0.01126834 4 
359 782 977 2 1091.41660533 0.00000458 1 
360 83 978 2 1994.84219545 0.00000361 1 
361 323 979 2 865.27447112 0.00000401 1 
362 777 980 2 396.54586470 0.00000370 1 
363 408 980 2 242.70208556 0.00000155 1 
364 50 982 0 0.38354811 0.01138054 4 
365 61 982 0 0.27147698 0.01137267 4 
366 201 982 0 0.22200943 0.01139466 4 
367 203 982 0 0.10573284 0.02197701 9 
368 825 986 2 221.71418845 0.00000405 1 
369 666 987 2 961.62112549 0.00000403 1 
370 44 988 0 0.09550719 0.01153044 4 
371 50 988 0 0.05924873 0.01151276 4 
372 195 988 0 0.04319526 0.01575919 6 
373 201 988 0 0.02685916 0.01362001 5 
374 560 993 2 386.70503982 0.00000410 1 
375 44 994 0 0.51683435 0.01803032 7 
376 189 994 0 0.29989154 0.02588038 10 
377 195 994 0 0.21957432 0.01376351 5 
378 142 994 2 3315.58938763 0.00000402 5 
379 916 996 2 1822.64734473 0.00000442 1 
380 832 997 2 1425.68012639 0.00000355 1 
381 12 998 2 1147.33390977 0.00000375 1 
382 32 1003 0 0.23901034 0.01392111 5 
383 178 1003 0 0.03356851 0.02611281 10 
384 183 1003 0 0.01433170 0.01611889 6 
385 171 1003 2 4694.27967573 0.00000421 6 
386 226 1003 2 3145.04975547 0.00000160 6 
387 109 1005 2 2930.89381711 0.00000546 1 
388 25 1008 0 1.23858172 0.01840250 7 
389 32 1008 0 0.53803958 0.01182337 4 
390 178 1008 0 0.34459610 0.01182081 4 
391 183 1008 0 0.22233868 0.01186320 4 
392 25 1010 0 0.60236133 0.01182475 4 
393 32 1010 0 0.30591807 0.01404156 5 
394 172 1010 0 0.10368354 0.01633972 6 
395 178 1010 0 0.19279072 0.02651309 10 
396 337 1012 2 1935.46989246 0.00000455 10 
397 19 1016 0 0.44047719 0.02062998 8 
398 166 1016 0 0.20189646 0.01190388 4 
399 172 1016 0 0.07393216 0.01412864 5 
400 300 1017 2 7798.03449666 0.00000497 1 
401 482 1022 2 1844.29742184 0.00000532 1 
402 974 1022 2 525.61351520 0.00000175 1 
403 151 1029 0 0.03533130 0.01435651 5 
404 157 1029 0 0.02672450 0.01203915 4 
405 163 1029 0 3.39703566 0.01205851 4 
406 166 1029 0 0.49353449 0.01205445 4 
407 263 1029 2 5486.15788120 0.00000403 4 
408 438 1032 2 3996.23520625 0.00000536 1 
409 379 1035 2 1050.60122211 0.00000553 1 
410 50 1037 2 4842.66648504 0.00000588 1 
411 683 1045 2 1391.96442407 0.00000479 1 
412 561 1050 2 94.33870210 0.00000534 1 
413 226 1057 2 744.82430381 0.00000520 1 
414 393 1063 2 310.87269237 0.00000483 1 
415 96 1068 2 209.77531509 0.00000515 1 
416 464 1068 2 373.98149200 0.00000183 1 
417 171 1070 2 572.70227945 0.00000495 1 
418 518 1074 2 640.31906447 0.00000440 1 
419 698 1075 2 909.50367083 0.00000448 1 
420 749 1076 2 227.30570846 0.00000529 1 
421 302 1076 2 508.51507161 0.00000174 1 
422 307 1078 2 235.24792010 0.00000552 1 
423 309 1079 2 65.87045798 0.00000417 1 
424 1015 1082 2 56.31325042 0.00000533 1 
425 132 1084 0 4.21993706 0.01507561 5 
426 763 1084 2 3057.45151805 0.00000552 5 
427 381 1089 2 1299.26544520 0.00000481 1 
428 993 1089 2 702.81319613 0.00000967 1 
429 246 1091 2 630.71428482 0.00000539 1 
430 462 1094 2 188.71825363 0.00000511 1 
431 404 1095 2 583.87059608 0.00000562 1 
432 343 1095 2 3679.02031574 0.00000177 1 
433 997 1098 2 814.64115233 0.00000516 1 
434 861 1100 2 166.04837418 0.00000496 1 
435 999 1100 2 437.86050527 0.00000243 1 
436 214 1103 2 261.86132132 0.00000526 1 
437 1024 1108 2 227.04909574 0.00000554 1 
438 303 1112 2 349.51317403 0.00000542 1 
439 64 1116 2 484.39764970 0.00000484 1 
440 923 1119 2 825.90883989 0.00000554 1 
441 229 1120 2 320.06770241 0.00000555 1 
442 217 1122 2 785.83400839 0.00000590 1 
443 533 1122 2 226.10180886 0.00000224 1 
444 947 1123 2 438.20259593 0.00000529 1 
445 351 1124 2 268.83514221 0.00000527 1 
446 228 1124 2 1057.12570156 0.00000217 1 
447 690 1128 2 30.94593538 0.00000520 1 
448 783 1131 2 169.90013399 0.00000548 1 
449 701 1131 2 274.82676106 0.00000196 1 
450 101 1138 0 0.63021658 0.01578740 5 
451 76 1142 2 1701.62190603 0.00000552 1 
452 996 1146 2 1274.83363308 0.00000591 1 
453 107 1147 0 0.73708347 0.01333142 4 
454 114 1147 0 0.03971358 0.01086065 3 
455 107 1150 0 7.45683387 0.01340962 4 
456 114 1150 0 1.00561260 0.01091447 3 
457 46 1154 2 895.70007873 0.00000518 1 
458 918 1156 2 1412.07750674 0.00000599 1 
459 114 1158 0 0.16899687 0.01098256 3 
460 121 1158 0 0.69099743 0.01353183 4 
461 1041 1158 2 754.18705336 0.00000526 4 
462 272 1161 2 1752.02042562 0.00000560 1 
463 121 1164 0 0.45182924 0.01611285 5 
464 126 1164 0 0.04418665 0.01359249 4 
465 1103 1165 2 165.16561553 0.00000562 1 
466 453 1174 2 886.71389181 0.00000621 1 
467 114 1175 0 0.14266969 0.01373574 4 
468 121 1175 0 0.27324351 0.01384629 4 
469 923 1175 0 0.18719011 0.01378790 4 
470 929 1175 0 0.16073549 0.01376377 4 
471 1158 1175 0 0.00134797 0.01126512 3 
472 738 1178 2 1462.33270692 0.00000580 1 
473 948 1183 2 1276.82026363 0.00000671 1 
474 101 1188 0 0.32950319 0.01390831 4 
475 939 1188 0 0.55418798 0.01391042 4 
476 1138 1188 0 0.03006025 0.01144315 3 
477 1147 1188 0 0.04063922 0.01135499 3 
478 1150 1188 0 1.83245351 0.01396297 4 
479 489 1188 2 3521.78093821 0.00000544 4 
480 1186 1199 2 929.79455603 0.00000554 1 
481 615 1201 2 576.90108466 0.00000537 1 
482 376 1207 2 496.84842314 0.00000516 1 
483 1050 1210 0 0.00345523 0.01414134 4 
484 1061 1210 0 0.57363906 0.01682862 5 
485 1075 1210 0 0.23107861 0.01679654 5 
486 1084 1210 0 3.13555510 0.01681036 5 
487 1088 1210 0 0.59156319 0.01418836 4 
488 1093 1210 0 0.13111230 0.01952279 6 
489 1098 1210 0 0.04730346 0.01418373 4 
490 577 1211 2 934.17926682 0.00000596 1 
491 930 1211 2 1213.78336211 0.00000192 1 
492 593 1212 2 3070.36319916 0.00000646 1 
493 421 1212 2 209.99405904 0.00000228 1 
494 500 1214 2 374.87006648 0.00000532 1 
495 889 1215 2 682.90910127 0.00000553 1 
496 261 1216 2 2282.38842623 0.00000548 1 
497 157 1217 0 0.32750279 0.01430481 4 
498 163 1217 0 0.19904338 0.01444539 4 
499 1029 1217 0 0.01250493 0.01172976 3 
500 1044 1217 0 3.98258990 0.01445654 4 
501 1050 1217 0 4.97161000 0.01714528 5 
502 987 1226 2 682.88719626 0.00000576 1 
503 1184 1227 2 1479.11249752 0.00000469 1 
504 163 297 0 0.27920255 0.01534571 4 
505 189 400 0 2.09679271 0.01468128 4 
506 1056 1217 0 9.66143264 0.01731881 5 
