1 11 107 2 104.89601962 0.00000318 1 
2 144 164 2 1085.30924920 0.00000261 1 
3 19 166 0 0.41485034 0.00216469 5 
4 19 172 0 0.02820697 0.00189565 4 
5 25 172 0 0.50366199 0.00187358 4 
6 25 178 0 0.30831851 0.00197441 4 
7 32 178 0 0.01493521 0.00198855 4 
8 32 183 0 0.07055611 0.00201405 4 
9 44 189 0 0.52863102 0.00208002 4 
10 44 195 0 0.35755137 0.00216351 4 
11 50 195 0 0.00572854 0.00220049 4 
12 50 201 0 0.04110605 0.00189931 3 
13 50 203 0 0.06975183 0.00187259 3 
14 61 203 0 0.00745912 0.00190385 3 
15 61 209 0 0.37222863 0.00231330 4 
16 67 209 0 0.41032090 0.00232253 4 
17 67 220 0 0.66144083 0.00250140 4 
18 81 220 0 0.48035877 0.00285753 5 
19 81 226 0 0.05402805 0.00257054 4 
20 87 226 0 1.82553139 0.00294278 5 
21 87 231 0 0.34656585 0.00262174 4 
22 94 231 0 0.55778528 0.00256614 4 
23 226 231 0 1.44127402 0.00298345 5 
24 94 241 0 1.33132047 0.00268839 4 
25 101 241 0 0.50961029 0.00271355 4 
26 101 247 0 1.66454674 0.00277190 4 
27 107 247 0 1.80094617 0.00278096 4 
28 107 254 0 1.18346605 0.00284169 4 
29 114 254 0 0.12939160 0.00285992 4 
30 107 256 0 0.93085039 0.00285121 4 
31 114 256 0 0.24629796 0.00285536 4 
32 37 256 2 163.99977794 0.00000205 4 
33 107 258 0 1.37911724 0.00290030 4 
34 114 258 0 1.15747212 0.00292031 4 
35 121 266 0 0.00938596 0.00300674 4 
36 126 266 0 0.44864328 0.00354455 5 
37 126 272 0 1.03992836 0.00308710 4 
38 132 272 0 0.39070916 0.00364322 5 
39 132 278 0 0.58358145 0.00317388 4 
40 138 278 0 1.06458780 0.00373163 5 
41 138 284 0 0.02201259 0.00271731 3 
42 151 284 0 0.12777228 0.00328936 4 
43 151 291 0 0.60037557 0.00331248 4 
44 151 297 0 0.07972289 0.00284724 3 
45 157 297 0 1.04991834 0.00344790 4 
46 166 297 0 1.30507781 0.00338459 4 
47 19 305 0 0.16044642 0.00356901 4 
48 157 305 0 0.58687353 0.00360395 4 
49 163 305 0 7.56485476 0.00484032 6 
50 166 305 0 0.37495035 0.00360062 4 
51 172 305 0 0.01886255 0.00360716 4 
52 190 312 2 672.35187477 0.00000256 1 
53 19 315 0 0.48455906 0.00309837 3 
54 25 315 0 0.02281386 0.00311062 3 
55 172 315 0 0.05679715 0.00372808 4 
56 172 328 0 0.12482725 0.00325695 3 
57 107 330 2 4574.52793757 0.00000259 1 
58 19 337 0 6.63404991 0.00465636 5 
59 25 337 0 0.96522419 0.00399250 4 
60 172 337 0 0.57611560 0.00333577 3 
61 208 339 2 1611.41385998 0.00000236 1 
62 19 342 0 0.00494520 0.00338533 3 
63 25 342 0 0.12855172 0.00406345 4 
64 172 342 0 0.01223902 0.00411306 4 
65 178 342 0 0.12442988 0.00417768 4 
66 25 367 0 0.11414782 0.00379091 3 
67 32 367 0 0.01267433 0.00595857 6 
68 178 367 0 0.00286807 0.00381430 3 
69 183 367 0 0.06698524 0.00376256 3 
70 25 374 0 0.56424690 0.00459312 4 
71 32 374 0 0.09892849 0.00533423 5 
72 178 374 0 0.03055075 0.00460673 4 
73 183 374 0 0.05309447 0.00460840 4 
74 32 382 0 4.14688582 0.00392386 3 
75 183 382 0 1.28811506 0.00465273 4 
76 32 387 0 2.72468715 0.00474393 4 
77 183 387 0 0.18197642 0.00471768 4 
78 141 391 2 837.53208183 0.00000292 1 
79 189 414 0 7.69047346 0.00587701 5 
80 44 437 0 0.00915802 0.00438150 3 
81 195 437 0 0.01161094 0.00437832 3 
82 256 439 2 3672.60416955 0.00000321 1 
83 44 454 0 0.65644164 0.00452864 3 
84 189 454 0 0.03962740 0.00543211 4 
85 44 467 0 0.12345281 0.00641838 5 
86 50 467 0 0.00895575 0.01023169 9 
87 195 467 0 0.00230988 0.00464685 3 
88 314 475 2 1399.00482132 0.00000408 1 
89 195 484 0 0.09447226 0.00574078 4 
90 44 494 0 0.02880924 0.00576681 4 
91 50 494 0 0.00628832 0.00481965 3 
92 195 494 0 0.00818961 0.00683254 5 
93 201 494 0 0.00469852 0.00682642 5 
94 273 495 2 1318.12210038 0.00000349 1 
95 50 500 0 0.14406209 0.00695480 5 
96 201 500 0 0.05353930 0.00490057 3 
97 203 500 0 0.03252445 0.00487729 3 
98 61 508 0 0.99413579 0.00711571 5 
99 203 508 0 0.26947301 0.01224283 10 
100 209 508 0 0.03711473 0.00605914 4 
101 61 522 0 1.37942234 0.00614814 4 
102 203 522 0 0.12859200 0.00511282 3 
103 209 522 0 0.00542469 0.00516809 3 
104 390 526 2 964.09738261 0.00000314 1 
105 61 528 0 0.47936102 0.00512360 3 
106 67 528 0 0.22419307 0.00626745 4 
107 81 528 0 0.23233822 0.00839399 6 
108 209 528 0 0.09444678 0.01062843 8 
109 220 528 0 0.13668760 0.00623056 4 
110 67 532 0 0.05459173 0.01180523 9 
111 81 532 0 0.11826401 0.00847973 6 
112 220 532 0 0.05648169 0.00634720 4 
113 67 556 0 0.98233216 0.00650795 4 
114 502 557 2 3048.24158827 0.00000304 1 
115 67 564 0 0.40168838 0.01234296 9 
116 81 564 0 0.02280941 0.00665875 4 
117 220 564 0 0.02684857 0.00666833 4 
118 368 566 2 2265.54861132 0.00000284 1 
119 67 567 0 2.67253169 0.00789045 5 
120 81 567 0 0.48923871 0.00901805 6 
121 220 567 0 0.21723258 0.00666786 4 
122 67 570 0 2.40706627 0.00911307 6 
123 81 570 0 0.15671702 0.00903587 6 
124 220 570 0 0.13379867 0.00673725 4 
125 81 575 0 2.76594993 0.00792890 5 
126 220 575 0 1.08612706 0.01034555 7 
127 81 588 0 0.01497138 0.00567875 3 
128 87 588 0 0.47937722 0.00817469 5 
129 226 588 0 0.43156268 0.00691269 4 
130 293 592 2 5062.83371094 0.00000333 1 
131 422 596 2 608.34450970 0.00000318 1 
132 87 597 0 2.27648751 0.00958399 6 
133 94 597 0 0.38888315 0.00700954 4 
134 226 597 0 0.55079633 0.00831837 5 
135 87 604 0 0.47149562 0.00712398 4 
136 94 604 0 0.01542269 0.00842332 5 
137 299 610 2 2064.93730717 0.00000272 1 
138 94 616 0 0.01350372 0.01239429 8 
139 31 631 2 691.91188237 0.00000359 1 
140 94 632 0 2.16969694 0.00881776 5 
141 94 637 0 4.44236402 0.01007575 6 
142 101 637 0 0.19098383 0.00752049 4 
143 316 640 2 3402.17797322 0.00000369 1 
144 101 642 0 0.11555601 0.00887644 5 
145 107 642 0 0.04025021 0.01407981 9 
146 101 645 0 6.69527511 0.00762157 4 
147 107 645 0 1.54205090 0.00751993 4 
148 101 657 0 0.73548669 0.01669530 10 
149 101 663 0 0.04971914 0.01672117 10 
150 107 663 0 0.01781179 0.00913603 5 
151 114 663 0 0.00275957 0.00915391 5 
152 101 665 0 1.55112265 0.01347251 8 
153 107 665 0 0.47667103 0.00779388 4 
154 114 665 0 0.13329170 0.00647483 3 
155 466 667 2 3067.28711011 0.00000324 1 
156 460 669 2 1692.63505297 0.00000265 1 
157 107 680 0 1.48615866 0.00936923 5 
158 107 683 0 0.94462224 0.00801826 4 
159 114 683 0 0.32178225 0.00955734 5 
160 317 701 2 830.54747713 0.00000300 1 
161 107 704 0 0.34268109 0.01262073 7 
162 114 704 0 0.07528002 0.01552239 9 
163 103 705 2 4092.73132991 0.00000316 1 
164 107 714 0 1.79639085 0.01133261 6 
165 114 714 0 0.02860377 0.01435759 8 
166 107 730 0 0.19656714 0.01011673 5 
167 114 730 0 0.03540690 0.00854253 4 
168 167 730 2 688.65233902 0.00000359 4 
169 560 751 2 1539.81068229 0.00000392 1 
170 121 754 0 0.33113739 0.00878096 4 
171 126 754 0 0.07673382 0.01752749 8 
172 750 754 2 5515.29667991 0.00000623 8 
173 121 759 0 2.33625684 0.01199948 6 
174 126 759 0 0.22329988 0.01205936 6 
175 690 760 2 1589.65621197 0.00000334 1 
176 126 762 0 7.08482229 0.01040609 5 
177 132 762 0 2.00372045 0.01535086 8 
178 464 764 2 2676.74555407 0.00000352 1 
179 132 778 0 0.06999780 0.00907064 4 
180 132 792 0 1.26802734 0.00933844 4 
181 132 800 0 3.35686460 0.00922385 4 
182 138 800 0 0.14494330 0.01261262 6 
183 138 806 0 0.25140739 0.00756687 3 
184 637 815 2 578.60612810 0.00000345 1 
185 138 821 0 0.40674396 0.01112249 5 
186 138 823 0 6.54725682 0.00941041 4 
187 151 828 0 3.12108818 0.00952689 4 
188 556 831 2 2277.04447130 0.00000429 1 
189 522 841 2 1615.97583327 0.00000345 1 
190 155 845 2 433.80636194 0.00000408 1 
191 151 847 0 0.08724621 0.01148714 5 
192 569 853 2 800.39204181 0.00000377 1 
193 151 855 0 0.11494457 0.01520418 7 
194 355 859 2 745.33281242 0.00000410 1 
195 830 860 2 2244.22758587 0.00000402 1 
196 96 862 2 1721.42163699 0.00000370 1 
197 688 893 2 895.43913757 0.00000362 1 
198 52 894 2 641.69512812 0.00000415 1 
199 151 895 0 2.80701437 0.01763988 8 
200 151 897 0 0.06118057 0.02140289 10 
201 138 903 0 0.08157811 0.01028169 4 
202 138 904 0 7.06392298 0.01404391 6 
203 282 904 2 2912.75329055 0.00000426 6 
204 132 907 0 0.71874717 0.01033423 4 
205 138 907 0 0.22077132 0.01224390 5 
206 403 907 2 1352.30856883 0.00000406 5 
207 132 911 0 0.23128175 0.01231103 5 
208 418 912 2 417.97754729 0.00000442 1 
209 867 914 2 1075.99596163 0.00000359 1 
210 296 915 2 921.32554037 0.00000351 1 
211 663 917 2 3304.42024615 0.00000328 1 
212 121 923 0 0.62636126 0.01434563 6 
213 126 923 0 0.07130653 0.01046005 4 
214 107 929 0 0.07225325 0.01254457 5 
215 114 929 0 0.00477553 0.01057726 4 
216 107 935 0 4.91438615 0.01653494 7 
217 114 935 0 1.40337639 0.01651207 7 
218 101 939 0 0.48567419 0.01068934 4 
219 107 939 0 0.21174614 0.01069703 4 
220 101 944 0 0.15377935 0.01272611 5 
221 94 947 0 0.23772432 0.01676955 7 
222 101 947 0 0.16826262 0.01479693 6 
223 76 948 2 2781.35562602 0.00000475 1 
224 164 952 2 1754.32095030 0.00000380 1 
225 87 953 0 0.13504795 0.01086746 4 
226 94 953 0 0.06505521 0.01490224 6 
227 226 953 0 0.08268323 0.02296101 10 
228 81 959 0 1.83528326 0.02437106 10 
229 87 959 0 1.29172246 0.01709014 7 
230 220 959 0 0.04883629 0.01101293 4 
231 226 959 0 0.12130941 0.01304302 5 
232 67 965 0 1.01368609 0.01317010 5 
233 81 965 0 0.31066014 0.01519659 6 
234 220 965 0 0.16483276 0.01928803 8 
235 61 976 0 0.16803746 0.01739666 7 
236 67 976 0 0.05676300 0.00913933 3 
237 209 976 0 0.00780965 0.01122682 4 
238 50 982 0 0.38354811 0.01131967 4 
239 61 982 0 0.27147698 0.01131825 4 
240 201 982 0 0.22200943 0.01133759 4 
241 203 982 0 0.10573284 0.02184681 9 
242 282 982 2 5247.27174721 0.00000439 9 
243 221 986 2 916.74022037 0.00000419 1 
244 44 988 0 0.09550719 0.01143137 4 
245 50 988 0 0.05924873 0.01142077 4 
246 195 988 0 0.04319526 0.01567870 6 
247 201 988 0 0.02685916 0.01354980 5 
248 694 992 2 2999.12362234 0.00000417 1 
249 44 994 0 0.51683435 0.01785283 7 
250 189 994 0 0.29989154 0.02567248 10 
251 195 994 0 0.21957432 0.01366179 5 
252 32 1003 0 0.23901034 0.01383742 5 
253 178 1003 0 0.03356851 0.02599176 10 
254 183 1003 0 0.01433170 0.01601499 6 
255 25 1008 0 1.23858172 0.01841712 7 
256 32 1008 0 0.53803958 0.01176255 4 
257 178 1008 0 0.34459610 0.01175349 4 
258 183 1008 0 0.22233868 0.01180378 4 
259 25 1010 0 0.60236133 0.01179314 4 
260 32 1010 0 0.30591807 0.01398137 5 
261 172 1010 0 0.10368354 0.01627547 6 
262 178 1010 0 0.19279072 0.02639935 10 
263 481 1011 2 3317.76031012 0.00000414 10 
264 577 1014 2 898.57633967 0.00000549 1 
265 64 1015 2 2179.03208706 0.00000464 1 
266 19 1016 0 0.44047719 0.02052769 8 
267 166 1016 0 0.20189646 0.01181699 4 
268 172 1016 0 0.07393216 0.01400210 5 
269 407 1018 2 1294.26433219 0.00000528 1 
270 558 1026 2 618.83451113 0.00000483 1 
271 151 1029 0 0.03533130 0.01444429 5 
272 157 1029 0 0.02672450 0.01205758 4 
273 163 1029 0 3.39703566 0.01199243 4 
274 166 1029 0 0.49353449 0.01199359 4 
275 665 1041 2 952.03019200 0.00000566 1 
276 317 1044 2 1007.69886487 0.00000510 1 
277 373 1046 2 922.00040177 0.00000491 1 
278 590 1081 2 447.31392371 0.00000607 1 
279 132 1084 0 4.21993706 0.01515911 5 
280 781 1085 2 834.56191263 0.00000577 1 
281 844 1085 2 425.18372654 0.00000181 1 
282 37 1093 2 511.30534261 0.00000600 1 
283 76 1116 2 408.28885644 0.00000542 1 
284 70 1119 2 410.54961953 0.00000608 1 
285 1112 1120 2 2559.26125489 0.00000547 1 
286 288 1130 2 333.13848035 0.00000619 1 
287 101 1138 0 0.63021658 0.01661195 5 
288 190 1143 2 1622.58111355 0.00000573 1 
289 107 1147 0 0.73708347 0.01340416 4 
290 114 1147 0 0.03971358 0.01081786 3 
291 107 1150 0 7.45683387 0.01332605 4 
292 114 1150 0 1.00561260 0.01087231 3 
293 962 1155 2 4196.23900851 0.00000553 1 
294 114 1158 0 0.16899687 0.01094864 3 
295 121 1158 0 0.69099743 0.01345510 4 
296 121 1164 0 0.45182924 0.01604871 5 
297 126 1164 0 0.04418665 0.01353936 4 
298 1064 1168 2 110.10614974 0.00000574 1 
299 114 1175 0 0.14266969 0.01368600 4 
300 121 1175 0 0.27324351 0.01369831 4 
301 923 1175 0 0.18719011 0.01372589 4 
302 929 1175 0 0.16073549 0.01369503 4 
303 1158 1175 0 0.00134797 0.01113730 3 
304 101 1188 0 0.32950319 0.01384471 4 
305 939 1188 0 0.55418798 0.01382894 4 
306 1138 1188 0 0.03006025 0.01136019 3 
307 1147 1188 0 0.04063922 0.01132910 3 
308 1150 1188 0 1.83245351 0.01385544 4 
309 890 1195 2 661.74432808 0.00000570 1 
310 899 1202 2 638.91116299 0.00000567 1 
311 412 1206 2 789.89183364 0.00000599 1 
312 1050 1210 0 0.00345523 0.01408778 4 
313 1061 1210 0 0.57363906 0.01672998 5 
314 1075 1210 0 0.23107861 0.01672292 5 
315 1084 1210 0 3.13555510 0.01674246 5 
316 1088 1210 0 0.59156319 0.01412700 4 
317 1093 1210 0 0.13111230 0.01939737 6 
318 1098 1210 0 0.04730346 0.01647295 4 
319 657 1215 2 1453.64818259 0.00000681 1 
320 655 1216 2 1387.38349459 0.00000495 1 
321 157 1217 0 0.32750279 0.01426165 4 
322 163 1217 0 0.19904338 0.01435358 4 
323 1029 1217 0 0.01250493 0.01165807 3 
324 1044 1217 0 3.98258990 0.01440574 4 
325 1050 1217 0 4.97161000 0.01702884 5 
326 740 1217 2 2892.61403336 0.00000145 5 
327 471 1223 2 1241.08431278 0.00000572 1 
328 642 1226 2 2043.14190533 0.00000573 1 
329 163 297 0 0.27920255 0.01535264 4 
330 189 400 0 2.09679271 0.01459152 4 
331 1056 1217 0 9.66143264 0.01721784 5 
