1 11 107 0.00074565 4 
2 144 164 0.00269218 10 
3 19 166 0.17054299 10 
4 19 172 0.00312860 10 
5 25 172 0.00716312 10 
6 25 178 0.00325983 10 
7 32 178 0.00325907 10 
8 32 183 0.00334661 10 
9 44 189 0.00347706 10 
10 44 195 0.00357889 10 
11 50 195 0.00358786 10 
12 50 201 0.00371263 10 
13 50 203 0.00375596 10 
14 61 203 0.00376867 10 
15 61 209 0.00388402 10 
16 67 209 0.00387842 10 
17 67 220 0.00407637 10 
18 81 220 0.00409035 10 
19 81 226 0.00421277 10 
20 87 226 0.00420799 10 
21 87 231 0.00430236 10 
22 94 231 0.00430013 10 
23 226 231 0.00432869 10 
24 94 241 0.00450839 10 
25 101 241 0.00452852 10 
26 101 247 0.00461812 10 
27 107 247 0.00462593 10 
28 107 254 0.00475718 10 
29 114 254 0.00487200 10 
30 107 256 0.00490941 10 
31 114 256 0.00495945 10 
32 37 256 0.00497025 10 
33 107 258 0.00501309 10 
34 114 258 0.00501290 10 
35 121 266 0.00519569 10 
36 126 266 0.00522491 10 
37 126 272 0.00533932 10 
38 132 272 0.00535104 10 
39 132 278 0.00545487 10 
40 138 278 0.00546397 10 
41 138 284 0.00556948 10 
42 151 284 0.00560335 10 
43 151 291 0.00571979 10 
44 151 297 0.00583107 10 
45 157 297 0.00585149 10 
46 163 297 0.00585128 10 
47 166 297 0.00586194 10 
48 19 305 0.00611685 10 
49 157 305 0.00612560 10 
50 163 305 0.00615530 10 
51 166 305 0.00614335 10 
52 172 305 0.00614987 10 
53 190 312 0.00631532 10 
54 19 315 0.00640947 10 
55 25 315 0.00644090 10 
56 172 315 0.00644012 10 
57 172 328 0.00670355 10 
58 107 330 0.00678521 10 
59 19 337 0.00692231 10 
60 25 337 0.00694008 10 
61 172 337 0.00693457 10 
62 208 339 0.00706492 10 
63 19 342 0.00716576 10 
64 25 342 0.00716029 10 
65 172 342 0.00721515 10 
66 178 342 0.00722214 10 
67 25 367 0.00768796 10 
68 32 367 0.00770906 10 
69 178 367 0.00770320 10 
70 183 367 0.00772025 10 
71 25 374 0.00786888 10 
72 32 374 0.00786852 10 
73 178 374 0.00789341 10 
74 183 374 0.00788141 10 
75 32 382 0.00803490 10 
76 183 382 0.00804449 10 
77 32 387 0.00814651 10 
78 183 387 0.00814643 10 
79 141 391 0.00833649 10 
80 189 400 0.00859055 10 
81 189 414 0.00885722 10 
82 44 437 0.00927185 10 
83 195 437 0.00924460 10 
84 256 439 0.00933598 10 
85 44 454 0.00960642 10 
86 189 454 0.00962468 10 
87 44 467 0.00988940 10 
88 50 467 0.00990963 10 
89 195 467 0.00992277 10 
90 314 475 0.01012759 10 
91 195 484 0.01028529 10 
92 44 494 0.01051205 10 
93 50 494 0.01050216 10 
94 195 494 0.01051093 10 
95 201 494 0.01053746 10 
96 273 495 0.01069469 10 
97 50 500 0.01083920 10 
98 201 500 0.01084911 10 
99 203 500 0.01090752 10 
100 61 508 0.01111339 10 
101 203 508 0.01109843 10 
102 209 508 0.01110768 10 
103 61 522 0.01135147 10 
104 203 522 0.01136640 10 
105 209 522 0.01137337 10 
106 390 526 0.01157171 10 
107 61 528 0.01159332 10 
108 67 528 0.01169616 10 
109 81 528 0.01170341 10 
110 209 528 0.01171498 10 
111 220 528 0.01170641 10 
112 67 532 0.01178691 10 
113 81 532 0.01179923 10 
114 220 532 0.01183299 10 
115 67 556 0.01228656 10 
116 502 557 0.01246085 10 
117 67 564 0.01258497 10 
118 81 564 0.01260586 10 
119 220 564 0.01255834 10 
120 368 566 0.01279340 10 
121 67 567 0.01339855 10 
122 81 567 0.01298569 10 
123 220 567 0.01300795 10 
124 67 570 0.01307114 10 
125 81 570 0.01308154 10 
126 220 570 0.01308841 10 
127 81 575 0.01317670 10 
128 220 575 0.01319523 10 
129 81 588 0.01344771 10 
130 87 588 0.01348265 10 
131 226 588 0.01345392 10 
132 293 592 0.01371949 10 
133 422 596 0.01401790 10 
134 87 597 0.01398686 10 
135 94 597 0.01401327 10 
136 226 597 0.01400646 10 
137 87 604 0.01414142 10 
138 94 604 0.01416522 10 
139 299 610 0.01446495 10 
140 94 616 0.01461332 10 
141 31 631 0.01505577 10 
142 94 632 0.01506284 10 
143 94 637 0.01514068 10 
144 101 637 0.01518160 10 
145 316 640 0.01529036 10 
146 101 642 0.01562682 10 
147 107 642 0.01556763 10 
148 101 645 0.01562211 10 
149 107 645 0.01563735 10 
150 101 657 0.01584806 10 
151 101 663 0.01598308 10 
152 107 663 0.01598008 10 
153 114 663 0.01609344 10 
154 101 665 0.01613103 10 
155 107 665 0.01613812 10 
156 114 665 0.01613910 10 
157 466 667 0.01639953 10 
158 460 669 0.01644682 10 
159 107 680 0.01668120 10 
160 107 683 0.01675545 10 
161 114 683 0.01676995 10 
162 317 701 0.01705989 10 
163 107 704 0.01712999 10 
164 114 704 0.01714171 10 
165 103 705 0.01719500 10 
166 107 714 0.01738425 10 
167 114 714 0.01739927 10 
168 107 730 0.01769877 10 
169 114 730 0.01767326 10 
170 167 730 0.01800313 10 
171 560 751 0.01840936 10 
172 121 754 0.01889504 10 
173 126 754 0.01856236 10 
174 750 754 0.01891371 10 
175 121 759 0.01903655 10 
176 126 759 0.01904040 10 
177 690 760 0.01915948 10 
178 126 762 0.01923325 10 
179 132 762 0.01917700 10 
180 464 764 0.01969303 10 
181 132 778 0.01984216 10 
182 132 792 0.02006563 10 
183 132 800 0.02021239 10 
184 138 800 0.02016775 10 
185 138 806 0.02027871 10 
186 637 815 0.02082239 10 
187 138 821 0.02094310 10 
188 138 823 0.02101129 10 
189 151 828 0.02112589 10 
190 556 831 0.02163593 10 
191 522 841 0.02197749 10 
192 155 845 0.02213360 10 
193 151 847 0.02217078 10 
194 569 853 0.02247944 10 
195 151 855 0.02253444 10 
196 355 859 0.02315335 10 
197 830 860 0.02296535 10 
198 96 862 0.02315882 10 
199 688 893 0.02397270 10 
200 52 894 0.02435880 10 
201 151 895 0.02434864 10 
202 151 897 0.02436276 10 
203 138 903 0.02462774 10 
204 138 904 0.02465202 10 
205 282 904 0.02457464 10 
206 132 907 0.02516388 10 
207 138 907 0.02466293 10 
208 403 907 0.02494731 10 
209 132 911 0.02505514 10 
210 418 912 0.02518706 10 
211 867 914 0.02545286 10 
212 296 915 0.02535431 10 
213 663 917 0.02560236 10 
214 121 923 0.02582640 10 
215 126 923 0.02610524 10 
216 107 929 0.02629511 10 
217 114 929 0.02630245 10 
218 107 935 0.02637052 10 
219 114 935 0.02646445 10 
220 101 939 0.02649083 10 
221 107 939 0.02649495 10 
222 101 944 0.02660738 10 
223 94 947 0.02663756 10 
224 101 947 0.02665258 10 
225 76 948 0.02731952 10 
226 164 952 0.02719998 10 
227 87 953 0.02723756 10 
228 94 953 0.02732583 10 
229 226 953 0.02719888 10 
230 81 959 0.02735907 10 
231 87 959 0.02736841 10 
232 220 959 0.02744751 10 
233 226 959 0.02747634 10 
234 67 965 0.02763713 10 
235 81 965 0.02765609 10 
236 220 965 0.02772482 10 
237 61 976 0.02844445 10 
238 67 976 0.02846905 10 
239 209 976 0.02795145 10 
240 50 982 0.02912038 10 
241 61 982 0.02904750 10 
242 201 982 0.02862499 10 
243 203 982 0.02862656 10 
244 282 982 0.02923515 10 
245 221 986 0.02936264 10 
246 44 988 0.02874824 10 
247 50 988 0.02977488 10 
248 195 988 0.02975993 10 
249 201 988 0.02974714 10 
250 694 992 0.02958967 10 
251 44 994 0.02956123 10 
252 189 994 0.02963073 10 
253 195 994 0.02976092 10 
254 32 1003 0.02981992 10 
255 178 1003 0.02979154 10 
256 183 1003 0.03009138 10 
257 25 1008 0.03013768 10 
258 32 1008 0.03016097 10 
259 178 1008 0.03020388 10 
260 183 1008 0.03018798 10 
261 25 1010 0.03022290 10 
262 32 1010 0.03023111 10 
263 172 1010 0.03022819 10 
264 178 1010 0.03025500 10 
265 481 1011 0.03052198 10 
266 577 1014 0.03042122 10 
267 64 1015 0.03045583 10 
268 19 1016 0.03036732 10 
269 166 1016 0.03079627 10 
270 172 1016 0.03077494 10 
271 407 1018 0.03115776 10 
272 558 1026 0.03100295 10 
273 151 1029 0.03108565 10 
274 157 1029 0.03171054 10 
275 163 1029 0.03170167 10 
276 166 1029 0.03153720 10 
277 665 1041 0.03175345 10 
278 317 1044 0.03192662 10 
279 373 1046 0.03150135 10 
280 590 1081 0.03231113 10 
281 132 1084 0.03287813 10 
282 781 1085 0.03293772 10 
283 844 1085 0.03478845 10 
284 37 1093 0.03421551 10 
285 76 1116 0.03441967 10 
286 70 1119 0.03455823 10 
287 1112 1120 0.03458181 10 
288 288 1130 0.03460922 10 
289 101 1138 0.03461798 10 
290 190 1143 0.03491367 10 
291 107 1147 0.03528479 10 
292 114 1147 0.03528109 10 
293 107 1150 0.03537618 10 
294 114 1150 0.03531340 10 
295 962 1155 0.03551773 10 
296 114 1158 0.03557843 10 
297 121 1158 0.03550118 10 
298 121 1164 0.03569258 10 
299 126 1164 0.03568690 10 
300 1064 1168 0.03613315 10 
301 114 1175 0.03624107 10 
302 121 1175 0.03604216 10 
303 923 1175 0.03631249 10 
304 929 1175 0.03637654 10 
305 1158 1175 0.03640686 10 
306 101 1188 0.03657701 10 
307 939 1188 0.03676575 10 
308 1138 1188 0.03689725 10 
309 1147 1188 0.03696152 10 
310 1150 1188 0.03693741 10 
311 890 1195 0.03740283 10 
312 899 1202 0.03750524 10 
313 412 1206 0.03779298 10 
314 1050 1210 0.03811326 10 
315 1061 1210 0.03749917 10 
316 1075 1210 0.03816057 10 
317 1084 1210 0.03817035 10 
318 1088 1210 0.03847867 10 
319 1093 1210 0.03844639 10 
320 1098 1210 0.03849297 10 
321 657 1215 0.03858852 10 
322 655 1216 0.03860738 10 
323 157 1217 0.03884777 10 
324 163 1217 0.03847876 10 
325 1029 1217 0.03846767 10 
326 1044 1217 0.03857765 10 
327 1050 1217 0.03861833 10 
328 1056 1217 0.03869732 10 
329 740 1217 0.03867101 10 
330 471 1223 0.03871383 10 
331 642 1226 0.03884151 10 
