1 42 125 0.00103093 5 
2 114 129 0.00082548 4 
3 73 138 0.00112869 5 
4 117 147 0.00121231 5 
5 110 157 0.00158333 6 
6 19 166 0.00295290 10 
7 19 172 0.00312459 10 
8 25 172 0.00314771 10 
9 25 178 0.00368483 10 
10 32 178 0.00328514 10 
11 32 183 0.00335672 10 
12 177 187 0.00349451 10 
13 44 189 0.00357264 10 
14 154 191 0.00361442 10 
15 175 193 0.00367911 10 
16 44 195 0.00373464 10 
17 50 195 0.00375100 10 
18 50 197 0.00380376 10 
19 50 201 0.00387476 10 
20 50 203 0.00392765 10 
21 61 203 0.00393929 10 
22 61 209 0.00406182 10 
23 67 209 0.00406219 10 
24 67 220 0.00427334 10 
25 81 220 0.00432613 10 
26 112 220 0.00437458 10 
27 81 226 0.00449443 10 
28 87 226 0.00452015 10 
29 4 227 0.00467481 10 
30 144 228 0.00469934 10 
31 87 231 0.00482185 10 
32 94 231 0.00481492 10 
33 226 231 0.00482077 10 
34 191 234 0.00494243 10 
35 94 241 0.00506914 10 
36 101 241 0.00514896 10 
37 103 242 0.00512814 10 
38 115 246 0.00528946 10 
39 101 247 0.00530358 10 
40 107 247 0.00533148 10 
41 120 247 0.00540467 10 
42 107 254 0.00551696 10 
43 114 254 0.00554012 10 
44 107 256 0.00561403 10 
45 114 256 0.00560532 10 
46 107 258 0.00564784 10 
47 114 258 0.00565756 10 
48 121 266 0.00583488 10 
49 126 266 0.00595451 10 
50 199 267 0.00601946 10 
51 81 269 0.00606856 10 
52 126 272 0.00622451 10 
53 132 272 0.00623051 10 
54 132 278 0.00634942 10 
55 138 278 0.00637317 10 
56 138 284 0.00649206 10 
57 151 284 0.00655518 10 
58 151 291 0.00668361 10 
59 158 292 0.00675854 10 
60 151 297 0.00685776 10 
61 157 297 0.00687488 10 
62 163 297 0.00694395 10 
63 166 297 0.00709739 10 
64 19 305 0.00716405 10 
65 157 305 0.00714095 10 
66 163 305 0.00714552 10 
67 166 305 0.00717576 10 
68 172 305 0.00716960 10 
69 211 309 0.00732340 10 
70 294 310 0.00735772 10 
71 307 311 0.00738213 10 
72 19 315 0.00750338 10 
73 25 315 0.00756385 10 
74 172 315 0.00762103 10 
75 108 318 0.00771861 10 
76 13 323 0.00788837 10 
77 175 325 0.00783198 10 
78 172 328 0.00801683 10 
79 19 337 0.00822357 10 
80 25 337 0.00821844 10 
81 172 337 0.00823404 10 
82 19 342 0.00835020 10 
83 25 342 0.00836759 10 
84 172 342 0.00837855 10 
85 178 342 0.00843844 10 
86 1 362 0.00877867 10 
87 25 367 0.00891221 10 
88 32 367 0.00899772 10 
89 178 367 0.00897398 10 
90 183 367 0.00899314 10 
91 25 374 0.00913172 10 
92 32 374 0.00913186 10 
93 178 374 0.00914807 10 
94 183 374 0.00916732 10 
95 32 382 0.00930613 10 
96 183 382 0.00932163 10 
97 32 387 0.00943006 10 
98 183 387 0.00944346 10 
99 232 387 0.00973570 10 
100 198 397 0.00988512 10 
101 40 399 0.01005480 10 
102 272 399 0.01016172 10 
103 189 400 0.01019347 10 
104 283 406 0.01034185 10 
105 119 413 0.01047950 10 
106 189 414 0.01051449 10 
107 321 416 0.01074282 10 
108 202 436 0.01120058 10 
109 44 437 0.01126760 10 
110 195 437 0.01127869 10 
111 138 438 0.01135391 10 
112 30 445 0.01156544 10 
113 441 448 0.01162303 10 
114 44 454 0.01190321 10 
115 189 454 0.01193402 10 
116 215 455 0.01199216 10 
117 316 456 0.01215064 10 
118 44 467 0.01236236 10 
119 50 467 0.01237713 10 
120 195 467 0.01239371 10 
121 421 475 0.01263845 10 
122 461 476 0.01257382 10 
123 195 484 0.01279814 10 
124 180 492 0.01327988 10 
125 337 493 0.01345721 10 
126 44 494 0.01349373 10 
127 50 494 0.01340496 10 
128 195 494 0.01352642 10 
129 201 494 0.01356404 10 
130 483 497 0.01375401 10 
131 30 499 0.01382453 10 
132 50 500 0.01387284 10 
133 201 500 0.01401328 10 
134 203 500 0.01400500 10 
135 264 500 0.01417568 10 
136 269 505 0.01445187 10 
137 61 508 0.01459806 10 
138 203 508 0.01461066 10 
139 209 508 0.01458953 10 
140 245 509 0.01467122 10 
141 61 522 0.01515677 10 
142 203 522 0.01496983 10 
143 209 522 0.01496875 10 
144 61 528 0.01510144 10 
145 67 528 0.01509471 10 
146 81 528 0.01514511 10 
147 209 528 0.01516005 10 
148 220 528 0.01516747 10 
149 67 532 0.01525578 10 
150 81 532 0.01525772 10 
151 220 532 0.01527068 10 
152 157 536 0.01552063 10 
153 360 536 0.01597173 10 
154 78 541 0.01576854 10 
155 43 549 0.01623510 10 
156 301 552 0.01642258 10 
157 67 556 0.01711516 10 
158 533 558 0.01670030 10 
159 171 561 0.01721721 10 
160 67 564 0.01727416 10 
161 81 564 0.01728580 10 
162 220 564 0.01729451 10 
163 67 567 0.01738883 10 
164 81 567 0.01717094 10 
165 220 567 0.01741272 10 
166 67 570 0.01746544 10 
167 81 570 0.01727295 10 
168 220 570 0.01750614 10 
169 81 575 0.01758949 10 
170 220 575 0.01736769 10 
171 453 575 0.01795788 10 
172 81 576 0.01797836 10 
173 513 580 0.01783793 10 
174 560 580 0.01789901 10 
175 81 588 0.01805672 10 
176 87 588 0.01862631 10 
177 226 588 0.01862771 10 
178 87 597 0.01880270 10 
179 94 597 0.01891367 10 
180 226 597 0.01896582 10 
181 87 604 0.01868567 10 
182 94 604 0.01867541 10 
183 197 606 0.01894266 10 
184 499 609 0.01949088 10 
185 221 610 0.01947589 10 
186 471 615 0.02049758 10 
187 94 616 0.02053016 10 
188 542 618 0.02015273 10 
189 94 632 0.02042567 10 
190 94 637 0.02052049 10 
191 101 637 0.02069476 10 
192 529 640 0.02156256 10 
193 101 642 0.02182284 10 
194 107 642 0.02153554 10 
195 192 642 0.02182681 10 
196 462 642 0.02173218 10 
197 101 645 0.02182045 10 
198 107 645 0.02182736 10 
199 236 651 0.02202570 10 
200 101 657 0.02212579 10 
201 245 657 0.02243985 10 
202 101 663 0.02254576 10 
203 107 663 0.02255334 10 
204 114 663 0.02234746 10 
205 101 665 0.02238189 10 
206 107 665 0.02241511 10 
207 114 665 0.02241288 10 
208 336 671 0.02375515 10 
209 294 676 0.02310967 10 
210 131 678 0.02345126 10 
211 107 680 0.02372580 10 
212 107 683 0.02377804 10 
213 114 683 0.02370659 10 
214 169 683 0.02400080 10 
215 384 684 0.02414828 10 
216 84 684 0.02456921 10 
217 514 686 0.02505312 10 
218 324 688 0.02494611 10 
219 467 692 0.02506978 10 
220 651 693 0.02524848 10 
221 107 704 0.02611414 10 
222 114 704 0.02546777 10 
223 107 714 0.02566325 10 
224 114 714 0.02564879 10 
225 197 723 0.02597475 10 
226 107 730 0.02611525 10 
227 114 730 0.02609605 10 
228 628 734 0.02699899 10 
229 15 735 0.02761086 10 
230 617 735 0.02721098 10 
231 309 735 0.02719274 10 
232 78 739 0.02723756 10 
233 121 754 0.02743574 10 
234 126 754 0.02737606 10 
235 216 756 0.02806298 10 
236 166 758 0.02813672 10 
237 121 759 0.02818845 10 
238 126 759 0.02816319 10 
239 126 762 0.02819940 10 
240 132 762 0.02847799 10 
241 386 774 0.02881110 10 
242 470 775 0.02885488 10 
243 370 776 0.02900292 10 
244 132 778 0.02915071 10 
245 54 781 0.02981372 10 
246 679 785 0.02962116 10 
247 254 786 0.02986441 10 
248 177 790 0.03017250 10 
249 132 792 0.03033391 10 
250 266 793 0.03026742 10 
251 592 795 0.03067655 10 
252 343 797 0.03094669 10 
253 301 798 0.03160361 10 
254 132 800 0.03118497 10 
255 138 800 0.03105087 10 
256 629 800 0.03156271 10 
257 138 806 0.03166174 10 
258 716 808 0.03174895 10 
259 224 810 0.03254349 10 
260 663 812 0.03220594 10 
261 138 821 0.03232583 10 
262 138 823 0.03240917 10 
263 183 824 0.03250540 10 
264 609 827 0.03260116 10 
265 151 828 0.03265163 10 
266 736 828 0.03392148 10 
267 715 835 0.03287336 10 
268 757 835 0.03365684 10 
269 396 835 0.03408165 10 
270 10 837 0.03021039 9 
271 78 843 0.03386041 10 
272 209 845 0.03379927 10 
273 151 847 0.03361628 10 
274 766 848 0.07524061 10 
275 151 855 0.03450582 10 
276 207 861 0.03450425 10 
277 626 862 0.03433690 10 
278 516 865 0.03476287 10 
279 117 869 0.03464512 10 
280 18 889 0.03513223 10 
281 151 895 0.03523033 10 
282 151 897 0.03571379 10 
283 820 897 0.03562135 10 
284 138 903 0.03522498 10 
285 659 903 0.03579770 10 
286 138 904 0.03581740 10 
287 50 905 0.03583604 10 
288 132 907 0.03561677 10 
289 138 907 0.03613269 10 
290 670 910 0.03569892 10 
291 132 911 0.03572897 10 
292 352 915 0.03608074 10 
293 595 916 0.03637617 10 
294 14 917 0.04060541 10 
295 598 918 0.03686061 10 
296 121 923 0.03718140 10 
297 126 923 0.03735722 10 
298 768 923 0.02263103 6 
299 716 923 0.03716944 10 
300 106 924 0.03727618 10 
301 908 927 0.03434109 9 
302 73 927 0.03888695 10 
303 107 929 0.03890422 10 
304 114 929 0.03940508 10 
305 107 935 0.03900863 10 
306 114 935 0.03951134 10 
307 922 935 0.03921737 10 
308 639 937 0.03937593 10 
309 910 937 0.03922423 10 
310 547 938 0.03842357 10 
311 101 939 0.03851204 10 
312 107 939 0.02726745 7 
313 101 944 0.03459560 9 
314 12 945 0.03878099 10 
315 94 947 0.03866466 10 
316 101 947 0.03508687 9 
317 509 949 0.03860891 10 
318 114 949 0.03893770 10 
319 686 950 0.03466071 9 
320 87 953 0.03853007 10 
321 94 953 0.03905644 10 
322 226 953 0.03905881 10 
323 263 953 0.03998114 10 
324 418 953 0.04045858 10 
325 81 959 0.04002987 10 
326 87 959 0.04058806 10 
327 220 959 0.04058631 10 
328 226 959 0.04060842 10 
329 593 959 0.04088476 10 
330 121 959 0.04102327 10 
331 507 961 0.04018673 10 
332 3 964 0.04106783 10 
333 67 965 0.04122341 10 
334 81 965 0.04124905 10 
335 220 965 0.04130181 10 
336 126 965 0.04133202 10 
337 824 967 0.04136653 10 
338 672 969 0.04260051 10 
339 177 971 0.04203223 10 
340 61 976 0.04216104 10 
341 67 976 0.04243278 10 
342 209 976 0.03807941 9 
343 622 981 0.04293945 10 
344 50 982 0.04243798 10 
345 61 982 0.04300789 10 
346 201 982 0.04310479 10 
347 203 982 0.03867977 9 
348 96 984 0.04272909 10 
349 804 986 0.04263374 10 
350 927 987 0.04321883 10 
351 44 988 0.04303561 10 
352 50 988 0.03034618 7 
353 195 988 0.03896462 9 
354 201 988 0.02147892 5 
355 769 988 0.04336967 10 
356 44 994 0.04341642 10 
357 189 994 0.04398420 10 
358 195 994 0.04400545 10 
359 794 1000 0.04465087 10 
360 41 1002 0.03906087 9 
361 32 1003 0.04365864 10 
362 178 1003 0.04563912 10 
363 183 1003 0.04575790 10 
364 459 1003 0.04489656 10 
365 25 1008 0.04500191 10 
366 32 1008 0.04556657 10 
367 178 1008 0.04557887 10 
368 183 1008 0.04563923 10 
369 156 1009 0.03558342 8 
370 25 1010 0.04475850 10 
371 32 1010 0.04535250 10 
372 172 1010 0.04535643 10 
373 178 1010 0.04546560 10 
374 955 1010 0.04560585 10 
375 266 1011 0.04592114 10 
376 369 1012 0.03190223 7 
377 167 1013 0.04629761 10 
378 19 1016 0.04643940 10 
379 166 1016 0.04707966 10 
380 172 1016 0.04687510 10 
381 972 1020 0.04623854 10 
382 567 1022 0.04786723 10 
383 391 1025 0.04707860 10 
384 315 1025 0.02891958 6 
385 137 1027 0.04871152 10 
386 886 1028 0.04943404 10 
387 459 1028 0.05031898 10 
388 151 1029 0.04972641 10 
389 157 1029 0.04979053 10 
390 163 1029 0.04939915 10 
391 166 1029 0.04998623 10 
392 964 1029 0.04990860 10 
393 334 1032 0.04881660 10 
394 387 1044 0.03918712 8 
395 448 1044 0.05001778 10 
396 599 1049 0.04999633 10 
397 497 1051 0.05076278 10 
398 956 1051 0.05102391 10 
399 830 1053 0.05148650 10 
400 726 1058 0.05188081 10 
401 242 1062 0.05110429 10 
402 269 1064 0.05119584 10 
403 570 1067 0.05210072 10 
404 835 1070 0.05175956 10 
405 963 1076 0.05302747 10 
406 482 1077 0.05294928 10 
407 849 1077 0.05380829 10 
408 231 1078 0.05417931 10 
409 21 1083 0.05405567 10 
410 330 1083 0.05517505 10 
411 132 1084 0.05523383 10 
412 645 1088 0.05535848 10 
413 599 1091 0.05472963 10 
414 239 1092 0.05747466 10 
415 150 1094 0.05565667 10 
416 1003 1095 0.05706690 10 
417 266 1096 0.05694175 10 
418 18 1099 0.05629391 10 
419 458 1100 0.05698285 10 
420 471 1104 0.05709479 10 
421 513 1105 0.05697566 10 
422 857 1106 0.05740967 10 
423 21 1106 0.05843607 10 
424 786 1107 0.05187633 9 
425 893 1111 0.05821860 10 
426 879 1113 0.05818395 10 
427 591 1117 0.05902350 10 
428 738 1120 0.05893624 10 
429 752 1122 0.05907499 10 
430 964 1124 0.06079176 10 
431 918 1124 0.06136698 10 
432 1048 1126 0.06140254 10 
433 914 1127 0.06212068 10 
434 800 1127 0.06208534 10 
435 589 1129 0.06277436 10 
436 66 1131 0.06251454 10 
437 953 1131 0.06079740 10 
438 539 1135 0.06407836 10 
439 1097 1135 0.05875435 9 
440 781 1136 0.06312967 10 
441 518 1137 0.06444151 10 
442 101 1138 0.06362729 10 
443 446 1139 0.06458315 10 
444 906 1144 0.06459985 10 
445 107 1147 0.06496157 10 
446 114 1147 0.06543620 10 
447 867 1148 0.06728493 10 
448 107 1150 0.06730219 10 
449 114 1150 0.06732061 10 
450 352 1152 0.06748651 10 
451 998 1157 0.06728682 10 
452 114 1158 0.06724138 10 
453 121 1158 0.06728967 10 
454 959 1158 0.06780088 10 
455 1130 1159 0.06767550 10 
456 350 1163 0.06928916 10 
457 121 1164 0.06721418 10 
458 126 1164 0.06801349 10 
459 676 1164 0.06767422 10 
460 569 1169 0.06774458 10 
461 697 1172 0.06946031 10 
462 114 1175 0.06935994 10 
463 121 1175 0.06947345 10 
464 923 1175 0.06943997 10 
465 929 1175 0.07041134 10 
466 1158 1175 0.06989873 10 
467 527 1178 0.07040168 10 
468 925 1179 0.07175186 10 
469 1015 1179 0.06991450 10 
470 465 1182 0.07002468 10 
471 869 1183 0.07023269 10 
472 101 1188 0.07163157 10 
473 939 1188 0.07137366 10 
474 1138 1188 0.07090060 10 
475 1147 1188 0.07184375 10 
476 1150 1188 0.07187551 10 
477 1088 1189 0.07191186 10 
478 942 1189 0.07275285 10 
479 915 1191 0.07336028 10 
480 177 1191 0.07339067 10 
481 926 1196 0.07452618 10 
482 1052 1197 0.07383618 10 
483 751 1199 0.07244925 10 
484 753 1200 0.07421453 10 
485 412 1201 0.07410524 10 
486 1038 1201 0.07540766 10 
487 664 1207 0.07555450 10 
488 1050 1210 0.07569638 10 
489 1061 1210 0.07615470 10 
490 1075 1210 0.07757428 10 
491 1084 1210 0.07825680 10 
492 1088 1210 0.07834218 10 
493 1093 1210 0.07660021 10 
494 1098 1210 0.07668016 10 
495 1008 1212 0.07673019 10 
496 597 1216 0.07711168 10 
497 157 1217 0.07709018 10 
498 163 1217 0.07934686 10 
499 1029 1217 0.07753515 10 
500 1044 1217 0.08008934 10 
501 1050 1217 0.07808412 10 
502 1056 1217 0.07942685 10 
503 1094 1219 0.07930059 10 
504 134 1223 0.07852991 10 
505 1117 1223 0.07907025 10 
506 803 1224 0.08008589 10 
