1 19 166 0.00295312 10 
2 19 172 0.00313071 10 
3 25 172 0.00318779 10 
4 25 178 0.00329932 10 
5 32 178 0.00330811 10 
6 32 183 0.00339771 10 
7 44 189 0.00351604 10 
8 44 195 0.00362957 10 
9 50 195 0.00362705 10 
10 50 201 0.00372466 10 
11 50 203 0.00378221 10 
12 61 203 0.00376923 10 
13 61 209 0.00388320 10 
14 67 209 0.00388746 10 
15 67 220 0.00408777 10 
16 81 220 0.00408087 10 
17 81 226 0.00419560 10 
18 87 226 0.00418746 10 
19 87 231 0.00428923 10 
20 94 231 0.00428176 10 
21 226 231 0.00427375 10 
22 94 241 0.00448403 10 
23 101 241 0.00448225 10 
24 101 247 0.00458558 10 
25 107 247 0.00460109 10 
26 107 254 0.00472476 10 
27 114 254 0.00472980 10 
28 107 256 0.00477460 10 
29 114 256 0.00477993 10 
30 107 258 0.00482403 10 
31 114 258 0.00481994 10 
32 121 266 0.00499156 10 
33 126 266 0.00501778 10 
34 126 272 0.00514012 10 
35 132 272 0.00515247 10 
36 132 278 0.00527273 10 
37 138 278 0.00526073 10 
38 138 284 0.00540060 10 
39 151 284 0.00541061 10 
40 151 291 0.00554027 10 
41 151 297 0.00566234 10 
42 157 297 0.00565659 10 
43 163 297 0.00566596 10 
44 166 297 0.00567299 10 
45 19 305 0.00595472 10 
46 157 305 0.00595212 10 
47 163 305 0.00600757 10 
48 166 305 0.00598493 10 
49 172 305 0.00603587 10 
50 19 315 0.00539598 9 
51 25 315 0.00606822 10 
52 172 315 0.00622782 10 
53 172 328 0.00628824 10 
54 19 337 0.00516428 8 
55 25 337 0.00653019 10 
56 172 337 0.00669159 10 
57 289 339 0.00659171 10 
58 19 342 0.00598870 9 
59 25 342 0.00671544 10 
60 172 342 0.00346185 5 
61 178 342 0.00675146 10 
62 25 367 0.00426365 6 
63 32 367 0.00426552 6 
64 178 367 0.00427767 6 
65 183 367 0.00502318 7 
66 25 374 0.00735348 10 
67 32 374 0.00740131 10 
68 178 374 0.00531506 7 
69 183 374 0.00664088 9 
70 32 382 0.00601189 8 
71 183 382 0.00759116 10 
72 32 387 0.00765404 10 
73 183 387 0.00456280 6 
74 189 400 0.00795922 10 
75 189 414 0.00822354 10 
76 44 437 0.00867513 10 
77 195 437 0.00888119 10 
78 44 454 0.00898610 10 
79 189 454 0.00921218 10 
80 44 467 0.00924478 10 
81 50 467 0.00949322 10 
82 195 467 0.00950807 10 
83 195 484 0.00960390 10 
84 44 494 0.00678642 7 
85 50 494 0.00982282 10 
86 195 494 0.01006654 10 
87 201 494 0.01010862 10 
88 50 500 0.00999628 10 
89 201 500 0.01023769 10 
90 203 500 0.01024872 10 
91 61 508 0.01018123 10 
92 203 508 0.01044911 10 
93 209 508 0.01047545 10 
94 402 514 0.01027945 10 
95 61 522 0.01047154 10 
96 203 522 0.01072281 10 
97 209 522 0.00959906 9 
98 355 524 0.01049661 10 
99 61 528 0.00844472 8 
100 67 528 0.01072157 10 
101 81 528 0.01099468 10 
102 209 528 0.01091361 10 
103 220 528 0.01073596 10 
104 67 532 0.00639349 6 
105 81 532 0.01085410 10 
106 220 532 0.01105737 10 
107 72 532 0.00422564 4 
108 67 556 0.01132610 10 
109 67 564 0.01147463 10 
110 81 564 0.00937248 8 
111 220 564 0.01141455 10 
112 67 567 0.01170384 10 
113 81 567 0.01203593 10 
114 220 567 0.01205128 10 
115 67 570 0.01168300 10 
116 81 570 0.01194923 10 
117 220 570 0.01194869 10 
118 81 575 0.01206205 10 
119 220 575 0.01221620 10 
120 81 588 0.01206062 10 
121 87 588 0.01238459 10 
122 226 588 0.01241127 10 
123 87 597 0.01229262 10 
124 94 597 0.01261956 10 
125 226 597 0.01259791 10 
126 87 604 0.01246281 10 
127 94 604 0.01276647 10 
128 94 616 0.01005774 8 
129 94 632 0.01300713 10 
130 94 637 0.01309936 10 
131 101 637 0.01345206 10 
132 101 642 0.01181052 9 
133 107 642 0.01327244 10 
134 101 645 0.01564190 10 
135 107 645 0.01367859 10 
136 101 657 0.01359839 10 
137 459 658 0.01377251 10 
138 101 663 0.00820828 6 
139 107 663 0.01378417 10 
140 114 663 0.01095201 8 
141 101 665 0.01390037 10 
142 107 665 0.01422931 10 
143 114 665 0.01425730 10 
144 107 680 0.01422091 10 
145 107 683 0.01426972 10 
146 114 683 0.01459479 10 
147 107 704 0.01466430 10 
148 114 704 0.01508654 10 
149 107 714 0.01494286 10 
150 114 714 0.01360354 9 
151 107 730 0.01051669 7 
152 114 730 0.01506139 10 
153 121 754 0.01565292 10 
154 126 754 0.01608724 10 
155 121 759 0.01580305 10 
156 126 759 0.01619411 10 
157 126 762 0.01588206 10 
158 132 762 0.01629929 10 
159 132 778 0.00956152 6 
160 132 792 0.01649061 10 
161 132 800 0.01663852 10 
162 138 800 0.01702403 10 
163 138 806 0.01677410 10 
164 138 821 0.01356338 8 
165 138 823 0.01697767 10 
166 151 828 0.01740987 10 
167 151 847 0.01568444 9 
168 151 855 0.01223042 7 
169 151 895 0.01864619 10 
170 151 897 0.01884001 10 
171 138 903 0.01863443 10 
172 138 904 0.01866494 10 
173 132 907 0.01875922 10 
174 138 907 0.01918764 10 
175 132 911 0.01883486 10 
176 121 923 0.01908234 10 
177 126 923 0.02048582 10 
178 107 929 0.01928958 10 
179 114 929 0.01972390 10 
180 107 935 0.01940435 10 
181 114 935 0.01987594 10 
182 101 939 0.01740463 9 
183 107 939 0.01547613 8 
184 101 944 0.01750347 9 
185 94 947 0.01968809 10 
186 101 947 0.02014635 10 
187 87 953 0.01985705 10 
188 94 953 0.02031613 10 
189 226 953 0.02032556 10 
190 81 959 0.02004878 10 
191 87 959 0.02051960 10 
192 220 959 0.02052531 10 
193 226 959 0.02056595 10 
194 67 965 0.02021777 10 
195 81 965 0.02069686 10 
196 220 965 0.02069452 10 
197 61 976 0.02045221 10 
198 67 976 0.02103641 10 
199 209 976 0.02105238 10 
200 50 982 0.02063780 10 
201 61 982 0.02116383 10 
202 201 982 0.02123124 10 
203 203 982 0.01271618 6 
204 44 988 0.02088331 10 
205 50 988 0.01070682 5 
206 195 988 0.01443148 7 
207 201 988 0.01023639 5 
208 44 994 0.02103997 10 
209 189 994 0.02153345 10 
210 195 994 0.02155977 10 
211 32 1003 0.02130128 10 
212 178 1003 0.02186050 10 
213 183 1003 0.01746363 8 
214 25 1008 0.02148318 10 
215 32 1008 0.02205435 10 
216 178 1008 0.02202591 10 
217 183 1008 0.02198670 10 
218 25 1010 0.02154687 10 
219 32 1010 0.02204944 10 
220 172 1010 0.02223367 10 
221 178 1010 0.02224568 10 
222 19 1016 0.02178907 10 
223 166 1016 0.02232364 10 
224 172 1016 0.01779891 8 
225 468 1027 0.01990031 9 
226 151 1029 0.02234268 10 
227 157 1029 0.02277556 10 
228 163 1029 0.02289278 10 
229 166 1029 0.01597864 7 
230 132 1084 0.02371727 10 
231 1111 1132 0.00707124 3 
232 101 1138 0.02465770 10 
233 107 1147 0.02491594 10 
234 114 1147 0.02548873 10 
235 107 1150 0.02495734 10 
236 114 1150 0.02554242 10 
237 1122 1157 0.02510151 10 
238 114 1158 0.02570342 10 
239 121 1158 0.02573102 10 
240 67 1159 0.02587246 10 
241 121 1164 0.02540166 10 
242 126 1164 0.02597877 10 
243 114 1175 0.02565094 10 
244 121 1175 0.02625939 10 
245 923 1175 0.02626894 10 
246 929 1175 0.02634790 10 
247 1158 1175 0.01842487 7 
248 101 1188 0.02611195 10 
249 939 1188 0.02661727 10 
250 1138 1188 0.02668945 10 
251 1147 1188 0.02661092 10 
252 1150 1188 0.02616695 10 
253 767 1191 0.02631747 10 
254 1050 1210 0.02667108 10 
255 1061 1210 0.02721766 10 
256 1075 1210 0.02724142 10 
257 1084 1210 0.02725675 10 
258 1088 1210 0.02726517 10 
259 1093 1210 0.02727369 10 
260 1098 1210 0.02727459 10 
261 157 1217 0.02711938 10 
262 163 1217 0.02774710 10 
263 1029 1217 0.02482856 9 
264 1044 1217 0.02723771 10 
265 1050 1217 0.02784749 10 
266 1056 1217 0.02788269 10 
