1 34 162 2 118.35876557 0.00000327 1 
2 19 166 0 0.41485034 0.00210940 5 
3 19 172 0 0.02820697 0.00187290 4 
4 25 172 0 0.50366199 0.00188843 4 
5 122 174 2 386.64255974 0.00000230 1 
6 25 178 0 0.30831851 0.00198312 4 
7 32 178 0 0.01493521 0.00199824 4 
8 22 178 2 8774.43136332 0.00000195 4 
9 32 183 0 0.07055611 0.00201585 4 
10 44 189 0 0.52863102 0.00208480 4 
11 44 195 0 0.35755137 0.00216903 4 
12 50 195 0 0.00572854 0.00220665 4 
13 9 195 2 23.14260223 0.00000248 4 
14 50 201 0 0.04110605 0.00191015 3 
15 50 203 0 0.06975183 0.00188495 3 
16 61 203 0 0.00745912 0.00190357 3 
17 61 209 0 0.37222863 0.00232079 4 
18 67 209 0 0.41032090 0.00232924 4 
19 20 212 2 176.98461112 0.00000266 1 
20 1 213 2 538.16299784 0.00000266 1 
21 67 220 0 0.66144083 0.00250554 4 
22 81 220 0 0.48035877 0.00286370 5 
23 81 226 0 0.05402805 0.00257854 4 
24 87 226 0 1.82553139 0.00294958 5 
25 87 231 0 0.34656585 0.00263082 4 
26 94 231 0 0.55778528 0.00256565 4 
27 226 231 0 1.44127402 0.00299483 5 
28 59 238 2 370.61780697 0.00000222 1 
29 134 238 2 643.56836037 0.00000147 1 
30 170 239 2 1809.44066253 0.00000261 1 
31 94 241 0 1.33132047 0.00269953 4 
32 101 241 0 0.50961029 0.00272325 4 
33 101 247 0 1.66454674 0.00276373 4 
34 107 247 0 1.80094617 0.00278960 4 
35 107 254 0 1.18346605 0.00285096 4 
36 114 254 0 0.12939160 0.00286834 4 
37 107 256 0 0.93085039 0.00285608 4 
38 114 256 0 0.24629796 0.00286332 4 
39 107 258 0 1.37911724 0.00290692 4 
40 114 258 0 1.15747212 0.00293097 4 
41 22 263 2 96.87415575 0.00000232 1 
42 121 266 0 0.00938596 0.00301016 4 
43 126 266 0 0.44864328 0.00355032 5 
44 126 272 0 1.03992836 0.00310262 4 
45 132 272 0 0.39070916 0.00364904 5 
46 132 278 0 0.58358145 0.00318141 4 
47 138 278 0 1.06458780 0.00373678 5 
48 138 284 0 0.02201259 0.00271551 3 
49 151 284 0 0.12777228 0.00329287 4 
50 151 291 0 0.60037557 0.00332265 4 
51 12 294 2 198.05759124 0.00000260 1 
52 151 297 0 0.07972289 0.00285422 3 
53 157 297 0 1.04991834 0.00345069 4 
54 166 297 0 1.30507781 0.00339380 4 
55 19 305 0 0.16044642 0.00357570 4 
56 157 305 0 0.58687353 0.00360750 4 
57 163 305 0 7.56485476 0.00484869 6 
58 166 305 0 0.37495035 0.00360793 4 
59 172 305 0 0.01886255 0.00361149 4 
60 19 315 0 0.48455906 0.00310768 3 
61 25 315 0 0.02281386 0.00311643 3 
62 172 315 0 0.05679715 0.00373403 4 
63 133 320 2 3229.25842003 0.00000244 1 
64 50 324 2 74.18538492 0.00000225 1 
65 172 328 0 0.12482725 0.00325598 3 
66 308 330 2 3739.80744318 0.00000225 1 
67 255 332 2 3251.46974617 0.00000245 1 
68 19 337 0 6.63404991 0.00466534 5 
69 25 337 0 0.96522419 0.00400325 4 
70 172 337 0 0.57611560 0.00334358 3 
71 19 342 0 0.00494520 0.00338953 3 
72 25 342 0 0.12855172 0.00406952 4 
73 172 342 0 0.01223902 0.00412263 4 
74 178 342 0 0.12442988 0.00418033 4 
75 285 347 2 215.15408619 0.00000311 1 
76 111 351 2 1163.32321822 0.00000251 1 
77 25 367 0 0.11414782 0.00379352 3 
78 32 367 0 0.01267433 0.00595934 6 
79 178 367 0 0.00286807 0.00376703 3 
80 183 367 0 0.06698524 0.00379049 3 
81 313 373 2 2851.95448509 0.00000346 1 
82 25 374 0 0.56424690 0.00459960 4 
83 32 374 0 0.09892849 0.00534121 5 
84 178 374 0 0.03055075 0.00459887 4 
85 183 374 0 0.05309447 0.00458419 4 
86 224 381 2 439.05178429 0.00000341 1 
87 32 382 0 4.14688582 0.00392695 3 
88 183 382 0 1.28811506 0.00466273 4 
89 32 387 0 2.72468715 0.00477841 4 
90 183 387 0 0.18197642 0.00472458 4 
91 185 390 2 1940.26944267 0.00000311 1 
92 189 414 0 7.69047346 0.00586739 5 
93 11 415 2 1444.67074880 0.00000343 1 
94 80 417 2 1030.33277431 0.00000299 1 
95 262 427 2 227.08612322 0.00000292 1 
96 6 428 2 232.57150014 0.00000293 1 
97 59 430 2 63.02832206 0.00000314 1 
98 44 437 0 0.00915802 0.00440122 3 
99 195 437 0 0.01161094 0.00435603 3 
100 65 451 2 421.18544004 0.00000370 1 
101 44 454 0 0.65644164 0.00452256 3 
102 189 454 0 0.03962740 0.00542486 4 
103 221 460 2 3215.93870308 0.00000308 1 
104 44 467 0 0.12345281 0.00644299 5 
105 50 467 0 0.00895575 0.01022398 9 
106 195 467 0 0.00230988 0.00463065 3 
107 442 468 2 2152.49068324 0.00000363 1 
108 347 469 2 458.44487122 0.00000283 1 
109 114 470 2 1829.59054318 0.00000306 1 
110 38 475 2 1338.21690720 0.00000311 1 
111 288 476 2 1661.19867945 0.00000335 1 
112 195 484 0 0.09447226 0.00573632 4 
113 312 490 2 1124.33345968 0.00000300 1 
114 102 491 2 2631.90114073 0.00000282 1 
115 161 492 2 1739.86233480 0.00000227 1 
116 44 494 0 0.02880924 0.00577326 4 
117 50 494 0 0.00628832 0.00481927 3 
118 195 494 0 0.00818961 0.00682467 5 
119 201 494 0 0.00469852 0.00683058 5 
120 50 500 0 0.14406209 0.00694369 5 
121 201 500 0 0.05353930 0.00491103 3 
122 203 500 0 0.03252445 0.00488728 3 
123 170 503 2 2003.13922648 0.00000332 1 
124 420 503 2 565.09794758 0.00000210 1 
125 61 508 0 0.99413579 0.00711870 5 
126 203 508 0 0.26947301 0.01224152 10 
127 209 508 0 0.03711473 0.00605794 4 
128 61 522 0 1.37942234 0.00613996 4 
129 203 522 0 0.12859200 0.00512207 3 
130 209 522 0 0.00542469 0.00510058 3 
131 101 523 2 3431.90754518 0.00000301 1 
132 61 528 0 0.47936102 0.00515464 3 
133 67 528 0 0.22419307 0.00628876 4 
134 81 528 0 0.23233822 0.00841397 6 
135 209 528 0 0.09444678 0.01060966 8 
136 220 528 0 0.13668760 0.00623568 4 
137 67 532 0 0.05459173 0.01181073 9 
138 81 532 0 0.11826401 0.00847571 6 
139 220 532 0 0.05648169 0.00633299 4 
140 141 534 2 2571.79337101 0.00000318 1 
141 67 556 0 0.98233216 0.00648282 4 
142 43 557 2 5167.43853448 0.00000324 1 
143 67 564 0 0.40168838 0.01229146 9 
144 81 564 0 0.02280941 0.00661161 4 
145 220 564 0 0.02684857 0.00663644 4 
146 67 567 0 2.67253169 0.00780208 5 
147 81 567 0 0.48923871 0.00906025 6 
148 220 567 0 0.21723258 0.00669223 4 
149 67 570 0 2.40706627 0.00906848 6 
150 81 570 0 0.15671702 0.00900889 6 
151 220 570 0 0.13379867 0.00672966 4 
152 136 570 2 1928.77311801 0.00000258 4 
153 134 574 2 1237.68600101 0.00000259 1 
154 81 575 0 2.76594993 0.00790558 5 
155 220 575 0 1.08612706 0.01032620 7 
156 544 581 2 1944.76215239 0.00000331 1 
157 38 586 2 516.87036558 0.00000273 1 
158 81 588 0 0.01497138 0.00567258 3 
159 87 588 0 0.47937722 0.00816171 5 
160 226 588 0 0.43156268 0.00689506 4 
161 87 597 0 2.27648751 0.01121908 6 
162 94 597 0 0.38888315 0.00699806 4 
163 226 597 0 0.55079633 0.00831324 5 
164 48 601 2 2255.15317505 0.00000267 1 
165 467 602 2 3154.62737223 0.00000232 1 
166 487 602 2 1087.75540376 0.00000153 1 
167 87 604 0 0.47149562 0.00711018 4 
168 94 604 0 0.01542269 0.00840007 5 
169 183 608 2 1525.34373497 0.00000281 1 
170 254 613 2 760.77493130 0.00000283 1 
171 94 616 0 0.01350372 0.01232421 8 
172 94 632 0 2.16969694 0.00877020 5 
173 94 637 0 4.44236402 0.01003263 6 
174 101 637 0 0.19098383 0.00748523 4 
175 322 637 2 2731.46000124 0.00000376 4 
176 452 637 2 6443.73695178 0.00000121 4 
177 549 640 2 699.15522374 0.00000315 1 
178 101 642 0 0.11555601 0.00886891 5 
179 107 642 0 0.04025021 0.01404646 9 
180 101 645 0 6.69527511 0.00759366 4 
181 107 645 0 1.54205090 0.00748303 4 
182 474 649 2 885.19511844 0.00000387 1 
183 565 650 2 583.76818671 0.00000288 1 
184 112 655 2 751.28027121 0.00000336 1 
185 101 657 0 0.73548669 0.01665484 10 
186 101 663 0 0.04971914 0.01668465 10 
187 107 663 0 0.01781179 0.00910820 5 
188 114 663 0 0.00275957 0.00911927 5 
189 101 665 0 1.55112265 0.01342818 8 
190 107 665 0 0.47667103 0.00778206 4 
191 114 665 0 0.13329170 0.00646558 3 
192 293 667 2 2876.18382762 0.00000286 1 
193 179 675 2 1111.73600698 0.00000325 1 
194 107 680 0 1.48615866 0.00932487 5 
195 493 681 2 5081.72820541 0.00000381 1 
196 107 683 0 0.94462224 0.00800097 4 
197 114 683 0 0.32178225 0.00949547 5 
198 107 704 0 0.34268109 0.01258367 7 
199 114 704 0 0.07528002 0.01551955 9 
200 107 714 0 1.79639085 0.01136291 6 
201 114 714 0 0.02860377 0.01439699 8 
202 292 717 2 3333.36043529 0.00000424 1 
203 658 728 2 812.17222123 0.00000377 1 
204 431 729 2 1305.31689449 0.00000279 1 
205 107 730 0 0.19656714 0.01025856 5 
206 114 730 0 0.03540690 0.00855067 4 
207 422 733 2 1889.25598688 0.00000330 1 
208 586 737 2 1604.21745464 0.00000287 1 
209 148 749 2 473.48284074 0.00000338 1 
210 121 754 0 0.33113739 0.00875867 4 
211 126 754 0 0.07673382 0.01515084 8 
212 121 759 0 2.33625684 0.01196661 6 
213 126 759 0 0.22329988 0.01203841 6 
214 126 762 0 7.08482229 0.01039347 5 
215 132 762 0 2.00372045 0.01537598 8 
216 285 766 2 666.34907352 0.00000297 1 
217 35 766 2 1236.58263552 0.00000165 1 
218 425 768 2 548.87603723 0.00000287 1 
219 742 772 2 1541.86876504 0.00000324 1 
220 132 778 0 0.06999780 0.00906880 4 
221 578 783 2 3092.66570608 0.00000398 1 
222 564 785 2 124.12577435 0.00000383 1 
223 132 792 0 1.26802734 0.00927615 4 
224 621 795 2 832.75518505 0.00000394 1 
225 132 800 0 3.35686460 0.00915624 4 
226 138 800 0 0.14494330 0.01251706 6 
227 138 806 0 0.25140739 0.00750534 3 
228 343 820 2 982.53195256 0.00000343 1 
229 138 821 0 0.40674396 0.01105560 5 
230 138 823 0 6.54725682 0.00936041 4 
231 696 825 2 1023.45628479 0.00000382 1 
232 533 827 2 1263.53708825 0.00000357 1 
233 151 828 0 3.12108818 0.00946666 4 
234 151 847 0 0.08724621 0.01142198 5 
235 550 853 2 1292.53518278 0.00000492 1 
236 151 855 0 0.11494457 0.01507619 7 
237 697 859 2 774.06955747 0.00000474 1 
238 184 861 2 3521.45785353 0.00000350 1 
239 564 863 2 1460.30134167 0.00000366 1 
240 75 868 2 719.69911101 0.00000423 1 
241 202 871 2 1646.29348541 0.00000366 1 
242 123 872 2 303.59475639 0.00000352 1 
243 255 873 2 1476.84918917 0.00000331 1 
244 403 874 2 238.79516797 0.00000335 1 
245 151 895 0 2.80701437 0.01769136 8 
246 151 897 0 0.06118057 0.02140041 10 
247 814 898 2 1274.82753076 0.00000442 1 
248 138 903 0 0.08157811 0.01023570 4 
249 138 904 0 7.06392298 0.01402349 6 
250 846 904 2 1877.36990600 0.00000455 6 
251 132 907 0 0.71874717 0.01031007 4 
252 138 907 0 0.22077132 0.01222263 5 
253 132 911 0 0.23128175 0.01221470 5 
254 121 923 0 0.62636126 0.01437623 6 
255 126 923 0 0.07130653 0.01053197 4 
256 765 924 2 1563.07224138 0.00000435 1 
257 107 929 0 0.07225325 0.01254195 5 
258 114 929 0 0.00477553 0.01061080 4 
259 303 930 2 112.33042067 0.00000396 1 
260 107 935 0 4.91438615 0.01652334 7 
261 114 935 0 1.40337639 0.01656896 7 
262 12 938 2 429.22601995 0.00000423 1 
263 101 939 0 0.48567419 0.01071409 4 
264 107 939 0 0.21174614 0.01074819 4 
265 101 944 0 0.15377935 0.01282014 5 
266 94 947 0 0.23772432 0.01677187 7 
267 101 947 0 0.16826262 0.01482553 6 
268 922 949 2 1259.95789274 0.00000463 1 
269 860 951 2 1882.41007296 0.00000355 1 
270 87 953 0 0.13504795 0.01093861 4 
271 94 953 0 0.06505521 0.01497206 6 
272 226 953 0 0.08268323 0.02300386 10 
273 703 954 2 1843.18067966 0.00000497 1 
274 269 955 2 1183.76848013 0.00000343 1 
275 605 956 2 3870.16659783 0.00000364 1 
276 81 959 0 1.83528326 0.02440023 10 
277 87 959 0 1.29172246 0.01714634 7 
278 220 959 0 0.04883629 0.01106661 4 
279 226 959 0 0.12130941 0.01309119 5 
280 727 961 2 760.18907112 0.00000479 1 
281 2 963 2 208.26387241 0.00000365 1 
282 67 965 0 1.01368609 0.01322878 5 
283 81 965 0 0.31066014 0.01522237 6 
284 220 965 0 0.16483276 0.01930098 8 
285 946 969 2 437.89035177 0.00000352 1 
286 229 971 2 718.03271158 0.00000384 1 
287 868 971 2 1694.97608933 0.00000169 1 
288 61 976 0 0.16803746 0.01744505 7 
289 67 976 0 0.05676300 0.00924631 3 
290 209 976 0 0.00780965 0.01126500 4 
291 50 982 0 0.38354811 0.01136356 4 
292 61 982 0 0.27147698 0.01136997 4 
293 201 982 0 0.22200943 0.01144296 4 
294 203 982 0 0.10573284 0.02190379 9 
295 44 988 0 0.09550719 0.01147344 4 
296 50 988 0 0.05924873 0.01149087 4 
297 195 988 0 0.04319526 0.01573867 6 
298 201 988 0 0.02685916 0.01359276 5 
299 542 990 2 932.51008571 0.00000388 1 
300 940 992 2 2626.68137378 0.00000390 1 
301 44 994 0 0.51683435 0.01790642 7 
302 189 994 0 0.29989154 0.02575573 10 
303 195 994 0 0.21957432 0.01372569 5 
304 827 995 2 3808.17151261 0.00000502 1 
305 85 1000 2 1233.32995192 0.00000420 1 
306 32 1003 0 0.23901034 0.01387300 5 
307 178 1003 0 0.03356851 0.02604011 10 
308 183 1003 0 0.01433170 0.01607358 6 
309 601 1005 2 251.53017615 0.00000482 1 
310 183 1006 2 2737.76327765 0.00000427 1 
311 25 1008 0 1.23858172 0.01835718 7 
312 32 1008 0 0.53803958 0.01181369 4 
313 178 1008 0 0.34459610 0.01180231 4 
314 183 1008 0 0.22233868 0.01188192 4 
315 25 1010 0 0.60236133 0.01184746 4 
316 32 1010 0 0.30591807 0.01403285 5 
317 172 1010 0 0.10368354 0.01634801 6 
318 178 1010 0 0.19279072 0.02643679 10 
319 979 1012 2 828.70072848 0.00000422 10 
320 19 1016 0 0.44047719 0.02056917 8 
321 166 1016 0 0.20189646 0.01189970 4 
322 172 1016 0 0.07393216 0.01408983 5 
323 383 1017 2 1567.95389597 0.00000612 1 
324 220 1027 2 1870.03560073 0.00000586 1 
325 151 1029 0 0.03533130 0.01437499 5 
326 157 1029 0 0.02672450 0.01206710 4 
327 163 1029 0 3.39703566 0.01206142 4 
328 166 1029 0 0.49353449 0.01205733 4 
329 57 1035 2 1060.47966958 0.00000595 1 
330 299 1055 2 166.18489322 0.00000590 1 
331 433 1056 2 136.22363113 0.00000519 1 
332 712 1057 2 490.20697184 0.00000535 1 
333 1008 1058 2 688.40958840 0.00000474 1 
334 378 1060 2 71.04321752 0.00000515 1 
335 16 1061 2 365.92589967 0.00000467 1 
336 784 1065 2 160.48333873 0.00000621 1 
337 678 1066 2 485.10287245 0.00000573 1 
338 282 1073 2 156.12187652 0.00000568 1 
339 944 1076 2 156.34931163 0.00000575 1 
340 149 1076 2 47.49979175 0.00000249 1 
341 738 1082 2 199.53969815 0.00000554 1 
342 441 1083 2 789.11197208 0.00000578 1 
343 132 1084 0 4.21993706 0.01512266 5 
344 233 1086 2 2492.04193971 0.00000570 1 
345 191 1092 2 319.82155966 0.00000612 1 
346 499 1096 2 126.26428879 0.00000524 1 
347 1000 1105 2 1146.91297747 0.00000581 1 
348 560 1108 2 123.49013976 0.00000601 1 
349 54 1115 2 40.55355194 0.00000506 1 
350 233 1119 2 160.61237996 0.00000570 1 
351 893 1120 2 435.06531570 0.00000614 1 
352 1042 1125 2 283.26519784 0.00000633 1 
353 101 1138 0 0.63021658 0.01585524 5 
354 36 1138 2 1287.78936621 0.00000487 5 
355 136 1143 2 734.57348081 0.00000619 1 
356 107 1147 0 0.73708347 0.01338629 4 
357 114 1147 0 0.03971358 0.01091658 3 
358 1130 1147 2 2031.69244247 0.00000531 3 
359 107 1150 0 7.45683387 0.01345287 4 
360 114 1150 0 1.00561260 0.01097965 3 
361 114 1158 0 0.16899687 0.01100515 3 
362 121 1158 0 0.69099743 0.01356807 4 
363 223 1158 2 577.96714865 0.00000441 4 
364 901 1159 2 3377.27344744 0.00000530 1 
365 278 1159 2 848.26726374 0.00000209 1 
366 790 1161 2 1518.10895158 0.00000518 1 
367 121 1164 0 0.45182924 0.01613106 5 
368 126 1164 0 0.04418665 0.01370064 4 
369 1162 1166 2 6189.50698203 0.00000509 1 
370 114 1175 0 0.14266969 0.01377322 4 
371 121 1175 0 0.27324351 0.01381301 4 
372 923 1175 0 0.18719011 0.01384070 4 
373 929 1175 0 0.16073549 0.01376900 4 
374 1158 1175 0 0.00134797 0.01123427 3 
375 384 1178 2 2567.40796858 0.00000596 1 
376 315 1180 2 2011.92346254 0.00000517 1 
377 387 1182 2 3454.95094525 0.00000584 1 
378 1170 1183 2 57.33122885 0.00000509 1 
379 101 1188 0 0.32950319 0.01393931 4 
380 939 1188 0 0.55418798 0.01393089 4 
381 1138 1188 0 0.03006025 0.01145765 3 
382 1147 1188 0 0.04063922 0.01137682 3 
383 1150 1188 0 1.83245351 0.01402755 4 
384 1033 1193 2 824.81461057 0.00000603 1 
385 1054 1197 2 403.93496359 0.00000533 1 
386 1050 1210 0 0.00345523 0.01403697 4 
387 1061 1210 0 0.57363906 0.01668552 5 
388 1075 1210 0 0.23107861 0.01673148 5 
389 1084 1210 0 3.13555510 0.01680927 5 
390 1088 1210 0 0.59156319 0.01422167 4 
391 1093 1210 0 0.13111230 0.01950522 6 
392 1098 1210 0 0.04730346 0.01422913 4 
393 522 1210 2 3678.89925255 0.00000510 4 
394 1155 1210 2 1263.28817422 0.00000141 4 
395 115 1210 2 3015.59707492 0.00000088 4 
396 1122 1210 2 876.39629703 0.00000116 4 
397 499 1212 2 1680.42243018 0.00000561 1 
398 175 1212 2 299.42808929 0.00000188 1 
399 157 1217 0 0.32750279 0.01430114 4 
400 163 1217 0 0.19904338 0.01448603 4 
401 1029 1217 0 0.01250493 0.01174585 3 
402 1044 1217 0 3.98258990 0.01447191 4 
403 1050 1217 0 4.97161000 0.01717120 5 
404 163 297 0 0.27920255 0.01526501 4 
405 189 400 0 2.09679271 0.01638617 4 
406 1056 1217 0 9.66143264 0.01720201 5 
