1 45 106 0.00086136 5 
2 112 140 0.00087740 4 
3 11 147 0.00203070 8 
4 19 166 0.00293322 10 
5 19 172 0.00307141 10 
6 25 172 0.00318225 10 
7 25 178 0.00328119 10 
8 32 178 0.00329829 10 
9 32 183 0.00336040 10 
10 44 189 0.00348139 10 
11 44 195 0.00359611 10 
12 50 195 0.00361305 10 
13 50 201 0.00373515 10 
14 50 203 0.00376569 10 
15 61 203 0.00377918 10 
16 61 209 0.00386066 10 
17 67 209 0.00388584 10 
18 67 220 0.00407940 10 
19 81 220 0.00408217 10 
20 125 223 0.00420679 10 
21 81 226 0.00425612 10 
22 87 226 0.00426127 10 
23 87 231 0.00437536 10 
24 94 231 0.00438725 10 
25 226 231 0.00439645 10 
26 94 241 0.00457985 10 
27 101 241 0.00460744 10 
28 101 247 0.00472795 10 
29 107 247 0.00476256 10 
30 107 254 0.00488084 10 
31 114 254 0.00491338 10 
32 107 256 0.00496141 10 
33 114 256 0.00499836 10 
34 107 258 0.00504234 10 
35 114 258 0.00504088 10 
36 121 266 0.00523525 10 
37 126 266 0.00524107 10 
38 126 272 0.00536525 10 
39 132 272 0.00537123 10 
40 132 278 0.00548175 10 
41 138 278 0.00548934 10 
42 138 284 0.00561056 10 
43 151 284 0.00575392 10 
44 151 291 0.00587726 10 
45 143 292 0.00594209 10 
46 151 297 0.00602690 10 
47 157 297 0.00604430 10 
48 163 297 0.00605770 10 
49 166 297 0.00605761 10 
50 19 305 0.00627517 10 
51 157 305 0.00630336 10 
52 163 305 0.00630113 10 
53 166 305 0.00631510 10 
54 172 305 0.00631886 10 
55 19 315 0.00651199 10 
56 25 315 0.00654856 10 
57 172 315 0.00655813 10 
58 172 328 0.00680244 10 
59 37 328 0.00683777 10 
60 276 334 0.00702847 10 
61 19 337 0.00711925 10 
62 25 337 0.00709969 10 
63 172 337 0.00714792 10 
64 19 342 0.00725024 10 
65 25 342 0.00723545 10 
66 172 342 0.00728376 10 
67 178 342 0.00728001 10 
68 25 367 0.00777328 10 
69 32 367 0.00779889 10 
70 178 367 0.00782098 10 
71 183 367 0.00780910 10 
72 25 374 0.00795195 10 
73 32 374 0.00795222 10 
74 178 374 0.00799290 10 
75 183 374 0.00797770 10 
76 32 382 0.00813316 10 
77 183 382 0.00813839 10 
78 32 387 0.00823451 10 
79 183 387 0.00824042 10 
80 70 390 0.00849696 10 
81 189 400 0.00882995 10 
82 320 409 0.00885812 10 
83 189 414 0.00898413 10 
84 44 437 0.00944229 10 
85 195 437 0.00943845 10 
86 77 450 0.00975660 10 
87 209 452 0.00982312 10 
88 44 454 0.00986663 10 
89 189 454 0.00989639 10 
90 76 460 0.01008135 10 
91 44 467 0.01023702 10 
92 50 467 0.01025579 10 
93 195 467 0.01029544 10 
94 195 484 0.01061720 10 
95 44 494 0.01079820 10 
96 50 494 0.01079969 10 
97 195 494 0.01080503 10 
98 201 494 0.01084056 10 
99 50 500 0.01097147 10 
100 201 500 0.01098584 10 
101 203 500 0.01099188 10 
102 61 508 0.01115280 10 
103 203 508 0.01115484 10 
104 209 508 0.01160414 10 
105 94 510 0.01129769 10 
106 61 522 0.01153370 10 
107 203 522 0.01154204 10 
108 209 522 0.01154467 10 
109 61 528 0.01167215 10 
110 67 528 0.01166766 10 
111 81 528 0.01170750 10 
112 209 528 0.01171882 10 
113 220 528 0.01172506 10 
114 67 532 0.01179806 10 
115 81 532 0.01186772 10 
116 220 532 0.01188651 10 
117 67 556 0.01232400 10 
118 67 564 0.01247822 10 
119 81 564 0.01248344 10 
120 220 564 0.01251492 10 
121 67 567 0.01257869 10 
122 81 567 0.01258329 10 
123 220 567 0.01261253 10 
124 67 570 0.01265526 10 
125 81 570 0.01267977 10 
126 220 570 0.01272648 10 
127 81 575 0.01277935 10 
128 220 575 0.01279353 10 
129 81 588 0.01306263 10 
130 87 588 0.01317945 10 
131 226 588 0.01316122 10 
132 87 597 0.01332696 10 
133 94 597 0.01328662 10 
134 226 597 0.01329415 10 
135 415 600 0.01351737 10 
136 87 604 0.01354773 10 
137 94 604 0.01355383 10 
138 94 616 0.01380353 10 
139 94 632 0.01455966 10 
140 94 637 0.01421476 10 
141 101 637 0.01422855 10 
142 122 639 0.01441522 10 
143 101 642 0.01450446 10 
144 107 642 0.01449454 10 
145 101 645 0.01454286 10 
146 107 645 0.01484595 10 
147 101 657 0.01479423 10 
148 101 663 0.01491640 10 
149 107 663 0.01492088 10 
150 114 663 0.01510300 10 
151 101 665 0.01521916 10 
152 107 665 0.01515442 10 
153 114 665 0.01515268 10 
154 270 672 0.01531068 10 
155 107 680 0.01548980 10 
156 107 683 0.01735346 10 
157 114 683 0.01559455 10 
158 476 687 0.01578400 10 
159 107 704 0.01644066 10 
160 114 704 0.01621244 10 
161 589 712 0.01646030 10 
162 107 714 0.01653505 10 
163 114 714 0.01654675 10 
164 29 716 0.01670527 10 
165 107 730 0.01698896 10 
166 114 730 0.01698852 10 
167 121 754 0.01743775 10 
168 126 754 0.01748704 10 
169 121 759 0.01759606 10 
170 126 759 0.01760573 10 
171 126 762 0.01766151 10 
172 132 762 0.01762637 10 
173 419 762 0.01798205 10 
174 132 778 0.01818666 10 
175 573 779 0.01817696 10 
176 258 785 0.01848165 10 
177 124 787 0.01882594 10 
178 786 791 0.01889294 10 
179 132 792 0.01883301 10 
180 91 797 0.01896633 10 
181 132 800 0.01907000 10 
182 138 800 0.01932097 10 
183 138 806 0.01945353 10 
184 138 821 0.01969453 10 
185 138 823 0.01982833 10 
186 151 828 0.01971721 10 
187 151 847 0.02007244 10 
188 151 855 0.02022725 10 
189 151 895 0.02102767 10 
190 151 897 0.02103094 10 
191 138 903 0.02114091 10 
192 138 904 0.02116370 10 
193 132 907 0.02126305 10 
194 138 907 0.02127155 10 
195 132 911 0.02133504 10 
196 121 923 0.02184572 10 
197 126 923 0.02186498 10 
198 865 923 0.02188580 10 
199 107 929 0.02206962 10 
200 114 929 0.02206377 10 
201 68 929 0.02226097 10 
202 107 935 0.02238242 10 
203 114 935 0.02242933 10 
204 774 937 0.02252782 10 
205 101 939 0.02262071 10 
206 107 939 0.02265032 10 
207 101 944 0.02273110 10 
208 334 945 0.02284102 10 
209 94 947 0.02297240 10 
210 101 947 0.02305343 10 
211 713 949 0.02300223 10 
212 87 953 0.02310729 10 
213 94 953 0.02311982 10 
214 226 953 0.02315360 10 
215 664 957 0.02335619 10 
216 81 959 0.02345005 10 
217 87 959 0.02348570 10 
218 220 959 0.02351443 10 
219 226 959 0.02353029 10 
220 67 965 0.02365430 10 
221 81 965 0.02367134 10 
222 220 965 0.02370827 10 
223 46 972 0.02389942 10 
224 61 976 0.02415658 10 
225 67 976 0.02416349 10 
226 209 976 0.02416838 10 
227 608 980 0.02436023 10 
228 50 982 0.02445763 10 
229 61 982 0.02453723 10 
230 201 982 0.02452697 10 
231 203 982 0.02456716 10 
232 44 988 0.02471567 10 
233 50 988 0.02471429 10 
234 195 988 0.02472747 10 
235 201 988 0.02478960 10 
236 44 994 0.02494184 10 
237 189 994 0.02495858 10 
238 195 994 0.02495557 10 
239 888 996 0.02533900 10 
240 850 997 0.02540502 10 
241 32 1003 0.02574858 10 
242 178 1003 0.02738334 10 
243 183 1003 0.02753788 10 
244 25 1008 0.02602188 10 
245 32 1008 0.02602819 10 
246 178 1008 0.02602763 10 
247 183 1008 0.02602976 10 
248 25 1010 0.02607665 10 
249 32 1010 0.02609923 10 
250 172 1010 0.02612829 10 
251 178 1010 0.02610767 10 
252 19 1016 0.02627823 10 
253 166 1016 0.02800964 10 
254 172 1016 0.02636116 10 
255 644 1016 0.02649601 10 
256 151 1029 0.02679699 10 
257 157 1029 0.02677758 10 
258 163 1029 0.02680484 10 
259 166 1029 0.02680608 10 
260 649 1033 0.02727310 10 
261 333 1036 0.02725216 10 
262 822 1053 0.02788080 10 
263 653 1054 0.02824920 10 
264 734 1066 0.02873394 10 
265 397 1066 0.02858152 10 
266 293 1073 0.02873977 10 
267 861 1077 0.02902336 10 
268 132 1084 0.02916891 10 
269 655 1110 0.02972525 10 
270 101 1138 0.03034541 10 
271 107 1147 0.03043016 10 
272 114 1147 0.03040820 10 
273 107 1150 0.03055799 10 
274 114 1150 0.03055827 10 
275 114 1158 0.03063543 10 
276 121 1158 0.03068717 10 
277 121 1164 0.03081567 10 
278 126 1164 0.03084347 10 
279 507 1171 0.03123414 10 
280 114 1175 0.03134424 10 
281 121 1175 0.03134681 10 
282 923 1175 0.03143198 10 
283 929 1175 0.03144332 10 
284 1158 1175 0.03141854 10 
285 394 1176 0.03166130 10 
286 101 1188 0.03174694 10 
287 939 1188 0.03197251 10 
288 1138 1188 0.03194229 10 
289 1147 1188 0.03209620 10 
290 1150 1188 0.03194005 10 
291 188 1191 0.03203521 10 
292 390 1203 0.03221653 10 
293 870 1207 0.03235134 10 
294 1050 1210 0.03252381 10 
295 1061 1210 0.03257651 10 
296 1075 1210 0.03266963 10 
297 1084 1210 0.03268320 10 
298 1088 1210 0.03268543 10 
299 1093 1210 0.03323393 10 
300 1098 1210 0.03271872 10 
301 157 1217 0.03446206 10 
302 163 1217 0.03287143 10 
303 1029 1217 0.03287068 10 
304 1044 1217 0.03295101 10 
305 1050 1217 0.03295087 10 
306 1056 1217 0.03323390 10 
