VERTEX2 0 0.00006940 -0.00000006 0.00000052
VERTEX2 1 0.00006940 -0.00000006 -0.00064148
VERTEX2 2 0.00006939 -0.00000006 -0.00117948
VERTEX2 3 0.01107125 -0.00097504 -0.00356148
VERTEX2 4 0.64107783 -0.01119985 -0.00744348
VERTEX2 5 0.68908723 -0.01165031 -0.09872671
VERTEX2 6 0.69014522 -0.01257493 -0.89600183
VERTEX2 7 0.68262292 0.01083117 -1.51068731
VERTEX2 8 0.68711909 0.02994716 -2.12337557
VERTEX2 9 0.69582786 0.03742444 -2.76057439
VERTEX2 10 0.69514380 0.03730536 2.90892733
VERTEX2 11 0.68959098 0.04079991 2.23555921
VERTEX2 12 0.68956954 0.04179846 1.58696726
VERTEX2 13 0.69373320 0.05514343 0.92835966
VERTEX2 14 0.70520691 0.06330000 0.32095647
VERTEX2 15 0.70030426 0.06292630 -0.20321917
VERTEX2 16 0.98138749 0.00756484 -0.22157151
VERTEX2 17 1.57060978 -0.13193256 -0.25244144
VERTEX2 18 2.18689096 -0.28782149 -0.26187021
VERTEX2 19 2.80755425 -0.47719284 -0.30964643
VERTEX2 20 3.39557722 -0.66025266 -0.30368652
VERTEX2 21 3.99691680 -0.80551695 -0.19196118
VERTEX2 22 4.60118963 -0.94010232 -0.17401559
VERTEX2 23 5.23437876 -0.97766522 -0.06599442
VERTEX2 24 5.86010430 -1.04169332 -0.12248969
VERTEX2 25 6.48910924 -1.10185626 -0.11917216
VERTEX2 26 7.09455647 -1.19318188 -0.15995949
VERTEX2 27 7.70717958 -1.27549332 -0.14444473
VERTEX2 28 8.28506768 -1.36562313 -0.14926753
VERTEX2 29 8.66579997 -1.41851511 -0.11838355
VERTEX2 30 8.67716378 -1.42139578 -0.64939296
VERTEX2 31 8.77626235 -1.55074067 -0.91672567
VERTEX2 32 9.14839774 -2.05408736 -0.93469084
VERTEX2 33 9.51130988 -2.51874195 -0.88327048
VERTEX2 34 9.90266433 -2.96901717 -0.86170437
VERTEX2 35 10.30394095 -3.41210958 -0.82696859
VERTEX2 36 10.71762842 -3.86295628 -0.83500767
VERTEX2 37 10.98190366 -4.14732508 -0.82681290
VERTEX2 38 10.95788098 -4.11602793 -1.14759326
VERTEX2 39 10.94560243 -4.06570721 -1.31796245
VERTEX2 40 11.08987946 -4.59275110 -1.30024179
VERTEX2 41 11.24048080 -5.14455299 -1.33174943
VERTEX2 42 11.36420988 -5.65944899 -1.35398003
VERTEX2 43 11.47440231 -6.20520081 -1.39367232
VERTEX2 44 11.56913359 -6.74981342 -1.43012891
VERTEX2 45 11.63678911 -7.35347548 -1.48630903
VERTEX2 46 11.68123705 -7.96949182 -1.50554425
VERTEX2 47 11.71550767 -8.58497412 -1.54702553
VERTEX2 48 11.72659291 -9.20473655 -1.55343980
VERTEX2 49 11.73394120 -9.82042794 -1.60417883
VERTEX2 50 11.69409495 -10.41690334 -1.64807510
VERTEX2 51 11.65404515 -11.00061984 -1.67703183
VERTEX2 52 11.57285219 -11.57147991 -1.75364672
VERTEX2 53 11.48845674 -12.11685515 -1.74121416
VERTEX2 54 11.39072487 -12.61587470 -1.80352040
VERTEX2 55 11.39849735 -12.57379303 -1.79828389
VERTEX2 56 11.39939165 -12.56998301 -1.78770597
VERTEX2 57 11.26775681 -13.20229346 -1.79878426
VERTEX2 58 11.13468714 -13.81631892 -1.75247775
VERTEX2 59 11.01909065 -14.42965874 -1.77599715
VERTEX2 60 10.90282858 -15.03935758 -1.75457281
VERTEX2 61 10.78138869 -15.64714178 -1.80547784
VERTEX2 62 10.64641245 -16.20388979 -1.76560350
VERTEX2 63 10.50978987 -16.76546358 -1.80113353
VERTEX2 64 10.39070546 -17.31553893 -1.73750235
VERTEX2 65 10.27112523 -17.86858292 -1.78890640
VERTEX2 66 10.13352366 -18.45161406 -1.79700954
VERTEX2 67 9.98351049 -19.04319652 -1.79595767
VERTEX2 68 9.88488463 -19.48833581 -1.81163186
VERTEX2 69 9.88918638 -19.47310858 -1.96643453
VERTEX2 70 9.89813011 -19.45500620 -2.64039822
VERTEX2 71 9.92062448 -19.45318274 3.00059543
VERTEX2 72 9.93265594 -19.45436187 2.99127495
VERTEX2 73 9.93949650 -19.45587868 2.92651264
VERTEX2 74 9.93935353 -19.45577311 2.30516892
VERTEX2 75 9.94563368 -19.45805279 1.95312462
VERTEX2 76 9.93680012 -19.44871059 2.64665807
VERTEX2 77 9.93621402 -19.44846228 2.87943552
VERTEX2 78 9.65692503 -19.46587087 -3.06726217
VERTEX2 79 9.04143544 -19.51932500 -3.07292712
VERTEX2 80 8.41201298 -19.53271444 3.13523508
VERTEX2 81 7.79019724 -19.52063124 3.10874290
VERTEX2 82 7.19468616 -19.49215510 3.05444240
VERTEX2 83 6.60952429 -19.45275926 3.03082507
VERTEX2 84 6.04990219 -19.37853430 2.95322879
VERTEX2 85 5.50838070 -19.28571626 2.96081904
VERTEX2 86 4.90428076 -19.17844823 2.87131140
VERTEX2 87 4.53165321 -19.08670862 2.81845280
VERTEX2 88 4.16222474 -18.95888112 2.78953866
VERTEX2 89 4.17954309 -18.95924478 -3.09751629
VERTEX2 90 3.58610089 -18.97585415 -3.12968776
VERTEX2 91 2.98128971 -18.98460170 -3.08170985
VERTEX2 92 2.38782114 -18.99301774 3.08543009
VERTEX2 93 1.77162360 -18.90421584 2.98421518
VERTEX2 94 1.15519338 -18.77976017 2.94110513
VERTEX2 95 0.54464154 -18.70616052 3.08286572
VERTEX2 96 -0.05925945 -18.66702365 3.10691173
VERTEX2 97 -0.64282915 -18.61582586 3.03624960
VERTEX2 98 -1.22531777 -18.52709726 2.97818384
VERTEX2 99 -1.91976331 -18.41837782 3.02481651
VERTEX2 100 -2.47314153 -18.32333920 2.97284407
VERTEX2 101 -3.07298169 -18.27919038 3.07578866
VERTEX2 102 -3.68241367 -18.21071388 2.97002432
VERTEX2 103 -4.28748355 -18.10803207 3.06607672
VERTEX2 104 -4.89644324 -18.04357934 3.03243746
VERTEX2 105 -5.50546558 -17.99088790 3.07899162
VERTEX2 106 -6.10402668 -17.93209459 3.02409433
VERTEX2 107 -6.71233998 -17.84876079 3.02030255
VERTEX2 108 -7.16652348 -17.80821350 3.08195469
VERTEX2 109 -7.21071189 -17.79785799 2.63360805
VERTEX2 110 -7.22644701 -17.78214485 2.04246018
VERTEX2 111 -7.22805269 -17.70312116 1.53680116
VERTEX2 112 -7.21582999 -17.07054269 1.59130802
VERTEX2 113 -7.24548257 -16.45040110 1.63842563
VERTEX2 114 -7.28974924 -15.83900712 1.67530002
VERTEX2 115 -7.37921426 -15.18263118 1.73414161
VERTEX2 116 -7.51504626 -14.42608257 1.77646996
VERTEX2 117 -7.66479859 -13.80726681 1.86992536
VERTEX2 118 -7.67259372 -13.77503930 1.53191633
VERTEX2 119 -7.62391966 -13.25833775 1.47659353
VERTEX2 120 -7.58102582 -12.64480552 1.56447598
VERTEX2 121 -7.59584210 -12.06679263 1.62977217
VERTEX2 122 -7.63187328 -11.49914509 1.68658723
VERTEX2 123 -7.65686046 -11.32665917 1.67384210
VERTEX2 124 -7.57476262 -11.09462591 1.25085368
VERTEX2 125 -7.36440151 -10.50739112 1.23992642
VERTEX2 126 -7.23764492 -9.89815910 1.44651386
VERTEX2 127 -7.14643232 -9.27704137 1.44482182
VERTEX2 128 -7.07700793 -8.65217082 1.48113508
VERTEX2 129 -6.99676970 -8.02909463 1.44849132
VERTEX2 130 -6.93507407 -7.40826444 1.50116847
VERTEX2 131 -6.89492579 -6.79390824 1.58939452
VERTEX2 132 -6.88195743 -6.18387288 1.53999007
VERTEX2 133 -6.84031311 -5.62605535 1.50301576
VERTEX2 134 -6.79194905 -5.03942421 1.48460558
VERTEX2 135 -6.71585833 -4.47352648 1.45811581
VERTEX2 136 -6.64814872 -3.85301278 1.47792948
VERTEX2 137 -6.55878973 -3.23568945 1.43618534
VERTEX2 138 -6.48981446 -2.61987625 1.51638860
VERTEX2 139 -6.47928022 -2.00857140 1.58064597
VERTEX2 140 -6.51178845 -1.37336761 1.61052184
VERTEX2 141 -6.52195429 -0.74492511 1.56217202
VERTEX2 142 -6.52665488 -0.10683646 1.55838639
VERTEX2 143 -6.45143573 0.51976554 1.44785053
VERTEX2 144 -6.41539688 0.87911756 1.46538415
VERTEX2 145 -6.41425691 0.88263434 0.96696824
VERTEX2 146 -6.41401363 0.88390903 0.37473302
VERTEX2 147 -6.37043019 0.88120387 -0.11078630
VERTEX2 148 -5.95010715 0.82665190 -0.14594269
VERTEX2 149 -5.31209538 0.73944109 -0.12034434
VERTEX2 150 -4.68105510 0.68166195 -0.10568676
VERTEX2 151 -4.04472381 0.64129346 -0.01943200
VERTEX2 152 -3.42345236 0.61120780 -0.08055997
VERTEX2 153 -2.80287204 0.58354024 0.01282971
VERTEX2 154 -2.18715504 0.56752016 -0.05652011
VERTEX2 155 -1.56654021 0.53923699 -0.02272033
VERTEX2 156 -0.94824841 0.52986447 0.00869837
VERTEX2 157 -0.39575250 0.51745668 -0.05472391
VERTEX2 158 -0.20059067 0.50627273 -0.02718952
VERTEX2 159 -0.19260500 0.50383907 0.96029292
VERTEX2 160 -0.19086189 0.50681287 1.99647670
VERTEX2 161 -0.20824133 0.45879958 2.72669433
VERTEX2 162 -0.19041059 0.46319581 -2.52201128
VERTEX2 163 -0.19309865 0.44859027 -1.52950123
VERTEX2 164 -0.26043199 0.53024250 -0.46988607
VERTEX2 165 -0.10535842 0.51620796 -0.06202746
VERTEX2 166 0.57332663 0.47966413 -0.06023416
VERTEX2 167 1.18054396 0.43400214 -0.08927961
VERTEX2 168 1.75927807 0.38944868 -0.07687622
VERTEX2 169 2.35242121 0.32271309 -0.11371626
VERTEX2 170 2.92951681 0.25951391 -0.13389112
VERTEX2 171 3.47937298 0.16761979 -0.17200313
VERTEX2 172 4.09280892 0.06703556 -0.15767127
VERTEX2 173 4.71761686 -0.04559507 -0.17981462
VERTEX2 174 5.33868418 -0.15147522 -0.13897514
VERTEX2 175 5.94989836 -0.23309341 -0.16329576
VERTEX2 176 6.54457772 -0.34443153 -0.15331692
VERTEX2 177 7.16305461 -0.43795289 -0.18059901
VERTEX2 178 7.77471928 -0.57244017 -0.21995049
VERTEX2 179 8.17644124 -0.65032651 -0.16644817
VERTEX2 180 8.22398871 -0.66244156 -0.60817429
VERTEX2 181 8.66607273 -0.97274994 -0.65980680
VERTEX2 182 9.07470456 -1.32491387 -0.83364928
VERTEX2 183 9.42494518 -1.73789276 -0.89085714
VERTEX2 184 9.72968853 -2.18553920 -1.03576554
VERTEX2 185 9.98689512 -2.65469720 -1.12679689
VERTEX2 186 10.18894414 -3.15562281 -1.19160617
VERTEX2 187 10.36539211 -3.62447098 -1.21205707
VERTEX2 188 10.55002695 -4.11291433 -1.21532112
VERTEX2 189 10.72936102 -4.60491372 -1.23971954
VERTEX2 190 10.90510974 -5.13676806 -1.26871794
VERTEX2 191 11.09472602 -5.74485505 -1.29280278
VERTEX2 192 11.26502907 -6.34695989 -1.32116612
VERTEX2 193 11.40312019 -6.90137761 -1.37689048
VERTEX2 194 11.51759468 -7.47747067 -1.40365980
VERTEX2 195 11.61214949 -8.04948331 -1.43228173
VERTEX2 196 11.69318240 -8.67916160 -1.47278871
VERTEX2 197 11.74535264 -9.30603268 -1.49998361
VERTEX2 198 11.78442834 -9.92270377 -1.55793141
VERTEX2 199 11.77021755 -10.53092505 -1.61909110
VERTEX2 200 11.73779541 -11.11855109 -1.64145666
VERTEX2 201 11.68188580 -11.70373162 -1.69859070
VERTEX2 202 11.63016176 -12.20218581 -1.67824864
VERTEX2 203 11.54570655 -12.93036971 -1.73077820
VERTEX2 204 11.43855625 -13.50147237 -1.83263693
VERTEX2 205 11.28403367 -14.06004569 -1.84193408
VERTEX2 206 11.14429954 -14.60314007 -1.83985926
VERTEX2 207 10.99889722 -15.16829712 -1.82394577
VERTEX2 208 10.84060565 -15.76641982 -1.83339767
VERTEX2 209 10.69350033 -16.36558436 -1.79519729
VERTEX2 210 10.54504599 -16.95719597 -1.80434160
VERTEX2 211 10.41075509 -17.55252532 -1.80208193
VERTEX2 212 10.24888636 -18.13797851 -1.85494563
VERTEX2 213 10.06864020 -18.72753028 -1.87574347
VERTEX2 214 9.88330862 -19.30359497 -1.87957983
VERTEX2 215 9.77704864 -19.62390148 -1.91541056
VERTEX2 216 9.79114562 -19.59847895 -2.41414519
VERTEX2 217 9.82122480 -19.59456883 -2.95640317
VERTEX2 218 9.83272251 -19.59868590 -3.01247341
VERTEX2 219 9.26929683 -19.56736642 3.10217064
VERTEX2 220 8.66317353 -19.53688184 3.06228631
VERTEX2 221 8.03154176 -19.48477508 3.11276942
VERTEX2 222 7.41453427 -19.45589830 3.08725681
VERTEX2 223 6.79764122 -19.44014966 -3.09951221
VERTEX2 224 6.19406146 -19.45378422 -3.12518964
VERTEX2 225 5.58264845 -19.46140957 -3.07550811
VERTEX2 226 4.96430656 -19.46882804 -3.12450243
VERTEX2 227 4.33019564 -19.55191327 -2.96741702
VERTEX2 228 3.81171240 -19.54939312 2.95387043
VERTEX2 229 3.36457922 -19.52171150 3.07434710
VERTEX2 230 3.07208404 -19.51245578 3.04555953
VERTEX2 231 3.28465593 -19.52610617 3.11538257
VERTEX2 232 2.96166808 -19.38926042 2.69006293
VERTEX2 233 2.38261764 -19.13633942 2.79271937
VERTEX2 234 1.80624500 -18.92357843 2.74849586
VERTEX2 235 1.55801724 -18.82292670 2.74348846
VERTEX2 236 1.24000198 -18.83135546 -3.13443778
VERTEX2 237 0.61665986 -18.86031095 -3.06420976
VERTEX2 238 0.00187677 -18.92229988 -3.09708483
VERTEX2 239 -0.61046598 -18.93303663 3.11833147
VERTEX2 240 -1.15798145 -18.83305648 2.89892890
VERTEX2 241 -1.68140700 -18.71773338 2.98343913
VERTEX2 242 -2.24498374 -18.66527395 3.02265117
VERTEX2 243 -2.83602073 -18.59532561 3.02178249
VERTEX2 244 -3.45069057 -18.56235017 3.09286802
VERTEX2 245 -4.05648922 -18.52599266 3.03846905
VERTEX2 246 -4.65027398 -18.45268360 2.96595530
VERTEX2 247 -5.24567927 -18.38300841 3.07176071
VERTEX2 248 -5.78683403 -18.37210492 3.10212984
VERTEX2 249 -5.73791837 -18.37859189 -2.98777233
VERTEX2 250 -5.73303588 -18.37836111 2.70997229
VERTEX2 251 -6.06403635 -18.04225108 2.28739964
VERTEX2 252 -6.42575280 -17.63242962 2.29568440
VERTEX2 253 -6.80406139 -17.19718817 2.28445746
VERTEX2 254 -7.17607677 -16.74952959 2.24300872
VERTEX2 255 -7.24956604 -16.65989312 2.32682905
VERTEX2 256 -7.25389310 -16.58535221 1.85053129
VERTEX2 257 -7.31870963 -16.10996310 1.71696651
VERTEX2 258 -7.41280476 -15.53205574 1.79595556
VERTEX2 259 -7.56937916 -14.93117711 1.83562428
VERTEX2 260 -7.71465384 -14.37415544 1.82629181
VERTEX2 261 -7.71350215 -14.34714457 1.51252819
VERTEX2 262 -7.66283111 -13.70605176 1.51776756
VERTEX2 263 -7.63122606 -13.09786828 1.52968907
VERTEX2 264 -7.62526190 -12.50197398 1.62482521
VERTEX2 265 -7.66421982 -11.90487725 1.64323331
VERTEX2 266 -7.62331737 -11.33689973 1.51177076
VERTEX2 267 -7.57794686 -10.59754941 1.48219187
VERTEX2 268 -7.45055257 -10.00104409 1.37201963
VERTEX2 269 -7.33541796 -9.39386390 1.40190929
VERTEX2 270 -7.26759849 -8.77725910 1.51595855
VERTEX2 271 -7.17694761 -8.16189575 1.40553321
VERTEX2 272 -7.09639961 -7.54579005 1.47053435
VERTEX2 273 -7.10967681 -6.93008709 1.68277868
VERTEX2 274 -7.18080315 -6.32035187 1.70697806
VERTEX2 275 -7.17287533 -5.72106705 1.53576711
VERTEX2 276 -7.16999948 -5.12309787 1.65036396
VERTEX2 277 -7.21928387 -4.57506058 1.62441096
VERTEX2 278 -7.18124015 -3.95352626 1.53515471
VERTEX2 279 -7.14655379 -3.33260103 1.47999875
VERTEX2 280 -7.08437813 -2.71765683 1.48219064
VERTEX2 281 -7.00031874 -2.09883881 1.38172409
VERTEX2 282 -6.88778248 -1.48711408 1.42152854
VERTEX2 283 -6.80629577 -0.86112359 1.41395498
VERTEX2 284 -6.70032433 -0.24624728 1.44134568
VERTEX2 285 -6.63809175 0.39108874 1.46241833
VERTEX2 286 -6.57630527 1.00177831 1.51607661
VERTEX2 287 -6.57427848 1.04198343 1.41174796
VERTEX2 288 -6.57746276 1.03599486 0.80347083
VERTEX2 289 -6.58510154 1.03167937 0.21114834
VERTEX2 290 -6.14760086 1.02523342 -0.01333151
VERTEX2 291 -5.52773910 1.02069750 0.00086711
VERTEX2 292 -4.91793668 1.00263056 -0.05413778
VERTEX2 293 -4.30151778 0.95937939 -0.07720102
VERTEX2 294 -3.68808764 0.90913973 -0.07638369
VERTEX2 295 -3.07173660 0.83090327 -0.18853708
VERTEX2 296 -2.45520890 0.68788947 -0.23348965
VERTEX2 297 -1.84084726 0.53846258 -0.24479742
VERTEX2 298 -1.22588167 0.38530034 -0.24587871
VERTEX2 299 -0.65159588 0.23049809 -0.18483129
VERTEX2 300 -0.07107444 0.14722067 -0.14264747
VERTEX2 301 0.48653407 0.04999161 -0.20167539
VERTEX2 302 0.78048753 -0.01195243 -0.22221624
VERTEX2 303 0.75517738 -0.00819861 -0.21772996
VERTEX2 304 1.24867154 -0.12015502 -0.20771977
VERTEX2 305 1.84913949 -0.16131932 -0.02304987
VERTEX2 306 2.47097587 -0.16678106 -0.04106664
VERTEX2 307 3.10285198 -0.20893541 -0.07772247
VERTEX2 308 3.72330876 -0.26602258 -0.13326870
VERTEX2 309 4.34963409 -0.32026621 -0.04058581
VERTEX2 310 4.97162420 -0.34496225 -0.07657958
VERTEX2 311 5.24699209 -0.36814784 0.09833756
VERTEX2 312 5.24206353 -0.37083306 1.08719528
VERTEX2 313 5.24433091 -0.15710326 1.58376802
VERTEX2 314 5.21761924 0.46904056 1.62393332
VERTEX2 315 5.18122396 1.09638797 1.61941365
VERTEX2 316 5.13447806 1.73230871 1.67085065
VERTEX2 317 5.06667775 2.36458894 1.68089030
VERTEX2 318 4.96182053 2.99177767 1.77555017
VERTEX2 319 4.87841065 3.33600483 1.84652797
VERTEX2 320 4.88033507 3.34221666 2.81379281
VERTEX2 321 4.87457043 3.33964857 -2.43101184
VERTEX2 322 4.87546958 3.34146071 -1.43609536
VERTEX2 323 4.88844764 3.32918633 -0.44495990
VERTEX2 324 4.89787567 3.32618646 0.21401094
VERTEX2 325 4.90528237 3.32681723 -0.31442617
VERTEX2 326 4.91727338 3.31796649 -0.91027786
VERTEX2 327 4.91996482 3.30579485 -1.53431365
VERTEX2 328 4.90814734 2.67249338 -1.58114506
VERTEX2 329 4.89058145 2.03308139 -1.63830869
VERTEX2 330 4.84077659 1.42271735 -1.65891199
VERTEX2 331 4.78989936 0.81105372 -1.67477943
VERTEX2 332 4.71465244 0.20219131 -1.69487858
VERTEX2 333 4.69497012 0.05606819 -1.63146448
VERTEX2 334 4.72124405 0.06195385 -0.82968098
VERTEX2 335 4.72625294 0.06062890 0.16031071
VERTEX2 336 4.72899984 0.06166451 1.10054549
VERTEX2 337 4.73365812 0.09313308 2.07856652
VERTEX2 338 4.72716462 0.09755093 3.06802261
VERTEX2 339 4.72803307 0.09807569 -2.16527044
VERTEX2 340 4.72921175 0.09132380 -1.14551823
VERTEX2 341 4.83891912 0.02677838 -0.51179036
VERTEX2 342 5.41338652 -0.27068631 -0.40934579
VERTEX2 343 5.95125070 -0.45819220 -0.27465548
VERTEX2 344 6.49386054 -0.62546457 -0.28117098
VERTEX2 345 6.68317515 -0.67895390 -0.30488484
VERTEX2 346 6.61160161 -0.65755680 -0.94095186
VERTEX2 347 6.62856984 -0.92888212 -1.48605551
VERTEX2 348 6.67647300 -1.59911501 -1.50440520
VERTEX2 349 6.70124044 -2.30059612 -1.54628160
VERTEX2 350 6.71861937 -3.17271461 -1.56705688
VERTEX2 351 6.71303425 -3.52641101 -1.59722623
VERTEX2 352 6.69567582 -3.62556557 -1.88701592
VERTEX2 353 6.63625017 -3.70303642 -2.55493093
VERTEX2 354 6.58896900 -3.71783759 3.12265053
VERTEX2 355 6.56721124 -3.71972209 2.39795606
VERTEX2 356 6.59278369 -3.76350670 1.81915504
VERTEX2 357 6.58206449 -3.83092123 1.16198209
VERTEX2 358 6.53565404 -3.89699165 0.54123091
VERTEX2 359 5.71749291 -4.20552775 -0.14988804
VERTEX2 360 5.70740687 -4.20264902 -0.32450047
VERTEX2 361 5.73431406 -4.19801453 0.59939742
VERTEX2 362 5.86944036 -3.90614679 1.13605898
VERTEX2 363 6.02560014 -3.57936630 1.13078832
VERTEX2 364 5.97530028 -3.17021025 1.74859174
VERTEX2 365 5.93539271 -2.80860389 1.25429005
VERTEX2 366 6.84389017 -1.85165190 0.79283931
VERTEX2 367 7.32834315 -1.36499722 0.79635255
VERTEX2 368 7.77916345 -0.92239586 0.74856722
VERTEX2 369 7.79893156 -0.89785624 0.49697845
VERTEX2 370 7.82358912 -0.89356052 -0.08849140
VERTEX2 371 7.82723233 -0.89540079 -0.63400163
VERTEX2 372 8.25798179 -1.23494333 -0.66170111
VERTEX2 373 8.73277966 -1.59029150 -0.65976234
VERTEX2 374 9.21442393 -1.98352322 -0.72097626
VERTEX2 375 9.57620098 -2.29622237 -0.75154368
VERTEX2 376 9.58453928 -2.30114858 -0.05865876
VERTEX2 377 9.64064761 -2.25996849 0.63450685
VERTEX2 378 10.17592490 -1.84932054 0.68739654
VERTEX2 379 10.65480068 -1.40632698 0.77083449
VERTEX2 380 11.08496239 -0.93644566 0.88884963
VERTEX2 381 11.22575775 -0.75762111 1.03736587
VERTEX2 382 11.22464789 -0.75961415 2.08269004
VERTEX2 383 11.22402228 -0.75925764 3.06988591
VERTEX2 384 11.22031276 -0.76288978 -2.24923976
VERTEX2 385 11.21418575 -0.77357882 -1.21879436
VERTEX2 386 11.32216921 -0.90939946 -0.99373205
VERTEX2 387 11.78614891 -1.32566415 -0.66181134
VERTEX2 388 12.26885475 -1.68547260 -0.65306940
VERTEX2 389 12.73280444 -2.06997603 -0.73461254
VERTEX2 390 12.76562007 -2.09848234 -0.25820508
VERTEX2 391 12.60343642 -2.09607023 0.12280105
VERTEX2 392 12.57695659 -2.09742862 1.16617863
VERTEX2 393 12.64515147 -1.56414179 2.06983148
VERTEX2 394 12.61738139 -1.54209001 3.06395840
VERTEX2 395 12.84261752 -1.49381418 -2.88230385
VERTEX2 396 12.82910816 -1.49691829 -2.88267479
VERTEX2 397 12.80962276 -1.49608331 -2.89396548
VERTEX2 398 12.79502664 -1.50280270 -2.69700576
VERTEX2 399 12.69377273 -1.58729459 -2.39856244
VERTEX2 400 12.20790854 -2.03781449 -2.34861726
VERTEX2 401 11.76052481 -2.45804705 -2.43992510
VERTEX2 402 11.22450691 -2.76162953 -2.70564874
VERTEX2 403 10.67135472 -3.01400050 -2.73886289
VERTEX2 404 10.13314977 -3.22562837 -2.81692277
VERTEX2 405 10.14228129 -3.22081036 -2.28259995
VERTEX2 406 10.14501774 -3.19946341 -1.30357309
VERTEX2 407 10.27610554 -3.52564515 -1.17539104
VERTEX2 408 10.50359925 -4.08651913 -1.21347377
VERTEX2 409 10.59605874 -4.35687359 -1.31323277
VERTEX2 410 10.59592451 -4.34527245 -1.94146774
VERTEX2 411 10.60760310 -4.32221128 -2.53239629
VERTEX2 412 10.11703050 -4.54354641 -2.73631054
VERTEX2 413 9.54345532 -4.76675253 -2.81663716
VERTEX2 414 8.95932850 -4.98182397 -2.71350649
VERTEX2 415 8.35744620 -5.24983378 -2.70404801
VERTEX2 416 8.06765859 -5.39518822 -2.75661187
VERTEX2 417 7.76784813 -5.39324300 3.10513234
VERTEX2 418 7.32426894 -5.37187011 3.06115612
VERTEX2 419 7.32524151 -5.37160655 -2.78878411
VERTEX2 420 7.38866372 -5.33935918 -2.57194149
VERTEX2 421 7.39979071 -5.31933525 -1.60245059
VERTEX2 422 7.39903274 -5.32051485 -0.36470513
VERTEX2 423 7.39698974 -5.32041782 -0.01963278
VERTEX2 424 7.38965121 -5.32050403 -0.01941351
VERTEX2 425 7.37939355 -5.32692249 -0.00783987
VERTEX2 426 7.36821794 -5.32689762 -0.01730310
VERTEX2 427 7.39873832 -5.32714547 -0.01502131
VERTEX2 428 8.05953620 -5.31940837 -0.02145930
VERTEX2 429 8.70301522 -5.34128509 -0.06335205
VERTEX2 430 9.04162608 -5.36796100 -0.11011584
VERTEX2 431 9.01704810 -5.36596145 -0.05874817
VERTEX2 432 9.02878109 -5.36961690 -0.69210810
VERTEX2 433 9.03211510 -5.37388942 -1.37114944
VERTEX2 434 9.01259097 -5.90574112 -1.60027688
VERTEX2 435 8.99971817 -6.54312509 -1.62925304
VERTEX2 436 8.94086043 -7.18162288 -1.63894911
VERTEX2 437 8.90694348 -7.82971265 -1.63194628
VERTEX2 438 8.86601872 -8.31158066 -1.66215494
VERTEX2 439 8.86144199 -8.33073413 -2.09742396
VERTEX2 440 8.85865086 -8.33313694 -2.73960961
VERTEX2 441 8.86812520 -8.33200053 2.92247364
VERTEX2 442 8.87316635 -8.33461908 2.29450665
VERTEX2 443 8.87319560 -8.33501230 1.72891399
VERTEX2 444 8.87662822 -8.31432506 1.13774380
VERTEX2 445 8.88792484 -8.30297635 0.47996331
VERTEX2 446 8.89414524 -8.29899666 0.68161414
VERTEX2 447 8.90842383 -8.26991140 1.31344159
VERTEX2 448 9.04849970 -7.64101613 1.33090588
VERTEX2 449 9.17126363 -6.99790695 1.43217709
VERTEX2 450 9.25513216 -6.35485770 1.44578261
VERTEX2 451 9.29981994 -5.88673473 1.48895688
VERTEX2 452 9.29967721 -5.88886683 1.11191832
VERTEX2 453 9.29555691 -5.89666036 0.49120214
VERTEX2 454 9.55693249 -5.87166120 0.07022196
VERTEX2 455 10.14559916 -5.83525454 0.04928956
VERTEX2 456 10.76791487 -5.81804816 -0.01572236
VERTEX2 457 11.11209127 -5.83307784 -0.10389312
VERTEX2 458 11.09648045 -5.82569873 -0.75083899
VERTEX2 459 11.08480009 -5.78171232 -1.36006368
VERTEX2 460 11.07095297 -6.17339140 -1.61764799
VERTEX2 461 11.01248190 -6.78449835 -1.70598303
VERTEX2 462 10.93405538 -7.28828054 -1.74626392
VERTEX2 463 10.94711356 -7.26171030 -0.90687034
VERTEX2 464 11.21240908 -7.33294980 -0.22562617
VERTEX2 465 11.80732173 -7.45746740 -0.21674183
VERTEX2 466 12.37253810 -7.60055939 -0.27112958
VERTEX2 467 12.95594406 -7.77360465 -0.31336120
VERTEX2 468 13.57464745 -7.97845317 -0.34869803
VERTEX2 469 14.17092221 -8.23085718 -0.43142377
VERTEX2 470 14.62863220 -8.43618911 -0.41234388
VERTEX2 471 14.63613130 -8.44004759 -0.61185836
VERTEX2 472 14.65397882 -8.46385210 -1.24358253
VERTEX2 473 14.65551013 -8.47062976 -1.88322352
VERTEX2 474 14.65480068 -8.47155117 -2.51362080
VERTEX2 475 14.65846214 -8.47097338 -3.08717384
VERTEX2 476 14.66197075 -8.47137570 2.54505136
VERTEX2 477 14.66657194 -8.47991801 1.98574473
VERTEX2 478 14.66747714 -8.48914698 1.35892718
VERTEX2 479 14.66695431 -8.49041267 0.90481477
VERTEX2 480 14.66768910 -8.48866241 1.46705552
VERTEX2 481 14.66361554 -8.47265696 2.46943277
VERTEX2 482 14.66883471 -8.47462141 2.80568675
VERTEX2 483 14.67682917 -8.47740740 2.80041748
VERTEX2 484 14.24878363 -8.32895003 2.83605176
VERTEX2 485 13.64712178 -8.15328532 2.83384845
VERTEX2 486 13.04220647 -7.95375846 2.84349219
VERTEX2 487 12.42939587 -7.78769168 2.87189229
VERTEX2 488 11.81423434 -7.61987051 2.90814038
VERTEX2 489 11.34159141 -7.52264093 2.93881535
VERTEX2 490 11.34494110 -7.52223805 -2.85873259
VERTEX2 491 11.35335887 -7.51059531 -1.92254550
VERTEX2 492 11.34185060 -7.74236063 -1.61949405
VERTEX2 493 11.29430110 -8.34674230 -1.67446916
VERTEX2 494 11.22189901 -8.95688246 -1.73516164
VERTEX2 495 11.16794150 -9.57751427 -1.62763536
VERTEX2 496 11.13942202 -10.19912345 -1.50958562
VERTEX2 497 11.14768277 -10.81975169 -1.59562541
VERTEX2 498 11.09416364 -11.44459644 -1.69745657
VERTEX2 499 10.98103676 -12.06137778 -1.71453364
VERTEX2 500 11.05146155 -12.61606634 -1.38587061
VERTEX2 501 11.13899744 -13.18834527 -1.45793162
VERTEX2 502 11.17915247 -13.87789475 -1.54237763
VERTEX2 503 11.18521261 -14.31970807 -1.55931261
VERTEX2 504 11.19176122 -14.29970265 -0.70232444
VERTEX2 505 11.42856114 -14.32093166 -0.08034498
VERTEX2 506 12.02069542 -14.38798679 -0.23285746
VERTEX2 507 12.60354218 -14.54299574 -0.31139128
VERTEX2 508 13.17509882 -14.73971827 -0.32465678
VERTEX2 509 13.78459713 -14.95300802 -0.38006395
VERTEX2 510 14.13015841 -15.09722349 -0.39349164
VERTEX2 511 14.12852850 -15.08452048 0.48320211
VERTEX2 512 14.14496504 -15.04720680 1.68320628
VERTEX2 513 14.14215166 -15.03965287 2.64019394
VERTEX2 514 14.06922625 -15.02156627 2.86689555
VERTEX2 515 13.44886046 -14.85874976 2.86825534
VERTEX2 516 12.85378392 -14.68208357 2.88439657
VERTEX2 517 12.25168244 -14.55192499 2.91282384
VERTEX2 518 11.65822500 -14.42048328 2.93685600
VERTEX2 519 11.14282789 -14.31526854 2.92076246
VERTEX2 520 10.99978269 -14.28276486 -2.96541352
VERTEX2 521 11.04236124 -14.23313928 -1.96642005
VERTEX2 522 10.98891644 -14.61966774 -1.70325224
VERTEX2 523 10.91361113 -15.23658584 -1.71057600
VERTEX2 524 10.82495073 -15.80724672 -1.75248089
VERTEX2 525 10.73542127 -16.34598186 -1.72884689
VERTEX2 526 10.63443231 -16.91153828 -1.78769822
VERTEX2 527 10.50257005 -17.48735968 -1.82258782
VERTEX2 528 10.33660778 -18.05055953 -1.89867953
VERTEX2 529 10.13988305 -18.65281911 -1.92708412
VERTEX2 530 9.90825777 -19.25312614 -1.95728077
VERTEX2 531 9.65379641 -19.82956454 -2.03723423
VERTEX2 532 9.56225521 -20.01318230 -1.98675216
VERTEX2 533 9.55619267 -19.98683927 -0.98866622
VERTEX2 534 9.53431391 -19.97303068 -0.32274259
VERTEX2 535 9.51224860 -19.96473033 -0.32346700
VERTEX2 536 9.85137581 -20.03717814 -0.19286696
VERTEX2 537 10.44158787 -20.16861665 -0.25100484
VERTEX2 538 10.99295325 -20.32333155 -0.27799691
VERTEX2 539 11.59309816 -20.51634261 -0.34264213
VERTEX2 540 12.18930526 -20.75963967 -0.43580959
VERTEX2 541 12.78546551 -20.97777612 -0.27383290
VERTEX2 542 13.42418612 -21.10852807 -0.21840505
VERTEX2 543 13.55162876 -21.13793393 -0.24832991
VERTEX2 544 13.58654264 -21.13372522 0.38830663
VERTEX2 545 13.61218564 -21.08509979 1.45388175
VERTEX2 546 13.63271142 -21.13589005 2.28051160
VERTEX2 547 13.65518718 -21.13393225 -2.98163542
VERTEX2 548 13.67353191 -21.12169851 -2.05852802
VERTEX2 549 13.67402644 -21.11817496 -1.25042126
VERTEX2 550 13.67306808 -21.10564332 -1.72937988
VERTEX2 551 13.67948157 -21.09198024 -2.35472745
VERTEX2 552 13.70034054 -21.08104277 -2.98617893
VERTEX2 553 13.57141280 -21.03490658 2.72064063
VERTEX2 554 12.98235060 -20.76833975 2.68554638
VERTEX2 555 12.40619337 -20.51075165 2.77481125
VERTEX2 556 11.81467443 -20.31219029 2.90908070
VERTEX2 557 11.21497456 -20.15567366 2.86764761
VERTEX2 558 10.63973847 -20.01228518 2.94844351
VERTEX2 559 10.65107688 -20.01584721 2.54107904
VERTEX2 560 10.64203036 -20.00714886 2.04061953
VERTEX2 561 10.62204853 -19.98858339 2.54628415
VERTEX2 562 10.44423136 -19.99257457 -3.09280306
VERTEX2 563 9.87358701 -19.92762701 2.99881150
VERTEX2 564 9.26808788 -19.85067941 3.04774651
VERTEX2 565 8.68422656 -19.79401275 2.99034980
VERTEX2 566 8.74233331 -19.81059483 -2.50892725
VERTEX2 567 8.64551391 -19.82005311 -1.71602525
VERTEX2 568 8.60600853 -20.33118837 -1.65247369
VERTEX2 569 8.56780976 -20.90804598 -1.69178408
VERTEX2 570 8.51227309 -21.49002632 -1.68715281
VERTEX2 571 8.46734811 -21.84942474 -1.73507630
VERTEX2 572 8.43837457 -21.87162033 -1.97858235
VERTEX2 573 8.40698974 -21.94717179 -1.70258286
VERTEX2 574 8.42787816 -21.97527551 -0.76426270
VERTEX2 575 8.57957604 -22.02096007 0.16340913
VERTEX2 576 8.57932720 -22.02077111 1.19006223
VERTEX2 577 8.57187435 -22.00250061 2.16120665
VERTEX2 578 8.56124209 -21.96959672 1.79658908
VERTEX2 579 8.42028992 -21.31982297 1.81138206
VERTEX2 580 8.24282071 -20.68326335 1.88627921
VERTEX2 581 8.03323421 -20.06354282 1.92843829
VERTEX2 582 7.79743403 -19.45616519 1.97163636
VERTEX2 583 7.66074834 -19.15259869 2.05107380
VERTEX2 584 7.65844250 -19.14836909 2.89477349
VERTEX2 585 7.07824117 -19.02384194 3.01312191
VERTEX2 586 6.48876341 -18.96438019 3.11073165
VERTEX2 587 5.87994068 -18.96863235 3.13626367
VERTEX2 588 5.26001341 -18.95844872 3.14083161
VERTEX2 589 4.72588008 -18.99569711 -3.06708364
VERTEX2 590 4.18132089 -19.05239618 -2.99843151
VERTEX2 591 3.64787127 -19.14341100 -3.00039348
VERTEX2 592 3.10532959 -19.23008031 -3.00318418
VERTEX2 593 2.93212100 -19.25600922 -2.79802648
VERTEX2 594 2.98019839 -19.20153490 -1.87740759
VERTEX2 595 2.88230961 -19.80871348 -1.64458676
VERTEX2 596 2.84516345 -20.43157967 -1.66773155
VERTEX2 597 2.76893395 -21.11591747 -1.70797830
VERTEX2 598 2.68096020 -21.71258370 -1.74977503
VERTEX2 599 2.60259167 -22.08797801 -1.81557473
VERTEX2 600 2.60304257 -22.10005767 -1.00780466
VERTEX2 601 2.64594466 -22.12499751 0.01010519
VERTEX2 602 2.68235120 -22.10926489 1.02324781
VERTEX2 603 2.64311681 -21.88089754 1.79523142
VERTEX2 604 2.56906377 -21.27531325 1.55086233
VERTEX2 605 2.56298872 -20.62143401 1.63377940
VERTEX2 606 2.50691593 -19.96911855 1.67617374
VERTEX2 607 2.50402959 -19.37528182 1.59569066
VERTEX2 608 2.48135995 -18.98596165 1.64068047
VERTEX2 609 2.47635202 -18.96039615 1.97784817
VERTEX2 610 2.46704588 -18.95729393 2.91229272
VERTEX2 611 1.86696000 -18.82268520 2.91580138
VERTEX2 612 1.39479053 -18.70207542 2.91896856
VERTEX2 613 1.43432499 -18.71296249 -2.89968593
VERTEX2 614 1.44381027 -18.70536305 -1.86160314
VERTEX2 615 1.46966721 -19.19293432 -1.55704807
VERTEX2 616 1.49309153 -19.81933681 -1.60828972
VERTEX2 617 1.37151076 -20.41702233 -1.82412087
VERTEX2 618 1.21824951 -21.02750936 -1.81378402
VERTEX2 619 1.07246152 -21.60331668 -1.81491296
VERTEX2 620 0.90441497 -22.18507527 -1.91074281
VERTEX2 621 1.02331612 -21.85033818 -1.96195698
VERTEX2 622 1.13971628 -21.58238015 -2.03693744
VERTEX2 623 1.14049803 -21.58126169 -2.57396199
VERTEX2 624 1.11761921 -21.58164621 3.06642517
VERTEX2 625 1.08312222 -21.56875736 2.40768446
VERTEX2 626 1.05974671 -21.54326684 1.78945184
VERTEX2 627 1.12266432 -21.17342672 1.37847433
VERTEX2 628 1.28592762 -20.54577951 1.27735363
VERTEX2 629 1.44232729 -19.91778488 1.34811745
VERTEX2 630 1.55335935 -19.31123226 1.43282272
VERTEX2 631 1.61308978 -18.78441043 1.45263649
VERTEX2 632 1.61484314 -18.77238382 2.12774431
VERTEX2 633 1.52375201 -18.76826231 -3.07066017
VERTEX2 634 0.86382497 -18.81934427 -3.04359397
VERTEX2 635 0.21777480 -18.84402723 3.10415959
VERTEX2 636 -0.41741910 -18.82936416 3.08624792
VERTEX2 637 -1.03973804 -18.76902127 2.98657012
VERTEX2 638 -1.42405820 -18.69865504 2.95684427
VERTEX2 639 -2.02122662 -18.61022389 3.03710065
VERTEX2 640 -2.62724667 -18.51525591 2.96888400
VERTEX2 641 -3.21871851 -18.41818569 2.96025903
VERTEX2 642 -3.78648032 -18.29466700 2.91460120
VERTEX2 643 -4.27132071 -18.16696139 2.84654547
VERTEX2 644 -4.27014925 -18.16671750 -2.68166500
VERTEX2 645 -4.30586132 -18.31069015 -1.90164242
VERTEX2 646 -4.43072608 -18.92075650 -1.60692724
VERTEX2 647 -4.37575824 -19.55587713 -1.31793699
VERTEX2 648 -4.14313135 -20.17083997 -1.15153965
VERTEX2 649 -3.95996685 -20.76014514 -1.48899356
VERTEX2 650 -4.04780496 -21.38416930 -1.74623051
VERTEX2 651 -4.06184279 -21.52365552 -0.94654369
VERTEX2 652 -4.00120396 -21.54951723 0.07883505
VERTEX2 653 -3.95990198 -21.51092116 1.10912774
VERTEX2 654 -3.97442803 -21.22054731 1.62219034
VERTEX2 655 -3.99536422 -20.67344262 1.61713378
VERTEX2 656 -4.00609944 -20.07745126 1.60444549
VERTEX2 657 -4.12374622 -19.47373347 1.88097191
VERTEX2 658 -4.32338864 -18.86674931 1.87378916
VERTEX2 659 -4.44591077 -18.38128508 1.80264042
VERTEX2 660 -4.44931681 -18.36581563 2.40242408
VERTEX2 661 -4.62182931 -18.35007419 3.05589536
VERTEX2 662 -5.20997337 -18.30230781 3.12552034
VERTEX2 663 -5.79201863 -18.32762107 -3.05644327
VERTEX2 664 -5.79529935 -18.32687900 -2.53353711
VERTEX2 665 -5.80921229 -18.42846527 -1.69481811
VERTEX2 666 -5.86644866 -19.04264501 -1.65694933
VERTEX2 667 -5.90963342 -19.61452813 -1.65167083
VERTEX2 668 -5.95814055 -20.21400490 -1.62522892
VERTEX2 669 -5.98981330 -20.83925495 -1.65016117
VERTEX2 670 -6.07276168 -21.46057051 -1.70966523
VERTEX2 671 -6.11271363 -21.75550663 -1.65472616
VERTEX2 672 -6.02586908 -21.17354430 -1.74384956
VERTEX2 673 -5.96600599 -20.90232651 -1.87429308
VERTEX2 674 -5.95064675 -20.88523110 -2.52218014
VERTEX2 675 -5.92941561 -20.88015811 -3.13198199
VERTEX2 676 -5.92415636 -20.88306438 2.52666206
VERTEX2 677 -5.91949769 -20.88917818 1.90963006
VERTEX2 678 -5.89667461 -20.66786201 1.46275031
VERTEX2 679 -5.84545112 -20.08886457 1.52484226
VERTEX2 680 -5.88253594 -19.64231042 1.86891519
VERTEX2 681 -6.04803634 -19.05002361 1.84104210
VERTEX2 682 -6.23384355 -18.44354957 1.88833023
VERTEX2 683 -6.33315805 -18.15896313 2.04700550
VERTEX2 684 -6.29196119 -18.19950467 3.12369369
VERTEX2 685 -6.68155991 -18.36185783 -2.71689417
VERTEX2 686 -7.11606715 -18.50165974 -2.86174373
VERTEX2 687 -7.69847341 -18.65825157 -2.89717999
VERTEX2 688 -8.28581941 -18.78461368 -2.90907404
VERTEX2 689 -8.83877808 -18.92885753 -2.88149193
VERTEX2 690 -9.36223594 -19.10184626 -2.80736887
VERTEX2 691 -9.74520822 -19.23519229 -2.83541468
VERTEX2 692 -9.71753839 -19.22241184 -2.30133877
VERTEX2 693 -9.69644351 -19.28586006 -1.26133857
VERTEX2 694 -9.67162328 -19.35678655 -0.42600987
VERTEX2 695 -9.64155259 -19.34779535 0.37389314
VERTEX2 696 -9.62565296 -19.33702616 1.39924281
VERTEX2 697 -9.63478411 -19.36854938 1.14660587
VERTEX2 698 -9.30040614 -19.15046902 0.49244318
VERTEX2 699 -8.74858254 -18.83350096 0.60731694
VERTEX2 700 -8.24992656 -18.47060114 0.66162266
VERTEX2 701 -7.83617492 -18.11328980 0.72161026
VERTEX2 702 -7.38299692 -17.80425140 0.60725330
VERTEX2 703 -6.90288291 -17.47684872 0.64218179
VERTEX2 704 -6.44115178 -17.10576668 0.66100439
VERTEX2 705 -5.93642738 -16.67555408 0.73109641
VERTEX2 706 -5.51287394 -16.35043050 0.46210487
VERTEX2 707 -5.48729466 -16.34859222 -0.05814520
VERTEX2 708 -5.47628421 -16.35469513 -0.69639106
VERTEX2 709 -5.51547518 -16.31398839 -1.02836248
VERTEX2 710 -5.51876255 -16.30586023 -1.58929385
VERTEX2 711 -5.50770639 -16.31547667 -2.18581893
VERTEX2 712 -5.49045761 -16.30174452 -2.74610208
VERTEX2 713 -5.96391753 -16.36134088 -3.03138132
VERTEX2 714 -6.52000619 -16.34659539 3.05448942
VERTEX2 715 -7.14180696 -16.32294221 -3.12594539
VERTEX2 716 -7.77313634 -16.31372517 3.01835666
VERTEX2 717 -8.39032286 -16.25826275 3.10224383
VERTEX2 718 -9.14788748 -16.15486663 2.92571168
VERTEX2 719 -9.75914392 -16.05141701 2.99912535
VERTEX2 720 -10.37019273 -15.94924511 2.93908843
VERTEX2 721 -10.98950020 -15.84158619 3.00750921
VERTEX2 722 -11.00624281 -15.83942891 3.07441031
VERTEX2 723 -11.02680369 -15.86123468 -2.11799233
VERTEX2 724 -11.02625197 -15.90590547 -1.04777268
VERTEX2 725 -11.00180045 -15.92177710 -0.41260395
VERTEX2 726 -10.68146452 -15.91269387 0.04222135
VERTEX2 727 -10.04975827 -15.86433740 0.07327711
VERTEX2 728 -9.41298254 -15.82990836 0.07491763
VERTEX2 729 -8.77954470 -15.75926411 0.13285362
VERTEX2 730 -8.16142322 -15.65705557 0.17065119
VERTEX2 731 -7.50927201 -15.54593712 0.18286916
VERTEX2 732 -7.36374817 -15.51399720 0.62952206
VERTEX2 733 -7.36296686 -15.51522904 1.62470647
VERTEX2 734 -7.43073702 -14.96409228 1.70254346
VERTEX2 735 -7.50136474 -14.36665856 1.67025032
VERTEX2 736 -7.50196222 -14.35955688 2.26915246
VERTEX2 737 -7.49889054 -14.35992687 3.06909588
VERTEX2 738 -8.08176791 -14.32828591 3.08789519
VERTEX2 739 -8.68904042 -14.24221718 3.02996698
VERTEX2 740 -9.19567578 -14.20938806 3.09291167
VERTEX2 741 -9.17914542 -14.20897244 2.72353008
VERTEX2 742 -9.17950036 -14.20875480 2.06996660
VERTEX2 743 -9.18060340 -14.20417050 1.45241535
VERTEX2 744 -9.17324839 -14.18674398 0.91238250
VERTEX2 745 -9.15786240 -14.17847084 0.31817637
VERTEX2 746 -8.61791706 -14.19077496 -0.15728346
VERTEX2 747 -7.97367138 -14.29831882 -0.19280213
VERTEX2 748 -7.39931360 -14.43440804 -0.26146913
VERTEX2 749 -7.31970403 -14.45340624 0.16714085
VERTEX2 750 -7.31666323 -14.44765459 1.09347510
VERTEX2 751 -7.35286682 -14.18199375 1.73315865
VERTEX2 752 -7.41729162 -13.55601514 1.62947270
VERTEX2 753 -7.46142376 -12.91472357 1.69229199
VERTEX2 754 -7.47540186 -12.27011479 1.52975921
VERTEX2 755 -7.46304587 -11.63727595 1.61686164
VERTEX2 756 -7.43250475 -11.00246945 1.44153996
VERTEX2 757 -7.36646119 -10.36480555 1.55327414
VERTEX2 758 -7.39398413 -9.78952323 1.69500896
VERTEX2 759 -7.39044257 -9.24762172 1.57345309
VERTEX2 760 -7.43313068 -8.65500453 1.68437146
VERTEX2 761 -7.43471249 -8.63547404 1.86422813
VERTEX2 762 -7.51118273 -8.60202801 2.70072020
VERTEX2 763 -8.08450986 -8.50447163 2.99394230
VERTEX2 764 -8.50705667 -8.43655242 2.96657565
VERTEX2 765 -8.50202931 -8.43640012 -2.67637601
VERTEX2 766 -8.50325761 -8.44052843 -1.67485130
VERTEX2 767 -8.50005480 -8.44836169 -0.74287340
VERTEX2 768 -8.47886693 -8.44938067 -0.01962215
VERTEX2 769 -7.84952898 -8.35198061 0.13765837
VERTEX2 770 -7.19926966 -8.28404835 0.07021778
VERTEX2 771 -7.11232854 -8.27557414 0.63004107
VERTEX2 772 -7.11272876 -8.27691616 1.49664549
VERTEX2 773 -7.09621466 -7.71085576 1.58214124
VERTEX2 774 -7.11456854 -7.17667617 1.60396684
VERTEX2 775 -7.11081751 -7.19218528 2.44796684
VERTEX2 776 -7.31324196 -7.16967289 3.06473732
VERTEX2 777 -7.91982322 -7.13409726 3.12350152
VERTEX2 778 -8.52562276 -7.12915882 3.10229724
VERTEX2 779 -9.13506195 -7.11277113 3.12024014
VERTEX2 780 -9.33735953 -7.09688608 2.98982032
VERTEX2 781 -9.33095481 -7.09912901 2.41602042
VERTEX2 782 -9.46207494 -6.82345747 1.98616798
VERTEX2 783 -9.70218002 -6.24642058 1.98545391
VERTEX2 784 -9.80297576 -6.01960505 1.96388826
VERTEX2 785 -9.80411885 -5.99194267 1.41135728
VERTEX2 786 -9.79514818 -5.96192483 0.82244393
VERTEX2 787 -9.77385930 -5.93995780 0.33125920
VERTEX2 788 -9.74185238 -5.94202311 -0.29849809
VERTEX2 789 -9.72946098 -5.95169224 -0.85104132
VERTEX2 790 -9.42320981 -6.34473081 -0.91837967
VERTEX2 791 -9.01648936 -6.82700363 -0.81986433
VERTEX2 792 -8.77077955 -7.04532633 -0.11651756
VERTEX2 793 -8.15857782 -7.09768223 -0.07170560
VERTEX2 794 -7.52366715 -7.12659141 -0.00013946
VERTEX2 795 -7.55376725 -7.14877359 0.42992538
VERTEX2 796 -7.56689902 -7.15414576 1.09026632
VERTEX2 797 -7.49551840 -6.85422212 1.35161931
VERTEX2 798 -7.36486184 -6.23651558 1.40250263
VERTEX2 799 -7.28194230 -5.59989027 1.46894140
VERTEX2 800 -7.23199701 -4.96057115 1.54251306
VERTEX2 801 -7.24625066 -4.33603330 1.62857696
VERTEX2 802 -7.30302029 -3.71745246 1.68636876
VERTEX2 803 -7.28933933 -3.09653998 1.52176536
VERTEX2 804 -7.27279093 -2.47688544 1.57768347
VERTEX2 805 -7.30910247 -1.85342123 1.65394372
VERTEX2 806 -7.37154921 -1.26397213 1.69520514
VERTEX2 807 -7.39833857 -1.08829135 1.98301730
VERTEX2 808 -7.39468257 -1.08842256 2.93056718
VERTEX2 809 -7.97820351 -1.06205570 3.07499170
VERTEX2 810 -8.58820391 -0.94228515 2.93448393
VERTEX2 811 -9.18861480 -0.83211783 2.93101037
VERTEX2 812 -9.19209400 -0.83143938 -2.62105809
VERTEX2 813 -9.20274234 -0.85528099 -1.64666181
VERTEX2 814 -9.19656875 -0.86015864 -0.65536637
VERTEX2 815 -9.17895362 -0.86606373 0.26366836
VERTEX2 816 -9.17469323 -0.86371566 0.94478938
VERTEX2 817 -9.16312359 -0.85643809 0.27750337
VERTEX2 818 -8.94570748 -0.88926924 -0.21024726
VERTEX2 819 -8.35946363 -1.01424512 -0.19562715
VERTEX2 820 -7.77074332 -1.14297261 -0.23635450
VERTEX2 821 -7.22952064 -1.27056024 -0.22008784
VERTEX2 822 -7.19318523 -1.27590540 0.54309646
VERTEX2 823 -7.19359276 -1.27874365 1.46416979
VERTEX2 824 -7.13647347 -0.67409504 1.38517191
VERTEX2 825 -7.00151233 -0.06794823 1.35597712
VERTEX2 826 -6.95122142 0.54644277 1.51949541
VERTEX2 827 -6.89349205 1.16029566 1.47154716
VERTEX2 828 -6.84651801 1.77380915 1.50753085
VERTEX2 829 -6.79314465 2.36179179 1.46880161
VERTEX2 830 -6.72680725 2.95539925 1.46144499
VERTEX2 831 -6.64156320 3.52051216 1.41564942
VERTEX2 832 -6.56060815 4.07131785 1.41301409
VERTEX2 833 -6.52228645 4.31401413 1.55187909
VERTEX2 834 -6.52019335 4.30701341 2.61052462
VERTEX2 835 -6.52873458 4.30782890 -2.89202401
VERTEX2 836 -6.53837148 4.29931150 -1.94720087
VERTEX2 837 -6.53559576 4.28606353 -0.91241437
VERTEX2 838 -6.52580038 4.28026857 -0.05159943
VERTEX2 839 -6.52988681 4.28212540 -0.27094721
VERTEX2 840 -6.52403880 4.27774695 -0.83540365
VERTEX2 841 -6.52126990 4.27249113 -1.45463095
VERTEX2 842 -6.54278171 4.03527453 -1.68667017
VERTEX2 843 -6.61200221 3.47912695 -1.68998637
VERTEX2 844 -6.67801649 2.86122546 -1.69878932
VERTEX2 845 -6.76284033 2.24343785 -1.71428992
VERTEX2 846 -6.84029738 1.62168006 -1.71330693
VERTEX2 847 -6.94192040 1.00724082 -1.74081735
VERTEX2 848 -6.97090191 0.80943709 -1.26081278
VERTEX2 849 -6.97394545 0.81054942 -0.33842770
VERTEX2 850 -6.62248284 0.81087569 0.01505446
VERTEX2 851 -5.99876189 0.79182438 -0.07739603
VERTEX2 852 -5.37802090 0.73758477 -0.06297968
VERTEX2 853 -4.78716233 0.70165745 -0.09088578
VERTEX2 854 -4.20344384 0.64053697 -0.08885191
VERTEX2 855 -3.61794255 0.59663708 -0.09101734
VERTEX2 856 -3.00644512 0.52343548 -0.12897148
VERTEX2 857 -2.39580924 0.44843793 -0.13596233
VERTEX2 858 -1.79082742 0.34457322 -0.18768691
VERTEX2 859 -1.31361294 0.25855527 -0.19201544
VERTEX2 860 -1.32126150 0.25517838 0.66859664
VERTEX2 861 -1.01535300 1.36731909 1.24256723
VERTEX2 862 -0.77949019 1.98577868 1.18544195
VERTEX2 863 -0.53203700 2.58310965 1.15517902
VERTEX2 864 -0.26642527 3.14189406 1.15546954
VERTEX2 865 -0.04443546 3.71911275 1.21567006
VERTEX2 866 0.14110253 4.18892422 1.21795848
VERTEX2 867 0.16852801 4.26583398 1.40396978
VERTEX2 868 0.18244732 4.23033847 2.44391985
VERTEX2 869 0.16962573 4.23356522 -2.84591108
VERTEX2 870 0.13743456 4.22565980 -1.83107913
VERTEX2 871 0.16317978 4.19727711 -0.84181446
VERTEX2 872 0.19297404 4.16325469 -0.14550163
VERTEX2 873 0.21749690 4.14864416 -0.70871869
VERTEX2 874 0.25169067 4.10161979 -1.25909931
VERTEX2 875 0.26630970 4.03053516 -1.83600314
VERTEX2 876 0.01318689 3.43827219 -1.98851988
VERTEX2 877 -0.27025041 2.86612244 -2.06874454
VERTEX2 878 -0.38764467 2.60987724 -1.67832930
VERTEX2 879 -0.40145795 1.89671275 -1.62297273
VERTEX2 880 -0.44930844 1.37894626 -1.73078244
VERTEX2 881 -0.45266933 1.35758165 -1.72142376
VERTEX2 882 -0.62828043 0.67219623 -1.96109256
VERTEX2 883 -0.96686202 0.05601222 -2.14553630
VERTEX2 884 -1.21198698 -0.30749770 -2.20748923
VERTEX2 885 -1.21733695 -0.36832516 -1.61429541
VERTEX2 886 -1.19217599 -0.39864433 -0.57632387
VERTEX2 887 -1.17623740 -0.40685883 0.45486516
VERTEX2 888 -1.20145252 -0.45019308 1.45832398
VERTEX2 889 -1.19069864 -0.48991662 2.37377271
VERTEX2 890 -1.50343237 -0.31854838 2.65400137
VERTEX2 891 -2.03372729 -0.02674895 2.58775032
VERTEX2 892 -2.55415701 0.31205954 2.55574024
VERTEX2 893 -3.10100136 0.62992597 2.79840523
VERTEX2 894 -3.73660726 0.76474677 3.02540930
VERTEX2 895 -4.37988177 0.72815331 -2.95300410
VERTEX2 896 -4.40058939 0.72367809 -2.46944223
VERTEX2 897 -4.68880983 0.31272525 -2.19329928
VERTEX2 898 -5.04024053 -0.18479847 -2.17684184
VERTEX2 899 -5.32526544 -0.58357603 -2.24361200
VERTEX2 900 -5.73700194 -1.11532066 -2.24523427
VERTEX2 901 -6.10078511 -1.54231501 -2.30842944
VERTEX2 902 -6.50880366 -2.01662498 -2.28216469
VERTEX2 903 -6.81370170 -2.37777457 -2.32515769
VERTEX2 904 -6.81031415 -2.37324351 -1.61852302
VERTEX2 905 -6.79646468 -2.85750260 -1.56208652
VERTEX2 906 -6.76198839 -3.41915036 -1.49540355
VERTEX2 907 -6.70545365 -3.98179820 -1.50280989
VERTEX2 908 -6.65800241 -4.60349289 -1.47778866
VERTEX2 909 -6.59688469 -5.21185085 -1.49496670
VERTEX2 910 -6.62153449 -5.32717961 -1.86353213
VERTEX2 911 -6.77521211 -5.88277326 -1.80195102
VERTEX2 912 -6.89379940 -6.43995067 -1.78893038
VERTEX2 913 -7.00334969 -6.97521849 -1.78058676
VERTEX2 914 -7.12648457 -7.55689384 -1.80380306
VERTEX2 915 -7.24540915 -8.05526119 -1.84038174
VERTEX2 916 -7.18194192 -8.29236538 -1.29256491
VERTEX2 917 -7.04155239 -8.93343492 -1.54682333
VERTEX2 918 -7.05899896 -9.44224205 -1.62225607
VERTEX2 919 -7.08910936 -10.05676935 -1.66549327
VERTEX2 920 -7.14907960 -10.65608430 -1.68277915
VERTEX2 921 -7.21747300 -11.25660426 -1.73580313
VERTEX2 922 -7.31413504 -11.84550246 -1.76271566
VERTEX2 923 -7.42777606 -12.39695164 -1.82585937
VERTEX2 924 -7.54548046 -12.85450765 -1.80745190
VERTEX2 925 -7.54744943 -12.84541257 -1.29894096
VERTEX2 926 -7.37867027 -13.40494530 -1.28126490
VERTEX2 927 -7.19979685 -13.99865703 -1.30294754
VERTEX2 928 -7.02912441 -14.60645149 -1.31049947
VERTEX2 929 -6.86438271 -15.21081846 -1.31022515
VERTEX2 930 -6.70807491 -15.83128193 -1.39288829
VERTEX2 931 -6.61226278 -16.44782693 -1.47320584
VERTEX2 932 -6.55609776 -17.06556463 -1.53273178
VERTEX2 933 -6.54257854 -17.67534697 -1.59794266
VERTEX2 934 -6.54945410 -18.15363149 -1.60829849
VERTEX2 935 -6.54748139 -18.16207201 -0.92841818
VERTEX2 936 -6.55482270 -18.15959355 0.01491633
VERTEX2 937 -6.01353631 -18.12762179 0.07734471
VERTEX2 938 -5.41907460 -18.13634590 -0.09667437
VERTEX2 939 -4.79950685 -18.18876855 -0.06989578
VERTEX2 940 -4.18760248 -18.25618016 -0.15425741
VERTEX2 941 -3.58317974 -18.36303112 -0.20669544
VERTEX2 942 -3.06599327 -18.47054610 -0.20118486
VERTEX2 943 -2.45774707 -18.59403360 -0.11179297
VERTEX2 944 -1.84976733 -18.66526834 -0.16734743
VERTEX2 945 -1.24198329 -18.78016990 -0.22171061
VERTEX2 946 -1.08378373 -18.81773834 -0.15664051
VERTEX2 947 -0.67848748 -18.74771377 0.17263550
VERTEX2 948 -0.11575292 -18.64896336 0.15398488
VERTEX2 949 0.48211922 -18.60311101 -0.00138780
VERTEX2 950 1.10566225 -18.62661288 -0.24068751
VERTEX2 951 1.69891858 -18.78430229 -0.31274330
VERTEX2 952 2.29467765 -18.94579270 -0.06205317
VERTEX2 953 2.91501887 -18.96495568 0.01851990
VERTEX2 954 3.54568296 -18.94631111 0.01149613
VERTEX2 955 4.14282458 -18.98195642 -0.14941007
VERTEX2 956 4.69044054 -19.04948735 -0.15184230
VERTEX2 957 5.21093708 -19.13298638 -0.23922473
VERTEX2 958 5.66349383 -19.23157737 -0.26562378
VERTEX2 959 6.07437346 -19.33363731 -0.33194510
VERTEX2 960 6.66173061 -19.48342858 -0.25176857
VERTEX2 961 7.24181714 -19.64443545 -0.27857788
VERTEX2 962 7.85676411 -19.75930089 -0.21272499
VERTEX2 963 8.47080577 -19.82660780 -0.02574898
VERTEX2 964 9.08876759 -19.85464751 -0.08944674
VERTEX2 965 9.70325218 -19.91989101 -0.09617179
VERTEX2 966 10.14031688 -19.96777538 -0.15507212
VERTEX2 967 10.16939523 -19.96118994 0.69887549
VERTEX2 968 10.17545443 -19.95518780 1.59616997
VERTEX2 969 10.17887858 -19.98645660 1.65555176
VERTEX2 970 10.18232827 -20.01798628 1.65374306
VERTEX2 971 10.15418720 -19.68895916 1.65379674
VERTEX2 972 10.10178371 -19.10715090 1.65932652
VERTEX2 973 10.16692612 -18.52703178 1.37416275
VERTEX2 974 10.29105898 -17.92581797 1.40585416
VERTEX2 975 10.38744461 -17.32121953 1.41032865
VERTEX2 976 10.47712757 -16.71414500 1.42308799
VERTEX2 977 10.59651305 -16.09413251 1.39654071
VERTEX2 978 10.70154792 -15.48001879 1.44214103
VERTEX2 979 10.80021666 -14.87664212 1.42997072
VERTEX2 980 10.88204115 -14.27650079 1.47693499
VERTEX2 981 10.95506440 -13.68701657 1.48381251
VERTEX2 982 10.99797198 -13.17724558 1.52892497
VERTEX2 983 11.03271102 -12.58246776 1.52561440
VERTEX2 984 11.04525915 -11.99079039 1.58306253
VERTEX2 985 11.04152773 -11.39863546 1.60341986
VERTEX2 986 11.01176065 -10.78578531 1.63959947
VERTEX2 987 10.98438088 -10.17437887 1.60274814
VERTEX2 988 10.97181790 -9.55620527 1.61623150
VERTEX2 989 10.94331847 -8.94951540 1.62373285
VERTEX2 990 10.92273293 -8.34584467 1.61284085
VERTEX2 991 10.89382080 -7.73906632 1.63759372
VERTEX2 992 10.87567472 -7.15983960 1.60496597
VERTEX2 993 10.84848489 -6.54863191 1.63749887
VERTEX2 994 10.81949634 -5.96833425 1.62739190
VERTEX2 995 10.77873787 -5.43039351 1.67448473
VERTEX2 996 10.71237566 -4.87806456 1.70142782
VERTEX2 997 10.65860674 -4.28673388 1.63680872
VERTEX2 998 10.63403487 -3.93684602 1.65847324
VERTEX2 999 10.69884564 -3.98705298 2.37569947
VERTEX2 1000 10.26435559 -3.66524408 2.52393220
VERTEX2 1001 9.86075837 -3.31430138 2.20175632
VERTEX2 1002 9.52420318 -2.89975575 2.29351305
VERTEX2 1003 9.20257693 -2.45965136 2.11274827
VERTEX2 1004 8.85809523 -1.93294891 2.17085177
VERTEX2 1005 8.50041871 -1.44951004 2.23321019
VERTEX2 1006 8.10201915 -0.98363029 2.31058034
VERTEX2 1007 7.68888332 -0.57064721 2.40230501
VERTEX2 1008 7.45046030 -0.36059527 2.56119534
VERTEX2 1009 7.35497726 -0.34771414 3.03280949
VERTEX2 1010 6.79191022 -0.30037693 3.08495199
VERTEX2 1011 6.17893582 -0.27006635 3.04202849
VERTEX2 1012 5.57113479 -0.21534112 3.08343037
VERTEX2 1013 4.93963787 -0.22613288 -3.08530019
VERTEX2 1014 4.33447871 -0.18631457 3.02187120
VERTEX2 1015 3.72060147 -0.15542925 3.10510611
VERTEX2 1016 2.96242132 -0.12695349 3.11080809
VERTEX2 1017 2.37555624 -0.12084134 3.05255322
VERTEX2 1018 1.82153819 -0.06556343 3.05933071
VERTEX2 1019 1.23801398 -0.04750910 3.11884148
VERTEX2 1020 0.63446382 -0.01838396 3.10480329
VERTEX2 1021 0.02486246 0.00399963 3.06404862
VERTEX2 1022 -0.01623970 0.00703696 3.05667371
VERTEX2 1023 0.00228997 0.00683566 -3.13965852
VERTEX2 1024 -0.62219751 0.00904368 -3.11301781
VERTEX2 1025 -1.24936085 -0.02663482 -3.09535411
VERTEX2 1026 -1.41027548 -0.03353478 -3.08783519
VERTEX2 1027 -1.38924695 -0.02296532 -2.16997216
VERTEX2 1028 -1.40012865 -0.18242662 -1.60563459
VERTEX2 1029 -1.42191901 -0.74198276 -1.62682628
VERTEX2 1030 -1.48070551 -1.41897350 -1.70328099
VERTEX2 1031 -1.58836996 -2.11600116 -1.75389048
VERTEX2 1032 -1.71135127 -2.80567966 -1.74622425
VERTEX2 1033 -1.84545244 -3.49367743 -1.78769678
VERTEX2 1034 -1.89411615 -3.70323299 -1.99659496
VERTEX2 1035 -1.89835071 -3.70702755 -2.60748252
VERTEX2 1036 -1.79420461 -3.74964176 3.11308759
VERTEX2 1037 -2.06902250 -3.66066016 2.87962826
VERTEX2 1038 -2.62263331 -3.58289990 2.97452884
VERTEX2 1039 -3.20330673 -3.46629430 2.94612331
VERTEX2 1040 -3.12736646 -3.46325735 -2.69877739
VERTEX2 1041 -3.04238952 -3.46803659 -1.66869860
VERTEX2 1042 -3.03952123 -3.55923452 -0.66831018
VERTEX2 1043 -2.93393323 -3.63871682 0.31358214
VERTEX2 1044 -2.95471178 -3.66941100 1.31975547
VERTEX2 1045 -2.94411205 -3.63594290 1.20654653
VERTEX2 1046 -2.92626692 -3.60469100 0.82230387
VERTEX2 1047 -2.89230294 -3.58466709 0.26800164
VERTEX2 1048 -2.46755997 -3.61235389 -0.04400959
VERTEX2 1049 -1.75740296 -3.63091479 -0.02632934
VERTEX2 1050 -1.05301481 -3.61873017 0.04991374
VERTEX2 1051 -0.37418276 -3.60929491 -0.02190747
VERTEX2 1052 0.26832401 -3.60678778 0.03790872
VERTEX2 1053 0.70307106 -3.60271508 -0.00764748
VERTEX2 1054 0.73713562 -3.60097475 0.77833946
VERTEX2 1055 0.73741544 -3.58049208 1.87652083
VERTEX2 1056 0.76588139 -3.60772037 2.91632066
VERTEX2 1057 0.79819931 -3.60315377 -2.35746998
VERTEX2 1058 -3.34852311 -30.92122265 -0.85562009
VERTEX2 1059 -2.96904456 -31.39061823 -0.93456429
VERTEX2 1060 -2.57948226 -31.91982083 -0.92801033
VERTEX2 1061 -2.31544901 -32.29481580 -1.04755159
VERTEX2 1062 -2.30937193 -32.31653688 -1.60945429
VERTEX2 1063 5.89300219 -12.42150923 -2.59495024
VERTEX2 1064 5.60805309 -12.50363377 -2.85742876
VERTEX2 1065 5.04636660 -12.71240470 -2.73354925
VERTEX2 1066 4.50565297 -12.92729561 -2.78813840
VERTEX2 1067 4.49602023 -12.93290429 -2.35181399
VERTEX2 1068 4.49432558 -12.93616084 -1.67403260
VERTEX2 1069 1.83103083 -10.74628544 0.00226879
VERTEX2 1070 1.83904562 -10.74704558 -0.53247420
VERTEX2 1071 2.28217434 -11.08673796 -0.65738962
VERTEX2 1072 2.69570485 -11.41560714 -0.72395224
VERTEX2 1073 2.69407399 -11.41225124 -1.23087432
VERTEX2 1074 2.85241702 -11.93238117 -1.26360929
VERTEX2 1075 3.02768511 -12.49741496 -1.24551232
VERTEX2 1076 3.04689279 -12.55036035 -0.83318422
VERTEX2 1077 3.06992257 -12.55138033 -0.01310913
VERTEX2 1078 3.71435586 -12.49991969 0.03634803
VERTEX2 1079 4.31806575 -12.45931272 0.10306243
VERTEX2 1080 -4.88737211 -6.18444680 -1.79462808
VERTEX2 1081 -5.06688372 -6.67678954 -1.91194429
VERTEX2 1082 -5.13654038 -6.87855885 -1.62315510
VERTEX2 1083 -5.15144162 -6.86376253 -0.56514367
VERTEX2 1084 -4.55471571 -6.95145092 -0.28230697
VERTEX2 1085 -4.51932985 -6.94314090 0.70413504
VERTEX2 1086 -4.13825470 -6.44174103 0.93604842
VERTEX2 1087 -3.73798236 -5.92239829 0.92502838
VERTEX2 1088 -3.35789973 -5.39855811 0.90943865
VERTEX2 1089 -3.29228092 -5.31552520 0.81310002
VERTEX2 1090 13.31697141 -1.14026238 -0.76849067
VERTEX2 1091 13.62785910 -1.54783201 -0.95163134
VERTEX2 1092 13.96793683 -2.03435005 -0.97135848
VERTEX2 1093 14.26386700 -2.49045967 -1.04143550
VERTEX2 1094 14.26169366 -2.50205329 -1.44894513
VERTEX2 1095 14.25642320 -2.53629871 -2.04308039
VERTEX2 1096 14.26014931 -2.53257551 -2.61861196
VERTEX2 1097 13.93774827 -2.63705900 -2.83683838
VERTEX2 1098 13.33490642 -2.80543097 -2.89576562
VERTEX2 1099 12.78036377 -2.92007686 -2.99400338
VERTEX2 1100 12.79594367 -2.91722002 -2.63425654
VERTEX2 1101 12.62810483 -3.08066414 -2.37123564
VERTEX2 1102 12.65162045 -3.06880113 -2.76845323
VERTEX2 1103 12.09653873 -3.26471851 -2.80411936
VERTEX2 1104 11.50407425 -3.46678275 -2.83379851
VERTEX2 1105 10.91387004 -3.64656379 -2.85357213
VERTEX2 1106 10.46276753 -3.77648315 -2.88065844
VERTEX2 1107 10.48016509 -3.76393140 -2.62731305
VERTEX2 1108 9.97478466 -4.09712031 -2.62108312
VERTEX2 1109 9.41028534 -4.36870560 -2.72690290
VERTEX2 1110 8.86893548 -4.60083079 -2.77793586
VERTEX2 1111 8.34305963 -4.71584681 -2.88079802
VERTEX2 1112 7.84423486 -4.96657669 -2.53665891
VERTEX2 1113 7.33104816 -5.30172084 -2.63359707
VERTEX2 1114 6.81275707 -5.59041375 -2.61801298
VERTEX2 1115 6.32305911 -5.87607242 -2.63621202
VERTEX2 1116 5.78078316 -6.20076869 -2.60200100
VERTEX2 1117 5.70957199 -6.24428610 -2.73223352
VERTEX2 1118 6.36819422 -6.69020863 1.70876237
VERTEX2 1119 6.36944002 -6.67937380 1.27300178
VERTEX2 1120 6.59617690 -6.09868895 1.20714678
VERTEX2 1121 6.68078007 -5.89003678 1.08610158
VERTEX2 1122 6.69664372 -5.88115140 0.53100500
VERTEX2 1123 7.22039763 -5.58373130 0.54588846
VERTEX2 1124 7.70788375 -5.24161878 0.64222035
VERTEX2 1125 8.23898864 -4.84743554 0.65365098
VERTEX2 1126 8.30578552 -4.79407164 0.99110539
VERTEX2 1127 10.04832892 -4.14692034 2.73031195
VERTEX2 1128 11.60619187 -4.22786965 -2.14937471
VERTEX2 1129 16.10678680 0.99891476 -2.25525494
VERTEX2 1130 15.75070122 0.53736278 -2.24417031
VERTEX2 1131 15.11896509 0.06696952 -2.68089455
VERTEX2 1132 14.52472120 -0.22288258 -2.70287818
VERTEX2 1133 13.96415524 -0.45888031 -2.74404406
VERTEX2 1134 13.69621770 -0.57063951 -2.84372936
VERTEX2 1135 5.97992355 -6.43988759 -2.13022191
VERTEX2 1136 5.94176079 -6.44147313 -2.69262271
VERTEX2 1137 5.63368584 -6.54012555 -2.87696515
VERTEX2 1138 4.98161559 -6.70244948 -2.89326043
VERTEX2 1139 4.50835417 -6.82161793 -2.97008835
VERTEX2 1140 4.54059128 -6.81887426 2.82695525
VERTEX2 1141 4.53618985 -6.81737397 2.27076190
VERTEX2 1142 4.38430349 -6.39717792 1.89986273
VERTEX2 1143 4.13129242 -5.76191791 1.98479415
VERTEX2 1144 3.87834689 -5.16151679 1.95720255
VERTEX2 1145 3.68582053 -4.69364777 1.92920093
VERTEX2 1146 3.50600028 -4.22627426 1.94615656
VERTEX2 1147 3.28373457 -3.76145207 2.01536356
VERTEX2 1148 3.04920072 -3.27552651 2.02501295
VERTEX2 1149 3.04394492 -3.26597067 2.52110494
VERTEX2 1150 2.72287459 -3.18215929 -2.89567049
VERTEX2 1151 2.69530764 -3.20432148 -1.90762721
VERTEX2 1152 2.70035449 -3.21431259 -0.87121502
VERTEX2 1153 2.70046926 -3.21440629 0.12563311
VERTEX2 1154 2.94018986 -3.03645913 0.66281276
VERTEX2 1155 3.42767151 -2.66182311 0.60945365
VERTEX2 1156 3.91409138 -2.32888600 0.61580098
VERTEX2 1157 4.35885465 -1.98622416 0.72240938
VERTEX2 1158 4.83336412 -1.63313315 0.58908873
VERTEX2 1159 5.34775487 -1.33433920 0.48858870
VERTEX2 1160 5.91377726 -1.05757659 0.34491545
VERTEX2 1161 6.52654977 -0.89736479 0.24897133
VERTEX2 1162 7.13708622 -0.73345009 0.30139460
VERTEX2 1163 7.74651644 -0.54264614 0.29079963
VERTEX2 1164 8.34921189 -0.34282257 0.37039543
VERTEX2 1165 8.84621759 -0.14839181 0.34953082
VERTEX2 1166 8.85538786 -0.14217324 0.84292208
VERTEX2 1167 8.86461183 -0.15454015 1.78773151
VERTEX2 1168 8.87360578 -0.16346636 2.69887110
VERTEX2 1169 8.82934865 -0.17891522 -2.75546999
VERTEX2 1170 8.29821440 -0.40404891 -2.74654009
VERTEX2 1171 7.72780228 -0.65921770 -2.71232969
VERTEX2 1172 7.18871150 -0.89724726 -2.77206169
VERTEX2 1173 6.61958288 -1.12298250 -2.76036963
VERTEX2 1174 6.03969652 -1.34019459 -2.82610820
VERTEX2 1175 5.45400305 -1.51595289 -2.85661096
VERTEX2 1176 4.87863990 -1.68253197 -2.89640024
VERTEX2 1177 4.30600060 -1.82711982 -2.89076097
VERTEX2 1178 3.72558979 -1.96546923 -2.93411740
VERTEX2 1179 3.13976502 -2.09910613 -2.90092522
VERTEX2 1180 2.90634018 -2.15648191 -2.90428273
VERTEX2 1181 2.92487806 -2.15021045 -2.06483082
VERTEX2 1182 2.93700673 -2.20475720 -1.34274382
VERTEX2 1183 3.08729392 -2.81693227 -1.31392920
VERTEX2 1184 3.27911995 -3.43070633 -1.24063284
VERTEX2 1185 3.47493898 -4.03750729 -1.26949517
VERTEX2 1186 3.68831186 -4.63993845 -1.19968952
VERTEX2 1187 3.92288044 -5.25714895 -1.23346498
VERTEX2 1188 4.14291561 -5.85222373 -1.21217102
VERTEX2 1189 4.37987957 -6.53586451 -1.18811128
VERTEX2 1190 4.51911018 -6.88546134 -1.17765239
VERTEX2 1191 4.55156785 -6.94076344 -0.24824302
VERTEX2 1192 4.55223936 -6.94094627 0.55713921
VERTEX2 1193 5.00211408 -6.69086365 0.42786009
VERTEX2 1194 5.44672359 -6.47642308 0.47229352
VERTEX2 1195 5.93254535 -6.22492274 0.52688981
VERTEX2 1196 6.40526851 -5.95654040 0.35722088
VERTEX2 1197 6.92219903 -5.76100624 0.37074272
VERTEX2 1198 7.44071585 -5.53010104 0.63241899
VERTEX2 1199 7.90450415 -5.23745721 0.42084179
VERTEX2 1200 8.43088574 -4.98459707 0.49222604
VERTEX2 1201 8.93043100 -4.71125107 0.55046164
VERTEX2 1202 9.41201667 -4.40860783 0.57505355
VERTEX2 1203 9.85855744 -4.10474474 0.48700734
VERTEX2 1204 10.38282703 -3.90982034 0.34234468
VERTEX2 1205 10.88707473 -3.72023968 0.37349527
VERTEX2 1206 11.40792889 -3.49510075 0.43698929
VERTEX2 1207 11.98409049 -3.29561975 0.35292776
VERTEX2 1208 12.55412724 -3.06890708 0.41959028
VERTEX2 1209 13.10752077 -2.82204072 0.41941459
VERTEX2 1210 13.64527371 -2.55845188 0.44181281
VERTEX2 1211 14.20232732 -2.34432533 0.37203763
VERTEX2 1212 14.75426292 -2.11899610 0.42470313
VERTEX2 1213 15.28912569 -1.84923676 0.50041244
VERTEX2 1214 15.92436372 -1.52833814 0.28035473
VERTEX2 1215 16.46919372 -1.35587440 0.34104921
VERTEX2 1216 16.94431644 -1.10110149 0.56018581
VERTEX2 1217 17.43529067 -0.81583382 0.54185148
VERTEX2 1218 17.92314238 -0.51309347 0.49155961
VERTEX2 1219 18.47647059 -0.21038600 0.52267496
VERTEX2 1220 18.95373808 0.09369524 0.61403017
VERTEX2 1221 18.93703618 0.07389509 0.16237226
VERTEX2 1222 18.95009187 0.07101669 -0.43330527
VERTEX2 1223 18.96287041 0.05899812 -0.99137687
VERTEX2 1224 19.20358350 -0.47224076 -1.17426932
VERTEX2 1225 19.44883974 -1.04788396 -1.16050532
VERTEX2 1226 19.49122169 -1.14559212 -1.17723632
VERTEX2 1227 19.49122169 -1.14559212 -1.17789832
