1 82 104 0.00061300 4 
2 4 114 0.00201019 10 
3 19 166 0.00294814 10 
4 19 172 0.00310541 10 
5 25 172 0.00319917 10 
6 25 178 0.00330101 10 
7 32 178 0.00329896 10 
8 32 183 0.00340241 10 
9 44 189 0.00352389 10 
10 44 195 0.00362232 10 
11 50 195 0.00364076 10 
12 50 201 0.00375574 10 
13 50 203 0.00380096 10 
14 61 203 0.00379815 10 
15 61 209 0.00391757 10 
16 67 209 0.00392437 10 
17 67 220 0.00409295 10 
18 81 220 0.00411706 10 
19 61 225 0.00422810 10 
20 81 226 0.00426197 10 
21 87 226 0.00428150 10 
22 87 231 0.00436329 10 
23 94 231 0.00439736 10 
24 226 231 0.00439069 10 
25 94 241 0.00457468 10 
26 101 241 0.00458242 10 
27 92 244 0.00463178 10 
28 101 247 0.00469271 10 
29 107 247 0.00476858 10 
30 107 254 0.00489448 10 
31 114 254 0.00495804 10 
32 107 256 0.00501948 10 
33 114 256 0.00500936 10 
34 107 258 0.00503375 10 
35 114 258 0.00505574 10 
36 121 266 0.00531568 10 
37 126 266 0.00531311 10 
38 126 272 0.00543043 10 
39 132 272 0.00543600 10 
40 132 278 0.00554564 10 
41 138 278 0.00555990 10 
42 138 284 0.00567126 10 
43 151 284 0.00567821 10 
44 151 291 0.00580927 10 
45 151 297 0.00591695 10 
46 157 297 0.00592224 10 
47 163 297 0.00593428 10 
48 166 297 0.00595720 10 
49 19 305 0.00615474 10 
50 157 305 0.00616027 10 
51 163 305 0.00619285 10 
52 166 305 0.00618515 10 
53 172 305 0.00622673 10 
54 19 315 0.00622264 10 
55 25 315 0.00629008 10 
56 172 315 0.00640549 10 
57 309 315 0.00436417 7 
58 172 328 0.00651133 10 
59 175 335 0.00531669 8 
60 19 337 0.00603016 9 
61 25 337 0.00680242 10 
62 172 337 0.00696414 10 
63 62 340 0.00690457 10 
64 19 342 0.00698173 10 
65 25 342 0.00716726 10 
66 172 342 0.00500860 7 
67 178 342 0.00702440 10 
68 165 357 0.00732769 10 
69 25 367 0.00673582 9 
70 32 367 0.00601876 8 
71 178 367 0.00450049 6 
72 183 367 0.00604395 8 
73 25 374 0.00777776 10 
74 32 374 0.00796554 10 
75 178 374 0.00634980 8 
76 183 374 0.00698422 9 
77 32 382 0.00792004 10 
78 183 382 0.00800365 10 
79 32 387 0.00802184 10 
80 183 387 0.00640628 8 
81 189 400 0.00835908 10 
82 313 406 0.00675840 8 
83 189 414 0.00868180 10 
84 44 437 0.00911766 10 
85 195 437 0.00941735 10 
86 153 441 0.00936790 10 
87 251 449 0.00952626 10 
88 336 450 0.00988345 10 
89 44 454 0.00976148 10 
90 189 454 0.01001166 10 
91 378 461 0.00692136 7 
92 44 467 0.01010794 10 
93 50 467 0.01042077 10 
94 195 467 0.00319190 3 
95 195 484 0.00518539 5 
96 44 494 0.00526197 5 
97 50 494 0.00956275 9 
98 195 494 0.00743053 7 
99 201 494 0.00744173 7 
100 462 495 0.00746553 7 
101 166 498 0.00974558 9 
102 50 500 0.00979596 9 
103 201 500 0.00878204 8 
104 203 500 0.00879086 8 
105 344 500 0.01108245 10 
106 61 508 0.01123485 10 
107 203 508 0.01140707 10 
108 209 508 0.01125253 10 
109 156 514 0.01014151 9 
110 61 522 0.01151821 10 
111 203 522 0.01176508 10 
112 209 522 0.01177113 10 
113 503 524 0.00800368 7 
114 61 528 0.01041924 9 
115 67 528 0.01171521 10 
116 81 528 0.01200259 10 
117 209 528 0.01199502 10 
118 220 528 0.01200077 10 
119 67 532 0.00698010 6 
120 81 532 0.01183743 10 
121 220 532 0.01205369 10 
122 67 556 0.01231689 10 
123 190 558 0.00739491 6 
124 67 564 0.01261199 10 
125 81 564 0.01028849 8 
126 220 564 0.01255435 10 
127 67 567 0.01270124 10 
128 81 567 0.01299210 10 
129 220 567 0.01302342 10 
130 67 570 0.01279618 10 
131 81 570 0.01309103 10 
132 220 570 0.01311054 10 
133 550 574 0.01319521 10 
134 81 575 0.01349812 10 
135 220 575 0.01327079 10 
136 81 588 0.01321026 10 
137 87 588 0.01443802 10 
138 226 588 0.01367738 10 
139 87 597 0.01359671 10 
140 94 597 0.01389880 10 
141 226 597 0.01392516 10 
142 87 604 0.01373489 10 
143 94 604 0.01403362 10 
144 94 616 0.01398290 10 
145 94 632 0.01430838 10 
146 94 637 0.01441120 10 
147 101 637 0.01475685 10 
148 101 642 0.01466284 10 
149 107 642 0.01487024 10 
150 489 643 0.01488171 10 
151 96 643 0.01502885 10 
152 101 645 0.01471599 10 
153 107 645 0.01505555 10 
154 86 654 0.01489237 10 
155 101 657 0.01490330 10 
156 405 658 0.01546347 10 
157 101 663 0.01522130 10 
158 107 663 0.01559101 10 
159 114 663 0.01272525 8 
160 101 665 0.01565283 10 
161 107 665 0.01576761 10 
162 114 665 0.01577701 10 
163 106 676 0.01591285 10 
164 393 677 0.01597490 10 
165 107 680 0.01644856 10 
166 479 681 0.01643409 10 
167 107 683 0.01615755 10 
168 114 683 0.01664687 10 
169 58 702 0.01657341 10 
170 107 704 0.01669416 10 
171 114 704 0.01704683 10 
172 551 706 0.01700751 10 
173 107 714 0.01707202 10 
174 114 714 0.01563781 9 
175 315 716 0.01722205 10 
176 140 720 0.01757896 10 
177 107 730 0.01410933 8 
178 114 730 0.01785608 10 
179 422 730 0.01821207 10 
180 364 735 0.01796587 10 
181 552 742 0.01849395 10 
182 740 753 0.01856381 10 
183 121 754 0.01905092 10 
184 126 754 0.01906446 10 
185 121 759 0.01876084 10 
186 126 759 0.01953322 10 
187 605 760 0.01971791 10 
188 126 762 0.01975265 10 
189 132 762 0.01978694 10 
190 63 763 0.02049166 10 
191 9 777 0.02027003 10 
192 132 778 0.01419106 7 
193 520 790 0.02096872 10 
194 132 792 0.02101408 10 
195 233 793 0.02136062 10 
196 132 800 0.02146700 10 
197 138 800 0.02231110 10 
198 138 806 0.02190875 10 
199 187 814 0.02185802 10 
200 138 821 0.01523000 7 
201 138 823 0.02191644 10 
202 151 828 0.02213934 10 
203 151 847 0.02016951 9 
204 151 855 0.01572008 7 
205 111 878 0.02317145 10 
206 327 881 0.02346032 10 
207 151 895 0.02376538 10 
208 151 897 0.02420669 10 
209 138 903 0.02391149 10 
210 138 904 0.02390777 10 
211 132 907 0.02406017 10 
212 138 907 0.02457730 10 
213 132 911 0.02422585 10 
214 747 921 0.02489265 10 
215 121 923 0.02470002 10 
216 126 923 0.02518916 10 
217 107 929 0.02482864 10 
218 114 929 0.02530010 10 
219 107 935 0.02494903 10 
220 114 935 0.02540777 10 
221 101 939 0.02242462 9 
222 107 939 0.01989289 8 
223 770 943 0.02573197 10 
224 101 944 0.02571322 10 
225 94 947 0.02583590 10 
226 101 947 0.02634064 10 
227 806 949 0.02644759 10 
228 87 953 0.02661825 10 
229 94 953 0.02705641 10 
230 226 953 0.02699746 10 
231 81 959 0.02681220 10 
232 87 959 0.02727140 10 
233 220 959 0.02738512 10 
234 226 959 0.02734026 10 
235 67 965 0.02657772 10 
236 81 965 0.02705616 10 
237 220 965 0.02805832 10 
238 618 965 0.02705817 10 
239 554 974 0.02758916 10 
240 61 976 0.02766623 10 
241 67 976 0.02809501 10 
242 209 976 0.03085263 10 
243 267 980 0.02815407 10 
244 50 982 0.02816790 10 
245 61 982 0.02289921 8 
246 201 982 0.02829114 10 
247 203 982 0.02293257 8 
248 277 985 0.02841858 10 
249 44 988 0.02848817 10 
250 50 988 0.02016117 7 
251 195 988 0.02844819 10 
252 201 988 0.02597022 9 
253 44 994 0.02873713 10 
254 189 994 0.02912632 10 
255 195 994 0.02913926 10 
256 989 995 0.02858848 10 
257 32 1003 0.02931567 10 
258 178 1003 0.02958789 10 
259 183 1003 0.02959238 10 
260 25 1008 0.02921337 10 
261 32 1008 0.02968825 10 
262 178 1008 0.02967690 10 
263 183 1008 0.02973133 10 
264 213 1008 0.03017502 10 
265 25 1010 0.02976871 10 
266 32 1010 0.03029941 10 
267 172 1010 0.03002834 10 
268 178 1010 0.02964005 10 
269 19 1016 0.02979694 10 
270 166 1016 0.03023005 10 
271 172 1016 0.02109182 7 
272 151 1029 0.02998209 10 
273 157 1029 0.03111988 10 
274 163 1029 0.03067639 10 
275 166 1029 0.03072474 10 
276 881 1034 0.03029185 10 
277 581 1035 0.03031770 10 
278 665 1051 0.03116530 10 
279 959 1058 0.03097766 10 
280 248 1069 0.03127176 10 
281 302 1071 0.02346262 7 
282 22 1073 0.02189599 7 
283 455 1077 0.03193428 10 
284 605 1081 0.03206419 10 
285 132 1084 0.03179513 10 
286 767 1085 0.03281708 10 
287 836 1088 0.03214543 10 
288 311 1110 0.03265535 10 
289 750 1113 0.03235343 10 
290 185 1114 0.03355229 10 
291 515 1129 0.03376926 10 
292 101 1138 0.03396010 10 
293 107 1147 0.03417924 10 
294 114 1147 0.03469371 10 
295 107 1150 0.03424794 10 
296 114 1150 0.03483903 10 
297 114 1158 0.03437324 10 
298 121 1158 0.03486469 10 
299 1115 1158 0.03486262 10 
300 413 1158 0.03504985 10 
301 1002 1160 0.03468464 10 
302 121 1164 0.03476913 10 
303 126 1164 0.03536436 10 
304 114 1175 0.03501578 10 
305 121 1175 0.03547942 10 
306 923 1175 0.03498507 10 
307 929 1175 0.03508376 10 
308 1158 1175 0.02528385 7 
309 249 1175 0.02728960 8 
310 101 1188 0.03520690 10 
311 939 1188 0.03583237 10 
312 1138 1188 0.03610192 10 
313 1147 1188 0.03591759 10 
314 1150 1188 0.03550880 10 
315 310 1194 0.03196158 9 
316 865 1198 0.03644369 10 
317 569 1209 0.03631155 10 
318 1050 1210 0.03685259 10 
319 1061 1210 0.03696191 10 
320 1075 1210 0.03721053 10 
321 1084 1210 0.03724242 10 
322 1088 1210 0.03722231 10 
323 1093 1210 0.03783847 10 
324 1098 1210 0.03779380 10 
325 157 1217 0.03774613 10 
326 163 1217 0.03417059 9 
327 1029 1217 0.03726715 10 
328 1044 1217 0.03778975 10 
329 1050 1217 0.03844214 10 
330 1056 1217 0.03861095 10 
331 1055 1217 0.03858611 10 
