1 11 30 2 321.12059664 0.00000222 1 
2 19 166 0 0.41485034 0.00210173 5 
3 19 172 0 0.02820697 0.00187551 4 
4 25 172 0 0.50366199 0.00187841 4 
5 25 178 0 0.30831851 0.00198904 4 
6 32 178 0 0.01493521 0.00198544 4 
7 32 183 0 0.07055611 0.00201622 4 
8 80 188 2 636.56202273 0.00000217 1 
9 44 189 0 0.52863102 0.00207828 4 
10 44 195 0 0.35755137 0.00217269 4 
11 50 195 0 0.00572854 0.00220192 4 
12 78 197 2 1593.18033970 0.00000255 1 
13 50 201 0 0.04110605 0.00190018 3 
14 50 203 0 0.06975183 0.00187743 3 
15 61 203 0 0.00745912 0.00190271 3 
16 61 209 0 0.37222863 0.00231238 4 
17 67 209 0 0.41032090 0.00232950 4 
18 67 220 0 0.66144083 0.00250697 4 
19 81 220 0 0.48035877 0.00285884 5 
20 81 226 0 0.05402805 0.00256985 4 
21 87 226 0 1.82553139 0.00293558 5 
22 151 226 2 544.04265569 0.00000260 5 
23 153 227 2 1138.33747860 0.00000250 1 
24 87 231 0 0.34656585 0.00262123 4 
25 94 231 0 0.55778528 0.00256604 4 
26 226 231 0 1.44127402 0.00298488 5 
27 94 241 0 1.33132047 0.00269447 4 
28 101 241 0 0.50961029 0.00271324 4 
29 64 245 2 1936.09680704 0.00000249 1 
30 101 247 0 1.66454674 0.00276028 4 
31 107 247 0 1.80094617 0.00278771 4 
32 25 253 2 364.67343520 0.00000248 1 
33 107 254 0 1.18346605 0.00284075 4 
34 114 254 0 0.12939160 0.00286809 4 
35 107 256 0 0.93085039 0.00284875 4 
36 114 256 0 0.24629796 0.00285941 4 
37 107 258 0 1.37911724 0.00289635 4 
38 114 258 0 1.15747212 0.00292685 4 
39 121 266 0 0.00938596 0.00300780 4 
40 126 266 0 0.44864328 0.00355081 5 
41 94 269 2 2446.15810382 0.00000247 1 
42 126 272 0 1.03992836 0.00309671 4 
43 132 272 0 0.39070916 0.00364312 5 
44 78 275 2 1069.70872523 0.00000218 1 
45 132 278 0 0.58358145 0.00317990 4 
46 138 278 0 1.06458780 0.00373137 5 
47 138 284 0 0.02201259 0.00271390 3 
48 151 284 0 0.12777228 0.00328669 4 
49 8 290 2 113.75523479 0.00000213 1 
50 151 291 0 0.60037557 0.00331315 4 
51 151 297 0 0.07972289 0.00284994 3 
52 157 297 0 1.04991834 0.00344426 4 
53 166 297 0 1.30507781 0.00338712 4 
54 53 299 2 510.42532117 0.00000266 1 
55 19 305 0 0.16044642 0.00356686 4 
56 157 305 0 0.58687353 0.00360457 4 
57 163 305 0 7.56485476 0.00484396 6 
58 166 305 0 0.37495035 0.00360168 4 
59 172 305 0 0.01886255 0.00360890 4 
60 19 315 0 0.48455906 0.00310800 3 
61 25 315 0 0.02281386 0.00311441 3 
62 172 315 0 0.05679715 0.00373025 4 
63 172 328 0 0.12482725 0.00325467 3 
64 19 337 0 6.63404991 0.00465948 5 
65 25 337 0 0.96522419 0.00400155 4 
66 172 337 0 0.57611560 0.00333757 3 
67 19 342 0 0.00494520 0.00338651 3 
68 25 342 0 0.12855172 0.00406451 4 
69 172 342 0 0.01223902 0.00411864 4 
70 178 342 0 0.12442988 0.00417583 4 
71 247 350 2 1285.77263053 0.00000324 1 
72 25 367 0 0.11414782 0.00378822 3 
73 32 367 0 0.01267433 0.00595218 6 
74 178 367 0 0.00286807 0.00375087 3 
75 183 367 0 0.06698524 0.00377015 3 
76 25 374 0 0.56424690 0.00459619 4 
77 32 374 0 0.09892849 0.00531604 5 
78 178 374 0 0.03055075 0.00457987 4 
79 183 374 0 0.05309447 0.00457714 4 
80 32 382 0 4.14688582 0.00392432 3 
81 183 382 0 1.28811506 0.00466119 4 
82 32 387 0 2.72468715 0.00473660 4 
83 183 387 0 0.18197642 0.00472366 4 
84 189 414 0 7.69047346 0.00586146 5 
85 44 437 0 0.00915802 0.00438016 3 
86 195 437 0 0.01161094 0.00437161 3 
87 219 441 2 1010.43589442 0.00000328 1 
88 34 443 2 435.86860457 0.00000275 1 
89 44 444 2 1413.22946828 0.00000303 1 
90 44 454 0 0.65644164 0.00452154 3 
91 189 454 0 0.03962740 0.00542758 4 
92 285 456 2 1957.20607399 0.00000296 1 
93 262 457 2 664.08358969 0.00000303 1 
94 192 461 2 756.34171872 0.00000250 1 
95 44 467 0 0.12345281 0.00642307 5 
96 50 467 0 0.00895575 0.01022529 9 
97 195 467 0 0.00230988 0.00463526 3 
98 327 475 2 2319.33272550 0.00000313 1 
99 195 484 0 0.09447226 0.00573293 4 
100 23 493 2 263.05997709 0.00000317 1 
101 44 494 0 0.02880924 0.00577166 4 
102 50 494 0 0.00628832 0.00482754 3 
103 195 494 0 0.00818961 0.00682279 5 
104 201 494 0 0.00469852 0.00682760 5 
105 50 500 0 0.14406209 0.00709023 5 
106 201 500 0 0.05353930 0.00491094 3 
107 203 500 0 0.03252445 0.00487380 3 
108 484 505 2 2586.63796902 0.00000372 1 
109 61 508 0 0.99413579 0.00711516 5 
110 203 508 0 0.26947301 0.01224549 10 
111 209 508 0 0.03711473 0.00606065 4 
112 244 521 2 824.47102017 0.00000307 1 
113 61 522 0 1.37942234 0.00616188 4 
114 203 522 0 0.12859200 0.00516096 3 
115 209 522 0 0.00542469 0.00514300 3 
116 61 528 0 0.47936102 0.00512021 3 
117 67 528 0 0.22419307 0.00626678 4 
118 81 528 0 0.23233822 0.00842683 6 
119 209 528 0 0.09444678 0.01062765 8 
120 220 528 0 0.13668760 0.00622378 4 
121 67 532 0 0.05459173 0.01180853 9 
122 81 532 0 0.11826401 0.00847449 6 
123 220 532 0 0.05648169 0.00633312 4 
124 473 541 2 1087.76314443 0.00000332 1 
125 294 546 2 1075.25773980 0.00000320 1 
126 67 556 0 0.98233216 0.00649493 4 
127 67 564 0 0.40168838 0.01232743 9 
128 81 564 0 0.02280941 0.00662662 4 
129 220 564 0 0.02684857 0.00666102 4 
130 67 567 0 2.67253169 0.00781168 5 
131 81 567 0 0.48923871 0.00901408 6 
132 220 567 0 0.21723258 0.00665479 4 
133 67 570 0 2.40706627 0.00909581 6 
134 81 570 0 0.15671702 0.00902509 6 
135 220 570 0 0.13379867 0.00673794 4 
136 267 570 2 4488.98070898 0.00000267 4 
137 12 574 2 861.79143411 0.00000246 1 
138 81 575 0 2.76594993 0.00793732 5 
139 220 575 0 1.08612706 0.01035443 7 
140 511 578 2 2370.73720887 0.00000263 1 
141 81 588 0 0.01497138 0.00567446 3 
142 87 588 0 0.47937722 0.00818219 5 
143 226 588 0 0.43156268 0.00690768 4 
144 570 589 2 10831.88317681 0.00000345 1 
145 584 589 2 2375.10249489 0.00000108 1 
146 553 594 2 876.06626518 0.00000272 1 
147 87 597 0 2.27648751 0.00955126 6 
148 94 597 0 0.38888315 0.00700266 4 
149 226 597 0 0.55079633 0.00831439 5 
150 87 604 0 0.47149562 0.00710640 4 
151 94 604 0 0.01542269 0.00840427 5 
152 528 615 2 680.08756286 0.00000290 1 
153 94 616 0 0.01350372 0.01233542 8 
154 97 621 2 357.33167229 0.00000363 1 
155 143 624 2 783.29381752 0.00000305 1 
156 94 632 0 2.16969694 0.00879434 5 
157 409 632 2 3640.82192190 0.00000325 5 
158 94 637 0 4.44236402 0.01005593 6 
159 101 637 0 0.19098383 0.00750430 4 
160 101 642 0 0.11555601 0.00888852 5 
161 107 642 0 0.04025021 0.01409774 9 
162 101 645 0 6.69527511 0.00762726 4 
163 107 645 0 1.54205090 0.00751681 4 
164 101 657 0 0.73548669 0.01669591 10 
165 101 663 0 0.04971914 0.01672381 10 
166 107 663 0 0.01781179 0.00917158 5 
167 114 663 0 0.00275957 0.00915516 5 
168 101 665 0 1.55112265 0.01346611 8 
169 107 665 0 0.47667103 0.00780445 4 
170 114 665 0 0.13329170 0.00648490 3 
171 664 672 2 1832.88978209 0.00000391 1 
172 107 680 0 1.48615866 0.00939601 5 
173 107 683 0 0.94462224 0.00802630 4 
174 114 683 0 0.32178225 0.00952202 5 
175 107 704 0 0.34268109 0.01262954 7 
176 114 704 0 0.07528002 0.01554565 9 
177 107 714 0 1.79639085 0.01134098 6 
178 114 714 0 0.02860377 0.01438083 8 
179 660 715 2 2563.79232618 0.00000368 1 
180 600 717 2 2510.25628626 0.00000343 1 
181 107 730 0 0.19656714 0.01014707 5 
182 114 730 0 0.03540690 0.00855557 4 
183 121 754 0 0.33113739 0.00874798 4 
184 126 754 0 0.07673382 0.01514842 8 
185 121 759 0 2.33625684 0.01197572 6 
186 126 759 0 0.22329988 0.01203795 6 
187 126 762 0 7.08482229 0.01038434 5 
188 132 762 0 2.00372045 0.01534730 8 
189 389 768 2 1196.04505322 0.00000296 1 
190 45 772 2 296.97662313 0.00000324 1 
191 132 778 0 0.06999780 0.00903999 4 
192 705 779 2 1405.42302642 0.00000446 1 
193 165 789 2 414.32960174 0.00000524 1 
194 132 792 0 1.26802734 0.00928050 4 
195 132 800 0 3.35686460 0.00918397 4 
196 138 800 0 0.14494330 0.01253601 6 
197 138 806 0 0.25140739 0.00751296 3 
198 92 817 2 425.12814332 0.00000341 1 
199 138 821 0 0.40674396 0.01106755 5 
200 138 823 0 6.54725682 0.00937458 4 
201 151 828 0 3.12108818 0.00948736 4 
202 744 842 2 254.17557133 0.00000404 1 
203 614 845 2 1166.86674360 0.00000365 1 
204 151 847 0 0.08724621 0.01144610 5 
205 775 853 2 624.07613883 0.00000409 1 
206 498 854 2 1966.97749440 0.00000393 1 
207 151 855 0 0.11494457 0.01508898 7 
208 155 873 2 133.51654715 0.00000357 1 
209 352 876 2 109.63812154 0.00000391 1 
210 293 887 2 259.37057468 0.00000399 1 
211 344 887 2 58.59514215 0.00000123 1 
212 639 888 2 443.67065995 0.00000379 1 
213 231 890 2 503.24890488 0.00000387 1 
214 151 895 0 2.80701437 0.01759647 8 
215 151 897 0 0.06118057 0.02133193 10 
216 138 903 0 0.08157811 0.01020925 4 
217 138 904 0 7.06392298 0.01400477 6 
218 220 904 2 4192.96338893 0.00000458 6 
219 132 907 0 0.71874717 0.01027075 4 
220 138 907 0 0.22077132 0.01216641 5 
221 132 911 0 0.23128175 0.01220721 5 
222 826 919 2 989.63477161 0.00000380 1 
223 121 923 0 0.62636126 0.01433531 6 
224 126 923 0 0.07130653 0.01051982 4 
225 107 929 0 0.07225325 0.01251769 5 
226 114 929 0 0.00477553 0.01056202 4 
227 812 934 2 967.79429279 0.00000444 1 
228 107 935 0 4.91438615 0.01648135 7 
229 114 935 0 1.40337639 0.01649067 7 
230 101 939 0 0.48567419 0.01068449 4 
231 107 939 0 0.21174614 0.01071527 4 
232 317 941 2 2019.41000215 0.00000426 1 
233 101 944 0 0.15377935 0.01272046 5 
234 94 947 0 0.23772432 0.01671237 7 
235 101 947 0 0.16826262 0.01476590 6 
236 22 951 2 3292.15318917 0.00000382 1 
237 87 953 0 0.13504795 0.01085842 4 
238 94 953 0 0.06505521 0.01488982 6 
239 226 953 0 0.08268323 0.02291352 10 
240 81 959 0 1.83528326 0.02434311 10 
241 87 959 0 1.29172246 0.01707789 7 
242 220 959 0 0.04883629 0.01100934 4 
243 226 959 0 0.12130941 0.01303917 5 
244 745 960 2 618.32853221 0.00000439 1 
245 67 965 0 1.01368609 0.01313432 5 
246 81 965 0 0.31066014 0.01519675 6 
247 220 965 0 0.16483276 0.01925701 8 
248 246 967 2 1202.70977412 0.00000414 1 
249 845 969 2 2177.67535051 0.00000413 1 
250 323 973 2 463.43116144 0.00000394 1 
251 829 973 2 823.15743052 0.00000131 1 
252 61 976 0 0.16803746 0.01742669 7 
253 67 976 0 0.05676300 0.00918852 3 
254 209 976 0 0.00780965 0.01120291 4 
255 50 982 0 0.38354811 0.01131267 4 
256 61 982 0 0.27147698 0.01132303 4 
257 201 982 0 0.22200943 0.01132945 4 
258 203 982 0 0.10573284 0.02180135 9 
259 44 988 0 0.09550719 0.01141614 4 
260 50 988 0 0.05924873 0.01144810 4 
261 195 988 0 0.04319526 0.01565437 6 
262 201 988 0 0.02685916 0.01352910 5 
263 980 988 2 7667.40856956 0.00000391 5 
264 227 993 2 709.71860853 0.00000444 1 
265 44 994 0 0.51683435 0.01788703 7 
266 189 994 0 0.29989154 0.02564137 10 
267 195 994 0 0.21957432 0.01367348 5 
268 32 1003 0 0.23901034 0.01383189 5 
269 178 1003 0 0.03356851 0.02597093 10 
270 183 1003 0 0.01433170 0.01599758 6 
271 25 1008 0 1.23858172 0.01829539 7 
272 32 1008 0 0.53803958 0.01174612 4 
273 178 1008 0 0.34459610 0.01174809 4 
274 183 1008 0 0.22233868 0.01178966 4 
275 25 1010 0 0.60236133 0.01177532 4 
276 32 1010 0 0.30591807 0.01401357 5 
277 172 1010 0 0.10368354 0.01625156 6 
278 178 1010 0 0.19279072 0.02635030 10 
279 870 1012 2 1115.29082426 0.00000446 10 
280 518 1013 2 881.35592501 0.00000438 4 
281 19 1016 0 0.44047719 0.02051273 8 
282 166 1016 0 0.20189646 0.01180103 4 
283 172 1016 0 0.07393216 0.01402232 5 
284 285 1017 2 1733.04356154 0.00000533 1 
285 366 1026 2 926.49348982 0.00000519 1 
286 151 1029 0 0.03533130 0.01428119 5 
287 157 1029 0 0.02672450 0.01199033 4 
288 163 1029 0 3.39703566 0.01198581 4 
289 166 1029 0 0.49353449 0.01200732 4 
290 273 1030 2 5273.55629735 0.00000531 1 
291 311 1031 2 2684.92140765 0.00000495 1 
292 117 1041 2 441.59143519 0.00000487 1 
293 882 1041 2 1033.71768899 0.00000226 1 
294 432 1044 2 790.04446555 0.00000504 1 
295 913 1052 2 854.10963406 0.00000524 1 
296 136 1056 2 986.89491643 0.00000538 1 
297 633 1082 2 196.42856213 0.00000587 1 
298 997 1082 2 393.48792118 0.00000200 1 
299 728 1082 2 119.87574661 0.00000191 1 
300 132 1084 0 4.21993706 0.01512406 5 
301 324 1088 2 416.40105361 0.00000596 1 
302 518 1099 2 655.30115642 0.00000538 1 
303 881 1104 2 1171.10551801 0.00000528 1 
304 865 1110 2 100.86018084 0.00000626 1 
305 45 1118 2 717.75981084 0.00000571 1 
306 700 1118 2 94.17997507 0.00000204 1 
307 43 1119 2 361.47055332 0.00000567 1 
308 890 1126 2 45.93363613 0.00000538 1 
309 101 1138 0 0.63021658 0.01586109 5 
310 440 1146 2 803.00067558 0.00000570 1 
311 107 1147 0 0.73708347 0.01329845 4 
312 114 1147 0 0.03971358 0.01082385 3 
313 699 1148 2 3344.22312650 0.00000608 1 
314 107 1150 0 7.45683387 0.01331500 4 
315 114 1150 0 1.00561260 0.01089547 3 
316 114 1158 0 0.16899687 0.01092057 3 
317 121 1158 0 0.69099743 0.01345610 4 
318 121 1164 0 0.45182924 0.01601715 5 
319 126 1164 0 0.04418665 0.01354613 4 
320 509 1165 2 4421.05316056 0.00000521 1 
321 938 1172 2 1889.60662332 0.00000546 1 
322 114 1175 0 0.14266969 0.01365523 4 
323 121 1175 0 0.27324351 0.01368706 4 
324 923 1175 0 0.18719011 0.01372045 4 
325 929 1175 0 0.16073549 0.01367909 4 
326 1158 1175 0 0.00134797 0.01114622 3 
327 393 1176 2 1363.47417662 0.00000553 1 
328 565 1176 2 1266.02607779 0.00000267 1 
329 1139 1184 2 1042.55926481 0.00000586 1 
330 144 1187 2 753.39551602 0.00000592 1 
331 101 1188 0 0.32950319 0.01382499 4 
332 939 1188 0 0.55418798 0.01382371 4 
333 1138 1188 0 0.03006025 0.01136235 3 
334 1147 1188 0 0.04063922 0.01130852 3 
335 1150 1188 0 1.83245351 0.01382995 4 
336 793 1189 2 2425.98304138 0.00000571 1 
337 670 1192 2 938.16927361 0.00000581 1 
338 525 1198 2 930.35443858 0.00000580 1 
339 639 1201 2 723.72531938 0.00000616 1 
340 1050 1210 0 0.00345523 0.01407363 4 
341 1061 1210 0 0.57363906 0.01670876 5 
342 1075 1210 0 0.23107861 0.01672698 5 
343 1084 1210 0 3.13555510 0.01672681 5 
344 1088 1210 0 0.59156319 0.01414265 4 
345 1093 1210 0 0.13111230 0.01935436 6 
346 1098 1210 0 0.04730346 0.01410875 4 
347 85 1214 2 1638.51825228 0.00000608 1 
348 475 1216 2 259.34911190 0.00000595 1 
349 157 1217 0 0.32750279 0.01420820 4 
350 163 1217 0 0.19904338 0.01436313 4 
351 1029 1217 0 0.01250493 0.01167641 3 
352 1044 1217 0 3.98258990 0.01442481 4 
353 1050 1217 0 4.97161000 0.01720064 5 
354 163 297 0 0.27920255 0.01517031 4 
355 189 400 0 2.09679271 0.01455359 4 
356 1056 1217 0 9.66143264 0.01722339 5 
