1 11 30 0.00014605 4 
2 19 166 0.00301885 10 
3 19 172 0.00315555 10 
4 25 172 0.00321199 10 
5 25 178 0.00331199 10 
6 32 178 0.00331179 10 
7 32 183 0.00341461 10 
8 80 188 0.00350796 10 
9 44 189 0.00352438 10 
10 44 195 0.00362333 10 
11 50 195 0.00365163 10 
12 78 197 0.00370595 10 
13 50 201 0.00375482 10 
14 50 203 0.00378153 10 
15 61 203 0.00380008 10 
16 61 209 0.00389832 10 
17 67 209 0.00396305 10 
18 67 220 0.00416333 10 
19 81 220 0.00422120 10 
20 81 226 0.00434272 10 
21 87 226 0.00435321 10 
22 151 226 0.00432135 10 
23 153 227 0.00437897 10 
24 87 231 0.00449376 10 
25 94 231 0.00448562 10 
26 226 231 0.00452870 10 
27 94 241 0.00472578 10 
28 101 241 0.00471568 10 
29 64 245 0.00490581 10 
30 101 247 0.00493809 10 
31 107 247 0.00495607 10 
32 25 253 0.00515097 10 
33 107 254 0.00516978 10 
34 114 254 0.00521119 10 
35 107 256 0.00522578 10 
36 114 256 0.00523808 10 
37 107 258 0.00528219 10 
38 114 258 0.00528207 10 
39 121 266 0.00545879 10 
40 126 266 0.00546822 10 
41 94 269 0.00559252 10 
42 126 272 0.00564763 10 
43 132 272 0.00567754 10 
44 78 275 0.00581869 10 
45 132 278 0.00586458 10 
46 138 278 0.00590291 10 
47 138 284 0.00599844 10 
48 151 284 0.00603241 10 
49 8 290 0.00628954 10 
50 151 291 0.00634871 10 
51 151 297 0.00643716 10 
52 157 297 0.00645773 10 
53 163 297 0.00648610 10 
54 166 297 0.00647705 10 
55 53 299 0.00662801 10 
56 19 305 0.00676152 10 
57 157 305 0.00675752 10 
58 163 305 0.00678345 10 
59 166 305 0.00678854 10 
60 172 305 0.00675678 10 
61 19 315 0.00610603 9 
62 25 315 0.00684748 10 
63 172 315 0.00701250 10 
64 172 328 0.00638824 9 
65 19 337 0.00579823 8 
66 25 337 0.00733009 10 
67 172 337 0.00748689 10 
68 19 342 0.00663659 9 
69 25 342 0.00743794 10 
70 172 342 0.00382725 5 
71 178 342 0.00744767 10 
72 247 350 0.00769271 10 
73 25 367 0.00394423 5 
74 32 367 0.00474102 6 
75 178 367 0.00474107 6 
76 183 367 0.00558358 7 
77 25 374 0.00815532 10 
78 32 374 0.00821341 10 
79 178 374 0.00586522 7 
80 183 374 0.00732852 9 
81 32 382 0.00664802 8 
82 183 382 0.00838523 10 
83 32 387 0.00842298 10 
84 183 387 0.00503216 6 
85 189 400 0.00882864 10 
86 189 414 0.00911543 10 
87 44 437 0.00954904 10 
88 195 437 0.01008148 10 
89 219 441 0.00977513 10 
90 34 443 0.00982349 10 
91 44 444 0.01004838 10 
92 44 454 0.01004249 10 
93 189 454 0.01133995 10 
94 285 456 0.01035497 10 
95 262 457 0.01058382 10 
96 192 461 0.01064841 10 
97 44 467 0.01078835 10 
98 50 467 0.01088719 10 
99 195 467 0.01087439 10 
100 327 475 0.01091530 10 
101 195 484 0.01113348 10 
102 23 493 0.01131301 10 
103 44 494 0.01161012 10 
104 50 494 0.01163014 10 
105 195 494 0.01162548 10 
106 201 494 0.01179121 10 
107 50 500 0.01163229 10 
108 201 500 0.01188399 10 
109 203 500 0.01189971 10 
110 484 505 0.01185091 10 
111 61 508 0.01190794 10 
112 203 508 0.01219627 10 
113 209 508 0.01220740 10 
114 244 521 0.01227838 10 
115 61 522 0.01255359 10 
116 203 522 0.01248215 10 
117 209 522 0.01259697 10 
118 61 528 0.01247158 10 
119 67 528 0.01272815 10 
120 81 528 0.01270827 10 
121 209 528 0.01271868 10 
122 220 528 0.01273860 10 
123 67 532 0.01122550 9 
124 81 532 0.01258180 10 
125 220 532 0.01282287 10 
126 473 541 0.01289042 10 
127 294 546 0.01314608 10 
128 67 556 0.01342863 10 
129 67 564 0.01358664 10 
130 81 564 0.01386402 10 
131 220 564 0.01374520 10 
132 67 567 0.01357524 10 
133 81 567 0.01389163 10 
134 220 567 0.01391562 10 
135 67 570 0.01367332 10 
136 81 570 0.01396273 10 
137 220 570 0.01396366 10 
138 267 570 0.01427959 10 
139 12 574 0.01434728 10 
140 81 575 0.01439462 10 
141 220 575 0.01435284 10 
142 511 578 0.01464558 10 
143 81 588 0.01439072 10 
144 87 588 0.01480576 10 
145 226 588 0.01480538 10 
146 570 589 0.01492646 10 
147 584 589 0.01497205 10 
148 553 594 0.01476136 10 
149 87 597 0.01484574 10 
150 94 597 0.01517546 10 
151 226 597 0.01519768 10 
152 87 604 0.01502201 10 
153 94 604 0.01532922 10 
154 528 615 0.01538039 10 
155 94 616 0.01539456 10 
156 97 621 0.01564824 10 
157 143 624 0.01587924 10 
158 94 632 0.01610761 10 
159 409 632 0.01647263 10 
160 94 637 0.01624069 10 
161 101 637 0.01660165 10 
162 101 642 0.01636928 10 
163 107 642 0.01670909 10 
164 101 645 0.01643284 10 
165 107 645 0.01676990 10 
166 101 657 0.01666922 10 
167 101 663 0.01330435 8 
168 107 663 0.01676438 10 
169 114 663 0.01537351 9 
170 101 665 0.01687606 10 
171 107 665 0.01724186 10 
172 114 665 0.01725540 10 
173 664 672 0.01702213 10 
174 107 680 0.01720199 10 
175 107 683 0.01726488 10 
176 114 683 0.01763549 10 
177 107 704 0.01769016 10 
178 114 704 0.01803191 10 
179 107 714 0.01787143 10 
180 114 714 0.01823653 10 
181 660 715 0.01785422 10 
182 600 717 0.01818513 10 
183 107 730 0.01465229 8 
184 114 730 0.01844805 10 
185 121 754 0.01895368 10 
186 126 754 0.01935820 10 
187 121 759 0.01907598 10 
188 126 759 0.01949608 10 
189 126 762 0.01915408 10 
190 132 762 0.01954603 10 
191 389 768 0.01963972 10 
192 45 772 0.01986879 10 
193 132 778 0.02019116 10 
194 705 779 0.02010887 10 
195 165 789 0.02054584 10 
196 132 792 0.02067976 10 
197 132 800 0.02082678 10 
198 138 800 0.02142264 10 
199 138 806 0.02113480 10 
200 92 817 0.02136738 10 
201 138 821 0.02132609 10 
202 138 823 0.02142074 10 
203 151 828 0.02161502 10 
204 744 842 0.02194577 10 
205 614 845 0.02216447 10 
206 151 847 0.02223373 10 
207 775 853 0.02252204 10 
208 498 854 0.02274392 10 
209 151 855 0.02274830 10 
210 155 873 0.02328774 10 
211 352 876 0.02347402 10 
212 293 887 0.01653110 7 
213 344 887 0.02394337 10 
214 639 888 0.02472703 10 
215 231 890 0.02468589 10 
216 151 895 0.02465955 10 
217 151 897 0.02294115 9 
218 138 903 0.02479587 10 
219 138 904 0.02529520 10 
220 220 904 0.02649127 10 
221 132 907 0.02515004 10 
222 138 907 0.02560892 10 
223 132 911 0.02525995 10 
224 826 919 0.02548145 10 
225 121 923 0.02607082 10 
226 126 923 0.02633365 10 
227 107 929 0.02623182 10 
228 114 929 0.02664400 10 
229 812 934 0.02633320 10 
230 107 935 0.02711280 10 
231 114 935 0.02747746 10 
232 101 939 0.02466559 9 
233 107 939 0.02456045 9 
234 317 941 0.02760769 10 
235 101 944 0.02765122 10 
236 94 947 0.02777128 10 
237 101 947 0.02806638 10 
238 22 951 0.02808993 10 
239 87 953 0.02779908 10 
240 94 953 0.02824251 10 
241 226 953 0.02826480 10 
242 81 959 0.02805150 10 
243 87 959 0.02839154 10 
244 220 959 0.02843458 10 
245 226 959 0.02842642 10 
246 745 960 0.02880569 10 
247 67 965 0.02878417 10 
248 81 965 0.02924462 10 
249 220 965 0.02925421 10 
250 246 967 0.02886003 10 
251 845 969 0.02889904 10 
252 323 973 0.02904706 10 
253 829 973 0.02959324 10 
254 61 976 0.02904818 10 
255 67 976 0.02957174 10 
256 209 976 0.02982693 10 
257 50 982 0.02950338 10 
258 61 982 0.03000352 10 
259 201 982 0.02995840 10 
260 203 982 0.02995037 10 
261 44 988 0.02954024 10 
262 50 988 0.03002815 10 
263 195 988 0.02991034 10 
264 201 988 0.01501397 5 
265 980 988 0.02958036 10 
266 227 993 0.02980305 10 
267 44 994 0.03032985 10 
268 189 994 0.03035348 10 
269 195 994 0.03037423 10 
270 32 1003 0.03008573 10 
271 178 1003 0.03076202 10 
272 183 1003 0.03077986 10 
273 25 1008 0.03035180 10 
274 32 1008 0.03084928 10 
275 178 1008 0.03084618 10 
276 183 1008 0.03086278 10 
277 25 1010 0.03043051 10 
278 32 1010 0.03094030 10 
279 172 1010 0.03089786 10 
280 178 1010 0.03092777 10 
281 870 1012 0.03073422 10 
282 518 1013 0.03105677 10 
283 19 1016 0.03114170 10 
284 166 1016 0.03175991 10 
285 172 1016 0.02852445 9 
286 285 1017 0.03119700 10 
287 366 1026 0.01883181 6 
288 151 1029 0.03179964 10 
289 157 1029 0.01912828 6 
290 163 1029 0.03153690 10 
291 166 1029 0.03202836 10 
292 273 1030 0.03166230 10 
293 311 1031 0.02183812 7 
294 117 1041 0.03170808 10 
295 882 1041 0.03248438 10 
296 432 1044 0.03243523 10 
297 913 1052 0.03302086 10 
298 136 1056 0.03321240 10 
299 633 1082 0.03302780 10 
300 997 1082 0.03385642 10 
301 728 1082 0.03386418 10 
302 132 1084 0.03332999 10 
303 324 1088 0.03420569 10 
304 518 1099 0.03451255 10 
305 881 1104 0.03464457 10 
306 865 1110 0.03479988 10 
307 45 1118 0.03434084 10 
308 700 1118 0.03549154 10 
309 43 1119 0.03554910 10 
310 890 1126 0.03534026 10 
311 101 1138 0.03548375 10 
312 440 1146 0.03574832 10 
313 107 1147 0.03580863 10 
314 114 1147 0.03589150 10 
315 699 1148 0.03639859 10 
316 107 1150 0.03635822 10 
317 114 1150 0.03641920 10 
318 114 1158 0.03650992 10 
319 121 1158 0.03678504 10 
320 121 1164 0.03686607 10 
321 126 1164 0.03656881 10 
322 509 1165 0.03716700 10 
323 938 1172 0.03728722 10 
324 114 1175 0.03753109 10 
325 121 1175 0.03758042 10 
326 923 1175 0.03763637 10 
327 929 1175 0.03860032 10 
328 1158 1175 0.03751956 10 
329 393 1176 0.03798412 10 
330 565 1176 0.03807633 10 
331 1139 1184 0.03789290 10 
332 144 1187 0.03785855 10 
333 101 1188 0.03830370 10 
334 939 1188 0.03872777 10 
335 1138 1188 0.03862822 10 
336 1147 1188 0.03855952 10 
337 1150 1188 0.03880613 10 
338 793 1189 0.03887150 10 
339 670 1192 0.03967326 10 
340 525 1198 0.04013834 10 
341 639 1201 0.04069658 10 
342 1050 1210 0.04128202 10 
343 1061 1210 0.04065065 10 
344 1075 1210 0.04069574 10 
345 1084 1210 0.04098775 10 
346 1088 1210 0.04097807 10 
347 1093 1210 0.04160258 10 
348 1098 1210 0.04136476 10 
349 85 1214 0.04083710 10 
350 475 1216 0.04073915 10 
351 157 1217 0.04037182 10 
352 163 1217 0.04097227 10 
353 1029 1217 0.04121811 10 
354 1044 1217 0.04119461 10 
355 1050 1217 0.04137720 10 
356 1056 1217 0.04140132 10 
