1 63 155 0.00200404 8 
2 43 157 0.00263241 10 
3 19 166 0.00287655 10 
4 19 172 0.00304134 10 
5 25 172 0.00316099 10 
6 25 178 0.00327342 10 
7 32 178 0.00328326 10 
8 32 183 0.00339480 10 
9 44 189 0.00351079 10 
10 44 195 0.00360376 10 
11 50 195 0.00361609 10 
12 50 201 0.00371760 10 
13 50 203 0.00376149 10 
14 61 203 0.00375422 10 
15 61 209 0.00386712 10 
16 67 209 0.00387192 10 
17 67 220 0.00407295 10 
18 81 220 0.00408806 10 
19 81 226 0.00419669 10 
20 87 226 0.00420585 10 
21 87 231 0.00430154 10 
22 94 231 0.00435561 10 
23 226 231 0.00430936 10 
24 94 241 0.00448945 10 
25 101 241 0.00449795 10 
26 238 246 0.00458315 10 
27 101 247 0.00463773 10 
28 107 247 0.00465015 10 
29 107 254 0.00477379 10 
30 114 254 0.00478418 10 
31 107 256 0.00484745 10 
32 114 256 0.00486067 10 
33 107 258 0.00488634 10 
34 114 258 0.00491109 10 
35 121 266 0.00505535 10 
36 126 266 0.00506523 10 
37 126 272 0.00518499 10 
38 132 272 0.00522824 10 
39 132 278 0.00534968 10 
40 138 278 0.00533730 10 
41 138 284 0.00546762 10 
42 151 284 0.00547891 10 
43 239 285 0.00555388 10 
44 151 291 0.00566661 10 
45 151 297 0.00577679 10 
46 157 297 0.00585826 10 
47 163 297 0.00593737 10 
48 166 297 0.00593151 10 
49 19 305 0.00613097 10 
50 157 305 0.00620085 10 
51 163 305 0.00618628 10 
52 166 305 0.00617440 10 
53 172 305 0.00621157 10 
54 19 315 0.00558242 9 
55 25 315 0.00624825 10 
56 172 315 0.00644274 10 
57 172 328 0.00648068 10 
58 19 337 0.00529568 8 
59 25 337 0.00669894 10 
60 172 337 0.00686375 10 
61 19 342 0.00674832 10 
62 25 342 0.00680627 10 
63 172 342 0.00352128 5 
64 178 342 0.00684388 10 
65 322 357 0.00421269 6 
66 25 367 0.00433892 6 
67 32 367 0.00583169 8 
68 178 367 0.00363254 5 
69 183 367 0.00511732 7 
70 150 368 0.00670460 9 
71 25 374 0.00760476 10 
72 32 374 0.00763341 10 
73 178 374 0.00548091 7 
74 183 374 0.00685529 9 
75 32 382 0.00620697 8 
76 183 382 0.00784785 10 
77 32 387 0.00789550 10 
78 183 387 0.00469383 6 
79 189 400 0.00821792 10 
80 189 414 0.00847805 10 
81 44 437 0.00894133 10 
82 195 437 0.00913793 10 
83 143 452 0.00926938 10 
84 44 454 0.00954350 10 
85 189 454 0.00957754 10 
86 381 457 0.00943362 10 
87 44 467 0.00963152 10 
88 50 467 0.00987369 10 
89 195 467 0.00991391 10 
90 195 484 0.01000162 10 
91 44 494 0.00806059 8 
92 50 494 0.01018147 10 
93 195 494 0.01041564 10 
94 201 494 0.01049340 10 
95 50 500 0.01036564 10 
96 201 500 0.01062456 10 
97 203 500 0.01064095 10 
98 61 508 0.01054762 10 
99 203 508 0.01079417 10 
100 209 508 0.01082264 10 
101 356 508 0.01091564 10 
102 211 516 0.01087777 10 
103 61 522 0.01098980 10 
104 203 522 0.01124913 10 
105 209 522 0.01124331 10 
106 61 528 0.01110824 10 
107 67 528 0.01137607 10 
108 81 528 0.01142474 10 
109 209 528 0.01149090 10 
110 220 528 0.01142624 10 
111 67 532 0.01006030 9 
112 81 532 0.01127035 10 
113 220 532 0.01155570 10 
114 67 556 0.01173915 10 
115 67 564 0.01189044 10 
116 81 564 0.01215992 10 
117 220 564 0.01210938 10 
118 107 564 0.01194720 10 
119 67 567 0.01201315 10 
120 81 567 0.01230249 10 
121 220 567 0.01231704 10 
122 67 570 0.01209318 10 
123 81 570 0.01239327 10 
124 220 570 0.01239965 10 
125 81 575 0.01249455 10 
126 220 575 0.01251595 10 
127 81 588 0.01246727 10 
128 87 588 0.01283217 10 
129 226 588 0.01283674 10 
130 87 597 0.01273230 10 
131 94 597 0.01303766 10 
132 226 597 0.01302860 10 
133 87 604 0.01288255 10 
134 94 604 0.01319396 10 
135 377 609 0.01319939 10 
136 94 616 0.01325637 10 
137 94 632 0.01363601 10 
138 94 637 0.01373644 10 
139 101 637 0.01410389 10 
140 101 642 0.01386087 10 
141 107 642 0.01410190 10 
142 101 645 0.01385006 10 
143 107 645 0.01418624 10 
144 101 657 0.01410678 10 
145 101 663 0.01416402 10 
146 107 663 0.16305183 10 
147 114 663 0.17941857 10 
148 101 665 0.17431133 10 
149 107 665 0.17886275 10 
150 114 665 0.17174000 10 
151 107 680 0.17300364 10 
152 107 683 0.16900735 10 
153 114 683 0.18050991 10 
154 107 704 0.16756609 10 
155 114 704 0.17713746 10 
156 107 714 0.03074079 10 
157 114 714 0.01950341 10 
158 107 730 0.01080145 7 
159 114 730 0.01562328 10 
160 436 736 0.01584371 10 
161 121 754 0.01623697 10 
162 126 754 0.01665994 10 
163 121 759 0.01636745 10 
164 126 759 0.01673273 10 
165 126 762 0.01644331 10 
166 132 762 0.01683450 10 
167 132 778 0.01673866 10 
168 132 792 0.01700704 10 
169 132 800 0.01717244 10 
170 138 800 0.01761056 10 
171 138 806 0.01733892 10 
172 138 821 0.01761992 10 
173 138 823 0.01754824 10 
174 151 828 0.01785928 10 
175 151 847 0.01821380 10 
176 151 855 0.01856545 10 
177 190 865 0.01873036 10 
178 639 881 0.01904514 10 
179 151 895 0.01934348 10 
180 151 897 0.01981781 10 
181 138 903 0.01959262 10 
182 110 903 0.02012486 10 
183 138 904 0.02012100 10 
184 132 907 0.01977605 10 
185 138 907 0.02020502 10 
186 132 911 0.01982584 10 
187 121 923 0.02009896 10 
188 126 923 0.02057600 10 
189 107 929 0.02039539 10 
190 114 929 0.02077211 10 
191 107 935 0.02042303 10 
192 114 935 0.02090542 10 
193 101 939 0.02039979 10 
194 107 939 0.02040911 10 
195 101 944 0.02061992 10 
196 94 947 0.02117485 10 
197 101 947 0.02139259 10 
198 121 951 0.02085635 10 
199 87 953 0.02096971 10 
200 94 953 0.02266973 10 
201 226 953 0.02151397 10 
202 81 959 0.02129297 10 
203 87 959 0.02209238 10 
204 220 959 0.02182684 10 
205 226 959 0.02186042 10 
206 67 965 0.02147992 10 
207 81 965 0.02195538 10 
208 220 965 0.02191452 10 
209 61 976 0.02220261 10 
210 67 976 0.02227444 10 
211 209 976 0.02228362 10 
212 50 982 0.02203675 10 
213 61 982 0.02249862 10 
214 201 982 0.02256841 10 
215 203 982 0.02256141 10 
216 44 988 0.02221321 10 
217 50 988 0.02269026 10 
218 195 988 0.02271254 10 
219 201 988 0.01364702 6 
220 436 989 0.02230066 10 
221 44 994 0.02243228 10 
222 189 994 0.02295159 10 
223 195 994 0.02294046 10 
224 32 1003 0.02265741 10 
225 178 1003 0.02332837 10 
226 183 1003 0.02321193 10 
227 25 1008 0.02283898 10 
228 32 1008 0.02337322 10 
229 178 1008 0.02335713 10 
230 183 1008 0.02338734 10 
231 25 1010 0.02292964 10 
232 32 1010 0.02343622 10 
233 172 1010 0.02360812 10 
234 178 1010 0.02360428 10 
235 864 1014 0.02327158 10 
236 19 1016 0.02415105 10 
237 166 1016 0.02407793 10 
238 172 1016 0.02406920 10 
239 151 1029 0.02394424 10 
240 157 1029 0.02420093 10 
241 163 1029 0.02386609 10 
242 166 1029 0.02438823 10 
243 510 1042 0.02431106 10 
244 132 1084 0.02520429 10 
245 435 1096 0.02553201 10 
246 101 1138 0.02652267 10 
247 441 1146 0.02665210 10 
248 107 1147 0.02725903 10 
249 114 1147 0.02732406 10 
250 107 1150 0.02682555 10 
251 114 1150 0.02742351 10 
252 114 1158 0.02705568 10 
253 121 1158 0.02766669 10 
254 1059 1159 0.02785402 10 
255 121 1164 0.02721477 10 
256 126 1164 0.02811261 10 
257 114 1175 0.02767249 10 
258 121 1175 0.02835901 10 
259 923 1175 0.02839570 10 
260 929 1175 0.02834810 10 
261 1158 1175 0.02259162 8 
262 686 1185 0.02823691 10 
263 101 1188 0.02829313 10 
264 939 1188 0.02882925 10 
265 1138 1188 0.02930446 10 
266 1147 1188 0.02912360 10 
267 1150 1188 0.02914072 10 
268 697 1204 0.02594921 9 
269 1050 1210 0.02944585 10 
270 1061 1210 0.02970594 10 
271 1075 1210 0.02971676 10 
272 1084 1210 0.02971504 10 
273 1088 1210 0.02974125 10 
274 1093 1210 0.02975388 10 
275 1098 1210 0.02975413 10 
276 157 1217 0.02957523 10 
277 163 1217 0.03004396 10 
278 1029 1217 0.03004362 10 
279 1044 1217 0.02980337 10 
280 1050 1217 0.02978348 10 
281 1056 1217 0.03011744 10 
