VERTEX2 0 0.00001034 0.00000038 -0.00000015
VERTEX2 1 0.00001034 0.00000038 -0.00064215
VERTEX2 2 0.00001034 0.00000038 -0.00118015
VERTEX2 3 0.01101219 -0.00097461 -0.00356215
VERTEX2 4 0.64101877 -0.01119984 -0.00744415
VERTEX2 5 0.69602646 -0.01171534 -0.09872615
VERTEX2 6 0.70027957 -0.01543466 -0.89599815
VERTEX2 7 0.69396684 0.00421382 -1.51153515
VERTEX2 8 0.69927369 0.02669459 -2.12506915
VERTEX2 9 0.71612496 0.04112361 -2.76313915
VERTEX2 10 0.72899149 0.04322100 2.90551516
VERTEX2 11 0.73321407 0.04053796 2.23123616
VERTEX2 12 0.73319679 0.04154641 1.58176216
VERTEX2 13 0.73876295 0.05907150 0.92226416
VERTEX2 14 0.75966847 0.07375171 0.31402516
VERTEX2 15 0.76858188 0.07435865 -0.21090284
VERTEX2 16 1.06250392 0.01415316 -0.22959484
VERTEX2 17 1.66942098 -0.13422782 -0.26112172
VERTEX2 18 2.29836935 -0.29893130 -0.27160589
VERTEX2 19 2.93080036 -0.49838447 -0.32053613
VERTEX2 20 3.52091281 -0.68773061 -0.31459383
VERTEX2 21 4.12662882 -0.83965077 -0.20300944
VERTEX2 22 4.73327576 -0.98062472 -0.18562043
VERTEX2 23 5.37059633 -1.02509916 -0.07821764
VERTEX2 24 6.00683803 -1.09775571 -0.13527899
VERTEX2 25 6.64637759 -1.16687426 -0.13251076
VERTEX2 26 7.25483213 -1.26802871 -0.17309412
VERTEX2 27 7.87023796 -1.36003264 -0.15731493
VERTEX2 28 8.45133661 -1.45930751 -0.16181503
VERTEX2 29 8.82990091 -1.51717262 -0.13110347
VERTEX2 30 8.83867744 -1.51951829 -0.66335735
VERTEX2 31 8.93924550 -1.65483231 -0.93180662
VERTEX2 32 9.30621864 -2.16966801 -0.95040294
VERTEX2 33 9.68897364 -2.67794160 -0.89958297
VERTEX2 34 10.10120629 -3.17019186 -0.87855656
VERTEX2 35 10.52364884 -3.65479493 -0.84434089
VERTEX2 36 10.95270167 -4.14065100 -0.85297892
VERTEX2 37 11.23547250 -4.45694953 -0.84537786
VERTEX2 38 11.23456496 -4.45570154 -1.16720674
VERTEX2 39 11.23290217 -4.44794034 -1.33829048
VERTEX2 40 11.37673752 -5.02027195 -1.32112654
VERTEX2 41 11.52603732 -5.61768957 -1.35321628
VERTEX2 42 11.64774990 -6.17835177 -1.37603023
VERTEX2 43 11.75347263 -6.77041135 -1.41634395
VERTEX2 44 11.84230022 -7.36153993 -1.45343917
VERTEX2 45 11.89686402 -7.97962554 -1.50898809
VERTEX2 46 11.92742679 -8.59957940 -1.52841732
VERTEX2 47 11.94711169 -9.21928706 -1.57015146
VERTEX2 48 11.94321968 -9.84322891 -1.57676506
VERTEX2 49 11.93554508 -10.46308663 -1.62768161
VERTEX2 50 11.88188797 -11.05019603 -1.67227015
VERTEX2 51 11.82587357 -11.64817265 -1.70133306
VERTEX2 52 11.72779527 -12.23273753 -1.77805329
VERTEX2 53 11.62689808 -12.79177454 -1.76570289
VERTEX2 54 11.51295567 -13.30500287 -1.82778807
VERTEX2 55 11.51931762 -13.27469480 -1.82251324
VERTEX2 56 11.52002885 -13.27197823 -1.81209522
VERTEX2 57 11.37657250 -13.88454652 -1.82364942
VERTEX2 58 11.23050705 -14.48531391 -1.77759487
VERTEX2 59 11.10155158 -15.08562525 -1.80133887
VERTEX2 60 10.97191719 -15.68223159 -1.78012302
VERTEX2 61 10.83644732 -16.27924372 -1.83104102
VERTEX2 62 10.68588805 -16.83541634 -1.79119296
VERTEX2 63 10.53352409 -17.39637033 -1.82670265
VERTEX2 64 10.39763842 -17.95197648 -1.76335114
VERTEX2 65 10.26219240 -18.50538452 -1.81482400
VERTEX2 66 10.10767165 -19.08855221 -1.82292652
VERTEX2 67 9.94138231 -19.67513142 -1.82158560
VERTEX2 68 9.83036459 -20.12114293 -1.83728988
VERTEX2 69 9.83386190 -20.10986379 -1.99213324
VERTEX2 70 9.84092700 -20.09643172 -2.66619500
VERTEX2 71 9.86027617 -20.09536899 2.97460674
VERTEX2 72 9.87301888 -20.09692393 2.96515152
VERTEX2 73 9.88036430 -20.09875652 2.90023813
VERTEX2 74 9.88000356 -20.09849833 2.27851819
VERTEX2 75 9.88644937 -20.10103578 1.92622203
VERTEX2 76 9.87417529 -20.08736724 2.62019975
VERTEX2 77 9.86962175 -20.08544701 2.85319897
VERTEX2 78 9.58851747 -20.09544222 -3.09279072
VERTEX2 79 8.97460282 -20.13245218 -3.09846426
VERTEX2 80 8.34703403 -20.12919882 3.10972784
VERTEX2 81 7.72724094 -20.10076445 3.08329911
VERTEX2 82 7.15639829 -20.05941035 3.02781830
VERTEX2 83 6.56216192 -20.00524155 3.00490392
VERTEX2 84 5.99566090 -19.91704175 2.92764427
VERTEX2 85 5.44960469 -19.81120524 2.93537304
VERTEX2 86 4.83669110 -19.68901894 2.84607681
VERTEX2 87 4.45002869 -19.58512154 2.79374658
VERTEX2 88 4.09634090 -19.45292369 2.76416458
VERTEX2 89 4.10596947 -19.45341151 -3.12278870
VERTEX2 90 3.50020795 -19.45589381 3.12947338
VERTEX2 91 2.88391804 -19.45083719 -3.10448959
VERTEX2 92 2.28378328 -19.44601228 3.06310824
VERTEX2 93 1.66446389 -19.34294182 2.96229214
VERTEX2 94 1.04617193 -19.20427108 2.91951333
VERTEX2 95 0.42490994 -19.11595939 3.06243683
VERTEX2 96 -0.18581068 -19.06444663 3.08670030
VERTEX2 97 -0.77573611 -19.00123880 3.01625726
VERTEX2 98 -1.36304618 -18.90031080 2.95838195
VERTEX2 99 -2.06691758 -18.77626538 3.00519952
VERTEX2 100 -2.62995683 -18.66850597 2.95342013
VERTEX2 101 -3.24153139 -18.61192377 3.05654562
VERTEX2 102 -3.85465231 -18.53103748 2.95068141
VERTEX2 103 -4.46262244 -18.41571418 3.04663275
VERTEX2 104 -5.07501479 -18.33882136 3.01293434
VERTEX2 105 -5.68770704 -18.27373887 3.05943391
VERTEX2 106 -6.28973608 -18.20268437 3.00448924
VERTEX2 107 -6.90731411 -18.10586532 3.00058720
VERTEX2 108 -7.36394494 -18.05606996 3.06216033
VERTEX2 109 -7.41065231 -18.04414330 2.61365243
VERTEX2 110 -7.42637213 -18.02780625 2.02229397
VERTEX2 111 -7.42639730 -17.94762064 1.51628925
VERTEX2 112 -7.40136057 -17.31453746 1.57062403
VERTEX2 113 -7.41839125 -16.69278683 1.61756046
VERTEX2 114 -7.45012750 -16.07939669 1.65424617
VERTEX2 115 -7.52174243 -15.44048772 1.71436849
VERTEX2 116 -7.63853881 -14.69099942 1.75831993
VERTEX2 117 -7.77257012 -14.08149539 1.85372587
VERTEX2 118 -7.77691289 -14.06192062 1.51887082
VERTEX2 119 -7.72043876 -13.54615170 1.46549037
VERTEX2 120 -7.66690593 -12.89217584 1.55558631
VERTEX2 121 -7.67662656 -12.27484340 1.62307392
VERTEX2 122 -7.70994300 -11.69382154 1.67930786
VERTEX2 123 -7.73452273 -11.51523621 1.66654506
VERTEX2 124 -7.64877028 -11.27817477 1.24359904
VERTEX2 125 -7.43244050 -10.68738990 1.23268084
VERTEX2 126 -7.30014930 -10.07321249 1.43926110
VERTEX2 127 -7.20273479 -9.43787563 1.43762135
VERTEX2 128 -7.12762638 -8.79817546 1.47397814
VERTEX2 129 -7.04159829 -8.16237163 1.44124579
VERTEX2 130 -6.97526597 -7.53449727 1.49421441
VERTEX2 131 -6.93072794 -6.91209620 1.58296683
VERTEX2 132 -6.91415506 -6.29880101 1.53358084
VERTEX2 133 -6.86817538 -5.73378864 1.49683933
VERTEX2 134 -6.81531952 -5.13990637 1.47870140
VERTEX2 135 -6.73457403 -4.56649352 1.45255701
VERTEX2 136 -6.66172746 -3.93619119 1.47226562
VERTEX2 137 -6.56663126 -3.30814541 1.43051723
VERTEX2 138 -6.49216302 -2.68129491 1.51083407
VERTEX2 139 -6.47712100 -2.05229903 1.57621702
VERTEX2 140 -6.50703445 -1.39855187 1.60681149
VERTEX2 141 -6.51465893 -0.76016481 1.55843575
VERTEX2 142 -6.51667221 -0.11208995 1.55464706
VERTEX2 143 -6.43751059 0.52492265 1.44412791
VERTEX2 144 -6.39893367 0.89476239 1.46168568
VERTEX2 145 -6.39412579 0.90944688 0.96332186
VERTEX2 146 -6.39292604 0.91564080 0.37013347
VERTEX2 147 -6.33770675 0.91197254 -0.11635763
VERTEX2 148 -5.90631128 0.85360538 -0.15199066
VERTEX2 149 -5.26588130 0.76231676 -0.12686591
VERTEX2 150 -4.63642018 0.70075012 -0.11296381
VERTEX2 151 -4.00147166 0.65604158 -0.02759028
VERTEX2 152 -3.37878902 0.62316750 -0.08840731
VERTEX2 153 -2.75642935 0.59294612 0.00509359
VERTEX2 154 -2.13773980 0.57449509 -0.06436857
VERTEX2 155 -1.51516024 0.54367813 -0.03085972
VERTEX2 156 -0.89030276 0.53197576 -0.00003459
VERTEX2 157 -0.32910528 0.51672471 -0.06430738
VERTEX2 158 -0.13418463 0.50371193 -0.03680875
VERTEX2 159 -0.12824912 0.50183755 0.95053423
VERTEX2 160 -0.12282888 0.51076382 1.98622966
VERTEX2 161 -0.14575997 0.45029550 2.70660616
VERTEX2 162 -0.11966129 0.45614597 -2.54076370
VERTEX2 163 -0.12068563 0.45103940 -1.54366755
VERTEX2 164 -0.19840773 0.54797703 -0.48054663
VERTEX2 165 -0.02572894 0.53057761 -0.07258718
VERTEX2 166 0.67076539 0.48671831 -0.07081264
VERTEX2 167 1.28716437 0.43563109 -0.10005517
VERTEX2 168 1.87500865 0.38567172 -0.08794281
VERTEX2 169 2.46989536 0.31347017 -0.12476306
VERTEX2 170 3.05605349 0.24457052 -0.14530670
VERTEX2 171 3.61727853 0.14565399 -0.18351387
VERTEX2 172 4.23927018 0.03821585 -0.16934140
VERTEX2 173 4.86349504 -0.08172214 -0.19234223
VERTEX2 174 5.48397780 -0.19539637 -0.15242324
VERTEX2 175 6.09575347 -0.28528252 -0.17734591
VERTEX2 176 6.69743679 -0.40648674 -0.16770037
VERTEX2 177 7.32336853 -0.51014609 -0.19533879
VERTEX2 178 7.94676958 -0.65695619 -0.23436023
VERTEX2 179 8.35029392 -0.74124832 -0.18118485
VERTEX2 180 8.40034150 -0.75480416 -0.62352029
VERTEX2 181 8.83925424 -1.07299246 -0.67548082
VERTEX2 182 9.24365492 -1.43261777 -0.84974613
VERTEX2 183 9.59081749 -1.85547459 -0.90680503
VERTEX2 184 9.93484193 -2.37645414 -1.05238775
VERTEX2 185 10.22283210 -2.91987831 -1.14419438
VERTEX2 186 10.44522108 -3.49444865 -1.20991919
VERTEX2 187 10.64322109 -4.04674465 -1.23199076
VERTEX2 188 10.84812101 -4.61854706 -1.23691596
VERTEX2 189 11.04572618 -5.19421956 -1.26317460
VERTEX2 190 11.22886120 -5.79705822 -1.29204577
VERTEX2 191 11.40159990 -6.39912617 -1.31621783
VERTEX2 192 11.55534188 -6.99448965 -1.34467469
VERTEX2 193 11.67820254 -7.54110059 -1.40050474
VERTEX2 194 11.77736562 -8.10833068 -1.42738634
VERTEX2 195 11.85697726 -8.67055419 -1.45613291
VERTEX2 196 11.92304506 -9.29470897 -1.49693937
VERTEX2 197 11.96041064 -9.91457544 -1.52447100
VERTEX2 198 11.98503556 -10.53172694 -1.58272017
VERTEX2 199 11.95651385 -11.13782985 -1.64422839
VERTEX2 200 11.90900232 -11.73855111 -1.66620487
VERTEX2 201 11.83785928 -12.33556402 -1.72298842
VERTEX2 202 11.77399100 -12.83733808 -1.70299548
VERTEX2 203 11.67219534 -13.56757606 -1.75596520
VERTEX2 204 11.54990391 -14.14107555 -1.85794620
VERTEX2 205 11.38032891 -14.69998539 -1.86737349
VERTEX2 206 11.22586945 -15.24394152 -1.86546080
VERTEX2 207 11.06567162 -15.80757681 -1.84952644
VERTEX2 208 10.89180004 -16.40379609 -1.85898454
VERTEX2 209 10.72908394 -17.00149559 -1.82082105
VERTEX2 210 10.56506418 -17.59192257 -1.82968891
VERTEX2 211 10.41498216 -18.18616180 -1.82743946
VERTEX2 212 10.23742649 -18.76991113 -1.88030774
VERTEX2 213 10.04130735 -19.35731454 -1.90110321
VERTEX2 214 9.84040698 -19.93111730 -1.90493105
VERTEX2 215 9.72507394 -20.25128492 -1.94074899
VERTEX2 216 9.73809877 -20.22913004 -2.43945847
VERTEX2 217 9.76492612 -20.22633181 -2.98168284
VERTEX2 218 9.77436876 -20.22998442 -3.03773357
VERTEX2 219 9.21180186 -20.18464080 3.07662910
VERTEX2 220 8.60177021 -20.13892674 3.03686297
VERTEX2 221 7.96596725 -20.07130801 3.08750275
VERTEX2 222 7.34342804 -20.02750938 3.06207907
VERTEX2 223 6.72017928 -19.99703418 -3.12465567
VERTEX2 224 6.10831510 -19.99665700 3.13282325
VERTEX2 225 5.49294466 -19.99000827 -3.10060611
VERTEX2 226 4.87853155 -19.98265963 3.13351436
VERTEX2 227 4.23590964 -20.05103150 -2.99332238
VERTEX2 228 3.71896974 -20.03567277 2.92773886
VERTEX2 229 3.27412061 -19.99717836 3.04897590
VERTEX2 230 2.98113588 -19.98052623 3.02066015
VERTEX2 231 3.18297558 -19.99855459 3.09123874
VERTEX2 232 2.87695944 -19.86076808 2.66587203
VERTEX2 233 2.31663881 -19.60143459 2.76837554
VERTEX2 234 1.74375457 -19.37575427 2.72434386
VERTEX2 235 1.49780408 -19.26942418 2.71945555
VERTEX2 236 1.16158389 -19.27047473 3.12515335
VERTEX2 237 0.53180448 -19.28555527 -3.08757807
VERTEX2 238 -0.09086069 -19.33434169 -3.12030283
VERTEX2 239 -0.70870697 -19.33152198 3.09521570
VERTEX2 240 -1.27880549 -19.21379097 2.87715358
VERTEX2 241 -1.81823486 -19.08271818 2.96252906
VERTEX2 242 -2.39072204 -19.01793968 3.00237535
VERTEX2 243 -2.98998455 -18.93505107 3.00185175
VERTEX2 244 -3.61397299 -18.88943926 3.07325630
VERTEX2 245 -4.22867191 -18.84068362 3.01906865
VERTEX2 246 -4.83016361 -18.75472780 2.94667362
VERTEX2 247 -5.43559142 -18.67223577 3.05243245
VERTEX2 248 -5.99086343 -18.65019179 3.08380266
VERTEX2 249 -5.94287509 -18.65745935 -3.00650085
VERTEX2 250 -5.94062763 -18.65735815 2.68961684
VERTEX2 251 -6.26237910 -18.31728011 2.26620674
VERTEX2 252 -6.61758115 -17.89733419 2.27472153
VERTEX2 253 -6.98891942 -17.45170030 2.26372718
VERTEX2 254 -7.35374181 -16.99384559 2.22252286
VERTEX2 255 -7.42686186 -16.90084703 2.30639572
VERTEX2 256 -7.42975947 -16.82401317 1.83037855
VERTEX2 257 -7.48103212 -16.36597949 1.69476951
VERTEX2 258 -7.56416713 -15.77662415 1.77528751
VERTEX2 259 -7.70722263 -15.17220018 1.81592176
VERTEX2 260 -7.84056899 -14.61206487 1.80756830
VERTEX2 261 -7.83836217 -14.57622166 1.49618446
VERTEX2 262 -7.77493733 -13.92637577 1.50289286
VERTEX2 263 -7.73245929 -13.30982518 1.51638648
VERTEX2 264 -7.71718495 -12.70638316 1.61346529
VERTEX2 265 -7.74840929 -12.10339832 1.63363637
VERTEX2 266 -7.70022108 -11.52662051 1.50445915
VERTEX2 267 -7.64801975 -10.77824532 1.47506727
VERTEX2 268 -7.51505672 -10.17564387 1.36494335
VERTEX2 269 -7.39449547 -9.56251559 1.39484862
VERTEX2 270 -7.32164887 -8.93910964 1.50890229
VERTEX2 271 -7.22575135 -8.31730523 1.39845126
VERTEX2 272 -7.13948320 -7.69090436 1.46367669
VERTEX2 273 -7.14879679 -7.06165932 1.67591577
VERTEX2 274 -7.21611944 -6.44560376 1.69998372
VERTEX2 275 -7.20367053 -5.83955279 1.52862775
VERTEX2 276 -7.19643089 -5.23438154 1.64322857
VERTEX2 277 -7.24278535 -4.67125479 1.61773950
VERTEX2 278 -7.19927033 -4.03383626 1.52911168
VERTEX2 279 -7.15934650 -3.39749711 1.47391983
VERTEX2 280 -7.09123570 -2.76690739 1.47610948
VERTEX2 281 -7.00086494 -2.13477307 1.37582280
VERTEX2 282 -6.88145937 -1.50946142 1.41582504
VERTEX2 283 -6.79488381 -0.87725804 1.40812636
VERTEX2 284 -6.68346733 -0.25585421 1.43542513
VERTEX2 285 -6.61617038 0.39288438 1.45652636
VERTEX2 286 -6.54940903 1.01385247 1.51015065
VERTEX2 287 -6.54657853 1.06451577 1.40578584
VERTEX2 288 -6.54350122 1.06998669 0.79735445
VERTEX2 289 -6.54219406 1.07055555 0.20409833
VERTEX2 290 -6.10348600 1.06141507 -0.02086484
VERTEX2 291 -5.48241466 1.05296307 -0.00701810
VERTEX2 292 -4.86792380 1.03227332 -0.06171360
VERTEX2 293 -4.24481505 0.98602770 -0.08481879
VERTEX2 294 -3.62526822 0.93273532 -0.08417008
VERTEX2 295 -3.00502730 0.85131852 -0.19669410
VERTEX2 296 -2.38973315 0.70554327 -0.24211827
VERTEX2 297 -1.77661378 0.55283717 -0.25383151
VERTEX2 298 -1.16676749 0.39720876 -0.25449785
VERTEX2 299 -0.59338957 0.23929724 -0.19331882
VERTEX2 300 -0.00798675 0.15215208 -0.15113672
VERTEX2 301 0.55296711 0.05119806 -0.21030593
VERTEX2 302 0.85362573 -0.01431739 -0.23120826
VERTEX2 303 0.83501473 -0.01062874 -0.22706910
VERTEX2 304 1.33426504 -0.12733371 -0.21751757
VERTEX2 305 1.94814946 -0.17342185 -0.03365195
VERTEX2 306 2.57981788 -0.18548597 -0.05160025
VERTEX2 307 3.22086305 -0.23482240 -0.08820089
VERTEX2 308 3.84735607 -0.29912651 -0.14386564
VERTEX2 309 4.48116780 -0.36088483 -0.05102845
VERTEX2 310 5.10772496 -0.39225646 -0.08699971
VERTEX2 311 5.38765054 -0.41876062 0.08794444
VERTEX2 312 5.38389627 -0.42073194 1.07564451
VERTEX2 313 5.38874028 -0.20178111 1.57128289
VERTEX2 314 5.36973881 0.42702505 1.61103881
VERTEX2 315 5.34173242 1.05524171 1.60668180
VERTEX2 316 5.30263261 1.69889924 1.65801282
VERTEX2 317 5.24227104 2.33918281 1.66795405
VERTEX2 318 5.14445035 2.97481690 1.76249872
VERTEX2 319 5.06546286 3.32032673 1.83385819
VERTEX2 320 5.06722421 3.32577890 2.80246550
VERTEX2 321 5.05979210 3.32257821 -2.44089189
VERTEX2 322 5.05859051 3.32011023 -1.44456067
VERTEX2 323 5.07049975 3.30865612 -0.45201938
VERTEX2 324 5.07653583 3.30669441 0.20790999
VERTEX2 325 5.07704176 3.30673899 -0.32030642
VERTEX2 326 5.09048402 3.29668697 -0.91611341
VERTEX2 327 5.09330023 3.28357264 -1.54010388
VERTEX2 328 5.07823067 2.64830804 -1.58688780
VERTEX2 329 5.05744974 2.02177241 -1.64286452
VERTEX2 330 5.00456728 1.40659097 -1.66293580
VERTEX2 331 4.95092947 0.79009975 -1.67828527
VERTEX2 332 4.87307765 0.17662258 -1.69787203
VERTEX2 333 4.85182345 0.02232343 -1.63396517
VERTEX2 334 4.85311982 0.02231013 -0.84575590
VERTEX2 335 4.86796820 0.01790194 0.14537136
VERTEX2 336 4.88103692 0.02246794 1.08664957
VERTEX2 337 4.88663823 0.05705438 2.06575174
VERTEX2 338 4.88493728 0.05822672 3.05588490
VERTEX2 339 4.89562109 0.06484940 -2.17757305
VERTEX2 340 4.89575388 0.06372881 -1.15797351
VERTEX2 341 5.00801610 -0.00417538 -0.52437069
VERTEX2 342 5.57970332 -0.30902409 -0.42233026
VERTEX2 343 6.15940321 -0.51193073 -0.29012655
VERTEX2 344 6.74976435 -0.69620269 -0.29903798
VERTEX2 345 6.98639541 -0.76591587 -0.32573106
VERTEX2 346 6.97115130 -0.76093182 -0.97097965
VERTEX2 347 6.97368514 -0.85107106 -1.52844190
VERTEX2 348 6.99167779 -1.44339811 -1.54463516
VERTEX2 349 6.98941903 -2.06479988 -1.58433780
VERTEX2 350 6.97608473 -2.85485579 -1.60343831
VERTEX2 351 6.96173282 -3.13074610 -1.63186565
VERTEX2 352 6.95934543 -3.14213411 -1.91880321
VERTEX2 353 6.94487306 -3.15988598 -2.58194241
VERTEX2 354 6.93061373 -3.16397272 3.10000808
VERTEX2 355 6.90864663 -3.16308471 2.38151311
VERTEX2 356 6.90091278 -3.14941506 1.80833854
VERTEX2 357 6.90409116 -3.13042696 1.15754638
VERTEX2 358 6.90629769 -3.12731637 0.54427062
VERTEX2 359 6.89457162 -3.13233183 -0.06757628
VERTEX2 360 6.87773363 -3.12898546 -0.24271930
VERTEX2 361 6.86900546 -3.13125740 0.67975060
VERTEX2 362 6.95525742 -2.89754367 1.21540125
VERTEX2 363 7.05925801 -2.62667424 1.20971788
VERTEX2 364 6.99021976 -2.28995766 1.82637839
VERTEX2 365 6.93496937 -2.00029309 1.33098683
VERTEX2 366 7.04538317 -1.87562008 0.77924140
VERTEX2 367 7.49179781 -1.44075571 0.78226420
VERTEX2 368 7.94941545 -1.00379300 0.73435255
VERTEX2 369 7.97037210 -0.97852599 0.48256730
VERTEX2 370 7.99398735 -0.97477472 -0.10414629
VERTEX2 371 7.99779292 -0.97677007 -0.64956398
VERTEX2 372 8.42418985 -1.32403145 -0.67721792
VERTEX2 373 8.89769959 -1.69060171 -0.67513389
VERTEX2 374 9.37771944 -2.09561794 -0.73614376
VERTEX2 375 9.73970160 -2.41795295 -0.76674073
VERTEX2 376 9.75476900 -2.42716731 -0.07326428
VERTEX2 377 9.80747984 -2.38963917 0.62072910
VERTEX2 378 10.34071591 -1.99219785 0.67358286
VERTEX2 379 10.81847139 -1.56237055 0.75698434
VERTEX2 380 11.25676132 -1.09628076 0.87483527
VERTEX2 381 11.40205662 -0.91691082 1.02316928
VERTEX2 382 11.40306047 -0.91506771 2.06786740
VERTEX2 383 11.39918509 -0.91268833 3.05445703
VERTEX2 384 11.39576602 -0.91593223 -2.26526303
VERTEX2 385 11.39026729 -0.92516810 -1.23545581
VERTEX2 386 11.49350168 -1.05955984 -1.01061166
VERTEX2 387 11.94747952 -1.48086150 -0.67895390
VERTEX2 388 12.40559856 -1.83508087 -0.67213914
VERTEX2 389 12.83879774 -2.20857799 -0.75693926
VERTEX2 390 12.84693681 -2.21564865 -0.28699535
VERTEX2 391 12.65463217 -2.20704685 0.08849834
VERTEX2 392 12.59213342 -2.20767834 1.11783194
VERTEX2 393 12.59296230 -2.14712143 2.35435805
VERTEX2 394 12.52246106 -2.11791768 -2.94790355
VERTEX2 395 12.71074948 -2.01902994 -2.61511472
VERTEX2 396 12.68499688 -2.03253577 -2.61754823
VERTEX2 397 12.63857383 -2.04297736 -2.63092881
VERTEX2 398 12.61591642 -2.06179217 -2.43707334
VERTEX2 399 12.53657842 -2.17380207 -2.14245964
VERTEX2 400 12.17724619 -2.73384133 -2.09477817
VERTEX2 401 11.82984231 -3.27854097 -2.18869586
VERTEX2 402 11.34885633 -3.73759221 -2.45761900
VERTEX2 403 10.83297197 -4.14813682 -2.49280251
VERTEX2 404 10.32612794 -4.50797994 -2.57296589
VERTEX2 405 10.30629271 -4.52566927 -2.04138293
VERTEX2 406 10.30222337 -4.48941523 -1.06697431
VERTEX2 407 10.48198797 -4.74285266 -0.94022974
VERTEX2 408 10.80898708 -5.20351368 -0.97928378
VERTEX2 409 10.94118098 -5.41339979 -1.08006465
VERTEX2 410 10.93278301 -5.37955599 -1.71112317
VERTEX2 411 11.13154285 -4.87466053 -2.57571226
VERTEX2 412 10.58106816 -5.09389107 -2.78053129
VERTEX2 413 9.94861681 -5.30712179 -2.86132355
VERTEX2 414 9.30980419 -5.50911352 -2.75874657
VERTEX2 415 8.69989025 -5.74721335 -2.75118491
VERTEX2 416 8.40821645 -5.87643663 -2.80580313
VERTEX2 417 8.11659070 -5.86026189 3.05396877
VERTEX2 418 7.67913677 -5.81704001 3.00932847
VERTEX2 419 7.67902094 -5.81707334 -2.84186439
VERTEX2 420 7.72737622 -5.79565856 -2.62497262
VERTEX2 421 7.72356289 -5.80179440 -1.65534255
VERTEX2 422 7.71348448 -5.81587678 -0.41356567
VERTEX2 423 7.71742553 -5.81625776 -0.06705084
VERTEX2 424 7.71555528 -5.81680443 -0.06601028
VERTEX2 425 7.70144885 -5.82474900 -0.05359544
VERTEX2 426 7.69926202 -5.82530280 -0.06203879
VERTEX2 427 7.72962068 -5.82691456 -0.05824447
VERTEX2 428 8.38927174 -5.84937486 -0.06306022
VERTEX2 429 9.03134915 -5.89926110 -0.10319747
VERTEX2 430 9.37094750 -5.93995766 -0.14864290
VERTEX2 431 9.34660363 -5.93703163 -0.09607109
VERTEX2 432 9.35618470 -5.94041327 -0.72625122
VERTEX2 433 9.35822787 -5.94321817 -1.40193138
VERTEX2 434 9.32234653 -6.47332090 -1.62925436
VERTEX2 435 9.29095730 -7.10729922 -1.65694895
VERTEX2 436 9.21456975 -7.73844000 -1.66514018
VERTEX2 437 9.16363103 -8.37946199 -1.65660265
VERTEX2 438 9.11248248 -8.84516199 -1.68674014
VERTEX2 439 9.11134887 -8.84941508 -2.12186921
VERTEX2 440 9.11754415 -8.84455023 -2.76387163
VERTEX2 441 9.13114408 -8.84321849 2.89840192
VERTEX2 442 9.13481829 -8.84525452 2.27014282
VERTEX2 443 9.13472894 -8.84377807 1.70428130
VERTEX2 444 9.13818278 -8.82576104 1.11380500
VERTEX2 445 9.14330249 -8.82089450 0.45678792
VERTEX2 446 9.14056559 -8.82257816 0.65942833
VERTEX2 447 9.15079791 -8.80292892 1.29318718
VERTEX2 448 9.30171165 -8.18501949 1.31108965
VERTEX2 449 9.43555132 -7.55260930 1.41288378
VERTEX2 450 9.53062199 -6.91955377 1.42693116
VERTEX2 451 9.58405219 -6.45274288 1.46982941
VERTEX2 452 9.58414509 -6.45180691 1.09223181
VERTEX2 453 9.58176506 -6.45609334 0.47069670
VERTEX2 454 9.84659901 -6.43620130 0.04910792
VERTEX2 455 10.44228008 -6.41222562 0.02859882
VERTEX2 456 11.07141497 -6.40812738 -0.03593469
VERTEX2 457 11.42219790 -6.43064813 -0.12359677
VERTEX2 458 11.41452332 -6.42683613 -0.76935381
VERTEX2 459 11.40542140 -6.38989267 -1.37743052
VERTEX2 460 11.38462154 -6.78670554 -1.63434318
VERTEX2 461 11.31585960 -7.40192307 -1.72221543
VERTEX2 462 11.22847872 -7.91009906 -1.76215869
VERTEX2 463 11.24023533 -7.88707637 -0.92169025
VERTEX2 464 11.49535268 -7.95960184 -0.24341433
VERTEX2 465 12.08133583 -8.09296398 -0.23574421
VERTEX2 466 12.63696179 -8.24473185 -0.29147122
VERTEX2 467 13.20984539 -8.42721847 -0.33502300
VERTEX2 468 13.82459797 -8.64584421 -0.37024211
VERTEX2 469 14.41619319 -8.91163738 -0.45282539
VERTEX2 470 14.87039578 -9.12730760 -0.43361066
VERTEX2 471 14.87900993 -9.13197300 -0.63293681
VERTEX2 472 14.89656912 -9.15645045 -1.26453255
VERTEX2 473 14.89822135 -9.16454129 -1.90404367
VERTEX2 474 14.89601412 -9.16731785 -2.53431347
VERTEX2 475 14.89778343 -9.16707238 -3.10774822
VERTEX2 476 14.89983286 -9.16734708 2.52460772
VERTEX2 477 14.90458950 -9.17662582 1.96541840
VERTEX2 478 14.90542912 -9.18741881 1.33872882
VERTEX2 479 14.90399668 -9.19071959 0.88471775
VERTEX2 480 14.90385490 -9.19103158 1.44707487
VERTEX2 481 14.90039191 -9.17617785 2.44964536
VERTEX2 482 14.90417474 -9.17768844 2.78552472
VERTEX2 483 14.91037416 -9.17972987 2.77998643
VERTEX2 484 14.48371442 -9.02169599 2.81535541
VERTEX2 485 13.88249873 -8.83271986 2.81310984
VERTEX2 486 13.28173788 -8.62049061 2.82248188
VERTEX2 487 12.67259574 -8.44144095 2.85061004
VERTEX2 488 12.06117907 -8.26041723 2.88659218
VERTEX2 489 11.59209807 -8.15312170 2.91689327
VERTEX2 490 11.59920260 -8.15243377 -2.88143454
VERTEX2 491 11.60926127 -8.13917620 -1.94573778
VERTEX2 492 11.59276429 -8.36496137 -1.64289826
VERTEX2 493 11.53111812 -8.96482837 -1.69808690
VERTEX2 494 11.44414305 -9.57192782 -1.75914950
VERTEX2 495 11.37506524 -10.19235338 -1.65196401
VERTEX2 496 11.33123944 -10.81429839 -1.53424807
VERTEX2 497 11.32411241 -11.43010632 -1.62033014
VERTEX2 498 11.25552735 -12.04891851 -1.72219483
VERTEX2 499 11.12524798 -12.67224727 -1.73927732
VERTEX2 500 11.18271222 -13.23768084 -1.41049417
VERTEX2 501 11.25655826 -13.81505212 -1.48261196
VERTEX2 502 11.27984573 -14.50841712 -1.56712158
VERTEX2 503 11.27496620 -14.95319427 -1.58411365
VERTEX2 504 11.28102534 -14.93615228 -0.72779009
VERTEX2 505 11.51880004 -14.96362716 -0.10607270
VERTEX2 506 12.11056139 -15.04624211 -0.25865101
VERTEX2 507 12.69108994 -15.21691231 -0.33722848
VERTEX2 508 13.25936047 -15.42920324 -0.35052273
VERTEX2 509 13.87941409 -15.66411300 -0.40624677
VERTEX2 510 14.23540156 -15.82363354 -0.42016607
VERTEX2 511 14.23360867 -15.80589008 0.45510432
VERTEX2 512 14.25577784 -15.75936889 1.65224969
VERTEX2 513 14.25217562 -15.74868611 2.60764947
VERTEX2 514 14.18466395 -15.72960492 2.83390943
VERTEX2 515 13.57462941 -15.54746730 2.83501245
VERTEX2 516 12.99011491 -15.35225804 2.85091007
VERTEX2 517 12.39761555 -15.20295811 2.87910520
VERTEX2 518 11.80546361 -15.05051701 2.90345927
VERTEX2 519 11.28376951 -14.92550691 2.88776654
VERTEX2 520 11.11601328 -14.88144321 -2.99697278
VERTEX2 521 11.13865975 -14.85658965 -1.99333400
VERTEX2 522 11.07247249 -15.25194991 -1.72904995
VERTEX2 523 10.98073325 -15.86794073 -1.73666441
VERTEX2 524 10.87665328 -16.43745615 -1.77885326
VERTEX2 525 10.77242491 -16.97495840 -1.75545821
VERTEX2 526 10.65585382 -17.53895739 -1.81454878
VERTEX2 527 10.50618389 -18.11981332 -1.84885898
VERTEX2 528 10.32245234 -18.68736977 -1.92434498
VERTEX2 529 10.10934113 -19.28698628 -1.95268389
VERTEX2 530 9.86127131 -19.88377939 -1.98281127
VERTEX2 531 9.59087772 -20.45614968 -2.06268478
VERTEX2 532 9.49329464 -20.63998550 -2.01212587
VERTEX2 533 9.49045657 -20.62599323 -1.01279538
VERTEX2 534 9.48281779 -20.62090603 -0.34605275
VERTEX2 535 9.47561108 -20.61752421 -0.34650627
VERTEX2 536 9.82044481 -20.69981877 -0.21589442
VERTEX2 537 10.42186893 -20.84917460 -0.27342005
VERTEX2 538 10.97687163 -21.01871769 -0.30008095
VERTEX2 539 11.58000824 -21.22785080 -0.36434788
VERTEX2 540 12.16234785 -21.48064701 -0.45669801
VERTEX2 541 12.74761374 -21.70900693 -0.29382431
VERTEX2 542 13.38295353 -21.85248089 -0.23815708
VERTEX2 543 13.50925258 -21.88426498 -0.26785554
VERTEX2 544 13.53468895 -21.88169441 0.36905567
VERTEX2 545 13.55825547 -21.83898170 1.43509820
VERTEX2 546 13.57711122 -21.88827523 2.26203029
VERTEX2 547 13.58981531 -21.88741861 -2.99965792
VERTEX2 548 13.60543102 -21.87742313 -2.07691769
VERTEX2 549 13.60680691 -21.86827221 -1.27041464
VERTEX2 550 13.60580472 -21.85041509 -1.75027463
VERTEX2 551 13.61407830 -21.83372714 -2.37673178
VERTEX2 552 13.63501716 -21.82334624 -3.00928721
VERTEX2 553 13.50297941 -21.77260975 2.69652895
VERTEX2 554 12.91626922 -21.48970936 2.66103295
VERTEX2 555 12.34234238 -21.21589010 2.74986050
VERTEX2 556 11.74349228 -20.99809880 2.88490686
VERTEX2 557 11.14467909 -20.82633320 2.84366310
VERTEX2 558 10.56996713 -20.66841872 2.92465996
VERTEX2 559 10.57834703 -20.67126690 2.51764747
VERTEX2 560 10.57166268 -20.66366875 2.01665165
VERTEX2 561 10.54868531 -20.64126833 2.52181206
VERTEX2 562 10.37166585 -20.64087514 -3.11787935
VERTEX2 563 9.80269599 -20.56129932 2.97345467
VERTEX2 564 9.19912151 -20.46862599 3.02220077
VERTEX2 565 8.60877570 -20.39596275 2.96460609
VERTEX2 566 8.66938061 -20.41496982 -2.53508496
VERTEX2 567 8.57683480 -20.42159881 -1.74158047
VERTEX2 568 8.52364149 -20.93060030 -1.67834017
VERTEX2 569 8.47033224 -21.50440040 -1.71764707
VERTEX2 570 8.40016654 -22.08514596 -1.71248019
VERTEX2 571 8.34657543 -22.44023088 -1.75996180
VERTEX2 572 8.31315564 -22.46450911 -2.00316319
VERTEX2 573 8.27799883 -22.54355269 -1.72684191
VERTEX2 574 8.29872090 -22.57287100 -0.78744863
VERTEX2 575 8.45572352 -22.62465346 0.13417266
VERTEX2 576 8.45639370 -22.62518806 1.16182149
VERTEX2 577 8.44994749 -22.60802565 2.13390676
VERTEX2 578 8.44061778 -22.57621677 1.76973813
VERTEX2 579 8.31743700 -21.92430073 1.78477845
VERTEX2 580 8.15732013 -21.28464607 1.85995354
VERTEX2 581 7.96455099 -20.66101162 1.90237384
VERTEX2 582 7.74434590 -20.04647100 1.94556005
VERTEX2 583 7.61521624 -19.73839959 2.02498941
VERTEX2 584 7.61000701 -19.72824303 2.86901721
VERTEX2 585 7.02861226 -19.58751971 2.98749774
VERTEX2 586 6.43667410 -19.51223994 3.08525140
VERTEX2 587 5.81963995 -19.50040517 3.11084846
VERTEX2 588 5.19166762 -19.47368827 3.11550590
VERTEX2 589 4.65604197 -19.49711182 -3.09263133
VERTEX2 590 4.10685255 -19.54012054 -3.02389900
VERTEX2 591 3.56802067 -19.61795946 -3.02579612
VERTEX2 592 3.02016954 -19.69122991 -3.02852199
VERTEX2 593 2.84282113 -19.71316266 -2.82325768
VERTEX2 594 2.88751066 -19.66519630 -1.90387447
VERTEX2 595 2.77327081 -20.27074530 -1.67100622
VERTEX2 596 2.71920860 -20.89744486 -1.69393352
VERTEX2 597 2.62575327 -21.57465603 -1.73365385
VERTEX2 598 2.52198113 -22.16970345 -1.77592146
VERTEX2 599 2.43290541 -22.54703264 -1.84205656
VERTEX2 600 2.43307403 -22.56424547 -1.03535879
VERTEX2 601 2.47602919 -22.59082203 -0.01702927
VERTEX2 602 2.51347987 -22.57582041 0.99718051
VERTEX2 603 2.47960889 -22.34222747 1.76995638
VERTEX2 604 2.42047508 -21.73088220 1.52593912
VERTEX2 605 2.43075502 -21.07941848 1.60841112
VERTEX2 606 2.39148408 -20.42838463 1.65039880
VERTEX2 607 2.40399982 -19.83472410 1.56929266
VERTEX2 608 2.39166319 -19.44511779 1.61370567
VERTEX2 609 2.38743807 -19.41992603 1.94992984
VERTEX2 610 2.38039913 -19.41736097 2.88240417
VERTEX2 611 1.78690003 -19.26544124 2.88538403
VERTEX2 612 1.31606065 -19.12963969 2.88822064
VERTEX2 613 1.35262359 -19.14093147 -2.93075643
VERTEX2 614 1.35396244 -19.13992112 -1.89194367
VERTEX2 615 1.36489117 -19.63357032 -1.58705665
VERTEX2 616 1.36935871 -20.26362751 -1.63799360
VERTEX2 617 1.23010447 -20.86205765 -1.85508420
VERTEX2 618 1.05954052 -21.46335183 -1.84489697
VERTEX2 619 0.89741037 -22.03017426 -1.84619385
VERTEX2 620 0.71276640 -22.60144332 -1.94219089
VERTEX2 621 0.84395537 -22.26590022 -1.99356312
VERTEX2 622 0.96772315 -22.00366353 -2.06822513
VERTEX2 623 0.96568946 -22.00639390 -2.60459710
VERTEX2 624 0.93696983 -22.00601446 3.03689708
VERTEX2 625 0.89688525 -21.98969519 2.37928913
VERTEX2 626 0.87276567 -21.96187211 1.76224596
VERTEX2 627 0.94561105 -21.59418240 1.35215437
VERTEX2 628 1.12504885 -20.97154577 1.25156272
VERTEX2 629 1.29732303 -20.34824949 1.32281762
VERTEX2 630 1.42347807 -19.74497863 1.40801760
VERTEX2 631 1.49615292 -19.21988155 1.42826159
VERTEX2 632 1.49816604 -19.20806447 2.10453061
VERTEX2 633 1.40476612 -19.20168255 -3.09163695
VERTEX2 634 0.74060261 -19.23942339 -3.06411734
VERTEX2 635 0.09109760 -19.25121432 3.08416202
VERTEX2 636 -0.55333193 -19.22363240 3.06615571
VERTEX2 637 -1.18345394 -19.14994705 2.96633842
VERTEX2 638 -1.57253934 -19.07092883 2.93680683
VERTEX2 639 -2.18069106 -18.96924703 3.01712354
VERTEX2 640 -2.79293466 -18.86139718 2.94916254
VERTEX2 641 -3.39050488 -18.75182466 2.94073241
VERTEX2 642 -3.96815028 -18.61431159 2.89531272
VERTEX2 643 -4.44949324 -18.47791333 2.82784393
VERTEX2 644 -4.45340237 -18.47878633 -2.69859241
VERTEX2 645 -4.49044346 -18.62134942 -1.92086134
VERTEX2 646 -4.62885096 -19.23722016 -1.62534866
VERTEX2 647 -4.58530505 -19.87862908 -1.33652123
VERTEX2 648 -4.36261109 -20.50251253 -1.17025297
VERTEX2 649 -4.18919505 -21.10006597 -1.50786752
VERTEX2 650 -4.28969672 -21.72775981 -1.76523980
VERTEX2 651 -4.30707019 -21.87248210 -0.96585393
VERTEX2 652 -4.24521247 -21.90030321 0.05908766
VERTEX2 653 -4.19912754 -21.85891861 1.08948666
VERTEX2 654 -4.20813311 -21.56182112 1.60264004
VERTEX2 655 -4.21847398 -21.00799657 1.59762573
VERTEX2 656 -4.21755713 -20.40548802 1.58498410
VERTEX2 657 -4.32444041 -19.79343734 1.86160096
VERTEX2 658 -4.51447292 -19.17731710 1.85441421
VERTEX2 659 -4.62900914 -18.68475634 1.78323380
VERTEX2 660 -4.63192961 -18.67015442 2.38329756
VERTEX2 661 -4.80958303 -18.65053248 3.03668417
VERTEX2 662 -5.40223756 -18.59107312 3.10626454
VERTEX2 663 -5.98878373 -18.60529846 -3.07591913
VERTEX2 664 -5.99501612 -18.60370499 -2.55274708
VERTEX2 665 -6.01103736 -18.70509339 -1.71855148
VERTEX2 666 -6.08224308 -19.31210678 -1.68131206
VERTEX2 667 -6.13883677 -19.87262647 -1.67665804
VERTEX2 668 -6.20179513 -20.46062323 -1.65082924
VERTEX2 669 -6.24983747 -21.08022791 -1.67589888
VERTEX2 670 -6.34841371 -21.69245208 -1.73529565
VERTEX2 671 -6.39501768 -21.97962647 -1.68022660
VERTEX2 672 -6.29285173 -21.39355268 -1.76926260
VERTEX2 673 -6.22571085 -21.12202381 -1.89974226
VERTEX2 674 -6.21273899 -21.10831158 -2.54774450
VERTEX2 675 -6.19130747 -21.10376212 3.12695037
VERTEX2 676 -6.18839953 -21.10547631 2.50374788
VERTEX2 677 -6.18603087 -21.10877706 1.88804474
VERTEX2 678 -6.15798952 -20.88425766 1.44220553
VERTEX2 679 -6.09517223 -20.31086997 1.50446565
VERTEX2 680 -6.12271604 -19.86893377 1.84883013
VERTEX2 681 -6.27300728 -19.29041645 1.82101189
VERTEX2 682 -6.44315640 -18.69672884 1.86828933
VERTEX2 683 -6.53212976 -18.42529325 2.02691959
VERTEX2 684 -6.47576054 -18.48293796 3.10548741
VERTEX2 685 -6.87944579 -18.64314547 -2.73454499
VERTEX2 686 -7.32597396 -18.77881007 -2.87912096
VERTEX2 687 -7.92158077 -18.92868032 -2.91412139
VERTEX2 688 -8.52051372 -19.04750863 -2.92587997
VERTEX2 689 -9.08577059 -19.18533641 -2.89819600
VERTEX2 690 -9.62252144 -19.35324354 -2.82399846
VERTEX2 691 -10.01830467 -19.48393217 -2.85200198
VERTEX2 692 -10.00369499 -19.47748069 -2.31776038
VERTEX2 693 -9.98189395 -19.54679214 -1.27739280
VERTEX2 694 -9.95896147 -19.61584789 -0.44196113
VERTEX2 695 -9.94034683 -19.61060458 0.35802830
VERTEX2 696 -9.93337960 -19.60606375 1.38349374
VERTEX2 697 -9.94443714 -19.64208513 1.13074833
VERTEX2 698 -9.61556978 -19.43490644 0.47635305
VERTEX2 699 -9.05363140 -19.12366703 0.59053547
VERTEX2 700 -8.54116173 -18.76328583 0.64417612
VERTEX2 701 -8.10776207 -18.40172795 0.70343953
VERTEX2 702 -7.62987853 -18.08831302 0.58810937
VERTEX2 703 -7.11878798 -17.75373123 0.62221147
VERTEX2 704 -6.62510851 -17.37231633 0.64082690
VERTEX2 705 -6.10938215 -16.94917027 0.71090932
VERTEX2 706 -5.67426916 -16.62883414 0.44166076
VERTEX2 707 -5.64403106 -16.62728269 -0.07905634
VERTEX2 708 -5.63192452 -16.63434179 -0.71819924
VERTEX2 709 -5.67097508 -16.59197569 -1.05061089
VERTEX2 710 -5.67575058 -16.57952080 -1.61228427
VERTEX2 711 -5.66264409 -16.59144119 -2.20728081
VERTEX2 712 -5.64493715 -16.57793962 -2.76619518
VERTEX2 713 -6.12272189 -16.62836855 -3.05097562
VERTEX2 714 -6.68787215 -16.60234841 3.03497775
VERTEX2 715 -7.31351843 -16.56510718 3.13837461
VERTEX2 716 -7.94658646 -16.54263394 3.00012144
VERTEX2 717 -8.56668321 -16.47422789 3.08467823
VERTEX2 718 -9.32754402 -16.35479145 2.90907175
VERTEX2 719 -9.94311243 -16.23873991 2.98335044
VERTEX2 720 -10.55608494 -16.12523286 2.92417710
VERTEX2 721 -11.17398200 -16.00829216 2.99242625
VERTEX2 722 -11.19094267 -16.00584649 3.05915628
VERTEX2 723 -11.21187839 -16.02737166 -2.13396384
VERTEX2 724 -11.21205690 -16.07146418 -1.06497219
VERTEX2 725 -11.18504091 -16.08968101 -0.43054359
VERTEX2 726 -10.86005130 -16.08629408 0.02371050
VERTEX2 727 -10.22301932 -16.04934639 0.05448578
VERTEX2 728 -9.58324416 -16.02663818 0.05590487
VERTEX2 729 -8.94616099 -15.96745152 0.11368389
VERTEX2 730 -8.32338589 -15.87634001 0.15130691
VERTEX2 731 -7.67455189 -15.77692638 0.16347085
VERTEX2 732 -7.53174651 -15.74840733 0.60995499
VERTEX2 733 -7.53309589 -15.74620953 1.60632759
VERTEX2 734 -7.59157194 -15.18419580 1.68438125
VERTEX2 735 -7.65211552 -14.57583440 1.65230062
VERTEX2 736 -7.65323475 -14.55877301 2.25172594
VERTEX2 737 -7.64758493 -14.55952687 3.05234304
VERTEX2 738 -8.22658119 -14.51793877 3.07138093
VERTEX2 739 -8.82997981 -14.42175253 3.01374178
VERTEX2 740 -9.33286221 -14.38064223 3.07700627
VERTEX2 741 -9.31486561 -14.38046855 2.70852425
VERTEX2 742 -9.31903442 -14.37757084 2.05628079
VERTEX2 743 -9.32215308 -14.36373242 1.43998786
VERTEX2 744 -9.31068318 -14.33746342 0.90109234
VERTEX2 745 -9.29000215 -14.32662922 0.30810889
VERTEX2 746 -8.74678047 -14.34465418 -0.16713501
VERTEX2 747 -8.09954480 -14.45949505 -0.20253306
VERTEX2 748 -7.52002102 -14.60268552 -0.27098167
VERTEX2 749 -7.43410094 -14.62405818 0.15802318
VERTEX2 750 -7.42810737 -14.61298999 1.08475364
VERTEX2 751 -7.46160246 -14.34923649 1.72476663
VERTEX2 752 -7.51925270 -13.73251996 1.62129980
VERTEX2 753 -7.55694064 -13.10024171 1.68436828
VERTEX2 754 -7.56520087 -12.46559204 1.52232493
VERTEX2 755 -7.54721519 -11.83295963 1.60882978
VERTEX2 756 -7.51062147 -11.19786264 1.43249554
VERTEX2 757 -7.43682808 -10.55333751 1.54442112
VERTEX2 758 -7.45810846 -9.97448378 1.68666604
VERTEX2 759 -7.44845773 -9.42758032 1.56667216
VERTEX2 760 -7.48842947 -8.81719807 1.67817410
VERTEX2 761 -7.49116805 -8.78009302 1.85869306
VERTEX2 762 -7.56641338 -8.74660860 2.69341203
VERTEX2 763 -8.14315959 -8.64428664 2.98607440
VERTEX2 764 -8.56567102 -8.57299775 2.95843189
VERTEX2 765 -8.55716729 -8.57282409 -2.68558699
VERTEX2 766 -8.55867514 -8.57774150 -1.68565400
VERTEX2 767 -8.55443256 -8.58845924 -0.75515865
VERTEX2 768 -8.53373677 -8.58971494 -0.03269509
VERTEX2 769 -7.90394124 -8.50072652 0.12423712
VERTEX2 770 -7.25731563 -8.44127835 0.05712385
VERTEX2 771 -7.17480959 -8.43431476 0.61763237
VERTEX2 772 -7.17196324 -8.42525907 1.48430583
VERTEX2 773 -7.14775496 -7.84943125 1.57035113
VERTEX2 774 -7.15973771 -7.30558047 1.59268683
VERTEX2 775 -7.15782837 -7.31383199 2.43835891
VERTEX2 776 -7.35877401 -7.28951127 3.05636380
VERTEX2 777 -7.96385883 -7.24894757 3.11565433
VERTEX2 778 -8.56845033 -7.23928860 3.09493879
VERTEX2 779 -9.17904968 -7.21880409 3.11318822
VERTEX2 780 -9.38198416 -7.20148062 2.98313672
VERTEX2 781 -9.37388274 -7.20437390 2.41005492
VERTEX2 782 -9.49999890 -6.93518691 1.98077464
VERTEX2 783 -9.73402566 -6.36459646 1.98032429
VERTEX2 784 -9.83380287 -6.13704882 1.95890471
VERTEX2 785 -9.83472315 -6.11178266 1.40671042
VERTEX2 786 -9.82693105 -6.08613172 0.81814597
VERTEX2 787 -9.81021976 -6.06902976 0.32726472
VERTEX2 788 -9.78468395 -6.07077794 -0.30212791
VERTEX2 789 -9.77510460 -6.07830967 -0.85433556
VERTEX2 790 -9.46978281 -6.47302815 -0.92160947
VERTEX2 791 -9.06634486 -6.95462608 -0.82305361
VERTEX2 792 -8.82805099 -7.16754978 -0.11878456
VERTEX2 793 -8.21525338 -7.22096615 -0.07386710
VERTEX2 794 -7.57802550 -7.25111191 -0.00248324
VERTEX2 795 -7.60384070 -7.27001910 0.42723849
VERTEX2 796 -7.61270203 -7.27359198 1.08708318
VERTEX2 797 -7.53799731 -6.96456963 1.34748979
VERTEX2 798 -7.40230289 -6.33850507 1.39778623
VERTEX2 799 -7.31468805 -5.69423493 1.46366511
VERTEX2 800 -7.26013200 -5.04776763 1.53671682
VERTEX2 801 -7.27041967 -4.41750533 1.62273799
VERTEX2 802 -7.32355265 -3.79363515 1.68052192
VERTEX2 803 -7.30564630 -3.16675565 1.51594308
VERTEX2 804 -7.28486955 -2.54113977 1.57190975
VERTEX2 805 -7.31741075 -1.91219921 1.64825348
VERTEX2 806 -7.37667947 -1.31517124 1.68971386
VERTEX2 807 -7.40364113 -1.13166082 1.97785283
VERTEX2 808 -7.40805111 -1.13157204 2.92624699
VERTEX2 809 -7.99925382 -1.10202960 3.07094749
VERTEX2 810 -8.61596375 -0.97820828 2.93081749
VERTEX2 811 -9.21428983 -0.86611332 2.92755140
VERTEX2 812 -9.21608218 -0.86576832 -2.62381844
VERTEX2 813 -9.22617405 -0.88821769 -1.64845899
VERTEX2 814 -9.21920358 -0.89374544 -0.65618200
VERTEX2 815 -9.19434242 -0.90214705 0.26313027
VERTEX2 816 -9.18574540 -0.89745100 0.94431503
VERTEX2 817 -9.17463836 -0.89047110 0.27558038
VERTEX2 818 -8.95197154 -0.92458691 -0.21328354
VERTEX2 819 -8.36253326 -1.05227297 -0.19923245
VERTEX2 820 -7.77068862 -1.18407942 -0.24054384
VERTEX2 821 -7.22636840 -1.31494047 -0.22482828
VERTEX2 822 -7.17876591 -1.32222190 0.53643961
VERTEX2 823 -7.17757149 -1.30949161 1.45537162
VERTEX2 824 -7.11304075 -0.68947608 1.37599309
VERTEX2 825 -6.96858974 -0.06824545 1.34628696
VERTEX2 826 -6.91063723 0.56173923 1.50917860
VERTEX2 827 -6.84585704 1.18343864 1.46048706
VERTEX2 828 -6.79071646 1.81257638 1.49597663
VERTEX2 829 -6.72917650 2.41347162 1.45607489
VERTEX2 830 -6.65362912 3.01971716 1.44761445
VERTEX2 831 -6.55890490 3.59436929 1.40067473
VERTEX2 832 -6.46805835 4.15468898 1.39698170
VERTEX2 833 -6.42400136 4.40746819 1.53447610
VERTEX2 834 -6.42500173 4.41102011 2.58859125
VERTEX2 835 -6.43555489 4.41225870 -2.91733142
VERTEX2 836 -6.44796597 4.40184151 -1.97475535
VERTEX2 837 -6.44404717 4.37995490 -0.93893110
VERTEX2 838 -6.42951374 4.37080647 -0.07718295
VERTEX2 839 -6.42760107 4.36988130 -0.29531338
VERTEX2 840 -6.41573172 4.36048837 -0.85773853
VERTEX2 841 -6.40804363 4.34486141 -1.47458542
VERTEX2 842 -6.43514304 4.09997027 -1.70528333
VERTEX2 843 -6.51552112 3.53736686 -1.70773780
VERTEX2 844 -6.59312349 2.91272596 -1.71569312
VERTEX2 845 -6.68918944 2.28872271 -1.73035959
VERTEX2 846 -6.77735108 1.66043815 -1.72858471
VERTEX2 847 -6.88836685 1.04934742 -1.75494510
VERTEX2 848 -6.91884832 0.85985101 -1.27420241
VERTEX2 849 -6.92054483 0.86050222 -0.35152818
VERTEX2 850 -6.56601110 0.85625367 0.00208290
VERTEX2 851 -5.93964685 0.82919660 -0.09029989
VERTEX2 852 -5.31654143 0.76712056 -0.07579931
VERTEX2 853 -4.72281882 0.72380702 -0.10364760
VERTEX2 854 -4.13700978 0.65532890 -0.10158600
VERTEX2 855 -3.54333605 0.60372269 -0.10334075
VERTEX2 856 -2.88758863 0.51632513 -0.14421884
VERTEX2 857 -2.23301821 0.42510412 -0.15392004
VERTEX2 858 -1.58462047 0.30118027 -0.20858145
VERTEX2 859 -1.06399627 0.19568039 -0.21555637
VERTEX2 860 -1.03944900 0.20572551 0.63474659
VERTEX2 861 -1.02479860 0.30750516 1.54901628
VERTEX2 862 -0.98472852 0.95949128 1.48927877
VERTEX2 863 -0.92495524 1.60251848 1.45671290
VERTEX2 864 -0.83562808 2.21174656 1.45454134
VERTEX2 865 -0.79197180 2.82184304 1.51212624
VERTEX2 866 -0.74495886 3.40646739 1.51098928
VERTEX2 867 -0.73691775 3.56912024 1.69218707
VERTEX2 868 -0.74047178 3.57352702 2.71590751
VERTEX2 869 -0.72208281 3.57377836 -2.58905068
VERTEX2 870 -0.69700194 3.58713773 -1.58969540
VERTEX2 871 -0.68283676 3.57745872 -0.61547719
VERTEX2 872 -0.66488195 3.56440075 0.07012604
VERTEX2 873 -0.63845887 3.55550610 -0.50216269
VERTEX2 874 -0.61749561 3.53645672 -1.06149608
VERTEX2 875 -0.61106252 3.52120311 -1.64772608
VERTEX2 876 -0.73266931 2.96440631 -1.80514945
VERTEX2 877 -0.88651638 2.42172551 -1.88967751
VERTEX2 878 -0.93781778 2.22102113 -1.50649376
VERTEX2 879 -0.83798506 1.58160493 -1.45534219
VERTEX2 880 -0.80330840 1.13167147 -1.56789177
VERTEX2 881 -0.80360393 1.18443935 -1.56256321
VERTEX2 882 -0.86141882 0.54744535 -1.80907967
VERTEX2 883 -1.07831112 -0.04643519 -1.99976976
VERTEX2 884 -1.23750465 -0.37804264 -2.06669759
VERTEX2 885 -1.23772065 -0.37293489 -1.48513412
VERTEX2 886 -1.22479394 -0.38506608 -0.46711828
VERTEX2 887 -1.20062974 -0.39450456 0.54422057
VERTEX2 888 -1.18901032 -0.37019174 1.52828126
VERTEX2 889 -1.19241497 -0.36022389 2.42631880
VERTEX2 890 -1.51169087 -0.20511119 2.70026960
VERTEX2 891 -2.05242067 0.06462262 2.62998625
VERTEX2 892 -2.58943284 0.38727518 2.59446541
VERTEX2 893 -3.14582191 0.68619061 2.83083276
VERTEX2 894 -3.76205169 0.79921382 3.05198903
VERTEX2 895 -4.36399205 0.75131427 -2.93279064
VERTEX2 896 -4.38509746 0.74630742 -2.45408031
VERTEX2 897 -4.66992217 0.32613807 -2.18162876
VERTEX2 898 -5.02022568 -0.17947195 -2.16578384
VERTEX2 899 -5.30521594 -0.58584244 -2.23313396
VERTEX2 900 -5.71750842 -1.12677943 -2.23515359
VERTEX2 901 -6.08800079 -1.56855273 -2.29908346
VERTEX2 902 -6.50301535 -2.05767165 -2.27340413
VERTEX2 903 -6.81756427 -2.43443707 -2.31768866
VERTEX2 904 -6.81851147 -2.43578378 -1.61238485
VERTEX2 905 -6.80400806 -2.92680847 -1.55621823
VERTEX2 906 -6.77030494 -3.49388287 -1.49168855
VERTEX2 907 -6.71526623 -4.06260247 -1.50080524
VERTEX2 908 -6.66996217 -4.67868772 -1.47653283
VERTEX2 909 -6.61089893 -5.28438923 -1.49488459
VERTEX2 910 -6.63887194 -5.41465960 -1.86552715
VERTEX2 911 -6.80110456 -5.98757760 -1.80503118
VERTEX2 912 -6.92308776 -6.55144079 -1.79273147
VERTEX2 913 -7.03624056 -7.09314835 -1.78509587
VERTEX2 914 -7.16446705 -7.68497259 -1.80898735
VERTEX2 915 -7.29021731 -8.19778094 -1.84593017
VERTEX2 916 -7.22588715 -8.44399261 -1.29888400
VERTEX2 917 -7.08955044 -9.08862638 -1.55321152
VERTEX2 918 -7.11086243 -9.60276813 -1.62866662
VERTEX2 919 -7.14579839 -10.22275825 -1.67189447
VERTEX2 920 -7.21140312 -10.83324003 -1.68938119
VERTEX2 921 -7.28574939 -11.44499723 -1.74260106
VERTEX2 922 -7.38908750 -12.04541301 -1.76967968
VERTEX2 923 -7.50981584 -12.60866389 -1.83298226
VERTEX2 924 -7.64111401 -13.09586555 -1.81611288
VERTEX2 925 -7.64194305 -13.09168908 -1.31160044
VERTEX2 926 -7.48274098 -13.65447147 -1.29549258
VERTEX2 927 -7.31681782 -14.24587200 -1.31889217
VERTEX2 928 -7.16004960 -14.85273779 -1.32791237
VERTEX2 929 -7.00985742 -15.45677916 -1.32889669
VERTEX2 930 -6.86201897 -16.09318963 -1.41203606
VERTEX2 931 -6.77658267 -16.72370537 -1.49248754
VERTEX2 932 -6.73185518 -17.34734966 -1.55177751
VERTEX2 933 -6.72949128 -17.95595515 -1.61623270
VERTEX2 934 -6.74475851 -18.43241413 -1.62593653
VERTEX2 935 -6.74268725 -18.44204420 -0.94314580
VERTEX2 936 -6.74119710 -18.44256969 0.00247829
VERTEX2 937 -6.19872021 -18.41785715 0.06549004
VERTEX2 938 -5.60241229 -18.43434922 -0.10775802
VERTEX2 939 -4.97838114 -18.49455852 -0.07992638
VERTEX2 940 -4.36150236 -18.57028571 -0.16545835
VERTEX2 941 -3.75297558 -18.68644876 -0.21921305
VERTEX2 942 -3.23084345 -18.80299799 -0.21482793
VERTEX2 943 -2.62016907 -18.93742781 -0.12640438
VERTEX2 944 -2.00519043 -19.02092666 -0.18298291
VERTEX2 945 -1.36533301 -19.15287828 -0.23808701
VERTEX2 946 -1.20786902 -19.19306513 -0.17372943
VERTEX2 947 -0.80839506 -19.13136929 0.15446199
VERTEX2 948 -0.23286754 -19.04192740 0.13532474
VERTEX2 949 0.37219993 -19.00759847 -0.02036759
VERTEX2 950 1.00352196 -19.04417662 -0.25996771
VERTEX2 951 1.60483793 -19.21719261 -0.33220585
VERTEX2 952 2.19811302 -19.39093420 -0.08192159
VERTEX2 953 2.82139921 -19.42286607 -0.00205148
VERTEX2 954 3.44766109 -19.41709623 -0.00933823
VERTEX2 955 4.03892108 -19.46452044 -0.17055415
VERTEX2 956 4.59108300 -19.54494762 -0.17311956
VERTEX2 957 5.11860564 -19.64200256 -0.26098435
VERTEX2 958 5.58012668 -19.75431801 -0.28785637
VERTEX2 959 6.00477676 -19.87177546 -0.35510193
VERTEX2 960 6.59156955 -20.03608637 -0.27536444
VERTEX2 961 7.17072898 -20.21173489 -0.30251675
VERTEX2 962 7.78570622 -20.34201196 -0.23703460
VERTEX2 963 8.40081519 -20.42473178 -0.05053468
VERTEX2 964 9.02064162 -20.46837191 -0.11454690
VERTEX2 965 9.63615612 -20.54947680 -0.12153316
VERTEX2 966 10.07699213 -20.60917833 -0.18063485
VERTEX2 967 10.10790620 -20.60301609 0.67234719
VERTEX2 968 10.11536784 -20.59601431 1.56863851
VERTEX2 969 10.11749470 -20.62205091 1.62797005
VERTEX2 970 10.11972973 -20.64838771 1.62611757
VERTEX2 971 10.10058591 -20.31723374 1.62647853
VERTEX2 972 10.06394466 -19.73274259 1.63231517
VERTEX2 973 10.14482635 -19.15343325 1.34764312
VERTEX2 974 10.28499835 -18.55477977 1.37964486
VERTEX2 975 10.39730627 -17.95190335 1.38440858
VERTEX2 976 10.50279322 -17.34633747 1.39745700
VERTEX2 977 10.63838443 -16.73185515 1.37135360
VERTEX2 978 10.75920545 -16.12344290 1.41746770
VERTEX2 979 10.87378159 -15.51887154 1.40529181
VERTEX2 980 10.97133088 -14.91727987 1.45228587
VERTEX2 981 11.05975459 -14.32620514 1.45922711
VERTEX2 982 11.11582649 -13.80149819 1.50420694
VERTEX2 983 11.16524006 -13.20343875 1.50082409
VERTEX2 984 11.19221511 -12.61021377 1.55833025
VERTEX2 985 11.20283333 -12.01589224 1.57872060
VERTEX2 986 11.18764205 -11.39773024 1.61514681
VERTEX2 987 11.17466646 -10.78110200 1.57852349
VERTEX2 988 11.17700584 -10.16498208 1.59227483
VERTEX2 989 11.16223647 -9.55263016 1.59996952
VERTEX2 990 11.15525973 -8.94364815 1.58923865
VERTEX2 991 11.13983811 -8.33112663 1.61411431
VERTEX2 992 11.13459841 -7.74660291 1.58157590
VERTEX2 993 11.12073406 -7.13260110 1.61437387
VERTEX2 994 11.10424919 -6.54934549 1.60447023
VERTEX2 995 11.07215228 -5.95646640 1.65180584
VERTEX2 996 11.01222982 -5.34815187 1.67897018
VERTEX2 997 10.96736356 -4.70196621 1.61444624
VERTEX2 998 10.94769019 -4.29812262 1.63619932
VERTEX2 999 10.97333250 -4.31890879 2.35373479
VERTEX2 1000 10.50884207 -3.95696874 2.50223069
VERTEX2 1001 10.06814975 -3.55486076 2.18106572
VERTEX2 1002 9.70095390 -3.08182752 2.27357933
VERTEX2 1003 9.35459769 -2.58608427 2.09420036
VERTEX2 1004 9.01726920 -2.05048319 2.15250268
VERTEX2 1005 8.66508265 -1.55708426 2.21499313
VERTEX2 1006 8.27061486 -1.07966029 2.29242309
VERTEX2 1007 7.85902806 -0.65398958 2.38413020
VERTEX2 1008 7.62410477 -0.43943665 2.54370293
VERTEX2 1009 7.52740135 -0.42472944 3.01686241
VERTEX2 1010 6.96059327 -0.36874175 3.06942691
VERTEX2 1011 6.34502472 -0.32945848 3.02633868
VERTEX2 1012 5.73606852 -0.26623815 3.06823014
VERTEX2 1013 5.09942998 -0.26868237 -3.10004630
VERTEX2 1014 4.48677548 -0.22047876 3.00774192
VERTEX2 1015 3.86196883 -0.18080984 3.09209608
VERTEX2 1016 3.09245616 -0.14279499 3.09869632
VERTEX2 1017 2.50541697 -0.12883840 3.04124763
VERTEX2 1018 1.94695218 -0.06622632 3.04824965
VERTEX2 1019 1.35059399 -0.04077463 3.10744135
VERTEX2 1020 0.73420634 -0.00358253 3.09313552
VERTEX2 1021 0.11179104 0.02696153 3.05212602
VERTEX2 1022 0.05729586 0.03164295 3.04451419
VERTEX2 1023 0.06252025 0.03152020 3.13065956
VERTEX2 1024 -0.56222167 0.04148085 -3.12629904
VERTEX2 1025 -1.18980554 0.01333654 -3.10885731
VERTEX2 1026 -1.34582294 0.00870949 -3.10146585
VERTEX2 1027 -1.32640782 0.01813145 -2.18414786
VERTEX2 1028 -1.34029283 -0.15043223 -1.62017963
VERTEX2 1029 -1.37033826 -0.71939437 -1.64180546
VERTEX2 1030 -1.43625349 -1.34240249 -1.72254309
VERTEX2 1031 -1.55180479 -1.98949435 -1.77698040
VERTEX2 1032 -1.68553358 -2.63660634 -1.77318411
VERTEX2 1033 -1.83135546 -3.27828819 -1.81864458
VERTEX2 1034 -1.87627205 -3.44701541 -2.03284793
VERTEX2 1035 -1.88034494 -3.45042799 -2.65295986
VERTEX2 1036 -1.84954810 -3.46485443 3.05866966
VERTEX2 1037 -2.18874838 -3.33329681 2.81983695
VERTEX2 1038 -2.79909993 -3.20706228 2.91071528
VERTEX2 1039 -3.43619579 -3.03306745 2.87889901
VERTEX2 1040 -3.40977552 -3.03390053 -2.77502969
VERTEX2 1041 -3.38001920 -3.03807478 -1.75951817
VERTEX2 1042 -3.38202518 -3.06915535 -0.77294141
VERTEX2 1043 -3.34903056 -3.10021880 0.19529247
VERTEX2 1044 -3.36145188 -3.11454959 1.18773564
VERTEX2 1045 -3.36360335 -3.11912851 1.07354231
VERTEX2 1046 -3.37303350 -3.13146850 0.68775002
VERTEX2 1047 -3.39130732 -3.13913725 0.13165402
VERTEX2 1048 -3.03058462 -3.21310302 -0.18157739
VERTEX2 1049 -2.38725079 -3.32021131 -0.16456950
VERTEX2 1050 -1.74169319 -3.39972285 -0.08906608
VERTEX2 1051 -1.08758470 -3.48249551 -0.16822435
VERTEX2 1052 -0.46516559 -3.57235834 -0.11528845
VERTEX2 1053 -0.04892548 -3.63271766 -0.16793624
VERTEX2 1054 -0.02287902 -3.63584846 0.59412742
VERTEX2 1055 -0.01542620 -3.60329492 1.64764761
VERTEX2 1056 -0.00769427 -3.61496846 2.65094262
VERTEX2 1057 0.01665346 -3.61808974 -2.64103997
VERTEX2 1058 0.01383084 -3.62129208 -1.71854070
VERTEX2 1059 -0.09416686 -4.20318809 -1.79920228
VERTEX2 1060 -0.24175149 -4.83178312 -1.79412073
VERTEX2 1061 -0.35684710 -5.27708357 -1.91655260
VERTEX2 1062 -0.36183573 -5.28447216 -2.48086579
VERTEX2 1063 -0.34379210 -5.27455973 -3.07867963
VERTEX2 1064 -0.62728076 -5.21612246 2.93920198
VERTEX2 1065 -1.21778656 -5.13821573 3.06112816
VERTEX2 1066 -1.78404826 -5.07545643 3.00498144
VERTEX2 1067 -1.77376513 -5.07510971 -2.84560116
VERTEX2 1068 -1.76413579 -5.06860341 -2.17290575
VERTEX2 1069 -1.76387107 -5.06793309 -2.00209581
VERTEX2 1070 -1.76301405 -5.06649243 -2.54029926
VERTEX2 1071 -2.24058017 -5.31549562 -2.66711337
VERTEX2 1072 -2.68743695 -5.53748334 -2.73577726
VERTEX2 1073 -2.64997836 -5.53712723 3.03625487
VERTEX2 1074 -3.17070076 -5.45790888 3.00189491
VERTEX2 1075 -3.73898691 -5.37350556 3.01846623
VERTEX2 1076 -3.75031324 -5.37264454 -2.86115700
VERTEX2 1077 -3.76176592 -5.39348982 -2.05444655
VERTEX2 1078 -4.00827196 -5.99728968 -2.00910891
VERTEX2 1079 -4.24829833 -6.55806339 -1.94682216
VERTEX2 1080 -4.25228668 -6.56826519 -2.43402452
VERTEX2 1081 -4.67819086 -6.85055907 -2.55712447
VERTEX2 1082 -4.84406915 -6.96289227 -2.27629843
VERTEX2 1083 -4.84004823 -6.99707462 -1.24437147
VERTEX2 1084 -4.76046214 -7.03925683 -0.27813159
VERTEX2 1085 -4.77819040 -7.04356097 0.70373852
VERTEX2 1086 -4.41547300 -6.56355697 0.93371230
VERTEX2 1087 -4.03300784 -6.06627104 0.92124927
VERTEX2 1088 -3.66855569 -5.56444406 0.90406259
VERTEX2 1089 -3.61257274 -5.49438452 0.80806489
VERTEX2 1090 -3.60384524 -5.48667536 0.19176056
VERTEX2 1091 -3.07016137 -5.46426739 0.01427280
VERTEX2 1092 -2.45557456 -5.46037532 -0.00131940
VERTEX2 1093 -1.89138895 -5.47398416 -0.06689433
VERTEX2 1094 -2.58090160 -5.24598213 0.44384552
VERTEX2 1095 -2.54135854 -5.23921402 -0.14838842
VERTEX2 1096 -2.53277332 -5.24347621 -0.72206428
VERTEX2 1097 -2.32422832 -5.52403653 -0.93870215
VERTEX2 1098 -1.96487422 -6.04938150 -0.99644186
VERTEX2 1099 -1.67014837 -6.54854031 -1.09376367
VERTEX2 1100 -1.67153281 -6.54610785 -0.73261022
VERTEX2 1101 -1.43998574 -6.66312180 -0.46878110
VERTEX2 1102 -1.44111621 -6.66203225 -0.86500963
VERTEX2 1103 -1.05950950 -7.14118421 -0.90015784
VERTEX2 1104 -0.66519321 -7.64596643 -0.92918993
VERTEX2 1105 -0.29205242 -8.15720377 -0.94869465
VERTEX2 1106 -0.01200938 -8.55339827 -0.97553858
VERTEX2 1107 -0.01183844 -8.55351957 -0.72200777
VERTEX2 1108 0.48087895 -8.93033418 -0.71597158
VERTEX2 1109 0.93272659 -9.38396782 -0.82205735
VERTEX2 1110 1.34199931 -9.83193460 -0.87349137
VERTEX2 1111 1.63023119 -10.30230208 -0.97685001
VERTEX2 1112 2.04197823 -10.70260316 -0.63348575
VERTEX2 1113 2.54243661 -11.09073947 -0.73086601
VERTEX2 1114 2.99730192 -11.49789200 -0.71552231
VERTEX2 1115 3.43448810 -11.87429280 -0.73339083
VERTEX2 1116 3.93096028 -12.29237313 -0.69923791
VERTEX2 1117 4.00650523 -12.35476640 -0.82950778
VERTEX2 1118 4.19150437 -21.57978913 -2.10850710
VERTEX2 1119 4.18711655 -21.58413866 -2.54368768
VERTEX2 1120 3.65320025 -21.89261847 -2.60924506
VERTEX2 1121 3.46277806 -21.99936943 -2.72996965
VERTEX2 1122 3.45441393 -21.99798841 2.99873576
VERTEX2 1123 2.86911312 -21.90514226 3.01387922
VERTEX2 1124 2.28420084 -21.86910716 3.11050826
VERTEX2 1125 1.63265986 -21.84652893 3.12218493
VERTEX2 1126 1.53691116 -21.84666429 -2.82448530
VERTEX2 1127 1.53726871 -21.84694373 -1.77500038
VERTEX2 1128 1.54013278 -21.79677350 -0.79654096
VERTEX2 1129 1.56004030 -21.80452195 0.20995323
VERTEX2 1130 2.16345331 -21.65510005 0.22131780
VERTEX2 1131 2.96449376 -21.67769401 -0.21550987
VERTEX2 1132 3.60636873 -21.81844951 -0.23782862
VERTEX2 1133 4.18306714 -21.97929361 -0.27939023
VERTEX2 1134 4.45253598 -22.05651859 -0.37966451
VERTEX2 1135 -2.85448654 -15.69128127 -1.04610541
VERTEX2 1136 -2.83261600 -15.64544090 -1.60912131
VERTEX2 1137 -2.87768424 -15.90039428 -1.79374197
VERTEX2 1138 -3.02010077 -16.48603801 -1.81045585
VERTEX2 1139 -3.13873287 -16.97910160 -1.88365098
VERTEX2 1140 -3.12779008 -16.95293618 -2.36258621
VERTEX2 1141 -3.10370307 -16.92958770 -2.90993624
VERTEX2 1142 -3.46351015 -16.88584426 3.00896803
VERTEX2 1143 -4.05821594 -16.83794994 3.09840142
VERTEX2 1144 -4.63886860 -16.80226758 3.06808309
VERTEX2 1145 -5.21706014 -16.75543662 3.04291177
VERTEX2 1146 -5.79285917 -16.69705151 3.06294441
VERTEX2 1147 -6.37380281 -16.68601542 3.13560405
VERTEX2 1148 -6.95196775 -16.68232050 -3.13754385
VERTEX2 1149 -6.99439028 -16.68352647 -2.63928294
VERTEX2 1150 -7.08678031 -16.78570549 -1.83022622
VERTEX2 1151 -7.08481148 -16.79725931 -0.82642925
VERTEX2 1152 -7.07009259 -16.79757066 0.22666252
VERTEX2 1153 -7.05763710 -16.79199481 1.23942029
VERTEX2 1154 -7.11573018 -16.47513807 1.78540937
VERTEX2 1155 -7.24654594 -15.85061404 1.73602790
VERTEX2 1156 -7.34152829 -15.24490887 1.74601200
VERTEX2 1157 -7.46570019 -14.67711934 1.85702686
VERTEX2 1158 -7.58894044 -14.07831851 1.72836572
VERTEX2 1159 -7.64752168 -13.47973538 1.63361246
VERTEX2 1160 -7.66808798 -12.84129567 1.49658768
VERTEX2 1161 -7.56480380 -12.21019061 1.40712558
VERTEX2 1162 -7.46990176 -11.57877847 1.46546421
VERTEX2 1163 -7.40405366 -10.93643013 1.46023072
VERTEX2 1164 -7.35266574 -10.29605545 1.54594639
VERTEX2 1165 -7.33967538 -9.75886650 1.52316343
VERTEX2 1166 -7.33993008 -9.75764516 2.01221097
VERTEX2 1167 -7.28922719 -9.74549206 2.94901058
VERTEX2 1168 -7.24600474 -9.72845431 -2.43056151
VERTEX2 1169 -7.25034421 -9.78242517 -1.60841590
VERTEX2 1170 -7.26217114 -10.37093835 -1.60164795
VERTEX2 1171 -7.26365667 -11.00824317 -1.56983832
VERTEX2 1172 -7.26950269 -11.60959924 -1.63221969
VERTEX2 1173 -7.30090544 -12.22720495 -1.62287873
VERTEX2 1174 -7.34601768 -12.85010232 -1.69134626
VERTEX2 1175 -7.43237007 -13.45332738 -1.72472154
VERTEX2 1176 -7.53135505 -14.07378333 -1.76811484
VERTEX2 1177 -7.65232014 -14.68235220 -1.76579578
VERTEX2 1178 -7.78470784 -15.29493829 -1.81269689
VERTEX2 1179 -7.92337326 -15.89948348 -1.78303332
VERTEX2 1180 -7.97800714 -16.15333886 -1.78971668
VERTEX2 1181 -7.97719004 -16.14757507 -0.96107198
VERTEX2 1182 -7.92090132 -16.16185216 -0.24959549
VERTEX2 1183 -7.30662854 -16.31094570 -0.22435758
VERTEX2 1184 -6.67325614 -16.42589197 -0.15490821
VERTEX2 1185 -6.04704489 -16.53635119 -0.18757353
VERTEX2 1186 -5.41752434 -16.63159225 -0.12181122
VERTEX2 1187 -4.76587732 -16.71775278 -0.15928022
VERTEX2 1188 -4.14072859 -16.80846792 -0.14151933
VERTEX2 1189 -3.51720752 -16.91059078 -0.12030773
VERTEX2 1190 -3.22579437 -16.94646135 -0.11274135
VERTEX2 1191 -3.23412903 -16.94662362 0.80587625
VERTEX2 1192 -3.22847018 -16.86716643 1.60201743
VERTEX2 1193 -3.22130118 -16.26880431 1.46927159
VERTEX2 1194 -3.17937559 -15.69873672 1.51059540
VERTEX2 1195 -3.14974169 -15.07828204 1.56207126
VERTEX2 1196 -3.14215548 -14.45609554 1.38819558
VERTEX2 1197 -3.03757835 -13.84963825 1.39843898
VERTEX2 1198 -2.96286850 -13.22748842 1.65694616
VERTEX2 1199 -2.97523541 -12.61821575 1.44191646
VERTEX2 1200 -2.91334600 -11.99259944 1.51064369
VERTEX2 1201 -2.88341938 -11.37674177 1.56617079
VERTEX2 1202 -2.88832900 -10.75746782 1.58881275
VERTEX2 1203 -2.91344707 -10.17071857 1.49851774
VERTEX2 1204 -2.79434734 -9.58434629 1.35130005
VERTEX2 1205 -2.68112588 -9.02703255 1.38050372
VERTEX2 1206 -2.59010155 -8.44225245 1.44132239
VERTEX2 1207 -2.44702092 -7.83710790 1.35477095
VERTEX2 1208 -2.32816048 -7.21781899 1.41899718
VERTEX2 1209 -2.23433762 -6.60144292 1.41663235
VERTEX2 1210 -2.16224945 -5.98882003 1.43674467
VERTEX2 1211 -2.02829391 -5.37737553 1.36435771
VERTEX2 1212 -1.90580888 -4.76593414 1.41479748
VERTEX2 1213 -1.83131284 -4.15145749 1.48849330
VERTEX2 1214 -1.74082853 -3.42861570 1.26724856
VERTEX2 1215 -1.57062483 -2.84688246 1.32736974
VERTEX2 1216 -1.51551929 -2.29631609 1.54616644
VERTEX2 1217 -1.47715144 -1.71945399 1.52789775
VERTEX2 1218 -1.45971852 -1.12985421 1.47697299
VERTEX2 1219 -1.40479259 -0.48106137 1.50735489
VERTEX2 1220 -1.39387060 0.10538638 1.59788109
VERTEX2 1221 -1.39238744 0.10027592 1.14475196
VERTEX2 1222 -1.37764383 0.11444000 0.54699132
VERTEX2 1223 -1.35653096 0.11927830 -0.01281648
VERTEX2 1224 -0.77428599 0.02146220 -0.19583908
VERTEX2 1225 -0.15092108 -0.09802748 -0.18216830
VERTEX2 1226 -0.04619913 -0.11742920 -0.19889930
VERTEX2 1227 -0.04619913 -0.11742920 -0.19956130
