VERTEX2 0 0.00000901 -0.00000050 0.00000005
VERTEX2 1 0.00000899 -0.00000050 -0.00064195
VERTEX2 2 0.00000897 -0.00000050 -0.00117995
VERTEX2 3 0.01565874 -0.00138758 -0.00360460
VERTEX2 4 0.65036723 -0.01170129 -0.00753034
VERTEX2 5 0.71007959 -0.01226602 -0.09886413
VERTEX2 6 0.71686867 -0.01820546 -0.89627694
VERTEX2 7 0.70976676 0.00392418 -1.51231393
VERTEX2 8 0.71550382 0.02813711 -2.12699933
VERTEX2 9 0.73611267 0.04571056 -2.76625519
VERTEX2 10 0.75500391 0.04872604 2.90124719
VERTEX2 11 0.76336590 0.04335935 2.22572916
VERTEX2 12 0.76335080 0.04468726 1.57505293
VERTEX2 13 0.76787284 0.05860528 0.91469575
VERTEX2 14 0.78940848 0.07348497 0.30565195
VERTEX2 15 0.80249490 0.07426462 -0.21999905
VERTEX2 16 1.10126330 0.01018403 -0.23900751
VERTEX2 17 1.70648551 -0.14431465 -0.27054762
VERTEX2 18 2.33373789 -0.31543108 -0.28101221
VERTEX2 19 2.96463291 -0.52149704 -0.32988593
VERTEX2 20 3.55733414 -0.71812785 -0.32363613
VERTEX2 21 4.16616411 -0.87768145 -0.21218936
VERTEX2 22 4.77568400 -1.02620364 -0.19484951
VERTEX2 23 5.41388497 -1.07763511 -0.08743358
VERTEX2 24 6.04410366 -1.15600919 -0.14444478
VERTEX2 25 6.67759967 -1.23087508 -0.14158799
VERTEX2 26 7.28595946 -1.33772295 -0.18200829
VERTEX2 27 7.90136519 -1.43536954 -0.16607191
VERTEX2 28 8.48242855 -1.53990668 -0.17041701
VERTEX2 29 8.86133494 -1.60117419 -0.13954098
VERTEX2 30 8.87098865 -1.60384159 -0.67143199
VERTEX2 31 8.97108096 -1.74081399 -0.93963260
VERTEX2 32 9.33462321 -2.25936253 -0.95806923
VERTEX2 33 9.71179092 -2.76907821 -0.90735054
VERTEX2 34 10.11808497 -3.26269584 -0.88638658
VERTEX2 35 10.53444074 -3.74864518 -0.85220078
VERTEX2 36 10.95731483 -4.23587614 -0.86083382
VERTEX2 37 11.23538685 -4.55217124 -0.85320677
VERTEX2 38 11.23319125 -4.54912880 -1.17499143
VERTEX2 39 11.23211710 -4.54380928 -1.34602948
VERTEX2 40 11.37157262 -5.11962809 -1.32879776
VERTEX2 41 11.51630392 -5.72063898 -1.36078342
VERTEX2 42 11.63385368 -6.28505963 -1.38346164
VERTEX2 43 11.73518177 -6.88127566 -1.42359532
VERTEX2 44 11.81968908 -7.47682717 -1.46047313
VERTEX2 45 11.86994054 -8.09719366 -1.51591996
VERTEX2 46 11.89617515 -8.71935565 -1.53524705
VERTEX2 47 11.91156498 -9.34123826 -1.57686744
VERTEX2 48 11.90334380 -9.96728366 -1.58336838
VERTEX2 49 11.89142593 -10.58923644 -1.63415518
VERTEX2 50 11.83364932 -11.17830672 -1.67860948
VERTEX2 51 11.77439949 -11.77290182 -1.70764744
VERTEX2 52 11.67346910 -12.35345964 -1.78435494
VERTEX2 53 11.56992334 -12.90841757 -1.77200582
VERTEX2 54 11.45377737 -13.41729876 -1.83410460
VERTEX2 55 11.46110179 -13.38346977 -1.82883985
VERTEX2 56 11.46104334 -13.38370761 -1.81827724
VERTEX2 57 11.31212013 -14.00231365 -1.82970008
VERTEX2 58 11.16067809 -14.60912498 -1.78351008
VERTEX2 59 11.02660527 -15.21566109 -1.80712929
VERTEX2 60 10.89192897 -15.81852083 -1.78579324
VERTEX2 61 10.75141822 -16.42177921 -1.83658891
VERTEX2 62 10.59740518 -16.97784616 -1.79682531
VERTEX2 63 10.44150314 -17.53870569 -1.83240677
VERTEX2 64 10.30210551 -18.09424036 -1.76911835
VERTEX2 65 10.16311876 -18.64759677 -1.82064114
VERTEX2 66 10.00376481 -19.23449609 -1.82869923
VERTEX2 67 9.83251800 -19.82483687 -1.82728255
VERTEX2 68 9.71877478 -20.27142208 -1.84311966
VERTEX2 69 9.72204784 -20.26108152 -1.99813651
VERTEX2 70 9.72912720 -20.24782512 -2.67258442
VERTEX2 71 9.75251734 -20.24668901 2.96785896
VERTEX2 72 9.76521336 -20.24836202 2.95834584
VERTEX2 73 9.77261918 -20.25026374 2.89336792
VERTEX2 74 9.77270322 -20.25030849 2.27148879
VERTEX2 75 9.77935634 -20.25298234 1.91908562
VERTEX2 76 9.76772869 -20.23984253 2.61288991
VERTEX2 77 9.76343159 -20.23799245 2.84580203
VERTEX2 78 9.48193350 -20.24593226 -3.10029539
VERTEX2 79 8.86347095 -20.27858282 -3.10559184
VERTEX2 80 8.23169243 -20.27084101 3.10303227
VERTEX2 81 7.60789428 -20.23808074 3.07699432
VERTEX2 82 7.00907856 -20.19128071 3.02255290
VERTEX2 83 6.42146993 -20.13382973 2.99872253
VERTEX2 84 5.86057667 -20.04202710 2.92051800
VERTEX2 85 5.31940795 -19.93224538 2.92787419
VERTEX2 86 4.71194139 -19.80508604 2.83818863
VERTEX2 87 4.31968150 -19.69296443 2.78612627
VERTEX2 88 3.96676348 -19.55769526 2.75640433
VERTEX2 89 3.97578529 -19.55823752 -3.13119641
VERTEX2 90 3.37048188 -19.55454049 3.12082306
VERTEX2 91 2.75433634 -19.54306174 -3.11331453
VERTEX2 92 2.15425931 -19.53191807 3.05417165
VERTEX2 93 1.53257317 -19.42176251 2.95333053
VERTEX2 94 0.91120261 -19.27559755 2.91059749
VERTEX2 95 0.28864963 -19.18047975 3.05318782
VERTEX2 96 -0.32253956 -19.12227121 3.07725349
VERTEX2 97 -0.91330799 -19.05242202 3.00665594
VERTEX2 98 -1.50238296 -18.94447425 2.94870196
VERTEX2 99 -2.20775463 -18.81179300 2.99554159
VERTEX2 100 -2.77289486 -18.69711320 2.94385646
VERTEX2 101 -3.38481242 -18.63347940 3.04720176
VERTEX2 102 -4.00097331 -18.54571268 2.94172385
VERTEX2 103 -4.61224825 -18.42350828 3.03812447
VERTEX2 104 -5.22287108 -18.34104996 3.00427823
VERTEX2 105 -5.83374275 -18.27031101 3.05066505
VERTEX2 106 -6.43410085 -18.19364851 2.99565872
VERTEX2 107 -7.05020454 -18.09101546 2.99174206
VERTEX2 108 -7.50529814 -18.03722018 3.05332022
VERTEX2 109 -7.55151797 -18.02498173 2.60482826
VERTEX2 110 -7.56857071 -18.00694918 2.01349489
VERTEX2 111 -7.56788235 -17.92621460 1.50765903
VERTEX2 112 -7.53725523 -17.29271085 1.56207763
VERTEX2 113 -7.54888899 -16.67029991 1.60910244
VERTEX2 114 -7.57536695 -16.05616869 1.64588027
VERTEX2 115 -7.64259856 -15.40898296 1.70608390
VERTEX2 116 -7.75318143 -14.65862842 1.75013722
VERTEX2 117 -7.88220974 -14.04812652 1.84565809
VERTEX2 118 -7.88636840 -14.02863026 1.51099773
VERTEX2 119 -7.82585652 -13.51347406 1.45772505
VERTEX2 120 -7.76726476 -12.86008910 1.54793694
VERTEX2 121 -7.77226488 -12.24285760 1.61553581
VERTEX2 122 -7.80128429 -11.66104342 1.67176215
VERTEX2 123 -7.82461014 -11.48162879 1.65899089
VERTEX2 124 -7.73706507 -11.24518014 1.23602533
VERTEX2 125 -7.51631011 -10.65600003 1.22509514
VERTEX2 126 -7.37937767 -10.04259714 1.43164718
VERTEX2 127 -7.27824887 -9.41284623 1.43001814
VERTEX2 128 -7.19851393 -8.77403048 1.46654779
VERTEX2 129 -7.10801255 -8.13928778 1.43397747
VERTEX2 130 -7.03648464 -7.50602178 1.48670744
VERTEX2 131 -6.98684792 -6.87792245 1.57520229
VERTEX2 132 -6.96536138 -6.25856695 1.52556921
VERTEX2 133 -6.91469481 -5.69193467 1.48872426
VERTEX2 134 -6.85684081 -5.09642247 1.47048739
VERTEX2 135 -6.77109059 -4.52153154 1.44424602
VERTEX2 136 -6.69276172 -3.88959639 1.46385780
VERTEX2 137 -6.59205032 -3.25994569 1.42199887
VERTEX2 138 -6.51199619 -2.63106745 1.50217051
VERTEX2 139 -6.49139513 -2.00020211 1.56750817
VERTEX2 140 -6.51563184 -1.34426870 1.59806384
VERTEX2 141 -6.51762921 -0.70385128 1.54965131
VERTEX2 142 -6.51388861 -0.05378652 1.54583201
VERTEX2 143 -6.42879864 0.58459761 1.43527825
VERTEX2 144 -6.38670115 0.95616762 1.45280845
VERTEX2 145 -6.38104949 0.97292595 0.95438475
VERTEX2 146 -6.37936331 0.98123327 0.36112864
VERTEX2 147 -6.32324767 0.97699870 -0.12542276
VERTEX2 148 -5.89161060 0.91465505 -0.16108946
VERTEX2 149 -5.25125704 0.81752540 -0.13600411
VERTEX2 150 -4.61718265 0.74972449 -0.12186666
VERTEX2 151 -3.97740076 0.69901387 -0.03622853
VERTEX2 152 -3.35210552 0.66035688 -0.09713031
VERTEX2 153 -2.72711548 0.62431189 -0.00369581
VERTEX2 154 -2.10579300 0.60008390 -0.07320018
VERTEX2 155 -1.48063026 0.56337086 -0.03970762
VERTEX2 156 -0.85317991 0.54582553 -0.00887764
VERTEX2 157 -0.28933752 0.52531708 -0.07312314
VERTEX2 158 -0.09469511 0.51059857 -0.04562590
VERTEX2 159 -0.08893615 0.50872367 0.94171159
VERTEX2 160 -0.08344929 0.51758267 1.97740098
VERTEX2 161 -0.10674140 0.45773973 2.69801495
VERTEX2 162 -0.08072807 0.46333711 -2.54936058
VERTEX2 163 -0.08178924 0.45827293 -1.55227000
VERTEX2 164 -0.15772942 0.55467643 -0.48934606
VERTEX2 165 0.01498615 0.53572518 -0.08158216
VERTEX2 166 0.71115554 0.48541137 -0.07988971
VERTEX2 167 1.32662190 0.42845296 -0.10925871
VERTEX2 168 1.91356482 0.37283382 -0.09724984
VERTEX2 169 2.50758583 0.29482242 -0.13415870
VERTEX2 170 3.09288368 0.22015227 -0.15476909
VERTEX2 171 3.65335169 0.11562331 -0.19302627
VERTEX2 172 4.27739747 0.00126600 -0.17891304
VERTEX2 173 4.91199600 -0.12819460 -0.20116988
VERTEX2 174 5.53464553 -0.24873898 -0.16116451
VERTEX2 175 6.14826322 -0.34513069 -0.18595172
VERTEX2 176 6.74519899 -0.47147602 -0.17639523
VERTEX2 177 7.36592240 -0.58060698 -0.20406778
VERTEX2 178 7.98488174 -0.73290699 -0.24306407
VERTEX2 179 8.38681945 -0.82063610 -0.18954710
VERTEX2 180 8.43654281 -0.83453544 -0.63124589
VERTEX2 181 8.87519721 -1.15813838 -0.68284997
VERTEX2 182 9.27966743 -1.52369799 -0.85663979
VERTEX2 183 9.62177927 -1.94711446 -0.91420799
VERTEX2 184 9.95872851 -2.46725915 -1.06020718
VERTEX2 185 10.24043492 -3.01088442 -1.15231477
VERTEX2 186 10.45714822 -3.58712656 -1.21826126
VERTEX2 187 10.64975714 -4.14130802 -1.24047786
VERTEX2 188 10.84844113 -4.71436018 -1.24543680
VERTEX2 189 11.03987611 -5.29150412 -1.27165574
VERTEX2 190 11.21811881 -5.89765995 -1.30030394
VERTEX2 191 11.38611081 -6.50307955 -1.32423541
VERTEX2 192 11.53530406 -7.10185248 -1.35242735
VERTEX2 193 11.65417306 -7.65190035 -1.40795307
VERTEX2 194 11.74927157 -8.22283967 -1.43451863
VERTEX2 195 11.82496835 -8.78904028 -1.46291505
VERTEX2 196 11.88691208 -9.41557259 -1.50365161
VERTEX2 197 11.92014473 -10.03770059 -1.53111232
VERTEX2 198 11.94065979 -10.65706722 -1.58928325
VERTEX2 199 11.90796690 -11.26517493 -1.65070994
VERTEX2 200 11.85629438 -11.86783645 -1.67260835
VERTEX2 201 11.78096274 -12.46670804 -1.72930571
VERTEX2 202 11.71317770 -12.97188355 -1.70904519
VERTEX2 203 11.60591581 -13.70552188 -1.76171235
VERTEX2 204 11.47971638 -14.28081872 -1.86363033
VERTEX2 205 11.30612306 -14.84129006 -1.87300208
VERTEX2 206 11.14780412 -15.38692381 -1.87103262
VERTEX2 207 10.98365225 -15.95224745 -1.85503740
VERTEX2 208 10.80564791 -16.55011611 -1.86443441
VERTEX2 209 10.63885851 -17.14958838 -1.82620118
VERTEX2 210 10.47130873 -17.74023376 -1.83513700
VERTEX2 211 10.31766758 -18.33473631 -1.83295091
VERTEX2 212 10.13650919 -18.91862105 -1.88588802
VERTEX2 213 9.93669209 -19.50604772 -1.90674506
VERTEX2 214 9.73211771 -20.07983568 -1.91062973
VERTEX2 215 9.61453278 -20.40048316 -1.94650722
VERTEX2 216 9.62692816 -20.37967504 -2.44536458
VERTEX2 217 9.65238951 -20.37717357 -2.98774405
VERTEX2 218 9.66106501 -20.38059021 -3.04385372
VERTEX2 219 9.09488044 -20.33139729 3.07072272
VERTEX2 220 8.48601741 -20.28169469 3.03077716
VERTEX2 221 7.84675747 -20.20926559 3.08125688
VERTEX2 222 7.22099781 -20.16082336 3.05572196
VERTEX2 223 6.59559223 -20.12558289 -3.13128513
VERTEX2 224 5.98202914 -20.12045828 3.12600105
VERTEX2 225 5.36480594 -20.10890127 -3.10758120
VERTEX2 226 4.74849522 -20.09655331 3.12643419
VERTEX2 227 4.10315000 -20.15966304 -3.00008210
VERTEX2 228 3.57944425 -20.13896851 2.92157991
VERTEX2 229 3.13283449 -20.09590556 3.04211188
VERTEX2 230 2.84220770 -20.07722752 3.01333783
VERTEX2 231 3.04643633 -20.09695843 3.08342639
VERTEX2 232 2.73713623 -19.95450300 2.65751225
VERTEX2 233 2.17481770 -19.68778957 2.75980613
VERTEX2 234 1.60030234 -19.45505748 2.71564198
VERTEX2 235 1.35116355 -19.34460324 2.71065314
VERTEX2 236 1.01640568 -19.34249038 3.11608202
VERTEX2 237 0.38804519 -19.35116232 -3.09671205
VERTEX2 238 -0.23281811 -19.39345785 -3.12944603
VERTEX2 239 -0.84955036 -19.38434659 3.08612014
VERTEX2 240 -1.41881968 -19.26052244 2.86804937
VERTEX2 241 -1.95798274 -19.12353033 2.95349165
VERTEX2 242 -2.53268170 -19.05219213 2.99304719
VERTEX2 243 -3.13387436 -18.96236072 2.99238895
VERTEX2 244 -3.75874911 -18.90998896 3.06376659
VERTEX2 245 -4.37427269 -18.85463097 3.00961640
VERTEX2 246 -4.97704996 -18.76197642 2.93729721
VERTEX2 247 -5.58126257 -18.67316385 3.04329875
VERTEX2 248 -6.13598869 -18.64599695 3.07470528
VERTEX2 249 -6.08794920 -18.65371889 -3.01554386
VERTEX2 250 -6.08514014 -18.65363608 2.68078072
VERTEX2 251 -6.40466877 -18.30981161 2.25747975
VERTEX2 252 -6.75691722 -17.88582683 2.26603224
VERTEX2 253 -7.12508912 -17.43601131 2.25508175
VERTEX2 254 -7.48665942 -16.97400497 2.21392980
VERTEX2 255 -7.55897858 -16.88038045 2.29780636
VERTEX2 256 -7.56122825 -16.80318558 1.82184638
VERTEX2 257 -7.60872565 -16.34248625 1.68642337
VERTEX2 258 -7.68685983 -15.75207820 1.76689923
VERTEX2 259 -7.82540731 -15.14392933 1.80767652
VERTEX2 260 -7.95470267 -14.58017363 1.79945998
VERTEX2 261 -7.95202757 -14.54173246 1.48831392
VERTEX2 262 -7.88324495 -13.88982066 1.49515880
VERTEX2 263 -7.83610452 -13.27438851 1.50869666
VERTEX2 264 -7.81625929 -12.67181171 1.60582377
VERTEX2 265 -7.84289479 -12.06924884 1.62603298
VERTEX2 266 -7.79043429 -11.49365090 1.49689934
VERTEX2 267 -7.73321267 -10.74744726 1.46769117
VERTEX2 268 -7.59681773 -10.14869293 1.35777627
VERTEX2 269 -7.47169780 -9.53352792 1.38759100
VERTEX2 270 -7.39427627 -8.90697497 1.50148759
VERTEX2 271 -7.29364212 -8.28255881 1.39082855
VERTEX2 272 -7.20251085 -7.65348662 1.45584863
VERTEX2 273 -7.20692994 -7.01913957 1.66800794
VERTEX2 274 -7.26984676 -6.39769601 1.69202423
VERTEX2 275 -7.25235190 -5.79083389 1.52050068
VERTEX2 276 -7.23997574 -5.18483624 1.63497328
VERTEX2 277 -7.28152153 -4.62089639 1.60939039
VERTEX2 278 -7.23237045 -3.98264513 1.52067419
VERTEX2 279 -7.18643330 -3.34542767 1.46534868
VERTEX2 280 -7.11216722 -2.71369394 1.46745203
VERTEX2 281 -7.01544893 -2.08023035 1.36710322
VERTEX2 282 -6.88952028 -1.45334479 1.40708658
VERTEX2 283 -6.79656910 -0.81985266 1.39940515
VERTEX2 284 -6.67872491 -0.19692568 1.42675749
VERTEX2 285 -6.60553357 0.45243160 1.44785645
VERTEX2 286 -6.53312271 1.07403787 1.50148800
VERTEX2 287 -6.52978334 1.12578650 1.39713260
VERTEX2 288 -6.52544815 1.13338509 0.78872075
VERTEX2 289 -6.52112853 1.13552532 0.19546705
VERTEX2 290 -6.07935975 1.12253866 -0.02950230
VERTEX2 291 -5.45529515 1.10870297 -0.01566237
VERTEX2 292 -4.83911453 1.08264152 -0.07037731
VERTEX2 293 -4.21455593 1.03086712 -0.09350149
VERTEX2 294 -3.59362630 0.97204451 -0.09287163
VERTEX2 295 -2.97227452 0.88500405 -0.20542020
VERTEX2 296 -2.35652164 0.73347103 -0.25086748
VERTEX2 297 -1.74301769 0.57499443 -0.26260397
VERTEX2 298 -1.13356442 0.41381180 -0.26329478
VERTEX2 299 -0.56062638 0.25063398 -0.20214734
VERTEX2 300 0.02510192 0.15818906 -0.15999793
VERTEX2 301 0.58621999 0.05210378 -0.21920345
VERTEX2 302 0.88731033 -0.01630545 -0.24014085
VERTEX2 303 0.86974188 -0.01266891 -0.23603588
VERTEX2 304 1.36893876 -0.13405795 -0.22652140
VERTEX2 305 1.98358231 -0.18573207 -0.04271171
VERTEX2 306 2.62100276 -0.20393232 -0.06098114
VERTEX2 307 3.25827643 -0.25929141 -0.09778456
VERTEX2 308 3.88384963 -0.32960057 -0.15347968
VERTEX2 309 4.51675911 -0.39745513 -0.06067296
VERTEX2 310 5.14267222 -0.43488308 -0.09666849
VERTEX2 311 5.42204955 -0.46406993 0.07824452
VERTEX2 312 5.41760702 -0.46635938 1.06582009
VERTEX2 313 5.42457116 -0.24825171 1.56140183
VERTEX2 314 5.41178026 0.37997619 1.60113236
VERTEX2 315 5.39000503 1.00771102 1.59675108
VERTEX2 316 5.35711310 1.65324192 1.64780106
VERTEX2 317 5.30305329 2.29569702 1.65747615
VERTEX2 318 5.21155067 2.93403240 1.75169943
VERTEX2 319 5.13586874 3.28222855 1.82274717
VERTEX2 320 5.13787006 3.28818617 2.79026134
VERTEX2 321 5.12871275 3.28438027 -2.45427343
VERTEX2 322 5.12753259 3.28202949 -1.45906704
VERTEX2 323 5.13725678 3.27241921 -0.46764807
VERTEX2 324 5.14052800 3.27130872 0.19151642
VERTEX2 325 5.14059798 3.27131803 -0.33675711
VERTEX2 326 5.15496746 3.26019476 -0.93262514
VERTEX2 327 5.15804668 3.24456498 -1.55667794
VERTEX2 328 5.13233671 2.60703245 -1.60348665
VERTEX2 329 5.10070737 1.98230313 -1.66081545
VERTEX2 330 5.03635634 1.36890654 -1.68211118
VERTEX2 331 4.97046625 0.75424827 -1.69863970
VERTEX2 332 4.87965903 0.14270691 -1.71938075
VERTEX2 333 4.85506656 -0.01108362 -1.65672919
VERTEX2 334 4.88696563 -0.00468802 -0.85314144
VERTEX2 335 4.90921300 -0.01151868 0.13764138
VERTEX2 336 4.92169870 -0.00726352 1.07858501
VERTEX2 337 4.92541005 0.01458479 2.05737416
VERTEX2 338 4.92477544 0.01501960 3.04650880
VERTEX2 339 4.93557089 0.02157168 -2.18711584
VERTEX2 340 4.93631112 0.01661319 -1.16768603
VERTEX2 341 5.05107427 -0.05432874 -0.53418451
VERTEX2 342 5.61649194 -0.36215168 -0.43188543
VERTEX2 343 6.19238358 -0.57001577 -0.30060389
VERTEX2 344 6.77885809 -0.75993288 -0.31024508
VERTEX2 345 7.01581368 -0.83266309 -0.33731351
VERTEX2 346 7.00190400 -0.82792690 -0.98353204
VERTEX2 347 7.00342293 -0.92522800 -1.54126365
VERTEX2 348 7.01399615 -1.52487983 -1.55757319
VERTEX2 349 7.00364595 -2.15331420 -1.59740046
VERTEX2 350 6.97988787 -2.95023221 -1.61662487
VERTEX2 351 6.96145999 -3.23295040 -1.64517957
VERTEX2 352 6.95744901 -3.25088624 -1.93231577
VERTEX2 353 6.93965435 -3.27211602 -2.59578866
VERTEX2 354 6.92008474 -3.27742542 3.08581200
VERTEX2 355 6.89658317 -3.27648522 2.36690520
VERTEX2 356 6.89376113 -3.27131675 1.79338274
VERTEX2 357 6.89658535 -3.25589829 1.14298144
VERTEX2 358 6.89701625 -3.25533731 0.53008164
VERTEX2 359 6.88365271 -3.26083352 -0.08138914
VERTEX2 360 6.86735713 -3.25736518 -0.25608790
VERTEX2 361 6.86314580 -3.25842133 0.66757895
VERTEX2 362 6.95607850 -3.01576909 1.20414049
VERTEX2 363 7.06710080 -2.73612806 1.19884707
VERTEX2 364 6.99962205 -2.38726559 1.81647204
VERTEX2 365 6.94523586 -2.08552101 1.32193068
VERTEX2 366 7.06365082 -1.95420399 0.77055648
VERTEX2 367 7.52227286 -1.51467980 0.77370750
VERTEX2 368 7.98016530 -1.08474628 0.72580500
VERTEX2 369 8.00172088 -1.05920046 0.47418382
VERTEX2 370 8.02628862 -1.05550417 -0.11220691
VERTEX2 371 8.03329537 -1.05920967 -0.65759588
VERTEX2 372 8.45920381 -1.41169738 -0.68524907
VERTEX2 373 8.92876259 -1.78087221 -0.68325719
VERTEX2 374 9.40429825 -2.18830379 -0.74439997
VERTEX2 375 9.76286162 -2.51299122 -0.77520668
VERTEX2 376 9.77684123 -2.52170840 -0.08232917
VERTEX2 377 9.82853486 -2.48560240 0.61106459
VERTEX2 378 10.36816724 -2.09174267 0.66405872
VERTEX2 379 10.85207321 -1.66496314 0.74762681
VERTEX2 380 11.29635564 -1.20162208 0.86567485
VERTEX2 381 11.44442248 -1.02227036 1.01422509
VERTEX2 382 11.44585868 -1.01971348 2.05966982
VERTEX2 383 11.44791570 -1.02102499 3.04697614
VERTEX2 384 11.44700069 -1.02186952 -2.27204056
VERTEX2 385 11.44227287 -1.02967649 -1.24147829
VERTEX2 386 11.54823606 -1.16931807 -1.01638146
VERTEX2 387 12.00456385 -1.59753283 -0.68443866
VERTEX2 388 12.50893082 -1.99118259 -0.67474703
VERTEX2 389 12.98702130 -2.40459768 -0.75629854
VERTEX2 390 13.04086483 -2.45351923 -0.27991321
VERTEX2 391 12.90844108 -2.44871545 0.10105934
VERTEX2 392 12.91104744 -2.44864556 1.14435401
VERTEX2 393 12.92727122 -2.31923167 2.02913233
VERTEX2 394 12.92303523 -2.31559982 3.02345015
VERTEX2 395 13.16943748 -2.27333725 -2.92203064
VERTEX2 396 13.17460515 -2.27220396 -2.92183553
VERTEX2 397 13.17840864 -2.27251683 -2.93254921
VERTEX2 398 13.17933845 -2.27213483 -2.73495902
VERTEX2 399 13.08320394 -2.34638850 -2.43600426
VERTEX2 400 12.58859400 -2.77243485 -2.38576421
VERTEX2 401 12.12797212 -3.17411580 -2.47837005
VERTEX2 402 11.58277600 -3.45569050 -2.74580168
VERTEX2 403 11.02290707 -3.68414182 -2.78015149
VERTEX2 404 10.48964918 -3.86860153 -2.85955777
VERTEX2 405 10.51256872 -3.85775016 -2.32646033
VERTEX2 406 10.51645543 -3.83539085 -1.34945609
VERTEX2 407 10.63510326 -4.17416713 -1.22195886
VERTEX2 408 10.83662477 -4.74739725 -1.26070301
VERTEX2 409 10.91693723 -5.02464567 -1.36118931
VERTEX2 410 10.91715435 -5.01892378 -1.99102506
VERTEX2 411 10.92231861 -5.00987035 -2.58219422
VERTEX2 412 10.41891000 -5.20802186 -2.78672868
VERTEX2 413 9.83310432 -5.40331643 -2.86760219
VERTEX2 414 9.24198586 -5.58793154 -2.76525919
VERTEX2 415 8.63588555 -5.81976814 -2.75739644
VERTEX2 416 8.34892537 -5.94472585 -2.81167562
VERTEX2 417 8.06062151 -5.92697159 3.04873924
VERTEX2 418 7.62630224 -5.88161560 3.00445796
VERTEX2 419 7.63105175 -5.88056564 -2.84605917
VERTEX2 420 7.68498977 -5.85694212 -2.62868266
VERTEX2 421 7.68523024 -5.85662148 -1.65776486
VERTEX2 422 7.67953484 -5.86456560 -0.41430546
VERTEX2 423 7.68631717 -5.86522324 -0.06719245
VERTEX2 424 7.68534704 -5.86536952 -0.06649620
VERTEX2 425 7.67979184 -5.86849301 -0.05443443
VERTEX2 426 7.67872700 -5.86864605 -0.06322689
VERTEX2 427 7.71019481 -5.87035150 -0.05977947
VERTEX2 428 8.37129524 -5.89306812 -0.06499334
VERTEX2 429 9.01458486 -5.94385279 -0.10551969
VERTEX2 430 9.35497385 -5.98531827 -0.15137414
VERTEX2 431 9.33150186 -5.98243093 -0.09921425
VERTEX2 432 9.34218493 -5.98623851 -0.73066882
VERTEX2 433 9.34607651 -5.99163405 -1.40769597
VERTEX2 434 9.30646823 -6.53336132 -1.63523228
VERTEX2 435 9.27089488 -7.17909365 -1.66309401
VERTEX2 436 9.18948123 -7.82120052 -1.67146599
VERTEX2 437 9.13377187 -8.47363787 -1.66312716
VERTEX2 438 9.07908717 -8.94475489 -1.69296073
VERTEX2 439 9.07666540 -8.95365923 -2.12746712
VERTEX2 440 9.08330962 -8.94850143 -2.76862658
VERTEX2 441 9.10214045 -8.94671977 2.89446030
VERTEX2 442 9.11317714 -8.95277872 2.26702130
VERTEX2 443 9.11347558 -8.95821315 1.70191916
VERTEX2 444 9.11596559 -8.94549052 1.11223328
VERTEX2 445 9.12087225 -8.94084872 0.45608418
VERTEX2 446 9.11980250 -8.94151362 0.65853026
VERTEX2 447 9.13061773 -8.92077416 1.29190538
VERTEX2 448 9.28258362 -8.30238100 1.30967881
VERTEX2 449 9.41852532 -7.66369997 1.41088723
VERTEX2 450 9.51573316 -7.02416861 1.42443416
VERTEX2 451 9.57104806 -6.55070969 1.46679550
VERTEX2 452 9.57147480 -6.54624900 1.08825261
VERTEX2 453 9.56945122 -6.54985393 0.46535553
VERTEX2 454 9.82890002 -6.53173409 0.04274611
VERTEX2 455 10.42446021 -6.51165258 0.02224633
VERTEX2 456 11.05342578 -6.51165805 -0.04226931
VERTEX2 457 11.40404326 -6.53643384 -0.12990825
VERTEX2 458 11.39722393 -6.53299200 -0.77561123
VERTEX2 459 11.38890819 -6.49831168 -1.38363381
VERTEX2 460 11.36549898 -6.89747841 -1.64051346
VERTEX2 461 11.29254387 -7.51450333 -1.72834750
VERTEX2 462 11.20153305 -8.02451760 -1.76824907
VERTEX2 463 11.21198460 -8.00435184 -0.92764802
VERTEX2 464 11.46806658 -8.07874664 -0.24968945
VERTEX2 465 12.05259927 -8.21539377 -0.24201277
VERTEX2 466 12.60642943 -8.37017638 -0.29774932
VERTEX2 467 13.17711404 -8.55566086 -0.34132739
VERTEX2 468 13.78057687 -8.77467163 -0.37627708
VERTEX2 469 14.36112942 -9.03987509 -0.45855568
VERTEX2 470 14.81622760 -9.25912966 -0.43947225
VERTEX2 471 14.82680517 -9.26493918 -0.63898173
VERTEX2 472 14.84498993 -9.29061385 -1.27092146
VERTEX2 473 14.84663278 -9.29893072 -1.91078066
VERTEX2 474 14.84564877 -9.30014439 -2.54139422
VERTEX2 475 14.85018653 -9.29955940 -3.11514799
VERTEX2 476 14.85490014 -9.30023729 2.51685611
VERTEX2 477 14.86000987 -9.31039824 1.95735254
VERTEX2 478 14.86075230 -9.32105810 1.33031973
VERTEX2 479 14.85986937 -9.32304209 0.87603566
VERTEX2 480 14.86032910 -9.32202796 1.43807897
VERTEX2 481 14.85705967 -9.30741097 2.44012938
VERTEX2 482 14.86358448 -9.31008895 2.77623993
VERTEX2 483 14.87234247 -9.31335288 2.77083267
VERTEX2 484 14.44972623 -9.15255319 2.80632695
VERTEX2 485 13.85124155 -8.95845758 2.80395322
VERTEX2 486 13.25035328 -8.74026818 2.81341695
VERTEX2 487 12.64043868 -8.55525124 2.84162285
VERTEX2 488 12.02826452 -8.36828855 2.87766621
VERTEX2 489 11.56326281 -8.25766314 2.90819343
VERTEX2 490 11.57204874 -8.25688698 -2.88966292
VERTEX2 491 11.58055529 -8.24585182 -1.95316256
VERTEX2 492 11.56200346 -8.47640726 -1.64996653
VERTEX2 493 11.49570121 -9.08064997 -1.70492941
VERTEX2 494 11.40399401 -9.69184203 -1.76577282
VERTEX2 495 11.33033683 -10.31447247 -1.65855316
VERTEX2 496 11.28205876 -10.93864352 -1.54078613
VERTEX2 497 11.27069908 -11.55669836 -1.62680560
VERTEX2 498 11.19765067 -12.17767177 -1.72859366
VERTEX2 499 11.06262448 -12.80302574 -1.74560110
VERTEX2 500 11.11653009 -13.37066571 -1.41666091
VERTEX2 501 11.18713364 -13.95129491 -1.48870008
VERTEX2 502 11.20626499 -14.64763682 -1.57312910
VERTEX2 503 11.19866047 -15.09517969 -1.59005304
VERTEX2 504 11.20349634 -15.08182189 -0.73299025
VERTEX2 505 11.44164966 -15.11063519 -0.11096103
VERTEX2 506 12.03335033 -15.19632067 -0.26343487
VERTEX2 507 12.61376639 -15.37011149 -0.34191229
VERTEX2 508 13.18189275 -15.58551914 -0.35511179
VERTEX2 509 13.80749988 -15.82619763 -0.41016056
VERTEX2 510 14.17088013 -15.99091628 -0.42326091
VERTEX2 511 14.16924187 -15.97417286 0.45206421
VERTEX2 512 14.19109671 -15.92865692 1.64933189
VERTEX2 513 14.18784379 -15.91891205 2.60478962
VERTEX2 514 14.12073407 -15.89973906 2.83106144
VERTEX2 515 13.51155909 -15.71600671 2.83216945
VERTEX2 516 12.92796129 -15.51929462 2.84806974
VERTEX2 517 12.33620141 -15.36842939 2.87626508
VERTEX2 518 11.73753998 -15.21222391 2.90038325
VERTEX2 519 11.20933703 -15.08371814 2.88448079
VERTEX2 520 11.03452255 -15.03713687 -3.00069018
VERTEX2 521 11.05947271 -15.00999412 -1.99839200
VERTEX2 522 10.99239280 -15.39801609 -1.73447943
VERTEX2 523 10.89628102 -16.01646147 -1.74191817
VERTEX2 524 10.78808437 -16.58872164 -1.78388963
VERTEX2 525 10.68001904 -17.12909136 -1.76026835
VERTEX2 526 10.55948490 -17.69606444 -1.81908433
VERTEX2 527 10.40726193 -18.27308394 -1.85390010
VERTEX2 528 10.22063112 -18.83742912 -1.92987222
VERTEX2 529 10.00376296 -19.43659652 -1.95829371
VERTEX2 530 9.75178462 -20.03287627 -1.98849278
VERTEX2 531 9.47746671 -20.60472193 -2.06843362
VERTEX2 532 9.37816141 -20.78918709 -2.01793589
VERTEX2 533 9.37498054 -20.77306317 -1.01857011
VERTEX2 534 9.37337569 -20.77196925 -0.35178711
VERTEX2 535 9.37498907 -20.77154567 -0.35222964
VERTEX2 536 9.72923118 -20.85815088 -0.22162142
VERTEX2 537 10.33274813 -21.01140292 -0.27972387
VERTEX2 538 10.88921418 -21.18496222 -0.30694831
VERTEX2 539 11.49317200 -21.39869289 -0.37184712
VERTEX2 540 12.07530042 -21.65623721 -0.46489103
VERTEX2 541 12.65806056 -21.88880371 -0.30277515
VERTEX2 542 13.28588139 -22.03623471 -0.24723825
VERTEX2 543 13.40555159 -22.06749101 -0.27706107
VERTEX2 544 13.42648537 -22.06557016 0.35951139
VERTEX2 545 13.45103625 -22.02203723 1.42633018
VERTEX2 546 13.46836341 -22.06851986 2.25383462
VERTEX2 547 13.47908898 -22.06788416 -3.00710324
VERTEX2 548 13.49442385 -22.05821817 -2.08369755
VERTEX2 549 13.49618689 -22.04682563 -1.27663359
VERTEX2 550 13.49515325 -22.02626071 -1.75614183
VERTEX2 551 13.50415984 -22.00833515 -2.38216094
VERTEX2 552 13.52455660 -21.99835416 -3.01426787
VERTEX2 553 13.39024409 -21.94596154 2.69196249
VERTEX2 554 12.80237658 -21.65911192 2.65664014
VERTEX2 555 12.22720559 -21.38151857 2.74566746
VERTEX2 556 11.62686503 -21.16024733 2.88093860
VERTEX2 557 11.02618805 -20.98546353 2.83997077
VERTEX2 558 10.44951080 -20.82480625 2.92126037
VERTEX2 559 10.45556799 -20.82688187 2.51476122
VERTEX2 560 10.44877504 -20.81900918 2.01302329
VERTEX2 561 10.42516687 -20.79581505 2.51744609
VERTEX2 562 10.25056846 -20.79464986 -3.12313036
VERTEX2 563 9.68388553 -20.71216694 2.96776080
VERTEX2 564 9.08264107 -20.61612505 3.01618214
VERTEX2 565 8.49237522 -20.53986814 2.95857312
VERTEX2 566 8.55257872 -20.55915222 -2.54119889
VERTEX2 567 8.45926637 -20.56528252 -1.74728939
VERTEX2 568 8.40381613 -21.07325849 -1.68330931
VERTEX2 569 8.34748304 -21.64805183 -1.72243810
VERTEX2 570 8.27371013 -22.22791480 -1.71765536
VERTEX2 571 8.21827900 -22.58245383 -1.76490753
VERTEX2 572 8.18287217 -22.60789581 -2.00776731
VERTEX2 573 8.14707449 -22.68738292 -1.73107546
VERTEX2 574 8.16577389 -22.71404180 -0.79046335
VERTEX2 575 8.32276763 -22.76696578 0.12313242
VERTEX2 576 8.32036079 -22.76499293 1.15063480
VERTEX2 577 8.31307536 -22.74492076 2.12258467
VERTEX2 578 8.30334527 -22.71030457 1.75835125
VERTEX2 579 8.18770808 -22.05935716 1.77380371
VERTEX2 580 8.03478041 -21.41993931 1.84941990
VERTEX2 581 7.84875902 -20.79591832 1.89223397
VERTEX2 582 7.63493855 -20.18050713 1.93579370
VERTEX2 583 7.50911357 -19.87210754 2.01561192
VERTEX2 584 7.50418742 -19.86228603 2.86080438
VERTEX2 585 6.91927760 -19.71582762 2.97968529
VERTEX2 586 6.32268684 -19.63539987 3.07781116
VERTEX2 587 5.70005103 -19.61899326 3.10372210
VERTEX2 588 5.06666829 -19.58770575 3.10867043
VERTEX2 589 4.52251096 -19.60840079 -3.09877595
VERTEX2 590 3.96705295 -19.64878929 -3.02968941
VERTEX2 591 3.42144606 -19.72467598 -3.03130786
VERTEX2 592 2.87560581 -19.79457991 -3.03390831
VERTEX2 593 2.70044668 -19.81528465 -2.82843915
VERTEX2 594 2.75735998 -19.75481175 -1.91219721
VERTEX2 595 2.63861921 -20.35702181 -1.67906858
VERTEX2 596 2.57924722 -20.98714963 -1.70184770
VERTEX2 597 2.48003866 -21.66728291 -1.74142511
VERTEX2 598 2.37152036 -22.26437578 -1.78355247
VERTEX2 599 2.27965685 -22.64049259 -1.84970170
VERTEX2 600 2.27969367 -22.65660045 -1.04304739
VERTEX2 601 2.32030514 -22.68215392 -0.02476097
VERTEX2 602 2.35629795 -22.66805420 0.98939786
VERTEX2 603 2.32404798 -22.43282994 1.76212530
VERTEX2 604 2.26950315 -21.81978553 1.51807746
VERTEX2 605 2.28490776 -21.16938088 1.60069566
VERTEX2 606 2.25073679 -20.51906236 1.64282037
VERTEX2 607 2.26774548 -19.92647114 1.56186352
VERTEX2 608 2.25833548 -19.53777258 1.60641686
VERTEX2 609 2.25445962 -19.51359429 1.94287060
VERTEX2 610 2.24828093 -19.51129182 2.87582374
VERTEX2 611 1.65396367 -19.35551082 2.87891653
VERTEX2 612 1.18257897 -19.21658278 2.88184013
VERTEX2 613 1.21788410 -19.22773379 -2.93733073
VERTEX2 614 1.21993551 -19.22621085 -1.89889369
VERTEX2 615 1.22738428 -19.71764605 -1.59415836
VERTEX2 616 1.22735220 -20.34544820 -1.64519189
VERTEX2 617 1.08296407 -20.94702277 -1.86208861
VERTEX2 618 0.90722972 -21.55105392 -1.85177776
VERTEX2 619 0.74021841 -22.12067368 -1.85296230
VERTEX2 620 0.55064680 -22.69444577 -1.94883631
VERTEX2 621 0.68276021 -22.36318580 -2.00008745
VERTEX2 622 0.80871424 -22.10090802 -2.07481323
VERTEX2 623 0.80801208 -22.10183911 -2.61131646
VERTEX2 624 0.77876110 -22.10125198 3.02992859
VERTEX2 625 0.73767464 -22.08418517 2.37206737
VERTEX2 626 0.71020810 -22.05202643 1.75467004
VERTEX2 627 0.78651858 -21.68132366 1.34429650
VERTEX2 628 0.97159839 -21.05691830 1.24351789
VERTEX2 629 1.14961529 -20.43178490 1.31458156
VERTEX2 630 1.28134338 -19.82604693 1.39957184
VERTEX2 631 1.35890526 -19.29777021 1.41962069
VERTEX2 632 1.36167827 -19.28231886 2.09536108
VERTEX2 633 1.26351209 -19.27471039 -3.10173369
VERTEX2 634 0.59596805 -19.30519622 -3.07436630
VERTEX2 635 -0.05715439 -19.30969851 3.07377744
VERTEX2 636 -0.69858705 -19.27504134 3.05619013
VERTEX2 637 -1.32619545 -19.19476289 2.95690452
VERTEX2 638 -1.71752575 -19.11113599 2.92734511
VERTEX2 639 -2.32707487 -19.00255427 3.00768510
VERTEX2 640 -2.94077287 -18.88772537 2.93979947
VERTEX2 641 -3.53988625 -18.77135316 2.93148240
VERTEX2 642 -4.11453291 -18.62886971 2.88617015
VERTEX2 643 -4.59468474 -18.48805180 2.81870504
VERTEX2 644 -4.59863491 -18.48889590 -2.70772046
VERTEX2 645 -4.63629733 -18.62950002 -1.93026097
VERTEX2 646 -4.77895354 -19.23716183 -1.63491301
VERTEX2 647 -4.74145926 -19.87964079 -1.34608649
VERTEX2 648 -4.52438842 -20.50654102 -1.17982374
VERTEX2 649 -4.35641798 -21.10660855 -1.51745051
VERTEX2 650 -4.46294836 -21.73373472 -1.77483810
VERTEX2 651 -4.48177059 -21.87875655 -0.97548843
VERTEX2 652 -4.41876822 -21.90782835 0.04938324
VERTEX2 653 -4.37190674 -21.86656325 1.07973013
VERTEX2 654 -4.37798816 -21.57003700 1.59286217
VERTEX2 655 -4.38286614 -21.01676337 1.58784147
VERTEX2 656 -4.37601194 -20.41489522 1.57519637
VERTEX2 657 -4.47672113 -19.80260686 1.85181153
VERTEX2 658 -4.66078464 -19.18389051 1.84454374
VERTEX2 659 -4.77058235 -18.68923524 1.77328022
VERTEX2 660 -4.77317750 -18.67555992 2.37367070
VERTEX2 661 -4.95236724 -18.65402348 3.02740634
VERTEX2 662 -5.54620023 -18.58894650 3.09712811
VERTEX2 663 -6.13480065 -18.59790079 -3.08490971
VERTEX2 664 -6.14199654 -18.59598229 -2.56091726
VERTEX2 665 -6.15908131 -18.69832566 -1.72806072
VERTEX2 666 -6.23655447 -19.30638833 -1.69091506
VERTEX2 667 -6.29899051 -19.87245892 -1.68629062
VERTEX2 668 -6.36808400 -20.46591535 -1.66050863
VERTEX2 669 -6.42241651 -21.09129352 -1.68564193
VERTEX2 670 -6.52766444 -21.70830974 -1.74512569
VERTEX2 671 -6.57800611 -22.00075013 -1.69015078
VERTEX2 672 -6.47084732 -21.42141117 -1.77926927
VERTEX2 673 -6.40226760 -21.15573782 -1.90982752
VERTEX2 674 -6.38915433 -21.14215458 -2.55798067
VERTEX2 675 -6.36492526 -21.13726371 3.11657609
VERTEX2 676 -6.35789893 -21.14146111 2.49322764
VERTEX2 677 -6.35272738 -21.14873486 1.87737520
VERTEX2 678 -6.32265562 -20.92741141 1.43142752
VERTEX2 679 -6.25313969 -20.34955690 1.49400538
VERTEX2 680 -6.27639922 -19.90174895 1.83888749
VERTEX2 681 -6.42219994 -19.31171504 1.81138744
VERTEX2 682 -6.58994943 -18.69950568 1.85906610
VERTEX2 683 -6.68098410 -18.41175639 2.01822833
VERTEX2 684 -6.62897267 -18.46579172 3.09815936
VERTEX2 685 -7.03513306 -18.62342526 -2.74125969
VERTEX2 686 -7.48436330 -18.75647980 -2.88544338
VERTEX2 687 -8.08095787 -18.90270273 -2.92040117
VERTEX2 688 -8.68056877 -19.01786453 -2.93212577
VERTEX2 689 -9.24672260 -19.15226739 -2.90441367
VERTEX2 690 -9.78469698 -19.31698157 -2.83019237
VERTEX2 691 -10.18152115 -19.44534286 -2.85817887
VERTEX2 692 -10.16733021 -19.43918102 -2.32389930
VERTEX2 693 -10.14509996 -19.51139175 -1.28343861
VERTEX2 694 -10.12169163 -19.58332304 -0.44793248
VERTEX2 695 -10.10322723 -19.57824042 0.35210912
VERTEX2 696 -10.09698211 -19.57422655 1.37764162
VERTEX2 697 -10.10890199 -19.61224046 1.12468235
VERTEX2 698 -9.77661119 -19.40581523 0.46993939
VERTEX2 699 -9.21007975 -19.09705185 0.58398943
VERTEX2 700 -8.69329700 -18.73898886 0.63753096
VERTEX2 701 -8.25603594 -18.37940188 0.69671207
VERTEX2 702 -7.77381552 -18.06781457 0.58156734
VERTEX2 703 -7.25831120 -17.73520225 0.61583319
VERTEX2 704 -6.76117198 -17.35675768 0.63402352
VERTEX2 705 -6.24663097 -16.94039080 0.70427430
VERTEX2 706 -5.81374725 -16.62611600 0.43529491
VERTEX2 707 -5.78835316 -16.62497433 -0.08494283
VERTEX2 708 -5.77842602 -16.63082861 -0.72341460
VERTEX2 709 -5.81787435 -16.58758995 -1.05549343
VERTEX2 710 -5.82216281 -16.57621383 -1.61660318
VERTEX2 711 -5.81277027 -16.58484792 -2.21332824
VERTEX2 712 -5.79231209 -16.56945511 -2.77375928
VERTEX2 713 -6.26562127 -16.61566827 -3.05910610
VERTEX2 714 -6.81859104 -16.58562624 3.02656113
VERTEX2 715 -7.44333852 -16.54322385 3.13012231
VERTEX2 716 -8.07567362 -16.51561689 2.99203807
VERTEX2 717 -8.69457759 -16.44233814 3.07674467
VERTEX2 718 -9.45380030 -16.31707507 2.90130741
VERTEX2 719 -10.06774536 -16.19644990 2.97572374
VERTEX2 720 -10.67756144 -16.07872502 2.91646981
VERTEX2 721 -11.29226162 -15.95748968 2.98463600
VERTEX2 722 -11.30691483 -15.95526441 3.05128384
VERTEX2 723 -11.32875227 -15.97736950 -2.14145186
VERTEX2 724 -11.32925825 -16.02172678 -1.07207862
VERTEX2 725 -11.30307923 -16.03964753 -0.43742077
VERTEX2 726 -10.97929464 -16.03850218 0.01701052
VERTEX2 727 -10.34325298 -16.00589915 0.04787291
VERTEX2 728 -9.70456173 -15.98747182 0.04937467
VERTEX2 729 -9.06810527 -15.93276009 0.10714590
VERTEX2 730 -8.44598700 -15.84611467 0.14477618
VERTEX2 731 -7.79584897 -15.75098348 0.15741972
VERTEX2 732 -7.65242021 -15.72323635 0.60489587
VERTEX2 733 -7.65206626 -15.72382416 1.60317423
VERTEX2 734 -7.70841670 -15.16485783 1.68177537
VERTEX2 735 -7.76702755 -14.55957364 1.65019583
VERTEX2 736 -7.76756095 -14.55122049 2.24940033
VERTEX2 737 -7.76124901 -14.55207811 3.04972691
VERTEX2 738 -8.34002548 -14.50933476 3.06865034
VERTEX2 739 -8.94233615 -14.41202229 3.01086150
VERTEX2 740 -9.44489458 -14.36974925 3.07395189
VERTEX2 741 -9.42484944 -14.36962343 2.70481197
VERTEX2 742 -9.42355424 -14.37055655 2.05160535
VERTEX2 743 -9.42471418 -14.36530913 1.43439619
VERTEX2 744 -9.41594152 -14.34552705 0.89467209
VERTEX2 745 -9.39705787 -14.33579773 0.30079618
VERTEX2 746 -8.85396575 -14.35757653 -0.17438950
VERTEX2 747 -8.20850474 -14.47661410 -0.20978075
VERTEX2 748 -7.63139197 -14.62338754 -0.27824298
VERTEX2 749 -7.54706485 -14.64501034 0.15073172
VERTEX2 750 -7.53788753 -14.62836721 1.07739718
VERTEX2 751 -7.57025899 -14.35739937 1.71737368
VERTEX2 752 -7.62432710 -13.72790761 1.61395656
VERTEX2 753 -7.65795271 -13.08292024 1.67707793
VERTEX2 754 -7.66129203 -12.43628949 1.51485999
VERTEX2 755 -7.63864325 -11.80345537 1.60137208
VERTEX2 756 -7.59737598 -11.16828608 1.42503729
VERTEX2 757 -7.51883155 -10.52407814 1.53695185
VERTEX2 758 -7.53590459 -9.94449320 1.67915383
VERTEX2 759 -7.52226098 -9.39708816 1.55903083
VERTEX2 760 -7.55740398 -8.78636057 1.67043675
VERTEX2 761 -7.55985532 -8.74922152 1.85084774
VERTEX2 762 -7.63610519 -8.71459251 2.68609646
VERTEX2 763 -8.21223059 -8.60816938 2.97886974
VERTEX2 764 -8.63437901 -8.53388717 2.95129038
VERTEX2 765 -8.62666965 -8.53378320 -2.69256779
VERTEX2 766 -8.62924543 -8.54199188 -1.69239584
VERTEX2 767 -8.62402210 -8.55544664 -0.76167724
VERTEX2 768 -8.59976213 -8.55707826 -0.03942762
VERTEX2 769 -7.96657474 -8.47213369 0.11742382
VERTEX2 770 -7.31145565 -8.41646246 0.05031836
VERTEX2 771 -7.22078405 -8.40942708 0.61084518
VERTEX2 772 -7.21706592 -8.39786410 1.47845199
VERTEX2 773 -7.18956666 -7.81867412 1.56429271
VERTEX2 774 -7.19853238 -7.27085321 1.58643182
VERTEX2 775 -7.19779531 -7.27412721 2.43145866
VERTEX2 776 -7.40530175 -7.24755292 3.04896999
VERTEX2 777 -8.01661902 -7.20187929 3.10806033
VERTEX2 778 -8.62750387 -7.18731477 3.08716895
VERTEX2 779 -9.24374097 -7.16183280 3.10528442
VERTEX2 780 -9.45235173 -7.14236944 2.97506816
VERTEX2 781 -9.44963510 -7.14335880 2.40166855
VERTEX2 782 -9.57485035 -6.87027731 1.97211853
VERTEX2 783 -9.80521280 -6.29504986 1.97152321
VERTEX2 784 -9.90267599 -6.06734518 1.95020326
VERTEX2 785 -9.90336135 -6.04267542 1.39824107
VERTEX2 786 -9.89546833 -6.01745334 0.80992064
VERTEX2 787 -9.87860657 -6.00047501 0.31925492
VERTEX2 788 -9.85240971 -6.00247679 -0.30987995
VERTEX2 789 -9.84221168 -6.01062230 -0.86185529
VERTEX2 790 -9.53934280 -6.40830931 -0.92902071
VERTEX2 791 -9.13893040 -6.89355192 -0.83035066
VERTEX2 792 -8.90351338 -7.10693327 -0.12560333
VERTEX2 793 -8.28884390 -7.16447688 -0.08077182
VERTEX2 794 -7.64935113 -7.19888087 -0.00949927
VERTEX2 795 -7.67054732 -7.21414827 0.42002019
VERTEX2 796 -7.67480928 -7.21579334 1.07956990
VERTEX2 797 -7.59620335 -6.90100687 1.33983144
VERTEX2 798 -7.45579569 -6.27833112 1.38987990
VERTEX2 799 -7.36308908 -5.63786191 1.45553515
VERTEX2 800 -7.30317501 -4.99542635 1.52839237
VERTEX2 801 -7.30791211 -4.36407488 1.61427989
VERTEX2 802 -7.35550078 -3.73921322 1.67196009
VERTEX2 803 -7.33187154 -3.11119640 1.50727920
VERTEX2 804 -7.30531442 -2.48444991 1.56318569
VERTEX2 805 -7.33208998 -1.85447388 1.63949011
VERTEX2 806 -7.38588298 -1.25649191 1.68093443
VERTEX2 807 -7.41135300 -1.07186944 1.96904081
VERTEX2 808 -7.41604936 -1.07173107 2.91735105
VERTEX2 809 -8.00726109 -1.03687931 3.06202915
VERTEX2 810 -8.62324512 -0.90744157 2.92188021
VERTEX2 811 -9.22093851 -0.78989214 2.91860185
VERTEX2 812 -9.22315046 -0.78944031 -2.63280890
VERTEX2 813 -9.23314533 -0.81115746 -1.65750531
VERTEX2 814 -9.22681973 -0.81626577 -0.66528480
VERTEX2 815 -9.20254291 -0.82471475 0.25397523
VERTEX2 816 -9.19373317 -0.82000742 0.93512120
VERTEX2 817 -9.18235196 -0.81300129 0.26634902
VERTEX2 818 -8.96039084 -0.84910361 -0.22254568
VERTEX2 819 -8.37063880 -0.98267950 -0.20842264
VERTEX2 820 -7.77849855 -1.12036780 -0.24965225
VERTEX2 821 -7.23383151 -1.25664995 -0.23385251
VERTEX2 822 -7.18146285 -1.26514416 0.52748939
VERTEX2 823 -7.17998428 -1.25094958 1.44660737
VERTEX2 824 -7.10964431 -0.62998131 1.36728321
VERTEX2 825 -6.95909589 -0.00800284 1.33764003
VERTEX2 826 -6.89533823 0.62293963 1.50063063
VERTEX2 827 -6.82486927 1.24559122 1.45203393
VERTEX2 828 -6.76410349 1.87679418 1.48753515
VERTEX2 829 -6.69724094 2.47986149 1.44780470
VERTEX2 830 -6.61637843 3.08814106 1.43950172
VERTEX2 831 -6.51659443 3.66461993 1.39272789
VERTEX2 832 -6.42090118 4.22681759 1.38918373
VERTEX2 833 -6.37441079 4.48183662 1.52686872
VERTEX2 834 -6.37616776 4.48829939 2.58162435
VERTEX2 835 -6.38797199 4.48977150 -2.92382323
VERTEX2 836 -6.39959576 4.48014058 -1.98067565
VERTEX2 837 -6.39630747 4.46116472 -0.94422108
VERTEX2 838 -6.38377171 4.45318583 -0.08194947
VERTEX2 839 -6.38224461 4.45243838 -0.30018619
VERTEX2 840 -6.37054167 4.44308427 -0.86278715
VERTEX2 841 -6.36275701 4.42705613 -1.47982224
VERTEX2 842 -6.39125824 4.18133141 -1.71062699
VERTEX2 843 -6.47481784 3.61817059 -1.71315016
VERTEX2 844 -6.55596320 2.99297589 -1.72117270
VERTEX2 845 -6.65564149 2.36850821 -1.73590510
VERTEX2 846 -6.74746657 1.73972982 -1.73419253
VERTEX2 847 -6.86270060 1.12235712 -1.76101464
VERTEX2 848 -6.89482940 0.92998477 -1.28055201
VERTEX2 849 -6.89456068 0.92989742 -0.35885787
VERTEX2 850 -6.53899139 0.92298297 -0.00570201
VERTEX2 851 -5.91166180 0.89084731 -0.09836410
VERTEX2 852 -5.29066027 0.82352366 -0.08409739
VERTEX2 853 -4.69916022 0.77476841 -0.11204189
VERTEX2 854 -4.11510377 0.70086595 -0.11002937
VERTEX2 855 -3.52349963 0.64373601 -0.11179078
VERTEX2 856 -2.87345765 0.55195857 -0.15252502
VERTEX2 857 -2.22463839 0.45649201 -0.16212187
VERTEX2 858 -1.58267350 0.32877875 -0.21670013
VERTEX2 859 -1.06840807 0.22049968 -0.22362310
VERTEX2 860 -1.04325771 0.23055748 0.62686674
VERTEX2 861 -1.02614325 0.34272689 1.54130249
VERTEX2 862 -0.98054630 1.00444583 1.48159044
VERTEX2 863 -0.91592515 1.65043303 1.44901485
VERTEX2 864 -0.82186546 2.26187670 1.44680611
VERTEX2 865 -0.77359209 2.87525983 1.50431803
VERTEX2 866 -0.72206054 3.46304593 1.50309080
VERTEX2 867 -0.71253340 3.62947565 1.68414755
VERTEX2 868 -0.72196911 3.64177002 2.70737950
VERTEX2 869 -0.71365158 3.64175844 -2.59797845
VERTEX2 870 -0.69439364 3.65178633 -1.59907013
VERTEX2 871 -0.68271171 3.64363738 -0.62587716
VERTEX2 872 -0.66728507 3.63217221 0.05905298
VERTEX2 873 -0.64299139 3.62369179 -0.51379027
VERTEX2 874 -0.62460845 3.60659905 -1.07366697
VERTEX2 875 -0.61977584 3.59477172 -1.66046730
VERTEX2 876 -0.74779069 3.04273116 -1.81816571
VERTEX2 877 -0.90786324 2.50509157 -1.90292640
VERTEX2 878 -0.96096513 2.30823182 -1.52014864
VERTEX2 879 -0.86923559 1.66467262 -1.46893043
VERTEX2 880 -0.84040172 1.21181712 -1.58141941
VERTEX2 881 -0.84003641 1.25867174 -1.57591252
VERTEX2 882 -0.90638733 0.61748634 -1.82219833
VERTEX2 883 -1.13129109 0.02437446 -2.01273164
VERTEX2 884 -1.29501092 -0.30605200 -2.07956040
VERTEX2 885 -1.29486879 -0.30942293 -1.49765005
VERTEX2 886 -1.27385353 -0.32971286 -0.47903054
VERTEX2 887 -1.24025643 -0.34332579 0.53287884
VERTEX2 888 -1.23044522 -0.32335054 1.51760535
VERTEX2 889 -1.23049465 -0.32332116 2.41618827
VERTEX2 890 -1.53937194 -0.16946287 2.69029790
VERTEX2 891 -2.06875427 0.10104702 2.62010664
VERTEX2 892 -2.59409057 0.42362429 2.58466161
VERTEX2 893 -3.13885698 0.72301364 2.82112393
VERTEX2 894 -3.74574828 0.84011044 3.04234074
VERTEX2 895 -4.34159652 0.79809484 -2.94240901
VERTEX2 896 -4.35968694 0.79398259 -2.46373184
VERTEX2 897 -4.64981164 0.37430509 -2.19132889
VERTEX2 898 -5.00687599 -0.13105914 -2.17564603
VERTEX2 899 -5.29781489 -0.53766947 -2.24319309
VERTEX2 900 -5.71727537 -1.07729996 -2.24540876
VERTEX2 901 -6.09400864 -1.51770231 -2.30958323
VERTEX2 902 -6.51579800 -2.00488657 -2.28415628
VERTEX2 903 -6.83617182 -2.38066076 -2.32871913
VERTEX2 904 -6.83737674 -2.38232723 -1.62503141
VERTEX2 905 -6.82886087 -2.87486731 -1.56935886
VERTEX2 906 -6.80102523 -3.44561438 -1.50341410
VERTEX2 907 -6.75083964 -4.01944806 -1.51137924
VERTEX2 908 -6.71053519 -4.64034963 -1.48658044
VERTEX2 909 -6.65591969 -5.25162313 -1.50449077
VERTEX2 910 -6.68430881 -5.37821017 -1.87436506
VERTEX2 911 -6.84898988 -5.94489708 -1.81349026
VERTEX2 912 -6.97433784 -6.50352639 -1.80070274
VERTEX2 913 -7.09178098 -7.04507246 -1.79282847
VERTEX2 914 -7.22363298 -7.63267587 -1.81654438
VERTEX2 915 -7.35224969 -8.14124979 -1.85331564
VERTEX2 916 -7.28998813 -8.38681043 -1.30589637
VERTEX2 917 -7.15697769 -9.03792210 -1.56038355
VERTEX2 918 -7.18214488 -9.55659425 -1.63596674
VERTEX2 919 -7.22179720 -10.18095497 -1.67932982
VERTEX2 920 -7.29233567 -10.79537540 -1.69695896
VERTEX2 921 -7.37175881 -11.41092828 -1.75034755
VERTEX2 922 -7.48036010 -12.01469051 -1.77760206
VERTEX2 923 -7.60629718 -12.58093785 -1.84111097
VERTEX2 924 -7.74319803 -13.07334076 -1.82445216
VERTEX2 925 -7.74404434 -13.06890495 -1.31967380
VERTEX2 926 -7.58945480 -13.63269495 -1.30345372
VERTEX2 927 -7.42830727 -14.22513942 -1.32674113
VERTEX2 928 -7.27636438 -14.83295505 -1.33565282
VERTEX2 929 -7.13090729 -15.43787841 -1.33652995
VERTEX2 930 -6.98951845 -16.07146471 -1.41889169
VERTEX2 931 -6.90901820 -16.70071217 -1.49886601
VERTEX2 932 -6.86858281 -17.33094355 -1.55802230
VERTEX2 933 -6.87059673 -17.93903704 -1.62242314
VERTEX2 934 -6.88918447 -18.41533141 -1.63204837
VERTEX2 935 -6.88612923 -18.43011206 -0.95064063
VERTEX2 936 -6.88410029 -18.43084453 -0.00606376
VERTEX2 937 -6.34183349 -18.41086805 0.05664219
VERTEX2 938 -5.74590513 -18.43273218 -0.11696912
VERTEX2 939 -5.12248705 -18.49879939 -0.08940830
VERTEX2 940 -4.51075158 -18.58034231 -0.17531314
VERTEX2 941 -3.90647457 -18.70226566 -0.22900137
VERTEX2 942 -3.38828565 -18.82356768 -0.22453351
VERTEX2 943 -2.77983634 -18.96395932 -0.13623281
VERTEX2 944 -2.16701069 -19.05354264 -0.19290932
VERTEX2 945 -1.54538605 -19.18942867 -0.24805005
VERTEX2 946 -1.36931401 -19.23633095 -0.18373951
VERTEX2 947 -0.95935531 -19.17779156 0.14447802
VERTEX2 948 -0.38503953 -19.09486387 0.12532056
VERTEX2 949 0.21940091 -19.06714420 -0.03035019
VERTEX2 950 0.85075279 -19.11061765 -0.26986815
VERTEX2 951 1.45324053 -19.29101889 -0.34200795
VERTEX2 952 2.05543313 -19.47443178 -0.09120058
VERTEX2 953 2.68625072 -19.51331953 -0.01089253
VERTEX2 954 3.31087662 -19.51310976 -0.01788786
VERTEX2 955 3.90022007 -19.56544834 -0.17868615
VERTEX2 956 4.45074736 -19.65031068 -0.18095447
VERTEX2 957 4.98203635 -19.75278858 -0.26860931
VERTEX2 958 5.44886981 -19.87084222 -0.29529765
VERTEX2 959 5.88122207 -19.99498100 -0.36233747
VERTEX2 960 6.46910556 -20.16421308 -0.28236893
VERTEX2 961 7.04922570 -20.34462154 -0.30933380
VERTEX2 962 7.66548025 -20.47959464 -0.24363172
VERTEX2 963 8.28222492 -20.56670968 -0.05682585
VERTEX2 964 8.90376571 -20.61444575 -0.12062136
VERTEX2 965 9.52074862 -20.69960046 -0.12742044
VERTEX2 966 9.96416203 -20.76233930 -0.18634995
VERTEX2 967 9.99726880 -20.75593089 0.66719709
VERTEX2 968 10.00519038 -20.74857367 1.56408690
VERTEX2 969 10.00737118 -20.77682152 1.62359390
VERTEX2 970 10.00967523 -20.80531272 1.62189626
VERTEX2 971 9.99187143 -20.47243090 1.62206305
VERTEX2 972 9.95780926 -19.88613618 1.62770991
VERTEX2 973 10.04172863 -19.30516801 1.34273791
VERTEX2 974 10.18543117 -18.70503376 1.37455239
VERTEX2 975 10.30129446 -18.10060825 1.37914438
VERTEX2 976 10.41042890 -17.49348602 1.39202405
VERTEX2 977 10.55024829 -16.87695573 1.36577902
VERTEX2 978 10.67526038 -16.26649055 1.41177128
VERTEX2 979 10.79405030 -15.65982736 1.39950270
VERTEX2 980 10.89576671 -15.05611345 1.44641980
VERTEX2 981 10.98830704 -14.46286732 1.45331145
VERTEX2 982 11.04795668 -13.93590465 1.49825389
VERTEX2 983 11.10122143 -13.33763283 1.49486940
VERTEX2 984 11.13208119 -12.74164836 1.55223058
VERTEX2 985 11.14660141 -12.14459416 1.57250269
VERTEX2 986 11.13544601 -11.52374309 1.60882438
VERTEX2 987 11.12656973 -10.90439472 1.57211380
VERTEX2 988 11.13312216 -10.28550162 1.58580225
VERTEX2 989 11.12278646 -9.67536706 1.59351025
VERTEX2 990 11.12018300 -9.06857074 1.58281866
VERTEX2 991 11.10918323 -8.45834921 1.60776278
VERTEX2 992 11.10795876 -7.86959333 1.57480678
VERTEX2 993 11.09860775 -7.24796841 1.60733314
VERTEX2 994 11.08650375 -6.65706850 1.59720231
VERTEX2 995 11.05878761 -6.05568581 1.64442379
VERTEX2 996 11.00316357 -5.43925506 1.67152000
VERTEX2 997 10.96337627 -4.79287688 1.60696553
VERTEX2 998 10.94682135 -4.38890840 1.62870101
VERTEX2 999 10.97577859 -4.41274546 2.34618298
VERTEX2 1000 10.51779147 -4.05002325 2.49466722
VERTEX2 1001 10.08341689 -3.64732141 2.17350473
VERTEX2 1002 9.72203546 -3.17405947 2.26603350
VERTEX2 1003 9.37976326 -2.67607080 2.08645172
VERTEX2 1004 9.04618326 -2.13722433 2.14461823
VERTEX2 1005 8.69744402 -1.64042926 2.20696820
VERTEX2 1006 8.30631096 -1.15923755 2.28424880
VERTEX2 1007 7.89764654 -0.72962073 2.37579707
VERTEX2 1008 7.66389293 -0.51253068 2.53518117
VERTEX2 1009 7.56541203 -0.49667679 3.00762486
VERTEX2 1010 6.99904803 -0.43522125 3.05999924
VERTEX2 1011 6.38071575 -0.38949899 3.01650037
VERTEX2 1012 5.77175537 -0.31971654 3.05830323
VERTEX2 1013 5.13561736 -0.31534840 -3.11003216
VERTEX2 1014 4.52312040 -0.26051457 2.99773390
VERTEX2 1015 3.89854864 -0.21409287 3.08210623
VERTEX2 1016 3.12938758 -0.16766123 3.08875804
VERTEX2 1017 2.53831939 -0.14704459 3.03130085
VERTEX2 1018 1.98143121 -0.07838358 3.03847909
VERTEX2 1019 1.38737546 -0.04653262 3.09791397
VERTEX2 1020 0.77312880 -0.00286435 3.08387682
VERTEX2 1021 0.15296644 0.03406825 3.04319890
VERTEX2 1022 0.09981431 0.03912460 3.03590143
VERTEX2 1023 0.10735907 0.03888560 3.12241160
VERTEX2 1024 -0.51874220 0.05469615 -3.13450041
VERTEX2 1025 -1.14715808 0.03235132 -3.11697097
VERTEX2 1026 -1.30768540 0.02891932 -3.10983446
VERTEX2 1027 -1.28872732 0.03791116 -2.19344571
VERTEX2 1028 -1.30432509 -0.13198484 -1.62928832
VERTEX2 1029 -1.34002685 -0.70158812 -1.65055727
VERTEX2 1030 -1.41117392 -1.32366250 -1.73108520
VERTEX2 1031 -1.53193430 -1.96913525 -1.78533722
VERTEX2 1032 -1.67071220 -2.61440533 -1.78138464
VERTEX2 1033 -1.82257465 -3.25827324 -1.82662973
VERTEX2 1034 -1.86976245 -3.42999055 -2.04053700
VERTEX2 1035 -1.87580123 -3.43494949 -2.66007282
VERTEX2 1036 -1.84400321 -3.45011219 3.05209309
VERTEX2 1037 -2.18136354 -3.31677149 2.81356570
VERTEX2 1038 -2.79046646 -3.18697669 2.90466799
VERTEX2 1039 -3.42584919 -3.00950716 2.87303615
VERTEX2 1040 -3.39971737 -3.01047786 -2.78035907
VERTEX2 1041 -3.37004683 -3.01478804 -1.76391822
VERTEX2 1042 -3.37244127 -3.04957661 -0.77648054
VERTEX2 1043 -3.33797896 -3.08223501 0.19260701
VERTEX2 1044 -3.35253080 -3.09890712 1.18593650
VERTEX2 1045 -3.35644183 -3.10719271 1.07182416
VERTEX2 1046 -3.36797876 -3.12223519 0.68615652
VERTEX2 1047 -3.38737415 -3.13033811 0.13021657
VERTEX2 1048 -3.02509898 -3.20523478 -0.18289075
VERTEX2 1049 -2.38043133 -3.31365773 -0.16579422
VERTEX2 1050 -1.73367821 -3.39434337 -0.09017568
VERTEX2 1051 -1.07825122 -3.47819526 -0.16938821
VERTEX2 1052 -0.45447568 -3.56915262 -0.11649218
VERTEX2 1053 -0.03683933 -3.63029902 -0.16917075
VERTEX2 1054 -0.00901834 -3.63368262 0.59271209
VERTEX2 1055 -0.00269966 -3.60642619 1.64530519
VERTEX2 1056 0.00783374 -3.62263193 2.64815496
VERTEX2 1057 0.03407097 -3.62608049 -2.64420487
VERTEX2 1058 0.03025649 -3.63037623 -1.72204768
VERTEX2 1059 -0.07960107 -4.21289779 -1.80237452
VERTEX2 1060 -0.22887362 -4.84162320 -1.79703108
VERTEX2 1061 -0.34512632 -5.28693194 -1.91916130
VERTEX2 1062 -0.35016125 -5.29434403 -2.48308231
VERTEX2 1063 -0.32897384 -5.28276131 -3.08048917
VERTEX2 1064 -0.60511806 -5.22535698 2.93763237
VERTEX2 1065 -1.18843184 -5.14762701 3.05973564
VERTEX2 1066 -1.74759253 -5.08501862 3.00373388
VERTEX2 1067 -1.73087239 -5.08445945 -2.84657348
VERTEX2 1068 -1.71887405 -5.07636135 -2.17348671
VERTEX2 1069 -1.71951391 -5.07802190 -2.00296952
VERTEX2 1070 -1.71584789 -5.07179354 -2.54107107
VERTEX2 1071 -2.18976684 -5.31825226 -2.66828001
VERTEX2 1072 -2.64154489 -5.54173454 -2.73692299
VERTEX2 1073 -2.61233530 -5.54148878 3.03515843
VERTEX2 1074 -3.14174869 -5.46021574 3.00083116
VERTEX2 1075 -3.71871056 -5.37373370 3.01744459
VERTEX2 1076 -3.73141477 -5.37269586 -2.86177900
VERTEX2 1077 -3.74379974 -5.39517244 -2.05637558
VERTEX2 1078 -3.99206856 -5.99956953 -2.01132707
VERTEX2 1079 -4.23395586 -6.56092010 -1.94933331
VERTEX2 1080 -4.23844988 -6.57232005 -2.43722028
VERTEX2 1081 -4.66753700 -6.85466665 -2.56063701
VERTEX2 1082 -4.83601134 -6.96787188 -2.28026770
VERTEX2 1083 -4.83186707 -7.00501438 -1.25181388
VERTEX2 1084 -4.76846230 -7.03913912 -0.28383228
VERTEX2 1085 -4.77917823 -7.04173446 0.70017818
VERTEX2 1086 -4.41361039 -6.56213686 0.93098373
VERTEX2 1087 -4.02854315 -6.06496577 0.91910989
VERTEX2 1088 -3.66194943 -5.56314224 0.90254518
VERTEX2 1089 -3.60527456 -5.49242893 0.80717374
VERTEX2 1090 -3.59536975 -5.48368346 0.19231896
VERTEX2 1091 -3.05894099 -5.46090651 0.01555600
VERTEX2 1092 -2.44149812 -5.45626193 0.00049627
VERTEX2 1093 -1.87438035 -5.46895829 -0.06448965
VERTEX2 1094 -1.86211632 -5.48104226 -0.46848114
VERTEX2 1095 -1.83241420 -5.50829061 -1.05809301
VERTEX2 1096 -1.83258544 -5.50758655 -1.62920587
VERTEX2 1097 -1.92105279 -5.83007117 -1.84458743
VERTEX2 1098 -2.10796103 -6.42249842 -1.90139140
VERTEX2 1099 -2.32304797 -6.97492628 -1.99749963
VERTEX2 1100 -2.32698837 -6.98437679 -1.63446806
VERTEX2 1101 -2.27373116 -7.24559406 -1.36862714
VERTEX2 1102 -2.27416529 -7.24975192 -1.76237805
VERTEX2 1103 -2.41101273 -7.84788694 -1.79611135
VERTEX2 1104 -2.55910337 -8.47216806 -1.82374190
VERTEX2 1105 -2.72394728 -9.08237224 -1.84155424
VERTEX2 1106 -2.85657665 -9.54814098 -1.86668811
VERTEX2 1107 -2.85671266 -9.54636493 -1.61042153
VERTEX2 1108 -2.83832655 -10.16337877 -1.60247731
VERTEX2 1109 -2.90367153 -10.79672220 -1.70626453
VERTEX2 1110 -2.99001718 -11.39357734 -1.75563545
VERTEX2 1111 -3.16850621 -11.91094089 -1.85672841
VERTEX2 1112 -3.21483067 -12.49031401 -1.51005637
VERTEX2 1113 -3.19228603 -13.13122690 -1.60527076
VERTEX2 1114 -3.21273478 -13.74874980 -1.58810213
VERTEX2 1115 -3.21977140 -14.33318430 -1.60416042
VERTEX2 1116 -3.21872699 -14.98294630 -1.56777443
VERTEX2 1117 -3.21752564 -15.08183493 -1.69538866
VERTEX2 1118 -3.21656392 -15.08010297 -2.30210767
VERTEX2 1119 -3.20428763 -15.07190170 -2.73336692
VERTEX2 1120 -3.76452340 -15.26676034 -2.79679921
VERTEX2 1121 -3.95471771 -15.33052209 -2.91513653
VERTEX2 1122 -3.94662596 -15.33343544 2.81820911
VERTEX2 1123 -4.48964188 -15.14237997 2.83532917
VERTEX2 1124 -5.04173755 -15.00701803 2.93428469
VERTEX2 1125 -5.66188868 -14.87404906 2.94795289
VERTEX2 1126 -5.73855931 -14.86064417 -2.99521743
VERTEX2 1127 -5.73026500 -14.86971907 -1.93734212
VERTEX2 1128 -5.73030213 -14.86992575 -0.94942730
VERTEX2 1129 -5.70890469 -14.88222749 0.06676098
VERTEX2 1130 -5.11740197 -14.82473405 0.08066689
VERTEX2 1131 -4.34203441 -14.96016997 -0.35065912
VERTEX2 1132 -3.73027194 -15.18662860 -0.37005672
VERTEX2 1133 -3.18233711 -15.42311459 -0.40843885
VERTEX2 1134 -2.92668827 -15.53408010 -0.50508670
VERTEX2 1135 -2.91198039 -15.54884655 -1.06039983
VERTEX2 1136 -2.91346837 -15.55183861 -1.62163721
VERTEX2 1137 -2.97178879 -15.85885461 -1.80523772
VERTEX2 1138 -3.13452803 -16.49508141 -1.82119809
VERTEX2 1139 -3.25929077 -16.98981054 -1.89417517
VERTEX2 1140 -3.24948190 -16.96702214 -2.37265430
VERTEX2 1141 -3.22825160 -16.94684075 -2.91950225
VERTEX2 1142 -3.59084394 -16.89929312 2.99976553
VERTEX2 1143 -4.18844463 -16.84575340 3.08940238
VERTEX2 1144 -4.76912222 -16.80484872 3.05899896
VERTEX2 1145 -5.34722419 -16.75276260 3.03374167
VERTEX2 1146 -5.92281179 -16.68908900 3.05368894
VERTEX2 1147 -6.50238859 -16.67257785 3.12662143
VERTEX2 1148 -7.08094720 -16.66366681 3.13665301
VERTEX2 1149 -7.12381931 -16.66449782 -2.64828497
VERTEX2 1150 -7.21725484 -16.76604585 -1.83863973
VERTEX2 1151 -7.21536041 -16.77774977 -0.83468477
VERTEX2 1152 -7.19887458 -16.77822064 0.21858005
VERTEX2 1153 -7.18484302 -16.77206306 1.23150104
VERTEX2 1154 -7.24038162 -16.45489446 1.77757186
VERTEX2 1155 -7.36619532 -15.82952303 1.72822897
VERTEX2 1156 -7.45637303 -15.22318071 1.73825256
VERTEX2 1157 -7.57678562 -14.65119385 1.84937008
VERTEX2 1158 -7.69604944 -14.04818739 1.72082148
VERTEX2 1159 -7.74961755 -13.44471290 1.62680628
VERTEX2 1160 -7.76477395 -12.80518250 1.49007700
VERTEX2 1161 -7.65776197 -12.17540242 1.40039277
VERTEX2 1162 -7.55896817 -11.54521487 1.45850905
VERTEX2 1163 -7.48895997 -10.90365821 1.45305593
VERTEX2 1164 -7.43326481 -10.26387051 1.53849339
VERTEX2 1165 -7.41617729 -9.72424241 1.51570023
VERTEX2 1166 -7.41687291 -9.72066705 2.00472949
VERTEX2 1167 -7.36476148 -9.70858911 2.94148099
VERTEX2 1168 -7.31982551 -9.69126636 -2.43814191
VERTEX2 1169 -7.32432820 -9.74255421 -1.61603242
VERTEX2 1170 -7.34053220 -10.32839613 -1.60927531
VERTEX2 1171 -7.34681233 -10.96310934 -1.57747833
VERTEX2 1172 -7.35717077 -11.56183006 -1.63987433
VERTEX2 1173 -7.39337460 -12.18496909 -1.63071087
VERTEX2 1174 -7.44353875 -12.81314716 -1.69940008
VERTEX2 1175 -7.53577936 -13.42571658 -1.73279103
VERTEX2 1176 -7.63944240 -14.04499870 -1.77647673
VERTEX2 1177 -7.76511696 -14.65198008 -1.77444591
VERTEX2 1178 -7.90238647 -15.26274976 -1.82167766
VERTEX2 1179 -8.04604374 -15.86530984 -1.79235446
VERTEX2 1180 -8.10283594 -16.11795521 -1.79936524
VERTEX2 1181 -8.10188822 -16.11174354 -0.97201549
VERTEX2 1182 -8.04546464 -16.12671398 -0.26039388
VERTEX2 1183 -7.43247495 -16.28237077 -0.23512201
VERTEX2 1184 -6.79982255 -16.40407942 -0.16564712
VERTEX2 1185 -6.17203454 -16.52132337 -0.19797704
VERTEX2 1186 -5.54048535 -16.62314827 -0.13188427
VERTEX2 1187 -4.88649590 -16.71585052 -0.16907977
VERTEX2 1188 -4.26399248 -16.81224509 -0.15095314
VERTEX2 1189 -3.61085009 -16.92538939 -0.12934839
VERTEX2 1190 -3.28892078 -16.96794253 -0.12139980
VERTEX2 1191 -3.26624720 -16.96768398 0.79861494
VERTEX2 1192 -3.25995400 -16.88805753 1.59602618
VERTEX2 1193 -3.24793252 -16.29144380 1.46388917
VERTEX2 1194 -3.20173485 -15.72148177 1.50581405
VERTEX2 1195 -3.16776890 -15.10184096 1.55799757
VERTEX2 1196 -3.15627391 -14.48142822 1.38511995
VERTEX2 1197 -3.04793397 -13.87240321 1.39619019
VERTEX2 1198 -2.97206661 -13.25065672 1.65470158
VERTEX2 1199 -2.98327763 -12.64096753 1.43965697
VERTEX2 1200 -2.92020390 -12.01563226 1.50835796
VERTEX2 1201 -2.88907363 -11.39976013 1.56384511
VERTEX2 1202 -2.89162579 -10.78032501 1.58597587
VERTEX2 1203 -2.91484044 -10.19213766 1.49582204
VERTEX2 1204 -2.79328243 -9.60315725 1.34878440
VERTEX2 1205 -2.67780820 -9.04319883 1.37815080
VERTEX2 1206 -2.58471491 -8.45598586 1.43916354
VERTEX2 1207 -2.43929944 -7.84807033 1.35283941
VERTEX2 1208 -2.31838612 -7.22618049 1.41730503
VERTEX2 1209 -2.22281475 -6.60736910 1.41517351
VERTEX2 1210 -2.14924521 -5.99247805 1.43554724
VERTEX2 1211 -2.01514814 -5.38335346 1.36280979
VERTEX2 1212 -1.89225433 -4.77418267 1.41290315
VERTEX2 1213 -1.81695038 -4.16171149 1.48622679
VERTEX2 1214 -1.72575661 -3.43753591 1.26354876
VERTEX2 1215 -1.55445351 -2.85746894 1.32254623
VERTEX2 1216 -1.49671404 -2.29514281 1.53949538
VERTEX2 1217 -1.45493470 -1.70524276 1.51985373
VERTEX2 1218 -1.43338012 -1.12037906 1.46886679
VERTEX2 1219 -1.37420967 -0.47720846 1.49915400
VERTEX2 1220 -1.35904357 0.10467377 1.58953792
VERTEX2 1221 -1.35738342 0.09876786 1.13615690
VERTEX2 1222 -1.34725835 0.10833047 0.53884990
VERTEX2 1223 -1.33538310 0.11095052 -0.02077710
VERTEX2 1224 -0.76288745 0.00997078 -0.20368510
VERTEX2 1225 -0.14933254 -0.11277327 -0.18992110
VERTEX2 1226 -0.04476415 -0.13298628 -0.20665210
VERTEX2 1227 -0.04476415 -0.13298628 -0.20731410
