VERTEX2 0 0.00007674 -0.00000005 0.00000095
VERTEX2 1 0.00007674 -0.00000005 -0.00064105
VERTEX2 2 0.00007674 -0.00000005 -0.00117905
VERTEX2 3 0.01107860 -0.00097502 -0.00356105
VERTEX2 4 0.64108519 -0.01119957 -0.00744305
VERTEX2 5 0.69609288 -0.01171500 -0.09872505
VERTEX2 6 0.70034599 -0.01543432 -0.89599705
VERTEX2 7 0.69403324 0.00421416 -1.51153405
VERTEX2 8 0.69934007 0.02669493 -2.12506805
VERTEX2 9 0.71619133 0.04112397 -2.76313806
VERTEX2 10 0.72905785 0.04322137 2.90551625
VERTEX2 11 0.73328044 0.04053833 2.23123725
VERTEX2 12 0.73326315 0.04154679 1.58176325
VERTEX2 13 0.73882929 0.05907188 0.92226524
VERTEX2 14 0.75973480 0.07375212 0.31402624
VERTEX2 15 0.76760267 0.07428773 -0.21063625
VERTEX2 16 1.05939231 0.01464107 -0.22921530
VERTEX2 17 1.65835603 -0.13167583 -0.26033904
VERTEX2 18 2.27949771 -0.29395410 -0.27042736
VERTEX2 19 2.90447740 -0.49041420 -0.31891990
VERTEX2 20 3.49443642 -0.67875843 -0.31318208
VERTEX2 21 4.09971847 -0.82975183 -0.20185348
VERTEX2 22 4.70585250 -0.96996046 -0.18466480
VERTEX2 23 5.34216951 -1.01383375 -0.07750460
VERTEX2 24 5.97909154 -1.08599661 -0.13425781
VERTEX2 25 6.61936440 -1.15441906 -0.13121719
VERTEX2 26 7.22503534 -1.25398481 -0.17188285
VERTEX2 27 7.83774519 -1.34449959 -0.15620333
VERTEX2 28 8.41600067 -1.44233394 -0.16082022
VERTEX2 29 8.80159540 -1.50075399 -0.12993514
VERTEX2 30 8.81264313 -1.50369328 -0.66197963
VERTEX2 31 8.91422127 -1.63996416 -0.93028790
VERTEX2 32 9.28282525 -2.15526870 -0.94879950
VERTEX2 33 9.66939219 -2.66706388 -0.89794568
VERTEX2 34 10.08558662 -3.16256978 -0.87688504
VERTEX2 35 10.51206070 -3.65032815 -0.84263080
VERTEX2 36 10.94519075 -4.13929620 -0.85122898
VERTEX2 37 11.23182275 -4.45888182 -0.84358626
VERTEX2 38 11.23403901 -4.46185544 -1.16534019
VERTEX2 39 11.23359766 -4.45956644 -1.33635046
VERTEX2 40 11.37988995 -5.03704175 -1.31913492
VERTEX2 41 11.53172653 -5.63961793 -1.35117484
VERTEX2 42 11.65679871 -6.21040953 -1.37385849
VERTEX2 43 11.76566869 -6.81279216 -1.41403935
VERTEX2 44 11.85745114 -7.41438304 -1.45100660
VERTEX2 45 11.91340539 -8.03379517 -1.50658351
VERTEX2 46 11.94530171 -8.65533588 -1.52602386
VERTEX2 47 11.96628821 -9.27674660 -1.56775404
VERTEX2 48 11.96364295 -9.90263942 -1.57434951
VERTEX2 49 11.95720757 -10.52448855 -1.62523070
VERTEX2 50 11.90456924 -11.11408018 -1.66977008
VERTEX2 51 11.85021777 -11.71015284 -1.69889951
VERTEX2 52 11.75386669 -12.29297099 -1.77568889
VERTEX2 53 11.65462185 -12.85026848 -1.76339638
VERTEX2 54 11.54226880 -13.36182001 -1.82554211
VERTEX2 55 11.54896834 -13.32954605 -1.82032068
VERTEX2 56 11.54842724 -13.33167098 -1.80980266
VERTEX2 57 11.40506986 -13.94937624 -1.82124933
VERTEX2 58 11.25909622 -14.55533374 -1.77507221
VERTEX2 59 11.13045162 -15.16076236 -1.79869189
VERTEX2 60 11.00117669 -15.76252896 -1.77734449
VERTEX2 61 10.86608730 -16.36478133 -1.82811555
VERTEX2 62 10.71688841 -16.92105409 -1.78833647
VERTEX2 63 10.56584830 -17.48211976 -1.82389265
VERTEX2 64 10.43127714 -18.03756496 -1.76056591
VERTEX2 65 10.29712282 -18.59078601 -1.81203885
VERTEX2 66 10.14391055 -19.17392053 -1.82011526
VERTEX2 67 9.97580372 -19.78070176 -1.81874602
VERTEX2 68 9.86574850 -20.22877162 -1.83457553
VERTEX2 69 9.86877288 -20.21892214 -1.98958247
VERTEX2 70 9.87549426 -20.20607035 -2.66400831
VERTEX2 71 9.89877415 -20.20473929 2.97645773
VERTEX2 72 9.91150205 -20.20632127 2.96695269
VERTEX2 73 9.91898631 -20.20817461 2.90198386
VERTEX2 74 9.91927902 -20.20835941 2.28012718
VERTEX2 75 9.92608204 -20.21102547 1.92773911
VERTEX2 76 9.91458457 -20.19825557 2.62156730
VERTEX2 77 9.91040698 -20.19649898 2.85449152
VERTEX2 78 9.62890015 -20.20689331 -3.09159301
VERTEX2 79 9.01064470 -20.24495524 -3.09688387
VERTEX2 80 8.37875543 -20.24274043 3.11174488
VERTEX2 81 7.75464916 -20.21543917 3.08570951
VERTEX2 82 7.15484592 -20.17381716 3.03153797
VERTEX2 83 6.56601110 -20.12156490 3.00797005
VERTEX2 84 6.00319003 -20.03469802 2.93009632
VERTEX2 85 5.46005227 -19.92968269 2.93733314
VERTEX2 86 4.85034366 -19.80771204 2.84750699
VERTEX2 87 4.46311626 -19.70205416 2.79466957
VERTEX2 88 4.10544554 -19.56854613 2.76478940
VERTEX2 89 4.11532600 -19.56904769 -3.12279851
VERTEX2 90 3.51030007 -19.57086512 3.12920611
VERTEX2 91 2.89449148 -19.56498979 -3.10497790
VERTEX2 92 2.29476593 -19.55925940 3.06242393
VERTEX2 93 1.67388706 -19.45490704 2.96147182
VERTEX2 94 1.05342859 -19.31465027 2.91861384
VERTEX2 95 0.43053903 -19.22467829 3.06115884
VERTEX2 96 -0.18080606 -19.17146245 3.08518153
VERTEX2 97 -0.77178634 -19.10642464 3.01452703
VERTEX2 98 -1.36125014 -19.00328281 2.95650865
VERTEX2 99 -2.06720517 -18.87632421 3.00327442
VERTEX2 100 -2.63275248 -18.76619576 2.95150309
VERTEX2 101 -3.24493357 -18.70738344 3.05473683
VERTEX2 102 -3.85854372 -18.62506922 2.94886799
VERTEX2 103 -4.46720334 -18.50825351 3.04484406
VERTEX2 104 -5.08005121 -18.42998289 3.01118237
VERTEX2 105 -5.69315750 -18.36356565 3.05774107
VERTEX2 106 -6.29563661 -18.29123281 3.00287006
VERTEX2 107 -6.91374707 -18.19311210 2.99904585
VERTEX2 108 -7.37192888 -18.14249282 3.06041615
VERTEX2 109 -7.41962988 -18.13021706 2.61150878
VERTEX2 110 -7.43466659 -18.11451793 2.01966029
VERTEX2 111 -7.43446152 -18.03366743 1.51425330
VERTEX2 112 -7.40765664 -17.39948615 1.56889000
VERTEX2 113 -7.42321268 -16.77711250 1.61615050
VERTEX2 114 -7.45370442 -16.16327742 1.65317906
VERTEX2 115 -7.52481401 -15.52293168 1.71360776
VERTEX2 116 -7.64127615 -14.77200918 1.75785918
VERTEX2 117 -7.77532841 -14.16112596 1.85360516
VERTEX2 118 -7.77995580 -14.14028505 1.51933054
VERTEX2 119 -7.72361044 -13.62328705 1.46627653
VERTEX2 120 -7.67051891 -12.96805141 1.55672449
VERTEX2 121 -7.68098104 -12.34952496 1.62454921
VERTEX2 122 -7.71523374 -11.76778739 1.68083239
VERTEX2 123 -7.74020574 -11.58842905 1.66811448
VERTEX2 124 -7.65466923 -11.35077017 1.24530827
VERTEX2 125 -7.43924569 -10.75920774 1.23443535
VERTEX2 126 -7.30795642 -10.14424001 1.44108483
VERTEX2 127 -7.21222825 -9.50992572 1.43974160
VERTEX2 128 -7.13894185 -8.87106408 1.47639204
VERTEX2 129 -7.05494528 -8.23624745 1.44393280
VERTEX2 130 -6.98994819 -7.60302117 1.49676730
VERTEX2 131 -6.94682659 -6.97509751 1.58536483
VERTEX2 132 -6.93180329 -6.35607642 1.53581897
VERTEX2 133 -6.88744832 -5.79251677 1.49888129
VERTEX2 134 -6.83586051 -5.19527229 1.48080877
VERTEX2 135 -6.75622183 -4.61873248 1.45472419
VERTEX2 136 -6.68477814 -3.98501635 1.47446411
VERTEX2 137 -6.59101337 -3.35357541 1.43273246
VERTEX2 138 -6.51801955 -2.72279564 1.51301054
VERTEX2 139 -6.50434949 -2.09128226 1.57846394
VERTEX2 140 -6.53590829 -1.43503894 1.60912081
VERTEX2 141 -6.54509760 -0.79414119 1.56080591
VERTEX2 142 -6.54871786 -0.14355313 1.55706937
VERTEX2 143 -6.47088560 0.49598436 1.44660854
VERTEX2 144 -6.43300849 0.86828250 1.46421261
VERTEX2 145 -6.42761920 0.88488723 0.96594897
VERTEX2 146 -6.42601694 0.89328080 0.37287369
VERTEX2 147 -6.37218888 0.88985337 -0.11352051
VERTEX2 148 -5.94217536 0.83296500 -0.14911133
VERTEX2 149 -5.30303726 0.74384714 -0.12395223
VERTEX2 150 -4.67052574 0.68392777 -0.10974336
VERTEX2 151 -4.03250603 0.64115018 -0.02402450
VERTEX2 152 -3.40894527 0.61065025 -0.08486490
VERTEX2 153 -2.78568214 0.58279155 0.00859398
VERTEX2 154 -2.16604464 0.56667566 -0.06092685
VERTEX2 155 -1.54255747 0.53815773 -0.02748396
VERTEX2 156 -0.91672262 0.52874603 0.00325954
VERTEX2 157 -0.35453350 0.51548592 -0.06112323
VERTEX2 158 -0.16011012 0.50312917 -0.03362863
VERTEX2 159 -0.15472266 0.50144576 0.95369849
VERTEX2 160 -0.14936854 0.51032681 1.98937635
VERTEX2 161 -0.17147536 0.45141309 2.71043495
VERTEX2 162 -0.14585968 0.45725948 -2.53695120
VERTEX2 163 -0.14684044 0.45227093 -1.53987107
VERTEX2 164 -0.22457119 0.54857993 -0.47781101
VERTEX2 165 -0.05216730 0.53167240 -0.07001817
VERTEX2 166 0.64401393 0.48943775 -0.06831133
VERTEX2 167 1.25953866 0.43997894 -0.09772452
VERTEX2 168 1.84650903 0.39147695 -0.08577784
VERTEX2 169 2.44057240 0.32068425 -0.12277263
VERTEX2 170 3.02589947 0.25306744 -0.14348613
VERTEX2 171 3.58635020 0.15534087 -0.18186958
VERTEX2 172 4.21051617 0.04847800 -0.16789768
VERTEX2 173 4.83872501 -0.07167971 -0.19082675
VERTEX2 174 5.46314693 -0.18548889 -0.15080248
VERTEX2 175 6.07856942 -0.27526960 -0.17559894
VERTEX2 176 6.67718944 -0.39514954 -0.16607813
VERTEX2 177 7.29969418 -0.49760272 -0.19381443
VERTEX2 178 7.92033522 -0.64318852 -0.23290485
VERTEX2 179 8.32318977 -0.72679693 -0.17961316
VERTEX2 180 8.37283494 -0.74015461 -0.62173011
VERTEX2 181 8.81342449 -1.05859537 -0.67356193
VERTEX2 182 9.21994476 -1.41900412 -0.84764845
VERTEX2 183 9.56711365 -1.84044319 -0.90505322
VERTEX2 184 9.91800788 -2.37023185 -1.05054211
VERTEX2 185 10.21221748 -2.92333357 -1.14226555
VERTEX2 186 10.43987141 -3.50854736 -1.20791779
VERTEX2 187 10.64287660 -4.07161737 -1.22992297
VERTEX2 188 10.85283576 -4.65413149 -1.23478219
VERTEX2 189 11.05540895 -5.24058525 -1.26097093
VERTEX2 190 11.23979811 -5.84443543 -1.28981499
VERTEX2 191 11.41402463 -6.44774651 -1.31398676
VERTEX2 192 11.56924348 -7.04459634 -1.34242416
VERTEX2 193 11.69351318 -7.59299922 -1.39821422
VERTEX2 194 11.79408629 -8.16249309 -1.42503493
VERTEX2 195 11.87508010 -8.72736814 -1.45369566
VERTEX2 196 11.94251264 -9.35238581 -1.49452669
VERTEX2 197 11.98118802 -9.97343343 -1.52206645
VERTEX2 198 12.00709084 -10.59190884 -1.58030766
VERTEX2 199 11.97968253 -11.19994849 -1.64179192
VERTEX2 200 11.93321097 -11.80283523 -1.66373156
VERTEX2 201 11.86300697 -12.40230201 -1.72046005
VERTEX2 202 11.79948758 -12.90747619 -1.70032820
VERTEX2 203 11.69811669 -13.64153592 -1.75310704
VERTEX2 204 11.57681958 -14.21772754 -1.85509108
VERTEX2 205 11.40792075 -14.77966533 -1.86451091
VERTEX2 206 11.25416057 -15.32658841 -1.86258403
VERTEX2 207 11.09470382 -15.89324014 -1.84662639
VERTEX2 208 10.92163004 -16.49255834 -1.85605246
VERTEX2 209 10.75977709 -17.09334111 -1.81784357
VERTEX2 210 10.59690618 -17.68643836 -1.82675416
VERTEX2 211 10.44801123 -18.28329956 -1.82454538
VERTEX2 212 10.27148227 -18.86974115 -1.87745921
VERTEX2 213 10.07631851 -19.45985983 -1.89829679
VERTEX2 214 9.87628189 -20.03636958 -1.90216491
VERTEX2 215 9.76107112 -20.35900196 -1.93802602
VERTEX2 216 9.77281614 -20.33889615 -2.43684300
VERTEX2 217 9.79848660 -20.33615238 -2.97917091
VERTEX2 218 9.80789506 -20.33976484 -3.03525981
VERTEX2 219 9.24174048 -20.29551720 3.07933809
VERTEX2 220 8.63289116 -20.25114358 3.03940509
VERTEX2 221 7.99424065 -20.18464117 3.08983712
VERTEX2 222 7.36906478 -20.14191452 3.06423662
VERTEX2 223 6.74327767 -20.11246148 -3.12267923
VERTEX2 224 6.12912554 -20.11309147 3.13465782
VERTEX2 225 5.51136389 -20.10734909 -3.09890175
VERTEX2 226 4.89451111 -20.10082489 3.13510522
VERTEX2 227 4.24899788 -20.16979831 -2.99143667
VERTEX2 228 3.72509531 -20.15384760 2.93016104
VERTEX2 229 3.27991509 -20.11543444 3.05058569
VERTEX2 230 2.98913546 -20.09928469 3.02176971
VERTEX2 231 3.19347515 -20.11729693 3.09182130
VERTEX2 232 2.88364179 -19.97776741 2.66584893
VERTEX2 233 2.31969400 -19.71609103 2.76810975
VERTEX2 234 1.74377589 -19.48841031 2.72391333
VERTEX2 235 1.49428984 -19.38027945 2.71889307
VERTEX2 236 1.15959619 -19.38095081 3.12423341
VERTEX2 237 0.53132844 -19.39481632 -3.08860501
VERTEX2 238 -0.08924772 -19.44221910 -3.12138305
VERTEX2 239 -0.70598299 -19.43815083 3.09412895
VERTEX2 240 -1.27585792 -19.31903375 2.87597067
VERTEX2 241 -1.81569758 -19.18647229 2.96134191
VERTEX2 242 -2.39080689 -19.11964233 3.00080060
VERTEX2 243 -2.99248058 -19.03450900 3.00007335
VERTEX2 244 -3.61752587 -18.98696477 3.07138049
VERTEX2 245 -4.23322007 -18.93632995 3.01716777
VERTEX2 246 -4.83640546 -18.84829343 2.94478788
VERTEX2 247 -5.44097628 -18.76407621 3.05072901
VERTEX2 248 -5.99592290 -18.74104239 3.08212701
VERTEX2 249 -5.94782539 -18.74840803 -3.00813493
VERTEX2 250 -5.94509065 -18.74830533 2.68814068
VERTEX2 251 -6.26698744 -18.40701483 2.26481402
VERTEX2 252 -6.62219555 -17.98580499 2.27335795
VERTEX2 253 -6.99351323 -17.53888166 2.26239780
VERTEX2 254 -7.35831472 -17.07972352 2.22123458
VERTEX2 255 -7.43130005 -16.98664980 2.30511030
VERTEX2 256 -7.43411145 -16.90952121 1.82914309
VERTEX2 257 -7.48508749 -16.44923607 1.69382527
VERTEX2 258 -7.56756967 -15.85961814 1.77426782
VERTEX2 259 -7.71049558 -15.25338022 1.81522045
VERTEX2 260 -7.84392529 -14.69148814 1.80716314
VERTEX2 261 -7.84163970 -14.65458323 1.49629020
VERTEX2 262 -7.77830573 -14.00375206 1.50328550
VERTEX2 263 -7.73610352 -13.38615079 1.51706394
VERTEX2 264 -7.72130840 -12.78157604 1.61447169
VERTEX2 265 -7.75330342 -12.17734426 1.63491999
VERTEX2 266 -7.70586773 -11.59953534 1.50608258
VERTEX2 267 -7.65545949 -10.84878510 1.47687723
VERTEX2 268 -7.52398816 -10.24524870 1.36692188
VERTEX2 269 -7.40496529 -9.63092308 1.39689705
VERTEX2 270 -7.33368404 -9.00553742 1.51098283
VERTEX2 271 -7.23935961 -8.38207947 1.40050885
VERTEX2 272 -7.15464583 -7.75392799 1.46567186
VERTEX2 273 -7.16541881 -7.12227996 1.67797352
VERTEX2 274 -7.23446613 -6.50370079 1.70207449
VERTEX2 275 -7.22339806 -5.89527716 1.53075998
VERTEX2 276 -7.21758358 -5.28771705 1.64538671
VERTEX2 277 -7.26552102 -4.72204028 1.61990847
VERTEX2 278 -7.22342053 -4.08228599 1.53128834
VERTEX2 279 -7.18468593 -3.44352006 1.47612455
VERTEX2 280 -7.11766518 -2.81040110 1.47834288
VERTEX2 281 -7.02832249 -2.17566131 1.37809436
VERTEX2 282 -6.90983974 -1.54765204 1.41813373
VERTEX2 283 -6.82435535 -0.91285225 1.41047300
VERTEX2 284 -6.71392881 -0.28876786 1.43781426
VERTEX2 285 -6.64799000 0.36222740 1.45901773
VERTEX2 286 -6.58257499 0.98546133 1.51274969
VERTEX2 287 -6.57976682 1.03827881 1.40850736
VERTEX2 288 -6.57578276 1.04544237 0.80039331
VERTEX2 289 -6.57372214 1.04642080 0.20744326
VERTEX2 290 -6.13523823 1.03880323 -0.01737251
VERTEX2 291 -5.51434024 1.03262174 -0.00344027
VERTEX2 292 -4.89896894 1.01417980 -0.05802063
VERTEX2 293 -4.27495301 0.97026035 -0.08102208
VERTEX2 294 -3.65461470 0.91952853 -0.08046740
VERTEX2 295 -3.03371454 0.84062271 -0.19312739
VERTEX2 296 -2.41807544 0.69734702 -0.23868863
VERTEX2 297 -1.80465959 0.54706343 -0.25054660
VERTEX2 298 -1.19444106 0.39361099 -0.25130035
VERTEX2 299 -0.62075582 0.23771054 -0.19023077
VERTEX2 300 -0.03495655 0.15247560 -0.14816183
VERTEX2 301 0.52634035 0.05329550 -0.20745482
VERTEX2 302 0.82711862 -0.01131276 -0.22847554
VERTEX2 303 0.80839844 -0.00757031 -0.22445216
VERTEX2 304 1.30786439 -0.12285624 -0.21502458
VERTEX2 305 1.92217829 -0.16730731 -0.03134804
VERTEX2 306 2.55070275 -0.17811512 -0.04955381
VERTEX2 307 3.18900518 -0.22619778 -0.08640292
VERTEX2 308 3.81576254 -0.28940190 -0.14214727
VERTEX2 309 4.44982800 -0.35009703 -0.04939646
VERTEX2 310 5.07657461 -0.38046448 -0.08544234
VERTEX2 311 5.35669001 -0.40654887 0.08940180
VERTEX2 312 5.35286227 -0.40856453 1.07670761
VERTEX2 313 5.35746623 -0.18990079 1.57216789
VERTEX2 314 5.33792150 0.43860880 1.61184806
VERTEX2 315 5.30942391 1.06652202 1.60742226
VERTEX2 316 5.26927670 1.71180477 1.65836114
VERTEX2 317 5.20804053 2.35404155 1.66791033
VERTEX2 318 5.10939671 2.99221062 1.76195750
VERTEX2 319 5.02972359 3.34100261 1.83282205
VERTEX2 320 5.03166996 3.34700209 2.80103852
VERTEX2 321 5.02390259 3.34367107 -2.44273937
VERTEX2 322 5.02288680 3.34158648 -1.44681027
VERTEX2 323 5.03395636 3.33089820 -0.45467002
VERTEX2 324 5.03905668 3.32922862 0.20498545
VERTEX2 325 5.04090494 3.32937279 -0.32287849
VERTEX2 326 5.05685647 3.31736808 -0.91829822
VERTEX2 327 5.06034366 3.30089536 -1.54188691
VERTEX2 328 5.04413770 2.66257334 -1.58851249
VERTEX2 329 5.02231470 2.03593184 -1.64491987
VERTEX2 330 4.96813364 1.42068638 -1.66539099
VERTEX2 331 4.91294689 0.80415003 -1.68113499
VERTEX2 332 4.83330146 0.19069615 -1.70111797
VERTEX2 333 4.81151995 0.03625892 -1.63764459
VERTEX2 334 4.82138831 0.03817200 -0.84414873
VERTEX2 335 4.83850257 0.03310728 0.14686367
VERTEX2 336 4.85137114 0.03762515 1.08802970
VERTEX2 337 4.85629976 0.06833844 2.06702791
VERTEX2 338 4.85333748 0.07039338 3.05653072
VERTEX2 339 4.86496822 0.07761707 -2.17670264
VERTEX2 340 4.86513483 0.07629679 -1.15688766
VERTEX2 341 4.97841926 0.00794659 -0.52315140
VERTEX2 342 5.55148826 -0.29670964 -0.42105475
VERTEX2 343 6.13010518 -0.49806600 -0.28942820
VERTEX2 344 6.71946584 -0.68122815 -0.29882039
VERTEX2 345 6.95806527 -0.75141476 -0.32564194
VERTEX2 346 6.94459558 -0.74700948 -0.97122146
VERTEX2 347 6.94706920 -0.83566671 -1.52838814
VERTEX2 348 6.96522689 -1.42651576 -1.54446906
VERTEX2 349 6.96327004 -2.04628524 -1.58406807
VERTEX2 350 6.95048964 -2.83465433 -1.60308607
VERTEX2 351 6.93636610 -3.10869019 -1.63143540
VERTEX2 352 6.93450672 -3.11757931 -1.91825128
VERTEX2 353 6.92272329 -3.13205030 -2.58118943
VERTEX2 354 6.90876628 -3.13606351 3.10090936
VERTEX2 355 6.88830904 -3.13535572 2.38258319
VERTEX2 356 6.88243981 -3.12500674 1.80954881
VERTEX2 357 6.88505411 -3.10929987 1.15891510
VERTEX2 358 6.88600848 -3.10796922 0.54579241
VERTEX2 359 6.87413237 -3.11307182 -0.06590270
VERTEX2 360 6.85930233 -3.11015144 -0.24096715
VERTEX2 361 6.85097557 -3.11233770 0.68171673
VERTEX2 362 6.93578860 -2.88118220 1.21751031
VERTEX2 363 7.03822384 -2.61276711 1.21189160
VERTEX2 364 6.96850783 -2.27634751 1.82863647
VERTEX2 365 6.91264449 -1.98693045 1.33332260
VERTEX2 366 7.02120652 -1.86378431 0.78113705
VERTEX2 367 7.46659677 -1.42817536 0.78397212
VERTEX2 368 7.92265030 -0.99137432 0.73605264
VERTEX2 369 7.94253991 -0.96731160 0.48425405
VERTEX2 370 7.96677263 -0.96341931 -0.10246386
VERTEX2 371 7.97271075 -0.96649350 -0.64789024
VERTEX2 372 8.40165821 -1.31470690 -0.67554497
VERTEX2 373 8.87432691 -1.67915204 -0.67354349
VERTEX2 374 9.35346248 -2.08188351 -0.73466201
VERTEX2 375 9.71297221 -2.40114775 -0.76553385
VERTEX2 376 9.72436921 -2.40810208 -0.07284360
VERTEX2 377 9.77421345 -2.37257267 0.62035618
VERTEX2 378 10.30868152 -1.97465909 0.67327058
VERTEX2 379 10.78743222 -1.54435091 0.75674446
VERTEX2 380 11.22650666 -1.07781190 0.87468143
VERTEX2 381 11.37227395 -0.89794075 1.02310994
VERTEX2 382 11.37341333 -0.89585790 2.06813561
VERTEX2 383 11.36997456 -0.89375137 3.05508721
VERTEX2 384 11.36692063 -0.89665135 -2.26427976
VERTEX2 385 11.36162231 -0.90556746 -1.23409298
VERTEX2 386 11.46525721 -1.04009762 -1.00911879
VERTEX2 387 11.92019976 -1.46100368 -0.67730888
VERTEX2 388 12.38183289 -1.81688556 -0.66997860
VERTEX2 389 12.81880423 -2.19214193 -0.75417463
VERTEX2 390 12.83054602 -2.20250777 -0.28295680
VERTEX2 391 12.64041921 -2.19481436 0.09358140
VERTEX2 392 12.58228404 -2.19578609 1.12605588
VERTEX2 393 12.58249887 -2.14107624 2.36679040
VERTEX2 394 12.51747081 -2.11518792 -2.93245720
VERTEX2 395 12.70223223 -2.01448627 -2.59888573
VERTEX2 396 12.67466917 -2.02963698 -2.60091544
VERTEX2 397 12.63109840 -2.04020994 -2.61391790
VERTEX2 398 12.60992935 -2.05841514 -2.41952812
VERTEX2 399 12.53298044 -2.17121565 -2.12428397
VERTEX2 400 12.18742132 -2.73187016 -2.07664907
VERTEX2 401 11.85226411 -3.27897851 -2.17080568
VERTEX2 402 11.38263649 -3.74344479 -2.44004712
VERTEX2 403 10.87485103 -4.16208115 -2.47541064
VERTEX2 404 10.37501891 -4.52997739 -2.55575704
VERTEX2 405 10.35649676 -4.54707165 -2.02454716
VERTEX2 406 10.35127335 -4.50657907 -1.05079981
VERTEX2 407 10.53243480 -4.75340115 -0.92427311
VERTEX2 408 10.86409212 -5.20512578 -0.96351347
VERTEX2 409 10.99710890 -5.40909748 -1.06450428
VERTEX2 410 10.98765435 -5.37339502 -1.69543127
VERTEX2 411 11.16651989 -4.90666270 -2.57333886
VERTEX2 412 10.61245179 -5.12877962 -2.77808226
VERTEX2 413 9.97274507 -5.34627246 -2.85898268
VERTEX2 414 9.32659166 -5.55232712 -2.75652152
VERTEX2 415 8.71867663 -5.79062437 -2.74900832
VERTEX2 416 8.42936204 -5.91942289 -2.80366121
VERTEX2 417 8.13444015 -5.90359130 3.05607981
VERTEX2 418 7.69316936 -5.86068664 3.01144697
VERTEX2 419 7.69308110 -5.86071385 -2.83973271
VERTEX2 420 7.74352359 -5.83823755 -2.62283630
VERTEX2 421 7.74427528 -5.83707355 -1.65320137
VERTEX2 422 7.73891281 -5.84460726 -0.41141326
VERTEX2 423 7.73914120 -5.84463215 -0.06488949
VERTEX2 424 7.73390254 -5.84464657 -0.06384421
VERTEX2 425 7.72281369 -5.85092318 -0.05142496
VERTEX2 426 7.71740553 -5.85099750 -0.05986263
VERTEX2 427 7.74453627 -5.85237895 -0.05606435
VERTEX2 428 8.40125621 -5.87274799 -0.06091090
VERTEX2 429 9.04050408 -5.92083134 -0.10102780
VERTEX2 430 9.37707434 -5.96037132 -0.14646001
VERTEX2 431 9.35293694 -5.95752330 -0.09373510
VERTEX2 432 9.36413735 -5.96144475 -0.72381812
VERTEX2 433 9.37014910 -5.96964910 -1.39939262
VERTEX2 434 9.33498145 -6.50925762 -1.62665472
VERTEX2 435 9.30475991 -7.15271323 -1.65430364
VERTEX2 436 9.22892024 -7.79344571 -1.66244983
VERTEX2 437 9.17895589 -8.44400846 -1.65386519
VERTEX2 438 9.12780817 -8.92170184 -1.68355343
VERTEX2 439 9.12360357 -8.93779244 -2.11775559
VERTEX2 440 9.12687756 -8.93523721 -2.75903572
VERTEX2 441 9.14175907 -8.93370375 2.90393304
VERTEX2 442 9.15249236 -8.93946553 2.27598216
VERTEX2 443 9.15251896 -8.93993136 1.71041040
VERTEX2 444 9.15587725 -8.92181345 1.12023669
VERTEX2 445 9.16449718 -8.91346818 0.46354911
VERTEX2 446 9.16728958 -8.91175243 0.66573560
VERTEX2 447 9.18049416 -8.88592151 1.29860015
VERTEX2 448 9.32959959 -8.26132081 1.31619453
VERTEX2 449 9.46156305 -7.62238738 1.41763613
VERTEX2 450 9.55461202 -6.98319282 1.43139844
VERTEX2 451 9.60666120 -6.51053859 1.47400316
VERTEX2 452 9.60694156 -6.50738883 1.09590666
VERTEX2 453 9.60562216 -6.50977965 0.47364957
VERTEX2 454 9.86110257 -6.48983059 0.05173331
VERTEX2 455 10.45894928 -6.46427268 0.03117699
VERTEX2 456 11.09036126 -6.45861442 -0.03340275
VERTEX2 457 11.44359699 -6.48042114 -0.12111048
VERTEX2 458 11.43846112 -6.47788105 -0.76697228
VERTEX2 459 11.42982144 -6.44316526 -1.37514863
VERTEX2 460 11.40989478 -6.84165763 -1.63212925
VERTEX2 461 11.34233672 -7.45828902 -1.72004665
VERTEX2 462 11.25583001 -7.96792984 -1.76003020
VERTEX2 463 11.26693364 -7.94607505 -0.91968993
VERTEX2 464 11.52196998 -8.01803662 -0.24151698
VERTEX2 465 12.10549736 -8.14975171 -0.23374213
VERTEX2 466 12.65882956 -8.29977853 -0.28934821
VERTEX2 467 13.22961514 -8.48035181 -0.33277498
VERTEX2 468 13.84735023 -8.69841676 -0.36801044
VERTEX2 469 14.44186563 -8.96385895 -0.45061635
VERTEX2 470 14.89881305 -9.17955267 -0.43142494
VERTEX2 471 14.90956218 -9.18534350 -0.63078383
VERTEX2 472 14.92804899 -9.21099436 -1.26244239
VERTEX2 473 14.92979065 -9.21943185 -1.90201782
VERTEX2 474 14.92879797 -9.22067741 -2.53235082
VERTEX2 475 14.93341605 -9.22003840 -3.10584338
VERTEX2 476 14.93825673 -9.22068737 2.52644884
VERTEX2 477 14.94353881 -9.23094303 1.96720150
VERTEX2 478 14.94439766 -9.24173465 1.34044789
VERTEX2 479 14.94350172 -9.24380367 0.88638597
VERTEX2 480 14.94391684 -9.24286072 1.44868475
VERTEX2 481 14.94053080 -9.22843762 2.45115906
VERTEX2 482 14.93999398 -9.22822218 2.78699522
VERTEX2 483 14.94176653 -9.22867969 2.78143262
VERTEX2 484 14.51044449 -9.06968610 2.81677141
VERTEX2 485 13.91066376 -8.88192350 2.81439564
VERTEX2 486 13.30812382 -8.67007527 2.82386643
VERTEX2 487 12.69706825 -8.49151376 2.85208903
VERTEX2 488 12.08372508 -8.31103911 2.88815889
VERTEX2 489 11.61264792 -8.20413657 2.91854091
VERTEX2 490 11.61717095 -8.20368946 -2.87961828
VERTEX2 491 11.62528338 -8.19295119 -1.94363426
VERTEX2 492 11.60908059 -8.42109912 -1.64066092
VERTEX2 493 11.54844225 -9.02348515 -1.69575530
VERTEX2 494 11.46244325 -9.63323798 -1.75671633
VERTEX2 495 11.39418145 -10.25626136 -1.64957135
VERTEX2 496 11.35126932 -10.88037276 -1.53185845
VERTEX2 497 11.34516346 -11.49771280 -1.61790930
VERTEX2 498 11.27740355 -12.11908674 -1.71970884
VERTEX2 499 11.14799455 -12.74516317 -1.73675494
VERTEX2 500 11.20681952 -13.31162909 -1.40788139
VERTEX2 501 11.28239131 -13.89101730 -1.47994455
VERTEX2 502 11.30753050 -14.58667769 -1.56439237
VERTEX2 503 11.30381030 -15.03384615 -1.58132898
VERTEX2 504 11.30854267 -15.02041190 -0.72439046
VERTEX2 505 11.54534050 -15.04697591 -0.10244349
VERTEX2 506 12.13640890 -15.12741661 -0.25494188
VERTEX2 507 12.71697024 -15.29588181 -0.33344065
VERTEX2 508 13.28563276 -15.50599573 -0.34665835
VERTEX2 509 13.90253113 -15.73686707 -0.40264429
VERTEX2 510 14.25609242 -15.89377167 -0.41661742
VERTEX2 511 14.25408235 -15.87455048 0.45833173
VERTEX2 512 14.27598299 -15.82823662 1.65486328
VERTEX2 513 14.27162040 -15.81541244 2.60988811
VERTEX2 514 14.20563024 -15.79692864 2.83628012
VERTEX2 515 13.59670685 -15.61686625 2.83745499
VERTEX2 516 13.01335096 -15.42378646 2.85341584
VERTEX2 517 12.42191300 -15.27649022 2.88166482
VERTEX2 518 11.83082487 -15.12609576 2.90606116
VERTEX2 519 11.31022182 -15.00290382 2.89039982
VERTEX2 520 11.14390208 -14.95970586 -2.99428059
VERTEX2 521 11.16452795 -14.93694860 -1.99041704
VERTEX2 522 11.09889084 -15.33621455 -1.72607228
VERTEX2 523 11.00797510 -15.95696376 -1.73345010
VERTEX2 524 10.90456928 -16.53148938 -1.77537649
VERTEX2 525 10.80102002 -17.07407546 -1.75172958
VERTEX2 526 10.68525423 -17.64332383 -1.81053390
VERTEX2 527 10.53790290 -18.22267381 -1.84535422
VERTEX2 528 10.35606356 -18.78937768 -1.92134730
VERTEX2 529 10.14421732 -19.39234133 -1.94971536
VERTEX2 530 9.89745745 -19.99210339 -1.97990235
VERTEX2 531 9.62834908 -20.56705895 -2.05987555
VERTEX2 532 9.53068957 -20.75238660 -2.00942083
VERTEX2 533 9.52724905 -20.73570145 -1.01010385
VERTEX2 534 9.52788984 -20.73611029 -0.34305606
VERTEX2 535 9.53126520 -20.73640523 -0.34340846
VERTEX2 536 9.88773390 -20.82028617 -0.21267696
VERTEX2 537 10.49408271 -20.96865907 -0.27066130
VERTEX2 538 11.05374505 -21.13780809 -0.29776486
VERTEX2 539 11.66138406 -21.34675545 -0.36252201
VERTEX2 540 12.24781635 -21.59986369 -0.45540466
VERTEX2 541 12.83461656 -21.82778251 -0.29309013
VERTEX2 542 13.46529082 -21.96962953 -0.23737897
VERTEX2 543 13.58683095 -22.00010558 -0.26703638
VERTEX2 544 13.60798373 -21.99794691 0.36999447
VERTEX2 545 13.63154277 -21.95514647 1.43622034
VERTEX2 546 13.64899086 -22.00054973 2.26327555
VERTEX2 547 13.65721532 -21.99999760 -2.99821505
VERTEX2 548 13.67070670 -21.99134023 -2.07529967
VERTEX2 549 13.67234587 -21.98018291 -1.26866999
VERTEX2 550 13.67113980 -21.95941450 -1.74845336
VERTEX2 551 13.67954008 -21.94238725 -2.37480682
VERTEX2 552 13.69782380 -21.93327946 -3.00724615
VERTEX2 553 13.56090274 -21.88097091 2.69867151
VERTEX2 554 12.96903006 -21.59712725 2.66321812
VERTEX2 555 12.38994069 -21.32238073 2.75209568
VERTEX2 556 11.78591710 -21.10419578 2.88720161
VERTEX2 557 11.18556669 -20.93359760 2.84598034
VERTEX2 558 10.60931840 -20.77680545 2.92699453
VERTEX2 559 10.61673787 -20.77930647 2.52001445
VERTEX2 560 10.60975249 -20.77160903 2.01905744
VERTEX2 561 10.58678433 -20.74932565 2.52425603
VERTEX2 562 10.40794777 -20.74938529 -3.11540115
VERTEX2 563 9.83728880 -20.67111569 2.97594425
VERTEX2 564 9.23202201 -20.57983742 3.02469282
VERTEX2 565 8.64127138 -20.50868528 2.96707827
VERTEX2 566 8.70216616 -20.52762225 -2.53273530
VERTEX2 567 8.60861419 -20.53456808 -1.73874236
VERTEX2 568 8.55744343 -21.04343646 -1.67495119
VERTEX2 569 8.50603516 -21.61863743 -1.71414170
VERTEX2 570 8.43721953 -22.19892739 -1.70940615
VERTEX2 571 8.38468279 -22.55432954 -1.75685553
VERTEX2 572 8.35062588 -22.57922797 -2.00000774
VERTEX2 573 8.31553863 -22.65878518 -1.72363385
VERTEX2 574 8.33590426 -22.68739719 -0.78405855
VERTEX2 575 8.49062474 -22.73793118 0.13624363
VERTEX2 576 8.49007543 -22.73749140 1.16393258
VERTEX2 577 8.48346500 -22.72000541 2.13605603
VERTEX2 578 8.47401690 -22.68804850 1.77190489
VERTEX2 579 8.34932277 -22.03648902 1.78694721
VERTEX2 580 8.18768850 -21.39713613 1.86211619
VERTEX2 581 7.99340017 -20.77375099 1.90452301
VERTEX2 582 7.77165952 -20.15942110 1.94768798
VERTEX2 583 7.64167317 -19.85122205 2.02709047
VERTEX2 584 7.63615077 -19.84051048 2.87103817
VERTEX2 585 7.05228504 -19.70048900 2.98948523
VERTEX2 586 6.45786265 -19.62613362 3.08720396
VERTEX2 587 5.83837818 -19.61549276 3.11276888
VERTEX2 588 5.20794193 -19.58991834 3.11739385
VERTEX2 589 4.66982442 -19.61483340 -3.09038629
VERTEX2 590 4.12079003 -19.65913583 -3.02160697
VERTEX2 591 3.58210112 -19.73827733 -3.02346714
VERTEX2 592 3.03440494 -19.81289130 -3.02615987
VERTEX2 593 2.85704403 -19.83526015 -2.82084320
VERTEX2 594 2.90029789 -19.78869617 -1.90243072
VERTEX2 595 2.78670398 -20.39567592 -1.66952439
VERTEX2 596 2.73375578 -21.01974135 -1.69261286
VERTEX2 597 2.64149265 -21.69446018 -1.73249696
VERTEX2 598 2.53822013 -22.29274464 -1.77465489
VERTEX2 599 2.44961418 -22.66997481 -1.84083402
VERTEX2 600 2.44979397 -22.68613772 -1.03427604
VERTEX2 601 2.48979227 -22.71081687 -0.01610973
VERTEX2 602 2.52461294 -22.69682565 0.99792934
VERTEX2 603 2.49033404 -22.46178069 1.77056085
VERTEX2 604 2.43056434 -21.84916325 1.52646493
VERTEX2 605 2.44030588 -21.20273686 1.60908816
VERTEX2 606 2.40075234 -20.55654952 1.65120601
VERTEX2 607 2.41258960 -19.96793669 1.57023146
VERTEX2 608 2.40000326 -19.58325154 1.61476152
VERTEX2 609 2.39649405 -19.56246991 1.95117616
VERTEX2 610 2.38861360 -19.55960860 2.88404656
VERTEX2 611 1.79340451 -19.40853618 2.88711810
VERTEX2 612 1.32105993 -19.27334627 2.89003429
VERTEX2 613 1.35645163 -19.28420577 -2.92915462
VERTEX2 614 1.36258594 -19.27957796 -1.89075219
VERTEX2 615 1.37395225 -19.76493130 -1.58603854
VERTEX2 616 1.37905676 -20.38667688 -1.63709177
VERTEX2 617 1.23960659 -20.98906292 -1.85399680
VERTEX2 618 1.06883590 -21.59417893 -1.84369062
VERTEX2 619 0.90650909 -22.16481499 -1.84487877
VERTEX2 620 0.72165982 -22.73980036 -1.94075584
VERTEX2 621 0.85118979 -22.40721816 -1.99201060
VERTEX2 622 0.97512570 -22.14370084 -2.06674088
VERTEX2 623 0.97452754 -22.14450777 -2.60325344
VERTEX2 624 0.94496906 -22.14415268 3.03798109
VERTEX2 625 0.90333621 -22.12725052 2.38010943
VERTEX2 626 0.87526916 -22.09491861 1.76270226
VERTEX2 627 0.94866280 -21.72326894 1.35231988
VERTEX2 628 1.12879808 -21.09708825 1.25153444
VERTEX2 629 1.30186710 -20.47023288 1.32259027
VERTEX2 630 1.42879654 -19.86311729 1.40757125
VERTEX2 631 1.50217147 -19.33386777 1.42761094
VERTEX2 632 1.50488185 -19.31804000 2.10332643
VERTEX2 633 1.40677367 -19.31122341 -3.09382345
VERTEX2 634 0.73933842 -19.34710804 -3.06647443
VERTEX2 635 0.08621056 -19.35687241 3.08163743
VERTEX2 636 -0.55539502 -19.32736759 3.06401769
VERTEX2 637 -1.18336690 -19.25213999 2.96468640
VERTEX2 638 -1.57502787 -19.17165863 2.93507555
VERTEX2 639 -2.18516686 -19.06791463 3.01535265
VERTEX2 640 -2.79948938 -18.95792197 2.94739902
VERTEX2 641 -3.39922590 -18.84623257 2.93901603
VERTEX2 642 -3.97460866 -18.70823468 2.89362714
VERTEX2 643 -4.45617948 -18.57089002 2.82615999
VERTEX2 644 -4.46044789 -18.57183337 -2.70027142
VERTEX2 645 -4.49704770 -18.71254440 -1.92267650
VERTEX2 646 -4.63448669 -19.31813696 -1.62721718
VERTEX2 647 -4.59236223 -19.95646346 -1.33826704
VERTEX2 648 -4.37183779 -20.57762633 -1.17189486
VERTEX2 649 -4.20030264 -21.17229230 -1.50937124
VERTEX2 650 -4.30209862 -21.80255725 -1.76675675
VERTEX2 651 -4.32004600 -21.95011018 -0.96740765
VERTEX2 652 -4.25501489 -21.97948447 0.05743824
VERTEX2 653 -4.20940855 -21.93866542 1.08779750
VERTEX2 654 -4.21780321 -21.64470733 1.60092898
VERTEX2 655 -4.22707074 -21.09396514 1.59590907
VERTEX2 656 -4.22504195 -20.49451860 1.58326617
VERTEX2 657 -4.33022814 -19.88559313 1.85988367
VERTEX2 658 -4.51926662 -19.26899580 1.85271530
VERTEX2 659 -4.63300703 -18.77611011 1.78155473
VERTEX2 660 -4.63592715 -18.76138242 2.38166280
VERTEX2 661 -4.81395753 -18.74142358 3.03509741
VERTEX2 662 -5.40692574 -18.68098251 3.10469791
VERTEX2 663 -5.99390212 -18.69429615 -3.07746420
VERTEX2 664 -5.99696409 -18.69353730 -2.55370363
VERTEX2 665 -6.01351274 -18.79641300 -1.72500614
VERTEX2 666 -6.08822030 -19.40319811 -1.68872495
VERTEX2 667 -6.14865565 -19.96812323 -1.68495207
VERTEX2 668 -6.21655511 -20.56052007 -1.65945606
VERTEX2 669 -6.26985116 -21.18498212 -1.68489747
VERTEX2 670 -6.37410033 -21.80061641 -1.74473135
VERTEX2 671 -6.42429791 -22.09283630 -1.68945564
VERTEX2 672 -6.31753755 -21.51318731 -1.77825177
VERTEX2 673 -6.24919620 -21.24728015 -1.90846245
VERTEX2 674 -6.23629755 -21.23387607 -2.55581337
VERTEX2 675 -6.21284061 -21.22908663 3.11950011
VERTEX2 676 -6.20665451 -21.23276137 2.49692494
VERTEX2 677 -6.20197236 -21.23930656 1.88183866
VERTEX2 678 -6.17285755 -21.01754553 1.43648472
VERTEX2 679 -6.10626877 -20.43907436 1.49936006
VERTEX2 680 -6.13197326 -19.99094813 1.84473295
VERTEX2 681 -6.28193024 -19.39899367 1.81753540
VERTEX2 682 -6.45213544 -18.79249443 1.86554424
VERTEX2 683 -6.54355146 -18.50995393 2.02511519
VERTEX2 684 -6.49067474 -18.56413193 3.10513045
VERTEX2 685 -6.89566177 -18.72457954 -2.73426213
VERTEX2 686 -7.34384723 -18.86075674 -2.87843078
VERTEX2 687 -7.93927418 -19.01115038 -2.91337770
VERTEX2 688 -8.53791044 -19.13051295 -2.92509324
VERTEX2 689 -9.10297718 -19.26888307 -2.89737319
VERTEX2 690 -9.63968310 -19.43736996 -2.82314464
VERTEX2 691 -10.03550884 -19.56850768 -2.85112543
VERTEX2 692 -10.02132934 -19.56223150 -2.31683307
VERTEX2 693 -9.99840606 -19.63486065 -1.27634347
VERTEX2 694 -9.97429605 -19.70719710 -0.44081435
VERTEX2 695 -9.95577176 -19.70195570 0.35924485
VERTEX2 696 -9.94959904 -19.69792616 1.38479976
VERTEX2 697 -9.96135923 -19.73639361 1.13184984
VERTEX2 698 -9.63059181 -19.52762479 0.47712381
VERTEX2 699 -9.06630033 -19.21482942 0.59118319
VERTEX2 700 -8.55215457 -18.85311950 0.64473462
VERTEX2 701 -8.11757214 -18.49048107 0.70392719
VERTEX2 702 -7.63765284 -18.17547203 0.58879683
VERTEX2 703 -7.12460644 -17.83919379 0.62307641
VERTEX2 704 -6.63028840 -17.45723952 0.64128160
VERTEX2 705 -6.11888674 -17.03722599 0.71153220
VERTEX2 706 -5.68841210 -16.71989911 0.44255172
VERTEX2 707 -5.66324155 -16.71858465 -0.07768858
VERTEX2 708 -5.65345610 -16.72425944 -0.71616307
VERTEX2 709 -5.69332934 -16.68118804 -1.04824289
VERTEX2 710 -5.69774185 -16.66973779 -1.60935376
VERTEX2 711 -5.68842653 -16.67817731 -2.20608081
VERTEX2 712 -5.66820101 -16.66272903 -2.76651406
VERTEX2 713 -6.14136086 -16.71239040 -3.05186206
VERTEX2 714 -6.69473495 -16.68634537 3.03380433
VERTEX2 715 -7.31954980 -16.64841659 3.13734793
VERTEX2 716 -7.95180946 -16.62532163 2.99925058
VERTEX2 717 -8.57107456 -16.55645836 3.08395025
VERTEX2 718 -9.33109074 -16.43657935 2.90851226
VERTEX2 719 -9.94584838 -16.32031845 2.98293295
VERTEX2 720 -10.55645283 -16.20693225 2.92368802
VERTEX2 721 -11.17197418 -16.09007388 2.99186842
VERTEX2 722 -11.18654963 -16.08796816 3.05853043
VERTEX2 723 -11.20573957 -16.10767541 -2.13486308
VERTEX2 724 -11.20595619 -16.15083115 -1.06614525
VERTEX2 725 -11.17756441 -16.17002822 -0.43188676
VERTEX2 726 -10.84995033 -16.16704636 0.02223537
VERTEX2 727 -10.21023435 -16.13085196 0.05294452
VERTEX2 728 -9.57476732 -16.10888171 0.05444559
VERTEX2 729 -8.94120835 -16.05075977 0.11218548
VERTEX2 730 -8.32166045 -15.96086969 0.14975658
VERTEX2 731 -7.67446399 -15.86298936 0.16203699
VERTEX2 732 -7.53370551 -15.83509376 0.60876965
VERTEX2 733 -7.53266409 -15.83680494 1.60561756
VERTEX2 734 -7.59019557 -15.28052024 1.68380244
VERTEX2 735 -7.64987315 -14.67790249 1.65183638
VERTEX2 736 -7.65060516 -14.66671275 2.25154007
VERTEX2 737 -7.64514253 -14.66744034 3.05250799
VERTEX2 738 -8.22467634 -14.62614878 3.07164027
VERTEX2 739 -8.82813240 -14.53038015 3.01408383
VERTEX2 740 -9.33149240 -14.48958660 3.07741708
VERTEX2 741 -9.31188560 -14.48939180 2.70867952
VERTEX2 742 -9.31221252 -14.48917978 2.05606228
VERTEX2 743 -9.31400848 -14.48120986 1.43941458
VERTEX2 744 -9.30439707 -14.45923396 0.90019845
VERTEX2 745 -9.28480071 -14.44899403 0.30686923
VERTEX2 746 -8.74213864 -14.46736719 -0.16786241
VERTEX2 747 -8.09679009 -14.58191066 -0.20303967
VERTEX2 748 -7.51972859 -14.72443609 -0.27128149
VERTEX2 749 -7.43632104 -14.74519951 0.15809078
VERTEX2 750 -7.42623803 -14.72658246 1.08548459
VERTEX2 751 -7.46114531 -14.45317677 1.72598380
VERTEX2 752 -7.52043840 -13.82683516 1.62273658
VERTEX2 753 -7.55961708 -13.18488062 1.68601172
VERTEX2 754 -7.56874513 -12.54108313 1.52397218
VERTEX2 755 -7.55179956 -11.90797297 1.61047088
VERTEX2 756 -7.51623472 -11.27230313 1.43412594
VERTEX2 757 -7.44344949 -10.62716577 1.54604658
VERTEX2 758 -7.46571078 -10.04778332 1.68827442
VERTEX2 759 -7.45695544 -9.50021934 1.56825211
VERTEX2 760 -7.49778229 -8.88868975 1.67964897
VERTEX2 761 -7.50066075 -8.85042727 1.86004986
VERTEX2 762 -7.57766662 -8.81632946 2.69583014
VERTEX2 763 -8.15238549 -8.71584251 2.98869139
VERTEX2 764 -8.57281470 -8.64605948 2.96117241
VERTEX2 765 -8.56225429 -8.64581270 -2.68253211
VERTEX2 766 -8.56398696 -8.65152725 -1.68213372
VERTEX2 767 -8.55889893 -8.66424237 -0.75120422
VERTEX2 768 -8.53193193 -8.66577038 -0.02878552
VERTEX2 769 -7.89667956 -8.57358901 0.12813651
VERTEX2 770 -7.24432961 -8.51115253 0.06102258
VERTEX2 771 -7.15587418 -8.50333748 0.62153212
VERTEX2 772 -7.15278523 -8.49337017 1.48911521
VERTEX2 773 -7.13158107 -7.91515051 1.57494184
VERTEX2 774 -7.14641762 -7.36856310 1.59706315
VERTEX2 775 -7.14549247 -7.37248268 2.44203156
VERTEX2 776 -7.35515918 -7.34789235 3.05949280
VERTEX2 777 -7.96889197 -7.30858620 3.11855776
VERTEX2 778 -8.58192859 -7.30046136 3.09763932
VERTEX2 779 -9.19797737 -7.28143866 3.11576391
VERTEX2 780 -9.40636865 -7.26419506 2.98555907
VERTEX2 781 -9.40330575 -7.26527535 2.41218146
VERTEX2 782 -9.53135326 -6.99358255 1.98265052
VERTEX2 783 -9.76772727 -6.42084728 1.98206572
VERTEX2 784 -9.86756095 -6.19423166 1.96075723
VERTEX2 785 -9.86851119 -6.16945842 1.40882198
VERTEX2 786 -9.86081412 -6.14391619 0.82053016
VERTEX2 787 -9.84385765 -6.12647583 0.32988995
VERTEX2 788 -9.81721984 -6.12822616 -0.29921464
VERTEX2 789 -9.80673124 -6.13642177 -0.85116308
VERTEX2 790 -9.49951875 -6.53096917 -0.91831700
VERTEX2 791 -9.09380687 -7.01202345 -0.81963618
VERTEX2 792 -8.85394859 -7.22486943 -0.11506679
VERTEX2 793 -8.23810669 -7.27625611 -0.07028340
VERTEX2 794 -7.59793216 -7.30425953 0.00096050
VERTEX2 795 -7.62210223 -7.32208203 0.43041709
VERTEX2 796 -7.62867130 -7.32473726 1.08988300
VERTEX2 797 -7.55477758 -7.01541180 1.35009468
VERTEX2 798 -7.42058024 -6.38897006 1.40026974
VERTEX2 799 -7.33445970 -5.74467093 1.46603292
VERTEX2 800 -7.28133193 -5.09840127 1.53897698
VERTEX2 801 -7.29271687 -4.46752783 1.62502791
VERTEX2 802 -7.34695627 -3.84363821 1.68286428
VERTEX2 803 -7.33030035 -3.21535640 1.51818803
VERTEX2 804 -7.31070492 -2.58832557 1.57408937
VERTEX2 805 -7.34448606 -1.95842281 1.65037916
VERTEX2 806 -7.40493782 -1.36068304 1.69180167
VERTEX2 807 -7.43198309 -1.17918423 1.97979976
VERTEX2 808 -7.43694873 -1.17908911 2.92811397
VERTEX2 809 -8.02880438 -1.15050087 3.07280120
VERTEX2 810 -8.64674393 -1.02748978 2.93266927
VERTEX2 811 -9.24624140 -0.91619900 2.92940982
VERTEX2 812 -9.24909882 -0.91564047 -2.62193775
VERTEX2 813 -9.25802817 -0.93563457 -1.64654751
VERTEX2 814 -9.25289839 -0.93968020 -0.65423735
VERTEX2 815 -9.22941644 -0.94755860 0.26510295
VERTEX2 816 -9.21987041 -0.94232356 0.94630651
VERTEX2 817 -9.20770212 -0.93464766 0.27758951
VERTEX2 818 -8.98588166 -0.96815886 -0.21126709
VERTEX2 819 -8.39528475 -1.09485388 -0.19713311
VERTEX2 820 -7.80226255 -1.22562059 -0.23835760
VERTEX2 821 -7.25675811 -1.35550855 -0.22255850
VERTEX2 822 -7.21089295 -1.36240799 0.53912273
VERTEX2 823 -7.20951025 -1.34752959 1.45854533
VERTEX2 824 -7.14681139 -0.72534123 1.37924607
VERTEX2 825 -7.00405373 -0.10187925 1.34960767
VERTEX2 826 -6.94808142 0.53027499 1.51258167
VERTEX2 827 -6.88528300 1.15415058 1.46395341
VERTEX2 828 -6.83222007 1.78545530 1.49950132
VERTEX2 829 -6.77264217 2.38935137 1.45977429
VERTEX2 830 -6.69913433 2.99859133 1.45146972
VERTEX2 831 -6.60632768 3.57619358 1.40468921
VERTEX2 832 -6.51743269 4.13947027 1.40113447
VERTEX2 833 -6.47401518 4.39497347 1.53880316
VERTEX2 834 -6.47604019 4.40209029 2.59350385
VERTEX2 835 -6.48959450 4.40362052 -2.91198432
VERTEX2 836 -6.50199646 4.39309823 -1.96888493
VERTEX2 837 -6.49858321 4.37470082 -0.93248315
VERTEX2 838 -6.48730888 4.36771282 -0.07025526
VERTEX2 839 -6.48726870 4.36769499 -0.28851023
VERTEX2 840 -6.47664330 4.35940609 -0.85114129
VERTEX2 841 -6.46911108 4.34434972 -1.46820834
VERTEX2 842 -6.49476272 4.09836746 -1.69902849
VERTEX2 843 -6.57184732 3.53428484 -1.70155740
VERTEX2 844 -6.64581249 2.90823281 -1.70958079
VERTEX2 845 -6.73832500 2.28264494 -1.72430900
VERTEX2 846 -6.82292981 1.65285916 -1.72258739
VERTEX2 847 -6.93146422 1.03083732 -1.74934337
VERTEX2 848 -6.96187218 0.83485614 -1.26889541
VERTEX2 849 -6.96065794 0.83442129 -0.34669148
VERTEX2 850 -6.60509753 0.83178489 0.00671493
VERTEX2 851 -5.97741755 0.80729926 -0.08577747
VERTEX2 852 -5.35251109 0.74761897 -0.07135347
VERTEX2 853 -4.75722044 0.70659755 -0.09926229
VERTEX2 854 -4.16948406 0.64026052 -0.09724192
VERTEX2 855 -3.57412621 0.59086066 -0.09902107
VERTEX2 856 -2.91636282 0.50670413 -0.13924635
VERTEX2 857 -2.25974257 0.41914100 -0.14837796
VERTEX2 858 -1.61306534 0.29981749 -0.20257919
VERTEX2 859 -1.09433465 0.19829711 -0.20916732
VERTEX2 860 -1.06580005 0.21020877 0.64279963
VERTEX2 861 -1.05016514 0.32487572 1.55888021
VERTEX2 862 -1.01634951 0.98427035 1.49920105
VERTEX2 863 -0.96334546 1.62829443 1.46665751
VERTEX2 864 -0.88046832 2.23834667 1.46448037
VERTEX2 865 -0.84321582 2.84947408 1.52202848
VERTEX2 866 -0.80229980 3.43508414 1.52083381
VERTEX2 867 -0.79585196 3.59861518 1.70193735
VERTEX2 868 -0.80384993 3.60862031 2.72532962
VERTEX2 869 -0.79551655 3.60876015 -2.57987193
VERTEX2 870 -0.77778209 3.61840779 -1.58078804
VERTEX2 871 -0.76433224 3.60938559 -0.60744699
VERTEX2 872 -0.74709051 3.59705400 0.07758001
VERTEX2 873 -0.72157466 3.58867293 -0.49518229
VERTEX2 874 -0.70122942 3.57044229 -1.05497984
VERTEX2 875 -0.69501682 3.55598069 -1.64169416
VERTEX2 876 -0.81324592 2.99871813 -1.79935044
VERTEX2 877 -0.96392885 2.45534679 -1.88407756
VERTEX2 878 -1.01404699 2.25460342 -1.50124258
VERTEX2 879 -0.91099674 1.61633216 -1.45027573
VERTEX2 880 -0.87410630 1.16713964 -1.56302937
VERTEX2 881 -0.87462741 1.21660230 -1.55773927
VERTEX2 882 -0.92945251 0.57634752 -1.80433627
VERTEX2 883 -1.14396782 -0.02039006 -1.99511931
VERTEX2 884 -1.30215992 -0.35404814 -2.06212953
VERTEX2 885 -1.30211849 -0.35433518 -1.48069174
VERTEX2 886 -1.28600964 -0.36934870 -0.46296943
VERTEX2 887 -1.25941705 -0.37962023 0.54807748
VERTEX2 888 -1.25002334 -0.35975213 1.53191463
VERTEX2 889 -1.25200619 -0.35406678 2.42979089
VERTEX2 890 -1.56639544 -0.20268918 2.70366952
VERTEX2 891 -2.10273736 0.06258285 2.63333853
VERTEX2 892 -2.63578217 0.38045127 2.59777547
VERTEX2 893 -3.18789180 0.67472384 2.83407884
VERTEX2 894 -3.79880882 0.78464316 3.05516203
VERTEX2 895 -4.39536148 0.73512480 -2.92971791
VERTEX2 896 -4.41285906 0.73091231 -2.45114620
VERTEX2 897 -4.69649208 0.30947945 -2.17882115
VERTEX2 898 -5.04722249 -0.20127528 -2.16319090
VERTEX2 899 -5.33320366 -0.61227383 -2.23082843
VERTEX2 900 -5.74557125 -1.15762320 -2.23316320
VERTEX2 901 -6.11627816 -1.60262170 -2.29751045
VERTEX2 902 -6.53141311 -2.09489384 -2.27228467
VERTEX2 903 -6.84680530 -2.47438661 -2.31708567
VERTEX2 904 -6.84755185 -2.47546875 -1.61405040
VERTEX2 905 -6.83318691 -2.96854368 -1.55861001
VERTEX2 906 -6.79861606 -3.53988736 -1.49294154
VERTEX2 907 -6.74175348 -4.11450555 -1.50118230
VERTEX2 908 -6.69496483 -4.73684377 -1.47643751
VERTEX2 909 -6.63395350 -5.34941371 -1.49440239
VERTEX2 910 -6.66141843 -5.47794993 -1.86437727
VERTEX2 911 -6.82083630 -6.04784912 -1.80356613
VERTEX2 912 -6.94122821 -6.61001814 -1.79100211
VERTEX2 913 -7.05275305 -7.15016669 -1.78312591
VERTEX2 914 -7.17819149 -7.73649127 -1.80684623
VERTEX2 915 -7.30110825 -8.24369173 -1.84362735
VERTEX2 916 -7.23673602 -8.48756035 -1.29623849
VERTEX2 917 -7.09755340 -9.13607541 -1.55076011
VERTEX2 918 -7.11753641 -9.65292238 -1.62637563
VERTEX2 919 -7.15092230 -10.27552566 -1.66977746
VERTEX2 920 -7.21518328 -10.88831989 -1.68745153
VERTEX2 921 -7.28829939 -11.50226454 -1.74089693
VERTEX2 922 -7.39182969 -12.11156966 -1.76848326
VERTEX2 923 -7.51337847 -12.68325213 -1.83236966
VERTEX2 924 -7.64538409 -13.17506349 -1.81589258
VERTEX2 925 -7.64631465 -13.17039522 -1.31153719
VERTEX2 926 -7.48569940 -13.73754781 -1.29548992
VERTEX2 927 -7.31839451 -14.33331977 -1.31896156
VERTEX2 928 -7.16209411 -14.93802904 -1.32798066
VERTEX2 929 -7.01235807 -15.53988309 -1.32897160
VERTEX2 930 -6.86620462 -16.16959391 -1.41196428
VERTEX2 931 -6.78129499 -16.79625137 -1.49225344
VERTEX2 932 -6.73653548 -17.42370646 -1.55173877
VERTEX2 933 -6.73451392 -18.03667347 -1.61636809
VERTEX2 934 -6.75024825 -18.51773651 -1.62621162
VERTEX2 935 -6.74757514 -18.53025232 -0.94407348
VERTEX2 936 -6.74603173 -18.53079803 0.00107618
VERTEX2 937 -6.20353450 -18.50685306 0.06394671
VERTEX2 938 -5.60724824 -18.52427321 -0.10947271
VERTEX2 939 -4.98329998 -18.58556326 -0.08177184
VERTEX2 940 -4.37476681 -18.66155616 -0.16774991
VERTEX2 941 -3.77388856 -18.77768238 -0.22153385
VERTEX2 942 -3.25934027 -18.89379530 -0.21717409
VERTEX2 943 -2.64565812 -19.03055350 -0.12901354
VERTEX2 944 -2.02778520 -19.11625117 -0.18582532
VERTEX2 945 -1.40452194 -19.24758386 -0.24115204
VERTEX2 946 -1.22698900 -19.29355656 -0.17675327
VERTEX2 947 -0.81534155 -19.23179688 0.15160082
VERTEX2 948 -0.23731963 -19.14397305 0.13248085
VERTEX2 949 0.36593959 -19.11183396 -0.02297163
VERTEX2 950 0.99625107 -19.15041285 -0.26225114
VERTEX2 951 1.59816731 -19.32551902 -0.33422566
VERTEX2 952 2.19981953 -19.50352314 -0.08320518
VERTEX2 953 2.82963763 -19.53714634 -0.00275353
VERTEX2 954 3.45489250 -19.53153195 -0.00960675
VERTEX2 955 4.04472062 -19.57865394 -0.17024418
VERTEX2 956 4.59572581 -19.65852513 -0.17241971
VERTEX2 957 5.12741159 -19.75604613 -0.25998140
VERTEX2 958 5.59425572 -19.86945220 -0.28659561
VERTEX2 959 6.02606304 -19.98890486 -0.35356411
VERTEX2 960 6.61506499 -20.15276311 -0.27352074
VERTEX2 961 7.19637445 -20.32781078 -0.30043478
VERTEX2 962 7.81361472 -20.45713952 -0.23468646
VERTEX2 963 8.43109549 -20.53861519 -0.04783239
VERTEX2 964 9.05316258 -20.58065667 -0.11160348
VERTEX2 965 9.67086532 -20.66013556 -0.11838963
VERTEX2 966 10.11362380 -20.71872495 -0.17718957
VERTEX2 967 10.14516507 -20.71231312 0.67677222
VERTEX2 968 10.15514506 -20.70287356 1.57324388
VERTEX2 969 10.15757545 -20.73101746 1.63262703
VERTEX2 970 10.16022468 -20.75930019 1.63081924
VERTEX2 971 10.13949116 -20.42640728 1.63088117
VERTEX2 972 10.10040030 -19.84026124 1.63643172
VERTEX2 973 10.17951032 -19.25771885 1.35131898
VERTEX2 974 10.31847592 -18.65522319 1.38305346
VERTEX2 975 10.42953738 -18.04881534 1.38757952
VERTEX2 976 10.53387096 -17.43980706 1.40040219
VERTEX2 977 10.66941185 -16.81854737 1.37409419
VERTEX2 978 10.79013678 -16.20351584 1.42004015
VERTEX2 979 10.90466535 -15.59232373 1.40774513
VERTEX2 980 11.00205876 -14.98421775 1.45465093
VERTEX2 981 11.08881395 -14.39670978 1.46169481
VERTEX2 982 11.14346246 -13.87618075 1.50680942
VERTEX2 983 11.19147751 -13.27804391 1.50346769
VERTEX2 984 11.21710521 -12.68231627 1.56086958
VERTEX2 985 11.22637238 -12.08560610 1.58117320
VERTEX2 986 11.20974489 -11.46523551 1.61752053
VERTEX2 987 11.19539222 -10.84635906 1.58082885
VERTEX2 988 11.19645168 -10.22785933 1.59452802
VERTEX2 989 11.18033665 -9.61373142 1.60211884
VERTEX2 990 11.17210470 -9.00290593 1.59128822
VERTEX2 991 11.15545882 -8.38856087 1.61606906
VERTEX2 992 11.14912685 -7.80213281 1.58343902
VERTEX2 993 11.13415409 -7.18624853 1.61615391
VERTEX2 994 11.11664792 -6.60110769 1.60617610
VERTEX2 995 11.08321039 -5.99867836 1.65339585
VERTEX2 996 11.02162991 -5.38118461 1.68047212
VERTEX2 997 10.97511721 -4.72507724 1.61599692
VERTEX2 998 10.95431042 -4.31123708 1.63780118
VERTEX2 999 10.97531005 -4.32819978 2.35549056
VERTEX2 1000 10.50581383 -3.96323650 2.50408650
VERTEX2 1001 10.05987266 -3.55740853 2.18309271
VERTEX2 1002 9.68729686 -3.07902997 2.27574580
VERTEX2 1003 9.33212606 -2.57307134 2.09613757
VERTEX2 1004 8.99314743 -2.03661935 2.15434045
VERTEX2 1005 8.63954409 -1.54270603 2.21674903
VERTEX2 1006 8.24393722 -1.06518753 2.29411545
VERTEX2 1007 7.83160337 -0.63983649 2.38577920
VERTEX2 1008 7.59646841 -0.42571326 2.54531469
VERTEX2 1009 7.49953868 -0.41110345 3.01839863
VERTEX2 1010 6.93275076 -0.35570206 3.07095151
VERTEX2 1011 6.31738998 -0.31694270 3.02791115
VERTEX2 1012 5.70822821 -0.25423709 3.06987930
VERTEX2 1013 5.07246492 -0.25730036 -3.09827328
VERTEX2 1014 4.45983714 -0.20977442 3.00969378
VERTEX2 1015 3.83516806 -0.17091346 3.09422585
VERTEX2 1016 3.06587191 -0.13391256 3.10100915
VERTEX2 1017 2.48124141 -0.12096629 3.04388018
VERTEX2 1018 1.92420806 -0.05962439 3.05119712
VERTEX2 1019 1.33004909 -0.03560615 3.11076651
VERTEX2 1020 0.71565208 -0.00013988 3.09683477
VERTEX2 1021 0.09535421 0.02845169 3.05624876
VERTEX2 1022 0.04268030 0.03276721 3.04903588
VERTEX2 1023 0.05037136 0.03262545 3.13564452
VERTEX2 1024 -0.57579999 0.03985391 -3.12119843
VERTEX2 1025 -1.20415160 0.00883866 -3.10361967
VERTEX2 1026 -1.36482209 0.00323388 -3.09643942
VERTEX2 1027 -1.34853260 0.01123175 -2.17989198
VERTEX2 1028 -1.36158440 -0.15571542 -1.61641984
VERTEX2 1029 -1.38985613 -0.72250651 -1.63797567
VERTEX2 1030 -1.45303514 -1.34401485 -1.71840631
VERTEX2 1031 -1.56537755 -1.98959779 -1.77256447
VERTEX2 1032 -1.69564663 -2.63524127 -1.76852460
VERTEX2 1033 -1.83893700 -3.27967358 -1.81367381
VERTEX2 1034 -1.88355023 -3.45067271 -2.02744838
VERTEX2 1035 -1.88891490 -3.45520102 -2.64673691
VERTEX2 1036 -1.85769511 -3.46957577 3.06566703
VERTEX2 1037 -2.19749704 -3.34054647 2.82728265
VERTEX2 1038 -2.80878162 -3.21895887 2.91849937
VERTEX2 1039 -3.44708557 -3.05007915 2.88697242
VERTEX2 1040 -3.42125044 -3.05067480 -2.76612998
VERTEX2 1041 -3.39209812 -3.05447970 -1.74918518
VERTEX2 1042 -3.39388359 -3.08767809 -0.76125619
VERTEX2 1043 -3.35996717 -3.11883855 0.20831869
VERTEX2 1044 -3.37363528 -3.13501253 1.20212853
VERTEX2 1045 -3.37687242 -3.14216886 1.08808973
VERTEX2 1046 -3.38750085 -3.15650439 0.70253604
VERTEX2 1047 -3.40635368 -3.16474592 0.14674011
VERTEX2 1048 -3.04333334 -3.23354061 -0.16626867
VERTEX2 1049 -2.39733813 -3.33110574 -0.14911741
VERTEX2 1050 -1.74965790 -3.40089010 -0.07344266
VERTEX2 1051 -1.09348202 -3.47359794 -0.15258945
VERTEX2 1052 -0.46885949 -3.55389427 -0.09963742
VERTEX2 1053 -0.05084786 -3.60787412 -0.15226630
VERTEX2 1054 -0.02377012 -3.61069931 0.60990284
VERTEX2 1055 -0.01768131 -3.58195192 1.66520566
VERTEX2 1056 -0.00835430 -3.59561471 2.66886743
VERTEX2 1057 0.01737350 -3.59845290 -2.62352402
VERTEX2 1058 0.01548742 -3.60067224 -1.70139393
VERTEX2 1059 -0.08234018 -4.18356103 -1.78215458
VERTEX2 1060 -0.21895626 -4.81376509 -1.77716246
VERTEX2 1061 -0.32625286 -5.26010897 -1.89970930
VERTEX2 1062 -0.32974373 -5.26549008 -2.46393835
VERTEX2 1063 -0.30847184 -5.25333077 -3.06166725
VERTEX2 1064 -0.58861646 -5.20052925 2.95626758
VERTEX2 1065 -1.17597146 -5.13319290 3.07823754
VERTEX2 1066 -1.73881287 -5.08052739 3.02213066
VERTEX2 1067 -1.72407155 -5.07976748 -2.82837675
VERTEX2 1068 -1.71153703 -5.07097415 -2.15557294
VERTEX2 1069 -1.71095519 -5.06941017 -1.98519016
VERTEX2 1070 -1.70951528 -5.06688447 -2.52413703
VERTEX2 1071 -2.18140575 -5.32274205 -2.65134881
VERTEX2 1072 -2.63148248 -5.55513741 -2.72000883
VERTEX2 1073 -2.60210198 -5.55439366 3.05203416
VERTEX2 1074 -3.13169205 -5.48242945 3.01767307
VERTEX2 1075 -3.70893162 -5.40607013 3.03423748
VERTEX2 1076 -3.72697773 -5.40476326 -2.84476268
VERTEX2 1077 -3.73991481 -5.42919249 -2.03901923
VERTEX2 1078 -3.97832593 -6.03893951 -1.99387886
VERTEX2 1079 -4.21108033 -6.60563173 -1.93177387
VERTEX2 1080 -4.21581251 -6.61828944 -2.41940311
VERTEX2 1081 -4.64295518 -6.91024088 -2.54267251
VERTEX2 1082 -4.81254688 -7.02861973 -2.26208606
VERTEX2 1083 -4.80814972 -7.06226659 -1.23189109
VERTEX2 1084 -4.73656235 -7.09909647 -0.26658388
VERTEX2 1085 -4.74280170 -7.10074556 0.71684589
VERTEX2 1086 -4.38358153 -6.61305303 0.94746287
VERTEX2 1087 -4.00502827 -6.10754086 0.93547076
VERTEX2 1088 -3.64507939 -5.59775433 0.91879581
VERTEX2 1089 -3.58966882 -5.52627023 0.82340844
VERTEX2 1090 -3.57985773 -5.51732017 0.20851727
VERTEX2 1091 -3.04290967 -5.48583891 0.03173842
VERTEX2 1092 -2.42463346 -5.47122871 0.01666984
VERTEX2 1093 -1.85636565 -5.47479801 -0.04832315
VERTEX2 1094 -1.84371445 -5.48686615 -0.45227513
VERTEX2 1095 -1.81338316 -5.51379882 -1.04183570
VERTEX2 1096 -1.81346518 -5.51355220 -1.61289951
VERTEX2 1097 -1.89679356 -5.83794530 -1.82825269
VERTEX2 1098 -2.07415013 -6.43385181 -1.88503555
VERTEX2 1099 -2.28091865 -6.99183119 -1.98109581
VERTEX2 1100 -2.28552132 -7.00342117 -1.61798967
VERTEX2 1101 -2.22746648 -7.26599654 -1.35208295
VERTEX2 1102 -2.22802929 -7.27254025 -1.74575349
VERTEX2 1103 -2.35587864 -7.87914767 -1.77953595
VERTEX2 1104 -2.49456875 -8.51201255 -1.80724049
VERTEX2 1105 -2.65042064 -9.13078736 -1.82515041
VERTEX2 1106 -2.77669085 -9.60443964 -1.85040311
VERTEX2 1107 -2.77613167 -9.61107432 -1.59431614
VERTEX2 1108 -2.74716250 -10.23584230 -1.58650377
VERTEX2 1109 -2.80267284 -10.87742936 -1.69047769
VERTEX2 1110 -2.88015686 -11.48252312 -1.74003987
VERTEX2 1111 -3.05195888 -12.00787771 -1.84137064
VERTEX2 1112 -3.08912000 -12.58490740 -1.49504161
VERTEX2 1113 -3.05699437 -13.22265291 -1.59048902
VERTEX2 1114 -3.06842683 -13.84076291 -1.57342433
VERTEX2 1115 -3.06698006 -14.42553801 -1.58958014
VERTEX2 1116 -3.05657695 -15.07548238 -1.55328694
VERTEX2 1117 -3.05393941 -15.17457839 -1.68101085
VERTEX2 1118 -3.05329124 -15.17336831 -2.28812809
VERTEX2 1119 -3.04518701 -15.16779253 -2.71970397
VERTEX2 1120 -3.60920169 -15.37235281 -2.78328811
VERTEX2 1121 -3.79950518 -15.43900278 -2.90182839
VERTEX2 1122 -3.79489581 -15.44059150 2.83111277
VERTEX2 1123 -4.34374256 -15.25529135 2.84807380
VERTEX2 1124 -4.90073889 -15.12610663 2.94685344
VERTEX2 1125 -5.52564604 -15.00015310 2.96038265
VERTEX2 1126 -5.60555651 -14.98720686 -2.98303219
VERTEX2 1127 -5.60041532 -14.99270131 -1.92576840
VERTEX2 1128 -5.59974572 -14.98949010 -0.93841300
VERTEX2 1129 -5.58193680 -14.99948124 0.07719046
VERTEX2 1130 -4.99310315 -14.93588278 0.09094749
VERTEX2 1131 -4.21944029 -15.06260391 -0.34071302
VERTEX2 1132 -3.60888837 -15.28159692 -0.36028524
VERTEX2 1133 -3.06217724 -15.51113561 -0.39885674
VERTEX2 1134 -2.80902498 -15.61812846 -0.49572057
VERTEX2 1135 -2.79750490 -15.62948847 -1.05148192
VERTEX2 1136 -2.79784717 -15.63017749 -1.61316576
VERTEX2 1137 -2.85297055 -15.93419223 -1.79701018
VERTEX2 1138 -3.00982930 -16.56847647 -1.81313804
VERTEX2 1139 -3.13059462 -17.06416523 -1.88617033
VERTEX2 1140 -3.12096748 -17.04130013 -2.36476711
VERTEX2 1141 -3.09992873 -17.02098543 -2.91174828
VERTEX2 1142 -3.46296514 -16.97624135 3.00742189
VERTEX2 1143 -4.06102081 -16.92727228 3.09700200
VERTEX2 1144 -4.64205181 -16.89077661 3.06654772
VERTEX2 1145 -5.22059134 -16.84304951 3.04124023
VERTEX2 1146 -5.79670217 -16.78368597 3.06113881
VERTEX2 1147 -6.37644783 -16.77149019 3.13401687
VERTEX2 1148 -6.95496316 -16.76686335 -3.13913944
VERTEX2 1149 -6.99773569 -16.76800942 -2.64089804
VERTEX2 1150 -7.09043110 -16.87028263 -1.83103298
VERTEX2 1151 -7.08848193 -16.88178383 -0.82696121
VERTEX2 1152 -7.07122958 -16.88213767 0.22643099
VERTEX2 1153 -7.05649018 -16.87552550 1.23947180
VERTEX2 1154 -7.11457788 -16.55864342 1.78560090
VERTEX2 1155 -7.24540655 -15.93415742 1.73628413
VERTEX2 1156 -7.34046454 -15.32838167 1.74633342
VERTEX2 1157 -7.46549824 -14.75724823 1.85748524
VERTEX2 1158 -7.58965191 -14.15508150 1.72897565
VERTEX2 1159 -7.64824963 -13.55213554 1.63510679
VERTEX2 1160 -7.66883664 -12.91300237 1.49852522
VERTEX2 1161 -7.56739726 -12.28309466 1.40896337
VERTEX2 1162 -7.47423925 -11.65279786 1.46718132
VERTEX2 1163 -7.40998435 -11.01124792 1.46181121
VERTEX2 1164 -7.36021947 -10.36832492 1.54756049
VERTEX2 1165 -7.34804357 -9.83117360 1.52474198
VERTEX2 1166 -7.34821531 -9.83037640 2.01371065
VERTEX2 1167 -7.29564582 -9.81769701 2.95034548
VERTEX2 1168 -7.25074764 -9.79993307 -2.42938230
VERTEX2 1169 -7.25501479 -9.85382336 -1.60735991
VERTEX2 1170 -7.26615267 -10.44237376 -1.60063160
VERTEX2 1171 -7.26692886 -11.07508290 -1.56890263
VERTEX2 1172 -7.27212067 -11.67182543 -1.63137027
VERTEX2 1173 -7.30291145 -12.29319967 -1.62227191
VERTEX2 1174 -7.34761544 -12.91971632 -1.69103365
VERTEX2 1175 -7.43443302 -13.53098652 -1.72449195
VERTEX2 1176 -7.53308501 -14.15169118 -1.76820140
VERTEX2 1177 -7.65389060 -14.76030067 -1.76619027
VERTEX2 1178 -7.78628529 -15.37280353 -1.81344082
VERTEX2 1179 -7.92515596 -15.97715533 -1.78413354
VERTEX2 1180 -7.98001238 -16.23088562 -1.79115836
VERTEX2 1181 -7.97919881 -16.22526875 -0.96386573
VERTEX2 1182 -7.92343602 -16.23957483 -0.25229325
VERTEX2 1183 -7.30996876 -16.39010202 -0.22703437
VERTEX2 1184 -6.67716303 -16.50656765 -0.15757149
VERTEX2 1185 -6.04926170 -16.61861900 -0.18991041
VERTEX2 1186 -5.41774439 -16.71524375 -0.12382533
VERTEX2 1187 -4.76387392 -16.80258567 -0.16102599
VERTEX2 1188 -4.13660515 -16.89430650 -0.14303299
VERTEX2 1189 -3.47314313 -17.00359949 -0.12125560
VERTEX2 1190 -3.14122925 -17.04469054 -0.11314526
VERTEX2 1191 -3.10832028 -17.04403352 0.80745613
VERTEX2 1192 -3.10243901 -16.96035052 1.60539016
VERTEX2 1193 -3.09556076 -16.36023942 1.47349504
VERTEX2 1194 -3.05419437 -15.78589995 1.51565175
VERTEX2 1195 -3.02572687 -15.16224578 1.56810217
VERTEX2 1196 -3.02003236 -14.53838884 1.39559504
VERTEX2 1197 -2.91688565 -13.92354445 1.40696637
VERTEX2 1198 -2.84682319 -13.29676800 1.66598802
VERTEX2 1199 -2.86456695 -12.68429033 1.45146200
VERTEX2 1200 -2.80808626 -12.05422048 1.52059380
VERTEX2 1201 -2.78392768 -11.43444400 1.57653212
VERTEX2 1202 -2.79508149 -10.81189386 1.59957628
VERTEX2 1203 -2.82646503 -10.22229164 1.50975838
VERTEX2 1204 -2.71297567 -9.63039692 1.36308606
VERTEX2 1205 -2.60536486 -9.06757822 1.39273923
VERTEX2 1206 -2.52074221 -8.47770857 1.45405113
VERTEX2 1207 -2.38423372 -7.86651955 1.36803600
VERTEX2 1208 -2.27266261 -7.24159938 1.43279010
VERTEX2 1209 -2.18659840 -6.62003961 1.43090983
VERTEX2 1210 -2.12266358 -6.00265931 1.45153719
VERTEX2 1211 -1.99810457 -5.39089995 1.37851612
VERTEX2 1212 -1.88458913 -4.77931369 1.42834488
VERTEX2 1213 -1.81860523 -4.16532737 1.50140046
VERTEX2 1214 -1.73821922 -3.43940265 1.27838788
VERTEX2 1215 -1.57522961 -2.85604782 1.33714331
VERTEX2 1216 -1.52587531 -2.30233946 1.55407339
VERTEX2 1217 -1.49254487 -1.72183196 1.53445907
VERTEX2 1218 -1.47964002 -1.13195977 1.48365486
VERTEX2 1219 -1.42991372 -0.48353164 1.51410021
VERTEX2 1220 -1.42359936 0.10332822 1.60464436
VERTEX2 1221 -1.42362093 0.10340091 1.15154751
VERTEX2 1222 -1.41749455 0.10936971 0.55382397
VERTEX2 1223 -1.41267767 0.11050949 -0.00620024
VERTEX2 1224 -0.83877092 0.01788537 -0.18910824
VERTEX2 1225 -0.22349204 -0.09590224 -0.17534424
VERTEX2 1226 -0.11864013 -0.11458889 -0.19207524
VERTEX2 1227 -0.11864013 -0.11458889 -0.19273724
