1 48 88 2 668.12584291 0.00000319 1 
2 19 166 0 0.41485034 0.00210854 5 
3 19 172 0 0.02820697 0.00187289 4 
4 25 172 0 0.50366199 0.00188608 4 
5 25 178 0 0.30831851 0.00198369 4 
6 32 178 0 0.01493521 0.00199813 4 
7 32 183 0 0.07055611 0.00202057 4 
8 44 189 0 0.52863102 0.00208924 4 
9 44 195 0 0.35755137 0.00217392 4 
10 50 195 0 0.00572854 0.00220863 4 
11 50 201 0 0.04110605 0.00190954 3 
12 50 203 0 0.06975183 0.00187787 3 
13 61 203 0 0.00745912 0.00190753 3 
14 61 209 0 0.37222863 0.00231820 4 
15 67 209 0 0.41032090 0.00233005 4 
16 67 220 0 0.66144083 0.00250344 4 
17 81 220 0 0.48035877 0.00286505 5 
18 81 226 0 0.05402805 0.00257347 4 
19 87 226 0 1.82553139 0.00295016 5 
20 87 231 0 0.34656585 0.00262924 4 
21 94 231 0 0.55778528 0.00256850 4 
22 226 231 0 1.44127402 0.00299202 5 
23 94 241 0 1.33132047 0.00270017 4 
24 101 241 0 0.50961029 0.00272585 4 
25 101 247 0 1.66454674 0.00276902 4 
26 107 247 0 1.80094617 0.00278668 4 
27 72 247 2 4195.70790343 0.00000225 4 
28 107 254 0 1.18346605 0.00284940 4 
29 114 254 0 0.12939160 0.00287186 4 
30 107 256 0 0.93085039 0.00285477 4 
31 114 256 0 0.24629796 0.00286708 4 
32 107 258 0 1.37911724 0.00290721 4 
33 114 258 0 1.15747212 0.00293132 4 
34 121 266 0 0.00938596 0.00301059 4 
35 126 266 0 0.44864328 0.00355809 5 
36 126 272 0 1.03992836 0.00309885 4 
37 132 272 0 0.39070916 0.00365333 5 
38 132 278 0 0.58358145 0.00318335 4 
39 138 278 0 1.06458780 0.00373906 5 
40 138 284 0 0.02201259 0.00271555 3 
41 151 284 0 0.12777228 0.00329517 4 
42 151 291 0 0.60037557 0.00332242 4 
43 151 297 0 0.07972289 0.00285066 3 
44 157 297 0 1.04991834 0.00345734 4 
45 166 297 0 1.30507781 0.00339260 4 
46 19 305 0 0.16044642 0.00358024 4 
47 157 305 0 0.58687353 0.00360523 4 
48 163 305 0 7.56485476 0.00485396 6 
49 166 305 0 0.37495035 0.00360894 4 
50 172 305 0 0.01886255 0.00361072 4 
51 19 315 0 0.48455906 0.00310312 3 
52 25 315 0 0.02281386 0.00311899 3 
53 172 315 0 0.05679715 0.00373437 4 
54 172 328 0 0.12482725 0.00326072 3 
55 19 337 0 6.63404991 0.00467515 5 
56 25 337 0 0.96522419 0.00400420 4 
57 172 337 0 0.57611560 0.00333821 3 
58 124 337 2 3653.93266435 0.00000225 3 
59 19 342 0 0.00494520 0.00338798 3 
60 25 342 0 0.12855172 0.00407272 4 
61 172 342 0 0.01223902 0.00412283 4 
62 178 342 0 0.12442988 0.00418415 4 
63 84 357 2 297.45159839 0.00000314 1 
64 25 367 0 0.11414782 0.00379311 3 
65 32 367 0 0.01267433 0.00596154 6 
66 178 367 0 0.00286807 0.00378688 3 
67 183 367 0 0.06698524 0.00378033 3 
68 25 374 0 0.56424690 0.00459669 4 
69 32 374 0 0.09892849 0.00534666 5 
70 178 374 0 0.03055075 0.00462120 4 
71 183 374 0 0.05309447 0.00459304 4 
72 32 382 0 4.14688582 0.00392772 3 
73 183 382 0 1.28811506 0.00466390 4 
74 32 387 0 2.72468715 0.00474005 4 
75 183 387 0 0.18197642 0.00473339 4 
76 147 398 2 961.15066581 0.00000358 1 
77 337 402 2 808.64350427 0.00000268 1 
78 189 414 0 7.69047346 0.00586278 5 
79 44 437 0 0.00915802 0.00438702 3 
80 195 437 0 0.01161094 0.00436802 3 
81 44 454 0 0.65644164 0.00451919 3 
82 189 454 0 0.03962740 0.00542109 4 
83 44 467 0 0.12345281 0.00641659 5 
84 50 467 0 0.00895575 0.01024071 9 
85 195 467 0 0.00230988 0.00463877 3 
86 389 471 2 727.73863628 0.00000312 1 
87 393 476 2 416.93071290 0.00000334 1 
88 75 478 2 862.26533061 0.00000313 1 
89 43 478 2 1314.76743312 0.00000167 1 
90 195 484 0 0.09447226 0.00573875 4 
91 205 485 2 1619.70896311 0.00000304 1 
92 314 491 2 1443.73601137 0.00000242 1 
93 44 494 0 0.02880924 0.00580595 4 
94 50 494 0 0.00628832 0.00482937 3 
95 195 494 0 0.00818961 0.00683620 5 
96 201 494 0 0.00469852 0.00683174 5 
97 50 500 0 0.14406209 0.00696903 5 
98 201 500 0 0.05353930 0.00490353 3 
99 203 500 0 0.03252445 0.00487536 3 
100 61 508 0 0.99413579 0.00712243 5 
101 203 508 0 0.26947301 0.01225531 10 
102 209 508 0 0.03711473 0.00605504 4 
103 61 522 0 1.37942234 0.00614416 4 
104 203 522 0 0.12859200 0.00509026 3 
105 209 522 0 0.00542469 0.00511897 3 
106 61 528 0 0.47936102 0.00512677 3 
107 67 528 0 0.22419307 0.00626229 4 
108 81 528 0 0.23233822 0.00839766 6 
109 209 528 0 0.09444678 0.01062998 8 
110 220 528 0 0.13668760 0.00623210 4 
111 67 532 0 0.05459173 0.01181772 9 
112 81 532 0 0.11826401 0.00848421 6 
113 220 532 0 0.05648169 0.00635107 4 
114 219 539 2 435.53426308 0.00000277 1 
115 67 556 0 0.98233216 0.00648549 4 
116 67 564 0 0.40168838 0.01238430 9 
117 81 564 0 0.02280941 0.00667424 4 
118 220 564 0 0.02684857 0.00669097 4 
119 207 564 2 2668.16664627 0.00000266 4 
120 67 567 0 2.67253169 0.00782136 5 
121 81 567 0 0.48923871 0.00903312 6 
122 220 567 0 0.21723258 0.00666136 4 
123 67 570 0 2.40706627 0.00910114 6 
124 81 570 0 0.15671702 0.00903294 6 
125 220 570 0 0.13379867 0.00674720 4 
126 81 575 0 2.76594993 0.00792325 5 
127 220 575 0 1.08612706 0.01035585 7 
128 81 588 0 0.01497138 0.00567535 3 
129 87 588 0 0.47937722 0.00818335 5 
130 226 588 0 0.43156268 0.00692083 4 
131 87 597 0 2.27648751 0.00957798 6 
132 94 597 0 0.38888315 0.00700667 4 
133 226 597 0 0.55079633 0.00832553 5 
134 254 602 2 795.68498272 0.00000307 1 
135 87 604 0 0.47149562 0.00710736 4 
136 94 604 0 0.01542269 0.00841021 5 
137 94 616 0 0.01350372 0.01234278 8 
138 453 622 2 395.75216346 0.00000364 1 
139 554 627 2 935.94917823 0.00000378 1 
140 94 632 0 2.16969694 0.00879710 5 
141 94 637 0 4.44236402 0.01007402 6 
142 101 637 0 0.19098383 0.00750839 4 
143 101 642 0 0.11555601 0.00889763 5 
144 107 642 0 0.04025021 0.01409060 9 
145 101 645 0 6.69527511 0.00762619 4 
146 107 645 0 1.54205090 0.00751650 4 
147 177 647 2 150.72953296 0.00000346 1 
148 101 657 0 0.73548669 0.01669426 10 
149 101 663 0 0.04971914 0.01674507 10 
150 107 663 0 0.01781179 0.00914123 5 
151 114 663 0 0.00275957 0.00916212 5 
152 101 665 0 1.55112265 0.01347529 8 
153 107 665 0 0.47667103 0.00779990 4 
154 114 665 0 0.13329170 0.00649328 3 
155 296 665 2 5219.23423231 0.00000317 3 
156 509 668 2 1627.98753103 0.00000241 1 
157 366 671 2 1657.30920962 0.00000313 1 
158 107 680 0 1.48615866 0.00937273 5 
159 107 683 0 0.94462224 0.00802103 4 
160 114 683 0 0.32178225 0.00954053 5 
161 107 704 0 0.34268109 0.01263245 7 
162 114 704 0 0.07528002 0.01553557 9 
163 233 705 2 3014.26021172 0.00000354 1 
164 661 712 2 630.51435850 0.00000284 1 
165 107 714 0 1.79639085 0.01133098 6 
166 114 714 0 0.02860377 0.01439620 8 
167 115 715 2 7193.81511929 0.00000437 1 
168 181 716 2 5157.42464900 0.00000380 1 
169 99 720 2 488.38360393 0.00000400 1 
170 271 729 2 429.16336211 0.00000371 1 
171 107 730 0 0.19656714 0.01022455 5 
172 114 730 0 0.03540690 0.00855343 4 
173 260 740 2 215.48568457 0.00000369 1 
174 121 749 2 516.25019291 0.00000351 1 
175 121 754 0 0.33113739 0.00873963 4 
176 126 754 0 0.07673382 0.01511960 8 
177 356 755 2 3870.02351119 0.00000406 1 
178 121 759 0 2.33625684 0.01195059 6 
179 126 759 0 0.22329988 0.01203483 6 
180 126 762 0 7.08482229 0.01038789 5 
181 132 762 0 2.00372045 0.01533662 8 
182 489 766 2 1773.03303614 0.00000342 1 
183 717 772 2 789.79012016 0.00000362 1 
184 132 778 0 0.06999780 0.00902340 4 
185 479 779 2 1936.68362999 0.00000461 1 
186 132 792 0 1.26802734 0.00928960 4 
187 132 800 0 3.35686460 0.00917880 4 
188 138 800 0 0.14494330 0.01253635 6 
189 138 806 0 0.25140739 0.00752628 3 
190 314 806 2 2210.47412866 0.00000401 3 
191 691 807 2 840.67107189 0.00000351 1 
192 138 813 2 4373.28706439 0.00000415 1 
193 48 815 2 805.15799593 0.00000380 1 
194 89 818 2 1445.44024616 0.00000391 1 
195 138 821 0 0.40674396 0.01106055 5 
196 138 823 0 6.54725682 0.00935996 4 
197 151 828 0 3.12108818 0.00947668 4 
198 681 829 2 2050.76481444 0.00000464 1 
199 151 847 0 0.08724621 0.01142808 5 
200 80 852 2 1908.25323080 0.00000402 1 
201 151 855 0 0.11494457 0.01510304 7 
202 850 863 2 1494.94425979 0.00000442 1 
203 32 877 2 189.29399943 0.00000377 1 
204 667 884 2 999.88076882 0.00000492 1 
205 176 888 2 394.47531939 0.00000498 1 
206 370 891 2 44.68244217 0.00000388 1 
207 151 895 0 2.80701437 0.01759493 8 
208 151 897 0 0.06118057 0.02137121 10 
209 138 903 0 0.08157811 0.01021870 4 
210 138 904 0 7.06392298 0.01398071 6 
211 132 907 0 0.71874717 0.01027132 4 
212 138 907 0 0.22077132 0.01217604 5 
213 595 908 2 1712.82504585 0.00000406 1 
214 132 911 0 0.23128175 0.01220251 5 
215 602 921 2 508.55900287 0.00000491 1 
216 121 923 0 0.62636126 0.01433163 6 
217 126 923 0 0.07130653 0.01061496 4 
218 107 929 0 0.07225325 0.01251053 5 
219 114 929 0 0.00477553 0.01056980 4 
220 107 935 0 4.91438615 0.01649226 7 
221 114 935 0 1.40337639 0.01650188 7 
222 101 939 0 0.48567419 0.01067851 4 
223 107 939 0 0.21174614 0.01069878 4 
224 885 940 2 2110.66612478 0.00000390 1 
225 101 944 0 0.15377935 0.01277335 5 
226 6 945 2 1371.12690719 0.00000570 1 
227 434 946 2 1475.87400269 0.00000370 1 
228 94 947 0 0.23772432 0.01672576 7 
229 101 947 0 0.16826262 0.01476118 6 
230 672 950 2 1887.49663824 0.00000516 1 
231 87 953 0 0.13504795 0.01085741 4 
232 94 953 0 0.06505521 0.01489497 6 
233 226 953 0 0.08268323 0.02296097 10 
234 576 955 2 1503.75782762 0.00000496 1 
235 81 959 0 1.83528326 0.02435288 10 
236 87 959 0 1.29172246 0.01708389 7 
237 220 959 0 0.04883629 0.01100660 4 
238 226 959 0 0.12130941 0.01302826 5 
239 67 965 0 1.01368609 0.01312976 5 
240 81 965 0 0.31066014 0.01517346 6 
241 220 965 0 0.16483276 0.01926931 8 
242 315 973 2 2505.83830125 0.00000454 1 
243 770 975 2 1330.25844108 0.00000441 1 
244 61 976 0 0.16803746 0.01736856 7 
245 67 976 0 0.05676300 0.00913584 3 
246 209 976 0 0.00780965 0.01119892 4 
247 50 982 0 0.38354811 0.01137421 4 
248 61 982 0 0.27147698 0.01131200 4 
249 201 982 0 0.22200943 0.01133207 4 
250 203 982 0 0.10573284 0.02182866 9 
251 44 988 0 0.09550719 0.01144218 4 
252 50 988 0 0.05924873 0.01143040 4 
253 195 988 0 0.04319526 0.01565478 6 
254 201 988 0 0.02685916 0.01351310 5 
255 44 994 0 0.51683435 0.01788212 7 
256 189 994 0 0.29989154 0.02567741 10 
257 195 994 0 0.21957432 0.01369099 5 
258 686 1002 2 645.61488809 0.00000585 1 
259 32 1003 0 0.23901034 0.01382238 5 
260 178 1003 0 0.03356851 0.02598474 10 
261 183 1003 0 0.01433170 0.01601632 6 
262 25 1008 0 1.23858172 0.01832627 7 
263 32 1008 0 0.53803958 0.01182087 4 
264 178 1008 0 0.34459610 0.01179884 4 
265 183 1008 0 0.22233868 0.01181148 4 
266 619 1008 2 2827.56954193 0.00000515 4 
267 25 1010 0 0.60236133 0.01179838 4 
268 32 1010 0 0.30591807 0.01396589 5 
269 172 1010 0 0.10368354 0.01628490 6 
270 178 1010 0 0.19279072 0.02644929 10 
271 19 1016 0 0.44047719 0.02054153 8 
272 166 1016 0 0.20189646 0.01182676 4 
273 172 1016 0 0.07393216 0.01403185 5 
274 151 1029 0 0.03533130 0.01431895 5 
275 157 1029 0 0.02672450 0.01199533 4 
276 163 1029 0 3.39703566 0.01199473 4 
277 166 1029 0 0.49353449 0.01202811 4 
278 587 1045 2 636.95630327 0.00000634 1 
279 43 1081 2 979.45047023 0.00000588 1 
280 132 1084 0 4.21993706 0.01504206 5 
281 869 1090 2 1338.36245253 0.00000547 1 
282 711 1094 2 813.20072718 0.00000596 1 
283 133 1100 2 535.13918288 0.00000616 1 
284 1103 1107 2 6234.34459715 0.00000586 1 
285 845 1113 2 248.69722126 0.00000539 1 
286 101 1138 0 0.63021658 0.01576199 5 
287 107 1147 0 0.73708347 0.01328662 4 
288 114 1147 0 0.03971358 0.01080707 3 
289 813 1149 2 2268.67592411 0.00000657 1 
290 107 1150 0 7.45683387 0.01333176 4 
291 114 1150 0 1.00561260 0.01085615 3 
292 114 1158 0 0.16899687 0.01090401 3 
293 121 1158 0 0.69099743 0.01369288 4 
294 121 1164 0 0.45182924 0.01603723 5 
295 126 1164 0 0.04418665 0.01353278 4 
296 557 1166 2 1997.10712157 0.00000620 1 
297 308 1169 2 861.43117644 0.00000561 1 
298 681 1174 2 937.82135150 0.00000562 1 
299 114 1175 0 0.14266969 0.01363297 4 
300 121 1175 0 0.27324351 0.01367847 4 
301 923 1175 0 0.18719011 0.01372067 4 
302 929 1175 0 0.16073549 0.01366679 4 
303 1158 1175 0 0.00134797 0.01113418 3 
304 859 1180 2 1540.90877361 0.00000567 1 
305 505 1181 2 303.19340051 0.00000535 1 
306 101 1188 0 0.32950319 0.01381485 4 
307 939 1188 0 0.55418798 0.01380828 4 
308 1138 1188 0 0.03006025 0.01135731 3 
309 1147 1188 0 0.04063922 0.01128942 3 
310 1150 1188 0 1.83245351 0.01385945 4 
311 1062 1192 2 644.86558726 0.00000654 1 
312 202 1199 2 4289.59999717 0.00000545 1 
313 86 1206 2 1676.18337756 0.00000625 1 
314 1050 1210 0 0.00345523 0.01405707 4 
315 1061 1210 0 0.57363906 0.01672101 5 
316 1075 1210 0 0.23107861 0.01672272 5 
317 1084 1210 0 3.13555510 0.01672593 5 
318 1088 1210 0 0.59156319 0.01409193 4 
319 1093 1210 0 0.13111230 0.01936565 6 
320 1098 1210 0 0.04730346 0.01414149 4 
321 1198 1213 2 1186.72656325 0.00000577 1 
322 157 1217 0 0.32750279 0.01426175 4 
323 163 1217 0 0.19904338 0.01435478 4 
324 1029 1217 0 0.01250493 0.01165924 3 
325 1044 1217 0 3.98258990 0.01437818 4 
326 1050 1217 0 4.97161000 0.01704400 5 
327 1100 1221 2 1096.99734686 0.00000609 1 
328 726 1227 2 761.40039355 0.00000534 1 
329 163 297 0 0.27920255 0.01532257 4 
330 189 400 0 2.09679271 0.01470933 4 
331 1056 1217 0 9.66143264 0.01738424 5 
