VERTEX2 0 -0.00000525 -0.00000078 -0.00000009
VERTEX2 1 -0.00000526 -0.00000078 -0.00064209
VERTEX2 2 -0.00000526 -0.00000078 -0.00118009
VERTEX2 3 0.01099659 -0.00097576 -0.00356209
VERTEX2 4 0.64100317 -0.01120096 -0.00744409
VERTEX2 5 0.69601085 -0.01171645 -0.09872609
VERTEX2 6 0.70026396 -0.01543577 -0.89599808
VERTEX2 7 0.69395123 0.00421271 -1.51153508
VERTEX2 8 0.69925808 0.02669348 -2.12506908
VERTEX2 9 0.71610935 0.04112250 -2.76313908
VERTEX2 10 0.72897587 0.04321989 2.90551522
VERTEX2 11 0.73319845 0.04053685 2.23123622
VERTEX2 12 0.73318117 0.04154530 1.58176223
VERTEX2 13 0.73874733 0.05907039 0.92226423
VERTEX2 14 0.75965285 0.07375060 0.31402523
VERTEX2 15 0.76856625 0.07435754 -0.21090277
VERTEX2 16 1.06248830 0.01415208 -0.22959477
VERTEX2 17 1.66364194 -0.13311471 -0.26082277
VERTEX2 18 2.28699606 -0.29647984 -0.27099977
VERTEX2 19 2.91429196 -0.49425373 -0.31957577
VERTEX2 20 3.50769037 -0.68421290 -0.31365838
VERTEX2 21 4.11655393 -0.83651430 -0.20209576
VERTEX2 22 4.72626789 -0.97780830 -0.18471437
VERTEX2 23 5.36610734 -1.02208715 -0.07731138
VERTEX2 24 5.99753912 -1.09336148 -0.13439571
VERTEX2 25 6.63228915 -1.16113918 -0.13166230
VERTEX2 26 7.24118164 -1.26186057 -0.17223352
VERTEX2 27 7.85701086 -1.35341158 -0.15644111
VERTEX2 28 8.43855140 -1.45226182 -0.16092681
VERTEX2 29 8.81751567 -1.50985337 -0.13019903
VERTEX2 30 8.82669622 -1.51229825 -0.66241712
VERTEX2 31 8.92778805 -1.64805218 -0.93084160
VERTEX2 32 9.29564020 -2.16308284 -0.94942153
VERTEX2 33 9.68122465 -2.67455884 -0.89880361
VERTEX2 34 10.09614629 -3.16970876 -0.87795262
VERTEX2 35 10.52117052 -3.65714562 -0.84390094
VERTEX2 36 10.95271267 -4.14586029 -0.85267662
VERTEX2 37 11.23796340 -4.46495194 -0.84520509
VERTEX2 38 11.23961618 -4.46717214 -1.16726566
VERTEX2 39 11.23938054 -4.46576440 -1.33851006
VERTEX2 40 11.38443369 -5.04442228 -1.32145717
VERTEX2 41 11.53485976 -5.64822298 -1.35364980
VERTEX2 42 11.65751973 -6.21547037 -1.37655465
VERTEX2 43 11.76390421 -6.81438212 -1.41695154
VERTEX2 44 11.85318580 -7.41255050 -1.45411900
VERTEX2 45 11.90718073 -8.03209551 -1.50969568
VERTEX2 46 11.93711387 -8.65371672 -1.52913406
VERTEX2 47 11.95613947 -9.27518421 -1.57086037
VERTEX2 48 11.95152158 -9.90108252 -1.57745051
VERTEX2 49 11.94312963 -10.52292910 -1.62832404
VERTEX2 50 11.88863616 -11.11242131 -1.67285412
VERTEX2 51 11.83240659 -11.70843757 -1.70195979
VERTEX2 52 11.73421536 -12.29112075 -1.77872119
VERTEX2 53 11.63322209 -12.84828812 -1.76640238
VERTEX2 54 11.51926255 -13.35970065 -1.82851743
VERTEX2 55 11.52601638 -13.32764312 -1.82326878
VERTEX2 56 11.52540931 -13.32999416 -1.81272328
VERTEX2 57 11.38016391 -13.94748998 -1.82414052
VERTEX2 58 11.23234987 -14.55324663 -1.77792993
VERTEX2 59 11.10189627 -15.15851656 -1.80151579
VERTEX2 60 10.97084154 -15.76013267 -1.78013272
VERTEX2 61 10.83398739 -16.36223338 -1.83086408
VERTEX2 62 10.68250840 -16.92150044 -1.79100167
VERTEX2 63 10.52922348 -17.48555191 -1.82647527
VERTEX2 64 10.39253796 -18.04415421 -1.76306251
VERTEX2 65 10.25632006 -18.60055126 -1.81444927
VERTEX2 66 10.10097116 -19.18677905 -1.82244386
VERTEX2 67 9.93382328 -19.77649503 -1.82096401
VERTEX2 68 9.82284547 -20.22400168 -1.83675223
VERTEX2 69 9.82598361 -20.21386009 -1.99170511
VERTEX2 70 9.83285948 -20.20077866 -2.66600982
VERTEX2 71 9.85598579 -20.19950197 2.97457056
VERTEX2 72 9.86847028 -20.20105799 2.96510564
VERTEX2 73 9.87568912 -20.20285933 2.90018165
VERTEX2 74 9.87567974 -20.20283960 2.27843594
VERTEX2 75 9.88219445 -20.20540491 1.92612240
VERTEX2 76 9.87044613 -20.19231591 2.62007134
VERTEX2 77 9.86598832 -20.19043495 2.85305613
VERTEX2 78 9.58430647 -20.20042695 -3.09295526
VERTEX2 79 8.96584461 -20.23763904 -3.09820445
VERTEX2 80 8.33378231 -20.23457189 3.11047351
VERTEX2 81 7.70952152 -20.20645249 3.08448394
VERTEX2 82 7.10959425 -20.16422794 3.03039950
VERTEX2 83 6.52067880 -20.11144015 3.00690611
VERTEX2 84 5.95800354 -20.02414721 2.92910979
VERTEX2 85 5.41519439 -19.91882886 2.93640567
VERTEX2 86 4.80596958 -19.79666968 2.84663360
VERTEX2 87 4.41046335 -19.68688932 2.79455455
VERTEX2 88 4.05172500 -19.55292840 2.76478587
VERTEX2 89 4.06060289 -19.55338509 -3.12253788
VERTEX2 90 3.45480878 -19.55531892 3.12958918
VERTEX2 91 2.83824944 -19.54962744 -3.10446407
VERTEX2 92 2.23779776 -19.54415572 3.06308674
VERTEX2 93 1.61604128 -19.44003984 2.96227785
VERTEX2 94 0.99465039 -19.30005812 2.91954927
VERTEX2 95 0.37078232 -19.21053372 3.06218973
VERTEX2 96 -0.24149288 -19.15786547 3.08628995
VERTEX2 97 -0.83341482 -19.09337967 3.01572689
VERTEX2 98 -1.42387654 -18.99078575 2.95780217
VERTEX2 99 -2.13086566 -18.86456900 3.00466288
VERTEX2 100 -2.69743158 -18.75504898 2.95299519
VERTEX2 101 -3.31051959 -18.69705102 3.05635046
VERTEX2 102 -3.92474757 -18.61553102 2.95051774
VERTEX2 103 -4.53422104 -18.49947887 3.04654521
VERTEX2 104 -5.14763036 -18.42207809 3.01293100
VERTEX2 105 -5.76124082 -18.35657446 3.05955184
VERTEX2 106 -6.36425506 -18.28517501 3.00474944
VERTEX2 107 -6.98301308 -18.18803208 3.00099225
VERTEX2 108 -7.43865472 -18.13844159 3.06257565
VERTEX2 109 -7.48505322 -18.12661449 2.61409382
VERTEX2 110 -7.50230257 -18.10870950 2.02277243
VERTEX2 111 -7.50236317 -18.02798132 1.51694713
VERTEX2 112 -7.47762507 -17.39423057 1.57137041
VERTEX2 113 -7.49504521 -16.77195988 1.61839959
VERTEX2 114 -7.52723455 -16.15810466 1.65518149
VERTEX2 115 -7.59951206 -15.51900428 1.71549122
VERTEX2 116 -7.71724118 -14.76937729 1.75962367
VERTEX2 117 -7.85216200 -14.15975941 1.85523253
VERTEX2 118 -7.85658913 -14.13994533 1.52072262
VERTEX2 119 -7.80099694 -13.62162503 1.46740943
VERTEX2 120 -7.74881489 -12.96489762 1.55755290
VERTEX2 121 -7.76008417 -12.34437299 1.62506378
VERTEX2 122 -7.79463530 -11.76239658 1.68124657
VERTEX2 123 -7.81971238 -11.58282971 1.66843563
VERTEX2 124 -7.73409567 -11.34469697 1.24536671
VERTEX2 125 -7.51853804 -10.75269290 1.23440378
VERTEX2 126 -7.38712741 -10.13728658 1.44090523
VERTEX2 127 -7.29049262 -9.50339321 1.43896385
VERTEX2 128 -7.21594584 -8.86551127 1.47502792
VERTEX2 129 -7.13030647 -8.23130836 1.44202832
VERTEX2 130 -7.06334564 -7.59911710 1.49435560
VERTEX2 131 -7.01794634 -6.97271470 1.58245732
VERTEX2 132 -7.00031881 -6.34790094 1.53375146
VERTEX2 133 -6.95357888 -5.78119582 1.49667134
VERTEX2 134 -6.89963375 -5.18542088 1.47826577
VERTEX2 135 -6.81746704 -4.60899602 1.45191073
VERTEX2 136 -6.74290718 -3.97616140 1.47150253
VERTEX2 137 -6.64572419 -3.34465222 1.42974133
VERTEX2 138 -6.56910982 -2.71505667 1.51023290
VERTEX2 139 -6.55330720 -2.08345807 1.57565636
VERTEX2 140 -6.58259722 -1.42757810 1.60631196
VERTEX2 141 -6.58959810 -0.78682863 1.55802286
VERTEX2 142 -6.59100939 -0.13633162 1.55433520
VERTEX2 143 -6.51092060 0.50393098 1.44396472
VERTEX2 144 -6.47184540 0.87693463 1.46165936
VERTEX2 145 -6.46559830 0.89602072 0.96359447
VERTEX2 146 -6.46367864 0.90595560 0.37074468
VERTEX2 147 -6.40123074 0.90184959 -0.11545374
VERTEX2 148 -5.96281274 0.84300895 -0.15095228
VERTEX2 149 -5.31533593 0.75156450 -0.12570661
VERTEX2 150 -4.67434385 0.68973910 -0.11141550
VERTEX2 151 -4.02777353 0.64532369 -0.02560445
VERTEX2 152 -3.40421006 0.61392244 -0.08636509
VERTEX2 153 -2.78092988 0.58521332 0.00716999
VERTEX2 154 -2.16121929 0.56829947 -0.06228386
VERTEX2 155 -1.53770604 0.53902013 -0.02878935
VERTEX2 156 -0.91175918 0.52887863 0.00199842
VERTEX2 157 -0.34947745 0.51498059 -0.06234044
VERTEX2 158 -0.15494418 0.50237890 -0.03484522
VERTEX2 159 -0.14943395 0.50064999 0.95248434
VERTEX2 160 -0.14405192 0.50955268 1.98816497
VERTEX2 161 -0.16610940 0.45099632 2.70910977
VERTEX2 162 -0.14037413 0.45683385 -2.53827379
VERTEX2 163 -0.14136373 0.45183535 -1.54119106
VERTEX2 164 -0.21890562 0.54812948 -0.47877430
VERTEX2 165 -0.04553362 0.53096161 -0.07099069
VERTEX2 166 0.65160778 0.48802531 -0.06929086
VERTEX2 167 1.26789760 0.43794422 -0.09863859
VERTEX2 168 1.85562997 0.38888121 -0.08663108
VERTEX2 169 2.45039726 0.31753497 -0.12356473
VERTEX2 170 3.03643513 0.24940935 -0.14422152
VERTEX2 171 3.59751092 0.15119075 -0.18254894
VERTEX2 172 4.22230406 0.04383530 -0.16852649
VERTEX2 173 4.85080034 -0.07671310 -0.19143009
VERTEX2 174 5.47553032 -0.19089518 -0.15138426
VERTEX2 175 6.09133022 -0.28102835 -0.17616544
VERTEX2 176 6.69022836 -0.40124948 -0.16663457
VERTEX2 177 7.31307648 -0.50404421 -0.19436576
VERTEX2 178 7.93393308 -0.64996716 -0.23345643
VERTEX2 179 8.33692178 -0.73383249 -0.18018196
VERTEX2 180 8.38671094 -0.74726009 -0.62233116
VERTEX2 181 8.82714289 -1.06597699 -0.67418086
VERTEX2 182 9.23344583 -1.42662562 -0.84829107
VERTEX2 183 9.58031324 -1.84822553 -0.90571668
VERTEX2 184 9.92964736 -2.37641376 -1.05160126
VERTEX2 185 10.22223888 -2.92788180 -1.14367260
VERTEX2 186 10.44826724 -3.51136663 -1.20964868
VERTEX2 187 10.64954391 -4.07270454 -1.23194505
VERTEX2 188 10.85756621 -4.65354124 -1.23708145
VERTEX2 189 11.05805546 -5.23833622 -1.26355656
VERTEX2 190 11.24088098 -5.84219783 -1.29254018
VERTEX2 191 11.41325383 -6.44541078 -1.31680293
VERTEX2 192 11.56660100 -7.04212366 -1.34532999
VERTEX2 193 11.68911408 -7.59031011 -1.40121346
VERTEX2 194 11.78784426 -8.15954751 -1.42812086
VERTEX2 195 11.86697936 -8.72411294 -1.45686778
VERTEX2 196 11.93241736 -9.34956823 -1.49768925
VERTEX2 197 11.96910885 -9.97099597 -1.52521771
VERTEX2 198 11.99303836 -10.58982702 -1.58344488
VERTEX2 199 11.96367132 -11.19811939 -1.64491296
VERTEX2 200 11.91525399 -11.80122493 -1.66683575
VERTEX2 201 11.84310608 -12.40086855 -1.72354425
VERTEX2 202 11.77802799 -12.90609887 -1.70335428
VERTEX2 203 11.67446742 -13.64010394 -1.75607399
VERTEX2 204 11.55138513 -14.21607270 -1.85800583
VERTEX2 205 11.38073186 -14.77774065 -1.86737896
VERTEX2 206 11.22529558 -15.32443768 -1.86540176
VERTEX2 207 11.06412662 -15.89086607 -1.84938783
VERTEX2 208 10.88926861 -16.48994806 -1.85875520
VERTEX2 209 10.72566537 -17.09053439 -1.82047617
VERTEX2 210 10.56123263 -17.68310483 -1.82931731
VERTEX2 211 10.41080815 -18.27947525 -1.82703927
VERTEX2 212 10.23281552 -18.86538921 -1.87987313
VERTEX2 213 10.03622187 -19.45496711 -1.90063455
VERTEX2 214 9.83483066 -20.03094958 -1.90442780
VERTEX2 215 9.71889798 -20.35327016 -1.94020762
VERTEX2 216 9.73068683 -20.33318409 -2.43882619
VERTEX2 217 9.75591865 -20.33053553 -2.98094375
VERTEX2 218 9.76481757 -20.33396990 -3.03694915
VERTEX2 219 9.19823401 -20.28871946 3.07775530
VERTEX2 220 8.58895124 -20.24333785 3.03790459
VERTEX2 221 7.94917593 -20.17571755 3.08846719
VERTEX2 222 7.32290045 -20.13201973 3.06299460
VERTEX2 223 6.69604777 -20.10169670 -3.12376965
VERTEX2 224 6.08088124 -20.10161173 3.13370591
VERTEX2 225 5.46213930 -20.09522061 -3.09970308
VERTEX2 226 4.84434497 -20.08813499 3.13446259
VERTEX2 227 4.19864550 -20.15666385 -2.99194744
VERTEX2 228 3.67416433 -20.14029104 2.92985464
VERTEX2 229 3.22636401 -20.10088376 3.05050170
VERTEX2 230 2.93482471 -20.08460639 3.02179265
VERTEX2 231 3.13843875 -20.10254560 3.09194910
VERTEX2 232 2.82539366 -19.96176017 2.66635604
VERTEX2 233 2.25845500 -19.69953015 2.76875735
VERTEX2 234 1.67904529 -19.47135701 2.72464814
VERTEX2 235 1.43020967 -19.36373893 2.71968054
VERTEX2 236 1.09576817 -19.36469390 3.12516565
VERTEX2 237 0.46777401 -19.37920382 -3.08761459
VERTEX2 238 -0.15256146 -19.42726985 -3.12034551
VERTEX2 239 -0.76899605 -19.42390583 3.09521250
VERTEX2 240 -1.33844210 -19.30557956 2.87711246
VERTEX2 241 -1.87783827 -19.17383074 2.96252273
VERTEX2 242 -2.45355947 -19.10775153 3.00214809
VERTEX2 243 -3.05592990 -19.02343162 3.00152831
VERTEX2 244 -3.68176746 -18.97680887 3.07293559
VERTEX2 245 -4.29826434 -18.92711784 3.01880297
VERTEX2 246 -4.90227199 -18.84000473 2.94649287
VERTEX2 247 -5.50768520 -18.75674902 3.05249726
VERTEX2 248 -6.06292126 -18.73468029 3.08391016
VERTEX2 249 -6.01508565 -18.74191933 -3.00632947
VERTEX2 250 -6.01263641 -18.74181433 2.69003129
VERTEX2 251 -6.33541426 -18.40088817 2.26674743
VERTEX2 252 -6.69164040 -17.98012892 2.27530427
VERTEX2 253 -7.06403026 -17.53369072 2.26435730
VERTEX2 254 -7.42992891 -17.07500572 2.22320806
VERTEX2 255 -7.50313983 -16.98202319 2.30708648
VERTEX2 256 -7.50610414 -16.90489855 1.83113051
VERTEX2 257 -7.55788850 -16.44479222 1.69573155
VERTEX2 258 -7.64150554 -15.85521841 1.77620046
VERTEX2 259 -7.78564477 -15.24916757 1.81699963
VERTEX2 260 -7.92011478 -14.68741735 1.80879616
VERTEX2 261 -7.91789053 -14.65051932 1.49767141
VERTEX2 262 -7.85547761 -13.99961959 1.50452077
VERTEX2 263 -7.81405699 -13.38196788 1.51814973
VERTEX2 264 -7.79993643 -12.77735296 1.61537940
VERTEX2 265 -7.83250197 -12.17308885 1.63567298
VERTEX2 266 -7.78551780 -11.59523084 1.50664026
VERTEX2 267 -7.73776317 -10.85580030 1.48191390
VERTEX2 268 -7.61457505 -10.26912519 1.37905655
VERTEX2 269 -7.49489635 -9.64080153 1.40548813
VERTEX2 270 -7.42280759 -9.01121121 1.51577987
VERTEX2 271 -7.32441777 -8.37932649 1.40195948
VERTEX2 272 -7.23406599 -7.74515840 1.46477031
VERTEX2 273 -7.24221070 -7.11392714 1.67625834
VERTEX2 274 -7.30755599 -6.49969426 1.69993960
VERTEX2 275 -7.29323789 -5.89003644 1.52820731
VERTEX2 276 -7.28389866 -5.28157997 1.64264408
VERTEX2 277 -7.32814516 -4.71918028 1.61715460
VERTEX2 278 -7.28181315 -4.07602062 1.52872322
VERTEX2 279 -7.23951506 -3.43995726 1.47318595
VERTEX2 280 -7.16863443 -2.80767377 1.47519648
VERTEX2 281 -7.07507403 -2.17237089 1.37485525
VERTEX2 282 -6.95192857 -1.54193233 1.41495155
VERTEX2 283 -6.86225322 -0.90682612 1.40747560
VERTEX2 284 -6.74748917 -0.28075478 1.43514436
VERTEX2 285 -6.67945617 0.36884029 1.45640329
VERTEX2 286 -6.61209529 0.99072490 1.51023025
VERTEX2 287 -6.60924334 1.04184706 1.40609997
VERTEX2 288 -6.60368765 1.05182763 0.79829708
VERTEX2 289 -6.59405005 1.05688069 0.20561258
VERTEX2 290 -6.14495923 1.04823285 -0.01908565
VERTEX2 291 -5.51370701 1.04077852 -0.00507349
VERTEX2 292 -4.89742642 1.02143955 -0.05973916
VERTEX2 293 -4.27266072 0.97653093 -0.08282955
VERTEX2 294 -3.65149562 0.92456247 -0.08217944
VERTEX2 295 -3.02978567 0.84443476 -0.19471778
VERTEX2 296 -2.41337532 0.69991305 -0.24016911
VERTEX2 297 -1.79918154 0.54844256 -0.25192174
VERTEX2 298 -1.18886887 0.39416812 -0.25260766
VERTEX2 299 -0.61512128 0.23753024 -0.19146713
VERTEX2 300 -0.02893296 0.15157942 -0.14933576
VERTEX2 301 0.53267829 0.05173964 -0.20857146
VERTEX2 302 0.83372615 -0.01325543 -0.22954275
VERTEX2 303 0.81532307 -0.00951134 -0.22547073
VERTEX2 304 1.31498901 -0.12531715 -0.21599891
VERTEX2 305 1.92988919 -0.17032703 -0.03226583
VERTEX2 306 2.55932757 -0.18171824 -0.05042469
VERTEX2 307 3.19849424 -0.23041268 -0.08722602
VERTEX2 308 3.82609643 -0.29421010 -0.14292180
VERTEX2 309 4.46101640 -0.35546952 -0.05011887
VERTEX2 310 5.08865408 -0.38632311 -0.08612009
VERTEX2 311 5.36965836 -0.41268159 0.08878360
VERTEX2 312 5.36677438 -0.41418179 1.07632608
VERTEX2 313 5.37147489 -0.19523411 1.57189360
VERTEX2 314 5.35213805 0.43350226 1.61162259
VERTEX2 315 5.32381489 1.06163023 1.60724412
VERTEX2 316 5.28421670 1.70670753 1.65842311
VERTEX2 317 5.22340733 2.34843743 1.66822110
VERTEX2 318 5.12514093 2.98556361 1.76259382
VERTEX2 319 5.04575287 3.33262998 1.83378710
VERTEX2 320 5.04781540 3.33900613 2.80181366
VERTEX2 321 5.03987401 3.33559374 -2.44216848
VERTEX2 322 5.03899357 3.33377784 -1.44643473
VERTEX2 323 5.04955746 3.32358978 -0.45448946
VERTEX2 324 5.05409076 3.32210891 0.20503315
VERTEX2 325 5.05553649 3.32222279 -0.32294168
VERTEX2 326 5.07093742 3.31063314 -0.91848292
VERTEX2 327 5.07429275 3.29477790 -1.54219753
VERTEX2 328 5.05788144 2.65699355 -1.58887304
VERTEX2 329 5.03583413 2.03047082 -1.64527971
VERTEX2 330 4.98143872 1.41535264 -1.66575002
VERTEX2 331 4.92603778 0.79894375 -1.68149306
VERTEX2 332 4.84618363 0.18562334 -1.70147490
VERTEX2 333 4.82436152 0.03129764 -1.63800022
VERTEX2 334 4.83334145 0.03300685 -0.84473636
VERTEX2 335 4.85037529 0.02795545 0.14628132
VERTEX2 336 4.86323569 0.03246208 1.08745248
VERTEX2 337 4.86819842 0.06327400 2.06645572
VERTEX2 338 4.86535043 0.06525131 3.05595736
VERTEX2 339 4.87714364 0.07256696 -2.17727680
VERTEX2 340 4.87730872 0.07125118 -1.15746288
VERTEX2 341 4.99067905 0.00276092 -0.52372763
VERTEX2 342 5.56370789 -0.30229097 -0.42163186
VERTEX2 343 6.14233924 -0.50402601 -0.29000340
VERTEX2 344 6.73172694 -0.68756782 -0.29939408
VERTEX2 345 6.97041917 -0.75793040 -0.32621408
VERTEX2 346 6.95708358 -0.75356061 -0.97178956
VERTEX2 347 6.95950796 -0.84225511 -1.52895267
VERTEX2 348 6.97733837 -1.43315039 -1.54503243
VERTEX2 349 6.97503794 -2.05295042 -1.58463062
VERTEX2 350 6.96182281 -2.84134237 -1.60364833
VERTEX2 351 6.94754501 -3.11539541 -1.63199753
VERTEX2 352 6.94567984 -3.12428730 -1.91881320
VERTEX2 353 6.93392634 -3.13870495 -2.58175110
VERTEX2 354 6.92008407 -3.14267682 3.10034783
VERTEX2 355 6.89976428 -3.14196375 2.38202179
VERTEX2 356 6.89394729 -3.13169338 1.80898763
VERTEX2 357 6.89656882 -3.11599763 1.15835426
VERTEX2 358 6.89755326 -3.11462573 0.54523186
VERTEX2 359 6.88577729 -3.11967756 -0.06646305
VERTEX2 360 6.87108537 -3.11677586 -0.24152742
VERTEX2 361 6.86287709 -3.11892640 0.68115671
VERTEX2 362 6.94782605 -2.88780364 1.21695090
VERTEX2 363 7.05041909 -2.61942959 1.21133263
VERTEX2 364 6.98090458 -2.28302798 1.82807913
VERTEX2 365 6.92521443 -1.99363523 1.33276706
VERTEX2 366 7.03388815 -1.87050098 0.78058363
VERTEX2 367 7.47957606 -1.43509071 0.78341989
VERTEX2 368 7.93595884 -0.99845647 0.73549795
VERTEX2 369 7.95594188 -0.97430806 0.48369553
VERTEX2 370 7.98027581 -0.97041336 -0.10303060
VERTEX2 371 7.98624108 -0.97350566 -0.64846509
VERTEX2 372 8.41499477 -1.32196551 -0.67612290
VERTEX2 373 8.88746187 -1.68668474 -0.67412463
VERTEX2 374 9.36636890 -2.08969238 -0.73524724
VERTEX2 375 9.72597711 -2.40941487 -0.76611479
VERTEX2 376 9.73772218 -2.41659113 -0.07341218
VERTEX2 377 9.78781166 -2.38093092 0.61980081
VERTEX2 378 10.32272142 -1.98317035 0.67272116
VERTEX2 379 10.80189165 -1.55298273 0.75620258
VERTEX2 380 11.24136927 -1.08654688 0.87414898
VERTEX2 381 11.38734361 -0.90662015 1.02258801
VERTEX2 382 11.38853775 -0.90444256 2.06765010
VERTEX2 383 11.38575908 -0.90274186 3.05462681
VERTEX2 384 11.38312202 -0.90524174 -2.26471492
VERTEX2 385 11.37801273 -0.91382824 -1.23450108
VERTEX2 386 11.48194626 -1.04885512 -1.00951862
VERTEX2 387 11.93723212 -1.47038387 -0.67770156
VERTEX2 388 12.39695731 -1.82471261 -0.67049621
VERTEX2 389 12.83175155 -2.19811917 -0.75485843
VERTEX2 390 12.84103939 -2.20624167 -0.28399034
VERTEX2 391 12.65276821 -2.19841207 0.09230511
VERTEX2 392 12.59668360 -2.19926067 1.12410445
VERTEX2 393 12.59710925 -2.13684908 2.36377477
VERTEX2 394 12.53107356 -2.11030394 -2.93617350
VERTEX2 395 12.72045369 -2.00798458 -2.60281925
VERTEX2 396 12.69702383 -2.02039401 -2.60496294
VERTEX2 397 12.65683428 -2.02997223 -2.61808200
VERTEX2 398 12.63983020 -2.04447330 -2.42386364
VERTEX2 399 12.56593364 -2.15181044 -2.12883407
VERTEX2 400 12.21787479 -2.71102053 -2.08090636
VERTEX2 401 11.88070780 -3.25637561 -2.17476002
VERTEX2 402 11.40883920 -3.71934082 -2.44404792
VERTEX2 403 10.89890383 -4.13630143 -2.47944011
VERTEX2 404 10.39706915 -4.50253739 -2.55981585
VERTEX2 405 10.37805415 -4.51994305 -2.02866509
VERTEX2 406 10.37297571 -4.47923953 -1.05501863
VERTEX2 407 10.55273879 -4.72635057 -0.92852404
VERTEX2 408 10.88210376 -5.17902207 -0.96778973
VERTEX2 409 11.01394709 -5.38310803 -1.06880795
VERTEX2 410 11.00457594 -5.34709020 -1.69979446
VERTEX2 411 11.17576744 -4.90390740 -2.57430860
VERTEX2 412 10.62089866 -5.12570217 -2.77907532
VERTEX2 413 9.98035178 -5.34274931 -2.85999267
VERTEX2 414 9.33335297 -5.54833259 -2.75754730
VERTEX2 415 8.72599073 -5.78607586 -2.74988636
VERTEX2 416 8.43692689 -5.91454770 -2.80438886
VERTEX2 417 8.14584690 -5.89877164 3.05560902
VERTEX2 418 7.70868415 -5.85619989 3.01109999
VERTEX2 419 7.71037792 -5.85581848 -2.83984622
VERTEX2 420 7.76113674 -5.83321288 -2.62277827
VERTEX2 421 7.76232979 -5.83133685 -1.65340404
VERTEX2 422 7.75741622 -5.83823438 -0.41195479
VERTEX2 423 7.75712876 -5.83821051 -0.06555126
VERTEX2 424 7.75140985 -5.83815680 -0.06457226
VERTEX2 425 7.74053340 -5.84430228 -0.05222092
VERTEX2 426 7.73466172 -5.84431480 -0.06072599
VERTEX2 427 7.76132761 -5.84569556 -0.05699443
VERTEX2 428 8.41759181 -5.86660298 -0.06191169
VERTEX2 429 9.05630659 -5.91523442 -0.10210811
VERTEX2 430 9.39230066 -5.95505971 -0.14762260
VERTEX2 431 9.36429261 -5.95172329 -0.09512007
VERTEX2 432 9.37163275 -5.95430895 -0.72574526
VERTEX2 433 9.37551237 -5.95962864 -1.40189542
VERTEX2 434 9.33897167 -6.49768812 -1.62945017
VERTEX2 435 9.30685718 -7.13953523 -1.65729218
VERTEX2 436 9.22907943 -7.77878639 -1.66561276
VERTEX2 437 9.17699386 -8.42778050 -1.65719072
VERTEX2 438 9.12532571 -8.89605629 -1.68727571
VERTEX2 439 9.12357548 -8.90262631 -2.12229721
VERTEX2 440 9.12914836 -8.89826177 -2.76415335
VERTEX2 441 9.14368400 -8.89683791 2.89826038
VERTEX2 442 9.14950223 -8.90003046 2.27014089
VERTEX2 443 9.14963794 -8.90240431 1.70496034
VERTEX2 444 9.15256155 -8.88715145 1.11519209
VERTEX2 445 9.15796328 -8.88200261 0.45895292
VERTEX2 446 9.15684186 -8.88270320 0.66135625
VERTEX2 447 9.16841034 -8.86034628 1.29464413
VERTEX2 448 9.31912816 -8.23921293 1.31237910
VERTEX2 449 9.45277163 -7.60358451 1.41397387
VERTEX2 450 9.54759971 -6.96734906 1.42785356
VERTEX2 451 9.60094551 -6.49739358 1.47057379
VERTEX2 452 9.60101359 -6.49672196 1.09269007
VERTEX2 453 9.59779395 -6.50252862 0.47074181
VERTEX2 454 9.85898213 -6.48290524 0.04884791
VERTEX2 455 10.45692044 -6.45905920 0.02827890
VERTEX2 456 11.08835587 -6.45521680 -0.03631567
VERTEX2 457 11.44151425 -6.47804704 -0.12403947
VERTEX2 458 11.43626434 -6.47543138 -0.76993852
VERTEX2 459 11.42765279 -6.44038284 -1.37815098
VERTEX2 460 11.40654725 -6.83848957 -1.63515352
VERTEX2 461 11.33715948 -7.45459382 -1.72308718
VERTEX2 462 11.24915646 -7.96365484 -1.76308547
VERTEX2 463 11.26046040 -7.94157441 -0.92279205
VERTEX2 464 11.51519007 -8.01430022 -0.24465845
VERTEX2 465 12.09823576 -8.14781978 -0.23689845
VERTEX2 466 12.65101431 -8.29955888 -0.29252165
VERTEX2 467 13.22113568 -8.48190094 -0.33596603
VERTEX2 468 13.83585564 -8.70111570 -0.37126271
VERTEX2 469 14.42727177 -8.96750000 -0.45393457
VERTEX2 470 14.88129831 -9.18367145 -0.43480048
VERTEX2 471 14.88990401 -9.18834596 -0.63423922
VERTEX2 472 14.90714972 -9.21245428 -1.26604583
VERTEX2 473 14.90862150 -9.21972233 -1.90576987
VERTEX2 474 14.90707948 -9.22165127 -2.53624975
VERTEX2 475 14.90948372 -9.22132554 -3.10987990
VERTEX2 476 14.91190642 -9.22165758 2.52226037
VERTEX2 477 14.91635503 -9.23038761 1.96287883
VERTEX2 478 14.91709638 -9.24025620 1.33597974
VERTEX2 479 14.91609302 -9.24254711 0.88180223
VERTEX2 480 14.91640084 -9.24185528 1.44396800
VERTEX2 481 14.91279418 -9.22617529 2.44622069
VERTEX2 482 14.91718755 -9.22794625 2.78241972
VERTEX2 483 14.92379145 -9.23034703 2.77706256
VERTEX2 484 14.49800579 -9.07137760 2.81260937
VERTEX2 485 13.89969550 -8.88140104 2.81031567
VERTEX2 486 13.29874488 -8.66741761 2.81986553
VERTEX2 487 12.68907397 -8.48667564 2.84816592
VERTEX2 488 12.07711210 -8.30406182 2.88431043
VERTEX2 489 11.60705338 -8.19552480 2.91476292
VERTEX2 490 11.61172053 -8.19508068 -2.88324939
VERTEX2 491 11.61922356 -8.18521969 -1.94701492
VERTEX2 492 11.60213723 -8.41485418 -1.64392965
VERTEX2 493 11.53939018 -9.01856818 -1.69895197
VERTEX2 494 11.45124792 -9.62954763 -1.75984179
VERTEX2 495 11.38114073 -10.25249158 -1.65269106
VERTEX2 496 11.33638239 -10.87670009 -1.53498135
VERTEX2 497 11.32846065 -11.49439441 -1.62104307
VERTEX2 498 11.25885172 -12.11568943 -1.72286243
VERTEX2 499 11.12721826 -12.74201561 -1.73988653
VERTEX2 500 11.18415113 -13.30857740 -1.41096181
VERTEX2 501 11.25791668 -13.88773556 -1.48307046
VERTEX2 502 11.28091149 -14.58293149 -1.56756846
VERTEX2 503 11.27579791 -15.02952364 -1.58454955
VERTEX2 504 11.28099018 -15.01494275 -0.72810661
VERTEX2 505 11.51842252 -15.04246951 -0.10635334
VERTEX2 506 12.10988868 -15.12529502 -0.25891237
VERTEX2 507 12.69037378 -15.29620701 -0.33746533
VERTEX2 508 13.25871899 -15.50877128 -0.35073203
VERTEX2 509 13.87771731 -15.74333459 -0.40663997
VERTEX2 510 14.23362558 -15.90299796 -0.42054164
VERTEX2 511 14.23190333 -15.88588822 0.45482544
VERTEX2 512 14.25366490 -15.84024022 1.65217958
VERTEX2 513 14.25023851 -15.83007581 2.60768629
VERTEX2 514 14.18263204 -15.81097047 2.83397360
VERTEX2 515 13.57249738 -15.62887682 2.83509178
VERTEX2 516 12.98789991 -15.43372095 2.85100305
VERTEX2 517 12.39527512 -15.28447638 2.87921036
VERTEX2 518 11.80300008 -15.13209839 2.90357459
VERTEX2 519 11.28117731 -15.00714294 2.88789007
VERTEX2 520 11.11331614 -14.96307614 -2.99683311
VERTEX2 521 11.13547428 -14.93875198 -1.99313932
VERTEX2 522 11.06925381 -15.33474574 -1.72883996
VERTEX2 523 10.97645820 -15.95466518 -1.73619678
VERTEX2 524 10.87133201 -16.52849638 -1.77808193
VERTEX2 525 10.76618954 -17.07045543 -1.75438184
VERTEX2 526 10.64875950 -17.63911410 -1.81311205
VERTEX2 527 10.49968582 -18.21805212 -1.84784805
VERTEX2 528 10.31609093 -18.78457652 -1.92373457
VERTEX2 529 10.10266714 -19.38601791 -1.95202380
VERTEX2 530 9.85419467 -19.98470499 -1.98209697
VERTEX2 531 9.58330437 -20.55902816 -2.06190604
VERTEX2 532 9.48490185 -20.74473086 -2.01128463
VERTEX2 533 9.48242250 -20.73255427 -1.01152092
VERTEX2 534 9.48302502 -20.73293904 -0.34448380
VERTEX2 535 9.48639508 -20.73323232 -0.34483989
VERTEX2 536 9.84275449 -20.81762374 -0.21411347
VERTEX2 537 10.44890014 -20.96686313 -0.27210273
VERTEX2 538 11.00832029 -21.13681307 -0.29921138
VERTEX2 539 11.61565335 -21.34663033 -0.36397455
VERTEX2 540 12.20170346 -21.60057607 -0.45686412
VERTEX2 541 12.78816124 -21.82933978 -0.29455821
VERTEX2 542 13.41863948 -21.97210791 -0.23885465
VERTEX2 543 13.54014187 -22.00276491 -0.26851929
VERTEX2 544 13.56136431 -22.00063113 0.36849146
VERTEX2 545 13.58507756 -21.95770530 1.43468111
VERTEX2 546 13.60240592 -22.00300167 2.26170988
VERTEX2 547 13.61069434 -22.00245825 -2.99981364
VERTEX2 548 13.62431547 -21.99374829 -2.07692833
VERTEX2 549 13.62599848 -21.98241516 -1.27032506
VERTEX2 550 13.62481754 -21.96147954 -1.75012485
VERTEX2 551 13.63332400 -21.94430934 -2.37649871
VERTEX2 552 13.65172730 -21.93518099 -3.00895816
VERTEX2 553 13.51487777 -21.88263063 2.69694168
VERTEX2 554 12.92347077 -21.59774242 2.66148154
VERTEX2 555 12.34483335 -21.32197014 2.75035211
VERTEX2 556 11.74117774 -21.10271950 2.88545108
VERTEX2 557 11.14115547 -20.93101771 2.84424919
VERTEX2 558 10.56522314 -20.77318355 2.92528830
VERTEX2 559 10.57258843 -20.77567993 2.51835091
VERTEX2 560 10.56529111 -20.76769627 2.01744381
VERTEX2 561 10.54192399 -20.74495385 2.52269349
VERTEX2 562 10.36350257 -20.74472418 -3.11689725
VERTEX2 563 9.79319236 -20.66557744 2.97448659
VERTEX2 564 9.18827605 -20.57338828 3.02326834
VERTEX2 565 8.59790430 -20.50143245 2.96569683
VERTEX2 566 8.65870318 -20.52042196 -2.53384457
VERTEX2 567 8.56417714 -20.52729274 -1.74073086
VERTEX2 568 8.51242811 -21.03522809 -1.67664440
VERTEX2 569 8.46007644 -21.61052684 -1.71579631
VERTEX2 570 8.39030233 -22.19090497 -1.71104265
VERTEX2 571 8.33720179 -22.54614517 -1.75853668
VERTEX2 572 8.30343151 -22.57074937 -2.00175562
VERTEX2 573 8.26828947 -22.65005720 -1.72545399
VERTEX2 574 8.28883670 -22.67904285 -0.78611991
VERTEX2 575 8.44232758 -22.72941255 0.13560391
VERTEX2 576 8.44146587 -22.72872285 1.16326050
VERTEX2 577 8.43470116 -22.71079283 2.13535387
VERTEX2 578 8.42514272 -22.67837965 1.77118849
VERTEX2 579 8.30082443 -22.02627568 1.78622282
VERTEX2 580 8.13953622 -21.38635294 1.86138270
VERTEX2 581 7.94556414 -20.76237753 1.90378093
VERTEX2 582 7.72411939 -20.14744121 1.94693732
VERTEX2 583 7.59418204 -19.83871200 2.02633070
VERTEX2 584 7.58845320 -19.82757954 2.87025141
VERTEX2 585 7.00444804 -19.68702263 2.98868987
VERTEX2 586 6.40987272 -19.61215084 3.08640170
VERTEX2 587 5.79022725 -19.60099077 3.11196189
VERTEX2 588 5.15963255 -19.57488052 3.11658358
VERTEX2 589 4.62085160 -19.59935736 -3.09126591
VERTEX2 590 4.07117270 -19.64319173 -3.02255383
VERTEX2 591 3.53186121 -19.72186887 -3.02447018
VERTEX2 592 2.98353444 -19.79597310 -3.02721776
VERTEX2 593 2.80565409 -19.81821037 -2.82198962
VERTEX2 594 2.84714564 -19.77359999 -1.90209641
VERTEX2 595 2.73378531 -20.38033472 -1.66928259
VERTEX2 596 2.68099876 -21.00401846 -1.69242588
VERTEX2 597 2.58888288 -21.67839410 -1.73236546
VERTEX2 598 2.48633283 -22.27364812 -1.77456845
VERTEX2 599 2.39855385 -22.64771614 -1.84079970
VERTEX2 600 2.39871027 -22.66121673 -1.03440669
VERTEX2 601 2.43995040 -22.68667721 -0.01647250
VERTEX2 602 2.47066488 -22.67433330 0.99794577
VERTEX2 603 2.43673155 -22.44191593 1.77082396
VERTEX2 604 2.37691692 -21.83208156 1.52682343
VERTEX2 605 2.38638249 -21.18594966 1.60948069
VERTEX2 606 2.34654864 -20.54001015 1.65162720
VERTEX2 607 2.35809921 -19.95169565 1.57068078
VERTEX2 608 2.34533455 -19.56727317 1.61523540
VERTEX2 609 2.34183751 -19.54662455 1.95169005
VERTEX2 610 2.33325901 -19.54351485 2.88464395
VERTEX2 611 1.73718431 -19.39262435 2.88773666
VERTEX2 612 1.26400350 -19.25752719 2.89067291
VERTEX2 613 1.29866820 -19.26813945 -2.92847295
VERTEX2 614 1.30409019 -19.26404230 -1.88998685
VERTEX2 615 1.31580940 -19.74965551 -1.58523556
VERTEX2 616 1.32137546 -20.37167954 -1.63626164
VERTEX2 617 1.18241733 -20.97419132 -1.85315063
VERTEX2 618 1.01214866 -21.57946661 -1.84283303
VERTEX2 619 0.85030181 -22.15025662 -1.84400963
VERTEX2 620 0.66594112 -22.72542051 -1.93987245
VERTEX2 621 0.79516544 -22.39274956 -1.99111433
VERTEX2 622 0.91884884 -22.12915323 -2.06583132
VERTEX2 623 0.91821676 -22.13000750 -2.60231668
VERTEX2 624 0.88852934 -22.12967919 3.03894939
VERTEX2 625 0.84676100 -22.11276977 2.38111001
VERTEX2 626 0.81859437 -22.08038949 1.76373347
VERTEX2 627 0.89160264 -21.70866465 1.35337360
VERTEX2 628 1.07106949 -21.08230341 1.25260143
VERTEX2 629 1.24346166 -20.45527106 1.32366942
VERTEX2 630 1.36973063 -19.84801881 1.40866247
VERTEX2 631 1.44252533 -19.31868136 1.42871256
VERTEX2 632 1.44521886 -19.30284613 2.10445605
VERTEX2 633 1.34659318 -19.29610566 -3.09264592
VERTEX2 634 0.67894075 -19.33269028 -3.06528081
VERTEX2 635 0.02548562 -19.34314375 3.08285865
VERTEX2 636 -0.61661433 -19.31430758 3.06526673
VERTEX2 637 -1.24527820 -19.23969972 2.96597429
VERTEX2 638 -1.63782502 -19.15955214 2.93644397
VERTEX2 639 -2.24885832 -19.05648605 3.01681265
VERTEX2 640 -2.86408947 -18.94722680 2.94895209
VERTEX2 641 -3.46474416 -18.83630233 2.94065455
VERTEX2 642 -4.04111459 -18.69904012 2.89536051
VERTEX2 643 -4.52269273 -18.56259703 2.82789467
VERTEX2 644 -4.52676727 -18.56350609 -2.69853296
VERTEX2 645 -4.56318035 -18.70450476 -1.92102748
VERTEX2 646 -4.70029182 -19.31370894 -1.62565739
VERTEX2 647 -4.65685875 -19.95597793 -1.33680731
VERTEX2 648 -4.43397777 -20.58089771 -1.17052353
VERTEX2 649 -4.26042660 -21.17946063 -1.50812059
VERTEX2 650 -4.36115737 -21.80779705 -1.76548045
VERTEX2 651 -4.37865245 -21.95322844 -0.96607006
VERTEX2 652 -4.31569350 -21.98156080 0.05888978
VERTEX2 653 -4.26958174 -21.94016775 1.08932222
VERTEX2 654 -4.27850503 -21.64391079 1.60249423
VERTEX2 655 -4.28872031 -21.09091227 1.59748945
VERTEX2 656 -4.28768764 -20.48921628 1.58485942
VERTEX2 657 -4.39430050 -19.87807663 1.86149699
VERTEX2 658 -4.58454890 -19.26116610 1.85433854
VERTEX2 659 -4.69924472 -18.76786596 1.78318796
VERTEX2 660 -4.70230689 -18.75255344 2.38331850
VERTEX2 661 -4.88109026 -18.73280773 3.03677868
VERTEX2 662 -5.47487360 -18.67327479 3.10639120
VERTEX2 663 -6.06249096 -18.68757764 -3.07575652
VERTEX2 664 -6.07059853 -18.68548813 -2.55254841
VERTEX2 665 -6.08660481 -18.78682069 -1.71880275
VERTEX2 666 -6.15843453 -19.39503802 -1.68167006
VERTEX2 667 -6.21562357 -19.96110586 -1.67705462
VERTEX2 668 -6.27922382 -20.55462533 -1.65127861
VERTEX2 669 -6.32779021 -21.17989331 -1.67641434
VERTEX2 670 -6.42731768 -21.79736645 -1.73589679
VERTEX2 671 -6.47489393 -22.08977925 -1.68091874
VERTEX2 672 -6.37305254 -21.50900540 -1.77003780
VERTEX2 673 -6.30684590 -21.24233615 -1.90059875
VERTEX2 674 -6.29406187 -21.22884757 -2.54875975
VERTEX2 675 -6.27084259 -21.22393941 3.12578862
VERTEX2 676 -6.26493707 -21.22739868 2.50243304
VERTEX2 677 -6.26042817 -21.23362884 1.88657478
VERTEX2 678 -6.23233388 -21.01150569 1.44061995
VERTEX2 679 -6.16811642 -20.43249041 1.50319059
VERTEX2 680 -6.19555895 -19.98416938 1.84805681
VERTEX2 681 -6.34751334 -19.39271775 1.82053995
VERTEX2 682 -6.51957290 -18.78673504 1.86821125
VERTEX2 683 -6.61175431 -18.50442778 2.02736527
VERTEX2 684 -6.55828934 -18.55900113 3.10675207
VERTEX2 685 -6.96070702 -18.71919108 -2.73289678
VERTEX2 686 -7.40632209 -18.85525689 -2.87722142
VERTEX2 687 -7.99914278 -19.00575706 -2.91229292
VERTEX2 688 -8.59519548 -19.12527459 -2.92412502
VERTEX2 689 -9.15768488 -19.26359393 -2.89652281
VERTEX2 690 -9.69183757 -19.43178735 -2.82242173
VERTEX2 691 -10.08516563 -19.56242171 -2.85051842
VERTEX2 692 -10.06868097 -19.55511249 -2.31648317
VERTEX2 693 -10.04585714 -19.62740498 -1.27649110
VERTEX2 694 -10.02185799 -19.69949583 -0.44136521
VERTEX2 695 -10.00730179 -19.69538302 0.35921973
VERTEX2 696 -10.00308131 -19.69264216 1.38544515
VERTEX2 697 -10.01406671 -19.72868369 1.13275099
VERTEX2 698 -9.68563099 -19.52085750 0.47844392
VERTEX2 699 -9.12436474 -19.20845435 0.59266547
VERTEX2 700 -8.61268332 -18.84699551 0.64634113
VERTEX2 701 -8.18008676 -18.48451596 0.70564002
VERTEX2 702 -7.70283535 -18.16981113 0.59060676
VERTEX2 703 -7.19255235 -17.83370428 0.62494858
VERTEX2 704 -6.70062543 -17.45175346 0.64319389
VERTEX2 705 -6.18977191 -17.03052612 0.71346556
VERTEX2 706 -5.75964305 -16.71215065 0.44451728
VERTEX2 707 -5.73441318 -16.71078271 -0.07566778
VERTEX2 708 -5.72485439 -16.71629871 -0.71407111
VERTEX2 709 -5.76508513 -16.67302587 -1.04611634
VERTEX2 710 -5.76972033 -16.66108577 -1.60716704
VERTEX2 711 -5.76066494 -16.66925365 -2.20382946
VERTEX2 712 -5.74016351 -16.65351986 -2.76419849
VERTEX2 713 -6.21312788 -16.70425264 -3.04951144
VERTEX2 714 -6.76656447 -16.67948852 3.03618574
VERTEX2 715 -7.39649711 -16.64258338 3.14019125
VERTEX2 716 -8.03379197 -16.62093849 3.00259541
VERTEX2 717 -8.65848706 -16.55342454 3.08776416
VERTEX2 718 -9.42428578 -16.43539667 2.91288977
VERTEX2 719 -10.04495170 -16.32068117 2.98779264
VERTEX2 720 -10.66151516 -16.20913738 2.92902141
VERTEX2 721 -11.28309345 -16.09440989 2.99769688
VERTEX2 722 -11.30306250 -16.09163129 3.06485130
VERTEX2 723 -11.32248643 -16.11185770 -2.12650412
VERTEX2 724 -11.32235830 -16.15875565 -1.05917529
VERTEX2 725 -11.29037159 -16.18007737 -0.42572692
VERTEX2 726 -10.96016118 -16.17508049 0.02779097
VERTEX2 727 -10.31823035 -16.13532819 0.05821787
VERTEX2 728 -9.67342846 -16.11013407 0.05931680
VERTEX2 729 -9.03134622 -16.04860676 0.11664784
VERTEX2 730 -8.40404066 -15.95526927 0.15386552
VERTEX2 731 -7.75831697 -15.85481343 0.16607905
VERTEX2 732 -7.61863114 -15.82654024 0.61267120
VERTEX2 733 -7.61868439 -15.82646024 1.60924654
VERTEX2 734 -7.67846218 -15.26862964 1.68735052
VERTEX2 735 -7.74050453 -14.66447329 1.65530761
VERTEX2 736 -7.74139332 -14.65155030 2.25482387
VERTEX2 737 -7.73744490 -14.65206993 3.05555538
VERTEX2 738 -8.31854191 -14.61238510 3.07461749
VERTEX2 739 -8.92382880 -14.51811025 3.01699022
VERTEX2 740 -9.42876182 -14.47861969 3.08025560
VERTEX2 741 -9.41047370 -14.47838697 2.71140534
VERTEX2 742 -9.41247953 -14.47701135 2.05862344
VERTEX2 743 -9.41472058 -14.46717554 1.44181724
VERTEX2 744 -9.40475994 -14.44425501 0.90245690
VERTEX2 745 -9.38554420 -14.43416029 0.30897348
VERTEX2 746 -8.84424048 -14.45129666 -0.16589784
VERTEX2 747 -8.19192524 -14.56578628 -0.20122072
VERTEX2 748 -7.60794084 -14.70890553 -0.26961789
VERTEX2 749 -7.51781194 -14.73119241 0.15947219
VERTEX2 750 -7.50692546 -14.71103628 1.08635674
VERTEX2 751 -7.54170775 -14.44009215 1.72651517
VERTEX2 752 -7.60084448 -13.81599409 1.62313762
VERTEX2 753 -7.63986441 -13.17606528 1.68631205
VERTEX2 754 -7.64886525 -12.53399235 1.52417753
VERTEX2 755 -7.63187093 -11.90088376 1.61060793
VERTEX2 756 -7.59619303 -11.26509244 1.43417123
VERTEX2 757 -7.52318954 -10.61956085 1.54606272
VERTEX2 758 -7.54522502 -10.04052296 1.68829528
VERTEX2 759 -7.53622608 -9.49308611 1.56839651
VERTEX2 760 -7.57715323 -8.88113226 1.67981309
VERTEX2 761 -7.58006978 -8.84244465 1.86023647
VERTEX2 762 -7.65546281 -8.80901695 2.69458027
VERTEX2 763 -8.22969861 -8.70785630 2.98740325
VERTEX2 764 -8.64967720 -8.63758212 2.95986097
VERTEX2 765 -8.63867582 -8.63734024 -2.68390286
VERTEX2 766 -8.64027284 -8.64257976 -1.68359283
VERTEX2 767 -8.63527906 -8.65511360 -0.75274580
VERTEX2 768 -8.60790547 -8.65670755 -0.03039268
VERTEX2 769 -7.97202680 -8.56546430 0.12649861
VERTEX2 770 -7.31910928 -8.50403673 0.05935733
VERTEX2 771 -7.23017640 -8.49632888 0.61980809
VERTEX2 772 -7.22692080 -8.48588677 1.48730701
VERTEX2 773 -7.20464048 -7.90729786 1.57310654
VERTEX2 774 -7.21846930 -7.36030119 1.59520499
VERTEX2 775 -7.21761739 -7.36394063 2.44009858
VERTEX2 776 -7.42685408 -7.33898823 3.05750368
VERTEX2 777 -8.04009823 -7.29846948 3.11654596
VERTEX2 778 -8.65268682 -7.28910010 3.09560757
VERTEX2 779 -9.26852081 -7.26882629 3.11371828
VERTEX2 780 -9.47670901 -7.25116991 2.98349640
VERTEX2 781 -9.47352705 -7.25230021 2.41008556
VERTEX2 782 -9.60101268 -6.98031821 1.98052774
VERTEX2 783 -9.83617528 -6.40704831 1.97993039
VERTEX2 784 -9.93553531 -6.18019281 1.95860906
VERTEX2 785 -9.93643582 -6.15531541 1.40664396
VERTEX2 786 -9.92863745 -6.12964069 0.81832093
VERTEX2 787 -9.91150053 -6.11209301 0.32765333
VERTEX2 788 -9.88470184 -6.11391437 -0.30148410
VERTEX2 789 -9.87417962 -6.12217483 -0.85346235
VERTEX2 790 -9.56786044 -6.51743720 -0.92063078
VERTEX2 791 -9.16324039 -6.99944165 -0.82196598
VERTEX2 792 -8.92383811 -7.21287916 -0.11743614
VERTEX2 793 -8.30792650 -7.26573967 -0.07266437
VERTEX2 794 -7.66762551 -7.29527470 -0.00143283
VERTEX2 795 -7.69169886 -7.31293637 0.42800045
VERTEX2 796 -7.69809441 -7.31550166 1.08743316
VERTEX2 797 -7.62342550 -7.00629329 1.34762759
VERTEX2 798 -7.48766171 -6.38012419 1.39779167
VERTEX2 799 -7.39992976 -5.73599326 1.46354415
VERTEX2 800 -7.34518183 -5.08981958 1.53647802
VERTEX2 801 -7.35489921 -4.45764566 1.62234964
VERTEX2 802 -7.40744722 -3.83251317 1.68002486
VERTEX2 803 -7.38871841 -3.20331461 1.51534951
VERTEX2 804 -7.36705089 -2.57535327 1.57126998
VERTEX2 805 -7.39881888 -1.94484094 1.64759932
VERTEX2 806 -7.45739379 -1.34668527 1.68907614
VERTEX2 807 -7.48425421 -1.16304057 1.97719277
VERTEX2 808 -7.48839586 -1.16295694 2.92552940
VERTEX2 809 -8.07932490 -1.13299684 3.07021307
VERTEX2 810 -8.69572205 -1.00875842 2.93006735
VERTEX2 811 -9.29374034 -0.89624849 2.92678980
VERTEX2 812 -9.29530576 -0.89594901 -2.62461824
VERTEX2 813 -9.30530700 -0.91815212 -1.64931080
VERTEX2 814 -9.29825258 -0.92375673 -0.65708724
VERTEX2 815 -9.27320403 -0.93224790 0.26217605
VERTEX2 816 -9.26432699 -0.92741105 0.94332509
VERTEX2 817 -9.25294718 -0.92027665 0.27455604
VERTEX2 818 -9.03007981 -0.95465647 -0.21433506
VERTEX2 819 -8.43862123 -1.08354718 -0.20020878
VERTEX2 820 -7.84473777 -1.21653317 -0.24143327
VERTEX2 821 -7.29833012 -1.34850909 -0.22562713
VERTEX2 822 -7.23506209 -1.35824192 0.53566756
VERTEX2 823 -7.23356812 -1.34280909 1.45495745
VERTEX2 824 -7.16783254 -0.71989103 1.37569154
VERTEX2 825 -7.02149574 -0.09418437 1.34613075
VERTEX2 826 -6.96252892 0.53853444 1.50926550
VERTEX2 827 -6.89685681 1.16313174 1.46081650
VERTEX2 828 -6.84103011 1.79493816 1.49658754
VERTEX2 829 -6.77959541 2.39870679 1.45690298
VERTEX2 830 -6.70423206 3.00782822 1.44864462
VERTEX2 831 -6.60967818 3.58534572 1.40192040
VERTEX2 832 -6.51911388 4.14854842 1.39842315
VERTEX2 833 -6.47495058 4.40414329 1.53616962
VERTEX2 834 -6.47674549 4.41050995 2.59113087
VERTEX2 835 -6.48803311 4.41180795 -2.91416419
VERTEX2 836 -6.49921059 4.40236221 -1.97083358
VERTEX2 837 -6.49573016 4.38338815 -0.93417745
VERTEX2 838 -6.48275171 4.37530863 -0.07173833
VERTEX2 839 -6.48079952 4.37437739 -0.28990493
VERTEX2 840 -6.46869545 4.36490433 -0.85238981
VERTEX2 841 -6.46066292 4.34879352 -1.46930057
VERTEX2 842 -6.48656050 4.10290539 -1.70003474
VERTEX2 843 -6.56411206 3.53902798 -1.70251259
VERTEX2 844 -6.63856333 2.91313282 -1.71049083
VERTEX2 845 -6.73152054 2.28777750 -1.72517988
VERTEX2 846 -6.81655417 1.65818543 -1.72342641
VERTEX2 847 -6.92547239 1.03645769 -1.75015576
VERTEX2 848 -6.95649025 0.83753714 -1.26942770
VERTEX2 849 -6.95161757 0.83574557 -0.34672779
VERTEX2 850 -6.59315218 0.83302282 0.00692876
VERTEX2 851 -5.96250673 0.80841383 -0.08539295
VERTEX2 852 -5.33447855 0.74854591 -0.07081238
VERTEX2 853 -4.73614381 0.70751597 -0.09855203
VERTEX2 854 -4.14523596 0.64113048 -0.09636211
VERTEX2 855 -3.54679541 0.59188304 -0.09796390
VERTEX2 856 -2.86399221 0.50529455 -0.13553653
VERTEX2 857 -2.18205126 0.41696441 -0.14217786
VERTEX2 858 -1.50658301 0.29680244 -0.19354162
VERTEX2 859 -0.95889323 0.19484547 -0.19755918
VERTEX2 860 -0.90866027 0.21676148 0.66411288
VERTEX2 861 -0.89555182 0.33150160 1.59070494
VERTEX2 862 -0.88122811 0.99470521 1.53434709
VERTEX2 863 -0.84932610 1.64402531 1.50504308
VERTEX2 864 -0.78817066 2.26205803 1.50600929
VERTEX2 865 -0.77502478 2.87709198 1.56719342
VERTEX2 866 -0.75937416 3.46695838 1.56930911
VERTEX2 867 -0.76080834 3.63245998 1.75512364
VERTEX2 868 -0.75697022 3.62813020 2.79356367
VERTEX2 869 -0.71791201 3.63218609 -2.49727070
VERTEX2 870 -0.67942276 3.65790087 -1.48346088
VERTEX2 871 -0.64140831 3.63775785 -0.49588064
VERTEX2 872 -0.59908757 3.61429989 0.19915692
VERTEX2 873 -0.54185244 3.60311550 -0.36516399
VERTEX2 874 -0.49782704 3.57306704 -0.91670153
VERTEX2 875 -0.48134652 3.54586416 -1.49488031
VERTEX2 876 -0.51547807 2.97950651 -1.64821710
VERTEX2 877 -0.58100896 2.42354598 -1.72925456
VERTEX2 878 -0.59919090 2.22021925 -1.34023725
VERTEX2 879 -0.39066705 1.59768040 -1.28589144
VERTEX2 880 -0.27819148 1.15318480 -1.39497265
VERTEX2 881 -0.28998509 1.21845586 -1.38809251
VERTEX2 882 -0.24052026 0.58664100 -1.63183495
VERTEX2 883 -0.35479903 -0.04426118 -1.81992631
VERTEX2 884 -0.45792341 -0.41484858 -1.88462695
VERTEX2 885 -0.46462418 -0.38645846 -1.29768160
VERTEX2 886 -0.51945864 -0.35156095 -0.27028735
VERTEX2 887 -0.58787946 -0.33949963 0.75034298
VERTEX2 888 -0.72141336 -0.68525361 1.48452233
VERTEX2 889 -0.73395284 -0.64266230 2.39126433
VERTEX2 890 -1.12395758 -0.43644640 2.66918873
VERTEX2 891 -1.73208656 -0.11058075 2.60150550
VERTEX2 892 -2.33047140 0.27055636 2.56829664
VERTEX2 893 -2.95339626 0.62480066 2.80792240
VERTEX2 894 -3.65577079 0.77013989 3.03223737
VERTEX2 895 -4.34669861 0.72976552 -2.94881631
VERTEX2 896 -4.39852376 0.71833445 -2.46714946
VERTEX2 897 -4.68246938 0.31492121 -2.19221768
VERTEX2 898 -5.04361295 -0.19506877 -2.17594433
VERTEX2 899 -5.33831475 -0.60655483 -2.24283729
VERTEX2 900 -5.76150219 -1.15119251 -2.24447195
VERTEX2 901 -6.14199714 -1.59672073 -2.30798390
VERTEX2 902 -6.56722556 -2.08933101 -2.28193186
VERTEX2 903 -6.89091417 -2.47061970 -2.32584725
VERTEX2 904 -6.89178667 -2.47184569 -1.62117753
VERTEX2 905 -6.88133113 -2.96352718 -1.56518520
VERTEX2 906 -6.85107446 -3.53345629 -1.49891700
VERTEX2 907 -6.79828459 -4.10646785 -1.50660153
VERTEX2 908 -6.75523118 -4.72809281 -1.48155582
VERTEX2 909 -6.69774500 -5.33987074 -1.49920540
VERTEX2 910 -6.72604758 -5.46916865 -1.86860004
VERTEX2 911 -6.88851263 -6.03962024 -1.80742116
VERTEX2 912 -7.01122067 -6.60236146 -1.79456649
VERTEX2 913 -7.12483943 -7.14322357 -1.78641073
VERTEX2 914 -7.25238136 -7.73029264 -1.80984871
VERTEX2 915 -7.37705394 -8.23828481 -1.84634731
VERTEX2 916 -7.31276949 -8.48446607 -1.29833020
VERTEX2 917 -7.17444892 -9.13535693 -1.55244838
VERTEX2 918 -7.19534460 -9.65390781 -1.62777867
VERTEX2 919 -7.22965647 -10.27823174 -1.67091640
VERTEX2 920 -7.29475742 -10.89269415 -1.68834316
VERTEX2 921 -7.36859644 -11.50835204 -1.74152695
VERTEX2 922 -7.47152659 -12.11230896 -1.76859802
VERTEX2 923 -7.59197238 -12.67878469 -1.83192058
VERTEX2 924 -7.72379360 -13.17097109 -1.81526480
VERTEX2 925 -7.72451316 -13.16734840 -1.31048668
VERTEX2 926 -7.56425318 -13.73074247 -1.29428048
VERTEX2 927 -7.39716670 -14.32271528 -1.31759645
VERTEX2 928 -7.23919834 -14.93005392 -1.32655052
VERTEX2 929 -7.08778959 -15.53452458 -1.32748410
VERTEX2 930 -6.94044240 -16.16567972 -1.41012997
VERTEX2 931 -6.85422473 -16.79209953 -1.49042707
VERTEX2 932 -6.80816640 -17.41915629 -1.54993319
VERTEX2 933 -6.80486348 -18.03153838 -1.61459750
VERTEX2 934 -6.81960828 -18.51191366 -1.62448099
VERTEX2 935 -6.81685630 -18.52469756 -0.94249840
VERTEX2 936 -6.81440290 -18.52556087 0.00254644
VERTEX2 937 -6.27147610 -18.50084479 0.06538967
VERTEX2 938 -5.67459977 -18.51747566 -0.10805789
VERTEX2 939 -5.04991255 -18.57800524 -0.08037457
VERTEX2 940 -4.43960750 -18.65358874 -0.16629414
VERTEX2 941 -3.83659276 -18.76944929 -0.22000713
VERTEX2 942 -3.31975851 -18.88542329 -0.21557022
VERTEX2 943 -2.70729023 -19.02090182 -0.12725297
VERTEX2 944 -2.09075232 -19.10532338 -0.18391829
VERTEX2 945 -1.46698291 -19.23572430 -0.23906769
VERTEX2 946 -1.28966228 -19.28125049 -0.17476793
VERTEX2 947 -0.87870026 -19.21876950 0.15342998
VERTEX2 948 -0.30377073 -19.13040196 0.13424532
VERTEX2 949 0.30156588 -19.09712147 -0.02147087
VERTEX2 950 0.93416624 -19.13492093 -0.26105401
VERTEX2 951 1.53851829 -19.30996156 -0.33325076
VERTEX2 952 2.14258371 -19.48804886 -0.08253396
VERTEX2 953 2.77460568 -19.52139814 -0.00230103
VERTEX2 954 3.40057165 -19.51576665 -0.00938602
VERTEX2 955 3.99157769 -19.56317128 -0.17032659
VERTEX2 956 4.54381094 -19.64352898 -0.17270153
VERTEX2 957 5.07683814 -19.74172988 -0.26049189
VERTEX2 958 5.54531747 -19.85608500 -0.28731283
VERTEX2 959 5.97908566 -19.97677188 -0.35451125
VERTEX2 960 6.56860000 -20.14139059 -0.27468182
VERTEX2 961 7.15036859 -20.31732181 -0.30176603
VERTEX2 962 7.76810909 -20.44762613 -0.23620685
VERTEX2 963 8.38614238 -20.53015091 -0.04960259
VERTEX2 964 9.00881634 -20.57335090 -0.11354325
VERTEX2 965 9.62706738 -20.65412465 -0.12047336
VERTEX2 966 10.07099629 -20.71378375 -0.17947633
VERTEX2 967 10.10437246 -20.70708822 0.67383308
VERTEX2 968 10.11263625 -20.69931248 1.57047598
VERTEX2 969 10.11494807 -20.72696796 1.62991007
VERTEX2 970 10.11740245 -20.75485647 1.62814789
VERTEX2 971 10.09748457 -20.42150328 1.62825037
VERTEX2 972 10.05976461 -19.83483985 1.63383291
VERTEX2 973 10.14021173 -19.25275834 1.34875644
VERTEX2 974 10.28044200 -18.65115866 1.38050405
VERTEX2 975 10.39282162 -18.04543572 1.38503305
VERTEX2 976 10.49848826 -17.43705968 1.39784906
VERTEX2 977 10.63508143 -16.81916733 1.37152931
VERTEX2 978 10.75691502 -16.20751622 1.41746155
VERTEX2 979 10.87257555 -15.59973283 1.40515226
VERTEX2 980 10.97118491 -14.99512994 1.45204326
VERTEX2 981 11.06068617 -14.40111784 1.45892787
VERTEX2 982 11.11761443 -13.87382785 1.50388068
VERTEX2 983 11.16763707 -13.27519804 1.50048024
VERTEX2 984 11.19527222 -12.67908695 1.55783280
VERTEX2 985 11.20657011 -12.08207830 1.57810547
VERTEX2 986 11.19208286 -11.46154689 1.61443742
VERTEX2 987 11.17987705 -10.84250246 1.57774708
VERTEX2 988 11.18308325 -10.22375904 1.59146380
VERTEX2 989 11.16905493 -9.60967857 1.59909692
VERTEX2 990 11.16287134 -8.99888400 1.58832330
VERTEX2 991 11.14826037 -8.38462392 1.61317703
VERTEX2 992 11.14381890 -7.79825894 1.58063750
VERTEX2 993 11.13079535 -7.18250275 1.61345845
VERTEX2 994 11.11507659 -6.59753480 1.60359973
VERTEX2 995 11.08330489 -5.99695226 1.65096316
VERTEX2 996 11.02342482 -5.38124077 1.67817673
VERTEX2 997 10.97856539 -4.72697204 1.61384866
VERTEX2 998 10.95874912 -4.31503978 1.63578805
VERTEX2 999 10.98093569 -4.33302474 2.35386372
VERTEX2 1000 10.51323625 -3.96829404 2.50262797
VERTEX2 1001 10.06909251 -3.56296817 2.18185027
VERTEX2 1002 9.69821047 -3.08558431 2.27464621
VERTEX2 1003 9.34465565 -2.58078607 2.09520128
VERTEX2 1004 9.00623786 -2.04430683 2.15347576
VERTEX2 1005 8.65306425 -1.55025546 2.21594977
VERTEX2 1006 8.25774327 -1.07245824 2.29337615
VERTEX2 1007 7.84550521 -0.64670100 2.38509381
VERTEX2 1008 7.61021850 -0.43217398 2.54468718
VERTEX2 1009 7.51314885 -0.41746707 3.01796161
VERTEX2 1010 6.94594166 -0.36163955 3.07056962
VERTEX2 1011 6.32579831 -0.32198971 3.02766213
VERTEX2 1012 5.71161425 -0.25826408 3.06977516
VERTEX2 1013 5.07153549 -0.26092163 -3.09818025
VERTEX2 1014 4.46248705 -0.21376629 3.00959309
VERTEX2 1015 3.84139564 -0.17510874 3.09396768
VERTEX2 1016 3.07568796 -0.13814889 3.10061745
VERTEX2 1017 2.49045977 -0.12493255 3.04341862
VERTEX2 1018 1.93279710 -0.06323761 3.05067392
VERTEX2 1019 1.33803368 -0.03885522 3.11017722
VERTEX2 1020 0.72302882 -0.00296059 3.09618686
VERTEX2 1021 0.10212692 0.02609251 3.05554122
VERTEX2 1022 0.04880756 0.03049851 3.04827269
VERTEX2 1023 0.05589008 0.03036224 3.13481668
VERTEX2 1024 -0.57087759 0.03814881 -3.12208179
VERTEX2 1025 -1.19981598 0.00769602 -3.10455538
VERTEX2 1026 -1.36106219 0.00222413 -3.09742583
VERTEX2 1027 -1.34496036 0.01010788 -2.18106291
VERTEX2 1028 -1.35815441 -0.15613237 -1.61771133
VERTEX2 1029 -1.38714418 -0.72217210 -1.63931690
VERTEX2 1030 -1.45116286 -1.34354375 -1.71979498
VERTEX2 1031 -1.56440853 -1.98893592 -1.77399734
VERTEX2 1032 -1.69560979 -2.63436315 -1.76999705
VERTEX2 1033 -1.83985670 -3.27855975 -1.81518802
VERTEX2 1034 -1.88472758 -3.44948153 -2.02901977
VERTEX2 1035 -1.89021218 -3.45409558 -2.64841639
VERTEX2 1036 -1.85925279 -3.46841521 3.06388667
VERTEX2 1037 -2.19907854 -3.33868443 2.82544277
VERTEX2 1038 -2.81040362 -3.21591693 2.91661361
VERTEX2 1039 -3.44865222 -3.04576176 2.88504648
VERTEX2 1040 -3.42305943 -3.04640246 -2.76816934
VERTEX2 1041 -3.39413532 -3.05024022 -1.75141872
VERTEX2 1042 -3.39599477 -3.08339118 -0.76367758
VERTEX2 1043 -3.36230265 -3.11450047 0.20571399
VERTEX2 1044 -3.37606614 -3.13070032 1.19933583
VERTEX2 1045 -3.37931350 -3.13782602 1.08527128
VERTEX2 1046 -3.39002662 -3.15219081 0.69967783
VERTEX2 1047 -3.40916858 -3.16049355 0.14383185
VERTEX2 1048 -3.04678184 -3.23025870 -0.16921297
VERTEX2 1049 -2.40150541 -3.32965257 -0.15208380
VERTEX2 1050 -1.75445951 -3.40130331 -0.07643433
VERTEX2 1051 -1.09889026 -3.47590801 -0.15556705
VERTEX2 1052 -0.47490111 -3.55799253 -0.10260289
VERTEX2 1053 -0.05744338 -3.61315059 -0.15522089
VERTEX2 1054 -0.03086740 -3.61600145 0.60701114
VERTEX2 1055 -0.02463017 -3.58692725 1.66270007
VERTEX2 1056 -0.01577927 -3.59993575 2.66651462
VERTEX2 1057 0.00935943 -3.60276591 -2.62582669
VERTEX2 1058 0.00737975 -3.60508419 -1.70365209
VERTEX2 1059 -0.09175386 -4.18756819 -1.78439941
VERTEX2 1060 -0.22977580 -4.81730756 -1.77939403
VERTEX2 1061 -0.33804678 -5.26326909 -1.90192273
VERTEX2 1062 -0.34110002 -5.26795960 -2.46599408
VERTEX2 1063 -0.31791791 -5.25476964 -3.06355991
VERTEX2 1064 -0.59475228 -5.20205679 2.95447303
VERTEX2 1065 -1.17878435 -5.13407057 3.07651796
VERTEX2 1066 -1.73834109 -5.08077301 3.02047480
VERTEX2 1067 -1.72053674 -5.07987895 -2.82991201
VERTEX2 1068 -1.70949106 -5.07215986 -2.15735703
VERTEX2 1069 -1.70861318 -5.06980631 -1.98709444
VERTEX2 1070 -1.70709798 -5.06716108 -2.52625087
VERTEX2 1071 -2.18163288 -5.32299781 -2.65355915
VERTEX2 1072 -2.63441012 -5.55538238 -2.72229576
VERTEX2 1073 -2.60890513 -5.55479638 3.04959315
VERTEX2 1074 -3.14247967 -5.48089775 3.01516640
VERTEX2 1075 -3.72368252 -5.40245342 3.03167199
VERTEX2 1076 -3.74610313 -5.40069965 -2.84742293
VERTEX2 1077 -3.76028828 -5.42728005 -2.04198019
VERTEX2 1078 -4.00131278 -6.03788828 -1.99689423
VERTEX2 1079 -4.23661679 -6.60550081 -1.93483410
VERTEX2 1080 -4.24202807 -6.61984058 -2.42257176
VERTEX2 1081 -4.67309859 -6.91236904 -2.54587486
VERTEX2 1082 -4.84607648 -7.03224933 -2.26533525
VERTEX2 1083 -4.84179619 -7.06593562 -1.23557044
VERTEX2 1084 -4.77495977 -7.10062546 -0.27029145
VERTEX2 1085 -4.77517877 -7.10075514 0.71349194
VERTEX2 1086 -4.41181054 -6.61119688 0.94426800
VERTEX2 1087 -4.02907777 -6.10383690 0.93239516
VERTEX2 1088 -3.66515619 -5.59212739 0.91585303
VERTEX2 1089 -3.60952198 -5.52078993 0.82053546
VERTEX2 1090 -3.59941680 -5.51162310 0.20580952
VERTEX2 1091 -3.06097359 -5.48155996 0.02911379
VERTEX2 1092 -2.44120691 -5.46859702 0.01410872
VERTEX2 1093 -1.87146087 -5.47368014 -0.05081129
VERTEX2 1094 -1.85971617 -5.48493872 -0.45455040
VERTEX2 1095 -1.83032793 -5.51115335 -1.04383473
VERTEX2 1096 -1.83069450 -5.50962199 -1.61462511
VERTEX2 1097 -1.91432592 -5.83282370 -1.82981361
VERTEX2 1098 -2.09235450 -6.42745564 -1.88647024
VERTEX2 1099 -2.29905108 -6.98175565 -1.98224267
VERTEX2 1100 -2.30244641 -6.99024313 -1.61868430
VERTEX2 1101 -2.24630320 -7.24527086 -1.35238046
VERTEX2 1102 -2.24638968 -7.24603776 -1.74555593
VERTEX2 1103 -2.37496476 -7.85413263 -1.77934551
VERTEX2 1104 -2.51445857 -8.48856275 -1.80701937
VERTEX2 1105 -2.67121721 -9.10924738 -1.82486309
VERTEX2 1106 -2.79824328 -9.58501166 -1.85002043
VERTEX2 1107 -2.79785238 -9.58967277 -1.59378790
VERTEX2 1108 -2.76915227 -10.21295915 -1.58584871
VERTEX2 1109 -2.82482008 -10.85465154 -1.68962487
VERTEX2 1110 -2.90237326 -11.46036103 -1.73897179
VERTEX2 1111 -3.07490190 -11.98852184 -1.84002913
VERTEX2 1112 -3.11173899 -12.56540698 -1.49322936
VERTEX2 1113 -3.07908926 -13.20157789 -1.58832527
VERTEX2 1114 -3.08944449 -13.81574424 -1.57102638
VERTEX2 1115 -3.08690315 -14.39639453 -1.58692613
VERTEX2 1116 -3.07520598 -15.04209322 -1.55034474
VERTEX2 1117 -3.07241712 -15.13686830 -1.67771874
VERTEX2 1118 -3.07175924 -15.13562772 -2.28410023
VERTEX2 1119 -3.06689077 -15.13225080 -2.71510281
VERTEX2 1120 -3.63539488 -15.34112656 -2.77835874
VERTEX2 1121 -3.83081103 -15.41062307 -2.89652747
VERTEX2 1122 -3.83428954 -15.40943119 2.83714917
VERTEX2 1123 -4.38639877 -15.22694218 2.85397662
VERTEX2 1124 -4.94681495 -15.10063437 2.95258466
VERTEX2 1125 -5.57525011 -14.97794079 2.96595432
VERTEX2 1126 -5.65822702 -14.96498193 -2.97774641
VERTEX2 1127 -5.65275647 -14.97077001 -1.92118370
VERTEX2 1128 -5.65305735 -14.97229368 -0.93447825
VERTEX2 1129 -5.63633735 -14.98159341 0.08045383
VERTEX2 1130 -5.05178606 -14.91667047 0.09405968
VERTEX2 1131 -4.28076224 -15.04081686 -0.33787668
VERTEX2 1132 -3.67164586 -15.25759479 -0.35757015
VERTEX2 1133 -3.12607326 -15.48513039 -0.39625251
VERTEX2 1134 -2.87433241 -15.59080152 -0.49323256
VERTEX2 1135 -2.86261946 -15.60229524 -1.04923148
VERTEX2 1136 -2.86526415 -15.60778171 -1.61115504
VERTEX2 1137 -2.92062773 -15.91650360 -1.79512820
VERTEX2 1138 -3.07756412 -16.55575123 -1.81134248
VERTEX2 1139 -3.19744403 -17.05159496 -1.88436646
VERTEX2 1140 -3.18787332 -17.02874825 -2.36294601
VERTEX2 1141 -3.16708314 -17.00859975 -2.90990970
VERTEX2 1142 -3.53082616 -16.96444769 3.00927207
VERTEX2 1143 -4.12958098 -16.91653166 3.09885953
VERTEX2 1144 -4.71128464 -16.88107338 3.06841238
VERTEX2 1145 -5.29051985 -16.83437169 3.04311242
VERTEX2 1146 -5.86734965 -16.77602136 3.06301875
VERTEX2 1147 -6.44771858 -16.76489794 3.13590612
VERTEX2 1148 -7.02644943 -16.76135406 -3.13724691
VERTEX2 1149 -7.06942493 -16.76258572 -2.63899803
VERTEX2 1150 -7.16206675 -16.86516422 -1.82939103
VERTEX2 1151 -7.16014248 -16.87642156 -0.82540505
VERTEX2 1152 -7.14390502 -16.87673629 0.22789207
VERTEX2 1153 -7.12998369 -16.87047211 1.24084331
VERTEX2 1154 -7.18856018 -16.55343792 1.78692808
VERTEX2 1155 -7.32030693 -15.92889070 1.73759038
VERTEX2 1156 -7.41622372 -15.32304377 1.74761820
VERTEX2 1157 -7.54207854 -14.75182714 1.85874047
VERTEX2 1158 -7.66707396 -14.14958199 1.73019636
VERTEX2 1159 -7.72629030 -13.54639799 1.63617517
VERTEX2 1160 -7.74741414 -12.90675108 1.49944239
VERTEX2 1161 -7.64620920 -12.27558816 1.40975737
VERTEX2 1162 -7.55323223 -11.64410450 1.46787519
VERTEX2 1163 -7.48916778 -11.00155145 1.46242565
VERTEX2 1164 -7.43941054 -10.36091280 1.54786979
VERTEX2 1165 -7.42738440 -9.82137519 1.52506791
VERTEX2 1166 -7.42806441 -9.81805064 2.01407747
VERTEX2 1167 -7.37598843 -9.80546788 2.95079173
VERTEX2 1168 -7.33117762 -9.78771340 -2.42886629
VERTEX2 1169 -7.33522210 -9.83925649 -1.60678694
VERTEX2 1170 -7.34600949 -10.42544353 -1.60003875
VERTEX2 1171 -7.34642280 -11.06040986 -1.56825162
VERTEX2 1172 -7.35125467 -11.65942190 -1.63065843
VERTEX2 1173 -7.38172018 -12.28308409 -1.62150522
VERTEX2 1174 -7.42610952 -12.91191042 -1.69020640
VERTEX2 1175 -7.51273744 -13.52550423 -1.72360901
VERTEX2 1176 -7.61076820 -14.14608932 -1.76728715
VERTEX2 1177 -7.73093114 -14.75457219 -1.76524949
VERTEX2 1178 -7.86265546 -15.36694919 -1.81247402
VERTEX2 1179 -8.00084279 -15.97117459 -1.78314399
VERTEX2 1180 -8.05538524 -16.22470180 -1.79014843
VERTEX2 1181 -8.05455077 -16.21888724 -0.96277292
VERTEX2 1182 -7.99790814 -16.23335732 -0.25113039
VERTEX2 1183 -7.38343159 -16.38336379 -0.22585089
VERTEX2 1184 -6.74962650 -16.49922919 -0.15636631
VERTEX2 1185 -6.12072778 -16.61066811 -0.18868617
VERTEX2 1186 -5.48821864 -16.70664491 -0.12258113
VERTEX2 1187 -4.83336082 -16.79328230 -0.15976395
VERTEX2 1188 -4.20510140 -16.88433120 -0.14175421
VERTEX2 1189 -3.53485875 -16.99386245 -0.12024211
VERTEX2 1190 -3.19623201 -17.03544194 -0.11238930
VERTEX2 1191 -3.15671764 -17.03464232 0.80728059
VERTEX2 1192 -3.15085254 -16.95142901 1.60441916
VERTEX2 1193 -3.14313548 -16.35216539 1.47222978
VERTEX2 1194 -3.10083012 -15.77833197 1.51415510
VERTEX2 1195 -3.07116966 -15.15533104 1.56638903
VERTEX2 1196 -3.06412717 -14.53230849 1.39363665
VERTEX2 1197 -2.95946503 -13.91752059 1.40484411
VERTEX2 1198 -2.88779946 -13.29107326 1.66363997
VERTEX2 1199 -2.90379781 -12.67958809 1.44892854
VERTEX2 1200 -2.84545207 -12.04996403 1.51793775
VERTEX2 1201 -2.81938610 -11.43086116 1.57377616
VERTEX2 1202 -2.82851940 -10.80923839 1.59674504
VERTEX2 1203 -2.85791160 -10.22072027 1.50686101
VERTEX2 1204 -2.74237524 -9.62883296 1.36013745
VERTEX2 1205 -2.63279775 -9.06600660 1.38976719
VERTEX2 1206 -2.54615125 -8.47635128 1.45107376
VERTEX2 1207 -2.40741875 -7.86507238 1.36507454
VERTEX2 1208 -2.29365302 -7.24024813 1.42986503
VERTEX2 1209 -2.20547584 -6.61894597 1.42803588
VERTEX2 1210 -2.13949948 -6.00197303 1.44873517
VERTEX2 1211 -2.01221208 -5.38936573 1.37567823
VERTEX2 1212 -1.89602615 -4.77717406 1.42552621
VERTEX2 1213 -1.82757842 -4.16366574 1.49865619
VERTEX2 1214 -1.74417281 -3.43826282 1.27582121
VERTEX2 1215 -1.57836136 -2.85308426 1.33476036
VERTEX2 1216 -1.52711913 -2.30009391 1.55199688
VERTEX2 1217 -1.49196296 -1.72082790 1.53264053
VERTEX2 1218 -1.47769311 -1.13069672 1.48197153
VERTEX2 1219 -1.42647603 -0.48168949 1.51256953
VERTEX2 1220 -1.41897833 0.10536507 1.60330753
VERTEX2 1221 -1.41843658 0.10353572 1.15055453
VERTEX2 1222 -1.40845024 0.11324311 0.55324753
VERTEX2 1223 -1.39661393 0.11603385 -0.00637947
VERTEX2 1224 -0.82272380 0.02330687 -0.18928747
VERTEX2 1225 -0.20746532 -0.09059101 -0.17552347
VERTEX2 1226 -0.10261676 -0.10929645 -0.19225447
VERTEX2 1227 -0.10261676 -0.10929645 -0.19291647
