VERTEX2 0 0.00001524 0.00000000 0.00000143
VERTEX2 1 0.00001523 0.00000000 -0.00064057
VERTEX2 2 0.00001523 0.00000000 -0.00117857
VERTEX2 3 0.01101708 -0.00097496 -0.00356057
VERTEX2 4 0.64102367 -0.01119920 -0.00744257
VERTEX2 5 0.69603135 -0.01171461 -0.09872457
VERTEX2 6 0.70028447 -0.01543393 -0.89599657
VERTEX2 7 0.69397171 0.00421455 -1.51153357
VERTEX2 8 0.69927853 0.02669532 -2.12506757
VERTEX2 9 0.71612977 0.04112436 -2.76313757
VERTEX2 10 0.72899629 0.04322177 2.90551674
VERTEX2 11 0.73321887 0.04053874 2.23123774
VERTEX2 12 0.73320159 0.04154719 1.58176374
VERTEX2 13 0.73726815 0.05434843 0.92252033
VERTEX2 14 0.75697739 0.06819534 0.31452205
VERTEX2 15 0.76788038 0.06894343 -0.21018895
VERTEX2 16 1.06531595 0.00818493 -0.22877661
VERTEX2 17 1.67018493 -0.13969615 -0.25988231
VERTEX2 18 2.29734550 -0.30367458 -0.26992679
VERTEX2 19 2.92867986 -0.50222722 -0.31834392
VERTEX2 20 3.52040887 -0.69145036 -0.31121667
VERTEX2 21 4.12717445 -0.84226666 -0.19806443
VERTEX2 22 4.73480117 -0.98107993 -0.17934018
VERTEX2 23 5.37040733 -1.02219932 -0.07022153
VERTEX2 24 5.99849614 -1.08915813 -0.12575340
VERTEX2 25 6.62998634 -1.15164053 -0.12155647
VERTEX2 26 7.23772591 -1.24580634 -0.16237976
VERTEX2 27 7.85230104 -1.33092217 -0.14683199
VERTEX2 28 8.43260956 -1.42377500 -0.15156037
VERTEX2 29 8.80995179 -1.47748285 -0.12109105
VERTEX2 30 8.81689651 -1.47926392 -0.65388020
VERTEX2 31 8.91375173 -1.60700584 -0.92317120
VERTEX2 32 9.28032723 -2.11189722 -0.94231181
VERTEX2 33 9.65473540 -2.60045544 -0.89191693
VERTEX2 34 10.05751683 -3.07360575 -0.87128688
VERTEX2 35 10.46992721 -3.53939879 -0.83747918
VERTEX2 36 10.88862869 -4.00659918 -0.84650187
VERTEX2 37 11.15958184 -4.30549705 -0.83928659
VERTEX2 38 11.14573403 -4.28693639 -1.16181657
VERTEX2 39 11.13921470 -4.25816222 -1.33351155
VERTEX2 40 11.28112960 -4.81145241 -1.31676831
VERTEX2 41 11.42837097 -5.38971154 -1.34927608
VERTEX2 42 11.54817971 -5.93114486 -1.37249296
VERTEX2 43 11.65684251 -6.51905970 -1.41223387
VERTEX2 44 11.74891814 -7.10510167 -1.44885575
VERTEX2 45 11.80585165 -7.71976413 -1.50419154
VERTEX2 46 11.83904941 -8.33652976 -1.52341095
VERTEX2 47 11.86155100 -8.95316089 -1.56491436
VERTEX2 48 11.86074572 -9.57428634 -1.57130131
VERTEX2 49 11.85629483 -10.19137481 -1.62195867
VERTEX2 50 11.80592055 -10.77889883 -1.66616609
VERTEX2 51 11.75273320 -11.37723470 -1.69477360
VERTEX2 52 11.65784783 -11.95976155 -1.77090743
VERTEX2 53 11.56144288 -12.51198641 -1.75857093
VERTEX2 54 11.45186723 -13.01937399 -1.82061099
VERTEX2 55 11.45940213 -12.98214583 -1.81529673
VERTEX2 56 11.45985236 -12.98035967 -1.80468310
VERTEX2 57 11.32003893 -13.59340770 -1.81611549
VERTEX2 58 11.17754222 -14.19577493 -1.76993798
VERTEX2 59 11.05235130 -14.79715643 -1.79351566
VERTEX2 60 10.92654348 -15.39492392 -1.77208469
VERTEX2 61 10.79497655 -15.99335587 -1.82272306
VERTEX2 62 10.64928057 -16.54810098 -1.78268407
VERTEX2 63 10.50193129 -17.10755301 -1.81797775
VERTEX2 64 10.37112791 -17.66105865 -1.75436591
VERTEX2 65 10.24090502 -18.21218359 -1.80554632
VERTEX2 66 10.09203400 -18.79327199 -1.81334326
VERTEX2 67 9.93164200 -19.37910415 -1.81184436
VERTEX2 68 9.82905216 -19.80569347 -1.82628784
VERTEX2 69 9.83787006 -19.77608929 -1.97960400
VERTEX2 70 9.85193220 -19.74843817 -2.65030176
VERTEX2 71 9.85921989 -19.74793556 2.98913453
VERTEX2 72 9.86670144 -19.75004289 2.97943651
VERTEX2 73 9.87335881 -19.75160417 2.91425550
VERTEX2 74 9.88859754 -19.76163020 2.29191450
VERTEX2 75 9.90118741 -19.76639927 1.93919156
VERTEX2 76 9.90978676 -19.77561339 2.63252557
VERTEX2 77 9.91226532 -19.77658994 2.86517800
VERTEX2 78 9.61511622 -19.79129299 -3.08136970
VERTEX2 79 8.98769522 -19.83905189 -3.08692857
VERTEX2 80 8.34986178 -19.84596701 3.12119292
VERTEX2 81 7.72189188 -19.82717285 3.09451750
VERTEX2 82 7.12494188 -19.79198379 3.04038382
VERTEX2 83 6.53940779 -19.74625365 3.01679387
VERTEX2 84 5.98182548 -19.66651875 2.93878437
VERTEX2 85 5.44590306 -19.56930850 2.94577381
VERTEX2 86 4.84927229 -19.45868521 2.85514430
VERTEX2 87 4.45864357 -19.35531848 2.80297828
VERTEX2 88 4.10957629 -19.22838095 2.77257501
VERTEX2 89 4.12867572 -19.22913627 -3.11637742
VERTEX2 90 3.52403920 -19.23511570 3.13588062
VERTEX2 91 2.90870802 -19.23363141 -3.09806137
VERTEX2 92 2.30951532 -19.23231063 3.06958629
VERTEX2 93 1.68934908 -19.13288159 2.96884585
VERTEX2 94 1.06960532 -18.99781029 2.92615689
VERTEX2 95 0.45110967 -18.91282510 3.06891225
VERTEX2 96 -0.15508645 -18.86439418 3.09312560
VERTEX2 97 -0.74106539 -18.80422405 3.02270842
VERTEX2 98 -1.32629697 -18.70635638 2.96494000
VERTEX2 99 -2.02582760 -18.58659831 3.01143485
VERTEX2 100 -2.58478162 -18.48243688 2.95936293
VERTEX2 101 -3.18980099 -18.42909604 3.06225287
VERTEX2 102 -3.79644421 -18.35258864 2.95619276
VERTEX2 103 -4.39836428 -18.24183917 3.05196048
VERTEX2 104 -5.00487152 -18.16897784 3.01811781
VERTEX2 105 -5.62196659 -18.10696782 3.06471950
VERTEX2 106 -6.22824282 -18.03894685 3.00984532
VERTEX2 107 -6.84983385 -17.94520119 3.00597947
VERTEX2 108 -7.30560004 -17.89783435 3.06735036
VERTEX2 109 -7.35227415 -17.88616672 2.61845815
VERTEX2 110 -7.36748456 -17.87050784 2.02707420
VERTEX2 111 -7.36788227 -17.79057380 1.52120339
VERTEX2 112 -7.34569290 -17.15736041 1.57561651
VERTEX2 113 -7.36556742 -16.53603267 1.62264679
VERTEX2 114 -7.40030690 -15.92456224 1.65926912
VERTEX2 115 -7.47392262 -15.28865594 1.71912156
VERTEX2 116 -7.59280191 -14.54538063 1.76255983
VERTEX2 117 -7.72766281 -13.94249462 1.85741245
VERTEX2 118 -7.73066541 -13.92902711 1.52162446
VERTEX2 119 -7.67570896 -13.41658394 1.46772282
VERTEX2 120 -7.62388149 -12.77079861 1.55710161
VERTEX2 121 -7.63402350 -12.16240083 1.62392668
VERTEX2 122 -7.66755701 -11.58501865 1.68004630
VERTEX2 123 -7.69174031 -11.41010434 1.66717920
VERTEX2 124 -7.60720440 -11.17606332 1.24388291
VERTEX2 125 -7.39193191 -10.58798319 1.23284776
VERTEX2 126 -7.26033673 -9.97706107 1.43925168
VERTEX2 127 -7.16368378 -9.35171578 1.43760058
VERTEX2 128 -7.08899784 -8.72260020 1.47397979
VERTEX2 129 -7.00384411 -8.09641703 1.44101607
VERTEX2 130 -6.93716133 -7.47222315 1.49336014
VERTEX2 131 -6.89179080 -6.85382077 1.58145879
VERTEX2 132 -6.87381576 -6.24496325 1.53147384
VERTEX2 133 -6.82703393 -5.68914448 1.49453360
VERTEX2 134 -6.77324187 -5.10456974 1.47620016
VERTEX2 135 -6.69117566 -4.53174348 1.44996085
VERTEX2 136 -6.61681661 -3.90194589 1.46956385
VERTEX2 137 -6.52019127 -3.27452093 1.42766936
VERTEX2 138 -6.44413474 -2.64808998 1.50777769
VERTEX2 139 -6.42673389 -2.02894671 1.57294408
VERTEX2 140 -6.45332144 -1.38595182 1.60338293
VERTEX2 141 -6.45845957 -0.75206051 1.55492928
VERTEX2 142 -6.45793340 -0.10845127 1.55108606
VERTEX2 143 -6.37668765 0.52457409 1.44052244
VERTEX2 144 -6.33688887 0.89241758 1.45801656
VERTEX2 145 -6.33085166 0.91063394 0.95968168
VERTEX2 146 -6.32882511 0.92088684 0.36590909
VERTEX2 147 -6.27634848 0.91718009 -0.12109307
VERTEX2 148 -5.84823226 0.85728443 -0.15698284
VERTEX2 149 -5.21127715 0.76344880 -0.13212219
VERTEX2 150 -4.58066461 0.69860105 -0.11821130
VERTEX2 151 -3.94437051 0.65062047 -0.03284079
VERTEX2 152 -3.32227264 0.61423649 -0.09353308
VERTEX2 153 -2.70053304 0.58058118 0.00012464
VERTEX2 154 -2.08252640 0.55880829 -0.06915812
VERTEX2 155 -1.45882770 0.52424210 -0.03527876
VERTEX2 156 -0.83326266 0.50904472 -0.00402144
VERTEX2 157 -0.27133281 0.49093103 -0.06772885
VERTEX2 158 -0.08099561 0.47758631 -0.03833582
VERTEX2 159 -0.07998372 0.47727235 0.95621896
VERTEX2 160 -0.07458598 0.48627849 1.99948259
VERTEX2 161 7.11682882 -33.99737525 -2.45367472
VERTEX2 162 14.29899911 -32.07685395 2.70110841
VERTEX2 163 14.29950869 -32.07667811 -2.57930428
VERTEX2 164 14.28873700 -32.09984834 -1.64949006
VERTEX2 165 14.33308736 -32.24313514 -1.24743527
VERTEX2 166 14.52795781 -32.81085953 -1.24801581
VERTEX2 167 14.71145986 -33.37240629 -1.27696045
VERTEX2 168 14.88497512 -33.90702767 -1.26473841
VERTEX2 169 15.04221818 -34.45784441 -1.30186156
VERTEX2 170 15.19889625 -34.99966725 -1.32288383
VERTEX2 171 15.31840079 -35.52604832 -1.36176597
VERTEX2 172 15.45457704 -36.11762249 -1.34846515
VERTEX2 173 15.57956379 -36.72733451 -1.36655034
VERTEX2 174 15.71179135 -37.33066564 -1.32144840
VERTEX2 175 15.86524696 -37.91628038 -1.34146752
VERTEX2 176 15.98786973 -38.49671320 -1.32726551
VERTEX2 177 16.13830994 -39.09212135 -1.35027967
VERTEX2 178 16.25223858 -39.70139735 -1.38457946
VERTEX2 179 16.32501602 -40.04488284 -1.33083714
VERTEX2 180 10.52341501 -4.40672017 -1.76367126
VERTEX2 181 10.40894395 -4.95030378 -1.81471459
VERTEX2 182 9.19289538 -1.30942169 -0.84392387
VERTEX2 183 9.57467999 -1.78091819 -0.89937721
VERTEX2 184 9.90206854 -2.27288522 -1.04705374
VERTEX2 185 10.17316796 -2.78315556 -1.13990764
VERTEX2 186 10.38445360 -3.32973526 -1.20642410
VERTEX2 187 10.57224070 -3.85531901 -1.22903564
VERTEX2 188 10.76653408 -4.40050674 -1.23429934
VERTEX2 189 10.95391742 -4.95021075 -1.26072295
VERTEX2 190 11.13696668 -5.54827339 -1.28928654
VERTEX2 191 11.30989466 -6.14564954 -1.31312659
VERTEX2 192 11.46415952 -6.73650055 -1.34121876
VERTEX2 193 11.58780179 -7.27887725 -1.39663104
VERTEX2 194 11.68894029 -7.84585319 -1.42297637
VERTEX2 195 11.77083187 -8.40824345 -1.45114756
VERTEX2 196 11.83901720 -9.02840800 -1.49206359
VERTEX2 197 11.87908517 -9.64619114 -1.51937298
VERTEX2 198 11.90657712 -10.26143220 -1.57737158
VERTEX2 199 11.88114351 -10.86632038 -1.63861129
VERTEX2 200 11.83727953 -11.46207062 -1.66034835
VERTEX2 201 11.76911803 -12.06150107 -1.71690017
VERTEX2 202 11.70796849 -12.55986565 -1.69631874
VERTEX2 203 11.60983842 -13.28749689 -1.74857487
VERTEX2 204 11.49201923 -13.85800709 -1.85043609
VERTEX2 205 11.32679992 -14.41554751 -1.85971871
VERTEX2 206 11.17671631 -14.95781516 -1.85761572
VERTEX2 207 11.02108804 -15.51986557 -1.84143224
VERTEX2 208 10.85207667 -16.11478108 -1.85059441
VERTEX2 209 10.69440593 -16.71091779 -1.81203999
VERTEX2 210 10.53656670 -17.29843890 -1.82065347
VERTEX2 211 10.39276832 -17.88959950 -1.81814636
VERTEX2 212 10.22171853 -18.47072287 -1.87071174
VERTEX2 213 10.02960111 -19.06381652 -1.89121037
VERTEX2 214 9.83474481 -19.63851289 -1.89497386
VERTEX2 215 9.72297393 -19.95874667 -1.93072262
VERTEX2 216 9.73638499 -19.93539946 -2.42926099
VERTEX2 217 9.76370812 -19.93226509 -2.97130879
VERTEX2 218 9.77313667 -19.93579984 -3.02729151
VERTEX2 219 9.20764502 -19.89600441 3.08745670
VERTEX2 220 8.59945523 -19.85649371 3.04764912
VERTEX2 221 7.96780381 -19.79551703 3.09808384
VERTEX2 222 7.34575110 -19.75867000 3.07269599
VERTEX2 223 6.72298836 -19.73515681 -3.11402267
VERTEX2 224 6.11159757 -19.74160197 -3.13973644
VERTEX2 225 5.49669595 -19.74181587 -3.09001075
VERTEX2 226 4.88273638 -19.74130550 -3.13912948
VERTEX2 227 4.23932414 -19.81638057 -2.98250293
VERTEX2 228 3.71887336 -19.80593817 2.93901455
VERTEX2 229 3.28753212 -19.77591301 3.05912524
VERTEX2 230 2.99986865 -19.76265930 3.03028334
VERTEX2 231 3.20076917 -19.77867791 3.10005284
VERTEX2 232 2.89231821 -19.64278405 2.67386677
VERTEX2 233 2.32853359 -19.38651483 2.77603981
VERTEX2 234 1.75322493 -19.16420482 2.73177878
VERTEX2 235 1.50511800 -19.05895983 2.72670419
VERTEX2 236 1.17422421 -19.06221156 3.13188835
VERTEX2 237 0.54951347 -19.08072314 -3.08101008
VERTEX2 238 -0.06722221 -19.13249578 -3.11383617
VERTEX2 239 -0.68059385 -19.13301507 3.10162972
VERTEX2 240 -1.24831205 -19.01869994 2.88341762
VERTEX2 241 -1.78166999 -18.89175474 2.96882164
VERTEX2 242 -2.35223287 -18.82990688 3.00826724
VERTEX2 243 -2.94981451 -18.75004993 3.00755080
VERTEX2 244 -3.57082991 -18.70757388 3.07884380
VERTEX2 245 -4.18272168 -18.66193841 3.02462768
VERTEX2 246 -4.78197126 -18.57929653 2.95210675
VERTEX2 247 -5.38267115 -18.50034827 3.05790293
VERTEX2 248 -5.94621345 -18.48025076 3.08873152
VERTEX2 249 -5.89978498 -18.48704697 -3.00137293
VERTEX2 250 -5.89187560 -18.48683884 2.69557853
VERTEX2 251 -6.21113375 -18.15210147 2.27151024
VERTEX2 252 -6.56544084 -17.73608041 2.27989258
VERTEX2 253 -6.93597437 -17.29425006 2.26885120
VERTEX2 254 -7.30038610 -16.83977633 2.22769378
VERTEX2 255 -7.37343768 -16.74784129 2.31153076
VERTEX2 256 -7.37687164 -16.66785676 1.83565307
VERTEX2 257 -7.42993057 -16.21124394 1.69946518
VERTEX2 258 -7.51596792 -15.62166025 1.78015414
VERTEX2 259 -7.65937763 -15.02708206 1.82011776
VERTEX2 260 -7.79253169 -14.47664694 1.81114805
VERTEX2 261 -7.79083620 -14.44754817 1.49870605
VERTEX2 262 -7.72912430 -13.80191094 1.50512964
VERTEX2 263 -7.68815431 -13.18999049 1.51820682
VERTEX2 264 -7.67392265 -12.59140358 1.61480633
VERTEX2 265 -7.70552506 -11.99358969 1.63457290
VERTEX2 266 -7.65809157 -11.42138989 1.50490155
VERTEX2 267 -7.60630316 -10.67553317 1.47521212
VERTEX2 268 -7.47384372 -10.07522013 1.36472562
VERTEX2 269 -7.35353780 -9.46444915 1.39438537
VERTEX2 270 -7.28127486 -8.84753905 1.50831456
VERTEX2 271 -7.18612248 -8.23227575 1.39773628
VERTEX2 272 -7.10038891 -7.61221598 1.46285075
VERTEX2 273 -7.10906466 -6.98328427 1.67636578
VERTEX2 274 -7.17652704 -6.36776691 1.70131441
VERTEX2 275 -7.16397366 -5.77644776 1.52860851
VERTEX2 276 -7.15568905 -5.18614007 1.64209637
VERTEX2 277 -7.20012705 -4.62832772 1.61594655
VERTEX2 278 -7.15478792 -3.99204470 1.52653674
VERTEX2 279 -7.11326913 -3.35929810 1.47118007
VERTEX2 280 -7.04360619 -2.73219262 1.47323221
VERTEX2 281 -6.95167778 -2.10346399 1.37279457
VERTEX2 282 -6.83074281 -1.48144254 1.41267486
VERTEX2 283 -6.74242226 -0.85267526 1.40487390
VERTEX2 284 -6.62932874 -0.23460774 1.43207875
VERTEX2 285 -6.56013055 0.41065981 1.45302196
VERTEX2 286 -6.49148089 1.02814744 1.50648321
VERTEX2 287 -6.48865715 1.07544130 1.40193358
VERTEX2 288 -6.48678252 1.07870074 0.79302972
VERTEX2 289 -6.48583690 1.07907540 0.19931128
VERTEX2 290 -6.04573652 1.06771996 -0.02587887
VERTEX2 291 -5.42337586 1.05597220 -0.01216419
VERTEX2 292 -4.81401904 1.03215169 -0.06716985
VERTEX2 293 -4.19602399 0.98271624 -0.09055756
VERTEX2 294 -3.57576407 0.92567087 -0.08991351
VERTEX2 295 -2.95487862 0.84043678 -0.20243507
VERTEX2 296 -2.33911873 0.69071427 -0.24784999
VERTEX2 297 -1.72555287 0.53405908 -0.25954797
VERTEX2 298 -1.13534496 0.38165534 -0.26100823
VERTEX2 299 -0.56579015 0.22267903 -0.19937011
VERTEX2 300 0.02118319 0.13349755 -0.15687342
VERTEX2 301 0.58233059 0.03089274 -0.21585762
VERTEX2 302 0.88159331 -0.03553275 -0.23665851
VERTEX2 303 0.86282697 -0.03024255 -0.23183482
VERTEX2 304 1.36151074 -0.14767456 -0.22171795
VERTEX2 305 1.98302112 -0.19464066 -0.03724537
VERTEX2 306 2.60641610 -0.20861633 -0.05509472
VERTEX2 307 3.23889382 -0.25936129 -0.09160230
VERTEX2 308 3.85955499 -0.32480496 -0.14702062
VERTEX2 309 4.48758153 -0.38759250 -0.05394439
VERTEX2 310 5.10884140 -0.42011142 -0.08973397
VERTEX2 311 5.38305856 -0.44673907 0.08543762
VERTEX2 312 5.37958510 -0.44855255 1.07403783
VERTEX2 313 5.38501249 -0.22032430 1.57007960
VERTEX2 314 5.36632277 0.41772040 1.60999378
VERTEX2 315 5.33854849 1.04772958 1.60533937
VERTEX2 316 5.30238934 1.68619158 1.65304812
VERTEX2 317 5.24750890 2.32043130 1.65978928
VERTEX2 318 5.15782215 2.94853253 1.75067383
VERTEX2 319 5.08577249 3.28409393 1.81861213
VERTEX2 320 5.09168826 3.30109813 2.77285228
VERTEX2 321 5.13427885 3.31722704 -2.49005681
VERTEX2 322 5.14372599 3.33368556 -1.51109385
VERTEX2 323 5.18379596 3.28895488 -0.53614661
VERTEX2 324 5.24743390 3.26164739 0.11264583
VERTEX2 325 5.31321254 3.26026946 -0.42401196
VERTEX2 326 5.36604587 3.21096839 -1.02896378
VERTEX2 327 5.36903610 3.17984002 -1.66218122
VERTEX2 328 5.27895920 2.54755745 -1.71253949
VERTEX2 329 5.18070172 1.92501680 -1.77274633
VERTEX2 330 5.04956923 1.31985974 -1.79683794
VERTEX2 331 4.91511685 0.71418462 -1.81626131
VERTEX2 332 4.75490186 0.11661863 -1.84005630
VERTEX2 333 4.71414610 -0.02620205 -1.78074462
VERTEX2 334 4.76197875 -0.01700053 -0.76036332
VERTEX2 335 4.80697457 -0.02662294 0.21062519
VERTEX2 336 4.84979415 -0.00887177 1.13407770
VERTEX2 337 4.85571563 0.03977009 2.09399993
VERTEX2 338 4.85317944 0.04145133 3.07779789
VERTEX2 339 4.86816488 0.05117415 -2.16150858
VERTEX2 340 4.86788494 0.05260650 -1.14758983
VERTEX2 341 4.98225904 -0.01493236 -0.51764715
VERTEX2 342 5.55663689 -0.31586996 -0.41711560
VERTEX2 343 6.12838651 -0.51256322 -0.28486129
VERTEX2 344 6.71069568 -0.69085486 -0.29374047
VERTEX2 345 6.94170468 -0.75758589 -0.32002608
VERTEX2 346 6.92035634 -0.75075372 -0.96421512
VERTEX2 347 6.92350481 -0.84103748 -1.52014750
VERTEX2 348 6.94624465 -1.43330570 -1.53568239
VERTEX2 349 6.94936470 -2.05494043 -1.57468150
VERTEX2 350 6.94335512 -2.84536130 -1.59308885
VERTEX2 351 6.93177836 -3.12392259 -1.62108483
VERTEX2 352 6.92910289 -3.13742834 -1.90734256
VERTEX2 353 6.91444394 -3.15585445 -2.56933282
VERTEX2 354 6.89716546 -3.16105458 3.11364461
VERTEX2 355 6.87163540 -3.16040957 2.39493663
VERTEX2 356 6.86342002 -3.14633123 1.82158079
VERTEX2 357 6.86606026 -3.12917605 1.17058816
VERTEX2 358 6.86644784 -3.12863621 0.55712282
VERTEX2 359 6.85620558 -3.13317177 -0.05500277
VERTEX2 360 6.83894249 -3.12996429 -0.23029201
VERTEX2 361 6.83960202 -3.12980232 0.69180539
VERTEX2 362 6.92406112 -2.89247710 1.22740318
VERTEX2 363 7.02596985 -2.61763815 1.22171598
VERTEX2 364 6.95343964 -2.28335352 1.83833712
VERTEX2 365 6.89459061 -1.99292222 1.34301599
VERTEX2 366 7.01166172 -1.85754352 0.79087295
VERTEX2 367 7.46413028 -1.40694975 0.79375240
VERTEX2 368 7.91719204 -0.96411214 0.74578116
VERTEX2 369 7.93858080 -0.93771785 0.49390395
VERTEX2 370 7.96103926 -0.93389239 -0.09300937
VERTEX2 371 7.96487027 -0.93584444 -0.64000694
VERTEX2 372 8.39530288 -1.27984468 -0.66819873
VERTEX2 373 8.86927029 -1.63996598 -0.66668626
VERTEX2 374 9.34993252 -2.03861728 -0.72835170
VERTEX2 375 9.71149613 -2.35552982 -0.75936117
VERTEX2 376 9.72330394 -2.36263670 -0.06685975
VERTEX2 377 9.77409503 -2.32597949 0.62557096
VERTEX2 378 10.30762475 -1.92458567 0.67821594
VERTEX2 379 10.78513443 -1.49127558 0.76141382
VERTEX2 380 11.22270886 -1.02214834 0.87906700
VERTEX2 381 11.37193343 -0.83635282 1.02760795
VERTEX2 382 11.37646259 -0.82814409 2.07302413
VERTEX2 383 11.37401636 -0.82666857 3.06040735
VERTEX2 384 11.37744238 -0.82334766 -2.25853308
VERTEX2 385 11.37670551 -0.82452823 -1.22788555
VERTEX2 386 11.48484181 -0.96305188 -1.00218670
VERTEX2 387 11.94832163 -1.38546434 -0.66955269
VERTEX2 388 12.43660225 -1.75273454 -0.65979516
VERTEX2 389 12.89829188 -2.13782963 -0.74139248
VERTEX2 390 12.92898823 -2.16481927 -0.26510765
VERTEX2 391 12.79635005 -2.16187007 0.11585731
VERTEX2 392 12.72490213 -2.15216735 0.78694340
VERTEX2 393 12.75222177 -2.07514218 2.04083675
VERTEX2 394 12.72414267 -2.05148770 3.03515552
VERTEX2 395 12.97953827 -2.00428427 -2.91040660
VERTEX2 396 12.99617049 -1.99904500 -2.91026147
VERTEX2 397 12.99749746 -1.99913950 -2.92102335
VERTEX2 398 13.01222104 -1.99284623 -2.72391890
VERTEX2 399 12.93861995 -2.05094941 -2.42552031
VERTEX2 400 12.46968045 -2.46082209 -2.37551174
VERTEX2 401 12.00945445 -2.86988351 -2.46849848
VERTEX2 402 11.46061890 -3.15974604 -2.73640026
VERTEX2 403 10.89450084 -3.39674331 -2.77103073
VERTEX2 404 10.35700067 -3.58783311 -2.85082077
VERTEX2 405 10.37513829 -3.57906158 -2.31850682
VERTEX2 406 10.37960473 -3.55219257 -1.34282947
VERTEX2 407 10.49757886 -3.88223848 -1.21574400
VERTEX2 408 10.70238216 -4.45123347 -1.25465496
VERTEX2 409 10.78343682 -4.72422556 -1.35535547
VERTEX2 410 10.78390771 -4.70926349 -1.98502887
VERTEX2 411 10.79714803 -4.68572431 -2.57604711
VERTEX2 412 10.30136872 -4.88410344 -2.78017331
VERTEX2 413 9.73114995 -5.07805278 -2.86039287
VERTEX2 414 9.15563951 -5.26203291 -2.75734389
VERTEX2 415 8.56119946 -5.49417074 -2.74944846
VERTEX2 416 8.28557494 -5.61666045 -2.80367162
VERTEX2 417 8.00147784 -5.60128859 3.05689222
VERTEX2 418 7.57042244 -5.55946515 3.01272602
VERTEX2 419 7.57410739 -5.55861762 -2.83904583
VERTEX2 420 7.62712129 -5.53495076 -2.62257420
VERTEX2 421 7.63034884 -5.52979908 -1.65412015
VERTEX2 422 7.62785611 -5.53329059 -0.41386652
VERTEX2 423 7.63369330 -5.53385512 -0.06789006
VERTEX2 424 7.63414546 -5.53417693 -0.06714645
VERTEX2 425 7.63050439 -5.53622096 -0.05500456
VERTEX2 426 7.63057553 -5.53637147 -0.06371715
VERTEX2 427 7.66317537 -5.53815375 -0.06019115
VERTEX2 428 8.32545046 -5.56107121 -0.06533280
VERTEX2 429 8.96587109 -5.61158899 -0.10597060
VERTEX2 430 9.29423809 -5.65179687 -0.15147263
VERTEX2 431 9.25877193 -5.64743611 -0.09895787
VERTEX2 432 9.26511207 -5.64970210 -0.72765139
VERTEX2 433 9.27010966 -5.65656920 -1.40175558
VERTEX2 434 9.23356400 -6.19651912 -1.62781261
VERTEX2 435 9.20246844 -6.84027964 -1.65461438
VERTEX2 436 9.12625607 -7.48150198 -1.66193775
VERTEX2 437 9.07647731 -8.13249774 -1.65252495
VERTEX2 438 9.02624796 -8.60750431 -1.68279288
VERTEX2 439 9.02276345 -8.62084941 -2.11818373
VERTEX2 440 9.02300161 -8.62072283 -2.76053281
VERTEX2 441 9.04062950 -8.61891555 2.90231234
VERTEX2 442 9.04890050 -8.62338746 2.27462967
VERTEX2 443 9.04899786 -8.62498574 1.70930120
VERTEX2 444 9.05200586 -8.60889567 1.11937932
VERTEX2 445 9.05794156 -8.60318184 0.46297055
VERTEX2 446 9.05738016 -8.60354209 0.66529224
VERTEX2 447 9.06924326 -8.58038432 1.29841941
VERTEX2 448 9.21780789 -7.95789456 1.31609750
VERTEX2 449 9.34925624 -7.32097779 1.41762553
VERTEX2 450 9.44188279 -6.68360840 1.43144973
VERTEX2 451 9.49368225 -6.21416192 1.47453345
VERTEX2 452 9.49367181 -6.21438475 1.09732531
VERTEX2 453 9.49180227 -6.21779160 0.47635674
VERTEX2 454 9.75623208 -6.19638105 0.05437730
VERTEX2 455 10.35416500 -6.16936485 0.03432171
VERTEX2 456 10.98583209 -6.16186280 -0.02970262
VERTEX2 457 11.33965768 -6.18243960 -0.11682453
VERTEX2 458 11.34012591 -6.18265875 -0.76182909
VERTEX2 459 11.33106622 -6.14707790 -1.36935085
VERTEX2 460 11.31368945 -6.54286612 -1.62595069
VERTEX2 461 11.25017094 -7.15735921 -1.71393696
VERTEX2 462 11.16715409 -7.66504731 -1.75398114
VERTEX2 463 11.17907771 -7.64122836 -0.91383349
VERTEX2 464 11.42845756 -7.70991418 -0.23688148
VERTEX2 465 12.00702740 -7.83728390 -0.22956387
VERTEX2 466 12.55506771 -7.98304253 -0.28569630
VERTEX2 467 13.12029707 -8.15918205 -0.32966339
VERTEX2 468 13.73238092 -8.37297481 -0.36517780
VERTEX2 469 14.32132476 -8.63381820 -0.44809661
VERTEX2 470 14.77522173 -8.84655089 -0.42916772
VERTEX2 471 14.78223994 -8.85031331 -0.62889274
VERTEX2 472 14.79750360 -8.87141814 -1.26123397
VERTEX2 473 14.79807390 -8.87418405 -1.90149699
VERTEX2 474 14.79905625 -8.87292414 -2.53250829
VERTEX2 475 14.80724430 -8.87179425 -3.10552224
VERTEX2 476 14.81596768 -8.87296253 2.52729871
VERTEX2 477 14.82252169 -8.88565323 1.96851904
VERTEX2 478 14.82351405 -8.89788745 1.34227351
VERTEX2 479 14.82278984 -8.89956376 0.88861510
VERTEX2 480 14.82339065 -8.89819147 1.45137832
VERTEX2 481 14.82044057 -8.88574514 2.45462773
VERTEX2 482 14.83080268 -8.88982096 2.79126515
VERTEX2 483 14.84342878 -8.89434189 2.78615554
VERTEX2 484 14.42222413 -8.74141836 2.82196469
VERTEX2 485 13.84559604 -8.56396834 2.82033948
VERTEX2 486 13.23459307 -8.35342292 2.82950382
VERTEX2 487 12.61501605 -8.17633959 2.85739798
VERTEX2 488 11.99320378 -7.99714049 2.89312368
VERTEX2 489 11.51377706 -7.89093831 2.92315850
VERTEX2 490 11.50973398 -7.89135163 -2.87572258
VERTEX2 491 11.51858514 -7.87954541 -1.94002916
VERTEX2 492 11.50339742 -8.10466259 -1.63718223
VERTEX2 493 11.44504395 -8.70423652 -1.69235226
VERTEX2 494 11.36140712 -9.31136581 -1.75338186
VERTEX2 495 11.29474178 -9.94095997 -1.64535429
VERTEX2 496 11.25499117 -10.56083625 -1.52734911
VERTEX2 497 11.25193858 -11.17407550 -1.61315437
VERTEX2 498 11.18784022 -11.79111738 -1.71472393
VERTEX2 499 11.06240350 -12.41351136 -1.73154623
VERTEX2 500 11.12235497 -12.96482651 -1.40370507
VERTEX2 501 11.19961006 -13.53804461 -1.47579526
VERTEX2 502 11.22742986 -14.22765076 -1.56027177
VERTEX2 503 11.22559044 -14.66895602 -1.57723288
VERTEX2 504 11.23279289 -14.64822592 -0.72052709
VERTEX2 505 11.46918638 -14.67375599 -0.09866430
VERTEX2 506 12.06005794 -14.75163041 -0.25121403
VERTEX2 507 12.63994907 -14.91728147 -0.32978175
VERTEX2 508 13.20774568 -15.12443740 -0.34307818
VERTEX2 509 13.81985851 -15.35083298 -0.39924245
VERTEX2 510 14.16828642 -15.50397183 -0.41338374
VERTEX2 511 14.16621875 -15.48479714 0.46155099
VERTEX2 512 14.18795044 -15.43845624 1.65805377
VERTEX2 513 14.18355672 -15.42567388 2.61306164
VERTEX2 514 14.11928554 -15.40789694 2.83969914
VERTEX2 515 13.51152754 -15.23053220 2.84102169
VERTEX2 516 12.92930874 -15.04021767 2.85712858
VERTEX2 517 12.33905861 -14.89563413 2.88552077
VERTEX2 518 11.74913790 -14.74804754 2.91005232
VERTEX2 519 11.22977549 -14.62740770 2.89451587
VERTEX2 520 11.06506152 -14.58536181 -2.98990609
VERTEX2 521 11.08458308 -14.56361697 -1.98531446
VERTEX2 522 11.02064240 -14.96548962 -1.72075790
VERTEX2 523 10.93323486 -15.58244263 -1.72795108
VERTEX2 524 10.83332773 -16.15360428 -1.76964365
VERTEX2 525 10.73326858 -16.69305836 -1.74575379
VERTEX2 526 10.62126535 -17.25942376 -1.80426214
VERTEX2 527 10.47791377 -17.83664204 -1.83877430
VERTEX2 528 10.30296715 -18.39384911 -1.91488986
VERTEX2 529 10.09741082 -18.99010099 -1.94316114
VERTEX2 530 9.85717793 -19.58397765 -1.97321888
VERTEX2 531 9.59189950 -20.15948694 -2.05285531
VERTEX2 532 9.49574688 -20.34497723 -2.00206758
VERTEX2 533 9.48958743 -20.31643876 -1.00184519
VERTEX2 534 9.48534041 -20.31367424 -0.33444310
VERTEX2 535 9.48739999 -20.31295587 -0.33467124
VERTEX2 536 9.84504996 -20.39355981 -0.20381720
VERTEX2 537 10.45311195 -20.53587067 -0.26175270
VERTEX2 538 11.01377210 -20.69918187 -0.28885994
VERTEX2 539 11.62218931 -20.90148971 -0.35368048
VERTEX2 540 12.20859979 -21.14757184 -0.44669214
VERTEX2 541 12.79609035 -21.36949327 -0.28453120
VERTEX2 542 13.42802207 -21.50570531 -0.22886182
VERTEX2 543 13.54971531 -21.53511183 -0.25856122
VERTEX2 544 13.57261372 -21.53258108 0.37834784
VERTEX2 545 13.59851173 -21.48461702 1.44431589
VERTEX2 546 13.61463788 -21.52549689 2.27119316
VERTEX2 547 13.62450530 -21.52474973 -2.99050018
VERTEX2 548 13.64136016 -21.51373695 -2.06778846
VERTEX2 549 13.64198353 -21.50949493 -1.25981643
VERTEX2 550 13.64096862 -21.49440495 -1.73875726
VERTEX2 551 13.64573980 -21.48450423 -2.36406530
VERTEX2 552 13.65894326 -21.47775037 -2.99617071
VERTEX2 553 13.52186034 -21.42713383 2.71002564
VERTEX2 554 12.92759642 -21.15079595 2.67466245
VERTEX2 555 12.34617875 -20.88343191 2.76361439
VERTEX2 556 11.73983598 -20.67264550 2.89877221
VERTEX2 557 11.13959182 -20.50945683 2.85733607
VERTEX2 558 10.56364599 -20.35965704 2.93812422
VERTEX2 559 10.57290861 -20.36267068 2.53074958
VERTEX2 560 10.56692081 -20.35572318 2.02933593
VERTEX2 561 10.54437649 -20.33428889 2.53407785
VERTEX2 562 10.36791881 -20.33607332 -3.10612427
VERTEX2 563 9.79871855 -20.26329887 2.98494407
VERTEX2 564 9.19314856 -20.17770465 3.03355845
VERTEX2 565 8.55061303 -20.10586775 2.97685669
VERTEX2 566 8.63714911 -20.13435872 -2.57314209
VERTEX2 567 8.57794933 -20.13774519 -1.73283074
VERTEX2 568 8.53104776 -20.64620947 -1.66864374
VERTEX2 569 8.48375874 -21.22283037 -1.70791416
VERTEX2 570 8.41901870 -21.80420929 -1.70328540
VERTEX2 571 8.36922731 -22.15723764 -1.75180250
VERTEX2 572 8.34510504 -22.17514060 -1.99659856
VERTEX2 573 8.31292991 -22.24885539 -1.72199317
VERTEX2 574 8.34089570 -22.28830029 -0.78962844
VERTEX2 575 8.46339462 -22.32666792 0.16917111
VERTEX2 576 8.46362211 -22.32683760 1.19415754
VERTEX2 577 8.45568962 -22.30754804 2.16113534
VERTEX2 578 8.44584630 -22.27704404 1.79483818
VERTEX2 579 8.30687405 -21.62815444 1.80874181
VERTEX2 580 8.13216651 -20.99287996 1.88268249
VERTEX2 581 7.92616691 -20.37470480 1.92398033
VERTEX2 582 7.69384434 -19.76640912 1.96607974
VERTEX2 583 7.55946122 -19.46304010 2.04436559
VERTEX2 584 7.55553690 -19.45571986 2.88503687
VERTEX2 585 6.98255617 -19.32647548 3.00230652
VERTEX2 586 6.40085157 -19.26105118 3.09890506
VERTEX2 587 5.79544180 -19.25756386 3.12350124
VERTEX2 588 5.18434614 -19.23871735 3.12678798
VERTEX2 589 4.64993323 -19.26834809 -3.08111921
VERTEX2 590 4.10489416 -19.31727011 -3.01245252
VERTEX2 591 3.57063292 -19.40063515 -3.01439732
VERTEX2 592 3.03354980 -19.47893642 -3.01694769
VERTEX2 593 2.85716582 -19.50284205 -2.81153718
VERTEX2 594 2.90271152 -19.45292779 -1.89473581
VERTEX2 595 2.79380759 -20.06083875 -1.66172552
VERTEX2 596 2.74574236 -20.68550324 -1.68475212
VERTEX2 597 2.65880155 -21.36109097 -1.72457390
VERTEX2 598 2.56032912 -21.96012011 -1.76678426
VERTEX2 599 2.47474323 -22.33791038 -1.83302070
VERTEX2 600 2.47505131 -22.35423194 -1.02664863
VERTEX2 601 2.51623870 -22.37922026 -0.00873395
VERTEX2 602 2.55200639 -22.36454707 1.00505740
VERTEX2 603 2.51641133 -22.13209495 1.77785676
VERTEX2 604 2.45245847 -21.52218890 1.53384095
VERTEX2 605 2.45718348 -20.88126382 1.61629859
VERTEX2 606 2.41310138 -20.24056362 1.65824701
VERTEX2 607 2.42055287 -19.65745992 1.57707577
VERTEX2 608 2.40547094 -19.27819373 1.62141292
VERTEX2 609 2.40262241 -19.26197613 1.95751072
VERTEX2 610 2.39225836 -19.25828837 2.88971719
VERTEX2 611 1.79294475 -19.11007418 2.89259221
VERTEX2 612 1.32476172 -18.97884883 2.89521795
VERTEX2 613 1.36517139 -18.99101588 -2.92362248
VERTEX2 614 1.37986980 -18.97979112 -1.88453997
VERTEX2 615 1.39425276 -19.45771695 -1.57957857
VERTEX2 616 1.40361737 -20.07195015 -1.63049431
VERTEX2 617 1.26849031 -20.67399023 -1.84740873
VERTEX2 618 1.10213201 -21.27891627 -1.83711334
VERTEX2 619 0.94398073 -21.84930221 -1.83831610
VERTEX2 620 0.76338544 -22.42415294 -1.93421546
VERTEX2 621 0.89129166 -22.08933522 -1.98548868
VERTEX2 622 1.01418306 -21.82358193 -2.06023673
VERTEX2 623 1.01464914 -21.82294857 -2.59678641
VERTEX2 624 0.98690275 -21.82279406 3.04440397
VERTEX2 625 0.94641534 -21.80665810 2.38648769
VERTEX2 626 0.92073001 -21.77744471 1.76894487
VERTEX2 627 0.99178721 -21.40577820 1.35847717
VERTEX2 628 1.16701945 -20.78225959 1.25779275
VERTEX2 629 1.33543869 -20.15600461 1.32874763
VERTEX2 630 1.45810422 -19.54948576 1.41360654
VERTEX2 631 1.52857044 -19.01655388 1.43352610
VERTEX2 632 1.53163527 -18.99798114 2.10960158
VERTEX2 633 1.43651364 -18.99196727 -3.08683439
VERTEX2 634 0.77157047 -19.03267986 -3.05935369
VERTEX2 635 0.12095547 -19.04732622 3.08889889
VERTEX2 636 -0.51810889 -19.02286116 3.07137529
VERTEX2 637 -1.14352003 -18.95287146 2.97213931
VERTEX2 638 -1.52858662 -18.87669394 2.94249780
VERTEX2 639 -2.13220074 -18.77861465 3.02273855
VERTEX2 640 -2.74004725 -18.67435639 2.95474605
VERTEX2 641 -3.33716913 -18.56770841 2.94640032
VERTEX2 642 -3.91012325 -18.43477082 2.90104722
VERTEX2 643 -4.38770976 -18.30191248 2.83401704
VERTEX2 644 -4.39229574 -18.30296210 -2.69255951
VERTEX2 645 -4.42936960 -18.44620718 -1.91622606
VERTEX2 646 -4.56336729 -19.05484213 -1.62071752
VERTEX2 647 -4.51694709 -19.69515604 -1.33172042
VERTEX2 648 -4.29165149 -20.31694077 -1.16530888
VERTEX2 649 -4.11560230 -20.91261860 -1.50273106
VERTEX2 650 -4.21282140 -21.54017048 -1.75993082
VERTEX2 651 -4.22934803 -21.68430214 -0.96016750
VERTEX2 652 -4.16877266 -21.71111460 0.06530993
VERTEX2 653 -4.12607871 -21.67226948 1.09631221
VERTEX2 654 -4.13709244 -21.37676776 1.60974395
VERTEX2 655 -4.15144703 -20.82460144 1.60483817
VERTEX2 656 -4.15500603 -20.22374621 1.59229643
VERTEX2 657 -4.26634411 -19.61352513 1.86905640
VERTEX2 658 -4.46345471 -18.99194219 1.86228196
VERTEX2 659 -4.58085505 -18.50399035 1.79077902
VERTEX2 660 -4.58313674 -18.49300539 2.39012139
VERTEX2 661 -4.75579687 -18.47515127 3.04271683
VERTEX2 662 -5.34373735 -18.41984447 3.11195910
VERTEX2 663 -5.93214227 -18.43770333 -3.07027837
VERTEX2 664 -5.94122712 -18.43540781 -2.54712848
VERTEX2 665 -5.95663267 -18.53663314 -1.71273457
VERTEX2 666 -6.02465856 -19.14045054 -1.67535120
VERTEX2 667 -6.07816543 -19.70188930 -1.67047611
VERTEX2 668 -6.13776842 -20.29087754 -1.64440124
VERTEX2 669 -6.18210109 -20.91123801 -1.66920625
VERTEX2 670 -6.27694951 -21.52496482 -1.72830261
VERTEX2 671 -6.32281789 -21.82087781 -1.67327997
VERTEX2 672 -6.22604714 -21.24251051 -1.76235999
VERTEX2 673 -6.16234716 -20.97731391 -1.89301679
VERTEX2 674 -6.15034913 -20.96446442 -2.54139454
VERTEX2 675 -6.12661221 -20.95926359 3.13295219
VERTEX2 676 -6.11881429 -20.96374758 2.50939042
VERTEX2 677 -6.11272112 -20.97201892 1.89332595
VERTEX2 678 -6.08637899 -20.75192979 1.44721138
VERTEX2 679 -6.02615692 -20.17470486 1.50970460
VERTEX2 680 -6.05632862 -19.72899570 1.85444635
VERTEX2 681 -6.21195240 -19.13913052 1.82681693
VERTEX2 682 -6.38770027 -18.53482101 1.87436650
VERTEX2 683 -6.48071368 -18.25606131 2.03306489
VERTEX2 684 -6.44158918 -18.29538833 3.11551296
VERTEX2 685 -6.83804340 -18.45671913 -2.72265476
VERTEX2 686 -7.27952829 -18.59586982 -2.86600701
VERTEX2 687 -7.86725031 -18.75129416 -2.90036169
VERTEX2 688 -8.45933516 -18.87656027 -2.91145970
VERTEX2 689 -9.01685900 -19.02043413 -2.88305702
VERTEX2 690 -9.54138856 -19.19308585 -2.80821735
VERTEX2 691 -9.92545872 -19.32656555 -2.83561869
VERTEX2 692 -9.90447768 -19.31687446 -2.30049808
VERTEX2 693 -9.88029400 -19.38935380 -1.26003282
VERTEX2 694 -9.85348631 -19.46581859 -0.42606414
VERTEX2 695 -9.84135471 -19.46219966 0.37282102
VERTEX2 696 -9.83966549 -19.46107841 1.39688642
VERTEX2 697 -9.85137741 -19.50105103 1.14335045
VERTEX2 698 -9.52749858 -19.29131662 0.48760174
VERTEX2 699 -8.97134378 -18.97519435 0.60118624
VERTEX2 700 -8.46499997 -18.61113183 0.65429704
VERTEX2 701 -8.03750509 -18.24720536 0.71302752
VERTEX2 702 -7.56476165 -17.93054571 0.59736129
VERTEX2 703 -7.05889381 -17.59254983 0.63116882
VERTEX2 704 -6.57146334 -17.20933357 0.64889944
VERTEX2 705 -6.06330783 -16.78555625 0.71907258
VERTEX2 706 -5.63524171 -16.46505531 0.44997430
VERTEX2 707 -5.60921995 -16.46350391 -0.07046793
VERTEX2 708 -5.59806023 -16.46987620 -0.70920870
VERTEX2 709 -5.63714729 -16.42822663 -1.04141972
VERTEX2 710 -5.64102947 -16.41831793 -1.60275788
VERTEX2 711 -5.63044211 -16.42778426 -2.19972773
VERTEX2 712 -5.61040139 -16.41227772 -2.76039284
VERTEX2 713 -6.08247907 -16.46478398 -3.04586622
VERTEX2 714 -6.63875343 -16.44189097 3.04021957
VERTEX2 715 -7.26218320 -16.40809047 -3.13958741
VERTEX2 716 -7.89664327 -16.38891416 3.00555447
VERTEX2 717 -8.51833049 -16.32378195 3.09030020
VERTEX2 718 -9.28104944 -16.20849831 2.91491103
VERTEX2 719 -9.89845225 -16.09586791 2.98936894
VERTEX2 720 -10.51169354 -15.98611292 2.93015629
VERTEX2 721 -11.12987510 -15.87293112 2.99836603
VERTEX2 722 -11.14643250 -15.87064476 3.06505687
VERTEX2 723 -11.16691985 -15.89195781 -2.12822634
VERTEX2 724 -11.16684802 -15.93586541 -1.05939618
VERTEX2 725 -11.13949031 -15.95409310 -0.42506449
VERTEX2 726 -10.81404785 -15.94891632 0.02911442
VERTEX2 727 -10.17674462 -15.90848762 0.05985258
VERTEX2 728 -9.53662323 -15.88231750 0.06123625
VERTEX2 729 -8.89914360 -15.81987274 0.11887481
VERTEX2 730 -8.27635926 -15.72566025 0.15637718
VERTEX2 731 -7.62867105 -15.62342815 0.16843660
VERTEX2 732 -7.48704487 -15.59442760 0.61471604
VERTEX2 733 -7.48457872 -15.59842298 1.61068766
VERTEX2 734 -7.54463471 -15.04474881 1.68862875
VERTEX2 735 -7.60692869 -14.44472798 1.65644393
VERTEX2 736 -7.60755390 -14.43580490 2.25561275
VERTEX2 737 -7.60309489 -14.43638662 3.05622928
VERTEX2 738 -8.18388246 -14.39722672 3.07524784
VERTEX2 739 -8.78867176 -14.30354069 3.01756544
VERTEX2 740 -9.29326255 -14.26445333 3.08076785
VERTEX2 741 -9.27485105 -14.26421052 2.71181365
VERTEX2 742 -9.27544661 -14.26381570 2.05887886
VERTEX2 743 -9.27708344 -14.25664733 1.44192772
VERTEX2 744 -9.26811682 -14.23600732 0.90243692
VERTEX2 745 -9.24711168 -14.22498027 0.30839032
VERTEX2 746 -8.70123989 -14.24271315 -0.16694324
VERTEX2 747 -8.05303963 -14.35738448 -0.20229675
VERTEX2 748 -7.47284935 -14.50041552 -0.27071195
VERTEX2 749 -7.39488845 -14.51977628 0.15832357
VERTEX2 750 -7.38836796 -14.50772814 1.08509709
VERTEX2 751 -7.42275584 -14.23805661 1.72512135
VERTEX2 752 -7.47948816 -13.62125912 1.62166881
VERTEX2 753 -7.51627628 -12.98804592 1.68483520
VERTEX2 754 -7.52335679 -12.35186536 1.52276601
VERTEX2 755 -7.50577749 -11.72186859 1.60931088
VERTEX2 756 -7.46971097 -11.08984864 1.43301823
VERTEX2 757 -7.39666966 -10.44841318 1.54493498
VERTEX2 758 -7.41818704 -9.87260041 1.68718667
VERTEX2 759 -7.40895427 -9.32926498 1.56707108
VERTEX2 760 -7.44847128 -8.73084858 1.67851083
VERTEX2 761 -7.45034864 -8.70568872 1.85895909
VERTEX2 762 -7.52279783 -8.67342300 2.69241795
VERTEX2 763 -8.09022725 -8.57258361 2.98514135
VERTEX2 764 -8.50349866 -8.50268333 2.95751727
VERTEX2 765 -8.49085481 -8.50244561 -2.68718087
VERTEX2 766 -8.49548404 -8.51748729 -1.68796744
VERTEX2 767 -8.48757297 -8.53762024 -0.75814366
VERTEX2 768 -8.46248007 -8.53922497 -0.03660661
VERTEX2 769 -7.82937209 -8.45257433 0.12049719
VERTEX2 770 -7.17924292 -8.39554043 0.05355139
VERTEX2 771 -7.09339418 -8.38860228 0.61442424
VERTEX2 772 -7.09091229 -8.38079585 1.48293942
VERTEX2 773 -7.06634327 -7.80391066 1.56906660
VERTEX2 774 -7.07804494 -7.25529738 1.59138228
VERTEX2 775 -7.07760736 -7.25718116 2.43698891
VERTEX2 776 -7.28836764 -7.23137031 3.05494565
VERTEX2 777 -7.90305880 -7.18911133 3.11422773
VERTEX2 778 -8.51711060 -7.17822787 3.09351689
VERTEX2 779 -9.12162827 -7.15687448 3.11189914
VERTEX2 780 -9.31875322 -7.13975445 2.98201636
VERTEX2 781 -9.30923934 -7.14316429 2.40911201
VERTEX2 782 -9.43628783 -6.87122123 1.97999023
VERTEX2 783 -9.67087028 -6.29748508 1.97963114
VERTEX2 784 -9.76927425 -6.07251779 1.95832097
VERTEX2 785 -9.77018552 -6.04715077 1.40638413
VERTEX2 786 -9.76056905 -6.01549245 0.81853900
VERTEX2 787 -9.74087725 -5.99531119 0.32828862
VERTEX2 788 -9.72170830 -5.99660280 -0.30061546
VERTEX2 789 -9.71694932 -6.00033797 -0.85237599
VERTEX2 790 -9.41423205 -6.39026800 -0.91942946
VERTEX2 791 -9.00966343 -6.87150181 -0.82077530
VERTEX2 792 -8.77125894 -7.08364051 -0.11624337
VERTEX2 793 -8.15752292 -7.13559752 -0.07148718
VERTEX2 794 -7.52167733 -7.16451263 -0.00056653
VERTEX2 795 -7.55241015 -7.18714733 0.42827322
VERTEX2 796 -7.56571207 -7.19256588 1.08687135
VERTEX2 797 -7.49280650 -6.89135355 1.34660832
VERTEX2 798 -7.35823359 -6.27312611 1.39645383
VERTEX2 799 -7.27085168 -5.63676585 1.46186482
VERTEX2 800 -7.21584177 -4.99818873 1.53443795
VERTEX2 801 -7.22462770 -4.36645394 1.62064355
VERTEX2 802 -7.27647493 -3.74115287 1.67860795
VERTEX2 803 -7.25739118 -3.11803559 1.51371743
VERTEX2 804 -7.23526389 -2.49618178 1.56944088
VERTEX2 805 -7.26598562 -1.87102943 1.64553772
VERTEX2 806 -7.32319252 -1.27776982 1.68677269
VERTEX2 807 -7.34943096 -1.09529099 1.97467644
VERTEX2 808 -7.34688491 -1.09541529 2.92245374
VERTEX2 809 -7.93135051 -1.06399273 3.06696937
VERTEX2 810 -8.54115795 -0.93899194 2.92666245
VERTEX2 811 -9.13261175 -0.82560360 2.92326423
VERTEX2 812 -9.12779785 -0.82664111 -2.62854909
VERTEX2 813 -9.13685356 -0.84656504 -1.65378717
VERTEX2 814 -9.13083145 -0.85139114 -0.66194184
VERTEX2 815 -9.10859287 -0.85903885 0.25697935
VERTEX2 816 -9.10421779 -0.85666598 0.93787595
VERTEX2 817 -9.09810693 -0.85285786 0.26914754
VERTEX2 818 -8.88410024 -0.88702953 -0.21971261
VERTEX2 819 -8.29972355 -1.01753911 -0.20528340
VERTEX2 820 -7.71246261 -1.15190878 -0.24624693
VERTEX2 821 -7.17271445 -1.28480409 -0.23020658
VERTEX2 822 -7.13034624 -1.29151402 0.53119811
VERTEX2 823 -7.12940421 -1.28166498 1.45020334
VERTEX2 824 -7.06220991 -0.66501408 1.37086755
VERTEX2 825 -6.91560831 -0.04803127 1.34118647
VERTEX2 826 -6.85494934 0.57867854 1.50409037
VERTEX2 827 -6.78754715 1.19701714 1.45539334
VERTEX2 828 -6.72969322 1.82291549 1.49086217
VERTEX2 829 -6.66503761 2.42502344 1.45108042
VERTEX2 830 -6.58639931 3.03235292 1.44272433
VERTEX2 831 -6.48875536 3.60787984 1.39588834
VERTEX2 832 -6.39511369 4.16911037 1.39228270
VERTEX2 833 -6.34965885 4.42297929 1.52988558
VERTEX2 834 -6.35131402 4.42899357 2.58436556
VERTEX2 835 -6.36488706 4.43065175 -2.92128658
VERTEX2 836 -6.37811497 4.41964121 -1.97838440
VERTEX2 837 -6.37467094 4.40002514 -0.94219967
VERTEX2 838 -6.36344438 4.39291442 -0.07956667
VERTEX2 839 -6.36325840 4.39282497 -0.29765189
VERTEX2 840 -6.35279313 4.38450589 -0.86000211
VERTEX2 841 -6.34566941 4.36994640 -1.47676835
VERTEX2 842 -6.37329769 4.12528645 -1.70741646
VERTEX2 843 -6.45493107 3.56297375 -1.70983295
VERTEX2 844 -6.53391090 2.93865151 -1.71774425
VERTEX2 845 -6.63133058 2.31494637 -1.73236037
VERTEX2 846 -6.72082150 1.68696437 -1.73053061
VERTEX2 847 -6.83462277 1.06530630 -1.75745921
VERTEX2 848 -6.86668382 0.86921703 -1.27718174
VERTEX2 849 -6.86557026 0.86880942 -0.35526826
VERTEX2 850 -6.51025601 0.86312324 -0.00199903
VERTEX2 851 -5.88300228 0.83316434 -0.09457780
VERTEX2 852 -5.25881157 0.76799036 -0.08022745
VERTEX2 853 -4.66407943 0.72168886 -0.10821057
VERTEX2 854 -4.07711382 0.65010156 -0.10626019
VERTEX2 855 -3.48238538 0.59533685 -0.10810812
VERTEX2 856 -2.82122877 0.50356015 -0.14859862
VERTEX2 857 -2.16119714 0.40818414 -0.15790673
VERTEX2 858 -1.50703751 0.28001722 -0.21210459
VERTEX2 859 -0.97682208 0.17022955 -0.21860726
VERTEX2 860 -0.94944414 0.18137368 0.63453296
VERTEX2 861 -0.93609181 0.27428219 1.55192630
VERTEX2 862 -0.89856225 0.91563379 1.49230051
VERTEX2 863 -0.84250132 1.54168753 1.45981966
VERTEX2 864 -0.75770791 2.13395164 1.45771565
VERTEX2 865 -0.71687398 2.73555087 1.51515538
VERTEX2 866 -0.67256713 3.31166704 1.51387006
VERTEX2 867 -0.66542701 3.46579305 1.69484281
VERTEX2 868 -0.66776486 3.46858125 2.71766981
VERTEX2 869 -0.66180364 3.46858894 -2.58958164
VERTEX2 870 -0.64313266 3.47851459 -1.59039232
VERTEX2 871 -0.62897826 3.46882137 -0.61694773
VERTEX2 872 -0.61267083 3.45692295 0.06787354
VERTEX2 873 -0.58702246 3.44821972 -0.50506202
VERTEX2 874 -0.56954723 3.43225906 -1.06480676
VERTEX2 875 -0.56600030 3.42383434 -1.65147394
VERTEX2 876 -0.68779700 2.87593187 -1.80912030
VERTEX2 877 -0.84142492 2.34211845 -1.89383956
VERTEX2 878 -0.89130819 2.15016177 -1.51099001
VERTEX2 879 -0.79541208 1.51836342 -1.46002080
VERTEX2 880 -0.76336766 1.07662410 -1.57278029
VERTEX2 881 -0.76340076 1.13404532 -1.56749440
VERTEX2 882 -0.82355891 0.50263264 -1.81410838
VERTEX2 883 -1.04092415 -0.08400382 -2.00490884
VERTEX2 884 -1.19871150 -0.40857025 -2.07193060
VERTEX2 885 -1.19902096 -0.40058833 -1.49050218
VERTEX2 886 -1.18606283 -0.41288261 -0.47274420
VERTEX2 887 -1.16023092 -0.42314911 0.53832264
VERTEX2 888 -1.14653448 -0.39494539 1.52209324
VERTEX2 889 -1.15050778 -0.38304689 2.41991474
VERTEX2 890 -1.46758706 -0.22642178 2.69380000
VERTEX2 891 -2.00537955 0.04638683 2.62348571
VERTEX2 892 -2.53939664 0.37218887 2.58794876
VERTEX2 893 -3.09275131 0.67434034 2.82430967
VERTEX2 894 -3.70596787 0.79110553 3.04547172
VERTEX2 895 -4.30513029 0.74746544 -2.93929148
VERTEX2 896 -4.32408384 0.74309633 -2.46064855
VERTEX2 897 -4.61098684 0.32566057 -2.18825894
VERTEX2 898 -4.96284328 -0.17560504 -2.17261342
VERTEX2 899 -5.24885667 -0.57791815 -2.24020097
VERTEX2 900 -5.66282954 -1.11377838 -2.24245094
VERTEX2 901 -6.03416776 -1.55046241 -2.30666218
VERTEX2 902 -6.45042329 -2.03407118 -2.28126723
VERTEX2 903 -6.76419219 -2.40411807 -2.32564441
VERTEX2 904 -6.76411475 -2.40407062 -1.62192284
VERTEX2 905 -6.75390498 -2.89166644 -1.56626242
VERTEX2 906 -6.72420984 -3.45760418 -1.50034585
VERTEX2 907 -6.67249040 -4.02262758 -1.50800781
VERTEX2 908 -6.63011553 -4.64059857 -1.48283838
VERTEX2 909 -6.57329637 -5.24898148 -1.50039330
VERTEX2 910 -6.60037037 -5.37206785 -1.86962320
VERTEX2 911 -6.76158412 -5.93739481 -1.80810985
VERTEX2 912 -6.88348796 -6.49510497 -1.79488243
VERTEX2 913 -6.99616441 -7.03110268 -1.78636130
VERTEX2 914 -7.12253954 -7.61342589 -1.80942187
VERTEX2 915 -7.24576856 -8.11679397 -1.84553394
VERTEX2 916 -7.18351014 -8.35469835 -1.29775539
VERTEX2 917 -7.04709177 -8.99825565 -1.55193783
VERTEX2 918 -7.06790850 -9.50585958 -1.62724591
VERTEX2 919 -7.10226769 -10.11959169 -1.67028135
VERTEX2 920 -7.16698828 -10.72470481 -1.68753351
VERTEX2 921 -7.24028753 -11.33139259 -1.74044509
VERTEX2 922 -7.34401602 -11.93276314 -1.76744885
VERTEX2 923 -7.46542713 -12.49842013 -1.83056636
VERTEX2 924 -7.59440202 -12.98223638 -1.81364078
VERTEX2 925 -7.59707945 -12.96933897 -1.30822730
VERTEX2 926 -7.43788202 -13.52416236 -1.29194542
VERTEX2 927 -7.27173438 -14.10752684 -1.31518425
VERTEX2 928 -7.11446027 -14.70622352 -1.32406194
VERTEX2 929 -6.96363595 -15.30203700 -1.32491801
VERTEX2 930 -6.81455446 -15.92948974 -1.40745874
VERTEX2 931 -6.72647729 -16.55065692 -1.48771572
VERTEX2 932 -6.67812874 -17.17804507 -1.54674837
VERTEX2 933 -6.67232468 -17.79012497 -1.61096816
VERTEX2 934 -6.68495058 -18.26988293 -1.62048157
VERTEX2 935 -6.68158608 -18.28522036 -0.93698090
VERTEX2 936 -6.68443947 -18.28423812 0.00988589
VERTEX2 937 -6.14231884 -18.25553556 0.07268112
VERTEX2 938 -5.54601808 -18.26776050 -0.10082864
VERTEX2 939 -4.92164969 -18.32366515 -0.07319585
VERTEX2 940 -4.31728238 -18.39422315 -0.15887709
VERTEX2 941 -3.71738309 -18.50521699 -0.21262153
VERTEX2 942 -3.19708473 -18.61816027 -0.20823411
VERTEX2 943 -2.58625221 -18.74879537 -0.12001843
VERTEX2 944 -1.97210629 -18.82856132 -0.17676449
VERTEX2 945 -1.35454654 -18.95321391 -0.23189555
VERTEX2 946 -1.18377654 -18.99576567 -0.16757441
VERTEX2 947 -0.78113140 -18.93159429 0.16064482
VERTEX2 948 -0.21695215 -18.84077709 0.14155376
VERTEX2 949 0.37809176 -18.80381703 -0.01402628
VERTEX2 950 1.00125778 -18.83658147 -0.25342957
VERTEX2 951 1.59863982 -19.00495661 -0.32547177
VERTEX2 952 2.19980239 -19.17721723 -0.07467112
VERTEX2 953 2.82733362 -19.20542838 0.00562581
VERTEX2 954 3.44746960 -19.19473987 -0.00147176
VERTEX2 955 4.03263961 -19.23668550 -0.16237142
VERTEX2 956 4.58251013 -19.31073784 -0.16400338
VERTEX2 957 5.11241160 -19.40199876 -0.25098180
VERTEX2 958 5.57576308 -19.50868823 -0.27709808
VERTEX2 959 6.00185342 -19.62036721 -0.34354011
VERTEX2 960 6.58940766 -19.77747794 -0.26392826
VERTEX2 961 7.16944068 -19.94606601 -0.29119011
VERTEX2 962 7.78495610 -20.06907150 -0.22584526
VERTEX2 963 8.40020840 -20.14469580 -0.03954788
VERTEX2 964 9.01996470 -20.18137110 -0.10370838
VERTEX2 965 9.63569384 -20.25560713 -0.11082907
VERTEX2 966 10.07812980 -20.31077853 -0.16993682
VERTEX2 967 10.10873651 -20.30433634 0.68303332
VERTEX2 968 10.11454600 -20.29876095 1.57931263
VERTEX2 969 10.11729864 -20.32853714 1.63863511
VERTEX2 970 10.12007582 -20.35860547 1.63677422
VERTEX2 971 10.09739751 -20.02762937 1.63677383
VERTEX2 972 10.05473693 -19.44348907 1.64224577
VERTEX2 973 10.12985753 -18.86458752 1.35700903
VERTEX2 974 10.26440940 -18.26543489 1.38865963
VERTEX2 975 10.37127874 -17.66250718 1.39310096
VERTEX2 976 10.47150540 -17.05701104 1.40583219
VERTEX2 977 10.60128483 -16.44531841 1.37927519
VERTEX2 978 10.71669575 -15.83973225 1.42491249
VERTEX2 979 10.82620655 -15.23791596 1.41227486
VERTEX2 980 10.91969988 -14.63754295 1.45907229
VERTEX2 981 11.00427195 -14.04784562 1.46584770
VERTEX2 982 11.05703433 -13.52511077 1.51066103
VERTEX2 983 11.10304731 -12.92935324 1.50705758
VERTEX2 984 11.12691991 -12.33650571 1.56420267
VERTEX2 985 11.13466937 -11.74303860 1.58429828
VERTEX2 986 11.11678345 -11.12649147 1.62046431
VERTEX2 987 11.10127720 -10.51139866 1.58362111
VERTEX2 988 11.10113267 -9.90328874 1.59743199
VERTEX2 989 11.08554870 -9.30017322 1.60524501
VERTEX2 990 11.07758032 -8.70000972 1.59476121
VERTEX2 991 11.05891310 -8.08796023 1.61942354
VERTEX2 992 11.05068700 -7.50377627 1.58666902
VERTEX2 993 11.03367933 -6.88968716 1.61915909
VERTEX2 994 11.01438382 -6.30630719 1.60895146
VERTEX2 995 10.98124215 -5.73980838 1.65610461
VERTEX2 996 10.92142251 -5.15782772 1.68307953
VERTEX2 997 10.87564423 -4.53749820 1.61845918
VERTEX2 998 10.85569320 -4.15950333 1.64010587
VERTEX2 999 10.89269323 -4.18927120 2.35731515
VERTEX2 1000 10.43727978 -3.83827361 2.50558195
VERTEX2 1001 10.01296087 -3.45491049 2.18381090
VERTEX2 1002 9.66450456 -3.00975907 2.27574909
VERTEX2 1003 9.33275683 -2.53875368 2.09519946
VERTEX2 1004 8.99814928 -2.01227158 2.15474519
VERTEX2 1005 8.64728254 -1.52606092 2.21837663
VERTEX2 1006 8.24838585 -1.04846258 2.29716776
VERTEX2 1007 7.83220598 -0.62344377 2.39049833
VERTEX2 1008 7.59243781 -0.40757696 2.55190520
VERTEX2 1009 7.50019674 -0.39373265 3.02192340
VERTEX2 1010 6.94037486 -0.33420415 3.07317593
VERTEX2 1011 6.32906133 -0.29520963 3.02866756
VERTEX2 1012 5.72253240 -0.23138744 3.06934563
VERTEX2 1013 5.09388575 -0.23224573 -3.10012617
VERTEX2 1014 4.48531833 -0.18209520 3.00652535
VERTEX2 1015 3.87038803 -0.14025410 3.09002156
VERTEX2 1016 3.11142677 -0.09813122 3.09605223
VERTEX2 1017 2.53541278 -0.08377594 3.03942272
VERTEX2 1018 1.98977256 -0.02234978 3.04711666
VERTEX2 1019 1.40478472 0.00239506 3.10701018
VERTEX2 1020 0.79554678 0.03834921 3.09280809
VERTEX2 1021 0.18001581 0.06766406 3.05183605
VERTEX2 1022 0.13331785 0.07167685 3.04425407
VERTEX2 1023 0.14485832 0.07140184 3.13043541
VERTEX2 1024 -0.47772417 0.08025761 -3.12688822
VERTEX2 1025 -1.10468710 0.05128183 -3.10988094
VERTEX2 1026 -1.26337360 0.04661230 -3.10328507
VERTEX2 1027 -1.25799407 0.04919890 -2.18885080
VERTEX2 1028 -1.27543924 -0.15106011 -1.62679385
VERTEX2 1029 -1.31146553 -0.75115478 -1.64897174
VERTEX2 1030 -1.38368303 -1.39493609 -1.72820464
VERTEX2 1031 -1.50589523 -2.06138994 -1.78126417
VERTEX2 1032 -1.64244433 -2.71046434 -1.77609110
VERTEX2 1033 -1.79133199 -3.35826351 -1.82004221
VERTEX2 1034 -1.83810692 -3.53308924 -2.03218930
VERTEX2 1035 -1.84337141 -3.53748727 -2.64847210
VERTEX2 1036 -1.80590751 -3.55475676 3.06675986
VERTEX2 1037 -2.13911944 -3.42855656 2.82918894
VERTEX2 1038 -2.74282255 -3.30950224 2.92104897
VERTEX2 1039 -3.37407066 -3.14398840 2.89010192
VERTEX2 1040 -3.33993766 -3.14464430 -2.76140381
VERTEX2 1041 -3.31728709 -3.14747241 -1.74284377
VERTEX2 1042 -3.31831417 -3.16971077 -0.75334844
VERTEX2 1043 -3.29859735 -3.18748011 0.21859985
VERTEX2 1044 -3.30864409 -3.19965750 1.21470852
VERTEX2 1045 -3.31009932 -3.20298475 1.10039339
VERTEX2 1046 -3.31976464 -3.21636097 0.71441405
VERTEX2 1047 -3.34368878 -3.22715616 0.15808417
VERTEX2 1048 -2.99200001 -3.28950824 -0.15479297
VERTEX2 1049 -2.35660093 -3.37746599 -0.13759848
VERTEX2 1050 -1.71505083 -3.43832580 -0.06140846
VERTEX2 1051 -1.06788893 -3.50284636 -0.13679281
VERTEX2 1052 -0.45159994 -3.57282287 -0.08013321
VERTEX2 1053 -0.04207200 -3.61785281 -0.12910392
VERTEX2 1054 -0.02880623 -3.61884116 0.64703149
VERTEX2 1055 -0.02913463 -3.62113912 1.73154355
VERTEX2 1056 -0.01790303 -3.63556262 2.76021825
VERTEX2 1057 -0.00277079 -3.63581994 -2.51947160
VERTEX2 1058 3.33759705 -7.02122293 1.16546910
VERTEX2 1059 3.58711348 -6.49343137 1.08843601
VERTEX2 1060 3.88467822 -5.92900134 1.09671101
VERTEX2 1061 4.10323436 -5.53282129 0.97825462
VERTEX2 1062 4.12264069 -5.51552303 0.41875737
VERTEX2 1063 -1.84861320 -20.78663725 1.69690181
VERTEX2 1064 -1.80558917 -20.48220817 1.43382314
VERTEX2 1065 -1.76497512 -19.87046167 1.55753268
VERTEX2 1066 -1.73927607 -19.26563504 1.50301271
VERTEX2 1067 -1.74211618 -19.23894571 1.93864726
VERTEX2 1068 -1.75653724 -19.22071193 2.61548593
VERTEX2 1069 -1.77592605 -19.21485851 2.78781439
VERTEX2 1070 -1.79795374 -19.20419858 2.25222878
VERTEX2 1071 -2.10438455 -18.71538408 2.12685687
VERTEX2 1072 -2.38635849 -18.24677562 2.05987924
VERTEX2 1073 -5.25954535 -9.97554133 2.03193069
VERTEX2 1074 -5.48963917 -9.45433940 1.99942408
VERTEX2 1075 -5.74209140 -8.89074994 2.01778512
VERTEX2 1076 -5.77014893 -8.83545179 2.43164514
VERTEX2 1077 -5.78437698 -8.83657527 -3.02891705
VERTEX2 1078 -6.40764334 -8.96607582 -2.97858654
VERTEX2 1079 -6.99184018 -9.08039451 -2.91094291
VERTEX2 1080 -3.96820590 -6.71760995 -2.54023216
VERTEX2 1081 -4.44001434 -6.96072963 -2.65713168
VERTEX2 1082 -4.63399843 -7.06501917 -2.36779462
VERTEX2 1083 -4.63463858 -7.05053604 -1.30838596
VERTEX2 1084 -4.62566812 -7.05591388 -0.31513414
VERTEX2 1085 -4.68447872 -7.06882982 0.69132816
VERTEX2 1086 -4.31738675 -6.59399849 0.92705127
VERTEX2 1087 -3.93322048 -6.10011457 0.91827956
VERTEX2 1088 -3.56837504 -5.59967843 0.90474834
VERTEX2 1089 -3.51137136 -5.52822190 0.80946364
VERTEX2 1090 -3.50305869 -5.52084700 0.19495642
VERTEX2 1091 -2.97064877 -5.49661302 0.01808063
VERTEX2 1092 -2.35841073 -5.49010690 0.00306554
VERTEX2 1093 -1.79666849 -5.50094229 -0.06189157
VERTEX2 1094 -1.78301638 -5.51433894 -0.46756087
VERTEX2 1095 -1.74938553 -5.54515743 -1.05965823
VERTEX2 1096 -1.74872740 -5.54845419 -1.63320529
VERTEX2 1097 -1.83893041 -5.87253738 -1.85005527
VERTEX2 1098 -2.02935433 -6.46562005 -1.90798156
VERTEX2 1099 -2.25631419 -7.03686503 -2.00641913
VERTEX2 1100 -2.26893162 -7.06652014 -1.64697897
VERTEX2 1101 -2.21608434 -7.34405895 -1.38419576
VERTEX2 1102 -2.21888593 -7.36793977 -1.78170768
VERTEX2 1103 -2.37328240 -7.98749189 -1.81755727
VERTEX2 1104 -2.54096989 -8.63255442 -1.84728013
VERTEX2 1105 -2.72712037 -9.26256632 -1.86714816
VERTEX2 1106 -2.87898868 -9.74850355 -1.89437160
VERTEX2 1107 -2.87809503 -9.77062075 -1.64122962
VERTEX2 1108 -2.87901189 -10.41202014 -1.63527092
VERTEX2 1109 -2.96867133 -11.06860470 -1.74164849
VERTEX2 1110 -3.08072513 -11.68760268 -1.79335652
VERTEX2 1111 -3.28770870 -12.22180695 -1.89703989
VERTEX2 1112 -3.35902624 -12.81082047 -1.55417637
VERTEX2 1113 -3.36518785 -13.46004805 -1.65176240
VERTEX2 1114 -3.41527835 -14.08432945 -1.63660100
VERTEX2 1115 -3.45141067 -14.67597679 -1.65465784
VERTEX2 1116 -3.48390193 -15.33310633 -1.62031434
VERTEX2 1117 -3.48823140 -15.43999281 -1.75036442
VERTEX2 1118 -3.49263303 -15.44689816 -2.36228890
VERTEX2 1119 3.42511887 -13.10119994 3.08448806
VERTEX2 1120 2.82711213 -13.02252505 3.01912931
VERTEX2 1121 2.62445877 -12.99313799 2.89861871
VERTEX2 1122 5.57174744 -12.07046678 -1.69786799
VERTEX2 1123 5.48945527 -12.64431744 -1.68302996
VERTEX2 1124 5.46267181 -13.21555274 -1.58671866
VERTEX2 1125 5.44970408 -13.85286575 -1.57527679
VERTEX2 1126 5.45101911 -13.93368366 -1.23916346
VERTEX2 1127 -5.44521380 -14.78907432 -1.87662272
VERTEX2 1128 -5.44364129 -14.77917125 -0.89565618
VERTEX2 1129 -5.43999453 -14.78102465 0.11336529
VERTEX2 1130 -4.86585397 -14.69750016 0.12546005
VERTEX2 1131 -4.10273247 -14.79511427 -0.30961984
VERTEX2 1132 -3.50830867 -14.98792361 -0.33116139
VERTEX2 1133 -2.97629693 -15.19398920 -0.37154735
VERTEX2 1134 -2.74119302 -15.28602490 -0.47041313
VERTEX2 1135 -2.73984784 -15.28728794 -1.03024070
VERTEX2 1136 -2.74967383 -15.30865627 -1.59649599
VERTEX2 1137 -2.80263795 -15.62953736 -1.78289314
VERTEX2 1138 -2.95577120 -16.28317113 -1.80081866
VERTEX2 1139 -3.07094402 -16.78278171 -1.87431513
VERTEX2 1140 -3.06252804 -16.76213973 -2.35388798
VERTEX2 1141 -3.04296062 -16.74285205 -2.90196736
VERTEX2 1142 -3.40554134 -16.70181694 3.01639365
VERTEX2 1143 -4.00310745 -16.65840192 3.10548813
VERTEX2 1144 -4.58355675 -16.62699882 3.07458872
VERTEX2 1145 -5.16155106 -16.58410436 3.04883304
VERTEX2 1146 -5.73714182 -16.52931710 3.06828816
VERTEX2 1147 -6.32282561 -16.52150950 3.14125299
VERTEX2 1148 -6.90086875 -16.52097398 -3.13152522
VERTEX2 1149 -6.94323679 -16.52241858 -2.63241849
VERTEX2 1150 -7.03529088 -16.62558280 -1.82393589
VERTEX2 1151 -7.03230285 -16.64215531 -0.82055297
VERTEX2 1152 -7.01579222 -16.64239431 0.23209793
VERTEX2 1153 -7.00379439 -16.63694875 1.24444220
VERTEX2 1154 -7.06256241 -16.32508429 1.79023699
VERTEX2 1155 -7.19493942 -15.70640941 1.74049105
VERTEX2 1156 -7.29151814 -15.10603339 1.75016650
VERTEX2 1157 -7.41737242 -14.54063688 1.86087278
VERTEX2 1158 -7.54225181 -13.94411186 1.73191083
VERTEX2 1159 -7.60032421 -13.35269268 1.63733407
VERTEX2 1160 -7.62067682 -12.72326471 1.50010037
VERTEX2 1161 -7.51948870 -12.09732355 1.41006477
VERTEX2 1162 -7.42630262 -11.47140774 1.46795513
VERTEX2 1163 -7.36152743 -10.82959422 1.46188127
VERTEX2 1164 -7.31068033 -10.19011369 1.54666427
VERTEX2 1165 -7.29815142 -9.64591996 1.52361844
VERTEX2 1166 -7.30007591 -9.63632668 2.01208984
VERTEX2 1167 -7.25481408 -9.62550876 2.94787567
VERTEX2 1168 -7.20979653 -9.60778615 -2.43046681
VERTEX2 1169 -7.21297556 -9.64796852 -1.60725371
VERTEX2 1170 -7.22401526 -10.23183984 -1.60013453
VERTEX2 1171 -7.22451341 -10.86450224 -1.56795273
VERTEX2 1172 -7.22933070 -11.46351673 -1.63004017
VERTEX2 1173 -7.25953533 -12.08344853 -1.62055968
VERTEX2 1174 -7.30340146 -12.70873754 -1.68886961
VERTEX2 1175 -7.38911281 -13.31939680 -1.72188256
VERTEX2 1176 -7.48543405 -13.93473864 -1.76523178
VERTEX2 1177 -7.60354326 -14.53826711 -1.76287442
VERTEX2 1178 -7.73294903 -15.14584814 -1.80973668
VERTEX2 1179 -7.86856711 -15.74541968 -1.78003751
VERTEX2 1180 -7.92203439 -15.99752647 -1.78672200
VERTEX2 1181 -7.92096165 -15.98971512 -0.95808225
VERTEX2 1182 -7.87029910 -16.00237703 -0.24536639
VERTEX2 1183 -7.26076467 -16.14737929 -0.21975432
VERTEX2 1184 -6.63205058 -16.25825873 -0.14991058
VERTEX2 1185 -6.00485636 -16.36515620 -0.18191002
VERTEX2 1186 -5.37410155 -16.45642781 -0.11546086
VERTEX2 1187 -4.71683864 -16.53871037 -0.15259255
VERTEX2 1188 -4.08612062 -16.62557954 -0.13452798
VERTEX2 1189 -3.41004617 -16.73105897 -0.11298975
VERTEX2 1190 -3.06605680 -16.77076886 -0.10511073
VERTEX2 1191 -3.02158003 -16.76954266 0.81465593
VERTEX2 1192 -3.01635981 -16.68686645 1.61188642
VERTEX2 1193 -3.01339979 -16.09698043 1.47954697
VERTEX2 1194 -2.97612641 -15.53257240 1.52132843
VERTEX2 1195 -2.95175038 -14.92426698 1.57307207
VERTEX2 1196 -2.94917834 -14.31590091 1.39968304
VERTEX2 1197 -2.85084775 -13.71565064 1.41040583
VERTEX2 1198 -2.78447218 -13.10385050 1.66842560
VERTEX2 1199 -2.80320548 -12.50683201 1.45295771
VERTEX2 1200 -2.74890199 -11.89189849 1.52136526
VERTEX2 1201 -2.72573616 -11.28741776 1.57659639
VERTEX2 1202 -2.73662102 -10.68021151 1.59897377
VERTEX2 1203 -2.76683443 -10.10589068 1.50838984
VERTEX2 1204 -2.65520127 -9.52880966 1.36087471
VERTEX2 1205 -2.54902430 -8.98086069 1.38985826
VERTEX2 1206 -2.46474146 -8.40609116 1.45046210
VERTEX2 1207 -2.32911074 -7.80979735 1.36370692
VERTEX2 1208 -2.21899995 -7.20609006 1.42731560
VERTEX2 1209 -2.13358600 -6.61171056 1.42454958
VERTEX2 1210 -2.06889186 -6.02134108 1.44423900
VERTEX2 1211 -1.94210868 -5.41337165 1.37167102
VERTEX2 1212 -1.82647585 -4.80489532 1.42182177
VERTEX2 1213 -1.75809037 -4.19109828 1.49509741
VERTEX2 1214 -1.67536543 -3.46545722 1.27219369
VERTEX2 1215 -1.51174009 -2.88836253 1.33091999
VERTEX2 1216 -1.46019530 -2.33419901 1.54767775
VERTEX2 1217 -1.42449528 -1.75200447 1.52784808
VERTEX2 1218 -1.40727090 -1.16481220 1.47785737
VERTEX2 1219 -1.35333604 -0.51859864 1.50912491
VERTEX2 1220 -1.34365777 0.06549555 1.60062956
VERTEX2 1221 -1.34188201 0.05945262 1.14923777
VERTEX2 1222 -1.33368379 0.06740020 0.55234219
VERTEX2 1223 -1.32184496 0.07018022 -0.00728481
VERTEX2 1224 -0.74803901 -0.02306628 -0.19019281
VERTEX2 1225 -0.13288390 -0.13752114 -0.17642881
VERTEX2 1226 -0.02805232 -0.15632149 -0.19315981
VERTEX2 1227 -0.02805232 -0.15632149 -0.19382181
