1 41 74 2 1158.65487407 0.00000304 1 
2 19 166 0 0.41485034 0.00211697 5 
3 19 172 0 0.02820697 0.00187144 4 
4 25 172 0 0.50366199 0.00188039 4 
5 25 178 0 0.30831851 0.00198109 4 
6 32 178 0 0.01493521 0.00199423 4 
7 32 183 0 0.07055611 0.00201635 4 
8 44 189 0 0.52863102 0.00208034 4 
9 44 195 0 0.35755137 0.00216951 4 
10 50 195 0 0.00572854 0.00220183 4 
11 50 201 0 0.04110605 0.00190814 3 
12 50 203 0 0.06975183 0.00187989 3 
13 61 203 0 0.00745912 0.00190682 3 
14 61 209 0 0.37222863 0.00231826 4 
15 67 209 0 0.41032090 0.00232665 4 
16 67 220 0 0.66144083 0.00250401 4 
17 81 220 0 0.48035877 0.00286985 5 
18 81 226 0 0.05402805 0.00257241 4 
19 87 226 0 1.82553139 0.00294354 5 
20 87 231 0 0.34656585 0.00262373 4 
21 94 231 0 0.55778528 0.00256956 4 
22 226 231 0 1.44127402 0.00298877 5 
23 94 241 0 1.33132047 0.00270315 4 
24 101 241 0 0.50961029 0.00271791 4 
25 101 247 0 1.66454674 0.00277220 4 
26 107 247 0 1.80094617 0.00279062 4 
27 107 254 0 1.18346605 0.00285974 4 
28 114 254 0 0.12939160 0.00286388 4 
29 107 256 0 0.93085039 0.00285427 4 
30 114 256 0 0.24629796 0.00286017 4 
31 107 258 0 1.37911724 0.00290588 4 
32 114 258 0 1.15747212 0.00293089 4 
33 121 266 0 0.00938596 0.00301293 4 
34 126 266 0 0.44864328 0.00356406 5 
35 126 272 0 1.03992836 0.00309580 4 
36 132 272 0 0.39070916 0.00365843 5 
37 267 272 2 3733.14690963 0.00000212 5 
38 163 277 2 865.15977833 0.00000207 1 
39 132 278 0 0.58358145 0.00319029 4 
40 138 278 0 1.06458780 0.00374085 5 
41 138 284 0 0.02201259 0.00271636 3 
42 151 284 0 0.12777228 0.00329361 4 
43 151 291 0 0.60037557 0.00332436 4 
44 151 297 0 0.07972289 0.00285603 3 
45 157 297 0 1.04991834 0.00346234 4 
46 166 297 0 1.30507781 0.00339361 4 
47 19 305 0 0.16044642 0.00357797 4 
48 157 305 0 0.58687353 0.00361227 4 
49 163 305 0 7.56485476 0.00484820 6 
50 166 305 0 0.37495035 0.00360954 4 
51 172 305 0 0.01886255 0.00361286 4 
52 19 315 0 0.48455906 0.00311093 3 
53 25 315 0 0.02281386 0.00312421 3 
54 172 315 0 0.05679715 0.00373592 4 
55 21 319 2 5221.44755340 0.00000264 1 
56 172 328 0 0.12482725 0.00326316 3 
57 84 331 2 1796.10190022 0.00000249 1 
58 19 337 0 6.63404991 0.00466994 5 
59 25 337 0 0.96522419 0.00400597 4 
60 172 337 0 0.57611560 0.00334549 3 
61 19 342 0 0.00494520 0.00339166 3 
62 25 342 0 0.12855172 0.00407445 4 
63 172 342 0 0.01223902 0.00414339 4 
64 178 342 0 0.12442988 0.00418057 4 
65 238 345 2 3601.96509388 0.00000300 1 
66 324 352 2 331.44663335 0.00000294 1 
67 25 367 0 0.11414782 0.00379227 3 
68 32 367 0 0.01267433 0.00597127 6 
69 178 367 0 0.00286807 0.00377081 3 
70 183 367 0 0.06698524 0.00377569 3 
71 25 374 0 0.56424690 0.00460532 4 
72 32 374 0 0.09892849 0.00534652 5 
73 178 374 0 0.03055075 0.00460232 4 
74 183 374 0 0.05309447 0.00458181 4 
75 32 382 0 4.14688582 0.00392913 3 
76 183 382 0 1.28811506 0.00467483 4 
77 32 387 0 2.72468715 0.00474494 4 
78 183 387 0 0.18197642 0.00472801 4 
79 189 414 0 7.69047346 0.00586655 5 
80 44 437 0 0.00915802 0.00439831 3 
81 195 437 0 0.01161094 0.00438042 3 
82 44 454 0 0.65644164 0.00452516 3 
83 189 454 0 0.03962740 0.00542632 4 
84 194 461 2 1056.23896420 0.00000277 1 
85 44 467 0 0.12345281 0.00643943 5 
86 50 467 0 0.00895575 0.01026308 9 
87 195 467 0 0.00230988 0.00465877 3 
88 224 474 2 1606.39769498 0.00000345 1 
89 46 477 2 898.22378655 0.00000332 1 
90 195 484 0 0.09447226 0.00575480 4 
91 44 494 0 0.02880924 0.00582241 4 
92 50 494 0 0.00628832 0.00484403 3 
93 195 494 0 0.00818961 0.00683485 5 
94 201 494 0 0.00469852 0.00682977 5 
95 411 496 2 459.12985546 0.00000373 1 
96 50 500 0 0.14406209 0.00696088 5 
97 201 500 0 0.05353930 0.00491520 3 
98 203 500 0 0.03252445 0.00490164 3 
99 61 508 0 0.99413579 0.00713226 5 
100 203 508 0 0.26947301 0.01226969 10 
101 209 508 0 0.03711473 0.00606260 4 
102 122 519 2 1284.08232635 0.00000337 1 
103 61 522 0 1.37942234 0.00615852 4 
104 203 522 0 0.12859200 0.00514610 3 
105 209 522 0 0.00542469 0.00516229 3 
106 61 528 0 0.47936102 0.00517537 3 
107 67 528 0 0.22419307 0.00637986 4 
108 81 528 0 0.23233822 0.00843974 6 
109 209 528 0 0.09444678 0.01063323 8 
110 220 528 0 0.13668760 0.00624614 4 
111 67 532 0 0.05459173 0.01181888 9 
112 81 532 0 0.11826401 0.00848943 6 
113 220 532 0 0.05648169 0.00635624 4 
114 270 532 2 6411.18274411 0.00000248 4 
115 512 537 2 487.20964655 0.00000236 1 
116 67 556 0 0.98233216 0.00650985 4 
117 419 557 2 4047.96081544 0.00000300 1 
118 67 564 0 0.40168838 0.01236083 9 
119 81 564 0 0.02280941 0.00669212 4 
120 220 564 0 0.02684857 0.00669341 4 
121 67 567 0 2.67253169 0.00785193 5 
122 81 567 0 0.48923871 0.00905219 6 
123 220 567 0 0.21723258 0.00667217 4 
124 5 568 2 1739.26290422 0.00000359 1 
125 525 568 2 8524.23108276 0.00000143 1 
126 67 570 0 2.40706627 0.00916369 6 
127 81 570 0 0.15671702 0.00907177 6 
128 220 570 0 0.13379867 0.00675854 4 
129 81 575 0 2.76594993 0.00794774 5 
130 220 575 0 1.08612706 0.01038589 7 
131 169 577 2 639.61002049 0.00000273 1 
132 81 588 0 0.01497138 0.00570818 3 
133 87 588 0 0.47937722 0.00818290 5 
134 226 588 0 0.43156268 0.00692692 4 
135 87 597 0 2.27648751 0.00976587 6 
136 94 597 0 0.38888315 0.00703966 4 
137 226 597 0 0.55079633 0.00834521 5 
138 87 604 0 0.47149562 0.00712777 4 
139 94 604 0 0.01542269 0.00842679 5 
140 134 611 2 1550.81967019 0.00000319 1 
141 94 616 0 0.01350372 0.01237117 8 
142 612 628 2 185.48899560 0.00000380 1 
143 94 632 0 2.16969694 0.00881596 5 
144 370 634 2 2582.04034625 0.00000303 1 
145 94 637 0 4.44236402 0.01009127 6 
146 101 637 0 0.19098383 0.00754051 4 
147 137 639 2 2984.79905685 0.00000389 1 
148 101 642 0 0.11555601 0.00890497 5 
149 107 642 0 0.04025021 0.01414024 9 
150 101 645 0 6.69527511 0.00764786 4 
151 107 645 0 1.54205090 0.00755132 4 
152 479 646 2 1741.80465306 0.00000390 1 
153 288 651 2 3040.01683768 0.00000393 1 
154 101 657 0 0.73548669 0.01671179 10 
155 101 663 0 0.04971914 0.01673668 10 
156 107 663 0 0.01781179 0.00919109 5 
157 114 663 0 0.00275957 0.00918601 5 
158 101 665 0 1.55112265 0.01347491 8 
159 107 665 0 0.47667103 0.00783075 4 
160 114 665 0 0.13329170 0.00650757 3 
161 78 668 2 201.49646739 0.00000320 1 
162 21 670 2 2002.17162135 0.00000318 1 
163 107 680 0 1.48615866 0.00939202 5 
164 107 683 0 0.94462224 0.00805111 4 
165 114 683 0 0.32178225 0.00954897 5 
166 435 689 2 1847.17717059 0.00000350 1 
167 107 704 0 0.34268109 0.01266024 7 
168 114 704 0 0.07528002 0.01557666 9 
169 107 714 0 1.79639085 0.01136214 6 
170 114 714 0 0.02860377 0.01440807 8 
171 326 714 2 3065.49266132 0.00000463 8 
172 12 728 2 310.44272228 0.00000432 1 
173 107 730 0 0.19656714 0.01017224 5 
174 114 730 0 0.03540690 0.00859220 4 
175 183 735 2 2334.91404765 0.00000378 1 
176 121 754 0 0.33113739 0.00878810 4 
177 126 754 0 0.07673382 0.01517343 8 
178 121 759 0 2.33625684 0.01200712 6 
179 126 759 0 0.22329988 0.01207818 6 
180 126 762 0 7.08482229 0.01041389 5 
181 132 762 0 2.00372045 0.01536882 8 
182 672 762 2 387.97562007 0.00000354 8 
183 624 772 2 138.46717126 0.00000406 1 
184 132 778 0 0.06999780 0.00907410 4 
185 191 779 2 487.27446209 0.00000738 1 
186 132 792 0 1.26802734 0.00932782 4 
187 558 796 2 990.28947948 0.00000400 1 
188 132 800 0 3.35686460 0.00923622 4 
189 138 800 0 0.14494330 0.01259328 6 
190 568 803 2 4348.11947289 0.00000356 1 
191 138 806 0 0.25140739 0.00756709 3 
192 3 812 2 800.29061144 0.00000375 1 
193 183 817 2 2505.14268372 0.00000379 1 
194 138 821 0 0.40674396 0.01115672 5 
195 138 823 0 6.54725682 0.00940594 4 
196 151 828 0 3.12108818 0.00954085 4 
197 213 833 2 1545.10286327 0.00000951 1 
198 611 837 2 1380.69041522 0.00000422 1 
199 8 843 2 516.47208385 0.00000486 1 
200 151 847 0 0.08724621 0.01149180 5 
201 102 854 2 1313.98814320 0.00000426 1 
202 151 855 0 0.11494457 0.01515943 7 
203 90 865 2 841.58382116 0.00000431 1 
204 567 878 2 556.93626318 0.00000389 1 
205 23 882 2 109.57469333 0.00000384 1 
206 151 895 0 2.80701437 0.01766171 8 
207 151 897 0 0.06118057 0.02142846 10 
208 138 903 0 0.08157811 0.01028386 4 
209 138 904 0 7.06392298 0.01406768 6 
210 629 905 2 1007.99064659 0.00000482 1 
211 132 907 0 0.71874717 0.01035184 4 
212 138 907 0 0.22077132 0.01224165 5 
213 132 911 0 0.23128175 0.01226388 5 
214 121 923 0 0.62636126 0.01440598 6 
215 126 923 0 0.07130653 0.01054378 4 
216 107 929 0 0.07225325 0.01258918 5 
217 114 929 0 0.00477553 0.01065510 4 
218 743 933 2 986.76269078 0.00000481 1 
219 107 935 0 4.91438615 0.01657245 7 
220 114 935 0 1.40337639 0.01658846 7 
221 101 939 0 0.48567419 0.01074977 4 
222 107 939 0 0.21174614 0.01080223 4 
223 101 944 0 0.15377935 0.01385355 5 
224 94 947 0 0.23772432 0.01683889 7 
225 101 947 0 0.16826262 0.01485720 6 
226 246 952 2 3218.20844594 0.00000453 1 
227 87 953 0 0.13504795 0.01092873 4 
228 94 953 0 0.06505521 0.01500652 6 
229 226 953 0 0.08268323 0.02303429 10 
230 837 958 2 1151.54122758 0.00000459 1 
231 81 959 0 1.83528326 0.02444679 10 
232 87 959 0 1.29172246 0.01719403 7 
233 220 959 0 0.04883629 0.01111888 4 
234 226 959 0 0.12130941 0.01312179 5 
235 860 962 2 1682.78151579 0.00000495 1 
236 67 965 0 1.01368609 0.01320351 5 
237 81 965 0 0.31066014 0.01527570 6 
238 220 965 0 0.16483276 0.01939775 8 
239 782 966 2 1904.32695859 0.00000508 1 
240 12 969 2 3252.42108420 0.00000435 1 
241 160 972 2 885.10896553 0.00000438 1 
242 61 976 0 0.16803746 0.01767973 7 
243 67 976 0 0.05676300 0.00921984 3 
244 209 976 0 0.00780965 0.01130848 4 
245 50 982 0 0.38354811 0.01138374 4 
246 61 982 0 0.27147698 0.01140859 4 
247 201 982 0 0.22200943 0.01141834 4 
248 203 982 0 0.10573284 0.02200838 9 
249 44 988 0 0.09550719 0.01150749 4 
250 50 988 0 0.05924873 0.01154146 4 
251 195 988 0 0.04319526 0.01577552 6 
252 201 988 0 0.02685916 0.01363001 5 
253 397 992 2 1332.47072155 0.00000413 1 
254 65 993 2 3411.98761151 0.00000394 1 
255 44 994 0 0.51683435 0.01795723 7 
256 189 994 0 0.29989154 0.02580527 10 
257 195 994 0 0.21957432 0.01383958 5 
258 32 1003 0 0.23901034 0.01391997 5 
259 178 1003 0 0.03356851 0.02613390 10 
260 183 1003 0 0.01433170 0.01610922 6 
261 25 1008 0 1.23858172 0.01839262 7 
262 32 1008 0 0.53803958 0.01183178 4 
263 178 1008 0 0.34459610 0.01183829 4 
264 183 1008 0 0.22233868 0.01188388 4 
265 25 1010 0 0.60236133 0.01186045 4 
266 32 1010 0 0.30591807 0.01408462 5 
267 172 1010 0 0.10368354 0.01635153 6 
268 178 1010 0 0.19279072 0.02654195 10 
269 19 1016 0 0.44047719 0.02066421 8 
270 166 1016 0 0.20189646 0.01192029 4 
271 172 1016 0 0.07393216 0.01410806 5 
272 151 1029 0 0.03533130 0.01442119 5 
273 157 1029 0 0.02672450 0.01214758 4 
274 163 1029 0 3.39703566 0.01210495 4 
275 166 1029 0 0.49353449 0.01212734 4 
276 339 1036 2 350.56201561 0.00000882 1 
277 351 1039 2 720.80070024 0.00000611 1 
278 820 1049 2 556.02762094 0.00000580 1 
279 297 1054 2 1147.78369401 0.00000603 1 
280 470 1061 2 557.82664431 0.00000550 1 
281 186 1062 2 1318.09529648 0.00000825 1 
282 1019 1066 2 509.55075555 0.00000621 1 
283 379 1067 2 411.97073933 0.00000548 1 
284 132 1084 0 4.21993706 0.01515574 5 
285 475 1089 2 1232.50574224 0.00000651 1 
286 268 1091 2 191.24985994 0.00000564 1 
287 146 1108 2 505.05433054 0.00000578 1 
288 548 1119 2 223.52190243 0.00000657 1 
289 1005 1128 2 689.15890318 0.00000650 1 
290 16 1137 2 173.83289725 0.00000531 1 
291 101 1138 0 0.63021658 0.01586115 5 
292 262 1138 2 3829.03800283 0.00000603 5 
293 107 1147 0 0.73708347 0.01336716 4 
294 114 1147 0 0.03971358 0.01091070 3 
295 305 1149 2 111.65205363 0.00000556 1 
296 858 1149 2 2347.83656474 0.00000187 1 
297 107 1150 0 7.45683387 0.01348970 4 
298 114 1150 0 1.00561260 0.01094374 3 
299 114 1158 0 0.16899687 0.01100059 3 
300 121 1158 0 0.69099743 0.01359852 4 
301 227 1162 2 556.76682883 0.00000591 1 
302 121 1164 0 0.45182924 0.01619756 5 
303 126 1164 0 0.04418665 0.01364392 4 
304 114 1175 0 0.14266969 0.01376809 4 
305 121 1175 0 0.27324351 0.01381653 4 
306 923 1175 0 0.18719011 0.01382401 4 
307 929 1175 0 0.16073549 0.01382136 4 
308 1158 1175 0 0.00134797 0.01130141 3 
309 92 1181 2 1058.20039217 0.00000632 1 
310 101 1188 0 0.32950319 0.01393678 4 
311 939 1188 0 0.55418798 0.01395389 4 
312 1138 1188 0 0.03006025 0.01145603 3 
313 1147 1188 0 0.04063922 0.01138805 3 
314 1150 1188 0 1.83245351 0.01398146 4 
315 1050 1210 0 0.00345523 0.01417841 4 
316 1061 1210 0 0.57363906 0.01685083 5 
317 1075 1210 0 0.23107861 0.01688175 5 
318 1084 1210 0 3.13555510 0.01691999 5 
319 1088 1210 0 0.59156319 0.01425204 4 
320 1093 1210 0 0.13111230 0.01951090 6 
321 1098 1210 0 0.04730346 0.01424729 4 
322 904 1215 2 1351.19340378 0.00000685 1 
323 157 1217 0 0.32750279 0.01435449 4 
324 163 1217 0 0.19904338 0.01453807 4 
325 1029 1217 0 0.01250493 0.01176914 3 
326 1044 1217 0 3.98258990 0.01447489 4 
327 1050 1217 0 4.97161000 0.01718004 5 
328 63 1225 2 2671.78240650 0.00000618 1 
329 163 297 0 0.27920255 0.01552411 4 
330 189 400 0 2.09679271 0.01493898 4 
331 1056 1217 0 9.66143264 0.01750798 5 
