1 41 74 2 695.97947776 0.00000313 1 
2 68 121 2 245.24272697 0.00000228 1 
3 106 123 2 479.57722998 0.00000206 1 
4 43 135 2 33.38774057 0.00001173 1 
5 100 157 2 257.95809674 0.00000351 1 
6 19 166 0 0.41485034 0.00211164 5 
7 19 172 0 0.02820697 0.00186839 4 
8 25 172 0 0.50366199 0.00188072 4 
9 25 178 0 0.30831851 0.00197533 4 
10 32 178 0 0.01493521 0.00198948 4 
11 32 183 0 0.07055611 0.00201270 4 
12 44 189 0 0.52863102 0.00208409 4 
13 44 195 0 0.35755137 0.00216941 4 
14 50 195 0 0.00572854 0.00220348 4 
15 50 201 0 0.04110605 0.00190939 3 
16 50 203 0 0.06975183 0.00187394 3 
17 61 203 0 0.00745912 0.00190441 3 
18 61 209 0 0.37222863 0.00232058 4 
19 67 209 0 0.41032090 0.00233110 4 
20 113 217 2 503.10599117 0.00000267 1 
21 67 220 0 0.66144083 0.00250260 4 
22 81 220 0 0.48035877 0.00286491 5 
23 81 226 0 0.05402805 0.00257412 4 
24 87 226 0 1.82553139 0.00295266 5 
25 87 231 0 0.34656585 0.00263979 4 
26 94 231 0 0.55778528 0.00257124 4 
27 226 231 0 1.44127402 0.00299597 5 
28 94 241 0 1.33132047 0.00269943 4 
29 101 241 0 0.50961029 0.00273211 4 
30 101 247 0 1.66454674 0.00276836 4 
31 107 247 0 1.80094617 0.00278368 4 
32 107 254 0 1.18346605 0.00284845 4 
33 114 254 0 0.12939160 0.00286340 4 
34 35 254 2 1592.35218596 0.00000223 4 
35 107 256 0 0.93085039 0.00285138 4 
36 114 256 0 0.24629796 0.00286071 4 
37 107 258 0 1.37911724 0.00290216 4 
38 114 258 0 1.15747212 0.00293469 4 
39 121 266 0 0.00938596 0.00300576 4 
40 126 266 0 0.44864328 0.00354784 5 
41 68 266 2 2820.41243039 0.00000217 5 
42 126 272 0 1.03992836 0.00309499 4 
43 132 272 0 0.39070916 0.00364536 5 
44 132 278 0 0.58358145 0.00317646 4 
45 138 278 0 1.06458780 0.00373406 5 
46 138 284 0 0.02201259 0.00270696 3 
47 151 284 0 0.12777228 0.00328851 4 
48 151 291 0 0.60037557 0.00331654 4 
49 262 296 2 2743.53179172 0.00000245 1 
50 151 297 0 0.07972289 0.00284683 3 
51 157 297 0 1.04991834 0.00344985 4 
52 166 297 0 1.30507781 0.00338964 4 
53 19 305 0 0.16044642 0.00357858 4 
54 157 305 0 0.58687353 0.00360471 4 
55 163 305 0 7.56485476 0.00485062 6 
56 166 305 0 0.37495035 0.00360269 4 
57 172 305 0 0.01886255 0.00360102 4 
58 19 315 0 0.48455906 0.00310012 3 
59 25 315 0 0.02281386 0.00311575 3 
60 172 315 0 0.05679715 0.00373291 4 
61 172 328 0 0.12482725 0.00325688 3 
62 40 332 2 736.13086812 0.00000268 1 
63 19 337 0 6.63404991 0.00466651 5 
64 25 337 0 0.96522419 0.00399763 4 
65 172 337 0 0.57611560 0.00333348 3 
66 19 342 0 0.00494520 0.00338437 3 
67 25 342 0 0.12855172 0.00407491 4 
68 172 342 0 0.01223902 0.00411961 4 
69 178 342 0 0.12442988 0.00417435 4 
70 25 367 0 0.11414782 0.00379211 3 
71 32 367 0 0.01267433 0.00596050 6 
72 178 367 0 0.00286807 0.00376578 3 
73 183 367 0 0.06698524 0.00378615 3 
74 25 374 0 0.56424690 0.00459482 4 
75 32 374 0 0.09892849 0.00533953 5 
76 178 374 0 0.03055075 0.00458242 4 
77 183 374 0 0.05309447 0.00457052 4 
78 32 382 0 4.14688582 0.00392424 3 
79 183 382 0 1.28811506 0.00465202 4 
80 215 385 2 1995.28109356 0.00000313 1 
81 32 387 0 2.72468715 0.00473429 4 
82 183 387 0 0.18197642 0.00471278 4 
83 362 392 2 2682.21317280 0.00000443 1 
84 272 396 2 2238.99762453 0.00000364 1 
85 285 396 2 640.62091127 0.00000162 1 
86 286 400 2 1209.44659851 0.00000195 1 
87 189 414 0 7.69047346 0.00585057 5 
88 274 415 2 243.52974174 0.00000384 1 
89 109 434 2 77.14307078 0.00000338 1 
90 44 437 0 0.00915802 0.00438080 3 
91 195 437 0 0.01161094 0.00437807 3 
92 44 454 0 0.65644164 0.00452234 3 
93 189 454 0 0.03962740 0.00541804 4 
94 373 458 2 569.44334031 0.00000300 1 
95 311 459 2 2239.15366822 0.00000272 1 
96 44 467 0 0.12345281 0.00639786 5 
97 50 467 0 0.00895575 0.01027075 9 
98 195 467 0 0.00230988 0.00463631 3 
99 256 468 2 1938.57717449 0.00000388 1 
100 391 473 2 132.96057088 0.00000260 1 
101 195 484 0 0.09447226 0.00572936 4 
102 109 484 2 1158.02210531 0.00000247 4 
103 251 489 2 1018.21079584 0.00000304 1 
104 44 494 0 0.02880924 0.00576945 4 
105 50 494 0 0.00628832 0.00481867 3 
106 195 494 0 0.00818961 0.00681271 5 
107 201 494 0 0.00469852 0.00681837 5 
108 276 498 2 2290.10287525 0.00000368 1 
109 50 500 0 0.14406209 0.00695463 5 
110 201 500 0 0.05353930 0.00490744 3 
111 203 500 0 0.03252445 0.00488695 3 
112 61 508 0 0.99413579 0.00711374 5 
113 203 508 0 0.26947301 0.01220990 10 
114 209 508 0 0.03711473 0.00604761 4 
115 261 513 2 1161.79983899 0.00000367 1 
116 45 514 2 569.57193069 0.00000302 1 
117 177 516 2 1121.76146312 0.00000224 1 
118 61 522 0 1.37942234 0.00613433 4 
119 203 522 0 0.12859200 0.00508352 3 
120 209 522 0 0.00542469 0.00512999 3 
121 61 528 0 0.47936102 0.00512423 3 
122 67 528 0 0.22419307 0.00626564 4 
123 81 528 0 0.23233822 0.00838665 6 
124 209 528 0 0.09444678 0.01064549 8 
125 220 528 0 0.13668760 0.00623046 4 
126 67 532 0 0.05459173 0.01179019 9 
127 81 532 0 0.11826401 0.00846717 6 
128 220 532 0 0.05648169 0.00633924 4 
129 329 534 2 930.28790536 0.00000240 1 
130 22 536 2 105.26686234 0.00000189 1 
131 67 556 0 0.98233216 0.00649162 4 
132 111 563 2 755.59896769 0.00000288 1 
133 67 564 0 0.40168838 0.01233335 9 
134 81 564 0 0.02280941 0.00664628 4 
135 220 564 0 0.02684857 0.00664700 4 
136 67 567 0 2.67253169 0.00779455 5 
137 81 567 0 0.48923871 0.00899434 6 
138 220 567 0 0.21723258 0.00663583 4 
139 67 570 0 2.40706627 0.00908276 6 
140 81 570 0 0.15671702 0.00901193 6 
141 220 570 0 0.13379867 0.00672670 4 
142 81 575 0 2.76594993 0.00790397 5 
143 220 575 0 1.08612706 0.01032924 7 
144 376 581 2 800.18943144 0.00000267 1 
145 2 584 2 507.76267937 0.00000241 1 
146 81 588 0 0.01497138 0.00567404 3 
147 87 588 0 0.47937722 0.00816748 5 
148 226 588 0 0.43156268 0.00690896 4 
149 438 588 2 1551.03144041 0.00000318 4 
150 559 594 2 2419.44249834 0.00000327 1 
151 162 594 2 1710.51098316 0.00000129 1 
152 87 597 0 2.27648751 0.00955723 6 
153 94 597 0 0.38888315 0.00700061 4 
154 226 597 0 0.55079633 0.00829937 5 
155 125 599 2 2037.21391576 0.00000271 1 
156 98 602 2 726.39104101 0.00000269 1 
157 87 604 0 0.47149562 0.00711052 4 
158 94 604 0 0.01542269 0.00839627 5 
159 137 611 2 735.51435768 0.00000299 1 
160 94 616 0 0.01350372 0.01230956 8 
161 104 631 2 590.18590978 0.00000345 1 
162 94 632 0 2.16969694 0.00877737 5 
163 94 637 0 4.44236402 0.01003526 6 
164 101 637 0 0.19098383 0.00749028 4 
165 101 642 0 0.11555601 0.00886584 5 
166 107 642 0 0.04025021 0.01415736 9 
167 101 645 0 6.69527511 0.00760012 4 
168 107 645 0 1.54205090 0.00751235 4 
169 69 648 2 956.01873166 0.00000324 1 
170 101 657 0 0.73548669 0.01666317 10 
171 101 663 0 0.04971914 0.01669220 10 
172 107 663 0 0.01781179 0.00912213 5 
173 114 663 0 0.00275957 0.00913681 5 
174 101 665 0 1.55112265 0.01343425 8 
175 107 665 0 0.47667103 0.00778720 4 
176 114 665 0 0.13329170 0.00647571 3 
177 587 669 2 3034.80002459 0.00000290 1 
178 211 671 2 1598.76811665 0.00000323 1 
179 107 680 0 1.48615866 0.00934844 5 
180 273 681 2 976.53752634 0.00000334 1 
181 107 683 0 0.94462224 0.00800683 4 
182 114 683 0 0.32178225 0.00950084 5 
183 10 686 2 1007.89700771 0.00000303 1 
184 102 694 2 960.78495553 0.00000298 1 
185 347 695 2 1100.36827612 0.00000282 1 
186 604 697 2 2016.21605498 0.00000267 1 
187 488 703 2 299.85027411 0.00000357 1 
188 107 704 0 0.34268109 0.01260368 7 
189 114 704 0 0.07528002 0.01548134 9 
190 513 708 2 908.03654077 0.00000348 1 
191 209 708 2 1289.72815289 0.00000128 1 
192 318 709 2 613.26163336 0.00000264 1 
193 174 711 2 1084.22496592 0.00000269 1 
194 107 714 0 1.79639085 0.01130071 6 
195 114 714 0 0.02860377 0.01433595 8 
196 508 718 2 315.67855867 0.00000360 1 
197 94 719 2 4459.72913825 0.00000323 1 
198 259 720 2 3551.89353666 0.00000296 1 
199 107 730 0 0.19656714 0.01013686 5 
200 114 730 0 0.03540690 0.00855167 4 
201 171 749 2 710.29549177 0.00000342 1 
202 336 751 2 993.63517624 0.00000349 1 
203 121 754 0 0.33113739 0.00872834 4 
204 126 754 0 0.07673382 0.01510189 8 
205 262 758 2 3109.48318427 0.00000315 1 
206 198 758 2 1276.61587887 0.00000094 1 
207 121 759 0 2.33625684 0.01193310 6 
208 126 759 0 0.22329988 0.01201505 6 
209 151 761 2 3308.92978821 0.00000363 1 
210 126 762 0 7.08482229 0.01038171 5 
211 132 762 0 2.00372045 0.01534638 8 
212 191 766 2 940.65587722 0.00000365 1 
213 13 769 2 537.99459235 0.00000393 1 
214 132 778 0 0.06999780 0.00901920 4 
215 701 790 2 1282.01139219 0.00000499 1 
216 132 792 0 1.26802734 0.00927412 4 
217 132 800 0 3.35686460 0.00917016 4 
218 138 800 0 0.14494330 0.01252634 6 
219 141 804 2 10265.84258567 0.00000323 1 
220 138 806 0 0.25140739 0.00750646 3 
221 138 821 0 0.40674396 0.01107056 5 
222 138 823 0 6.54725682 0.00938618 4 
223 616 827 2 1538.91894397 0.00000357 1 
224 151 828 0 3.12108818 0.00947923 4 
225 802 831 2 2235.16862885 0.00000383 1 
226 165 832 2 4376.35843631 0.00000368 1 
227 309 834 2 1047.41585788 0.00000349 1 
228 367 841 2 138.21233391 0.00000406 1 
229 63 844 2 682.44537636 0.00000338 1 
230 151 847 0 0.08724621 0.01142000 5 
231 164 850 2 1348.10181611 0.00000408 1 
232 125 850 2 110.47564824 0.00000108 1 
233 151 855 0 0.11494457 0.01506329 7 
234 45 856 2 848.62161539 0.00000364 1 
235 290 867 2 100.80923512 0.00000336 1 
236 696 870 2 381.94184961 0.00000378 1 
237 125 871 2 267.73032573 0.00000285 1 
238 666 872 2 360.40446626 0.00000301 1 
239 665 873 2 2165.15672546 0.00000279 1 
240 24 877 2 602.82513742 0.00000300 1 
241 546 890 2 274.98423916 0.00000372 1 
242 601 891 2 47.01370959 0.00000334 1 
243 708 892 2 189.42862035 0.00000305 1 
244 151 895 0 2.80701437 0.01758256 8 
245 281 896 2 376.03247036 0.00000389 1 
246 151 897 0 0.06118057 0.02133080 10 
247 138 903 0 0.08157811 0.01020345 4 
248 138 904 0 7.06392298 0.01396676 6 
249 132 907 0 0.71874717 0.01027367 4 
250 138 907 0 0.22077132 0.01217577 5 
251 329 910 2 2369.83159853 0.00000313 1 
252 132 911 0 0.23128175 0.01218955 5 
253 278 911 2 6166.04908552 0.00000397 5 
254 730 916 2 1275.18897531 0.00000335 1 
255 121 923 0 0.62636126 0.01434911 6 
256 126 923 0 0.07130653 0.01047594 4 
257 535 923 2 890.93456994 0.00001169 4 
258 789 925 2 1763.41458895 0.00000437 1 
259 284 927 2 2484.60366701 0.00000428 1 
260 107 929 0 0.07225325 0.01252273 5 
261 114 929 0 0.00477553 0.01057114 4 
262 252 929 2 3880.34916449 0.00000355 4 
263 448 932 2 1627.76237010 0.00000370 1 
264 107 935 0 4.91438615 0.01648764 7 
265 114 935 0 1.40337639 0.01651255 7 
266 156 935 2 4813.54159481 0.00000387 7 
267 101 939 0 0.48567419 0.01068132 4 
268 107 939 0 0.21174614 0.01068596 4 
269 101 944 0 0.15377935 0.01271578 5 
270 37 946 2 1424.14037867 0.00000406 1 
271 94 947 0 0.23772432 0.01671502 7 
272 101 947 0 0.16826262 0.01477281 6 
273 52 948 2 3658.97769897 0.00000418 1 
274 87 953 0 0.13504795 0.01086548 4 
275 94 953 0 0.06505521 0.01489384 6 
276 226 953 0 0.08268323 0.02296072 10 
277 711 955 2 1367.98189541 0.00000445 1 
278 81 959 0 1.83528326 0.02434698 10 
279 87 959 0 1.29172246 0.01708064 7 
280 220 959 0 0.04883629 0.01100555 4 
281 226 959 0 0.12130941 0.01306838 5 
282 586 960 2 651.82661265 0.00000471 1 
283 67 965 0 1.01368609 0.01315710 5 
284 81 965 0 0.31066014 0.01518316 6 
285 220 965 0 0.16483276 0.01931179 8 
286 99 975 2 392.71629090 0.00000453 1 
287 61 976 0 0.16803746 0.01739903 7 
288 67 976 0 0.05676300 0.00915540 3 
289 209 976 0 0.00780965 0.01120872 4 
290 50 982 0 0.38354811 0.01133104 4 
291 61 982 0 0.27147698 0.01131382 4 
292 201 982 0 0.22200943 0.01133588 4 
293 203 982 0 0.10573284 0.02188344 9 
294 844 986 2 2115.87839985 0.00000414 1 
295 44 988 0 0.09550719 0.01142777 4 
296 50 988 0 0.05924873 0.01144203 4 
297 195 988 0 0.04319526 0.01567033 6 
298 201 988 0 0.02685916 0.01352919 5 
299 855 992 2 2060.64728148 0.00000393 1 
300 167 992 2 1236.71802452 0.00000160 1 
301 44 994 0 0.51683435 0.01784396 7 
302 189 994 0 0.29989154 0.02567626 10 
303 195 994 0 0.21957432 0.01368310 5 
304 343 996 2 290.13973352 0.00000410 1 
305 570 998 2 4784.61037903 0.00000440 1 
306 296 1002 2 152.25183200 0.00000488 1 
307 32 1003 0 0.23901034 0.01380997 5 
308 178 1003 0 0.03356851 0.02596243 10 
309 183 1003 0 0.01433170 0.01600292 6 
310 845 1004 2 1031.74789397 0.00000526 1 
311 25 1008 0 1.23858172 0.01829045 7 
312 32 1008 0 0.53803958 0.01173441 4 
313 178 1008 0 0.34459610 0.01173824 4 
314 183 1008 0 0.22233868 0.01176629 4 
315 25 1010 0 0.60236133 0.01176476 4 
316 32 1010 0 0.30591807 0.01397341 5 
317 172 1010 0 0.10368354 0.01623485 6 
318 178 1010 0 0.19279072 0.02634082 10 
319 345 1015 2 2166.15394896 0.00000599 1 
320 19 1016 0 0.44047719 0.02047680 8 
321 166 1016 0 0.20189646 0.01177666 4 
322 172 1016 0 0.07393216 0.01398396 5 
323 78 1017 2 614.57140505 0.00000516 1 
324 452 1019 2 1233.68387144 0.00000469 1 
325 422 1025 2 151.94104498 0.00000542 1 
326 100 1025 2 2146.54961281 0.00000197 1 
327 151 1029 0 0.03533130 0.01429494 5 
328 157 1029 0 0.02672450 0.01198884 4 
329 163 1029 0 3.39703566 0.01199009 4 
330 166 1029 0 0.49353449 0.01199045 4 
331 303 1036 2 1635.67096209 0.00000577 1 
332 501 1042 2 2010.19369410 0.00000479 1 
333 391 1049 2 838.56372236 0.00000508 1 
334 271 1052 2 56.20854745 0.00000476 1 
335 116 1057 2 281.56751825 0.00000506 1 
336 425 1060 2 58.87288227 0.00000517 1 
337 367 1075 2 502.72892757 0.00000525 1 
338 132 1084 0 4.21993706 0.01504016 5 
339 175 1084 2 1674.86317057 0.00000493 5 
340 726 1086 2 1698.93794806 0.00000573 1 
341 62 1087 2 1053.81586059 0.00000553 1 
342 170 1087 2 1088.65138471 0.00000247 1 
343 294 1090 2 2344.91772809 0.00000520 1 
344 927 1091 2 448.68606479 0.00000497 1 
345 285 1098 2 925.21811535 0.00000475 1 
346 268 1106 2 486.46223483 0.00000526 1 
347 275 1111 2 395.58040364 0.00000486 1 
348 960 1111 2 862.12292070 0.00000255 1 
349 751 1112 2 733.47901687 0.00000491 1 
350 146 1116 2 679.22232014 0.00000574 1 
351 319 1123 2 184.10273533 0.00000611 1 
352 583 1137 2 395.35149761 0.00000678 1 
353 101 1138 0 0.63021658 0.01574559 5 
354 461 1142 2 1125.43268452 0.00000564 1 
355 170 1143 2 1680.64260514 0.00000532 1 
356 107 1147 0 0.73708347 0.01327069 4 
357 114 1147 0 0.03971358 0.01081880 3 
358 527 1148 2 7690.65772617 0.00000598 1 
359 107 1150 0 7.45683387 0.01333535 4 
360 114 1150 0 1.00561260 0.01091214 3 
361 923 1154 2 1239.11811506 0.00000597 1 
362 712 1157 2 1862.88605547 0.00000608 1 
363 114 1158 0 0.16899687 0.01090617 3 
364 121 1158 0 0.69099743 0.01345107 4 
365 983 1158 2 1671.13061226 0.00000496 4 
366 404 1159 2 1175.09518264 0.00000573 1 
367 704 1159 2 8750.46692853 0.00000191 1 
368 121 1164 0 0.45182924 0.01602057 5 
369 126 1164 0 0.04418665 0.01358954 4 
370 995 1169 2 751.62483069 0.00000554 1 
371 631 1173 2 607.90447083 0.00000516 1 
372 114 1175 0 0.14266969 0.01365214 4 
373 121 1175 0 0.27324351 0.01369326 4 
374 923 1175 0 0.18719011 0.01370260 4 
375 929 1175 0 0.16073549 0.01368888 4 
376 1158 1175 0 0.00134797 0.01111709 3 
377 1082 1178 2 2984.02418208 0.00000625 1 
378 90 1181 2 2164.88312294 0.00000577 1 
379 784 1181 2 250.89249073 0.00000217 1 
380 855 1187 2 1208.11417765 0.00000556 1 
381 101 1188 0 0.32950319 0.01382646 4 
382 939 1188 0 0.55418798 0.01381931 4 
383 1138 1188 0 0.03006025 0.01140687 3 
384 1147 1188 0 0.04063922 0.01126204 3 
385 1150 1188 0 1.83245351 0.01387072 4 
386 1062 1198 2 252.10846615 0.00000657 1 
387 141 1198 2 1285.52629058 0.00000192 1 
388 745 1199 2 1133.39067927 0.00000595 1 
389 1180 1206 2 709.59647974 0.00000608 1 
390 1050 1210 0 0.00345523 0.01406250 4 
391 1061 1210 0 0.57363906 0.01670132 5 
392 1075 1210 0 0.23107861 0.01672596 5 
393 1084 1210 0 3.13555510 0.01673636 5 
394 1088 1210 0 0.59156319 0.01409274 4 
395 1093 1210 0 0.13111230 0.01939143 6 
396 1098 1210 0 0.04730346 0.01409909 4 
397 157 1217 0 0.32750279 0.01423728 4 
398 163 1217 0 0.19904338 0.01434420 4 
399 1029 1217 0 0.01250493 0.01165828 3 
400 1044 1217 0 3.98258990 0.01435158 4 
401 1050 1217 0 4.97161000 0.01707313 5 
402 1138 1218 2 261.72294324 0.00000561 1 
403 668 1220 2 3501.06115848 0.00000637 1 
404 163 297 0 0.27920255 0.01518591 4 
405 189 400 0 2.09679271 0.01647090 4 
406 1056 1217 0 9.66143264 0.01728636 5 
