1 13 35 2 563.26287386 0.00000218 1 
2 1 52 2 207.97251901 0.00000246 1 
3 52 144 2 89.60699527 0.00000318 1 
4 19 166 0 0.41485034 0.00211230 5 
5 19 172 0 0.02820697 0.00188219 4 
6 25 172 0 0.50366199 0.00188259 4 
7 25 178 0 0.30831851 0.00198708 4 
8 32 178 0 0.01493521 0.00198869 4 
9 27 182 2 5100.74617688 0.00000233 1 
10 32 183 0 0.07055611 0.00202033 4 
11 44 189 0 0.52863102 0.00208372 4 
12 44 195 0 0.35755137 0.00217419 4 
13 50 195 0 0.00572854 0.00220779 4 
14 50 201 0 0.04110605 0.00190716 3 
15 50 203 0 0.06975183 0.00188415 3 
16 61 203 0 0.00745912 0.00190963 3 
17 61 209 0 0.37222863 0.00232252 4 
18 67 209 0 0.41032090 0.00233609 4 
19 102 212 2 616.12223940 0.00000288 1 
20 67 220 0 0.66144083 0.00251030 4 
21 81 220 0 0.48035877 0.00286991 5 
22 81 226 0 0.05402805 0.00257853 4 
23 87 226 0 1.82553139 0.00295698 5 
24 87 231 0 0.34656585 0.00263162 4 
25 94 231 0 0.55778528 0.00258030 4 
26 226 231 0 1.44127402 0.00302062 5 
27 214 233 2 1804.75691681 0.00000234 1 
28 94 241 0 1.33132047 0.00270103 4 
29 101 241 0 0.50961029 0.00272133 4 
30 101 247 0 1.66454674 0.00277356 4 
31 107 247 0 1.80094617 0.00279265 4 
32 107 254 0 1.18346605 0.00285249 4 
33 114 254 0 0.12939160 0.00287366 4 
34 107 256 0 0.93085039 0.00286059 4 
35 114 256 0 0.24629796 0.00286398 4 
36 107 258 0 1.37911724 0.00291099 4 
37 114 258 0 1.15747212 0.00293494 4 
38 121 266 0 0.00938596 0.00301906 4 
39 126 266 0 0.44864328 0.00355580 5 
40 126 272 0 1.03992836 0.00313299 4 
41 132 272 0 0.39070916 0.00365845 5 
42 56 276 2 577.26357152 0.00000244 1 
43 132 278 0 0.58358145 0.00318533 4 
44 138 278 0 1.06458780 0.00374206 5 
45 138 284 0 0.02201259 0.00272359 3 
46 151 284 0 0.12777228 0.00330015 4 
47 151 291 0 0.60037557 0.00332747 4 
48 151 297 0 0.07972289 0.00285663 3 
49 157 297 0 1.04991834 0.00346310 4 
50 166 297 0 1.30507781 0.00339888 4 
51 32 297 2 5230.71954828 0.00000237 4 
52 19 305 0 0.16044642 0.00358296 4 
53 157 305 0 0.58687353 0.00361526 4 
54 163 305 0 7.56485476 0.00485218 6 
55 166 305 0 0.37495035 0.00361333 4 
56 172 305 0 0.01886255 0.00361681 4 
57 107 307 2 2084.08382632 0.00000257 1 
58 19 315 0 0.48455906 0.00310931 3 
59 25 315 0 0.02281386 0.00312632 3 
60 172 315 0 0.05679715 0.00374400 4 
61 172 328 0 0.12482725 0.00326699 3 
62 19 337 0 6.63404991 0.00466918 5 
63 25 337 0 0.96522419 0.00401157 4 
64 172 337 0 0.57611560 0.00335110 3 
65 19 342 0 0.00494520 0.00339839 3 
66 25 342 0 0.12855172 0.00408037 4 
67 172 342 0 0.01223902 0.00413493 4 
68 178 342 0 0.12442988 0.00418704 4 
69 180 347 2 2797.60179672 0.00000375 1 
70 308 351 2 724.63363679 0.00000274 1 
71 29 354 2 766.82952592 0.00000285 1 
72 149 356 2 1590.82301272 0.00000316 1 
73 218 361 2 927.73349389 0.00000338 1 
74 25 367 0 0.11414782 0.00380060 3 
75 32 367 0 0.01267433 0.00604045 6 
76 178 367 0 0.00286807 0.00378598 3 
77 183 367 0 0.06698524 0.00378676 3 
78 27 371 2 4769.71476782 0.00000339 1 
79 25 374 0 0.56424690 0.00460270 4 
80 32 374 0 0.09892849 0.00534770 5 
81 178 374 0 0.03055075 0.00461138 4 
82 183 374 0 0.05309447 0.00458111 4 
83 32 382 0 4.14688582 0.00393348 3 
84 183 382 0 1.28811506 0.00466970 4 
85 126 384 2 3252.99264071 0.00000316 1 
86 32 387 0 2.72468715 0.00474359 4 
87 183 387 0 0.18197642 0.00473302 4 
88 31 388 2 7964.32881343 0.00000343 1 
89 21 391 2 2159.31226376 0.00000282 1 
90 393 398 2 3200.72256052 0.00000317 1 
91 325 399 2 816.05821463 0.00000292 1 
92 20 403 2 204.52333936 0.00000293 1 
93 355 403 2 415.50048399 0.00000158 1 
94 193 404 2 288.26482077 0.00000295 1 
95 57 413 2 291.76089051 0.00000354 1 
96 189 414 0 7.69047346 0.00586205 5 
97 7 415 2 438.79710789 0.00000338 1 
98 371 419 2 870.12225894 0.00000332 1 
99 399 435 2 1221.61636092 0.00000358 1 
100 199 436 2 52.27133629 0.00000313 1 
101 44 437 0 0.00915802 0.00440082 3 
102 195 437 0 0.01161094 0.00439091 3 
103 329 445 2 668.58690328 0.00000350 1 
104 12 446 2 850.14476563 0.00000330 1 
105 6 448 2 153.45530546 0.00000368 1 
106 44 454 0 0.65644164 0.00453595 3 
107 189 454 0 0.03962740 0.00543730 4 
108 367 466 2 1650.00278175 0.00000389 1 
109 44 467 0 0.12345281 0.00642451 5 
110 50 467 0 0.00895575 0.01025933 9 
111 195 467 0 0.00230988 0.00465068 3 
112 153 470 2 1132.65073413 0.00000386 1 
113 462 474 2 604.02928389 0.00000367 1 
114 195 484 0 0.09447226 0.00575805 4 
115 429 491 2 888.44619944 0.00000279 1 
116 44 494 0 0.02880924 0.00577847 4 
117 50 494 0 0.00628832 0.00484523 3 
118 195 494 0 0.00818961 0.00684124 5 
119 201 494 0 0.00469852 0.00684648 5 
120 50 500 0 0.14406209 0.00695550 5 
121 201 500 0 0.05353930 0.00492280 3 
122 203 500 0 0.03252445 0.00489539 3 
123 387 503 2 1944.48201473 0.00000397 1 
124 61 508 0 0.99413579 0.00713068 5 
125 203 508 0 0.26947301 0.01225349 10 
126 209 508 0 0.03711473 0.00606538 4 
127 19 515 2 1453.89826991 0.00000311 1 
128 159 520 2 889.87417794 0.00000263 1 
129 61 522 0 1.37942234 0.00615585 4 
130 203 522 0 0.12859200 0.00514092 3 
131 209 522 0 0.00542469 0.00515161 3 
132 163 522 2 2754.60085390 0.00000257 3 
133 344 522 2 1647.97699129 0.00000132 3 
134 72 527 2 614.35985036 0.00000274 1 
135 61 528 0 0.47936102 0.00513669 3 
136 67 528 0 0.22419307 0.00626943 4 
137 81 528 0 0.23233822 0.00842834 6 
138 209 528 0 0.09444678 0.01064250 8 
139 220 528 0 0.13668760 0.00623920 4 
140 67 532 0 0.05459173 0.01181450 9 
141 81 532 0 0.11826401 0.00848308 6 
142 220 532 0 0.05648169 0.00635306 4 
143 105 533 2 3834.79287155 0.00000290 1 
144 507 535 2 1253.52062694 0.00000231 1 
145 137 535 2 1423.51117699 0.00000157 1 
146 450 542 2 772.05373027 0.00000338 1 
147 443 543 2 359.50012785 0.00000253 1 
148 341 550 2 298.51428452 0.00000224 1 
149 67 556 0 0.98233216 0.00649676 4 
150 380 556 2 2319.76150865 0.00000321 4 
151 67 564 0 0.40168838 0.01236353 9 
152 81 564 0 0.02280941 0.00664750 4 
153 220 564 0 0.02684857 0.00667143 4 
154 211 566 2 1453.08630041 0.00000298 1 
155 466 566 2 2458.49437836 0.00000146 1 
156 67 567 0 2.67253169 0.00782392 5 
157 81 567 0 0.48923871 0.00905709 6 
158 220 567 0 0.21723258 0.00666207 4 
159 67 570 0 2.40706627 0.00912594 6 
160 81 570 0 0.15671702 0.00903806 6 
161 220 570 0 0.13379867 0.00680833 4 
162 81 575 0 2.76594993 0.00792891 5 
163 220 575 0 1.08612706 0.01036263 7 
164 335 575 2 1965.08508609 0.00000311 7 
165 247 577 2 2285.25573545 0.00000276 1 
166 81 588 0 0.01497138 0.00567909 3 
167 87 588 0 0.47937722 0.00818684 5 
168 226 588 0 0.43156268 0.00692205 4 
169 87 597 0 2.27648751 0.00957884 6 
170 94 597 0 0.38888315 0.00700886 4 
171 226 597 0 0.55079633 0.00833143 5 
172 148 598 2 939.98394103 0.00000281 1 
173 232 602 2 800.03540182 0.00000290 1 
174 451 603 2 96.16366442 0.00000315 1 
175 87 604 0 0.47149562 0.00711523 4 
176 94 604 0 0.01542269 0.00840845 5 
177 217 604 2 3922.66169099 0.00000283 5 
178 20 613 2 1498.69631410 0.00000317 1 
179 94 616 0 0.01350372 0.01234452 8 
180 548 619 2 467.85695254 0.00000396 1 
181 69 626 2 1074.15105368 0.00000381 1 
182 190 628 2 912.82380529 0.00000399 1 
183 94 632 0 2.16969694 0.00880291 5 
184 40 635 2 1212.92437396 0.00000306 1 
185 94 637 0 4.44236402 0.01006508 6 
186 101 637 0 0.19098383 0.00753196 4 
187 610 640 2 2287.10967335 0.00000412 1 
188 327 641 2 2974.35772613 0.00000339 1 
189 101 642 0 0.11555601 0.00888660 5 
190 107 642 0 0.04025021 0.01408251 9 
191 101 645 0 6.69527511 0.00763771 4 
192 107 645 0 1.54205090 0.00752566 4 
193 275 652 2 1403.28223947 0.00000403 1 
194 101 657 0 0.73548669 0.01667747 10 
195 101 663 0 0.04971914 0.01671806 10 
196 107 663 0 0.01781179 0.00917406 5 
197 114 663 0 0.00275957 0.00917148 5 
198 101 665 0 1.55112265 0.01348584 8 
199 107 665 0 0.47667103 0.00780855 4 
200 114 665 0 0.13329170 0.00650506 3 
201 66 666 2 896.26954826 0.00000329 1 
202 61 667 2 2015.22416988 0.00000283 1 
203 107 680 0 1.48615866 0.00937854 5 
204 107 683 0 0.94462224 0.00803342 4 
205 114 683 0 0.32178225 0.00952886 5 
206 399 687 2 1138.28087058 0.00000363 1 
207 568 691 2 634.87890514 0.00000342 1 
208 83 697 2 2597.56089698 0.00000375 1 
209 196 703 2 914.51992466 0.00000361 1 
210 107 704 0 0.34268109 0.01262156 7 
211 114 704 0 0.07528002 0.01552451 9 
212 627 705 2 1361.23680679 0.00000416 1 
213 374 712 2 767.74429146 0.00000390 1 
214 107 714 0 1.79639085 0.01134619 6 
215 114 714 0 0.02860377 0.01440942 8 
216 397 714 2 506.13424015 0.00000442 8 
217 73 717 2 922.54959623 0.00000407 1 
218 475 721 2 1259.42751005 0.00000371 1 
219 581 724 2 683.72333016 0.00000388 1 
220 509 727 2 2622.82178583 0.00000443 1 
221 107 730 0 0.19656714 0.01014698 5 
222 114 730 0 0.03540690 0.00857212 4 
223 129 733 2 1166.60555471 0.00000404 1 
224 140 734 2 606.05459759 0.00000339 1 
225 513 751 2 258.70671479 0.00000426 1 
226 121 754 0 0.33113739 0.00877172 4 
227 126 754 0 0.07673382 0.01513077 8 
228 121 759 0 2.33625684 0.01195184 6 
229 126 759 0 0.22329988 0.01203609 6 
230 126 762 0 7.08482229 0.01038868 5 
231 132 762 0 2.00372045 0.01536009 8 
232 73 775 2 632.72534445 0.00000315 1 
233 132 778 0 0.06999780 0.00903564 4 
234 741 779 2 610.16788909 0.00000507 1 
235 678 783 2 1011.61413552 0.00000462 1 
236 540 789 2 1250.48880955 0.00000441 1 
237 532 790 2 1946.64173720 0.00000432 1 
238 132 792 0 1.26802734 0.00930326 4 
239 132 800 0 3.35686460 0.00917452 4 
240 138 800 0 0.14494330 0.01253840 6 
241 630 804 2 382.35105480 0.00000352 1 
242 138 806 0 0.25140739 0.00752724 3 
243 617 812 2 1042.49655891 0.00000367 1 
244 768 819 2 381.63546578 0.00000438 1 
245 138 821 0 0.40674396 0.01109560 5 
246 138 823 0 6.54725682 0.00937550 4 
247 151 828 0 3.12108818 0.00949314 4 
248 803 829 2 7804.13014601 0.00000525 1 
249 654 830 2 183.72262171 0.00000355 1 
250 150 839 2 463.88804509 0.00000381 1 
251 235 839 2 302.97020067 0.00000187 1 
252 106 841 2 1481.77233692 0.00000404 1 
253 611 841 2 888.11795371 0.00000153 1 
254 481 841 2 336.57154581 0.00000119 1 
255 75 843 2 770.49252606 0.00000345 1 
256 168 843 2 118.42929830 0.00000129 1 
257 613 844 2 126.83434795 0.00000360 1 
258 344 845 2 611.48856077 0.00000310 1 
259 151 847 0 0.08724621 0.01142552 5 
260 151 855 0 0.11494457 0.01507651 7 
261 103 860 2 2958.14444544 0.00000382 1 
262 194 860 2 1515.56212896 0.00000157 1 
263 71 863 2 166.46805934 0.00000416 1 
264 758 866 2 2571.21436571 0.00000466 1 
265 763 871 2 186.51406951 0.00000374 1 
266 291 872 2 594.59404503 0.00000383 1 
267 82 884 2 537.17120333 0.00000454 1 
268 883 890 2 826.08861474 0.00000510 1 
269 512 892 2 492.08108982 0.00000419 1 
270 312 892 2 427.81045208 0.00000135 1 
271 151 895 0 2.80701437 0.01769500 8 
272 151 897 0 0.06118057 0.02133542 10 
273 138 903 0 0.08157811 0.01022460 4 
274 138 904 0 7.06392298 0.01399882 6 
275 132 907 0 0.71874717 0.01029095 4 
276 138 907 0 0.22077132 0.01218432 5 
277 540 908 2 643.93115316 0.00000457 1 
278 215 908 2 840.05119693 0.00000132 1 
279 132 911 0 0.23128175 0.01222329 5 
280 404 911 2 1431.82106542 0.00000474 5 
281 74 912 2 1809.32052646 0.00000435 1 
282 121 923 0 0.62636126 0.01435818 6 
283 126 923 0 0.07130653 0.01046676 4 
284 815 926 2 385.51537252 0.00000369 1 
285 107 929 0 0.07225325 0.01251256 5 
286 114 929 0 0.00477553 0.01057557 4 
287 107 935 0 4.91438615 0.01649152 7 
288 114 935 0 1.40337639 0.01650730 7 
289 686 936 2 1507.17200529 0.00000572 1 
290 790 936 2 1711.97563537 0.00000140 1 
291 101 939 0 0.48567419 0.01068054 4 
292 107 939 0 0.21174614 0.01070152 4 
293 472 939 2 2416.57006960 0.00000396 4 
294 96 941 2 3542.25989904 0.00000438 1 
295 14 942 2 1672.87026335 0.00000408 1 
296 610 943 2 874.65121258 0.00000410 1 
297 101 944 0 0.15377935 0.01271192 5 
298 94 947 0 0.23772432 0.01673437 7 
299 101 947 0 0.16826262 0.01479142 6 
300 593 952 2 3093.24095108 0.00000400 1 
301 87 953 0 0.13504795 0.01090056 4 
302 94 953 0 0.06505521 0.01488309 6 
303 226 953 0 0.08268323 0.02293161 10 
304 613 956 2 352.32516394 0.00000423 1 
305 81 959 0 1.83528326 0.02434569 10 
306 87 959 0 1.29172246 0.01710845 7 
307 220 959 0 0.04883629 0.01101827 4 
308 226 959 0 0.12130941 0.01305694 5 
309 807 960 2 843.58456225 0.00000422 1 
310 190 960 2 5223.19158906 0.00000148 1 
311 67 965 0 1.01368609 0.01314521 5 
312 81 965 0 0.31066014 0.01521428 6 
313 220 965 0 0.16483276 0.01928457 8 
314 768 965 2 4148.24697717 0.00000354 8 
315 430 965 2 485.02720490 0.00000095 8 
316 61 976 0 0.16803746 0.01740052 7 
317 67 976 0 0.05676300 0.00915663 3 
318 209 976 0 0.00780965 0.01122749 4 
319 834 977 2 3504.75948879 0.00000509 1 
320 297 979 2 2120.82989394 0.00000389 1 
321 530 980 2 2226.95185744 0.00000354 1 
322 50 982 0 0.38354811 0.01132412 4 
323 61 982 0 0.27147698 0.01132625 4 
324 201 982 0 0.22200943 0.01133612 4 
325 203 982 0 0.10573284 0.02183595 9 
326 909 983 2 4147.30845263 0.00000482 1 
327 764 983 2 4647.81993232 0.00000125 1 
328 76 985 2 1806.35467352 0.00000479 1 
329 199 987 2 551.55573076 0.00000418 1 
330 44 988 0 0.09550719 0.01142532 4 
331 50 988 0 0.05924873 0.01144758 4 
332 195 988 0 0.04319526 0.01567040 6 
333 201 988 0 0.02685916 0.01353419 5 
334 44 994 0 0.51683435 0.01783576 7 
335 189 994 0 0.29989154 0.02567880 10 
336 195 994 0 0.21957432 0.01371650 5 
337 632 998 2 988.06492106 0.00000409 1 
338 274 1000 2 2590.83927922 0.00000448 1 
339 32 1003 0 0.23901034 0.01381438 5 
340 178 1003 0 0.03356851 0.02598388 10 
341 183 1003 0 0.01433170 0.01601639 6 
342 381 1004 2 2347.91584941 0.00000574 1 
343 72 1007 2 216.94833284 0.00000572 1 
344 25 1008 0 1.23858172 0.01832373 7 
345 32 1008 0 0.53803958 0.01175275 4 
346 178 1008 0 0.34459610 0.01175990 4 
347 183 1008 0 0.22233868 0.01181401 4 
348 25 1010 0 0.60236133 0.01178222 4 
349 32 1010 0 0.30591807 0.01395703 5 
350 172 1010 0 0.10368354 0.01624764 6 
351 178 1010 0 0.19279072 0.02637212 10 
352 178 1012 2 10829.47933262 0.00000367 10 
353 749 1014 2 546.43509342 0.00000525 1 
354 19 1016 0 0.44047719 0.02050462 8 
355 166 1016 0 0.20189646 0.01182452 4 
356 172 1016 0 0.07393216 0.01404179 5 
357 871 1017 2 429.52315637 0.00000535 1 
358 745 1018 2 1323.99131567 0.00000534 1 
359 902 1022 2 2357.29826242 0.00000582 1 
360 149 1022 2 2857.42546801 0.00000167 1 
361 933 1025 2 345.39856722 0.00000595 1 
362 151 1029 0 0.03533130 0.01429895 5 
363 157 1029 0 0.02672450 0.01200881 4 
364 163 1029 0 3.39703566 0.01200564 4 
365 166 1029 0 0.49353449 0.01199839 4 
366 501 1031 2 6421.66840859 0.00000505 1 
367 691 1032 2 742.56954227 0.00000589 1 
368 412 1034 2 946.27180596 0.00000572 1 
369 643 1036 2 929.52987188 0.00000588 1 
370 141 1038 2 1865.17121321 0.00000635 1 
371 696 1041 2 159.44758156 0.00000531 1 
372 115 1045 2 383.00980079 0.00000515 1 
373 932 1051 2 1370.80658398 0.00000585 1 
374 186 1057 2 500.89734031 0.00000550 1 
375 570 1058 2 590.42509498 0.00000494 1 
376 745 1060 2 78.03057404 0.00000481 1 
377 69 1064 2 843.65278674 0.00000630 1 
378 592 1074 2 366.24568320 0.00000585 1 
379 613 1075 2 211.37285074 0.00000531 1 
380 132 1084 0 4.21993706 0.01502668 5 
381 448 1091 2 914.59781766 0.00000610 1 
382 782 1094 2 1041.58155399 0.00000550 1 
383 466 1103 2 728.14791511 0.00000517 1 
384 977 1109 2 724.93133833 0.00000620 1 
385 959 1115 2 1219.38911352 0.00000517 1 
386 716 1117 2 463.42786986 0.00000546 1 
387 33 1117 2 339.73877787 0.00000224 1 
388 103 1126 2 272.78457764 0.00000535 1 
389 445 1127 2 338.89406232 0.00000523 1 
390 250 1131 2 153.63843706 0.00000617 1 
391 60 1132 2 110.06260755 0.00000569 1 
392 101 1138 0 0.63021658 0.01576708 5 
393 683 1138 2 8975.54893906 0.00000532 5 
394 107 1147 0 0.73708347 0.01327994 4 
395 114 1147 0 0.03971358 0.01082974 3 
396 107 1150 0 7.45683387 0.01333725 4 
397 114 1150 0 1.00561260 0.01088689 3 
398 1066 1154 2 136.11449053 0.00000636 1 
399 114 1158 0 0.16899687 0.01099199 3 
400 121 1158 0 0.69099743 0.01352365 4 
401 863 1159 2 421.96404720 0.00000623 1 
402 80 1162 2 1294.32316524 0.00000600 1 
403 121 1164 0 0.45182924 0.01600731 5 
404 126 1164 0 0.04418665 0.01354374 4 
405 473 1164 2 4155.56131490 0.00000474 4 
406 819 1169 2 374.58509782 0.00000539 1 
407 416 1173 2 1307.70488179 0.00000593 1 
408 351 1174 2 1123.77328372 0.00000510 1 
409 114 1175 0 0.14266969 0.01365754 4 
410 121 1175 0 0.27324351 0.01367948 4 
411 923 1175 0 0.18719011 0.01373195 4 
412 929 1175 0 0.16073549 0.01367453 4 
413 1158 1175 0 0.00134797 0.01114372 3 
414 770 1184 2 1040.26710699 0.00000457 1 
415 688 1184 2 440.93264779 0.00000236 1 
416 273 1187 2 615.35870193 0.00000579 1 
417 101 1188 0 0.32950319 0.01383156 4 
418 939 1188 0 0.55418798 0.01385614 4 
419 1138 1188 0 0.03006025 0.01138363 3 
420 1147 1188 0 0.04063922 0.01128164 3 
421 1150 1188 0 1.83245351 0.01383820 4 
422 1061 1189 2 229.95955645 0.00000586 1 
423 1031 1189 2 1990.22115286 0.00000196 1 
424 1172 1190 2 4092.66256878 0.00000518 1 
425 357 1192 2 1082.83403420 0.00000532 1 
426 1183 1192 2 1877.62213920 0.00000193 1 
427 1159 1193 2 1182.71147174 0.00000525 1 
428 198 1195 2 697.51215897 0.00000574 1 
429 870 1200 2 640.45221539 0.00000612 1 
430 475 1201 2 620.69990859 0.00000579 1 
431 1050 1210 0 0.00345523 0.01406568 4 
432 1061 1210 0 0.57363906 0.01670335 5 
433 1075 1210 0 0.23107861 0.01672325 5 
434 1084 1210 0 3.13555510 0.01671295 5 
435 1088 1210 0 0.59156319 0.01417194 4 
436 1093 1210 0 0.13111230 0.01935439 6 
437 1098 1210 0 0.04730346 0.01412974 4 
438 1040 1215 2 358.13795419 0.00000679 1 
439 582 1216 2 290.79931444 0.00000579 1 
440 157 1217 0 0.32750279 0.01422233 4 
441 163 1217 0 0.19904338 0.01436896 4 
442 1029 1217 0 0.01250493 0.01166504 3 
443 1044 1217 0 3.98258990 0.01436134 4 
444 1050 1217 0 4.97161000 0.01705692 5 
445 845 1217 2 2685.86317175 0.00000193 5 
446 763 1222 2 242.80881566 0.00000531 1 
447 958 1222 2 2581.42995534 0.00000236 1 
448 411 1223 2 125.79198316 0.00000523 1 
449 786 1224 2 1857.42932086 0.00000611 1 
450 872 1224 2 162.15159136 0.00000220 1 
451 46 1224 2 1111.03619363 0.00000224 1 
452 278 1225 2 2203.61104103 0.00000608 1 
453 268 1226 2 122.02411831 0.00000567 1 
454 163 297 0 0.27920255 0.01537031 4 
455 189 400 0 2.09679271 0.01476581 4 
456 1056 1217 0 9.66143264 0.01853723 5 
