1 13 35 0.00016371 4 
2 1 52 0.00048089 5 
3 52 144 0.00129390 5 
4 19 166 0.00302886 10 
5 19 172 0.00319120 10 
6 25 172 0.00323252 10 
7 25 178 0.00337904 10 
8 32 178 0.00341197 10 
9 27 182 0.00339838 10 
10 32 183 0.00343622 10 
11 44 189 0.00358940 10 
12 44 195 0.00369057 10 
13 50 195 0.00372436 10 
14 50 201 0.00381361 10 
15 50 203 0.00386413 10 
16 61 203 0.00387238 10 
17 61 209 0.00397642 10 
18 67 209 0.00398448 10 
19 102 212 0.00405771 10 
20 67 220 0.00421371 10 
21 81 220 0.00420911 10 
22 81 226 0.00431678 10 
23 87 226 0.00432579 10 
24 87 231 0.00443013 10 
25 94 231 0.00444586 10 
26 226 231 0.00445792 10 
27 214 233 0.00458085 10 
28 94 241 0.00483631 10 
29 101 241 0.00475192 10 
30 101 247 0.00484386 10 
31 107 247 0.00488539 10 
32 107 254 0.00501641 10 
33 114 254 0.00505147 10 
34 107 256 0.00508983 10 
35 114 256 0.00509764 10 
36 107 258 0.00513384 10 
37 114 258 0.00514039 10 
38 121 266 0.00542842 10 
39 126 266 0.00545183 10 
40 126 272 0.00546042 10 
41 132 272 0.00546931 10 
42 56 276 0.00557895 10 
43 132 278 0.00562853 10 
44 138 278 0.00565044 10 
45 138 284 0.00576637 10 
46 151 284 0.00588878 10 
47 151 291 0.00600261 10 
48 151 297 0.00612609 10 
49 157 297 0.00614325 10 
50 163 297 0.00614492 10 
51 166 297 0.00615960 10 
52 32 297 0.00620549 10 
53 19 305 0.00635439 10 
54 157 305 0.00636049 10 
55 163 305 0.00641559 10 
56 166 305 0.00641236 10 
57 172 305 0.00642419 10 
58 107 307 0.00651637 10 
59 19 315 0.00665708 10 
60 25 315 0.00668324 10 
61 172 315 0.00669769 10 
62 172 328 0.00695589 10 
63 19 337 0.00713979 10 
64 25 337 0.00714271 10 
65 172 337 0.00714947 10 
66 19 342 0.00726796 10 
67 25 342 0.00727351 10 
68 172 342 0.00727595 10 
69 178 342 0.00731766 10 
70 180 347 0.00743064 10 
71 308 351 0.00755293 10 
72 29 354 0.00763416 10 
73 149 356 0.00775557 10 
74 218 361 0.00801732 10 
75 25 367 0.00813720 10 
76 32 367 0.00812677 10 
77 178 367 0.00820087 10 
78 183 367 0.00815951 10 
79 27 371 0.00827519 10 
80 25 374 0.00833916 10 
81 32 374 0.00831603 10 
82 178 374 0.00837908 10 
83 183 374 0.00835838 10 
84 32 382 0.00850988 10 
85 183 382 0.00894649 10 
86 126 384 0.00870863 10 
87 32 387 0.00877169 10 
88 183 387 0.00877740 10 
89 31 388 0.00884164 10 
90 21 391 0.00894891 10 
91 393 398 0.00907375 10 
92 325 399 0.00915985 10 
93 189 400 0.00923105 10 
94 20 403 0.00931500 10 
95 355 403 0.00943472 10 
96 193 404 0.00953391 10 
97 57 413 0.00973098 10 
98 189 414 0.00976508 10 
99 7 415 0.00983840 10 
100 371 419 0.01002431 10 
101 399 435 0.01040383 10 
102 199 436 0.01052692 10 
103 44 437 0.01051697 10 
104 195 437 0.01066120 10 
105 329 445 0.01091942 10 
106 12 446 0.01097628 10 
107 6 448 0.01095503 10 
108 44 454 0.01108385 10 
109 189 454 0.01122153 10 
110 367 466 0.01141644 10 
111 44 467 0.01143523 10 
112 50 467 0.01147554 10 
113 195 467 0.01150686 10 
114 153 470 0.01174830 10 
115 462 474 0.01176712 10 
116 195 484 0.01209620 10 
117 429 491 0.01235465 10 
118 44 494 0.01242522 10 
119 50 494 0.01242972 10 
120 195 494 0.01243464 10 
121 201 494 0.01265072 10 
122 50 500 0.01278007 10 
123 201 500 0.01278182 10 
124 203 500 0.01261513 10 
125 387 503 0.01279571 10 
126 61 508 0.01315460 10 
127 203 508 0.01315476 10 
128 209 508 0.01320622 10 
129 19 515 0.01335472 10 
130 159 520 0.01394235 10 
131 61 522 0.01338520 10 
132 203 522 0.01358747 10 
133 209 522 0.01380214 10 
134 163 522 0.01371130 10 
135 344 522 0.01387436 10 
136 72 527 0.01342655 10 
137 61 528 0.01343315 10 
138 67 528 0.01350445 10 
139 81 528 0.01379354 10 
140 209 528 0.01379485 10 
141 220 528 0.01379496 10 
142 67 532 0.01215540 9 
143 81 532 0.01357906 10 
144 220 532 0.01477307 10 
145 105 533 0.01372630 10 
146 507 535 0.01390371 10 
147 137 535 0.01430724 10 
148 450 542 0.01452111 10 
149 443 543 0.01429749 10 
150 341 550 0.01489368 10 
151 67 556 0.01517259 10 
152 380 556 0.01587232 10 
153 67 564 0.01571092 10 
154 81 564 0.01569869 10 
155 220 564 0.01567746 10 
156 211 566 0.01229827 8 
157 466 566 0.01614415 10 
158 67 567 0.01585332 10 
159 81 567 0.01614366 10 
160 220 567 0.01615193 10 
161 67 570 0.01591321 10 
162 81 570 0.01623291 10 
163 220 570 0.01625519 10 
164 81 575 0.01636174 10 
165 220 575 0.01636506 10 
166 335 575 0.01682915 10 
167 247 577 0.01684539 10 
168 81 588 0.01707051 10 
169 87 588 0.01700950 10 
170 226 588 0.01706965 10 
171 87 597 0.01724173 10 
172 94 597 0.01724469 10 
173 226 597 0.01724500 10 
174 148 598 0.01765082 10 
175 232 602 0.01755929 10 
176 451 603 0.01784450 10 
177 87 604 0.01795211 10 
178 94 604 0.01787432 10 
179 217 604 0.01801992 10 
180 20 613 0.01848705 10 
181 94 616 0.01889168 10 
182 548 619 0.01907520 10 
183 69 626 0.01974452 10 
184 190 628 0.02018857 10 
185 94 632 0.02030245 10 
186 40 635 0.02052612 10 
187 94 637 0.02067538 10 
188 101 637 0.02066052 10 
189 610 640 0.02089101 10 
190 327 641 0.02111723 10 
191 101 642 0.02100825 10 
192 107 642 0.02112524 10 
193 101 645 0.02082729 10 
194 107 645 0.02118640 10 
195 275 652 0.02161279 10 
196 101 657 0.02171466 10 
197 101 663 0.02184138 10 
198 107 663 0.02219035 10 
199 114 663 0.02163326 10 
200 101 665 0.02167222 10 
201 107 665 0.02169091 10 
202 114 665 0.02168911 10 
203 66 666 0.02227344 10 
204 61 667 0.02227566 10 
205 107 680 0.02223669 10 
206 107 683 0.02227407 10 
207 114 683 0.02264500 10 
208 399 687 0.02262822 10 
209 568 691 0.02308545 10 
210 83 697 0.02330872 10 
211 196 703 0.02322229 10 
212 107 704 0.02368063 10 
213 114 704 0.02392502 10 
214 627 705 0.02396732 10 
215 374 712 0.02375986 10 
216 107 714 0.02446188 10 
217 114 714 0.02443891 10 
218 397 714 0.02477852 10 
219 73 717 0.02482241 10 
220 475 721 0.02458651 10 
221 581 724 0.02519486 10 
222 509 727 0.02552398 10 
223 107 730 0.02546149 10 
224 114 730 0.02582817 10 
225 129 733 0.02582280 10 
226 140 734 0.02683886 10 
227 513 751 0.02626852 10 
228 121 754 0.02707471 10 
229 126 754 0.02728737 10 
230 121 759 0.02694407 10 
231 126 759 0.02734729 10 
232 126 762 0.02742727 10 
233 132 762 0.02745700 10 
234 73 775 0.02781189 10 
235 132 778 0.02797268 10 
236 741 779 0.02801230 10 
237 678 783 0.02795224 10 
238 540 789 0.02862172 10 
239 532 790 0.02908447 10 
240 132 792 0.02910994 10 
241 132 800 0.02879545 10 
242 138 800 0.02921167 10 
243 630 804 0.02920535 10 
244 138 806 0.02925765 10 
245 617 812 0.02884568 10 
246 768 819 0.02950714 10 
247 138 821 0.02951917 10 
248 138 823 0.02998403 10 
249 151 828 0.02994447 10 
250 803 829 0.03008042 10 
251 654 830 0.03024114 10 
252 150 839 0.03021438 10 
253 235 839 0.03070416 10 
254 106 841 0.03124597 10 
255 611 841 0.03115238 10 
256 481 841 0.03138865 10 
257 75 843 0.03221838 10 
258 168 843 0.03185905 10 
259 613 844 0.03164714 10 
260 344 845 0.03218739 10 
261 151 847 0.03190106 10 
262 151 855 0.03165251 10 
263 103 860 0.03196150 10 
264 194 860 0.03196083 10 
265 71 863 0.03263729 10 
266 758 866 0.03319156 10 
267 763 871 0.03296764 10 
268 291 872 0.03288055 10 
269 82 884 0.03303097 10 
270 883 890 0.01294115 4 
271 512 892 0.03294403 10 
272 312 892 0.03369829 10 
273 151 895 0.03337948 10 
274 151 897 0.03389449 10 
275 138 903 0.03348146 10 
276 138 904 0.03396646 10 
277 132 907 0.03403423 10 
278 138 907 0.03404044 10 
279 540 908 0.03404046 10 
280 215 908 0.03401316 10 
281 132 911 0.03473667 10 
282 404 911 0.03444705 10 
283 74 912 0.03430783 10 
284 121 923 0.03548959 10 
285 126 923 0.03598405 10 
286 815 926 0.03504508 10 
287 107 929 0.03564318 10 
288 114 929 0.03532370 10 
289 107 935 0.03495089 10 
290 114 935 0.03543959 10 
291 686 936 0.03555124 10 
292 790 936 0.03579619 10 
293 101 939 0.03626110 10 
294 107 939 0.03672601 10 
295 472 939 0.03691672 10 
296 96 941 0.03700443 10 
297 14 942 0.03769018 10 
298 610 943 0.03717815 10 
299 101 944 0.03720989 10 
300 94 947 0.03681633 10 
301 101 947 0.03731881 10 
302 593 952 0.03746923 10 
303 87 953 0.03743304 10 
304 94 953 0.03740614 10 
305 226 953 0.03743867 10 
306 613 956 0.03702226 10 
307 81 959 0.03696231 10 
308 87 959 0.03779974 10 
309 220 959 0.03808830 10 
310 226 959 0.03801529 10 
311 807 960 0.03768761 10 
312 190 960 0.03763748 10 
313 67 965 0.03771593 10 
314 81 965 0.03858879 10 
315 220 965 0.03875602 10 
316 768 965 0.03910660 10 
317 430 965 0.03909021 10 
318 61 976 0.03881187 10 
319 67 976 0.03935713 10 
320 209 976 0.03916795 10 
321 834 977 0.03914041 10 
322 297 979 0.03924425 10 
323 530 980 0.03874484 10 
324 50 982 0.03975484 10 
325 61 982 0.03984011 10 
326 201 982 0.04074894 10 
327 203 982 0.03970875 10 
328 909 983 0.04018722 10 
329 764 983 0.04024607 10 
330 76 985 0.04110808 10 
331 199 987 0.04076907 10 
332 44 988 0.04025149 10 
333 50 988 0.04322760 10 
334 195 988 0.04278081 10 
335 201 988 0.03704074 9 
336 44 994 0.04084322 10 
337 189 994 0.04741251 10 
338 195 994 0.04156930 10 
339 632 998 0.04101220 10 
340 274 1000 0.04189828 10 
341 32 1003 0.04157059 10 
342 178 1003 0.04234874 10 
343 183 1003 0.04208111 10 
344 381 1004 0.04327135 10 
345 72 1007 0.04298984 10 
346 25 1008 0.04328347 10 
347 32 1008 0.04331037 10 
348 178 1008 0.04337612 10 
349 183 1008 0.04336769 10 
350 25 1010 0.04339863 10 
351 32 1010 0.04337268 10 
352 172 1010 0.04337328 10 
353 178 1010 0.04343487 10 
354 178 1012 0.04270042 10 
355 749 1014 0.04376921 10 
356 19 1016 0.04353020 10 
357 166 1016 0.04418276 10 
358 172 1016 0.04415530 10 
359 871 1017 0.04477224 10 
360 745 1018 0.04489612 10 
361 902 1022 0.04478256 10 
362 149 1022 0.04497307 10 
363 933 1025 0.04506319 10 
364 151 1029 0.04513651 10 
365 157 1029 0.04745898 10 
366 163 1029 0.04608408 10 
367 166 1029 0.04610371 10 
368 501 1031 0.04538377 10 
369 691 1032 0.04691225 10 
370 412 1034 0.04698307 10 
371 643 1036 0.04664017 10 
372 141 1038 0.04750569 10 
373 696 1041 0.04696741 10 
374 115 1045 0.04742767 10 
375 932 1051 0.04742940 10 
376 186 1057 0.04816383 10 
377 570 1058 0.04810620 10 
378 745 1060 0.04877908 10 
379 69 1064 0.04789372 10 
380 592 1074 0.05004193 10 
381 613 1075 0.05068639 10 
382 132 1084 0.04872283 10 
383 448 1091 0.04948679 10 
384 782 1094 0.05040926 10 
385 466 1103 0.05065959 10 
386 977 1109 0.05136745 10 
387 959 1115 0.05174074 10 
388 716 1117 0.05191225 10 
389 33 1117 0.05294959 10 
390 103 1126 0.05264462 10 
391 445 1127 0.05333953 10 
392 250 1131 0.09876576 10 
393 60 1132 0.05421096 10 
394 101 1138 0.05344546 10 
395 683 1138 0.05339487 10 
396 107 1147 0.05282562 10 
397 114 1147 0.05355166 10 
398 107 1150 0.05286564 10 
399 114 1150 0.05354016 10 
400 1066 1154 0.05440678 10 
401 114 1158 0.05450405 10 
402 121 1158 0.05460088 10 
403 863 1159 0.05553577 10 
404 80 1162 0.05419676 10 
405 121 1164 0.05491883 10 
406 126 1164 0.05579805 10 
407 473 1164 0.05624345 10 
408 819 1169 0.05470478 10 
409 416 1173 0.05424686 10 
410 351 1174 0.05574520 10 
411 114 1175 0.05577927 10 
412 121 1175 0.05581338 10 
413 923 1175 0.05703484 10 
414 929 1175 0.05736761 10 
415 1158 1175 0.05611873 10 
416 770 1184 0.05481083 10 
417 688 1184 0.05791979 10 
418 273 1187 0.05742434 10 
419 101 1188 0.05737367 10 
420 939 1188 0.05776862 10 
421 1138 1188 0.05782212 10 
422 1147 1188 0.05833335 10 
423 1150 1188 0.05834796 10 
424 1061 1189 0.05913061 10 
425 1031 1189 0.05813574 10 
426 1172 1190 0.05808289 10 
427 357 1192 0.05885210 10 
428 1183 1192 0.06182250 10 
429 1159 1193 0.06191696 10 
430 198 1195 0.06035297 10 
431 870 1200 0.06117356 10 
432 475 1201 0.05996995 10 
433 1050 1210 0.06057094 10 
434 1061 1210 0.06080850 10 
435 1075 1210 0.06035872 10 
436 1084 1210 0.06049631 10 
437 1088 1210 0.06046882 10 
438 1093 1210 0.06047114 10 
439 1098 1210 0.06051927 10 
440 1040 1215 0.06083303 10 
441 582 1216 0.06334280 10 
442 157 1217 0.06201294 10 
443 163 1217 0.06155584 10 
444 1029 1217 0.06322180 10 
445 1044 1217 0.06118548 10 
446 1050 1217 0.06446623 10 
447 1056 1217 0.06118920 10 
448 845 1217 0.06326539 10 
449 763 1222 0.06200261 10 
450 958 1222 0.06500858 10 
451 411 1223 0.06595915 10 
452 786 1224 0.06601329 10 
453 872 1224 0.06538685 10 
454 46 1224 0.06571409 10 
455 278 1225 0.06702695 10 
456 268 1226 0.06677953 10 
