VERTEX2 0 -0.00002496 -0.00000026 -0.00000152
VERTEX2 1 -0.00002496 -0.00000026 -0.00064352
VERTEX2 2 -0.00221320 0.00006353 -0.00130697
VERTEX2 3 0.00642128 -0.00070253 -0.00381497
VERTEX2 4 0.63420363 -0.01095295 -0.00782955
VERTEX2 5 0.68700255 -0.01146718 -0.09926884
VERTEX2 6 0.68890455 -0.01313096 -0.89696752
VERTEX2 7 0.68155000 0.00983502 -1.51205893
VERTEX2 8 0.69051463 0.04774383 -2.12493598
VERTEX2 9 0.71943098 0.07251740 -2.76233024
VERTEX2 10 0.74306126 0.07639281 2.90697638
VERTEX2 11 0.74709757 0.07383634 2.23339609
VERTEX2 12 0.74680879 0.08889209 1.58460262
VERTEX2 13 0.75848600 0.12609353 0.92721091
VERTEX2 14 0.79430230 0.15152353 0.32009990
VERTEX2 15 0.81752242 0.15325846 -0.20325322
VERTEX2 16 1.12006089 0.09394139 -0.22127867
VERTEX2 17 1.72982939 -0.04901439 -0.25189512
VERTEX2 18 2.36167359 -0.20743563 -0.26155698
VERTEX2 19 2.99670924 -0.39984258 -0.30965766
VERTEX2 20 3.60356632 -0.58654457 -0.30335021
VERTEX2 21 4.21331705 -0.73117734 -0.19173285
VERTEX2 22 4.81624774 -0.86313226 -0.17431653
VERTEX2 23 5.45173634 -0.89924715 -0.06695098
VERTEX2 24 6.07804937 -0.96214978 -0.12416345
VERTEX2 25 6.70774509 -1.02163102 -0.12163158
VERTEX2 26 7.31628781 -1.11568835 -0.16197204
VERTEX2 27 7.93182345 -1.20039855 -0.14598257
VERTEX2 28 8.51117936 -1.29231877 -0.15062429
VERTEX2 29 8.88763727 -1.34542563 -0.12007622
VERTEX2 30 8.89704475 -1.34782979 -0.65271039
VERTEX2 31 8.99461496 -1.47615867 -0.92143467
VERTEX2 32 9.36544037 -1.98439833 -0.94021103
VERTEX2 33 9.72172757 -2.44156617 -0.88742250
VERTEX2 34 10.11829610 -2.90578282 -0.87010412
VERTEX2 35 10.52211848 -3.36329731 -0.83960873
VERTEX2 36 10.93402892 -3.82733338 -0.85122063
VERTEX2 37 11.19816809 -4.12246540 -0.84656649
VERTEX2 38 11.18086211 -4.09877651 -1.17415167
VERTEX2 39 11.17714823 -4.08081677 -1.34950525
VERTEX2 40 11.31049185 -4.64554834 -1.33529171
VERTEX2 41 11.44647774 -5.23200191 -1.37024815
VERTEX2 42 11.55463891 -5.78263313 -1.39576456
VERTEX2 43 11.64513762 -6.36582319 -1.43877971
VERTEX2 44 11.71759700 -6.94900791 -1.47843521
VERTEX2 45 11.75634082 -7.56135544 -1.53412091
VERTEX2 46 11.77121453 -8.17490155 -1.55368106
VERTEX2 47 11.77562551 -8.79237211 -1.59529402
VERTEX2 48 11.75654371 -9.41316456 -1.60181861
VERTEX2 49 11.73385227 -10.02973129 -1.65266420
VERTEX2 50 11.66631540 -10.61177799 -1.69720648
VERTEX2 51 11.61823021 -11.04457303 -1.72996877
VERTEX2 52 11.54285097 -11.44450137 -1.81103453
VERTEX2 53 11.42189461 -12.03218916 -1.79703877
VERTEX2 54 11.28962769 -12.56864978 -1.85772396
VERTEX2 55 11.29005976 -12.56688583 -1.85123133
VERTEX2 56 11.28244024 -12.59320681 -1.83946009
VERTEX2 57 11.11703881 -13.24584569 -1.84885320
VERTEX2 58 10.95052481 -13.88630808 -1.80118769
VERTEX2 59 10.80219954 -14.53085417 -1.82382630
VERTEX2 60 10.65383062 -15.17169723 -1.80193857
VERTEX2 61 10.49852319 -15.81737105 -1.85232712
VERTEX2 62 10.33677197 -16.37275089 -1.81204101
VERTEX2 63 10.17341247 -16.93283263 -1.84719282
VERTEX2 64 10.02673650 -17.48871726 -1.78354870
VERTEX2 65 9.88072352 -18.04245996 -1.83481509
VERTEX2 66 9.71539416 -18.62516261 -1.84281557
VERTEX2 67 9.53948855 -19.20863183 -1.84164352
VERTEX2 68 9.43350413 -19.58615679 -1.86048808
VERTEX2 69 9.45530292 -19.52195799 -2.01944866
VERTEX2 70 9.47195396 -19.49273289 -2.70230990
VERTEX2 71 9.35787840 -19.49449510 2.92984280
VERTEX2 72 9.21137867 -19.46305315 2.92199903
VERTEX2 73 9.09425397 -19.42831096 2.85705633
VERTEX2 74 9.16720837 -19.48233579 2.23885364
VERTEX2 75 9.24175474 -19.51505471 1.88958063
VERTEX2 76 9.30634760 -19.59136322 2.59046913
VERTEX2 77 9.36706664 -19.61862460 2.82682525
VERTEX2 78 9.11954718 -19.62160945 -3.11568150
VERTEX2 79 8.53067471 -19.64744260 -3.11931578
VERTEX2 80 7.93463289 -19.63582178 3.09096491
VERTEX2 81 7.34389988 -19.60170050 3.06667964
VERTEX2 82 6.75618809 -19.54722301 3.01401665
VERTEX2 83 6.16678375 -19.48163593 2.99164777
VERTEX2 84 5.59750327 -19.38102617 2.91528899
VERTEX2 85 5.04352445 -19.26162477 2.92419966
VERTEX2 86 4.41417703 -19.12010894 2.83727013
VERTEX2 87 4.17686877 -19.08049762 2.77558043
VERTEX2 88 3.83971821 -18.94769525 2.74585733
VERTEX2 89 3.85907800 -18.94894642 -3.14154462
VERTEX2 90 3.26122009 -18.94115783 3.11045283
VERTEX2 91 2.65318354 -18.92558277 -3.12386231
VERTEX2 92 2.06128478 -18.91027647 3.04326093
VERTEX2 93 1.45478842 -18.79777206 2.94192955
VERTEX2 94 0.85078867 -18.65013945 2.89863432
VERTEX2 95 0.24965711 -18.55266693 3.04132012
VERTEX2 96 -0.34275241 -18.49093327 3.06532155
VERTEX2 97 -0.91727003 -18.41753712 2.99461540
VERTEX2 98 -1.48747822 -18.30736876 2.93640409
VERTEX2 99 -2.17365438 -18.17172792 2.98280843
VERTEX2 100 -2.71902296 -18.05517358 2.93052414
VERTEX2 101 -3.31538912 -17.98697032 3.03299811
VERTEX2 102 -3.95483482 -17.88704245 2.92905499
VERTEX2 103 -4.59234726 -17.75153888 3.02665919
VERTEX2 104 -5.17641382 -17.66707401 2.99203666
VERTEX2 105 -5.76097494 -17.59335437 3.03742873
VERTEX2 106 -6.34024765 -17.51280181 2.98164946
VERTEX2 107 -6.93292860 -17.40688812 2.97661595
VERTEX2 108 -7.37885480 -17.34762258 3.03420679
VERTEX2 109 -1.73509433 -22.82079962 1.60229667
VERTEX2 110 -1.74456715 -22.85869535 1.00714624
VERTEX2 111 -1.70118428 -22.83182048 0.49794895
VERTEX2 112 -1.17073055 -22.53656167 0.55096439
VERTEX2 113 -0.67429332 -22.21571791 0.59679409
VERTEX2 114 -0.19320622 -21.88864021 0.63257692
VERTEX2 115 0.30961553 -21.50094423 0.68734766
VERTEX2 116 0.88359008 -21.02406925 0.72626029
VERTEX2 117 1.32892009 -20.60837357 0.81624350
VERTEX2 118 1.33391813 -20.60369527 0.47289518
VERTEX2 119 1.81436891 -20.39329970 0.41451529
VERTEX2 120 2.41381398 -20.11524721 0.49949476
VERTEX2 121 2.94745085 -19.80491366 0.56223756
VERTEX2 122 3.43158496 -19.49801575 0.61831466
VERTEX2 123 3.56676873 -19.39623718 0.60543647
VERTEX2 124 3.81932100 -19.35499499 0.18209868
VERTEX2 125 4.44443141 -19.25651002 0.17116382
VERTEX2 126 5.04493693 -19.07419557 0.37789921
VERTEX2 127 5.63677693 -18.85714487 0.37762594
VERTEX2 128 6.21836849 -18.61975956 0.41571851
VERTEX2 129 6.80194080 -18.39242092 0.38501787
VERTEX2 130 7.38786800 -18.14272637 0.44056040
VERTEX2 131 7.95378344 -17.87766670 0.53270943
VERTEX2 132 8.49126138 -17.59486156 0.48724253
VERTEX2 133 8.99816783 -17.35606551 0.44984785
VERTEX2 134 9.53397201 -17.10916388 0.43118588
VERTEX2 135 10.06795531 -16.89562698 0.40459568
VERTEX2 136 10.64642026 -16.64825671 0.42404644
VERTEX2 137 11.23533003 -16.42087946 0.38219124
VERTEX2 138 11.81116837 -16.17956294 0.46389601
VERTEX2 139 12.36201286 -15.88283933 0.53018400
VERTEX2 140 12.90697775 -15.53784785 0.56188456
VERTEX2 141 13.44277166 -15.22301999 0.51477432
VERTEX2 142 13.99430693 -14.90370202 0.51181393
VERTEX2 143 14.29868570 -15.29745294 0.60015544
VERTEX2 144 14.58726468 -15.09156325 0.61872998
VERTEX2 145 14.58385692 -15.09296355 0.10970063
VERTEX2 146 14.58555243 -15.09197811 -0.49569133
VERTEX2 147 14.49443136 -14.96642665 -0.99854514
VERTEX2 148 14.63718357 -15.19608067 -1.04045385
VERTEX2 149 14.89777441 -15.62934908 -1.02069711
VERTEX2 150 15.16926747 -16.04206810 -1.01209204
VERTEX2 151 15.46387824 -16.47006697 -0.93138109
VERTEX2 152 15.80828001 -16.95554524 -0.99903948
VERTEX2 153 16.15132452 -17.44178821 -0.91278976
VERTEX2 154 16.50167091 -17.92619654 -0.98967466
VERTEX2 155 16.84061804 -18.42269090 -0.96294570
VERTEX2 156 17.19305397 -18.91322009 -0.93900200
VERTEX2 157 17.50151592 -19.35696377 -1.01107842
VERTEX2 158 17.58591810 -19.49232345 -0.98173625
VERTEX2 159 22.95342069 -16.55519014 -2.77832412
VERTEX2 160 22.91661358 -16.57256459 -1.72796447
VERTEX2 161 -0.03912869 0.55478392 2.72216287
VERTEX2 162 -0.04639981 0.55315913 -2.52821028
VERTEX2 163 -0.05221426 0.52256945 -1.53400231
VERTEX2 164 -0.11994414 0.60509163 -0.47036414
VERTEX2 165 0.04523256 0.59010127 -0.06263532
VERTEX2 166 0.73416168 0.55299030 -0.06093104
VERTEX2 167 1.35129759 0.50385674 -0.08807207
VERTEX2 168 1.93980866 0.45715830 -0.07367717
VERTEX2 169 2.53264346 0.39565185 -0.11103648
VERTEX2 170 3.11683614 0.33692689 -0.13222425
VERTEX2 171 3.67404388 0.24789820 -0.17121831
VERTEX2 172 4.29522880 0.15041736 -0.15795550
VERTEX2 173 4.92232605 0.03823216 -0.18083162
VERTEX2 174 5.54578053 -0.06767955 -0.14084827
VERTEX2 175 6.16091203 -0.14993774 -0.16577331
VERTEX2 176 6.75812867 -0.26224726 -0.15646771
VERTEX2 177 7.37993182 -0.35718045 -0.18451593
VERTEX2 178 7.99848855 -0.49490648 -0.22402360
VERTEX2 179 8.40222850 -0.57482418 -0.17106547
VERTEX2 180 8.45144421 -0.58763148 -0.61380335
VERTEX2 181 8.89365201 -0.90155786 -0.66600190
VERTEX2 182 9.30136042 -1.25707682 -0.84058031
VERTEX2 183 9.64598208 -1.66864770 -0.89837589
VERTEX2 184 9.97236630 -2.15274975 -1.05020632
VERTEX2 185 10.24208137 -2.65780715 -1.14766254
VERTEX2 186 10.44698252 -3.19155918 -1.21876670
VERTEX2 187 10.62492029 -3.70173654 -1.24577852
VERTEX2 188 10.80678873 -4.23187001 -1.25543989
VERTEX2 189 10.97919264 -4.76589015 -1.28660879
VERTEX2 190 11.14811282 -5.37696325 -1.31576590
VERTEX2 191 11.30405781 -5.97719867 -1.34028360
VERTEX2 192 11.44122896 -6.57074837 -1.36902248
VERTEX2 193 11.54895649 -7.11534420 -1.42508652
VERTEX2 194 11.63375753 -7.68876318 -1.45236291
VERTEX2 195 11.69886147 -8.25327914 -1.48142498
VERTEX2 196 11.74908134 -8.87820531 -1.52210255
VERTEX2 197 11.77089707 -9.49716532 -1.54954799
VERTEX2 198 11.78012898 -10.11305493 -1.60771189
VERTEX2 199 11.73733775 -10.71352554 -1.66863367
VERTEX2 200 11.67572749 -11.31012914 -1.69058353
VERTEX2 201 11.59074479 -11.90224406 -1.74735256
VERTEX2 202 11.51479422 -12.40102169 -1.72662675
VERTEX2 203 11.39579411 -13.12758763 -1.77879809
VERTEX2 204 11.26030985 -13.69895274 -1.88039631
VERTEX2 205 11.07808025 -14.25459008 -1.88951008
VERTEX2 206 10.91144918 -14.79574674 -1.88728450
VERTEX2 207 10.73880637 -15.35655827 -1.87102725
VERTEX2 208 10.55196686 -15.94973922 -1.88017554
VERTEX2 209 10.37640906 -16.54479933 -1.84167001
VERTEX2 210 10.20085414 -17.13106987 -1.85038699
VERTEX2 211 10.03914683 -17.72174553 -1.84802617
VERTEX2 212 9.84865094 -18.30682996 -1.90097505
VERTEX2 213 9.63957759 -18.89511253 -1.92165750
VERTEX2 214 9.42605886 -19.46945710 -1.92543354
VERTEX2 215 9.30478440 -19.78625825 -1.96149763
VERTEX2 216 9.31987605 -19.76173642 -2.45914038
VERTEX2 217 9.35018696 -19.75915926 -3.00022272
VERTEX2 218 9.36436117 -19.76494445 -3.05593957
VERTEX2 219 8.80599663 -19.70987132 3.05939641
VERTEX2 220 8.20473014 -19.65422579 3.02000488
VERTEX2 221 7.58841420 -19.58085608 3.07121285
VERTEX2 222 6.98291360 -19.53098264 3.04612544
VERTEX2 223 6.37523202 -19.49425635 -3.14045279
VERTEX2 224 5.77552877 -19.48719486 3.11696512
VERTEX2 225 5.17298347 -19.47392455 -3.11673594
VERTEX2 226 4.57137566 -19.45984130 3.11689671
VERTEX2 227 3.92336631 -19.51869534 -3.00961222
VERTEX2 228 3.40416792 -19.49534744 2.91184693
VERTEX2 229 3.00372949 -19.46567992 3.03114084
VERTEX2 230 2.71728691 -19.44476778 3.00229637
VERTEX2 231 2.92447551 -19.46713938 3.07237808
VERTEX2 232 2.64179119 -19.33350752 2.64484599
VERTEX2 233 2.09441807 -19.06605830 2.74697419
VERTEX2 234 1.53856871 -18.83357954 2.70260861
VERTEX2 235 1.30704805 -18.72757262 2.69740903
VERTEX2 236 0.97669426 -18.72158530 3.10357297
VERTEX2 237 0.35199424 -18.72378834 -3.10900259
VERTEX2 238 -0.26710521 -18.75969003 3.14155018
VERTEX2 239 -0.87899011 -18.74454932 3.07392369
VERTEX2 240 -1.43612053 -18.61751641 2.85565369
VERTEX2 241 -1.96233303 -18.47799073 2.94084334
VERTEX2 242 -2.51986721 -18.40328010 2.98023647
VERTEX2 243 -3.10405646 -18.31009020 2.97941739
VERTEX2 244 -3.71523876 -18.25220027 3.05041574
VERTEX2 245 -4.31739661 -18.19116977 2.99586437
VERTEX2 246 -4.90481308 -18.09401025 2.92315301
VERTEX2 247 -5.49414660 -18.00019990 3.02870147
VERTEX2 248 -6.04617258 -17.96547443 3.05978148
VERTEX2 249 -5.99474930 -17.97452286 -3.03095125
VERTEX2 250 -5.99017555 -17.97451848 2.66365561
VERTEX2 251 -6.30249858 -17.62688830 2.24018231
VERTEX2 252 -6.64614843 -17.19864611 2.24866924
VERTEX2 253 -7.00525226 -16.74431971 2.23763635
VERTEX2 254 -7.35748741 -16.27799543 2.19638016
VERTEX2 255 -7.40027347 -16.22029996 2.27546835
VERTEX2 256 -7.40024526 -16.18460092 1.78422385
VERTEX2 257 -7.45379673 -15.66367513 1.68008092
VERTEX2 258 -7.53520021 -15.07532542 1.76685727
VERTEX2 259 -7.67043907 -14.48878340 1.80960237
VERTEX2 260 -7.79727416 -13.94670689 1.80313820
VERTEX2 261 -7.79678131 -13.94086039 1.49508338
VERTEX2 262 -7.73687784 -13.32110439 1.50356873
VERTEX2 263 -7.69799267 -12.73386259 1.51877788
VERTEX2 264 -7.68598221 -12.15870089 1.61778404
VERTEX2 265 -7.71966622 -11.58154043 1.63950757
VERTEX2 266 -7.67819846 -11.03460636 1.51217966
VERTEX2 267 -7.62784785 -10.30654608 1.47787228
VERTEX2 268 -7.49441371 -9.71191644 1.36206240
VERTEX2 269 -7.37343997 -9.12602079 1.38735847
VERTEX2 270 -7.29625085 -8.53696928 1.49618414
VERTEX2 271 -7.19356620 -7.94707432 1.38074032
VERTEX2 272 -7.09734563 -7.35450799 1.44202983
VERTEX2 273 -7.09853581 -6.75523241 1.65418073
VERTEX2 274 -7.15716486 -6.14899968 1.67756098
VERTEX2 275 -7.13736369 -5.56842664 1.50448090
VERTEX2 276 -7.12153326 -4.98489442 1.61707846
VERTEX2 277 -7.15788965 -4.42079814 1.58935055
VERTEX2 278 -7.10355563 -3.80260133 1.49766755
VERTEX2 279 -7.04595543 -3.17724777 1.44731591
VERTEX2 280 -6.96391525 -2.55929357 1.45378694
VERTEX2 281 -6.86277208 -1.94091910 1.35855850
VERTEX2 282 -6.73661380 -1.33048122 1.40298787
VERTEX2 283 -6.64501351 -0.71065522 1.39933389
VERTEX2 284 -6.53181076 -0.10256642 1.43076054
VERTEX2 285 -6.46329438 0.52633605 1.45100762
VERTEX2 286 -6.39502272 1.12740831 1.50374321
VERTEX2 287 -6.39307908 1.15804273 1.39837311
VERTEX2 288 -6.39788391 1.14940039 0.78744281
VERTEX2 289 -6.40121103 1.14755538 0.19172700
VERTEX2 290 -5.95720989 1.13233642 -0.03446859
VERTEX2 291 -5.33131080 1.11436508 -0.02134293
VERTEX2 292 -4.72662287 1.08663990 -0.07275022
VERTEX2 293 -4.11466169 1.03576077 -0.09285656
VERTEX2 294 -3.50650048 0.97984226 -0.08943517
VERTEX2 295 -2.89913766 0.89815685 -0.19858961
VERTEX2 296 -2.29907375 0.75605276 -0.24114544
VERTEX2 297 -1.70103187 0.60898182 -0.25026215
VERTEX2 298 -1.09284739 0.45653939 -0.24989170
VERTEX2 299 -0.52112915 0.30232071 -0.18756305
VERTEX2 300 0.06340833 0.21914585 -0.14430671
VERTEX2 301 0.62337256 0.12268932 -0.20241512
VERTEX2 302 0.92243909 0.06009840 -0.22235547
VERTEX2 303 0.90155611 0.06439879 -0.21727217
VERTEX2 304 1.39969771 -0.04660861 -0.20679116
VERTEX2 305 2.01335544 -0.08561713 -0.02164327
VERTEX2 306 2.64822160 -0.09033177 -0.03933029
VERTEX2 307 3.29316791 -0.13222971 -0.07564484
VERTEX2 308 3.92491439 -0.18884981 -0.13100705
VERTEX2 309 4.55568905 -0.24229295 -0.03832640
VERTEX2 310 5.17867315 -0.26570272 -0.07442408
VERTEX2 311 5.45511629 -0.28839751 0.10035665
VERTEX2 312 5.44628961 -0.29326241 1.08739247
VERTEX2 313 5.44852474 -0.07473669 1.58277602
VERTEX2 314 5.42208516 0.55362614 1.62240706
VERTEX2 315 5.38672604 1.18136635 1.61792143
VERTEX2 316 5.34039350 1.82446723 1.66919859
VERTEX2 317 5.27287488 2.46396367 1.67908974
VERTEX2 318 5.16798586 3.09840607 1.77357494
VERTEX2 319 5.08518656 3.44296893 1.84487719
VERTEX2 320 5.08685222 3.44832460 2.81328493
VERTEX2 321 5.07930587 3.44497786 -2.43028745
VERTEX2 322 5.07807154 3.44237372 -1.43416168
VERTEX2 323 5.09006530 3.43107688 -0.44182507
VERTEX2 324 5.09601490 3.42921059 0.21796433
VERTEX2 325 5.09839621 3.42942616 -0.30978781
VERTEX2 326 5.11276733 3.41890680 -0.90498748
VERTEX2 327 5.11660196 3.40190219 -1.52834594
VERTEX2 328 5.10879493 2.76478470 -1.57504669
VERTEX2 329 5.09535517 2.13085830 -1.63085313
VERTEX2 330 5.05007896 1.51922928 -1.65135388
VERTEX2 331 5.00380226 0.90629181 -1.66712259
VERTEX2 332 4.93316614 0.29600925 -1.68712525
VERTEX2 333 4.91407617 0.14547424 -1.62367206
VERTEX2 334 4.91442810 0.14526125 -0.82763494
VERTEX2 335 4.92926089 0.14115050 0.16331527
VERTEX2 336 4.93612027 0.14370588 1.10198345
VERTEX2 337 4.94101515 0.17695196 2.07834567
VERTEX2 338 4.93563702 0.18061391 3.06709621
VERTEX2 339 4.94506867 0.18660279 -2.16694812
VERTEX2 340 4.94507718 0.18625587 -1.14791357
VERTEX2 341 5.05637911 0.12044777 -0.51466513
VERTEX2 342 5.63414952 -0.18001821 -0.41178489
VERTEX2 343 6.21548458 -0.37729079 -0.27973153
VERTEX2 344 6.80681213 -0.55579426 -0.28872330
VERTEX2 345 7.04480266 -0.62329245 -0.31573213
VERTEX2 346 7.03038661 -0.61873006 -0.96179764
VERTEX2 347 7.03409197 -0.71787400 -1.51939118
VERTEX2 348 7.05763134 -1.31608530 -1.53559985
VERTEX2 349 7.06097054 -1.94361383 -1.57531339
VERTEX2 350 7.05463800 -2.73991127 -1.59441851
VERTEX2 351 7.04250640 -3.02211519 -1.62284820
VERTEX2 352 7.04139046 -3.02768935 -1.90927558
VERTEX2 353 7.03257298 -3.03872225 -2.57156138
VERTEX2 354 7.02298028 -3.04158810 3.11114038
VERTEX2 355 7.00096842 -3.04108088 2.39357328
VERTEX2 356 6.99203744 -3.02574930 1.82172664
VERTEX2 357 6.99411404 -3.01229185 1.17142217
VERTEX2 358 6.99633106 -3.00907215 0.55818511
VERTEX2 359 6.98232448 -3.01529386 -0.05361964
VERTEX2 360 6.96093701 -3.01135233 -0.22873851
VERTEX2 361 6.94914457 -3.01459247 0.69379435
VERTEX2 362 7.03363935 -2.77518383 1.22894394
VERTEX2 363 7.13549938 -2.49855499 1.22303573
VERTEX2 364 7.05949726 -2.15157551 1.83901698
VERTEX2 365 6.99828514 -1.85144087 1.34303154
VERTEX2 366 7.10793371 -1.72452486 0.79009272
VERTEX2 367 7.55086941 -1.28271094 0.79258204
VERTEX2 368 8.00402382 -0.84092796 0.74457218
VERTEX2 369 8.02486077 -0.81527991 0.49263419
VERTEX2 370 8.04786843 -0.81139089 -0.09438330
VERTEX2 371 8.05083649 -0.81292039 -0.64007483
VERTEX2 372 8.48039296 -1.15591775 -0.66759133
VERTEX2 373 8.95391256 -1.51484630 -0.66547309
VERTEX2 374 9.43419473 -1.91174481 -0.72647023
VERTEX2 375 9.79249993 -2.22470821 -0.75764771
VERTEX2 376 9.79969320 -2.22902028 -0.06584814
VERTEX2 377 9.84869789 -2.19356497 0.62645086
VERTEX2 378 10.38010764 -1.79256088 0.67902268
VERTEX2 379 10.85612510 -1.35941779 0.76211561
VERTEX2 380 11.29272207 -0.89014998 0.87962768
VERTEX2 381 11.43989708 -0.70671264 1.02828568
VERTEX2 382 11.44086883 -0.70490757 2.07350504
VERTEX2 383 11.43187813 -0.69944188 3.06075097
VERTEX2 384 11.42816523 -0.70301141 -2.25834023
VERTEX2 385 11.41830429 -0.71991654 -1.22677198
VERTEX2 386 11.52480573 -0.85613647 -1.00132222
VERTEX2 387 11.98396513 -1.27486870 -0.66890059
VERTEX2 388 12.42627921 -1.61138938 -0.66022013
VERTEX2 389 12.84265282 -1.96339086 -0.74291692
VERTEX2 390 12.83258052 -1.95426555 -0.26871091
VERTEX2 391 12.60224252 -1.94825889 0.11031023
VERTEX2 392 12.51605911 -1.95138305 1.14879789
VERTEX2 393 12.51493882 -1.89701974 2.39757660
VERTEX2 394 12.43025112 -1.86652145 -2.89579399
VERTEX2 395 12.59272109 -1.76995947 -2.55998885
VERTEX2 396 12.54804983 -1.79744905 -2.56081962
VERTEX2 397 12.48175466 -1.81642149 -2.57260403
VERTEX2 398 12.45270742 -1.84357576 -2.37765088
VERTEX2 399 12.37862070 -1.96248820 -2.08170178
VERTEX2 400 12.05645118 -2.53619504 -2.03362576
VERTEX2 401 11.74365703 -3.09767963 -2.12754567
VERTEX2 402 11.28914381 -3.58634279 -2.39636268
VERTEX2 403 10.79282582 -4.03201906 -2.43137600
VERTEX2 404 10.29983399 -4.42913773 -2.51138955
VERTEX2 405 10.27838894 -4.45078417 -1.97926217
VERTEX2 406 10.26936591 -4.39950282 -1.00398213
VERTEX2 407 10.44999732 -4.62310719 -0.87697450
VERTEX2 408 10.79052626 -5.04428960 -0.91579090
VERTEX2 409 10.92241702 -5.22705636 -1.01629646
VERTEX2 410 10.90711518 -5.17890895 -1.64615121
VERTEX2 411 11.19441863 -4.41766323 -2.61234082
VERTEX2 412 10.61100593 -4.62578441 -2.81570815
VERTEX2 413 9.94074451 -4.82659310 -2.89539966
VERTEX2 414 9.25987008 -5.01731220 -2.79167542
VERTEX2 415 8.64362421 -5.23325995 -2.78445734
VERTEX2 416 8.34348008 -5.35418340 -2.83901822
VERTEX2 417 8.04212493 -5.32725548 3.02061092
VERTEX2 418 7.59533879 -5.26766303 2.97592689
VERTEX2 419 7.58967252 -5.26876285 -2.87534951
VERTEX2 420 7.63819141 -5.24918434 -2.65851757
VERTEX2 421 7.63819192 -5.24922159 -1.68905456
VERTEX2 422 7.63158196 -5.25783149 -0.44748922
VERTEX2 423 7.62845364 -5.25742760 -0.10104475
VERTEX2 424 7.61985927 -5.25690752 -0.10004334
VERTEX2 425 7.60613733 -5.26403140 -0.08766889
VERTEX2 426 7.59737113 -5.26360865 -0.09615135
VERTEX2 427 7.62107510 -5.26568151 -0.09239751
VERTEX2 428 8.27326418 -5.30965477 -0.09728988
VERTEX2 429 8.90698527 -5.38057730 -0.13745665
VERTEX2 430 9.24695216 -5.43318268 -0.18250588
VERTEX2 431 9.23281189 -5.43098654 -0.12913708
VERTEX2 432 9.25123133 -5.43815890 -0.75763752
VERTEX2 433 9.25714616 -5.44681793 -1.43154023
VERTEX2 434 9.20578636 -5.97667286 -1.65796239
VERTEX2 435 9.15654286 -6.61070912 -1.68505787
VERTEX2 436 9.06233541 -7.24321613 -1.69256299
VERTEX2 437 8.99408935 -7.89157935 -1.68312470
VERTEX2 438 8.93002601 -8.35735525 -1.71434119
VERTEX2 439 8.92766014 -8.36534476 -2.15162727
VERTEX2 440 8.92448699 -8.36775052 -2.79649828
VERTEX2 441 8.92311353 -8.36789181 2.86299535
VERTEX2 442 8.91541599 -8.36340677 2.23192521
VERTEX2 443 8.91537770 -8.36146711 1.66346487
VERTEX2 444 8.91959981 -8.34344699 1.07014026
VERTEX2 445 8.91959219 -8.34348745 0.41001509
VERTEX2 446 8.91022805 -8.34861455 0.61117803
VERTEX2 447 8.91676549 -8.33744970 1.24158372
VERTEX2 448 9.09695800 -7.73384315 1.25821866
VERTEX2 449 9.26428462 -7.10856945 1.36125272
VERTEX2 450 9.39210050 -6.48044876 1.37633605
VERTEX2 451 9.46975880 -6.01235337 1.42063490
VERTEX2 452 9.47168079 -5.99854329 1.04792865
VERTEX2 453 9.47672208 -5.99022900 0.43405083
VERTEX2 454 9.74916392 -5.97965636 0.01771533
VERTEX2 455 10.34939492 -5.97423636 -0.00274888
VERTEX2 456 10.98233709 -5.98982057 -0.06724465
VERTEX2 457 11.33597731 -6.02362442 -0.15487443
VERTEX2 458 11.33028471 -6.02056883 -0.80055681
VERTEX2 459 11.32184259 -5.98103446 -1.40856572
VERTEX2 460 11.28908611 -6.37334621 -1.66544904
VERTEX2 461 11.20183985 -6.98205841 -1.75329745
VERTEX2 462 11.09955226 -7.48321294 -1.79322013
VERTEX2 463 11.11133558 -7.46179498 -0.95230921
VERTEX2 464 11.35555535 -7.53935702 -0.27367703
VERTEX2 465 11.92622355 -7.68749085 -0.26574277
VERTEX2 466 12.46616060 -7.85250908 -0.32117867
VERTEX2 467 13.04519003 -8.05269396 -0.36269611
VERTEX2 468 13.64717128 -8.28659518 -0.39759438
VERTEX2 469 14.22620249 -8.56692464 -0.47976607
VERTEX2 470 14.66986799 -8.79298202 -0.46014732
VERTEX2 471 14.66906403 -8.79252268 -0.65906722
VERTEX2 472 14.68521232 -8.81632560 -1.28989339
VERTEX2 473 14.68717060 -8.82729909 -1.92823666
VERTEX2 474 14.67965454 -8.83633716 -2.55744030
VERTEX2 475 14.68093424 -8.83618615 -3.13033550
VERTEX2 476 14.68787449 -8.83729538 2.50158616
VERTEX2 477 14.69114611 -8.84406174 1.94200687
VERTEX2 478 14.69141241 -8.84907553 1.31489274
VERTEX2 479 14.69329001 -8.84498944 0.86054601
VERTEX2 480 14.69662933 -8.83794961 1.42251804
VERTEX2 481 14.69254544 -8.81831094 2.42444926
VERTEX2 482 14.70645636 -8.82428257 2.76021801
VERTEX2 483 14.72289898 -8.83057820 2.75461655
VERTEX2 484 14.31069035 -8.66585662 2.78992018
VERTEX2 485 13.71872102 -8.46289867 2.78760786
VERTEX2 486 13.12457496 -8.23590228 2.79714489
VERTEX2 487 12.52109304 -8.04187484 2.82543791
VERTEX2 488 11.91536101 -7.84592096 2.86158097
VERTEX2 489 11.44995121 -7.72719964 2.89203626
VERTEX2 490 11.45723610 -7.72667482 -2.90597014
VERTEX2 491 11.46660874 -7.71492231 -1.96972480
VERTEX2 492 11.44488973 -7.93780698 -1.66725228
VERTEX2 493 11.36860437 -8.53375293 -1.72265876
VERTEX2 494 11.26671193 -9.13659726 -1.78391742
VERTEX2 495 11.18217771 -9.75400618 -1.67665339
VERTEX2 496 11.12287381 -10.37333448 -1.55883922
VERTEX2 497 11.10040361 -10.98710199 -1.64481405
VERTEX2 498 11.01658429 -11.60291141 -1.74654997
VERTEX2 499 10.87104767 -12.22224793 -1.76350752
VERTEX2 500 10.91437934 -12.78658469 -1.43448619
VERTEX2 501 10.97398251 -13.36144177 -1.50616690
VERTEX2 502 10.98105362 -14.05299309 -1.59037500
VERTEX2 503 10.96596953 -14.49525047 -1.60711746
VERTEX2 504 10.97040043 -14.48365460 -0.75087392
VERTEX2 505 11.20829003 -14.51677527 -0.12918632
VERTEX2 506 11.79876738 -14.61337712 -0.28175369
VERTEX2 507 12.37655587 -14.79805733 -0.36030283
VERTEX2 508 12.93999749 -15.02421879 -0.37317929
VERTEX2 509 13.55883443 -15.27572955 -0.42905565
VERTEX2 510 13.92000628 -15.44790235 -0.44288502
VERTEX2 511 13.92043764 -15.45288982 0.43303627
VERTEX2 512 13.93330723 -15.42720563 1.63172496
VERTEX2 513 13.93311924 -15.42654763 2.58700698
VERTEX2 514 13.85931953 -15.40402651 2.81350091
VERTEX2 515 13.24655642 -15.20837566 2.81469027
VERTEX2 516 12.66326439 -15.00135883 2.83052062
VERTEX2 517 12.06950337 -14.83980369 2.85858267
VERTEX2 518 11.47631044 -14.67505104 2.88273824
VERTEX2 519 10.95275169 -14.53884076 2.86679838
VERTEX2 520 10.78209450 -14.49026015 -3.01851095
VERTEX2 521 10.82420659 -14.44592500 -2.01489500
VERTEX2 522 10.75570781 -14.80727388 -1.75061429
VERTEX2 523 10.65084596 -15.42557754 -1.75761988
VERTEX2 524 10.53482132 -15.99672171 -1.79924461
VERTEX2 525 10.41947882 -16.53584568 -1.77539875
VERTEX2 526 10.29155112 -17.10115572 -1.83406391
VERTEX2 527 10.13233068 -17.67481202 -1.86882201
VERTEX2 528 9.94160328 -18.22769193 -1.94437607
VERTEX2 529 9.71770667 -18.82201857 -1.97241198
VERTEX2 530 9.45953964 -19.41214358 -2.00228907
VERTEX2 531 9.17825771 -19.98102361 -2.08171815
VERTEX2 532 9.07699823 -20.16355026 -2.03075518
VERTEX2 533 9.07489697 -20.15226297 -1.02822410
VERTEX2 534 9.08028386 -20.15594410 -0.35967688
VERTEX2 535 9.08972625 -20.15851379 -0.35950855
VERTEX2 536 9.44800738 -20.24867203 -0.22863451
VERTEX2 537 10.05509012 -20.40674745 -0.28655371
VERTEX2 538 10.61421599 -20.58476870 -0.31364669
VERTEX2 539 11.22008237 -20.80304337 -0.37845355
VERTEX2 540 11.80276280 -21.06470414 -0.47145293
VERTEX2 541 12.38166882 -21.29996132 -0.30923656
VERTEX2 542 13.00664347 -21.45079391 -0.25362966
VERTEX2 543 13.12765999 -21.48323203 -0.28378602
VERTEX2 544 13.14711551 -21.48157800 0.35273132
VERTEX2 545 13.17169383 -21.43872786 1.41804406
VERTEX2 546 13.18759474 -21.48240176 2.24441933
VERTEX2 547 13.19399727 -21.48210807 -3.01791375
VERTEX2 548 13.20697801 -21.47415005 -2.09575104
VERTEX2 549 13.20852517 -21.46507913 -1.28976316
VERTEX2 550 13.20788321 -21.44748579 -1.76994344
VERTEX2 551 13.21218930 -21.43925312 -2.39612933
VERTEX2 552 13.22407576 -21.43364992 -3.02841407
VERTEX2 553 13.08803612 -21.37837507 2.67761053
VERTEX2 554 12.50249077 -21.08273444 2.64217190
VERTEX2 555 11.92950869 -20.79643090 2.73103375
VERTEX2 556 11.32963411 -20.56580722 2.86608764
VERTEX2 557 10.73248426 -20.38231778 2.82498476
VERTEX2 558 10.15914882 -20.21322908 2.90613284
VERTEX2 559 10.16589564 -20.21565877 2.49938531
VERTEX2 560 10.15813520 -20.20706164 1.99869855
VERTEX2 561 10.13460293 -20.18328794 2.50416975
VERTEX2 562 9.95594738 -20.17973940 -3.13515014
VERTEX2 563 9.38678655 -20.09010413 2.95637553
VERTEX2 564 8.78324502 -19.98687450 3.00526775
VERTEX2 565 8.15682879 -19.89825306 2.94795269
VERTEX2 566 8.24733923 -19.93092545 -2.60124001
VERTEX2 567 8.17493717 -19.93293102 -1.76364140
VERTEX2 568 8.13389651 -20.40605350 -1.68244360
VERTEX2 569 8.06997575 -21.00016630 -1.72628455
VERTEX2 570 7.98706208 -21.59615438 -1.72454496
VERTEX2 571 7.92884355 -21.95216038 -1.77163494
VERTEX2 572 7.89048955 -21.97931585 -2.01425177
VERTEX2 573 7.85308144 -22.06093987 -1.73729937
VERTEX2 574 7.87108988 -22.08693693 -0.79587612
VERTEX2 575 8.02607463 -22.14058715 0.11146634
VERTEX2 576 8.03154033 -22.14516830 1.13907714
VERTEX2 577 8.02698910 -22.13214900 2.11112014
VERTEX2 578 8.01956831 -22.10452088 1.74684594
VERTEX2 579 7.91237251 -21.45348678 1.76185598
VERTEX2 580 7.76829921 -20.81431987 1.83702717
VERTEX2 581 7.59154880 -20.19081130 1.87947102
VERTEX2 582 7.38889955 -19.58077584 1.92300837
VERTEX2 583 7.27031838 -19.27890869 2.00321812
VERTEX2 584 7.26963455 -19.27748177 2.84960418
VERTEX2 585 6.69688164 -19.12733058 2.96890311
VERTEX2 586 6.11153574 -19.04213250 3.06741791
VERTEX2 587 5.49904996 -19.01983408 3.09365178
VERTEX2 588 4.87606118 -18.98297860 3.09889494
VERTEX2 589 4.34342240 -18.99822963 -3.10796906
VERTEX2 590 3.79898246 -19.03301770 -3.03830705
VERTEX2 591 3.26352178 -19.10304841 -3.03943237
VERTEX2 592 2.71926238 -19.16885943 -3.04141101
VERTEX2 593 2.55551206 -19.18718388 -2.83500074
VERTEX2 594 2.62969059 -19.10944702 -1.92239916
VERTEX2 595 2.50346634 -19.72090273 -1.68916353
VERTEX2 596 2.43809746 -20.35369133 -1.71215578
VERTEX2 597 2.33240990 -21.03512371 -1.75202957
VERTEX2 598 2.21740595 -21.63563016 -1.79425008
VERTEX2 599 2.12224807 -22.00867332 -1.86017536
VERTEX2 600 2.12211340 -22.02531421 -1.05280785
VERTEX2 601 2.17117979 -22.05687523 -0.03366042
VERTEX2 602 2.21737588 -22.03926738 0.98136250
VERTEX2 603 2.18745537 -21.80605659 1.75331535
VERTEX2 604 2.13948116 -21.20182143 1.50848182
VERTEX2 605 2.16087846 -20.56249118 1.59150118
VERTEX2 606 2.13324644 -19.92292382 1.63400181
VERTEX2 607 2.15516960 -19.34139844 1.55345638
VERTEX2 608 2.14923593 -18.96364684 1.59839661
VERTEX2 609 2.14723253 -18.95047895 1.93548273
VERTEX2 610 2.14660270 -18.95022847 2.86975975
VERTEX2 611 1.56080804 -18.79297052 2.87305027
VERTEX2 612 1.09927190 -18.65412689 2.87599957
VERTEX2 613 1.14360630 -18.66841417 -2.94311521
VERTEX2 614 1.16042075 -18.65613693 -1.90705432
VERTEX2 615 1.16400998 -19.12959681 -1.60332593
VERTEX2 616 1.15881461 -19.73920307 -1.65504009
VERTEX2 617 1.01068251 -20.33312503 -1.87248148
VERTEX2 618 0.82977062 -20.93456268 -1.86258542
VERTEX2 619 0.65762817 -21.50155599 -1.86422652
VERTEX2 620 0.46313141 -22.07001001 -1.96039370
VERTEX2 621 0.60076873 -21.73654543 -2.01189703
VERTEX2 622 0.73202107 -21.47152476 -2.08687218
VERTEX2 623 0.73536082 -21.46721900 -2.62388688
VERTEX2 624 0.71727618 -21.46662253 3.01676384
VERTEX2 625 0.68595954 -21.45311848 2.35829423
VERTEX2 626 0.66360070 -21.42618481 1.74032213
VERTEX2 627 0.74606485 -21.05325263 1.32976374
VERTEX2 628 0.94224049 -20.42642159 1.22903100
VERTEX2 629 1.12881679 -19.80648283 1.30028760
VERTEX2 630 1.26875278 -19.20563150 1.38549586
VERTEX2 631 1.35377498 -18.67887770 1.40584641
VERTEX2 632 1.35670704 -18.66371686 2.08240154
VERTEX2 633 1.26327776 -18.65527931 -3.11386702
VERTEX2 634 0.59528144 -18.67958133 -3.08644087
VERTEX2 635 -0.05646455 -18.67804191 3.06161904
VERTEX2 636 -0.69676740 -18.63762134 3.04379122
VERTEX2 637 -1.31958341 -18.55209386 2.94407691
VERTEX2 638 -1.69462862 -18.46743826 2.91445000
VERTEX2 639 -2.28866374 -18.35505430 2.99460881
VERTEX2 640 -2.88654632 -18.23644737 2.92644041
VERTEX2 641 -3.47250269 -18.11593242 2.91784629
VERTEX2 642 -4.02961592 -17.97110573 2.87198769
VERTEX2 643 -4.50939156 -17.82292488 2.80484555
VERTEX2 644 -4.51083868 -17.82322892 -2.72146103
VERTEX2 645 -4.55128032 -17.96649295 -1.94709636
VERTEX2 646 -4.70153391 -18.56046879 -1.65303353
VERTEX2 647 -4.67627620 -19.19056108 -1.36545210
VERTEX2 648 -4.47552287 -19.80858997 -1.20019534
VERTEX2 649 -4.32316804 -20.39874450 -1.53915196
VERTEX2 650 -4.44113629 -21.01132257 -1.79770332
VERTEX2 651 -4.46124241 -21.14303871 -1.00092496
VERTEX2 652 -4.40685386 -21.16994192 0.02052193
VERTEX2 653 -4.35316836 -21.12548360 1.04718780
VERTEX2 654 -4.34948492 -20.81752217 1.55855476
VERTEX2 655 -4.33753119 -20.29071417 1.55671478
VERTEX2 656 -4.31483720 -19.71658543 1.54717206
VERTEX2 657 -4.39785510 -19.12105938 1.82854908
VERTEX2 658 -4.56487950 -18.51025157 1.82227151
VERTEX2 659 -4.66138500 -18.02644834 1.75208982
VERTEX2 660 -4.66173095 -18.02435997 2.35438107
VERTEX2 661 -4.84501870 -17.99878126 3.01012779
VERTEX2 662 -5.44248618 -17.92345574 3.08064647
VERTEX2 663 -6.03770239 -17.92327158 -3.10058927
VERTEX2 664 -6.04082566 -17.92241983 -2.57718278
VERTEX2 665 -6.05819742 -18.01971903 -1.72912995
VERTEX2 666 -6.13500541 -18.62177757 -1.69188925
VERTEX2 667 -6.19729034 -19.18282224 -1.68705691
VERTEX2 668 -6.26664103 -19.77762990 -1.66138964
VERTEX2 669 -6.32127425 -20.40461450 -1.68666514
VERTEX2 670 -6.42691675 -21.02248989 -1.74632936
VERTEX2 671 -6.47767125 -21.31577280 -1.69154471
VERTEX2 672 -6.36952810 -20.73742275 -1.78084057
VERTEX2 673 -6.30050854 -20.47204502 -1.91157628
VERTEX2 674 -6.28439629 -20.45541111 -2.56012246
VERTEX2 675 -6.25229822 -20.44898941 3.11407019
VERTEX2 676 -6.23784523 -20.45764307 2.49034042
VERTEX2 677 -6.22863502 -20.47061707 1.87410096
VERTEX2 678 -6.19795931 -20.25061230 1.42786868
VERTEX2 679 -6.12596872 -19.67155332 1.49046449
VERTEX2 680 -6.14751454 -19.22331401 1.83540077
VERTEX2 681 -6.28953194 -18.63669130 1.80752138
VERTEX2 682 -6.45091578 -18.03563175 1.85487321
VERTEX2 683 -6.53667135 -17.76007978 2.01366753
VERTEX2 684 -6.49862727 -17.80015140 3.08921894
VERTEX2 685 -6.88542152 -17.94579472 -2.75182741
VERTEX2 686 -7.31655013 -18.06792876 -2.89694509
VERTEX2 687 -7.90556431 -18.20392512 -2.93265343
VERTEX2 688 -8.50033401 -18.30951134 -2.94509140
VERTEX2 689 -9.06240124 -18.43448666 -2.91804602
VERTEX2 690 -9.59567137 -18.58913526 -2.84449351
VERTEX2 691 -9.98699236 -18.70918206 -2.87305356
VERTEX2 692 -9.97779888 -18.70535580 -2.33855073
VERTEX2 693 -9.96040457 -18.76490256 -1.29775600
VERTEX2 694 -9.94205454 -18.82412354 -0.46197201
VERTEX2 695 -9.93054261 -18.82112765 0.33838346
VERTEX2 696 -9.92727378 -18.81910770 1.36431656
VERTEX2 697 -9.93983896 -18.85745312 1.11214188
VERTEX2 698 -9.61128136 -18.65875339 0.46030325
VERTEX2 699 -9.04926327 -18.35864936 0.57556391
VERTEX2 700 -8.53516902 -18.00795083 0.63013533
VERTEX2 701 -8.09958385 -17.65431512 0.69031143
VERTEX2 702 -7.62168973 -17.34915695 0.57622878
VERTEX2 703 -7.11081574 -17.02258686 0.61134483
VERTEX2 704 -6.61897000 -16.65071646 0.63033580
VERTEX2 705 -6.10774170 -16.24070397 0.70037961
VERTEX2 706 -5.68126205 -15.93396411 0.43067331
VERTEX2 707 -5.65974081 -15.93311123 -0.09080711
VERTEX2 708 -5.64655701 -15.94102133 -0.73084937
VERTEX2 709 -5.68088843 -15.90278093 -1.06371184
VERTEX2 710 -5.68121676 -15.90164590 -1.62613089
VERTEX2 711 -5.66720695 -15.91478513 -2.22427826
VERTEX2 712 -5.65505155 -15.90587355 -2.78610966
VERTEX2 713 -6.12999115 -15.94680004 -3.07259708
VERTEX2 714 -6.68110197 -15.90999320 3.01206778
VERTEX2 715 -7.30146119 -15.85856775 3.11630537
VERTEX2 716 -7.92951553 -15.82216794 2.97896080
VERTEX2 717 -8.54335865 -15.74129230 3.06400060
VERTEX2 718 -9.30046572 -15.60659530 2.88883090
VERTEX2 719 -9.91233856 -15.47852906 2.96346494
VERTEX2 720 -10.52015824 -15.35354125 2.90441445
VERTEX2 721 -11.13284372 -15.22511227 2.97278266
VERTEX2 722 -11.15004630 -15.22228362 3.03996973
VERTEX2 723 -11.17304265 -15.24506209 -2.15126490
VERTEX2 724 -11.17400962 -15.29169610 -1.08042069
VERTEX2 725 -11.14863105 -15.30936389 -0.44430654
VERTEX2 726 -10.82350223 -15.31041366 0.01124751
VERTEX2 727 -10.18581146 -15.28126875 0.04265397
VERTEX2 728 -9.54892732 -15.26610277 0.04458737
VERTEX2 729 -8.91397153 -15.21445849 0.10283102
VERTEX2 730 -8.29310358 -15.13059365 0.14090622
VERTEX2 731 -7.66198027 -15.04126191 0.15423414
VERTEX2 732 -7.53831807 -15.01775091 0.60312556
VERTEX2 733 7.17586508 -18.86093310 -3.13804585
VERTEX2 734 6.61311665 -18.90262696 -3.05885273
VERTEX2 735 6.01023860 -18.94496947 -3.08957728
VERTEX2 736 6.00111459 -18.94530804 -2.48687097
VERTEX2 737 5.99821611 -18.96403987 -1.68208274
VERTEX2 738 5.94198683 -19.56715961 -1.66174784
VERTEX2 739 5.82961530 -20.19231322 -1.71803694
VERTEX2 740 5.77659694 -20.71933192 -1.65343154
VERTEX2 741 8.14586696 -25.86609157 -1.14229970
VERTEX2 742 8.14431755 -25.86005026 -1.79383036
VERTEX2 743 0.37016257 -19.54169961 0.34006640
VERTEX2 744 0.39661990 -19.54010197 -0.19538361
VERTEX2 745 0.39829574 -19.54128060 -0.78468164
VERTEX2 746 0.61941763 -20.00384805 -1.25584654
VERTEX2 747 0.80839448 -20.59899561 -1.28927805
VERTEX2 748 0.94368543 -21.14574385 -1.35566391
VERTEX2 749 0.95683742 -21.19891612 -0.92294542
VERTEX2 750 0.96655078 -21.19896210 0.01109315
VERTEX2 751 1.19020274 -21.03793716 0.65632169
VERTEX2 752 1.71592263 -20.68063632 0.55511947
VERTEX2 753 2.26383382 -20.33284468 0.62023400
VERTEX2 754 2.82659437 -20.01013241 0.46030417
VERTEX2 755 3.38809382 -19.71759587 0.54718432
VERTEX2 756 3.96078261 -19.44003580 0.37165931
VERTEX2 757 4.55958947 -19.18982670 0.48414900
VERTEX2 758 5.05384773 -18.88897584 0.62735481
VERTEX2 759 5.54362405 -18.62397660 0.50555021
VERTEX2 760 6.06700486 -18.28522594 0.61684755
VERTEX2 761 6.10783483 -18.25830959 0.79713726
VERTEX2 762 6.09943679 -18.16892031 1.63845978
VERTEX2 763 5.87016453 -17.50473717 1.93032208
VERTEX2 764 5.72229107 -17.09491975 1.90217726
VERTEX2 765 5.72682216 -17.10257868 2.54058520
VERTEX2 766 5.74882666 -17.09773066 -2.74379236
VERTEX2 767 6.98690385 -12.94009058 -1.03060681
VERTEX2 768 7.28830952 -24.15490439 -2.72584459
VERTEX2 769 6.86910717 -24.44382795 -2.57530207
VERTEX2 770 6.43425110 -24.70971894 -2.64844855
VERTEX2 771 6.50969962 -24.66782007 -2.10242547
VERTEX2 772 6.52149565 -24.77567138 -1.25390925
VERTEX2 773 6.78652993 -25.45647847 -1.17532297
VERTEX2 774 7.08427232 -26.11105226 -1.16058938
VERTEX2 775 11.49428369 -15.03305056 -2.30193364
VERTEX2 776 11.46536850 -15.22707510 -1.68842979
VERTEX2 777 11.40594230 -15.82444201 -1.63106986
VERTEX2 778 11.37595988 -16.42231780 -1.65358875
VERTEX2 779 11.33526534 -17.02434209 -1.63706226
VERTEX2 780 11.30767418 -17.24831027 -1.76856041
VERTEX2 781 2.07948110 -21.65939254 2.45767471
VERTEX2 782 1.94001717 -21.39590074 2.02642104
VERTEX2 783 1.68044994 -20.83952414 2.02474086
VERTEX2 784 1.57473712 -20.62515041 2.00224688
VERTEX2 785 1.57399363 -20.61577249 1.44755748
VERTEX2 786 7.21399774 -14.99049283 -0.20716573
VERTEX2 787 7.22075406 -14.99207304 -0.70044543
VERTEX2 788 7.22653820 -15.00335113 -1.33269379
VERTEX2 789 7.22555654 -15.01107844 -1.88748217
VERTEX2 790 7.04469537 -15.46972523 -1.95563933
VERTEX2 791 6.83637635 -16.06450651 -1.85767841
VERTEX2 792 6.77473316 -16.37965026 -1.15483157
VERTEX2 793 7.04332834 -16.93939673 -1.11081544
VERTEX2 794 7.34394991 -17.50827736 -1.04036045
VERTEX2 795 7.31477419 -17.49575394 -0.61238457
VERTEX2 796 7.30899955 -17.49129830 0.04500596
VERTEX2 797 7.60859005 -17.40148781 0.30409865
VERTEX2 798 8.21303052 -17.20552803 0.35352750
VERTEX2 799 8.80892702 -16.95992619 0.41853095
VERTEX2 800 9.39020876 -16.68551968 0.49071366
VERTEX2 801 9.93013322 -16.36223765 0.57735994
VERTEX2 802 10.44166681 -16.00563405 0.63580676
VERTEX2 803 10.99318599 -15.70725804 0.47214229
VERTEX2 804 11.54850474 -15.40930540 0.52879622
VERTEX2 805 12.07821713 -15.06398276 0.60605209
VERTEX2 806 12.56559911 -14.71163439 0.64843261
VERTEX2 807 12.73160347 -14.57875900 0.94410324
VERTEX2 808 12.74651086 -14.60484013 1.91220308
VERTEX2 809 12.47571380 -14.11563335 2.06345509
VERTEX2 810 12.26275101 -13.55582422 1.92982055
VERTEX2 811 12.04655764 -13.01932967 1.93161884
VERTEX2 812 12.05752747 -13.04672965 2.67926924
VERTEX2 813 12.05794985 -13.04655927 -2.60984303
VERTEX2 814 12.05683557 -13.06701450 -1.59853146
VERTEX2 815 12.07099256 -13.11188657 -0.66162281
VERTEX2 816 12.11395091 -13.13114939 0.03368160
VERTEX2 817 12.16125122 -13.14824392 -0.62139382
VERTEX2 818 12.28800788 -13.36826297 -1.09954567
VERTEX2 819 12.57570669 -13.93101679 -1.08053454
VERTEX2 820 12.81165740 -14.39985327 -1.12142098
VERTEX2 821 13.02028623 -14.83165540 -1.10516465
VERTEX2 822 -1.03389032 -7.92301611 0.80697850
VERTEX2 823 -1.03991923 -7.88849067 1.74267095
VERTEX2 824 -1.15988461 -7.25302586 1.66479624
VERTEX2 825 -1.20151336 -6.59862383 1.63632515
VERTEX2 826 -1.33278761 -5.95541080 1.80063641
VERTEX2 827 -1.45564249 -5.31877401 1.75296945
VERTEX2 828 -1.59105987 -4.67735992 1.78933383
VERTEX2 829 -1.70955330 -4.06660297 1.75152195
VERTEX2 830 -1.81644000 -3.45134899 1.74470510
VERTEX2 831 -1.89846407 -2.83031793 1.69852421
VERTEX2 832 -1.98062657 -2.22437006 1.69563774
VERTEX2 833 -2.01817320 -1.92584450 1.83424365
VERTEX2 834 -2.03241291 -1.90376593 2.89209740
VERTEX2 835 -2.00083973 -1.89782844 -2.61063535
VERTEX2 836 -1.97528092 -1.85764257 -1.66426947
VERTEX2 837 -1.97900490 -1.85059417 -0.62425231
VERTEX2 838 -1.94353491 -1.85953812 0.24098294
VERTEX2 839 -0.41833389 -2.85641697 -0.86991076
VERTEX2 840 -0.43043453 -2.82056597 -1.43163421
VERTEX2 841 -0.42368468 -2.76365690 -2.04775858
VERTEX2 842 -0.52725344 -2.89057080 -2.27743658
VERTEX2 843 -0.84688581 -3.25771602 -2.27914648
VERTEX2 844 -1.26762119 -3.76568910 -2.28577113
VERTEX2 845 -1.70368113 -4.26429299 -2.29896033
VERTEX2 846 -2.13720598 -4.77518341 -2.29551617
VERTEX2 847 -2.58506965 -5.26460312 -2.32068218
VERTEX2 848 -2.71165607 -5.40784518 -1.83550273
VERTEX2 849 -2.66661829 -5.46663958 -0.90528984
VERTEX2 850 -2.30422918 -5.69685826 -0.54793360
VERTEX2 851 -1.72234661 -6.08952260 -0.63785005
VERTEX2 852 -1.16241825 -6.51254754 -0.62117868
VERTEX2 853 -0.61610288 -6.90130923 -0.64677365
VERTEX2 854 -0.09027292 -7.30903769 -0.64253145
VERTEX2 855 0.45287383 -7.70328526 -0.64208385
VERTEX2 856 0.99666883 -8.13817722 -0.67832851
VERTEX2 857 1.53950237 -8.57349279 -0.68351039
VERTEX2 858 2.06322844 -9.03437604 -0.73305117
VERTEX2 859 2.48851464 -9.41257929 -0.73523692
VERTEX2 860 -2.53264807 -10.84163788 0.93319554
VERTEX2 861 -2.53576769 -10.82286650 1.85815159
VERTEX2 862 -2.67841732 -10.26688528 1.80108857
VERTEX2 863 -2.80178734 -9.72192982 1.77091479
VERTEX2 864 -2.90474731 -9.12394688 1.77168417
VERTEX2 865 -3.05298991 -8.53760755 1.83249128
VERTEX2 866 -3.19182212 -7.97505955 1.83413827
VERTEX2 867 -3.23249476 -7.83058319 2.01911112
VERTEX2 868 -3.24821155 -7.82020636 3.05504525
VERTEX2 869 -3.26558285 -7.82682988 -2.23818907
VERTEX2 870 -3.27185484 -7.83392768 -1.22683518
VERTEX2 871 7.13530081 -16.80214443 -1.20068448
VERTEX2 872 4.87157628 -15.69534881 1.00336694
VERTEX2 873 4.97697474 -15.62142779 0.43986872
VERTEX2 874 5.07388918 -15.60113185 -0.11100821
VERTEX2 875 5.12271200 -15.61205733 -0.68861671
VERTEX2 876 5.49638575 -16.01295467 -0.84185454
VERTEX2 877 5.83948480 -16.42594183 -0.92296545
VERTEX2 878 5.96015294 -16.56380260 -0.53415101
VERTEX2 879 6.55884651 -16.84356072 -0.48011406
VERTEX2 880 6.95775672 -17.06883359 -0.58969055
VERTEX2 881 6.91761707 -17.04212284 -0.58177040
VERTEX2 882 7.41406058 -17.43812423 -0.82471654
VERTEX2 883 7.77451526 -17.92061600 -1.01255805
VERTEX2 884 7.94848463 -18.21009943 -1.07495442
VERTEX2 885 7.94474094 -18.20793611 -0.48158836
VERTEX2 886 7.99250590 -18.19549055 0.55677812
VERTEX2 887 15.72656070 -20.72966650 -0.36446791
VERTEX2 888 15.76874457 -20.72023636 0.62957165
VERTEX2 889 16.31819385 -19.92476728 1.46484400
VERTEX2 890 16.25176321 -19.50355656 1.74221602
VERTEX2 891 16.14758862 -18.78998995 1.66916013
VERTEX2 892 16.09934795 -18.04163555 1.63127441
VERTEX2 893 16.01936467 -17.31145812 1.86526233
VERTEX2 894 15.73780344 -16.67574959 2.08511764
VERTEX2 895 15.33505045 -16.17326867 2.38285023
VERTEX2 896 15.30461241 -16.14559343 2.85105302
VERTEX2 897 14.81189248 -16.14277185 3.11621980
VERTEX2 898 14.30891853 -16.12454983 3.12263163
VERTEX2 899 13.92054187 -16.10579000 3.04548739
VERTEX2 900 13.33038088 -16.04624344 3.03643785
VERTEX2 901 12.83443437 -15.97041535 2.96531049
VERTEX2 902 12.27021054 -15.87616296 2.98508997
VERTEX2 903 11.85637746 -15.80928078 2.93524186
VERTEX2 904 11.84897134 -15.80862617 -2.66025105
VERTEX2 905 11.43838290 -16.05682292 -2.60712994
VERTEX2 906 10.97192697 -16.35680274 -2.54340193
VERTEX2 907 10.51679866 -16.67349809 -2.55295905
VERTEX2 908 10.00070645 -17.01739745 -2.52925143
VERTEX2 909 9.51242711 -17.35995153 -2.54842544
VERTEX2 910 9.38789376 -17.39912513 -2.92020502
VERTEX2 911 8.80815843 -17.53877391 -2.86022724
VERTEX2 912 8.25111081 -17.71071602 -2.84837951
VERTEX2 913 7.72526391 -17.87678056 -2.84134261
VERTEX2 914 7.15174633 -18.05266003 -2.86577009
VERTEX2 915 6.64720111 -18.19246122 -2.90313044
VERTEX2 916 6.48508111 -18.34919858 -2.35689655
VERTEX2 917 6.00369998 -18.76990782 -2.61191013
VERTEX2 918 5.55093746 -18.99869583 -2.68772815
VERTEX2 919 4.99817713 -19.26707721 -2.73114461
VERTEX2 920 4.43652377 -19.50515699 -2.74866541
VERTEX2 921 3.86881290 -19.73648434 -2.80176397
VERTEX2 922 3.29449160 -19.93796614 -2.82857337
VERTEX2 923 2.74208602 -20.10701970 -2.89142632
VERTEX2 924 2.25757627 -20.23041472 -2.87241501
VERTEX2 925 2.26746062 -20.22172902 -2.36233997
VERTEX2 926 1.86446332 -20.63356257 -2.34379002
VERTEX2 927 1.43765765 -21.06967002 -2.36473648
VERTEX2 928 0.99401835 -21.50670756 -2.37137797
VERTEX2 929 0.55055908 -21.93773700 -2.37000835
VERTEX2 930 0.09284528 -22.36545895 -2.45167761
VERTEX2 931 -0.39625627 -22.74479033 -2.53068525
VERTEX2 932 -0.90999109 -23.09416802 -2.58863594
VERTEX2 933 -1.44095409 -23.40528897 -2.65080560
VERTEX2 934 -1.87460334 -23.64098965 -2.65824796
VERTEX2 935 -1.87461763 -23.64102949 -1.96784856
VERTEX2 936 -6.89747791 -17.73757603 -0.02699220
VERTEX2 937 -6.31632311 -17.72628877 0.03665611
VERTEX2 938 -5.68663557 -17.75945643 -0.13603862
VERTEX2 939 -5.03453662 -17.83827005 -0.10796743
VERTEX2 940 -4.42957213 -17.92753195 -0.19226740
VERTEX2 941 -3.83642792 -18.05485480 -0.24463940
VERTEX2 942 -3.32706213 -18.18051919 -0.23926973
VERTEX2 943 -2.72918752 -18.32525079 -0.15018335
VERTEX2 944 -2.11910749 -18.42042337 -0.20615644
VERTEX2 945 -1.52061417 -18.55722932 -0.26071055
VERTEX2 946 -1.36900794 -18.59948741 -0.19584703
VERTEX2 947 -0.96122057 -18.54511283 0.13306516
VERTEX2 948 -0.39321733 -18.46795163 0.11424428
VERTEX2 949 0.19985696 -18.44546139 -0.04115179
VERTEX2 950 0.81412999 -18.49243195 -0.28053669
VERTEX2 951 1.39018331 -18.66976102 -0.35268222
VERTEX2 952 1.96570937 -18.84991515 -0.10205181
VERTEX2 953 2.57185334 -18.89196973 -0.02151333
VERTEX2 954 3.18563603 -18.89557740 -0.02794836
VERTEX2 955 3.75797883 -18.94883942 -0.18801551
VERTEX2 956 4.28709206 -19.03179275 -0.18982424
VERTEX2 957 4.80551257 -19.13440442 -0.27671971
VERTEX2 958 5.25480242 -19.24920604 -0.30271065
VERTEX2 959 5.65976949 -19.36477422 -0.36890924
VERTEX2 960 6.22253795 -19.53071503 -0.28859671
VERTEX2 961 6.78979253 -19.71026102 -0.31627647
VERTEX2 962 7.39459621 -19.84629350 -0.25148948
VERTEX2 963 8.00099496 -19.93596565 -0.06606522
VERTEX2 964 8.61426364 -19.98788725 -0.13087667
VERTEX2 965 9.22180664 -20.07726325 -0.13859843
VERTEX2 966 9.65927038 -20.14416521 -0.19778074
VERTEX2 967 9.68755506 -20.13903023 0.65493683
VERTEX2 968 9.69299371 -20.13409437 1.55094208
VERTEX2 969 9.69474428 -20.16150950 1.61018698
VERTEX2 970 9.69649345 -20.18928898 1.60825800
VERTEX2 971 9.68312363 -19.85543936 1.60818526
VERTEX2 972 9.65694862 -19.26794410 1.61357684
VERTEX2 973 9.74881911 -18.68844704 1.32816444
VERTEX2 974 9.90086414 -18.09107762 1.35968174
VERTEX2 975 10.02538984 -17.48882799 1.36397849
VERTEX2 976 10.14342217 -16.88375302 1.37654402
VERTEX2 977 10.29292841 -16.26628803 1.34987686
VERTEX2 978 10.42722150 -15.66099371 1.39586207
VERTEX2 979 10.55525804 -15.05948171 1.38359417
VERTEX2 980 10.66590573 -14.46501694 1.43063930
VERTEX2 981 10.76776917 -13.87369260 1.43725415
VERTEX2 982 10.83583710 -13.34793636 1.48187577
VERTEX2 983 10.89987011 -12.74852754 1.47855128
VERTEX2 984 10.94106555 -12.15435010 1.53553736
VERTEX2 985 10.96619731 -11.55926304 1.55550632
VERTEX2 986 10.96672139 -10.94788998 1.59151004
VERTEX2 987 10.96966524 -10.33801625 1.55453747
VERTEX2 988 10.98763453 -9.72025354 1.56841379
VERTEX2 989 10.98880400 -9.11100224 1.57661309
VERTEX2 990 10.99734276 -8.50512328 1.56648929
VERTEX2 991 10.99725825 -7.89612631 1.59208390
VERTEX2 992 11.00614678 -7.31510867 1.56039308
VERTEX2 993 11.00677545 -6.70514125 1.59414443
VERTEX2 994 11.00351081 -6.12630466 1.58527979
VERTEX2 995 10.98445002 -5.56533986 1.63417450
VERTEX2 996 10.93843351 -4.98896647 1.66285430
VERTEX2 997 10.90611214 -4.37450984 1.60009610
VERTEX2 998 10.89355757 -4.00279069 1.62347235
VERTEX2 999 10.94279164 -4.04346809 2.34658398
VERTEX2 1000 10.50424999 -3.69693549 2.49750764
VERTEX2 1001 10.09199149 -3.31706246 2.18020781
VERTEX2 1002 9.74697245 -2.87138595 2.27528324
VERTEX2 1003 9.41704962 -2.40069187 2.09848199
VERTEX2 1004 9.07975174 -1.87342772 2.15775030
VERTEX2 1005 8.72829715 -1.38880260 2.22126335
VERTEX2 1006 8.33310164 -0.91874790 2.29965607
VERTEX2 1007 7.91931819 -0.49875535 2.39225935
VERTEX2 1008 7.67744868 -0.28199517 2.55239418
VERTEX2 1009 7.58268433 -0.26855489 3.02709388
VERTEX2 1010 7.01326392 -0.21955313 3.08000359
VERTEX2 1011 6.39743630 -0.18866949 3.03703202
VERTEX2 1012 5.78951532 -0.13399209 3.07890515
VERTEX2 1013 5.15116149 -0.14479833 -3.08964575
VERTEX2 1014 4.53897623 -0.10453523 3.01769664
VERTEX2 1015 3.91897860 -0.07224029 3.10178232
VERTEX2 1016 3.15413216 -0.04319242 3.10809483
VERTEX2 1017 2.56423696 -0.03500930 3.05005754
VERTEX2 1018 2.00370736 0.02285006 3.05694295
VERTEX2 1019 1.41302320 0.04295882 3.11648757
VERTEX2 1020 0.80217909 0.07432180 3.10250799
VERTEX2 1021 0.18537546 0.09884417 3.06184471
VERTEX2 1022 0.13665783 0.10255727 3.05455733
VERTEX2 1023 0.14194120 0.10248696 3.14078981
VERTEX2 1024 -0.48673296 0.10618658 -3.11640880
VERTEX2 1025 -1.11779829 0.07168705 -3.09919912
VERTEX2 1026 -1.27605233 0.06545922 -3.09183715
VERTEX2 1027 -1.25885578 0.07400948 -2.17462719
VERTEX2 1028 -1.27120662 -0.09555768 -1.61072425
VERTEX2 1029 -1.29627247 -0.66514556 -1.63210349
VERTEX2 1030 -1.35579483 -1.28359001 -1.71264712
VERTEX2 1031 -1.46431192 -1.92696587 -1.76688543
VERTEX2 1032 -1.59064351 -2.57109979 -1.76260950
VERTEX2 1033 -1.72784075 -3.20635953 -1.80781648
VERTEX2 1034 -1.76886339 -3.36756060 -2.02167081
VERTEX2 1035 -1.76360665 -3.36314750 -2.64027125
VERTEX2 1036 -1.73659298 -3.37536311 3.07281790
VERTEX2 1037 -2.08521563 -3.24543596 2.83480145
VERTEX2 1038 -2.70223326 -3.12651339 2.92636798
VERTEX2 1039 -3.34053603 -2.96273469 2.89463493
VERTEX2 1040 -3.31202961 -2.96318205 -2.75905836
VERTEX2 1041 -3.28928208 -2.96599803 -1.74327052
VERTEX2 1042 -3.29058395 -2.99314692 -0.75662652
VERTEX2 1043 -3.25897030 -3.02194544 0.21167438
VERTEX2 1044 -3.26913374 -3.03409628 1.20415847
VERTEX2 1045 -3.26916306 -3.03416188 1.08984626
VERTEX2 1046 -3.27355985 -3.04011801 0.70390127
VERTEX2 1047 -3.28833856 -3.04660404 0.14761489
VERTEX2 1048 -2.92896731 -3.11418019 -0.16578074
VERTEX2 1049 -2.28609845 -3.21031183 -0.14890240
VERTEX2 1050 -1.64104530 -3.27903278 -0.07357876
VERTEX2 1051 -0.99618360 -3.34995290 -0.15277279
VERTEX2 1052 -0.37457765 -3.42964452 -0.09966478
VERTEX2 1053 0.04041852 -3.48309601 -0.15215836
VERTEX2 1054 0.06376894 -3.48551737 0.61076368
VERTEX2 1055 0.07164666 -3.44763466 1.66917386
VERTEX2 1056 0.07523834 -3.45251986 2.67459181
VERTEX2 1057 0.09746736 -3.45482530 -2.61712003
VERTEX2 1058 0.10291058 -3.44836770 -1.69406293
VERTEX2 1059 0.01035499 -4.02516364 -1.77498877
VERTEX2 1060 -0.12049256 -4.64973830 -1.77013046
VERTEX2 1061 -0.22233452 -5.08643650 -1.89274385
VERTEX2 1062 -0.22045232 -5.08356784 -2.45577408
VERTEX2 1063 -0.19536827 -5.06893776 -3.05224410
VERTEX2 1064 -0.48075354 -5.01777480 2.96650830
VERTEX2 1065 -1.06954147 -4.95561790 3.08969067
VERTEX2 1066 -1.63334214 -4.90867607 3.03469812
VERTEX2 1067 -1.62574756 -4.90818016 -2.81401478
VERTEX2 1068 -1.61481044 -4.90024370 -2.13876103
VERTEX2 1069 -1.61275295 -4.89434984 -1.96720387
VERTEX2 1070 -1.60997671 -4.88920922 -2.50411585
VERTEX2 1071 -2.07936177 -5.15557972 -2.63020734
VERTEX2 1072 -2.52731472 -5.39863421 -2.69783514
VERTEX2 1073 -2.50534094 -5.39756833 3.07629899
VERTEX2 1074 -3.04478653 -5.33731380 3.04292386
VERTEX2 1075 -3.63960086 -5.27348150 3.06003659
VERTEX2 1076 -3.70296026 -5.26974250 -2.80966830
VERTEX2 1077 -3.71184629 -5.28814391 -1.98767684
VERTEX2 1078 -3.91690522 -5.89736453 -1.93755654
VERTEX2 1079 -4.11551557 -6.46513054 -1.87013095
VERTEX2 1080 4.20742601 -14.88470137 -0.20720065
VERTEX2 1081 4.71576167 -15.06052448 -0.32445057
VERTEX2 1082 4.93181477 -15.13109819 -0.03557263
VERTEX2 1083 8.94518855 -20.01608217 -2.35047308
VERTEX2 1084 8.94506997 -20.02642587 -1.35890865
VERTEX2 1085 8.97401099 -20.05918896 -0.37980332
VERTEX2 1086 9.57156707 -20.15906995 -0.15050379
VERTEX2 1087 10.19432849 -20.26921311 -0.16316251
VERTEX2 1088 10.81032134 -20.36082876 -0.18028685
VERTEX2 1089 10.90453168 -20.37877513 -0.27819502
VERTEX2 1090 8.00097239 -26.29712327 2.05928219
VERTEX2 1091 7.82458249 -25.79032210 1.87874631
VERTEX2 1092 7.64266682 -25.19679946 1.86067595
VERTEX2 1093 7.49313037 -24.64510907 1.79247433
VERTEX2 1094 16.61815676 -23.99555456 -0.62920599
VERTEX2 1095 16.64332332 -24.02750046 -1.22102110
VERTEX2 1096 16.64468158 -24.06314699 -1.79427248
VERTEX2 1097 16.48097277 -24.41641907 -2.01088009
VERTEX2 1098 16.17198389 -25.01896279 -2.06853119
VERTEX2 1099 15.85373635 -25.55177366 -2.16659181
VERTEX2 1100 15.83344416 -25.58397515 -1.80657620
VERTEX2 1101 15.84173907 -25.87389657 -1.54329752
VERTEX2 1102 15.83329981 -25.90372948 -1.94020318
VERTEX2 1103 15.58064687 -26.49721367 -1.97573164
VERTEX2 1104 15.27307080 -27.19802308 -2.00127148
VERTEX2 1105 14.94934707 -27.88180145 -2.01696705
VERTEX2 1106 14.68263815 -28.42948487 -2.03990143
VERTEX2 1107 1.43681684 -20.50097651 0.48479811
VERTEX2 1108 1.88816845 -20.22421776 0.48725693
VERTEX2 1109 2.40020965 -20.00106561 0.37709528
VERTEX2 1110 2.88393907 -19.81657494 0.32216897
VERTEX2 1111 3.35459327 -19.73590879 0.21525178
VERTEX2 1112 3.79394812 -19.54118277 0.55330901
VERTEX2 1113 4.25705617 -19.27365853 0.45252086
VERTEX2 1114 4.72250981 -19.04909519 0.46510716
VERTEX2 1115 5.15336673 -18.83221127 0.44457367
VERTEX2 1116 5.64162983 -18.58162250 0.47716922
VERTEX2 1117 5.63921852 -18.58283321 0.34503377
VERTEX2 1118 7.11779410 -20.83892244 -2.16407272
VERTEX2 1119 2.34242916 -8.26117686 -0.18240036
VERTEX2 1120 2.94083298 -8.41774405 -0.24724411
VERTEX2 1121 3.15308680 -8.47613669 -0.36718829
VERTEX2 1122 3.15624833 -8.48048540 -0.92016809
VERTEX2 1123 3.50673514 -8.95456730 -0.90440353
VERTEX2 1124 3.89727281 -9.38830565 -0.80707158
VERTEX2 1125 4.34522958 -9.85897028 -0.79481781
VERTEX2 1126 4.41235189 -9.92456669 -0.45730049
VERTEX2 1127 -5.33038494 -14.52963170 -1.93204361
VERTEX2 1128 -5.32260826 -14.49330471 -0.94688003
VERTEX2 1129 -5.35126535 -14.47697735 0.06649620
VERTEX2 1130 -4.79363461 -14.42108114 0.07957940
VERTEX2 1131 -4.06351064 -14.54686042 -0.35368361
VERTEX2 1132 -3.49579782 -14.75778265 -0.37421437
VERTEX2 1133 -2.99303772 -14.97612335 -0.41374958
VERTEX2 1134 -2.78253222 -15.06861534 -0.51172075
VERTEX2 1135 -2.80727213 -15.04344019 -1.06972262
VERTEX2 1136 -2.79746194 -15.02408845 -1.63369005
VERTEX2 1137 -2.85244607 -15.29337273 -1.81875382
VERTEX2 1138 -3.01668261 -15.89314689 -1.83565831
VERTEX2 1139 -3.14871787 -16.38680636 -1.90878963
VERTEX2 1140 -3.13876778 -16.36459896 -2.38759549
VERTEX2 1141 -3.11682183 -16.34436095 -2.93480557
VERTEX2 1142 -3.47632673 -16.29162325 2.98420185
VERTEX2 1143 -4.07073858 -16.22907490 3.07368246
VERTEX2 1144 -4.64843678 -16.17928675 3.04313493
VERTEX2 1145 -5.22336126 -16.11831990 3.01773160
VERTEX2 1146 -5.79556457 -16.04576949 3.03753360
VERTEX2 1147 -6.37258637 -16.02004415 3.11029906
VERTEX2 1148 -6.94996280 -16.00171207 3.12043796
VERTEX2 1149 -6.99191653 -16.00184516 -2.66425279
VERTEX2 1150 -7.08132559 -16.09486416 -1.86513002
VERTEX2 1151 -7.07646399 -16.13026939 -0.87870388
VERTEX2 1152 -7.04089055 -16.13292638 0.15600841
VERTEX2 1153 -7.01793712 -16.12459852 1.15123559
VERTEX2 1154 -7.04556603 -15.82662188 1.68753676
VERTEX2 1155 -7.11200798 -15.20634822 1.63383095
VERTEX2 1156 -7.14290074 -14.60679504 1.63995290
VERTEX2 1157 -7.20413198 -14.03964969 1.74639524
VERTEX2 1158 -7.25848176 -13.44108080 1.61301740
VERTEX2 1159 -7.24595954 -12.84181491 1.51293931
VERTEX2 1160 -7.18682957 -12.20768775 1.36962481
VERTEX2 1161 -7.00181765 -11.59117852 1.27406703
VERTEX2 1162 -6.82146645 -10.97467709 1.32690078
VERTEX2 1163 -6.66339371 -10.33809067 1.31696870
VERTEX2 1164 -6.51730568 -9.70276902 1.39739720
VERTEX2 1165 -6.42541430 -9.16903238 1.37658389
VERTEX2 1166 -6.42612547 -9.15539836 1.86989668
VERTEX2 1167 -6.41280164 -9.15410442 2.81430928
VERTEX2 1168 -6.40282975 -9.15161333 -2.55794420
VERTEX2 1169 -6.41376386 -9.20327181 -1.72928969
VERTEX2 1170 -6.49749028 -9.78154792 -1.72042639
VERTEX2 1171 -6.57578489 -10.40896787 -1.68628230
VERTEX2 1172 -6.65257692 -11.00071530 -1.74608040
VERTEX2 1173 -6.75671852 -11.61589303 -1.73444664
VERTEX2 1174 -6.87364086 -12.23276930 -1.79960865
VERTEX2 1175 -7.03022006 -12.83695015 -1.82984201
VERTEX2 1176 -7.19063745 -13.43004272 -1.86914002
VERTEX2 1177 -7.36888368 -14.01018992 -1.86297429
VERTEX2 1178 -7.55649393 -14.59408396 -1.90568837
VERTEX2 1179 -7.74701171 -15.17027973 -1.87189862
VERTEX2 1180 -7.82004691 -15.40527145 -1.87467245
VERTEX2 1181 -7.81581658 -15.38572529 -1.03244902
VERTEX2 1182 -7.77607585 -15.39890407 -0.30794725
VERTEX2 1183 -7.18629114 -15.57831272 -0.27827447
VERTEX2 1184 -6.57777363 -15.72258822 -0.20372813
VERTEX2 1185 -5.97868738 -15.85779250 -0.23170868
VERTEX2 1186 -5.37451947 -15.97573574 -0.16093778
VERTEX2 1187 -4.74686799 -16.08283108 -0.19380178
VERTEX2 1188 -4.14282352 -16.19122771 -0.17141383
VERTEX2 1189 -3.46124494 -16.32394107 -0.14793078
VERTEX2 1190 -3.10980346 -16.37713133 -0.13838084
VERTEX2 1191 -3.05264728 -16.37728495 0.78728216
VERTEX2 1192 -3.04672374 -16.31303636 1.58955114
VERTEX2 1193 -3.02967930 -15.73439441 1.45871117
VERTEX2 1194 -2.98075252 -15.18195731 1.50205219
VERTEX2 1195 -2.94405633 -14.58073207 1.55577487
VERTEX2 1196 -2.93057033 -13.98211931 1.38428937
VERTEX2 1197 -2.82374148 -13.39102779 1.39645104
VERTEX2 1198 -2.74923384 -12.78878545 1.65676639
VERTEX2 1199 -2.76021843 -12.20209334 1.44349935
VERTEX2 1200 -2.70035150 -11.59674927 1.51363310
VERTEX2 1201 -2.67232314 -10.99990251 1.57051896
VERTEX2 1202 -2.67893756 -10.40876222 1.59405581
VERTEX2 1203 -2.70519692 -9.85079723 1.50481619
VERTEX2 1204 -2.59380208 -9.28831205 1.35880780
VERTEX2 1205 -2.48882998 -8.75479569 1.38902051
VERTEX2 1206 -2.40580698 -8.19501833 1.45096098
VERTEX2 1207 -2.27311263 -7.61272533 1.36564403
VERTEX2 1208 -2.16465248 -7.01745483 1.43110364
VERTEX2 1209 -2.08111297 -6.42612840 1.42988188
VERTEX2 1210 -2.01916247 -5.83954180 1.45121807
VERTEX2 1211 -1.89528289 -5.24184845 1.37861497
VERTEX2 1212 -1.78260206 -4.64503550 1.42896321
VERTEX2 1213 -1.71698365 -4.04915460 1.50267312
VERTEX2 1214 -1.63682365 -3.34140044 1.28068681
VERTEX2 1215 -1.47641547 -2.76886174 1.34033255
VERTEX2 1216 -1.42830622 -2.23097879 1.55864334
VERTEX2 1217 -1.39620687 -1.66660561 1.54022344
VERTEX2 1218 -1.38689685 -1.12831826 1.48927895
VERTEX2 1219 -1.34349087 -0.53014154 1.51964861
VERTEX2 1220 -1.34009280 0.00490593 1.61015679
VERTEX2 1221 -1.32428578 -0.04716889 1.15699539
VERTEX2 1222 -1.33538202 -0.05808646 0.55920618
VERTEX2 1223 -1.32139589 -0.05470049 0.00034973
VERTEX2 1224 -0.73090477 -0.14696893 -0.18178668
VERTEX2 1225 -0.11665437 -0.25662758 -0.16790516
VERTEX2 1226 -0.00668890 -0.27540232 -0.18454530
VERTEX2 1227 -0.00668890 -0.27540232 -0.18520730
