1 19 166 0.00295423 10 
2 19 172 0.00311682 10 
3 25 172 0.00318573 10 
4 25 178 0.00329752 10 
5 32 178 0.00330017 10 
6 32 183 0.00339005 10 
7 44 189 0.00350450 10 
8 44 195 0.00361643 10 
9 50 195 0.00361264 10 
10 50 201 0.00371938 10 
11 50 203 0.00377168 10 
12 61 203 0.00375937 10 
13 61 209 0.00387588 10 
14 67 209 0.00387466 10 
15 67 220 0.00407017 10 
16 81 220 0.00406858 10 
17 81 226 0.00418388 10 
18 87 226 0.00417295 10 
19 87 231 0.00427847 10 
20 94 231 0.00427015 10 
21 226 231 0.00426356 10 
22 94 241 0.00447176 10 
23 101 241 0.00447039 10 
24 101 247 0.00457919 10 
25 107 247 0.00458958 10 
26 107 254 0.00471321 10 
27 114 254 0.00471627 10 
28 107 256 0.00476800 10 
29 114 256 0.00477114 10 
30 107 258 0.00480994 10 
31 114 258 0.00480922 10 
32 121 266 0.00498154 10 
33 126 266 0.00499918 10 
34 126 272 0.00513675 10 
35 132 272 0.00514417 10 
36 132 278 0.00526321 10 
37 138 278 0.00525864 10 
38 138 284 0.00539549 10 
39 151 284 0.00540140 10 
40 151 291 0.00553531 10 
41 151 297 0.00564963 10 
42 157 297 0.00564901 10 
43 163 297 0.00566357 10 
44 166 297 0.00566386 10 
45 19 305 0.00593994 10 
46 157 305 0.00594230 10 
47 163 305 0.00599209 10 
48 166 305 0.00597122 10 
49 172 305 0.00601593 10 
50 19 315 0.00538504 9 
51 25 315 0.00605394 10 
52 172 315 0.00622184 10 
53 172 328 0.00628192 10 
54 19 337 0.00515326 8 
55 25 337 0.00651705 10 
56 172 337 0.00668447 10 
57 19 342 0.00658373 10 
58 25 342 0.00663312 10 
59 172 342 0.00340718 5 
60 178 342 0.00666049 10 
61 25 367 0.00347740 5 
62 32 367 0.00425917 6 
63 178 367 0.00421024 6 
64 183 367 0.00494806 7 
65 25 374 0.00724839 10 
66 32 374 0.00730814 10 
67 178 374 0.00523623 7 
68 183 374 0.00653737 9 
69 32 382 0.00592890 8 
70 183 382 0.00750857 10 
71 32 387 0.00755767 10 
72 183 387 0.00448986 6 
73 189 400 0.00788754 10 
74 189 414 0.00815609 10 
75 44 437 0.00861848 10 
76 195 437 0.00881889 10 
77 44 454 0.00890143 10 
78 189 454 0.00916659 10 
79 44 467 0.00917335 10 
80 50 467 0.00943210 10 
81 195 467 0.00944092 10 
82 195 484 0.00954011 10 
83 44 494 0.00673828 7 
84 50 494 0.00977204 10 
85 195 494 0.00999928 10 
86 201 494 0.01005415 10 
87 50 500 0.00991402 10 
88 201 500 0.01017453 10 
89 203 500 0.01018945 10 
90 61 508 0.01011103 10 
91 203 508 0.01035703 10 
92 209 508 0.01039299 10 
93 61 522 0.01038764 10 
94 203 522 0.01063011 10 
95 209 522 0.01096236 10 
96 61 528 0.01050816 10 
97 67 528 0.01082293 10 
98 81 528 0.01084224 10 
99 209 528 0.01084044 10 
100 220 528 0.01084184 10 
101 67 532 0.00844968 8 
102 81 532 0.01068554 10 
103 220 532 0.01095082 10 
104 67 556 0.01125692 10 
105 67 564 0.01129836 10 
106 81 564 0.01187290 10 
107 220 564 0.01149899 10 
108 67 567 0.01138736 10 
109 81 567 0.01167483 10 
110 220 567 0.01168528 10 
111 67 570 0.01152775 10 
112 81 570 0.01175304 10 
113 220 570 0.01174013 10 
114 81 575 0.01188169 10 
115 220 575 0.01187773 10 
116 81 588 0.01184935 10 
117 87 588 0.01216459 10 
118 226 588 0.01220575 10 
119 87 597 0.01209589 10 
120 94 597 0.01239164 10 
121 226 597 0.01243115 10 
122 87 604 0.01225330 10 
123 94 604 0.01255153 10 
124 94 616 0.00991902 8 
125 94 632 0.01283596 10 
126 94 637 0.01289182 10 
127 101 637 0.01322480 10 
128 101 642 0.01300239 10 
129 107 642 0.01331171 10 
130 101 645 0.01306793 10 
131 107 645 0.01341322 10 
132 101 657 0.01330389 10 
133 101 663 0.01198134 9 
134 107 663 0.01344459 10 
135 114 663 0.01396718 10 
136 101 665 0.01367553 10 
137 107 665 0.01401742 10 
138 114 665 0.01401587 10 
139 107 680 0.01397804 10 
140 107 683 0.01406314 10 
141 114 683 0.01439362 10 
142 107 704 0.01445580 10 
143 114 704 0.01479266 10 
144 107 714 0.01464160 10 
145 114 714 0.01497787 10 
146 107 730 0.01182585 8 
147 114 730 0.01495417 10 
148 121 754 0.01534543 10 
149 126 754 0.01577631 10 
150 121 759 0.01552595 10 
151 126 759 0.01592331 10 
152 126 762 0.01559448 10 
153 132 762 0.01602972 10 
154 132 778 0.01594596 10 
155 132 792 0.01617142 10 
156 132 800 0.01638017 10 
157 138 800 0.01680035 10 
158 138 806 0.01651798 10 
159 138 821 0.01680710 10 
160 138 823 0.01674048 10 
161 151 828 0.01696113 10 
162 151 847 0.01731863 10 
163 151 855 0.01745074 10 
164 151 895 0.01828039 10 
165 151 897 0.01858813 10 
166 138 903 0.01841201 10 
167 138 904 0.01884232 10 
168 132 907 0.01850215 10 
169 138 907 0.01894259 10 
170 132 911 0.01860175 10 
171 121 923 0.01906694 10 
172 126 923 0.01930141 10 
173 107 929 0.01906950 10 
174 114 929 0.01953345 10 
175 107 935 0.02023202 10 
176 114 935 0.01967786 10 
177 101 939 0.01917686 10 
178 107 939 0.01917527 10 
179 101 944 0.01940220 10 
180 94 947 0.01946883 10 
181 101 947 0.01992260 10 
182 87 953 0.01964200 10 
183 94 953 0.02009751 10 
184 226 953 0.02012018 10 
185 81 959 0.01984279 10 
186 87 959 0.02029689 10 
187 220 959 0.02038198 10 
188 226 959 0.02035169 10 
189 67 965 0.02001361 10 
190 81 965 0.02050611 10 
191 220 965 0.02051252 10 
192 61 976 0.02024497 10 
193 67 976 0.02077280 10 
194 209 976 0.02074959 10 
195 50 982 0.02045451 10 
196 61 982 0.02090277 10 
197 201 982 0.02096254 10 
198 203 982 0.02142901 10 
199 44 988 0.02068570 10 
200 50 988 0.02137444 10 
201 195 988 0.02118135 10 
202 201 988 0.01685452 8 
203 44 994 0.02080794 10 
204 189 994 0.02139673 10 
205 195 994 0.02141907 10 
206 32 1003 0.02112924 10 
207 178 1003 0.02163151 10 
208 183 1003 0.02165796 10 
209 25 1008 0.02137061 10 
210 32 1008 0.02178053 10 
211 178 1008 0.02180993 10 
212 183 1008 0.02189263 10 
213 25 1010 0.02144041 10 
214 32 1010 0.02183817 10 
215 172 1010 0.02197909 10 
216 178 1010 0.02196994 10 
217 19 1016 0.02150423 10 
218 166 1016 0.02189257 10 
219 172 1016 0.01961171 9 
220 151 1029 0.02198924 10 
221 157 1029 0.02218119 10 
222 163 1029 0.02222891 10 
223 166 1029 0.02222699 10 
224 132 1084 0.02315779 10 
225 101 1138 0.02402043 10 
226 107 1147 0.02419747 10 
227 114 1147 0.02480765 10 
228 107 1150 0.02429426 10 
229 114 1150 0.02492164 10 
230 114 1158 0.02449514 10 
231 121 1158 0.02511659 10 
232 121 1164 0.02482625 10 
233 126 1164 0.02548621 10 
234 114 1175 0.02496008 10 
235 121 1175 0.02552671 10 
236 923 1175 0.02556898 10 
237 929 1175 0.02552085 10 
238 1158 1175 0.01783367 7 
239 101 1188 0.02521178 10 
240 939 1188 0.02582448 10 
241 1138 1188 0.02586341 10 
242 1147 1188 0.02599553 10 
243 1150 1188 0.02594261 10 
244 1050 1210 0.02580378 10 
245 1061 1210 0.02643002 10 
246 1075 1210 0.02642835 10 
247 1084 1210 0.02645368 10 
248 1088 1210 0.02642248 10 
249 1093 1210 0.02647343 10 
250 1098 1210 0.02648222 10 
251 157 1217 0.02599444 10 
252 163 1217 0.02689511 10 
253 1029 1217 0.02685653 10 
254 1044 1217 0.02694753 10 
255 1050 1217 0.02714592 10 
256 1056 1217 0.02698396 10 
